,date,county,state,fips,cases,deaths
749703,2020-11-20,Allegany,Maryland,24001.0,2115,46
749704,2020-11-20,Anne Arundel,Maryland,24003.0,15115,291
749705,2020-11-20,Baltimore,Maryland,24005.0,26112,701
749706,2020-11-20,Baltimore city,Maryland,24510.0,22030,533
749707,2020-11-20,Calvert,Maryland,24009.0,1440,31
749708,2020-11-20,Caroline,Maryland,24011.0,844,9
749710,2020-11-20,Cecil,Maryland,24015.0,1796,37
749711,2020-11-20,Charles,Maryland,24017.0,3940,104
749713,2020-11-20,Frederick,Maryland,24021.0,5952,144
749714,2020-11-20,Garrett,Maryland,24023.0,447,3
749715,2020-11-20,Harford,Maryland,24025.0,5189,89
749716,2020-11-20,Howard,Maryland,24027.0,7207,134
749718,2020-11-20,Montgomery,Maryland,24031.0,30621,922
749719,2020-11-20,Prince George's,Maryland,24033.0,38077,902
749720,2020-11-20,Queen Anne's,Maryland,24035.0,991,27
749722,2020-11-20,St. Mary's,Maryland,24037.0,1851,60
749723,2020-11-20,Talbot,Maryland,24041.0,733,7
749726,2020-11-20,Wicomico,Maryland,24045.0,3071,55
