,date,county,state,fips,cases,deaths
750171,2020-11-20,Antelope,Nebraska,31003.0,291,1
727451,2020-11-13,Arthur,Nebraska,31005.0,14,0
750173,2020-11-20,Banner,Nebraska,31007.0,13,0
750176,2020-11-20,Box Butte,Nebraska,31013.0,517,3
750179,2020-11-20,Buffalo,Nebraska,31019.0,3185,33
750180,2020-11-20,Burt,Nebraska,31021.0,359,1
750184,2020-11-20,Chase,Nebraska,31029.0,244,2
750185,2020-11-20,Cherry,Nebraska,31031.0,161,4
750186,2020-11-20,Cheyenne,Nebraska,31033.0,398,2
750188,2020-11-20,Colfax,Nebraska,31037.0,1222,10
750189,2020-11-20,Cuming,Nebraska,31039.0,543,3
750192,2020-11-20,Dawes,Nebraska,31045.0,420,10
750193,2020-11-20,Dawson,Nebraska,31047.0,1828,18
750195,2020-11-20,Dixon,Nebraska,31051.0,344,3
750197,2020-11-20,Douglas,Nebraska,31055.0,35272,295
750198,2020-11-20,Dundy,Nebraska,31057.0,53,2
750201,2020-11-20,Frontier,Nebraska,31063.0,96,1
750202,2020-11-20,Furnas,Nebraska,31065.0,216,3
750203,2020-11-20,Gage,Nebraska,31067.0,1132,9
743710,2020-11-18,Garden,Nebraska,31069.0,69,0
750206,2020-11-20,Gosper,Nebraska,31073.0,101,1
750208,2020-11-20,Greeley,Nebraska,31077.0,109,0
750212,2020-11-20,Hayes,Nebraska,31085.0,38,0
750213,2020-11-20,Hitchcock,Nebraska,31087.0,84,1
750214,2020-11-20,Holt,Nebraska,31089.0,486,9
746968,2020-11-19,Hooker,Nebraska,31091.0,42,1
750219,2020-11-20,Kearney,Nebraska,31099.0,448,0
750220,2020-11-20,Keith,Nebraska,31101.0,301,0
730744,2020-11-14,Keya Paha,Nebraska,31103.0,17,0
750222,2020-11-20,Kimball,Nebraska,31105.0,147,0
750224,2020-11-20,Lancaster,Nebraska,31109.0,14150,66
746980,2020-11-19,Loup,Nebraska,31115.0,27,0
750230,2020-11-20,Merrick,Nebraska,31121.0,410,3
750231,2020-11-20,Morrill,Nebraska,31123.0,275,4
750232,2020-11-20,Nance,Nebraska,31125.0,235,2
750234,2020-11-20,Nuckolls,Nebraska,31129.0,179,0
750235,2020-11-20,Otoe,Nebraska,31131.0,663,1
750240,2020-11-20,Platte,Nebraska,31141.0,2863,19
750242,2020-11-20,Red Willow,Nebraska,31145.0,507,3
750243,2020-11-20,Richardson,Nebraska,31147.0,290,2
750246,2020-11-20,Sarpy,Nebraska,31153.0,10021,55
750247,2020-11-20,Saunders,Nebraska,31155.0,1100,7
750248,2020-11-20,Scotts Bluff,Nebraska,31157.0,2493,13
750253,2020-11-20,Stanton,Nebraska,31167.0,178,0
750254,2020-11-20,Thayer,Nebraska,31169.0,208,1
