STATE_OR_REGION,2000_POPULATION,2010_POPULATION,2010_DENSITY,2010_RANK
Alabama,4447100,4779736,94.4,29
Alaska,626932,710231,1.2,52
Arizona,5130632,6392017,56.3,35
Arkansas,2673400,2915918,56,36
California,33871648,37253956,239.1,13
Colorado,4301261,5029196,48.5,39
Connecticut,3405565,3574097,738.1,6
Delaware,783600,897934,460.8,8
District of Columbia,572059,601723,"9,856.50",1
Florida,15982378,18801310,350.6,10
Georgia,8186453,9687653,168.4,20
Hawaii,1211537,1360301,211.8,15
Idaho,1293953,1567582,19,46
Illinois,12419293,12830632,231.1,14
Indiana,6080485,6483802,181,18
Iowa,2926324,3046355,54.5,38
Kansas,2688418,2853118,34.9,42
Kentucky,4041769,4339367,109.9,24
Louisiana,4468976,4533372,104.9,26
Maine,1274923,1328361,43.1,40
Maryland,5296486,5773552,594.8,7
Massachusetts,6349097,6547629,839.4,5
Michigan,9938444,9883640,174.8,19
Minnesota,4919479,5303925,66.6,33
Mississippi,2844658,2967297,63.2,34
Missouri,5595211,5988927,87.1,30
Montana,902195,989415,6.8,50
Nebraska,1711263,1826341,23.8,45
Nevada,1998257,2700551,24.6,44
New Hampshire,1235786,1316470,147,23
New Jersey,8414350,8791894,"1,195.50",2
New Mexico,1819046,2059179,17,47
New York,18976457,19378102,411.2,9
North Carolina,8049313,9535483,196.1,17
North Dakota,642200,672591,9.7,49
Ohio,11353140,11536504,282.3,12
Oklahoma,3450654,3751351,54.7,37
Oregon,3421399,3831074,39.9,41
Pennsylvania,12281054,12702379,283.9,11
Rhode Island,1048319,1052567,"1,018.10",4
South Carolina,4012012,4625364,153.9,22
South Dakota,754844,814180,10.7,48
Tennessee,5689283,6346105,153.9,21
Texas,20851820,25145561,96.3,28
Utah,2233169,2763885,33.6,43
Vermont,608827,625741,67.9,32
Virginia,7078515,8001024,202.6,16
Washington,5894121,6724540,101.2,27
West Virginia,1808344,1852994,77.1,31
Wisconsin,5363675,5686986,105,25
Wyoming,493782,563626,5.8,51
