,date,state,fips,cases,deaths
520,2020-03-11,New Mexico,35,4,0
567,2020-03-12,New Mexico,35,6,0
617,2020-03-13,New Mexico,35,10,0
668,2020-03-14,New Mexico,35,13,0
721,2020-03-15,New Mexico,35,17,0
774,2020-03-16,New Mexico,35,21,0
827,2020-03-17,New Mexico,35,23,0
881,2020-03-18,New Mexico,35,28,0
935,2020-03-19,New Mexico,35,35,0
989,2020-03-20,New Mexico,35,43,0
1043,2020-03-21,New Mexico,35,57,0
1097,2020-03-22,New Mexico,35,65,0
1151,2020-03-23,New Mexico,35,83,0
1205,2020-03-24,New Mexico,35,100,0
1259,2020-03-25,New Mexico,35,113,1
1313,2020-03-26,New Mexico,35,136,1
1367,2020-03-27,New Mexico,35,191,1
1421,2020-03-28,New Mexico,35,210,2
1476,2020-03-29,New Mexico,35,237,2
1531,2020-03-30,New Mexico,35,282,4
1586,2020-03-31,New Mexico,35,315,5
1641,2020-04-01,New Mexico,35,363,6
1696,2020-04-02,New Mexico,35,403,7
1751,2020-04-03,New Mexico,35,495,10
1806,2020-04-04,New Mexico,35,544,11
1861,2020-04-05,New Mexico,35,624,12
1916,2020-04-06,New Mexico,35,686,12
1971,2020-04-07,New Mexico,35,794,13
2026,2020-04-08,New Mexico,35,865,16
2081,2020-04-09,New Mexico,35,989,17
2136,2020-04-10,New Mexico,35,1090,19
2191,2020-04-11,New Mexico,35,1174,20
2246,2020-04-12,New Mexico,35,1245,26
2301,2020-04-13,New Mexico,35,1345,31
2356,2020-04-14,New Mexico,35,1407,36
2411,2020-04-15,New Mexico,35,1484,36
2466,2020-04-16,New Mexico,35,1597,44
2521,2020-04-17,New Mexico,35,1711,51
2576,2020-04-18,New Mexico,35,1798,53
2631,2020-04-19,New Mexico,35,1845,55
2686,2020-04-20,New Mexico,35,1971,58
2741,2020-04-21,New Mexico,35,2072,65
2796,2020-04-22,New Mexico,35,2210,71
2851,2020-04-23,New Mexico,35,2379,78
2906,2020-04-24,New Mexico,35,2524,84
2961,2020-04-25,New Mexico,35,2662,93
3016,2020-04-26,New Mexico,35,2728,99
3071,2020-04-27,New Mexico,35,2825,104
3126,2020-04-28,New Mexico,35,2975,110
3181,2020-04-29,New Mexico,35,3213,112
3236,2020-04-30,New Mexico,35,3411,123
3291,2020-05-01,New Mexico,35,3513,131
3346,2020-05-02,New Mexico,35,3732,139
3401,2020-05-03,New Mexico,35,3850,151
3456,2020-05-04,New Mexico,35,4030,156
3511,2020-05-05,New Mexico,35,4137,162
3566,2020-05-06,New Mexico,35,4290,169
3621,2020-05-07,New Mexico,35,4492,172
3676,2020-05-08,New Mexico,35,4673,181
3731,2020-05-09,New Mexico,35,4778,191
3786,2020-05-10,New Mexico,35,4863,200
3841,2020-05-11,New Mexico,35,5069,208
3896,2020-05-12,New Mexico,35,5212,219
3951,2020-05-13,New Mexico,35,5364,231
4006,2020-05-14,New Mexico,35,5503,242
4061,2020-05-15,New Mexico,35,5662,253
4116,2020-05-16,New Mexico,35,5847,259
4171,2020-05-17,New Mexico,35,5938,265
4226,2020-05-18,New Mexico,35,6096,270
4281,2020-05-19,New Mexico,35,6192,276
4336,2020-05-20,New Mexico,35,6338,283
4391,2020-05-21,New Mexico,35,6472,294
4446,2020-05-22,New Mexico,35,6625,302
4501,2020-05-23,New Mexico,35,6795,308
4556,2020-05-24,New Mexico,35,6943,317
4611,2020-05-25,New Mexico,35,7026,320
4666,2020-05-26,New Mexico,35,7130,325
4721,2020-05-27,New Mexico,35,7252,329
4776,2020-05-28,New Mexico,35,7364,335
4831,2020-05-29,New Mexico,35,7493,344
4886,2020-05-30,New Mexico,35,7624,351
4941,2020-05-31,New Mexico,35,7689,356
4996,2020-06-01,New Mexico,35,7800,362
5051,2020-06-02,New Mexico,35,8024,367
5106,2020-06-03,New Mexico,35,8140,375
5161,2020-06-04,New Mexico,35,8353,383
5216,2020-06-05,New Mexico,35,8672,387
5271,2020-06-06,New Mexico,35,8800,392
5326,2020-06-07,New Mexico,35,8940,396
5381,2020-06-08,New Mexico,35,9062,400
5436,2020-06-09,New Mexico,35,9105,404
5491,2020-06-10,New Mexico,35,9250,410
5546,2020-06-11,New Mexico,35,9368,421
5601,2020-06-12,New Mexico,35,9526,426
5656,2020-06-13,New Mexico,35,9621,431
5711,2020-06-14,New Mexico,35,9723,435
5766,2020-06-15,New Mexico,35,9845,440
5821,2020-06-16,New Mexico,35,9933,447
5876,2020-06-17,New Mexico,35,10065,452
5931,2020-06-18,New Mexico,35,10153,456
5986,2020-06-19,New Mexico,35,10260,464
6041,2020-06-20,New Mexico,35,10430,466
6096,2020-06-21,New Mexico,35,10565,469
6151,2020-06-22,New Mexico,35,10694,469
6206,2020-06-23,New Mexico,35,10838,476
6261,2020-06-24,New Mexico,35,10990,480
6316,2020-06-25,New Mexico,35,11192,485
6371,2020-06-26,New Mexico,35,11408,489
6426,2020-06-27,New Mexico,35,11619,491
6481,2020-06-28,New Mexico,35,11809,492
6536,2020-06-29,New Mexico,35,11982,493
6591,2020-06-30,New Mexico,35,12147,497
6646,2020-07-01,New Mexico,35,12276,500
6701,2020-07-02,New Mexico,35,12520,503
6756,2020-07-03,New Mexico,35,12776,511
6811,2020-07-04,New Mexico,35,13063,513
6866,2020-07-05,New Mexico,35,13256,513
6921,2020-07-06,New Mexico,35,13507,515
6976,2020-07-07,New Mexico,35,13727,519
7031,2020-07-08,New Mexico,35,14017,527
7086,2020-07-09,New Mexico,35,14251,533
7141,2020-07-10,New Mexico,35,14549,539
7196,2020-07-11,New Mexico,35,14773,543
7251,2020-07-12,New Mexico,35,15028,545
7306,2020-07-13,New Mexico,35,15291,548
7361,2020-07-14,New Mexico,35,15514,551
7416,2020-07-15,New Mexico,35,15841,557
7471,2020-07-16,New Mexico,35,16138,562
7526,2020-07-17,New Mexico,35,16456,565
7581,2020-07-18,New Mexico,35,16736,569
7636,2020-07-19,New Mexico,35,16971,571
7691,2020-07-20,New Mexico,35,17215,578
7746,2020-07-21,New Mexico,35,17517,588
7801,2020-07-22,New Mexico,35,17828,591
7856,2020-07-23,New Mexico,35,18163,596
7911,2020-07-24,New Mexico,35,18475,601
7966,2020-07-25,New Mexico,35,18788,607
8021,2020-07-26,New Mexico,35,19053,614
8076,2020-07-27,New Mexico,35,19502,619
8131,2020-07-28,New Mexico,35,19791,626
8186,2020-07-29,New Mexico,35,20136,632
8241,2020-07-30,New Mexico,35,20388,635
8296,2020-07-31,New Mexico,35,20600,642
8351,2020-08-01,New Mexico,35,20796,651
8406,2020-08-02,New Mexico,35,21016,654
8461,2020-08-03,New Mexico,35,21130,655
8516,2020-08-04,New Mexico,35,21340,658
8571,2020-08-05,New Mexico,35,21566,667
8626,2020-08-06,New Mexico,35,21773,669
8681,2020-08-07,New Mexico,35,21965,675
8736,2020-08-08,New Mexico,35,22115,681
8791,2020-08-09,New Mexico,35,22315,685
8846,2020-08-10,New Mexico,35,22444,690
8901,2020-08-11,New Mexico,35,22643,693
8956,2020-08-12,New Mexico,35,22816,695
9011,2020-08-13,New Mexico,35,22987,697
9066,2020-08-14,New Mexico,35,23160,703
9121,2020-08-15,New Mexico,35,23302,711
9176,2020-08-16,New Mexico,35,23408,714
9231,2020-08-17,New Mexico,35,23500,718
9286,2020-08-18,New Mexico,35,23579,723
9341,2020-08-19,New Mexico,35,23749,729
9396,2020-08-20,New Mexico,35,23951,734
9451,2020-08-21,New Mexico,35,24095,739
9506,2020-08-22,New Mexico,35,24302,743
9561,2020-08-23,New Mexico,35,24396,745
9616,2020-08-24,New Mexico,35,24469,747
9671,2020-08-25,New Mexico,35,24535,750
9726,2020-08-26,New Mexico,35,24732,755
9781,2020-08-27,New Mexico,35,24920,764
9836,2020-08-28,New Mexico,35,25042,767
9891,2020-08-29,New Mexico,35,25178,769
9946,2020-08-30,New Mexico,35,25283,770
10001,2020-08-31,New Mexico,35,25352,779
10056,2020-09-01,New Mexico,35,25460,787
10111,2020-09-02,New Mexico,35,25612,790
10166,2020-09-03,New Mexico,35,25812,791
10221,2020-09-04,New Mexico,35,25902,794
10276,2020-09-05,New Mexico,35,26048,800
10331,2020-09-06,New Mexico,35,26107,803
10386,2020-09-07,New Mexico,35,26144,807
10441,2020-09-08,New Mexico,35,26181,807
10496,2020-09-09,New Mexico,35,26268,813
10551,2020-09-10,New Mexico,35,26429,816
10606,2020-09-11,New Mexico,35,26563,818
10661,2020-09-12,New Mexico,35,26661,821
10716,2020-09-13,New Mexico,35,26761,823
10771,2020-09-14,New Mexico,35,26842,823
10826,2020-09-15,New Mexico,35,26923,830
10881,2020-09-16,New Mexico,35,27041,832
10936,2020-09-17,New Mexico,35,27199,836
10991,2020-09-18,New Mexico,35,27350,841
11046,2020-09-19,New Mexico,35,27512,847
11101,2020-09-20,New Mexico,35,27579,849
11156,2020-09-21,New Mexico,35,27683,851
11211,2020-09-22,New Mexico,35,27790,854
11266,2020-09-23,New Mexico,35,27987,857
11321,2020-09-24,New Mexico,35,28224,859
11376,2020-09-25,New Mexico,35,28487,865
11431,2020-09-26,New Mexico,35,28692,870
11486,2020-09-27,New Mexico,35,28844,870
11541,2020-09-28,New Mexico,35,28985,873
11596,2020-09-29,New Mexico,35,29157,875
11651,2020-09-30,New Mexico,35,29435,877
11706,2020-10-01,New Mexico,35,29661,882
11761,2020-10-02,New Mexico,35,30000,887
11816,2020-10-03,New Mexico,35,30296,890
11871,2020-10-04,New Mexico,35,30477,892
11926,2020-10-05,New Mexico,35,30632,894
11981,2020-10-06,New Mexico,35,30947,894
12036,2020-10-07,New Mexico,35,31372,896
12091,2020-10-08,New Mexico,35,31756,899
12146,2020-10-09,New Mexico,35,32241,902
12201,2020-10-10,New Mexico,35,32722,907
12256,2020-10-11,New Mexico,35,32983,911
12311,2020-10-12,New Mexico,35,33362,915
12366,2020-10-13,New Mexico,35,33713,918
12421,2020-10-14,New Mexico,35,34290,921
12476,2020-10-15,New Mexico,35,34958,922
12531,2020-10-16,New Mexico,35,35770,928
12586,2020-10-17,New Mexico,35,36343,929
12641,2020-10-18,New Mexico,35,36788,934
12696,2020-10-19,New Mexico,35,37302,935
12751,2020-10-20,New Mexico,35,37896,942
12806,2020-10-21,New Mexico,35,38715,950
12861,2020-10-22,New Mexico,35,39377,953
12916,2020-10-23,New Mexico,35,40168,960
12971,2020-10-24,New Mexico,35,41040,965
13026,2020-10-25,New Mexico,35,41863,967
13081,2020-10-26,New Mexico,35,42586,976
13136,2020-10-27,New Mexico,35,43169,980
13191,2020-10-28,New Mexico,35,43826,991
13246,2020-10-29,New Mexico,35,44904,994
13301,2020-10-30,New Mexico,35,45909,1007
13356,2020-10-31,New Mexico,35,46490,1018
13411,2020-11-01,New Mexico,35,47232,1026
13466,2020-11-02,New Mexico,35,48104,1036
13521,2020-11-03,New Mexico,35,49240,1045
13576,2020-11-04,New Mexico,35,50251,1059
13631,2020-11-05,New Mexico,35,51110,1082
13686,2020-11-06,New Mexico,35,52394,1088
13741,2020-11-07,New Mexico,35,53671,1104
13796,2020-11-08,New Mexico,35,54881,1118
13851,2020-11-09,New Mexico,35,56289,1130
13906,2020-11-10,New Mexico,35,57547,1144
13961,2020-11-11,New Mexico,35,59034,1158
14016,2020-11-12,New Mexico,35,60776,1176
14071,2020-11-13,New Mexico,35,62006,1198
14126,2020-11-14,New Mexico,35,63171,1208
14181,2020-11-15,New Mexico,35,64201,1215
14236,2020-11-16,New Mexico,35,65454,1236
14291,2020-11-17,New Mexico,35,67559,1264
14346,2020-11-18,New Mexico,35,70452,1290
14401,2020-11-19,New Mexico,35,74116,1302
14456,2020-11-20,New Mexico,35,77098,1327
