,Level,Date,State FIPS,State Postal Code,County FIPS,County Name,Population Staying at Home,Population Not Staying at Home,Number of Trips,Number of Trips <1,Number of Trips 1-3,Number of Trips 3-5,Number of Trips 5-10,Number of Trips 10-25,Number of Trips 25-50,Number of Trips 50-100,Number of Trips 100-250,Number of Trips 250-500,Number of Trips >=500
2903,County,2020/01/01,51.0,VA,51175.0,Southampton County,3008.0,14578.0,65877.0,13309.0,13967.0,9890.0,10346.0,8844.0,6269.0,2683.0,522.0,25.0,22.0
4123,County,2020/01/02,51.0,VA,51175.0,Southampton County,2323.0,15263.0,72389.0,17239.0,13548.0,6654.0,11319.0,11192.0,7266.0,4758.0,384.0,0.0,29.0
8883,County,2020/01/03,51.0,VA,51175.0,Southampton County,2485.0,15101.0,73306.0,12691.0,15975.0,8672.0,11799.0,10403.0,9577.0,3866.0,299.0,19.0,5.0
10319,County,2020/01/04,51.0,VA,51175.0,Southampton County,2598.0,14988.0,71940.0,17113.0,16682.0,8968.0,8935.0,9574.0,6970.0,3116.0,450.0,120.0,12.0
15678,County,2020/01/05,51.0,VA,51175.0,Southampton County,2908.0,14678.0,59879.0,10267.0,11031.0,7354.0,10441.0,12648.0,4670.0,2648.0,768.0,24.0,28.0
17453,County,2020/01/06,51.0,VA,51175.0,Southampton County,2387.0,15199.0,72349.0,15996.0,11768.0,6388.0,11574.0,14619.0,7003.0,4687.0,256.0,40.0,18.0
20610,County,2020/01/07,51.0,VA,51175.0,Southampton County,2447.0,15139.0,72366.0,15893.0,14977.0,7524.0,9370.0,13898.0,7133.0,3250.0,266.0,55.0,0.0
23889,County,2020/01/08,51.0,VA,51175.0,Southampton County,2303.0,15283.0,75149.0,17968.0,12794.0,8030.0,11520.0,11459.0,8329.0,4680.0,293.0,55.0,21.0
28589,County,2020/01/09,51.0,VA,51175.0,Southampton County,2348.0,15238.0,76989.0,15750.0,16113.0,6521.0,11647.0,14253.0,8956.0,3570.0,145.0,18.0,16.0
30182,County,2020/01/10,51.0,VA,51175.0,Southampton County,2298.0,15288.0,84167.0,18077.0,17942.0,7677.0,12829.0,13678.0,8745.0,4941.0,241.0,37.0,0.0
34990,County,2020/01/11,51.0,VA,51175.0,Southampton County,2527.0,15059.0,77770.0,17725.0,16875.0,7641.0,12156.0,12169.0,6392.0,4271.0,511.0,19.0,11.0
38111,County,2020/01/12,51.0,VA,51175.0,Southampton County,2762.0,14824.0,66517.0,15327.0,14905.0,6596.0,10778.0,9993.0,5409.0,2909.0,514.0,80.0,6.0
41356,County,2020/01/13,51.0,VA,51175.0,Southampton County,2399.0,15187.0,74258.0,16065.0,14692.0,8973.0,10143.0,12863.0,7159.0,3926.0,392.0,35.0,10.0
44555,County,2020/01/14,51.0,VA,51175.0,Southampton County,2348.0,15238.0,70442.0,14261.0,14622.0,6584.0,9567.0,13360.0,8022.0,3688.0,267.0,66.0,5.0
46136,County,2020/01/15,51.0,VA,51175.0,Southampton County,2329.0,15257.0,78385.0,17858.0,16889.0,7088.0,10593.0,13131.0,8220.0,4308.0,253.0,35.0,10.0
49290,County,2020/01/16,51.0,VA,51175.0,Southampton County,2233.0,15353.0,76878.0,14428.0,16794.0,8774.0,11402.0,12487.0,8309.0,4266.0,335.0,52.0,31.0
52544,County,2020/01/17,51.0,VA,51175.0,Southampton County,2255.0,15331.0,77487.0,14625.0,13417.0,7820.0,10656.0,16386.0,8748.0,5435.0,308.0,87.0,5.0
57327,County,2020/01/18,51.0,VA,51175.0,Southampton County,2425.0,15161.0,74679.0,17566.0,14525.0,8861.0,10266.0,11546.0,7709.0,3778.0,327.0,74.0,27.0
60525,County,2020/01/19,51.0,VA,51175.0,Southampton County,2614.0,14972.0,58895.0,9949.0,13018.0,8231.0,9070.0,10740.0,4435.0,2881.0,425.0,113.0,33.0
63687,County,2020/01/20,51.0,VA,51175.0,Southampton County,2556.0,15030.0,69971.0,12746.0,12775.0,6641.0,11809.0,13076.0,7847.0,4634.0,399.0,38.0,6.0
66885,County,2020/01/21,51.0,VA,51175.0,Southampton County,2364.0,15222.0,74600.0,16687.0,12277.0,8240.0,9659.0,13496.0,9816.0,4009.0,295.0,110.0,11.0
68516,County,2020/01/22,51.0,VA,51175.0,Southampton County,2170.0,15416.0,79764.0,17290.0,16046.0,8871.0,9913.0,14432.0,8763.0,3965.0,409.0,54.0,21.0
73309,County,2020/01/23,51.0,VA,51175.0,Southampton County,2120.0,15466.0,76063.0,14221.0,15995.0,9172.0,11573.0,12712.0,8355.0,3790.0,137.0,68.0,40.0
74896,County,2020/01/24,51.0,VA,51175.0,Southampton County,2147.0,15439.0,78361.0,17327.0,16371.0,7198.0,11855.0,13462.0,8054.0,3471.0,537.0,17.0,69.0
79650,County,2020/01/25,51.0,VA,51175.0,Southampton County,2518.0,15068.0,68766.0,13405.0,15585.0,9030.0,9605.0,10234.0,7293.0,3460.0,149.0,0.0,5.0
82752,County,2020/01/26,51.0,VA,51175.0,Southampton County,2728.0,14858.0,66598.0,14828.0,14492.0,7533.0,9256.0,10585.0,5891.0,3296.0,581.0,114.0,22.0
86061,County,2020/01/27,51.0,VA,51175.0,Southampton County,2234.0,15352.0,73209.0,15530.0,13731.0,8033.0,10761.0,12628.0,8794.0,3420.0,212.0,66.0,34.0
88267,County,2020/01/28,51.0,VA,51175.0,Southampton County,2231.0,15355.0,73070.0,15019.0,14951.0,7018.0,9693.0,13616.0,8403.0,3964.0,285.0,112.0,9.0
92469,County,2020/01/29,51.0,VA,51175.0,Southampton County,2074.0,15512.0,72735.0,16714.0,13758.0,6777.0,9819.0,12161.0,8608.0,4521.0,253.0,78.0,46.0
94194,County,2020/01/30,51.0,VA,51175.0,Southampton County,2223.0,15363.0,74430.0,17074.0,14593.0,6966.0,10513.0,12148.0,8096.0,4411.0,499.0,93.0,37.0
97249,County,2020/01/31,51.0,VA,51175.0,Southampton County,2011.0,15575.0,78059.0,14780.0,14983.0,7640.0,10532.0,15591.0,9516.0,4513.0,361.0,90.0,53.0
100498,County,2020/02/01,51.0,VA,51175.0,Southampton County,2281.0,15305.0,72817.0,14373.0,16448.0,7844.0,9210.0,11652.0,8198.0,4468.0,512.0,79.0,33.0
103627,County,2020/02/02,51.0,VA,51175.0,Southampton County,2790.0,14796.0,71936.0,14792.0,15644.0,7503.0,10597.0,14053.0,5987.0,2663.0,482.0,187.0,28.0
108461,County,2020/02/03,51.0,VA,51175.0,Southampton County,2080.0,15506.0,83100.0,16911.0,19787.0,9488.0,11850.0,13018.0,8185.0,3363.0,396.0,61.0,41.0
111597,County,2020/02/04,51.0,VA,51175.0,Southampton County,2034.0,15552.0,84413.0,19341.0,16338.0,9232.0,10939.0,14629.0,8404.0,4934.0,386.0,179.0,31.0
114800,County,2020/02/05,51.0,VA,51175.0,Southampton County,2124.0,15462.0,83021.0,16521.0,18088.0,9755.0,11128.0,14250.0,9251.0,3585.0,333.0,88.0,22.0
118006,County,2020/02/06,51.0,VA,51175.0,Southampton County,2019.0,15567.0,70183.0,13140.0,16246.0,8097.0,8600.0,12517.0,8013.0,3097.0,317.0,144.0,12.0
121261,County,2020/02/07,51.0,VA,51175.0,Southampton County,1814.0,15772.0,80194.0,15001.0,15561.0,9686.0,10646.0,15426.0,9012.0,4169.0,576.0,102.0,15.0
122880,County,2020/02/08,51.0,VA,51175.0,Southampton County,2280.0,15306.0,79970.0,14382.0,17610.0,8931.0,11419.0,14945.0,8627.0,3699.0,290.0,45.0,22.0
126918,County,2020/02/09,51.0,VA,51175.0,Southampton County,2754.0,14832.0,64052.0,10965.0,16812.0,7095.0,9150.0,11107.0,5893.0,2569.0,293.0,130.0,38.0
128068,County,2020/02/10,51.0,VA,51175.0,Southampton County,2017.0,15569.0,70805.0,13522.0,13815.0,6867.0,10551.0,14195.0,7612.0,3764.0,341.0,87.0,51.0
133530,County,2020/02/11,51.0,VA,51175.0,Southampton County,2025.0,15561.0,71147.0,14410.0,14092.0,6741.0,10688.0,12211.0,8383.0,3970.0,493.0,120.0,39.0
137169,County,2020/02/12,51.0,VA,51175.0,Southampton County,1890.0,15696.0,74361.0,13689.0,15767.0,8245.0,10752.0,13105.0,8443.0,3929.0,308.0,84.0,39.0
140343,County,2020/02/13,51.0,VA,51175.0,Southampton County,1838.0,15748.0,72412.0,12465.0,14269.0,7297.0,12011.0,12624.0,8853.0,4248.0,464.0,96.0,85.0
143546,County,2020/02/14,51.0,VA,51175.0,Southampton County,1824.0,15762.0,79871.0,14288.0,15218.0,7951.0,14158.0,14189.0,9442.0,3952.0,556.0,64.0,53.0
146750,County,2020/02/15,51.0,VA,51175.0,Southampton County,2225.0,15361.0,68763.0,11069.0,13878.0,8852.0,9383.0,12101.0,7489.0,5340.0,528.0,43.0,80.0
149952,County,2020/02/16,51.0,VA,51175.0,Southampton County,2642.0,14944.0,62819.0,12232.0,12741.0,7199.0,10073.0,10358.0,6640.0,2779.0,593.0,143.0,61.0
151583,County,2020/02/17,51.0,VA,51175.0,Southampton County,2534.0,15052.0,56098.0,10408.0,9671.0,5793.0,8349.0,9936.0,7320.0,4115.0,322.0,129.0,55.0
154696,County,2020/02/18,51.0,VA,51175.0,Southampton County,2021.0,15565.0,71238.0,13725.0,12874.0,7551.0,11564.0,12324.0,8368.0,4178.0,479.0,71.0,104.0
159506,County,2020/02/19,51.0,VA,51175.0,Southampton County,1799.0,15787.0,71942.0,11737.0,14497.0,7597.0,10217.0,14344.0,9005.0,3924.0,510.0,82.0,29.0
162750,County,2020/02/20,51.0,VA,51175.0,Southampton County,2087.0,15499.0,73547.0,14779.0,14400.0,7544.0,11047.0,12961.0,7933.0,4312.0,467.0,55.0,49.0
164329,County,2020/02/21,51.0,VA,51175.0,Southampton County,2436.0,15150.0,64859.0,10807.0,14439.0,7171.0,10087.0,12838.0,5521.0,3599.0,283.0,63.0,51.0
169090,County,2020/02/22,51.0,VA,51175.0,Southampton County,2195.0,15391.0,73266.0,13261.0,14597.0,7315.0,12127.0,11647.0,8412.0,5221.0,557.0,104.0,25.0
172288,County,2020/02/23,51.0,VA,51175.0,Southampton County,2278.0,15308.0,64311.0,10331.0,15828.0,8417.0,10041.0,11049.0,4558.0,3231.0,672.0,160.0,24.0
173914,County,2020/02/24,51.0,VA,51175.0,Southampton County,1925.0,15661.0,70595.0,11418.0,15154.0,7794.0,10122.0,12467.0,9212.0,3897.0,361.0,112.0,58.0
178573,County,2020/02/25,51.0,VA,51175.0,Southampton County,1721.0,15865.0,79409.0,13817.0,15769.0,10863.0,12525.0,12893.0,8582.0,4419.0,421.0,48.0,72.0
181766,County,2020/02/26,51.0,VA,51175.0,Southampton County,2335.0,15251.0,92507.0,13730.0,28438.0,12225.0,12078.0,16817.0,6756.0,1959.0,227.0,235.0,42.0
182890,County,2020/02/27,51.0,VA,51175.0,Southampton County,1852.0,15734.0,74448.0,13296.0,15751.0,9557.0,11510.0,12374.0,7779.0,3862.0,276.0,14.0,29.0
186829,County,2020/02/28,51.0,VA,51175.0,Southampton County,1779.0,15807.0,78247.0,12413.0,15105.0,9994.0,13739.0,13258.0,9541.0,3734.0,398.0,43.0,22.0
189833,County,2020/02/29,51.0,VA,51175.0,Southampton County,2123.0,15463.0,79950.0,13333.0,16846.0,9990.0,13283.0,12917.0,8654.0,4570.0,295.0,33.0,29.0
194666,County,2020/03/01,51.0,VA,51175.0,Southampton County,2511.0,15075.0,68861.0,10467.0,17258.0,10640.0,9991.0,10827.0,5372.0,3411.0,757.0,107.0,31.0
197870,County,2020/03/02,51.0,VA,51175.0,Southampton County,2126.0,15460.0,78717.0,15038.0,16786.0,9478.0,11576.0,13621.0,8709.0,3158.0,300.0,20.0,31.0
201146,County,2020/03/03,51.0,VA,51175.0,Southampton County,1922.0,15664.0,91567.0,17175.0,20684.0,10270.0,13155.0,14655.0,9950.0,5333.0,289.0,26.0,30.0
204232,County,2020/03/04,51.0,VA,51175.0,Southampton County,1913.0,15673.0,96178.0,21268.0,20785.0,11401.0,14053.0,15501.0,9492.0,3148.0,472.0,26.0,32.0
207436,County,2020/03/05,51.0,VA,51175.0,Southampton County,1824.0,15762.0,89014.0,19859.0,16579.0,7584.0,13027.0,17916.0,8974.0,4636.0,331.0,78.0,30.0
210699,County,2020/03/06,51.0,VA,51175.0,Southampton County,1635.0,15951.0,85213.0,14471.0,16732.0,8670.0,12109.0,17733.0,10630.0,4228.0,528.0,70.0,42.0
212268,County,2020/03/07,51.0,VA,51175.0,Southampton County,2116.0,15470.0,93905.0,20303.0,19327.0,11803.0,11858.0,14458.0,9620.0,5579.0,863.0,59.0,35.0
216995,County,2020/03/08,51.0,VA,51175.0,Southampton County,2348.0,15238.0,73761.0,13746.0,18393.0,7935.0,11859.0,12971.0,5782.0,2292.0,580.0,150.0,53.0
218635,County,2020/03/09,51.0,VA,51175.0,Southampton County,2104.0,15482.0,85868.0,15358.0,17320.0,10135.0,11443.0,16680.0,9428.0,4966.0,493.0,0.0,45.0
221870,County,2020/03/10,51.0,VA,51175.0,Southampton County,2056.0,15530.0,80482.0,16318.0,14243.0,10347.0,11887.0,13318.0,9808.0,4118.0,406.0,0.0,37.0
226616,County,2020/03/11,51.0,VA,51175.0,Southampton County,1917.0,15669.0,105917.0,18150.0,24181.0,16939.0,14344.0,19666.0,9203.0,2890.0,412.0,0.0,132.0
228245,County,2020/03/12,51.0,VA,51175.0,Southampton County,2167.0,15419.0,94031.0,19945.0,24915.0,10031.0,12719.0,14390.0,5855.0,5028.0,889.0,138.0,121.0
232975,County,2020/03/13,51.0,VA,51175.0,Southampton County,1894.0,15692.0,106332.0,16647.0,27044.0,14008.0,18518.0,16033.0,8582.0,5092.0,196.0,122.0,90.0
236177,County,2020/03/14,51.0,VA,51175.0,Southampton County,2558.0,15028.0,89698.0,10299.0,22820.0,15486.0,10285.0,18154.0,6884.0,4607.0,1007.0,156.0,0.0
237789,County,2020/03/15,51.0,VA,51175.0,Southampton County,2969.0,14617.0,63837.0,14350.0,10903.0,9388.0,9658.0,11686.0,5444.0,1821.0,498.0,61.0,28.0
241033,County,2020/03/16,51.0,VA,51175.0,Southampton County,2762.0,14824.0,83086.0,17127.0,17522.0,9451.0,12223.0,14834.0,8350.0,3340.0,177.0,54.0,8.0
244215,County,2020/03/17,51.0,VA,51175.0,Southampton County,2627.0,14959.0,76990.0,15258.0,16502.0,9793.0,10477.0,11666.0,7916.0,4909.0,447.0,0.0,22.0
247370,County,2020/03/18,51.0,VA,51175.0,Southampton County,2985.0,14601.0,83448.0,18774.0,14547.0,10279.0,14424.0,13818.0,7615.0,3653.0,321.0,0.0,17.0
252152,County,2020/03/19,51.0,VA,51175.0,Southampton County,2810.0,14776.0,69382.0,11075.0,15320.0,8207.0,11366.0,12730.0,7540.0,2930.0,200.0,0.0,14.0
253811,County,2020/03/20,51.0,VA,51175.0,Southampton County,2550.0,15036.0,85981.0,24434.0,16399.0,8366.0,11221.0,13131.0,7311.0,4478.0,549.0,49.0,43.0
256953,County,2020/03/21,51.0,VA,51175.0,Southampton County,3321.0,14265.0,61661.0,12210.0,14343.0,7127.0,10256.0,11246.0,3520.0,2807.0,96.0,30.0,26.0
260141,County,2020/03/22,51.0,VA,51175.0,Southampton County,3155.0,14431.0,54328.0,11001.0,13867.0,7855.0,8707.0,7615.0,3589.0,1340.0,191.0,119.0,44.0
264919,County,2020/03/23,51.0,VA,51175.0,Southampton County,2802.0,14784.0,63177.0,12345.0,14940.0,6215.0,9366.0,10971.0,5931.0,3235.0,77.0,48.0,49.0
266545,County,2020/03/24,51.0,VA,51175.0,Southampton County,2659.0,14927.0,67871.0,12515.0,15280.0,8350.0,10919.0,10775.0,6675.0,2942.0,361.0,25.0,29.0
269779,County,2020/03/25,51.0,VA,51175.0,Southampton County,2927.0,14659.0,60227.0,11657.0,11015.0,7547.0,9631.0,10131.0,6108.0,3841.0,255.0,26.0,16.0
274521,County,2020/03/26,51.0,VA,51175.0,Southampton County,2877.0,14709.0,68421.0,15265.0,13279.0,8881.0,11204.0,10141.0,6324.0,2998.0,295.0,26.0,8.0
277686,County,2020/03/27,51.0,VA,51175.0,Southampton County,2882.0,14704.0,71906.0,18508.0,13447.0,8134.0,9585.0,11426.0,6490.0,3943.0,305.0,47.0,21.0
279313,County,2020/03/28,51.0,VA,51175.0,Southampton County,2883.0,14703.0,65489.0,15840.0,15136.0,8383.0,8077.0,10817.0,4658.0,2432.0,121.0,25.0,0.0
284073,County,2020/03/29,51.0,VA,51175.0,Southampton County,3239.0,14347.0,66811.0,17735.0,16471.0,7003.0,9438.0,9050.0,4355.0,2561.0,137.0,28.0,33.0
285701,County,2020/03/30,51.0,VA,51175.0,Southampton County,2843.0,14743.0,62927.0,12519.0,12809.0,8365.0,8048.0,10679.0,6973.0,3212.0,268.0,47.0,7.0
288896,County,2020/03/31,51.0,VA,51175.0,Southampton County,2903.0,14683.0,75362.0,19865.0,19525.0,8137.0,8720.0,8617.0,7536.0,2698.0,235.0,0.0,29.0
292131,County,2020/04/01,51.0,VA,51175.0,Southampton County,2932.0,14654.0,68422.0,15471.0,14283.0,7924.0,9389.0,11484.0,6290.0,3299.0,248.0,26.0,8.0
296864,County,2020/04/02,51.0,VA,51175.0,Southampton County,3052.0,14534.0,67942.0,15681.0,12904.0,7124.0,10025.0,10761.0,7565.0,3647.0,130.0,81.0,24.0
298525,County,2020/04/03,51.0,VA,51175.0,Southampton County,2935.0,14651.0,72098.0,16298.0,15710.0,8410.0,10533.0,9614.0,6758.0,4478.0,216.0,81.0,0.0
303272,County,2020/04/04,51.0,VA,51175.0,Southampton County,3371.0,14215.0,60986.0,13247.0,15165.0,8165.0,8846.0,9296.0,4235.0,1822.0,99.0,93.0,18.0
306424,County,2020/04/05,51.0,VA,51175.0,Southampton County,3088.0,14498.0,58662.0,15219.0,12075.0,7070.0,8164.0,9737.0,4381.0,1620.0,329.0,58.0,9.0
308058,County,2020/04/06,51.0,VA,51175.0,Southampton County,3055.0,14531.0,67746.0,14983.0,17135.0,7674.0,9210.0,9358.0,5944.0,3114.0,255.0,26.0,47.0
311300,County,2020/04/07,51.0,VA,51175.0,Southampton County,2955.0,14631.0,63455.0,15535.0,13054.0,4977.0,10429.0,11196.0,5611.0,2471.0,119.0,49.0,14.0
316037,County,2020/04/08,51.0,VA,51175.0,Southampton County,2903.0,14683.0,65117.0,14511.0,15727.0,7025.0,7914.0,9941.0,6005.0,3575.0,356.0,49.0,14.0
317664,County,2020/04/09,51.0,VA,51175.0,Southampton County,2869.0,14717.0,73621.0,23153.0,12809.0,7762.0,8781.0,10208.0,7428.0,3227.0,197.0,49.0,7.0
322401,County,2020/04/10,51.0,VA,51175.0,Southampton County,2610.0,14976.0,75578.0,23845.0,13975.0,7309.0,9682.0,11610.0,5744.0,3227.0,81.0,75.0,30.0
324076,County,2020/04/11,51.0,VA,51175.0,Southampton County,2796.0,14790.0,75898.0,20179.0,15410.0,9462.0,11554.0,11160.0,5386.0,2545.0,127.0,52.0,23.0
327222,County,2020/04/12,51.0,VA,51175.0,Southampton County,3428.0,14158.0,56063.0,15036.0,13915.0,8813.0,7270.0,6812.0,2883.0,1172.0,84.0,78.0,0.0
330485,County,2020/04/13,51.0,VA,51175.0,Southampton County,2953.0,14633.0,63837.0,15442.0,13158.0,6832.0,8123.0,11413.0,6212.0,2610.0,0.0,47.0,0.0
335206,County,2020/04/14,51.0,VA,51175.0,Southampton County,2682.0,14904.0,70702.0,15445.0,17027.0,6095.0,9867.0,11266.0,7225.0,3360.0,371.0,46.0,0.0
338411,County,2020/04/15,51.0,VA,51175.0,Southampton County,2770.0,14816.0,71043.0,20015.0,15689.0,5023.0,9301.0,10929.0,5824.0,3784.0,399.0,50.0,29.0
339989,County,2020/04/16,51.0,VA,51175.0,Southampton County,2948.0,14638.0,76155.0,17375.0,16854.0,11208.0,10255.0,9437.0,7626.0,2882.0,502.0,0.0,16.0
344769,County,2020/04/17,51.0,VA,51175.0,Southampton County,2685.0,14901.0,69607.0,14920.0,17943.0,8379.0,9391.0,11334.0,5121.0,2310.0,153.0,0.0,56.0
346395,County,2020/04/18,51.0,VA,51175.0,Southampton County,3097.0,14489.0,61480.0,11959.0,11852.0,10111.0,7555.0,11190.0,6300.0,1991.0,335.0,156.0,31.0
349568,County,2020/04/19,51.0,VA,51175.0,Southampton County,3078.0,14508.0,60240.0,16591.0,14022.0,10483.0,7273.0,6584.0,2589.0,2556.0,92.0,0.0,50.0
352822,County,2020/04/20,51.0,VA,51175.0,Southampton County,2759.0,14827.0,61068.0,14733.0,17798.0,6442.0,5816.0,7442.0,5567.0,2959.0,196.0,61.0,54.0
355967,County,2020/04/21,51.0,VA,51175.0,Southampton County,2646.0,14940.0,74317.0,17436.0,16103.0,8966.0,9296.0,11446.0,7473.0,3531.0,41.0,25.0,0.0
360738,County,2020/04/22,51.0,VA,51175.0,Southampton County,2862.0,14724.0,64672.0,15264.0,14721.0,5494.0,9330.0,11401.0,4996.0,3147.0,319.0,0.0,0.0
363943,County,2020/04/23,51.0,VA,51175.0,Southampton County,2570.0,15016.0,69274.0,15819.0,15246.0,7694.0,8798.0,11117.0,7514.0,2754.0,298.0,26.0,8.0
365569,County,2020/04/24,51.0,VA,51175.0,Southampton County,2510.0,15076.0,75369.0,18699.0,14376.0,9700.0,8747.0,12819.0,6443.0,4303.0,245.0,0.0,37.0
368739,County,2020/04/25,51.0,VA,51175.0,Southampton County,2911.0,14675.0,62587.0,13235.0,16500.0,6061.0,8757.0,10750.0,5389.0,1591.0,295.0,0.0,9.0
373505,County,2020/04/26,51.0,VA,51175.0,Southampton County,3183.0,14403.0,63824.0,13523.0,15892.0,8845.0,9426.0,9709.0,4834.0,1370.0,159.0,66.0,0.0
376736,County,2020/04/27,51.0,VA,51175.0,Southampton County,2853.0,14733.0,65762.0,13644.0,13322.0,8136.0,8396.0,11617.0,7081.0,3153.0,378.0,0.0,35.0
379908,County,2020/04/28,51.0,VA,51175.0,Southampton County,2744.0,14842.0,72838.0,15425.0,15849.0,8410.0,11021.0,11638.0,6614.0,3465.0,331.0,59.0,26.0
383111,County,2020/04/29,51.0,VA,51175.0,Southampton County,2510.0,15076.0,74771.0,20256.0,14707.0,8898.0,9563.0,11706.0,5870.0,3360.0,312.0,83.0,16.0
384732,County,2020/04/30,51.0,VA,51175.0,Southampton County,2822.0,14764.0,64324.0,12546.0,13189.0,7471.0,9863.0,11033.0,6089.0,3531.0,546.0,56.0,0.0
387956,County,2020/05/01,51.0,VA,51175.0,Southampton County,2448.0,15138.0,72622.0,15758.0,13347.0,9015.0,12108.0,11885.0,6510.0,3775.0,167.0,26.0,31.0
391089,County,2020/05/02,51.0,VA,51175.0,Southampton County,2687.0,14899.0,73516.0,14624.0,15258.0,11972.0,11859.0,12052.0,4848.0,2741.0,153.0,0.0,9.0
394351,County,2020/05/03,51.0,VA,51175.0,Southampton County,2917.0,14669.0,66960.0,19941.0,12168.0,8449.0,8724.0,10078.0,4894.0,2299.0,337.0,70.0,0.0
397512,County,2020/05/04,51.0,VA,51175.0,Southampton County,2490.0,15096.0,72325.0,15847.0,16861.0,8961.0,10331.0,11689.0,5881.0,2521.0,234.0,0.0,0.0
400734,County,2020/05/05,51.0,VA,51175.0,Southampton County,2674.0,14912.0,71647.0,16934.0,14135.0,8045.0,9803.0,11385.0,7153.0,3802.0,362.0,28.0,0.0
403862,County,2020/05/06,51.0,VA,51175.0,Southampton County,2475.0,15111.0,71780.0,15956.0,14268.0,7632.0,10128.0,12788.0,7342.0,3319.0,291.0,26.0,30.0
408582,County,2020/05/07,51.0,VA,51175.0,Southampton County,2698.0,14888.0,72285.0,14442.0,14034.0,11616.0,9333.0,12249.0,7033.0,3049.0,411.0,85.0,33.0
410417,County,2020/05/08,51.0,VA,51175.0,Southampton County,2462.0,15124.0,71569.0,14934.0,12977.0,10684.0,11317.0,10482.0,8264.0,2774.0,86.0,27.0,24.0
415041,County,2020/05/09,51.0,VA,51175.0,Southampton County,2551.0,15035.0,80078.0,15129.0,18727.0,11730.0,12271.0,13399.0,6373.0,2258.0,191.0,0.0,0.0
416655,County,2020/05/10,51.0,VA,51175.0,Southampton County,2834.0,14752.0,61845.0,14140.0,13917.0,8332.0,9392.0,9456.0,4081.0,2113.0,258.0,128.0,28.0
421452,County,2020/05/11,51.0,VA,51175.0,Southampton County,2151.0,15435.0,76360.0,13727.0,18087.0,11749.0,10472.0,12430.0,6839.0,2446.0,491.0,57.0,62.0
424656,County,2020/05/12,51.0,VA,51175.0,Southampton County,2286.0,15300.0,79853.0,15853.0,14633.0,11096.0,13065.0,13588.0,7723.0,3509.0,307.0,57.0,22.0
426139,County,2020/05/13,51.0,VA,51175.0,Southampton County,2361.0,15225.0,78128.0,17214.0,13584.0,9891.0,12341.0,13380.0,8310.0,2782.0,516.0,80.0,30.0
429479,County,2020/05/14,51.0,VA,51175.0,Southampton County,2090.0,15496.0,78315.0,17536.0,15542.0,11418.0,11167.0,12378.0,7153.0,2645.0,307.0,152.0,17.0
434220,County,2020/05/15,51.0,VA,51175.0,Southampton County,2316.0,15270.0,87989.0,20923.0,19305.0,12809.0,10709.0,12843.0,7765.0,3034.0,557.0,20.0,24.0
435898,County,2020/05/16,51.0,VA,51175.0,Southampton County,2691.0,14895.0,78106.0,17002.0,17607.0,14086.0,9322.0,12997.0,4547.0,2060.0,405.0,46.0,34.0
440535,County,2020/05/17,51.0,VA,51175.0,Southampton County,2425.0,15161.0,78283.0,19542.0,18631.0,12342.0,10760.0,9971.0,4699.0,2025.0,313.0,0.0,0.0
442295,County,2020/05/18,51.0,VA,51175.0,Southampton County,2296.0,15290.0,67973.0,14458.0,13734.0,7622.0,9409.0,9861.0,8347.0,4176.0,242.0,113.0,11.0
446985,County,2020/05/19,51.0,VA,51175.0,Southampton County,1937.0,15649.0,72712.0,14302.0,14668.0,9707.0,11107.0,11489.0,8653.0,2509.0,277.0,0.0,0.0
448617,County,2020/05/20,51.0,VA,51175.0,Southampton County,1784.0,15802.0,74451.0,17936.0,13986.0,9021.0,8201.0,14134.0,7240.0,3789.0,110.0,34.0,0.0
453396,County,2020/05/21,51.0,VA,51175.0,Southampton County,1733.0,15853.0,77117.0,17264.0,14922.0,8969.0,10269.0,12229.0,8467.0,4671.0,264.0,33.0,29.0
454974,County,2020/05/22,51.0,VA,51175.0,Southampton County,1755.0,15831.0,71893.0,13654.0,12730.0,9410.0,11976.0,12530.0,7190.0,3822.0,484.0,67.0,30.0
459758,County,2020/05/23,51.0,VA,51175.0,Southampton County,2673.0,14913.0,81127.0,21129.0,19051.0,9746.0,9363.0,10761.0,7220.0,3290.0,509.0,45.0,13.0
462962,County,2020/05/24,51.0,VA,51175.0,Southampton County,2715.0,14871.0,67053.0,12396.0,14438.0,9385.0,11791.0,11369.0,4355.0,2843.0,415.0,47.0,14.0
464591,County,2020/05/25,51.0,VA,51175.0,Southampton County,2730.0,14856.0,59060.0,10084.0,12376.0,7796.0,10884.0,9157.0,5092.0,3070.0,487.0,93.0,21.0
467746,County,2020/05/26,51.0,VA,51175.0,Southampton County,2298.0,15288.0,77621.0,14552.0,18881.0,8573.0,10653.0,13613.0,7180.0,3523.0,613.0,21.0,12.0
471001,County,2020/05/27,51.0,VA,51175.0,Southampton County,2128.0,15458.0,76293.0,13548.0,17058.0,10079.0,12102.0,11186.0,6829.0,4885.0,472.0,117.0,17.0
474097,County,2020/05/28,51.0,VA,51175.0,Southampton County,2064.0,15522.0,79925.0,13302.0,19075.0,11725.0,12470.0,12387.0,7165.0,3168.0,532.0,78.0,23.0
477342,County,2020/05/29,51.0,VA,51175.0,Southampton County,2545.0,15041.0,73570.0,12668.0,15329.0,8602.0,11039.0,12079.0,6997.0,6039.0,684.0,127.0,6.0
480529,County,2020/05/30,51.0,VA,51175.0,Southampton County,2509.0,15077.0,64189.0,12934.0,14413.0,8192.0,11458.0,8524.0,5447.0,2730.0,422.0,48.0,21.0
485296,County,2020/05/31,51.0,VA,51175.0,Southampton County,2607.0,14979.0,68606.0,13264.0,12716.0,10980.0,11291.0,12278.0,5155.0,2483.0,318.0,99.0,22.0
488595,County,2020/06/01,51.0,VA,51175.0,Southampton County,2058.0,15528.0,83188.0,15297.0,17395.0,11332.0,13768.0,13521.0,7440.0,3773.0,572.0,84.0,6.0
490163,County,2020/06/02,51.0,VA,51175.0,Southampton County,2327.0,15259.0,80138.0,15394.0,15598.0,11457.0,12581.0,12128.0,7676.0,5022.0,255.0,0.0,27.0
493333,County,2020/06/03,51.0,VA,51175.0,Southampton County,2117.0,15469.0,88930.0,20539.0,18570.0,12211.0,12520.0,12868.0,7294.0,4473.0,415.0,21.0,19.0
496496,County,2020/06/04,51.0,VA,51175.0,Southampton County,2079.0,15507.0,79181.0,13496.0,14135.0,10262.0,13648.0,14009.0,9626.0,3856.0,103.0,21.0,25.0
501271,County,2020/06/05,51.0,VA,51175.0,Southampton County,2096.0,15490.0,83739.0,15938.0,16082.0,10358.0,14301.0,14412.0,7309.0,4817.0,397.0,112.0,13.0
504472,County,2020/06/06,51.0,VA,51175.0,Southampton County,2628.0,14958.0,67035.0,10515.0,15037.0,8949.0,10934.0,11696.0,6182.0,3334.0,309.0,55.0,24.0
507673,County,2020/06/07,51.0,VA,51175.0,Southampton County,2706.0,14880.0,62625.0,8948.0,15952.0,9545.0,10088.0,9777.0,4142.0,3544.0,598.0,31.0,0.0
510883,County,2020/06/08,51.0,VA,51175.0,Southampton County,1768.0,15818.0,74280.0,12251.0,14813.0,8679.0,14576.0,12062.0,8141.0,3386.0,320.0,36.0,16.0
514038,County,2020/06/09,51.0,VA,51175.0,Southampton County,1949.0,15637.0,80294.0,17128.0,16974.0,8479.0,13383.0,12348.0,8782.0,2930.0,253.0,0.0,17.0
515669,County,2020/06/10,51.0,VA,51175.0,Southampton County,2029.0,15557.0,78125.0,16867.0,15844.0,10129.0,13441.0,10217.0,7699.0,3576.0,287.0,59.0,6.0
518872,County,2020/06/11,51.0,VA,51175.0,Southampton County,1962.0,15624.0,72735.0,14988.0,14269.0,6685.0,10872.0,12766.0,8973.0,3840.0,201.0,125.0,16.0
523672,County,2020/06/12,51.0,VA,51175.0,Southampton County,1998.0,15588.0,79912.0,16370.0,15804.0,9079.0,11328.0,13521.0,8455.0,4724.0,518.0,113.0,0.0
526859,County,2020/06/13,51.0,VA,51175.0,Southampton County,2411.0,15175.0,67596.0,13925.0,11668.0,9550.0,11505.0,12193.0,5848.0,2379.0,499.0,22.0,7.0
530015,County,2020/06/14,51.0,VA,51175.0,Southampton County,2748.0,14838.0,63721.0,14426.0,12120.0,8905.0,9611.0,9101.0,5865.0,3039.0,542.0,112.0,0.0
531643,County,2020/06/15,51.0,VA,51175.0,Southampton County,2246.0,15340.0,65932.0,10655.0,13522.0,9788.0,8777.0,9749.0,7845.0,4906.0,455.0,181.0,54.0
536424,County,2020/06/16,51.0,VA,51175.0,Southampton County,2272.0,15314.0,61267.0,10584.0,11721.0,7691.0,9167.0,8917.0,7937.0,4543.0,502.0,187.0,18.0
539593,County,2020/06/17,51.0,VA,51175.0,Southampton County,2177.0,15409.0,69485.0,11524.0,14533.0,8599.0,10480.0,10502.0,7732.0,5589.0,397.0,95.0,34.0
542787,County,2020/06/18,51.0,VA,51175.0,Southampton County,2228.0,15358.0,75412.0,13436.0,13607.0,10479.0,12002.0,13129.0,8210.0,4330.0,157.0,39.0,23.0
544415,County,2020/06/19,51.0,VA,51175.0,Southampton County,2158.0,15428.0,67353.0,12160.0,13602.0,7683.0,10971.0,11720.0,7020.0,3563.0,499.0,135.0,0.0
547619,County,2020/06/20,51.0,VA,51175.0,Southampton County,2362.0,15224.0,66466.0,12339.0,13643.0,8671.0,11001.0,10263.0,6424.0,3557.0,495.0,61.0,12.0
552363,County,2020/06/21,51.0,VA,51175.0,Southampton County,2855.0,14731.0,63732.0,14951.0,11407.0,8703.0,10422.0,9282.0,4795.0,3427.0,612.0,126.0,7.0
555604,County,2020/06/22,51.0,VA,51175.0,Southampton County,2178.0,15408.0,72891.0,13402.0,15479.0,10582.0,10698.0,10840.0,6284.0,4964.0,540.0,71.0,31.0
558758,County,2020/06/23,51.0,VA,51175.0,Southampton County,2051.0,15535.0,73401.0,15423.0,13676.0,9471.0,11995.0,10749.0,7433.0,4046.0,440.0,109.0,59.0
560389,County,2020/06/24,51.0,VA,51175.0,Southampton County,2247.0,15339.0,77012.0,15086.0,16513.0,9313.0,13332.0,10831.0,7222.0,3976.0,668.0,59.0,12.0
565127,County,2020/06/25,51.0,VA,51175.0,Southampton County,2132.0,15454.0,73078.0,14830.0,13482.0,9707.0,11744.0,10369.0,7877.0,4187.0,732.0,140.0,10.0
568424,County,2020/06/26,51.0,VA,51175.0,Southampton County,2102.0,15484.0,74128.0,12456.0,14341.0,11991.0,11836.0,10471.0,8487.0,4017.0,491.0,20.0,18.0
569954,County,2020/06/27,51.0,VA,51175.0,Southampton County,2038.0,15548.0,71694.0,10034.0,17240.0,9087.0,13172.0,10939.0,6598.0,4079.0,498.0,41.0,6.0
574748,County,2020/06/28,51.0,VA,51175.0,Southampton County,2490.0,15096.0,66896.0,13278.0,12977.0,11227.0,11433.0,8710.0,6035.0,2774.0,322.0,125.0,15.0
576354,County,2020/06/29,51.0,VA,51175.0,Southampton County,2314.0,15272.0,71988.0,14046.0,13529.0,10337.0,13334.0,9567.0,7094.0,3771.0,278.0,25.0,7.0
579564,County,2020/06/30,51.0,VA,51175.0,Southampton County,2219.0,15367.0,71260.0,13021.0,14424.0,9829.0,12267.0,9642.0,8162.0,3573.0,237.0,98.0,7.0
582766,County,2020/07/01,51.0,VA,51175.0,Southampton County,2305.0,15281.0,69889.0,13120.0,11574.0,9667.0,11156.0,10896.0,9311.0,3891.0,236.0,24.0,14.0
585958,County,2020/07/02,51.0,VA,51175.0,Southampton County,2557.0,15029.0,77567.0,15741.0,14310.0,10303.0,12465.0,11006.0,8361.0,4444.0,777.0,149.0,11.0
590745,County,2020/07/03,51.0,VA,51175.0,Southampton County,2723.0,14863.0,73709.0,12386.0,14260.0,11923.0,11769.0,10412.0,8439.0,3994.0,488.0,20.0,18.0
592345,County,2020/07/04,51.0,VA,51175.0,Southampton County,3011.0,14575.0,63061.0,10596.0,12200.0,10201.0,10069.0,8908.0,7220.0,3417.0,418.0,17.0,15.0
597100,County,2020/07/05,51.0,VA,51175.0,Southampton County,2627.0,14959.0,60213.0,7489.0,12540.0,11281.0,9302.0,8858.0,6821.0,3268.0,569.0,59.0,26.0
598194,County,2020/07/06,51.0,VA,51175.0,Southampton County,2401.0,15185.0,74304.0,12211.0,13974.0,9249.0,14288.0,11176.0,8855.0,4174.0,342.0,0.0,35.0
601857,County,2020/07/07,51.0,VA,51175.0,Southampton County,2067.0,15519.0,72571.0,14965.0,14087.0,8726.0,10989.0,11339.0,8208.0,3475.0,681.0,22.0,79.0
605000,County,2020/07/08,51.0,VA,51175.0,Southampton County,2030.0,15556.0,76525.0,12570.0,15692.0,7969.0,12936.0,12824.0,9501.0,4545.0,368.0,83.0,37.0
609870,County,2020/07/09,51.0,VA,51175.0,Southampton County,1994.0,15592.0,77678.0,14722.0,14911.0,8973.0,12235.0,11888.0,8979.0,5392.0,406.0,147.0,25.0
613075,County,2020/07/10,51.0,VA,51175.0,Southampton County,2095.0,15491.0,74873.0,15239.0,12348.0,9884.0,11408.0,10789.0,10151.0,4547.0,465.0,22.0,20.0
616291,County,2020/07/11,51.0,VA,51175.0,Southampton County,2387.0,15199.0,70927.0,13484.0,14631.0,11634.0,11703.0,8701.0,6465.0,3877.0,286.0,101.0,45.0
619479,County,2020/07/12,51.0,VA,51175.0,Southampton County,2640.0,14946.0,52359.0,8759.0,8438.0,7972.0,9958.0,7967.0,5377.0,2999.0,652.0,189.0,48.0
621064,County,2020/07/13,51.0,VA,51175.0,Southampton County,2157.0,15429.0,62223.0,10408.0,13355.0,7436.0,10141.0,9996.0,7300.0,3221.0,272.0,63.0,31.0
624265,County,2020/07/14,51.0,VA,51175.0,Southampton County,2356.0,15230.0,69517.0,11159.0,14217.0,9952.0,12445.0,9410.0,8352.0,3679.0,223.0,46.0,34.0
627387,County,2020/07/15,51.0,VA,51175.0,Southampton County,2262.0,15324.0,72287.0,14558.0,13253.0,10157.0,10041.0,10591.0,9015.0,4250.0,271.0,144.0,7.0
632318,County,2020/07/16,51.0,VA,51175.0,Southampton County,2256.0,15330.0,68542.0,14331.0,13602.0,8320.0,9326.0,9918.0,8707.0,3850.0,380.0,94.0,14.0
633835,County,2020/07/17,51.0,VA,51175.0,Southampton County,2070.0,15516.0,72017.0,14590.0,12754.0,10271.0,11923.0,10730.0,7134.0,4261.0,302.0,21.0,31.0
638616,County,2020/07/18,51.0,VA,51175.0,Southampton County,2583.0,15003.0,71046.0,15089.0,15137.0,10523.0,9542.0,8557.0,7534.0,4004.0,562.0,27.0,71.0
641819,County,2020/07/19,51.0,VA,51175.0,Southampton County,2906.0,14680.0,62137.0,11604.0,14211.0,8071.0,11529.0,8107.0,4924.0,3085.0,477.0,81.0,48.0
643429,County,2020/07/20,51.0,VA,51175.0,Southampton County,2575.0,15011.0,74902.0,15334.0,13445.0,10785.0,11722.0,10610.0,6941.0,5406.0,637.0,0.0,22.0
646655,County,2020/07/21,51.0,VA,51175.0,Southampton County,2462.0,15124.0,73628.0,15154.0,13858.0,9275.0,10858.0,11013.0,9773.0,3328.0,339.0,23.0,7.0
651382,County,2020/07/22,51.0,VA,51175.0,Southampton County,2395.0,15191.0,72548.0,13314.0,12399.0,10438.0,10715.0,12337.0,8528.0,4302.0,464.0,44.0,7.0
652927,County,2020/07/23,51.0,VA,51175.0,Southampton County,2266.0,15320.0,73462.0,15052.0,14793.0,9245.0,11583.0,10547.0,8648.0,3089.0,444.0,42.0,19.0
656048,County,2020/07/24,51.0,VA,51175.0,Southampton County,2078.0,15508.0,75656.0,16149.0,13406.0,8278.0,10808.0,12613.0,8223.0,5517.0,532.0,124.0,6.0
661068,County,2020/07/25,51.0,VA,51175.0,Southampton County,2466.0,15120.0,65584.0,12120.0,11011.0,10368.0,9882.0,9159.0,8466.0,4000.0,348.0,216.0,14.0
662593,County,2020/07/26,51.0,VA,51175.0,Southampton County,2644.0,14942.0,66016.0,11450.0,14920.0,7253.0,10750.0,10711.0,6539.0,3047.0,1193.0,137.0,16.0
667373,County,2020/07/27,51.0,VA,51175.0,Southampton County,2310.0,15276.0,73723.0,14701.0,13544.0,7746.0,10988.0,12906.0,8234.0,4685.0,861.0,50.0,8.0
670576,County,2020/07/28,51.0,VA,51175.0,Southampton County,2121.0,15465.0,75880.0,11122.0,17818.0,7777.0,9807.0,14400.0,9652.0,4595.0,569.0,88.0,52.0
673741,County,2020/07/29,51.0,VA,51175.0,Southampton County,2185.0,15401.0,76455.0,14636.0,14707.0,9723.0,9484.0,13223.0,9783.0,4273.0,561.0,24.0,41.0
676920,County,2020/07/30,51.0,VA,51175.0,Southampton County,2142.0,15444.0,79814.0,16901.0,14328.0,10755.0,11840.0,12210.0,8894.0,4235.0,526.0,87.0,38.0
680147,County,2020/07/31,51.0,VA,51175.0,Southampton County,2238.0,15348.0,81873.0,16332.0,15524.0,7590.0,13773.0,13266.0,8690.0,5589.0,900.0,202.0,7.0
681728,County,2020/08/01,51.0,VA,51175.0,Southampton County,2631.0,14955.0,74124.0,16003.0,13437.0,8997.0,12536.0,12252.0,6486.0,3735.0,578.0,83.0,17.0
686557,County,2020/08/02,51.0,VA,51175.0,Southampton County,2831.0,14755.0,56734.0,9585.0,11190.0,7408.0,8045.0,10354.0,5928.0,3034.0,939.0,179.0,72.0
688148,County,2020/08/03,51.0,VA,51175.0,Southampton County,2357.0,15229.0,65143.0,11494.0,12828.0,7839.0,9909.0,10717.0,7229.0,4401.0,548.0,133.0,45.0
692922,County,2020/08/04,51.0,VA,51175.0,Southampton County,2825.0,14761.0,65919.0,14619.0,15386.0,8909.0,9570.0,9146.0,4479.0,3070.0,669.0,55.0,16.0
694550,County,2020/08/05,51.0,VA,51175.0,Southampton County,2454.0,15132.0,66787.0,10817.0,12708.0,8100.0,10975.0,11559.0,7980.0,4136.0,390.0,80.0,42.0
697757,County,2020/08/06,51.0,VA,51175.0,Southampton County,2345.0,15241.0,71290.0,13950.0,13107.0,8864.0,10816.0,11989.0,8435.0,3331.0,683.0,93.0,22.0
702489,County,2020/08/07,51.0,VA,51175.0,Southampton County,2405.0,15181.0,64121.0,10820.0,11869.0,7749.0,9109.0,11071.0,8709.0,4252.0,446.0,79.0,17.0
704118,County,2020/08/08,51.0,VA,51175.0,Southampton County,2507.0,15079.0,58335.0,10153.0,11240.0,8008.0,8264.0,9995.0,7206.0,2853.0,488.0,108.0,20.0
707308,County,2020/08/09,51.0,VA,51175.0,Southampton County,2543.0,15043.0,57933.0,9090.0,11278.0,8779.0,8632.0,9375.0,6504.0,3275.0,802.0,183.0,15.0
710578,County,2020/08/10,51.0,VA,51175.0,Southampton County,2402.0,15184.0,67584.0,10167.0,13544.0,7407.0,11897.0,10618.0,9011.0,4354.0,445.0,126.0,15.0
713746,County,2020/08/11,51.0,VA,51175.0,Southampton County,2139.0,15447.0,68237.0,11459.0,12921.0,6867.0,10703.0,11280.0,9885.0,4481.0,574.0,67.0,0.0
718457,County,2020/08/12,51.0,VA,51175.0,Southampton County,2244.0,15342.0,68539.0,10860.0,10867.0,8975.0,9645.0,12140.0,10236.0,5321.0,331.0,137.0,27.0
720086,County,2020/08/13,51.0,VA,51175.0,Southampton County,2071.0,15515.0,69139.0,11427.0,11670.0,8414.0,12575.0,10466.0,9602.0,4266.0,601.0,66.0,52.0
724878,County,2020/08/14,51.0,VA,51175.0,Southampton County,2032.0,15554.0,74718.0,12273.0,13713.0,9439.0,12216.0,10992.0,10022.0,5518.0,427.0,66.0,52.0
726510,County,2020/08/15,51.0,VA,51175.0,Southampton County,2439.0,15147.0,68810.0,12753.0,12808.0,9790.0,11471.0,9255.0,8490.0,3592.0,488.0,126.0,37.0
729668,County,2020/08/16,51.0,VA,51175.0,Southampton County,2695.0,14891.0,58959.0,9234.0,11677.0,7418.0,9776.0,9213.0,6095.0,4036.0,986.0,397.0,127.0
734448,County,2020/08/17,51.0,VA,51175.0,Southampton County,2422.0,15164.0,69750.0,10883.0,14436.0,6993.0,8468.0,12640.0,9827.0,5793.0,528.0,110.0,72.0
737620,County,2020/08/18,51.0,VA,51175.0,Southampton County,2314.0,15272.0,74535.0,11357.0,12951.0,8542.0,11980.0,10933.0,12560.0,5175.0,672.0,268.0,97.0
739282,County,2020/08/19,51.0,VA,51175.0,Southampton County,2245.0,15341.0,76122.0,11942.0,15815.0,7237.0,11363.0,13272.0,10996.0,4541.0,718.0,139.0,99.0
742445,County,2020/08/20,51.0,VA,51175.0,Southampton County,2084.0,15502.0,73944.0,12354.0,12120.0,7798.0,11745.0,14503.0,9568.0,5086.0,534.0,138.0,98.0
745644,County,2020/08/21,51.0,VA,51175.0,Southampton County,1995.0,15591.0,80940.0,14348.0,14701.0,9577.0,11652.0,13951.0,9188.0,6576.0,762.0,111.0,74.0
750424,County,2020/08/22,51.0,VA,51175.0,Southampton County,2318.0,15268.0,73843.0,13208.0,16412.0,9786.0,10913.0,11163.0,7792.0,4027.0,321.0,133.0,88.0
753594,County,2020/08/23,51.0,VA,51175.0,Southampton County,2645.0,14941.0,56662.0,9227.0,9140.0,6493.0,10253.0,9198.0,7716.0,3956.0,448.0,166.0,65.0
755263,County,2020/08/24,51.0,VA,51175.0,Southampton County,2231.0,15355.0,66220.0,12084.0,10478.0,6075.0,8583.0,14343.0,9656.0,4437.0,445.0,75.0,44.0
758414,County,2020/08/25,51.0,VA,51175.0,Southampton County,2287.0,15299.0,59629.0,9641.0,9166.0,6670.0,10442.0,11528.0,8001.0,3835.0,193.0,96.0,57.0
763185,County,2020/08/26,51.0,VA,51175.0,Southampton County,2178.0,15408.0,65074.0,12531.0,12022.0,7309.0,8583.0,11723.0,9206.0,3208.0,382.0,47.0,63.0
766381,County,2020/08/27,51.0,VA,51175.0,Southampton County,2239.0,15347.0,67854.0,13300.0,11296.0,8319.0,9642.0,11180.0,9640.0,4032.0,351.0,73.0,21.0
769596,County,2020/08/28,51.0,VA,51175.0,Southampton County,2248.0,15338.0,65506.0,10194.0,10740.0,8313.0,9197.0,12122.0,9919.0,4252.0,632.0,122.0,15.0
772748,County,2020/08/29,51.0,VA,51175.0,Southampton County,2351.0,15235.0,57642.0,7400.0,11121.0,8010.0,8754.0,10350.0,6200.0,5179.0,480.0,108.0,40.0
774422,County,2020/08/30,51.0,VA,51175.0,Southampton County,3111.0,14475.0,60756.0,15108.0,10488.0,6630.0,8186.0,9261.0,6194.0,4086.0,526.0,229.0,48.0
777605,County,2020/08/31,51.0,VA,51175.0,Southampton County,2145.0,15441.0,69156.0,13231.0,11687.0,7191.0,9877.0,10728.0,10734.0,4997.0,580.0,95.0,36.0
780756,County,2020/09/01,51.0,VA,51175.0,Southampton County,2216.0,15370.0,69185.0,14227.0,10156.0,6866.0,8395.0,12454.0,10328.0,5981.0,609.0,141.0,28.0
784780,County,2020/09/02,51.0,VA,51175.0,Southampton County,2386.0,15200.0,62910.0,9718.0,12227.0,5889.0,8241.0,12165.0,9756.0,4470.0,391.0,24.0,29.0
788740,County,2020/09/03,51.0,VA,51175.0,Southampton County,2119.0,15467.0,78256.0,14148.0,12890.0,9132.0,10309.0,13360.0,11399.0,6097.0,690.0,158.0,73.0
790354,County,2020/09/04,51.0,VA,51175.0,Southampton County,2196.0,15390.0,68007.0,11252.0,13330.0,7293.0,9282.0,12101.0,8866.0,4937.0,833.0,52.0,61.0
795115,County,2020/09/05,51.0,VA,51175.0,Southampton County,2572.0,15014.0,65117.0,12368.0,9900.0,9527.0,10404.0,9747.0,8144.0,4617.0,358.0,28.0,24.0
798318,County,2020/09/06,51.0,VA,51175.0,Southampton County,3005.0,14581.0,53166.0,8947.0,10406.0,7218.0,6800.0,8172.0,6045.0,4696.0,688.0,142.0,52.0
801528,County,2020/09/07,51.0,VA,51175.0,Southampton County,2895.0,14691.0,47292.0,7177.0,6280.0,5758.0,7020.0,9941.0,6286.0,3819.0,720.0,240.0,51.0
803158,County,2020/09/08,51.0,VA,51175.0,Southampton County,2627.0,14959.0,66702.0,11759.0,11711.0,6883.0,10286.0,12703.0,7433.0,4962.0,896.0,53.0,16.0
806324,County,2020/09/09,51.0,VA,51175.0,Southampton County,2390.0,15196.0,64394.0,8614.0,12466.0,6614.0,10874.0,12045.0,8143.0,5050.0,409.0,139.0,40.0
811093,County,2020/09/10,51.0,VA,51175.0,Southampton County,2138.0,15448.0,66615.0,8855.0,13734.0,8073.0,10716.0,10984.0,7811.0,5461.0,799.0,150.0,32.0
812721,County,2020/09/11,51.0,VA,51175.0,Southampton County,2190.0,15396.0,70623.0,12373.0,11585.0,7423.0,13020.0,11854.0,8708.0,4791.0,754.0,94.0,21.0
815907,County,2020/09/12,51.0,VA,51175.0,Southampton County,2549.0,15037.0,64629.0,11026.0,10470.0,10400.0,10573.0,11205.0,7347.0,2762.0,663.0,110.0,73.0
820704,County,2020/09/13,51.0,VA,51175.0,Southampton County,3058.0,14528.0,53345.0,6775.0,11156.0,7687.0,6092.0,9768.0,6041.0,4954.0,678.0,115.0,79.0
823860,County,2020/09/14,51.0,VA,51175.0,Southampton County,2242.0,15344.0,65952.0,9743.0,11703.0,8360.0,9994.0,12136.0,8670.0,4740.0,448.0,76.0,82.0
825488,County,2020/09/15,51.0,VA,51175.0,Southampton County,2293.0,15293.0,72255.0,12977.0,12221.0,7421.0,11763.0,12321.0,10330.0,4871.0,247.0,51.0,53.0
828729,County,2020/09/16,51.0,VA,51175.0,Southampton County,2203.0,15383.0,71859.0,13817.0,11344.0,8138.0,11997.0,12272.0,8229.0,5369.0,603.0,75.0,15.0
833473,County,2020/09/17,51.0,VA,51175.0,Southampton County,1989.0,15597.0,65311.0,10261.0,13354.0,8199.0,7696.0,10076.0,10520.0,4725.0,402.0,45.0,33.0
835102,County,2020/09/18,51.0,VA,51175.0,Southampton County,2112.0,15474.0,76354.0,12796.0,15148.0,6942.0,12450.0,11123.0,9970.0,7150.0,664.0,97.0,14.0
838264,County,2020/09/19,51.0,VA,51175.0,Southampton County,2750.0,14836.0,77655.0,15440.0,15139.0,8953.0,10185.0,12563.0,9208.0,5789.0,342.0,0.0,36.0
843039,County,2020/09/20,51.0,VA,51175.0,Southampton County,3073.0,14513.0,49668.0,8829.0,7568.0,6510.0,7416.0,8011.0,7195.0,3446.0,546.0,97.0,50.0
846243,County,2020/09/21,51.0,VA,51175.0,Southampton County,2910.0,14676.0,54206.0,9400.0,10615.0,6266.0,6940.0,9308.0,8041.0,3349.0,204.0,76.0,7.0
847872,County,2020/09/22,51.0,VA,51175.0,Southampton County,2770.0,14816.0,60167.0,9829.0,11094.0,6635.0,10526.0,10701.0,7261.0,3859.0,149.0,93.0,20.0
851039,County,2020/09/23,51.0,VA,51175.0,Southampton County,2595.0,14991.0,60950.0,9239.0,11062.0,7679.0,10004.0,10919.0,7804.0,4032.0,144.0,67.0,0.0
855805,County,2020/09/24,51.0,VA,51175.0,Southampton County,2502.0,15084.0,58313.0,8869.0,11378.0,6601.0,8033.0,11353.0,7406.0,4011.0,552.0,85.0,25.0
857434,County,2020/09/25,51.0,VA,51175.0,Southampton County,2564.0,15022.0,59729.0,9747.0,11592.0,6806.0,8639.0,11098.0,7598.0,3671.0,511.0,42.0,25.0
860620,County,2020/09/26,51.0,VA,51175.0,Southampton County,2770.0,14816.0,57979.0,9399.0,10142.0,7064.0,8771.0,11382.0,7619.0,3191.0,380.0,24.0,7.0
865417,County,2020/09/27,51.0,VA,51175.0,Southampton County,3121.0,14465.0,55882.0,9437.0,12342.0,7674.0,7737.0,9063.0,5415.0,3742.0,401.0,55.0,16.0
868575,County,2020/09/28,51.0,VA,51175.0,Southampton County,2499.0,15087.0,60928.0,10448.0,9672.0,7801.0,9043.0,10823.0,8151.0,4648.0,329.0,0.0,13.0
870203,County,2020/09/29,51.0,VA,51175.0,Southampton County,2262.0,15324.0,66114.0,11767.0,10966.0,6322.0,11338.0,11260.0,9056.0,5229.0,144.0,15.0,17.0
874982,County,2020/09/30,51.0,VA,51175.0,Southampton County,2160.0,15426.0,69829.0,12883.0,13615.0,7081.0,10860.0,10921.0,9664.0,4598.0,186.0,16.0,5.0
876610,County,2020/10/01,51.0,VA,51175.0,Southampton County,2034.0,15552.0,74708.0,13026.0,14292.0,8395.0,10645.0,12904.0,10649.0,4308.0,470.0,19.0,0.0
879814,County,2020/10/02,51.0,VA,51175.0,Southampton County,2610.0,14976.0,69960.0,13040.0,11538.0,5774.0,11396.0,14588.0,9604.0,3603.0,388.0,18.0,11.0
884546,County,2020/10/03,51.0,VA,51175.0,Southampton County,2882.0,14704.0,69983.0,14237.0,11628.0,9338.0,11695.0,10408.0,6724.0,5386.0,552.0,0.0,15.0
887619,County,2020/10/04,51.0,VA,51175.0,Southampton County,2966.0,14620.0,57332.0,11225.0,10256.0,6397.0,8358.0,9730.0,6765.0,4140.0,380.0,72.0,9.0
890790,County,2020/10/05,51.0,VA,51175.0,Southampton County,2677.0,14909.0,69995.0,14133.0,13706.0,7068.0,9629.0,11203.0,8176.0,5638.0,372.0,59.0,11.0
893983,County,2020/10/06,51.0,VA,51175.0,Southampton County,2192.0,15394.0,67758.0,14267.0,13969.0,5735.0,10121.0,10848.0,7679.0,4788.0,310.0,27.0,14.0
897178,County,2020/10/07,51.0,VA,51175.0,Southampton County,2235.0,15351.0,79253.0,15202.0,14807.0,7492.0,11886.0,14131.0,9926.0,5371.0,404.0,27.0,7.0
900405,County,2020/10/08,51.0,VA,51175.0,Southampton County,2567.0,15019.0,74619.0,13740.0,14647.0,5932.0,11479.0,14661.0,9063.0,4657.0,393.0,29.0,18.0
903660,County,2020/10/09,51.0,VA,51175.0,Southampton County,2413.0,15173.0,74249.0,13384.0,13367.0,7159.0,10565.0,12671.0,10052.0,6468.0,523.0,46.0,14.0
906775,County,2020/10/10,51.0,VA,51175.0,Southampton County,2476.0,15110.0,61082.0,9116.0,11907.0,9171.0,8247.0,10967.0,6875.0,4072.0,605.0,110.0,12.0
907381,County,2020/10/11,51.0,VA,51175.0,Southampton County,2799.0,14787.0,52398.0,5727.0,9463.0,8816.0,9458.0,9076.0,6028.0,3418.0,318.0,88.0,6.0
910521,County,2020/10/12,51.0,VA,51175.0,Southampton County,2610.0,14976.0,66161.0,9882.0,13192.0,7171.0,9518.0,11707.0,10286.0,4149.0,111.0,133.0,12.0
913990,County,2020/10/13,51.0,VA,51175.0,Southampton County,2168.0,15418.0,67083.0,9239.0,12961.0,8444.0,9767.0,11434.0,9748.0,5197.0,273.0,15.0,5.0
916941,County,2020/10/14,51.0,VA,51175.0,Southampton County,2220.0,15366.0,62594.0,10645.0,9999.0,6353.0,10010.0,12935.0,8497.0,3842.0,268.0,30.0,15.0
920517,County,2020/10/15,51.0,VA,51175.0,Southampton County,2502.0,15084.0,68202.0,13820.0,11544.0,7549.0,9298.0,11329.0,9970.0,4140.0,444.0,99.0,9.0
923401,County,2020/10/16,51.0,VA,51175.0,Southampton County,2505.0,15081.0,63923.0,6413.0,9770.0,6434.0,10746.0,14394.0,10815.0,4950.0,360.0,32.0,9.0
926603,County,2020/10/17,51.0,VA,51175.0,Southampton County,2553.0,15033.0,62492.0,10375.0,9638.0,7932.0,8794.0,11986.0,8267.0,4709.0,698.0,73.0,20.0
930131,County,2020/10/18,51.0,VA,51175.0,Southampton County,2632.0,14954.0,57375.0,10227.0,11262.0,8154.0,7718.0,7153.0,6586.0,5159.0,999.0,107.0,10.0
933679,County,2020/10/19,51.0,VA,51175.0,Southampton County,2235.0,15351.0,71105.0,15190.0,11124.0,7196.0,8770.0,11546.0,9780.0,6778.0,635.0,79.0,7.0
936460,County,2020/10/20,51.0,VA,51175.0,Southampton County,2622.0,14964.0,63023.0,10151.0,9282.0,5440.0,8246.0,13858.0,9888.0,5924.0,156.0,70.0,8.0
939922,County,2020/10/21,51.0,VA,51175.0,Southampton County,2469.0,15117.0,71290.0,18995.0,11669.0,5867.0,8461.0,11111.0,9726.0,4817.0,520.0,107.0,17.0
942872,County,2020/10/22,51.0,VA,51175.0,Southampton County,2525.0,15061.0,70895.0,18857.0,11650.0,6703.0,10631.0,9649.0,8064.0,4700.0,508.0,122.0,11.0
945639,County,2020/10/23,51.0,VA,51175.0,Southampton County,2364.0,15222.0,74035.0,14339.0,14907.0,8420.0,8890.0,13192.0,7424.0,5998.0,785.0,67.0,13.0
951497,County,2020/10/24,51.0,VA,51175.0,Southampton County,2490.0,15096.0,64916.0,13325.0,11748.0,7521.0,10807.0,8248.0,8042.0,4576.0,584.0,52.0,13.0
