,Level,Date,State FIPS,State Postal Code,County FIPS,County Name,Population Staying at Home,Population Not Staying at Home,Number of Trips,Number of Trips <1,Number of Trips 1-3,Number of Trips 3-5,Number of Trips 5-10,Number of Trips 10-25,Number of Trips 25-50,Number of Trips 50-100,Number of Trips 100-250,Number of Trips 250-500,Number of Trips >=500
2335,County,2020/01/01,45.0,SC,45041.0,Florence County,29045.0,109114.0,430294.0,97080.0,122809.0,59030.0,65627.0,52641.0,19252.0,8561.0,4248.0,908.0,138.0
4690,County,2020/01/02,45.0,SC,45041.0,Florence County,24728.0,113431.0,527073.0,119381.0,141505.0,76435.0,78632.0,63574.0,28584.0,12862.0,5261.0,768.0,71.0
9206,County,2020/01/03,45.0,SC,45041.0,Florence County,24265.0,113894.0,546575.0,124929.0,145395.0,85201.0,81258.0,63572.0,26964.0,12525.0,5507.0,1088.0,136.0
11533,County,2020/01/04,45.0,SC,45041.0,Florence County,27002.0,111157.0,483910.0,106584.0,142418.0,69119.0,71895.0,56219.0,21934.0,9971.0,4876.0,779.0,115.0
15111,County,2020/01/05,45.0,SC,45041.0,Florence County,28607.0,109552.0,437598.0,97834.0,124114.0,62951.0,69852.0,46975.0,22132.0,8115.0,4372.0,1075.0,178.0
17178,County,2020/01/06,45.0,SC,45041.0,Florence County,24864.0,113295.0,526521.0,119067.0,141489.0,78300.0,80323.0,63464.0,25764.0,11900.0,5168.0,939.0,107.0
20337,County,2020/01/07,45.0,SC,45041.0,Florence County,24435.0,113724.0,513314.0,119200.0,133910.0,78282.0,75129.0,59764.0,28384.0,12400.0,5039.0,1135.0,71.0
25085,County,2020/01/08,45.0,SC,45041.0,Florence County,24144.0,114015.0,545462.0,124319.0,139672.0,84203.0,89028.0,65026.0,27039.0,10440.0,4678.0,979.0,78.0
26712,County,2020/01/09,45.0,SC,45041.0,Florence County,23579.0,114580.0,534128.0,119509.0,139325.0,86888.0,81429.0,63371.0,25418.0,11802.0,5005.0,1260.0,121.0
29908,County,2020/01/10,45.0,SC,45041.0,Florence County,22792.0,115367.0,590423.0,133477.0,168177.0,89250.0,86551.0,67843.0,28188.0,11301.0,4560.0,999.0,77.0
34716,County,2020/01/11,45.0,SC,45041.0,Florence County,26249.0,111910.0,524128.0,119457.0,150855.0,81807.0,76785.0,57381.0,21904.0,11104.0,3857.0,901.0,77.0
37836,County,2020/01/12,45.0,SC,45041.0,Florence County,28160.0,109999.0,435279.0,99142.0,119212.0,66315.0,70866.0,47222.0,18156.0,8909.0,4274.0,1068.0,115.0
41083,County,2020/01/13,45.0,SC,45041.0,Florence County,24240.0,113919.0,571446.0,167502.0,147268.0,72771.0,79528.0,60634.0,27026.0,11144.0,4713.0,805.0,55.0
44281,County,2020/01/14,45.0,SC,45041.0,Florence County,23990.0,114169.0,524020.0,119402.0,135582.0,81453.0,81508.0,62503.0,26764.0,11469.0,4256.0,973.0,110.0
45862,County,2020/01/15,45.0,SC,45041.0,Florence County,24343.0,113816.0,541531.0,122004.0,143014.0,86516.0,81548.0,63346.0,29800.0,9949.0,4340.0,930.0,84.0
50643,County,2020/01/16,45.0,SC,45041.0,Florence County,23778.0,114381.0,545034.0,125073.0,145330.0,81970.0,80492.0,65225.0,28491.0,12287.0,4965.0,1146.0,55.0
52271,County,2020/01/17,45.0,SC,45041.0,Florence County,23034.0,115125.0,577858.0,130448.0,154895.0,88105.0,86704.0,69262.0,29093.0,12219.0,5988.0,1021.0,123.0
55455,County,2020/01/18,45.0,SC,45041.0,Florence County,26417.0,111742.0,531581.0,123015.0,147309.0,79270.0,81728.0,59933.0,23964.0,10590.0,4806.0,863.0,103.0
60250,County,2020/01/19,45.0,SC,45041.0,Florence County,28546.0,109613.0,448564.0,100067.0,125828.0,65146.0,72875.0,49349.0,19771.0,9313.0,4922.0,1158.0,135.0
63413,County,2020/01/20,45.0,SC,45041.0,Florence County,26273.0,111886.0,497246.0,115033.0,132966.0,70214.0,70843.0,60506.0,28479.0,12228.0,5616.0,1221.0,140.0
66611,County,2020/01/21,45.0,SC,45041.0,Florence County,24495.0,113664.0,510845.0,112997.0,132952.0,78491.0,75361.0,64485.0,28757.0,11874.0,4459.0,1351.0,118.0
68242,County,2020/01/22,45.0,SC,45041.0,Florence County,23687.0,114472.0,543402.0,119137.0,142847.0,84837.0,84000.0,66531.0,28106.0,11873.0,4820.0,1122.0,129.0
71427,County,2020/01/23,45.0,SC,45041.0,Florence County,24357.0,113802.0,526794.0,117001.0,133376.0,83496.0,83159.0,64104.0,28446.0,11049.0,4968.0,1106.0,89.0
74623,County,2020/01/24,45.0,SC,45041.0,Florence County,23855.0,114304.0,565075.0,126869.0,150187.0,89581.0,86023.0,66869.0,27258.0,12292.0,4730.0,1133.0,133.0
77816,County,2020/01/25,45.0,SC,45041.0,Florence County,25678.0,112481.0,539676.0,128202.0,145195.0,84798.0,79158.0,61953.0,23491.0,10507.0,5407.0,835.0,130.0
82185,County,2020/01/26,45.0,SC,45041.0,Florence County,27377.0,110782.0,453936.0,97943.0,128558.0,72010.0,67597.0,52697.0,20403.0,9540.0,4086.0,985.0,117.0
85788,County,2020/01/27,45.0,SC,45041.0,Florence County,23427.0,114732.0,521226.0,121090.0,138073.0,78779.0,78928.0,61846.0,27091.0,10151.0,4133.0,999.0,136.0
87993,County,2020/01/28,45.0,SC,45041.0,Florence County,24216.0,113943.0,517399.0,111011.0,137915.0,80601.0,80215.0,61972.0,28119.0,11611.0,4704.0,1129.0,122.0
90567,County,2020/01/29,45.0,SC,45041.0,Florence County,23730.0,114429.0,538383.0,115054.0,142579.0,85450.0,81784.0,68272.0,27927.0,11149.0,4569.0,1513.0,86.0
93920,County,2020/01/30,45.0,SC,45041.0,Florence County,23838.0,114321.0,520613.0,110341.0,136491.0,84561.0,80566.0,61692.0,27496.0,11646.0,6164.0,1457.0,199.0
96975,County,2020/01/31,45.0,SC,45041.0,Florence County,22935.0,115224.0,527158.0,113225.0,141879.0,80536.0,81094.0,63648.0,26325.0,12425.0,6369.0,1453.0,204.0
100224,County,2020/02/01,45.0,SC,45041.0,Florence County,25274.0,112885.0,513520.0,105890.0,144446.0,83369.0,77892.0,59937.0,24300.0,10621.0,5847.0,1019.0,199.0
104935,County,2020/02/02,45.0,SC,45041.0,Florence County,27856.0,110303.0,455915.0,102918.0,126384.0,74082.0,68842.0,50641.0,17798.0,8393.0,5732.0,905.0,220.0
106561,County,2020/02/03,45.0,SC,45041.0,Florence County,23119.0,115040.0,551423.0,129545.0,140967.0,88371.0,83008.0,61473.0,27566.0,12165.0,6618.0,1544.0,166.0
111323,County,2020/02/04,45.0,SC,45041.0,Florence County,22854.0,115305.0,547789.0,127224.0,142821.0,85297.0,81827.0,64677.0,26559.0,11582.0,6477.0,1160.0,165.0
114526,County,2020/02/05,45.0,SC,45041.0,Florence County,23386.0,114773.0,556885.0,123955.0,146574.0,86633.0,88661.0,65650.0,25003.0,11916.0,6787.0,1572.0,134.0
117733,County,2020/02/06,45.0,SC,45041.0,Florence County,22408.0,115751.0,500963.0,117640.0,137545.0,74204.0,73582.0,57145.0,23886.0,9908.0,5849.0,1024.0,180.0
119311,County,2020/02/07,45.0,SC,45041.0,Florence County,21173.0,116986.0,565655.0,124197.0,153010.0,87926.0,92450.0,65820.0,24176.0,11028.0,5531.0,1342.0,175.0
122557,County,2020/02/08,45.0,SC,45041.0,Florence County,25390.0,112769.0,516895.0,113175.0,144140.0,77562.0,78357.0,59339.0,24782.0,12250.0,6098.0,990.0,202.0
126349,County,2020/02/09,45.0,SC,45041.0,Florence County,28764.0,109395.0,372170.0,73252.0,105204.0,58539.0,61002.0,41767.0,16589.0,9286.0,4836.0,1212.0,483.0
130644,County,2020/02/10,45.0,SC,45041.0,Florence County,22134.0,116025.0,473650.0,99771.0,128290.0,73883.0,73281.0,57094.0,24835.0,10013.0,4691.0,1356.0,436.0
132605,County,2020/02/11,45.0,SC,45041.0,Florence County,20701.0,117458.0,482144.0,106368.0,129019.0,74241.0,72665.0,58271.0,24214.0,10784.0,4956.0,1236.0,390.0
136845,County,2020/02/12,45.0,SC,45041.0,Florence County,19776.0,118383.0,489525.0,104271.0,131700.0,75386.0,79197.0,58001.0,24224.0,10134.0,4831.0,1318.0,463.0
138540,County,2020/02/13,45.0,SC,45041.0,Florence County,20221.0,117938.0,485964.0,100459.0,135591.0,76472.0,72919.0,59726.0,23281.0,10555.0,5237.0,1293.0,431.0
141598,County,2020/02/14,45.0,SC,45041.0,Florence County,19172.0,118987.0,527351.0,106304.0,142545.0,87559.0,81424.0,63047.0,26232.0,12179.0,6389.0,1247.0,425.0
146476,County,2020/02/15,45.0,SC,45041.0,Florence County,22743.0,115416.0,475514.0,97456.0,131453.0,73571.0,75789.0,58164.0,21231.0,11076.0,5002.0,1166.0,606.0
148083,County,2020/02/16,45.0,SC,45041.0,Florence County,27026.0,111133.0,390874.0,74522.0,106039.0,62820.0,62570.0,47904.0,18959.0,10297.0,5571.0,1562.0,630.0
152845,County,2020/02/17,45.0,SC,45041.0,Florence County,26932.0,111227.0,391601.0,80144.0,103831.0,57621.0,63334.0,49379.0,20733.0,9903.0,5023.0,1254.0,379.0
154422,County,2020/02/18,45.0,SC,45041.0,Florence County,21874.0,116285.0,460846.0,95985.0,121331.0,71705.0,72651.0,58235.0,24615.0,9089.0,5423.0,1333.0,479.0
159232,County,2020/02/19,45.0,SC,45041.0,Florence County,22650.0,115509.0,456774.0,88987.0,123959.0,71400.0,73003.0,59744.0,22911.0,9719.0,5624.0,1162.0,265.0
162476,County,2020/02/20,45.0,SC,45041.0,Florence County,23258.0,114901.0,452893.0,92006.0,116335.0,72794.0,72137.0,58365.0,24159.0,10090.0,5712.0,1094.0,201.0
165621,County,2020/02/21,45.0,SC,45041.0,Florence County,22117.0,116042.0,491008.0,102306.0,130499.0,77098.0,78787.0,59227.0,24014.0,11438.0,6341.0,1128.0,170.0
167199,County,2020/02/22,45.0,SC,45041.0,Florence County,24480.0,113679.0,484406.0,101706.0,136464.0,71300.0,76851.0,58222.0,20851.0,11954.0,5664.0,1120.0,274.0
172014,County,2020/02/23,45.0,SC,45041.0,Florence County,25991.0,112168.0,411381.0,86067.0,112557.0,64844.0,65676.0,49181.0,17965.0,9359.0,4356.0,1243.0,133.0
173640,County,2020/02/24,45.0,SC,45041.0,Florence County,20469.0,117690.0,463120.0,89819.0,128241.0,73879.0,74341.0,59166.0,23495.0,8876.0,3954.0,970.0,379.0
178006,County,2020/02/25,45.0,SC,45041.0,Florence County,19551.0,118608.0,486147.0,95002.0,132750.0,74033.0,79047.0,63854.0,26328.0,9262.0,4298.0,1146.0,427.0
181199,County,2020/02/26,45.0,SC,45041.0,Florence County,22709.0,115450.0,560975.0,115257.0,163581.0,84294.0,89685.0,65089.0,27185.0,10562.0,4059.0,940.0,323.0
182616,County,2020/02/27,45.0,SC,45041.0,Florence County,18045.0,120114.0,505022.0,107098.0,131352.0,82500.0,81909.0,61704.0,25606.0,9722.0,3729.0,1146.0,256.0
188027,County,2020/02/28,45.0,SC,45041.0,Florence County,17910.0,120249.0,522867.0,104797.0,139880.0,85815.0,82225.0,66254.0,26436.0,11291.0,4892.0,1004.0,273.0
191173,County,2020/02/29,45.0,SC,45041.0,Florence County,20387.0,117772.0,511330.0,106446.0,145247.0,78563.0,76711.0,60545.0,27269.0,11982.0,3470.0,882.0,215.0
194392,County,2020/03/01,45.0,SC,45041.0,Florence County,26315.0,111844.0,471218.0,103031.0,131309.0,75040.0,73316.0,52435.0,20180.0,9170.0,4980.0,1419.0,338.0
196020,County,2020/03/02,45.0,SC,45041.0,Florence County,21784.0,116375.0,554138.0,122340.0,147170.0,85185.0,85624.0,65659.0,31552.0,10165.0,4795.0,1131.0,517.0
200871,County,2020/03/03,45.0,SC,45041.0,Florence County,20593.0,117566.0,584474.0,131043.0,154958.0,89601.0,89643.0,68854.0,30564.0,11728.0,6387.0,1434.0,262.0
203958,County,2020/03/04,45.0,SC,45041.0,Florence County,21384.0,116775.0,591092.0,126761.0,155234.0,93125.0,90969.0,70410.0,33100.0,12228.0,7537.0,1475.0,253.0
207162,County,2020/03/05,45.0,SC,45041.0,Florence County,20289.0,117870.0,568051.0,119144.0,149537.0,84794.0,89219.0,73062.0,30731.0,12259.0,7430.0,1707.0,168.0
208644,County,2020/03/06,45.0,SC,45041.0,Florence County,20528.0,117631.0,630100.0,139632.0,171819.0,94061.0,95203.0,74310.0,30322.0,15297.0,7663.0,1492.0,301.0
211994,County,2020/03/07,45.0,SC,45041.0,Florence County,22534.0,115625.0,596399.0,137567.0,162124.0,82956.0,89987.0,72465.0,27945.0,15901.0,5873.0,1142.0,439.0
216720,County,2020/03/08,45.0,SC,45041.0,Florence County,25563.0,112596.0,500032.0,110882.0,138375.0,78523.0,77670.0,54201.0,22167.0,10639.0,5769.0,1466.0,340.0
218362,County,2020/03/09,45.0,SC,45041.0,Florence County,23491.0,114668.0,576295.0,120357.0,159906.0,81614.0,88820.0,72282.0,31620.0,13538.0,6522.0,1338.0,298.0
223112,County,2020/03/10,45.0,SC,45041.0,Florence County,22758.0,115401.0,589075.0,130230.0,161370.0,86244.0,90224.0,69424.0,31116.0,12464.0,6673.0,1065.0,265.0
226341,County,2020/03/11,45.0,SC,45041.0,Florence County,22106.0,116053.0,611423.0,128357.0,171282.0,88460.0,89545.0,77011.0,33111.0,12418.0,9389.0,1325.0,525.0
227970,County,2020/03/12,45.0,SC,45041.0,Florence County,23160.0,114999.0,604233.0,133432.0,177284.0,85061.0,75915.0,83040.0,25342.0,13294.0,8121.0,2135.0,609.0
232701,County,2020/03/13,45.0,SC,45041.0,Florence County,21735.0,116424.0,647620.0,156191.0,171467.0,95853.0,89209.0,80300.0,28814.0,13509.0,10186.0,1236.0,855.0
235854,County,2020/03/14,45.0,SC,45041.0,Florence County,26709.0,111450.0,584712.0,132192.0,183061.0,73898.0,83715.0,61924.0,27548.0,12965.0,7662.0,1083.0,664.0
239083,County,2020/03/15,45.0,SC,45041.0,Florence County,30243.0,107916.0,458954.0,94546.0,136648.0,68979.0,68707.0,50900.0,20451.0,12367.0,4932.0,1093.0,331.0
242276,County,2020/03/16,45.0,SC,45041.0,Florence County,27676.0,110483.0,562248.0,126111.0,148397.0,86342.0,85726.0,67680.0,29645.0,11479.0,5027.0,1574.0,267.0
243941,County,2020/03/17,45.0,SC,45041.0,Florence County,30361.0,107798.0,495280.0,102100.0,131010.0,76243.0,72395.0,63541.0,28048.0,14023.0,6081.0,1558.0,281.0
247096,County,2020/03/18,45.0,SC,45041.0,Florence County,31184.0,106975.0,532207.0,124153.0,139744.0,76127.0,79641.0,66438.0,25416.0,13285.0,5378.0,1799.0,226.0
251878,County,2020/03/19,45.0,SC,45041.0,Florence County,30999.0,107160.0,518424.0,117484.0,143509.0,71819.0,76286.0,63862.0,26266.0,12183.0,5173.0,1583.0,259.0
255053,County,2020/03/20,45.0,SC,45041.0,Florence County,29261.0,108898.0,540294.0,121571.0,144996.0,79587.0,77569.0,67257.0,27537.0,14498.0,5816.0,1246.0,217.0
258245,County,2020/03/21,45.0,SC,45041.0,Florence County,33503.0,104656.0,495921.0,122120.0,140022.0,74710.0,74339.0,51591.0,18648.0,8913.0,4206.0,1131.0,241.0
261433,County,2020/03/22,45.0,SC,45041.0,Florence County,33245.0,104914.0,371768.0,88563.0,105032.0,52717.0,54926.0,41647.0,16268.0,6938.0,4503.0,1028.0,146.0
264645,County,2020/03/23,45.0,SC,45041.0,Florence County,29317.0,108842.0,436264.0,98542.0,124949.0,59260.0,62345.0,55095.0,21451.0,8317.0,5037.0,1091.0,177.0
266271,County,2020/03/24,45.0,SC,45041.0,Florence County,29943.0,108216.0,440203.0,112457.0,117741.0,59980.0,58890.0,53631.0,21317.0,9977.0,4838.0,1165.0,207.0
271023,County,2020/03/25,45.0,SC,45041.0,Florence County,30012.0,108147.0,451171.0,111658.0,114793.0,61474.0,65594.0,57086.0,23566.0,10090.0,5617.0,1047.0,246.0
272650,County,2020/03/26,45.0,SC,45041.0,Florence County,29945.0,108214.0,458481.0,115934.0,117692.0,63222.0,62947.0,59528.0,23238.0,9896.0,4685.0,1125.0,214.0
277412,County,2020/03/27,45.0,SC,45041.0,Florence County,29447.0,108712.0,484967.0,119138.0,130852.0,67213.0,70019.0,59531.0,21498.0,10159.0,5187.0,1209.0,161.0
279039,County,2020/03/28,45.0,SC,45041.0,Florence County,30909.0,107250.0,458874.0,123070.0,132550.0,61795.0,63082.0,46993.0,18462.0,7152.0,4683.0,859.0,228.0
283799,County,2020/03/29,45.0,SC,45041.0,Florence County,33496.0,104663.0,400036.0,107026.0,118393.0,50471.0,55479.0,42803.0,14030.0,6500.0,4041.0,1119.0,174.0
287024,County,2020/03/30,45.0,SC,45041.0,Florence County,29224.0,108935.0,445738.0,114124.0,117372.0,60241.0,63401.0,53019.0,22560.0,9711.0,4172.0,955.0,183.0
288622,County,2020/03/31,45.0,SC,45041.0,Florence County,30535.0,107624.0,450945.0,121524.0,120670.0,58149.0,60953.0,54364.0,19593.0,9358.0,5048.0,1050.0,236.0
291857,County,2020/04/01,45.0,SC,45041.0,Florence County,30101.0,108058.0,479343.0,133115.0,127980.0,60802.0,65430.0,56151.0,21146.0,9174.0,4429.0,893.0,223.0
296590,County,2020/04/02,45.0,SC,45041.0,Florence County,30827.0,107332.0,467171.0,132075.0,123103.0,56301.0,64228.0,55380.0,21184.0,7741.0,5452.0,1446.0,261.0
299769,County,2020/04/03,45.0,SC,45041.0,Florence County,29148.0,109011.0,501650.0,137828.0,136283.0,68643.0,65844.0,59679.0,19106.0,9044.0,3869.0,1045.0,309.0
301395,County,2020/04/04,45.0,SC,45041.0,Florence County,32378.0,105781.0,471073.0,137149.0,138477.0,58732.0,65908.0,45369.0,15159.0,5844.0,3013.0,1006.0,416.0
306149,County,2020/04/05,45.0,SC,45041.0,Florence County,32745.0,105414.0,436566.0,127937.0,135832.0,53305.0,58916.0,37193.0,14382.0,4733.0,3212.0,784.0,272.0
307784,County,2020/04/06,45.0,SC,45041.0,Florence County,29214.0,108945.0,480458.0,131248.0,127614.0,66560.0,67840.0,50663.0,21583.0,9209.0,4269.0,1268.0,204.0
312590,County,2020/04/07,45.0,SC,45041.0,Florence County,30656.0,107503.0,473404.0,130558.0,126370.0,57837.0,67869.0,54268.0,23107.0,8115.0,4186.0,951.0,143.0
314173,County,2020/04/08,45.0,SC,45041.0,Florence County,31300.0,106859.0,483280.0,135648.0,126793.0,66645.0,65137.0,53228.0,21877.0,9604.0,3361.0,865.0,122.0
317390,County,2020/04/09,45.0,SC,45041.0,Florence County,31081.0,107078.0,479849.0,130560.0,123582.0,66650.0,65053.0,54047.0,26382.0,7960.0,3986.0,1444.0,185.0
322127,County,2020/04/10,45.0,SC,45041.0,Florence County,28526.0,109633.0,492359.0,135748.0,133930.0,65073.0,70269.0,55564.0,18486.0,8172.0,4056.0,895.0,166.0
323802,County,2020/04/11,45.0,SC,45041.0,Florence County,28033.0,110126.0,509197.0,146447.0,143119.0,71031.0,68983.0,52537.0,16860.0,6393.0,2852.0,907.0,68.0
326947,County,2020/04/12,45.0,SC,45041.0,Florence County,34943.0,103216.0,377580.0,106129.0,110637.0,48351.0,52693.0,39329.0,12980.0,4399.0,2271.0,724.0,67.0
330212,County,2020/04/13,45.0,SC,45041.0,Florence County,30784.0,107375.0,447479.0,119364.0,121400.0,59857.0,59345.0,52679.0,21967.0,8096.0,3688.0,950.0,133.0
334884,County,2020/04/14,45.0,SC,45041.0,Florence County,27758.0,110401.0,553387.0,144665.0,152976.0,80379.0,85468.0,57095.0,20567.0,8242.0,2932.0,927.0,136.0
336561,County,2020/04/15,45.0,SC,45041.0,Florence County,26730.0,111429.0,524154.0,127749.0,142658.0,74773.0,78399.0,66560.0,22610.0,7577.0,3128.0,592.0,108.0
339715,County,2020/04/16,45.0,SC,45041.0,Florence County,28334.0,109825.0,565649.0,132031.0,168228.0,72888.0,90789.0,70631.0,21808.0,6700.0,2071.0,413.0,90.0
344494,County,2020/04/17,45.0,SC,45041.0,Florence County,25657.0,112502.0,580298.0,137763.0,164477.0,80294.0,92923.0,67846.0,23790.0,8674.0,3544.0,880.0,107.0
346121,County,2020/04/18,45.0,SC,45041.0,Florence County,28003.0,110156.0,572805.0,148060.0,167446.0,82312.0,82027.0,59889.0,19346.0,10516.0,2461.0,633.0,115.0
350874,County,2020/04/19,45.0,SC,45041.0,Florence County,29954.0,108205.0,408492.0,101278.0,126547.0,57086.0,56152.0,42351.0,15425.0,6395.0,2455.0,669.0,134.0
352499,County,2020/04/20,45.0,SC,45041.0,Florence County,28889.0,109270.0,508524.0,131565.0,159668.0,67236.0,65834.0,55485.0,17086.0,7539.0,2879.0,1037.0,195.0
355693,County,2020/04/21,45.0,SC,45041.0,Florence County,28028.0,110131.0,491698.0,121670.0,136020.0,66189.0,74326.0,55573.0,21695.0,10649.0,4324.0,1134.0,118.0
360463,County,2020/04/22,45.0,SC,45041.0,Florence County,28028.0,110131.0,479480.0,112802.0,131243.0,68161.0,68588.0,59671.0,24178.0,9813.0,3794.0,1142.0,88.0
363669,County,2020/04/23,45.0,SC,45041.0,Florence County,28454.0,109705.0,445914.0,99633.0,128227.0,61452.0,63333.0,53626.0,23907.0,10846.0,4041.0,750.0,99.0
365296,County,2020/04/24,45.0,SC,45041.0,Florence County,27361.0,110798.0,491105.0,114635.0,131439.0,69020.0,70787.0,60910.0,27898.0,10649.0,4661.0,1020.0,86.0
370037,County,2020/04/25,45.0,SC,45041.0,Florence County,28912.0,109247.0,487361.0,121048.0,134747.0,69998.0,71303.0,56370.0,20940.0,8284.0,3570.0,973.0,128.0
373231,County,2020/04/26,45.0,SC,45041.0,Florence County,31129.0,107030.0,421462.0,102547.0,126647.0,56832.0,58198.0,47335.0,20432.0,5936.0,2477.0,939.0,119.0
376463,County,2020/04/27,45.0,SC,45041.0,Florence County,27279.0,110880.0,490886.0,113925.0,131269.0,73445.0,72460.0,58293.0,25975.0,9999.0,4336.0,1055.0,129.0
379634,County,2020/04/28,45.0,SC,45041.0,Florence County,26865.0,111294.0,512448.0,126852.0,137509.0,70415.0,74753.0,61697.0,26284.0,9040.0,4507.0,1272.0,119.0
381261,County,2020/04/29,45.0,SC,45041.0,Florence County,27240.0,110919.0,480782.0,102245.0,135604.0,71290.0,74445.0,58676.0,25175.0,7873.0,4064.0,1320.0,90.0
384408,County,2020/04/30,45.0,SC,45041.0,Florence County,27313.0,110846.0,470266.0,96863.0,131441.0,70693.0,71376.0,59289.0,25300.0,10040.0,4108.0,1018.0,138.0
389243,County,2020/05/01,45.0,SC,45041.0,Florence County,26044.0,112115.0,507265.0,111461.0,138840.0,75772.0,80213.0,61199.0,25242.0,9029.0,4407.0,988.0,114.0
390815,County,2020/05/02,45.0,SC,45041.0,Florence County,27896.0,110263.0,501305.0,118729.0,141992.0,73327.0,76305.0,53929.0,22479.0,10129.0,3149.0,1232.0,34.0
395590,County,2020/05/03,45.0,SC,45041.0,Florence County,29880.0,108279.0,439148.0,101899.0,131048.0,60028.0,69491.0,48766.0,14499.0,9064.0,3029.0,1208.0,116.0
398783,County,2020/05/04,45.0,SC,45041.0,Florence County,26786.0,111373.0,504264.0,115453.0,140378.0,75076.0,76073.0,58564.0,23742.0,8908.0,4895.0,1128.0,47.0
401958,County,2020/05/05,45.0,SC,45041.0,Florence County,25297.0,112862.0,501874.0,114032.0,137510.0,73065.0,77085.0,60575.0,23288.0,10882.0,4241.0,1118.0,78.0
403588,County,2020/05/06,45.0,SC,45041.0,Florence County,25726.0,112433.0,497259.0,112487.0,133035.0,69827.0,80558.0,59732.0,25551.0,10346.0,4416.0,1137.0,170.0
408308,County,2020/05/07,45.0,SC,45041.0,Florence County,24911.0,113248.0,520166.0,114270.0,139788.0,75563.0,83579.0,63933.0,25688.0,11018.0,5127.0,952.0,248.0
411570,County,2020/05/08,45.0,SC,45041.0,Florence County,25031.0,113128.0,519926.0,111541.0,143826.0,77609.0,81208.0,64937.0,24488.0,10865.0,4702.0,668.0,82.0
413150,County,2020/05/09,45.0,SC,45041.0,Florence County,26353.0,111806.0,523128.0,119118.0,147165.0,76542.0,83154.0,61426.0,21659.0,10077.0,3144.0,743.0,100.0
416379,County,2020/05/10,45.0,SC,45041.0,Florence County,28087.0,110072.0,449236.0,101206.0,125409.0,64988.0,71319.0,54637.0,19876.0,8496.0,2502.0,736.0,67.0
419622,County,2020/05/11,45.0,SC,45041.0,Florence County,23158.0,115001.0,529395.0,130841.0,141802.0,74270.0,78185.0,59475.0,26781.0,11172.0,5405.0,1305.0,159.0
424382,County,2020/05/12,45.0,SC,45041.0,Florence County,22511.0,115648.0,549800.0,137113.0,145383.0,76058.0,79224.0,65737.0,26392.0,13402.0,5227.0,1188.0,76.0
425864,County,2020/05/13,45.0,SC,45041.0,Florence County,23787.0,114372.0,507922.0,122769.0,131371.0,69361.0,78786.0,61762.0,26358.0,11194.0,4695.0,1344.0,282.0
429205,County,2020/05/14,45.0,SC,45041.0,Florence County,23896.0,114263.0,506603.0,122829.0,130335.0,71461.0,77427.0,60111.0,25702.0,12225.0,4908.0,1357.0,248.0
432351,County,2020/05/15,45.0,SC,45041.0,Florence County,24013.0,114146.0,504952.0,121879.0,130086.0,70681.0,70365.0,63915.0,26757.0,13239.0,6376.0,1270.0,384.0
437100,County,2020/05/16,45.0,SC,45041.0,Florence County,24462.0,113697.0,518906.0,130804.0,138303.0,73029.0,73515.0,59579.0,24662.0,13729.0,3671.0,1265.0,349.0
440259,County,2020/05/17,45.0,SC,45041.0,Florence County,22830.0,115329.0,505874.0,120523.0,136938.0,67232.0,79658.0,62419.0,22652.0,12003.0,3515.0,815.0,119.0
443548,County,2020/05/18,45.0,SC,45041.0,Florence County,19489.0,118670.0,566889.0,142436.0,145265.0,83196.0,78940.0,68684.0,26794.0,15043.0,5373.0,1114.0,44.0
446711,County,2020/05/19,45.0,SC,45041.0,Florence County,19741.0,118418.0,518607.0,117841.0,133954.0,76012.0,80569.0,62364.0,27690.0,13544.0,5503.0,1071.0,59.0
449887,County,2020/05/20,45.0,SC,45041.0,Florence County,20831.0,117328.0,538327.0,123130.0,139526.0,78682.0,79038.0,68369.0,28357.0,13994.0,6052.0,1125.0,54.0
452777,County,2020/05/21,45.0,SC,45041.0,Florence County,19172.0,118987.0,556310.0,127035.0,146626.0,82575.0,86166.0,64898.0,28913.0,13453.0,5549.0,916.0,179.0
454700,County,2020/05/22,45.0,SC,45041.0,Florence County,17034.0,121125.0,590422.0,130437.0,154914.0,89990.0,93451.0,71350.0,28285.0,14378.0,5854.0,1507.0,256.0
459484,County,2020/05/23,45.0,SC,45041.0,Florence County,19973.0,118186.0,559599.0,126676.0,157487.0,79329.0,81397.0,67875.0,27925.0,12841.0,4257.0,1216.0,596.0
461065,County,2020/05/24,45.0,SC,45041.0,Florence County,25218.0,112941.0,382966.0,87054.0,104443.0,50003.0,57327.0,46771.0,18036.0,10801.0,4321.0,2353.0,1857.0
465941,County,2020/05/25,45.0,SC,45041.0,Florence County,26163.0,111996.0,392721.0,89947.0,103248.0,54412.0,59667.0,46067.0,19809.0,11313.0,4920.0,2174.0,1164.0
469049,County,2020/05/26,45.0,SC,45041.0,Florence County,21929.0,116230.0,453761.0,109787.0,115739.0,66609.0,66319.0,52039.0,23461.0,11123.0,4841.0,2059.0,1784.0
472289,County,2020/05/27,45.0,SC,45041.0,Florence County,24433.0,113726.0,471441.0,108129.0,124600.0,71232.0,69939.0,56194.0,22476.0,10601.0,5894.0,1848.0,528.0
473823,County,2020/05/28,45.0,SC,45041.0,Florence County,23587.0,114572.0,488974.0,113627.0,130838.0,66248.0,70324.0,61400.0,25724.0,12185.0,6735.0,1778.0,115.0
478627,County,2020/05/29,45.0,SC,45041.0,Florence County,28429.0,109730.0,490312.0,116864.0,133362.0,68204.0,69475.0,59477.0,23182.0,11303.0,6607.0,1755.0,83.0
481827,County,2020/05/30,45.0,SC,45041.0,Florence County,28825.0,109334.0,494389.0,104186.0,143073.0,72747.0,77322.0,56553.0,22661.0,10925.0,5633.0,1178.0,111.0
483383,County,2020/05/31,45.0,SC,45041.0,Florence County,28753.0,109406.0,433812.0,101249.0,126324.0,62270.0,66459.0,43703.0,16261.0,10817.0,5015.0,1550.0,164.0
486649,County,2020/06/01,45.0,SC,45041.0,Florence County,23028.0,115131.0,498447.0,121390.0,126028.0,73705.0,79976.0,57009.0,21594.0,11200.0,5871.0,1445.0,229.0
489890,County,2020/06/02,45.0,SC,45041.0,Florence County,24860.0,113299.0,494782.0,120948.0,125388.0,66482.0,74134.0,60977.0,25730.0,13026.0,6199.0,1564.0,334.0
494602,County,2020/06/03,45.0,SC,45041.0,Florence County,21536.0,116623.0,563060.0,143075.0,147516.0,79805.0,76726.0,65861.0,28626.0,13137.0,6178.0,1878.0,258.0
496221,County,2020/06/04,45.0,SC,45041.0,Florence County,22557.0,115602.0,520472.0,131264.0,137781.0,71776.0,71711.0,60579.0,26585.0,12284.0,6588.0,1727.0,177.0
500997,County,2020/06/05,45.0,SC,45041.0,Florence County,22995.0,115164.0,538351.0,124255.0,140593.0,78706.0,82241.0,61866.0,28616.0,13305.0,7062.0,1481.0,226.0
504198,County,2020/06/06,45.0,SC,45041.0,Florence County,26365.0,111794.0,481307.0,102872.0,133737.0,68315.0,72998.0,60112.0,25080.0,10722.0,5837.0,1480.0,154.0
507349,County,2020/06/07,45.0,SC,45041.0,Florence County,26999.0,111160.0,449500.0,99281.0,125144.0,64527.0,71771.0,49072.0,20498.0,11416.0,6562.0,1055.0,174.0
508986,County,2020/06/08,45.0,SC,45041.0,Florence County,22011.0,116148.0,517412.0,119780.0,138363.0,73702.0,76908.0,62908.0,27822.0,10838.0,5747.0,1155.0,189.0
513764,County,2020/06/09,45.0,SC,45041.0,Florence County,23853.0,114306.0,479094.0,105774.0,124992.0,68816.0,74233.0,59476.0,26932.0,11205.0,5769.0,1515.0,382.0
515394,County,2020/06/10,45.0,SC,45041.0,Florence County,23763.0,114396.0,492461.0,108305.0,135255.0,71480.0,73631.0,54736.0,26266.0,13410.0,6673.0,2176.0,529.0
518598,County,2020/06/11,45.0,SC,45041.0,Florence County,23171.0,114988.0,498571.0,108204.0,127938.0,74480.0,76791.0,60180.0,28914.0,13720.0,6295.0,1650.0,399.0
523349,County,2020/06/12,45.0,SC,45041.0,Florence County,23535.0,114624.0,506157.0,111712.0,137030.0,74492.0,77711.0,57737.0,26139.0,12508.0,7062.0,1481.0,285.0
526536,County,2020/06/13,45.0,SC,45041.0,Florence County,23756.0,114403.0,544970.0,130549.0,152024.0,77152.0,75790.0,62159.0,24641.0,14454.0,6436.0,1632.0,133.0
528171,County,2020/06/14,45.0,SC,45041.0,Florence County,26926.0,111233.0,421261.0,103607.0,108576.0,59056.0,63191.0,49528.0,19826.0,10719.0,4959.0,1544.0,255.0
531369,County,2020/06/15,45.0,SC,45041.0,Florence County,25809.0,112350.0,446903.0,100983.0,111181.0,63732.0,65668.0,59776.0,25590.0,11229.0,7194.0,1317.0,233.0
534559,County,2020/06/16,45.0,SC,45041.0,Florence County,25248.0,112911.0,483401.0,113633.0,119998.0,68456.0,70455.0,62365.0,26853.0,12896.0,6695.0,1899.0,151.0
537752,County,2020/06/17,45.0,SC,45041.0,Florence County,23682.0,114477.0,558879.0,164533.0,136656.0,71433.0,75905.0,63063.0,26571.0,11431.0,7111.0,2067.0,109.0
542513,County,2020/06/18,45.0,SC,45041.0,Florence County,23274.0,114885.0,521548.0,127261.0,127865.0,75865.0,77418.0,63573.0,28949.0,12469.0,6288.0,1755.0,105.0
544140,County,2020/06/19,45.0,SC,45041.0,Florence County,23979.0,114180.0,488837.0,110088.0,125678.0,72469.0,71303.0,60908.0,26384.0,13708.0,6546.0,1485.0,268.0
547345,County,2020/06/20,45.0,SC,45041.0,Florence County,24838.0,113321.0,489608.0,113021.0,130308.0,76933.0,69218.0,57843.0,22291.0,12340.0,5867.0,1554.0,233.0
552088,County,2020/06/21,45.0,SC,45041.0,Florence County,28391.0,109768.0,429845.0,102210.0,111317.0,61249.0,62560.0,52985.0,23225.0,10228.0,4256.0,1618.0,197.0
553724,County,2020/06/22,45.0,SC,45041.0,Florence County,23467.0,114692.0,465726.0,107461.0,113818.0,72793.0,70659.0,58432.0,23283.0,11660.0,5931.0,1448.0,241.0
558484,County,2020/06/23,45.0,SC,45041.0,Florence County,24063.0,114096.0,516384.0,124380.0,129453.0,75950.0,74650.0,64208.0,26048.0,13348.0,6317.0,1718.0,312.0
560115,County,2020/06/24,45.0,SC,45041.0,Florence County,25817.0,112342.0,473043.0,115339.0,117488.0,67092.0,71473.0,57602.0,24096.0,11845.0,6036.0,1894.0,178.0
563306,County,2020/06/25,45.0,SC,45041.0,Florence County,25283.0,112876.0,476923.0,115454.0,120726.0,67858.0,66992.0,60511.0,24487.0,11803.0,6551.0,2323.0,218.0
566558,County,2020/06/26,45.0,SC,45041.0,Florence County,24690.0,113469.0,510071.0,121505.0,137726.0,72453.0,70143.0,63123.0,25037.0,11584.0,6765.0,1545.0,190.0
569680,County,2020/06/27,45.0,SC,45041.0,Florence County,25313.0,112846.0,517307.0,126555.0,144275.0,70554.0,73948.0,60734.0,21779.0,12087.0,5621.0,1561.0,193.0
572877,County,2020/06/28,45.0,SC,45041.0,Florence County,26403.0,111756.0,435739.0,106860.0,114096.0,58478.0,63942.0,52382.0,19047.0,12011.0,6857.0,1801.0,265.0
577655,County,2020/06/29,45.0,SC,45041.0,Florence County,26628.0,111531.0,465828.0,116194.0,120334.0,65366.0,67327.0,52058.0,23988.0,12281.0,6118.0,1878.0,284.0
579297,County,2020/06/30,45.0,SC,45041.0,Florence County,26044.0,112115.0,450739.0,101940.0,120112.0,64912.0,65823.0,52173.0,26079.0,10780.0,6760.0,1748.0,412.0
584041,County,2020/07/01,45.0,SC,45041.0,Florence County,24873.0,113286.0,482990.0,133103.0,116638.0,66908.0,66854.0,56036.0,23591.0,11590.0,5936.0,1765.0,569.0
587234,County,2020/07/02,45.0,SC,45041.0,Florence County,26148.0,112011.0,506209.0,122543.0,128139.0,72025.0,71106.0,64227.0,25991.0,12528.0,6953.0,2466.0,231.0
588875,County,2020/07/03,45.0,SC,45041.0,Florence County,28554.0,109605.0,507197.0,120820.0,136950.0,72045.0,69748.0,62767.0,24896.0,11519.0,6727.0,1536.0,189.0
592083,County,2020/07/04,45.0,SC,45041.0,Florence County,29176.0,108983.0,433920.0,103365.0,117164.0,61636.0,59671.0,53699.0,21299.0,9855.0,5755.0,1314.0,162.0
595269,County,2020/07/05,45.0,SC,45041.0,Florence County,27479.0,110680.0,405997.0,101027.0,103475.0,59800.0,59651.0,43245.0,20789.0,10615.0,5467.0,1340.0,588.0
597920,County,2020/07/06,45.0,SC,45041.0,Florence County,27709.0,110450.0,424011.0,103484.0,103600.0,63826.0,63602.0,48325.0,22214.0,10890.0,6237.0,1392.0,441.0
602024,County,2020/07/07,45.0,SC,45041.0,Florence County,26466.0,111693.0,442274.0,103116.0,114051.0,62315.0,68810.0,54869.0,21890.0,9575.0,5833.0,1394.0,421.0
604824,County,2020/07/08,45.0,SC,45041.0,Florence County,25960.0,112199.0,533141.0,176220.0,126314.0,67588.0,66723.0,52686.0,23516.0,10688.0,7296.0,1742.0,368.0
609596,County,2020/07/09,45.0,SC,45041.0,Florence County,25612.0,112547.0,453562.0,105428.0,113594.0,65187.0,71471.0,53550.0,23948.0,11914.0,7076.0,1021.0,373.0
612801,County,2020/07/10,45.0,SC,45041.0,Florence County,25806.0,112353.0,470935.0,107904.0,122672.0,67682.0,66633.0,59373.0,26046.0,11357.0,6980.0,1866.0,422.0
614430,County,2020/07/11,45.0,SC,45041.0,Florence County,27515.0,110644.0,446874.0,107538.0,117357.0,63668.0,65949.0,50160.0,22930.0,10567.0,6724.0,1556.0,425.0
617601,County,2020/07/12,45.0,SC,45041.0,Florence County,29369.0,108790.0,385470.0,84619.0,102250.0,52181.0,61073.0,49066.0,18096.0,10638.0,5693.0,1285.0,569.0
620791,County,2020/07/13,45.0,SC,45041.0,Florence County,25981.0,112178.0,446361.0,108816.0,113490.0,58500.0,61225.0,56779.0,27411.0,11449.0,6746.0,1563.0,382.0
623991,County,2020/07/14,45.0,SC,45041.0,Florence County,26751.0,111408.0,476051.0,113357.0,117198.0,71019.0,69289.0,57181.0,27831.0,12510.0,6064.0,1329.0,273.0
628729,County,2020/07/15,45.0,SC,45041.0,Florence County,26257.0,111902.0,478090.0,109854.0,124571.0,69088.0,69548.0,58834.0,27096.0,11854.0,5846.0,1234.0,165.0
630354,County,2020/07/16,45.0,SC,45041.0,Florence County,26723.0,111436.0,477973.0,118095.0,123714.0,65330.0,66942.0,60506.0,25825.0,11052.0,5187.0,1211.0,111.0
633561,County,2020/07/17,45.0,SC,45041.0,Florence County,26185.0,111974.0,475554.0,109666.0,124941.0,69164.0,71282.0,59968.0,24119.0,10213.0,5043.0,1046.0,112.0
638341,County,2020/07/18,45.0,SC,45041.0,Florence County,28473.0,109686.0,467938.0,112355.0,123996.0,64295.0,66711.0,57600.0,25416.0,11347.0,5118.0,941.0,159.0
641544,County,2020/07/19,45.0,SC,45041.0,Florence County,32059.0,106100.0,385289.0,97284.0,104526.0,52620.0,56162.0,40190.0,18876.0,8693.0,5425.0,1272.0,241.0
643155,County,2020/07/20,45.0,SC,45041.0,Florence County,29767.0,108392.0,460304.0,112070.0,120164.0,64748.0,66561.0,56812.0,22853.0,11121.0,4651.0,1214.0,110.0
647201,County,2020/07/21,45.0,SC,45041.0,Florence County,27714.0,110445.0,447639.0,107051.0,112098.0,63068.0,67564.0,55463.0,24717.0,10419.0,5693.0,1251.0,315.0
651108,County,2020/07/22,45.0,SC,45041.0,Florence County,27063.0,111096.0,469672.0,104761.0,119037.0,66254.0,71027.0,58215.0,32407.0,11559.0,5224.0,936.0,252.0
654303,County,2020/07/23,45.0,SC,45041.0,Florence County,27779.0,110380.0,439329.0,94192.0,116043.0,61671.0,63801.0,53974.0,31754.0,10688.0,5747.0,1200.0,259.0
655774,County,2020/07/24,45.0,SC,45041.0,Florence County,26100.0,112059.0,471399.0,105352.0,119240.0,65350.0,73405.0,60555.0,27823.0,12901.0,5303.0,1189.0,281.0
659119,County,2020/07/25,45.0,SC,45041.0,Florence County,28977.0,109182.0,433221.0,98300.0,114252.0,60179.0,67664.0,54704.0,22134.0,10121.0,4498.0,1203.0,166.0
662319,County,2020/07/26,45.0,SC,45041.0,Florence County,29055.0,109104.0,436066.0,94732.0,120451.0,58739.0,70425.0,50552.0,21929.0,12178.0,5273.0,1489.0,298.0
665614,County,2020/07/27,45.0,SC,45041.0,Florence County,28134.0,110025.0,475692.0,107965.0,127146.0,61625.0,70435.0,62094.0,27279.0,11616.0,5764.0,1385.0,383.0
668776,County,2020/07/28,45.0,SC,45041.0,Florence County,27365.0,110794.0,484928.0,112673.0,125054.0,68028.0,73146.0,59034.0,27673.0,11924.0,5707.0,1279.0,410.0
673564,County,2020/07/29,45.0,SC,45041.0,Florence County,27482.0,110677.0,472764.0,108985.0,122374.0,66247.0,71328.0,57663.0,27108.0,10763.0,6331.0,1542.0,423.0
675095,County,2020/07/30,45.0,SC,45041.0,Florence County,25404.0,112755.0,491206.0,108446.0,127523.0,69309.0,74480.0,61156.0,28882.0,12100.0,6997.0,1908.0,405.0
678296,County,2020/07/31,45.0,SC,45041.0,Florence County,27792.0,110367.0,453634.0,96977.0,122140.0,66723.0,68764.0,55253.0,23204.0,11209.0,6813.0,2125.0,426.0
683042,County,2020/08/01,45.0,SC,45041.0,Florence County,29693.0,108466.0,430020.0,101942.0,113877.0,62910.0,61921.0,49511.0,20842.0,10440.0,6215.0,1920.0,442.0
684676,County,2020/08/02,45.0,SC,45041.0,Florence County,30832.0,107327.0,391280.0,87211.0,103009.0,55629.0,55973.0,48062.0,20344.0,11325.0,6593.0,2827.0,307.0
687873,County,2020/08/03,45.0,SC,45041.0,Florence County,27414.0,110745.0,466681.0,96828.0,130607.0,64069.0,70881.0,59846.0,26480.0,10588.0,5619.0,1597.0,166.0
692648,County,2020/08/04,45.0,SC,45041.0,Florence County,25445.0,112714.0,497837.0,113952.0,127378.0,73306.0,77147.0,60757.0,27385.0,11400.0,5235.0,1166.0,111.0
695824,County,2020/08/05,45.0,SC,45041.0,Florence County,26416.0,111743.0,511339.0,139107.0,126637.0,71020.0,67228.0,63468.0,25152.0,11634.0,5445.0,1527.0,121.0
699019,County,2020/08/06,45.0,SC,45041.0,Florence County,25203.0,112956.0,499027.0,111484.0,128121.0,70414.0,78143.0,62487.0,27644.0,13150.0,5912.0,1566.0,106.0
702215,County,2020/08/07,45.0,SC,45041.0,Florence County,25901.0,112258.0,508115.0,121629.0,131860.0,73258.0,69903.0,63820.0,26994.0,13282.0,5725.0,1555.0,89.0
703844,County,2020/08/08,45.0,SC,45041.0,Florence County,27266.0,110893.0,444939.0,90060.0,125206.0,65068.0,68917.0,56666.0,20994.0,11073.0,5569.0,1291.0,95.0
708626,County,2020/08/09,45.0,SC,45041.0,Florence County,29483.0,108676.0,401514.0,77916.0,114237.0,58361.0,61613.0,52146.0,19811.0,10744.0,5232.0,1273.0,181.0
710255,County,2020/08/10,45.0,SC,45041.0,Florence County,26768.0,111391.0,438388.0,89877.0,115294.0,61450.0,64711.0,60013.0,26453.0,12737.0,6268.0,1400.0,185.0
713472,County,2020/08/11,45.0,SC,45041.0,Florence County,27513.0,110646.0,460394.0,97671.0,114442.0,68128.0,69738.0,63789.0,27162.0,12716.0,5129.0,1486.0,133.0
716618,County,2020/08/12,45.0,SC,45041.0,Florence County,26523.0,111636.0,417547.0,78196.0,103420.0,63513.0,70332.0,56064.0,25566.0,10951.0,6938.0,2013.0,554.0
721377,County,2020/08/13,45.0,SC,45041.0,Florence County,24890.0,113269.0,423405.0,82350.0,107142.0,60781.0,68390.0,57308.0,25218.0,12163.0,6843.0,2345.0,865.0
723004,County,2020/08/14,45.0,SC,45041.0,Florence County,24070.0,114089.0,467060.0,95519.0,116553.0,70685.0,72097.0,63133.0,27174.0,11872.0,7385.0,1798.0,844.0
726235,County,2020/08/15,45.0,SC,45041.0,Florence County,26394.0,111765.0,433063.0,89621.0,111997.0,65181.0,68085.0,56533.0,23171.0,10319.0,5962.0,1351.0,843.0
729394,County,2020/08/16,45.0,SC,45041.0,Florence County,28942.0,109217.0,401441.0,75177.0,106173.0,58937.0,67474.0,49644.0,20792.0,12342.0,7491.0,2060.0,1351.0
734174,County,2020/08/17,45.0,SC,45041.0,Florence County,28178.0,109981.0,450442.0,89076.0,116280.0,64436.0,71138.0,60034.0,26694.0,11635.0,7541.0,2591.0,1017.0
737346,County,2020/08/18,45.0,SC,45041.0,Florence County,28067.0,110092.0,400259.0,76767.0,96635.0,58516.0,64366.0,53782.0,26663.0,12322.0,7314.0,2514.0,1380.0
740541,County,2020/08/19,45.0,SC,45041.0,Florence County,26259.0,111900.0,426412.0,83150.0,102826.0,64642.0,65623.0,57000.0,29710.0,13150.0,6893.0,2217.0,1201.0
742170,County,2020/08/20,45.0,SC,45041.0,Florence County,25598.0,112561.0,435000.0,83212.0,102478.0,64646.0,70164.0,60946.0,29722.0,13508.0,7286.0,1863.0,1175.0
746945,County,2020/08/21,45.0,SC,45041.0,Florence County,23622.0,114537.0,468199.0,89310.0,119993.0,75632.0,74146.0,61724.0,25522.0,12278.0,6582.0,1871.0,1141.0
748574,County,2020/08/22,45.0,SC,45041.0,Florence County,26300.0,111859.0,445531.0,90419.0,120505.0,62389.0,72129.0,56275.0,21376.0,12957.0,6554.0,1665.0,1262.0
751768,County,2020/08/23,45.0,SC,45041.0,Florence County,29487.0,108672.0,366339.0,72333.0,96161.0,55237.0,61000.0,42903.0,19122.0,11399.0,5358.0,1901.0,925.0
756511,County,2020/08/24,45.0,SC,45041.0,Florence County,28198.0,109961.0,387489.0,78529.0,103533.0,58067.0,59984.0,48254.0,20828.0,10292.0,5336.0,1902.0,764.0
758140,County,2020/08/25,45.0,SC,45041.0,Florence County,27203.0,110956.0,421029.0,85275.0,110929.0,64365.0,66451.0,51968.0,24891.0,9413.0,5340.0,1640.0,757.0
761333,County,2020/08/26,45.0,SC,45041.0,Florence County,27026.0,111133.0,408320.0,78267.0,102826.0,65231.0,64916.0,55387.0,22867.0,10874.0,5856.0,1555.0,541.0
764491,County,2020/08/27,45.0,SC,45041.0,Florence County,27170.0,110989.0,424486.0,80547.0,112372.0,62299.0,70797.0,55687.0,23263.0,11225.0,6150.0,1572.0,574.0
767697,County,2020/08/28,45.0,SC,45041.0,Florence County,26515.0,111644.0,448111.0,85001.0,114511.0,70284.0,74212.0,56993.0,27079.0,11670.0,6545.0,1349.0,467.0
772474,County,2020/08/29,45.0,SC,45041.0,Florence County,27430.0,110729.0,448635.0,93322.0,121067.0,64488.0,76657.0,54434.0,21703.0,10366.0,4793.0,1165.0,640.0
775677,County,2020/08/30,45.0,SC,45041.0,Florence County,30335.0,107824.0,371497.0,71942.0,100426.0,53845.0,60241.0,45771.0,18618.0,11893.0,6225.0,1773.0,763.0
778875,County,2020/08/31,45.0,SC,45041.0,Florence County,27910.0,110249.0,405435.0,80960.0,101950.0,60680.0,60915.0,52512.0,26473.0,12775.0,6703.0,1667.0,800.0
780486,County,2020/09/01,45.0,SC,45041.0,Florence County,26503.0,111656.0,437406.0,82694.0,114929.0,66001.0,71888.0,54426.0,27464.0,11439.0,6746.0,1279.0,540.0
784514,County,2020/09/02,45.0,SC,45041.0,Florence County,27278.0,110881.0,441907.0,91124.0,113282.0,63777.0,69147.0,58619.0,26244.0,10980.0,6517.0,1652.0,565.0
788470,County,2020/09/03,45.0,SC,45041.0,Florence County,25368.0,112791.0,491165.0,102628.0,127699.0,77726.0,76303.0,57974.0,28667.0,11843.0,6216.0,1536.0,573.0
791653,County,2020/09/04,45.0,SC,45041.0,Florence County,27524.0,110635.0,426810.0,85265.0,108777.0,62185.0,68500.0,55115.0,25562.0,12801.0,6392.0,1639.0,574.0
794847,County,2020/09/05,45.0,SC,45041.0,Florence County,27011.0,111148.0,452121.0,93949.0,122539.0,68221.0,71193.0,56149.0,20900.0,12531.0,5085.0,1114.0,440.0
796446,County,2020/09/06,45.0,SC,45041.0,Florence County,31040.0,107119.0,380544.0,71968.0,111146.0,56031.0,58898.0,44181.0,19874.0,10571.0,5986.0,1254.0,635.0
799659,County,2020/09/07,45.0,SC,45041.0,Florence County,31688.0,106471.0,362656.0,69079.0,100912.0,54155.0,57351.0,41617.0,19819.0,12252.0,5130.0,1726.0,615.0
804421,County,2020/09/08,45.0,SC,45041.0,Florence County,28347.0,109812.0,431375.0,84916.0,111204.0,63147.0,68407.0,57846.0,26289.0,11422.0,6428.0,1193.0,523.0
806050,County,2020/09/09,45.0,SC,45041.0,Florence County,27517.0,110642.0,439677.0,78170.0,114499.0,69308.0,72544.0,58497.0,27090.0,11164.0,6391.0,1479.0,535.0
810818,County,2020/09/10,45.0,SC,45041.0,Florence County,26612.0,111547.0,428229.0,81448.0,115185.0,60413.0,69038.0,55841.0,25708.0,11710.0,6320.0,1901.0,665.0
812447,County,2020/09/11,45.0,SC,45041.0,Florence County,25893.0,112266.0,474097.0,95330.0,126211.0,69520.0,71035.0,63079.0,28811.0,12830.0,5263.0,1468.0,550.0
817197,County,2020/09/12,45.0,SC,45041.0,Florence County,29165.0,108994.0,417482.0,76755.0,120575.0,59948.0,64116.0,52028.0,22316.0,13161.0,6589.0,1488.0,506.0
818804,County,2020/09/13,45.0,SC,45041.0,Florence County,31415.0,106744.0,358995.0,60842.0,99797.0,51353.0,55430.0,48471.0,19090.0,14082.0,7532.0,1527.0,871.0
823586,County,2020/09/14,45.0,SC,45041.0,Florence County,27324.0,110835.0,438199.0,81333.0,116795.0,66596.0,64099.0,61749.0,26700.0,12227.0,6382.0,1695.0,623.0
825214,County,2020/09/15,45.0,SC,45041.0,Florence County,28004.0,110155.0,462853.0,92591.0,114143.0,71711.0,70252.0,64110.0,28723.0,12197.0,6816.0,1860.0,450.0
828455,County,2020/09/16,45.0,SC,45041.0,Florence County,26815.0,111344.0,454644.0,86000.0,115191.0,70394.0,73733.0,61123.0,27948.0,10822.0,7161.0,1687.0,585.0
831600,County,2020/09/17,45.0,SC,45041.0,Florence County,28035.0,110124.0,424626.0,75125.0,113074.0,64293.0,67219.0,57435.0,27541.0,11739.0,5673.0,2027.0,500.0
836361,County,2020/09/18,45.0,SC,45041.0,Florence County,27111.0,111048.0,484502.0,89008.0,127512.0,76810.0,77237.0,61837.0,29336.0,13154.0,7616.0,1602.0,390.0
837990,County,2020/09/19,45.0,SC,45041.0,Florence County,28151.0,110008.0,490725.0,93840.0,136483.0,72302.0,79559.0,63001.0,22709.0,14082.0,6643.0,1660.0,446.0
842765,County,2020/09/20,45.0,SC,45041.0,Florence County,30780.0,107379.0,390552.0,78166.0,108659.0,57076.0,60986.0,47852.0,19249.0,11331.0,5556.0,1335.0,342.0
845970,County,2020/09/21,45.0,SC,45041.0,Florence County,30647.0,107512.0,422593.0,112291.0,104218.0,57331.0,55024.0,51730.0,23758.0,10718.0,5713.0,1711.0,99.0
849137,County,2020/09/22,45.0,SC,45041.0,Florence County,27300.0,110859.0,432175.0,86197.0,111212.0,63598.0,66228.0,60964.0,26141.0,12118.0,4514.0,1078.0,125.0
850765,County,2020/09/23,45.0,SC,45041.0,Florence County,25912.0,112247.0,447059.0,89739.0,119325.0,67718.0,67292.0,58158.0,26374.0,11745.0,4909.0,1694.0,105.0
855531,County,2020/09/24,45.0,SC,45041.0,Florence County,25662.0,112497.0,468952.0,102171.0,119447.0,66521.0,71479.0,64965.0,25377.0,11680.0,5521.0,1642.0,149.0
857160,County,2020/09/25,45.0,SC,45041.0,Florence County,25003.0,113156.0,452706.0,85544.0,115247.0,70096.0,76110.0,60678.0,25530.0,13126.0,5075.0,1239.0,61.0
861914,County,2020/09/26,45.0,SC,45041.0,Florence County,27972.0,110187.0,446146.0,90753.0,122974.0,65239.0,68453.0,56091.0,24279.0,12856.0,4326.0,1027.0,148.0
863518,County,2020/09/27,45.0,SC,45041.0,Florence County,28886.0,109273.0,398894.0,78501.0,113831.0,55487.0,63467.0,46614.0,21628.0,12715.0,5015.0,1502.0,134.0
868301,County,2020/09/28,45.0,SC,45041.0,Florence County,25859.0,112300.0,416563.0,81861.0,106157.0,64353.0,63974.0,60058.0,23384.0,11228.0,4128.0,1307.0,113.0
869929,County,2020/09/29,45.0,SC,45041.0,Florence County,27261.0,110898.0,433150.0,84794.0,112694.0,63063.0,67658.0,59531.0,28044.0,11800.0,4514.0,873.0,179.0
874708,County,2020/09/30,45.0,SC,45041.0,Florence County,27733.0,110426.0,418764.0,77290.0,110039.0,65513.0,62422.0,56271.0,28090.0,11287.0,6557.0,1140.0,155.0
877862,County,2020/10/01,45.0,SC,45041.0,Florence County,24595.0,113564.0,452340.0,90379.0,115241.0,68362.0,68680.0,61469.0,27602.0,12976.0,6052.0,1342.0,237.0
881077,County,2020/10/02,45.0,SC,45041.0,Florence County,25401.0,112758.0,469729.0,89231.0,127218.0,71515.0,74258.0,62872.0,26660.0,10879.0,5944.0,1020.0,132.0
884272,County,2020/10/03,45.0,SC,45041.0,Florence County,29010.0,109149.0,443422.0,88644.0,120207.0,69743.0,67179.0,55598.0,23558.0,11971.0,5570.0,819.0,133.0
887048,County,2020/10/04,45.0,SC,45041.0,Florence County,28594.0,109565.0,389962.0,71627.0,105882.0,53922.0,64208.0,53842.0,21473.0,11937.0,5704.0,1190.0,177.0
890234,County,2020/10/05,45.0,SC,45041.0,Florence County,30510.0,107649.0,416028.0,77574.0,112358.0,65548.0,64321.0,54205.0,22878.0,12750.0,5096.0,1138.0,160.0
893505,County,2020/10/06,45.0,SC,45041.0,Florence County,26690.0,111469.0,437329.0,83465.0,109711.0,65709.0,73933.0,57135.0,28107.0,12563.0,5546.0,1023.0,137.0
896657,County,2020/10/07,45.0,SC,45041.0,Florence County,26244.0,111915.0,450591.0,82382.0,122061.0,66790.0,68337.0,63332.0,27453.0,13419.0,5479.0,1178.0,160.0
899837,County,2020/10/08,45.0,SC,45041.0,Florence County,26686.0,111473.0,407141.0,74174.0,102610.0,64153.0,65624.0,54993.0,27407.0,12188.0,4621.0,1205.0,166.0
903016,County,2020/10/09,45.0,SC,45041.0,Florence County,26666.0,111493.0,422232.0,68892.0,112873.0,67468.0,65931.0,61018.0,25990.0,13672.0,4910.0,1315.0,163.0
906327,County,2020/10/10,45.0,SC,45041.0,Florence County,29964.0,108195.0,413959.0,74965.0,112692.0,63859.0,67323.0,52942.0,24200.0,11762.0,5026.0,1052.0,138.0
908438,County,2020/10/11,45.0,SC,45041.0,Florence County,31029.0,107130.0,340401.0,62870.0,92748.0,50812.0,59659.0,40107.0,17198.0,9537.0,6432.0,943.0,95.0
911408,County,2020/10/12,45.0,SC,45041.0,Florence County,27892.0,110267.0,421853.0,80079.0,106796.0,65986.0,68843.0,57972.0,24406.0,11404.0,5127.0,1155.0,85.0
914227,County,2020/10/13,45.0,SC,45041.0,Florence County,26871.0,111288.0,413584.0,77082.0,105220.0,64099.0,66340.0,56427.0,26925.0,11032.0,5317.0,982.0,160.0
917875,County,2020/10/14,45.0,SC,45041.0,Florence County,26326.0,111833.0,441562.0,82550.0,113523.0,66570.0,72378.0,60320.0,26375.0,13218.0,5494.0,976.0,158.0
920753,County,2020/10/15,45.0,SC,45041.0,Florence County,28539.0,109620.0,380256.0,69283.0,101935.0,55777.0,56898.0,52080.0,25602.0,11367.0,5919.0,1163.0,232.0
923965,County,2020/10/16,45.0,SC,45041.0,Florence County,25883.0,112276.0,448933.0,83636.0,117632.0,66054.0,75347.0,60569.0,26049.0,12185.0,6353.0,915.0,193.0
926661,County,2020/10/17,45.0,SC,45041.0,Florence County,28828.0,109331.0,419329.0,81007.0,113975.0,60450.0,73282.0,53206.0,20398.0,11061.0,4847.0,874.0,229.0
930283,County,2020/10/18,45.0,SC,45041.0,Florence County,29265.0,108894.0,381293.0,75930.0,99310.0,52509.0,61878.0,53464.0,19738.0,11282.0,5675.0,1326.0,181.0
933114,County,2020/10/19,45.0,SC,45041.0,Florence County,27259.0,110900.0,435793.0,87995.0,114570.0,67152.0,68918.0,55644.0,21424.0,13004.0,5847.0,1088.0,151.0
936986,County,2020/10/20,45.0,SC,45041.0,Florence County,27946.0,110213.0,423947.0,86938.0,103477.0,65503.0,69179.0,58049.0,23080.0,11737.0,4998.0,866.0,120.0
939781,County,2020/10/21,45.0,SC,45041.0,Florence County,29037.0,109122.0,391619.0,78596.0,97850.0,61742.0,59899.0,50933.0,24041.0,10534.0,6703.0,1194.0,127.0
943461,County,2020/10/22,45.0,SC,45041.0,Florence County,26988.0,111171.0,467500.0,93165.0,121744.0,70798.0,69032.0,64026.0,28348.0,13520.0,5677.0,1069.0,121.0
946260,County,2020/10/23,45.0,SC,45041.0,Florence County,25493.0,112666.0,507301.0,96302.0,131440.0,81681.0,82070.0,66728.0,27105.0,14543.0,6304.0,998.0,130.0
949712,County,2020/10/24,45.0,SC,45041.0,Florence County,26860.0,111299.0,488113.0,105377.0,128951.0,70103.0,79786.0,58509.0,25509.0,13832.0,5331.0,617.0,98.0
