,Level,Date,State FIPS,State Postal Code,County FIPS,County Name,Population Staying at Home,Population Not Staying at Home,Number of Trips,Number of Trips <1,Number of Trips 1-3,Number of Trips 3-5,Number of Trips 5-10,Number of Trips 10-25,Number of Trips 25-50,Number of Trips 50-100,Number of Trips 100-250,Number of Trips 250-500,Number of Trips >=500
2135,County,2020/01/01,40.0,OK,40011.0,Blaine County,2156.0,7329.0,31311.0,8006.0,4755.0,5186.0,4483.0,4872.0,1968.0,1703.0,287.0,49.0,2.0
4890,County,2020/01/02,40.0,OK,40011.0,Blaine County,1775.0,7710.0,35535.0,10191.0,4528.0,4382.0,5144.0,6974.0,2432.0,1553.0,247.0,84.0,0.0
6484,County,2020/01/03,40.0,OK,40011.0,Blaine County,1735.0,7750.0,36971.0,10529.0,4892.0,4368.0,5130.0,6648.0,2939.0,2173.0,233.0,53.0,6.0
11635,County,2020/01/04,40.0,OK,40011.0,Blaine County,1834.0,7651.0,32283.0,6614.0,5234.0,5484.0,4775.0,4715.0,2849.0,2103.0,441.0,66.0,2.0
14911,County,2020/01/05,40.0,OK,40011.0,Blaine County,2053.0,7432.0,27672.0,6153.0,4291.0,4540.0,4333.0,4177.0,2128.0,1608.0,407.0,35.0,0.0
17076,County,2020/01/06,40.0,OK,40011.0,Blaine County,1927.0,7558.0,31133.0,8752.0,4149.0,3443.0,4580.0,5719.0,2645.0,1523.0,244.0,78.0,0.0
20234,County,2020/01/07,40.0,OK,40011.0,Blaine County,1794.0,7691.0,34457.0,8849.0,4635.0,4661.0,4165.0,7373.0,2854.0,1565.0,320.0,32.0,3.0
24983,County,2020/01/08,40.0,OK,40011.0,Blaine County,1671.0,7814.0,31593.0,8205.0,4119.0,3955.0,4653.0,5888.0,2501.0,1961.0,270.0,40.0,1.0
26610,County,2020/01/09,40.0,OK,40011.0,Blaine County,1892.0,7593.0,36168.0,8995.0,4951.0,5818.0,5400.0,6135.0,2914.0,1569.0,304.0,80.0,2.0
31370,County,2020/01/10,40.0,OK,40011.0,Blaine County,1635.0,7850.0,37616.0,9606.0,5750.0,5590.0,5324.0,6254.0,3233.0,1526.0,297.0,35.0,1.0
34614,County,2020/01/11,40.0,OK,40011.0,Blaine County,1805.0,7680.0,32118.0,8010.0,4307.0,3600.0,4898.0,5855.0,3225.0,1881.0,283.0,59.0,0.0
36203,County,2020/01/12,40.0,OK,40011.0,Blaine County,1971.0,7514.0,31913.0,7553.0,4552.0,4337.0,5636.0,5123.0,2712.0,1769.0,210.0,21.0,0.0
39446,County,2020/01/13,40.0,OK,40011.0,Blaine County,1645.0,7840.0,36215.0,9209.0,4450.0,5677.0,5878.0,6315.0,2811.0,1675.0,181.0,18.0,1.0
42607,County,2020/01/14,40.0,OK,40011.0,Blaine County,1737.0,7748.0,34945.0,9859.0,3750.0,5042.0,5706.0,5817.0,2855.0,1583.0,286.0,47.0,0.0
45760,County,2020/01/15,40.0,OK,40011.0,Blaine County,1646.0,7839.0,33808.0,9015.0,4425.0,5167.0,4821.0,5043.0,3550.0,1462.0,274.0,45.0,6.0
50541,County,2020/01/16,40.0,OK,40011.0,Blaine County,1836.0,7649.0,31762.0,8702.0,4048.0,3472.0,4933.0,5193.0,3307.0,1817.0,200.0,83.0,7.0
52169,County,2020/01/17,40.0,OK,40011.0,Blaine County,1847.0,7638.0,33361.0,10356.0,4758.0,4418.0,4287.0,4585.0,3140.0,1545.0,198.0,73.0,1.0
56950,County,2020/01/18,40.0,OK,40011.0,Blaine County,1835.0,7650.0,32205.0,8067.0,4632.0,4362.0,4341.0,5115.0,3453.0,1983.0,213.0,39.0,0.0
60148,County,2020/01/19,40.0,OK,40011.0,Blaine County,1993.0,7492.0,30350.0,8345.0,3694.0,4060.0,4242.0,5557.0,2666.0,1579.0,187.0,20.0,0.0
63311,County,2020/01/20,40.0,OK,40011.0,Blaine County,1839.0,7646.0,32529.0,8659.0,4294.0,3745.0,6068.0,4956.0,2647.0,1936.0,128.0,95.0,1.0
66509,County,2020/01/21,40.0,OK,40011.0,Blaine County,1814.0,7671.0,33528.0,10040.0,3912.0,4348.0,4484.0,5693.0,3459.0,1393.0,107.0,91.0,1.0
68140,County,2020/01/22,40.0,OK,40011.0,Blaine County,1800.0,7685.0,33211.0,9182.0,3938.0,4153.0,4742.0,6373.0,3010.0,1527.0,226.0,58.0,2.0
72931,County,2020/01/23,40.0,OK,40011.0,Blaine County,1822.0,7663.0,35227.0,9086.0,4851.0,5028.0,5733.0,5418.0,3226.0,1575.0,241.0,67.0,2.0
76087,County,2020/01/24,40.0,OK,40011.0,Blaine County,1670.0,7815.0,38277.0,10595.0,5293.0,4354.0,5693.0,6649.0,3418.0,1762.0,441.0,68.0,4.0
77714,County,2020/01/25,40.0,OK,40011.0,Blaine County,1880.0,7605.0,34869.0,9899.0,4202.0,4943.0,4574.0,6081.0,3185.0,1729.0,256.0,0.0,0.0
81985,County,2020/01/26,40.0,OK,40011.0,Blaine County,2021.0,7464.0,31410.0,9992.0,4062.0,3500.0,5811.0,4183.0,2272.0,1320.0,237.0,30.0,3.0
85686,County,2020/01/27,40.0,OK,40011.0,Blaine County,1873.0,7612.0,32123.0,8903.0,4123.0,4284.0,3637.0,5717.0,3479.0,1716.0,219.0,43.0,2.0
87359,County,2020/01/28,40.0,OK,40011.0,Blaine County,2011.0,7474.0,31938.0,8952.0,4676.0,3741.0,4889.0,5129.0,2968.0,1376.0,163.0,44.0,0.0
90465,County,2020/01/29,40.0,OK,40011.0,Blaine County,2009.0,7476.0,32093.0,9515.0,4035.0,4336.0,3577.0,5231.0,3151.0,1991.0,208.0,48.0,1.0
93818,County,2020/01/30,40.0,OK,40011.0,Blaine County,1786.0,7699.0,35917.0,10946.0,4340.0,3473.0,5189.0,6446.0,3321.0,1957.0,197.0,45.0,3.0
96873,County,2020/01/31,40.0,OK,40011.0,Blaine County,1606.0,7879.0,35959.0,9723.0,4819.0,4202.0,4756.0,6033.0,3875.0,2171.0,310.0,67.0,3.0
100122,County,2020/02/01,40.0,OK,40011.0,Blaine County,1566.0,7919.0,36230.0,10064.0,5561.0,4697.0,5575.0,4609.0,3069.0,2380.0,156.0,118.0,1.0
104833,County,2020/02/02,40.0,OK,40011.0,Blaine County,1952.0,7533.0,36748.0,10152.0,4325.0,6083.0,5924.0,5295.0,3032.0,1609.0,185.0,137.0,6.0
106459,County,2020/02/03,40.0,OK,40011.0,Blaine County,1620.0,7865.0,36636.0,10046.0,5057.0,4942.0,4809.0,6895.0,2950.0,1567.0,302.0,62.0,6.0
111221,County,2020/02/04,40.0,OK,40011.0,Blaine County,1585.0,7900.0,34380.0,9309.0,4635.0,4533.0,4416.0,6806.0,2721.0,1637.0,250.0,67.0,6.0
114424,County,2020/02/05,40.0,OK,40011.0,Blaine County,2111.0,7374.0,31865.0,9191.0,4355.0,4336.0,4836.0,5413.0,2226.0,1336.0,97.0,74.0,1.0
117631,County,2020/02/06,40.0,OK,40011.0,Blaine County,1709.0,7776.0,37911.0,10918.0,4593.0,4807.0,5162.0,7083.0,3133.0,1847.0,335.0,32.0,1.0
119209,County,2020/02/07,40.0,OK,40011.0,Blaine County,1672.0,7813.0,37118.0,9653.0,5888.0,5230.0,4574.0,5859.0,3585.0,2039.0,220.0,69.0,1.0
122455,County,2020/02/08,40.0,OK,40011.0,Blaine County,1713.0,7772.0,35403.0,10277.0,4364.0,4979.0,4787.0,5409.0,3118.0,2058.0,353.0,54.0,4.0
126149,County,2020/02/09,40.0,OK,40011.0,Blaine County,2039.0,7446.0,29797.0,7767.0,4216.0,3664.0,5022.0,4617.0,2454.0,1716.0,299.0,37.0,5.0
130444,County,2020/02/10,40.0,OK,40011.0,Blaine County,1499.0,7986.0,38431.0,10145.0,6043.0,4550.0,5433.0,6699.0,3537.0,1743.0,206.0,72.0,3.0
133154,County,2020/02/11,40.0,OK,40011.0,Blaine County,1489.0,7996.0,36066.0,9100.0,5911.0,4395.0,5109.0,6105.0,3560.0,1566.0,258.0,61.0,1.0
136743,County,2020/02/12,40.0,OK,40011.0,Blaine County,1566.0,7919.0,40055.0,11734.0,5704.0,4996.0,4997.0,6371.0,3901.0,2056.0,164.0,128.0,4.0
138438,County,2020/02/13,40.0,OK,40011.0,Blaine County,1517.0,7968.0,39683.0,10339.0,6600.0,4591.0,5669.0,6760.0,3144.0,2240.0,273.0,61.0,6.0
143168,County,2020/02/14,40.0,OK,40011.0,Blaine County,1554.0,7931.0,44286.0,11108.0,7199.0,5418.0,6097.0,8050.0,3877.0,2223.0,241.0,72.0,1.0
146374,County,2020/02/15,40.0,OK,40011.0,Blaine County,1453.0,8032.0,38335.0,8566.0,5337.0,5915.0,4536.0,6070.0,4560.0,2986.0,290.0,74.0,1.0
147981,County,2020/02/16,40.0,OK,40011.0,Blaine County,1831.0,7654.0,34125.0,7548.0,4487.0,4620.0,5228.0,5910.0,3814.0,2282.0,192.0,43.0,1.0
152743,County,2020/02/17,40.0,OK,40011.0,Blaine County,2153.0,7332.0,30091.0,7779.0,4028.0,4112.0,3459.0,5180.0,3293.0,1939.0,199.0,96.0,6.0
154320,County,2020/02/18,40.0,OK,40011.0,Blaine County,1566.0,7919.0,37200.0,10786.0,5209.0,3692.0,4664.0,6813.0,3602.0,2143.0,230.0,60.0,1.0
159130,County,2020/02/19,40.0,OK,40011.0,Blaine County,1630.0,7855.0,38710.0,10102.0,6178.0,4071.0,4838.0,6940.0,3681.0,2670.0,163.0,61.0,6.0
162374,County,2020/02/20,40.0,OK,40011.0,Blaine County,1593.0,7892.0,36988.0,10545.0,4959.0,4175.0,4764.0,6462.0,3397.0,2189.0,366.0,131.0,0.0
165519,County,2020/02/21,40.0,OK,40011.0,Blaine County,1636.0,7849.0,42355.0,11169.0,5887.0,4302.0,6506.0,7586.0,3826.0,2751.0,261.0,64.0,3.0
167097,County,2020/02/22,40.0,OK,40011.0,Blaine County,1568.0,7917.0,39267.0,9782.0,5365.0,5172.0,5113.0,7413.0,3538.0,2525.0,207.0,151.0,1.0
171912,County,2020/02/23,40.0,OK,40011.0,Blaine County,2086.0,7399.0,31609.0,8141.0,5071.0,3461.0,5238.0,5395.0,2341.0,1604.0,278.0,78.0,2.0
173538,County,2020/02/24,40.0,OK,40011.0,Blaine County,1683.0,7802.0,38436.0,10388.0,5374.0,4801.0,5760.0,6310.0,3453.0,2097.0,202.0,47.0,4.0
177806,County,2020/02/25,40.0,OK,40011.0,Blaine County,1645.0,7840.0,37850.0,11969.0,5442.0,4226.0,4645.0,6213.0,3423.0,1702.0,195.0,31.0,4.0
180999,County,2020/02/26,40.0,OK,40011.0,Blaine County,1784.0,7701.0,28181.0,4567.0,5383.0,3420.0,5296.0,4460.0,3620.0,1170.0,196.0,69.0,0.0
182514,County,2020/02/27,40.0,OK,40011.0,Blaine County,1547.0,7938.0,40348.0,10347.0,6354.0,5650.0,5274.0,6963.0,3285.0,2067.0,303.0,105.0,0.0
187925,County,2020/02/28,40.0,OK,40011.0,Blaine County,1498.0,7987.0,43105.0,11745.0,6455.0,6262.0,6117.0,6406.0,3168.0,2639.0,292.0,19.0,2.0
191071,County,2020/02/29,40.0,OK,40011.0,Blaine County,1685.0,7800.0,38162.0,8346.0,5862.0,5154.0,5834.0,6662.0,3407.0,2522.0,308.0,65.0,2.0
194289,County,2020/03/01,40.0,OK,40011.0,Blaine County,1860.0,7625.0,34963.0,9392.0,4223.0,6225.0,5401.0,5338.0,2330.0,1739.0,289.0,22.0,4.0
195918,County,2020/03/02,40.0,OK,40011.0,Blaine County,1722.0,7763.0,37188.0,10795.0,4850.0,4232.0,5007.0,6845.0,3065.0,2118.0,251.0,25.0,0.0
200720,County,2020/03/03,40.0,OK,40011.0,Blaine County,1545.0,7940.0,39916.0,11382.0,5881.0,5614.0,5123.0,6645.0,2652.0,2400.0,175.0,44.0,0.0
203856,County,2020/03/04,40.0,OK,40011.0,Blaine County,1611.0,7874.0,40189.0,10594.0,5523.0,5635.0,5566.0,6757.0,3606.0,1995.0,456.0,57.0,0.0
207060,County,2020/03/05,40.0,OK,40011.0,Blaine County,1421.0,8064.0,39261.0,10989.0,5049.0,5112.0,5848.0,6881.0,3013.0,1885.0,427.0,57.0,0.0
210274,County,2020/03/06,40.0,OK,40011.0,Blaine County,1551.0,7934.0,42675.0,11186.0,6381.0,6381.0,5885.0,6542.0,3632.0,2304.0,360.0,0.0,4.0
211892,County,2020/03/07,40.0,OK,40011.0,Blaine County,1511.0,7974.0,42428.0,10433.0,6307.0,6891.0,6346.0,6466.0,3544.0,2151.0,229.0,61.0,0.0
216618,County,2020/03/08,40.0,OK,40011.0,Blaine County,1745.0,7740.0,31588.0,7397.0,4052.0,5660.0,4937.0,4041.0,3265.0,1831.0,359.0,45.0,1.0
218260,County,2020/03/09,40.0,OK,40011.0,Blaine County,1633.0,7852.0,35966.0,7692.0,5483.0,4834.0,4959.0,7327.0,2789.0,2364.0,438.0,79.0,1.0
221494,County,2020/03/10,40.0,OK,40011.0,Blaine County,1375.0,8110.0,38740.0,10756.0,5735.0,4493.0,4552.0,6500.0,3884.0,2453.0,340.0,27.0,0.0
226239,County,2020/03/11,40.0,OK,40011.0,Blaine County,1677.0,7808.0,29754.0,3671.0,1869.0,6280.0,4344.0,8094.0,3443.0,1764.0,151.0,135.0,3.0
229380,County,2020/03/12,40.0,OK,40011.0,Blaine County,1707.0,7778.0,32320.0,3423.0,4314.0,4665.0,5847.0,8610.0,2909.0,2287.0,218.0,44.0,3.0
231027,County,2020/03/13,40.0,OK,40011.0,Blaine County,1656.0,7829.0,26485.0,3916.0,3206.0,3735.0,4716.0,5452.0,3597.0,1452.0,374.0,37.0,0.0
235703,County,2020/03/14,40.0,OK,40011.0,Blaine County,2005.0,7480.0,27688.0,1280.0,3774.0,5881.0,7073.0,5620.0,2511.0,1195.0,160.0,190.0,4.0
238980,County,2020/03/15,40.0,OK,40011.0,Blaine County,2153.0,7332.0,28179.0,5421.0,3917.0,4618.0,4508.0,4565.0,3198.0,1543.0,377.0,30.0,2.0
242174,County,2020/03/16,40.0,OK,40011.0,Blaine County,1836.0,7649.0,34910.0,7300.0,5010.0,5874.0,5046.0,6250.0,3263.0,1743.0,342.0,81.0,1.0
243839,County,2020/03/17,40.0,OK,40011.0,Blaine County,1870.0,7615.0,32590.0,7067.0,4669.0,5471.0,4291.0,5668.0,3387.0,1491.0,481.0,62.0,3.0
246994,County,2020/03/18,40.0,OK,40011.0,Blaine County,2316.0,7169.0,35947.0,8224.0,5625.0,7188.0,4775.0,5601.0,2727.0,1543.0,181.0,81.0,2.0
250249,County,2020/03/19,40.0,OK,40011.0,Blaine County,2344.0,7141.0,34389.0,8183.0,4676.0,5874.0,5763.0,5936.0,2341.0,1273.0,277.0,63.0,3.0
254951,County,2020/03/20,40.0,OK,40011.0,Blaine County,2208.0,7277.0,34231.0,8465.0,4837.0,5518.0,4487.0,6190.0,2969.0,1450.0,262.0,52.0,1.0
258143,County,2020/03/21,40.0,OK,40011.0,Blaine County,2474.0,7011.0,30279.0,6692.0,5109.0,5224.0,4906.0,5098.0,2109.0,883.0,170.0,87.0,1.0
259764,County,2020/03/22,40.0,OK,40011.0,Blaine County,2528.0,6957.0,22732.0,5237.0,2662.0,5262.0,3640.0,3699.0,1375.0,676.0,102.0,76.0,3.0
264543,County,2020/03/23,40.0,OK,40011.0,Blaine County,2250.0,7235.0,31939.0,7222.0,4442.0,5630.0,5007.0,5194.0,2708.0,1343.0,328.0,65.0,0.0
266169,County,2020/03/24,40.0,OK,40011.0,Blaine County,2131.0,7354.0,28820.0,7129.0,4518.0,3856.0,4910.0,5032.0,2158.0,975.0,189.0,50.0,3.0
270921,County,2020/03/25,40.0,OK,40011.0,Blaine County,1966.0,7519.0,28650.0,6692.0,5111.0,4923.0,4435.0,4555.0,1563.0,943.0,350.0,78.0,0.0
272547,County,2020/03/26,40.0,OK,40011.0,Blaine County,2064.0,7421.0,32450.0,8006.0,4925.0,5470.0,5391.0,4922.0,2111.0,1465.0,123.0,37.0,0.0
277310,County,2020/03/27,40.0,OK,40011.0,Blaine County,2129.0,7356.0,29349.0,6364.0,4821.0,4704.0,4240.0,5557.0,2016.0,1479.0,133.0,34.0,1.0
278937,County,2020/03/28,40.0,OK,40011.0,Blaine County,2440.0,7045.0,25674.0,5559.0,4129.0,4626.0,3699.0,5090.0,1984.0,436.0,109.0,39.0,3.0
283697,County,2020/03/29,40.0,OK,40011.0,Blaine County,2406.0,7079.0,26336.0,5653.0,4203.0,5441.0,3849.0,4248.0,1945.0,756.0,159.0,81.0,1.0
286922,County,2020/03/30,40.0,OK,40011.0,Blaine County,2263.0,7222.0,26909.0,5456.0,4183.0,5858.0,3417.0,4182.0,2565.0,911.0,275.0,58.0,4.0
288520,County,2020/03/31,40.0,OK,40011.0,Blaine County,2313.0,7172.0,28831.0,6258.0,4089.0,5690.0,3602.0,5491.0,2451.0,1045.0,126.0,75.0,4.0
291755,County,2020/04/01,40.0,OK,40011.0,Blaine County,2099.0,7386.0,27621.0,6539.0,4608.0,4056.0,4121.0,4908.0,1923.0,1198.0,241.0,24.0,3.0
296488,County,2020/04/02,40.0,OK,40011.0,Blaine County,2101.0,7384.0,27321.0,5562.0,4308.0,4782.0,4133.0,4768.0,2045.0,1507.0,170.0,45.0,1.0
298149,County,2020/04/03,40.0,OK,40011.0,Blaine County,2250.0,7235.0,24949.0,5775.0,4275.0,3509.0,2845.0,3900.0,2879.0,1439.0,310.0,12.0,5.0
301293,County,2020/04/04,40.0,OK,40011.0,Blaine County,2265.0,7220.0,24038.0,4618.0,3623.0,4851.0,4258.0,3184.0,2254.0,1037.0,172.0,38.0,3.0
306047,County,2020/04/05,40.0,OK,40011.0,Blaine County,2580.0,6905.0,21689.0,3907.0,3481.0,3735.0,4228.0,3881.0,1209.0,1071.0,120.0,57.0,0.0
309248,County,2020/04/06,40.0,OK,40011.0,Blaine County,2204.0,7281.0,26651.0,6298.0,3992.0,2814.0,4550.0,5510.0,2059.0,1198.0,175.0,52.0,3.0
312488,County,2020/04/07,40.0,OK,40011.0,Blaine County,2096.0,7389.0,31329.0,7773.0,3762.0,6244.0,3769.0,6200.0,1895.0,1428.0,204.0,54.0,0.0
315661,County,2020/04/08,40.0,OK,40011.0,Blaine County,2168.0,7317.0,31263.0,7631.0,4889.0,6874.0,3708.0,4983.0,2119.0,815.0,187.0,56.0,1.0
318829,County,2020/04/09,40.0,OK,40011.0,Blaine County,2201.0,7284.0,30203.0,6629.0,5959.0,4199.0,3961.0,6358.0,2083.0,817.0,141.0,56.0,0.0
322025,County,2020/04/10,40.0,OK,40011.0,Blaine County,2250.0,7235.0,29493.0,6365.0,4164.0,6075.0,3438.0,4976.0,2840.0,1371.0,236.0,28.0,0.0
323700,County,2020/04/11,40.0,OK,40011.0,Blaine County,2375.0,7110.0,28181.0,6185.0,4516.0,3475.0,4743.0,5388.0,2171.0,1440.0,222.0,40.0,1.0
326845,County,2020/04/12,40.0,OK,40011.0,Blaine County,3068.0,6417.0,24390.0,5318.0,3514.0,5086.0,4729.0,3703.0,965.0,874.0,184.0,15.0,2.0
330110,County,2020/04/13,40.0,OK,40011.0,Blaine County,2351.0,7134.0,26365.0,6396.0,4304.0,3536.0,4306.0,4746.0,2032.0,774.0,256.0,14.0,1.0
334782,County,2020/04/14,40.0,OK,40011.0,Blaine County,2634.0,6851.0,24542.0,2185.0,3571.0,7002.0,5661.0,3516.0,1644.0,963.0,0.0,0.0,0.0
336459,County,2020/04/15,40.0,OK,40011.0,Blaine County,2707.0,6778.0,19703.0,2087.0,3727.0,3036.0,3221.0,4402.0,1728.0,1371.0,82.0,49.0,0.0
339613,County,2020/04/16,40.0,OK,40011.0,Blaine County,2633.0,6852.0,21024.0,2560.0,4473.0,4252.0,2922.0,3362.0,2074.0,1207.0,132.0,39.0,3.0
342913,County,2020/04/17,40.0,OK,40011.0,Blaine County,2493.0,6992.0,24895.0,2877.0,8418.0,2830.0,2135.0,4807.0,2147.0,1476.0,205.0,0.0,0.0
346019,County,2020/04/18,40.0,OK,40011.0,Blaine County,2670.0,6815.0,24573.0,4888.0,3835.0,6726.0,2960.0,3151.0,1843.0,1080.0,81.0,0.0,9.0
350771,County,2020/04/19,40.0,OK,40011.0,Blaine County,2469.0,7016.0,16159.0,1825.0,3446.0,3430.0,2427.0,2563.0,1410.0,826.0,186.0,37.0,9.0
352397,County,2020/04/20,40.0,OK,40011.0,Blaine County,2121.0,7364.0,25721.0,4827.0,6436.0,2827.0,3361.0,4174.0,2789.0,1123.0,184.0,0.0,0.0
355591,County,2020/04/21,40.0,OK,40011.0,Blaine County,2072.0,7413.0,30432.0,7917.0,5424.0,4145.0,4372.0,4917.0,2287.0,1123.0,185.0,61.0,1.0
360361,County,2020/04/22,40.0,OK,40011.0,Blaine County,2173.0,7312.0,29120.0,7903.0,4820.0,3532.0,3427.0,6385.0,1838.0,1021.0,154.0,39.0,1.0
363567,County,2020/04/23,40.0,OK,40011.0,Blaine County,2032.0,7453.0,29294.0,7216.0,4576.0,4366.0,5056.0,4657.0,1618.0,1503.0,287.0,13.0,2.0
365194,County,2020/04/24,40.0,OK,40011.0,Blaine County,2011.0,7474.0,27903.0,6255.0,3822.0,4127.0,4612.0,5385.0,2309.0,1006.0,314.0,67.0,6.0
369935,County,2020/04/25,40.0,OK,40011.0,Blaine County,2161.0,7324.0,33122.0,7999.0,4438.0,5666.0,4646.0,5975.0,2808.0,1169.0,403.0,15.0,3.0
373129,County,2020/04/26,40.0,OK,40011.0,Blaine County,2259.0,7226.0,27758.0,5758.0,4386.0,4850.0,4984.0,3835.0,2469.0,1198.0,278.0,0.0,0.0
376361,County,2020/04/27,40.0,OK,40011.0,Blaine County,1848.0,7637.0,34986.0,9526.0,5179.0,5648.0,4824.0,5685.0,2260.0,1484.0,246.0,133.0,1.0
379532,County,2020/04/28,40.0,OK,40011.0,Blaine County,2168.0,7317.0,34163.0,7904.0,6616.0,5545.0,5733.0,4666.0,2508.0,963.0,186.0,41.0,1.0
382735,County,2020/04/29,40.0,OK,40011.0,Blaine County,2179.0,7306.0,29865.0,8187.0,5019.0,4100.0,2983.0,6176.0,1911.0,1142.0,255.0,91.0,1.0
384306,County,2020/04/30,40.0,OK,40011.0,Blaine County,1924.0,7561.0,31096.0,7824.0,4336.0,5613.0,3910.0,5236.0,2457.0,1481.0,211.0,28.0,0.0
387579,County,2020/05/01,40.0,OK,40011.0,Blaine County,1821.0,7664.0,32242.0,8828.0,4936.0,5325.0,4462.0,5021.0,2098.0,1331.0,201.0,40.0,0.0
390713,County,2020/05/02,40.0,OK,40011.0,Blaine County,2052.0,7433.0,30478.0,7947.0,5287.0,4443.0,5544.0,3543.0,2636.0,1028.0,50.0,0.0,0.0
395487,County,2020/05/03,40.0,OK,40011.0,Blaine County,2070.0,7415.0,25900.0,5596.0,4257.0,4347.0,3895.0,4583.0,1878.0,1003.0,263.0,78.0,0.0
397137,County,2020/05/04,40.0,OK,40011.0,Blaine County,1887.0,7598.0,32395.0,7608.0,5055.0,5034.0,5105.0,5861.0,2308.0,1250.0,160.0,14.0,0.0
401856,County,2020/05/05,40.0,OK,40011.0,Blaine County,2011.0,7474.0,30988.0,7051.0,4571.0,4374.0,5374.0,6019.0,2145.0,1194.0,163.0,97.0,0.0
403486,County,2020/05/06,40.0,OK,40011.0,Blaine County,1989.0,7496.0,31173.0,7569.0,3604.0,4928.0,5460.0,6136.0,2467.0,795.0,160.0,54.0,0.0
408206,County,2020/05/07,40.0,OK,40011.0,Blaine County,2094.0,7391.0,29331.0,8180.0,3963.0,3624.0,4154.0,5637.0,2441.0,1014.0,177.0,141.0,0.0
411468,County,2020/05/08,40.0,OK,40011.0,Blaine County,2217.0,7268.0,31626.0,7775.0,4105.0,5410.0,4715.0,5077.0,2709.0,1563.0,188.0,84.0,0.0
413048,County,2020/05/09,40.0,OK,40011.0,Blaine County,1859.0,7626.0,32273.0,9128.0,5087.0,4287.0,4616.0,5237.0,2182.0,1284.0,410.0,41.0,1.0
416277,County,2020/05/10,40.0,OK,40011.0,Blaine County,2215.0,7270.0,23758.0,5860.0,3433.0,2797.0,4618.0,3994.0,1680.0,1179.0,152.0,45.0,0.0
419520,County,2020/05/11,40.0,OK,40011.0,Blaine County,1629.0,7856.0,34828.0,10341.0,5128.0,4266.0,4127.0,6130.0,3158.0,1367.0,240.0,71.0,0.0
424280,County,2020/05/12,40.0,OK,40011.0,Blaine County,1962.0,7523.0,33466.0,9147.0,4989.0,5009.0,4108.0,6238.0,2534.0,1285.0,126.0,28.0,2.0
425762,County,2020/05/13,40.0,OK,40011.0,Blaine County,1730.0,7755.0,33770.0,8331.0,4448.0,5239.0,4917.0,6501.0,2690.0,1454.0,153.0,33.0,4.0
429103,County,2020/05/14,40.0,OK,40011.0,Blaine County,1571.0,7914.0,35796.0,9346.0,6522.0,6021.0,4260.0,5655.0,2332.0,1404.0,205.0,49.0,2.0
432249,County,2020/05/15,40.0,OK,40011.0,Blaine County,1646.0,7839.0,33928.0,9888.0,4627.0,5907.0,4232.0,5201.0,2456.0,1339.0,219.0,57.0,2.0
436998,County,2020/05/16,40.0,OK,40011.0,Blaine County,1875.0,7610.0,31826.0,9065.0,4534.0,4605.0,4716.0,4547.0,2718.0,1425.0,175.0,38.0,3.0
440157,County,2020/05/17,40.0,OK,40011.0,Blaine County,2086.0,7399.0,30426.0,6979.0,4945.0,6738.0,4830.0,3947.0,2102.0,811.0,33.0,39.0,2.0
443446,County,2020/05/18,40.0,OK,40011.0,Blaine County,1341.0,8144.0,37461.0,10062.0,4960.0,6594.0,4838.0,5537.0,3567.0,1499.0,372.0,32.0,0.0
446609,County,2020/05/19,40.0,OK,40011.0,Blaine County,1713.0,7772.0,36248.0,10000.0,4563.0,4249.0,6387.0,6650.0,2821.0,1439.0,87.0,52.0,0.0
449785,County,2020/05/20,40.0,OK,40011.0,Blaine County,1604.0,7881.0,39543.0,8661.0,5574.0,8417.0,6069.0,6585.0,2318.0,1471.0,325.0,123.0,0.0
452675,County,2020/05/21,40.0,OK,40011.0,Blaine County,1630.0,7855.0,38789.0,9819.0,7196.0,6449.0,5475.0,5558.0,2729.0,1120.0,378.0,64.0,1.0
454598,County,2020/05/22,40.0,OK,40011.0,Blaine County,1307.0,8178.0,39039.0,10393.0,6484.0,5605.0,4273.0,7599.0,2344.0,1818.0,523.0,0.0,0.0
457794,County,2020/05/23,40.0,OK,40011.0,Blaine County,1552.0,7933.0,34347.0,7431.0,6421.0,7068.0,4428.0,4458.0,2729.0,1641.0,137.0,33.0,1.0
462586,County,2020/05/24,40.0,OK,40011.0,Blaine County,1983.0,7502.0,32058.0,7360.0,6044.0,6684.0,4046.0,4290.0,1874.0,1427.0,278.0,53.0,2.0
465839,County,2020/05/25,40.0,OK,40011.0,Blaine County,2164.0,7321.0,26933.0,6138.0,4560.0,4644.0,3342.0,4267.0,2140.0,1581.0,217.0,43.0,1.0
468947,County,2020/05/26,40.0,OK,40011.0,Blaine County,1625.0,7860.0,35786.0,8770.0,6130.0,5103.0,6062.0,5846.0,2845.0,887.0,69.0,73.0,1.0
472187,County,2020/05/27,40.0,OK,40011.0,Blaine County,1529.0,7956.0,36765.0,9884.0,5729.0,5282.0,4796.0,6767.0,3006.0,1198.0,94.0,8.0,1.0
473721,County,2020/05/28,40.0,OK,40011.0,Blaine County,1607.0,7878.0,38212.0,10800.0,5917.0,6020.0,5231.0,5867.0,2884.0,1362.0,106.0,24.0,1.0
478525,County,2020/05/29,40.0,OK,40011.0,Blaine County,1944.0,7541.0,39413.0,10590.0,6545.0,6467.0,5362.0,7216.0,2083.0,896.0,213.0,39.0,2.0
481725,County,2020/05/30,40.0,OK,40011.0,Blaine County,1869.0,7616.0,34982.0,7744.0,5705.0,6516.0,5390.0,5418.0,2758.0,1267.0,127.0,54.0,3.0
483281,County,2020/05/31,40.0,OK,40011.0,Blaine County,1869.0,7616.0,31870.0,8496.0,4603.0,5318.0,4241.0,5140.0,2415.0,1309.0,316.0,31.0,1.0
486547,County,2020/06/01,40.0,OK,40011.0,Blaine County,1652.0,7833.0,34239.0,8685.0,5667.0,4232.0,4791.0,6588.0,2421.0,1601.0,234.0,17.0,3.0
489788,County,2020/06/02,40.0,OK,40011.0,Blaine County,1713.0,7772.0,33941.0,8998.0,4595.0,5423.0,4195.0,5935.0,2995.0,1487.0,284.0,27.0,2.0
494500,County,2020/06/03,40.0,OK,40011.0,Blaine County,1793.0,7692.0,36292.0,10227.0,5712.0,5485.0,3701.0,6636.0,2748.0,1651.0,77.0,55.0,0.0
496119,County,2020/06/04,40.0,OK,40011.0,Blaine County,1554.0,7931.0,37273.0,10587.0,4813.0,6264.0,5774.0,5515.0,2670.0,1329.0,295.0,25.0,1.0
500895,County,2020/06/05,40.0,OK,40011.0,Blaine County,1480.0,8005.0,38763.0,11206.0,5517.0,5877.0,4702.0,6019.0,3972.0,1195.0,265.0,9.0,1.0
504096,County,2020/06/06,40.0,OK,40011.0,Blaine County,1995.0,7490.0,31490.0,6143.0,5428.0,7261.0,4058.0,4641.0,2238.0,1508.0,178.0,35.0,0.0
505710,County,2020/06/07,40.0,OK,40011.0,Blaine County,2200.0,7285.0,28845.0,7656.0,4962.0,4118.0,3612.0,4450.0,2539.0,1301.0,156.0,40.0,11.0
508884,County,2020/06/08,40.0,OK,40011.0,Blaine County,1595.0,7890.0,39700.0,12435.0,6144.0,5606.0,5993.0,5090.0,2836.0,1417.0,136.0,40.0,3.0
513662,County,2020/06/09,40.0,OK,40011.0,Blaine County,1982.0,7503.0,33643.0,10937.0,5148.0,3750.0,5286.0,4551.0,2738.0,971.0,216.0,46.0,0.0
515292,County,2020/06/10,40.0,OK,40011.0,Blaine County,1839.0,7646.0,34413.0,10962.0,5801.0,3672.0,4447.0,5420.0,2758.0,1140.0,192.0,19.0,2.0
518496,County,2020/06/11,40.0,OK,40011.0,Blaine County,1728.0,7757.0,39120.0,13116.0,5373.0,5669.0,5149.0,5904.0,2682.0,1036.0,152.0,36.0,3.0
521698,County,2020/06/12,40.0,OK,40011.0,Blaine County,1781.0,7704.0,34422.0,9822.0,5915.0,4838.0,3849.0,5804.0,2394.0,1519.0,244.0,36.0,1.0
526434,County,2020/06/13,40.0,OK,40011.0,Blaine County,1689.0,7796.0,37062.0,10991.0,6707.0,4577.0,5396.0,5671.0,2257.0,1295.0,166.0,0.0,2.0
529638,County,2020/06/14,40.0,OK,40011.0,Blaine County,1936.0,7549.0,28568.0,7380.0,4028.0,4319.0,4234.0,4920.0,2195.0,1309.0,151.0,30.0,2.0
531267,County,2020/06/15,40.0,OK,40011.0,Blaine County,1833.0,7652.0,34713.0,9247.0,5974.0,4699.0,5077.0,5593.0,2377.0,1517.0,201.0,28.0,0.0
534456,County,2020/06/16,40.0,OK,40011.0,Blaine County,1867.0,7618.0,34701.0,10002.0,5157.0,5665.0,4514.0,4480.0,2913.0,1642.0,260.0,68.0,0.0
537650,County,2020/06/17,40.0,OK,40011.0,Blaine County,1705.0,7780.0,32789.0,8873.0,5121.0,4672.0,4744.0,4926.0,2867.0,1241.0,254.0,89.0,2.0
542411,County,2020/06/18,40.0,OK,40011.0,Blaine County,1644.0,7841.0,32115.0,7579.0,5619.0,5150.0,4750.0,5531.0,2244.0,919.0,208.0,115.0,0.0
544038,County,2020/06/19,40.0,OK,40011.0,Blaine County,1486.0,7999.0,32215.0,8027.0,5969.0,4918.0,4243.0,4774.0,2730.0,1235.0,248.0,70.0,1.0
547243,County,2020/06/20,40.0,OK,40011.0,Blaine County,1732.0,7753.0,34618.0,8748.0,5592.0,6193.0,4714.0,5217.0,2269.0,1568.0,279.0,37.0,1.0
551986,County,2020/06/21,40.0,OK,40011.0,Blaine County,1999.0,7486.0,27330.0,8559.0,3575.0,3413.0,3666.0,4040.0,2511.0,1358.0,152.0,54.0,2.0
553622,County,2020/06/22,40.0,OK,40011.0,Blaine County,1778.0,7707.0,33321.0,9244.0,4624.0,5114.0,4156.0,5980.0,2662.0,1184.0,314.0,42.0,1.0
558382,County,2020/06/23,40.0,OK,40011.0,Blaine County,1622.0,7863.0,34897.0,9236.0,5508.0,6002.0,4427.0,5547.0,2687.0,1145.0,264.0,79.0,2.0
560013,County,2020/06/24,40.0,OK,40011.0,Blaine County,2021.0,7464.0,31429.0,8923.0,5726.0,3539.0,3630.0,5481.0,2350.0,1518.0,241.0,19.0,2.0
563203,County,2020/06/25,40.0,OK,40011.0,Blaine County,1897.0,7588.0,33309.0,8977.0,5681.0,4519.0,4688.0,5162.0,2514.0,1550.0,197.0,19.0,2.0
566456,County,2020/06/26,40.0,OK,40011.0,Blaine County,1900.0,7585.0,30797.0,8004.0,5258.0,4104.0,3441.0,5690.0,2163.0,1839.0,248.0,49.0,1.0
569578,County,2020/06/27,40.0,OK,40011.0,Blaine County,1879.0,7606.0,35535.0,9819.0,6324.0,5364.0,4712.0,5065.0,2612.0,1503.0,105.0,31.0,0.0
572775,County,2020/06/28,40.0,OK,40011.0,Blaine County,1926.0,7559.0,29861.0,7617.0,4071.0,6357.0,3963.0,4517.0,2237.0,732.0,341.0,24.0,2.0
577553,County,2020/06/29,40.0,OK,40011.0,Blaine County,1879.0,7606.0,33377.0,9365.0,5200.0,5348.0,4756.0,5387.0,1993.0,1173.0,104.0,49.0,2.0
579195,County,2020/06/30,40.0,OK,40011.0,Blaine County,1797.0,7688.0,35045.0,9574.0,5703.0,5680.0,5166.0,5080.0,2232.0,1428.0,88.0,92.0,2.0
583939,County,2020/07/01,40.0,OK,40011.0,Blaine County,1781.0,7704.0,31469.0,9988.0,4607.0,4875.0,3083.0,5291.0,2176.0,1277.0,146.0,25.0,1.0
587133,County,2020/07/02,40.0,OK,40011.0,Blaine County,1981.0,7504.0,35353.0,9528.0,6030.0,4796.0,4976.0,5479.0,2668.0,1645.0,209.0,20.0,2.0
588773,County,2020/07/03,40.0,OK,40011.0,Blaine County,1876.0,7609.0,30625.0,7959.0,5228.0,4081.0,3422.0,5658.0,2151.0,1829.0,247.0,49.0,1.0
591981,County,2020/07/04,40.0,OK,40011.0,Blaine County,2370.0,7115.0,26199.0,6809.0,4473.0,3491.0,2927.0,4841.0,1840.0,1564.0,211.0,42.0,1.0
595166,County,2020/07/05,40.0,OK,40011.0,Blaine County,2042.0,7443.0,24632.0,5955.0,4616.0,4173.0,3491.0,3492.0,1824.0,852.0,178.0,47.0,4.0
599903,County,2020/07/06,40.0,OK,40011.0,Blaine County,1780.0,7705.0,31969.0,9076.0,4459.0,4810.0,4733.0,5150.0,2499.0,1016.0,193.0,29.0,4.0
603574,County,2020/07/07,40.0,OK,40011.0,Blaine County,1652.0,7833.0,33785.0,9136.0,5533.0,4928.0,4881.0,5562.0,2191.0,1196.0,285.0,70.0,3.0
604722,County,2020/07/08,40.0,OK,40011.0,Blaine County,1641.0,7844.0,30730.0,8094.0,5237.0,4127.0,3756.0,5035.0,2518.0,1637.0,282.0,42.0,2.0
609494,County,2020/07/09,40.0,OK,40011.0,Blaine County,1756.0,7729.0,34153.0,8983.0,4166.0,6248.0,4430.0,5834.0,2970.0,1196.0,295.0,29.0,2.0
612699,County,2020/07/10,40.0,OK,40011.0,Blaine County,1802.0,7683.0,33093.0,9995.0,5035.0,4367.0,3995.0,5564.0,2734.0,1130.0,238.0,28.0,7.0
614328,County,2020/07/11,40.0,OK,40011.0,Blaine County,1664.0,7821.0,29017.0,7277.0,4952.0,3750.0,4764.0,4236.0,2381.0,1271.0,300.0,79.0,7.0
617499,County,2020/07/12,40.0,OK,40011.0,Blaine County,2005.0,7480.0,27556.0,6989.0,3990.0,5196.0,3979.0,3626.0,2116.0,1408.0,150.0,99.0,3.0
620689,County,2020/07/13,40.0,OK,40011.0,Blaine County,2098.0,7387.0,28877.0,8473.0,4130.0,4482.0,3436.0,4230.0,2441.0,1410.0,236.0,37.0,2.0
623889,County,2020/07/14,40.0,OK,40011.0,Blaine County,2055.0,7430.0,32399.0,8331.0,5239.0,5940.0,4722.0,4287.0,2227.0,1405.0,200.0,46.0,2.0
627011,County,2020/07/15,40.0,OK,40011.0,Blaine County,1833.0,7652.0,29810.0,8006.0,5084.0,3845.0,4674.0,4617.0,1918.0,1491.0,155.0,18.0,2.0
630252,County,2020/07/16,40.0,OK,40011.0,Blaine County,2041.0,7444.0,30708.0,7806.0,4605.0,4820.0,4433.0,4725.0,2657.0,1469.0,131.0,58.0,4.0
633459,County,2020/07/17,40.0,OK,40011.0,Blaine County,1860.0,7625.0,32036.0,8581.0,5381.0,5402.0,3899.0,4623.0,2644.0,1301.0,153.0,41.0,11.0
638239,County,2020/07/18,40.0,OK,40011.0,Blaine County,2158.0,7327.0,29033.0,7303.0,5078.0,3194.0,4123.0,5262.0,2537.0,1370.0,65.0,78.0,23.0
641442,County,2020/07/19,40.0,OK,40011.0,Blaine County,2209.0,7276.0,23478.0,4834.0,3711.0,2649.0,3412.0,5202.0,2530.0,1023.0,60.0,47.0,10.0
643053,County,2020/07/20,40.0,OK,40011.0,Blaine County,2024.0,7461.0,27929.0,6745.0,4705.0,3589.0,4231.0,4769.0,2638.0,1134.0,98.0,19.0,1.0
648293,County,2020/07/21,40.0,OK,40011.0,Blaine County,1940.0,7545.0,28600.0,6982.0,4775.0,2800.0,3942.0,5716.0,2561.0,1660.0,125.0,37.0,2.0
651006,County,2020/07/22,40.0,OK,40011.0,Blaine County,1721.0,7764.0,33210.0,9388.0,4533.0,4943.0,3755.0,6068.0,2826.0,1516.0,118.0,61.0,2.0
654201,County,2020/07/23,40.0,OK,40011.0,Blaine County,1885.0,7600.0,28682.0,7311.0,3914.0,3535.0,4309.0,5340.0,2399.0,1669.0,178.0,26.0,1.0
657475,County,2020/07/24,40.0,OK,40011.0,Blaine County,1649.0,7836.0,33389.0,9154.0,5229.0,4119.0,4220.0,6140.0,2506.0,1616.0,355.0,46.0,4.0
659017,County,2020/07/25,40.0,OK,40011.0,Blaine County,1966.0,7519.0,26846.0,6502.0,3971.0,4244.0,3187.0,4690.0,2291.0,1739.0,195.0,21.0,6.0
662217,County,2020/07/26,40.0,OK,40011.0,Blaine County,1913.0,7572.0,28521.0,6534.0,4200.0,3498.0,4289.0,5489.0,2876.0,1293.0,290.0,44.0,8.0
665512,County,2020/07/27,40.0,OK,40011.0,Blaine County,1873.0,7612.0,31007.0,7361.0,3758.0,4836.0,4719.0,5714.0,2436.0,1897.0,236.0,44.0,6.0
668674,County,2020/07/28,40.0,OK,40011.0,Blaine County,2027.0,7458.0,31742.0,7442.0,5166.0,4340.0,4822.0,5170.0,2989.0,1654.0,122.0,31.0,6.0
673462,County,2020/07/29,40.0,OK,40011.0,Blaine County,1915.0,7570.0,29456.0,6593.0,4270.0,4866.0,3593.0,5175.0,3035.0,1698.0,179.0,43.0,4.0
674993,County,2020/07/30,40.0,OK,40011.0,Blaine County,1778.0,7707.0,33609.0,8599.0,5403.0,4264.0,4913.0,5540.0,2918.0,1732.0,100.0,138.0,2.0
678194,County,2020/07/31,40.0,OK,40011.0,Blaine County,2001.0,7484.0,27372.0,5922.0,3614.0,4367.0,3193.0,5037.0,3141.0,1840.0,198.0,59.0,1.0
681351,County,2020/08/01,40.0,OK,40011.0,Blaine County,2127.0,7358.0,28123.0,5754.0,4505.0,4675.0,4029.0,5265.0,2378.0,1151.0,324.0,41.0,1.0
684574,County,2020/08/02,40.0,OK,40011.0,Blaine County,2013.0,7472.0,30440.0,8515.0,4832.0,4200.0,3380.0,4576.0,3116.0,1382.0,305.0,133.0,1.0
687771,County,2020/08/03,40.0,OK,40011.0,Blaine County,1917.0,7568.0,33508.0,8876.0,6079.0,5396.0,3955.0,5083.0,2416.0,1501.0,154.0,46.0,2.0
692546,County,2020/08/04,40.0,OK,40011.0,Blaine County,1734.0,7751.0,34594.0,8726.0,4654.0,5614.0,4828.0,5920.0,2960.0,1686.0,175.0,29.0,2.0
695722,County,2020/08/05,40.0,OK,40011.0,Blaine County,1901.0,7584.0,31566.0,8123.0,5378.0,4528.0,4995.0,4653.0,2154.0,1413.0,250.0,70.0,2.0
698917,County,2020/08/06,40.0,OK,40011.0,Blaine County,1963.0,7522.0,31884.0,8712.0,5021.0,5042.0,3995.0,5562.0,1942.0,1373.0,185.0,50.0,2.0
702113,County,2020/08/07,40.0,OK,40011.0,Blaine County,1997.0,7488.0,31912.0,7273.0,5646.0,5160.0,4097.0,5221.0,2779.0,1413.0,290.0,32.0,1.0
703742,County,2020/08/08,40.0,OK,40011.0,Blaine County,1838.0,7647.0,26926.0,6619.0,4125.0,3747.0,3487.0,4873.0,2528.0,1203.0,290.0,54.0,0.0
708523,County,2020/08/09,40.0,OK,40011.0,Blaine County,2016.0,7469.0,30448.0,6816.0,4125.0,6796.0,4205.0,4824.0,1994.0,1276.0,375.0,36.0,1.0
710153,County,2020/08/10,40.0,OK,40011.0,Blaine County,1770.0,7715.0,33729.0,8763.0,5319.0,5803.0,4793.0,5126.0,2320.0,1388.0,187.0,30.0,0.0
713370,County,2020/08/11,40.0,OK,40011.0,Blaine County,1843.0,7642.0,33820.0,9601.0,5083.0,4880.0,4511.0,6004.0,2438.0,1116.0,142.0,42.0,3.0
716516,County,2020/08/12,40.0,OK,40011.0,Blaine County,1844.0,7641.0,32254.0,7783.0,5517.0,4408.0,4366.0,6060.0,2629.0,1280.0,154.0,51.0,6.0
721275,County,2020/08/13,40.0,OK,40011.0,Blaine County,1819.0,7666.0,34179.0,10160.0,5345.0,4539.0,3588.0,6189.0,2939.0,1130.0,238.0,40.0,11.0
722902,County,2020/08/14,40.0,OK,40011.0,Blaine County,1598.0,7887.0,35517.0,9011.0,5990.0,4901.0,4182.0,6440.0,3290.0,1335.0,296.0,68.0,4.0
726133,County,2020/08/15,40.0,OK,40011.0,Blaine County,1746.0,7739.0,31384.0,8482.0,3827.0,5146.0,4677.0,5179.0,2159.0,1604.0,237.0,61.0,12.0
729292,County,2020/08/16,40.0,OK,40011.0,Blaine County,2117.0,7368.0,32895.0,8170.0,4064.0,4263.0,5812.0,5465.0,3124.0,1679.0,211.0,100.0,7.0
734072,County,2020/08/17,40.0,OK,40011.0,Blaine County,1794.0,7691.0,37411.0,10530.0,4228.0,4483.0,5457.0,6377.0,3914.0,2107.0,276.0,33.0,6.0
737244,County,2020/08/18,40.0,OK,40011.0,Blaine County,2069.0,7416.0,35734.0,8957.0,4818.0,6436.0,4993.0,4816.0,3386.0,2024.0,226.0,68.0,10.0
740439,County,2020/08/19,40.0,OK,40011.0,Blaine County,1923.0,7562.0,35717.0,10024.0,5653.0,4503.0,5362.0,5539.0,2349.0,1931.0,265.0,84.0,7.0
742068,County,2020/08/20,40.0,OK,40011.0,Blaine County,1691.0,7794.0,37511.0,10044.0,5322.0,6250.0,4952.0,5830.0,2664.0,2153.0,273.0,12.0,11.0
746843,County,2020/08/21,40.0,OK,40011.0,Blaine County,1542.0,7943.0,37147.0,11032.0,5081.0,5059.0,4755.0,5668.0,3291.0,1958.0,216.0,82.0,5.0
750048,County,2020/08/22,40.0,OK,40011.0,Blaine County,1843.0,7642.0,38813.0,9948.0,5128.0,6831.0,4744.0,6712.0,3378.0,1756.0,270.0,40.0,6.0
751665,County,2020/08/23,40.0,OK,40011.0,Blaine County,2086.0,7399.0,71146.0,43072.0,11401.0,4668.0,3554.0,4161.0,2608.0,1502.0,92.0,77.0,11.0
756409,County,2020/08/24,40.0,OK,40011.0,Blaine County,2055.0,7430.0,33165.0,10884.0,4301.0,4453.0,4720.0,5166.0,1935.0,1345.0,335.0,21.0,5.0
758038,County,2020/08/25,40.0,OK,40011.0,Blaine County,1973.0,7512.0,32579.0,8508.0,5051.0,4415.0,3635.0,6306.0,2741.0,1739.0,140.0,32.0,12.0
761231,County,2020/08/26,40.0,OK,40011.0,Blaine County,1889.0,7596.0,31333.0,7910.0,5305.0,4218.0,3689.0,5822.0,2705.0,1384.0,233.0,60.0,7.0
766004,County,2020/08/27,40.0,OK,40011.0,Blaine County,1615.0,7870.0,31557.0,8820.0,4341.0,4715.0,4170.0,4623.0,2907.0,1650.0,272.0,57.0,2.0
769171,County,2020/08/28,40.0,OK,40011.0,Blaine County,1753.0,7732.0,31966.0,8513.0,4387.0,4536.0,4279.0,5741.0,2754.0,1365.0,329.0,59.0,3.0
772372,County,2020/08/29,40.0,OK,40011.0,Blaine County,1835.0,7650.0,31690.0,7963.0,4736.0,4716.0,4623.0,4751.0,2876.0,1703.0,275.0,43.0,4.0
774050,County,2020/08/30,40.0,OK,40011.0,Blaine County,2268.0,7217.0,30447.0,9397.0,3930.0,3812.0,3545.0,5648.0,2583.0,1246.0,257.0,23.0,6.0
778773,County,2020/08/31,40.0,OK,40011.0,Blaine County,1889.0,7596.0,33496.0,9179.0,4607.0,5162.0,4064.0,5995.0,2753.0,1297.0,408.0,29.0,2.0
780384,County,2020/09/01,40.0,OK,40011.0,Blaine County,1901.0,7584.0,32020.0,8631.0,4747.0,4483.0,3440.0,5448.0,3315.0,1673.0,232.0,49.0,2.0
784412,County,2020/09/02,40.0,OK,40011.0,Blaine County,1966.0,7519.0,35186.0,10513.0,4876.0,5228.0,4814.0,4978.0,2843.0,1776.0,135.0,20.0,3.0
788368,County,2020/09/03,40.0,OK,40011.0,Blaine County,1753.0,7732.0,38491.0,12790.0,5715.0,4320.0,5370.0,5531.0,2838.0,1643.0,252.0,30.0,2.0
791551,County,2020/09/04,40.0,OK,40011.0,Blaine County,1627.0,7858.0,34497.0,8964.0,5560.0,4983.0,3713.0,5167.0,3466.0,2190.0,398.0,53.0,3.0
794745,County,2020/09/05,40.0,OK,40011.0,Blaine County,1898.0,7587.0,37239.0,9620.0,5158.0,6092.0,4513.0,6896.0,2889.0,1747.0,214.0,104.0,6.0
797950,County,2020/09/06,40.0,OK,40011.0,Blaine County,2337.0,7148.0,29147.0,8686.0,4807.0,3553.0,3330.0,4800.0,2990.0,802.0,121.0,58.0,0.0
799557,County,2020/09/07,40.0,OK,40011.0,Blaine County,2215.0,7270.0,28310.0,6488.0,4414.0,4486.0,3982.0,4999.0,2399.0,1326.0,133.0,79.0,4.0
804319,County,2020/09/08,40.0,OK,40011.0,Blaine County,1863.0,7622.0,37630.0,10237.0,6270.0,5541.0,4814.0,6090.0,2872.0,1437.0,357.0,10.0,2.0
805948,County,2020/09/09,40.0,OK,40011.0,Blaine County,2034.0,7451.0,32586.0,8455.0,5202.0,4341.0,4322.0,5807.0,2714.0,1510.0,193.0,42.0,0.0
810716,County,2020/09/10,40.0,OK,40011.0,Blaine County,1890.0,7595.0,30107.0,6586.0,4471.0,4741.0,4717.0,5363.0,2698.0,1216.0,300.0,10.0,5.0
812345,County,2020/09/11,40.0,OK,40011.0,Blaine County,1766.0,7719.0,36080.0,9633.0,4767.0,4411.0,4949.0,6365.0,3112.0,2431.0,371.0,40.0,1.0
817095,County,2020/09/12,40.0,OK,40011.0,Blaine County,2170.0,7315.0,30991.0,7100.0,3408.0,4656.0,4322.0,6825.0,3074.0,1211.0,365.0,24.0,6.0
818702,County,2020/09/13,40.0,OK,40011.0,Blaine County,2368.0,7117.0,24358.0,6152.0,3835.0,2331.0,4121.0,3455.0,1990.0,2157.0,230.0,82.0,5.0
823484,County,2020/09/14,40.0,OK,40011.0,Blaine County,2140.0,7345.0,33571.0,9446.0,4782.0,5312.0,3939.0,5503.0,2606.0,1687.0,219.0,72.0,5.0
826725,County,2020/09/15,40.0,OK,40011.0,Blaine County,1956.0,7529.0,35027.0,9811.0,4844.0,5640.0,5561.0,4641.0,2528.0,1636.0,298.0,66.0,2.0
828353,County,2020/09/16,40.0,OK,40011.0,Blaine County,1910.0,7575.0,34943.0,10599.0,5023.0,4703.0,5372.0,4429.0,2645.0,1759.0,366.0,44.0,3.0
831498,County,2020/09/17,40.0,OK,40011.0,Blaine County,1959.0,7526.0,36290.0,11485.0,4597.0,6480.0,4796.0,4292.0,2427.0,1950.0,217.0,43.0,3.0
836259,County,2020/09/18,40.0,OK,40011.0,Blaine County,1819.0,7666.0,38213.0,11865.0,5327.0,5592.0,4582.0,5896.0,2565.0,1959.0,381.0,43.0,3.0
837888,County,2020/09/19,40.0,OK,40011.0,Blaine County,1958.0,7527.0,36025.0,10010.0,5857.0,4805.0,4288.0,4872.0,3892.0,1936.0,363.0,0.0,2.0
842663,County,2020/09/20,40.0,OK,40011.0,Blaine County,2166.0,7319.0,31884.0,9178.0,4559.0,4877.0,4114.0,4997.0,2688.0,1130.0,280.0,60.0,1.0
844291,County,2020/09/21,40.0,OK,40011.0,Blaine County,2343.0,7142.0,29631.0,8248.0,4449.0,3927.0,4046.0,5256.0,2751.0,800.0,153.0,0.0,1.0
849035,County,2020/09/22,40.0,OK,40011.0,Blaine County,1966.0,7519.0,31275.0,9093.0,4478.0,3038.0,4480.0,5678.0,3143.0,1097.0,220.0,48.0,0.0
850663,County,2020/09/23,40.0,OK,40011.0,Blaine County,1834.0,7651.0,33964.0,10701.0,3825.0,4286.0,5247.0,6456.0,2190.0,979.0,209.0,68.0,3.0
855429,County,2020/09/24,40.0,OK,40011.0,Blaine County,1798.0,7687.0,35114.0,9489.0,5436.0,4692.0,4494.0,7231.0,2362.0,1238.0,137.0,35.0,0.0
857058,County,2020/09/25,40.0,OK,40011.0,Blaine County,1928.0,7557.0,34915.0,10997.0,4941.0,3879.0,4819.0,6236.0,2333.0,1264.0,371.0,73.0,2.0
860244,County,2020/09/26,40.0,OK,40011.0,Blaine County,2003.0,7482.0,34116.0,9413.0,5193.0,4927.0,4746.0,5527.0,2188.0,1893.0,160.0,68.0,1.0
863416,County,2020/09/27,40.0,OK,40011.0,Blaine County,2174.0,7311.0,28936.0,8513.0,3867.0,3863.0,4254.0,4788.0,1941.0,1395.0,273.0,41.0,1.0
868199,County,2020/09/28,40.0,OK,40011.0,Blaine County,2018.0,7467.0,35799.0,12171.0,5231.0,4826.0,3846.0,5348.0,2504.0,1530.0,279.0,64.0,0.0
869827,County,2020/09/29,40.0,OK,40011.0,Blaine County,1900.0,7585.0,33419.0,9876.0,5077.0,5360.0,3775.0,5189.0,2573.0,1382.0,178.0,9.0,0.0
874606,County,2020/09/30,40.0,OK,40011.0,Blaine County,1817.0,7668.0,33789.0,9385.0,5024.0,4365.0,4616.0,6177.0,3051.0,1078.0,68.0,25.0,0.0
877760,County,2020/10/01,40.0,OK,40011.0,Blaine County,1856.0,7629.0,37492.0,10241.0,6238.0,5698.0,3954.0,5781.0,3549.0,1748.0,254.0,28.0,1.0
880975,County,2020/10/02,40.0,OK,40011.0,Blaine County,1806.0,7679.0,34704.0,9996.0,4542.0,4361.0,4525.0,6755.0,2654.0,1608.0,227.0,34.0,2.0
884170,County,2020/10/03,40.0,OK,40011.0,Blaine County,1974.0,7511.0,34889.0,7868.0,4862.0,7400.0,4536.0,5581.0,2924.0,1411.0,239.0,67.0,1.0
886822,County,2020/10/04,40.0,OK,40011.0,Blaine County,2235.0,7250.0,29056.0,8274.0,3309.0,4836.0,3630.0,4957.0,2366.0,1443.0,210.0,30.0,1.0
890558,County,2020/10/05,40.0,OK,40011.0,Blaine County,2313.0,7172.0,28450.0,7884.0,3093.0,4056.0,3173.0,5141.0,3357.0,1592.0,103.0,51.0,0.0
893220,County,2020/10/06,40.0,OK,40011.0,Blaine County,2037.0,7448.0,35001.0,10306.0,4650.0,5140.0,3927.0,5562.0,3423.0,1736.0,217.0,39.0,1.0
896436,County,2020/10/07,40.0,OK,40011.0,Blaine County,1925.0,7560.0,34768.0,9554.0,4691.0,4188.0,4331.0,6248.0,4148.0,1401.0,186.0,20.0,1.0
899614,County,2020/10/08,40.0,OK,40011.0,Blaine County,2071.0,7414.0,31525.0,8834.0,4476.0,3518.0,3256.0,6222.0,3265.0,1859.0,65.0,27.0,3.0
902801,County,2020/10/09,40.0,OK,40011.0,Blaine County,1953.0,7532.0,34530.0,8761.0,4685.0,5070.0,3858.0,6216.0,3639.0,2090.0,176.0,34.0,1.0
905915,County,2020/10/10,40.0,OK,40011.0,Blaine County,2410.0,7075.0,29182.0,7108.0,3239.0,6118.0,3128.0,5178.0,2721.0,1513.0,135.0,41.0,1.0
908273,County,2020/10/11,40.0,OK,40011.0,Blaine County,2348.0,7137.0,22643.0,5281.0,3387.0,3045.0,3115.0,3502.0,2476.0,1389.0,402.0,45.0,1.0
911289,County,2020/10/12,40.0,OK,40011.0,Blaine County,2142.0,7343.0,27893.0,7339.0,4246.0,3373.0,4153.0,5140.0,2056.0,1240.0,305.0,41.0,0.0
914868,County,2020/10/13,40.0,OK,40011.0,Blaine County,2114.0,7371.0,30429.0,7472.0,4462.0,4182.0,3919.0,5487.0,2730.0,2037.0,97.0,42.0,1.0
917665,County,2020/10/14,40.0,OK,40011.0,Blaine County,2010.0,7475.0,28484.0,7433.0,4551.0,4726.0,2698.0,5139.0,1981.0,1702.0,205.0,47.0,2.0
921688,County,2020/10/15,40.0,OK,40011.0,Blaine County,2148.0,7337.0,29559.0,7225.0,4644.0,4617.0,3446.0,4399.0,2716.0,2263.0,201.0,47.0,1.0
924120,County,2020/10/16,40.0,OK,40011.0,Blaine County,2044.0,7441.0,32003.0,8421.0,5549.0,4490.0,3857.0,4766.0,2970.0,1573.0,347.0,29.0,1.0
928100,County,2020/10/17,40.0,OK,40011.0,Blaine County,1889.0,7596.0,31301.0,10401.0,4483.0,3796.0,3825.0,3616.0,2761.0,1993.0,379.0,46.0,1.0
930471,County,2020/10/18,40.0,OK,40011.0,Blaine County,2480.0,7005.0,25045.0,6270.0,4315.0,2932.0,3545.0,3851.0,2283.0,1551.0,273.0,25.0,0.0
934050,County,2020/10/19,40.0,OK,40011.0,Blaine County,1931.0,7554.0,28845.0,7571.0,3671.0,3833.0,4350.0,4039.0,3218.0,1828.0,311.0,22.0,2.0
936820,County,2020/10/20,40.0,OK,40011.0,Blaine County,2067.0,7418.0,36689.0,9997.0,6004.0,6142.0,4370.0,5553.0,2532.0,1721.0,347.0,22.0,1.0
940104,County,2020/10/21,40.0,OK,40011.0,Blaine County,2295.0,7190.0,31446.0,9037.0,4692.0,4394.0,3855.0,4933.0,2222.0,1964.0,297.0,51.0,1.0
943027,County,2020/10/22,40.0,OK,40011.0,Blaine County,1979.0,7506.0,33114.0,9287.0,5919.0,4115.0,3455.0,4824.0,2750.0,2232.0,489.0,42.0,1.0
946878,County,2020/10/23,40.0,OK,40011.0,Blaine County,1898.0,7587.0,37367.0,9308.0,6100.0,5756.0,5048.0,5118.0,3447.0,2185.0,383.0,21.0,1.0
949587,County,2020/10/24,40.0,OK,40011.0,Blaine County,2219.0,7266.0,32165.0,8495.0,4302.0,3670.0,5301.0,5464.0,2924.0,1653.0,355.0,0.0,1.0
