,Level,Date,State FIPS,State Postal Code,County FIPS,County Name,Population Staying at Home,Population Not Staying at Home,Number of Trips,Number of Trips <1,Number of Trips 1-3,Number of Trips 3-5,Number of Trips 5-10,Number of Trips 10-25,Number of Trips 25-50,Number of Trips 50-100,Number of Trips 100-250,Number of Trips 250-500,Number of Trips >=500
1371,County,2020/01/01,27.0,MN,27115.0,Pine County,5541.0,23942.0,80859.0,17542.0,15653.0,7245.0,13460.0,13495.0,7501.0,4474.0,1319.0,138.0,32.0
3611,County,2020/01/02,27.0,MN,27115.0,Pine County,4264.0,25219.0,101582.0,22899.0,18173.0,10270.0,17371.0,17211.0,9144.0,5576.0,876.0,42.0,20.0
7297,County,2020/01/03,27.0,MN,27115.0,Pine County,4160.0,25323.0,106599.0,23209.0,19153.0,9783.0,18565.0,19833.0,8307.0,6458.0,1121.0,139.0,31.0
11068,County,2020/01/04,27.0,MN,27115.0,Pine County,4819.0,24664.0,96746.0,21390.0,15839.0,9782.0,16801.0,16966.0,8629.0,5911.0,1314.0,103.0,11.0
14147,County,2020/01/05,27.0,MN,27115.0,Pine County,5698.0,23785.0,82161.0,17589.0,16398.0,8552.0,14565.0,13626.0,5583.0,4499.0,1163.0,157.0,29.0
18270,County,2020/01/06,27.0,MN,27115.0,Pine County,4319.0,25164.0,98328.0,20605.0,17221.0,9751.0,15665.0,17450.0,9443.0,6708.0,1399.0,63.0,23.0
21416,County,2020/01/07,27.0,MN,27115.0,Pine County,4033.0,25450.0,102965.0,22558.0,20179.0,8535.0,15847.0,18937.0,9713.0,6042.0,1042.0,90.0,22.0
23043,County,2020/01/08,27.0,MN,27115.0,Pine County,4509.0,24974.0,103596.0,24647.0,19499.0,8171.0,16189.0,17637.0,9397.0,6766.0,1151.0,120.0,19.0
27841,County,2020/01/09,27.0,MN,27115.0,Pine County,4278.0,25205.0,104012.0,21258.0,19288.0,9478.0,16946.0,17989.0,10583.0,7292.0,969.0,180.0,29.0
29435,County,2020/01/10,27.0,MN,27115.0,Pine County,4025.0,25458.0,112843.0,23692.0,22082.0,10302.0,19470.0,19913.0,10036.0,5657.0,1559.0,119.0,13.0
34242,County,2020/01/11,27.0,MN,27115.0,Pine County,4941.0,24542.0,102531.0,25656.0,22185.0,9514.0,15776.0,16407.0,7335.0,4309.0,1310.0,22.0,17.0
37361,County,2020/01/12,27.0,MN,27115.0,Pine County,5416.0,24067.0,90563.0,21830.0,18282.0,9434.0,15319.0,13266.0,6645.0,4384.0,1338.0,58.0,7.0
40610,County,2020/01/13,27.0,MN,27115.0,Pine County,4528.0,24955.0,102226.0,23051.0,19027.0,9571.0,17955.0,16662.0,9186.0,6025.0,616.0,108.0,25.0
42235,County,2020/01/14,27.0,MN,27115.0,Pine County,4244.0,25239.0,105968.0,25010.0,20080.0,9859.0,16470.0,17247.0,10217.0,6218.0,758.0,106.0,3.0
45389,County,2020/01/15,27.0,MN,27115.0,Pine County,4516.0,24967.0,103850.0,24415.0,18614.0,10491.0,17081.0,17510.0,8559.0,6212.0,874.0,76.0,18.0
50170,County,2020/01/16,27.0,MN,27115.0,Pine County,4297.0,25186.0,104545.0,22217.0,20587.0,9148.0,16058.0,17938.0,10569.0,6811.0,1097.0,91.0,29.0
53407,County,2020/01/17,27.0,MN,27115.0,Pine County,4311.0,25172.0,102650.0,23855.0,19326.0,11608.0,17422.0,16832.0,8314.0,4194.0,973.0,109.0,17.0
54981,County,2020/01/18,27.0,MN,27115.0,Pine County,5928.0,23555.0,100058.0,24485.0,20978.0,11124.0,18170.0,15150.0,6797.0,2814.0,435.0,71.0,34.0
59775,County,2020/01/19,27.0,MN,27115.0,Pine County,5619.0,23864.0,91644.0,20706.0,20534.0,7719.0,15431.0,14921.0,7240.0,4052.0,925.0,80.0,36.0
62939,County,2020/01/20,27.0,MN,27115.0,Pine County,4736.0,24747.0,100379.0,21532.0,17941.0,10631.0,16831.0,16846.0,9823.0,5515.0,1188.0,59.0,13.0
64566,County,2020/01/21,27.0,MN,27115.0,Pine County,4160.0,25323.0,99495.0,22279.0,18092.0,8599.0,16532.0,16963.0,9551.0,6025.0,1281.0,113.0,60.0
69327,County,2020/01/22,27.0,MN,27115.0,Pine County,4080.0,25403.0,106940.0,22412.0,18562.0,9628.0,19840.0,18276.0,9996.0,7230.0,894.0,66.0,36.0
70952,County,2020/01/23,27.0,MN,27115.0,Pine County,3983.0,25500.0,105854.0,23341.0,20395.0,9594.0,18196.0,17129.0,8815.0,7141.0,1101.0,101.0,41.0
74149,County,2020/01/24,27.0,MN,27115.0,Pine County,3997.0,25486.0,114427.0,26320.0,21374.0,10982.0,18644.0,19154.0,9930.0,6757.0,1195.0,65.0,6.0
77342,County,2020/01/25,27.0,MN,27115.0,Pine County,4529.0,24954.0,105304.0,24423.0,19753.0,10797.0,18235.0,16832.0,9018.0,5087.0,1039.0,81.0,39.0
81221,County,2020/01/26,27.0,MN,27115.0,Pine County,4963.0,24520.0,93445.0,20361.0,18316.0,9724.0,15000.0,15150.0,8692.0,5018.0,1018.0,116.0,50.0
85266,County,2020/01/27,27.0,MN,27115.0,Pine County,4048.0,25435.0,105609.0,22659.0,19200.0,11627.0,18845.0,16445.0,9715.0,6184.0,808.0,109.0,17.0
86938,County,2020/01/28,27.0,MN,27115.0,Pine County,4276.0,25207.0,110954.0,26174.0,20635.0,9733.0,17470.0,18665.0,10017.0,7445.0,749.0,37.0,29.0
90093,County,2020/01/29,27.0,MN,27115.0,Pine County,4608.0,24875.0,111947.0,24057.0,20369.0,10685.0,18778.0,19044.0,11306.0,6507.0,1144.0,29.0,28.0
94927,County,2020/01/30,27.0,MN,27115.0,Pine County,4098.0,25385.0,106304.0,23923.0,19323.0,9726.0,16587.0,19208.0,9727.0,6736.0,957.0,87.0,30.0
98071,County,2020/01/31,27.0,MN,27115.0,Pine County,4248.0,25235.0,112787.0,26411.0,20887.0,9919.0,18195.0,19465.0,9544.0,6833.0,1358.0,105.0,70.0
101259,County,2020/02/01,27.0,MN,27115.0,Pine County,4499.0,24984.0,101177.0,21163.0,18561.0,12494.0,15639.0,16553.0,10246.0,5208.0,1164.0,109.0,40.0
102877,County,2020/02/02,27.0,MN,27115.0,Pine County,4859.0,24624.0,94650.0,19769.0,18473.0,10785.0,17275.0,14154.0,7790.0,4729.0,1487.0,95.0,93.0
106087,County,2020/02/03,27.0,MN,27115.0,Pine County,4026.0,25457.0,103571.0,23253.0,18788.0,10537.0,16964.0,18213.0,9049.0,5025.0,1539.0,121.0,82.0
110851,County,2020/02/04,27.0,MN,27115.0,Pine County,4217.0,25266.0,108516.0,23571.0,19437.0,11220.0,18589.0,17729.0,10070.0,6256.0,1363.0,205.0,76.0
114004,County,2020/02/05,27.0,MN,27115.0,Pine County,4120.0,25363.0,110605.0,23819.0,20636.0,10979.0,17590.0,19346.0,10026.0,6763.0,1135.0,170.0,141.0
115571,County,2020/02/06,27.0,MN,27115.0,Pine County,3936.0,25547.0,114759.0,26145.0,22915.0,10832.0,17085.0,19457.0,10706.0,6423.0,904.0,185.0,107.0
118837,County,2020/02/07,27.0,MN,27115.0,Pine County,3857.0,25626.0,120970.0,26743.0,23297.0,12336.0,19316.0,20682.0,10120.0,7019.0,1246.0,129.0,82.0
122083,County,2020/02/08,27.0,MN,27115.0,Pine County,4503.0,24980.0,111276.0,29421.0,19832.0,10699.0,18193.0,16511.0,8080.0,7051.0,1252.0,140.0,97.0
125384,County,2020/02/09,27.0,MN,27115.0,Pine County,5540.0,23943.0,93081.0,21648.0,18132.0,10784.0,13900.0,13809.0,7724.0,5291.0,1550.0,186.0,57.0
129680,County,2020/02/10,27.0,MN,27115.0,Pine County,4231.0,25252.0,118271.0,25521.0,25066.0,10370.0,17714.0,20111.0,10857.0,7059.0,1266.0,216.0,91.0
133833,County,2020/02/11,27.0,MN,27115.0,Pine County,3852.0,25631.0,120086.0,24420.0,23834.0,12199.0,19441.0,20842.0,10485.0,7055.0,1544.0,171.0,95.0
135308,County,2020/02/12,27.0,MN,27115.0,Pine County,3856.0,25627.0,118066.0,25437.0,22332.0,11989.0,18571.0,19864.0,10902.0,7230.0,1432.0,172.0,137.0
139643,County,2020/02/13,27.0,MN,27115.0,Pine County,4073.0,25410.0,111176.0,22601.0,20651.0,9812.0,19007.0,17904.0,11772.0,7819.0,1288.0,187.0,135.0
142796,County,2020/02/14,27.0,MN,27115.0,Pine County,3932.0,25551.0,123734.0,28929.0,21795.0,11519.0,18286.0,20427.0,12070.0,8534.0,1871.0,213.0,90.0
144420,County,2020/02/15,27.0,MN,27115.0,Pine County,4577.0,24906.0,110006.0,23274.0,18108.0,11135.0,18336.0,19322.0,10072.0,7703.0,1791.0,156.0,109.0
147609,County,2020/02/16,27.0,MN,27115.0,Pine County,5551.0,23932.0,97913.0,21766.0,17811.0,10232.0,17249.0,15428.0,7912.0,5514.0,1696.0,195.0,110.0
152371,County,2020/02/17,27.0,MN,27115.0,Pine County,5790.0,23693.0,91140.0,17445.0,17269.0,8987.0,14661.0,14804.0,9591.0,6110.0,1999.0,172.0,102.0
155516,County,2020/02/18,27.0,MN,27115.0,Pine County,4295.0,25188.0,115880.0,22481.0,20467.0,11406.0,20928.0,20588.0,10770.0,7628.0,1311.0,176.0,125.0
158758,County,2020/02/19,27.0,MN,27115.0,Pine County,4087.0,25396.0,117145.0,24868.0,19708.0,10842.0,19737.0,20651.0,10952.0,8528.0,1438.0,284.0,137.0
161953,County,2020/02/20,27.0,MN,27115.0,Pine County,4073.0,25410.0,112207.0,20682.0,20353.0,10933.0,19270.0,19512.0,11412.0,8480.0,1250.0,172.0,143.0
165147,County,2020/02/21,27.0,MN,27115.0,Pine County,4071.0,25412.0,121665.0,26432.0,21476.0,12125.0,19663.0,22024.0,11981.0,6187.0,1500.0,171.0,106.0
168291,County,2020/02/22,27.0,MN,27115.0,Pine County,4169.0,25314.0,110751.0,22120.0,18878.0,10300.0,18541.0,22078.0,11203.0,5471.0,1821.0,207.0,132.0
171540,County,2020/02/23,27.0,MN,27115.0,Pine County,5169.0,24314.0,100300.0,21648.0,18604.0,10893.0,18276.0,15554.0,8398.0,5055.0,1633.0,153.0,86.0
174735,County,2020/02/24,27.0,MN,27115.0,Pine County,4163.0,25320.0,114578.0,23409.0,21164.0,10419.0,21061.0,19369.0,11351.0,5828.0,1717.0,212.0,48.0
177091,County,2020/02/25,27.0,MN,27115.0,Pine County,3852.0,25631.0,124337.0,29164.0,23981.0,10490.0,21287.0,19827.0,10300.0,7571.0,1525.0,149.0,43.0
180235,County,2020/02/26,27.0,MN,27115.0,Pine County,4700.0,24783.0,112372.0,23419.0,25009.0,12818.0,19889.0,18753.0,7147.0,4536.0,782.0,0.0,19.0
184306,County,2020/02/27,27.0,MN,27115.0,Pine County,3860.0,25623.0,127477.0,32100.0,23294.0,11778.0,17602.0,20886.0,12621.0,8112.0,898.0,146.0,40.0
186031,County,2020/02/28,27.0,MN,27115.0,Pine County,3883.0,25600.0,131293.0,33172.0,23309.0,11139.0,18613.0,23292.0,13284.0,6800.0,1521.0,106.0,57.0
190651,County,2020/02/29,27.0,MN,27115.0,Pine County,4421.0,25062.0,121013.0,28287.0,19918.0,13252.0,20374.0,20355.0,10881.0,6631.0,1211.0,71.0,33.0
192322,County,2020/03/01,27.0,MN,27115.0,Pine County,4730.0,24753.0,99769.0,25753.0,19939.0,8789.0,16120.0,15378.0,7484.0,4943.0,1135.0,176.0,52.0
197123,County,2020/03/02,27.0,MN,27115.0,Pine County,4277.0,25206.0,115863.0,28594.0,21196.0,10695.0,17130.0,19850.0,10840.0,6151.0,1292.0,78.0,37.0
198702,County,2020/03/03,27.0,MN,27115.0,Pine County,3905.0,25578.0,113378.0,26220.0,21716.0,10455.0,15402.0,20266.0,11050.0,7036.0,996.0,221.0,16.0
202560,County,2020/03/04,27.0,MN,27115.0,Pine County,3825.0,25658.0,113280.0,28239.0,20663.0,9638.0,17310.0,18582.0,10897.0,6669.0,1139.0,109.0,34.0
206688,County,2020/03/05,27.0,MN,27115.0,Pine County,3671.0,25812.0,117995.0,29122.0,22895.0,9270.0,15748.0,18773.0,12107.0,8166.0,1673.0,213.0,28.0
209902,County,2020/03/06,27.0,MN,27115.0,Pine County,3775.0,25708.0,122216.0,30392.0,22164.0,11732.0,18622.0,19862.0,11230.0,5878.0,1929.0,360.0,47.0
213134,County,2020/03/07,27.0,MN,27115.0,Pine County,4271.0,25212.0,111016.0,28080.0,19447.0,11523.0,15808.0,18856.0,10007.0,5740.0,1337.0,170.0,48.0
214686,County,2020/03/08,27.0,MN,27115.0,Pine County,4709.0,24774.0,106188.0,27014.0,19636.0,9274.0,18906.0,16037.0,8036.0,5401.0,1644.0,222.0,18.0
219444,County,2020/03/09,27.0,MN,27115.0,Pine County,4241.0,25242.0,109700.0,24794.0,23196.0,8897.0,17362.0,18469.0,9469.0,6210.0,1010.0,234.0,59.0
222638,County,2020/03/10,27.0,MN,27115.0,Pine County,3943.0,25540.0,114474.0,27699.0,22677.0,8702.0,16737.0,20597.0,9994.0,6933.0,906.0,204.0,25.0
224262,County,2020/03/11,27.0,MN,27115.0,Pine County,4307.0,25176.0,114159.0,21657.0,28007.0,13908.0,17757.0,13883.0,7730.0,7908.0,2581.0,658.0,70.0
227496,County,2020/03/12,27.0,MN,27115.0,Pine County,4448.0,25035.0,122786.0,22628.0,26432.0,17703.0,15761.0,22595.0,6764.0,7357.0,2738.0,575.0,233.0
230656,County,2020/03/13,27.0,MN,27115.0,Pine County,4403.0,25080.0,117003.0,21285.0,26572.0,17937.0,18396.0,14599.0,8527.0,7020.0,2336.0,224.0,107.0
235282,County,2020/03/14,27.0,MN,27115.0,Pine County,5324.0,24159.0,123679.0,21957.0,43450.0,11614.0,14827.0,17673.0,7530.0,5080.0,1257.0,138.0,153.0
237042,County,2020/03/15,27.0,MN,27115.0,Pine County,5852.0,23631.0,97908.0,25261.0,19605.0,9895.0,16263.0,14495.0,6651.0,4023.0,1348.0,324.0,43.0
240235,County,2020/03/16,27.0,MN,27115.0,Pine County,4531.0,24952.0,111308.0,29318.0,17365.0,8989.0,19759.0,18785.0,9456.0,5897.0,1509.0,167.0,63.0
245043,County,2020/03/17,27.0,MN,27115.0,Pine County,4883.0,24600.0,112117.0,28517.0,19754.0,10166.0,17820.0,18943.0,9274.0,5916.0,1436.0,251.0,40.0
246622,County,2020/03/18,27.0,MN,27115.0,Pine County,5575.0,23908.0,109374.0,27087.0,20888.0,11591.0,13630.0,17568.0,10267.0,6655.0,1524.0,120.0,44.0
251404,County,2020/03/19,27.0,MN,27115.0,Pine County,5750.0,23733.0,99696.0,25349.0,18828.0,8380.0,14014.0,14446.0,10917.0,5935.0,1547.0,253.0,27.0
254579,County,2020/03/20,27.0,MN,27115.0,Pine County,5861.0,23622.0,105356.0,28842.0,19326.0,9198.0,16295.0,16009.0,8585.0,5547.0,1336.0,181.0,37.0
257771,County,2020/03/21,27.0,MN,27115.0,Pine County,7135.0,22348.0,95248.0,26875.0,20822.0,9761.0,11128.0,15746.0,6459.0,3355.0,809.0,267.0,26.0
260958,County,2020/03/22,27.0,MN,27115.0,Pine County,6811.0,22672.0,81052.0,21654.0,19028.0,7507.0,12106.0,10885.0,5456.0,3182.0,1018.0,164.0,52.0
262596,County,2020/03/23,27.0,MN,27115.0,Pine County,5424.0,24059.0,90193.0,23250.0,15635.0,9686.0,13193.0,13622.0,7699.0,5725.0,1296.0,62.0,25.0
265748,County,2020/03/24,27.0,MN,27115.0,Pine County,5731.0,23752.0,92215.0,21137.0,17970.0,8725.0,14626.0,15783.0,7577.0,5538.0,748.0,84.0,27.0
270549,County,2020/03/25,27.0,MN,27115.0,Pine County,5674.0,23809.0,82168.0,16899.0,16415.0,5252.0,15603.0,13503.0,7490.0,5562.0,1240.0,131.0,73.0
272175,County,2020/03/26,27.0,MN,27115.0,Pine County,5308.0,24175.0,83772.0,19002.0,16804.0,7730.0,12466.0,14356.0,7220.0,4564.0,1475.0,107.0,48.0
276938,County,2020/03/27,27.0,MN,27115.0,Pine County,5631.0,23852.0,94002.0,20996.0,19749.0,10616.0,15102.0,14374.0,7078.0,5280.0,636.0,152.0,19.0
280124,County,2020/03/28,27.0,MN,27115.0,Pine County,7064.0,22419.0,80218.0,21448.0,19734.0,9266.0,10401.0,9692.0,6364.0,2487.0,684.0,112.0,30.0
281758,County,2020/03/29,27.0,MN,27115.0,Pine County,7566.0,21917.0,61891.0,12197.0,15445.0,7745.0,10285.0,9415.0,3502.0,2178.0,856.0,240.0,28.0
286550,County,2020/03/30,27.0,MN,27115.0,Pine County,5616.0,23867.0,87081.0,19306.0,17246.0,8887.0,14039.0,13276.0,8074.0,5102.0,1071.0,61.0,19.0
288148,County,2020/03/31,27.0,MN,27115.0,Pine County,6105.0,23378.0,87533.0,21635.0,16155.0,10243.0,12464.0,13523.0,7629.0,4844.0,899.0,131.0,10.0
291383,County,2020/04/01,27.0,MN,27115.0,Pine County,5999.0,23484.0,97930.0,27844.0,18168.0,9309.0,14298.0,14754.0,7207.0,5526.0,617.0,157.0,50.0
294534,County,2020/04/02,27.0,MN,27115.0,Pine County,6348.0,23135.0,85541.0,18953.0,18917.0,6561.0,12754.0,12906.0,8400.0,5842.0,1000.0,166.0,42.0
299294,County,2020/04/03,27.0,MN,27115.0,Pine County,6436.0,23047.0,88541.0,19663.0,19366.0,8326.0,14217.0,15508.0,7145.0,3599.0,591.0,87.0,39.0
300921,County,2020/04/04,27.0,MN,27115.0,Pine County,6808.0,22675.0,87140.0,19711.0,21377.0,8881.0,13539.0,13324.0,6093.0,3132.0,927.0,118.0,38.0
305676,County,2020/04/05,27.0,MN,27115.0,Pine County,7108.0,22375.0,75300.0,15951.0,18136.0,9409.0,12766.0,10926.0,4609.0,2453.0,840.0,128.0,82.0
308876,County,2020/04/06,27.0,MN,27115.0,Pine County,6063.0,23420.0,96100.0,21313.0,20263.0,10690.0,16401.0,13096.0,9070.0,4097.0,1054.0,84.0,32.0
310504,County,2020/04/07,27.0,MN,27115.0,Pine County,5991.0,23492.0,88841.0,20792.0,20206.0,8462.0,12748.0,13559.0,7753.0,4393.0,863.0,49.0,16.0
313698,County,2020/04/08,27.0,MN,27115.0,Pine County,6058.0,23425.0,88425.0,18149.0,20811.0,10254.0,11941.0,13343.0,7401.0,5618.0,785.0,106.0,17.0
318457,County,2020/04/09,27.0,MN,27115.0,Pine County,6188.0,23295.0,92086.0,22277.0,19587.0,8499.0,13360.0,15050.0,7732.0,4647.0,845.0,72.0,17.0
321653,County,2020/04/10,27.0,MN,27115.0,Pine County,5559.0,23924.0,94811.0,22438.0,17975.0,10213.0,16846.0,14495.0,6773.0,5117.0,862.0,82.0,10.0
323328,County,2020/04/11,27.0,MN,27115.0,Pine County,6168.0,23315.0,92947.0,24127.0,17839.0,12840.0,15304.0,13882.0,5239.0,2942.0,709.0,54.0,11.0
328012,County,2020/04/12,27.0,MN,27115.0,Pine County,8205.0,21278.0,61503.0,11504.0,15671.0,9048.0,10779.0,8985.0,3143.0,1799.0,446.0,97.0,31.0
331235,County,2020/04/13,27.0,MN,27115.0,Pine County,6379.0,23104.0,87057.0,18509.0,17486.0,9514.0,13404.0,13936.0,8529.0,4698.0,855.0,109.0,17.0
334410,County,2020/04/14,27.0,MN,27115.0,Pine County,6488.0,22995.0,72393.0,13362.0,18522.0,8280.0,10647.0,11773.0,3769.0,4496.0,1325.0,202.0,17.0
337663,County,2020/04/15,27.0,MN,27115.0,Pine County,6157.0,23326.0,78218.0,15774.0,17741.0,10391.0,14885.0,10472.0,3230.0,4486.0,1015.0,194.0,30.0
339242,County,2020/04/16,27.0,MN,27115.0,Pine County,6477.0,23006.0,92717.0,18597.0,24721.0,10028.0,14090.0,14098.0,6967.0,3190.0,847.0,162.0,17.0
342541,County,2020/04/17,27.0,MN,27115.0,Pine County,5902.0,23581.0,88188.0,16866.0,24862.0,9223.0,12304.0,15181.0,5654.0,3026.0,882.0,144.0,46.0
347168,County,2020/04/18,27.0,MN,27115.0,Pine County,6089.0,23394.0,95749.0,17635.0,24822.0,13244.0,16020.0,15410.0,4049.0,3476.0,984.0,94.0,15.0
348819,County,2020/04/19,27.0,MN,27115.0,Pine County,6858.0,22625.0,67112.0,10819.0,18526.0,9159.0,14177.0,10116.0,2500.0,1074.0,607.0,116.0,18.0
352026,County,2020/04/20,27.0,MN,27115.0,Pine County,5741.0,23742.0,73275.0,11418.0,15116.0,8221.0,11541.0,14701.0,5303.0,5779.0,954.0,208.0,34.0
355220,County,2020/04/21,27.0,MN,27115.0,Pine County,6138.0,23345.0,91866.0,19355.0,20831.0,6707.0,16247.0,14817.0,6914.0,6033.0,904.0,58.0,0.0
359941,County,2020/04/22,27.0,MN,27115.0,Pine County,5847.0,23636.0,92569.0,19867.0,17144.0,7886.0,17112.0,15727.0,9740.0,4527.0,508.0,58.0,0.0
361519,County,2020/04/23,27.0,MN,27115.0,Pine County,5624.0,23859.0,95937.0,23362.0,17021.0,7891.0,15693.0,16961.0,9113.0,5457.0,396.0,19.0,24.0
366407,County,2020/04/24,27.0,MN,27115.0,Pine County,5611.0,23872.0,92607.0,17480.0,18253.0,9903.0,17567.0,16480.0,8325.0,4028.0,414.0,140.0,17.0
369563,County,2020/04/25,27.0,MN,27115.0,Pine County,6046.0,23437.0,93859.0,23043.0,16162.0,11474.0,15056.0,15941.0,8423.0,2841.0,804.0,115.0,0.0
371155,County,2020/04/26,27.0,MN,27115.0,Pine County,6401.0,23082.0,86929.0,19058.0,17808.0,12555.0,15640.0,11164.0,6995.0,3186.0,495.0,21.0,7.0
375989,County,2020/04/27,27.0,MN,27115.0,Pine County,5509.0,23974.0,97682.0,22348.0,17950.0,10749.0,16301.0,17471.0,7468.0,4130.0,1168.0,86.0,11.0
377534,County,2020/04/28,27.0,MN,27115.0,Pine County,5787.0,23696.0,95927.0,17051.0,20221.0,10078.0,19374.0,15301.0,7724.0,5726.0,386.0,37.0,29.0
380786,County,2020/04/29,27.0,MN,27115.0,Pine County,5561.0,23922.0,91773.0,18115.0,17547.0,9143.0,16966.0,14613.0,9673.0,4636.0,1013.0,55.0,12.0
385532,County,2020/04/30,27.0,MN,27115.0,Pine County,5540.0,23943.0,102364.0,24619.0,18614.0,12316.0,17519.0,15798.0,7314.0,5278.0,830.0,70.0,6.0
388769,County,2020/05/01,27.0,MN,27115.0,Pine County,5308.0,24175.0,100269.0,21200.0,20327.0,10450.0,16025.0,15982.0,9618.0,5391.0,1244.0,32.0,0.0
391920,County,2020/05/02,27.0,MN,27115.0,Pine County,5777.0,23706.0,88219.0,19336.0,17918.0,8958.0,14944.0,17059.0,6223.0,2500.0,1147.0,128.0,6.0
393554,County,2020/05/03,27.0,MN,27115.0,Pine County,6165.0,23318.0,78732.0,15163.0,15460.0,9248.0,13680.0,14593.0,5340.0,4098.0,1059.0,64.0,27.0
398308,County,2020/05/04,27.0,MN,27115.0,Pine County,5373.0,24110.0,93290.0,20934.0,19465.0,7001.0,14718.0,16276.0,8199.0,5906.0,696.0,89.0,6.0
401484,County,2020/05/05,27.0,MN,27115.0,Pine County,5353.0,24130.0,103094.0,27299.0,23882.0,8233.0,14673.0,14712.0,8370.0,4809.0,932.0,178.0,6.0
403115,County,2020/05/06,27.0,MN,27115.0,Pine County,5359.0,24124.0,104188.0,27225.0,19552.0,9691.0,15749.0,15438.0,9550.0,6294.0,551.0,105.0,33.0
407834,County,2020/05/07,27.0,MN,27115.0,Pine County,5177.0,24306.0,108935.0,25461.0,20766.0,9579.0,19310.0,16780.0,10227.0,6219.0,468.0,125.0,0.0
411096,County,2020/05/08,27.0,MN,27115.0,Pine County,5210.0,24273.0,99354.0,24421.0,16800.0,8207.0,16848.0,16436.0,9666.0,5516.0,1301.0,142.0,17.0
414245,County,2020/05/09,27.0,MN,27115.0,Pine County,5752.0,23731.0,95492.0,20129.0,19179.0,9781.0,17934.0,15784.0,7952.0,3482.0,1159.0,74.0,18.0
417473,County,2020/05/10,27.0,MN,27115.0,Pine County,6317.0,23166.0,85595.0,18306.0,16947.0,11205.0,13294.0,13236.0,7136.0,4212.0,1246.0,0.0,13.0
419099,County,2020/05/11,27.0,MN,27115.0,Pine County,5361.0,24122.0,95830.0,21521.0,15459.0,9918.0,13626.0,17758.0,8448.0,7577.0,1356.0,144.0,23.0
423959,County,2020/05/12,27.0,MN,27115.0,Pine County,5134.0,24349.0,101517.0,24343.0,20172.0,9474.0,14970.0,17583.0,8006.0,6048.0,683.0,227.0,11.0
425439,County,2020/05/13,27.0,MN,27115.0,Pine County,5227.0,24256.0,88113.0,19089.0,15476.0,7990.0,15084.0,16016.0,8326.0,4909.0,1059.0,135.0,29.0
430249,County,2020/05/14,27.0,MN,27115.0,Pine County,5508.0,23975.0,98254.0,25136.0,16735.0,10921.0,14153.0,15126.0,8671.0,6184.0,1237.0,69.0,22.0
431877,County,2020/05/15,27.0,MN,27115.0,Pine County,5172.0,24311.0,98699.0,23248.0,18117.0,8960.0,16151.0,16471.0,8679.0,5407.0,1548.0,81.0,37.0
436626,County,2020/05/16,27.0,MN,27115.0,Pine County,5882.0,23601.0,92651.0,18424.0,18931.0,12507.0,16480.0,14814.0,6596.0,3955.0,874.0,53.0,17.0
439785,County,2020/05/17,27.0,MN,27115.0,Pine County,5053.0,24430.0,80773.0,12939.0,15475.0,8848.0,14440.0,13031.0,9075.0,5529.0,1304.0,124.0,8.0
441499,County,2020/05/18,27.0,MN,27115.0,Pine County,4411.0,25072.0,111611.0,24596.0,20584.0,12554.0,20025.0,17053.0,10246.0,5358.0,1188.0,0.0,7.0
444652,County,2020/05/19,27.0,MN,27115.0,Pine County,4106.0,25377.0,113618.0,30247.0,19648.0,11640.0,18990.0,17143.0,8504.0,6456.0,835.0,128.0,27.0
449413,County,2020/05/20,27.0,MN,27115.0,Pine County,4009.0,25474.0,112702.0,22659.0,19847.0,10841.0,21370.0,19604.0,10880.0,6007.0,1453.0,21.0,20.0
452303,County,2020/05/21,27.0,MN,27115.0,Pine County,4100.0,25383.0,111394.0,26632.0,20227.0,10115.0,17784.0,19921.0,9888.0,5557.0,1146.0,104.0,20.0
455799,County,2020/05/22,27.0,MN,27115.0,Pine County,3824.0,25659.0,121386.0,30578.0,20525.0,12705.0,21031.0,17853.0,11742.0,5736.0,1136.0,41.0,39.0
457422,County,2020/05/23,27.0,MN,27115.0,Pine County,4832.0,24651.0,111053.0,22459.0,22932.0,11886.0,23272.0,17505.0,7783.0,3765.0,1395.0,48.0,8.0
460590,County,2020/05/24,27.0,MN,27115.0,Pine County,5865.0,23618.0,89864.0,21906.0,19063.0,10417.0,14209.0,12965.0,5821.0,4086.0,1314.0,70.0,13.0
465468,County,2020/05/25,27.0,MN,27115.0,Pine County,5655.0,23828.0,82574.0,20911.0,16772.0,8419.0,12035.0,10170.0,6308.0,6679.0,1200.0,58.0,22.0
466948,County,2020/05/26,27.0,MN,27115.0,Pine County,4987.0,24496.0,92480.0,20544.0,17187.0,8956.0,14925.0,15737.0,7813.0,5909.0,1275.0,117.0,17.0
470204,County,2020/05/27,27.0,MN,27115.0,Pine County,4674.0,24809.0,100134.0,21947.0,20408.0,9721.0,16186.0,16571.0,8694.0,5145.0,1396.0,48.0,18.0
473399,County,2020/05/28,27.0,MN,27115.0,Pine County,4766.0,24717.0,97911.0,22076.0,18727.0,9306.0,15865.0,15937.0,8793.0,6071.0,1061.0,66.0,9.0
478153,County,2020/05/29,27.0,MN,27115.0,Pine County,5036.0,24447.0,100746.0,21833.0,19488.0,10230.0,16383.0,17367.0,8410.0,5593.0,1345.0,91.0,6.0
481353,County,2020/05/30,27.0,MN,27115.0,Pine County,5350.0,24133.0,91904.0,22803.0,17807.0,8511.0,15319.0,15022.0,6993.0,4077.0,1317.0,36.0,19.0
482908,County,2020/05/31,27.0,MN,27115.0,Pine County,5560.0,23923.0,85992.0,19320.0,20215.0,8535.0,11758.0,12361.0,7066.0,5227.0,1452.0,38.0,20.0
487799,County,2020/06/01,27.0,MN,27115.0,Pine County,5177.0,24306.0,93495.0,19386.0,19005.0,9259.0,16301.0,15131.0,7887.0,5035.0,1383.0,90.0,18.0
490906,County,2020/06/02,27.0,MN,27115.0,Pine County,4587.0,24896.0,103760.0,23133.0,20891.0,11679.0,16201.0,16091.0,8239.0,6557.0,866.0,96.0,7.0
494129,County,2020/06/03,27.0,MN,27115.0,Pine County,4360.0,25123.0,112379.0,25139.0,20976.0,11203.0,18962.0,17823.0,10406.0,6329.0,1418.0,106.0,17.0
495748,County,2020/06/04,27.0,MN,27115.0,Pine County,4073.0,25410.0,109908.0,28716.0,21254.0,11441.0,15871.0,17023.0,9014.0,5107.0,1396.0,63.0,23.0
500523,County,2020/06/05,27.0,MN,27115.0,Pine County,4121.0,25362.0,112055.0,23347.0,21904.0,11506.0,18117.0,19877.0,9333.0,6325.0,1530.0,88.0,28.0
503675,County,2020/06/06,27.0,MN,27115.0,Pine County,5664.0,23819.0,95842.0,21865.0,20342.0,10472.0,15993.0,14254.0,7937.0,3644.0,1252.0,56.0,27.0
506873,County,2020/06/07,27.0,MN,27115.0,Pine County,5555.0,23928.0,86518.0,18151.0,18806.0,10375.0,14347.0,11491.0,6910.0,4894.0,1353.0,167.0,24.0
508512,County,2020/06/08,27.0,MN,27115.0,Pine County,4583.0,24900.0,102456.0,24905.0,19196.0,8681.0,17107.0,15120.0,9742.0,6353.0,1240.0,99.0,13.0
513291,County,2020/06/09,27.0,MN,27115.0,Pine County,5027.0,24456.0,94027.0,22124.0,17316.0,8092.0,14337.0,15781.0,8872.0,6180.0,1203.0,101.0,21.0
516495,County,2020/06/10,27.0,MN,27115.0,Pine County,5020.0,24463.0,98779.0,22996.0,17191.0,10244.0,14851.0,17648.0,9050.0,5228.0,1467.0,90.0,14.0
518124,County,2020/06/11,27.0,MN,27115.0,Pine County,4531.0,24952.0,99730.0,23228.0,18420.0,11868.0,15314.0,15030.0,8404.0,6169.0,1197.0,81.0,19.0
521326,County,2020/06/12,27.0,MN,27115.0,Pine County,5005.0,24478.0,106013.0,26290.0,19775.0,11262.0,17912.0,15723.0,8186.0,5381.0,1450.0,23.0,11.0
526062,County,2020/06/13,27.0,MN,27115.0,Pine County,4842.0,24641.0,98452.0,22744.0,18718.0,11537.0,16158.0,14916.0,7642.0,5369.0,1245.0,119.0,4.0
529266,County,2020/06/14,27.0,MN,27115.0,Pine County,5838.0,23645.0,85494.0,17890.0,17967.0,10310.0,14389.0,11141.0,6782.0,5324.0,1529.0,141.0,21.0
532456,County,2020/06/15,27.0,MN,27115.0,Pine County,5283.0,24200.0,88794.0,17857.0,18990.0,8487.0,14786.0,14814.0,7243.0,5225.0,1289.0,65.0,38.0
534085,County,2020/06/16,27.0,MN,27115.0,Pine County,5123.0,24360.0,95471.0,19368.0,17609.0,9900.0,16953.0,15326.0,9106.0,5942.0,1175.0,60.0,32.0
538844,County,2020/06/17,27.0,MN,27115.0,Pine County,5266.0,24217.0,94310.0,19924.0,17450.0,8726.0,14186.0,15960.0,10951.0,5762.0,1228.0,120.0,3.0
542040,County,2020/06/18,27.0,MN,27115.0,Pine County,4684.0,24799.0,89418.0,17018.0,19101.0,8458.0,14047.0,13694.0,9114.0,6558.0,1338.0,68.0,22.0
545191,County,2020/06/19,27.0,MN,27115.0,Pine County,5135.0,24348.0,92967.0,19183.0,18150.0,8525.0,15710.0,16522.0,7994.0,5799.0,1044.0,19.0,21.0
548426,County,2020/06/20,27.0,MN,27115.0,Pine County,5688.0,23795.0,88527.0,18357.0,18181.0,9789.0,16585.0,13399.0,7009.0,3625.0,1477.0,85.0,20.0
551613,County,2020/06/21,27.0,MN,27115.0,Pine County,5506.0,23977.0,80147.0,15494.0,14397.0,8970.0,14404.0,12482.0,7135.0,5764.0,1349.0,110.0,42.0
554855,County,2020/06/22,27.0,MN,27115.0,Pine County,5282.0,24201.0,95342.0,23788.0,17355.0,9656.0,14628.0,16289.0,6261.0,6066.0,1141.0,135.0,23.0
558010,County,2020/06/23,27.0,MN,27115.0,Pine County,4771.0,24712.0,100273.0,20945.0,19205.0,11028.0,15481.0,18878.0,8103.0,5379.0,1099.0,113.0,42.0
561202,County,2020/06/24,27.0,MN,27115.0,Pine County,5089.0,24394.0,93540.0,19895.0,18340.0,10110.0,14219.0,15279.0,8739.0,5631.0,1200.0,94.0,33.0
562832,County,2020/06/25,27.0,MN,27115.0,Pine County,4731.0,24752.0,98043.0,21268.0,17915.0,10283.0,16471.0,15594.0,8882.0,6127.0,1367.0,108.0,28.0
566084,County,2020/06/26,27.0,MN,27115.0,Pine County,4886.0,24597.0,100748.0,20839.0,19197.0,10836.0,16970.0,16902.0,7892.0,6651.0,1352.0,83.0,26.0
570777,County,2020/06/27,27.0,MN,27115.0,Pine County,5295.0,24188.0,96525.0,20618.0,20061.0,10354.0,16752.0,15750.0,6625.0,4871.0,1391.0,72.0,31.0
572414,County,2020/06/28,27.0,MN,27115.0,Pine County,5487.0,23996.0,83305.0,17824.0,18139.0,10648.0,12160.0,12471.0,5942.0,4980.0,1025.0,100.0,16.0
575575,County,2020/06/29,27.0,MN,27115.0,Pine County,5233.0,24250.0,87777.0,16479.0,15678.0,8633.0,13993.0,17783.0,7943.0,5473.0,1624.0,145.0,26.0
580387,County,2020/06/30,27.0,MN,27115.0,Pine County,4889.0,24594.0,91444.0,20094.0,18687.0,8306.0,14163.0,16379.0,6561.0,5935.0,1109.0,181.0,29.0
583581,County,2020/07/01,27.0,MN,27115.0,Pine County,4910.0,24573.0,96614.0,20593.0,17967.0,9460.0,15417.0,16060.0,9485.0,6096.0,1446.0,80.0,10.0
585180,County,2020/07/02,27.0,MN,27115.0,Pine County,5304.0,24179.0,104063.0,22574.0,19015.0,10914.0,17482.0,16552.0,9427.0,6503.0,1451.0,115.0,30.0
588407,County,2020/07/03,27.0,MN,27115.0,Pine County,6085.0,23398.0,100182.0,20722.0,19089.0,10775.0,16874.0,16807.0,7848.0,6614.0,1344.0,83.0,26.0
593157,County,2020/07/04,27.0,MN,27115.0,Pine County,6295.0,23188.0,85707.0,17728.0,16331.0,9218.0,14436.0,14379.0,6714.0,5658.0,1150.0,71.0,22.0
594808,County,2020/07/05,27.0,MN,27115.0,Pine County,5776.0,23707.0,80532.0,17304.0,16142.0,9301.0,14620.0,11543.0,5603.0,4268.0,1660.0,58.0,33.0
599482,County,2020/07/06,27.0,MN,27115.0,Pine County,5164.0,24319.0,83862.0,16260.0,15373.0,8412.0,13697.0,15214.0,8092.0,5246.0,1501.0,49.0,18.0
601157,County,2020/07/07,27.0,MN,27115.0,Pine County,5187.0,24296.0,90933.0,19977.0,16710.0,10280.0,14121.0,14992.0,7877.0,5323.0,1497.0,116.0,40.0
605820,County,2020/07/08,27.0,MN,27115.0,Pine County,4875.0,24608.0,88966.0,19002.0,17109.0,9995.0,12866.0,14401.0,7696.0,6132.0,1626.0,115.0,24.0
607545,County,2020/07/09,27.0,MN,27115.0,Pine County,5101.0,24382.0,94929.0,23705.0,17368.0,9484.0,13502.0,16164.0,7676.0,5164.0,1702.0,147.0,17.0
612327,County,2020/07/10,27.0,MN,27115.0,Pine County,5122.0,24361.0,99143.0,24066.0,17878.0,9975.0,15869.0,15604.0,8354.0,5731.0,1526.0,134.0,6.0
615542,County,2020/07/11,27.0,MN,27115.0,Pine County,5678.0,23805.0,88716.0,20371.0,15102.0,8658.0,16682.0,13965.0,7284.0,4830.0,1613.0,188.0,23.0
617127,County,2020/07/12,27.0,MN,27115.0,Pine County,5783.0,23700.0,83709.0,20115.0,16598.0,6860.0,14098.0,12899.0,6340.0,4982.0,1669.0,118.0,30.0
620317,County,2020/07/13,27.0,MN,27115.0,Pine County,5408.0,24075.0,82337.0,16014.0,15481.0,9866.0,13523.0,13569.0,6274.0,6028.0,1478.0,92.0,12.0
625082,County,2020/07/14,27.0,MN,27115.0,Pine County,5440.0,24043.0,79410.0,15891.0,14568.0,6673.0,13129.0,13837.0,8345.0,5359.0,1486.0,104.0,18.0
628255,County,2020/07/15,27.0,MN,27115.0,Pine County,5429.0,24054.0,91066.0,19214.0,17345.0,10407.0,13158.0,15416.0,8526.0,5526.0,1340.0,107.0,27.0
629880,County,2020/07/16,27.0,MN,27115.0,Pine County,5231.0,24252.0,87358.0,18542.0,17733.0,10238.0,12913.0,13377.0,7003.0,6132.0,1316.0,74.0,30.0
634616,County,2020/07/17,27.0,MN,27115.0,Pine County,5213.0,24270.0,83534.0,18209.0,16641.0,8951.0,11314.0,14251.0,6588.0,5651.0,1796.0,111.0,22.0
636292,County,2020/07/18,27.0,MN,27115.0,Pine County,5721.0,23762.0,77713.0,16660.0,17198.0,8935.0,12062.0,11241.0,6208.0,3664.0,1580.0,132.0,33.0
639447,County,2020/07/19,27.0,MN,27115.0,Pine County,5941.0,23542.0,72056.0,12348.0,16147.0,7939.0,11270.0,11741.0,5700.0,4949.0,1904.0,47.0,11.0
642681,County,2020/07/20,27.0,MN,27115.0,Pine County,5289.0,24194.0,95726.0,18434.0,18902.0,8787.0,15877.0,18693.0,8321.0,5125.0,1541.0,35.0,11.0
647921,County,2020/07/21,27.0,MN,27115.0,Pine County,5170.0,24313.0,83727.0,15090.0,15815.0,8792.0,12488.0,16228.0,8092.0,6031.0,1007.0,152.0,32.0
650635,County,2020/07/22,27.0,MN,27115.0,Pine County,5038.0,24445.0,93964.0,20945.0,19158.0,8944.0,10879.0,16115.0,9404.0,6729.0,1660.0,106.0,24.0
652176,County,2020/07/23,27.0,MN,27115.0,Pine County,5034.0,24449.0,90942.0,20206.0,15637.0,8484.0,13571.0,16207.0,8671.0,6575.0,1484.0,76.0,31.0
655300,County,2020/07/24,27.0,MN,27115.0,Pine County,4900.0,24583.0,93911.0,18251.0,20076.0,8085.0,12715.0,17270.0,9521.0,6245.0,1623.0,112.0,13.0
658645,County,2020/07/25,27.0,MN,27115.0,Pine County,5591.0,23892.0,81701.0,17290.0,14231.0,8485.0,13282.0,15809.0,6475.0,4808.0,1163.0,125.0,33.0
661845,County,2020/07/26,27.0,MN,27115.0,Pine County,5106.0,24377.0,84643.0,18724.0,15523.0,7126.0,11672.0,15390.0,7522.0,6699.0,1876.0,73.0,38.0
666623,County,2020/07/27,27.0,MN,27115.0,Pine County,4939.0,24544.0,93199.0,18715.0,16602.0,9661.0,13166.0,17283.0,8554.0,7677.0,1326.0,169.0,46.0
669875,County,2020/07/28,27.0,MN,27115.0,Pine County,4990.0,24493.0,98366.0,22152.0,16516.0,9916.0,15696.0,16907.0,9849.0,6113.0,1050.0,141.0,26.0
673089,County,2020/07/29,27.0,MN,27115.0,Pine County,4910.0,24573.0,99116.0,19472.0,18225.0,9952.0,17234.0,17066.0,9095.0,6266.0,1674.0,83.0,49.0
676170,County,2020/07/30,27.0,MN,27115.0,Pine County,4662.0,24821.0,103137.0,24477.0,18005.0,8937.0,15992.0,18074.0,8683.0,7054.0,1683.0,195.0,37.0
679398,County,2020/07/31,27.0,MN,27115.0,Pine County,4772.0,24711.0,104819.0,25358.0,19748.0,9195.0,15358.0,17749.0,8852.0,6032.0,2408.0,93.0,26.0
680978,County,2020/08/01,27.0,MN,27115.0,Pine County,5430.0,24053.0,90750.0,22197.0,18256.0,9581.0,14219.0,12389.0,6971.0,5346.0,1645.0,120.0,26.0
684201,County,2020/08/02,27.0,MN,27115.0,Pine County,5352.0,24131.0,82611.0,16326.0,15144.0,8241.0,12459.0,11719.0,9131.0,6852.0,2505.0,202.0,32.0
687398,County,2020/08/03,27.0,MN,27115.0,Pine County,5120.0,24363.0,90262.0,17912.0,17441.0,7899.0,14777.0,15198.0,9147.0,6117.0,1585.0,138.0,48.0
690590,County,2020/08/04,27.0,MN,27115.0,Pine County,4989.0,24494.0,91638.0,21552.0,17359.0,9642.0,13516.0,15000.0,7586.0,5362.0,1482.0,125.0,14.0
695349,County,2020/08/05,27.0,MN,27115.0,Pine County,5168.0,24315.0,94564.0,20151.0,17408.0,8287.0,16906.0,15378.0,10087.0,5046.0,1231.0,70.0,0.0
698544,County,2020/08/06,27.0,MN,27115.0,Pine County,5027.0,24456.0,97815.0,20671.0,18653.0,9476.0,14619.0,17279.0,9360.0,6218.0,1376.0,137.0,26.0
701740,County,2020/08/07,27.0,MN,27115.0,Pine County,4427.0,25056.0,90074.0,16506.0,15215.0,8933.0,16478.0,15100.0,9016.0,7261.0,1539.0,20.0,6.0
704932,County,2020/08/08,27.0,MN,27115.0,Pine County,5494.0,23989.0,81405.0,16362.0,15784.0,9615.0,14186.0,13082.0,6728.0,4342.0,1196.0,99.0,11.0
708150,County,2020/08/09,27.0,MN,27115.0,Pine County,5403.0,24080.0,70902.0,11967.0,12970.0,6603.0,11352.0,10990.0,6784.0,7390.0,2703.0,118.0,25.0
709780,County,2020/08/10,27.0,MN,27115.0,Pine County,5236.0,24247.0,85974.0,16887.0,16513.0,8706.0,12109.0,14405.0,8270.0,7268.0,1739.0,49.0,28.0
712950,County,2020/08/11,27.0,MN,27115.0,Pine County,5055.0,24428.0,90227.0,18563.0,16559.0,9943.0,11939.0,15953.0,8400.0,7449.0,1339.0,65.0,17.0
717610,County,2020/08/12,27.0,MN,27115.0,Pine County,5019.0,24464.0,85603.0,16215.0,13584.0,7220.0,13351.0,16310.0,9617.0,7693.0,1462.0,106.0,45.0
719336,County,2020/08/13,27.0,MN,27115.0,Pine County,4859.0,24624.0,91427.0,19137.0,15513.0,8090.0,14453.0,15983.0,8489.0,7980.0,1554.0,168.0,60.0
722529,County,2020/08/14,27.0,MN,27115.0,Pine County,5011.0,24472.0,86290.0,14572.0,14571.0,7690.0,13901.0,15440.0,9225.0,8342.0,2356.0,127.0,66.0
725760,County,2020/08/15,27.0,MN,27115.0,Pine County,5526.0,23957.0,87576.0,17799.0,15025.0,8984.0,14064.0,16375.0,7746.0,5476.0,1952.0,68.0,87.0
728919,County,2020/08/16,27.0,MN,27115.0,Pine County,5542.0,23941.0,86489.0,17758.0,15693.0,8190.0,12992.0,13348.0,8162.0,7840.0,2305.0,95.0,106.0
732112,County,2020/08/17,27.0,MN,27115.0,Pine County,5216.0,24267.0,97947.0,22930.0,15710.0,7974.0,15125.0,16320.0,8898.0,8816.0,1923.0,156.0,95.0
736872,County,2020/08/18,27.0,MN,27115.0,Pine County,4824.0,24659.0,90168.0,16507.0,14312.0,8533.0,14204.0,17565.0,9342.0,7761.0,1800.0,57.0,87.0
740066,County,2020/08/19,27.0,MN,27115.0,Pine County,4914.0,24569.0,92928.0,18222.0,15864.0,7026.0,15462.0,16233.0,9583.0,8120.0,2214.0,92.0,112.0
741695,County,2020/08/20,27.0,MN,27115.0,Pine County,4769.0,24714.0,91793.0,17134.0,16230.0,6578.0,14836.0,17073.0,9366.0,8248.0,2086.0,150.0,92.0
744894,County,2020/08/21,27.0,MN,27115.0,Pine County,4654.0,24829.0,97586.0,18183.0,19669.0,7627.0,13734.0,18530.0,9466.0,7784.0,2450.0,69.0,74.0
748100,County,2020/08/22,27.0,MN,27115.0,Pine County,5219.0,24264.0,91300.0,19882.0,17435.0,8574.0,14868.0,15196.0,8531.0,5006.0,1653.0,90.0,65.0
752844,County,2020/08/23,27.0,MN,27115.0,Pine County,5385.0,24098.0,70527.0,12714.0,12782.0,5684.0,12103.0,11447.0,6690.0,6851.0,2073.0,144.0,39.0
756036,County,2020/08/24,27.0,MN,27115.0,Pine County,5246.0,24237.0,80942.0,14823.0,13877.0,8824.0,13260.0,14059.0,8620.0,5789.0,1539.0,85.0,66.0
757666,County,2020/08/25,27.0,MN,27115.0,Pine County,4845.0,24638.0,84183.0,17136.0,12768.0,7651.0,14040.0,15463.0,9054.0,6612.0,1346.0,56.0,57.0
762387,County,2020/08/26,27.0,MN,27115.0,Pine County,5157.0,24326.0,80688.0,12453.0,14856.0,8923.0,13141.0,14951.0,8835.0,6240.0,1116.0,76.0,97.0
764015,County,2020/08/27,27.0,MN,27115.0,Pine County,5216.0,24267.0,88758.0,17058.0,15272.0,8490.0,14226.0,15955.0,8962.0,6981.0,1663.0,98.0,53.0
767223,County,2020/08/28,27.0,MN,27115.0,Pine County,4950.0,24533.0,85092.0,17834.0,16753.0,7178.0,13450.0,14133.0,7867.0,6139.0,1579.0,114.0,45.0
771999,County,2020/08/29,27.0,MN,27115.0,Pine County,5919.0,23564.0,92409.0,20501.0,18774.0,7348.0,16840.0,14753.0,7369.0,5413.0,1286.0,86.0,39.0
775217,County,2020/08/30,27.0,MN,27115.0,Pine County,5830.0,23653.0,78622.0,18420.0,12017.0,8286.0,12042.0,11086.0,6860.0,7340.0,2467.0,37.0,67.0
776824,County,2020/08/31,27.0,MN,27115.0,Pine County,5192.0,24291.0,91181.0,19655.0,16265.0,8582.0,15043.0,13921.0,9116.0,6405.0,2078.0,77.0,39.0
781606,County,2020/09/01,27.0,MN,27115.0,Pine County,5299.0,24184.0,91192.0,18654.0,16583.0,8506.0,13876.0,15350.0,9022.0,7413.0,1688.0,46.0,54.0
783999,County,2020/09/02,27.0,MN,27115.0,Pine County,5129.0,24354.0,97827.0,20297.0,18287.0,7872.0,14726.0,17436.0,9362.0,7851.0,1900.0,67.0,29.0
786360,County,2020/09/03,27.0,MN,27115.0,Pine County,4692.0,24791.0,101688.0,22954.0,17062.0,9665.0,14787.0,16479.0,10392.0,8606.0,1602.0,92.0,49.0
789565,County,2020/09/04,27.0,MN,27115.0,Pine County,5022.0,24461.0,95702.0,18412.0,15854.0,8299.0,15582.0,15909.0,11137.0,8397.0,1911.0,169.0,32.0
792695,County,2020/09/05,27.0,MN,27115.0,Pine County,5433.0,24050.0,99890.0,23163.0,18831.0,9928.0,15192.0,17832.0,7742.0,5390.0,1658.0,114.0,40.0
795985,County,2020/09/06,27.0,MN,27115.0,Pine County,6184.0,23299.0,83515.0,18050.0,15761.0,7411.0,14452.0,13703.0,6716.0,6025.0,1308.0,71.0,18.0
800749,County,2020/09/07,27.0,MN,27115.0,Pine County,6211.0,23272.0,70571.0,12408.0,13901.0,6749.0,10869.0,12607.0,5775.0,5509.0,2521.0,190.0,42.0
803946,County,2020/09/08,27.0,MN,27115.0,Pine County,4981.0,24502.0,101365.0,19856.0,19412.0,10084.0,16287.0,16709.0,9793.0,7594.0,1516.0,72.0,42.0
805575,County,2020/09/09,27.0,MN,27115.0,Pine County,5041.0,24442.0,102773.0,19617.0,18692.0,10298.0,17182.0,16194.0,11560.0,7406.0,1728.0,73.0,23.0
810343,County,2020/09/10,27.0,MN,27115.0,Pine County,5277.0,24206.0,99732.0,19367.0,18337.0,11305.0,14170.0,17470.0,9889.0,7110.0,1903.0,135.0,46.0
813527,County,2020/09/11,27.0,MN,27115.0,Pine County,4887.0,24596.0,99142.0,17920.0,19161.0,10985.0,16608.0,16590.0,9306.0,6398.0,2028.0,99.0,47.0
816722,County,2020/09/12,27.0,MN,27115.0,Pine County,5414.0,24069.0,84992.0,13069.0,17366.0,8106.0,12980.0,16606.0,9128.0,5962.0,1608.0,115.0,52.0
818329,County,2020/09/13,27.0,MN,27115.0,Pine County,6357.0,23126.0,77078.0,12417.0,14167.0,6437.0,13994.0,13940.0,7278.0,7205.0,1484.0,130.0,26.0
823112,County,2020/09/14,27.0,MN,27115.0,Pine County,5524.0,23959.0,91011.0,18465.0,15956.0,9146.0,13333.0,15029.0,10135.0,6645.0,2034.0,187.0,81.0
826303,County,2020/09/15,27.0,MN,27115.0,Pine County,5429.0,24054.0,95464.0,18354.0,18632.0,8197.0,15185.0,16368.0,9184.0,7995.0,1337.0,170.0,42.0
829497,County,2020/09/16,27.0,MN,27115.0,Pine County,5533.0,23950.0,93003.0,18141.0,14602.0,8390.0,15116.0,16620.0,9646.0,8330.0,2033.0,92.0,33.0
831125,County,2020/09/17,27.0,MN,27115.0,Pine County,5472.0,24011.0,96264.0,19529.0,18225.0,8208.0,14954.0,14474.0,10673.0,7708.0,2236.0,214.0,43.0
835886,County,2020/09/18,27.0,MN,27115.0,Pine County,5295.0,24188.0,92247.0,18198.0,15704.0,7662.0,15221.0,16983.0,8716.0,7393.0,2092.0,240.0,38.0
837515,County,2020/09/19,27.0,MN,27115.0,Pine County,5531.0,23952.0,96386.0,19085.0,17045.0,8822.0,16175.0,17076.0,10390.0,5348.0,2222.0,194.0,29.0
840707,County,2020/09/20,27.0,MN,27115.0,Pine County,6366.0,23117.0,69858.0,13927.0,11437.0,8452.0,12040.0,10545.0,4853.0,6050.0,2464.0,62.0,28.0
845494,County,2020/09/21,27.0,MN,27115.0,Pine County,6344.0,23139.0,76118.0,13240.0,15194.0,7050.0,11868.0,13702.0,7878.0,5723.0,1417.0,26.0,20.0
848662,County,2020/09/22,27.0,MN,27115.0,Pine County,5586.0,23897.0,85636.0,18493.0,14837.0,8126.0,13421.0,14079.0,8729.0,6810.0,1109.0,24.0,8.0
850291,County,2020/09/23,27.0,MN,27115.0,Pine County,5695.0,23788.0,86910.0,17805.0,13826.0,8818.0,14476.0,15495.0,8493.0,6706.0,1240.0,47.0,4.0
855056,County,2020/09/24,27.0,MN,27115.0,Pine County,5684.0,23799.0,81427.0,14232.0,13217.0,8470.0,13922.0,14681.0,8555.0,7053.0,1209.0,81.0,7.0
858243,County,2020/09/25,27.0,MN,27115.0,Pine County,5597.0,23886.0,91075.0,18446.0,14793.0,8093.0,16859.0,14700.0,9512.0,6505.0,2128.0,24.0,15.0
859871,County,2020/09/26,27.0,MN,27115.0,Pine County,6372.0,23111.0,81128.0,14463.0,16404.0,7334.0,13433.0,14692.0,8218.0,5019.0,1500.0,56.0,9.0
864618,County,2020/09/27,27.0,MN,27115.0,Pine County,6033.0,23450.0,72225.0,13280.0,13314.0,7046.0,12007.0,11714.0,7065.0,5481.0,2259.0,39.0,20.0
867826,County,2020/09/28,27.0,MN,27115.0,Pine County,5656.0,23827.0,83351.0,16280.0,15687.0,7546.0,13274.0,13629.0,9792.0,5651.0,1421.0,63.0,8.0
869454,County,2020/09/29,27.0,MN,27115.0,Pine County,5059.0,24424.0,91757.0,18264.0,15653.0,8624.0,13996.0,15983.0,10916.0,7048.0,1190.0,73.0,10.0
872647,County,2020/09/30,27.0,MN,27115.0,Pine County,4926.0,24557.0,91782.0,17840.0,15494.0,9527.0,15470.0,14419.0,9350.0,8433.0,1172.0,66.0,11.0
877387,County,2020/10/01,27.0,MN,27115.0,Pine County,4887.0,24596.0,93448.0,19519.0,14727.0,7150.0,15136.0,17219.0,9390.0,8962.0,1211.0,110.0,24.0
880602,County,2020/10/02,27.0,MN,27115.0,Pine County,5271.0,24212.0,92730.0,21090.0,13933.0,7694.0,14908.0,17387.0,8755.0,7093.0,1744.0,112.0,14.0
883798,County,2020/10/03,27.0,MN,27115.0,Pine County,6306.0,23177.0,85055.0,15080.0,13301.0,7465.0,17670.0,15256.0,8216.0,6659.0,1341.0,57.0,10.0
886041,County,2020/10/04,27.0,MN,27115.0,Pine County,5766.0,23717.0,72784.0,15218.0,11396.0,7345.0,10821.0,12153.0,7387.0,6624.0,1740.0,82.0,18.0
889287,County,2020/10/05,27.0,MN,27115.0,Pine County,5903.0,23580.0,86762.0,16990.0,14744.0,6389.0,14226.0,16287.0,9033.0,7477.0,1513.0,86.0,17.0
892446,County,2020/10/06,27.0,MN,27115.0,Pine County,5205.0,24278.0,92356.0,18194.0,16673.0,9040.0,14023.0,14059.0,10169.0,8580.0,1545.0,64.0,9.0
895644,County,2020/10/07,27.0,MN,27115.0,Pine County,4777.0,24706.0,101587.0,21288.0,17061.0,9216.0,18275.0,17026.0,9815.0,7463.0,1364.0,68.0,11.0
898825,County,2020/10/08,27.0,MN,27115.0,Pine County,5342.0,24141.0,87907.0,16445.0,14837.0,7888.0,13293.0,17077.0,9178.0,8145.0,961.0,66.0,17.0
902057,County,2020/10/09,27.0,MN,27115.0,Pine County,5297.0,24186.0,106465.0,29963.0,17471.0,9762.0,13720.0,16946.0,9311.0,7717.0,1502.0,63.0,10.0
905260,County,2020/10/10,27.0,MN,27115.0,Pine County,5979.0,23504.0,87065.0,17421.0,15492.0,7801.0,13731.0,15381.0,10222.0,5600.0,1351.0,57.0,9.0
908935,County,2020/10/11,27.0,MN,27115.0,Pine County,6133.0,23350.0,73669.0,13762.0,12953.0,6224.0,13614.0,11579.0,7522.0,6290.0,1657.0,59.0,9.0
911953,County,2020/10/12,27.0,MN,27115.0,Pine County,5577.0,23906.0,86625.0,17228.0,16332.0,6799.0,15004.0,15160.0,6336.0,7752.0,1953.0,52.0,9.0
915267,County,2020/10/13,27.0,MN,27115.0,Pine County,5003.0,24480.0,89633.0,17143.0,14791.0,6839.0,16465.0,16211.0,8776.0,8111.0,1213.0,78.0,6.0
918368,County,2020/10/14,27.0,MN,27115.0,Pine County,5139.0,24344.0,90091.0,17147.0,14260.0,8413.0,14660.0,15515.0,10830.0,7571.0,1584.0,93.0,18.0
922081,County,2020/10/15,27.0,MN,27115.0,Pine County,5345.0,24138.0,87753.0,15433.0,15139.0,8765.0,14159.0,14709.0,9566.0,7802.0,2074.0,95.0,11.0
925184,County,2020/10/16,27.0,MN,27115.0,Pine County,4909.0,24574.0,90312.0,17965.0,15525.0,8737.0,14921.0,13771.0,9580.0,8115.0,1510.0,171.0,17.0
928446,County,2020/10/17,27.0,MN,27115.0,Pine County,6016.0,23467.0,81738.0,17046.0,16489.0,9880.0,11125.0,12714.0,6771.0,5985.0,1526.0,187.0,15.0
931105,County,2020/10/18,27.0,MN,27115.0,Pine County,6246.0,23237.0,73037.0,16665.0,12249.0,6040.0,9516.0,13747.0,6809.0,6373.0,1521.0,114.0,3.0
933859,County,2020/10/19,27.0,MN,27115.0,Pine County,5509.0,23974.0,93253.0,22188.0,16003.0,7549.0,13769.0,15980.0,8878.0,7445.0,1370.0,58.0,13.0
937208,County,2020/10/20,27.0,MN,27115.0,Pine County,5247.0,24236.0,87786.0,17582.0,15124.0,7790.0,13652.0,15215.0,9554.0,8211.0,582.0,64.0,12.0
941167,County,2020/10/21,27.0,MN,27115.0,Pine County,5264.0,24219.0,92958.0,20580.0,15259.0,7749.0,14262.0,14520.0,11555.0,7731.0,1209.0,83.0,10.0
944425,County,2020/10/22,27.0,MN,27115.0,Pine County,5235.0,24248.0,86986.0,17436.0,17038.0,7435.0,14171.0,13051.0,8678.0,7691.0,1363.0,112.0,11.0
947160,County,2020/10/23,27.0,MN,27115.0,Pine County,5030.0,24453.0,102110.0,20283.0,19749.0,9633.0,15669.0,17799.0,9614.0,7955.0,1260.0,132.0,16.0
950137,County,2020/10/24,27.0,MN,27115.0,Pine County,5988.0,23495.0,86691.0,16093.0,16702.0,10000.0,13708.0,15673.0,8781.0,4868.0,813.0,40.0,13.0
