,Level,Date,State FIPS,State Postal Code,County FIPS,County Name,Population Staying at Home,Population Not Staying at Home,Number of Trips,Number of Trips <1,Number of Trips 1-3,Number of Trips 3-5,Number of Trips 5-10,Number of Trips 10-25,Number of Trips 25-50,Number of Trips 50-100,Number of Trips 100-250,Number of Trips 250-500,Number of Trips >=500
403,County,2020/01/01,13.0,GA,13033.0,Burke County,3407.0,19016.0,73051.0,10851.0,17354.0,9221.0,17050.0,10526.0,5381.0,1338.0,1051.0,250.0,29.0
5785,County,2020/01/02,13.0,GA,13033.0,Burke County,2602.0,19821.0,87110.0,18909.0,16402.0,8890.0,20119.0,12811.0,7072.0,1866.0,893.0,112.0,36.0
8216,County,2020/01/03,13.0,GA,13033.0,Burke County,2585.0,19838.0,87453.0,18583.0,16729.0,8229.0,20627.0,12944.0,7109.0,2255.0,827.0,132.0,18.0
10006,County,2020/01/04,13.0,GA,13033.0,Burke County,2798.0,19625.0,93176.0,17890.0,17376.0,9522.0,25099.0,13228.0,7375.0,1698.0,769.0,192.0,27.0
13179,County,2020/01/05,13.0,GA,13033.0,Burke County,2930.0,19493.0,77907.0,12578.0,14498.0,9077.0,19815.0,13335.0,5578.0,1545.0,1023.0,408.0,50.0
17792,County,2020/01/06,13.0,GA,13033.0,Burke County,2707.0,19716.0,87368.0,21668.0,14478.0,7328.0,20358.0,12959.0,7712.0,1877.0,810.0,130.0,48.0
20938,County,2020/01/07,13.0,GA,13033.0,Burke County,2556.0,19867.0,97223.0,24978.0,17478.0,7553.0,22081.0,14571.0,8104.0,1587.0,683.0,175.0,13.0
22565,County,2020/01/08,13.0,GA,13033.0,Burke County,2621.0,19802.0,96126.0,26295.0,17387.0,9664.0,21116.0,12356.0,6932.0,1562.0,663.0,117.0,34.0
25759,County,2020/01/09,13.0,GA,13033.0,Burke County,2635.0,19788.0,98480.0,26564.0,18184.0,8896.0,21306.0,13752.0,7249.0,1753.0,650.0,105.0,21.0
30519,County,2020/01/10,13.0,GA,13033.0,Burke County,2460.0,19963.0,100617.0,26099.0,17250.0,9716.0,23768.0,13191.0,8176.0,1590.0,684.0,128.0,15.0
33764,County,2020/01/11,13.0,GA,13033.0,Burke County,2588.0,19835.0,100002.0,24464.0,16145.0,10021.0,24966.0,13562.0,7981.0,1901.0,769.0,167.0,26.0
36883,County,2020/01/12,13.0,GA,13033.0,Burke County,3158.0,19265.0,84509.0,12635.0,17215.0,10245.0,22457.0,13947.0,5346.0,1580.0,878.0,177.0,29.0
40131,County,2020/01/13,13.0,GA,13033.0,Burke County,2667.0,19756.0,93543.0,23132.0,16959.0,9685.0,21281.0,12157.0,7424.0,1958.0,823.0,107.0,17.0
43329,County,2020/01/14,13.0,GA,13033.0,Burke County,2567.0,19856.0,99026.0,28285.0,17165.0,9301.0,21195.0,13175.0,7576.0,1545.0,663.0,109.0,12.0
44910,County,2020/01/15,13.0,GA,13033.0,Burke County,2565.0,19858.0,96721.0,25733.0,15862.0,9213.0,21928.0,13896.0,7197.0,1955.0,725.0,177.0,35.0
49642,County,2020/01/16,13.0,GA,13033.0,Burke County,2538.0,19885.0,97845.0,26747.0,16184.0,9128.0,21500.0,13496.0,8062.0,1711.0,890.0,107.0,20.0
51269,County,2020/01/17,13.0,GA,13033.0,Burke County,2586.0,19837.0,105341.0,25242.0,20442.0,9953.0,23061.0,15733.0,7933.0,1843.0,840.0,265.0,29.0
56050,County,2020/01/18,13.0,GA,13033.0,Burke County,2686.0,19737.0,99397.0,22254.0,17358.0,10440.0,23500.0,14574.0,8599.0,1734.0,820.0,103.0,15.0
57698,County,2020/01/19,13.0,GA,13033.0,Burke County,3104.0,19319.0,83906.0,14261.0,18445.0,9152.0,20161.0,12454.0,6339.0,1539.0,1286.0,236.0,33.0
62460,County,2020/01/20,13.0,GA,13033.0,Burke County,2831.0,19592.0,92125.0,24777.0,15977.0,8753.0,20699.0,12086.0,6905.0,1792.0,890.0,231.0,15.0
65659,County,2020/01/21,13.0,GA,13033.0,Burke County,2599.0,19824.0,98084.0,24743.0,17610.0,8479.0,22506.0,14718.0,7423.0,1726.0,691.0,165.0,23.0
68850,County,2020/01/22,13.0,GA,13033.0,Burke County,2618.0,19805.0,97730.0,25550.0,16519.0,9019.0,21951.0,14228.0,7772.0,1860.0,697.0,113.0,21.0
70474,County,2020/01/23,13.0,GA,13033.0,Burke County,2582.0,19841.0,93527.0,23119.0,15907.0,9220.0,20831.0,13313.0,8231.0,2067.0,736.0,87.0,16.0
73671,County,2020/01/24,13.0,GA,13033.0,Burke County,2497.0,19926.0,97366.0,23144.0,18351.0,9122.0,22241.0,13281.0,8259.0,2035.0,767.0,145.0,21.0
76863,County,2020/01/25,13.0,GA,13033.0,Burke County,2826.0,19597.0,101169.0,21765.0,17734.0,11506.0,24963.0,14372.0,8439.0,1559.0,738.0,78.0,15.0
80253,County,2020/01/26,13.0,GA,13033.0,Burke County,3108.0,19315.0,86464.0,13308.0,18149.0,9480.0,22259.0,14090.0,6309.0,1626.0,911.0,300.0,32.0
84443,County,2020/01/27,13.0,GA,13033.0,Burke County,2657.0,19766.0,90997.0,21165.0,17809.0,8819.0,20803.0,12844.0,6599.0,1856.0,863.0,228.0,11.0
86460,County,2020/01/28,13.0,GA,13033.0,Burke County,2637.0,19786.0,94547.0,22041.0,17435.0,8707.0,22563.0,13681.0,7626.0,1622.0,683.0,167.0,22.0
91193,County,2020/01/29,13.0,GA,13033.0,Burke County,2702.0,19721.0,89993.0,20745.0,16957.0,7517.0,21081.0,13458.0,7851.0,1526.0,699.0,128.0,31.0
94446,County,2020/01/30,13.0,GA,13033.0,Burke County,2627.0,19796.0,93015.0,20610.0,16601.0,8296.0,21860.0,14694.0,8159.0,1803.0,738.0,198.0,56.0
97593,County,2020/01/31,13.0,GA,13033.0,Burke County,2536.0,19887.0,97904.0,21360.0,17028.0,9901.0,23572.0,14391.0,8542.0,1616.0,1181.0,256.0,57.0
99222,County,2020/02/01,13.0,GA,13033.0,Burke County,2688.0,19735.0,100405.0,20590.0,17841.0,10495.0,26585.0,13239.0,8654.0,1585.0,1205.0,171.0,40.0
102399,County,2020/02/02,13.0,GA,13033.0,Burke County,2879.0,19544.0,88847.0,13443.0,18768.0,11212.0,21998.0,14648.0,5764.0,1504.0,1154.0,303.0,53.0
105609,County,2020/02/03,13.0,GA,13033.0,Burke County,2483.0,19940.0,100054.0,23607.0,18556.0,10301.0,22660.0,14581.0,6913.0,1930.0,1233.0,214.0,59.0
108802,County,2020/02/04,13.0,GA,13033.0,Burke County,2601.0,19822.0,97887.0,23849.0,16589.0,8906.0,23638.0,14096.0,7634.0,1749.0,1015.0,345.0,66.0
113526,County,2020/02/05,13.0,GA,13033.0,Burke County,2445.0,19978.0,92488.0,22278.0,15557.0,8291.0,21187.0,14019.0,7925.0,2050.0,968.0,172.0,41.0
116732,County,2020/02/06,13.0,GA,13033.0,Burke County,2360.0,20063.0,94915.0,20667.0,17616.0,9780.0,22819.0,13753.0,7466.0,1433.0,1040.0,284.0,57.0
118358,County,2020/02/07,13.0,GA,13033.0,Burke County,2333.0,20090.0,101070.0,22358.0,17550.0,11206.0,23373.0,15427.0,8218.0,1790.0,939.0,152.0,57.0
121605,County,2020/02/08,13.0,GA,13033.0,Burke County,2745.0,19678.0,93610.0,19670.0,15168.0,9185.0,23027.0,15075.0,8501.0,1779.0,1057.0,96.0,52.0
127353,County,2020/02/09,13.0,GA,13033.0,Burke County,3258.0,19165.0,78547.0,12063.0,14854.0,9156.0,20788.0,12602.0,5930.0,1445.0,1405.0,229.0,75.0
128712,County,2020/02/10,13.0,GA,13033.0,Burke County,2414.0,20009.0,94364.0,20831.0,17436.0,10218.0,20570.0,14392.0,7611.0,1891.0,1166.0,159.0,90.0
131358,County,2020/02/11,13.0,GA,13033.0,Burke County,2348.0,20075.0,95912.0,21721.0,17825.0,8804.0,21883.0,14972.0,7453.0,1900.0,1110.0,146.0,98.0
134830,County,2020/02/12,13.0,GA,13033.0,Burke County,2415.0,20008.0,97624.0,22721.0,18371.0,8156.0,23055.0,14885.0,7344.0,1583.0,1222.0,194.0,93.0
139162,County,2020/02/13,13.0,GA,13033.0,Burke County,2176.0,20247.0,99401.0,23082.0,18987.0,8197.0,22095.0,15417.0,8405.0,1909.0,1037.0,185.0,87.0
140646,County,2020/02/14,13.0,GA,13033.0,Burke County,2207.0,20216.0,103679.0,23737.0,18683.0,10025.0,24229.0,14862.0,8440.0,1949.0,1412.0,220.0,122.0
145524,County,2020/02/15,13.0,GA,13033.0,Burke County,2591.0,19832.0,105203.0,20439.0,18020.0,12031.0,26857.0,15824.0,8785.0,1887.0,1047.0,204.0,109.0
147131,County,2020/02/16,13.0,GA,13033.0,Burke County,3170.0,19253.0,80634.0,11911.0,16624.0,9552.0,20867.0,12736.0,5785.0,1336.0,1345.0,355.0,123.0
151893,County,2020/02/17,13.0,GA,13033.0,Burke County,3192.0,19231.0,75573.0,17015.0,12673.0,7447.0,18083.0,11187.0,6026.0,1788.0,999.0,213.0,142.0
155035,County,2020/02/18,13.0,GA,13033.0,Burke County,2425.0,19998.0,92339.0,20482.0,16386.0,8334.0,22032.0,14190.0,7786.0,1903.0,878.0,234.0,114.0
156714,County,2020/02/19,13.0,GA,13033.0,Burke County,2397.0,20026.0,94545.0,20415.0,17119.0,9294.0,21476.0,14980.0,8242.0,1886.0,848.0,210.0,75.0
161378,County,2020/02/20,13.0,GA,13033.0,Burke County,2497.0,19926.0,93098.0,19651.0,16132.0,8755.0,23451.0,14346.0,7712.0,1784.0,1033.0,175.0,59.0
164669,County,2020/02/21,13.0,GA,13033.0,Burke County,2448.0,19975.0,98880.0,21926.0,17556.0,9558.0,23191.0,14885.0,8395.0,1886.0,1250.0,171.0,62.0
167813,County,2020/02/22,13.0,GA,13033.0,Burke County,2447.0,19976.0,103166.0,21420.0,17292.0,11245.0,25534.0,15417.0,8840.0,2220.0,985.0,150.0,63.0
169474,County,2020/02/23,13.0,GA,13033.0,Burke County,3047.0,19376.0,86380.0,14903.0,14359.0,9618.0,23399.0,14887.0,6105.0,1658.0,1264.0,152.0,35.0
174256,County,2020/02/24,13.0,GA,13033.0,Burke County,2457.0,19966.0,91781.0,20665.0,16458.0,8199.0,22449.0,14687.0,6497.0,1735.0,870.0,168.0,53.0
175876,County,2020/02/25,13.0,GA,13033.0,Burke County,2104.0,20319.0,99541.0,21528.0,17810.0,10049.0,23681.0,15480.0,8272.0,1733.0,743.0,182.0,63.0
179267,County,2020/02/26,13.0,GA,13033.0,Burke County,2955.0,19468.0,100989.0,18023.0,25490.0,13121.0,21814.0,13592.0,6157.0,1355.0,1121.0,269.0,47.0
183434,County,2020/02/27,13.0,GA,13033.0,Burke County,2300.0,20123.0,102316.0,24949.0,17625.0,11431.0,22259.0,15240.0,8315.0,1609.0,651.0,187.0,50.0
185503,County,2020/02/28,13.0,GA,13033.0,Burke County,2105.0,20318.0,102784.0,24059.0,19203.0,10519.0,23022.0,15434.0,7877.0,1710.0,829.0,80.0,51.0
190172,County,2020/02/29,13.0,GA,13033.0,Burke County,2207.0,20216.0,102616.0,20369.0,18388.0,11720.0,23946.0,15469.0,9109.0,2304.0,1078.0,195.0,38.0
191844,County,2020/03/01,13.0,GA,13033.0,Burke County,2858.0,19565.0,93877.0,13303.0,20274.0,11473.0,23702.0,15815.0,6648.0,1204.0,1115.0,302.0,41.0
196644,County,2020/03/02,13.0,GA,13033.0,Burke County,2384.0,20039.0,101654.0,23184.0,19172.0,10278.0,23661.0,14468.0,7606.0,2134.0,974.0,124.0,53.0
198221,County,2020/03/03,13.0,GA,13033.0,Burke County,2272.0,20151.0,103472.0,23980.0,17707.0,10365.0,25002.0,14335.0,8418.0,2292.0,1083.0,219.0,71.0
202959,County,2020/03/04,13.0,GA,13033.0,Burke County,2168.0,20255.0,108778.0,26995.0,16873.0,12657.0,24381.0,15081.0,8892.0,2498.0,1183.0,196.0,22.0
206211,County,2020/03/05,13.0,GA,13033.0,Burke County,1949.0,20474.0,111414.0,24140.0,20576.0,11365.0,27542.0,15856.0,8515.0,1779.0,1281.0,308.0,52.0
209374,County,2020/03/06,13.0,GA,13033.0,Burke County,2146.0,20277.0,115336.0,28406.0,19759.0,12345.0,24793.0,16908.0,9078.0,2574.0,1225.0,215.0,33.0
212656,County,2020/03/07,13.0,GA,13033.0,Burke County,2262.0,20161.0,118357.0,27709.0,19175.0,13544.0,27210.0,16843.0,10014.0,2322.0,1271.0,246.0,23.0
215767,County,2020/03/08,13.0,GA,13033.0,Burke County,2606.0,19817.0,99129.0,17359.0,20067.0,11845.0,24430.0,15737.0,5410.0,2163.0,1672.0,374.0,72.0
218966,County,2020/03/09,13.0,GA,13033.0,Burke County,2320.0,20103.0,107963.0,23299.0,21765.0,11549.0,24992.0,15368.0,7445.0,2033.0,1227.0,248.0,37.0
222160,County,2020/03/10,13.0,GA,13033.0,Burke County,2379.0,20044.0,107535.0,23517.0,19592.0,10770.0,26064.0,16350.0,7604.0,2251.0,1156.0,206.0,25.0
223784,County,2020/03/11,13.0,GA,13033.0,Burke County,2422.0,20001.0,113382.0,19609.0,24217.0,15220.0,28103.0,14356.0,7336.0,2156.0,2003.0,336.0,46.0
228529,County,2020/03/12,13.0,GA,13033.0,Burke County,2687.0,19736.0,123628.0,19683.0,27548.0,14803.0,31164.0,19346.0,7773.0,1300.0,1758.0,227.0,26.0
231749,County,2020/03/13,13.0,GA,13033.0,Burke County,2331.0,20092.0,119775.0,19824.0,23360.0,11539.0,32514.0,19829.0,8014.0,2566.0,1543.0,525.0,61.0
234804,County,2020/03/14,13.0,GA,13033.0,Burke County,2915.0,19508.0,118431.0,15902.0,26032.0,17824.0,27100.0,17611.0,8506.0,3587.0,1197.0,602.0,70.0
236563,County,2020/03/15,13.0,GA,13033.0,Burke County,3190.0,19233.0,98099.0,19682.0,19550.0,11543.0,23289.0,14620.0,6087.0,1785.0,1255.0,245.0,43.0
239757,County,2020/03/16,13.0,GA,13033.0,Burke County,2637.0,19786.0,104040.0,24372.0,18389.0,9181.0,25064.0,16523.0,6994.0,1946.0,1378.0,165.0,28.0
244563,County,2020/03/17,13.0,GA,13033.0,Burke County,2871.0,19552.0,102288.0,25923.0,18714.0,11678.0,21424.0,13274.0,8186.0,1812.0,985.0,271.0,21.0
246144,County,2020/03/18,13.0,GA,13033.0,Burke County,2971.0,19452.0,100119.0,25211.0,17657.0,8893.0,24685.0,12971.0,7762.0,1645.0,1071.0,191.0,33.0
250926,County,2020/03/19,13.0,GA,13033.0,Burke County,2950.0,19473.0,103548.0,26110.0,17727.0,9683.0,25758.0,13411.0,7697.0,2040.0,921.0,164.0,37.0
254100,County,2020/03/20,13.0,GA,13033.0,Burke County,2726.0,19697.0,106930.0,26259.0,18830.0,10835.0,26657.0,13762.0,7745.0,1735.0,817.0,252.0,38.0
255727,County,2020/03/21,13.0,GA,13033.0,Burke County,3244.0,19179.0,98626.0,22691.0,20206.0,10418.0,22304.0,13380.0,7019.0,1564.0,750.0,267.0,27.0
258912,County,2020/03/22,13.0,GA,13033.0,Burke County,3588.0,18835.0,77437.0,14723.0,16833.0,7960.0,19262.0,11836.0,4437.0,1137.0,940.0,263.0,46.0
262118,County,2020/03/23,13.0,GA,13033.0,Burke County,3072.0,19351.0,82359.0,19945.0,14866.0,9020.0,17677.0,11856.0,6084.0,1470.0,1134.0,263.0,44.0
265270,County,2020/03/24,13.0,GA,13033.0,Burke County,3041.0,19382.0,86855.0,22173.0,15015.0,9939.0,18791.0,12457.0,5766.0,1530.0,963.0,176.0,45.0
270070,County,2020/03/25,13.0,GA,13033.0,Burke County,2778.0,19645.0,84937.0,21718.0,15635.0,8532.0,18706.0,11678.0,6169.0,1421.0,862.0,184.0,32.0
271697,County,2020/03/26,13.0,GA,13033.0,Burke County,2927.0,19496.0,90215.0,23447.0,16648.0,8936.0,19144.0,12999.0,6976.0,1185.0,674.0,168.0,38.0
274883,County,2020/03/27,13.0,GA,13033.0,Burke County,2802.0,19621.0,91299.0,21873.0,16696.0,9053.0,21349.0,12428.0,7085.0,1876.0,827.0,80.0,32.0
279645,County,2020/03/28,13.0,GA,13033.0,Burke County,3320.0,19103.0,89696.0,19311.0,16417.0,10692.0,23500.0,12023.0,5695.0,1138.0,774.0,102.0,44.0
281280,County,2020/03/29,13.0,GA,13033.0,Burke County,3654.0,18769.0,75547.0,11806.0,15610.0,10251.0,20146.0,10872.0,3850.0,1550.0,1149.0,273.0,40.0
284473,County,2020/03/30,13.0,GA,13033.0,Burke County,2972.0,19451.0,83154.0,21000.0,14730.0,8977.0,18351.0,10769.0,6365.0,1652.0,1124.0,144.0,42.0
287669,County,2020/03/31,13.0,GA,13033.0,Burke County,3201.0,19222.0,82760.0,21353.0,14182.0,8441.0,18115.0,11936.0,6068.0,1534.0,958.0,134.0,39.0
292427,County,2020/04/01,13.0,GA,13033.0,Burke County,2989.0,19434.0,84781.0,22955.0,14878.0,8010.0,19245.0,10944.0,6291.0,1511.0,786.0,134.0,27.0
294056,County,2020/04/02,13.0,GA,13033.0,Burke County,3125.0,19298.0,89231.0,23151.0,15038.0,8819.0,18709.0,14537.0,6415.0,1282.0,1140.0,116.0,24.0
297250,County,2020/04/03,13.0,GA,13033.0,Burke County,3143.0,19280.0,86290.0,21946.0,14822.0,10196.0,18884.0,10877.0,6727.0,1591.0,1010.0,176.0,61.0
300443,County,2020/04/04,13.0,GA,13033.0,Burke County,3368.0,19055.0,81384.0,21186.0,12833.0,9462.0,18611.0,10776.0,5996.0,1240.0,1081.0,176.0,23.0
305197,County,2020/04/05,13.0,GA,13033.0,Burke County,3819.0,18604.0,72726.0,14583.0,15511.0,8552.0,15343.0,11980.0,4199.0,1295.0,1090.0,133.0,40.0
306833,County,2020/04/06,13.0,GA,13033.0,Burke County,3299.0,19124.0,85401.0,21959.0,15388.0,8610.0,18849.0,12690.0,4945.0,1840.0,1058.0,42.0,20.0
310026,County,2020/04/07,13.0,GA,13033.0,Burke County,3246.0,19177.0,87686.0,23312.0,14638.0,8429.0,19790.0,13443.0,5553.0,1728.0,686.0,89.0,18.0
313220,County,2020/04/08,13.0,GA,13033.0,Burke County,3299.0,19124.0,82767.0,21138.0,15119.0,7318.0,20702.0,11583.0,4711.0,1384.0,704.0,94.0,14.0
317979,County,2020/04/09,13.0,GA,13033.0,Burke County,3347.0,19076.0,87248.0,24735.0,17231.0,8930.0,16967.0,11182.0,5777.0,1592.0,669.0,160.0,5.0
321174,County,2020/04/10,13.0,GA,13033.0,Burke County,3043.0,19380.0,91590.0,19651.0,16176.0,10716.0,22002.0,13975.0,6604.0,1307.0,1020.0,117.0,22.0
322801,County,2020/04/11,13.0,GA,13033.0,Burke County,3462.0,18961.0,86280.0,14369.0,19080.0,9824.0,22500.0,13738.0,4505.0,1387.0,722.0,130.0,25.0
325994,County,2020/04/12,13.0,GA,13033.0,Burke County,4420.0,18003.0,59811.0,11219.0,15760.0,8348.0,10218.0,9406.0,2665.0,927.0,1039.0,202.0,27.0
329211,County,2020/04/13,13.0,GA,13033.0,Burke County,3277.0,19146.0,85159.0,19250.0,15528.0,9590.0,21965.0,11366.0,4981.0,1396.0,871.0,182.0,30.0
333932,County,2020/04/14,13.0,GA,13033.0,Burke County,3505.0,18918.0,82844.0,14700.0,16002.0,12030.0,20826.0,12164.0,5080.0,1057.0,786.0,131.0,68.0
337185,County,2020/04/15,13.0,GA,13033.0,Burke County,3283.0,19140.0,90351.0,16114.0,16729.0,12171.0,24494.0,13435.0,5273.0,1115.0,726.0,273.0,21.0
340279,County,2020/04/16,13.0,GA,13033.0,Burke County,3559.0,18864.0,88100.0,16402.0,16550.0,14213.0,18220.0,14183.0,5881.0,1704.0,655.0,258.0,34.0
342014,County,2020/04/17,13.0,GA,13033.0,Burke County,3193.0,19230.0,91518.0,15545.0,18767.0,13748.0,22188.0,11819.0,6367.0,2156.0,796.0,121.0,11.0
346689,County,2020/04/18,13.0,GA,13033.0,Burke County,3540.0,18883.0,85613.0,11880.0,16545.0,13289.0,22003.0,14487.0,5069.0,1000.0,1152.0,156.0,32.0
348340,County,2020/04/19,13.0,GA,13033.0,Burke County,3700.0,18723.0,58294.0,5602.0,17814.0,9222.0,11711.0,8755.0,2529.0,1151.0,1232.0,207.0,71.0
351547,County,2020/04/20,13.0,GA,13033.0,Burke County,3143.0,19280.0,80087.0,13879.0,15541.0,13616.0,20731.0,9543.0,4620.0,860.0,932.0,343.0,22.0
356306,County,2020/04/21,13.0,GA,13033.0,Burke County,2914.0,19509.0,85528.0,19592.0,15235.0,8738.0,20546.0,13095.0,5931.0,1379.0,801.0,196.0,15.0
357936,County,2020/04/22,13.0,GA,13033.0,Burke County,3045.0,19378.0,83273.0,17987.0,15955.0,7492.0,21192.0,12223.0,5756.0,1738.0,841.0,80.0,9.0
361041,County,2020/04/23,13.0,GA,13033.0,Burke County,2999.0,19424.0,76928.0,15545.0,12790.0,9317.0,19928.0,11376.0,5946.0,1332.0,539.0,155.0,0.0
365929,County,2020/04/24,13.0,GA,13033.0,Burke County,2825.0,19598.0,88798.0,16297.0,15301.0,10028.0,24417.0,13600.0,6180.0,2054.0,692.0,211.0,18.0
369085,County,2020/04/25,13.0,GA,13033.0,Burke County,2955.0,19468.0,87257.0,14000.0,16119.0,11574.0,23319.0,12777.0,6453.0,2055.0,666.0,279.0,15.0
370675,County,2020/04/26,13.0,GA,13033.0,Burke County,3439.0,18984.0,74191.0,11013.0,14615.0,11492.0,17538.0,12463.0,4662.0,1343.0,879.0,134.0,52.0
375509,County,2020/04/27,13.0,GA,13033.0,Burke County,2931.0,19492.0,86912.0,16458.0,16174.0,10164.0,22057.0,13351.0,5809.0,1776.0,873.0,230.0,20.0
377055,County,2020/04/28,13.0,GA,13033.0,Burke County,2906.0,19517.0,86561.0,17560.0,15097.0,9191.0,21108.0,14770.0,5853.0,1935.0,802.0,215.0,30.0
380308,County,2020/04/29,13.0,GA,13033.0,Burke County,2985.0,19438.0,86399.0,17723.0,16536.0,9847.0,21260.0,12822.0,5956.0,1427.0,695.0,119.0,14.0
385054,County,2020/04/30,13.0,GA,13033.0,Burke County,3055.0,19368.0,90104.0,17506.0,18329.0,10162.0,22212.0,13147.0,6386.0,1637.0,584.0,126.0,15.0
388289,County,2020/05/01,13.0,GA,13033.0,Burke County,2699.0,19724.0,96584.0,20899.0,19023.0,10110.0,23821.0,13480.0,6706.0,1325.0,1026.0,161.0,33.0
389863,County,2020/05/02,13.0,GA,13033.0,Burke County,3060.0,19363.0,86939.0,14568.0,16190.0,9554.0,24436.0,15001.0,4816.0,1589.0,661.0,108.0,16.0
394636,County,2020/05/03,13.0,GA,13033.0,Burke County,3209.0,19214.0,72454.0,10615.0,14504.0,9722.0,17625.0,12481.0,5120.0,1287.0,778.0,272.0,50.0
397830,County,2020/05/04,13.0,GA,13033.0,Burke County,2828.0,19595.0,87192.0,16991.0,15676.0,10089.0,24143.0,12266.0,5572.0,1449.0,754.0,191.0,61.0
399457,County,2020/05/05,13.0,GA,13033.0,Burke County,2827.0,19596.0,91444.0,18335.0,18134.0,10662.0,21384.0,13933.0,6275.0,1915.0,604.0,164.0,38.0
402636,County,2020/05/06,13.0,GA,13033.0,Burke County,2951.0,19472.0,93411.0,19280.0,16898.0,11658.0,23026.0,13701.0,6757.0,1346.0,603.0,109.0,33.0
405839,County,2020/05/07,13.0,GA,13033.0,Burke County,2707.0,19716.0,92058.0,17428.0,18136.0,9704.0,23712.0,13816.0,6386.0,1779.0,877.0,163.0,57.0
409095,County,2020/05/08,13.0,GA,13033.0,Burke County,2827.0,19596.0,94073.0,21257.0,17090.0,10142.0,23258.0,12976.0,5970.0,2397.0,719.0,241.0,23.0
413766,County,2020/05/09,13.0,GA,13033.0,Burke County,2941.0,19482.0,92992.0,15473.0,17810.0,13259.0,23604.0,13994.0,5812.0,2028.0,841.0,150.0,21.0
415427,County,2020/05/10,13.0,GA,13033.0,Burke County,3419.0,19004.0,83986.0,12524.0,17154.0,12066.0,22664.0,13240.0,3807.0,1358.0,929.0,203.0,41.0
418621,County,2020/05/11,13.0,GA,13033.0,Burke County,2424.0,19999.0,94431.0,21602.0,18711.0,9843.0,19837.0,14636.0,7010.0,1923.0,581.0,259.0,29.0
421804,County,2020/05/12,13.0,GA,13033.0,Burke County,2464.0,19959.0,96327.0,22627.0,18360.0,8868.0,21271.0,15449.0,7439.0,1540.0,555.0,207.0,11.0
424961,County,2020/05/13,13.0,GA,13033.0,Burke County,2540.0,19883.0,92906.0,23251.0,16834.0,9872.0,19573.0,13229.0,7164.0,2167.0,694.0,93.0,29.0
428204,County,2020/05/14,13.0,GA,13033.0,Burke County,2396.0,20027.0,98502.0,23570.0,17718.0,9865.0,21830.0,15569.0,7477.0,1526.0,696.0,194.0,57.0
431398,County,2020/05/15,13.0,GA,13033.0,Burke County,2547.0,19876.0,95487.0,22586.0,20229.0,9055.0,19822.0,14178.0,6850.0,1766.0,692.0,232.0,77.0
436197,County,2020/05/16,13.0,GA,13033.0,Burke County,2527.0,19896.0,94039.0,17659.0,20467.0,11171.0,20056.0,14766.0,7051.0,1829.0,777.0,236.0,27.0
437774,County,2020/05/17,13.0,GA,13033.0,Burke County,2682.0,19741.0,88446.0,15309.0,18919.0,10056.0,21616.0,14036.0,5866.0,1491.0,870.0,276.0,7.0
441020,County,2020/05/18,13.0,GA,13033.0,Burke County,2190.0,20233.0,100357.0,24143.0,19427.0,10415.0,25153.0,12246.0,5893.0,1903.0,972.0,200.0,5.0
444174,County,2020/05/19,13.0,GA,13033.0,Burke County,2202.0,20221.0,96777.0,21262.0,17439.0,9420.0,24993.0,13996.0,6929.0,1827.0,708.0,187.0,16.0
448935,County,2020/05/20,13.0,GA,13033.0,Burke County,2258.0,20165.0,86220.0,17744.0,15523.0,8416.0,21014.0,14741.0,5962.0,1818.0,779.0,218.0,5.0
450561,County,2020/05/21,13.0,GA,13033.0,Burke County,1961.0,20462.0,103510.0,20436.0,19229.0,9855.0,26713.0,16663.0,7543.0,1948.0,921.0,170.0,32.0
453748,County,2020/05/22,13.0,GA,13033.0,Burke County,1887.0,20536.0,101574.0,20640.0,19350.0,9244.0,27322.0,13800.0,7427.0,2358.0,1157.0,235.0,41.0
456944,County,2020/05/23,13.0,GA,13033.0,Burke County,2345.0,20078.0,100978.0,12972.0,25221.0,12343.0,26192.0,14173.0,6534.0,2010.0,1192.0,298.0,43.0
461687,County,2020/05/24,13.0,GA,13033.0,Burke County,2757.0,19666.0,85991.0,13597.0,19268.0,11733.0,19642.0,13497.0,5329.0,1842.0,772.0,268.0,43.0
464989,County,2020/05/25,13.0,GA,13033.0,Burke County,2901.0,19522.0,79263.0,11378.0,16590.0,10679.0,21034.0,11697.0,4838.0,1365.0,1193.0,438.0,51.0
466468,County,2020/05/26,13.0,GA,13033.0,Burke County,2454.0,19969.0,90465.0,17830.0,17473.0,10278.0,21418.0,13528.0,6817.0,1674.0,999.0,360.0,88.0
469724,County,2020/05/27,13.0,GA,13033.0,Burke County,2488.0,19935.0,93739.0,19733.0,17750.0,9431.0,22527.0,14421.0,6991.0,1765.0,860.0,224.0,37.0
472921,County,2020/05/28,13.0,GA,13033.0,Burke County,2727.0,19696.0,97765.0,22347.0,18881.0,10562.0,21338.0,14465.0,7986.0,1405.0,646.0,92.0,43.0
476114,County,2020/05/29,13.0,GA,13033.0,Burke County,2735.0,19688.0,97955.0,22814.0,19045.0,11084.0,21899.0,14025.0,6712.0,1244.0,1002.0,123.0,7.0
480875,County,2020/05/30,13.0,GA,13033.0,Burke County,2751.0,19672.0,100787.0,19169.0,21727.0,11195.0,25666.0,13853.0,6758.0,1573.0,729.0,100.0,17.0
482428,County,2020/05/31,13.0,GA,13033.0,Burke County,2982.0,19441.0,82017.0,13382.0,16306.0,10935.0,19993.0,13607.0,4813.0,1606.0,1167.0,185.0,23.0
485647,County,2020/06/01,13.0,GA,13033.0,Burke County,2336.0,20087.0,94565.0,20449.0,17414.0,11819.0,22059.0,14225.0,6279.0,1394.0,713.0,186.0,27.0
490428,County,2020/06/02,13.0,GA,13033.0,Burke County,2554.0,19869.0,89600.0,22224.0,15176.0,9245.0,18968.0,14534.0,7385.0,1520.0,438.0,92.0,18.0
492058,County,2020/06/03,13.0,GA,13033.0,Burke County,2301.0,20122.0,100275.0,22006.0,15693.0,12013.0,25508.0,15364.0,7552.0,1441.0,574.0,69.0,55.0
495268,County,2020/06/04,13.0,GA,13033.0,Burke County,2227.0,20196.0,95339.0,21589.0,16812.0,11702.0,20922.0,14061.0,7851.0,1685.0,588.0,116.0,13.0
498472,County,2020/06/05,13.0,GA,13033.0,Burke County,2357.0,20066.0,90556.0,19089.0,16801.0,10027.0,19751.0,14250.0,7408.0,1896.0,1095.0,222.0,17.0
503197,County,2020/06/06,13.0,GA,13033.0,Burke County,2795.0,19628.0,91638.0,15472.0,17794.0,11288.0,22603.0,14769.0,6890.0,1672.0,963.0,182.0,5.0
506394,County,2020/06/07,13.0,GA,13033.0,Burke County,3246.0,19177.0,81009.0,12352.0,17000.0,12785.0,18609.0,12698.0,4471.0,1509.0,1380.0,177.0,28.0
509607,County,2020/06/08,13.0,GA,13033.0,Burke County,2317.0,20106.0,94755.0,21535.0,17889.0,9423.0,22144.0,14140.0,7291.0,1544.0,636.0,140.0,13.0
511235,County,2020/06/09,13.0,GA,13033.0,Burke County,2553.0,19870.0,98833.0,22136.0,16479.0,11102.0,24886.0,14942.0,7002.0,1710.0,487.0,71.0,18.0
516017,County,2020/06/10,13.0,GA,13033.0,Burke County,2471.0,19952.0,90628.0,20077.0,17032.0,9738.0,20989.0,13375.0,7362.0,1380.0,596.0,61.0,18.0
519174,County,2020/06/11,13.0,GA,13033.0,Burke County,2437.0,19986.0,101028.0,23254.0,17932.0,11223.0,24734.0,14384.0,7491.0,1130.0,749.0,87.0,44.0
520848,County,2020/06/12,13.0,GA,13033.0,Burke County,2407.0,20016.0,100191.0,22027.0,19206.0,12470.0,23700.0,13335.0,7064.0,1418.0,836.0,103.0,32.0
525584,County,2020/06/13,13.0,GA,13033.0,Burke County,2489.0,19934.0,99555.0,18097.0,19131.0,13535.0,24086.0,14249.0,7074.0,2079.0,1043.0,216.0,45.0
527218,County,2020/06/14,13.0,GA,13033.0,Burke County,2952.0,19471.0,92593.0,15964.0,20433.0,12705.0,22449.0,12488.0,5582.0,1683.0,978.0,269.0,42.0
531978,County,2020/06/15,13.0,GA,13033.0,Burke County,2728.0,19695.0,90048.0,19656.0,17917.0,9873.0,20666.0,12403.0,6937.0,1529.0,871.0,148.0,48.0
533606,County,2020/06/16,13.0,GA,13033.0,Burke County,2678.0,19745.0,94212.0,19325.0,18162.0,10189.0,23198.0,14457.0,6371.0,1610.0,720.0,165.0,15.0
536800,County,2020/06/17,13.0,GA,13033.0,Burke County,2368.0,20055.0,93047.0,18855.0,18297.0,10606.0,22245.0,14080.0,7067.0,1375.0,447.0,64.0,11.0
541512,County,2020/06/18,13.0,GA,13033.0,Burke County,2520.0,19903.0,97035.0,20491.0,19832.0,10628.0,22235.0,14018.0,7506.0,1379.0,730.0,187.0,29.0
544713,County,2020/06/19,13.0,GA,13033.0,Burke County,2459.0,19964.0,89996.0,18818.0,17717.0,7291.0,21481.0,13838.0,8007.0,1876.0,747.0,172.0,49.0
547948,County,2020/06/20,13.0,GA,13033.0,Burke County,2666.0,19757.0,92120.0,15880.0,18949.0,10619.0,22440.0,14586.0,6386.0,2143.0,903.0,177.0,37.0
551135,County,2020/06/21,13.0,GA,13033.0,Burke County,3015.0,19408.0,80787.0,11726.0,19369.0,9067.0,20489.0,12547.0,4562.0,1681.0,1105.0,207.0,34.0
552771,County,2020/06/22,13.0,GA,13033.0,Burke County,2670.0,19753.0,88517.0,18328.0,18515.0,9266.0,21713.0,11748.0,6329.0,1577.0,872.0,150.0,19.0
555956,County,2020/06/23,13.0,GA,13033.0,Burke County,2500.0,19923.0,94034.0,21157.0,19072.0,8689.0,21422.0,14069.0,6979.0,1887.0,615.0,121.0,23.0
560724,County,2020/06/24,13.0,GA,13033.0,Burke County,2662.0,19761.0,90743.0,19384.0,18722.0,8898.0,21953.0,12134.0,6990.0,1791.0,753.0,96.0,22.0
562352,County,2020/06/25,13.0,GA,13033.0,Burke County,2468.0,19955.0,90922.0,19008.0,18685.0,8010.0,22169.0,13219.0,7199.0,1778.0,655.0,162.0,37.0
567195,County,2020/06/26,13.0,GA,13033.0,Burke County,2397.0,20026.0,94730.0,19985.0,18505.0,10179.0,21511.0,13612.0,7896.0,1958.0,929.0,140.0,15.0
568727,County,2020/06/27,13.0,GA,13033.0,Burke County,2750.0,19673.0,92273.0,17546.0,17037.0,9928.0,24253.0,14449.0,6118.0,2009.0,788.0,108.0,37.0
573490,County,2020/06/28,13.0,GA,13033.0,Burke County,2769.0,19654.0,81135.0,11666.0,15709.0,10949.0,19920.0,13599.0,5705.0,2208.0,1223.0,113.0,43.0
576662,County,2020/06/29,13.0,GA,13033.0,Burke County,2711.0,19712.0,88334.0,19619.0,16911.0,9470.0,20051.0,12737.0,6848.0,1789.0,736.0,138.0,35.0
579910,County,2020/06/30,13.0,GA,13033.0,Burke County,2668.0,19755.0,94622.0,22006.0,18360.0,9066.0,21101.0,13062.0,8415.0,1731.0,702.0,166.0,13.0
581511,County,2020/07/01,13.0,GA,13033.0,Burke County,2387.0,20036.0,95585.0,22574.0,19006.0,9069.0,21294.0,13985.0,6884.0,1896.0,709.0,128.0,40.0
584704,County,2020/07/02,13.0,GA,13033.0,Burke County,2799.0,19624.0,96504.0,20175.0,19832.0,8502.0,23530.0,14031.0,7641.0,1887.0,695.0,172.0,39.0
589496,County,2020/07/03,13.0,GA,13033.0,Burke County,2891.0,19532.0,94197.0,19872.0,18401.0,10122.0,21390.0,13535.0,7852.0,1947.0,924.0,139.0,15.0
592679,County,2020/07/04,13.0,GA,13033.0,Burke County,3486.0,18937.0,80586.0,17001.0,15742.0,8659.0,18299.0,11580.0,6717.0,1666.0,790.0,119.0,13.0
594329,County,2020/07/05,13.0,GA,13033.0,Burke County,3066.0,19357.0,80194.0,12713.0,16743.0,13327.0,17524.0,11969.0,4891.0,1282.0,1297.0,373.0,75.0
599004,County,2020/07/06,13.0,GA,13033.0,Burke County,2891.0,19532.0,86028.0,17214.0,17566.0,9510.0,19780.0,12701.0,6302.0,1479.0,1242.0,124.0,110.0
600679,County,2020/07/07,13.0,GA,13033.0,Burke County,2708.0,19715.0,82878.0,17176.0,16632.0,9897.0,17692.0,11817.0,7068.0,1338.0,1038.0,180.0,40.0
605340,County,2020/07/08,13.0,GA,13033.0,Burke County,2835.0,19588.0,93322.0,23337.0,17588.0,10760.0,18204.0,14027.0,6960.0,1306.0,919.0,167.0,54.0
607067,County,2020/07/09,13.0,GA,13033.0,Burke County,2742.0,19681.0,89718.0,21071.0,17415.0,9474.0,20265.0,11998.0,6858.0,1680.0,767.0,147.0,43.0
611849,County,2020/07/10,13.0,GA,13033.0,Burke County,2737.0,19686.0,96693.0,22651.0,19021.0,10927.0,21357.0,13044.0,6925.0,1693.0,827.0,190.0,58.0
615065,County,2020/07/11,13.0,GA,13033.0,Burke County,2684.0,19739.0,94834.0,18716.0,19624.0,11575.0,22604.0,13217.0,6862.0,1015.0,886.0,299.0,36.0
616649,County,2020/07/12,13.0,GA,13033.0,Burke County,2891.0,19532.0,81927.0,14930.0,17609.0,9295.0,20713.0,11282.0,4732.0,1615.0,1450.0,248.0,53.0
619838,County,2020/07/13,13.0,GA,13033.0,Burke County,2725.0,19698.0,85087.0,19982.0,17699.0,8361.0,18211.0,12713.0,5169.0,1363.0,1280.0,256.0,53.0
623039,County,2020/07/14,13.0,GA,13033.0,Burke County,2626.0,19797.0,92290.0,21301.0,17774.0,8067.0,21282.0,14296.0,7329.0,1392.0,724.0,93.0,32.0
626161,County,2020/07/15,13.0,GA,13033.0,Burke County,2586.0,19837.0,96655.0,21492.0,18552.0,10602.0,22972.0,13913.0,6734.0,1526.0,698.0,126.0,40.0
629402,County,2020/07/16,13.0,GA,13033.0,Burke County,2472.0,19951.0,91226.0,21139.0,16497.0,8152.0,21453.0,14910.0,7089.0,1122.0,751.0,93.0,20.0
632602,County,2020/07/17,13.0,GA,13033.0,Burke County,2597.0,19826.0,94184.0,20398.0,19818.0,7848.0,21602.0,14160.0,7766.0,1560.0,756.0,211.0,65.0
637389,County,2020/07/18,13.0,GA,13033.0,Burke County,2825.0,19598.0,92702.0,17291.0,17282.0,9025.0,25699.0,13621.0,7198.0,1668.0,694.0,204.0,20.0
638968,County,2020/07/19,13.0,GA,13033.0,Burke County,3213.0,19210.0,79504.0,12470.0,17568.0,10217.0,19190.0,12356.0,5136.0,1322.0,978.0,167.0,100.0
642203,County,2020/07/20,13.0,GA,13033.0,Burke County,3117.0,19306.0,87191.0,18910.0,17628.0,10829.0,18932.0,12258.0,6515.0,1244.0,617.0,227.0,31.0
647443,County,2020/07/21,13.0,GA,13033.0,Burke County,2860.0,19563.0,90602.0,18888.0,15564.0,10311.0,23048.0,13732.0,7017.0,1261.0,585.0,155.0,41.0
650108,County,2020/07/22,13.0,GA,13033.0,Burke County,2729.0,19694.0,92687.0,19416.0,18053.0,8362.0,22723.0,13995.0,7996.0,1366.0,590.0,135.0,51.0
651698,County,2020/07/23,13.0,GA,13033.0,Burke County,2856.0,19567.0,90421.0,19228.0,16794.0,9554.0,22917.0,12832.0,6737.0,1319.0,756.0,223.0,61.0
654870,County,2020/07/24,13.0,GA,13033.0,Burke County,2408.0,20015.0,98147.0,22328.0,19550.0,9223.0,21351.0,14273.0,8619.0,1835.0,741.0,179.0,48.0
658167,County,2020/07/25,13.0,GA,13033.0,Burke County,2934.0,19489.0,94142.0,20773.0,17124.0,11034.0,21013.0,14731.0,6721.0,1647.0,947.0,126.0,26.0
662872,County,2020/07/26,13.0,GA,13033.0,Burke County,2798.0,19625.0,93400.0,16399.0,18497.0,12449.0,21231.0,15746.0,6234.0,1396.0,1049.0,352.0,47.0
664613,County,2020/07/27,13.0,GA,13033.0,Burke County,2671.0,19752.0,87350.0,18944.0,17205.0,8674.0,18603.0,13876.0,6966.0,1929.0,959.0,125.0,69.0
669397,County,2020/07/28,13.0,GA,13033.0,Burke County,2513.0,19910.0,98757.0,20872.0,18692.0,8883.0,23076.0,15916.0,8224.0,2060.0,835.0,151.0,48.0
672609,County,2020/07/29,13.0,GA,13033.0,Burke County,2656.0,19767.0,96987.0,22773.0,17651.0,9741.0,21236.0,14709.0,7920.0,1758.0,974.0,161.0,64.0
674141,County,2020/07/30,13.0,GA,13033.0,Burke County,2512.0,19911.0,96028.0,21712.0,16649.0,9297.0,22138.0,14860.0,8264.0,1974.0,959.0,103.0,72.0
677342,County,2020/07/31,13.0,GA,13033.0,Burke County,2440.0,19983.0,96465.0,19366.0,19561.0,8778.0,21788.0,15780.0,7987.0,1879.0,1063.0,214.0,49.0
682041,County,2020/08/01,13.0,GA,13033.0,Burke County,2883.0,19540.0,94437.0,16524.0,16683.0,9925.0,24916.0,16481.0,6876.0,1723.0,1000.0,274.0,35.0
683723,County,2020/08/02,13.0,GA,13033.0,Burke County,3228.0,19195.0,83970.0,12195.0,16814.0,11696.0,20906.0,13713.0,5816.0,1376.0,1074.0,315.0,65.0
688484,County,2020/08/03,13.0,GA,13033.0,Burke County,2664.0,19759.0,90164.0,17142.0,17494.0,8677.0,21889.0,14870.0,7146.0,1840.0,985.0,69.0,52.0
690112,County,2020/08/04,13.0,GA,13033.0,Burke County,2684.0,19739.0,88373.0,18681.0,17522.0,7950.0,19669.0,14001.0,8165.0,1742.0,513.0,110.0,20.0
694871,County,2020/08/05,13.0,GA,13033.0,Burke County,2633.0,19790.0,88182.0,20518.0,15367.0,8177.0,19612.0,14797.0,7630.0,1496.0,488.0,77.0,20.0
698066,County,2020/08/06,13.0,GA,13033.0,Burke County,2387.0,20036.0,92313.0,19490.0,18816.0,8624.0,20660.0,14111.0,8127.0,1730.0,663.0,73.0,19.0
701260,County,2020/08/07,13.0,GA,13033.0,Burke County,2592.0,19831.0,90252.0,18053.0,17358.0,9489.0,20438.0,14743.0,7256.0,2019.0,781.0,91.0,24.0
704454,County,2020/08/08,13.0,GA,13033.0,Burke County,2593.0,19830.0,80290.0,13715.0,13683.0,8583.0,22192.0,13390.0,6135.0,1642.0,751.0,161.0,38.0
706081,County,2020/08/09,13.0,GA,13033.0,Burke County,3047.0,19376.0,78083.0,11367.0,15136.0,7763.0,19829.0,14016.0,6145.0,2072.0,1438.0,287.0,30.0
709301,County,2020/08/10,13.0,GA,13033.0,Burke County,2756.0,19667.0,76686.0,17026.0,13400.0,7364.0,16280.0,12824.0,7012.0,1708.0,977.0,61.0,34.0
714082,County,2020/08/11,13.0,GA,13033.0,Burke County,2561.0,19862.0,83372.0,18260.0,13649.0,6774.0,19159.0,14689.0,8140.0,2233.0,330.0,96.0,42.0
717132,County,2020/08/12,13.0,GA,13033.0,Burke County,2460.0,19963.0,80593.0,17558.0,15321.0,6564.0,17746.0,13524.0,7589.0,1534.0,537.0,132.0,88.0
718858,County,2020/08/13,13.0,GA,13033.0,Burke County,2416.0,20007.0,85491.0,18544.0,13314.0,7910.0,20928.0,13834.0,8194.0,1683.0,850.0,154.0,80.0
722051,County,2020/08/14,13.0,GA,13033.0,Burke County,2386.0,20037.0,87558.0,16084.0,15650.0,8502.0,21813.0,14470.0,7491.0,2227.0,979.0,226.0,116.0
725281,County,2020/08/15,13.0,GA,13033.0,Burke County,2836.0,19587.0,85976.0,14298.0,12866.0,9741.0,22175.0,16186.0,7636.0,1864.0,865.0,237.0,108.0
730005,County,2020/08/16,13.0,GA,13033.0,Burke County,2985.0,19438.0,76799.0,8196.0,15310.0,9084.0,19196.0,14495.0,6633.0,2117.0,1264.0,339.0,165.0
731634,County,2020/08/17,13.0,GA,13033.0,Burke County,2921.0,19502.0,84447.0,16602.0,14213.0,7494.0,19873.0,14384.0,8155.0,2068.0,1151.0,312.0,195.0
736394,County,2020/08/18,13.0,GA,13033.0,Burke County,2620.0,19803.0,77451.0,15513.0,13629.0,6445.0,15829.0,14097.0,8441.0,1961.0,1036.0,311.0,189.0
739588,County,2020/08/19,13.0,GA,13033.0,Burke County,2734.0,19689.0,79991.0,14763.0,12846.0,6069.0,19793.0,14411.0,8946.0,2050.0,762.0,192.0,159.0
742787,County,2020/08/20,13.0,GA,13033.0,Burke County,2485.0,19938.0,86344.0,18572.0,14757.0,6291.0,19436.0,15026.0,8812.0,2070.0,1002.0,226.0,152.0
745993,County,2020/08/21,13.0,GA,13033.0,Burke County,2365.0,20058.0,91935.0,19852.0,16947.0,8152.0,19541.0,14294.0,9178.0,2537.0,1075.0,283.0,76.0
747621,County,2020/08/22,13.0,GA,13033.0,Burke County,2685.0,19738.0,90301.0,18325.0,17035.0,9778.0,19629.0,13981.0,7965.0,2065.0,1144.0,233.0,146.0
752366,County,2020/08/23,13.0,GA,13033.0,Burke County,3136.0,19287.0,74911.0,11269.0,14339.0,8475.0,18673.0,12852.0,5659.0,1924.0,1222.0,395.0,103.0
755557,County,2020/08/24,13.0,GA,13033.0,Burke County,2906.0,19517.0,73512.0,15335.0,12778.0,7167.0,16426.0,11842.0,6816.0,1843.0,1049.0,185.0,71.0
758748,County,2020/08/25,13.0,GA,13033.0,Burke County,2645.0,19778.0,78714.0,18907.0,11540.0,7018.0,18600.0,13189.0,7281.0,1349.0,582.0,120.0,128.0
760381,County,2020/08/26,13.0,GA,13033.0,Burke County,2808.0,19615.0,78867.0,18483.0,13312.0,6782.0,17636.0,13177.0,7180.0,1495.0,555.0,186.0,61.0
763537,County,2020/08/27,13.0,GA,13033.0,Burke County,2840.0,19583.0,85605.0,22327.0,13362.0,7864.0,17056.0,14238.0,7889.0,1813.0,711.0,292.0,53.0
768320,County,2020/08/28,13.0,GA,13033.0,Burke County,2691.0,19732.0,87459.0,19533.0,15415.0,7658.0,20289.0,14197.0,7409.0,1933.0,797.0,164.0,64.0
771520,County,2020/08/29,13.0,GA,13033.0,Burke County,2650.0,19773.0,86002.0,15889.0,16151.0,8501.0,21945.0,13347.0,7057.0,1895.0,920.0,212.0,85.0
773155,County,2020/08/30,13.0,GA,13033.0,Burke County,3243.0,19180.0,75444.0,12883.0,12683.0,8540.0,18544.0,13622.0,5470.0,2041.0,1254.0,306.0,101.0
776347,County,2020/08/31,13.0,GA,13033.0,Burke County,2816.0,19607.0,81906.0,19316.0,14721.0,7050.0,16553.0,13645.0,7954.0,1429.0,941.0,217.0,80.0
781128,County,2020/09/01,13.0,GA,13033.0,Burke County,2813.0,19610.0,88404.0,21905.0,15360.0,7920.0,18237.0,14186.0,8216.0,1622.0,563.0,335.0,60.0
783523,County,2020/09/02,13.0,GA,13033.0,Burke County,2741.0,19682.0,86433.0,21502.0,13985.0,7403.0,18652.0,13714.0,8497.0,1746.0,615.0,233.0,86.0
787473,County,2020/09/03,13.0,GA,13033.0,Burke County,2327.0,20096.0,92771.0,21470.0,15813.0,8499.0,20327.0,16197.0,7698.0,1545.0,804.0,325.0,93.0
790665,County,2020/09/04,13.0,GA,13033.0,Burke County,2508.0,19915.0,88960.0,18703.0,15580.0,7549.0,21743.0,12787.0,8520.0,2098.0,1334.0,509.0,137.0
793805,County,2020/09/05,13.0,GA,13033.0,Burke County,2766.0,19657.0,92521.0,14643.0,15812.0,11123.0,24304.0,15077.0,8205.0,1774.0,1138.0,374.0,71.0
797060,County,2020/09/06,13.0,GA,13033.0,Burke County,3189.0,19234.0,75494.0,10523.0,16159.0,8703.0,18493.0,13744.0,4955.0,1499.0,979.0,335.0,104.0
800273,County,2020/09/07,13.0,GA,13033.0,Burke County,3183.0,19240.0,66193.0,8500.0,13162.0,7667.0,14575.0,12592.0,5435.0,1707.0,1756.0,676.0,123.0
803468,County,2020/09/08,13.0,GA,13033.0,Burke County,2902.0,19521.0,83931.0,16548.0,15976.0,7431.0,18032.0,13955.0,8700.0,1844.0,976.0,375.0,94.0
805095,County,2020/09/09,13.0,GA,13033.0,Burke County,2885.0,19538.0,86293.0,17401.0,15493.0,7218.0,20099.0,14791.0,7817.0,2187.0,865.0,356.0,66.0
808288,County,2020/09/10,13.0,GA,13033.0,Burke County,2845.0,19578.0,83056.0,14611.0,14267.0,7466.0,20306.0,15029.0,8219.0,1855.0,1012.0,196.0,95.0
813049,County,2020/09/11,13.0,GA,13033.0,Burke County,2764.0,19659.0,89702.0,15184.0,17297.0,7429.0,21089.0,16721.0,9272.0,1804.0,591.0,254.0,61.0
816245,County,2020/09/12,13.0,GA,13033.0,Burke County,3071.0,19352.0,86305.0,15334.0,15490.0,8439.0,20380.0,14886.0,8432.0,2182.0,895.0,202.0,65.0
819426,County,2020/09/13,13.0,GA,13033.0,Burke County,3617.0,18806.0,65530.0,9956.0,13013.0,7656.0,15938.0,10573.0,5452.0,1370.0,1099.0,395.0,78.0
821055,County,2020/09/14,13.0,GA,13033.0,Burke County,3023.0,19400.0,86215.0,20331.0,14124.0,8429.0,18453.0,13666.0,8473.0,1422.0,888.0,386.0,43.0
825825,County,2020/09/15,13.0,GA,13033.0,Burke County,2855.0,19568.0,87244.0,20913.0,15082.0,7262.0,18415.0,15173.0,7913.0,1485.0,712.0,241.0,48.0
827453,County,2020/09/16,13.0,GA,13033.0,Burke County,2903.0,19520.0,84850.0,20234.0,14154.0,6734.0,18372.0,14871.0,8144.0,1169.0,927.0,182.0,63.0
830647,County,2020/09/17,13.0,GA,13033.0,Burke County,2718.0,19705.0,84811.0,18063.0,14857.0,8106.0,19411.0,13759.0,7571.0,1795.0,866.0,287.0,96.0
835408,County,2020/09/18,13.0,GA,13033.0,Burke County,2684.0,19739.0,90455.0,20404.0,15009.0,8754.0,20913.0,13799.0,8497.0,1701.0,1076.0,234.0,68.0
838600,County,2020/09/19,13.0,GA,13033.0,Burke County,2823.0,19600.0,91711.0,19500.0,14168.0,8487.0,22879.0,15132.0,8351.0,1877.0,1042.0,222.0,53.0
840228,County,2020/09/20,13.0,GA,13033.0,Burke County,3275.0,19148.0,72400.0,10423.0,15346.0,7493.0,17999.0,12754.0,5301.0,1714.0,1082.0,233.0,55.0
845016,County,2020/09/21,13.0,GA,13033.0,Burke County,3267.0,19156.0,75521.0,19322.0,11644.0,6997.0,16144.0,11214.0,7644.0,1665.0,702.0,150.0,39.0
848184,County,2020/09/22,13.0,GA,13033.0,Burke County,2764.0,19659.0,79812.0,19561.0,12145.0,7679.0,16733.0,12755.0,8449.0,1894.0,444.0,140.0,12.0
849811,County,2020/09/23,13.0,GA,13033.0,Burke County,2725.0,19698.0,84662.0,22016.0,14241.0,6772.0,18592.0,12543.0,8085.0,1803.0,482.0,101.0,27.0
853001,County,2020/09/24,13.0,GA,13033.0,Burke County,2633.0,19790.0,82299.0,19922.0,14369.0,6965.0,17566.0,12747.0,8346.0,1701.0,541.0,100.0,42.0
857765,County,2020/09/25,13.0,GA,13033.0,Burke County,2413.0,20010.0,82355.0,18507.0,13292.0,7013.0,18483.0,14219.0,8291.0,1666.0,750.0,119.0,15.0
859393,County,2020/09/26,13.0,GA,13033.0,Burke County,2827.0,19596.0,85353.0,17006.0,13089.0,8123.0,22410.0,13980.0,7963.0,1969.0,749.0,51.0,13.0
864140,County,2020/09/27,13.0,GA,13033.0,Burke County,3296.0,19127.0,70125.0,10382.0,14450.0,6701.0,17394.0,12260.0,6131.0,1487.0,1060.0,240.0,20.0
867348,County,2020/09/28,13.0,GA,13033.0,Burke County,2927.0,19496.0,71107.0,14464.0,11991.0,6637.0,15534.0,13262.0,6818.0,1716.0,553.0,107.0,25.0
870540,County,2020/09/29,13.0,GA,13033.0,Burke County,2707.0,19716.0,77431.0,16184.0,12988.0,6136.0,17688.0,13555.0,8574.0,1539.0,598.0,154.0,15.0
872169,County,2020/09/30,13.0,GA,13033.0,Burke County,2541.0,19882.0,83126.0,16941.0,12851.0,8114.0,20145.0,14110.0,8548.0,1837.0,430.0,141.0,9.0
876909,County,2020/10/01,13.0,GA,13033.0,Burke County,2286.0,20137.0,87125.0,17473.0,14374.0,8183.0,20951.0,14604.0,8867.0,1836.0,642.0,182.0,13.0
880124,County,2020/10/02,13.0,GA,13033.0,Burke County,2536.0,19887.0,82088.0,14162.0,14940.0,8453.0,19606.0,14035.0,7754.0,1961.0,928.0,230.0,19.0
883318,County,2020/10/03,13.0,GA,13033.0,Burke County,2960.0,19463.0,87236.0,16661.0,13683.0,8608.0,22260.0,15319.0,7932.0,1858.0,820.0,71.0,24.0
885319,County,2020/10/04,13.0,GA,13033.0,Burke County,3221.0,19202.0,74178.0,11935.0,14048.0,8525.0,17884.0,12398.0,6048.0,1958.0,1105.0,249.0,28.0
888337,County,2020/10/05,13.0,GA,13033.0,Burke County,3062.0,19361.0,79166.0,16114.0,14320.0,8120.0,17467.0,12256.0,8284.0,1734.0,717.0,142.0,12.0
891492,County,2020/10/06,13.0,GA,13033.0,Burke County,2931.0,19492.0,80658.0,16113.0,14642.0,6018.0,18655.0,13380.0,9480.0,1695.0,519.0,143.0,13.0
894684,County,2020/10/07,13.0,GA,13033.0,Burke County,2660.0,19763.0,86247.0,19803.0,14641.0,7345.0,19398.0,14005.0,8699.0,1740.0,482.0,122.0,12.0
897879,County,2020/10/08,13.0,GA,13033.0,Burke County,2521.0,19902.0,84760.0,18461.0,14141.0,8056.0,19633.0,12428.0,9377.0,1786.0,670.0,186.0,22.0
901064,County,2020/10/09,13.0,GA,13033.0,Burke County,2749.0,19674.0,84513.0,16685.0,16250.0,8690.0,18042.0,13118.0,8367.0,2242.0,961.0,132.0,26.0
904283,County,2020/10/10,13.0,GA,13033.0,Burke County,2687.0,19736.0,87601.0,15518.0,14980.0,8196.0,22057.0,14300.0,9452.0,2014.0,942.0,132.0,10.0
910052,County,2020/10/11,13.0,GA,13033.0,Burke County,3347.0,19076.0,75823.0,11410.0,14802.0,8466.0,20689.0,11510.0,5964.0,1509.0,1295.0,165.0,13.0
912838,County,2020/10/12,13.0,GA,13033.0,Burke County,2966.0,19457.0,77513.0,16756.0,13716.0,6549.0,17435.0,13506.0,7254.0,1409.0,753.0,130.0,5.0
916305,County,2020/10/13,13.0,GA,13033.0,Burke County,2855.0,19568.0,80784.0,18123.0,13528.0,6938.0,17536.0,13895.0,8815.0,1139.0,662.0,131.0,17.0
919799,County,2020/10/14,13.0,GA,13033.0,Burke County,2625.0,19798.0,84762.0,17465.0,14415.0,6970.0,21647.0,13521.0,8509.0,1503.0,588.0,126.0,18.0
923018,County,2020/10/15,13.0,GA,13033.0,Burke County,2709.0,19714.0,78924.0,17725.0,14374.0,7537.0,16206.0,12450.0,8268.0,1447.0,700.0,187.0,30.0
925749,County,2020/10/16,13.0,GA,13033.0,Burke County,2538.0,19885.0,88070.0,18095.0,15858.0,7407.0,20472.0,14015.0,8818.0,2299.0,861.0,219.0,26.0
929406,County,2020/10/17,13.0,GA,13033.0,Burke County,2777.0,19646.0,89099.0,14977.0,16329.0,9766.0,23696.0,13583.0,7688.0,1902.0,923.0,216.0,19.0
931948,County,2020/10/18,13.0,GA,13033.0,Burke County,3086.0,19337.0,73356.0,11659.0,14644.0,8529.0,17407.0,11255.0,5891.0,2459.0,1318.0,169.0,25.0
935769,County,2020/10/19,13.0,GA,13033.0,Burke County,2837.0,19586.0,84939.0,18352.0,14120.0,8762.0,20225.0,12779.0,8195.0,1733.0,637.0,122.0,14.0
938933,County,2020/10/20,13.0,GA,13033.0,Burke County,2494.0,19929.0,80498.0,16666.0,14024.0,7355.0,16960.0,13411.0,9194.0,2151.0,671.0,56.0,10.0
941460,County,2020/10/21,13.0,GA,13033.0,Burke County,2826.0,19597.0,80195.0,15173.0,12124.0,7185.0,19244.0,13051.0,10417.0,2330.0,564.0,96.0,11.0
942297,County,2020/10/22,13.0,GA,13033.0,Burke County,2877.0,19546.0,83486.0,18007.0,13065.0,8232.0,17892.0,13591.0,9233.0,2514.0,860.0,74.0,18.0
948552,County,2020/10/23,13.0,GA,13033.0,Burke County,2363.0,20060.0,93582.0,18518.0,16343.0,9611.0,21392.0,14885.0,9840.0,2212.0,665.0,98.0,18.0
951759,County,2020/10/24,13.0,GA,13033.0,Burke County,2573.0,19850.0,93739.0,15945.0,17832.0,9759.0,22292.0,15280.0,9595.0,2112.0,771.0,141.0,12.0
