,Level,Date,State FIPS,State Postal Code,County FIPS,County Name,Population Staying at Home,Population Not Staying at Home,Number of Trips,Number of Trips <1,Number of Trips 1-3,Number of Trips 3-5,Number of Trips 5-10,Number of Trips 10-25,Number of Trips 25-50,Number of Trips 50-100,Number of Trips 100-250,Number of Trips 250-500,Number of Trips >=500
2659,County,2020/01/01,48.0,TX,48275.0,Knox County,1075.0,2578.0,9238.0,1882.0,1057.0,1280.0,1029.0,2159.0,982.0,433.0,400.0,16.0,0.0
4366,County,2020/01/02,48.0,TX,48275.0,Knox County,986.0,2667.0,11523.0,2586.0,1365.0,1942.0,1530.0,2489.0,730.0,597.0,273.0,4.0,7.0
6714,County,2020/01/03,48.0,TX,48275.0,Knox County,816.0,2837.0,12462.0,2918.0,1542.0,1465.0,804.0,3441.0,1274.0,513.0,487.0,18.0,0.0
11356,County,2020/01/04,48.0,TX,48275.0,Knox County,883.0,2770.0,11868.0,3107.0,1528.0,1988.0,784.0,2600.0,549.0,954.0,330.0,24.0,4.0
15435,County,2020/01/05,48.0,TX,48275.0,Knox County,1084.0,2569.0,10531.0,2968.0,1068.0,1491.0,938.0,2459.0,819.0,376.0,391.0,21.0,0.0
18873,County,2020/01/06,48.0,TX,48275.0,Knox County,886.0,2767.0,12022.0,2963.0,1247.0,1573.0,946.0,3671.0,1026.0,526.0,48.0,19.0,3.0
22068,County,2020/01/07,48.0,TX,48275.0,Knox County,918.0,2735.0,10830.0,2806.0,1035.0,1289.0,1070.0,2577.0,1214.0,526.0,285.0,11.0,17.0
25262,County,2020/01/08,48.0,TX,48275.0,Knox County,928.0,2725.0,11260.0,2818.0,1013.0,1985.0,706.0,2736.0,1165.0,423.0,396.0,18.0,0.0
26889,County,2020/01/09,48.0,TX,48275.0,Knox County,926.0,2727.0,11308.0,2936.0,940.0,1206.0,1030.0,3262.0,1136.0,514.0,267.0,14.0,3.0
31650,County,2020/01/10,48.0,TX,48275.0,Knox County,866.0,2787.0,11454.0,3533.0,1219.0,1548.0,661.0,2523.0,1084.0,605.0,267.0,6.0,8.0
33327,County,2020/01/11,48.0,TX,48275.0,Knox County,1039.0,2614.0,8153.0,1860.0,1105.0,965.0,1046.0,1534.0,581.0,807.0,247.0,8.0,0.0
36483,County,2020/01/12,48.0,TX,48275.0,Knox County,1088.0,2565.0,8579.0,2688.0,623.0,1120.0,1067.0,1666.0,674.0,386.0,315.0,32.0,8.0
41260,County,2020/01/13,48.0,TX,48275.0,Knox County,843.0,2810.0,12317.0,3447.0,1020.0,1266.0,1110.0,3733.0,1087.0,405.0,221.0,28.0,0.0
42887,County,2020/01/14,48.0,TX,48275.0,Knox County,930.0,2723.0,11964.0,3686.0,1389.0,1251.0,593.0,3243.0,1133.0,533.0,115.0,18.0,3.0
47615,County,2020/01/15,48.0,TX,48275.0,Knox County,916.0,2737.0,10705.0,2923.0,1043.0,1287.0,1021.0,2861.0,959.0,392.0,183.0,36.0,0.0
49144,County,2020/01/16,48.0,TX,48275.0,Knox County,843.0,2810.0,9264.0,2604.0,923.0,1006.0,972.0,2506.0,414.0,576.0,229.0,31.0,3.0
52399,County,2020/01/17,48.0,TX,48275.0,Knox County,922.0,2731.0,11086.0,3106.0,1315.0,1608.0,924.0,2433.0,807.0,435.0,432.0,26.0,0.0
57180,County,2020/01/18,48.0,TX,48275.0,Knox County,1153.0,2500.0,10502.0,2682.0,989.0,1551.0,894.0,2895.0,809.0,421.0,232.0,25.0,4.0
58829,County,2020/01/19,48.0,TX,48275.0,Knox County,1067.0,2586.0,7383.0,2314.0,831.0,869.0,773.0,1255.0,661.0,440.0,192.0,38.0,10.0
62012,County,2020/01/20,48.0,TX,48275.0,Knox County,899.0,2754.0,10474.0,2765.0,1142.0,1492.0,1045.0,1990.0,1090.0,687.0,238.0,22.0,3.0
65218,County,2020/01/21,48.0,TX,48275.0,Knox County,1086.0,2567.0,9678.0,2655.0,1166.0,1247.0,985.0,2161.0,732.0,558.0,145.0,17.0,12.0
69978,County,2020/01/22,48.0,TX,48275.0,Knox County,938.0,2715.0,10162.0,2894.0,1040.0,1545.0,852.0,2232.0,882.0,494.0,193.0,27.0,3.0
71604,County,2020/01/23,48.0,TX,48275.0,Knox County,993.0,2660.0,11522.0,3243.0,824.0,1615.0,1020.0,2800.0,1222.0,599.0,172.0,24.0,3.0
76367,County,2020/01/24,48.0,TX,48275.0,Knox County,767.0,2886.0,12094.0,2955.0,1049.0,1763.0,978.0,3290.0,1226.0,545.0,254.0,28.0,6.0
77993,County,2020/01/25,48.0,TX,48275.0,Knox County,912.0,2741.0,11829.0,2872.0,1265.0,2054.0,1059.0,2503.0,1016.0,770.0,282.0,8.0,0.0
82509,County,2020/01/26,48.0,TX,48275.0,Knox County,1070.0,2583.0,9201.0,2565.0,913.0,1041.0,806.0,2300.0,679.0,645.0,195.0,48.0,9.0
83285,County,2020/01/27,48.0,TX,48275.0,Knox County,856.0,2797.0,10760.0,2703.0,1260.0,1221.0,968.0,3061.0,910.0,390.0,232.0,12.0,3.0
87638,County,2020/01/28,48.0,TX,48275.0,Knox County,944.0,2709.0,9124.0,2610.0,1209.0,910.0,753.0,1972.0,779.0,582.0,283.0,15.0,11.0
92323,County,2020/01/29,48.0,TX,48275.0,Knox County,950.0,2703.0,10001.0,2471.0,1223.0,1347.0,1385.0,2041.0,679.0,548.0,285.0,19.0,3.0
95529,County,2020/01/30,48.0,TX,48275.0,Knox County,871.0,2782.0,11689.0,2926.0,1155.0,1561.0,1209.0,2891.0,980.0,499.0,423.0,31.0,14.0
98723,County,2020/01/31,48.0,TX,48275.0,Knox County,829.0,2824.0,11219.0,3303.0,1335.0,1383.0,1113.0,2270.0,694.0,561.0,513.0,39.0,8.0
101911,County,2020/02/01,48.0,TX,48275.0,Knox County,996.0,2657.0,9155.0,1668.0,972.0,1444.0,796.0,1926.0,942.0,712.0,660.0,29.0,6.0
105112,County,2020/02/02,48.0,TX,48275.0,Knox County,980.0,2673.0,8547.0,2131.0,755.0,917.0,979.0,1911.0,934.0,513.0,381.0,21.0,5.0
106738,County,2020/02/03,48.0,TX,48275.0,Knox County,812.0,2841.0,10285.0,2659.0,1197.0,1479.0,896.0,2259.0,902.0,443.0,412.0,33.0,5.0
109933,County,2020/02/04,48.0,TX,48275.0,Knox County,746.0,2907.0,11572.0,3699.0,1451.0,1487.0,896.0,2333.0,799.0,545.0,320.0,30.0,12.0
113079,County,2020/02/05,48.0,TX,48275.0,Knox County,1203.0,2450.0,7363.0,2296.0,835.0,842.0,695.0,1684.0,403.0,287.0,280.0,36.0,5.0
117861,County,2020/02/06,48.0,TX,48275.0,Knox County,1209.0,2444.0,9860.0,2641.0,1147.0,1407.0,776.0,2111.0,918.0,506.0,312.0,34.0,8.0
119488,County,2020/02/07,48.0,TX,48275.0,Knox County,903.0,2750.0,11628.0,3657.0,1473.0,1652.0,751.0,1954.0,1077.0,801.0,230.0,20.0,13.0
122734,County,2020/02/08,48.0,TX,48275.0,Knox County,1003.0,2650.0,10047.0,2628.0,1211.0,1425.0,869.0,1696.0,1128.0,732.0,321.0,30.0,7.0
126675,County,2020/02/09,48.0,TX,48275.0,Knox County,1093.0,2560.0,8423.0,2252.0,970.0,978.0,577.0,1709.0,1155.0,417.0,310.0,42.0,13.0
127825,County,2020/02/10,48.0,TX,48275.0,Knox County,849.0,2804.0,12384.0,3673.0,1113.0,1358.0,973.0,2651.0,1581.0,729.0,258.0,41.0,7.0
132782,County,2020/02/11,48.0,TX,48275.0,Knox County,812.0,2841.0,12002.0,3710.0,1197.0,1307.0,922.0,2580.0,1311.0,659.0,267.0,42.0,7.0
137023,County,2020/02/12,48.0,TX,48275.0,Knox County,988.0,2665.0,12304.0,3523.0,1126.0,1113.0,1605.0,2650.0,1210.0,644.0,387.0,40.0,6.0
140245,County,2020/02/13,48.0,TX,48275.0,Knox County,824.0,2829.0,13424.0,3384.0,1465.0,2066.0,1221.0,2826.0,1486.0,712.0,193.0,61.0,10.0
143448,County,2020/02/14,48.0,TX,48275.0,Knox County,755.0,2898.0,14761.0,3758.0,1349.0,2201.0,1354.0,3378.0,1535.0,737.0,391.0,46.0,12.0
145072,County,2020/02/15,48.0,TX,48275.0,Knox County,897.0,2756.0,12938.0,3708.0,1447.0,1432.0,892.0,2188.0,1789.0,1107.0,337.0,35.0,3.0
148260,County,2020/02/16,48.0,TX,48275.0,Knox County,1129.0,2524.0,10072.0,3092.0,1009.0,1410.0,629.0,1880.0,1171.0,512.0,320.0,34.0,15.0
153022,County,2020/02/17,48.0,TX,48275.0,Knox County,1297.0,2356.0,10862.0,3045.0,1250.0,1146.0,1021.0,2325.0,1170.0,574.0,282.0,42.0,7.0
156216,County,2020/02/18,48.0,TX,48275.0,Knox County,1026.0,2627.0,12648.0,4173.0,1020.0,1704.0,808.0,2946.0,988.0,504.0,440.0,53.0,12.0
157844,County,2020/02/19,48.0,TX,48275.0,Knox County,753.0,2900.0,12475.0,3356.0,1373.0,1585.0,1002.0,2504.0,1340.0,919.0,351.0,37.0,8.0
162653,County,2020/02/20,48.0,TX,48275.0,Knox County,787.0,2866.0,12716.0,3378.0,1604.0,1415.0,1133.0,2869.0,1576.0,415.0,254.0,63.0,9.0
165798,County,2020/02/21,48.0,TX,48275.0,Knox County,815.0,2838.0,13957.0,4047.0,1373.0,1461.0,1299.0,3248.0,1310.0,642.0,526.0,48.0,3.0
167376,County,2020/02/22,48.0,TX,48275.0,Knox County,902.0,2751.0,14124.0,3131.0,1656.0,2091.0,1262.0,3077.0,1881.0,323.0,647.0,53.0,3.0
170605,County,2020/02/23,48.0,TX,48275.0,Knox County,982.0,2671.0,9983.0,3041.0,1211.0,926.0,1064.0,2088.0,697.0,501.0,425.0,23.0,7.0
175386,County,2020/02/24,48.0,TX,48275.0,Knox County,1027.0,2626.0,14415.0,4635.0,1532.0,1802.0,1272.0,2865.0,1492.0,355.0,392.0,37.0,33.0
178330,County,2020/02/25,48.0,TX,48275.0,Knox County,835.0,2818.0,14518.0,3973.0,1993.0,1562.0,1133.0,3176.0,1476.0,698.0,466.0,37.0,4.0
181523,County,2020/02/26,48.0,TX,48275.0,Knox County,926.0,2727.0,9833.0,2238.0,647.0,1690.0,1155.0,2704.0,992.0,163.0,225.0,19.0,0.0
184957,County,2020/02/27,48.0,TX,48275.0,Knox County,801.0,2852.0,15287.0,3802.0,2106.0,2052.0,1239.0,3303.0,1891.0,633.0,235.0,26.0,0.0
188155,County,2020/02/28,48.0,TX,48275.0,Knox County,895.0,2758.0,14876.0,3917.0,2011.0,2440.0,1168.0,2464.0,1397.0,969.0,491.0,19.0,0.0
191350,County,2020/02/29,48.0,TX,48275.0,Knox County,871.0,2782.0,13643.0,4082.0,1344.0,2005.0,1350.0,1851.0,1357.0,1135.0,487.0,32.0,0.0
192975,County,2020/03/01,48.0,TX,48275.0,Knox County,1017.0,2636.0,9705.0,3435.0,1348.0,1189.0,608.0,1321.0,1085.0,406.0,263.0,50.0,0.0
196197,County,2020/03/02,48.0,TX,48275.0,Knox County,786.0,2867.0,13715.0,3938.0,1935.0,1647.0,804.0,3033.0,1279.0,577.0,469.0,33.0,0.0
199256,County,2020/03/03,48.0,TX,48275.0,Knox County,760.0,2893.0,13428.0,2979.0,1654.0,1642.0,1107.0,3459.0,1974.0,414.0,172.0,27.0,0.0
204135,County,2020/03/04,48.0,TX,48275.0,Knox County,870.0,2783.0,11366.0,3089.0,1484.0,1496.0,937.0,2060.0,1300.0,510.0,464.0,26.0,0.0
205703,County,2020/03/05,48.0,TX,48275.0,Knox County,766.0,2887.0,14582.0,3350.0,1839.0,1477.0,990.0,3587.0,2063.0,742.0,490.0,28.0,16.0
208822,County,2020/03/06,48.0,TX,48275.0,Knox County,733.0,2920.0,11381.0,2555.0,1086.0,1040.0,848.0,3154.0,1481.0,636.0,566.0,11.0,4.0
212171,County,2020/03/07,48.0,TX,48275.0,Knox County,834.0,2819.0,14350.0,2834.0,1903.0,3305.0,774.0,2702.0,1808.0,648.0,319.0,57.0,0.0
215338,County,2020/03/08,48.0,TX,48275.0,Knox County,977.0,2676.0,8136.0,2036.0,1178.0,1025.0,919.0,1162.0,1004.0,361.0,408.0,38.0,5.0
220096,County,2020/03/09,48.0,TX,48275.0,Knox County,662.0,2991.0,13348.0,3646.0,1279.0,1544.0,902.0,3359.0,1059.0,858.0,675.0,22.0,4.0
223289,County,2020/03/10,48.0,TX,48275.0,Knox County,756.0,2897.0,12576.0,3328.0,1663.0,1082.0,817.0,3162.0,1574.0,532.0,388.0,26.0,4.0
224963,County,2020/03/11,48.0,TX,48275.0,Knox County,771.0,2882.0,8263.0,1365.0,1643.0,909.0,389.0,1516.0,890.0,799.0,680.0,72.0,0.0
228147,County,2020/03/12,48.0,TX,48275.0,Knox County,850.0,2803.0,8338.0,1534.0,1104.0,473.0,706.0,2046.0,1077.0,605.0,706.0,87.0,0.0
231307,County,2020/03/13,48.0,TX,48275.0,Knox County,625.0,3028.0,15717.0,1758.0,1324.0,974.0,747.0,5063.0,4443.0,498.0,776.0,134.0,0.0
234360,County,2020/03/14,48.0,TX,48275.0,Knox County,1016.0,2637.0,7881.0,982.0,687.0,270.0,575.0,2693.0,2107.0,258.0,268.0,28.0,13.0
239260,County,2020/03/15,48.0,TX,48275.0,Knox County,1115.0,2538.0,7000.0,1434.0,693.0,960.0,573.0,1727.0,1000.0,245.0,318.0,45.0,5.0
242453,County,2020/03/16,48.0,TX,48275.0,Knox County,945.0,2708.0,11179.0,3066.0,1411.0,1346.0,613.0,2393.0,1463.0,516.0,328.0,43.0,0.0
245646,County,2020/03/17,48.0,TX,48275.0,Knox County,1131.0,2522.0,10266.0,2587.0,1253.0,1227.0,454.0,2783.0,1120.0,419.0,407.0,13.0,3.0
248801,County,2020/03/18,48.0,TX,48275.0,Knox County,1072.0,2581.0,11757.0,2776.0,1475.0,1693.0,1301.0,2483.0,1214.0,433.0,337.0,45.0,0.0
250480,County,2020/03/19,48.0,TX,48275.0,Knox County,1224.0,2429.0,10735.0,2394.0,890.0,838.0,858.0,2850.0,1967.0,375.0,529.0,22.0,12.0
255230,County,2020/03/20,48.0,TX,48275.0,Knox County,1168.0,2485.0,11907.0,2677.0,1396.0,2333.0,738.0,2938.0,902.0,359.0,546.0,18.0,0.0
258422,County,2020/03/21,48.0,TX,48275.0,Knox County,1210.0,2443.0,8378.0,2141.0,713.0,1326.0,641.0,1709.0,1038.0,424.0,353.0,33.0,0.0
261610,County,2020/03/22,48.0,TX,48275.0,Knox County,1307.0,2346.0,6399.0,1902.0,655.0,1100.0,376.0,733.0,789.0,316.0,511.0,17.0,0.0
263248,County,2020/03/23,48.0,TX,48275.0,Knox County,1015.0,2638.0,9794.0,2653.0,925.0,1289.0,413.0,2310.0,1261.0,593.0,321.0,21.0,8.0
268003,County,2020/03/24,48.0,TX,48275.0,Knox County,1120.0,2533.0,10550.0,4041.0,1251.0,1212.0,480.0,2020.0,1016.0,249.0,259.0,18.0,4.0
271200,County,2020/03/25,48.0,TX,48275.0,Knox County,990.0,2663.0,8931.0,2798.0,920.0,1202.0,513.0,1709.0,1202.0,282.0,293.0,8.0,4.0
272826,County,2020/03/26,48.0,TX,48275.0,Knox County,1101.0,2552.0,9090.0,3064.0,1042.0,898.0,523.0,1688.0,1225.0,339.0,298.0,13.0,0.0
276014,County,2020/03/27,48.0,TX,48275.0,Knox County,1115.0,2538.0,11291.0,2426.0,1795.0,1624.0,763.0,2761.0,1377.0,389.0,135.0,17.0,4.0
280775,County,2020/03/28,48.0,TX,48275.0,Knox County,1271.0,2382.0,8137.0,2149.0,1570.0,1016.0,867.0,1108.0,843.0,325.0,245.0,10.0,4.0
282410,County,2020/03/29,48.0,TX,48275.0,Knox County,1272.0,2381.0,7012.0,2035.0,1020.0,960.0,451.0,1152.0,939.0,246.0,159.0,41.0,9.0
287201,County,2020/03/30,48.0,TX,48275.0,Knox County,1078.0,2575.0,7963.0,2373.0,1016.0,615.0,641.0,1730.0,1069.0,175.0,340.0,4.0,0.0
290358,County,2020/03/31,48.0,TX,48275.0,Knox County,1154.0,2499.0,8703.0,2907.0,964.0,672.0,538.0,2183.0,712.0,403.0,307.0,9.0,8.0
293557,County,2020/04/01,48.0,TX,48275.0,Knox County,992.0,2661.0,9335.0,2623.0,977.0,1149.0,556.0,2605.0,899.0,294.0,204.0,24.0,4.0
295186,County,2020/04/02,48.0,TX,48275.0,Knox County,1126.0,2527.0,10761.0,2818.0,1444.0,679.0,797.0,2943.0,1495.0,244.0,310.0,27.0,4.0
299946,County,2020/04/03,48.0,TX,48275.0,Knox County,1207.0,2446.0,8870.0,3173.0,1014.0,398.0,713.0,2333.0,570.0,305.0,343.0,21.0,0.0
301572,County,2020/04/04,48.0,TX,48275.0,Knox County,1114.0,2539.0,7758.0,1550.0,850.0,800.0,819.0,1973.0,1147.0,230.0,372.0,13.0,4.0
306326,County,2020/04/05,48.0,TX,48275.0,Knox County,1281.0,2372.0,7118.0,2351.0,530.0,312.0,932.0,1109.0,1423.0,133.0,311.0,17.0,0.0
309528,County,2020/04/06,48.0,TX,48275.0,Knox County,1109.0,2544.0,11478.0,3444.0,1055.0,2233.0,812.0,1930.0,1294.0,450.0,247.0,9.0,4.0
311155,County,2020/04/07,48.0,TX,48275.0,Knox County,1171.0,2482.0,10699.0,3630.0,1083.0,1456.0,932.0,1880.0,1068.0,320.0,302.0,19.0,9.0
314350,County,2020/04/08,48.0,TX,48275.0,Knox County,893.0,2760.0,9655.0,2999.0,1045.0,1229.0,710.0,1831.0,1084.0,439.0,288.0,23.0,7.0
317567,County,2020/04/09,48.0,TX,48275.0,Knox County,1054.0,2599.0,11630.0,3576.0,1302.0,1773.0,757.0,2579.0,998.0,387.0,241.0,17.0,0.0
320745,County,2020/04/10,48.0,TX,48275.0,Knox County,1031.0,2622.0,11694.0,3617.0,1498.0,1682.0,821.0,2830.0,783.0,256.0,186.0,21.0,0.0
325498,County,2020/04/11,48.0,TX,48275.0,Knox County,1137.0,2516.0,8373.0,1851.0,1062.0,1287.0,873.0,1918.0,889.0,339.0,126.0,28.0,0.0
328665,County,2020/04/12,48.0,TX,48275.0,Knox County,1587.0,2066.0,5815.0,1971.0,531.0,520.0,577.0,1317.0,543.0,133.0,208.0,11.0,4.0
331887,County,2020/04/13,48.0,TX,48275.0,Knox County,1019.0,2634.0,10297.0,2937.0,1021.0,1281.0,718.0,2402.0,1149.0,333.0,426.0,30.0,0.0
335061,County,2020/04/14,48.0,TX,48275.0,Knox County,1357.0,2296.0,7254.0,1523.0,984.0,2085.0,297.0,1389.0,604.0,222.0,77.0,62.0,11.0
336738,County,2020/04/15,48.0,TX,48275.0,Knox County,1235.0,2418.0,7556.0,1715.0,645.0,1517.0,278.0,2024.0,1131.0,139.0,72.0,35.0,0.0
341409,County,2020/04/16,48.0,TX,48275.0,Knox County,1205.0,2448.0,5039.0,1835.0,532.0,0.0,713.0,1113.0,544.0,201.0,69.0,12.0,20.0
343193,County,2020/04/17,48.0,TX,48275.0,Knox County,1076.0,2577.0,6571.0,1616.0,579.0,1023.0,509.0,1477.0,1000.0,218.0,113.0,36.0,0.0
347819,County,2020/04/18,48.0,TX,48275.0,Knox County,1317.0,2336.0,4381.0,256.0,104.0,975.0,520.0,1625.0,318.0,234.0,324.0,13.0,12.0
351050,County,2020/04/19,48.0,TX,48275.0,Knox County,1349.0,2304.0,4205.0,526.0,125.0,0.0,627.0,1959.0,766.0,187.0,0.0,15.0,0.0
354251,County,2020/04/20,48.0,TX,48275.0,Knox County,1178.0,2475.0,7639.0,2931.0,464.0,546.0,233.0,2002.0,1246.0,175.0,0.0,29.0,13.0
357437,County,2020/04/21,48.0,TX,48275.0,Knox County,1149.0,2504.0,8819.0,2579.0,1091.0,1112.0,877.0,1768.0,725.0,274.0,370.0,23.0,0.0
359065,County,2020/04/22,48.0,TX,48275.0,Knox County,940.0,2713.0,9328.0,2414.0,1112.0,1427.0,812.0,1744.0,1137.0,380.0,290.0,8.0,4.0
362171,County,2020/04/23,48.0,TX,48275.0,Knox County,1018.0,2635.0,13549.0,4722.0,1240.0,1458.0,1156.0,3402.0,1222.0,167.0,138.0,44.0,0.0
367058,County,2020/04/24,48.0,TX,48275.0,Knox County,1077.0,2576.0,10376.0,2797.0,1417.0,588.0,1422.0,2548.0,1406.0,63.0,130.0,5.0,0.0
370214,County,2020/04/25,48.0,TX,48275.0,Knox County,1080.0,2573.0,10458.0,2808.0,1103.0,972.0,784.0,2737.0,1480.0,449.0,108.0,17.0,0.0
371758,County,2020/04/26,48.0,TX,48275.0,Knox County,1162.0,2491.0,8870.0,2878.0,885.0,1102.0,627.0,1552.0,1278.0,196.0,326.0,26.0,0.0
375035,County,2020/04/27,48.0,TX,48275.0,Knox County,1077.0,2576.0,9677.0,2846.0,1372.0,1495.0,806.0,1941.0,718.0,377.0,105.0,17.0,0.0
378186,County,2020/04/28,48.0,TX,48275.0,Knox County,1103.0,2550.0,9268.0,2459.0,1362.0,927.0,1187.0,2135.0,550.0,431.0,196.0,9.0,12.0
381438,County,2020/04/29,48.0,TX,48275.0,Knox County,1039.0,2614.0,11557.0,2102.0,1752.0,1916.0,1227.0,2619.0,1437.0,276.0,223.0,0.0,5.0
384585,County,2020/04/30,48.0,TX,48275.0,Knox County,963.0,2690.0,11548.0,2631.0,1250.0,2297.0,1020.0,2880.0,839.0,411.0,183.0,15.0,22.0
389371,County,2020/05/01,48.0,TX,48275.0,Knox County,938.0,2715.0,11295.0,1894.0,1334.0,1931.0,1168.0,2361.0,1627.0,566.0,401.0,9.0,4.0
392571,County,2020/05/02,48.0,TX,48275.0,Knox County,1011.0,2642.0,11944.0,3112.0,1550.0,2149.0,718.0,2305.0,1462.0,448.0,186.0,10.0,4.0
394206,County,2020/05/03,48.0,TX,48275.0,Knox County,1159.0,2494.0,7265.0,1553.0,1069.0,1317.0,818.0,1277.0,781.0,306.0,119.0,25.0,0.0
398960,County,2020/05/04,48.0,TX,48275.0,Knox County,1125.0,2528.0,11746.0,2958.0,1576.0,2131.0,593.0,2841.0,967.0,415.0,246.0,15.0,4.0
402135,County,2020/05/05,48.0,TX,48275.0,Knox County,1048.0,2605.0,13587.0,4304.0,1989.0,1814.0,1223.0,2928.0,934.0,244.0,127.0,15.0,9.0
405342,County,2020/05/06,48.0,TX,48275.0,Knox County,1030.0,2623.0,14120.0,4038.0,1628.0,2370.0,1323.0,3039.0,1130.0,466.0,121.0,5.0,0.0
406968,County,2020/05/07,48.0,TX,48275.0,Knox County,974.0,2679.0,9952.0,2332.0,1222.0,1403.0,868.0,2525.0,869.0,404.0,303.0,26.0,0.0
410273,County,2020/05/08,48.0,TX,48275.0,Knox County,1030.0,2623.0,11633.0,2740.0,1806.0,1300.0,555.0,3352.0,904.0,637.0,317.0,18.0,4.0
414895,County,2020/05/09,48.0,TX,48275.0,Knox County,1039.0,2614.0,10220.0,2774.0,1120.0,1265.0,540.0,2389.0,1443.0,438.0,245.0,6.0,0.0
416556,County,2020/05/10,48.0,TX,48275.0,Knox County,1077.0,2576.0,9236.0,2169.0,708.0,882.0,753.0,2221.0,1917.0,376.0,195.0,10.0,5.0
419799,County,2020/05/11,48.0,TX,48275.0,Knox County,1090.0,2563.0,10156.0,2801.0,1327.0,1399.0,689.0,2260.0,1053.0,482.0,125.0,20.0,0.0
422984,County,2020/05/12,48.0,TX,48275.0,Knox County,1060.0,2593.0,9504.0,2707.0,871.0,1401.0,828.0,2192.0,914.0,414.0,143.0,26.0,8.0
427706,County,2020/05/13,48.0,TX,48275.0,Knox County,1106.0,2547.0,12018.0,3990.0,1334.0,1711.0,812.0,2535.0,1240.0,258.0,111.0,23.0,4.0
430900,County,2020/05/14,48.0,TX,48275.0,Knox County,1189.0,2464.0,11347.0,3005.0,1323.0,1377.0,1201.0,3112.0,703.0,402.0,199.0,25.0,0.0
432528,County,2020/05/15,48.0,TX,48275.0,Knox County,991.0,2662.0,9694.0,3086.0,929.0,997.0,649.0,2375.0,1084.0,380.0,174.0,20.0,0.0
437277,County,2020/05/16,48.0,TX,48275.0,Knox County,1033.0,2620.0,9069.0,2003.0,852.0,1214.0,829.0,2267.0,1425.0,291.0,182.0,6.0,0.0
440436,County,2020/05/17,48.0,TX,48275.0,Knox County,912.0,2741.0,9603.0,2355.0,1430.0,1802.0,718.0,1842.0,940.0,384.0,120.0,6.0,6.0
443676,County,2020/05/18,48.0,TX,48275.0,Knox County,751.0,2902.0,13874.0,3587.0,1361.0,2208.0,1461.0,2649.0,1655.0,741.0,183.0,29.0,0.0
445304,County,2020/05/19,48.0,TX,48275.0,Knox County,845.0,2808.0,11474.0,3126.0,1649.0,1992.0,850.0,1957.0,1230.0,369.0,279.0,22.0,0.0
450064,County,2020/05/20,48.0,TX,48275.0,Knox County,791.0,2862.0,11290.0,2830.0,1622.0,1864.0,1364.0,1834.0,984.0,397.0,354.0,24.0,17.0
452954,County,2020/05/21,48.0,TX,48275.0,Knox County,732.0,2921.0,12172.0,4674.0,1546.0,1645.0,665.0,1905.0,678.0,609.0,432.0,18.0,0.0
456451,County,2020/05/22,48.0,TX,48275.0,Knox County,784.0,2869.0,10403.0,2753.0,1155.0,1665.0,823.0,2278.0,857.0,504.0,349.0,19.0,0.0
458074,County,2020/05/23,48.0,TX,48275.0,Knox County,882.0,2771.0,10035.0,3295.0,1480.0,824.0,821.0,1526.0,1254.0,410.0,396.0,29.0,0.0
461242,County,2020/05/24,48.0,TX,48275.0,Knox County,1128.0,2525.0,8604.0,2678.0,1044.0,1273.0,737.0,1515.0,711.0,247.0,378.0,19.0,2.0
466118,County,2020/05/25,48.0,TX,48275.0,Knox County,1246.0,2407.0,7789.0,1613.0,1146.0,1240.0,598.0,1437.0,1160.0,327.0,251.0,14.0,3.0
469226,County,2020/05/26,48.0,TX,48275.0,Knox County,890.0,2763.0,11738.0,3560.0,1206.0,1547.0,1101.0,2131.0,1311.0,478.0,377.0,22.0,5.0
472417,County,2020/05/27,48.0,TX,48275.0,Knox County,986.0,2667.0,11675.0,3472.0,1376.0,1409.0,1025.0,2506.0,1191.0,434.0,243.0,17.0,2.0
475616,County,2020/05/28,48.0,TX,48275.0,Knox County,955.0,2698.0,10762.0,3180.0,1419.0,1238.0,942.0,1795.0,1510.0,396.0,268.0,9.0,5.0
478804,County,2020/05/29,48.0,TX,48275.0,Knox County,1018.0,2635.0,12765.0,3376.0,1853.0,1021.0,1279.0,2678.0,1598.0,697.0,249.0,14.0,0.0
482004,County,2020/05/30,48.0,TX,48275.0,Knox County,1077.0,2576.0,10046.0,2570.0,1037.0,1102.0,907.0,2361.0,1231.0,403.0,418.0,17.0,0.0
483511,County,2020/05/31,48.0,TX,48275.0,Knox County,1092.0,2561.0,11627.0,3388.0,998.0,2065.0,721.0,2753.0,979.0,330.0,374.0,15.0,4.0
488451,County,2020/06/01,48.0,TX,48275.0,Knox County,915.0,2738.0,12557.0,3818.0,1688.0,2109.0,1139.0,1819.0,1294.0,278.0,392.0,20.0,0.0
491558,County,2020/06/02,48.0,TX,48275.0,Knox County,1104.0,2549.0,12492.0,3717.0,1891.0,1687.0,917.0,2556.0,850.0,539.0,331.0,0.0,4.0
494779,County,2020/06/03,48.0,TX,48275.0,Knox County,801.0,2852.0,14994.0,4476.0,1876.0,1872.0,1198.0,2852.0,1787.0,427.0,489.0,14.0,3.0
497962,County,2020/06/04,48.0,TX,48275.0,Knox County,859.0,2794.0,12731.0,3891.0,1742.0,1600.0,1202.0,2475.0,918.0,471.0,425.0,7.0,0.0
499602,County,2020/06/05,48.0,TX,48275.0,Knox County,825.0,2828.0,13511.0,3939.0,1597.0,1811.0,1059.0,2817.0,1443.0,493.0,334.0,18.0,0.0
504326,County,2020/06/06,48.0,TX,48275.0,Knox County,995.0,2658.0,13965.0,3236.0,1868.0,2464.0,960.0,3143.0,1467.0,514.0,285.0,23.0,5.0
507526,County,2020/06/07,48.0,TX,48275.0,Knox County,1078.0,2575.0,8993.0,2437.0,1042.0,816.0,597.0,1788.0,2053.0,224.0,0.0,30.0,6.0
509163,County,2020/06/08,48.0,TX,48275.0,Knox County,793.0,2860.0,12971.0,4246.0,1604.0,1424.0,699.0,2705.0,1346.0,569.0,355.0,23.0,0.0
512366,County,2020/06/09,48.0,TX,48275.0,Knox County,1047.0,2606.0,11258.0,3730.0,1151.0,1114.0,884.0,2495.0,727.0,713.0,423.0,21.0,0.0
517147,County,2020/06/10,48.0,TX,48275.0,Knox County,911.0,2742.0,12248.0,3571.0,1505.0,2073.0,737.0,2476.0,1295.0,414.0,172.0,5.0,0.0
520304,County,2020/06/11,48.0,TX,48275.0,Knox County,709.0,2944.0,12733.0,4580.0,1495.0,1319.0,938.0,2295.0,1385.0,328.0,389.0,4.0,0.0
523526,County,2020/06/12,48.0,TX,48275.0,Knox County,795.0,2858.0,15122.0,4026.0,2105.0,1704.0,1109.0,3462.0,1958.0,337.0,404.0,13.0,4.0
526713,County,2020/06/13,48.0,TX,48275.0,Knox County,806.0,2847.0,12552.0,3224.0,1615.0,1697.0,1035.0,2641.0,1581.0,491.0,242.0,26.0,0.0
528348,County,2020/06/14,48.0,TX,48275.0,Knox County,1201.0,2452.0,10561.0,3877.0,1245.0,1373.0,625.0,1587.0,1373.0,380.0,91.0,10.0,0.0
533108,County,2020/06/15,48.0,TX,48275.0,Knox County,995.0,2658.0,10313.0,2460.0,1108.0,941.0,742.0,2221.0,1889.0,648.0,289.0,15.0,0.0
534735,County,2020/06/16,48.0,TX,48275.0,Knox County,1135.0,2518.0,9631.0,2793.0,978.0,1190.0,745.0,1957.0,983.0,710.0,264.0,0.0,11.0
537929,County,2020/06/17,48.0,TX,48275.0,Knox County,1110.0,2543.0,10239.0,2581.0,1569.0,1162.0,584.0,2188.0,1070.0,678.0,386.0,11.0,10.0
542641,County,2020/06/18,48.0,TX,48275.0,Knox County,1136.0,2517.0,11346.0,3080.0,1123.0,2016.0,772.0,2503.0,952.0,734.0,162.0,4.0,0.0
545843,County,2020/06/19,48.0,TX,48275.0,Knox County,924.0,2729.0,9872.0,2534.0,1180.0,1239.0,592.0,2279.0,1292.0,428.0,313.0,10.0,5.0
549078,County,2020/06/20,48.0,TX,48275.0,Knox County,1059.0,2594.0,8904.0,1912.0,1697.0,1514.0,587.0,1697.0,718.0,528.0,229.0,15.0,7.0
550727,County,2020/06/21,48.0,TX,48275.0,Knox County,1202.0,2451.0,8054.0,2372.0,855.0,1256.0,572.0,2010.0,328.0,402.0,250.0,9.0,0.0
553901,County,2020/06/22,48.0,TX,48275.0,Knox County,951.0,2702.0,10966.0,3006.0,1441.0,1573.0,672.0,2219.0,1342.0,503.0,201.0,3.0,6.0
557086,County,2020/06/23,48.0,TX,48275.0,Knox County,998.0,2655.0,10374.0,3279.0,1354.0,1016.0,1012.0,1988.0,1105.0,347.0,270.0,0.0,3.0
561854,County,2020/06/24,48.0,TX,48275.0,Knox County,1031.0,2622.0,9633.0,2739.0,1256.0,1166.0,498.0,2228.0,1064.0,373.0,284.0,25.0,0.0
563482,County,2020/06/25,48.0,TX,48275.0,Knox County,1031.0,2622.0,10537.0,3229.0,1266.0,1191.0,763.0,2432.0,971.0,405.0,272.0,4.0,4.0
566735,County,2020/06/26,48.0,TX,48275.0,Knox County,838.0,2815.0,10808.0,3497.0,1596.0,751.0,1033.0,2225.0,1088.0,320.0,277.0,13.0,8.0
571428,County,2020/06/27,48.0,TX,48275.0,Knox County,983.0,2670.0,12534.0,4293.0,1319.0,1277.0,1129.0,2311.0,1309.0,613.0,273.0,10.0,0.0
573052,County,2020/06/28,48.0,TX,48275.0,Knox County,887.0,2766.0,9688.0,2412.0,1580.0,656.0,420.0,2114.0,1426.0,629.0,400.0,41.0,10.0
576210,County,2020/06/29,48.0,TX,48275.0,Knox County,796.0,2857.0,10822.0,2649.0,1351.0,1291.0,805.0,2185.0,1425.0,826.0,264.0,21.0,5.0
581022,County,2020/06/30,48.0,TX,48275.0,Knox County,942.0,2711.0,10590.0,2342.0,1359.0,2165.0,528.0,2200.0,1143.0,626.0,206.0,16.0,5.0
584213,County,2020/07/01,48.0,TX,48275.0,Knox County,839.0,2814.0,13496.0,3537.0,1512.0,1826.0,1272.0,2564.0,2006.0,492.0,287.0,0.0,0.0
587407,County,2020/07/02,48.0,TX,48275.0,Knox County,1064.0,2589.0,11184.0,3427.0,1344.0,1264.0,810.0,2581.0,1031.0,430.0,289.0,4.0,4.0
590604,County,2020/07/03,48.0,TX,48275.0,Knox County,1229.0,2424.0,10746.0,3477.0,1587.0,747.0,1027.0,2212.0,1082.0,318.0,275.0,13.0,8.0
593789,County,2020/07/04,48.0,TX,48275.0,Knox County,1241.0,2412.0,9196.0,2975.0,1358.0,639.0,879.0,1893.0,926.0,272.0,236.0,11.0,7.0
596957,County,2020/07/05,48.0,TX,48275.0,Knox County,1143.0,2510.0,8480.0,1710.0,1148.0,900.0,480.0,2399.0,1393.0,108.0,336.0,6.0,0.0
598097,County,2020/07/06,48.0,TX,48275.0,Knox County,988.0,2665.0,8705.0,2588.0,770.0,937.0,667.0,1832.0,1303.0,360.0,228.0,20.0,0.0
602201,County,2020/07/07,48.0,TX,48275.0,Knox County,1023.0,2630.0,8436.0,2476.0,994.0,390.0,632.0,2339.0,1118.0,324.0,155.0,8.0,0.0
606520,County,2020/07/08,48.0,TX,48275.0,Knox County,1133.0,2520.0,11584.0,3838.0,1217.0,2032.0,710.0,1724.0,1144.0,561.0,338.0,20.0,0.0
608197,County,2020/07/09,48.0,TX,48275.0,Knox County,932.0,2721.0,11597.0,4561.0,1399.0,1410.0,1003.0,1201.0,971.0,676.0,364.0,8.0,4.0
611397,County,2020/07/10,48.0,TX,48275.0,Knox County,967.0,2686.0,10370.0,3151.0,1085.0,1315.0,858.0,2114.0,1009.0,346.0,463.0,29.0,0.0
614607,County,2020/07/11,48.0,TX,48275.0,Knox County,1048.0,2605.0,9172.0,2174.0,1077.0,750.0,600.0,2438.0,1101.0,540.0,467.0,25.0,0.0
617778,County,2020/07/12,48.0,TX,48275.0,Knox County,1217.0,2436.0,8779.0,2599.0,985.0,1297.0,514.0,2285.0,665.0,237.0,154.0,34.0,9.0
622539,County,2020/07/13,48.0,TX,48275.0,Knox County,958.0,2695.0,19379.0,11086.0,2545.0,866.0,504.0,1995.0,1335.0,453.0,549.0,42.0,4.0
625733,County,2020/07/14,48.0,TX,48275.0,Knox County,1069.0,2584.0,9518.0,2237.0,973.0,1184.0,505.0,2420.0,1184.0,580.0,393.0,38.0,4.0
628905,County,2020/07/15,48.0,TX,48275.0,Knox County,855.0,2798.0,9496.0,2366.0,1040.0,1427.0,754.0,1722.0,1330.0,435.0,384.0,25.0,13.0
630531,County,2020/07/16,48.0,TX,48275.0,Knox County,920.0,2733.0,8889.0,1580.0,930.0,1540.0,657.0,2107.0,845.0,751.0,458.0,17.0,4.0
635267,County,2020/07/17,48.0,TX,48275.0,Knox County,1000.0,2653.0,10785.0,3203.0,1489.0,1848.0,498.0,2205.0,824.0,342.0,355.0,21.0,0.0
636944,County,2020/07/18,48.0,TX,48275.0,Knox County,1133.0,2520.0,8475.0,1965.0,816.0,1919.0,916.0,1355.0,1030.0,289.0,150.0,24.0,11.0
640099,County,2020/07/19,48.0,TX,48275.0,Knox County,1242.0,2411.0,8235.0,2277.0,907.0,1304.0,860.0,1422.0,1159.0,152.0,118.0,19.0,17.0
643332,County,2020/07/20,48.0,TX,48275.0,Knox County,1228.0,2425.0,9415.0,2632.0,1894.0,1086.0,603.0,1738.0,850.0,347.0,253.0,12.0,0.0
646900,County,2020/07/21,48.0,TX,48275.0,Knox County,1065.0,2588.0,9092.0,2346.0,973.0,1281.0,664.0,2135.0,835.0,439.0,395.0,15.0,9.0
649190,County,2020/07/22,48.0,TX,48275.0,Knox County,959.0,2694.0,9708.0,2591.0,1063.0,1293.0,1104.0,1724.0,1068.0,303.0,544.0,14.0,4.0
652828,County,2020/07/23,48.0,TX,48275.0,Knox County,1072.0,2581.0,8779.0,2804.0,1233.0,1024.0,437.0,1422.0,1001.0,436.0,368.0,18.0,36.0
657754,County,2020/07/24,48.0,TX,48275.0,Knox County,973.0,2680.0,10370.0,3039.0,1337.0,806.0,688.0,2688.0,1157.0,335.0,295.0,17.0,8.0
659296,County,2020/07/25,48.0,TX,48275.0,Knox County,1057.0,2596.0,10332.0,3803.0,1173.0,571.0,487.0,1966.0,1613.0,548.0,126.0,45.0,0.0
664003,County,2020/07/26,48.0,TX,48275.0,Knox County,1204.0,2449.0,11161.0,2937.0,1205.0,1181.0,605.0,2599.0,1925.0,529.0,157.0,12.0,11.0
667276,County,2020/07/27,48.0,TX,48275.0,Knox County,1035.0,2618.0,9723.0,2357.0,1160.0,1183.0,971.0,1940.0,1364.0,552.0,181.0,15.0,0.0
668953,County,2020/07/28,48.0,TX,48275.0,Knox County,971.0,2682.0,11781.0,3793.0,1128.0,1409.0,1132.0,1879.0,1784.0,450.0,193.0,13.0,0.0
672110,County,2020/07/29,48.0,TX,48275.0,Knox County,957.0,2696.0,10753.0,2843.0,1028.0,1417.0,605.0,2390.0,1577.0,427.0,415.0,31.0,20.0
676822,County,2020/07/30,48.0,TX,48275.0,Knox County,925.0,2728.0,10687.0,2959.0,1357.0,1091.0,698.0,2180.0,1218.0,647.0,517.0,12.0,8.0
678473,County,2020/07/31,48.0,TX,48275.0,Knox County,958.0,2695.0,10687.0,3096.0,1191.0,1324.0,532.0,2543.0,1218.0,548.0,207.0,20.0,8.0
683219,County,2020/08/01,48.0,TX,48275.0,Knox County,1049.0,2604.0,8669.0,2109.0,1147.0,899.0,597.0,1466.0,1889.0,319.0,233.0,10.0,0.0
684853,County,2020/08/02,48.0,TX,48275.0,Knox County,1082.0,2571.0,8184.0,1906.0,569.0,1236.0,747.0,1785.0,1275.0,395.0,239.0,27.0,5.0
689614,County,2020/08/03,48.0,TX,48275.0,Knox County,901.0,2752.0,10163.0,2180.0,1163.0,566.0,845.0,2640.0,1660.0,693.0,376.0,40.0,0.0
691242,County,2020/08/04,48.0,TX,48275.0,Knox County,1004.0,2649.0,12073.0,2919.0,1243.0,1507.0,605.0,3192.0,1907.0,425.0,266.0,9.0,0.0
696001,County,2020/08/05,48.0,TX,48275.0,Knox County,1056.0,2597.0,10660.0,1803.0,815.0,1552.0,975.0,3471.0,1071.0,555.0,394.0,24.0,0.0
699196,County,2020/08/06,48.0,TX,48275.0,Knox County,1047.0,2606.0,9916.0,2126.0,1298.0,1221.0,596.0,2558.0,1023.0,502.0,579.0,13.0,0.0
700823,County,2020/08/07,48.0,TX,48275.0,Knox County,959.0,2694.0,9997.0,2276.0,1019.0,1331.0,644.0,3195.0,810.0,255.0,443.0,24.0,0.0
705584,County,2020/08/08,48.0,TX,48275.0,Knox County,934.0,2719.0,9941.0,2524.0,1360.0,941.0,843.0,2758.0,858.0,361.0,281.0,15.0,0.0
708803,County,2020/08/09,48.0,TX,48275.0,Knox County,1258.0,2395.0,10185.0,3746.0,651.0,1020.0,925.0,1870.0,1080.0,612.0,254.0,21.0,6.0
711972,County,2020/08/10,48.0,TX,48275.0,Knox County,931.0,2722.0,13214.0,3564.0,2092.0,1114.0,634.0,3465.0,1573.0,534.0,215.0,19.0,4.0
715165,County,2020/08/11,48.0,TX,48275.0,Knox County,754.0,2899.0,12193.0,2958.0,1046.0,1934.0,788.0,2930.0,1604.0,534.0,380.0,10.0,9.0
716697,County,2020/08/12,48.0,TX,48275.0,Knox County,1021.0,2632.0,12959.0,3310.0,1561.0,1883.0,643.0,2259.0,1903.0,813.0,563.0,15.0,9.0
719989,County,2020/08/13,48.0,TX,48275.0,Knox County,893.0,2760.0,14140.0,3905.0,1782.0,1135.0,1230.0,3667.0,1537.0,502.0,348.0,18.0,16.0
723181,County,2020/08/14,48.0,TX,48275.0,Knox County,941.0,2712.0,11948.0,2704.0,1653.0,1352.0,1335.0,2029.0,1709.0,648.0,506.0,4.0,8.0
727943,County,2020/08/15,48.0,TX,48275.0,Knox County,961.0,2692.0,12467.0,3139.0,1307.0,1536.0,1157.0,3314.0,1532.0,289.0,180.0,4.0,9.0
731135,County,2020/08/16,48.0,TX,48275.0,Knox County,968.0,2685.0,13121.0,4969.0,1609.0,1429.0,861.0,1795.0,1372.0,700.0,335.0,27.0,24.0
732765,County,2020/08/17,48.0,TX,48275.0,Knox County,1030.0,2623.0,12472.0,4380.0,1439.0,1692.0,1043.0,1379.0,1349.0,812.0,344.0,21.0,13.0
735980,County,2020/08/18,48.0,TX,48275.0,Knox County,896.0,2757.0,11093.0,3449.0,1466.0,1318.0,779.0,1622.0,1455.0,616.0,337.0,37.0,14.0
740718,County,2020/08/19,48.0,TX,48275.0,Knox County,1066.0,2587.0,13875.0,5110.0,2112.0,2380.0,884.0,1794.0,742.0,562.0,275.0,11.0,5.0
743917,County,2020/08/20,48.0,TX,48275.0,Knox County,824.0,2829.0,13391.0,4134.0,1302.0,1711.0,1153.0,2281.0,1879.0,490.0,419.0,5.0,17.0
745547,County,2020/08/21,48.0,TX,48275.0,Knox County,690.0,2963.0,15087.0,5006.0,1711.0,1883.0,1169.0,2910.0,1339.0,684.0,341.0,23.0,21.0
748751,County,2020/08/22,48.0,TX,48275.0,Knox County,843.0,2810.0,13550.0,3538.0,1580.0,2192.0,1261.0,2478.0,1491.0,609.0,380.0,16.0,5.0
751945,County,2020/08/23,48.0,TX,48275.0,Knox County,1170.0,2483.0,12186.0,2960.0,1587.0,1951.0,797.0,2489.0,1549.0,570.0,253.0,18.0,12.0
756688,County,2020/08/24,48.0,TX,48275.0,Knox County,1092.0,2561.0,12734.0,3413.0,1420.0,1920.0,641.0,3395.0,1252.0,400.0,277.0,4.0,12.0
759879,County,2020/08/25,48.0,TX,48275.0,Knox County,1023.0,2630.0,12694.0,2614.0,1201.0,3149.0,1379.0,2314.0,1211.0,645.0,161.0,13.0,7.0
761461,County,2020/08/26,48.0,TX,48275.0,Knox County,923.0,2730.0,12774.0,3116.0,1128.0,2245.0,842.0,3312.0,976.0,675.0,452.0,22.0,6.0
764668,County,2020/08/27,48.0,TX,48275.0,Knox County,914.0,2739.0,13242.0,3997.0,1733.0,898.0,1032.0,3086.0,1577.0,508.0,390.0,15.0,6.0
769451,County,2020/08/28,48.0,TX,48275.0,Knox County,852.0,2801.0,13399.0,3856.0,1261.0,1809.0,1144.0,2461.0,1463.0,857.0,529.0,12.0,7.0
771078,County,2020/08/29,48.0,TX,48275.0,Knox County,1098.0,2555.0,11393.0,3506.0,1291.0,984.0,1086.0,1859.0,1551.0,944.0,164.0,4.0,4.0
775852,County,2020/08/30,48.0,TX,48275.0,Knox County,1153.0,2500.0,9358.0,2229.0,827.0,1947.0,589.0,1947.0,1164.0,493.0,162.0,0.0,0.0
777460,County,2020/08/31,48.0,TX,48275.0,Knox County,1051.0,2602.0,12591.0,3478.0,1622.0,1942.0,715.0,2678.0,1354.0,514.0,267.0,11.0,10.0
782240,County,2020/09/01,48.0,TX,48275.0,Knox County,1051.0,2602.0,12806.0,4764.0,1311.0,1370.0,761.0,2193.0,1251.0,767.0,342.0,40.0,7.0
785435,County,2020/09/02,48.0,TX,48275.0,Knox County,1092.0,2561.0,10700.0,3571.0,871.0,1434.0,728.0,1820.0,979.0,721.0,544.0,29.0,3.0
786995,County,2020/09/03,48.0,TX,48275.0,Knox County,1012.0,2641.0,12806.0,3871.0,1368.0,2021.0,703.0,2844.0,830.0,670.0,472.0,20.0,7.0
790259,County,2020/09/04,48.0,TX,48275.0,Knox County,1081.0,2572.0,11507.0,2993.0,1069.0,1540.0,831.0,2541.0,1428.0,648.0,431.0,26.0,0.0
793333,County,2020/09/05,48.0,TX,48275.0,Knox County,1039.0,2614.0,11626.0,3763.0,1717.0,989.0,633.0,2417.0,1236.0,580.0,274.0,9.0,8.0
796617,County,2020/09/06,48.0,TX,48275.0,Knox County,1187.0,2466.0,10427.0,2781.0,1243.0,2381.0,601.0,1876.0,917.0,484.0,144.0,0.0,0.0
799833,County,2020/09/07,48.0,TX,48275.0,Knox County,1321.0,2332.0,10274.0,3260.0,1039.0,1333.0,758.0,2592.0,580.0,284.0,406.0,12.0,10.0
804598,County,2020/09/08,48.0,TX,48275.0,Knox County,1121.0,2532.0,10453.0,2849.0,1268.0,800.0,1025.0,2376.0,1375.0,395.0,338.0,20.0,7.0
807791,County,2020/09/09,48.0,TX,48275.0,Knox County,1246.0,2407.0,9587.0,2950.0,1190.0,810.0,660.0,1867.0,1489.0,283.0,293.0,28.0,17.0
809419,County,2020/09/10,48.0,TX,48275.0,Knox County,1262.0,2391.0,9405.0,2839.0,694.0,1113.0,760.0,2128.0,1016.0,546.0,271.0,31.0,7.0
814180,County,2020/09/11,48.0,TX,48275.0,Knox County,1099.0,2554.0,11517.0,3466.0,982.0,1651.0,677.0,1849.0,1981.0,486.0,395.0,21.0,9.0
817374,County,2020/09/12,48.0,TX,48275.0,Knox County,1185.0,2468.0,9104.0,2095.0,1276.0,1029.0,732.0,1714.0,1621.0,357.0,227.0,32.0,21.0
818981,County,2020/09/13,48.0,TX,48275.0,Knox County,1266.0,2387.0,5995.0,771.0,449.0,737.0,271.0,1195.0,2062.0,269.0,203.0,20.0,18.0
822187,County,2020/09/14,48.0,TX,48275.0,Knox County,1112.0,2541.0,11621.0,3013.0,847.0,1031.0,1174.0,2614.0,1973.0,571.0,366.0,25.0,7.0
826956,County,2020/09/15,48.0,TX,48275.0,Knox County,1114.0,2539.0,12391.0,3721.0,949.0,1051.0,925.0,2451.0,2483.0,503.0,284.0,24.0,0.0
830150,County,2020/09/16,48.0,TX,48275.0,Knox County,1073.0,2580.0,10690.0,2785.0,1007.0,866.0,838.0,2079.0,2146.0,499.0,441.0,13.0,16.0
831777,County,2020/09/17,48.0,TX,48275.0,Knox County,1028.0,2625.0,11838.0,2995.0,1109.0,1654.0,1249.0,2292.0,1577.0,611.0,338.0,10.0,3.0
836538,County,2020/09/18,48.0,TX,48275.0,Knox County,1246.0,2407.0,11974.0,3588.0,1299.0,1781.0,1051.0,2489.0,941.0,625.0,170.0,27.0,3.0
839731,County,2020/09/19,48.0,TX,48275.0,Knox County,1066.0,2587.0,12986.0,3925.0,1591.0,1952.0,903.0,2495.0,902.0,936.0,244.0,35.0,3.0
841360,County,2020/09/20,48.0,TX,48275.0,Knox County,1262.0,2391.0,9384.0,3445.0,952.0,747.0,695.0,1901.0,1062.0,260.0,271.0,32.0,19.0
844570,County,2020/09/21,48.0,TX,48275.0,Knox County,1636.0,2017.0,10306.0,2973.0,1400.0,1473.0,666.0,1617.0,1186.0,637.0,345.0,9.0,0.0
849314,County,2020/09/22,48.0,TX,48275.0,Knox County,1524.0,2129.0,8556.0,2288.0,898.0,990.0,1437.0,1364.0,904.0,380.0,285.0,7.0,3.0
852504,County,2020/09/23,48.0,TX,48275.0,Knox County,1684.0,1969.0,11340.0,3616.0,1334.0,1643.0,861.0,2440.0,925.0,310.0,199.0,8.0,4.0
854132,County,2020/09/24,48.0,TX,48275.0,Knox County,1638.0,2015.0,9836.0,2952.0,1160.0,1525.0,857.0,1766.0,1099.0,308.0,160.0,9.0,0.0
858896,County,2020/09/25,48.0,TX,48275.0,Knox County,1466.0,2187.0,10734.0,3600.0,930.0,962.0,784.0,2275.0,1426.0,560.0,174.0,23.0,0.0
862090,County,2020/09/26,48.0,TX,48275.0,Knox County,1479.0,2174.0,9582.0,3190.0,1423.0,1115.0,986.0,1328.0,1143.0,306.0,79.0,8.0,4.0
863695,County,2020/09/27,48.0,TX,48275.0,Knox County,1661.0,1992.0,8126.0,3126.0,1357.0,412.0,396.0,1511.0,604.0,362.0,342.0,11.0,5.0
866900,County,2020/09/28,48.0,TX,48275.0,Knox County,1475.0,2178.0,9780.0,3656.0,1336.0,718.0,958.0,1975.0,585.0,316.0,209.0,14.0,13.0
871671,County,2020/09/29,48.0,TX,48275.0,Knox County,1217.0,2436.0,8719.0,2016.0,464.0,800.0,870.0,2278.0,1659.0,325.0,288.0,12.0,7.0
873300,County,2020/09/30,48.0,TX,48275.0,Knox County,1220.0,2433.0,9299.0,2290.0,1082.0,1066.0,595.0,2023.0,1658.0,314.0,242.0,26.0,3.0
878039,County,2020/10/01,48.0,TX,48275.0,Knox County,1332.0,2321.0,9325.0,2610.0,1625.0,488.0,833.0,1464.0,1696.0,390.0,210.0,6.0,3.0
881254,County,2020/10/02,48.0,TX,48275.0,Knox County,1246.0,2407.0,7427.0,1613.0,1274.0,697.0,327.0,1301.0,1863.0,201.0,123.0,24.0,4.0
882884,County,2020/10/03,48.0,TX,48275.0,Knox County,1257.0,2396.0,8364.0,2234.0,1151.0,232.0,660.0,1856.0,1664.0,297.0,253.0,13.0,4.0
887337,County,2020/10/04,48.0,TX,48275.0,Knox County,1320.0,2333.0,7350.0,1300.0,779.0,1114.0,648.0,1279.0,1624.0,374.0,198.0,22.0,12.0
890591,County,2020/10/05,48.0,TX,48275.0,Knox County,1366.0,2287.0,7245.0,1481.0,750.0,435.0,735.0,1235.0,2032.0,434.0,118.0,22.0,3.0
893771,County,2020/10/06,48.0,TX,48275.0,Knox County,1273.0,2380.0,9709.0,3088.0,1081.0,1490.0,463.0,1265.0,2027.0,123.0,160.0,10.0,2.0
896958,County,2020/10/07,48.0,TX,48275.0,Knox County,1207.0,2446.0,8910.0,2456.0,1029.0,795.0,603.0,2154.0,1203.0,322.0,323.0,20.0,5.0
900137,County,2020/10/08,48.0,TX,48275.0,Knox County,1295.0,2358.0,9377.0,3101.0,982.0,793.0,752.0,1853.0,1312.0,278.0,269.0,30.0,7.0
903330,County,2020/10/09,48.0,TX,48275.0,Knox County,1135.0,2518.0,9692.0,2713.0,1357.0,236.0,696.0,2081.0,1785.0,491.0,320.0,8.0,5.0
906532,County,2020/10/10,48.0,TX,48275.0,Knox County,1169.0,2484.0,8504.0,2038.0,1045.0,606.0,730.0,1674.0,1637.0,540.0,215.0,17.0,2.0
907596,County,2020/10/11,48.0,TX,48275.0,Knox County,1226.0,2427.0,7714.0,1835.0,601.0,1112.0,704.0,1668.0,1118.0,361.0,300.0,12.0,3.0
910812,County,2020/10/12,48.0,TX,48275.0,Knox County,1093.0,2560.0,9661.0,2002.0,963.0,1923.0,584.0,2144.0,1586.0,274.0,168.0,14.0,3.0
913749,County,2020/10/13,48.0,TX,48275.0,Knox County,1201.0,2452.0,10559.0,2603.0,1127.0,1302.0,578.0,2623.0,1896.0,357.0,53.0,16.0,4.0
917573,County,2020/10/14,48.0,TX,48275.0,Knox County,1092.0,2561.0,10755.0,2728.0,893.0,1296.0,722.0,2562.0,1972.0,288.0,285.0,7.0,2.0
920483,County,2020/10/15,48.0,TX,48275.0,Knox County,1154.0,2499.0,8863.0,2824.0,741.0,856.0,491.0,1585.0,1729.0,497.0,124.0,12.0,4.0
923496,County,2020/10/16,48.0,TX,48275.0,Knox County,996.0,2657.0,9875.0,2634.0,812.0,1159.0,1259.0,1146.0,2273.0,431.0,154.0,2.0,5.0
927550,County,2020/10/17,48.0,TX,48275.0,Knox County,997.0,2656.0,9459.0,2154.0,779.0,899.0,1746.0,1401.0,1967.0,371.0,122.0,17.0,3.0
929897,County,2020/10/18,48.0,TX,48275.0,Knox County,1131.0,2522.0,8176.0,1833.0,784.0,713.0,1852.0,890.0,1728.0,268.0,97.0,10.0,1.0
932867,County,2020/10/19,48.0,TX,48275.0,Knox County,990.0,2663.0,9474.0,2879.0,710.0,871.0,1796.0,1231.0,1681.0,200.0,91.0,13.0,2.0
936320,County,2020/10/20,48.0,TX,48275.0,Knox County,978.0,2675.0,9133.0,2295.0,488.0,1074.0,1450.0,1742.0,1520.0,402.0,150.0,11.0,1.0
939546,County,2020/10/21,48.0,TX,48275.0,Knox County,1237.0,2416.0,9064.0,2090.0,1028.0,1073.0,1036.0,2039.0,1332.0,325.0,117.0,20.0,4.0
942574,County,2020/10/22,48.0,TX,48275.0,Knox County,1207.0,2446.0,11225.0,2943.0,1259.0,1455.0,970.0,2682.0,1133.0,572.0,194.0,13.0,4.0
945930,County,2020/10/23,48.0,TX,48275.0,Knox County,1069.0,2584.0,10081.0,2855.0,875.0,939.0,518.0,2155.0,1626.0,753.0,348.0,8.0,4.0
949475,County,2020/10/24,48.0,TX,48275.0,Knox County,1183.0,2470.0,9830.0,2521.0,1255.0,828.0,612.0,1971.0,1599.0,763.0,263.0,16.0,2.0
