,Level,Date,State FIPS,State Postal Code,County FIPS,County Name,Population Staying at Home,Population Not Staying at Home,Number of Trips,Number of Trips <1,Number of Trips 1-3,Number of Trips 3-5,Number of Trips 5-10,Number of Trips 10-25,Number of Trips 25-50,Number of Trips 50-100,Number of Trips 100-250,Number of Trips 250-500,Number of Trips >=500
3132,County,2020/01/01,56.0,WY,56029.0,Park County,9633.0,19691.0,78555.0,19340.0,22035.0,6330.0,8840.0,10793.0,6785.0,3611.0,708.0,59.0,54.0
3893,County,2020/01/02,56.0,WY,56029.0,Park County,8085.0,21239.0,106282.0,29015.0,28294.0,12237.0,12949.0,9721.0,9398.0,3103.0,1488.0,44.0,33.0
9503,County,2020/01/03,56.0,WY,56029.0,Park County,7600.0,21724.0,107713.0,30894.0,25487.0,11105.0,10532.0,12360.0,10294.0,5074.0,1841.0,61.0,65.0
11127,County,2020/01/04,56.0,WY,56029.0,Park County,8112.0,21212.0,100293.0,26617.0,22653.0,12980.0,11390.0,13831.0,7571.0,3226.0,1883.0,56.0,86.0
15859,County,2020/01/05,56.0,WY,56029.0,Park County,9261.0,20063.0,80055.0,21349.0,19102.0,9400.0,8473.0,10824.0,6168.0,3352.0,1242.0,102.0,43.0
19102,County,2020/01/06,56.0,WY,56029.0,Park County,7648.0,21676.0,104552.0,29121.0,27342.0,13387.0,11584.0,11213.0,8381.0,2803.0,550.0,51.0,120.0
22297,County,2020/01/07,56.0,WY,56029.0,Park County,7648.0,21676.0,105741.0,29379.0,29355.0,14062.0,8620.0,10617.0,10322.0,2719.0,593.0,39.0,35.0
25491,County,2020/01/08,56.0,WY,56029.0,Park County,7353.0,21971.0,100257.0,29618.0,25472.0,10792.0,11459.0,10860.0,6931.0,3811.0,1199.0,53.0,62.0
27118,County,2020/01/09,56.0,WY,56029.0,Park County,7404.0,21920.0,107272.0,33012.0,28464.0,12811.0,10302.0,9435.0,8674.0,3466.0,997.0,46.0,65.0
30314,County,2020/01/10,56.0,WY,56029.0,Park County,7412.0,21912.0,106281.0,29903.0,26274.0,14149.0,10657.0,8534.0,10082.0,5326.0,1248.0,47.0,61.0
35072,County,2020/01/11,56.0,WY,56029.0,Park County,8297.0,21027.0,101410.0,29564.0,24290.0,9971.0,11894.0,9813.0,9987.0,4491.0,1370.0,30.0,0.0
36712,County,2020/01/12,56.0,WY,56029.0,Park County,8984.0,20340.0,80250.0,21229.0,20938.0,7452.0,8188.0,8793.0,8180.0,4216.0,1145.0,69.0,40.0
38358,County,2020/01/13,56.0,WY,56029.0,Park County,7993.0,21331.0,100189.0,30637.0,26509.0,11471.0,9956.0,9200.0,9199.0,2231.0,891.0,66.0,29.0
43117,County,2020/01/14,56.0,WY,56029.0,Park County,8446.0,20878.0,99446.0,29962.0,23709.0,9634.0,9672.0,11235.0,9343.0,4575.0,1212.0,64.0,40.0
46268,County,2020/01/15,56.0,WY,56029.0,Park County,8260.0,21064.0,93267.0,25279.0,26478.0,10153.0,10881.0,8756.0,8075.0,2513.0,1033.0,59.0,40.0
51050,County,2020/01/16,56.0,WY,56029.0,Park County,8228.0,21096.0,105474.0,32249.0,27177.0,12069.0,10217.0,9267.0,9264.0,3897.0,1189.0,95.0,50.0
52711,County,2020/01/17,56.0,WY,56029.0,Park County,7542.0,21782.0,95340.0,25668.0,25732.0,10080.0,8126.0,11087.0,9106.0,3864.0,1526.0,81.0,70.0
55861,County,2020/01/18,56.0,WY,56029.0,Park County,7857.0,21467.0,106773.0,30349.0,26106.0,13436.0,9690.0,10201.0,9570.0,5550.0,1774.0,33.0,64.0
59058,County,2020/01/19,56.0,WY,56029.0,Park County,8980.0,20344.0,84640.0,22109.0,18814.0,9942.0,8624.0,10359.0,9499.0,4206.0,976.0,60.0,51.0
63819,County,2020/01/20,56.0,WY,56029.0,Park County,8085.0,21239.0,100710.0,30855.0,24484.0,11898.0,10785.0,11123.0,8535.0,1851.0,1006.0,121.0,52.0
67017,County,2020/01/21,56.0,WY,56029.0,Park County,7966.0,21358.0,100464.0,30774.0,22653.0,10857.0,9741.0,13752.0,8444.0,2844.0,1254.0,81.0,64.0
70207,County,2020/01/22,56.0,WY,56029.0,Park County,7327.0,21997.0,95359.0,24270.0,24712.0,12853.0,9790.0,10259.0,8458.0,3421.0,1471.0,53.0,72.0
73391,County,2020/01/23,56.0,WY,56029.0,Park County,7780.0,21544.0,104804.0,33044.0,25229.0,13080.0,9418.0,10575.0,7238.0,4986.0,1112.0,62.0,60.0
76595,County,2020/01/24,56.0,WY,56029.0,Park County,7728.0,21596.0,111864.0,30648.0,28244.0,15289.0,9333.0,12457.0,11295.0,3054.0,1464.0,58.0,22.0
79782,County,2020/01/25,56.0,WY,56029.0,Park County,8787.0,20537.0,98347.0,29360.0,24018.0,8586.0,10091.0,10712.0,8296.0,5582.0,1593.0,53.0,56.0
82982,County,2020/01/26,56.0,WY,56029.0,Park County,9042.0,20282.0,84112.0,23603.0,18835.0,10623.0,9727.0,9622.0,6888.0,4018.0,684.0,75.0,37.0
83515,County,2020/01/27,56.0,WY,56029.0,Park County,7837.0,21487.0,101429.0,30005.0,24638.0,12453.0,10223.0,11808.0,7889.0,3229.0,1068.0,69.0,47.0
87867,County,2020/01/28,56.0,WY,56029.0,Park County,8297.0,21027.0,104915.0,31110.0,26990.0,12099.0,10458.0,11567.0,8310.0,3401.0,900.0,47.0,33.0
90973,County,2020/01/29,56.0,WY,56029.0,Park County,8240.0,21084.0,107700.0,35093.0,28965.0,12027.0,9891.0,10289.0,7112.0,3119.0,1108.0,31.0,65.0
94326,County,2020/01/30,56.0,WY,56029.0,Park County,7671.0,21653.0,103133.0,30236.0,25253.0,13639.0,9321.0,10001.0,9684.0,3485.0,1180.0,174.0,160.0
98953,County,2020/01/31,56.0,WY,56029.0,Park County,7230.0,22094.0,97211.0,25478.0,23036.0,11349.0,10057.0,10570.0,11370.0,3607.0,1411.0,207.0,126.0
102140,County,2020/02/01,56.0,WY,56029.0,Park County,7954.0,21370.0,90198.0,20293.0,19716.0,11099.0,10077.0,10242.0,12344.0,4780.0,1356.0,139.0,152.0
105341,County,2020/02/02,56.0,WY,56029.0,Park County,8359.0,20965.0,79448.0,19306.0,20404.0,9051.0,10139.0,9532.0,7413.0,2497.0,766.0,147.0,193.0
106988,County,2020/02/03,56.0,WY,56029.0,Park County,7920.0,21404.0,95982.0,26403.0,24930.0,13913.0,10516.0,9243.0,8251.0,1840.0,604.0,186.0,96.0
111729,County,2020/02/04,56.0,WY,56029.0,Park County,8048.0,21276.0,99700.0,27560.0,27289.0,13720.0,8459.0,10262.0,7682.0,3415.0,1001.0,169.0,143.0
113308,County,2020/02/05,56.0,WY,56029.0,Park County,7356.0,21968.0,103398.0,30015.0,27352.0,11300.0,8649.0,11458.0,8959.0,4487.0,878.0,175.0,125.0
116454,County,2020/02/06,56.0,WY,56029.0,Park County,7878.0,21446.0,105953.0,32318.0,29184.0,12776.0,8999.0,10613.0,7426.0,3336.0,1022.0,161.0,118.0
119717,County,2020/02/07,56.0,WY,56029.0,Park County,7520.0,21804.0,115283.0,38903.0,29318.0,11717.0,8470.0,12791.0,9635.0,3198.0,876.0,228.0,147.0
124505,County,2020/02/08,56.0,WY,56029.0,Park County,8431.0,20893.0,93967.0,30347.0,24489.0,8536.0,7986.0,9695.0,7468.0,3753.0,1430.0,154.0,109.0
127149,County,2020/02/09,56.0,WY,56029.0,Park County,9777.0,19547.0,85231.0,25210.0,21731.0,6924.0,9266.0,8787.0,8620.0,3222.0,1104.0,119.0,248.0
128298,County,2020/02/10,56.0,WY,56029.0,Park County,7480.0,21844.0,110544.0,35104.0,26978.0,10876.0,11438.0,10748.0,10185.0,3084.0,1690.0,200.0,241.0
133613,County,2020/02/11,56.0,WY,56029.0,Park County,7298.0,22026.0,112519.0,35893.0,28423.0,12701.0,8386.0,11119.0,9752.0,4571.0,1246.0,204.0,224.0
134614,County,2020/02/12,56.0,WY,56029.0,Park County,7682.0,21642.0,103341.0,31431.0,26631.0,11659.0,8923.0,10259.0,9399.0,3023.0,1450.0,227.0,339.0
140475,County,2020/02/13,56.0,WY,56029.0,Park County,6929.0,22395.0,109347.0,30017.0,28562.0,11970.0,9199.0,11326.0,11205.0,5036.0,1541.0,236.0,255.0
142004,County,2020/02/14,56.0,WY,56029.0,Park County,7055.0,22269.0,109867.0,32843.0,27859.0,11469.0,11191.0,9853.0,10034.0,3908.0,2165.0,213.0,332.0
145301,County,2020/02/15,56.0,WY,56029.0,Park County,8160.0,21164.0,98759.0,24284.0,22852.0,12156.0,7507.0,12749.0,10388.0,6060.0,2156.0,187.0,420.0
148489,County,2020/02/16,56.0,WY,56029.0,Park County,8302.0,21022.0,84843.0,18910.0,19305.0,9626.0,9499.0,11103.0,11203.0,3587.0,1023.0,221.0,366.0
153251,County,2020/02/17,56.0,WY,56029.0,Park County,10140.0,19184.0,85354.0,23202.0,20241.0,8325.0,7170.0,9519.0,11682.0,3505.0,1271.0,221.0,218.0
154828,County,2020/02/18,56.0,WY,56029.0,Park County,7012.0,22312.0,110118.0,30742.0,26542.0,14488.0,7680.0,10589.0,14510.0,3658.0,1375.0,259.0,275.0
159638,County,2020/02/19,56.0,WY,56029.0,Park County,7096.0,22228.0,104552.0,28954.0,26691.0,11665.0,7940.0,11240.0,10838.0,5246.0,1592.0,224.0,162.0
162833,County,2020/02/20,56.0,WY,56029.0,Park County,7313.0,22011.0,104458.0,27284.0,25529.0,13592.0,9845.0,11825.0,10382.0,3892.0,1715.0,220.0,174.0
166027,County,2020/02/21,56.0,WY,56029.0,Park County,7501.0,21823.0,114218.0,31165.0,25545.0,11554.0,12036.0,16207.0,10480.0,5607.0,1318.0,171.0,135.0
169221,County,2020/02/22,56.0,WY,56029.0,Park County,7061.0,22263.0,97226.0,25982.0,24729.0,8570.0,8939.0,10738.0,10724.0,5288.0,1835.0,241.0,180.0
172420,County,2020/02/23,56.0,WY,56029.0,Park County,8602.0,20722.0,88940.0,24417.0,22774.0,8436.0,8277.0,11136.0,9174.0,3376.0,1139.0,134.0,77.0
175615,County,2020/02/24,56.0,WY,56029.0,Park County,7537.0,21787.0,102085.0,25945.0,24741.0,11662.0,7627.0,12181.0,14233.0,3964.0,1463.0,149.0,120.0
178803,County,2020/02/25,56.0,WY,56029.0,Park County,7450.0,21874.0,102394.0,27808.0,23755.0,12213.0,9041.0,11289.0,12276.0,4177.0,1680.0,78.0,77.0
181996,County,2020/02/26,56.0,WY,56029.0,Park County,6190.0,23134.0,93995.0,21221.0,22114.0,11228.0,8530.0,14452.0,10659.0,4707.0,950.0,110.0,24.0
183022,County,2020/02/27,56.0,WY,56029.0,Park County,7566.0,21758.0,102710.0,29286.0,27594.0,12302.0,9624.0,10246.0,8047.0,3840.0,1603.0,115.0,53.0
186961,County,2020/02/28,56.0,WY,56029.0,Park County,7453.0,21871.0,112155.0,38537.0,28049.0,10791.0,6625.0,10655.0,9763.0,5597.0,1951.0,79.0,108.0
191579,County,2020/02/29,56.0,WY,56029.0,Park County,8066.0,21258.0,103331.0,29671.0,22457.0,13164.0,8438.0,11583.0,9328.0,6690.0,1768.0,128.0,104.0
193205,County,2020/03/01,56.0,WY,56029.0,Park County,8691.0,20633.0,85548.0,25828.0,19252.0,10289.0,8529.0,7494.0,8150.0,4903.0,898.0,109.0,96.0
196426,County,2020/03/02,56.0,WY,56029.0,Park County,7557.0,21767.0,100733.0,27842.0,27803.0,11687.0,8221.0,11443.0,8853.0,3843.0,850.0,86.0,105.0
200452,County,2020/03/03,56.0,WY,56029.0,Park County,7169.0,22155.0,93956.0,32005.0,22175.0,10007.0,7900.0,9489.0,8151.0,3399.0,601.0,136.0,93.0
201912,County,2020/03/04,56.0,WY,56029.0,Park County,7482.0,21842.0,99062.0,32308.0,24903.0,9404.0,7618.0,9349.0,9968.0,4315.0,900.0,209.0,88.0
205933,County,2020/03/05,56.0,WY,56029.0,Park County,6846.0,22478.0,93967.0,27963.0,21302.0,10398.0,8231.0,10661.0,8634.0,5119.0,1403.0,187.0,69.0
209051,County,2020/03/06,56.0,WY,56029.0,Park County,6961.0,22363.0,103710.0,30680.0,23757.0,14202.0,11096.0,10621.0,8283.0,3732.0,1036.0,201.0,102.0
212400,County,2020/03/07,56.0,WY,56029.0,Park County,7091.0,22233.0,98674.0,28780.0,21887.0,10145.0,10033.0,13167.0,9053.0,3788.0,1513.0,140.0,168.0
217129,County,2020/03/08,56.0,WY,56029.0,Park County,8135.0,21189.0,74728.0,15715.0,17992.0,9246.0,9018.0,9065.0,7210.0,3753.0,2199.0,362.0,168.0
220325,County,2020/03/09,56.0,WY,56029.0,Park County,7406.0,21918.0,88106.0,19717.0,23060.0,9262.0,10177.0,9447.0,9134.0,4890.0,2260.0,117.0,42.0
223518,County,2020/03/10,56.0,WY,56029.0,Park County,7007.0,22317.0,91386.0,22870.0,22600.0,10743.0,8607.0,10153.0,10280.0,4352.0,1503.0,147.0,131.0
225192,County,2020/03/11,56.0,WY,56029.0,Park County,6530.0,22794.0,82907.0,20787.0,23878.0,9204.0,5863.0,7922.0,9453.0,3320.0,1991.0,352.0,137.0
228377,County,2020/03/12,56.0,WY,56029.0,Park County,6685.0,22639.0,81289.0,30372.0,17390.0,7307.0,5948.0,11162.0,5328.0,2526.0,606.0,451.0,199.0
233106,County,2020/03/13,56.0,WY,56029.0,Park County,6442.0,22882.0,79151.0,22894.0,19949.0,6617.0,7128.0,9417.0,7490.0,3230.0,1936.0,414.0,76.0
234589,County,2020/03/14,56.0,WY,56029.0,Park County,8020.0,21304.0,76730.0,24942.0,19009.0,10232.0,5353.0,8039.0,3836.0,4548.0,242.0,338.0,191.0
239489,County,2020/03/15,56.0,WY,56029.0,Park County,9114.0,20210.0,92168.0,37354.0,18076.0,9633.0,8155.0,6597.0,6679.0,3393.0,1989.0,185.0,107.0
242682,County,2020/03/16,56.0,WY,56029.0,Park County,8510.0,20814.0,112213.0,39384.0,27290.0,10192.0,10110.0,9716.0,11593.0,2643.0,1013.0,172.0,100.0
244347,County,2020/03/17,56.0,WY,56029.0,Park County,9782.0,19542.0,101431.0,36097.0,22984.0,8793.0,8387.0,11686.0,8815.0,3040.0,1457.0,127.0,45.0
247453,County,2020/03/18,56.0,WY,56029.0,Park County,9403.0,19921.0,90678.0,37204.0,22446.0,7165.0,5780.0,6567.0,7014.0,3538.0,594.0,236.0,134.0
250709,County,2020/03/19,56.0,WY,56029.0,Park County,10404.0,18920.0,95631.0,35821.0,17501.0,10544.0,8346.0,11008.0,7505.0,3708.0,978.0,141.0,79.0
255459,County,2020/03/20,56.0,WY,56029.0,Park County,10081.0,19243.0,90644.0,31990.0,20606.0,9795.0,7047.0,9234.0,8110.0,2540.0,1044.0,227.0,51.0
258652,County,2020/03/21,56.0,WY,56029.0,Park County,10400.0,18924.0,87465.0,35729.0,19825.0,8123.0,7260.0,6594.0,6598.0,2407.0,673.0,152.0,104.0
260273,County,2020/03/22,56.0,WY,56029.0,Park County,10664.0,18660.0,70555.0,30899.0,14074.0,5348.0,5289.0,7529.0,4866.0,1109.0,1170.0,198.0,73.0
263476,County,2020/03/23,56.0,WY,56029.0,Park County,9606.0,19718.0,87950.0,33223.0,19290.0,11149.0,4712.0,8679.0,7354.0,3025.0,341.0,135.0,42.0
268232,County,2020/03/24,56.0,WY,56029.0,Park County,9951.0,19373.0,75421.0,28393.0,16294.0,7916.0,5350.0,9122.0,6266.0,1368.0,562.0,122.0,28.0
271429,County,2020/03/25,56.0,WY,56029.0,Park County,9947.0,19377.0,80459.0,30787.0,17733.0,7483.0,7688.0,6826.0,5908.0,3218.0,635.0,118.0,63.0
273055,County,2020/03/26,56.0,WY,56029.0,Park County,10404.0,18920.0,78669.0,31934.0,20049.0,5714.0,4872.0,8019.0,4310.0,2657.0,882.0,164.0,68.0
277818,County,2020/03/27,56.0,WY,56029.0,Park County,9547.0,19777.0,78384.0,29074.0,16686.0,5783.0,5901.0,10178.0,6505.0,2742.0,1315.0,176.0,24.0
281004,County,2020/03/28,56.0,WY,56029.0,Park County,10354.0,18970.0,77469.0,30913.0,16498.0,6679.0,6466.0,9446.0,4842.0,1979.0,475.0,106.0,65.0
284205,County,2020/03/29,56.0,WY,56029.0,Park County,9964.0,19360.0,75797.0,26406.0,14648.0,7158.0,8193.0,7676.0,8297.0,2784.0,534.0,83.0,18.0
285833,County,2020/03/30,56.0,WY,56029.0,Park County,9586.0,19738.0,80591.0,29001.0,19942.0,9990.0,6289.0,5666.0,5736.0,2914.0,854.0,130.0,69.0
289028,County,2020/03/31,56.0,WY,56029.0,Park County,9683.0,19641.0,82129.0,30422.0,16482.0,11171.0,6868.0,7197.0,6423.0,2814.0,556.0,118.0,78.0
292263,County,2020/04/01,56.0,WY,56029.0,Park County,9819.0,19505.0,73808.0,25972.0,15930.0,10411.0,6095.0,8448.0,5226.0,885.0,679.0,103.0,59.0
295415,County,2020/04/02,56.0,WY,56029.0,Park County,10070.0,19254.0,72900.0,26666.0,16106.0,5695.0,5530.0,7782.0,7851.0,1611.0,1545.0,80.0,34.0
300175,County,2020/04/03,56.0,WY,56029.0,Park County,9519.0,19805.0,87221.0,33398.0,18842.0,6657.0,7010.0,8786.0,8445.0,3280.0,662.0,108.0,33.0
301801,County,2020/04/04,56.0,WY,56029.0,Park County,9170.0,20154.0,72582.0,27326.0,15973.0,5052.0,7092.0,6853.0,8103.0,1747.0,251.0,86.0,99.0
306557,County,2020/04/05,56.0,WY,56029.0,Park County,10579.0,18745.0,77112.0,27430.0,15602.0,6732.0,6346.0,10890.0,6756.0,2670.0,591.0,37.0,58.0
308190,County,2020/04/06,56.0,WY,56029.0,Park County,10232.0,19092.0,88586.0,35611.0,20693.0,9280.0,6508.0,6732.0,6564.0,2662.0,393.0,46.0,97.0
312948,County,2020/04/07,56.0,WY,56029.0,Park County,10112.0,19212.0,90923.0,37694.0,21736.0,10204.0,6962.0,6822.0,4551.0,2075.0,796.0,83.0,0.0
314578,County,2020/04/08,56.0,WY,56029.0,Park County,10161.0,19163.0,83780.0,30226.0,23372.0,8442.0,5705.0,7074.0,5275.0,2710.0,900.0,37.0,39.0
317796,County,2020/04/09,56.0,WY,56029.0,Park County,9965.0,19359.0,92802.0,35088.0,22060.0,8506.0,5509.0,8899.0,7805.0,3658.0,1238.0,19.0,20.0
322533,County,2020/04/10,56.0,WY,56029.0,Park County,9805.0,19519.0,90258.0,35779.0,22370.0,7685.0,6179.0,8247.0,5740.0,3111.0,1025.0,104.0,18.0
324208,County,2020/04/11,56.0,WY,56029.0,Park County,10848.0,18476.0,64508.0,21948.0,18354.0,7331.0,5899.0,4154.0,4859.0,922.0,884.0,92.0,65.0
328895,County,2020/04/12,56.0,WY,56029.0,Park County,11857.0,17467.0,58465.0,18924.0,15699.0,5894.0,5996.0,6483.0,3247.0,1359.0,760.0,60.0,43.0
332115,County,2020/04/13,56.0,WY,56029.0,Park County,10756.0,18568.0,76624.0,25874.0,19960.0,7828.0,6172.0,8132.0,6278.0,1353.0,974.0,10.0,43.0
333695,County,2020/04/14,56.0,WY,56029.0,Park County,9842.0,19482.0,70138.0,19379.0,13082.0,9025.0,5655.0,10971.0,7065.0,4434.0,236.0,175.0,116.0
336967,County,2020/04/15,56.0,WY,56029.0,Park County,9509.0,19815.0,64086.0,18793.0,22208.0,3687.0,2531.0,6082.0,7659.0,1434.0,1604.0,42.0,46.0
340121,County,2020/04/16,56.0,WY,56029.0,Park County,10231.0,19093.0,90537.0,39062.0,18318.0,8661.0,8397.0,6724.0,4011.0,3699.0,1520.0,70.0,75.0
341797,County,2020/04/17,56.0,WY,56029.0,Park County,9323.0,20001.0,77336.0,23902.0,13374.0,9712.0,10672.0,9080.0,7647.0,1511.0,1207.0,112.0,119.0
346478,County,2020/04/18,56.0,WY,56029.0,Park County,10248.0,19076.0,78699.0,34407.0,19815.0,5631.0,5671.0,7432.0,4433.0,0.0,1120.0,52.0,138.0
351279,County,2020/04/19,56.0,WY,56029.0,Park County,10021.0,19303.0,75378.0,33279.0,13880.0,4536.0,7845.0,7760.0,5291.0,2091.0,501.0,47.0,148.0
354479,County,2020/04/20,56.0,WY,56029.0,Park County,8781.0,20543.0,75434.0,32099.0,16130.0,5798.0,4827.0,10436.0,4611.0,547.0,786.0,122.0,78.0
356099,County,2020/04/21,56.0,WY,56029.0,Park County,9533.0,19791.0,88564.0,28254.0,22719.0,9038.0,8276.0,10415.0,5460.0,3348.0,963.0,70.0,21.0
359294,County,2020/04/22,56.0,WY,56029.0,Park County,9851.0,19473.0,82327.0,21519.0,23040.0,11651.0,7649.0,10397.0,4616.0,2736.0,656.0,41.0,22.0
362401,County,2020/04/23,56.0,WY,56029.0,Park County,10436.0,18888.0,89935.0,27684.0,21183.0,9230.0,9119.0,11488.0,7225.0,3527.0,362.0,22.0,95.0
365712,County,2020/04/24,56.0,WY,56029.0,Park County,9695.0,19629.0,75382.0,23107.0,20384.0,6282.0,8331.0,8339.0,5307.0,2472.0,1077.0,30.0,53.0
370445,County,2020/04/25,56.0,WY,56029.0,Park County,10119.0,19205.0,85163.0,26962.0,19770.0,11514.0,7966.0,7599.0,6268.0,3715.0,1272.0,59.0,38.0
373637,County,2020/04/26,56.0,WY,56029.0,Park County,10698.0,18626.0,74023.0,19809.0,17628.0,8210.0,11398.0,6118.0,6952.0,3571.0,263.0,61.0,13.0
375302,County,2020/04/27,56.0,WY,56029.0,Park County,9970.0,19354.0,90152.0,27038.0,24174.0,12136.0,11322.0,8311.0,4007.0,2375.0,683.0,106.0,0.0
378415,County,2020/04/28,56.0,WY,56029.0,Park County,9248.0,20076.0,84146.0,25818.0,22545.0,10042.0,10594.0,7924.0,3438.0,2943.0,760.0,50.0,32.0
381667,County,2020/04/29,56.0,WY,56029.0,Park County,9196.0,20128.0,90163.0,28702.0,20184.0,10148.0,10324.0,10914.0,6313.0,2105.0,1346.0,94.0,33.0
386413,County,2020/04/30,56.0,WY,56029.0,Park County,9308.0,20016.0,88680.0,25551.0,21869.0,10948.0,8354.0,9589.0,7450.0,3365.0,1412.0,112.0,30.0
388088,County,2020/05/01,56.0,WY,56029.0,Park County,9749.0,19575.0,84125.0,25481.0,17993.0,10403.0,10147.0,9950.0,5342.0,3284.0,1462.0,52.0,11.0
391221,County,2020/05/02,56.0,WY,56029.0,Park County,9682.0,19642.0,78435.0,22864.0,15370.0,9440.0,11082.0,9052.0,6777.0,3264.0,482.0,45.0,59.0
394434,County,2020/05/03,56.0,WY,56029.0,Park County,10509.0,18815.0,78263.0,22579.0,20129.0,9073.0,9970.0,7651.0,6086.0,2510.0,150.0,56.0,59.0
399189,County,2020/05/04,56.0,WY,56029.0,Park County,10043.0,19281.0,94381.0,30585.0,23344.0,12256.0,8245.0,10179.0,8096.0,1297.0,249.0,69.0,61.0
400816,County,2020/05/05,56.0,WY,56029.0,Park County,10150.0,19174.0,86990.0,24699.0,22087.0,11858.0,8025.0,11058.0,5864.0,2406.0,897.0,71.0,25.0
403994,County,2020/05/06,56.0,WY,56029.0,Park County,10101.0,19223.0,86804.0,26340.0,18814.0,11732.0,9090.0,9678.0,6909.0,3276.0,785.0,125.0,55.0
408715,County,2020/05/07,56.0,WY,56029.0,Park County,10114.0,19210.0,85158.0,25528.0,17386.0,9091.0,10613.0,11999.0,6164.0,3536.0,678.0,63.0,100.0
408875,County,2020/05/08,56.0,WY,56029.0,Park County,9196.0,20128.0,96681.0,27443.0,19667.0,11275.0,10324.0,16122.0,6905.0,4444.0,449.0,52.0,0.0
413507,County,2020/05/09,56.0,WY,56029.0,Park County,9867.0,19457.0,91214.0,28716.0,20965.0,11418.0,9619.0,10550.0,6593.0,2369.0,909.0,53.0,22.0
418353,County,2020/05/10,56.0,WY,56029.0,Park County,10110.0,19214.0,74034.0,20219.0,18632.0,9790.0,8090.0,9980.0,5014.0,1486.0,712.0,88.0,23.0
420028,County,2020/05/11,56.0,WY,56029.0,Park County,7944.0,21380.0,103323.0,32552.0,25381.0,13327.0,11035.0,8265.0,9055.0,2647.0,987.0,39.0,35.0
423262,County,2020/05/12,56.0,WY,56029.0,Park County,7648.0,21676.0,122871.0,38542.0,29283.0,19206.0,10651.0,12943.0,8993.0,1403.0,1749.0,75.0,26.0
427935,County,2020/05/13,56.0,WY,56029.0,Park County,8243.0,21081.0,102846.0,34131.0,21998.0,15231.0,10558.0,10334.0,6601.0,3248.0,637.0,59.0,49.0
431129,County,2020/05/14,56.0,WY,56029.0,Park County,8236.0,21088.0,105900.0,32940.0,23968.0,12705.0,9651.0,12387.0,8842.0,3744.0,1508.0,113.0,42.0
432757,County,2020/05/15,56.0,WY,56029.0,Park County,8162.0,21162.0,107624.0,34585.0,23830.0,14410.0,9330.0,12488.0,7641.0,4227.0,941.0,94.0,78.0
435981,County,2020/05/16,56.0,WY,56029.0,Park County,8430.0,20894.0,107924.0,33799.0,20331.0,13928.0,12461.0,13031.0,6443.0,6144.0,1672.0,52.0,63.0
440670,County,2020/05/17,56.0,WY,56029.0,Park County,8795.0,20529.0,115002.0,27551.0,27324.0,13215.0,18315.0,19250.0,4687.0,4075.0,533.0,17.0,35.0
443905,County,2020/05/18,56.0,WY,56029.0,Park County,7476.0,21848.0,130259.0,45410.0,26669.0,15304.0,10900.0,17769.0,8679.0,4997.0,423.0,52.0,56.0
445533,County,2020/05/19,56.0,WY,56029.0,Park County,7792.0,21532.0,113702.0,36022.0,24829.0,14390.0,11214.0,13808.0,8036.0,4446.0,914.0,28.0,15.0
450293,County,2020/05/20,56.0,WY,56029.0,Park County,7081.0,22243.0,107359.0,30657.0,24296.0,15596.0,14541.0,12476.0,5210.0,3824.0,705.0,26.0,28.0
453189,County,2020/05/21,56.0,WY,56029.0,Park County,7471.0,21853.0,106372.0,28780.0,22718.0,14848.0,11197.0,17292.0,6368.0,3624.0,1448.0,54.0,43.0
455106,County,2020/05/22,56.0,WY,56029.0,Park County,6608.0,22716.0,121486.0,32661.0,23503.0,13782.0,12357.0,20843.0,8792.0,8338.0,1142.0,40.0,28.0
458303,County,2020/05/23,56.0,WY,56029.0,Park County,7351.0,21973.0,108507.0,29899.0,21374.0,15185.0,14738.0,14698.0,6908.0,4410.0,1208.0,28.0,59.0
461471,County,2020/05/24,56.0,WY,56029.0,Park County,7962.0,21362.0,87656.0,20097.0,17303.0,8236.0,11031.0,13656.0,9141.0,5865.0,2140.0,97.0,90.0
464723,County,2020/05/25,56.0,WY,56029.0,Park County,7424.0,21900.0,90475.0,18568.0,18252.0,11526.0,9604.0,12677.0,8874.0,7531.0,3210.0,160.0,73.0
467878,County,2020/05/26,56.0,WY,56029.0,Park County,6687.0,22637.0,109528.0,30139.0,21342.0,14738.0,10411.0,14011.0,9763.0,6442.0,2461.0,102.0,119.0
472647,County,2020/05/27,56.0,WY,56029.0,Park County,7000.0,22324.0,126556.0,41157.0,26397.0,13756.0,12176.0,15130.0,10832.0,5350.0,1596.0,95.0,67.0
475845,County,2020/05/28,56.0,WY,56029.0,Park County,7441.0,21883.0,111461.0,34495.0,23175.0,13261.0,9692.0,14051.0,9792.0,5552.0,1271.0,124.0,48.0
479033,County,2020/05/29,56.0,WY,56029.0,Park County,7764.0,21560.0,106395.0,27128.0,23548.0,17904.0,8759.0,12949.0,10407.0,3943.0,1586.0,153.0,18.0
482233,County,2020/05/30,56.0,WY,56029.0,Park County,8144.0,21180.0,95709.0,24699.0,21632.0,13051.0,8631.0,14514.0,7739.0,3910.0,1298.0,214.0,21.0
485428,County,2020/05/31,56.0,WY,56029.0,Park County,7768.0,21556.0,95181.0,21992.0,18655.0,11811.0,13141.0,10896.0,8667.0,7113.0,2716.0,153.0,37.0
487102,County,2020/06/01,56.0,WY,56029.0,Park County,6892.0,22432.0,120001.0,32730.0,24658.0,16011.0,13319.0,13582.0,8972.0,7598.0,2966.0,150.0,15.0
490246,County,2020/06/02,56.0,WY,56029.0,Park County,7286.0,22038.0,108724.0,30368.0,25183.0,13407.0,10180.0,10191.0,9059.0,7462.0,2710.0,116.0,48.0
495008,County,2020/06/03,56.0,WY,56029.0,Park County,6986.0,22338.0,114450.0,28085.0,24325.0,16517.0,11060.0,16465.0,8490.0,5996.0,3337.0,129.0,46.0
496628,County,2020/06/04,56.0,WY,56029.0,Park County,6643.0,22681.0,108306.0,31171.0,24667.0,12977.0,11609.0,13615.0,7948.0,4038.0,2085.0,152.0,44.0
501402,County,2020/06/05,56.0,WY,56029.0,Park County,6537.0,22787.0,114477.0,33569.0,24639.0,12823.0,9648.0,15854.0,8523.0,6908.0,2274.0,142.0,97.0
502978,County,2020/06/06,56.0,WY,56029.0,Park County,7920.0,21404.0,91708.0,24266.0,17368.0,11675.0,9147.0,12414.0,8399.0,6728.0,1484.0,144.0,83.0
506169,County,2020/06/07,56.0,WY,56029.0,Park County,7514.0,21810.0,92184.0,19378.0,19588.0,9355.0,12850.0,16247.0,7000.0,5235.0,2327.0,137.0,67.0
509391,County,2020/06/08,56.0,WY,56029.0,Park County,6070.0,23254.0,120127.0,29515.0,25490.0,15796.0,12129.0,17284.0,10725.0,5973.0,3028.0,114.0,73.0
514170,County,2020/06/09,56.0,WY,56029.0,Park County,7425.0,21899.0,104103.0,28483.0,22631.0,11021.0,10446.0,12228.0,9135.0,7420.0,2500.0,130.0,109.0
515800,County,2020/06/10,56.0,WY,56029.0,Park County,7635.0,21689.0,117142.0,33366.0,23481.0,12320.0,12156.0,16004.0,10221.0,6830.0,2588.0,108.0,68.0
520534,County,2020/06/11,56.0,WY,56029.0,Park County,7188.0,22136.0,117709.0,30193.0,21306.0,14169.0,10379.0,19024.0,11200.0,8210.0,3062.0,99.0,67.0
523755,County,2020/06/12,56.0,WY,56029.0,Park County,7116.0,22208.0,112712.0,28225.0,21026.0,13395.0,11902.0,17570.0,11285.0,6895.0,2171.0,165.0,78.0
526942,County,2020/06/13,56.0,WY,56029.0,Park County,6839.0,22485.0,109715.0,25735.0,20885.0,12521.0,12311.0,16255.0,12661.0,6493.0,2552.0,237.0,65.0
530147,County,2020/06/14,56.0,WY,56029.0,Park County,8046.0,21278.0,80726.0,17859.0,14679.0,8538.0,8785.0,13401.0,7554.0,6468.0,3244.0,160.0,38.0
533337,County,2020/06/15,56.0,WY,56029.0,Park County,7497.0,21827.0,97348.0,24736.0,17823.0,13516.0,10015.0,13986.0,8480.0,5903.0,2697.0,140.0,52.0
534964,County,2020/06/16,56.0,WY,56029.0,Park County,7422.0,21902.0,96804.0,25316.0,17616.0,10965.0,8573.0,15957.0,8486.0,6999.0,2726.0,121.0,45.0
539725,County,2020/06/17,56.0,WY,56029.0,Park County,7235.0,22089.0,100054.0,28572.0,18824.0,10889.0,9892.0,12354.0,9226.0,7114.0,2985.0,127.0,71.0
542919,County,2020/06/18,56.0,WY,56029.0,Park County,7658.0,21666.0,99085.0,27619.0,18097.0,10504.0,12366.0,13203.0,8572.0,5951.0,2590.0,110.0,73.0
544497,County,2020/06/19,56.0,WY,56029.0,Park County,7637.0,21687.0,107197.0,29689.0,19348.0,12829.0,11327.0,15824.0,9380.0,6273.0,2370.0,72.0,85.0
549307,County,2020/06/20,56.0,WY,56029.0,Park County,7877.0,21447.0,110447.0,33294.0,20089.0,12151.0,10089.0,15744.0,9911.0,6622.0,2407.0,90.0,50.0
552498,County,2020/06/21,56.0,WY,56029.0,Park County,8085.0,21239.0,82167.0,19480.0,13511.0,7509.0,9006.0,13144.0,7957.0,7788.0,3576.0,108.0,88.0
554129,County,2020/06/22,56.0,WY,56029.0,Park County,7054.0,22270.0,95563.0,24173.0,19720.0,9828.0,8920.0,14034.0,8674.0,7154.0,2873.0,124.0,63.0
558890,County,2020/06/23,56.0,WY,56029.0,Park County,6916.0,22408.0,97807.0,21885.0,20455.0,10783.0,8910.0,15814.0,9511.0,7820.0,2441.0,162.0,26.0
562083,County,2020/06/24,56.0,WY,56029.0,Park County,6871.0,22453.0,92559.0,21501.0,18282.0,9810.0,8829.0,14111.0,8803.0,8610.0,2460.0,108.0,45.0
563711,County,2020/06/25,56.0,WY,56029.0,Park County,7403.0,21921.0,91365.0,24217.0,17447.0,10223.0,7281.0,12014.0,9709.0,7341.0,2911.0,141.0,81.0
565363,County,2020/06/26,56.0,WY,56029.0,Park County,6758.0,22566.0,97593.0,27217.0,20636.0,10846.0,7469.0,12745.0,8516.0,6730.0,3181.0,171.0,82.0
570086,County,2020/06/27,56.0,WY,56029.0,Park County,7718.0,21606.0,97989.0,24366.0,17156.0,12602.0,9904.0,13425.0,9376.0,8337.0,2665.0,119.0,39.0
573279,County,2020/06/28,56.0,WY,56029.0,Park County,7874.0,21450.0,86344.0,19139.0,14897.0,10133.0,9278.0,12696.0,7632.0,8956.0,3374.0,183.0,56.0
578052,County,2020/06/29,56.0,WY,56029.0,Park County,7436.0,21888.0,94004.0,19658.0,17379.0,10401.0,8915.0,14919.0,10993.0,8372.0,3186.0,108.0,73.0
579695,County,2020/06/30,56.0,WY,56029.0,Park County,7871.0,21453.0,95181.0,23427.0,18290.0,10636.0,10155.0,15098.0,8589.0,6223.0,2532.0,151.0,80.0
584441,County,2020/07/01,56.0,WY,56029.0,Park County,7000.0,22324.0,93701.0,22318.0,20126.0,10403.0,7321.0,14185.0,9854.0,6331.0,2950.0,167.0,46.0
587634,County,2020/07/02,56.0,WY,56029.0,Park County,7560.0,21764.0,96976.0,25704.0,18518.0,10851.0,7728.0,12752.0,10305.0,7792.0,3090.0,150.0,86.0
590829,County,2020/07/03,56.0,WY,56029.0,Park County,8244.0,21080.0,97044.0,27064.0,20520.0,10785.0,7427.0,12673.0,8468.0,6692.0,3163.0,170.0,82.0
592476,County,2020/07/04,56.0,WY,56029.0,Park County,9036.0,20288.0,83023.0,23154.0,17555.0,9227.0,6354.0,10842.0,7245.0,5725.0,2706.0,145.0,70.0
595668,County,2020/07/05,56.0,WY,56029.0,Park County,8353.0,20971.0,81695.0,20366.0,16102.0,8541.0,7355.0,11967.0,7739.0,6433.0,2832.0,226.0,134.0
600411,County,2020/07/06,56.0,WY,56029.0,Park County,7145.0,22179.0,94560.0,23176.0,18275.0,9136.0,10765.0,14249.0,9107.0,6680.0,2905.0,183.0,84.0
602429,County,2020/07/07,56.0,WY,56029.0,Park County,7494.0,21830.0,94917.0,23043.0,16750.0,10313.0,9511.0,13891.0,10265.0,7518.0,3419.0,145.0,62.0
605132,County,2020/07/08,56.0,WY,56029.0,Park County,7610.0,21714.0,97013.0,26822.0,20944.0,10572.0,8380.0,12757.0,8905.0,5156.0,3217.0,160.0,100.0
608426,County,2020/07/09,56.0,WY,56029.0,Park County,7308.0,22016.0,93732.0,23822.0,19196.0,11315.0,7753.0,12784.0,9293.0,6467.0,2909.0,121.0,72.0
611626,County,2020/07/10,56.0,WY,56029.0,Park County,6894.0,22430.0,95351.0,21910.0,20938.0,10263.0,9330.0,13907.0,9370.0,5940.0,3440.0,155.0,98.0
616374,County,2020/07/11,56.0,WY,56029.0,Park County,7145.0,22179.0,94782.0,23921.0,19172.0,9233.0,9501.0,12283.0,9386.0,7661.0,3367.0,146.0,112.0
618007,County,2020/07/12,56.0,WY,56029.0,Park County,7789.0,21535.0,78783.0,19379.0,13068.0,7897.0,8017.0,11802.0,8486.0,6856.0,2988.0,210.0,80.0
621196,County,2020/07/13,56.0,WY,56029.0,Park County,7072.0,22252.0,83199.0,20550.0,15343.0,8171.0,6938.0,12827.0,9618.0,6549.0,2955.0,161.0,87.0
625962,County,2020/07/14,56.0,WY,56029.0,Park County,7397.0,21927.0,92042.0,22273.0,20995.0,9253.0,9052.0,13483.0,8303.0,5578.0,2989.0,73.0,43.0
627470,County,2020/07/15,56.0,WY,56029.0,Park County,7332.0,21992.0,94236.0,24955.0,19091.0,8775.0,8919.0,12219.0,9860.0,6847.0,3403.0,112.0,55.0
630760,County,2020/07/16,56.0,WY,56029.0,Park County,7617.0,21707.0,93435.0,22187.0,18596.0,8978.0,8686.0,14347.0,8299.0,7731.0,4465.0,121.0,25.0
635545,County,2020/07/17,56.0,WY,56029.0,Park County,7765.0,21559.0,97883.0,23923.0,18451.0,9746.0,9681.0,14354.0,10262.0,7710.0,3615.0,84.0,57.0
637173,County,2020/07/18,56.0,WY,56029.0,Park County,7756.0,21568.0,87681.0,19591.0,16164.0,7720.0,9394.0,15419.0,8798.0,7691.0,2627.0,192.0,85.0
640328,County,2020/07/19,56.0,WY,56029.0,Park County,8067.0,21257.0,86692.0,18278.0,14375.0,10686.0,11497.0,10872.0,9583.0,8220.0,2967.0,144.0,70.0
643561,County,2020/07/20,56.0,WY,56029.0,Park County,7744.0,21580.0,91421.0,20672.0,19705.0,8991.0,7343.0,13809.0,10488.0,6553.0,3666.0,131.0,63.0
647130,County,2020/07/21,56.0,WY,56029.0,Park County,7610.0,21714.0,89420.0,18430.0,17615.0,10652.0,9180.0,14645.0,9593.0,6093.0,3038.0,105.0,69.0
649420,County,2020/07/22,56.0,WY,56029.0,Park County,7737.0,21587.0,90201.0,21104.0,17287.0,11450.0,8957.0,13094.0,9155.0,6449.0,2451.0,105.0,149.0
654709,County,2020/07/23,56.0,WY,56029.0,Park County,7674.0,21650.0,88540.0,19431.0,18483.0,10005.0,10112.0,12961.0,7781.0,6226.0,3354.0,82.0,105.0
656341,County,2020/07/24,56.0,WY,56029.0,Park County,7267.0,22057.0,101471.0,23847.0,19225.0,12097.0,11868.0,13544.0,9828.0,8440.0,2363.0,153.0,106.0
659597,County,2020/07/25,56.0,WY,56029.0,Park County,7898.0,21426.0,87673.0,19414.0,15844.0,9572.0,8387.0,11889.0,10251.0,9072.0,2996.0,183.0,65.0
662725,County,2020/07/26,56.0,WY,56029.0,Park County,7385.0,21939.0,93692.0,20235.0,15079.0,9614.0,11466.0,14217.0,9612.0,9301.0,3897.0,165.0,106.0
664394,County,2020/07/27,56.0,WY,56029.0,Park County,7553.0,21771.0,90948.0,20481.0,18344.0,8529.0,9135.0,14160.0,8941.0,7595.0,3441.0,156.0,166.0
669182,County,2020/07/28,56.0,WY,56029.0,Park County,7430.0,21894.0,102791.0,22746.0,22457.0,10506.0,9691.0,15634.0,11287.0,7852.0,2382.0,118.0,118.0
673873,County,2020/07/29,56.0,WY,56029.0,Park County,7377.0,21947.0,101737.0,21586.0,21263.0,9827.0,11811.0,17228.0,9875.0,7247.0,2635.0,152.0,113.0
675501,County,2020/07/30,56.0,WY,56029.0,Park County,7185.0,22139.0,100511.0,22162.0,19201.0,11014.0,9056.0,18213.0,9702.0,8782.0,2049.0,142.0,190.0
678701,County,2020/07/31,56.0,WY,56029.0,Park County,7911.0,21413.0,89896.0,21056.0,17315.0,8590.0,8244.0,13083.0,11708.0,6340.0,3245.0,190.0,125.0
683448,County,2020/08/01,56.0,WY,56029.0,Park County,8027.0,21297.0,84392.0,18345.0,15521.0,9329.0,7548.0,13947.0,8796.0,8361.0,2207.0,209.0,129.0
685082,County,2020/08/02,56.0,WY,56029.0,Park County,7883.0,21441.0,86971.0,15973.0,15589.0,8498.0,11798.0,14071.0,10152.0,7108.0,3499.0,207.0,76.0
688279,County,2020/08/03,56.0,WY,56029.0,Park County,7465.0,21859.0,96982.0,18412.0,19236.0,11388.0,11179.0,14230.0,9645.0,8883.0,3851.0,113.0,45.0
691471,County,2020/08/04,56.0,WY,56029.0,Park County,7241.0,22083.0,105051.0,25869.0,21027.0,10928.0,10992.0,15025.0,10357.0,8243.0,2470.0,92.0,48.0
696230,County,2020/08/05,56.0,WY,56029.0,Park County,7390.0,21934.0,99564.0,21902.0,21379.0,10459.0,10343.0,13068.0,11859.0,7376.0,2996.0,112.0,70.0
699425,County,2020/08/06,56.0,WY,56029.0,Park County,7321.0,22003.0,93946.0,23000.0,18212.0,9039.0,9015.0,15089.0,9179.0,6864.0,3371.0,134.0,43.0
702621,County,2020/08/07,56.0,WY,56029.0,Park County,7116.0,22208.0,93277.0,24301.0,17683.0,9859.0,7889.0,10934.0,9930.0,8678.0,3873.0,73.0,57.0
705813,County,2020/08/08,56.0,WY,56029.0,Park County,7270.0,22054.0,88812.0,18159.0,17357.0,9950.0,9962.0,15444.0,7891.0,6655.0,3144.0,168.0,82.0
707440,County,2020/08/09,56.0,WY,56029.0,Park County,7336.0,21988.0,96129.0,23711.0,15974.0,8283.0,9401.0,11768.0,10795.0,11097.0,4806.0,180.0,114.0
712201,County,2020/08/10,56.0,WY,56029.0,Park County,7582.0,21742.0,105424.0,24358.0,24115.0,10619.0,8258.0,14555.0,10839.0,8742.0,3688.0,168.0,82.0
713878,County,2020/08/11,56.0,WY,56029.0,Park County,7343.0,21981.0,105454.0,23172.0,20912.0,8921.0,11766.0,15484.0,11600.0,9253.0,4111.0,147.0,88.0
718589,County,2020/08/12,56.0,WY,56029.0,Park County,7471.0,21853.0,101593.0,28647.0,18954.0,8390.0,9351.0,14888.0,9696.0,7800.0,3621.0,114.0,132.0
721783,County,2020/08/13,56.0,WY,56029.0,Park County,6782.0,22542.0,101985.0,23903.0,20456.0,10201.0,10119.0,14961.0,11832.0,6974.0,3189.0,165.0,185.0
723410,County,2020/08/14,56.0,WY,56029.0,Park County,6508.0,22816.0,98192.0,22253.0,17864.0,10866.0,9104.0,15088.0,10788.0,7674.0,4178.0,204.0,173.0
728171,County,2020/08/15,56.0,WY,56029.0,Park County,7256.0,22068.0,91856.0,17826.0,17977.0,10406.0,9375.0,13754.0,9765.0,7834.0,4549.0,194.0,176.0
731365,County,2020/08/16,56.0,WY,56029.0,Park County,7645.0,21679.0,81956.0,17051.0,15295.0,8302.0,7214.0,10343.0,10302.0,8435.0,4508.0,258.0,248.0
732994,County,2020/08/17,56.0,WY,56029.0,Park County,7849.0,21475.0,90990.0,20615.0,19107.0,9808.0,10264.0,9973.0,10384.0,7267.0,3116.0,206.0,250.0
737752,County,2020/08/18,56.0,WY,56029.0,Park County,7344.0,21980.0,95439.0,22088.0,19711.0,9923.0,9620.0,13665.0,9192.0,8216.0,2571.0,200.0,253.0
740947,County,2020/08/19,56.0,WY,56029.0,Park County,7330.0,21994.0,97521.0,20639.0,22869.0,11620.0,8145.0,14897.0,8624.0,7315.0,3029.0,207.0,176.0
744146,County,2020/08/20,56.0,WY,56029.0,Park County,6973.0,22351.0,99764.0,21866.0,22826.0,10492.0,10133.0,13433.0,10111.0,7057.0,3465.0,205.0,176.0
745776,County,2020/08/21,56.0,WY,56029.0,Park County,6841.0,22483.0,99891.0,23539.0,21831.0,12407.0,7627.0,15401.0,8916.0,6709.0,3085.0,159.0,217.0
748980,County,2020/08/22,56.0,WY,56029.0,Park County,7389.0,21935.0,95396.0,22379.0,20067.0,11915.0,8710.0,13634.0,8490.0,7374.0,2390.0,160.0,277.0
752174,County,2020/08/23,56.0,WY,56029.0,Park County,7831.0,21493.0,75457.0,15714.0,14570.0,7260.0,8505.0,9787.0,7853.0,8258.0,3144.0,144.0,222.0
756917,County,2020/08/24,56.0,WY,56029.0,Park County,7921.0,21403.0,88036.0,20558.0,17851.0,8163.0,9590.0,11858.0,11319.0,6231.0,2106.0,160.0,200.0
758546,County,2020/08/25,56.0,WY,56029.0,Park County,7698.0,21626.0,90035.0,21956.0,20869.0,8571.0,9896.0,10576.0,8607.0,6726.0,2520.0,135.0,179.0
761690,County,2020/08/26,56.0,WY,56029.0,Park County,7751.0,21573.0,93715.0,22856.0,20523.0,8536.0,8374.0,13580.0,10535.0,6877.0,2122.0,155.0,157.0
764897,County,2020/08/27,56.0,WY,56029.0,Park County,7464.0,21860.0,95688.0,23188.0,18958.0,11098.0,8631.0,12960.0,9378.0,8278.0,2873.0,141.0,183.0
768103,County,2020/08/28,56.0,WY,56029.0,Park County,7745.0,21579.0,89290.0,21229.0,19622.0,9312.0,9538.0,10503.0,9528.0,6466.0,2747.0,183.0,162.0
772880,County,2020/08/29,56.0,WY,56029.0,Park County,8340.0,20984.0,87811.0,20162.0,16045.0,10310.0,10335.0,11731.0,9254.0,6176.0,3447.0,181.0,170.0
776081,County,2020/08/30,56.0,WY,56029.0,Park County,8870.0,20454.0,74553.0,17165.0,17011.0,7570.0,7018.0,10407.0,6871.0,5201.0,2965.0,183.0,162.0
779275,County,2020/08/31,56.0,WY,56029.0,Park County,8142.0,21182.0,85782.0,20042.0,19777.0,8932.0,8887.0,10675.0,8191.0,5701.0,3246.0,167.0,164.0
782469,County,2020/09/01,56.0,WY,56029.0,Park County,7773.0,21551.0,93610.0,21587.0,20708.0,9331.0,8698.0,14979.0,9488.0,6277.0,2341.0,78.0,123.0
785663,County,2020/09/02,56.0,WY,56029.0,Park County,8098.0,21226.0,98395.0,25927.0,22857.0,9603.0,8386.0,13302.0,9102.0,6640.0,2344.0,107.0,127.0
787224,County,2020/09/03,56.0,WY,56029.0,Park County,7339.0,21985.0,103747.0,27511.0,23394.0,11448.0,8283.0,13736.0,10155.0,6476.0,2469.0,111.0,164.0
792051,County,2020/09/04,56.0,WY,56029.0,Park County,8010.0,21314.0,87994.0,18386.0,18785.0,7605.0,7048.0,14715.0,11383.0,6747.0,3007.0,161.0,157.0
795247,County,2020/09/05,56.0,WY,56029.0,Park County,8334.0,20990.0,84829.0,19840.0,15598.0,8738.0,8268.0,15272.0,7050.0,6747.0,2945.0,152.0,219.0
796844,County,2020/09/06,56.0,WY,56029.0,Park County,9340.0,19984.0,75006.0,21357.0,13654.0,6333.0,6959.0,9372.0,9470.0,5733.0,1776.0,165.0,187.0
800061,County,2020/09/07,56.0,WY,56029.0,Park County,9353.0,19971.0,62214.0,12526.0,13050.0,8144.0,6348.0,8474.0,6258.0,4566.0,2517.0,142.0,189.0
804827,County,2020/09/08,56.0,WY,56029.0,Park County,8422.0,20902.0,92435.0,22853.0,20162.0,11060.0,7595.0,13116.0,7938.0,6721.0,2707.0,148.0,135.0
806456,County,2020/09/09,56.0,WY,56029.0,Park County,7972.0,21352.0,96394.0,24027.0,21582.0,8327.0,8403.0,13739.0,9962.0,7139.0,2916.0,154.0,145.0
809648,County,2020/09/10,56.0,WY,56029.0,Park County,7818.0,21506.0,93254.0,21235.0,20428.0,9763.0,7336.0,15144.0,9638.0,6838.0,2573.0,135.0,164.0
814409,County,2020/09/11,56.0,WY,56029.0,Park County,7852.0,21472.0,99931.0,24819.0,21820.0,9624.0,8893.0,13087.0,9874.0,7623.0,3872.0,174.0,145.0
817603,County,2020/09/12,56.0,WY,56029.0,Park County,8826.0,20498.0,83231.0,19709.0,15286.0,9721.0,7813.0,11286.0,8128.0,7954.0,2954.0,195.0,185.0
819210,County,2020/09/13,56.0,WY,56029.0,Park County,8895.0,20429.0,76582.0,14439.0,14252.0,7253.0,9767.0,12357.0,9207.0,7375.0,1639.0,152.0,141.0
823992,County,2020/09/14,56.0,WY,56029.0,Park County,7979.0,21345.0,92845.0,20691.0,21472.0,8108.0,9627.0,13034.0,10368.0,6470.0,2748.0,157.0,170.0
827185,County,2020/09/15,56.0,WY,56029.0,Park County,7853.0,21471.0,99249.0,22670.0,19819.0,9693.0,10569.0,15604.0,11949.0,5850.0,2848.0,122.0,125.0
830379,County,2020/09/16,56.0,WY,56029.0,Park County,8104.0,21220.0,101199.0,24385.0,21579.0,8652.0,10315.0,14175.0,11354.0,8039.0,2375.0,158.0,167.0
832006,County,2020/09/17,56.0,WY,56029.0,Park County,7951.0,21373.0,92650.0,20477.0,20936.0,8503.0,9164.0,13444.0,10074.0,7166.0,2643.0,122.0,121.0
836767,County,2020/09/18,56.0,WY,56029.0,Park County,7648.0,21676.0,99456.0,22172.0,23025.0,8911.0,9408.0,14802.0,10262.0,7451.0,3121.0,139.0,165.0
838396,County,2020/09/19,56.0,WY,56029.0,Park County,7802.0,21522.0,87150.0,19648.0,18689.0,9186.0,10629.0,12658.0,7153.0,5967.0,2862.0,224.0,134.0
841590,County,2020/09/20,56.0,WY,56029.0,Park County,8451.0,20873.0,85617.0,19267.0,14852.0,7545.0,8762.0,12853.0,10143.0,8398.0,3523.0,157.0,117.0
844799,County,2020/09/21,56.0,WY,56029.0,Park County,9121.0,20203.0,90253.0,24586.0,17493.0,8053.0,8011.0,12029.0,10090.0,7322.0,2472.0,129.0,68.0
849543,County,2020/09/22,56.0,WY,56029.0,Park County,8437.0,20887.0,94045.0,24935.0,19961.0,9100.0,9268.0,10826.0,10399.0,5875.0,3509.0,90.0,82.0
851171,County,2020/09/23,56.0,WY,56029.0,Park County,8128.0,21196.0,96748.0,26213.0,21248.0,10786.0,8478.0,12161.0,9594.0,5687.0,2459.0,100.0,22.0
855937,County,2020/09/24,56.0,WY,56029.0,Park County,8210.0,21114.0,95558.0,24088.0,20369.0,9984.0,9752.0,12237.0,8735.0,6608.0,3641.0,79.0,65.0
859125,County,2020/09/25,56.0,WY,56029.0,Park County,7673.0,21651.0,92925.0,26935.0,18315.0,7950.0,6544.0,13264.0,10238.0,5744.0,3687.0,169.0,79.0
862319,County,2020/09/26,56.0,WY,56029.0,Park County,8410.0,20914.0,88125.0,25119.0,17940.0,5939.0,8533.0,12277.0,8153.0,6479.0,3463.0,137.0,85.0
863924,County,2020/09/27,56.0,WY,56029.0,Park County,9125.0,20199.0,76855.0,15676.0,16257.0,7084.0,6191.0,11215.0,9296.0,7347.0,3576.0,139.0,74.0
868707,County,2020/09/28,56.0,WY,56029.0,Park County,7929.0,21395.0,96789.0,25097.0,22668.0,8231.0,6295.0,12781.0,11776.0,6528.0,3226.0,130.0,57.0
870335,County,2020/09/29,56.0,WY,56029.0,Park County,8280.0,21044.0,91738.0,22910.0,22029.0,8532.0,6934.0,10792.0,11104.0,7191.0,2138.0,77.0,31.0
873529,County,2020/09/30,56.0,WY,56029.0,Park County,8412.0,20912.0,92408.0,22295.0,19596.0,7770.0,9116.0,14021.0,10728.0,6548.0,2221.0,67.0,46.0
876693,County,2020/10/01,56.0,WY,56029.0,Park County,7822.0,21502.0,94203.0,25420.0,19123.0,10588.0,6996.0,12726.0,9168.0,7812.0,2192.0,125.0,53.0
881483,County,2020/10/02,56.0,WY,56029.0,Park County,7725.0,21599.0,87236.0,19213.0,21007.0,9065.0,8784.0,11229.0,9548.0,5934.0,2286.0,116.0,54.0
884678,County,2020/10/03,56.0,WY,56029.0,Park County,9073.0,20251.0,84997.0,18317.0,16412.0,6558.0,10178.0,11614.0,10989.0,7609.0,3176.0,88.0,56.0
887807,County,2020/10/04,56.0,WY,56029.0,Park County,9187.0,20137.0,71310.0,15151.0,14215.0,5532.0,7244.0,12087.0,7497.0,6425.0,3028.0,87.0,44.0
891057,County,2020/10/05,56.0,WY,56029.0,Park County,9547.0,19777.0,90886.0,22038.0,22877.0,7406.0,7968.0,12227.0,8639.0,8266.0,1382.0,51.0,32.0
894235,County,2020/10/06,56.0,WY,56029.0,Park County,8840.0,20484.0,95782.0,22711.0,24613.0,7934.0,7703.0,13654.0,11347.0,6372.0,1381.0,39.0,28.0
897434,County,2020/10/07,56.0,WY,56029.0,Park County,8144.0,21180.0,88290.0,19193.0,23265.0,7664.0,5842.0,13396.0,11110.0,6534.0,1185.0,51.0,50.0
900588,County,2020/10/08,56.0,WY,56029.0,Park County,8682.0,20642.0,85252.0,16500.0,21519.0,9051.0,9369.0,11656.0,9165.0,6264.0,1652.0,37.0,39.0
903836,County,2020/10/09,56.0,WY,56029.0,Park County,8260.0,21064.0,89357.0,23175.0,18676.0,9419.0,7439.0,12303.0,11191.0,5426.0,1613.0,85.0,30.0
906976,County,2020/10/10,56.0,WY,56029.0,Park County,8938.0,20386.0,77177.0,18775.0,18603.0,9321.0,6445.0,8604.0,7650.0,5546.0,2086.0,104.0,43.0
907640,County,2020/10/11,56.0,WY,56029.0,Park County,10197.0,19127.0,66105.0,13398.0,13829.0,6915.0,7367.0,9431.0,8426.0,4436.0,2165.0,100.0,38.0
910612,County,2020/10/12,56.0,WY,56029.0,Park County,9053.0,20271.0,82208.0,19370.0,22324.0,7978.0,7644.0,9032.0,8681.0,5247.0,1847.0,56.0,29.0
914309,County,2020/10/13,56.0,WY,56029.0,Park County,8849.0,20475.0,93292.0,23841.0,20722.0,10734.0,7539.0,11721.0,9925.0,7283.0,1416.0,75.0,36.0
916750,County,2020/10/14,56.0,WY,56029.0,Park County,8389.0,20935.0,86108.0,21745.0,20065.0,8804.0,6340.0,11804.0,9611.0,6380.0,1251.0,62.0,46.0
920287,County,2020/10/15,56.0,WY,56029.0,Park County,8983.0,20341.0,72945.0,13739.0,19935.0,7075.0,6102.0,10335.0,9886.0,4267.0,1495.0,65.0,46.0
923139,County,2020/10/16,56.0,WY,56029.0,Park County,8278.0,21046.0,84040.0,19048.0,20908.0,8469.0,8138.0,10610.0,9003.0,5669.0,2042.0,97.0,56.0
926701,County,2020/10/17,56.0,WY,56029.0,Park County,9023.0,20301.0,79371.0,19348.0,18341.0,9080.0,8556.0,9191.0,7201.0,5697.0,1820.0,103.0,34.0
929870,County,2020/10/18,56.0,WY,56029.0,Park County,10060.0,19264.0,65379.0,13554.0,15596.0,5657.0,5955.0,8837.0,6599.0,7262.0,1803.0,81.0,35.0
932756,County,2020/10/19,56.0,WY,56029.0,Park County,9074.0,20250.0,85985.0,21160.0,21706.0,8456.0,7779.0,11170.0,7412.0,6833.0,1357.0,78.0,34.0
936185,County,2020/10/20,56.0,WY,56029.0,Park County,9182.0,20142.0,85882.0,20822.0,22736.0,7501.0,7522.0,12184.0,8786.0,4948.0,1274.0,82.0,27.0
939107,County,2020/10/21,56.0,WY,56029.0,Park County,9604.0,19720.0,86114.0,21722.0,22202.0,7130.0,7090.0,11668.0,10134.0,5016.0,1064.0,60.0,28.0
942311,County,2020/10/22,56.0,WY,56029.0,Park County,8901.0,20423.0,82939.0,22293.0,22171.0,8892.0,7002.0,10757.0,6895.0,3535.0,1274.0,79.0,41.0
945860,County,2020/10/23,56.0,WY,56029.0,Park County,8079.0,21245.0,89322.0,22156.0,21587.0,9618.0,8709.0,11896.0,8731.0,5404.0,1092.0,96.0,33.0
948886,County,2020/10/24,56.0,WY,56029.0,Park County,9994.0,19330.0,72237.0,15888.0,18767.0,9537.0,10052.0,7052.0,5238.0,4576.0,990.0,115.0,22.0
