,Level,Date,State FIPS,State Postal Code,County FIPS,County Name,Population Staying at Home,Population Not Staying at Home,Number of Trips,Number of Trips <1,Number of Trips 1-3,Number of Trips 3-5,Number of Trips 5-10,Number of Trips 10-25,Number of Trips 25-50,Number of Trips 50-100,Number of Trips 100-250,Number of Trips 250-500,Number of Trips >=500
2734,County,2020/01/01,48.0,TX,48425.0,Somervell County,2276.0,6740.0,18196.0,4870.0,2607.0,2036.0,3423.0,2811.0,1171.0,1071.0,161.0,46.0,0.0
4291,County,2020/01/02,48.0,TX,48425.0,Somervell County,1964.0,7052.0,23980.0,4770.0,4243.0,3468.0,4217.0,3486.0,2327.0,1075.0,377.0,13.0,4.0
6740,County,2020/01/03,48.0,TX,48425.0,Somervell County,1757.0,7259.0,26478.0,5435.0,4428.0,3224.0,5316.0,4532.0,2096.0,1084.0,346.0,13.0,4.0
11330,County,2020/01/04,48.0,TX,48425.0,Somervell County,1916.0,7100.0,25441.0,5185.0,5115.0,3210.0,3214.0,4487.0,2858.0,1103.0,218.0,42.0,9.0
15510,County,2020/01/05,48.0,TX,48425.0,Somervell County,2101.0,6915.0,21739.0,6236.0,3669.0,2667.0,3866.0,3032.0,1454.0,570.0,188.0,57.0,0.0
17381,County,2020/01/06,48.0,TX,48425.0,Somervell County,1898.0,7118.0,28114.0,8092.0,5143.0,2390.0,4164.0,4589.0,2166.0,1339.0,206.0,13.0,12.0
22094,County,2020/01/07,48.0,TX,48425.0,Somervell County,1876.0,7140.0,25904.0,5128.0,3892.0,3301.0,5264.0,4404.0,2573.0,1334.0,0.0,0.0,8.0
25288,County,2020/01/08,48.0,TX,48425.0,Somervell County,1822.0,7194.0,25053.0,5290.0,5402.0,2862.0,4586.0,3792.0,1956.0,1033.0,99.0,25.0,8.0
26915,County,2020/01/09,48.0,TX,48425.0,Somervell County,1659.0,7357.0,24589.0,4662.0,4209.0,2859.0,5235.0,4063.0,2266.0,1089.0,91.0,115.0,0.0
30111,County,2020/01/10,48.0,TX,48425.0,Somervell County,1626.0,7390.0,24808.0,5758.0,4926.0,3097.0,3634.0,4011.0,2375.0,896.0,99.0,9.0,3.0
34919,County,2020/01/11,48.0,TX,48425.0,Somervell County,2031.0,6985.0,23486.0,5739.0,4055.0,3379.0,3632.0,3492.0,2434.0,646.0,97.0,12.0,0.0
36509,County,2020/01/12,48.0,TX,48425.0,Somervell County,2377.0,6639.0,22550.0,5249.0,4566.0,3322.0,4663.0,2818.0,1346.0,452.0,119.0,15.0,0.0
39750,County,2020/01/13,48.0,TX,48425.0,Somervell County,1902.0,7114.0,24792.0,6618.0,4766.0,2006.0,4199.0,3602.0,2589.0,912.0,93.0,0.0,7.0
42913,County,2020/01/14,48.0,TX,48425.0,Somervell County,1890.0,7126.0,26247.0,6516.0,4468.0,2887.0,4240.0,3953.0,2509.0,1533.0,122.0,12.0,7.0
46065,County,2020/01/15,48.0,TX,48425.0,Somervell County,1931.0,7085.0,26241.0,6368.0,4919.0,2913.0,4946.0,3605.0,2090.0,1017.0,327.0,45.0,11.0
50846,County,2020/01/16,48.0,TX,48425.0,Somervell County,1573.0,7443.0,23579.0,6250.0,4825.0,1699.0,3703.0,3386.0,2420.0,1021.0,231.0,29.0,15.0
52473,County,2020/01/17,48.0,TX,48425.0,Somervell County,1735.0,7281.0,24444.0,5635.0,4719.0,2839.0,4074.0,3912.0,2350.0,732.0,143.0,33.0,7.0
55658,County,2020/01/18,48.0,TX,48425.0,Somervell County,1934.0,7082.0,24782.0,5959.0,3750.0,3176.0,5054.0,3615.0,2284.0,806.0,126.0,12.0,0.0
58855,County,2020/01/19,48.0,TX,48425.0,Somervell County,1920.0,7096.0,22849.0,4966.0,4465.0,2502.0,4237.0,3607.0,2111.0,511.0,349.0,97.0,4.0
63616,County,2020/01/20,48.0,TX,48425.0,Somervell County,2065.0,6951.0,23729.0,5437.0,3985.0,2020.0,4183.0,3989.0,2582.0,1099.0,396.0,23.0,15.0
66814,County,2020/01/21,48.0,TX,48425.0,Somervell County,1757.0,7259.0,25761.0,6359.0,3875.0,3788.0,4286.0,3893.0,2187.0,1228.0,81.0,51.0,13.0
68445,County,2020/01/22,48.0,TX,48425.0,Somervell County,1672.0,7344.0,25021.0,4955.0,4771.0,3172.0,4681.0,3741.0,2150.0,1244.0,204.0,100.0,3.0
71630,County,2020/01/23,48.0,TX,48425.0,Somervell County,1755.0,7261.0,25379.0,6492.0,5444.0,2418.0,4075.0,3544.0,2124.0,978.0,223.0,74.0,7.0
76392,County,2020/01/24,48.0,TX,48425.0,Somervell County,1830.0,7186.0,29045.0,6993.0,5056.0,3517.0,5349.0,4089.0,2627.0,1224.0,176.0,11.0,3.0
79579,County,2020/01/25,48.0,TX,48425.0,Somervell County,1955.0,7061.0,26755.0,6368.0,4908.0,2477.0,4501.0,4931.0,2197.0,934.0,400.0,35.0,4.0
82584,County,2020/01/26,48.0,TX,48425.0,Somervell County,2011.0,7005.0,21980.0,4808.0,4664.0,2442.0,3835.0,3266.0,2167.0,605.0,182.0,0.0,11.0
85991,County,2020/01/27,48.0,TX,48425.0,Somervell County,1852.0,7164.0,25329.0,6127.0,4284.0,2899.0,3990.0,4037.0,2513.0,1212.0,213.0,51.0,3.0
87664,County,2020/01/28,48.0,TX,48425.0,Somervell County,1892.0,7124.0,22249.0,5015.0,3882.0,2153.0,4058.0,3632.0,2202.0,1015.0,241.0,41.0,10.0
92349,County,2020/01/29,48.0,TX,48425.0,Somervell County,1727.0,7289.0,24976.0,6183.0,4037.0,3025.0,3983.0,4592.0,1843.0,897.0,367.0,40.0,9.0
94123,County,2020/01/30,48.0,TX,48425.0,Somervell County,1874.0,7142.0,23123.0,4061.0,4570.0,2408.0,4436.0,3606.0,2535.0,1300.0,103.0,98.0,6.0
97178,County,2020/01/31,48.0,TX,48425.0,Somervell County,1538.0,7478.0,26915.0,5500.0,5368.0,3119.0,4701.0,3921.0,2743.0,1098.0,361.0,101.0,3.0
101937,County,2020/02/01,48.0,TX,48425.0,Somervell County,1777.0,7239.0,24352.0,5179.0,4896.0,3143.0,4118.0,3302.0,2284.0,870.0,498.0,40.0,22.0
105138,County,2020/02/02,48.0,TX,48425.0,Somervell County,1961.0,7055.0,23952.0,6106.0,4133.0,2858.0,4810.0,3453.0,1676.0,632.0,213.0,61.0,10.0
106764,County,2020/02/03,48.0,TX,48425.0,Somervell County,1572.0,7444.0,29289.0,7313.0,5228.0,3459.0,5303.0,3982.0,2421.0,1272.0,191.0,97.0,23.0
111526,County,2020/02/04,48.0,TX,48425.0,Somervell County,1780.0,7236.0,28553.0,6472.0,4904.0,3455.0,5117.0,4332.0,2598.0,1405.0,172.0,90.0,8.0
114729,County,2020/02/05,48.0,TX,48425.0,Somervell County,1763.0,7253.0,24630.0,5034.0,4439.0,3410.0,4409.0,3858.0,2014.0,1107.0,302.0,49.0,8.0
117887,County,2020/02/06,48.0,TX,48425.0,Somervell County,1491.0,7525.0,29240.0,6410.0,5276.0,2849.0,6112.0,4566.0,2433.0,1285.0,225.0,55.0,29.0
119514,County,2020/02/07,48.0,TX,48425.0,Somervell County,1583.0,7433.0,29882.0,5850.0,6532.0,3453.0,5947.0,3846.0,2314.0,1492.0,361.0,57.0,30.0
124302,County,2020/02/08,48.0,TX,48425.0,Somervell County,1674.0,7342.0,27523.0,5894.0,5486.0,3602.0,5470.0,3809.0,2246.0,830.0,149.0,32.0,5.0
126750,County,2020/02/09,48.0,TX,48425.0,Somervell County,2163.0,6853.0,23181.0,4435.0,3813.0,3261.0,4754.0,3460.0,1948.0,784.0,500.0,182.0,44.0
127900,County,2020/02/10,48.0,TX,48425.0,Somervell County,1491.0,7525.0,29972.0,6152.0,5469.0,3820.0,5342.0,4479.0,2929.0,1531.0,207.0,23.0,20.0
132808,County,2020/02/11,48.0,TX,48425.0,Somervell County,1692.0,7324.0,29385.0,6996.0,5479.0,3747.0,5648.0,3909.0,2184.0,1019.0,297.0,95.0,11.0
134411,County,2020/02/12,48.0,TX,48425.0,Somervell County,1580.0,7436.0,30248.0,5961.0,5427.0,3330.0,6782.0,4620.0,2810.0,841.0,379.0,73.0,25.0
138742,County,2020/02/13,48.0,TX,48425.0,Somervell County,1405.0,7611.0,31132.0,6034.0,5700.0,4081.0,6057.0,4129.0,3131.0,1311.0,591.0,75.0,23.0
141801,County,2020/02/14,48.0,TX,48425.0,Somervell County,1354.0,7662.0,33994.0,7048.0,6808.0,4219.0,5221.0,5823.0,2921.0,1568.0,304.0,58.0,24.0
145098,County,2020/02/15,48.0,TX,48425.0,Somervell County,1566.0,7450.0,30856.0,6837.0,5301.0,4454.0,5544.0,4907.0,2398.0,987.0,322.0,94.0,12.0
148286,County,2020/02/16,48.0,TX,48425.0,Somervell County,1813.0,7203.0,29595.0,6364.0,4600.0,3850.0,7388.0,4040.0,2122.0,964.0,178.0,77.0,12.0
153048,County,2020/02/17,48.0,TX,48425.0,Somervell County,2023.0,6993.0,25926.0,5030.0,5097.0,2932.0,5376.0,3719.0,2530.0,902.0,296.0,32.0,12.0
154625,County,2020/02/18,48.0,TX,48425.0,Somervell County,1572.0,7444.0,29425.0,6078.0,5498.0,3850.0,5269.0,4330.0,2807.0,1203.0,310.0,54.0,26.0
159435,County,2020/02/19,48.0,TX,48425.0,Somervell County,1589.0,7427.0,29513.0,6088.0,5787.0,3318.0,5169.0,5142.0,2514.0,1178.0,279.0,29.0,9.0
160931,County,2020/02/20,48.0,TX,48425.0,Somervell County,1516.0,7500.0,31856.0,7300.0,6638.0,3766.0,5135.0,4439.0,2949.0,1301.0,253.0,48.0,27.0
164258,County,2020/02/21,48.0,TX,48425.0,Somervell County,1495.0,7521.0,32545.0,7061.0,6583.0,3187.0,5916.0,5092.0,2952.0,1355.0,345.0,37.0,17.0
167402,County,2020/02/22,48.0,TX,48425.0,Somervell County,1564.0,7452.0,29345.0,5110.0,5284.0,3781.0,5585.0,5009.0,2866.0,952.0,612.0,106.0,40.0
172217,County,2020/02/23,48.0,TX,48425.0,Somervell County,1786.0,7230.0,25738.0,5473.0,4524.0,4148.0,5164.0,3675.0,1783.0,466.0,375.0,99.0,31.0
173843,County,2020/02/24,48.0,TX,48425.0,Somervell County,1680.0,7336.0,33343.0,6972.0,6864.0,3687.0,6376.0,4826.0,2828.0,1404.0,363.0,20.0,3.0
178405,County,2020/02/25,48.0,TX,48425.0,Somervell County,1476.0,7540.0,33995.0,6172.0,6191.0,4700.0,7208.0,5386.0,3375.0,721.0,190.0,48.0,4.0
181598,County,2020/02/26,48.0,TX,48425.0,Somervell County,1476.0,7540.0,31334.0,4897.0,7157.0,5307.0,4611.0,6170.0,2337.0,591.0,249.0,0.0,15.0
182819,County,2020/02/27,48.0,TX,48425.0,Somervell County,1470.0,7546.0,33548.0,7297.0,6362.0,4392.0,6900.0,4333.0,2725.0,1225.0,228.0,77.0,9.0
186758,County,2020/02/28,48.0,TX,48425.0,Somervell County,1509.0,7507.0,35037.0,7757.0,7219.0,3899.0,6366.0,5534.0,2756.0,1080.0,333.0,74.0,19.0
189762,County,2020/02/29,48.0,TX,48425.0,Somervell County,1487.0,7529.0,33662.0,6744.0,5796.0,5074.0,6441.0,5507.0,2759.0,943.0,321.0,67.0,10.0
193001,County,2020/03/01,48.0,TX,48425.0,Somervell County,1771.0,7245.0,26509.0,5855.0,4479.0,3620.0,4992.0,4855.0,1601.0,558.0,441.0,101.0,7.0
196223,County,2020/03/02,48.0,TX,48425.0,Somervell County,1552.0,7464.0,29453.0,6028.0,5856.0,4357.0,4927.0,4624.0,2666.0,811.0,131.0,38.0,15.0
201075,County,2020/03/03,48.0,TX,48425.0,Somervell County,1475.0,7541.0,31042.0,6640.0,6283.0,3911.0,5396.0,4591.0,2911.0,899.0,328.0,70.0,13.0
201708,County,2020/03/04,48.0,TX,48425.0,Somervell County,1490.0,7526.0,30939.0,7091.0,6640.0,3587.0,4857.0,5004.0,2293.0,971.0,417.0,43.0,36.0
205729,County,2020/03/05,48.0,TX,48425.0,Somervell County,1479.0,7537.0,31126.0,6081.0,6251.0,3464.0,6370.0,4602.0,3036.0,930.0,353.0,30.0,9.0
208848,County,2020/03/06,48.0,TX,48425.0,Somervell County,1406.0,7610.0,35240.0,6955.0,8612.0,3884.0,6094.0,5777.0,2546.0,980.0,357.0,30.0,5.0
212197,County,2020/03/07,48.0,TX,48425.0,Somervell County,1482.0,7534.0,32474.0,5386.0,6020.0,4588.0,7257.0,4498.0,3157.0,1054.0,385.0,114.0,15.0
216924,County,2020/03/08,48.0,TX,48425.0,Somervell County,1774.0,7242.0,24000.0,4821.0,4251.0,3233.0,5096.0,3173.0,1928.0,906.0,546.0,35.0,11.0
218564,County,2020/03/09,48.0,TX,48425.0,Somervell County,1477.0,7539.0,28981.0,6141.0,6281.0,3119.0,5560.0,4231.0,2484.0,794.0,304.0,58.0,9.0
223315,County,2020/03/10,48.0,TX,48425.0,Somervell County,1612.0,7404.0,27650.0,6204.0,5330.0,2927.0,5024.0,4438.0,2293.0,1071.0,322.0,31.0,10.0
224989,County,2020/03/11,48.0,TX,48425.0,Somervell County,1388.0,7628.0,35905.0,7453.0,7669.0,4594.0,5959.0,5578.0,2467.0,1565.0,389.0,185.0,46.0
229637,County,2020/03/12,48.0,TX,48425.0,Somervell County,1453.0,7563.0,30696.0,3958.0,5623.0,5171.0,7232.0,3227.0,3524.0,1210.0,636.0,104.0,11.0
232903,County,2020/03/13,48.0,TX,48425.0,Somervell County,1566.0,7450.0,30886.0,5025.0,5591.0,3878.0,7952.0,4008.0,3099.0,486.0,511.0,312.0,24.0
236106,County,2020/03/14,48.0,TX,48425.0,Somervell County,1751.0,7265.0,31482.0,5975.0,6787.0,3904.0,6703.0,4265.0,1906.0,1281.0,562.0,86.0,13.0
239286,County,2020/03/15,48.0,TX,48425.0,Somervell County,1784.0,7232.0,20737.0,4189.0,4782.0,2656.0,3579.0,2424.0,1766.0,887.0,411.0,29.0,14.0
242479,County,2020/03/16,48.0,TX,48425.0,Somervell County,2046.0,6970.0,29697.0,6921.0,5644.0,3506.0,6377.0,3980.0,2210.0,941.0,79.0,15.0,24.0
244144,County,2020/03/17,48.0,TX,48425.0,Somervell County,1956.0,7060.0,26601.0,5210.0,6522.0,1927.0,5855.0,3779.0,2263.0,615.0,381.0,44.0,5.0
247299,County,2020/03/18,48.0,TX,48425.0,Somervell County,2034.0,6982.0,26890.0,7019.0,4708.0,2706.0,5436.0,3589.0,2167.0,940.0,305.0,15.0,5.0
250506,County,2020/03/19,48.0,TX,48425.0,Somervell County,2189.0,6827.0,27145.0,6826.0,5890.0,2733.0,4978.0,3977.0,1625.0,838.0,247.0,27.0,4.0
255256,County,2020/03/20,48.0,TX,48425.0,Somervell County,2242.0,6774.0,25815.0,5151.0,5873.0,3951.0,3990.0,3557.0,2139.0,874.0,183.0,70.0,27.0
258448,County,2020/03/21,48.0,TX,48425.0,Somervell County,2361.0,6655.0,23020.0,4799.0,4985.0,3247.0,4881.0,2664.0,1318.0,803.0,242.0,61.0,20.0
260070,County,2020/03/22,48.0,TX,48425.0,Somervell County,2435.0,6581.0,15831.0,2855.0,4188.0,2228.0,2385.0,2284.0,1047.0,519.0,273.0,52.0,0.0
264848,County,2020/03/23,48.0,TX,48425.0,Somervell County,2029.0,6987.0,22248.0,4998.0,5101.0,2418.0,4927.0,2514.0,1357.0,709.0,149.0,71.0,4.0
266425,County,2020/03/24,48.0,TX,48425.0,Somervell County,2181.0,6835.0,20774.0,3625.0,4703.0,2450.0,4471.0,3234.0,1371.0,836.0,42.0,32.0,10.0
271226,County,2020/03/25,48.0,TX,48425.0,Somervell County,2116.0,6900.0,23515.0,5647.0,5149.0,2541.0,4871.0,3546.0,1267.0,458.0,0.0,31.0,5.0
272852,County,2020/03/26,48.0,TX,48425.0,Somervell County,2242.0,6774.0,22287.0,4755.0,4023.0,3252.0,4705.0,2996.0,1647.0,701.0,194.0,0.0,14.0
277615,County,2020/03/27,48.0,TX,48425.0,Somervell County,2119.0,6897.0,23620.0,5315.0,4142.0,3504.0,4643.0,2763.0,1886.0,850.0,467.0,45.0,5.0
279242,County,2020/03/28,48.0,TX,48425.0,Somervell County,2244.0,6772.0,18547.0,3303.0,3568.0,2398.0,4217.0,2312.0,1525.0,914.0,296.0,14.0,0.0
282436,County,2020/03/29,48.0,TX,48425.0,Somervell County,2528.0,6488.0,17699.0,3910.0,3751.0,3325.0,3143.0,1961.0,887.0,522.0,183.0,17.0,0.0
287227,County,2020/03/30,48.0,TX,48425.0,Somervell County,2073.0,6943.0,18498.0,3696.0,3448.0,2326.0,3405.0,2767.0,1369.0,1268.0,206.0,13.0,0.0
288825,County,2020/03/31,48.0,TX,48425.0,Somervell County,2146.0,6870.0,20666.0,5153.0,3816.0,2187.0,3684.0,3343.0,1584.0,804.0,77.0,0.0,18.0
292060,County,2020/04/01,48.0,TX,48425.0,Somervell County,2056.0,6960.0,23049.0,6320.0,4776.0,2566.0,3654.0,3270.0,1399.0,1028.0,36.0,0.0,0.0
296793,County,2020/04/02,48.0,TX,48425.0,Somervell County,2243.0,6773.0,20187.0,4051.0,3708.0,2755.0,4249.0,2878.0,1424.0,1008.0,76.0,29.0,9.0
299972,County,2020/04/03,48.0,TX,48425.0,Somervell County,1992.0,7024.0,20319.0,3787.0,4215.0,3031.0,3658.0,3033.0,1353.0,1060.0,174.0,0.0,8.0
301598,County,2020/04/04,48.0,TX,48425.0,Somervell County,2234.0,6782.0,17225.0,3092.0,3495.0,2438.0,3068.0,2787.0,1168.0,916.0,232.0,29.0,0.0
304780,County,2020/04/05,48.0,TX,48425.0,Somervell County,2621.0,6395.0,16952.0,3280.0,3089.0,3053.0,4173.0,1906.0,846.0,459.0,107.0,20.0,19.0
307986,County,2020/04/06,48.0,TX,48425.0,Somervell County,2167.0,6849.0,19583.0,4375.0,3705.0,2798.0,3784.0,3006.0,878.0,956.0,81.0,0.0,0.0
311230,County,2020/04/07,48.0,TX,48425.0,Somervell County,2296.0,6720.0,23785.0,5498.0,4941.0,3435.0,5424.0,2609.0,1001.0,785.0,87.0,0.0,5.0
314376,County,2020/04/08,48.0,TX,48425.0,Somervell County,2201.0,6815.0,22797.0,4742.0,4378.0,3543.0,4562.0,3139.0,1407.0,875.0,120.0,31.0,0.0
317593,County,2020/04/09,48.0,TX,48425.0,Somervell County,2314.0,6702.0,22536.0,4611.0,5220.0,3133.0,4119.0,3617.0,1329.0,481.0,0.0,16.0,10.0
322330,County,2020/04/10,48.0,TX,48425.0,Somervell County,2278.0,6738.0,22260.0,4158.0,4865.0,3043.0,3792.0,2988.0,2438.0,895.0,43.0,33.0,5.0
324005,County,2020/04/11,48.0,TX,48425.0,Somervell County,2148.0,6868.0,19555.0,3405.0,4609.0,2766.0,3704.0,3011.0,1399.0,460.0,149.0,43.0,9.0
327151,County,2020/04/12,48.0,TX,48425.0,Somervell County,2582.0,6434.0,17629.0,4322.0,3491.0,2514.0,3885.0,2144.0,723.0,341.0,159.0,46.0,4.0
331913,County,2020/04/13,48.0,TX,48425.0,Somervell County,2423.0,6593.0,21094.0,2469.0,5457.0,2339.0,5688.0,3172.0,1401.0,440.0,92.0,36.0,0.0
335087,County,2020/04/14,48.0,TX,48425.0,Somervell County,2068.0,6948.0,19818.0,2108.0,4462.0,3046.0,4850.0,3490.0,914.0,716.0,168.0,64.0,0.0
336764,County,2020/04/15,48.0,TX,48425.0,Somervell County,2122.0,6894.0,19627.0,3432.0,4010.0,3376.0,4368.0,2959.0,676.0,529.0,185.0,70.0,22.0
339918,County,2020/04/16,48.0,TX,48425.0,Somervell County,2219.0,6797.0,18131.0,3056.0,5021.0,2674.0,3251.0,1684.0,1922.0,402.0,0.0,121.0,0.0
344697,County,2020/04/17,48.0,TX,48425.0,Somervell County,1912.0,7104.0,19810.0,2286.0,4160.0,3828.0,3674.0,3158.0,1421.0,1039.0,234.0,0.0,10.0
347845,County,2020/04/18,48.0,TX,48425.0,Somervell County,2258.0,6758.0,22972.0,4144.0,5473.0,4587.0,4706.0,1961.0,1092.0,570.0,401.0,38.0,0.0
351076,County,2020/04/19,48.0,TX,48425.0,Somervell County,2483.0,6533.0,16597.0,3681.0,5661.0,2261.0,3019.0,730.0,434.0,453.0,358.0,0.0,0.0
354277,County,2020/04/20,48.0,TX,48425.0,Somervell County,2273.0,6743.0,25594.0,4185.0,7772.0,4044.0,5398.0,2437.0,861.0,541.0,285.0,54.0,17.0
355896,County,2020/04/21,48.0,TX,48425.0,Somervell County,2187.0,6829.0,22133.0,4663.0,5367.0,2879.0,4550.0,2231.0,1472.0,824.0,130.0,17.0,0.0
359140,County,2020/04/22,48.0,TX,48425.0,Somervell County,2118.0,6898.0,20074.0,4072.0,4329.0,2931.0,3726.0,2322.0,1948.0,509.0,206.0,31.0,0.0
362197,County,2020/04/23,48.0,TX,48425.0,Somervell County,2083.0,6933.0,26966.0,6745.0,6619.0,3105.0,4679.0,3463.0,1568.0,637.0,144.0,0.0,6.0
367084,County,2020/04/24,48.0,TX,48425.0,Somervell County,1999.0,7017.0,24450.0,5995.0,4496.0,2537.0,5415.0,3614.0,1788.0,371.0,217.0,17.0,0.0
370240,County,2020/04/25,48.0,TX,48425.0,Somervell County,2149.0,6867.0,24570.0,5658.0,6502.0,2478.0,4503.0,3050.0,1341.0,789.0,231.0,18.0,0.0
373434,County,2020/04/26,48.0,TX,48425.0,Somervell County,2097.0,6919.0,19128.0,3416.0,5137.0,2384.0,3911.0,2957.0,731.0,334.0,252.0,0.0,6.0
376666,County,2020/04/27,48.0,TX,48425.0,Somervell County,2067.0,6949.0,22774.0,4559.0,5115.0,2672.0,4626.0,3452.0,1314.0,906.0,130.0,0.0,0.0
379837,County,2020/04/28,48.0,TX,48425.0,Somervell County,2131.0,6885.0,21082.0,4916.0,4619.0,3201.0,3318.0,2762.0,1158.0,835.0,229.0,44.0,0.0
381464,County,2020/04/29,48.0,TX,48425.0,Somervell County,2196.0,6820.0,23678.0,5415.0,4744.0,3184.0,4223.0,3589.0,1665.0,566.0,275.0,17.0,0.0
386210,County,2020/04/30,48.0,TX,48425.0,Somervell County,1934.0,7082.0,22744.0,4669.0,3624.0,2701.0,6020.0,3471.0,1690.0,513.0,0.0,51.0,5.0
387885,County,2020/05/01,48.0,TX,48425.0,Somervell County,1943.0,7073.0,25556.0,4943.0,6011.0,3053.0,3981.0,4952.0,1470.0,1067.0,45.0,34.0,0.0
391018,County,2020/05/02,48.0,TX,48425.0,Somervell County,2140.0,6876.0,22415.0,5206.0,4650.0,2863.0,5048.0,2459.0,1306.0,558.0,294.0,19.0,12.0
395793,County,2020/05/03,48.0,TX,48425.0,Somervell County,2106.0,6910.0,22189.0,4954.0,5894.0,4287.0,2903.0,2509.0,872.0,421.0,222.0,127.0,0.0
398986,County,2020/05/04,48.0,TX,48425.0,Somervell County,1898.0,7118.0,25579.0,5054.0,5525.0,3655.0,5602.0,3474.0,1269.0,705.0,262.0,33.0,0.0
402161,County,2020/05/05,48.0,TX,48425.0,Somervell County,2016.0,7000.0,22378.0,5159.0,4469.0,3362.0,4385.0,2449.0,1753.0,364.0,383.0,49.0,5.0
403791,County,2020/05/06,48.0,TX,48425.0,Somervell County,1830.0,7186.0,26695.0,5249.0,4601.0,4003.0,6308.0,3204.0,2517.0,631.0,166.0,16.0,0.0
408511,County,2020/05/07,48.0,TX,48425.0,Somervell County,1951.0,7065.0,23717.0,5038.0,5944.0,2807.0,4608.0,3452.0,1123.0,624.0,77.0,44.0,0.0
411773,County,2020/05/08,48.0,TX,48425.0,Somervell County,1945.0,7071.0,27318.0,6090.0,5987.0,3494.0,5174.0,3610.0,1839.0,824.0,217.0,83.0,0.0
413304,County,2020/05/09,48.0,TX,48425.0,Somervell County,2092.0,6924.0,28650.0,6616.0,5302.0,4462.0,6145.0,3224.0,1624.0,773.0,431.0,73.0,0.0
416583,County,2020/05/10,48.0,TX,48425.0,Somervell County,2221.0,6795.0,22577.0,4878.0,4667.0,3706.0,3880.0,3484.0,1452.0,284.0,150.0,76.0,0.0
419825,County,2020/05/11,48.0,TX,48425.0,Somervell County,1573.0,7443.0,24877.0,5701.0,4896.0,2954.0,4160.0,4402.0,1568.0,865.0,264.0,64.0,3.0
424585,County,2020/05/12,48.0,TX,48425.0,Somervell County,1696.0,7320.0,26150.0,5658.0,5057.0,3304.0,4867.0,4523.0,1618.0,930.0,156.0,34.0,3.0
426067,County,2020/05/13,48.0,TX,48425.0,Somervell County,1722.0,7294.0,26612.0,6795.0,5366.0,3294.0,4566.0,3745.0,1797.0,770.0,232.0,44.0,3.0
430926,County,2020/05/14,48.0,TX,48425.0,Somervell County,1631.0,7385.0,28033.0,6545.0,5197.0,4291.0,5136.0,4211.0,1570.0,923.0,125.0,29.0,6.0
432554,County,2020/05/15,48.0,TX,48425.0,Somervell County,1551.0,7465.0,24300.0,5415.0,4176.0,2772.0,4857.0,3475.0,2126.0,1194.0,260.0,25.0,0.0
437303,County,2020/05/16,48.0,TX,48425.0,Somervell County,2054.0,6962.0,21604.0,3501.0,4398.0,3457.0,4717.0,3229.0,1598.0,613.0,56.0,32.0,3.0
438931,County,2020/05/17,48.0,TX,48425.0,Somervell County,1737.0,7279.0,25481.0,5713.0,4772.0,3462.0,4527.0,4139.0,1896.0,416.0,501.0,48.0,7.0
442224,County,2020/05/18,48.0,TX,48425.0,Somervell County,1392.0,7624.0,35568.0,10091.0,7058.0,4124.0,6512.0,4602.0,2214.0,843.0,104.0,20.0,0.0
445330,County,2020/05/19,48.0,TX,48425.0,Somervell County,1483.0,7533.0,30019.0,6728.0,6189.0,5035.0,6146.0,3642.0,1416.0,757.0,106.0,0.0,0.0
450090,County,2020/05/20,48.0,TX,48425.0,Somervell County,1691.0,7325.0,36605.0,9284.0,8173.0,5712.0,6952.0,4076.0,1808.0,600.0,0.0,0.0,0.0
452981,County,2020/05/21,48.0,TX,48425.0,Somervell County,1515.0,7501.0,29870.0,7267.0,5935.0,4429.0,5834.0,3822.0,1795.0,603.0,159.0,20.0,6.0
454903,County,2020/05/22,48.0,TX,48425.0,Somervell County,1548.0,7468.0,31755.0,8139.0,6432.0,4003.0,6198.0,4319.0,1686.0,661.0,298.0,19.0,0.0
459687,County,2020/05/23,48.0,TX,48425.0,Somervell County,1727.0,7289.0,24561.0,5239.0,4340.0,3354.0,6464.0,3078.0,1151.0,531.0,391.0,0.0,13.0
461268,County,2020/05/24,48.0,TX,48425.0,Somervell County,1679.0,7337.0,23789.0,4669.0,5561.0,3149.0,3931.0,3994.0,1561.0,708.0,201.0,8.0,7.0
466144,County,2020/05/25,48.0,TX,48425.0,Somervell County,2023.0,6993.0,22392.0,3694.0,5241.0,2648.0,3733.0,3867.0,1854.0,923.0,413.0,19.0,0.0
467674,County,2020/05/26,48.0,TX,48425.0,Somervell County,1479.0,7537.0,27791.0,6572.0,5764.0,3166.0,4499.0,4210.0,2632.0,681.0,232.0,32.0,3.0
472492,County,2020/05/27,48.0,TX,48425.0,Somervell County,1559.0,7457.0,26187.0,5920.0,4457.0,3310.0,5208.0,3874.0,2247.0,953.0,218.0,0.0,0.0
475642,County,2020/05/28,48.0,TX,48425.0,Somervell County,1438.0,7578.0,28617.0,6761.0,5482.0,3426.0,5306.0,4238.0,2229.0,832.0,285.0,58.0,0.0
478830,County,2020/05/29,48.0,TX,48425.0,Somervell County,1769.0,7247.0,29594.0,7010.0,6029.0,4187.0,4595.0,4371.0,2130.0,771.0,460.0,41.0,0.0
482030,County,2020/05/30,48.0,TX,48425.0,Somervell County,1635.0,7381.0,26678.0,5586.0,6601.0,3844.0,4399.0,3281.0,2164.0,468.0,308.0,23.0,4.0
485225,County,2020/05/31,48.0,TX,48425.0,Somervell County,1867.0,7149.0,23163.0,5172.0,5116.0,2038.0,4169.0,3541.0,2131.0,742.0,235.0,0.0,19.0
486852,County,2020/06/01,48.0,TX,48425.0,Somervell County,1553.0,7463.0,28543.0,6496.0,6609.0,3168.0,4884.0,4228.0,2126.0,767.0,251.0,11.0,3.0
490044,County,2020/06/02,48.0,TX,48425.0,Somervell County,1827.0,7189.0,25170.0,5440.0,5558.0,2637.0,4806.0,3710.0,1873.0,881.0,247.0,0.0,18.0
494805,County,2020/06/03,48.0,TX,48425.0,Somervell County,1364.0,7652.0,29701.0,6710.0,5891.0,4197.0,5403.0,4778.0,1677.0,920.0,111.0,11.0,3.0
496425,County,2020/06/04,48.0,TX,48425.0,Somervell County,1274.0,7742.0,30185.0,9289.0,5911.0,3432.0,4670.0,3882.0,2063.0,530.0,352.0,56.0,0.0
501199,County,2020/06/05,48.0,TX,48425.0,Somervell County,1168.0,7848.0,27797.0,5804.0,5392.0,3470.0,5029.0,4877.0,1916.0,1057.0,234.0,11.0,7.0
504401,County,2020/06/06,48.0,TX,48425.0,Somervell County,1649.0,7367.0,26370.0,4959.0,6047.0,3321.0,5521.0,4128.0,1538.0,603.0,238.0,15.0,0.0
507553,County,2020/06/07,48.0,TX,48425.0,Somervell County,1638.0,7378.0,25280.0,4655.0,5757.0,3005.0,5087.0,3785.0,1584.0,904.0,357.0,136.0,10.0
509189,County,2020/06/08,48.0,TX,48425.0,Somervell County,1320.0,7696.0,30291.0,7168.0,5936.0,3398.0,5742.0,4318.0,2364.0,1045.0,250.0,67.0,3.0
513967,County,2020/06/09,48.0,TX,48425.0,Somervell County,1476.0,7540.0,30189.0,6317.0,6261.0,4309.0,5230.0,4014.0,2837.0,759.0,441.0,21.0,0.0
515597,County,2020/06/10,48.0,TX,48425.0,Somervell County,1480.0,7536.0,30184.0,6618.0,6004.0,3131.0,5049.0,4265.0,3420.0,1226.0,421.0,46.0,4.0
520330,County,2020/06/11,48.0,TX,48425.0,Somervell County,1236.0,7780.0,31892.0,7405.0,6201.0,4416.0,5573.0,4031.0,2817.0,1042.0,314.0,90.0,3.0
522004,County,2020/06/12,48.0,TX,48425.0,Somervell County,1454.0,7562.0,30446.0,6447.0,6531.0,3755.0,4518.0,4664.0,2843.0,1216.0,457.0,0.0,15.0
525180,County,2020/06/13,48.0,TX,48425.0,Somervell County,1398.0,7618.0,27548.0,5576.0,5603.0,3673.0,4828.0,4693.0,2132.0,567.0,440.0,36.0,0.0
529944,County,2020/06/14,48.0,TX,48425.0,Somervell County,1738.0,7278.0,22570.0,5059.0,3876.0,3244.0,4466.0,3025.0,1633.0,975.0,257.0,24.0,11.0
531572,County,2020/06/15,48.0,TX,48425.0,Somervell County,1641.0,7375.0,27144.0,6995.0,5878.0,2396.0,4925.0,3942.0,2101.0,706.0,155.0,35.0,11.0
534761,County,2020/06/16,48.0,TX,48425.0,Somervell County,1428.0,7588.0,26799.0,6526.0,5627.0,3411.0,4752.0,3487.0,2161.0,713.0,94.0,24.0,4.0
537955,County,2020/06/17,48.0,TX,48425.0,Somervell County,1487.0,7529.0,26955.0,6424.0,5504.0,2952.0,4987.0,3777.0,1905.0,986.0,386.0,34.0,0.0
542716,County,2020/06/18,48.0,TX,48425.0,Somervell County,1414.0,7602.0,29453.0,7417.0,5755.0,3245.0,4677.0,4311.0,2682.0,1089.0,213.0,61.0,3.0
544343,County,2020/06/19,48.0,TX,48425.0,Somervell County,1419.0,7597.0,24738.0,5180.0,4867.0,3321.0,4356.0,3610.0,2081.0,852.0,436.0,29.0,6.0
549104,County,2020/06/20,48.0,TX,48425.0,Somervell County,1846.0,7170.0,21931.0,4180.0,4400.0,3501.0,3555.0,3631.0,1777.0,563.0,312.0,12.0,0.0
552291,County,2020/06/21,48.0,TX,48425.0,Somervell County,1960.0,7056.0,19623.0,4573.0,3961.0,2373.0,2829.0,2529.0,1896.0,921.0,501.0,36.0,4.0
553927,County,2020/06/22,48.0,TX,48425.0,Somervell County,1485.0,7531.0,23244.0,4371.0,4423.0,3125.0,4315.0,3186.0,2371.0,1164.0,237.0,49.0,3.0
558687,County,2020/06/23,48.0,TX,48425.0,Somervell County,1738.0,7278.0,22413.0,4202.0,4677.0,2862.0,3527.0,3782.0,1998.0,1103.0,232.0,27.0,3.0
560318,County,2020/06/24,48.0,TX,48425.0,Somervell County,1636.0,7380.0,24067.0,4862.0,4382.0,3289.0,4636.0,3979.0,1938.0,651.0,279.0,48.0,3.0
563508,County,2020/06/25,48.0,TX,48425.0,Somervell County,1505.0,7511.0,23127.0,4757.0,3894.0,3355.0,4177.0,3743.0,2064.0,909.0,163.0,62.0,3.0
566761,County,2020/06/26,48.0,TX,48425.0,Somervell County,1579.0,7437.0,27712.0,7462.0,5042.0,3220.0,4471.0,3926.0,2206.0,929.0,435.0,21.0,0.0
569883,County,2020/06/27,48.0,TX,48425.0,Somervell County,1824.0,7192.0,25474.0,5394.0,6210.0,3434.0,4148.0,3512.0,1975.0,487.0,302.0,12.0,0.0
573076,County,2020/06/28,48.0,TX,48425.0,Somervell County,1778.0,7238.0,21293.0,3536.0,4327.0,2670.0,4461.0,3684.0,1229.0,899.0,440.0,39.0,8.0
577851,County,2020/06/29,48.0,TX,48425.0,Somervell County,1822.0,7194.0,22337.0,4782.0,4975.0,2550.0,4526.0,2299.0,2155.0,876.0,132.0,38.0,4.0
579495,County,2020/06/30,48.0,TX,48425.0,Somervell County,1687.0,7329.0,23559.0,4875.0,5519.0,2605.0,3898.0,3494.0,1998.0,904.0,254.0,12.0,0.0
584238,County,2020/07/01,48.0,TX,48425.0,Somervell County,1569.0,7447.0,22427.0,5353.0,4015.0,2892.0,3798.0,3271.0,1855.0,969.0,240.0,34.0,0.0
587431,County,2020/07/02,48.0,TX,48425.0,Somervell County,1967.0,7049.0,24547.0,5049.0,4133.0,3561.0,4433.0,3973.0,2191.0,965.0,173.0,66.0,3.0
589071,County,2020/07/03,48.0,TX,48425.0,Somervell County,2091.0,6925.0,27558.0,7420.0,5014.0,3202.0,4446.0,3904.0,2194.0,924.0,433.0,21.0,0.0
592276,County,2020/07/04,48.0,TX,48425.0,Somervell County,2250.0,6766.0,23574.0,6348.0,4289.0,2739.0,3803.0,3340.0,1877.0,790.0,370.0,18.0,0.0
596981,County,2020/07/05,48.0,TX,48425.0,Somervell County,1945.0,7071.0,21856.0,5468.0,4530.0,2369.0,3931.0,2984.0,1726.0,605.0,225.0,14.0,4.0
598123,County,2020/07/06,48.0,TX,48425.0,Somervell County,1713.0,7303.0,21524.0,4312.0,5140.0,1868.0,4275.0,3121.0,1847.0,774.0,158.0,20.0,9.0
602227,County,2020/07/07,48.0,TX,48425.0,Somervell County,1730.0,7286.0,23829.0,4719.0,5375.0,3116.0,4082.0,3305.0,2044.0,986.0,156.0,40.0,6.0
606595,County,2020/07/08,48.0,TX,48425.0,Somervell County,1602.0,7414.0,25486.0,6312.0,5028.0,2921.0,4178.0,3679.0,2170.0,796.0,347.0,55.0,0.0
609798,County,2020/07/09,48.0,TX,48425.0,Somervell County,1641.0,7375.0,27631.0,6944.0,5833.0,3913.0,3862.0,3829.0,1763.0,1176.0,217.0,94.0,0.0
611423,County,2020/07/10,48.0,TX,48425.0,Somervell County,1616.0,7400.0,27994.0,6498.0,5177.0,3175.0,5368.0,3673.0,2653.0,969.0,360.0,114.0,7.0
614633,County,2020/07/11,48.0,TX,48425.0,Somervell County,1626.0,7390.0,24348.0,4918.0,5718.0,2639.0,4529.0,3845.0,2024.0,508.0,134.0,13.0,20.0
617804,County,2020/07/12,48.0,TX,48425.0,Somervell County,1856.0,7160.0,19049.0,3964.0,3887.0,1854.0,3279.0,3092.0,1594.0,980.0,391.0,0.0,8.0
620993,County,2020/07/13,48.0,TX,48425.0,Somervell County,1794.0,7222.0,26111.0,5333.0,5729.0,3817.0,4663.0,3278.0,2294.0,837.0,131.0,25.0,4.0
624194,County,2020/07/14,48.0,TX,48425.0,Somervell County,1499.0,7517.0,28687.0,5884.0,5876.0,3941.0,5130.0,4353.0,2418.0,948.0,94.0,36.0,7.0
628931,County,2020/07/15,48.0,TX,48425.0,Somervell County,1659.0,7357.0,26744.0,6890.0,5151.0,3701.0,3752.0,3402.0,2798.0,795.0,234.0,13.0,8.0
630557,County,2020/07/16,48.0,TX,48425.0,Somervell County,1497.0,7519.0,28317.0,7085.0,5764.0,3507.0,4849.0,3775.0,1980.0,1113.0,216.0,24.0,4.0
633764,County,2020/07/17,48.0,TX,48425.0,Somervell County,1775.0,7241.0,26540.0,5883.0,6077.0,2786.0,4583.0,3599.0,1959.0,1152.0,478.0,14.0,9.0
638544,County,2020/07/18,48.0,TX,48425.0,Somervell County,1646.0,7370.0,22113.0,5177.0,3863.0,2121.0,3758.0,4190.0,1679.0,782.0,477.0,66.0,0.0
640125,County,2020/07/19,48.0,TX,48425.0,Somervell County,1940.0,7076.0,18583.0,3653.0,3934.0,1819.0,2776.0,2997.0,2093.0,866.0,384.0,55.0,6.0
644955,County,2020/07/20,48.0,TX,48425.0,Somervell County,1973.0,7043.0,23079.0,5381.0,5873.0,2261.0,3348.0,2886.0,2040.0,800.0,421.0,64.0,5.0
646926,County,2020/07/21,48.0,TX,48425.0,Somervell County,1652.0,7364.0,25601.0,5559.0,4945.0,3582.0,4232.0,3762.0,2437.0,695.0,366.0,14.0,9.0
651311,County,2020/07/22,48.0,TX,48425.0,Somervell County,1812.0,7204.0,23748.0,4532.0,5106.0,3354.0,3523.0,2812.0,2867.0,1157.0,313.0,80.0,4.0
654506,County,2020/07/23,48.0,TX,48425.0,Somervell County,1648.0,7368.0,25714.0,6827.0,5436.0,2878.0,3843.0,3429.0,1962.0,833.0,439.0,51.0,16.0
657779,County,2020/07/24,48.0,TX,48425.0,Somervell County,1775.0,7241.0,26125.0,5461.0,4999.0,3417.0,4424.0,4342.0,2105.0,943.0,426.0,0.0,8.0
659322,County,2020/07/25,48.0,TX,48425.0,Somervell County,1773.0,7243.0,23857.0,6052.0,4153.0,2047.0,4550.0,3671.0,1749.0,1090.0,518.0,14.0,13.0
662522,County,2020/07/26,48.0,TX,48425.0,Somervell County,1642.0,7374.0,22213.0,5278.0,3390.0,2712.0,3834.0,2926.0,2284.0,895.0,809.0,77.0,8.0
667302,County,2020/07/27,48.0,TX,48425.0,Somervell County,1726.0,7290.0,26548.0,6920.0,5437.0,2899.0,4378.0,3729.0,2045.0,732.0,330.0,69.0,9.0
668979,County,2020/07/28,48.0,TX,48425.0,Somervell County,1470.0,7546.0,27088.0,7245.0,4617.0,3815.0,4200.0,3593.0,2185.0,900.0,367.0,163.0,3.0
672185,County,2020/07/29,48.0,TX,48425.0,Somervell County,1519.0,7497.0,26997.0,7361.0,4748.0,3353.0,4262.0,3712.0,1918.0,1056.0,438.0,141.0,8.0
675298,County,2020/07/30,48.0,TX,48425.0,Somervell County,1500.0,7516.0,25960.0,7582.0,4493.0,2653.0,3704.0,3866.0,1994.0,1213.0,336.0,115.0,4.0
678499,County,2020/07/31,48.0,TX,48425.0,Somervell County,1772.0,7244.0,23525.0,4296.0,4695.0,3129.0,4310.0,3637.0,2178.0,592.0,587.0,97.0,4.0
683245,County,2020/08/01,48.0,TX,48425.0,Somervell County,1901.0,7115.0,26375.0,5877.0,4982.0,3348.0,4642.0,3842.0,2716.0,581.0,367.0,16.0,4.0
684879,County,2020/08/02,48.0,TX,48425.0,Somervell County,1938.0,7078.0,23940.0,4947.0,4245.0,3152.0,3156.0,4733.0,2266.0,869.0,499.0,63.0,10.0
688076,County,2020/08/03,48.0,TX,48425.0,Somervell County,1475.0,7541.0,28788.0,6821.0,6176.0,2874.0,5197.0,4455.0,2116.0,829.0,219.0,84.0,17.0
691268,County,2020/08/04,48.0,TX,48425.0,Somervell County,1574.0,7442.0,30369.0,8054.0,6054.0,3270.0,4946.0,4595.0,2507.0,733.0,140.0,54.0,16.0
696027,County,2020/08/05,48.0,TX,48425.0,Somervell County,1638.0,7378.0,28922.0,8011.0,6079.0,2935.0,4150.0,4015.0,2075.0,1211.0,364.0,69.0,13.0
699222,County,2020/08/06,48.0,TX,48425.0,Somervell County,1533.0,7483.0,28174.0,5908.0,5288.0,3767.0,5209.0,4582.0,2006.0,1007.0,298.0,101.0,8.0
702418,County,2020/08/07,48.0,TX,48425.0,Somervell County,1680.0,7336.0,28294.0,6368.0,5088.0,3952.0,4587.0,4682.0,1948.0,1052.0,536.0,81.0,0.0
704047,County,2020/08/08,48.0,TX,48425.0,Somervell County,1718.0,7298.0,22203.0,5416.0,5174.0,2248.0,3501.0,3340.0,1485.0,751.0,238.0,45.0,5.0
708829,County,2020/08/09,48.0,TX,48425.0,Somervell County,2060.0,6956.0,19961.0,3974.0,2947.0,2445.0,3705.0,3585.0,1368.0,1350.0,460.0,112.0,15.0
711998,County,2020/08/10,48.0,TX,48425.0,Somervell County,1816.0,7200.0,25222.0,6199.0,4936.0,3147.0,4269.0,3659.0,1609.0,912.0,369.0,113.0,9.0
713675,County,2020/08/11,48.0,TX,48425.0,Somervell County,1753.0,7263.0,24318.0,6150.0,4477.0,3052.0,4010.0,3723.0,1734.0,782.0,286.0,95.0,9.0
718386,County,2020/08/12,48.0,TX,48425.0,Somervell County,1480.0,7536.0,25927.0,5003.0,5377.0,3493.0,4232.0,4180.0,2481.0,865.0,227.0,50.0,19.0
721580,County,2020/08/13,48.0,TX,48425.0,Somervell County,1528.0,7488.0,26111.0,5617.0,5815.0,3094.0,3997.0,4216.0,2219.0,750.0,316.0,61.0,26.0
723207,County,2020/08/14,48.0,TX,48425.0,Somervell County,1494.0,7522.0,27672.0,5496.0,5726.0,3557.0,3953.0,4715.0,2530.0,744.0,816.0,100.0,35.0
726438,County,2020/08/15,48.0,TX,48425.0,Somervell County,1793.0,7223.0,26212.0,5139.0,5364.0,3447.0,3874.0,4421.0,2547.0,980.0,397.0,15.0,28.0
729597,County,2020/08/16,48.0,TX,48425.0,Somervell County,1826.0,7190.0,23078.0,4182.0,4445.0,2597.0,4339.0,3824.0,2031.0,749.0,789.0,63.0,59.0
732791,County,2020/08/17,48.0,TX,48425.0,Somervell County,1637.0,7379.0,28589.0,6076.0,6015.0,3974.0,5229.0,3118.0,2819.0,836.0,409.0,72.0,41.0
736006,County,2020/08/18,48.0,TX,48425.0,Somervell County,2015.0,7001.0,22629.0,4709.0,3781.0,2167.0,3512.0,4711.0,2169.0,1086.0,381.0,72.0,41.0
740744,County,2020/08/19,48.0,TX,48425.0,Somervell County,1545.0,7471.0,25975.0,6067.0,4168.0,3052.0,5407.0,3548.0,1963.0,1124.0,468.0,130.0,48.0
742373,County,2020/08/20,48.0,TX,48425.0,Somervell County,1619.0,7397.0,24662.0,5742.0,4560.0,2013.0,4608.0,3761.0,2772.0,870.0,197.0,100.0,39.0
745573,County,2020/08/21,48.0,TX,48425.0,Somervell County,1580.0,7436.0,27922.0,7164.0,5190.0,3015.0,4703.0,4035.0,2269.0,791.0,625.0,93.0,37.0
748777,County,2020/08/22,48.0,TX,48425.0,Somervell County,1758.0,7258.0,28232.0,5677.0,5722.0,3048.0,5269.0,4051.0,2816.0,935.0,551.0,121.0,42.0
751971,County,2020/08/23,48.0,TX,48425.0,Somervell County,1892.0,7124.0,20351.0,4437.0,3905.0,1556.0,4153.0,3251.0,1952.0,538.0,418.0,102.0,39.0
756714,County,2020/08/24,48.0,TX,48425.0,Somervell County,2040.0,6976.0,22569.0,4942.0,3651.0,2426.0,4702.0,3261.0,2051.0,1102.0,345.0,60.0,29.0
758343,County,2020/08/25,48.0,TX,48425.0,Somervell County,1502.0,7514.0,26698.0,7131.0,4748.0,3177.0,4755.0,3378.0,1750.0,1274.0,387.0,68.0,30.0
763114,County,2020/08/26,48.0,TX,48425.0,Somervell County,1491.0,7525.0,25161.0,6826.0,4301.0,2024.0,4224.0,3661.0,2435.0,1097.0,428.0,144.0,21.0
764694,County,2020/08/27,48.0,TX,48425.0,Somervell County,1630.0,7386.0,25023.0,5323.0,5419.0,2355.0,4557.0,3650.0,2167.0,876.0,515.0,155.0,6.0
769477,County,2020/08/28,48.0,TX,48425.0,Somervell County,1752.0,7264.0,24716.0,5669.0,4468.0,3318.0,4546.0,3369.0,2079.0,1039.0,119.0,102.0,7.0
772677,County,2020/08/29,48.0,TX,48425.0,Somervell County,1814.0,7202.0,25152.0,5285.0,6422.0,1874.0,3612.0,4052.0,2534.0,889.0,406.0,71.0,7.0
775878,County,2020/08/30,48.0,TX,48425.0,Somervell County,2023.0,6993.0,20646.0,2808.0,4033.0,2450.0,3519.0,4121.0,2159.0,908.0,594.0,50.0,4.0
779074,County,2020/08/31,48.0,TX,48425.0,Somervell County,1950.0,7066.0,23460.0,5196.0,4144.0,2224.0,3848.0,4210.0,2222.0,1337.0,197.0,62.0,20.0
780685,County,2020/09/01,48.0,TX,48425.0,Somervell County,1779.0,7237.0,27102.0,6393.0,5420.0,2682.0,4993.0,3346.0,3207.0,711.0,259.0,88.0,3.0
784710,County,2020/09/02,48.0,TX,48425.0,Somervell County,1532.0,7484.0,26977.0,6085.0,4491.0,2553.0,5991.0,4158.0,2290.0,1015.0,329.0,62.0,3.0
788669,County,2020/09/03,48.0,TX,48425.0,Somervell County,1427.0,7589.0,29239.0,6819.0,4858.0,3309.0,5443.0,4552.0,2728.0,921.0,497.0,100.0,12.0
790284,County,2020/09/04,48.0,TX,48425.0,Somervell County,1836.0,7180.0,27672.0,6082.0,4190.0,2943.0,6185.0,4148.0,2626.0,1158.0,238.0,90.0,12.0
795045,County,2020/09/05,48.0,TX,48425.0,Somervell County,1650.0,7366.0,29220.0,5926.0,5472.0,3694.0,5750.0,4543.0,2304.0,918.0,562.0,48.0,3.0
798249,County,2020/09/06,48.0,TX,48425.0,Somervell County,1926.0,7090.0,20428.0,3056.0,3245.0,2741.0,4784.0,4090.0,1419.0,494.0,391.0,182.0,26.0
799858,County,2020/09/07,48.0,TX,48425.0,Somervell County,2228.0,6788.0,21584.0,4432.0,3758.0,2534.0,4639.0,2974.0,2054.0,566.0,459.0,140.0,28.0
804624,County,2020/09/08,48.0,TX,48425.0,Somervell County,1701.0,7315.0,26222.0,5731.0,4172.0,3071.0,5132.0,4534.0,2318.0,821.0,371.0,47.0,25.0
806253,County,2020/09/09,48.0,TX,48425.0,Somervell County,1548.0,7468.0,26684.0,6228.0,4883.0,2661.0,4901.0,3964.0,2584.0,900.0,500.0,60.0,3.0
811021,County,2020/09/10,48.0,TX,48425.0,Somervell County,1599.0,7417.0,25454.0,5457.0,4244.0,3006.0,4886.0,4086.0,2172.0,1126.0,386.0,84.0,7.0
814206,County,2020/09/11,48.0,TX,48425.0,Somervell County,1555.0,7461.0,25234.0,5515.0,4808.0,2847.0,3941.0,4556.0,2360.0,690.0,408.0,67.0,42.0
817400,County,2020/09/12,48.0,TX,48425.0,Somervell County,1923.0,7093.0,23895.0,3453.0,4430.0,2190.0,4524.0,4903.0,2846.0,1061.0,386.0,88.0,14.0
819007,County,2020/09/13,48.0,TX,48425.0,Somervell County,2184.0,6832.0,22568.0,4251.0,4727.0,2968.0,4033.0,3593.0,2134.0,613.0,213.0,16.0,20.0
823789,County,2020/09/14,48.0,TX,48425.0,Somervell County,1692.0,7324.0,26401.0,5414.0,4605.0,3665.0,5470.0,3489.0,2100.0,1116.0,411.0,124.0,7.0
825417,County,2020/09/15,48.0,TX,48425.0,Somervell County,1632.0,7384.0,26331.0,5735.0,4713.0,3087.0,5271.0,4158.0,2113.0,942.0,240.0,58.0,14.0
830176,County,2020/09/16,48.0,TX,48425.0,Somervell County,1630.0,7386.0,26714.0,4496.0,5867.0,3198.0,5167.0,4229.0,2669.0,905.0,119.0,57.0,7.0
831803,County,2020/09/17,48.0,TX,48425.0,Somervell County,1520.0,7496.0,27754.0,6889.0,5466.0,2456.0,5049.0,3878.0,2372.0,1039.0,576.0,22.0,7.0
836564,County,2020/09/18,48.0,TX,48425.0,Somervell County,1328.0,7688.0,27453.0,5408.0,5528.0,3127.0,4157.0,4277.0,2998.0,1161.0,728.0,55.0,14.0
838193,County,2020/09/19,48.0,TX,48425.0,Somervell County,1897.0,7119.0,29658.0,6119.0,5648.0,4608.0,4394.0,5357.0,1903.0,1066.0,486.0,72.0,5.0
842968,County,2020/09/20,48.0,TX,48425.0,Somervell County,2000.0,7016.0,22603.0,4872.0,3052.0,2952.0,3722.0,3568.0,2571.0,1113.0,697.0,48.0,8.0
844596,County,2020/09/21,48.0,TX,48425.0,Somervell County,2040.0,6976.0,22057.0,4219.0,4287.0,3006.0,4357.0,3184.0,1883.0,693.0,412.0,12.0,4.0
849340,County,2020/09/22,48.0,TX,48425.0,Somervell County,1712.0,7304.0,24246.0,5240.0,4315.0,2749.0,5641.0,3747.0,1817.0,456.0,270.0,11.0,0.0
850968,County,2020/09/23,48.0,TX,48425.0,Somervell County,1438.0,7578.0,25011.0,5859.0,4934.0,2733.0,4876.0,3590.0,2309.0,529.0,147.0,34.0,0.0
855734,County,2020/09/24,48.0,TX,48425.0,Somervell County,1578.0,7438.0,26464.0,5348.0,5830.0,2872.0,5118.0,4014.0,2131.0,849.0,268.0,23.0,11.0
858922,County,2020/09/25,48.0,TX,48425.0,Somervell County,1423.0,7593.0,26590.0,4902.0,5060.0,3208.0,5635.0,4552.0,2218.0,625.0,343.0,44.0,3.0
862116,County,2020/09/26,48.0,TX,48425.0,Somervell County,1635.0,7381.0,27413.0,5782.0,5962.0,2476.0,4659.0,4094.0,2827.0,1125.0,418.0,66.0,4.0
863721,County,2020/09/27,48.0,TX,48425.0,Somervell County,1937.0,7079.0,22602.0,4719.0,3609.0,2960.0,4174.0,2991.0,2513.0,890.0,602.0,128.0,16.0
868504,County,2020/09/28,48.0,TX,48425.0,Somervell County,1645.0,7371.0,24649.0,5379.0,4545.0,4003.0,4365.0,3066.0,2095.0,764.0,388.0,23.0,21.0
870132,County,2020/09/29,48.0,TX,48425.0,Somervell County,1715.0,7301.0,26516.0,6485.0,5080.0,3058.0,5218.0,3451.0,2016.0,903.0,228.0,65.0,12.0
873326,County,2020/09/30,48.0,TX,48425.0,Somervell County,1793.0,7223.0,22002.0,3599.0,4439.0,2871.0,3822.0,3882.0,2152.0,843.0,317.0,71.0,6.0
878065,County,2020/10/01,48.0,TX,48425.0,Somervell County,1764.0,7252.0,23439.0,4715.0,5285.0,1897.0,5063.0,3340.0,1983.0,863.0,197.0,93.0,3.0
881280,County,2020/10/02,48.0,TX,48425.0,Somervell County,1579.0,7437.0,27090.0,6973.0,4741.0,3635.0,4666.0,4036.0,1884.0,797.0,330.0,26.0,2.0
884475,County,2020/10/03,48.0,TX,48425.0,Somervell County,1988.0,7028.0,23149.0,4464.0,4436.0,2312.0,3717.0,4600.0,2348.0,901.0,325.0,38.0,8.0
887423,County,2020/10/04,48.0,TX,48425.0,Somervell County,1798.0,7218.0,21813.0,4419.0,4566.0,3323.0,3424.0,2626.0,1998.0,813.0,558.0,83.0,3.0
890667,County,2020/10/05,48.0,TX,48425.0,Somervell County,2054.0,6962.0,22463.0,5072.0,4220.0,2612.0,3891.0,3428.0,1980.0,870.0,281.0,104.0,5.0
893856,County,2020/10/06,48.0,TX,48425.0,Somervell County,1698.0,7318.0,27240.0,6391.0,5385.0,3149.0,4492.0,4528.0,1685.0,1150.0,355.0,102.0,3.0
897053,County,2020/10/07,48.0,TX,48425.0,Somervell County,1382.0,7634.0,28784.0,6871.0,5516.0,2841.0,5203.0,4663.0,2433.0,660.0,527.0,68.0,2.0
900220,County,2020/10/08,48.0,TX,48425.0,Somervell County,1650.0,7366.0,25542.0,5841.0,4655.0,2790.0,4850.0,3781.0,2426.0,1006.0,115.0,75.0,3.0
903413,County,2020/10/09,48.0,TX,48425.0,Somervell County,1999.0,7017.0,25335.0,5548.0,4817.0,2886.0,4233.0,4373.0,2230.0,1008.0,211.0,22.0,7.0
906607,County,2020/10/10,48.0,TX,48425.0,Somervell County,2069.0,6947.0,20847.0,3282.0,3468.0,3007.0,3552.0,3637.0,2380.0,1082.0,323.0,111.0,5.0
907510,County,2020/10/11,48.0,TX,48425.0,Somervell County,1685.0,7331.0,20287.0,3527.0,3138.0,2580.0,4684.0,2756.0,2277.0,756.0,443.0,121.0,5.0
910737,County,2020/10/12,48.0,TX,48425.0,Somervell County,1594.0,7422.0,25968.0,5565.0,4317.0,3037.0,5333.0,3632.0,2574.0,1121.0,279.0,105.0,5.0
913674,County,2020/10/13,48.0,TX,48425.0,Somervell County,1570.0,7446.0,23724.0,5192.0,4526.0,2730.0,4339.0,4078.0,1709.0,900.0,178.0,63.0,9.0
917128,County,2020/10/14,48.0,TX,48425.0,Somervell County,1303.0,7713.0,28613.0,6354.0,5177.0,3306.0,6007.0,4880.0,2079.0,712.0,45.0,49.0,4.0
920409,County,2020/10/15,48.0,TX,48425.0,Somervell County,1938.0,7078.0,23221.0,4703.0,4535.0,2296.0,4788.0,4238.0,1645.0,740.0,175.0,96.0,5.0
923819,County,2020/10/16,48.0,TX,48425.0,Somervell County,1404.0,7612.0,27433.0,7565.0,4529.0,2954.0,4438.0,4569.0,2196.0,841.0,296.0,40.0,5.0
927475,County,2020/10/17,48.0,TX,48425.0,Somervell County,1944.0,7072.0,26367.0,5747.0,3798.0,3426.0,6233.0,4845.0,1481.0,673.0,148.0,8.0,8.0
929460,County,2020/10/18,48.0,TX,48425.0,Somervell County,1753.0,7263.0,24334.0,4945.0,4947.0,2356.0,3919.0,4678.0,1856.0,1147.0,443.0,38.0,5.0
933408,County,2020/10/19,48.0,TX,48425.0,Somervell County,1599.0,7417.0,28622.0,6716.0,5147.0,3496.0,5257.0,4333.0,2500.0,791.0,301.0,76.0,5.0
936242,County,2020/10/20,48.0,TX,48425.0,Somervell County,1531.0,7485.0,26528.0,6517.0,5289.0,3038.0,5263.0,3367.0,1985.0,761.0,267.0,37.0,4.0
939297,County,2020/10/21,48.0,TX,48425.0,Somervell County,1754.0,7262.0,25922.0,5532.0,5370.0,2653.0,5578.0,3471.0,1967.0,961.0,367.0,14.0,9.0
942499,County,2020/10/22,48.0,TX,48425.0,Somervell County,1383.0,7633.0,26332.0,5126.0,5556.0,3153.0,4524.0,4287.0,2486.0,951.0,193.0,53.0,3.0
945760,County,2020/10/23,48.0,TX,48425.0,Somervell County,1397.0,7619.0,29397.0,7278.0,5561.0,3367.0,5033.0,4558.0,1992.0,1294.0,251.0,52.0,11.0
948992,County,2020/10/24,48.0,TX,48425.0,Somervell County,1894.0,7122.0,24053.0,5111.0,3656.0,2594.0,4955.0,4361.0,2372.0,892.0,78.0,29.0,5.0
