,Level,Date,State FIPS,State Postal Code,County FIPS,County Name,Population Staying at Home,Population Not Staying at Home,Number of Trips,Number of Trips <1,Number of Trips 1-3,Number of Trips 3-5,Number of Trips 5-10,Number of Trips 10-25,Number of Trips 25-50,Number of Trips 50-100,Number of Trips 100-250,Number of Trips 250-500,Number of Trips >=500
2206,County,2020/01/01,40.0,OK,40153.0,Woodward County,4545.0,15677.0,57524.0,11585.0,18739.0,7763.0,5585.0,8703.0,2337.0,1361.0,1231.0,120.0,100.0
4819,County,2020/01/02,40.0,OK,40153.0,Woodward County,3516.0,16706.0,66613.0,14627.0,21979.0,8407.0,6259.0,8752.0,3575.0,1461.0,1311.0,194.0,48.0
6506,County,2020/01/03,40.0,OK,40153.0,Woodward County,3500.0,16722.0,70474.0,16586.0,22358.0,8241.0,7718.0,9033.0,3082.0,1630.0,1671.0,107.0,48.0
10674,County,2020/01/04,40.0,OK,40153.0,Woodward County,4393.0,15829.0,63128.0,13209.0,21785.0,7643.0,6661.0,7979.0,2357.0,1652.0,1693.0,108.0,41.0
14982,County,2020/01/05,40.0,OK,40153.0,Woodward County,4476.0,15746.0,56085.0,11658.0,17963.0,7495.0,6240.0,7366.0,2556.0,1087.0,1557.0,156.0,7.0
17098,County,2020/01/06,40.0,OK,40153.0,Woodward County,3857.0,16365.0,70737.0,14898.0,23302.0,8785.0,6898.0,10355.0,3325.0,1532.0,1452.0,141.0,49.0
20256,County,2020/01/07,40.0,OK,40153.0,Woodward County,3399.0,16823.0,74976.0,18464.0,24742.0,8806.0,6242.0,10241.0,3287.0,1807.0,1237.0,110.0,40.0
23535,County,2020/01/08,40.0,OK,40153.0,Woodward County,3907.0,16315.0,67834.0,17343.0,22388.0,7285.0,6145.0,8937.0,2989.0,1285.0,1235.0,185.0,42.0
28234,County,2020/01/09,40.0,OK,40153.0,Woodward County,3605.0,16617.0,73193.0,17253.0,22858.0,9799.0,7225.0,9490.0,3388.0,1454.0,1604.0,90.0,32.0
31441,County,2020/01/10,40.0,OK,40153.0,Woodward County,3609.0,16613.0,69843.0,14884.0,23350.0,9312.0,7248.0,8888.0,2757.0,1955.0,1328.0,116.0,5.0
34636,County,2020/01/11,40.0,OK,40153.0,Woodward County,4189.0,16033.0,63568.0,14668.0,21732.0,8048.0,5932.0,7685.0,2379.0,1577.0,1439.0,72.0,36.0
37756,County,2020/01/12,40.0,OK,40153.0,Woodward County,4385.0,15837.0,61637.0,14281.0,20835.0,7338.0,6356.0,6918.0,2756.0,1751.0,1222.0,127.0,53.0
39468,County,2020/01/13,40.0,OK,40153.0,Woodward County,3733.0,16489.0,68942.0,13989.0,26088.0,7130.0,7017.0,9021.0,2858.0,1465.0,1244.0,108.0,22.0
44201,County,2020/01/14,40.0,OK,40153.0,Woodward County,3684.0,16538.0,71118.0,17223.0,24267.0,7330.0,6342.0,9458.0,3145.0,1802.0,1384.0,139.0,28.0
47406,County,2020/01/15,40.0,OK,40153.0,Woodward County,3671.0,16551.0,68483.0,15582.0,22548.0,8244.0,6371.0,9611.0,2771.0,1840.0,1290.0,200.0,26.0
48935,County,2020/01/16,40.0,OK,40153.0,Woodward County,3686.0,16536.0,65180.0,14500.0,21750.0,7870.0,6291.0,8713.0,2569.0,2050.0,1280.0,138.0,19.0
52191,County,2020/01/17,40.0,OK,40153.0,Woodward County,3922.0,16300.0,63523.0,16102.0,20266.0,7453.0,6525.0,7441.0,2780.0,1372.0,1419.0,118.0,47.0
56972,County,2020/01/18,40.0,OK,40153.0,Woodward County,4049.0,16173.0,68483.0,14981.0,23683.0,8693.0,5818.0,8697.0,3224.0,1355.0,1831.0,148.0,53.0
58571,County,2020/01/19,40.0,OK,40153.0,Woodward County,4144.0,16078.0,58610.0,12518.0,20497.0,6494.0,6710.0,6902.0,2514.0,1290.0,1456.0,193.0,36.0
61803,County,2020/01/20,40.0,OK,40153.0,Woodward County,3976.0,16246.0,65190.0,16156.0,20625.0,7223.0,6049.0,8523.0,2932.0,1881.0,1641.0,105.0,55.0
65009,County,2020/01/21,40.0,OK,40153.0,Woodward County,3774.0,16448.0,65464.0,15181.0,21620.0,7915.0,5588.0,8681.0,2816.0,1744.0,1679.0,225.0,15.0
68162,County,2020/01/22,40.0,OK,40153.0,Woodward County,3766.0,16456.0,64892.0,14642.0,22914.0,7733.0,5878.0,7606.0,2919.0,1414.0,1577.0,151.0,58.0
72953,County,2020/01/23,40.0,OK,40153.0,Woodward County,3773.0,16449.0,70745.0,16353.0,24994.0,8657.0,5061.0,8979.0,3220.0,1695.0,1619.0,140.0,27.0
74543,County,2020/01/24,40.0,OK,40153.0,Woodward County,3529.0,16693.0,75287.0,18024.0,26575.0,8083.0,5360.0,10681.0,3267.0,1783.0,1402.0,75.0,37.0
79344,County,2020/01/25,40.0,OK,40153.0,Woodward County,4048.0,16174.0,67124.0,16469.0,21877.0,7271.0,5700.0,8737.0,3580.0,1911.0,1429.0,114.0,36.0
82056,County,2020/01/26,40.0,OK,40153.0,Woodward County,4390.0,15832.0,63732.0,17485.0,21426.0,6924.0,5322.0,7026.0,2691.0,1435.0,1307.0,92.0,24.0
85708,County,2020/01/27,40.0,OK,40153.0,Woodward County,3446.0,16776.0,70740.0,17876.0,24437.0,6878.0,6470.0,8815.0,2887.0,1793.0,1356.0,169.0,59.0
87381,County,2020/01/28,40.0,OK,40153.0,Woodward County,4046.0,16176.0,62208.0,14754.0,21863.0,7786.0,6157.0,6882.0,2006.0,1100.0,1415.0,215.0,30.0
92114,County,2020/01/29,40.0,OK,40153.0,Woodward County,3621.0,16601.0,69562.0,17459.0,25291.0,7374.0,5701.0,8145.0,2675.0,1430.0,1349.0,113.0,25.0
95320,County,2020/01/30,40.0,OK,40153.0,Woodward County,3785.0,16437.0,71605.0,16617.0,24340.0,7644.0,6614.0,9916.0,2950.0,1996.0,1350.0,144.0,34.0
96895,County,2020/01/31,40.0,OK,40153.0,Woodward County,3403.0,16819.0,75324.0,17719.0,26776.0,8951.0,6106.0,9701.0,2790.0,1588.0,1438.0,198.0,57.0
100144,County,2020/02/01,40.0,OK,40153.0,Woodward County,3286.0,16936.0,70350.0,15515.0,23518.0,8238.0,6605.0,9072.0,2893.0,2300.0,1880.0,251.0,78.0
103272,County,2020/02/02,40.0,OK,40153.0,Woodward County,3844.0,16378.0,67141.0,15174.0,23263.0,7481.0,6735.0,8931.0,2280.0,1570.0,1488.0,144.0,75.0
108107,County,2020/02/03,40.0,OK,40153.0,Woodward County,3205.0,17017.0,74710.0,17889.0,22854.0,8550.0,8033.0,10329.0,3255.0,1968.0,1598.0,158.0,76.0
109724,County,2020/02/04,40.0,OK,40153.0,Woodward County,3243.0,16979.0,72718.0,17949.0,23688.0,8100.0,7293.0,8874.0,2658.0,2038.0,1871.0,194.0,53.0
114446,County,2020/02/05,40.0,OK,40153.0,Woodward County,3745.0,16477.0,79933.0,19744.0,26714.0,9964.0,7753.0,9603.0,3116.0,1746.0,1131.0,105.0,57.0
117653,County,2020/02/06,40.0,OK,40153.0,Woodward County,3262.0,16960.0,83687.0,21354.0,27028.0,11327.0,7767.0,9998.0,3161.0,1683.0,1202.0,103.0,64.0
120907,County,2020/02/07,40.0,OK,40153.0,Woodward County,3250.0,16972.0,86817.0,20358.0,29947.0,10782.0,7549.0,10775.0,4030.0,1820.0,1374.0,140.0,42.0
124067,County,2020/02/08,40.0,OK,40153.0,Woodward County,3428.0,16794.0,74653.0,15705.0,25207.0,10006.0,7419.0,9470.0,2663.0,2378.0,1636.0,113.0,56.0
126220,County,2020/02/09,40.0,OK,40153.0,Woodward County,4243.0,15979.0,64295.0,15328.0,22390.0,8105.0,6137.0,6745.0,2040.0,1597.0,1686.0,152.0,115.0
130515,County,2020/02/10,40.0,OK,40153.0,Woodward County,3074.0,17148.0,79822.0,17665.0,27619.0,9471.0,6953.0,10364.0,3331.0,2258.0,1912.0,177.0,72.0
133176,County,2020/02/11,40.0,OK,40153.0,Woodward County,2850.0,17372.0,78921.0,18029.0,26598.0,9805.0,6581.0,10134.0,3488.0,2342.0,1697.0,177.0,70.0
134176,County,2020/02/12,40.0,OK,40153.0,Woodward County,3132.0,17090.0,78500.0,17497.0,27417.0,10076.0,7121.0,10085.0,2936.0,1589.0,1566.0,161.0,52.0
140036,County,2020/02/13,40.0,OK,40153.0,Woodward County,3066.0,17156.0,80948.0,19128.0,27303.0,9211.0,6729.0,10740.0,3678.0,2355.0,1589.0,155.0,60.0
141518,County,2020/02/14,40.0,OK,40153.0,Woodward County,2921.0,17301.0,84311.0,18179.0,28963.0,10265.0,7837.0,11012.0,3653.0,2166.0,1938.0,220.0,78.0
146396,County,2020/02/15,40.0,OK,40153.0,Woodward County,3482.0,16740.0,82089.0,18242.0,27985.0,10664.0,7095.0,10432.0,3078.0,2094.0,2251.0,184.0,64.0
149598,County,2020/02/16,40.0,OK,40153.0,Woodward County,3668.0,16554.0,72123.0,18673.0,22702.0,7957.0,6486.0,9432.0,2939.0,1821.0,1826.0,216.0,71.0
151228,County,2020/02/17,40.0,OK,40153.0,Woodward County,4440.0,15782.0,65595.0,14804.0,22238.0,7342.0,6190.0,8545.0,2838.0,1969.0,1431.0,180.0,58.0
156007,County,2020/02/18,40.0,OK,40153.0,Woodward County,3270.0,16952.0,81256.0,20144.0,26572.0,9177.0,7566.0,10196.0,3428.0,2522.0,1410.0,173.0,68.0
159152,County,2020/02/19,40.0,OK,40153.0,Woodward County,3221.0,17001.0,84658.0,20067.0,27420.0,9745.0,8117.0,11977.0,3374.0,1890.0,1852.0,142.0,74.0
162396,County,2020/02/20,40.0,OK,40153.0,Woodward County,3185.0,17037.0,83759.0,21133.0,27695.0,10244.0,8054.0,9955.0,3266.0,1601.0,1554.0,223.0,34.0
163974,County,2020/02/21,40.0,OK,40153.0,Woodward County,3117.0,17105.0,87039.0,21419.0,27415.0,11486.0,8214.0,10232.0,3338.0,2545.0,2173.0,150.0,67.0
168734,County,2020/02/22,40.0,OK,40153.0,Woodward County,3168.0,17054.0,77522.0,18099.0,25109.0,9916.0,6445.0,10227.0,2764.0,2686.0,1990.0,213.0,73.0
170396,County,2020/02/23,40.0,OK,40153.0,Woodward County,3932.0,16290.0,64721.0,16533.0,21080.0,7684.0,5924.0,7535.0,2181.0,1869.0,1625.0,222.0,68.0
175177,County,2020/02/24,40.0,OK,40153.0,Woodward County,3413.0,16809.0,77478.0,17138.0,25989.0,9319.0,7864.0,10099.0,3317.0,1945.0,1566.0,168.0,73.0
177877,County,2020/02/25,40.0,OK,40153.0,Woodward County,2919.0,17303.0,79090.0,17109.0,24949.0,9647.0,8228.0,11175.0,3749.0,2269.0,1808.0,100.0,56.0
181070,County,2020/02/26,40.0,OK,40153.0,Woodward County,3255.0,16967.0,74449.0,14247.0,26254.0,10071.0,7200.0,10952.0,2635.0,1478.0,1382.0,171.0,59.0
184748,County,2020/02/27,40.0,OK,40153.0,Woodward County,3036.0,17186.0,87516.0,20366.0,29482.0,11179.0,7562.0,11843.0,3456.0,1806.0,1655.0,141.0,26.0
186474,County,2020/02/28,40.0,OK,40153.0,Woodward County,2974.0,17248.0,83974.0,18962.0,28684.0,9639.0,7410.0,11372.0,3726.0,2236.0,1723.0,171.0,51.0
191093,County,2020/02/29,40.0,OK,40153.0,Woodward County,3285.0,16937.0,82554.0,20090.0,26721.0,10108.0,8429.0,10982.0,2320.0,1865.0,1859.0,135.0,45.0
192717,County,2020/03/01,40.0,OK,40153.0,Woodward County,3592.0,16630.0,70668.0,14747.0,25342.0,8662.0,7311.0,8325.0,2934.0,1541.0,1568.0,164.0,74.0
197516,County,2020/03/02,40.0,OK,40153.0,Woodward County,3098.0,17124.0,81393.0,17975.0,28254.0,10005.0,8352.0,9934.0,3093.0,2241.0,1366.0,105.0,68.0
200791,County,2020/03/03,40.0,OK,40153.0,Woodward County,2783.0,17439.0,79469.0,17180.0,27737.0,9168.0,7924.0,11474.0,2400.0,2022.0,1393.0,78.0,93.0
203878,County,2020/03/04,40.0,OK,40153.0,Woodward County,3015.0,17207.0,78487.0,17919.0,26058.0,9196.0,7378.0,11048.0,3399.0,2088.0,1234.0,137.0,30.0
207082,County,2020/03/05,40.0,OK,40153.0,Woodward County,2832.0,17390.0,79557.0,17873.0,27948.0,9334.0,7724.0,10112.0,3153.0,1845.0,1482.0,47.0,39.0
210345,County,2020/03/06,40.0,OK,40153.0,Woodward County,2832.0,17390.0,85329.0,20356.0,27759.0,9966.0,8310.0,10615.0,4340.0,2031.0,1765.0,142.0,45.0
213528,County,2020/03/07,40.0,OK,40153.0,Woodward County,3060.0,17162.0,75634.0,16908.0,24767.0,11348.0,7326.0,8505.0,2517.0,1784.0,2294.0,145.0,40.0
215129,County,2020/03/08,40.0,OK,40153.0,Woodward County,3526.0,16696.0,62650.0,12497.0,21317.0,8020.0,5831.0,8171.0,2559.0,2254.0,1815.0,131.0,55.0
218282,County,2020/03/09,40.0,OK,40153.0,Woodward County,3166.0,17056.0,81750.0,18352.0,27018.0,10667.0,7126.0,10878.0,3731.0,2208.0,1651.0,69.0,50.0
223080,County,2020/03/10,40.0,OK,40153.0,Woodward County,2723.0,17499.0,80044.0,17582.0,26908.0,9767.0,7956.0,11151.0,3199.0,1751.0,1538.0,150.0,42.0
224705,County,2020/03/11,40.0,OK,40153.0,Woodward County,2989.0,17233.0,87258.0,19846.0,27805.0,11354.0,8271.0,12222.0,3838.0,2056.0,1721.0,89.0,56.0
227890,County,2020/03/12,40.0,OK,40153.0,Woodward County,3123.0,17099.0,94516.0,20504.0,29003.0,10917.0,10272.0,13270.0,4726.0,3517.0,2004.0,227.0,76.0
231098,County,2020/03/13,40.0,OK,40153.0,Woodward County,3079.0,17143.0,78348.0,14469.0,24322.0,9093.0,9564.0,11678.0,3933.0,2776.0,2248.0,230.0,35.0
235725,County,2020/03/14,40.0,OK,40153.0,Woodward County,3721.0,16501.0,70492.0,11473.0,21723.0,10018.0,7662.0,12071.0,3310.0,2152.0,1877.0,145.0,61.0
237435,County,2020/03/15,40.0,OK,40153.0,Woodward County,4454.0,15768.0,59150.0,11259.0,21648.0,6323.0,6166.0,8417.0,2645.0,1418.0,1115.0,109.0,50.0
240678,County,2020/03/16,40.0,OK,40153.0,Woodward County,3572.0,16650.0,71327.0,14741.0,23796.0,9509.0,6640.0,9792.0,2945.0,2317.0,1436.0,124.0,27.0
245437,County,2020/03/17,40.0,OK,40153.0,Woodward County,3826.0,16396.0,65939.0,13138.0,22362.0,9088.0,6032.0,9373.0,2601.0,1538.0,1548.0,192.0,67.0
247016,County,2020/03/18,40.0,OK,40153.0,Woodward County,3945.0,16277.0,68007.0,14110.0,22522.0,9664.0,6043.0,9790.0,2728.0,1787.0,1169.0,144.0,50.0
251798,County,2020/03/19,40.0,OK,40153.0,Woodward County,3993.0,16229.0,69728.0,12489.0,23468.0,9153.0,6879.0,10657.0,3170.0,1815.0,1887.0,146.0,64.0
253456,County,2020/03/20,40.0,OK,40153.0,Woodward County,4172.0,16050.0,68091.0,14206.0,20885.0,8487.0,7793.0,10169.0,3202.0,1721.0,1424.0,100.0,104.0
256599,County,2020/03/21,40.0,OK,40153.0,Woodward County,4753.0,15469.0,60935.0,12720.0,18680.0,7758.0,6434.0,9842.0,2444.0,1358.0,1510.0,99.0,90.0
259835,County,2020/03/22,40.0,OK,40153.0,Woodward County,4637.0,15585.0,54272.0,10410.0,16527.0,6536.0,6764.0,8689.0,2683.0,1358.0,1145.0,113.0,47.0
264565,County,2020/03/23,40.0,OK,40153.0,Woodward County,3742.0,16480.0,62909.0,13674.0,19799.0,8024.0,6935.0,8499.0,3108.0,1668.0,1039.0,106.0,57.0
266191,County,2020/03/24,40.0,OK,40153.0,Woodward County,4057.0,16165.0,61417.0,15542.0,17573.0,8017.0,5966.0,8146.0,2728.0,1927.0,1357.0,98.0,63.0
269424,County,2020/03/25,40.0,OK,40153.0,Woodward County,3712.0,16510.0,63876.0,14167.0,20035.0,7878.0,6643.0,9320.0,2879.0,1683.0,1088.0,170.0,13.0
274165,County,2020/03/26,40.0,OK,40153.0,Woodward County,3743.0,16479.0,63374.0,13878.0,20717.0,8710.0,6111.0,8501.0,2224.0,1572.0,1469.0,160.0,32.0
275805,County,2020/03/27,40.0,OK,40153.0,Woodward County,3932.0,16290.0,63094.0,13937.0,19330.0,7704.0,6806.0,8794.0,3006.0,2169.0,1231.0,99.0,18.0
278959,County,2020/03/28,40.0,OK,40153.0,Woodward County,4218.0,16004.0,50484.0,11360.0,15958.0,5639.0,4772.0,5899.0,3075.0,1774.0,1861.0,101.0,45.0
283719,County,2020/03/29,40.0,OK,40153.0,Woodward County,4451.0,15771.0,48924.0,10143.0,14698.0,6218.0,5309.0,7101.0,2495.0,1243.0,1556.0,126.0,35.0
285346,County,2020/03/30,40.0,OK,40153.0,Woodward County,3500.0,16722.0,57913.0,12178.0,17982.0,7252.0,5969.0,7789.0,3028.0,2031.0,1518.0,100.0,66.0
290149,County,2020/03/31,40.0,OK,40153.0,Woodward County,4091.0,16131.0,63230.0,14606.0,18668.0,8170.0,6638.0,8718.0,2979.0,1708.0,1612.0,99.0,32.0
293348,County,2020/04/01,40.0,OK,40153.0,Woodward County,4112.0,16110.0,59187.0,13207.0,17841.0,7383.0,6746.0,8214.0,3015.0,1568.0,1069.0,82.0,62.0
296510,County,2020/04/02,40.0,OK,40153.0,Woodward County,3800.0,16422.0,64540.0,14624.0,18525.0,7764.0,7046.0,10639.0,3129.0,1577.0,1139.0,66.0,31.0
298171,County,2020/04/03,40.0,OK,40153.0,Woodward County,4313.0,15909.0,54066.0,10531.0,18451.0,6186.0,4933.0,8039.0,2748.0,1338.0,1741.0,79.0,20.0
302917,County,2020/04/04,40.0,OK,40153.0,Woodward County,4428.0,15794.0,52284.0,8907.0,17104.0,6145.0,5756.0,9068.0,2619.0,1330.0,1249.0,50.0,56.0
304545,County,2020/04/05,40.0,OK,40153.0,Woodward County,4883.0,15339.0,45929.0,9164.0,13755.0,5142.0,6073.0,7069.0,2104.0,1410.0,1054.0,86.0,72.0
307753,County,2020/04/06,40.0,OK,40153.0,Woodward County,3994.0,16228.0,59448.0,11657.0,19159.0,6724.0,6381.0,9365.0,3093.0,1781.0,1132.0,89.0,67.0
312510,County,2020/04/07,40.0,OK,40153.0,Woodward County,4176.0,16046.0,62528.0,13469.0,19265.0,8296.0,7239.0,8856.0,2918.0,1438.0,912.0,93.0,42.0
315683,County,2020/04/08,40.0,OK,40153.0,Woodward County,3983.0,16239.0,60435.0,14290.0,19477.0,6923.0,5180.0,8742.0,3018.0,1528.0,1165.0,91.0,21.0
317310,County,2020/04/09,40.0,OK,40153.0,Woodward County,4510.0,15712.0,58510.0,12289.0,18740.0,7730.0,5699.0,8173.0,3075.0,1563.0,1144.0,53.0,44.0
320537,County,2020/04/10,40.0,OK,40153.0,Woodward County,4318.0,15904.0,58801.0,11490.0,18935.0,7577.0,6813.0,8506.0,2864.0,1577.0,930.0,82.0,27.0
325289,County,2020/04/11,40.0,OK,40153.0,Woodward County,4324.0,15898.0,55964.0,11550.0,18437.0,5988.0,6177.0,8325.0,2610.0,1692.0,1132.0,40.0,13.0
326867,County,2020/04/12,40.0,OK,40153.0,Woodward County,5523.0,14699.0,39466.0,7843.0,12759.0,3632.0,4553.0,6854.0,2167.0,619.0,926.0,66.0,47.0
330132,County,2020/04/13,40.0,OK,40153.0,Woodward County,4385.0,15837.0,58430.0,13075.0,17260.0,6938.0,6708.0,8872.0,3367.0,1217.0,933.0,25.0,35.0
333256,County,2020/04/14,40.0,OK,40153.0,Woodward County,4468.0,15754.0,58042.0,10731.0,17188.0,6190.0,7606.0,9417.0,3392.0,2327.0,1044.0,72.0,75.0
338056,County,2020/04/15,40.0,OK,40153.0,Woodward County,4420.0,15802.0,57368.0,13003.0,16775.0,6041.0,6976.0,8099.0,3522.0,1557.0,1261.0,105.0,29.0
341200,County,2020/04/16,40.0,OK,40153.0,Woodward County,4486.0,15736.0,59514.0,11779.0,18292.0,6758.0,6252.0,11196.0,2757.0,1572.0,859.0,49.0,0.0
344414,County,2020/04/17,40.0,OK,40153.0,Woodward County,4097.0,16125.0,58873.0,10898.0,18665.0,7675.0,7826.0,7964.0,2983.0,1649.0,1004.0,182.0,27.0
346041,County,2020/04/18,40.0,OK,40153.0,Woodward County,4613.0,15609.0,61421.0,13695.0,18504.0,8070.0,7894.0,7505.0,3354.0,1357.0,845.0,163.0,34.0
349213,County,2020/04/19,40.0,OK,40153.0,Woodward County,4554.0,15668.0,48351.0,9459.0,15980.0,5791.0,4544.0,8113.0,2430.0,622.0,1209.0,118.0,85.0
354042,County,2020/04/20,40.0,OK,40153.0,Woodward County,3954.0,16268.0,72635.0,15589.0,19053.0,9849.0,9901.0,10955.0,3256.0,2371.0,1460.0,170.0,31.0
357228,County,2020/04/21,40.0,OK,40153.0,Woodward County,4077.0,16145.0,60459.0,12230.0,19289.0,7775.0,6389.0,9651.0,2875.0,1353.0,775.0,102.0,20.0
360383,County,2020/04/22,40.0,OK,40153.0,Woodward County,4204.0,16018.0,59074.0,10803.0,19812.0,7280.0,5962.0,9868.0,2777.0,1310.0,1116.0,132.0,14.0
363589,County,2020/04/23,40.0,OK,40153.0,Woodward County,3934.0,16288.0,62551.0,14591.0,19395.0,7531.0,6084.0,9440.0,2991.0,1190.0,1194.0,93.0,42.0
365216,County,2020/04/24,40.0,OK,40153.0,Woodward County,3970.0,16252.0,65987.0,14924.0,21263.0,7862.0,6721.0,8881.0,3196.0,1963.0,1065.0,112.0,0.0
368383,County,2020/04/25,40.0,OK,40153.0,Woodward County,4034.0,16188.0,60092.0,13723.0,21084.0,6919.0,6614.0,7207.0,2327.0,1259.0,840.0,111.0,8.0
371549,County,2020/04/26,40.0,OK,40153.0,Woodward County,4700.0,15522.0,56095.0,13373.0,17754.0,5324.0,6516.0,8038.0,2770.0,1339.0,845.0,136.0,0.0
374826,County,2020/04/27,40.0,OK,40153.0,Woodward County,3738.0,16484.0,64876.0,15749.0,21091.0,7555.0,6092.0,8624.0,2712.0,1986.0,958.0,87.0,22.0
379554,County,2020/04/28,40.0,OK,40153.0,Woodward County,3828.0,16394.0,67655.0,15337.0,23876.0,6821.0,5839.0,9649.0,3008.0,1816.0,1191.0,104.0,14.0
382757,County,2020/04/29,40.0,OK,40153.0,Woodward County,3528.0,16694.0,62817.0,13860.0,21244.0,7910.0,5558.0,8777.0,3257.0,1323.0,820.0,61.0,7.0
385975,County,2020/04/30,40.0,OK,40153.0,Woodward County,3747.0,16475.0,66678.0,13903.0,22935.0,8288.0,5757.0,9650.0,3233.0,1678.0,1126.0,93.0,15.0
389163,County,2020/05/01,40.0,OK,40153.0,Woodward County,3638.0,16584.0,73320.0,14134.0,26745.0,9201.0,7732.0,9522.0,3391.0,1275.0,1168.0,138.0,14.0
392362,County,2020/05/02,40.0,OK,40153.0,Woodward County,4041.0,16181.0,66731.0,13830.0,23029.0,8575.0,6658.0,9392.0,2701.0,1061.0,1067.0,377.0,41.0
395509,County,2020/05/03,40.0,OK,40153.0,Woodward County,4380.0,15842.0,56878.0,13434.0,18197.0,6456.0,5734.0,8577.0,1942.0,1207.0,1182.0,102.0,47.0
397159,County,2020/05/04,40.0,OK,40153.0,Woodward County,3778.0,16444.0,61997.0,11606.0,21908.0,7585.0,6554.0,7966.0,3405.0,1618.0,1185.0,125.0,45.0
400378,County,2020/05/05,40.0,OK,40153.0,Woodward County,3764.0,16458.0,65835.0,14391.0,22723.0,7826.0,6087.0,9198.0,2934.0,1516.0,986.0,152.0,22.0
405133,County,2020/05/06,40.0,OK,40153.0,Woodward County,3636.0,16586.0,71525.0,16662.0,24741.0,8433.0,6829.0,9011.0,3192.0,1598.0,932.0,113.0,14.0
406759,County,2020/05/07,40.0,OK,40153.0,Woodward County,3374.0,16848.0,60337.0,12472.0,20129.0,6488.0,6629.0,8048.0,3115.0,1858.0,1349.0,193.0,56.0
411490,County,2020/05/08,40.0,OK,40153.0,Woodward County,3565.0,16657.0,70297.0,14932.0,23112.0,8528.0,7108.0,10548.0,3099.0,1535.0,1308.0,92.0,35.0
413070,County,2020/05/09,40.0,OK,40153.0,Woodward County,4160.0,16062.0,65051.0,13514.0,21503.0,8591.0,6546.0,8195.0,2967.0,2187.0,1431.0,102.0,15.0
417867,County,2020/05/10,40.0,OK,40153.0,Woodward County,4368.0,15854.0,61346.0,13424.0,21718.0,7640.0,5787.0,8071.0,2200.0,1448.0,974.0,59.0,25.0
421097,County,2020/05/11,40.0,OK,40153.0,Woodward County,3553.0,16669.0,63119.0,13980.0,21350.0,7323.0,6504.0,8058.0,2609.0,1770.0,1438.0,77.0,10.0
422775,County,2020/05/12,40.0,OK,40153.0,Woodward County,3725.0,16497.0,63794.0,14989.0,21401.0,6808.0,5922.0,8468.0,3142.0,1560.0,1387.0,117.0,0.0
425784,County,2020/05/13,40.0,OK,40153.0,Woodward County,3451.0,16771.0,59874.0,13900.0,21004.0,6525.0,5611.0,7791.0,2086.0,1484.0,1366.0,103.0,4.0
429125,County,2020/05/14,40.0,OK,40153.0,Woodward County,3599.0,16623.0,65039.0,13429.0,22881.0,7760.0,6456.0,8620.0,2725.0,1482.0,1581.0,96.0,9.0
433865,County,2020/05/15,40.0,OK,40153.0,Woodward County,3574.0,16648.0,64764.0,12999.0,21568.0,7003.0,7121.0,9227.0,2770.0,2425.0,1530.0,97.0,24.0
435543,County,2020/05/16,40.0,OK,40153.0,Woodward County,3591.0,16631.0,64040.0,14137.0,21792.0,7817.0,6592.0,8296.0,2283.0,1733.0,1330.0,50.0,10.0
440228,County,2020/05/17,40.0,OK,40153.0,Woodward County,3473.0,16749.0,69126.0,15901.0,21695.0,7868.0,7111.0,10354.0,3283.0,1468.0,1364.0,72.0,10.0
443468,County,2020/05/18,40.0,OK,40153.0,Woodward County,2806.0,17416.0,81293.0,17498.0,26029.0,9502.0,8549.0,12572.0,3345.0,2281.0,1436.0,54.0,27.0
446631,County,2020/05/19,40.0,OK,40153.0,Woodward County,2845.0,17377.0,79203.0,17371.0,24971.0,10153.0,7667.0,12032.0,3572.0,1881.0,1465.0,64.0,27.0
448262,County,2020/05/20,40.0,OK,40153.0,Woodward County,2631.0,17591.0,76861.0,18073.0,25299.0,8512.0,7148.0,11355.0,3321.0,1493.0,1507.0,111.0,42.0
451433,County,2020/05/21,40.0,OK,40153.0,Woodward County,2796.0,17426.0,78673.0,17277.0,23400.0,8515.0,7991.0,13358.0,4158.0,2209.0,1626.0,131.0,8.0
456242,County,2020/05/22,40.0,OK,40153.0,Woodward County,2570.0,17652.0,78137.0,16505.0,26307.0,9318.0,7383.0,10841.0,3942.0,2013.0,1667.0,137.0,24.0
459404,County,2020/05/23,40.0,OK,40153.0,Woodward County,2791.0,17431.0,73536.0,17580.0,23781.0,8586.0,7839.0,9279.0,3024.0,2089.0,1244.0,105.0,9.0
462608,County,2020/05/24,40.0,OK,40153.0,Woodward County,3668.0,16554.0,57387.0,13723.0,19267.0,7747.0,4647.0,6922.0,1922.0,1601.0,1437.0,87.0,34.0
464236,County,2020/05/25,40.0,OK,40153.0,Woodward County,4350.0,15872.0,50765.0,10093.0,17137.0,6204.0,5760.0,6275.0,2219.0,1499.0,1393.0,154.0,31.0
467439,County,2020/05/26,40.0,OK,40153.0,Woodward County,3323.0,16899.0,70405.0,15024.0,24496.0,8627.0,6960.0,9344.0,2856.0,1591.0,1428.0,69.0,10.0
472209,County,2020/05/27,40.0,OK,40153.0,Woodward County,3198.0,17024.0,77804.0,17666.0,27869.0,8877.0,7403.0,9890.0,2820.0,1878.0,1306.0,95.0,0.0
473743,County,2020/05/28,40.0,OK,40153.0,Woodward County,3346.0,16876.0,71778.0,16582.0,25104.0,7517.0,6981.0,9306.0,3145.0,1902.0,1158.0,78.0,5.0
476987,County,2020/05/29,40.0,OK,40153.0,Woodward County,3770.0,16452.0,70896.0,15921.0,23840.0,8196.0,7487.0,9487.0,2648.0,1735.0,1504.0,61.0,17.0
480174,County,2020/05/30,40.0,OK,40153.0,Woodward County,3707.0,16515.0,62227.0,13698.0,22237.0,7258.0,6079.0,7555.0,2506.0,1835.0,996.0,56.0,7.0
484941,County,2020/05/31,40.0,OK,40153.0,Woodward County,3933.0,16289.0,60737.0,13562.0,19661.0,7259.0,6491.0,7943.0,2694.0,1591.0,1428.0,86.0,22.0
486569,County,2020/06/01,40.0,OK,40153.0,Woodward County,3091.0,17131.0,66947.0,15225.0,23365.0,8823.0,5687.0,7704.0,2890.0,1799.0,1327.0,111.0,16.0
489810,County,2020/06/02,40.0,OK,40153.0,Woodward County,3164.0,17058.0,66853.0,15456.0,23566.0,7523.0,7190.0,7247.0,2431.0,1550.0,1730.0,127.0,33.0
492978,County,2020/06/03,40.0,OK,40153.0,Woodward County,2620.0,17602.0,75701.0,15634.0,26568.0,8570.0,8020.0,10145.0,3344.0,1917.0,1399.0,68.0,36.0
497753,County,2020/06/04,40.0,OK,40153.0,Woodward County,2643.0,17579.0,69883.0,15289.0,23302.0,8112.0,6594.0,9195.0,3005.0,2149.0,2037.0,180.0,20.0
499393,County,2020/06/05,40.0,OK,40153.0,Woodward County,2864.0,17358.0,72572.0,14950.0,26392.0,8646.0,6914.0,8625.0,3246.0,1881.0,1785.0,111.0,22.0
504118,County,2020/06/06,40.0,OK,40153.0,Woodward County,3954.0,16268.0,66163.0,12732.0,22633.0,6518.0,7846.0,10271.0,2751.0,1875.0,1428.0,85.0,24.0
507317,County,2020/06/07,40.0,OK,40153.0,Woodward County,4261.0,15961.0,56735.0,11213.0,21175.0,6020.0,5823.0,6509.0,2557.0,1732.0,1502.0,197.0,7.0
510528,County,2020/06/08,40.0,OK,40153.0,Woodward County,3014.0,17208.0,79097.0,17305.0,28150.0,8810.0,7548.0,10522.0,3375.0,1806.0,1440.0,136.0,5.0
512157,County,2020/06/09,40.0,OK,40153.0,Woodward County,3289.0,16933.0,70760.0,16998.0,24433.0,7625.0,6681.0,9270.0,2655.0,1542.0,1417.0,114.0,25.0
515314,County,2020/06/10,40.0,OK,40153.0,Woodward County,3233.0,16989.0,75218.0,17830.0,25872.0,8085.0,7051.0,9347.0,3541.0,1784.0,1509.0,178.0,21.0
518518,County,2020/06/11,40.0,OK,40153.0,Woodward County,3160.0,17062.0,71985.0,18171.0,22602.0,8724.0,6840.0,9068.0,3040.0,1977.0,1401.0,134.0,28.0
521769,County,2020/06/12,40.0,OK,40153.0,Woodward County,3391.0,16831.0,67725.0,15047.0,24492.0,7583.0,6032.0,8521.0,2790.0,1827.0,1223.0,167.0,43.0
524945,County,2020/06/13,40.0,OK,40153.0,Woodward County,3441.0,16781.0,68188.0,15112.0,24493.0,7703.0,6606.0,8642.0,2734.0,1345.0,1408.0,106.0,39.0
529709,County,2020/06/14,40.0,OK,40153.0,Woodward County,4118.0,16104.0,56578.0,12077.0,19879.0,6703.0,5521.0,6462.0,2927.0,1649.0,1194.0,142.0,24.0
531289,County,2020/06/15,40.0,OK,40153.0,Woodward County,3479.0,16743.0,66233.0,14769.0,20719.0,8501.0,6500.0,9052.0,2870.0,2120.0,1585.0,90.0,27.0
534478,County,2020/06/16,40.0,OK,40153.0,Woodward County,3421.0,16801.0,67629.0,16491.0,22875.0,7667.0,6225.0,7984.0,2400.0,2423.0,1390.0,147.0,27.0
539238,County,2020/06/17,40.0,OK,40153.0,Woodward County,3574.0,16648.0,68754.0,14561.0,23200.0,8366.0,6566.0,9530.0,2940.0,2006.0,1406.0,156.0,23.0
540868,County,2020/06/18,40.0,OK,40153.0,Woodward County,3507.0,16715.0,65059.0,14307.0,20657.0,7486.0,6950.0,8449.0,3057.0,2620.0,1355.0,148.0,30.0
544060,County,2020/06/19,40.0,OK,40153.0,Woodward County,3383.0,16839.0,61393.0,13705.0,21127.0,7906.0,4897.0,7865.0,2207.0,1948.0,1569.0,145.0,24.0
547265,County,2020/06/20,40.0,OK,40153.0,Woodward County,3872.0,16350.0,58408.0,12871.0,20109.0,6550.0,4928.0,7729.0,2393.0,2205.0,1488.0,80.0,55.0
550469,County,2020/06/21,40.0,OK,40153.0,Woodward County,4470.0,15752.0,44022.0,11128.0,13443.0,4767.0,4711.0,4923.0,1705.0,1663.0,1502.0,138.0,42.0
555249,County,2020/06/22,40.0,OK,40153.0,Woodward County,3882.0,16340.0,59022.0,14750.0,18172.0,6821.0,5973.0,7298.0,2656.0,1762.0,1426.0,141.0,23.0
556877,County,2020/06/23,40.0,OK,40153.0,Woodward County,3452.0,16770.0,65351.0,14601.0,23421.0,7314.0,5601.0,7790.0,3132.0,2020.0,1277.0,157.0,38.0
560035,County,2020/06/24,40.0,OK,40153.0,Woodward County,3698.0,16524.0,60249.0,14292.0,20135.0,6007.0,6396.0,7816.0,2607.0,1702.0,1116.0,152.0,26.0
563225,County,2020/06/25,40.0,OK,40153.0,Woodward County,3567.0,16655.0,64075.0,14574.0,20505.0,7018.0,6893.0,8390.0,2831.0,2106.0,1557.0,169.0,32.0
568069,County,2020/06/26,40.0,OK,40153.0,Woodward County,3732.0,16490.0,64695.0,15146.0,23370.0,6515.0,6710.0,7586.0,2237.0,1674.0,1310.0,112.0,35.0
571219,County,2020/06/27,40.0,OK,40153.0,Woodward County,3803.0,16419.0,60304.0,14152.0,19185.0,7163.0,6399.0,7162.0,2401.0,1912.0,1777.0,104.0,49.0
574402,County,2020/06/28,40.0,OK,40153.0,Woodward County,3782.0,16440.0,56548.0,13383.0,19072.0,6304.0,5599.0,6379.0,2018.0,1831.0,1840.0,116.0,6.0
576005,County,2020/06/29,40.0,OK,40153.0,Woodward County,3837.0,16385.0,60186.0,13965.0,18899.0,6572.0,6774.0,6980.0,2584.0,2473.0,1780.0,117.0,42.0
579217,County,2020/06/30,40.0,OK,40153.0,Woodward County,3338.0,16884.0,63697.0,15527.0,22637.0,6277.0,5332.0,7604.0,2386.0,2081.0,1578.0,215.0,60.0
582420,County,2020/07/01,40.0,OK,40153.0,Woodward County,3499.0,16723.0,60580.0,13978.0,19631.0,7303.0,5753.0,7543.0,2889.0,1541.0,1739.0,152.0,51.0
585609,County,2020/07/02,40.0,OK,40153.0,Woodward County,4519.0,15703.0,68009.0,15469.0,21764.0,7449.0,7316.0,8905.0,3005.0,2235.0,1653.0,179.0,34.0
590401,County,2020/07/03,40.0,OK,40153.0,Woodward County,4665.0,15557.0,64330.0,15061.0,23238.0,6478.0,6672.0,7543.0,2224.0,1665.0,1303.0,111.0,35.0
592003,County,2020/07/04,40.0,OK,40153.0,Woodward County,5150.0,15072.0,55035.0,12885.0,19881.0,5542.0,5708.0,6453.0,1903.0,1424.0,1114.0,95.0,30.0
596749,County,2020/07/05,40.0,OK,40153.0,Woodward County,4158.0,16064.0,46659.0,8907.0,16429.0,4900.0,4435.0,6958.0,1697.0,1624.0,1641.0,41.0,27.0
599925,County,2020/07/06,40.0,OK,40153.0,Woodward County,3658.0,16564.0,56658.0,13434.0,18639.0,6181.0,5489.0,6233.0,2689.0,2089.0,1761.0,105.0,38.0
601502,County,2020/07/07,40.0,OK,40153.0,Woodward County,3662.0,16560.0,61070.0,14135.0,19974.0,6780.0,5596.0,7280.0,3013.0,2364.0,1729.0,153.0,46.0
606262,County,2020/07/08,40.0,OK,40153.0,Woodward County,3787.0,16435.0,56679.0,13705.0,18649.0,5960.0,5257.0,6448.0,2524.0,2482.0,1426.0,198.0,30.0
609516,County,2020/07/09,40.0,OK,40153.0,Woodward County,3439.0,16783.0,57172.0,13031.0,19210.0,5899.0,5606.0,7232.0,2628.0,2034.0,1394.0,105.0,33.0
612721,County,2020/07/10,40.0,OK,40153.0,Woodward County,3483.0,16739.0,58558.0,14015.0,18993.0,6106.0,4982.0,7380.0,3016.0,2213.0,1729.0,80.0,44.0
615936,County,2020/07/11,40.0,OK,40153.0,Woodward County,3775.0,16447.0,53084.0,12002.0,18925.0,4930.0,4483.0,7128.0,2262.0,1626.0,1596.0,69.0,63.0
619123,County,2020/07/12,40.0,OK,40153.0,Woodward County,4582.0,15640.0,44814.0,9452.0,16473.0,4135.0,3745.0,5846.0,2119.0,1293.0,1519.0,172.0,60.0
622330,County,2020/07/13,40.0,OK,40153.0,Woodward County,4332.0,15890.0,50901.0,11363.0,17583.0,5594.0,4845.0,6677.0,1932.0,1380.0,1414.0,78.0,35.0
623911,County,2020/07/14,40.0,OK,40153.0,Woodward County,4032.0,16190.0,52452.0,11817.0,17334.0,6196.0,5758.0,6350.0,1944.0,1647.0,1308.0,84.0,14.0
627033,County,2020/07/15,40.0,OK,40153.0,Woodward County,4051.0,16171.0,55712.0,12212.0,17557.0,6615.0,5778.0,7193.0,3127.0,1827.0,1261.0,121.0,21.0
631963,County,2020/07/16,40.0,OK,40153.0,Woodward County,4209.0,16013.0,52623.0,10169.0,17642.0,5729.0,6267.0,6692.0,2957.0,1553.0,1515.0,79.0,20.0
635058,County,2020/07/17,40.0,OK,40153.0,Woodward County,4162.0,16060.0,54305.0,11304.0,18434.0,5616.0,5511.0,7559.0,2307.0,1999.0,1476.0,82.0,17.0
638261,County,2020/07/18,40.0,OK,40153.0,Woodward County,4556.0,15666.0,49777.0,10997.0,17733.0,5406.0,4532.0,6757.0,1626.0,1498.0,1047.0,159.0,22.0
641464,County,2020/07/19,40.0,OK,40153.0,Woodward County,4691.0,15531.0,44394.0,9809.0,14582.0,4857.0,5143.0,5022.0,1601.0,1565.0,1575.0,220.0,20.0
644672,County,2020/07/20,40.0,OK,40153.0,Woodward County,4076.0,16146.0,55499.0,11502.0,19332.0,5880.0,5366.0,7109.0,2836.0,1672.0,1641.0,120.0,41.0
647170,County,2020/07/21,40.0,OK,40153.0,Woodward County,3927.0,16295.0,53805.0,10552.0,18097.0,6550.0,5229.0,7364.0,2427.0,2010.0,1371.0,143.0,62.0
648982,County,2020/07/22,40.0,OK,40153.0,Woodward County,3980.0,16242.0,58032.0,12822.0,17899.0,6985.0,4956.0,8405.0,2921.0,2495.0,1408.0,113.0,28.0
654223,County,2020/07/23,40.0,OK,40153.0,Woodward County,3877.0,16345.0,52913.0,10385.0,16653.0,5766.0,4858.0,7515.0,2766.0,2811.0,2013.0,71.0,75.0
657497,County,2020/07/24,40.0,OK,40153.0,Woodward County,3489.0,16733.0,59116.0,12964.0,20123.0,6107.0,4999.0,7248.0,3011.0,2466.0,1986.0,148.0,64.0
660714,County,2020/07/25,40.0,OK,40153.0,Woodward County,4150.0,16072.0,50239.0,9408.0,15853.0,6748.0,4199.0,7380.0,2285.0,2299.0,1905.0,143.0,19.0
662239,County,2020/07/26,40.0,OK,40153.0,Woodward County,4309.0,15913.0,49009.0,10185.0,15560.0,4887.0,4048.0,7347.0,1940.0,3028.0,1744.0,222.0,48.0
665534,County,2020/07/27,40.0,OK,40153.0,Woodward County,3950.0,16272.0,57693.0,12745.0,17644.0,6181.0,5701.0,7484.0,2826.0,2834.0,2004.0,228.0,46.0
670221,County,2020/07/28,40.0,OK,40153.0,Woodward County,3785.0,16437.0,58495.0,12075.0,17675.0,5801.0,6236.0,8863.0,2857.0,3074.0,1637.0,221.0,56.0
671852,County,2020/07/29,40.0,OK,40153.0,Woodward County,3831.0,16391.0,54941.0,11179.0,17579.0,5882.0,4966.0,7412.0,3303.0,2697.0,1737.0,138.0,48.0
675064,County,2020/07/30,40.0,OK,40153.0,Woodward County,3469.0,16753.0,58301.0,12909.0,17609.0,6040.0,6311.0,7481.0,2858.0,2862.0,2003.0,161.0,67.0
678216,County,2020/07/31,40.0,OK,40153.0,Woodward County,3783.0,16439.0,54770.0,13254.0,16377.0,5741.0,4615.0,6325.0,2990.0,3241.0,2039.0,139.0,49.0
682962,County,2020/08/01,40.0,OK,40153.0,Woodward County,4010.0,16212.0,50032.0,10038.0,15544.0,5615.0,4824.0,6559.0,2714.0,2501.0,1957.0,207.0,73.0
686202,County,2020/08/02,40.0,OK,40153.0,Woodward County,4446.0,15776.0,45486.0,8897.0,15880.0,5138.0,3227.0,5253.0,2759.0,2040.0,2001.0,254.0,37.0
689405,County,2020/08/03,40.0,OK,40153.0,Woodward County,3991.0,16231.0,56904.0,10727.0,20073.0,5375.0,4384.0,8479.0,3555.0,2488.0,1672.0,137.0,14.0
692568,County,2020/08/04,40.0,OK,40153.0,Woodward County,3585.0,16637.0,62346.0,13879.0,20263.0,6309.0,6263.0,8198.0,3605.0,2179.0,1431.0,159.0,60.0
694196,County,2020/08/05,40.0,OK,40153.0,Woodward County,3825.0,16397.0,60412.0,12478.0,20892.0,6023.0,5866.0,7696.0,3371.0,2302.0,1621.0,138.0,25.0
697402,County,2020/08/06,40.0,OK,40153.0,Woodward County,3219.0,17003.0,61065.0,12756.0,21350.0,7018.0,5965.0,7297.0,2586.0,2480.0,1473.0,79.0,61.0
700614,County,2020/08/07,40.0,OK,40153.0,Woodward County,3741.0,16481.0,57938.0,14128.0,19036.0,5468.0,5287.0,7013.0,3332.0,1790.0,1763.0,115.0,6.0
703764,County,2020/08/08,40.0,OK,40153.0,Woodward County,3995.0,16227.0,55861.0,12502.0,17235.0,5839.0,4689.0,8901.0,2770.0,2126.0,1615.0,125.0,59.0
706954,County,2020/08/09,40.0,OK,40153.0,Woodward County,4176.0,16046.0,56042.0,11776.0,20967.0,4937.0,5411.0,6977.0,2131.0,1590.0,2049.0,174.0,30.0
711763,County,2020/08/10,40.0,OK,40153.0,Woodward County,3754.0,16468.0,63849.0,13676.0,21207.0,6868.0,5777.0,9639.0,2685.0,2109.0,1732.0,120.0,36.0
714956,County,2020/08/11,40.0,OK,40153.0,Woodward County,3888.0,16334.0,68342.0,15801.0,22675.0,7213.0,6407.0,9325.0,3394.0,1832.0,1580.0,77.0,38.0
716538,County,2020/08/12,40.0,OK,40153.0,Woodward County,3719.0,16503.0,63712.0,13772.0,21077.0,5816.0,5767.0,8532.0,3455.0,2875.0,2150.0,146.0,122.0
721297,County,2020/08/13,40.0,OK,40153.0,Woodward County,2901.0,17321.0,70110.0,15315.0,24404.0,6676.0,6199.0,9222.0,3529.0,2126.0,2212.0,206.0,221.0
724523,County,2020/08/14,40.0,OK,40153.0,Woodward County,3234.0,16988.0,67463.0,14068.0,22777.0,7813.0,5669.0,9018.0,3923.0,1745.0,2013.0,217.0,220.0
727734,County,2020/08/15,40.0,OK,40153.0,Woodward County,3655.0,16567.0,63075.0,12064.0,20997.0,7191.0,6122.0,8998.0,2471.0,2605.0,2358.0,96.0,173.0
729314,County,2020/08/16,40.0,OK,40153.0,Woodward County,3668.0,16554.0,56199.0,11789.0,18161.0,5703.0,5655.0,6753.0,2969.0,2109.0,2600.0,209.0,251.0
734094,County,2020/08/17,40.0,OK,40153.0,Woodward County,3383.0,16839.0,75865.0,17442.0,27039.0,7892.0,6120.0,9774.0,3506.0,1883.0,1711.0,218.0,280.0
735722,County,2020/08/18,40.0,OK,40153.0,Woodward County,3620.0,16602.0,73269.0,16675.0,24236.0,8877.0,6094.0,8067.0,4162.0,2690.0,1965.0,210.0,293.0
738927,County,2020/08/19,40.0,OK,40153.0,Woodward County,3101.0,17121.0,72090.0,16193.0,23588.0,7731.0,6222.0,9650.0,4333.0,1844.0,2078.0,171.0,280.0
743708,County,2020/08/20,40.0,OK,40153.0,Woodward County,3122.0,17100.0,73982.0,16874.0,24176.0,8386.0,6620.0,9262.0,3724.0,2516.0,2010.0,156.0,258.0
746865,County,2020/08/21,40.0,OK,40153.0,Woodward County,2766.0,17456.0,74736.0,17698.0,23863.0,7769.0,6506.0,10110.0,3509.0,2661.0,2118.0,217.0,285.0
750070,County,2020/08/22,40.0,OK,40153.0,Woodward County,3197.0,17025.0,70442.0,15959.0,23583.0,7103.0,6708.0,8995.0,3673.0,2450.0,1591.0,140.0,240.0
753239,County,2020/08/23,40.0,OK,40153.0,Woodward County,4048.0,16174.0,54059.0,12594.0,17059.0,5947.0,5455.0,7004.0,3069.0,1162.0,1433.0,137.0,199.0
754909,County,2020/08/24,40.0,OK,40153.0,Woodward County,3681.0,16541.0,65184.0,15186.0,22404.0,6522.0,5910.0,8700.0,2886.0,1944.0,1304.0,108.0,220.0
759670,County,2020/08/25,40.0,OK,40153.0,Woodward County,3446.0,16776.0,72008.0,16746.0,23654.0,8997.0,7140.0,8055.0,3525.0,1825.0,1726.0,152.0,188.0
761253,County,2020/08/26,40.0,OK,40153.0,Woodward County,3304.0,16918.0,68287.0,16555.0,23060.0,7110.0,6280.0,8113.0,3640.0,1920.0,1378.0,104.0,127.0
766026,County,2020/08/27,40.0,OK,40153.0,Woodward County,3448.0,16774.0,70121.0,14991.0,23596.0,9092.0,6393.0,8825.0,3534.0,1845.0,1643.0,110.0,92.0
767666,County,2020/08/28,40.0,OK,40153.0,Woodward County,3464.0,16758.0,71192.0,16508.0,24550.0,7494.0,6771.0,8485.0,3676.0,2026.0,1474.0,158.0,50.0
770869,County,2020/08/29,40.0,OK,40153.0,Woodward County,3608.0,16614.0,67674.0,15805.0,22219.0,8209.0,6481.0,7459.0,2999.0,2292.0,1934.0,176.0,100.0
774072,County,2020/08/30,40.0,OK,40153.0,Woodward County,4395.0,15827.0,53852.0,10246.0,19464.0,7578.0,5297.0,5920.0,1778.0,1544.0,1790.0,171.0,64.0
777255,County,2020/08/31,40.0,OK,40153.0,Woodward County,3881.0,16341.0,65896.0,16610.0,22398.0,7081.0,5899.0,7036.0,3292.0,1928.0,1505.0,77.0,70.0
780406,County,2020/09/01,40.0,OK,40153.0,Woodward County,3582.0,16640.0,67466.0,16555.0,20922.0,7092.0,6448.0,7935.0,4282.0,2340.0,1688.0,155.0,49.0
785177,County,2020/09/02,40.0,OK,40153.0,Woodward County,3579.0,16643.0,70412.0,15172.0,24438.0,7409.0,6619.0,8915.0,3864.0,2034.0,1774.0,161.0,26.0
788390,County,2020/09/03,40.0,OK,40153.0,Woodward County,3446.0,16776.0,74384.0,15984.0,24436.0,8185.0,7464.0,9862.0,3940.0,2495.0,1823.0,131.0,64.0
790003,County,2020/09/04,40.0,OK,40153.0,Woodward County,3681.0,16541.0,150960.0,81022.0,39454.0,8510.0,5976.0,7691.0,3427.0,2774.0,1812.0,251.0,43.0
794767,County,2020/09/05,40.0,OK,40153.0,Woodward County,3661.0,16561.0,60053.0,13482.0,18816.0,6723.0,5491.0,7760.0,3329.0,1834.0,2341.0,198.0,79.0
797972,County,2020/09/06,40.0,OK,40153.0,Woodward County,4733.0,15489.0,53054.0,11780.0,17098.0,5701.0,6286.0,5508.0,3163.0,1562.0,1706.0,183.0,67.0
801181,County,2020/09/07,40.0,OK,40153.0,Woodward County,4628.0,15594.0,53859.0,12689.0,15997.0,5817.0,5542.0,6406.0,2755.0,2460.0,1927.0,222.0,44.0
802802,County,2020/09/08,40.0,OK,40153.0,Woodward County,3721.0,16501.0,67569.0,15045.0,22343.0,7136.0,6755.0,8341.0,3318.0,2286.0,2183.0,105.0,57.0
807582,County,2020/09/09,40.0,OK,40153.0,Woodward County,3808.0,16414.0,68150.0,15581.0,23718.0,6683.0,7084.0,7598.0,3348.0,1778.0,2099.0,166.0,95.0
810738,County,2020/09/10,40.0,OK,40153.0,Woodward County,3709.0,16513.0,65621.0,14194.0,23952.0,6862.0,6332.0,6806.0,2774.0,2412.0,2125.0,125.0,39.0
812367,County,2020/09/11,40.0,OK,40153.0,Woodward County,3681.0,16541.0,73355.0,17874.0,23274.0,7635.0,7760.0,8562.0,3474.0,2578.0,1950.0,201.0,47.0
815552,County,2020/09/12,40.0,OK,40153.0,Woodward County,4089.0,16133.0,60711.0,11852.0,20604.0,6026.0,5681.0,8455.0,2921.0,2759.0,2242.0,148.0,23.0
820349,County,2020/09/13,40.0,OK,40153.0,Woodward County,4615.0,15607.0,52002.0,9797.0,18151.0,5887.0,5378.0,6536.0,2411.0,1788.0,1878.0,149.0,27.0
821978,County,2020/09/14,40.0,OK,40153.0,Woodward County,3677.0,16545.0,68634.0,14964.0,23830.0,7596.0,7243.0,8213.0,3325.0,1682.0,1594.0,147.0,40.0
825134,County,2020/09/15,40.0,OK,40153.0,Woodward County,3442.0,16780.0,70238.0,16769.0,24132.0,7303.0,6686.0,7127.0,3824.0,2310.0,1856.0,211.0,20.0
829941,County,2020/09/16,40.0,OK,40153.0,Woodward County,3627.0,16595.0,72581.0,16568.0,23585.0,8452.0,6854.0,9755.0,3406.0,2161.0,1593.0,193.0,14.0
833118,County,2020/09/17,40.0,OK,40153.0,Woodward County,3710.0,16512.0,69115.0,16008.0,24283.0,6273.0,6986.0,7870.0,3340.0,2745.0,1353.0,229.0,28.0
834747,County,2020/09/18,40.0,OK,40153.0,Woodward County,3532.0,16690.0,86158.0,24049.0,29767.0,7683.0,7077.0,9430.0,3152.0,3026.0,1806.0,133.0,35.0
839522,County,2020/09/19,40.0,OK,40153.0,Woodward County,3929.0,16293.0,68493.0,15133.0,23470.0,6941.0,6818.0,8078.0,3273.0,2541.0,2027.0,174.0,38.0
842685,County,2020/09/20,40.0,OK,40153.0,Woodward County,4200.0,16022.0,55435.0,13824.0,18940.0,5428.0,5440.0,5985.0,2194.0,1572.0,1848.0,139.0,65.0
844313,County,2020/09/21,40.0,OK,40153.0,Woodward County,4464.0,15758.0,62790.0,15102.0,20498.0,7281.0,5578.0,7032.0,3266.0,2400.0,1446.0,155.0,32.0
847517,County,2020/09/22,40.0,OK,40153.0,Woodward County,4032.0,16190.0,66666.0,15804.0,24486.0,7011.0,6633.0,6657.0,2914.0,1637.0,1420.0,89.0,15.0
852295,County,2020/09/23,40.0,OK,40153.0,Woodward County,3475.0,16747.0,71148.0,17763.0,23507.0,8544.0,6317.0,8929.0,2571.0,1969.0,1449.0,92.0,7.0
853923,County,2020/09/24,40.0,OK,40153.0,Woodward County,3584.0,16638.0,63245.0,12922.0,22355.0,7291.0,6302.0,7518.0,2636.0,2018.0,1792.0,368.0,43.0
857080,County,2020/09/25,40.0,OK,40153.0,Woodward County,3720.0,16502.0,68675.0,14911.0,24222.0,7540.0,6829.0,8339.0,3297.0,1950.0,1339.0,147.0,101.0
860266,County,2020/09/26,40.0,OK,40153.0,Woodward County,4270.0,15952.0,62497.0,14563.0,20894.0,7093.0,8003.0,7250.0,1464.0,1873.0,1177.0,163.0,17.0
865062,County,2020/09/27,40.0,OK,40153.0,Woodward County,4481.0,15741.0,50272.0,10426.0,17885.0,6011.0,4583.0,6509.0,1864.0,1389.0,1230.0,317.0,58.0
866691,County,2020/09/28,40.0,OK,40153.0,Woodward County,4046.0,16176.0,65036.0,16046.0,23144.0,6390.0,6077.0,8048.0,2745.0,1265.0,1139.0,123.0,59.0
869849,County,2020/09/29,40.0,OK,40153.0,Woodward County,3691.0,16531.0,63463.0,13277.0,21581.0,7724.0,7046.0,7455.0,2830.0,2269.0,1078.0,173.0,30.0
874628,County,2020/09/30,40.0,OK,40153.0,Woodward County,4289.0,15933.0,67701.0,13949.0,25174.0,7003.0,6447.0,7954.0,3685.0,2319.0,1033.0,98.0,39.0
876256,County,2020/10/01,40.0,OK,40153.0,Woodward County,3662.0,16560.0,66504.0,14990.0,25843.0,7000.0,4905.0,7067.0,3060.0,1903.0,1637.0,77.0,22.0
879459,County,2020/10/02,40.0,OK,40153.0,Woodward County,3955.0,16267.0,61336.0,10881.0,21618.0,7365.0,6164.0,8448.0,3071.0,1947.0,1692.0,139.0,11.0
882675,County,2020/10/03,40.0,OK,40153.0,Woodward County,4232.0,15990.0,57762.0,12616.0,18396.0,6576.0,6501.0,7080.0,2960.0,1843.0,1673.0,102.0,15.0
886912,County,2020/10/04,40.0,OK,40153.0,Woodward County,4298.0,15924.0,55824.0,12957.0,16911.0,6928.0,5639.0,7012.0,2469.0,1659.0,2154.0,66.0,29.0
890093,County,2020/10/05,40.0,OK,40153.0,Woodward County,4185.0,16037.0,63091.0,13344.0,23053.0,7359.0,5634.0,6324.0,3626.0,2156.0,1471.0,105.0,19.0
893291,County,2020/10/06,40.0,OK,40153.0,Woodward County,3986.0,16236.0,67224.0,13676.0,23269.0,8148.0,6008.0,8775.0,2795.0,3340.0,1122.0,75.0,16.0
896511,County,2020/10/07,40.0,OK,40153.0,Woodward County,3561.0,16661.0,74960.0,14828.0,28216.0,8699.0,6503.0,8777.0,3868.0,2861.0,1072.0,113.0,23.0
899693,County,2020/10/08,40.0,OK,40153.0,Woodward County,3786.0,16436.0,62625.0,14461.0,20860.0,7312.0,4982.0,7501.0,3799.0,2316.0,1267.0,112.0,15.0
902878,County,2020/10/09,40.0,OK,40153.0,Woodward County,4249.0,15973.0,65512.0,14419.0,20648.0,7530.0,6423.0,9932.0,3008.0,2322.0,1122.0,98.0,10.0
906247,County,2020/10/10,40.0,OK,40153.0,Woodward County,4603.0,15619.0,58975.0,13973.0,18794.0,6954.0,5829.0,5944.0,3187.0,2477.0,1747.0,58.0,12.0
908201,County,2020/10/11,40.0,OK,40153.0,Woodward County,4464.0,15758.0,53566.0,11133.0,18253.0,5882.0,5574.0,6973.0,1733.0,2210.0,1680.0,114.0,14.0
911218,County,2020/10/12,40.0,OK,40153.0,Woodward County,3877.0,16345.0,61479.0,13591.0,23313.0,5623.0,5387.0,6790.0,3056.0,1937.0,1674.0,98.0,10.0
914481,County,2020/10/13,40.0,OK,40153.0,Woodward County,3766.0,16456.0,66354.0,14036.0,23413.0,7395.0,6395.0,7611.0,3718.0,2556.0,1098.0,110.0,22.0
917511,County,2020/10/14,40.0,OK,40153.0,Woodward County,3723.0,16499.0,70239.0,16014.0,25005.0,7563.0,5448.0,9089.0,3229.0,2568.0,1203.0,94.0,26.0
920882,County,2020/10/15,40.0,OK,40153.0,Woodward County,3859.0,16363.0,65897.0,15276.0,23464.0,7069.0,5454.0,7458.0,2417.0,3062.0,1562.0,95.0,40.0
924036,County,2020/10/16,40.0,OK,40153.0,Woodward County,3614.0,16608.0,65786.0,14836.0,22346.0,6854.0,5373.0,8018.0,3361.0,2748.0,2108.0,114.0,28.0
926819,County,2020/10/17,40.0,OK,40153.0,Woodward County,3999.0,16223.0,60108.0,14336.0,20259.0,6398.0,4932.0,7061.0,2207.0,3253.0,1540.0,107.0,15.0
930449,County,2020/10/18,40.0,OK,40153.0,Woodward County,4095.0,16127.0,51859.0,9882.0,17247.0,6240.0,4949.0,6498.0,2968.0,2343.0,1585.0,128.0,19.0
933968,County,2020/10/19,40.0,OK,40153.0,Woodward County,3604.0,16618.0,64991.0,13801.0,23206.0,6819.0,6189.0,6745.0,3568.0,2534.0,2031.0,65.0,33.0
936749,County,2020/10/20,40.0,OK,40153.0,Woodward County,3705.0,16517.0,66705.0,13791.0,22700.0,7387.0,7102.0,7466.0,3772.0,2860.0,1479.0,117.0,31.0
940033,County,2020/10/21,40.0,OK,40153.0,Woodward County,3986.0,16236.0,65312.0,13826.0,21554.0,7564.0,6198.0,7713.0,3859.0,2709.0,1733.0,128.0,28.0
943590,County,2020/10/22,40.0,OK,40153.0,Woodward County,3387.0,16835.0,71215.0,15675.0,25716.0,5668.0,7421.0,8698.0,4170.0,2174.0,1517.0,160.0,16.0
946451,County,2020/10/23,40.0,OK,40153.0,Woodward County,3131.0,17091.0,73726.0,15815.0,24121.0,7400.0,7653.0,9875.0,4165.0,2891.0,1644.0,137.0,25.0
949290,County,2020/10/24,40.0,OK,40153.0,Woodward County,3891.0,16331.0,66530.0,14607.0,21803.0,7423.0,6578.0,9160.0,2740.0,2776.0,1272.0,144.0,27.0
