,Level,Date,State FIPS,State Postal Code,County FIPS,County Name,Population Staying at Home,Population Not Staying at Home,Number of Trips,Number of Trips <1,Number of Trips 1-3,Number of Trips 3-5,Number of Trips 5-10,Number of Trips 10-25,Number of Trips 25-50,Number of Trips 50-100,Number of Trips 100-250,Number of Trips 250-500,Number of Trips >=500
1340,County,2020/01/01,27.0,MN,27053.0,Hennepin County,350768.0,908660.0,3189858.0,836965.0,765381.0,388200.0,524525.0,494409.0,111797.0,33446.0,26130.0,3763.0,5242.0
3580,County,2020/01/02,27.0,MN,27053.0,Hennepin County,275473.0,983955.0,4080503.0,1014631.0,953534.0,497458.0,704273.0,723003.0,127178.0,31555.0,21072.0,3374.0,4425.0
8791,County,2020/01/03,27.0,MN,27053.0,Hennepin County,278237.0,981191.0,4174379.0,1054265.0,972304.0,524160.0,706170.0,714528.0,134416.0,36371.0,24251.0,3626.0,4288.0
12038,County,2020/01/04,27.0,MN,27053.0,Hennepin County,305450.0,953978.0,4034272.0,1039489.0,968284.0,517622.0,672447.0,624365.0,136681.0,43487.0,24167.0,3555.0,4175.0
14116,County,2020/01/05,27.0,MN,27053.0,Hennepin County,342349.0,917079.0,3349320.0,840468.0,842993.0,430960.0,558879.0,504848.0,98750.0,34474.0,27387.0,4430.0,6131.0
16576,County,2020/01/06,27.0,MN,27053.0,Hennepin County,285749.0,973679.0,4023909.0,992888.0,929370.0,514580.0,692645.0,720292.0,120601.0,29241.0,16281.0,3084.0,4927.0
19830,County,2020/01/07,27.0,MN,27053.0,Hennepin County,279058.0,980370.0,4070060.0,1016353.0,953060.0,503477.0,694937.0,727294.0,124911.0,28744.0,14268.0,2855.0,4161.0
24678,County,2020/01/08,27.0,MN,27053.0,Hennepin County,275930.0,983498.0,4043095.0,997950.0,928184.0,508345.0,700581.0,729078.0,126370.0,28112.0,16532.0,3294.0,4649.0
26208,County,2020/01/09,27.0,MN,27053.0,Hennepin County,273418.0,986010.0,4187455.0,1055720.0,977036.0,517477.0,716318.0,735709.0,126179.0,32696.0,18593.0,2986.0,4741.0
29404,County,2020/01/10,27.0,MN,27053.0,Hennepin County,266886.0,992542.0,4375683.0,1075796.0,1029738.0,555794.0,751356.0,758479.0,134172.0,36083.0,25988.0,3565.0,4712.0
32644,County,2020/01/11,27.0,MN,27053.0,Hennepin County,309306.0,950122.0,3944498.0,998308.0,971095.0,498479.0,669014.0,617310.0,128917.0,34906.0,19269.0,2998.0,4202.0
35800,County,2020/01/12,27.0,MN,27053.0,Hennepin County,328891.0,930537.0,3558178.0,884422.0,885555.0,469197.0,619236.0,525205.0,104233.0,35066.0,26509.0,3787.0,4968.0
39044,County,2020/01/13,27.0,MN,27053.0,Hennepin County,286010.0,973418.0,4004425.0,1014834.0,946392.0,503127.0,675641.0,695051.0,118655.0,25918.0,17281.0,2876.0,4650.0
43776,County,2020/01/14,27.0,MN,27053.0,Hennepin County,273573.0,985855.0,4257352.0,1091919.0,999670.0,511589.0,725923.0,752103.0,124156.0,29426.0,16003.0,2600.0,3963.0
45358,County,2020/01/15,27.0,MN,27053.0,Hennepin County,273141.0,986287.0,4109088.0,1020443.0,961392.0,504987.0,711532.0,734104.0,123335.0,29170.0,16580.0,2993.0,4552.0
50138,County,2020/01/16,27.0,MN,27053.0,Hennepin County,271682.0,987746.0,4100137.0,1006130.0,952678.0,507947.0,708007.0,735970.0,127514.0,32568.0,20133.0,3776.0,5414.0
51766,County,2020/01/17,27.0,MN,27053.0,Hennepin County,294298.0,965130.0,3999554.0,1090841.0,981072.0,488977.0,639536.0,636399.0,106273.0,27238.0,20589.0,3479.0,5150.0
56547,County,2020/01/18,27.0,MN,27053.0,Hennepin County,344219.0,915209.0,3964500.0,1095308.0,1022109.0,519965.0,644881.0,543368.0,95731.0,21959.0,14128.0,2704.0,4347.0
58145,County,2020/01/19,27.0,MN,27053.0,Hennepin County,342612.0,916816.0,3629035.0,971128.0,918542.0,459290.0,588867.0,528951.0,103426.0,28563.0,22291.0,3379.0,4598.0
62908,County,2020/01/20,27.0,MN,27053.0,Hennepin County,299111.0,960317.0,3963930.0,1024034.0,920914.0,492542.0,665607.0,673545.0,123709.0,32160.0,22778.0,3132.0,5509.0
64535,County,2020/01/21,27.0,MN,27053.0,Hennepin County,277742.0,981686.0,4112743.0,1064424.0,966423.0,497730.0,679203.0,728525.0,123412.0,29148.0,16538.0,2892.0,4448.0
67738,County,2020/01/22,27.0,MN,27053.0,Hennepin County,262038.0,997390.0,4234889.0,1124632.0,967116.0,519816.0,707133.0,736590.0,126954.0,28760.0,16630.0,2797.0,4461.0
72528,County,2020/01/23,27.0,MN,27053.0,Hennepin County,274142.0,985286.0,4285098.0,1148279.0,990640.0,513286.0,716252.0,736018.0,123376.0,28715.0,20245.0,3102.0,5185.0
75684,County,2020/01/24,27.0,MN,27053.0,Hennepin County,267171.0,992257.0,4580759.0,1239925.0,1061451.0,555120.0,754054.0,762664.0,132824.0,38959.0,27367.0,3315.0,5080.0
77311,County,2020/01/25,27.0,MN,27053.0,Hennepin County,296462.0,962966.0,4361922.0,1210877.0,1043409.0,549550.0,705735.0,649502.0,134858.0,38921.0,22073.0,3110.0,3887.0
81190,County,2020/01/26,27.0,MN,27053.0,Hennepin County,316798.0,942630.0,3943612.0,1140225.0,950510.0,479485.0,615837.0,568109.0,109545.0,39744.0,30973.0,3803.0,5381.0
85235,County,2020/01/27,27.0,MN,27053.0,Hennepin County,277597.0,981831.0,4192023.0,1127397.0,974796.0,512422.0,688859.0,710545.0,122803.0,30226.0,16829.0,2908.0,5238.0
89039,County,2020/01/28,27.0,MN,27053.0,Hennepin County,275119.0,984309.0,4259498.0,1137922.0,994520.0,511808.0,703777.0,735166.0,123710.0,28122.0,16735.0,3128.0,4610.0
91689,County,2020/01/29,27.0,MN,27053.0,Hennepin County,275302.0,984126.0,4290676.0,1151122.0,976949.0,530453.0,717390.0,733315.0,128486.0,28132.0,17447.0,2875.0,4507.0
94896,County,2020/01/30,27.0,MN,27053.0,Hennepin County,264943.0,994485.0,4157595.0,1076656.0,920092.0,497637.0,707513.0,751714.0,131248.0,32563.0,22842.0,6463.0,10867.0
96470,County,2020/01/31,27.0,MN,27053.0,Hennepin County,257123.0,1002305.0,4333469.0,1101909.0,979640.0,516564.0,744035.0,770319.0,130914.0,38811.0,31664.0,7472.0,12141.0
99719,County,2020/02/01,27.0,MN,27053.0,Hennepin County,282882.0,976546.0,4245460.0,1134316.0,989751.0,523462.0,719641.0,670554.0,126423.0,37969.0,25372.0,6735.0,11237.0
104430,County,2020/02/02,27.0,MN,27053.0,Hennepin County,307697.0,951731.0,3851537.0,1098387.0,912900.0,449628.0,618519.0,583273.0,108151.0,32353.0,29133.0,7366.0,11827.0
107682,County,2020/02/03,27.0,MN,27053.0,Hennepin County,266826.0,992602.0,4245296.0,1147264.0,941397.0,496786.0,724137.0,741472.0,119229.0,31871.0,23602.0,7272.0,12266.0
110820,County,2020/02/04,27.0,MN,27053.0,Hennepin County,259115.0,1000313.0,4260612.0,1129151.0,940935.0,489871.0,739508.0,765185.0,122528.0,31587.0,22340.0,7490.0,12017.0
112445,County,2020/02/05,27.0,MN,27053.0,Hennepin County,262270.0,997158.0,4304318.0,1159552.0,968543.0,498680.0,723794.0,759930.0,119477.0,32803.0,21973.0,6964.0,12602.0
117228,County,2020/02/06,27.0,MN,27053.0,Hennepin County,259383.0,1000045.0,4367784.0,1188194.0,972229.0,516512.0,729640.0,762446.0,123792.0,33875.0,21939.0,7103.0,12054.0
120482,County,2020/02/07,27.0,MN,27053.0,Hennepin County,259501.0,999927.0,4511506.0,1230138.0,1038447.0,542546.0,741287.0,751329.0,125897.0,35667.0,29093.0,7096.0,10006.0
122052,County,2020/02/08,27.0,MN,27053.0,Hennepin County,287229.0,972199.0,4165329.0,1143436.0,987390.0,509744.0,684369.0,638353.0,124320.0,37704.0,25689.0,5936.0,8388.0
125353,County,2020/02/09,27.0,MN,27053.0,Hennepin County,370728.0,888700.0,3522880.0,1015614.0,836850.0,426751.0,550323.0,519245.0,94723.0,31281.0,29222.0,6601.0,12270.0
129649,County,2020/02/10,27.0,MN,27053.0,Hennepin County,265459.0,993969.0,4488649.0,1209804.0,1012011.0,534957.0,757918.0,769546.0,126963.0,33035.0,22271.0,7451.0,14693.0
132100,County,2020/02/11,27.0,MN,27053.0,Hennepin County,247014.0,1012414.0,4514042.0,1186163.0,1005658.0,546213.0,772067.0,797312.0,129563.0,31446.0,23397.0,7716.0,14507.0
135277,County,2020/02/12,27.0,MN,27053.0,Hennepin County,258898.0,1000530.0,4474120.0,1142989.0,989193.0,545809.0,774499.0,813405.0,131586.0,30961.0,23262.0,7989.0,14427.0
139612,County,2020/02/13,27.0,MN,27053.0,Hennepin County,262097.0,997331.0,4316865.0,1082785.0,953152.0,522300.0,744391.0,808817.0,124079.0,33326.0,24893.0,8001.0,15121.0
142765,County,2020/02/14,27.0,MN,27053.0,Hennepin County,255953.0,1003475.0,4808987.0,1227229.0,1110869.0,573365.0,813417.0,840164.0,141730.0,42146.0,34942.0,9063.0,16062.0
144389,County,2020/02/15,27.0,MN,27053.0,Hennepin County,287946.0,971482.0,4624432.0,1231876.0,1049184.0,567841.0,758763.0,770938.0,148695.0,43976.0,31657.0,7793.0,13709.0
149173,County,2020/02/16,27.0,MN,27053.0,Hennepin County,318195.0,941233.0,4073633.0,1103079.0,947091.0,491696.0,654198.0,649981.0,124333.0,42222.0,38808.0,8329.0,13896.0
150801,County,2020/02/17,27.0,MN,27053.0,Hennepin County,367644.0,891784.0,3572770.0,945328.0,791992.0,420695.0,591051.0,633137.0,111340.0,32171.0,27565.0,6797.0,12694.0
155485,County,2020/02/18,27.0,MN,27053.0,Hennepin County,272652.0,986776.0,4527398.0,1193000.0,1019548.0,530529.0,745045.0,821169.0,133153.0,34530.0,26748.0,8353.0,15323.0
158727,County,2020/02/19,27.0,MN,27053.0,Hennepin County,256167.0,1003261.0,4583643.0,1197072.0,1027677.0,534664.0,770813.0,829874.0,137844.0,35294.0,28257.0,8353.0,13795.0
160271,County,2020/02/20,27.0,MN,27053.0,Hennepin County,264372.0,995056.0,4500052.0,1168668.0,987438.0,537691.0,789865.0,797022.0,133647.0,34829.0,28834.0,8275.0,13783.0
163549,County,2020/02/21,27.0,MN,27053.0,Hennepin County,257811.0,1001617.0,4909048.0,1291374.0,1083570.0,586196.0,841168.0,846072.0,151402.0,45331.0,36469.0,10572.0,16894.0
168260,County,2020/02/22,27.0,MN,27053.0,Hennepin County,257600.0,1001828.0,4802593.0,1309201.0,1081516.0,582975.0,799735.0,771575.0,153069.0,47380.0,33551.0,9169.0,14422.0
171509,County,2020/02/23,27.0,MN,27053.0,Hennepin County,318470.0,940958.0,4204380.0,1191118.0,1012752.0,514503.0,662699.0,603671.0,123642.0,44735.0,35345.0,6396.0,9519.0
173135,County,2020/02/24,27.0,MN,27053.0,Hennepin County,286301.0,973127.0,4579555.0,1261365.0,1058263.0,559248.0,739818.0,769717.0,132059.0,28448.0,18977.0,4268.0,7392.0
176373,County,2020/02/25,27.0,MN,27053.0,Hennepin County,258118.0,1001310.0,4742785.0,1313459.0,1072924.0,567020.0,773113.0,810401.0,139263.0,34978.0,19980.0,3847.0,7800.0
180204,County,2020/02/26,27.0,MN,27053.0,Hennepin County,254693.0,1004735.0,4793846.0,1377161.0,1182380.0,585760.0,773873.0,724908.0,97496.0,25190.0,16499.0,4289.0,6290.0
184275,County,2020/02/27,27.0,MN,27053.0,Hennepin County,265304.0,994124.0,4755355.0,1350933.0,1097931.0,552030.0,759196.0,792357.0,136488.0,34507.0,20819.0,3940.0,7154.0
186000,County,2020/02/28,27.0,MN,27053.0,Hennepin County,256884.0,1002544.0,4976601.0,1336425.0,1187378.0,614501.0,803678.0,812482.0,142578.0,40051.0,27475.0,4804.0,7229.0
189102,County,2020/02/29,27.0,MN,27053.0,Hennepin County,281177.0,978251.0,4947460.0,1394158.0,1196681.0,621568.0,787541.0,721038.0,145567.0,43557.0,26422.0,4497.0,6431.0
193886,County,2020/03/01,27.0,MN,27053.0,Hennepin County,299950.0,959478.0,4150995.0,1219509.0,1006089.0,523575.0,633357.0,573326.0,115501.0,38643.0,29844.0,4871.0,6280.0
195516,County,2020/03/02,27.0,MN,27053.0,Hennepin County,273528.0,985900.0,4543038.0,1318826.0,1056335.0,539413.0,711043.0,735510.0,119990.0,29826.0,20561.0,3998.0,7536.0
198671,County,2020/03/03,27.0,MN,27053.0,Hennepin County,260591.0,998837.0,4458223.0,1294510.0,1004524.0,496893.0,705329.0,751495.0,129039.0,35682.0,27238.0,6579.0,6934.0
202529,County,2020/03/04,27.0,MN,27053.0,Hennepin County,265443.0,993985.0,4372180.0,1226923.0,962715.0,497218.0,714200.0,761500.0,131133.0,35464.0,28926.0,6831.0,7270.0
205020,County,2020/03/05,27.0,MN,27053.0,Hennepin County,244617.0,1014811.0,4303909.0,1169769.0,960626.0,489733.0,692886.0,779357.0,131904.0,37395.0,28907.0,6911.0,6421.0
208188,County,2020/03/06,27.0,MN,27053.0,Hennepin County,248214.0,1011214.0,4695481.0,1340059.0,1070430.0,547012.0,731125.0,769914.0,143705.0,44276.0,34491.0,7367.0,7102.0
213103,County,2020/03/07,27.0,MN,27053.0,Hennepin County,271282.0,988146.0,4694380.0,1411068.0,1101114.0,555758.0,716214.0,681550.0,136591.0,44304.0,33786.0,7101.0,6894.0
214655,County,2020/03/08,27.0,MN,27053.0,Hennepin County,301112.0,958316.0,4135286.0,1258897.0,980395.0,479954.0,624048.0,580046.0,114292.0,43413.0,39393.0,7416.0,7432.0
217857,County,2020/03/09,27.0,MN,27053.0,Hennepin County,274478.0,984950.0,4209081.0,1173177.0,946323.0,484436.0,691346.0,706691.0,127216.0,37309.0,29127.0,6359.0,7097.0
221091,County,2020/03/10,27.0,MN,27053.0,Hennepin County,266391.0,993037.0,4274877.0,1179135.0,960043.0,488234.0,683078.0,751172.0,132952.0,37923.0,29015.0,6263.0,7062.0
225885,County,2020/03/11,27.0,MN,27053.0,Hennepin County,250117.0,1009311.0,4466021.0,1345075.0,985839.0,453736.0,673225.0,767592.0,124178.0,41860.0,46293.0,14157.0,14066.0
227465,County,2020/03/12,27.0,MN,27053.0,Hennepin County,261293.0,998135.0,4352039.0,1276671.0,965624.0,446244.0,688921.0,733286.0,124591.0,45119.0,44276.0,12213.0,15094.0
230624,County,2020/03/13,27.0,MN,27053.0,Hennepin County,258897.0,1000531.0,4566584.0,1369201.0,1052154.0,485466.0,681990.0,730647.0,125912.0,47831.0,48952.0,12408.0,12023.0
233823,County,2020/03/14,27.0,MN,27053.0,Hennepin County,312876.0,946552.0,4105074.0,1266301.0,943880.0,421598.0,621772.0,626504.0,110929.0,43730.0,45989.0,10408.0,13963.0
238578,County,2020/03/15,27.0,MN,27053.0,Hennepin County,380034.0,879394.0,3765044.0,1218717.0,919047.0,443672.0,527267.0,477398.0,98472.0,37032.0,32584.0,5102.0,5753.0
241820,County,2020/03/16,27.0,MN,27053.0,Hennepin County,333246.0,926182.0,3927669.0,1129375.0,902071.0,422544.0,629290.0,645424.0,121294.0,36630.0,28507.0,6053.0,6481.0
245012,County,2020/03/17,27.0,MN,27053.0,Hennepin County,373128.0,886300.0,3807360.0,1158530.0,835567.0,416132.0,568908.0,625097.0,124327.0,37032.0,29796.0,6020.0,5951.0
246591,County,2020/03/18,27.0,MN,27053.0,Hennepin County,407936.0,851492.0,3611114.0,1091061.0,779990.0,381254.0,542468.0,614861.0,124248.0,36496.0,28330.0,6785.0,5621.0
249797,County,2020/03/19,27.0,MN,27053.0,Hennepin County,426648.0,832780.0,3399350.0,1007290.0,757638.0,362085.0,511485.0,565566.0,119846.0,35962.0,28187.0,5695.0,5596.0
253031,County,2020/03/20,27.0,MN,27053.0,Hennepin County,417687.0,841741.0,3623672.0,1087975.0,814224.0,394947.0,537932.0,584796.0,120287.0,40874.0,30018.0,5987.0,6632.0
257740,County,2020/03/21,27.0,MN,27053.0,Hennepin County,459292.0,800136.0,3366243.0,1097473.0,817623.0,372532.0,455934.0,445504.0,99867.0,37994.0,26888.0,6216.0,6212.0
260927,County,2020/03/22,27.0,MN,27053.0,Hennepin County,440963.0,818465.0,2759917.0,914555.0,677803.0,296185.0,371909.0,350527.0,77601.0,32049.0,28130.0,6114.0,5044.0
264140,County,2020/03/23,27.0,MN,27053.0,Hennepin County,399455.0,859973.0,3064783.0,944507.0,694391.0,314832.0,457459.0,489469.0,98183.0,31586.0,24157.0,5304.0,4895.0
267369,County,2020/03/24,27.0,MN,27053.0,Hennepin County,405334.0,854094.0,3060379.0,966615.0,669641.0,317892.0,442396.0,492190.0,102488.0,32962.0,25356.0,5804.0,5035.0
269000,County,2020/03/25,27.0,MN,27053.0,Hennepin County,399728.0,859700.0,2931882.0,879082.0,652378.0,311969.0,422196.0,502209.0,94844.0,32437.0,25889.0,5831.0,5047.0
272144,County,2020/03/26,27.0,MN,27053.0,Hennepin County,396843.0,862585.0,3219314.0,1039908.0,731608.0,335306.0,453426.0,492677.0,101344.0,31430.0,23234.0,5622.0,4759.0
276907,County,2020/03/27,27.0,MN,27053.0,Hennepin County,394891.0,864537.0,3210471.0,1021995.0,729795.0,351995.0,441926.0,495495.0,103146.0,31187.0,25001.0,5355.0,4576.0
278535,County,2020/03/28,27.0,MN,27053.0,Hennepin County,456890.0,802538.0,2560970.0,836742.0,622582.0,270694.0,334014.0,358715.0,73503.0,29402.0,24112.0,6089.0,5117.0
283294,County,2020/03/29,27.0,MN,27053.0,Hennepin County,473370.0,786058.0,2446690.0,846265.0,591798.0,252657.0,315106.0,310581.0,69570.0,24893.0,24886.0,5543.0,5391.0
284921,County,2020/03/30,27.0,MN,27053.0,Hennepin County,413392.0,846036.0,2999351.0,990572.0,676062.0,314616.0,409847.0,453344.0,94488.0,27771.0,22363.0,5179.0,5109.0
288117,County,2020/03/31,27.0,MN,27053.0,Hennepin County,420913.0,838515.0,2976659.0,968565.0,675229.0,306607.0,413301.0,455002.0,94710.0,30615.0,21992.0,5924.0,4714.0
291352,County,2020/04/01,27.0,MN,27053.0,Hennepin County,416900.0,842528.0,3083556.0,1008985.0,705264.0,321045.0,425780.0,466592.0,98491.0,28845.0,20076.0,4181.0,4297.0
296085,County,2020/04/02,27.0,MN,27053.0,Hennepin County,415921.0,843507.0,2857714.0,878821.0,642986.0,310315.0,400037.0,465925.0,95188.0,29228.0,25447.0,5809.0,3958.0
297746,County,2020/04/03,27.0,MN,27053.0,Hennepin County,420017.0,839411.0,2850148.0,823376.0,677071.0,308344.0,422766.0,466052.0,91829.0,28420.0,23606.0,4511.0,4173.0
302492,County,2020/04/04,27.0,MN,27053.0,Hennepin County,438998.0,820430.0,2717559.0,839188.0,670592.0,328072.0,381850.0,360320.0,77032.0,29193.0,22546.0,4332.0,4434.0
305645,County,2020/04/05,27.0,MN,27053.0,Hennepin County,451041.0,808387.0,2610326.0,852676.0,638654.0,303554.0,339857.0,340029.0,77080.0,25410.0,22834.0,5179.0,5053.0
308845,County,2020/04/06,27.0,MN,27053.0,Hennepin County,431814.0,827614.0,2921979.0,904865.0,681436.0,318112.0,417845.0,451314.0,99225.0,25892.0,17503.0,3039.0,2748.0
312085,County,2020/04/07,27.0,MN,27053.0,Hennepin County,420642.0,838786.0,3147584.0,1022423.0,747957.0,339654.0,435524.0,455866.0,98833.0,26367.0,15636.0,2750.0,2574.0
315258,County,2020/04/08,27.0,MN,27053.0,Hennepin County,419281.0,840147.0,2926984.0,838520.0,681372.0,335976.0,441664.0,473037.0,105744.0,25781.0,18492.0,2864.0,3534.0
316885,County,2020/04/09,27.0,MN,27053.0,Hennepin County,430820.0,828608.0,2834870.0,763497.0,671193.0,322751.0,432155.0,486624.0,106195.0,29155.0,17754.0,2757.0,2789.0
321622,County,2020/04/10,27.0,MN,27053.0,Hennepin County,404840.0,854588.0,3160052.0,915018.0,757240.0,354668.0,474270.0,496325.0,104012.0,30968.0,20903.0,3443.0,3205.0
323297,County,2020/04/11,27.0,MN,27053.0,Hennepin County,417936.0,841492.0,3105603.0,943306.0,793799.0,373213.0,432601.0,405653.0,94578.0,34670.0,21827.0,2986.0,2970.0
326441,County,2020/04/12,27.0,MN,27053.0,Hennepin County,526066.0,733362.0,1863702.0,520561.0,461856.0,207199.0,270340.0,290007.0,60102.0,27354.0,19433.0,3244.0,3606.0
329707,County,2020/04/13,27.0,MN,27053.0,Hennepin County,439429.0,819999.0,2724140.0,720157.0,648746.0,321331.0,423338.0,462165.0,98685.0,26175.0,17941.0,3275.0,2327.0
332831,County,2020/04/14,27.0,MN,27053.0,Hennepin County,416174.0,843254.0,2517542.0,764251.0,580986.0,263217.0,358536.0,407233.0,84606.0,22892.0,23704.0,6406.0,5711.0
337632,County,2020/04/15,27.0,MN,27053.0,Hennepin County,405973.0,853455.0,2526556.0,748604.0,585029.0,276142.0,371618.0,401042.0,80189.0,30019.0,22143.0,6388.0,5382.0
339211,County,2020/04/16,27.0,MN,27053.0,Hennepin County,424183.0,835245.0,2512356.0,693356.0,612248.0,278488.0,384364.0,402039.0,79404.0,27231.0,26572.0,4287.0,4367.0
342510,County,2020/04/17,27.0,MN,27053.0,Hennepin County,388950.0,870478.0,2784356.0,808880.0,683838.0,313691.0,396367.0,437940.0,79542.0,27447.0,26292.0,5642.0,4717.0
345616,County,2020/04/18,27.0,MN,27053.0,Hennepin County,420075.0,839353.0,2753614.0,850245.0,692562.0,306387.0,378905.0,368789.0,89146.0,34916.0,23915.0,3727.0,5022.0
350367,County,2020/04/19,27.0,MN,27053.0,Hennepin County,432471.0,826957.0,2421815.0,751814.0,623165.0,253058.0,335304.0,327671.0,75263.0,27186.0,19209.0,4313.0,4832.0
353618,County,2020/04/20,27.0,MN,27053.0,Hennepin County,377154.0,882274.0,2850234.0,890253.0,706261.0,273137.0,398584.0,422226.0,95532.0,31413.0,22111.0,5080.0,5637.0
355189,County,2020/04/21,27.0,MN,27053.0,Hennepin County,404731.0,854697.0,3126929.0,923254.0,704265.0,351722.0,467863.0,516595.0,109702.0,27282.0,19823.0,3615.0,2808.0
358432,County,2020/04/22,27.0,MN,27053.0,Hennepin County,393762.0,865666.0,3298596.0,1006863.0,761066.0,356460.0,477549.0,524539.0,118378.0,30154.0,18493.0,2976.0,2118.0
363164,County,2020/04/23,27.0,MN,27053.0,Hennepin County,397546.0,861882.0,3248361.0,962967.0,755231.0,350279.0,480257.0,533831.0,108786.0,29614.0,20766.0,3918.0,2712.0
364791,County,2020/04/24,27.0,MN,27053.0,Hennepin County,388392.0,871036.0,3411556.0,1012604.0,804297.0,378388.0,510715.0,517403.0,120852.0,36138.0,25150.0,3160.0,2849.0
367958,County,2020/04/25,27.0,MN,27053.0,Hennepin County,396894.0,862534.0,3480212.0,1121777.0,867323.0,404916.0,472313.0,434794.0,110674.0,38838.0,23504.0,3710.0,2363.0
371124,County,2020/04/26,27.0,MN,27053.0,Hennepin County,420263.0,839165.0,3111589.0,983683.0,791213.0,359107.0,421099.0,393604.0,95079.0,36567.0,25654.0,2644.0,2939.0
375958,County,2020/04/27,27.0,MN,27053.0,Hennepin County,392922.0,866506.0,3363726.0,1010858.0,779255.0,381511.0,490926.0,539992.0,106670.0,29061.0,19989.0,2986.0,2478.0
379129,County,2020/04/28,27.0,MN,27053.0,Hennepin County,406934.0,852494.0,2950561.0,775262.0,698876.0,327586.0,464288.0,515170.0,112471.0,31561.0,19251.0,3407.0,2689.0
382333,County,2020/04/29,27.0,MN,27053.0,Hennepin County,394113.0,865315.0,3318246.0,948409.0,786368.0,388385.0,489992.0,531657.0,117498.0,33354.0,17180.0,2794.0,2609.0
383952,County,2020/04/30,27.0,MN,27053.0,Hennepin County,383942.0,875486.0,3489968.0,1044280.0,808966.0,403241.0,497354.0,555383.0,115950.0,37109.0,22811.0,2774.0,2100.0
388738,County,2020/05/01,27.0,MN,27053.0,Hennepin County,376387.0,883041.0,3443038.0,986255.0,814248.0,392706.0,508127.0,545250.0,117041.0,43398.0,31494.0,2728.0,1791.0
391888,County,2020/05/02,27.0,MN,27053.0,Hennepin County,386153.0,873275.0,3534493.0,1113003.0,877482.0,422364.0,479121.0,450614.0,114373.0,46010.0,25973.0,3106.0,2447.0
395083,County,2020/05/03,27.0,MN,27053.0,Hennepin County,405608.0,853820.0,3167898.0,990075.0,808549.0,360075.0,431391.0,392343.0,104446.0,43344.0,32497.0,2878.0,2300.0
396734,County,2020/05/04,27.0,MN,27053.0,Hennepin County,385798.0,873630.0,3318164.0,967947.0,779482.0,385749.0,491568.0,521472.0,113586.0,32742.0,20731.0,2588.0,2299.0
399953,County,2020/05/05,27.0,MN,27053.0,Hennepin County,391489.0,867939.0,3318089.0,937211.0,789241.0,387226.0,502555.0,534747.0,113710.0,31750.0,16893.0,3028.0,1728.0
403084,County,2020/05/06,27.0,MN,27053.0,Hennepin County,388679.0,870749.0,3392382.0,1022509.0,778036.0,381565.0,497662.0,542122.0,113258.0,29990.0,21645.0,2811.0,2784.0
407803,County,2020/05/07,27.0,MN,27053.0,Hennepin County,379731.0,879697.0,3352470.0,976723.0,767520.0,377093.0,509619.0,539512.0,118366.0,34013.0,22928.0,3250.0,3446.0
411065,County,2020/05/08,27.0,MN,27053.0,Hennepin County,382537.0,876891.0,3458325.0,988967.0,812647.0,386275.0,523958.0,541235.0,130568.0,40529.0,29421.0,2744.0,1981.0
412646,County,2020/05/09,27.0,MN,27053.0,Hennepin County,394113.0,865315.0,3261933.0,948872.0,814607.0,393223.0,470158.0,445021.0,111993.0,44949.0,27101.0,3416.0,2593.0
417442,County,2020/05/10,27.0,MN,27053.0,Hennepin County,412230.0,847198.0,2928126.0,810133.0,745208.0,346412.0,424790.0,416579.0,103639.0,42481.0,32864.0,3271.0,2749.0
420721,County,2020/05/11,27.0,MN,27053.0,Hennepin County,347110.0,912318.0,3730200.0,1132878.0,841681.0,416386.0,547237.0,604428.0,128045.0,35563.0,19087.0,2863.0,2032.0
423927,County,2020/05/12,27.0,MN,27053.0,Hennepin County,338760.0,920668.0,3847565.0,1182125.0,874873.0,428092.0,567128.0,606116.0,132008.0,37428.0,15156.0,3001.0,1638.0
426974,County,2020/05/13,27.0,MN,27053.0,Hennepin County,348501.0,910927.0,3558164.0,1054551.0,800536.0,387852.0,539363.0,591678.0,126099.0,34318.0,18277.0,3066.0,2424.0
428701,County,2020/05/14,27.0,MN,27053.0,Hennepin County,334845.0,924583.0,3735887.0,1133935.0,845857.0,414536.0,536106.0,604133.0,134847.0,37142.0,23561.0,3151.0,2619.0
433440,County,2020/05/15,27.0,MN,27053.0,Hennepin County,313314.0,946114.0,3991910.0,1224716.0,888667.0,449841.0,570174.0,626866.0,144952.0,52002.0,28746.0,3587.0,2359.0
435118,County,2020/05/16,27.0,MN,27053.0,Hennepin County,356437.0,902991.0,3602789.0,1109888.0,863269.0,428891.0,514507.0,499622.0,117811.0,38794.0,24408.0,3497.0,2102.0
439754,County,2020/05/17,27.0,MN,27053.0,Hennepin County,368511.0,890917.0,3031012.0,868554.0,770252.0,353995.0,425466.0,401239.0,104070.0,49931.0,51507.0,3682.0,2316.0
443044,County,2020/05/18,27.0,MN,27053.0,Hennepin County,304767.0,954661.0,3991677.0,1229626.0,904836.0,426859.0,583540.0,624977.0,147160.0,43072.0,26908.0,3152.0,1547.0
446206,County,2020/05/19,27.0,MN,27053.0,Hennepin County,299425.0,960003.0,4039335.0,1252739.0,906011.0,426009.0,577404.0,657483.0,146845.0,42169.0,25935.0,3111.0,1629.0
447838,County,2020/05/20,27.0,MN,27053.0,Hennepin County,289460.0,969968.0,4127255.0,1252762.0,939759.0,454107.0,590386.0,661851.0,149746.0,45396.0,28075.0,2799.0,2374.0
452272,County,2020/05/21,27.0,MN,27053.0,Hennepin County,283593.0,975835.0,4067239.0,1216248.0,907377.0,438505.0,593630.0,664058.0,156551.0,49994.0,34222.0,4073.0,2581.0
455768,County,2020/05/22,27.0,MN,27053.0,Hennepin County,269716.0,989712.0,4294463.0,1315547.0,959827.0,472489.0,607614.0,651594.0,162244.0,70951.0,47439.0,4466.0,2292.0
458979,County,2020/05/23,27.0,MN,27053.0,Hennepin County,307567.0,951861.0,3978866.0,1252342.0,961748.0,452586.0,549816.0,522036.0,133027.0,60510.0,40497.0,3637.0,2667.0
462183,County,2020/05/24,27.0,MN,27053.0,Hennepin County,364033.0,895395.0,3491461.0,1139289.0,855504.0,402183.0,472713.0,433312.0,106256.0,43860.0,32172.0,3198.0,2974.0
463811,County,2020/05/25,27.0,MN,27053.0,Hennepin County,363537.0,895891.0,3287801.0,1017468.0,809440.0,376158.0,457829.0,429044.0,107544.0,44051.0,39809.0,3603.0,2855.0
466917,County,2020/05/26,27.0,MN,27053.0,Hennepin County,343214.0,916214.0,3551821.0,1021162.0,812485.0,405855.0,539116.0,587304.0,122106.0,35151.0,20389.0,4259.0,3994.0
471785,County,2020/05/27,27.0,MN,27053.0,Hennepin County,334142.0,925286.0,3764766.0,1116157.0,874340.0,430287.0,555415.0,596760.0,125148.0,36266.0,23124.0,4140.0,3129.0
474884,County,2020/05/28,27.0,MN,27053.0,Hennepin County,342201.0,917227.0,3855718.0,1175631.0,875390.0,434280.0,565995.0,607079.0,130945.0,35280.0,24190.0,4673.0,2255.0
476562,County,2020/05/29,27.0,MN,27053.0,Hennepin County,353537.0,905891.0,3749566.0,1127360.0,846008.0,421949.0,551478.0,590523.0,131939.0,43347.0,29381.0,5012.0,2569.0
479749,County,2020/05/30,27.0,MN,27053.0,Hennepin County,364097.0,895331.0,3756022.0,1211659.0,896030.0,428550.0,525203.0,489989.0,123064.0,42999.0,31335.0,4367.0,2826.0
482877,County,2020/05/31,27.0,MN,27053.0,Hennepin County,383204.0,876224.0,3395293.0,1097808.0,795392.0,377432.0,470373.0,456390.0,111456.0,45049.0,33751.0,5311.0,2331.0
486144,County,2020/06/01,27.0,MN,27053.0,Hennepin County,347257.0,912171.0,3507825.0,1027656.0,805839.0,395481.0,519073.0,568462.0,122596.0,36708.0,24165.0,5068.0,2777.0
489385,County,2020/06/02,27.0,MN,27053.0,Hennepin County,339746.0,919682.0,3522410.0,1015913.0,782693.0,388387.0,530876.0,612303.0,124071.0,34370.0,24452.0,5733.0,3612.0
492554,County,2020/06/03,27.0,MN,27053.0,Hennepin County,320699.0,938729.0,3875570.0,1151361.0,869694.0,435821.0,590920.0,629745.0,132360.0,34653.0,22154.0,4979.0,3883.0
495717,County,2020/06/04,27.0,MN,27053.0,Hennepin County,319666.0,939762.0,3732087.0,1084931.0,826455.0,426690.0,587290.0,605136.0,128015.0,39115.0,24732.0,6109.0,3614.0
500492,County,2020/06/05,27.0,MN,27053.0,Hennepin County,314216.0,945212.0,3894811.0,1118876.0,884584.0,440080.0,585142.0,634745.0,137462.0,47954.0,35828.0,6618.0,3522.0
502115,County,2020/06/06,27.0,MN,27053.0,Hennepin County,355311.0,904117.0,3400783.0,959424.0,828082.0,396115.0,531645.0,501301.0,110628.0,40326.0,24583.0,5471.0,3208.0
505307,County,2020/06/07,27.0,MN,27053.0,Hennepin County,345557.0,913871.0,3383097.0,982651.0,829297.0,383909.0,489267.0,480782.0,119688.0,45470.0,38842.0,8237.0,4954.0
510103,County,2020/06/08,27.0,MN,27053.0,Hennepin County,313016.0,946412.0,3844405.0,1077041.0,880014.0,448985.0,599488.0,640177.0,132106.0,35706.0,21921.0,5389.0,3578.0
513260,County,2020/06/09,27.0,MN,27053.0,Hennepin County,340602.0,918826.0,3460762.0,965519.0,768955.0,395140.0,541112.0,594107.0,129851.0,35200.0,21211.0,5793.0,3874.0
514890,County,2020/06/10,27.0,MN,27053.0,Hennepin County,341679.0,917749.0,3570564.0,1020704.0,801289.0,413276.0,554851.0,593374.0,121434.0,33530.0,22817.0,5219.0,4070.0
519621,County,2020/06/11,27.0,MN,27053.0,Hennepin County,327842.0,931586.0,3758918.0,1079040.0,843878.0,426098.0,582086.0,621205.0,127165.0,42632.0,27156.0,5712.0,3946.0
522893,County,2020/06/12,27.0,MN,27053.0,Hennepin County,324979.0,934449.0,3756540.0,1081329.0,837036.0,430766.0,562257.0,603739.0,142721.0,54446.0,34780.0,5741.0,3725.0
526031,County,2020/06/13,27.0,MN,27053.0,Hennepin County,340542.0,918886.0,3769061.0,1157540.0,883117.0,430213.0,545382.0,530980.0,133786.0,46132.0,32985.0,5294.0,3632.0
529235,County,2020/06/14,27.0,MN,27053.0,Hennepin County,361504.0,897924.0,3216984.0,957605.0,755063.0,366622.0,460482.0,466160.0,110551.0,45529.0,43746.0,6545.0,4681.0
530864,County,2020/06/15,27.0,MN,27053.0,Hennepin County,355661.0,903767.0,3358633.0,982857.0,764526.0,386024.0,501156.0,541879.0,110600.0,35971.0,24669.0,6032.0,4919.0
535645,County,2020/06/16,27.0,MN,27053.0,Hennepin County,359650.0,899778.0,3751935.0,1188087.0,853859.0,405621.0,549678.0,572013.0,121127.0,33366.0,20852.0,3882.0,3450.0
538813,County,2020/06/17,27.0,MN,27053.0,Hennepin County,346726.0,912702.0,3793524.0,1142418.0,870592.0,436233.0,559025.0,600115.0,122813.0,33161.0,21903.0,4279.0,2985.0
542009,County,2020/06/18,27.0,MN,27053.0,Hennepin County,337475.0,921953.0,3574654.0,1036396.0,813685.0,401981.0,547421.0,574086.0,129275.0,36679.0,27741.0,4059.0,3331.0
543635,County,2020/06/19,27.0,MN,27053.0,Hennepin County,328798.0,930630.0,3735460.0,1084788.0,846412.0,418197.0,567976.0,588249.0,136806.0,46708.0,37989.0,4325.0,4010.0
546840,County,2020/06/20,27.0,MN,27053.0,Hennepin County,353439.0,905989.0,3607550.0,1088926.0,857695.0,430531.0,528284.0,491399.0,123576.0,46062.0,32528.0,4334.0,4215.0
550044,County,2020/06/21,27.0,MN,27053.0,Hennepin County,367562.0,891866.0,3169548.0,936592.0,745965.0,378377.0,453542.0,442625.0,115870.0,48230.0,40861.0,4080.0,3406.0
554824,County,2020/06/22,27.0,MN,27053.0,Hennepin County,354341.0,905087.0,3421824.0,990138.0,760940.0,397343.0,526971.0,559142.0,117718.0,35320.0,24425.0,5547.0,4280.0
557979,County,2020/06/23,27.0,MN,27053.0,Hennepin County,339603.0,919825.0,3572375.0,1019252.0,803759.0,422418.0,552106.0,581550.0,127998.0,35414.0,21854.0,4916.0,3108.0
559611,County,2020/06/24,27.0,MN,27053.0,Hennepin County,355734.0,903694.0,3425020.0,1001181.0,743195.0,373719.0,532665.0,586227.0,122360.0,34838.0,22696.0,4581.0,3558.0
562800,County,2020/06/25,27.0,MN,27053.0,Hennepin County,341660.0,917768.0,3548755.0,1017920.0,781815.0,400012.0,555758.0,589416.0,131476.0,37932.0,24815.0,5941.0,3670.0
567644,County,2020/06/26,27.0,MN,27053.0,Hennepin County,339177.0,920251.0,3503145.0,980414.0,770266.0,401119.0,542245.0,583848.0,133932.0,47154.0,34389.0,6445.0,3333.0
570746,County,2020/06/27,27.0,MN,27053.0,Hennepin County,353847.0,905581.0,3668086.0,1117559.0,845996.0,423002.0,529118.0,525341.0,134221.0,48406.0,35098.0,5685.0,3660.0
572383,County,2020/06/28,27.0,MN,27053.0,Hennepin County,369596.0,889832.0,3102440.0,893857.0,706211.0,376149.0,462314.0,454391.0,113387.0,46203.0,39176.0,6757.0,3995.0
577156,County,2020/06/29,27.0,MN,27053.0,Hennepin County,363518.0,895910.0,3247575.0,879920.0,716396.0,375662.0,523539.0,570365.0,117623.0,33761.0,21169.0,5178.0,3962.0
578798,County,2020/06/30,27.0,MN,27053.0,Hennepin County,343259.0,916169.0,3324022.0,950756.0,704497.0,373547.0,528998.0,581915.0,121690.0,31499.0,19697.0,6468.0,4955.0
583550,County,2020/07/01,27.0,MN,27053.0,Hennepin County,340658.0,918770.0,3398136.0,963987.0,740267.0,391585.0,528121.0,580461.0,122944.0,35770.0,24499.0,5851.0,4651.0
586739,County,2020/07/02,27.0,MN,27053.0,Hennepin County,358547.0,900881.0,3766660.0,1080424.0,829821.0,424574.0,589883.0,625608.0,139549.0,40261.0,26339.0,6306.0,3895.0
589940,County,2020/07/03,27.0,MN,27053.0,Hennepin County,370320.0,889108.0,3483408.0,974891.0,765926.0,398859.0,539190.0,580559.0,133177.0,46888.0,34195.0,6409.0,3314.0
591584,County,2020/07/04,27.0,MN,27053.0,Hennepin County,395695.0,863733.0,2980141.0,834042.0,655269.0,341234.0,461290.0,496682.0,113937.0,40114.0,29255.0,5483.0,2835.0
594777,County,2020/07/05,27.0,MN,27053.0,Hennepin County,372498.0,886930.0,2930735.0,844637.0,677230.0,344225.0,407692.0,415501.0,112654.0,59016.0,57502.0,6740.0,5538.0
598632,County,2020/07/06,27.0,MN,27053.0,Hennepin County,373041.0,886387.0,3021559.0,836899.0,667356.0,340021.0,467567.0,516337.0,115403.0,35530.0,30978.0,7077.0,4391.0
603122,County,2020/07/07,27.0,MN,27053.0,Hennepin County,369422.0,890006.0,3137393.0,869823.0,682804.0,360587.0,488817.0,545949.0,121993.0,33132.0,22655.0,6846.0,4787.0
605789,County,2020/07/08,27.0,MN,27053.0,Hennepin County,358875.0,900553.0,3030626.0,800043.0,653421.0,347200.0,482261.0,557207.0,120788.0,33665.0,23318.0,7196.0,5527.0
607514,County,2020/07/09,27.0,MN,27053.0,Hennepin County,349654.0,909774.0,3137040.0,846510.0,694646.0,355037.0,500491.0,551638.0,115134.0,35798.0,25479.0,7251.0,5056.0
610714,County,2020/07/10,27.0,MN,27053.0,Hennepin County,346643.0,912785.0,3282950.0,893124.0,720754.0,365918.0,522979.0,567200.0,123903.0,42812.0,33166.0,8116.0,4978.0
613925,County,2020/07/11,27.0,MN,27053.0,Hennepin County,363706.0,895722.0,3154003.0,923415.0,709259.0,376296.0,484898.0,460915.0,115682.0,42313.0,30040.0,6642.0,4543.0
617096,County,2020/07/12,27.0,MN,27053.0,Hennepin County,376010.0,883418.0,2959268.0,842335.0,652129.0,343582.0,455825.0,460531.0,110575.0,43875.0,37997.0,7067.0,5352.0
620286,County,2020/07/13,27.0,MN,27053.0,Hennepin County,369345.0,890083.0,3033978.0,815247.0,670134.0,352884.0,484550.0,535548.0,109424.0,29687.0,24446.0,6707.0,5351.0
623487,County,2020/07/14,27.0,MN,27053.0,Hennepin County,377775.0,881653.0,3025190.0,811747.0,673491.0,343422.0,488765.0,537905.0,113846.0,28731.0,17555.0,5654.0,4074.0
626608,County,2020/07/15,27.0,MN,27053.0,Hennepin County,362558.0,896870.0,3332902.0,924298.0,738643.0,393937.0,532503.0,565367.0,120432.0,29584.0,20555.0,4338.0,3245.0
631538,County,2020/07/16,27.0,MN,27053.0,Hennepin County,363984.0,895444.0,3284590.0,897938.0,727480.0,383373.0,521933.0,566807.0,119912.0,34007.0,25296.0,4781.0,3063.0
634585,County,2020/07/17,27.0,MN,27053.0,Hennepin County,357668.0,901760.0,3263849.0,910338.0,729245.0,356669.0,507305.0,551374.0,123797.0,41600.0,34863.0,4993.0,3665.0
637836,County,2020/07/18,27.0,MN,27053.0,Hennepin County,379239.0,880189.0,3150793.0,906612.0,730866.0,372718.0,467560.0,469628.0,117230.0,46256.0,31594.0,5318.0,3011.0
641038,County,2020/07/19,27.0,MN,27053.0,Hennepin County,399634.0,859794.0,2967930.0,871530.0,678051.0,345653.0,441330.0,426107.0,109689.0,48031.0,37601.0,5702.0,4236.0
644247,County,2020/07/20,27.0,MN,27053.0,Hennepin County,382066.0,877362.0,3302629.0,933895.0,749136.0,380058.0,504476.0,551769.0,116854.0,35241.0,23083.0,4103.0,4014.0
647890,County,2020/07/21,27.0,MN,27053.0,Hennepin County,369001.0,890427.0,3122942.0,825081.0,673662.0,371063.0,510105.0,563933.0,115259.0,33553.0,20966.0,4807.0,4513.0
650604,County,2020/07/22,27.0,MN,27053.0,Hennepin County,365671.0,893757.0,3267270.0,880274.0,728900.0,379472.0,522659.0,568594.0,122973.0,34772.0,20206.0,4644.0,4776.0
653798,County,2020/07/23,27.0,MN,27053.0,Hennepin County,366507.0,892921.0,3232242.0,885690.0,717423.0,372167.0,508710.0,551572.0,121871.0,39807.0,25397.0,4693.0,4912.0
657072,County,2020/07/24,27.0,MN,27053.0,Hennepin County,355124.0,904304.0,3414159.0,934809.0,756890.0,390143.0,525224.0,582685.0,133338.0,45557.0,36174.0,4892.0,4447.0
660289,County,2020/07/25,27.0,MN,27053.0,Hennepin County,384991.0,874437.0,3138038.0,886953.0,727776.0,376023.0,472164.0,476429.0,118816.0,41432.0,29545.0,4676.0,4224.0
661814,County,2020/07/26,27.0,MN,27053.0,Hennepin County,383393.0,876035.0,3008949.0,820519.0,700464.0,358388.0,462571.0,453377.0,106784.0,49950.0,43905.0,6740.0,6251.0
665109,County,2020/07/27,27.0,MN,27053.0,Hennepin County,379025.0,880403.0,3301312.0,923631.0,705355.0,382850.0,517900.0,571278.0,125738.0,36299.0,26384.0,5766.0,6111.0
668222,County,2020/07/28,27.0,MN,27053.0,Hennepin County,363876.0,895552.0,3429134.0,929207.0,745111.0,401761.0,558651.0,599671.0,128689.0,34171.0,20853.0,5839.0,5181.0
673058,County,2020/07/29,27.0,MN,27053.0,Hennepin County,366815.0,892613.0,3393607.0,922005.0,734113.0,400249.0,539251.0,606563.0,121438.0,37251.0,22208.0,5389.0,5140.0
676139,County,2020/07/30,27.0,MN,27053.0,Hennepin County,352029.0,907399.0,3347630.0,866782.0,735898.0,393362.0,540529.0,602212.0,129898.0,38298.0,29018.0,5997.0,5636.0
677790,County,2020/07/31,27.0,MN,27053.0,Hennepin County,352972.0,906456.0,3390523.0,911536.0,735131.0,389841.0,521693.0,595204.0,134344.0,51187.0,39298.0,6646.0,5643.0
682537,County,2020/08/01,27.0,MN,27053.0,Hennepin County,373056.0,886372.0,3267895.0,907097.0,753674.0,387942.0,482148.0,513193.0,129674.0,48452.0,33150.0,6991.0,5574.0
684170,County,2020/08/02,27.0,MN,27053.0,Hennepin County,374601.0,884827.0,3258618.0,923494.0,759532.0,366848.0,469928.0,502487.0,123333.0,54217.0,47407.0,6290.0,5082.0
687367,County,2020/08/03,27.0,MN,27053.0,Hennepin County,362471.0,896957.0,3489993.0,994573.0,779506.0,399212.0,543848.0,587515.0,115704.0,36395.0,23698.0,5300.0,4242.0
692142,County,2020/08/04,27.0,MN,27053.0,Hennepin County,351943.0,907485.0,3669968.0,1094087.0,817745.0,422890.0,554183.0,591564.0,124555.0,36892.0,21113.0,3884.0,3055.0
693771,County,2020/08/05,27.0,MN,27053.0,Hennepin County,353877.0,905551.0,3544083.0,1007641.0,778271.0,406216.0,559685.0,601329.0,126933.0,35109.0,20564.0,4210.0,4125.0
696977,County,2020/08/06,27.0,MN,27053.0,Hennepin County,348581.0,910847.0,3652896.0,1054306.0,811457.0,420895.0,559142.0,608497.0,124560.0,40171.0,25832.0,4069.0,3967.0
701709,County,2020/08/07,27.0,MN,27053.0,Hennepin County,335053.0,924375.0,3564400.0,975565.0,800539.0,403347.0,544400.0,603958.0,138333.0,50964.0,38289.0,4897.0,4108.0
703338,County,2020/08/08,27.0,MN,27053.0,Hennepin County,357655.0,901773.0,3423493.0,998636.0,788134.0,410697.0,516195.0,491240.0,129898.0,47876.0,32043.0,4434.0,4340.0
706529,County,2020/08/09,27.0,MN,27053.0,Hennepin County,373025.0,886403.0,3137197.0,854005.0,758496.0,377806.0,458775.0,456670.0,113672.0,52664.0,54017.0,6290.0,4802.0
711338,County,2020/08/10,27.0,MN,27053.0,Hennepin County,364794.0,894634.0,3556263.0,939186.0,822338.0,422807.0,558084.0,603927.0,134689.0,39915.0,26486.0,4667.0,4164.0
712919,County,2020/08/11,27.0,MN,27053.0,Hennepin County,356671.0,902757.0,3705802.0,989880.0,843772.0,432676.0,586586.0,641088.0,142028.0,41491.0,20485.0,4071.0,3725.0
716112,County,2020/08/12,27.0,MN,27053.0,Hennepin County,346588.0,912840.0,3221760.0,791170.0,714935.0,382726.0,515245.0,610511.0,129642.0,36914.0,23794.0,5631.0,11192.0
720872,County,2020/08/13,27.0,MN,27053.0,Hennepin County,330873.0,928555.0,3422494.0,865997.0,760987.0,398156.0,542327.0,626510.0,137964.0,41401.0,28371.0,6252.0,14529.0
724098,County,2020/08/14,27.0,MN,27053.0,Hennepin County,321465.0,937963.0,3427214.0,836765.0,745462.0,405191.0,543956.0,626796.0,150555.0,51947.0,45209.0,6947.0,14386.0
725729,County,2020/08/15,27.0,MN,27053.0,Hennepin County,337616.0,921812.0,3475460.0,909579.0,797113.0,425405.0,525181.0,553601.0,153932.0,52014.0,37436.0,6382.0,14817.0
728888,County,2020/08/16,27.0,MN,27053.0,Hennepin County,368348.0,891080.0,3234489.0,892929.0,710391.0,367999.0,479807.0,514185.0,130537.0,55169.0,53661.0,9667.0,20144.0
733669,County,2020/08/17,27.0,MN,27053.0,Hennepin County,374417.0,885011.0,3321245.0,822317.0,736724.0,392487.0,537509.0,598710.0,135631.0,42778.0,25536.0,8073.0,21480.0
735296,County,2020/08/18,27.0,MN,27053.0,Hennepin County,347231.0,912197.0,3253782.0,799897.0,691469.0,380441.0,523545.0,626809.0,135098.0,43078.0,24594.0,7767.0,21084.0
740035,County,2020/08/19,27.0,MN,27053.0,Hennepin County,346577.0,912851.0,3507327.0,924656.0,775600.0,403888.0,545729.0,625992.0,137881.0,40600.0,25855.0,7281.0,19845.0
741664,County,2020/08/20,27.0,MN,27053.0,Hennepin County,328370.0,931058.0,3443753.0,866102.0,744936.0,400219.0,555033.0,638016.0,136035.0,41986.0,31610.0,8064.0,21752.0
744863,County,2020/08/21,27.0,MN,27053.0,Hennepin County,317161.0,942267.0,3609208.0,923050.0,789406.0,418274.0,567182.0,627961.0,153448.0,55712.0,46842.0,7957.0,19376.0
749645,County,2020/08/22,27.0,MN,27053.0,Hennepin County,338771.0,920657.0,3485149.0,926491.0,794742.0,417992.0,528762.0,541924.0,151304.0,55694.0,38677.0,7845.0,21718.0
751261,County,2020/08/23,27.0,MN,27053.0,Hennepin County,388114.0,871314.0,2721727.0,689287.0,633965.0,320625.0,420585.0,418806.0,118054.0,48949.0,46449.0,7589.0,17418.0
754484,County,2020/08/24,27.0,MN,27053.0,Hennepin County,386315.0,873113.0,2859144.0,695100.0,647931.0,333015.0,460336.0,524042.0,119369.0,34599.0,22993.0,5543.0,16216.0
757635,County,2020/08/25,27.0,MN,27053.0,Hennepin County,372174.0,887254.0,3135612.0,760595.0,719790.0,378966.0,519972.0,557595.0,125137.0,34022.0,19206.0,5475.0,14854.0
760828,County,2020/08/26,27.0,MN,27053.0,Hennepin County,378906.0,880522.0,3102308.0,770944.0,687288.0,367567.0,516054.0,568807.0,124931.0,32344.0,19990.0,5185.0,9198.0
765601,County,2020/08/27,27.0,MN,27053.0,Hennepin County,384756.0,874672.0,3128358.0,762893.0,713101.0,362276.0,506214.0,578847.0,130462.0,36743.0,27254.0,5150.0,5418.0
768816,County,2020/08/28,27.0,MN,27053.0,Hennepin County,370824.0,888604.0,3137513.0,756201.0,692223.0,374497.0,514055.0,567239.0,133924.0,51074.0,38421.0,5262.0,4617.0
771968,County,2020/08/29,27.0,MN,27053.0,Hennepin County,382682.0,876746.0,3361145.0,879516.0,778793.0,404828.0,515279.0,551415.0,143830.0,45143.0,32435.0,4727.0,5179.0
775186,County,2020/08/30,27.0,MN,27053.0,Hennepin County,400778.0,858650.0,2985430.0,750679.0,698924.0,363078.0,459191.0,488168.0,119788.0,49584.0,43320.0,6318.0,6380.0
778376,County,2020/08/31,27.0,MN,27053.0,Hennepin County,383693.0,875735.0,3068786.0,765515.0,702679.0,354957.0,503964.0,560153.0,114511.0,33658.0,22115.0,5298.0,5936.0
781575,County,2020/09/01,27.0,MN,27053.0,Hennepin County,374894.0,884534.0,3314309.0,851516.0,752385.0,386074.0,537955.0,604024.0,120192.0,33356.0,20450.0,4081.0,4276.0
783181,County,2020/09/02,27.0,MN,27053.0,Hennepin County,375562.0,883866.0,3461771.0,894972.0,799631.0,408438.0,545555.0,617020.0,130638.0,36114.0,21006.0,4192.0,4205.0
786329,County,2020/09/03,27.0,MN,27053.0,Hennepin County,356834.0,902594.0,3539198.0,925889.0,779603.0,418162.0,573290.0,626860.0,134517.0,38311.0,31770.0,4988.0,5808.0
791160,County,2020/09/04,27.0,MN,27053.0,Hennepin County,368478.0,890950.0,3433204.0,883314.0,775084.0,397587.0,523326.0,596213.0,138613.0,55891.0,52031.0,5961.0,5184.0
794349,County,2020/09/05,27.0,MN,27053.0,Hennepin County,378921.0,880507.0,3471037.0,957949.0,800625.0,403694.0,518480.0,540503.0,139326.0,59274.0,41703.0,4987.0,4496.0
795954,County,2020/09/06,27.0,MN,27053.0,Hennepin County,397008.0,862420.0,3097299.0,872795.0,713292.0,358511.0,448158.0,469707.0,125230.0,54001.0,44844.0,5956.0,4805.0
799163,County,2020/09/07,27.0,MN,27053.0,Hennepin County,409071.0,850357.0,2702073.0,686771.0,606080.0,329108.0,407065.0,434240.0,111694.0,52651.0,60748.0,7152.0,6564.0
802376,County,2020/09/08,27.0,MN,27053.0,Hennepin County,399055.0,860373.0,3231869.0,773738.0,730337.0,409047.0,528070.0,607078.0,115751.0,33559.0,23374.0,5390.0,5525.0
805544,County,2020/09/09,27.0,MN,27053.0,Hennepin County,395698.0,863730.0,3222609.0,743272.0,733680.0,388730.0,536563.0,633393.0,126581.0,30413.0,20587.0,4021.0,5369.0
810312,County,2020/09/10,27.0,MN,27053.0,Hennepin County,387623.0,871805.0,3256736.0,800792.0,741310.0,377227.0,525378.0,612967.0,131406.0,34739.0,22182.0,4963.0,5772.0
811941,County,2020/09/11,27.0,MN,27053.0,Hennepin County,380703.0,878725.0,3390101.0,811762.0,765551.0,406374.0,546109.0,637425.0,133322.0,43882.0,34608.0,5550.0,5518.0
815126,County,2020/09/12,27.0,MN,27053.0,Hennepin County,405714.0,853714.0,3225827.0,829041.0,760352.0,395076.0,515229.0,527372.0,118240.0,40937.0,29679.0,4888.0,5013.0
819923,County,2020/09/13,27.0,MN,27053.0,Hennepin County,400758.0,858670.0,2833370.0,632253.0,665145.0,341615.0,460692.0,524605.0,122871.0,47289.0,28356.0,4885.0,5659.0
823081,County,2020/09/14,27.0,MN,27053.0,Hennepin County,400624.0,858804.0,3273066.0,803667.0,751770.0,401690.0,529036.0,598871.0,122694.0,34148.0,21063.0,4587.0,5540.0
824708,County,2020/09/15,27.0,MN,27053.0,Hennepin County,396127.0,863301.0,3359938.0,856801.0,753899.0,387068.0,547247.0,618661.0,131806.0,34410.0,19888.0,4484.0,5674.0
827949,County,2020/09/16,27.0,MN,27053.0,Hennepin County,392897.0,866531.0,3280249.0,776495.0,737346.0,387778.0,554725.0,624442.0,131201.0,35253.0,22331.0,4829.0,5849.0
832692,County,2020/09/17,27.0,MN,27053.0,Hennepin County,389354.0,870074.0,3290825.0,793526.0,738326.0,394281.0,543038.0,613874.0,132870.0,37584.0,25981.0,5457.0,5888.0
835855,County,2020/09/18,27.0,MN,27053.0,Hennepin County,384138.0,875290.0,3432680.0,824222.0,773031.0,406659.0,564404.0,623907.0,140415.0,50055.0,39288.0,5603.0,5096.0
837484,County,2020/09/19,27.0,MN,27053.0,Hennepin County,393383.0,866045.0,3494866.0,893911.0,815577.0,417830.0,542601.0,577142.0,153811.0,50567.0,33072.0,5238.0,5117.0
842259,County,2020/09/20,27.0,MN,27053.0,Hennepin County,388372.0,871056.0,3034843.0,800060.0,702936.0,362227.0,467478.0,482943.0,117373.0,47013.0,43868.0,5718.0,5227.0
843887,County,2020/09/21,27.0,MN,27053.0,Hennepin County,397149.0,862279.0,3230640.0,831677.0,754545.0,384208.0,525850.0,555366.0,120302.0,32053.0,19655.0,3543.0,3441.0
847091,County,2020/09/22,27.0,MN,27053.0,Hennepin County,365270.0,894158.0,3490892.0,885720.0,829597.0,412762.0,558025.0,609074.0,137037.0,31654.0,20360.0,3716.0,2947.0
850260,County,2020/09/23,27.0,MN,27053.0,Hennepin County,348949.0,910479.0,3570576.0,897899.0,848104.0,431153.0,573683.0,621830.0,137402.0,34805.0,19281.0,3301.0,3118.0
855025,County,2020/09/24,27.0,MN,27053.0,Hennepin County,344145.0,915283.0,3442995.0,862186.0,791687.0,400719.0,561216.0,620809.0,131916.0,39920.0,27247.0,3741.0,3554.0
856654,County,2020/09/25,27.0,MN,27053.0,Hennepin County,333392.0,926036.0,3689544.0,906104.0,858630.0,431923.0,598851.0,640436.0,151253.0,52557.0,42833.0,4062.0,2895.0
861407,County,2020/09/26,27.0,MN,27053.0,Hennepin County,360379.0,899049.0,3563783.0,926689.0,831891.0,434344.0,548996.0,559524.0,162269.0,57958.0,36179.0,3274.0,2659.0
863061,County,2020/09/27,27.0,MN,27053.0,Hennepin County,369223.0,890205.0,3215212.0,879380.0,770477.0,380866.0,462910.0,473138.0,133063.0,55428.0,51392.0,4393.0,4165.0
867795,County,2020/09/28,27.0,MN,27053.0,Hennepin County,362128.0,897300.0,3363753.0,854519.0,776945.0,402847.0,532038.0,595323.0,134915.0,37434.0,23315.0,3182.0,3235.0
869423,County,2020/09/29,27.0,MN,27053.0,Hennepin County,367787.0,891641.0,3399174.0,836864.0,779084.0,381510.0,564778.0,641725.0,138974.0,36498.0,15729.0,2675.0,1337.0
874202,County,2020/09/30,27.0,MN,27053.0,Hennepin County,354389.0,905039.0,3440824.0,800759.0,782464.0,417195.0,568397.0,665610.0,146664.0,40688.0,15013.0,2637.0,1397.0
875830,County,2020/10/01,27.0,MN,27053.0,Hennepin County,355260.0,904168.0,3488440.0,901600.0,758970.0,414365.0,562918.0,649249.0,136494.0,38985.0,20353.0,3519.0,1987.0
879033,County,2020/10/02,27.0,MN,27053.0,Hennepin County,374739.0,884689.0,3308454.0,781003.0,766345.0,398298.0,545850.0,597641.0,133125.0,46258.0,34195.0,3950.0,1789.0
883767,County,2020/10/03,27.0,MN,27053.0,Hennepin County,389193.0,870235.0,3210156.0,749089.0,762764.0,406768.0,519840.0,553726.0,139186.0,47250.0,26769.0,3074.0,1690.0
886010,County,2020/10/04,27.0,MN,27053.0,Hennepin County,408802.0,850626.0,2868877.0,718342.0,703149.0,344612.0,426501.0,458125.0,123778.0,49148.0,39809.0,3576.0,1837.0
889256,County,2020/10/05,27.0,MN,27053.0,Hennepin County,408735.0,850693.0,3116317.0,738329.0,725234.0,370039.0,505638.0,587045.0,131702.0,37410.0,16735.0,2873.0,1312.0
892412,County,2020/10/06,27.0,MN,27053.0,Hennepin County,380920.0,878508.0,3356668.0,774374.0,789505.0,405085.0,549130.0,636692.0,143967.0,37683.0,16227.0,2771.0,1234.0
895613,County,2020/10/07,27.0,MN,27053.0,Hennepin County,369537.0,889891.0,3503536.0,807296.0,799567.0,433897.0,592640.0,662289.0,146539.0,39560.0,17387.0,2930.0,1431.0
898794,County,2020/10/08,27.0,MN,27053.0,Hennepin County,380005.0,879423.0,3284977.0,791624.0,734716.0,388845.0,533842.0,632246.0,138932.0,41105.0,19192.0,3006.0,1469.0
902017,County,2020/10/09,27.0,MN,27053.0,Hennepin County,376038.0,883390.0,3440110.0,799822.0,804041.0,401997.0,569320.0,621796.0,158722.0,51541.0,28253.0,3298.0,1320.0
905220,County,2020/10/10,27.0,MN,27053.0,Hennepin County,390332.0,869096.0,3435259.0,822538.0,814425.0,423499.0,546505.0,572917.0,165285.0,59405.0,26720.0,2804.0,1161.0
908966,County,2020/10/11,27.0,MN,27053.0,Hennepin County,401019.0,858409.0,2897850.0,747370.0,670524.0,336245.0,446615.0,478427.0,127755.0,49737.0,36075.0,3761.0,1341.0
911984,County,2020/10/12,27.0,MN,27053.0,Hennepin County,390442.0,868986.0,3137479.0,741600.0,741698.0,370858.0,515287.0,577071.0,127795.0,39894.0,18994.0,3080.0,1202.0
915298,County,2020/10/13,27.0,MN,27053.0,Hennepin County,373408.0,886020.0,3271290.0,776728.0,766581.0,386609.0,532512.0,619525.0,129648.0,38003.0,17163.0,2726.0,1795.0
918405,County,2020/10/14,27.0,MN,27053.0,Hennepin County,360592.0,898836.0,3202523.0,761780.0,722865.0,384283.0,530033.0,610213.0,128753.0,38888.0,19206.0,3900.0,2602.0
922117,County,2020/10/15,27.0,MN,27053.0,Hennepin County,373012.0,886416.0,3059746.0,706517.0,694483.0,368323.0,501039.0,588070.0,131250.0,39844.0,23783.0,3940.0,2497.0
924723,County,2020/10/16,27.0,MN,27053.0,Hennepin County,360691.0,898737.0,3282707.0,780402.0,745674.0,398203.0,539627.0,596974.0,134780.0,49786.0,30315.0,4160.0,2786.0
928477,County,2020/10/17,27.0,MN,27053.0,Hennepin County,386307.0,873121.0,3222303.0,813515.0,774295.0,393152.0,502638.0,532247.0,127262.0,46233.0,27449.0,3634.0,1878.0
931226,County,2020/10/18,27.0,MN,27053.0,Hennepin County,399503.0,859925.0,2742152.0,648357.0,662786.0,344796.0,434516.0,457249.0,106033.0,44060.0,37136.0,4835.0,2384.0
933890,County,2020/10/19,27.0,MN,27053.0,Hennepin County,372714.0,886714.0,3169522.0,738526.0,751094.0,370500.0,516228.0,606025.0,127249.0,37388.0,16685.0,3267.0,2560.0
937314,County,2020/10/20,27.0,MN,27053.0,Hennepin County,392399.0,867029.0,3057314.0,727123.0,732974.0,363579.0,491359.0,560705.0,125086.0,35578.0,15219.0,3254.0,2437.0
941198,County,2020/10/21,27.0,MN,27053.0,Hennepin County,388093.0,871335.0,3074166.0,683897.0,722016.0,364349.0,530623.0,581338.0,128868.0,36304.0,20275.0,3734.0,2762.0
944456,County,2020/10/22,27.0,MN,27053.0,Hennepin County,375642.0,883786.0,3102797.0,705530.0,734828.0,372880.0,518148.0,576663.0,129644.0,38721.0,19852.0,4138.0,2393.0
947288,County,2020/10/23,27.0,MN,27053.0,Hennepin County,357927.0,901501.0,3315903.0,722956.0,789296.0,411484.0,559029.0,616396.0,137989.0,47841.0,24378.0,3967.0,2567.0
950176,County,2020/10/24,27.0,MN,27053.0,Hennepin County,382314.0,877114.0,3380743.0,825595.0,813395.0,432935.0,552803.0,561195.0,122256.0,45305.0,22063.0,3174.0,2022.0
