,Level,Date,State FIPS,State Postal Code,County FIPS,County Name,Population Staying at Home,Population Not Staying at Home,Number of Trips,Number of Trips <1,Number of Trips 1-3,Number of Trips 3-5,Number of Trips 5-10,Number of Trips 10-25,Number of Trips 25-50,Number of Trips 50-100,Number of Trips 100-250,Number of Trips 250-500,Number of Trips >=500
525,County,2020/01/01,13.0,GA,13281.0,Towns County,3041.0,8811.0,30644.0,5522.0,7152.0,4499.0,7338.0,4247.0,1213.0,452.0,187.0,20.0,14.0
5907,County,2020/01/02,13.0,GA,13281.0,Towns County,2758.0,9094.0,39058.0,7461.0,9820.0,4876.0,8539.0,5233.0,1621.0,1030.0,349.0,75.0,54.0
8094,County,2020/01/03,13.0,GA,13281.0,Towns County,2711.0,9141.0,36961.0,5764.0,8384.0,5614.0,8367.0,5575.0,1704.0,1036.0,360.0,144.0,13.0
12462,County,2020/01/04,13.0,GA,13281.0,Towns County,2757.0,9095.0,33270.0,5955.0,7665.0,4220.0,7323.0,4742.0,1744.0,1083.0,376.0,94.0,68.0
13301,County,2020/01/05,13.0,GA,13281.0,Towns County,2993.0,8859.0,31879.0,4880.0,8376.0,4611.0,5896.0,5388.0,1202.0,1081.0,274.0,82.0,89.0
17865,County,2020/01/06,13.0,GA,13281.0,Towns County,2563.0,9289.0,38599.0,6474.0,9861.0,5124.0,7751.0,6865.0,1174.0,1035.0,175.0,113.0,27.0
21011,County,2020/01/07,13.0,GA,13281.0,Towns County,2522.0,9330.0,38838.0,6545.0,11302.0,5225.0,7979.0,5320.0,1276.0,705.0,375.0,35.0,76.0
24255,County,2020/01/08,13.0,GA,13281.0,Towns County,2526.0,9326.0,39830.0,6943.0,10976.0,5063.0,9115.0,5394.0,1263.0,871.0,46.0,122.0,37.0
25783,County,2020/01/09,13.0,GA,13281.0,Towns County,2649.0,9203.0,38851.0,6216.0,10660.0,5392.0,8984.0,5363.0,1160.0,655.0,326.0,70.0,25.0
30592,County,2020/01/10,13.0,GA,13281.0,Towns County,2538.0,9314.0,41592.0,7401.0,11029.0,6029.0,9422.0,5141.0,1087.0,1097.0,270.0,68.0,48.0
33837,County,2020/01/11,13.0,GA,13281.0,Towns County,2659.0,9193.0,34443.0,6344.0,10089.0,5322.0,5970.0,4383.0,1517.0,461.0,201.0,84.0,72.0
36956,County,2020/01/12,13.0,GA,13281.0,Towns County,2569.0,9283.0,32923.0,5976.0,7268.0,4774.0,7222.0,5381.0,882.0,1008.0,327.0,35.0,50.0
38619,County,2020/01/13,13.0,GA,13281.0,Towns County,2458.0,9394.0,35700.0,6560.0,8924.0,4783.0,7142.0,5659.0,1410.0,815.0,304.0,33.0,70.0
41780,County,2020/01/14,13.0,GA,13281.0,Towns County,2786.0,9066.0,32125.0,5412.0,7887.0,4461.0,7525.0,4519.0,955.0,847.0,361.0,85.0,73.0
46558,County,2020/01/15,13.0,GA,13281.0,Towns County,2574.0,9278.0,37777.0,5626.0,10329.0,6616.0,6880.0,5925.0,1388.0,715.0,269.0,17.0,12.0
49715,County,2020/01/16,13.0,GA,13281.0,Towns County,2629.0,9223.0,35121.0,5279.0,7407.0,5008.0,7776.0,7341.0,1270.0,682.0,295.0,51.0,12.0
53002,County,2020/01/17,13.0,GA,13281.0,Towns County,2560.0,9292.0,38469.0,7523.0,9329.0,6208.0,7163.0,5624.0,1846.0,417.0,244.0,67.0,48.0
54574,County,2020/01/18,13.0,GA,13281.0,Towns County,2710.0,9142.0,31144.0,3864.0,6652.0,4674.0,7758.0,5153.0,1502.0,1041.0,393.0,70.0,37.0
59320,County,2020/01/19,13.0,GA,13281.0,Towns County,2979.0,8873.0,30702.0,4869.0,8039.0,5030.0,5796.0,5262.0,827.0,536.0,167.0,125.0,51.0
60954,County,2020/01/20,13.0,GA,13281.0,Towns County,2816.0,9036.0,33926.0,6041.0,7984.0,4515.0,6765.0,5783.0,1622.0,772.0,297.0,86.0,61.0
65732,County,2020/01/21,13.0,GA,13281.0,Towns County,2693.0,9159.0,38565.0,7721.0,9385.0,5156.0,7468.0,6125.0,1330.0,1043.0,255.0,70.0,12.0
68923,County,2020/01/22,13.0,GA,13281.0,Towns County,2669.0,9183.0,37098.0,6660.0,9244.0,6055.0,7863.0,5079.0,1215.0,733.0,207.0,17.0,25.0
72104,County,2020/01/23,13.0,GA,13281.0,Towns County,2676.0,9176.0,33658.0,5251.0,9482.0,4958.0,6839.0,4375.0,1615.0,836.0,156.0,134.0,12.0
75260,County,2020/01/24,13.0,GA,13281.0,Towns County,2676.0,9176.0,37445.0,5947.0,9220.0,5565.0,8988.0,5385.0,1581.0,502.0,245.0,0.0,12.0
78495,County,2020/01/25,13.0,GA,13281.0,Towns County,2697.0,9155.0,34731.0,5256.0,8323.0,4584.0,7659.0,6297.0,1542.0,723.0,272.0,51.0,24.0
80375,County,2020/01/26,13.0,GA,13281.0,Towns County,2848.0,9004.0,31085.0,3819.0,7635.0,5856.0,7031.0,4615.0,1050.0,673.0,291.0,67.0,48.0
84565,County,2020/01/27,13.0,GA,13281.0,Towns County,2485.0,9367.0,31926.0,5245.0,8265.0,4262.0,6631.0,4923.0,1165.0,861.0,479.0,16.0,79.0
88615,County,2020/01/28,13.0,GA,13281.0,Towns County,2499.0,9353.0,32811.0,5891.0,9044.0,3731.0,7206.0,4422.0,1117.0,925.0,369.0,62.0,44.0
89687,County,2020/01/29,13.0,GA,13281.0,Towns County,2656.0,9196.0,34586.0,6295.0,9253.0,4756.0,6773.0,5274.0,1374.0,556.0,211.0,48.0,46.0
94519,County,2020/01/30,13.0,GA,13281.0,Towns County,2544.0,9308.0,35489.0,5447.0,9429.0,5130.0,7588.0,5948.0,1033.0,272.0,538.0,93.0,11.0
97666,County,2020/01/31,13.0,GA,13281.0,Towns County,2503.0,9349.0,35847.0,6251.0,7489.0,4592.0,8246.0,6352.0,1399.0,1135.0,264.0,99.0,20.0
100854,County,2020/02/01,13.0,GA,13281.0,Towns County,2733.0,9119.0,32157.0,5166.0,7337.0,4810.0,6874.0,5440.0,1312.0,835.0,254.0,95.0,34.0
104006,County,2020/02/02,13.0,GA,13281.0,Towns County,2992.0,8860.0,36862.0,7314.0,8993.0,4984.0,6146.0,5088.0,1346.0,1712.0,1172.0,49.0,58.0
107258,County,2020/02/03,13.0,GA,13281.0,Towns County,2758.0,9094.0,35268.0,6410.0,8965.0,4967.0,7128.0,5209.0,1369.0,887.0,217.0,74.0,42.0
108875,County,2020/02/04,13.0,GA,13281.0,Towns County,2562.0,9290.0,34191.0,6223.0,7584.0,4539.0,8311.0,4879.0,1111.0,1097.0,226.0,99.0,122.0
113599,County,2020/02/05,13.0,GA,13281.0,Towns County,2768.0,9084.0,38594.0,7850.0,10464.0,5397.0,6934.0,5899.0,984.0,647.0,306.0,72.0,41.0
116805,County,2020/02/06,13.0,GA,13281.0,Towns County,2401.0,9451.0,29643.0,5894.0,8003.0,4028.0,5618.0,4187.0,967.0,493.0,410.0,25.0,18.0
118431,County,2020/02/07,13.0,GA,13281.0,Towns County,2581.0,9271.0,33997.0,6221.0,8731.0,4132.0,7289.0,4890.0,1295.0,1018.0,297.0,105.0,19.0
123218,County,2020/02/08,13.0,GA,13281.0,Towns County,3811.0,8041.0,26564.0,5712.0,7818.0,4050.0,4500.0,3276.0,627.0,367.0,146.0,55.0,13.0
127426,County,2020/02/09,13.0,GA,13281.0,Towns County,3477.0,8375.0,25453.0,3670.0,7079.0,3390.0,4856.0,4214.0,917.0,1046.0,180.0,74.0,27.0
128834,County,2020/02/10,13.0,GA,13281.0,Towns County,2805.0,9047.0,32712.0,5159.0,7670.0,4526.0,7014.0,5409.0,1365.0,1162.0,268.0,76.0,63.0
131480,County,2020/02/11,13.0,GA,13281.0,Towns County,2480.0,9372.0,34128.0,6008.0,7420.0,4764.0,7390.0,5833.0,1821.0,589.0,247.0,38.0,18.0
135916,County,2020/02/12,13.0,GA,13281.0,Towns County,2357.0,9495.0,35950.0,6623.0,9968.0,4221.0,7124.0,5307.0,1658.0,687.0,234.0,88.0,40.0
137611,County,2020/02/13,13.0,GA,13281.0,Towns County,2373.0,9479.0,37085.0,6421.0,9135.0,5205.0,7456.0,6392.0,1169.0,684.0,409.0,125.0,89.0
140719,County,2020/02/14,13.0,GA,13281.0,Towns County,2170.0,9682.0,39619.0,8328.0,8300.0,5627.0,7833.0,6516.0,1515.0,1083.0,304.0,80.0,33.0
145597,County,2020/02/15,13.0,GA,13281.0,Towns County,2507.0,9345.0,35356.0,6290.0,9035.0,4336.0,6424.0,5999.0,1467.0,1173.0,493.0,86.0,53.0
148749,County,2020/02/16,13.0,GA,13281.0,Towns County,3075.0,8777.0,29533.0,4869.0,7035.0,4303.0,6314.0,4281.0,983.0,1115.0,371.0,182.0,80.0
150377,County,2020/02/17,13.0,GA,13281.0,Towns County,3276.0,8576.0,31100.0,6469.0,6706.0,4157.0,6230.0,4536.0,1504.0,1126.0,278.0,55.0,39.0
155108,County,2020/02/18,13.0,GA,13281.0,Towns County,2433.0,9419.0,33865.0,5055.0,8715.0,4911.0,6962.0,6190.0,1062.0,580.0,223.0,103.0,64.0
156787,County,2020/02/19,13.0,GA,13281.0,Towns County,2462.0,9390.0,34675.0,5348.0,9787.0,4899.0,7154.0,4748.0,1588.0,836.0,214.0,53.0,48.0
161451,County,2020/02/20,13.0,GA,13281.0,Towns County,3021.0,8831.0,29364.0,4540.0,8500.0,4515.0,6011.0,4156.0,933.0,398.0,251.0,29.0,31.0
163125,County,2020/02/21,13.0,GA,13281.0,Towns County,2574.0,9278.0,35801.0,6666.0,7638.0,5000.0,7900.0,5807.0,1567.0,615.0,490.0,69.0,49.0
166319,County,2020/02/22,13.0,GA,13281.0,Towns County,2635.0,9217.0,38597.0,6034.0,9807.0,5940.0,6892.0,6268.0,1726.0,1072.0,725.0,133.0,0.0
169547,County,2020/02/23,13.0,GA,13281.0,Towns County,2998.0,8854.0,29426.0,4044.0,7955.0,4168.0,6036.0,4997.0,1193.0,561.0,320.0,129.0,23.0
174329,County,2020/02/24,13.0,GA,13281.0,Towns County,2623.0,9229.0,32707.0,5002.0,7294.0,5130.0,7265.0,5902.0,1081.0,742.0,188.0,42.0,61.0
175949,County,2020/02/25,13.0,GA,13281.0,Towns County,2271.0,9581.0,37953.0,6612.0,9541.0,5548.0,7748.0,6138.0,1351.0,819.0,87.0,98.0,11.0
179389,County,2020/02/26,13.0,GA,13281.0,Towns County,2652.0,9200.0,33853.0,4497.0,7682.0,5474.0,7852.0,5462.0,1664.0,775.0,344.0,103.0,0.0
183556,County,2020/02/27,13.0,GA,13281.0,Towns County,2187.0,9665.0,36236.0,5727.0,8532.0,5567.0,8293.0,5224.0,1270.0,1412.0,122.0,79.0,10.0
187148,County,2020/02/28,13.0,GA,13281.0,Towns County,2362.0,9490.0,36253.0,6366.0,8877.0,5428.0,7266.0,5096.0,1805.0,883.0,361.0,122.0,49.0
190245,County,2020/02/29,13.0,GA,13281.0,Towns County,2235.0,9617.0,34520.0,5337.0,8849.0,4889.0,6953.0,5064.0,1596.0,1542.0,235.0,45.0,10.0
193462,County,2020/03/01,13.0,GA,13281.0,Towns County,2711.0,9141.0,32220.0,3938.0,9212.0,4943.0,6603.0,4922.0,1184.0,902.0,380.0,95.0,41.0
195091,County,2020/03/02,13.0,GA,13281.0,Towns County,2236.0,9616.0,36512.0,5717.0,10017.0,5317.0,6773.0,5503.0,1805.0,935.0,348.0,57.0,40.0
198294,County,2020/03/03,13.0,GA,13281.0,Towns County,2309.0,9543.0,38423.0,6460.0,9348.0,7231.0,7200.0,5449.0,1052.0,1307.0,199.0,124.0,53.0
202153,County,2020/03/04,13.0,GA,13281.0,Towns County,2145.0,9707.0,42821.0,7895.0,10877.0,6499.0,7464.0,6656.0,1638.0,1187.0,481.0,91.0,33.0
206283,County,2020/03/05,13.0,GA,13281.0,Towns County,2193.0,9659.0,39235.0,6771.0,9875.0,4944.0,7015.0,6851.0,2142.0,1361.0,198.0,25.0,53.0
209496,County,2020/03/06,13.0,GA,13281.0,Towns County,2022.0,9830.0,38858.0,6723.0,10261.0,4870.0,7536.0,5880.0,1863.0,1157.0,470.0,66.0,32.0
211065,County,2020/03/07,13.0,GA,13281.0,Towns County,2424.0,9428.0,36589.0,6756.0,11238.0,4091.0,5432.0,5883.0,1587.0,1057.0,412.0,113.0,20.0
215840,County,2020/03/08,13.0,GA,13281.0,Towns County,2617.0,9235.0,34463.0,6851.0,8173.0,4409.0,6266.0,5396.0,1383.0,1169.0,659.0,137.0,20.0
219039,County,2020/03/09,13.0,GA,13281.0,Towns County,2339.0,9513.0,37756.0,6558.0,11058.0,5014.0,6835.0,5274.0,1373.0,1157.0,389.0,98.0,0.0
220667,County,2020/03/10,13.0,GA,13281.0,Towns County,2465.0,9387.0,36219.0,8039.0,7682.0,6377.0,6438.0,5545.0,1013.0,659.0,383.0,48.0,35.0
225461,County,2020/03/11,13.0,GA,13281.0,Towns County,2455.0,9397.0,35405.0,4844.0,12004.0,4535.0,6255.0,5387.0,1005.0,892.0,381.0,0.0,102.0
227040,County,2020/03/12,13.0,GA,13281.0,Towns County,2450.0,9402.0,30615.0,3128.0,8784.0,4078.0,5468.0,5275.0,1205.0,1872.0,398.0,300.0,107.0
231822,County,2020/03/13,13.0,GA,13281.0,Towns County,2314.0,9538.0,33426.0,3250.0,10990.0,3924.0,7367.0,3988.0,2755.0,361.0,575.0,216.0,0.0
234877,County,2020/03/14,13.0,GA,13281.0,Towns County,2815.0,9037.0,35235.0,3120.0,9020.0,5583.0,6962.0,5028.0,2629.0,2113.0,307.0,308.0,165.0
238153,County,2020/03/15,13.0,GA,13281.0,Towns County,3165.0,8687.0,30277.0,5047.0,8839.0,4504.0,4911.0,4368.0,1165.0,896.0,367.0,82.0,98.0
241396,County,2020/03/16,13.0,GA,13281.0,Towns County,2826.0,9026.0,38710.0,6897.0,9359.0,6344.0,7784.0,4842.0,1539.0,1541.0,295.0,74.0,35.0
243012,County,2020/03/17,13.0,GA,13281.0,Towns County,3171.0,8681.0,35286.0,5600.0,9565.0,5088.0,6848.0,6218.0,1025.0,764.0,101.0,77.0,0.0
246217,County,2020/03/18,13.0,GA,13281.0,Towns County,3271.0,8581.0,37927.0,8666.0,10487.0,4917.0,7359.0,4226.0,1199.0,610.0,289.0,135.0,39.0
250999,County,2020/03/19,13.0,GA,13281.0,Towns County,3340.0,8512.0,34575.0,7743.0,9365.0,5004.0,6130.0,4472.0,1043.0,555.0,164.0,99.0,0.0
254173,County,2020/03/20,13.0,GA,13281.0,Towns County,3142.0,8710.0,36933.0,6491.0,12156.0,4853.0,7030.0,4036.0,1161.0,627.0,467.0,76.0,36.0
257316,County,2020/03/21,13.0,GA,13281.0,Towns County,3664.0,8188.0,37706.0,6481.0,10933.0,5265.0,7334.0,5311.0,1149.0,785.0,342.0,85.0,21.0
258985,County,2020/03/22,13.0,GA,13281.0,Towns County,3605.0,8247.0,26704.0,5305.0,9667.0,3693.0,3923.0,3378.0,123.0,381.0,203.0,31.0,0.0
262191,County,2020/03/23,13.0,GA,13281.0,Towns County,3191.0,8661.0,29068.0,5493.0,8221.0,4489.0,5924.0,3360.0,945.0,371.0,197.0,50.0,18.0
265343,County,2020/03/24,13.0,GA,13281.0,Towns County,3255.0,8597.0,26052.0,4203.0,7792.0,4326.0,4999.0,3597.0,755.0,176.0,187.0,0.0,17.0
270143,County,2020/03/25,13.0,GA,13281.0,Towns County,3463.0,8389.0,30441.0,7048.0,9025.0,4284.0,4903.0,3431.0,686.0,721.0,279.0,26.0,38.0
273316,County,2020/03/26,13.0,GA,13281.0,Towns County,3322.0,8530.0,35044.0,7843.0,9124.0,4996.0,7428.0,3825.0,1160.0,459.0,209.0,0.0,0.0
274956,County,2020/03/27,13.0,GA,13281.0,Towns County,3262.0,8590.0,28485.0,6499.0,9070.0,2614.0,5380.0,3032.0,1190.0,341.0,242.0,68.0,49.0
279718,County,2020/03/28,13.0,GA,13281.0,Towns County,3524.0,8328.0,28617.0,5729.0,8908.0,3329.0,5009.0,3413.0,1236.0,704.0,238.0,51.0,0.0
281353,County,2020/03/29,13.0,GA,13281.0,Towns County,3905.0,7947.0,22809.0,3693.0,7475.0,2758.0,3608.0,3847.0,710.0,441.0,235.0,0.0,42.0
286096,County,2020/03/30,13.0,GA,13281.0,Towns County,3314.0,8538.0,30385.0,6764.0,9328.0,3539.0,5494.0,3924.0,969.0,229.0,92.0,46.0,0.0
289300,County,2020/03/31,13.0,GA,13281.0,Towns County,3442.0,8410.0,25906.0,3888.0,7615.0,3549.0,5962.0,3128.0,850.0,704.0,187.0,23.0,0.0
292500,County,2020/04/01,13.0,GA,13281.0,Towns County,3181.0,8671.0,27525.0,4682.0,6510.0,4267.0,5200.0,4595.0,884.0,809.0,492.0,69.0,17.0
294129,County,2020/04/02,13.0,GA,13281.0,Towns County,3443.0,8409.0,34860.0,7825.0,9785.0,5441.0,6091.0,3934.0,1416.0,195.0,173.0,0.0,0.0
298888,County,2020/04/03,13.0,GA,13281.0,Towns County,3408.0,8444.0,29155.0,5416.0,8881.0,5095.0,4994.0,3274.0,822.0,510.0,68.0,77.0,18.0
302068,County,2020/04/04,13.0,GA,13281.0,Towns County,3827.0,8025.0,22836.0,4227.0,6128.0,4451.0,4484.0,2333.0,579.0,320.0,213.0,32.0,69.0
303696,County,2020/04/05,13.0,GA,13281.0,Towns County,3586.0,8266.0,25264.0,5819.0,7503.0,3446.0,3240.0,3997.0,724.0,375.0,160.0,0.0,0.0
306906,County,2020/04/06,13.0,GA,13281.0,Towns County,3317.0,8535.0,30004.0,6698.0,7963.0,4354.0,5314.0,3894.0,601.0,746.0,361.0,54.0,19.0
310099,County,2020/04/07,13.0,GA,13281.0,Towns County,3498.0,8354.0,27264.0,6171.0,7169.0,3774.0,4685.0,4035.0,820.0,382.0,203.0,25.0,0.0
314834,County,2020/04/08,13.0,GA,13281.0,Towns County,3444.0,8408.0,25232.0,4422.0,7194.0,3049.0,5963.0,3297.0,761.0,378.0,168.0,0.0,0.0
316461,County,2020/04/09,13.0,GA,13281.0,Towns County,3593.0,8259.0,29975.0,5652.0,9497.0,3429.0,6148.0,4073.0,597.0,337.0,215.0,27.0,0.0
319688,County,2020/04/10,13.0,GA,13281.0,Towns County,3394.0,8458.0,27740.0,3489.0,10354.0,3648.0,4595.0,3957.0,738.0,721.0,140.0,79.0,19.0
322874,County,2020/04/11,13.0,GA,13281.0,Towns County,3500.0,8352.0,30371.0,5606.0,9604.0,4045.0,5978.0,3844.0,769.0,341.0,109.0,55.0,20.0
326067,County,2020/04/12,13.0,GA,13281.0,Towns County,4022.0,7830.0,19607.0,2846.0,7954.0,3037.0,2933.0,2072.0,311.0,129.0,274.0,51.0,0.0
330829,County,2020/04/13,13.0,GA,13281.0,Towns County,3637.0,8215.0,29467.0,5172.0,9599.0,4080.0,5358.0,3800.0,434.0,674.0,323.0,27.0,0.0
332407,County,2020/04/14,13.0,GA,13281.0,Towns County,3398.0,8454.0,28261.0,3324.0,10199.0,4734.0,5714.0,2624.0,787.0,814.0,0.0,65.0,0.0
335633,County,2020/04/15,13.0,GA,13281.0,Towns County,3343.0,8509.0,30501.0,4773.0,10475.0,3204.0,6369.0,4075.0,1128.0,311.0,166.0,0.0,0.0
338834,County,2020/04/16,13.0,GA,13281.0,Towns County,3281.0,8571.0,30803.0,6687.0,8727.0,5063.0,5975.0,3118.0,748.0,155.0,330.0,0.0,0.0
342087,County,2020/04/17,13.0,GA,13281.0,Towns County,2999.0,8853.0,35887.0,6995.0,10945.0,4403.0,6377.0,4929.0,1014.0,979.0,149.0,56.0,40.0
346762,County,2020/04/18,13.0,GA,13281.0,Towns County,3670.0,8182.0,28903.0,5549.0,11411.0,3660.0,4574.0,2507.0,573.0,534.0,95.0,0.0,0.0
349943,County,2020/04/19,13.0,GA,13281.0,Towns County,3633.0,8219.0,21371.0,2345.0,8460.0,3080.0,3531.0,2881.0,512.0,159.0,339.0,64.0,0.0
353193,County,2020/04/20,13.0,GA,13281.0,Towns County,3318.0,8534.0,19737.0,2760.0,8704.0,1813.0,3251.0,1723.0,517.0,855.0,114.0,0.0,0.0
356379,County,2020/04/21,13.0,GA,13281.0,Towns County,3275.0,8577.0,31503.0,4683.0,9754.0,4261.0,6000.0,4946.0,1004.0,660.0,195.0,0.0,0.0
358009,County,2020/04/22,13.0,GA,13281.0,Towns County,3391.0,8461.0,28891.0,5279.0,6787.0,4688.0,6790.0,3587.0,1247.0,387.0,82.0,0.0,44.0
361114,County,2020/04/23,13.0,GA,13281.0,Towns County,3473.0,8379.0,28200.0,5777.0,7129.0,4290.0,5819.0,4417.0,340.0,169.0,225.0,34.0,0.0
364367,County,2020/04/24,13.0,GA,13281.0,Towns County,3091.0,8761.0,31220.0,4750.0,9514.0,4070.0,7190.0,4032.0,979.0,644.0,0.0,0.0,41.0
367534,County,2020/04/25,13.0,GA,13281.0,Towns County,3384.0,8468.0,29216.0,4274.0,9793.0,4600.0,4529.0,4575.0,600.0,745.0,79.0,0.0,21.0
372303,County,2020/04/26,13.0,GA,13281.0,Towns County,3353.0,8499.0,23851.0,2845.0,8355.0,3920.0,4604.0,2820.0,916.0,88.0,233.0,70.0,0.0
373978,County,2020/04/27,13.0,GA,13281.0,Towns County,3082.0,8770.0,32234.0,4808.0,11194.0,4461.0,7179.0,3273.0,698.0,506.0,115.0,0.0,0.0
378706,County,2020/04/28,13.0,GA,13281.0,Towns County,3144.0,8708.0,29146.0,4951.0,7964.0,4286.0,6725.0,3861.0,713.0,516.0,79.0,30.0,21.0
381909,County,2020/04/29,13.0,GA,13281.0,Towns County,2991.0,8861.0,29606.0,3754.0,8448.0,5310.0,6705.0,4008.0,706.0,675.0,0.0,0.0,0.0
383528,County,2020/04/30,13.0,GA,13281.0,Towns County,2963.0,8889.0,32628.0,6075.0,8905.0,4563.0,6393.0,5134.0,893.0,665.0,0.0,0.0,0.0
388362,County,2020/05/01,13.0,GA,13281.0,Towns County,2702.0,9150.0,33678.0,7051.0,9551.0,4578.0,7367.0,3606.0,1122.0,332.0,71.0,0.0,0.0
389936,County,2020/05/02,13.0,GA,13281.0,Towns County,3245.0,8607.0,33525.0,5716.0,9765.0,5268.0,6430.0,4877.0,859.0,411.0,175.0,0.0,24.0
394709,County,2020/05/03,13.0,GA,13281.0,Towns County,3649.0,8203.0,22721.0,2948.0,8029.0,3423.0,4529.0,2635.0,843.0,314.0,0.0,0.0,0.0
396310,County,2020/05/04,13.0,GA,13281.0,Towns County,2873.0,8979.0,32119.0,6238.0,9606.0,2852.0,5924.0,5389.0,805.0,1142.0,114.0,29.0,20.0
401078,County,2020/05/05,13.0,GA,13281.0,Towns County,3314.0,8538.0,29027.0,5375.0,8331.0,4469.0,5310.0,3930.0,1086.0,355.0,151.0,0.0,20.0
404284,County,2020/05/06,13.0,GA,13281.0,Towns County,2864.0,8988.0,35509.0,6062.0,11190.0,4215.0,6687.0,5383.0,1151.0,622.0,199.0,0.0,0.0
405912,County,2020/05/07,13.0,GA,13281.0,Towns County,2897.0,8955.0,35376.0,4741.0,11246.0,5175.0,6590.0,5551.0,1197.0,620.0,231.0,25.0,0.0
409168,County,2020/05/08,13.0,GA,13281.0,Towns County,2967.0,8885.0,32813.0,5082.0,11975.0,4350.0,4512.0,4890.0,1232.0,666.0,106.0,0.0,0.0
413839,County,2020/05/09,13.0,GA,13281.0,Towns County,2836.0,9016.0,35142.0,5878.0,12027.0,4610.0,5828.0,5158.0,948.0,554.0,111.0,28.0,0.0
417018,County,2020/05/10,13.0,GA,13281.0,Towns County,3359.0,8493.0,31228.0,5430.0,7793.0,6029.0,6615.0,3570.0,911.0,679.0,201.0,0.0,0.0
420297,County,2020/05/11,13.0,GA,13281.0,Towns County,2840.0,9012.0,38302.0,7018.0,9283.0,3955.0,8090.0,6967.0,1627.0,1075.0,206.0,69.0,12.0
421877,County,2020/05/12,13.0,GA,13281.0,Towns County,2688.0,9164.0,33877.0,5791.0,7592.0,5625.0,7065.0,5878.0,960.0,658.0,263.0,33.0,12.0
425034,County,2020/05/13,13.0,GA,13281.0,Towns County,2743.0,9109.0,34685.0,7936.0,7905.0,4624.0,7009.0,5168.0,1224.0,616.0,175.0,16.0,12.0
428277,County,2020/05/14,13.0,GA,13281.0,Towns County,2500.0,9352.0,39383.0,8734.0,10009.0,5843.0,5917.0,6083.0,1453.0,1060.0,230.0,31.0,23.0
431471,County,2020/05/15,13.0,GA,13281.0,Towns County,2878.0,8974.0,38400.0,9095.0,9407.0,5404.0,7233.0,5028.0,1210.0,751.0,188.0,71.0,13.0
434645,County,2020/05/16,13.0,GA,13281.0,Towns County,2877.0,8975.0,37469.0,9243.0,8585.0,5593.0,7201.0,4700.0,1317.0,578.0,103.0,135.0,14.0
437847,County,2020/05/17,13.0,GA,13281.0,Towns County,2365.0,9487.0,32961.0,7846.0,8547.0,3674.0,5794.0,5499.0,489.0,708.0,323.0,81.0,0.0
441093,County,2020/05/18,13.0,GA,13281.0,Towns County,1608.0,10244.0,43744.0,7913.0,13089.0,4896.0,9563.0,6292.0,962.0,735.0,294.0,0.0,0.0
444247,County,2020/05/19,13.0,GA,13281.0,Towns County,2344.0,9508.0,44201.0,6603.0,11948.0,7527.0,7523.0,6918.0,1756.0,1636.0,290.0,0.0,0.0
447414,County,2020/05/20,13.0,GA,13281.0,Towns County,2268.0,9584.0,40371.0,6798.0,13113.0,5938.0,7047.0,5555.0,987.0,511.0,381.0,41.0,0.0
451848,County,2020/05/21,13.0,GA,13281.0,Towns County,1757.0,10095.0,44678.0,9458.0,14168.0,5423.0,6127.0,6140.0,1304.0,1906.0,152.0,0.0,0.0
453821,County,2020/05/22,13.0,GA,13281.0,Towns County,1740.0,10112.0,46301.0,7847.0,14944.0,6656.0,8908.0,5632.0,1476.0,193.0,462.0,155.0,28.0
457017,County,2020/05/23,13.0,GA,13281.0,Towns County,1983.0,9869.0,40673.0,6896.0,11230.0,6421.0,9361.0,4711.0,1340.0,312.0,277.0,125.0,0.0
460184,County,2020/05/24,13.0,GA,13281.0,Towns County,2811.0,9041.0,34384.0,6905.0,10182.0,4626.0,6438.0,4575.0,804.0,654.0,147.0,14.0,39.0
463387,County,2020/05/25,13.0,GA,13281.0,Towns County,2321.0,9531.0,31401.0,5978.0,9137.0,4190.0,5805.0,3151.0,1115.0,1445.0,497.0,48.0,35.0
468218,County,2020/05/26,13.0,GA,13281.0,Towns County,2311.0,9541.0,34564.0,5772.0,10124.0,4685.0,6114.0,4839.0,1314.0,1270.0,306.0,97.0,43.0
471410,County,2020/05/27,13.0,GA,13281.0,Towns County,2258.0,9594.0,37196.0,6821.0,10329.0,4917.0,6788.0,5591.0,1507.0,793.0,321.0,102.0,27.0
472994,County,2020/05/28,13.0,GA,13281.0,Towns County,2234.0,9618.0,37880.0,6671.0,11174.0,4977.0,6973.0,5508.0,1618.0,649.0,165.0,136.0,9.0
476138,County,2020/05/29,13.0,GA,13281.0,Towns County,2710.0,9142.0,37771.0,7255.0,10154.0,5148.0,6814.0,5573.0,1505.0,1027.0,215.0,59.0,21.0
479325,County,2020/05/30,13.0,GA,13281.0,Towns County,2611.0,9241.0,36817.0,7630.0,12250.0,4353.0,5639.0,4124.0,1722.0,728.0,267.0,91.0,13.0
482501,County,2020/05/31,13.0,GA,13281.0,Towns County,2378.0,9474.0,36041.0,7476.0,11035.0,4570.0,6206.0,4426.0,969.0,456.0,751.0,116.0,36.0
487394,County,2020/06/01,13.0,GA,13281.0,Towns County,2442.0,9410.0,39156.0,8029.0,10854.0,5047.0,6778.0,5533.0,1434.0,948.0,424.0,76.0,33.0
490501,County,2020/06/02,13.0,GA,13281.0,Towns County,2729.0,9123.0,36892.0,6409.0,10517.0,4832.0,7141.0,4920.0,1771.0,855.0,347.0,65.0,35.0
493723,County,2020/06/03,13.0,GA,13281.0,Towns County,2243.0,9609.0,40262.0,8680.0,10278.0,5539.0,7591.0,5386.0,1367.0,960.0,275.0,133.0,53.0
496904,County,2020/06/04,13.0,GA,13281.0,Towns County,2259.0,9593.0,39101.0,7691.0,10744.0,5054.0,7824.0,5175.0,1333.0,828.0,331.0,111.0,10.0
498545,County,2020/06/05,13.0,GA,13281.0,Towns County,2194.0,9658.0,42181.0,8779.0,12006.0,5494.0,6821.0,6454.0,1450.0,793.0,345.0,29.0,10.0
501691,County,2020/06/06,13.0,GA,13281.0,Towns County,3036.0,8816.0,39721.0,6805.0,13616.0,5234.0,6844.0,4848.0,1102.0,1095.0,146.0,0.0,31.0
506418,County,2020/06/07,13.0,GA,13281.0,Towns County,2800.0,9052.0,37675.0,6531.0,14729.0,5162.0,5714.0,2775.0,837.0,1404.0,415.0,63.0,45.0
508106,County,2020/06/08,13.0,GA,13281.0,Towns County,2510.0,9342.0,41005.0,7799.0,11696.0,5965.0,6842.0,5327.0,1757.0,1058.0,440.0,93.0,28.0
511308,County,2020/06/09,13.0,GA,13281.0,Towns County,2329.0,9523.0,42003.0,8493.0,12938.0,5400.0,7121.0,5366.0,1401.0,979.0,251.0,44.0,10.0
516090,County,2020/06/10,13.0,GA,13281.0,Towns County,2478.0,9374.0,36160.0,6375.0,8415.0,4859.0,5876.0,5885.0,2196.0,1988.0,415.0,140.0,11.0
519247,County,2020/06/11,13.0,GA,13281.0,Towns County,2210.0,9642.0,43486.0,9087.0,12111.0,5570.0,6754.0,6391.0,1723.0,1391.0,361.0,57.0,41.0
522469,County,2020/06/12,13.0,GA,13281.0,Towns County,2465.0,9387.0,41120.0,7950.0,11886.0,5977.0,7547.0,4779.0,1498.0,988.0,404.0,91.0,0.0
524096,County,2020/06/13,13.0,GA,13281.0,Towns County,2364.0,9488.0,39450.0,8203.0,11516.0,5392.0,6157.0,5732.0,1341.0,813.0,227.0,47.0,22.0
528860,County,2020/06/14,13.0,GA,13281.0,Towns County,2617.0,9235.0,32334.0,6638.0,9087.0,4438.0,5043.0,3984.0,1123.0,1330.0,587.0,104.0,0.0
532051,County,2020/06/15,13.0,GA,13281.0,Towns County,2368.0,9484.0,37119.0,8305.0,9259.0,4675.0,5679.0,5831.0,1454.0,1339.0,431.0,75.0,71.0
535221,County,2020/06/16,13.0,GA,13281.0,Towns County,2430.0,9422.0,38920.0,6203.0,11769.0,5129.0,6488.0,6414.0,1163.0,1150.0,455.0,92.0,57.0
538389,County,2020/06/17,13.0,GA,13281.0,Towns County,2301.0,9551.0,39784.0,7447.0,10248.0,5965.0,6707.0,5711.0,1644.0,1362.0,518.0,117.0,65.0
540018,County,2020/06/18,13.0,GA,13281.0,Towns County,2362.0,9490.0,40753.0,6159.0,12202.0,6806.0,7119.0,5592.0,1132.0,1238.0,392.0,94.0,19.0
544786,County,2020/06/19,13.0,GA,13281.0,Towns County,2292.0,9560.0,40056.0,9235.0,9198.0,5840.0,6989.0,5883.0,1559.0,951.0,289.0,54.0,58.0
548021,County,2020/06/20,13.0,GA,13281.0,Towns County,2664.0,9188.0,35038.0,6686.0,10388.0,5342.0,6235.0,4365.0,865.0,806.0,204.0,92.0,55.0
549620,County,2020/06/21,13.0,GA,13281.0,Towns County,2451.0,9401.0,34429.0,8024.0,9384.0,5002.0,5300.0,3571.0,1384.0,1207.0,370.0,103.0,84.0
552795,County,2020/06/22,13.0,GA,13281.0,Towns County,2394.0,9458.0,38619.0,7753.0,10642.0,5361.0,6174.0,5541.0,1426.0,1170.0,489.0,63.0,0.0
556029,County,2020/06/23,13.0,GA,13281.0,Towns County,2515.0,9337.0,39442.0,7284.0,12289.0,4671.0,6528.0,5316.0,1608.0,1253.0,342.0,122.0,29.0
560797,County,2020/06/24,13.0,GA,13281.0,Towns County,2692.0,9160.0,35173.0,6942.0,10043.0,4729.0,6034.0,5162.0,1236.0,663.0,260.0,84.0,20.0
563924,County,2020/06/25,13.0,GA,13281.0,Towns County,2406.0,9446.0,42653.0,10268.0,11303.0,5020.0,7505.0,5554.0,1319.0,1438.0,196.0,40.0,10.0
567219,County,2020/06/26,13.0,GA,13281.0,Towns County,2309.0,9543.0,38133.0,8774.0,8914.0,4331.0,7633.0,4965.0,1594.0,1320.0,462.0,70.0,70.0
568800,County,2020/06/27,13.0,GA,13281.0,Towns County,2451.0,9401.0,39965.0,8593.0,11178.0,5315.0,6697.0,5169.0,1348.0,1042.0,476.0,104.0,43.0
573563,County,2020/06/28,13.0,GA,13281.0,Towns County,2665.0,9187.0,34887.0,6861.0,10423.0,3838.0,5577.0,5061.0,1186.0,1281.0,478.0,154.0,28.0
575169,County,2020/06/29,13.0,GA,13281.0,Towns County,2910.0,8942.0,36805.0,6927.0,10784.0,4779.0,7246.0,4079.0,1199.0,1351.0,295.0,125.0,20.0
578377,County,2020/06/30,13.0,GA,13281.0,Towns County,2757.0,9095.0,40694.0,9819.0,10226.0,4495.0,6640.0,5943.0,1614.0,1300.0,455.0,149.0,53.0
581584,County,2020/07/01,13.0,GA,13281.0,Towns County,2642.0,9210.0,33834.0,6885.0,9457.0,4689.0,5503.0,4201.0,1478.0,1069.0,462.0,80.0,10.0
584777,County,2020/07/02,13.0,GA,13281.0,Towns County,2946.0,8906.0,45271.0,10898.0,11997.0,5328.0,7966.0,5895.0,1400.0,1526.0,208.0,42.0,11.0
587951,County,2020/07/03,13.0,GA,13281.0,Towns County,3027.0,8825.0,37920.0,8725.0,8864.0,4307.0,7590.0,4937.0,1585.0,1313.0,459.0,70.0,70.0
591163,County,2020/07/04,13.0,GA,13281.0,Towns County,3345.0,8507.0,32440.0,7464.0,7583.0,3684.0,6493.0,4224.0,1356.0,1123.0,393.0,60.0,60.0
595908,County,2020/07/05,13.0,GA,13281.0,Towns County,3070.0,8782.0,29736.0,6229.0,9613.0,4256.0,3658.0,2917.0,1338.0,1121.0,412.0,170.0,22.0
597525,County,2020/07/06,13.0,GA,13281.0,Towns County,2596.0,9256.0,35536.0,7387.0,9054.0,4744.0,6405.0,4469.0,1602.0,1133.0,522.0,159.0,61.0
602697,County,2020/07/07,13.0,GA,13281.0,Towns County,2679.0,9173.0,34894.0,6136.0,10107.0,4041.0,6213.0,5258.0,1344.0,1113.0,461.0,186.0,35.0
605413,County,2020/07/08,13.0,GA,13281.0,Towns County,2689.0,9163.0,34761.0,6117.0,10064.0,4649.0,6496.0,4368.0,1382.0,905.0,565.0,125.0,90.0
607140,County,2020/07/09,13.0,GA,13281.0,Towns County,2537.0,9315.0,38203.0,7943.0,9837.0,4816.0,6389.0,6022.0,1443.0,1245.0,388.0,85.0,35.0
611922,County,2020/07/10,13.0,GA,13281.0,Towns County,2560.0,9292.0,33779.0,5819.0,8868.0,4446.0,6143.0,5354.0,1708.0,855.0,405.0,127.0,54.0
613500,County,2020/07/11,13.0,GA,13281.0,Towns County,2738.0,9114.0,35211.0,6211.0,11609.0,3938.0,4998.0,5482.0,1412.0,950.0,389.0,117.0,105.0
618274,County,2020/07/12,13.0,GA,13281.0,Towns County,2915.0,8937.0,30620.0,5428.0,8364.0,4081.0,5959.0,4015.0,695.0,1275.0,504.0,181.0,118.0
621481,County,2020/07/13,13.0,GA,13281.0,Towns County,2506.0,9346.0,37059.0,8220.0,9827.0,4420.0,6487.0,5366.0,1205.0,986.0,389.0,117.0,42.0
623112,County,2020/07/14,13.0,GA,13281.0,Towns County,2738.0,9114.0,38783.0,8551.0,10220.0,5256.0,7185.0,4796.0,1608.0,730.0,307.0,108.0,22.0
627799,County,2020/07/15,13.0,GA,13281.0,Towns County,2541.0,9311.0,37549.0,9137.0,9029.0,5632.0,5733.0,4792.0,1452.0,1190.0,423.0,130.0,31.0
631114,County,2020/07/16,13.0,GA,13281.0,Towns County,2387.0,9465.0,37023.0,6340.0,9412.0,6206.0,6112.0,5367.0,1954.0,1196.0,291.0,96.0,49.0
632675,County,2020/07/17,13.0,GA,13281.0,Towns County,2747.0,9105.0,35526.0,5035.0,9773.0,5911.0,6681.0,5182.0,1615.0,984.0,262.0,61.0,22.0
637462,County,2020/07/18,13.0,GA,13281.0,Towns County,2830.0,9022.0,35354.0,6580.0,9526.0,4949.0,6389.0,4250.0,1503.0,1244.0,710.0,178.0,25.0
639041,County,2020/07/19,13.0,GA,13281.0,Towns County,2789.0,9063.0,33623.0,5284.0,11418.0,4394.0,5761.0,3615.0,892.0,1452.0,570.0,138.0,99.0
643823,County,2020/07/20,13.0,GA,13281.0,Towns County,2747.0,9105.0,37936.0,5510.0,11101.0,5871.0,7192.0,5247.0,1544.0,869.0,443.0,159.0,0.0
645451,County,2020/07/21,13.0,GA,13281.0,Towns County,2679.0,9173.0,36470.0,7287.0,9784.0,5687.0,6281.0,4763.0,1279.0,879.0,396.0,95.0,19.0
650181,County,2020/07/22,13.0,GA,13281.0,Towns County,2440.0,9412.0,36974.0,6799.0,9279.0,5451.0,7709.0,5044.0,1532.0,761.0,321.0,51.0,27.0
651771,County,2020/07/23,13.0,GA,13281.0,Towns County,2658.0,9194.0,39300.0,6958.0,10822.0,6020.0,6698.0,5802.0,1273.0,1120.0,421.0,158.0,28.0
656599,County,2020/07/24,13.0,GA,13281.0,Towns County,2682.0,9170.0,36111.0,5695.0,9375.0,6200.0,6099.0,5383.0,1634.0,999.0,566.0,142.0,18.0
659865,County,2020/07/25,13.0,GA,13281.0,Towns County,2646.0,9206.0,37844.0,6849.0,11829.0,6130.0,5252.0,4846.0,1435.0,927.0,437.0,129.0,10.0
662945,County,2020/07/26,13.0,GA,13281.0,Towns County,2832.0,9020.0,33584.0,6490.0,8854.0,4539.0,5498.0,4495.0,1097.0,1704.0,690.0,178.0,39.0
664686,County,2020/07/27,13.0,GA,13281.0,Towns County,2711.0,9141.0,38485.0,6543.0,9839.0,6027.0,7349.0,5365.0,1336.0,1437.0,476.0,76.0,37.0
667798,County,2020/07/28,13.0,GA,13281.0,Towns County,2683.0,9169.0,38356.0,7247.0,11365.0,5373.0,6458.0,5187.0,1250.0,900.0,430.0,137.0,9.0
672682,County,2020/07/29,13.0,GA,13281.0,Towns County,2492.0,9360.0,39056.0,8270.0,8910.0,5914.0,6802.0,5325.0,1778.0,1338.0,563.0,75.0,81.0
675765,County,2020/07/30,13.0,GA,13281.0,Towns County,2615.0,9237.0,39190.0,7349.0,10938.0,4579.0,6579.0,5849.0,1925.0,1513.0,338.0,60.0,60.0
678993,County,2020/07/31,13.0,GA,13281.0,Towns County,2756.0,9096.0,33616.0,6202.0,8224.0,4242.0,5473.0,5451.0,1308.0,2007.0,424.0,230.0,55.0
680572,County,2020/08/01,13.0,GA,13281.0,Towns County,2891.0,8961.0,33503.0,6473.0,9535.0,4461.0,5331.0,4812.0,823.0,1423.0,466.0,116.0,63.0
685353,County,2020/08/02,13.0,GA,13281.0,Towns County,2912.0,8940.0,30023.0,6843.0,8175.0,4094.0,3954.0,3237.0,1025.0,2009.0,481.0,147.0,58.0
688557,County,2020/08/03,13.0,GA,13281.0,Towns County,2880.0,8972.0,32065.0,6032.0,8283.0,4043.0,5232.0,4935.0,1373.0,1599.0,417.0,100.0,51.0
690185,County,2020/08/04,13.0,GA,13281.0,Towns County,2650.0,9202.0,37257.0,7550.0,9472.0,4264.0,7515.0,5268.0,1844.0,957.0,291.0,96.0,0.0
693347,County,2020/08/05,13.0,GA,13281.0,Towns County,2825.0,9027.0,38002.0,7646.0,10031.0,4992.0,7169.0,4849.0,2037.0,1005.0,166.0,97.0,10.0
696553,County,2020/08/06,13.0,GA,13281.0,Towns County,2582.0,9270.0,37836.0,8013.0,9864.0,4874.0,7137.0,4884.0,1462.0,1089.0,352.0,132.0,29.0
701333,County,2020/08/07,13.0,GA,13281.0,Towns County,2641.0,9211.0,35884.0,5415.0,9848.0,5264.0,6613.0,5837.0,1622.0,990.0,245.0,29.0,21.0
704527,County,2020/08/08,13.0,GA,13281.0,Towns County,2879.0,8973.0,34006.0,5884.0,9961.0,4043.0,6293.0,4826.0,1297.0,1100.0,419.0,126.0,57.0
707696,County,2020/08/09,13.0,GA,13281.0,Towns County,2824.0,9028.0,31812.0,7643.0,7549.0,2215.0,6319.0,3726.0,1473.0,2080.0,598.0,149.0,60.0
709325,County,2020/08/10,13.0,GA,13281.0,Towns County,2575.0,9277.0,38287.0,7942.0,11345.0,3560.0,6920.0,4906.0,1459.0,1531.0,472.0,129.0,23.0
714155,County,2020/08/11,13.0,GA,13281.0,Towns County,2580.0,9272.0,37606.0,7281.0,10358.0,4311.0,6515.0,6040.0,1558.0,1355.0,123.0,31.0,34.0
717205,County,2020/08/12,13.0,GA,13281.0,Towns County,2537.0,9315.0,34997.0,6364.0,9646.0,4296.0,6410.0,4654.0,1731.0,1255.0,458.0,101.0,82.0
718931,County,2020/08/13,13.0,GA,13281.0,Towns County,2461.0,9391.0,36238.0,7200.0,9412.0,4925.0,5811.0,4795.0,2016.0,1669.0,204.0,97.0,109.0
723674,County,2020/08/14,13.0,GA,13281.0,Towns County,2455.0,9397.0,34925.0,6040.0,9196.0,4824.0,6869.0,4930.0,1495.0,946.0,396.0,94.0,135.0
726885,County,2020/08/15,13.0,GA,13281.0,Towns County,2689.0,9163.0,29138.0,3896.0,7543.0,4631.0,5545.0,3851.0,1294.0,1531.0,652.0,107.0,88.0
730078,County,2020/08/16,13.0,GA,13281.0,Towns County,3028.0,8824.0,30682.0,5206.0,7804.0,3922.0,5617.0,3811.0,1290.0,2148.0,659.0,131.0,94.0
731707,County,2020/08/17,13.0,GA,13281.0,Towns County,3054.0,8798.0,33114.0,7069.0,7428.0,4410.0,4904.0,5779.0,1422.0,1362.0,568.0,45.0,127.0
734872,County,2020/08/18,13.0,GA,13281.0,Towns County,2955.0,8897.0,31398.0,5486.0,7855.0,3937.0,6243.0,5013.0,1164.0,1004.0,470.0,64.0,162.0
738078,County,2020/08/19,13.0,GA,13281.0,Towns County,2969.0,8883.0,33100.0,4711.0,10091.0,4507.0,5833.0,4753.0,1298.0,1305.0,327.0,77.0,198.0
742860,County,2020/08/20,13.0,GA,13281.0,Towns County,2692.0,9160.0,33646.0,6192.0,8251.0,4799.0,5626.0,4916.0,1368.0,1663.0,509.0,99.0,223.0
746066,County,2020/08/21,13.0,GA,13281.0,Towns County,2630.0,9222.0,33913.0,6001.0,9047.0,5227.0,5617.0,5103.0,1058.0,1164.0,499.0,90.0,107.0
749221,County,2020/08/22,13.0,GA,13281.0,Towns County,2823.0,9029.0,31249.0,4442.0,7644.0,4621.0,7053.0,4504.0,1058.0,1191.0,525.0,82.0,129.0
750837,County,2020/08/23,13.0,GA,13281.0,Towns County,3312.0,8540.0,24573.0,3767.0,6393.0,2515.0,4857.0,3651.0,1333.0,1479.0,356.0,141.0,81.0
754061,County,2020/08/24,13.0,GA,13281.0,Towns County,3165.0,8687.0,28579.0,4604.0,7780.0,3151.0,5811.0,3561.0,1692.0,1235.0,497.0,133.0,115.0
758821,County,2020/08/25,13.0,GA,13281.0,Towns County,3026.0,8826.0,29753.0,4485.0,7199.0,3841.0,6379.0,4631.0,1482.0,1270.0,321.0,63.0,82.0
760454,County,2020/08/26,13.0,GA,13281.0,Towns County,2953.0,8899.0,30263.0,4648.0,7310.0,4195.0,6545.0,4765.0,1320.0,1021.0,330.0,49.0,80.0
765177,County,2020/08/27,13.0,GA,13281.0,Towns County,2886.0,8966.0,30671.0,5436.0,7355.0,4463.0,5889.0,4670.0,1261.0,922.0,523.0,99.0,53.0
766817,County,2020/08/28,13.0,GA,13281.0,Towns County,3156.0,8696.0,27977.0,3760.0,6797.0,4170.0,5803.0,3935.0,1724.0,1303.0,314.0,100.0,71.0
770020,County,2020/08/29,13.0,GA,13281.0,Towns County,3190.0,8662.0,30457.0,4794.0,8963.0,4623.0,5899.0,3535.0,1345.0,886.0,254.0,109.0,49.0
773228,County,2020/08/30,13.0,GA,13281.0,Towns County,3066.0,8786.0,29206.0,5836.0,8648.0,3539.0,4584.0,3446.0,1062.0,1355.0,494.0,171.0,71.0
776420,County,2020/08/31,13.0,GA,13281.0,Towns County,3105.0,8747.0,33104.0,7030.0,8265.0,4006.0,5844.0,4856.0,1276.0,1197.0,394.0,155.0,81.0
779563,County,2020/09/01,13.0,GA,13281.0,Towns County,2984.0,8868.0,36465.0,6944.0,9753.0,4956.0,6164.0,5791.0,1128.0,1254.0,294.0,118.0,63.0
783596,County,2020/09/02,13.0,GA,13281.0,Towns County,2720.0,9132.0,35445.0,7029.0,8326.0,4601.0,6139.0,6331.0,1475.0,1140.0,313.0,41.0,50.0
785955,County,2020/09/03,13.0,GA,13281.0,Towns County,2582.0,9270.0,32893.0,5790.0,7959.0,3663.0,6565.0,5340.0,1733.0,1373.0,265.0,88.0,117.0
790738,County,2020/09/04,13.0,GA,13281.0,Towns County,2921.0,8931.0,32458.0,4717.0,8530.0,4905.0,6373.0,4820.0,1038.0,1547.0,392.0,73.0,63.0
793878,County,2020/09/05,13.0,GA,13281.0,Towns County,2953.0,8899.0,34510.0,5502.0,10450.0,3832.0,6678.0,5596.0,1460.0,656.0,185.0,62.0,89.0
795581,County,2020/09/06,13.0,GA,13281.0,Towns County,3176.0,8676.0,26883.0,4371.0,8045.0,3272.0,5025.0,3927.0,999.0,798.0,237.0,107.0,102.0
800346,County,2020/09/07,13.0,GA,13281.0,Towns County,3414.0,8438.0,24568.0,4269.0,6100.0,3596.0,3851.0,3457.0,673.0,1763.0,692.0,74.0,93.0
801952,County,2020/09/08,13.0,GA,13281.0,Towns County,2995.0,8857.0,33194.0,4175.0,8985.0,5076.0,5540.0,6179.0,1541.0,1154.0,372.0,145.0,27.0
806733,County,2020/09/09,13.0,GA,13281.0,Towns County,3096.0,8756.0,33929.0,4673.0,9199.0,4390.0,6980.0,5225.0,1661.0,1345.0,332.0,88.0,36.0
808361,County,2020/09/10,13.0,GA,13281.0,Towns County,2891.0,8961.0,32544.0,4595.0,7907.0,5127.0,5292.0,6204.0,1529.0,1460.0,218.0,128.0,84.0
813122,County,2020/09/11,13.0,GA,13281.0,Towns County,2725.0,9127.0,34931.0,4774.0,9272.0,4770.0,5950.0,5935.0,2038.0,1553.0,491.0,115.0,33.0
814701,County,2020/09/12,13.0,GA,13281.0,Towns County,3141.0,8711.0,29919.0,4814.0,7078.0,4487.0,5685.0,4348.0,1423.0,1599.0,308.0,109.0,68.0
819499,County,2020/09/13,13.0,GA,13281.0,Towns County,3306.0,8546.0,24415.0,3330.0,7147.0,2878.0,4314.0,3778.0,1058.0,1127.0,531.0,200.0,52.0
821128,County,2020/09/14,13.0,GA,13281.0,Towns County,3272.0,8580.0,32433.0,5299.0,9194.0,4297.0,5819.0,5176.0,1182.0,979.0,326.0,114.0,47.0
825898,County,2020/09/15,13.0,GA,13281.0,Towns County,3309.0,8543.0,32526.0,4683.0,9427.0,4957.0,6765.0,4004.0,1109.0,1024.0,398.0,126.0,33.0
827526,County,2020/09/16,13.0,GA,13281.0,Towns County,3047.0,8805.0,32085.0,4915.0,8797.0,3908.0,6062.0,5112.0,1430.0,1233.0,425.0,130.0,73.0
832268,County,2020/09/17,13.0,GA,13281.0,Towns County,3136.0,8716.0,31962.0,4511.0,9081.0,4243.0,6122.0,4741.0,1335.0,1395.0,381.0,121.0,32.0
833897,County,2020/09/18,13.0,GA,13281.0,Towns County,3217.0,8635.0,35106.0,6327.0,9511.0,4922.0,6097.0,4919.0,1554.0,1191.0,394.0,132.0,59.0
838673,County,2020/09/19,13.0,GA,13281.0,Towns County,3417.0,8435.0,31711.0,5821.0,7355.0,3542.0,6223.0,5215.0,1660.0,1199.0,537.0,77.0,82.0
840301,County,2020/09/20,13.0,GA,13281.0,Towns County,3278.0,8574.0,26526.0,4057.0,7197.0,3984.0,4171.0,3552.0,1532.0,1190.0,655.0,143.0,45.0
843463,County,2020/09/21,13.0,GA,13281.0,Towns County,3469.0,8383.0,32616.0,6075.0,9420.0,3785.0,7146.0,4322.0,902.0,560.0,323.0,56.0,27.0
846667,County,2020/09/22,13.0,GA,13281.0,Towns County,2866.0,8986.0,33857.0,6355.0,9720.0,4996.0,5701.0,4449.0,1108.0,1126.0,311.0,67.0,24.0
851446,County,2020/09/23,13.0,GA,13281.0,Towns County,2604.0,9248.0,32463.0,5958.0,9006.0,3832.0,6433.0,4164.0,1361.0,1259.0,421.0,29.0,0.0
853074,County,2020/09/24,13.0,GA,13281.0,Towns County,3092.0,8760.0,33199.0,5553.0,9712.0,3597.0,7211.0,4241.0,1181.0,1392.0,200.0,90.0,22.0
857838,County,2020/09/25,13.0,GA,13281.0,Towns County,2980.0,8872.0,32818.0,4969.0,10669.0,3517.0,6747.0,4017.0,1092.0,1434.0,227.0,124.0,22.0
860983,County,2020/09/26,13.0,GA,13281.0,Towns County,3222.0,8630.0,32624.0,5715.0,11011.0,4038.0,4700.0,4784.0,1140.0,1051.0,49.0,110.0,26.0
862637,County,2020/09/27,13.0,GA,13281.0,Towns County,3268.0,8584.0,26206.0,4047.0,7166.0,3118.0,4540.0,3622.0,1317.0,1799.0,370.0,180.0,47.0
865840,County,2020/09/28,13.0,GA,13281.0,Towns County,2861.0,8991.0,30648.0,5449.0,8156.0,4322.0,6134.0,4456.0,977.0,857.0,209.0,57.0,31.0
870613,County,2020/09/29,13.0,GA,13281.0,Towns County,2840.0,9012.0,30466.0,4689.0,7261.0,3541.0,6016.0,5809.0,1318.0,1404.0,264.0,138.0,26.0
872242,County,2020/09/30,13.0,GA,13281.0,Towns County,3033.0,8819.0,31677.0,5436.0,7235.0,3972.0,6334.0,5705.0,1642.0,895.0,325.0,109.0,24.0
875406,County,2020/10/01,13.0,GA,13281.0,Towns County,2732.0,9120.0,32809.0,4212.0,8486.0,4394.0,7537.0,4900.0,1581.0,1281.0,248.0,126.0,44.0
878609,County,2020/10/02,13.0,GA,13281.0,Towns County,3117.0,8735.0,33937.0,6182.0,8971.0,4818.0,5549.0,5036.0,1205.0,1643.0,465.0,64.0,4.0
883391,County,2020/10/03,13.0,GA,13281.0,Towns County,3107.0,8745.0,31431.0,5403.0,9155.0,3806.0,6941.0,3648.0,1125.0,1048.0,267.0,33.0,5.0
885392,County,2020/10/04,13.0,GA,13281.0,Towns County,3159.0,8693.0,26689.0,3819.0,5949.0,5213.0,4555.0,3761.0,1338.0,1439.0,428.0,156.0,31.0
888411,County,2020/10/05,13.0,GA,13281.0,Towns County,3461.0,8391.0,29719.0,4818.0,7033.0,4625.0,5445.0,4363.0,1395.0,1656.0,325.0,45.0,14.0
891636,County,2020/10/06,13.0,GA,13281.0,Towns County,3029.0,8823.0,30304.0,3538.0,7706.0,4026.0,6567.0,5454.0,1123.0,1451.0,364.0,59.0,16.0
894815,County,2020/10/07,13.0,GA,13281.0,Towns County,2945.0,8907.0,33021.0,5592.0,7711.0,3660.0,8676.0,4654.0,1144.0,1116.0,370.0,79.0,19.0
898013,County,2020/10/08,13.0,GA,13281.0,Towns County,2973.0,8879.0,28831.0,4289.0,6598.0,4156.0,6386.0,4521.0,1257.0,1103.0,395.0,109.0,17.0
901190,County,2020/10/09,13.0,GA,13281.0,Towns County,3062.0,8790.0,30105.0,4388.0,7936.0,3756.0,6149.0,4329.0,1370.0,1717.0,369.0,80.0,11.0
904422,County,2020/10/10,13.0,GA,13281.0,Towns County,3133.0,8719.0,25526.0,2376.0,6487.0,3726.0,5781.0,4205.0,1323.0,1120.0,382.0,107.0,19.0
909349,County,2020/10/11,13.0,GA,13281.0,Towns County,3122.0,8730.0,25305.0,3526.0,6089.0,3194.0,4067.0,4607.0,1761.0,1440.0,483.0,118.0,20.0
912764,County,2020/10/12,13.0,GA,13281.0,Towns County,2868.0,8984.0,30182.0,4624.0,7276.0,4416.0,6259.0,4701.0,1067.0,1329.0,391.0,101.0,18.0
916132,County,2020/10/13,13.0,GA,13281.0,Towns County,2943.0,8909.0,33435.0,5147.0,9167.0,3825.0,6654.0,5121.0,1553.0,1493.0,337.0,116.0,22.0
918959,County,2020/10/14,13.0,GA,13281.0,Towns County,2645.0,9207.0,32314.0,5851.0,7603.0,4293.0,5796.0,4777.0,1355.0,2221.0,306.0,90.0,22.0
922549,County,2020/10/15,13.0,GA,13281.0,Towns County,2956.0,8896.0,30699.0,5119.0,7953.0,4806.0,5428.0,4431.0,1424.0,955.0,452.0,94.0,37.0
925627,County,2020/10/16,13.0,GA,13281.0,Towns County,2790.0,9062.0,32693.0,4735.0,8076.0,4836.0,6885.0,4666.0,1587.0,1446.0,391.0,51.0,20.0
929271,County,2020/10/17,13.0,GA,13281.0,Towns County,2982.0,8870.0,28145.0,4136.0,6498.0,3640.0,5064.0,5553.0,1365.0,1442.0,350.0,85.0,12.0
932156,County,2020/10/18,13.0,GA,13281.0,Towns County,2786.0,9066.0,26434.0,3711.0,7980.0,3330.0,4008.0,3580.0,1227.0,1879.0,614.0,83.0,22.0
935222,County,2020/10/19,13.0,GA,13281.0,Towns County,2722.0,9130.0,35176.0,6042.0,8855.0,4038.0,6643.0,5845.0,1766.0,1396.0,498.0,74.0,19.0
938811,County,2020/10/20,13.0,GA,13281.0,Towns County,2699.0,9153.0,34446.0,6473.0,8366.0,4892.0,6031.0,5145.0,1634.0,1458.0,314.0,105.0,28.0
942016,County,2020/10/21,13.0,GA,13281.0,Towns County,2868.0,8984.0,31671.0,4525.0,9343.0,3551.0,5250.0,5747.0,1564.0,1145.0,458.0,79.0,9.0
945309,County,2020/10/22,13.0,GA,13281.0,Towns County,2727.0,9125.0,32633.0,4587.0,7899.0,4003.0,6317.0,5562.0,1969.0,1755.0,425.0,87.0,29.0
948430,County,2020/10/23,13.0,GA,13281.0,Towns County,2796.0,9056.0,35105.0,5459.0,9416.0,4183.0,7501.0,5340.0,1464.0,1211.0,422.0,85.0,24.0
951686,County,2020/10/24,13.0,GA,13281.0,Towns County,2906.0,8946.0,32952.0,5665.0,8813.0,3244.0,7261.0,5722.0,907.0,1028.0,250.0,49.0,13.0
