,Level,Date,State FIPS,State Postal Code,County FIPS,County Name,Population Staying at Home,Population Not Staying at Home,Number of Trips,Number of Trips <1,Number of Trips 1-3,Number of Trips 3-5,Number of Trips 5-10,Number of Trips 10-25,Number of Trips 25-50,Number of Trips 50-100,Number of Trips 100-250,Number of Trips 250-500,Number of Trips >=500
1145,County,2020/01/01,22.0,LA,22065.0,Madison Parish,3050.0,8111.0,39959.0,11744.0,11755.0,2380.0,4560.0,6632.0,1888.0,723.0,191.0,51.0,35.0
3385,County,2020/01/02,22.0,LA,22065.0,Madison Parish,3023.0,8138.0,38143.0,12613.0,10653.0,1306.0,4118.0,5076.0,2422.0,1504.0,342.0,55.0,54.0
7474,County,2020/01/03,22.0,LA,22065.0,Madison Parish,2969.0,8192.0,43242.0,15493.0,10343.0,2599.0,4450.0,5986.0,2224.0,1601.0,437.0,63.0,46.0
12136,County,2020/01/04,22.0,LA,22065.0,Madison Parish,2952.0,8209.0,38451.0,9668.0,9658.0,3190.0,3295.0,7562.0,2717.0,1977.0,285.0,54.0,45.0
13921,County,2020/01/05,22.0,LA,22065.0,Madison Parish,2945.0,8216.0,32179.0,10036.0,8673.0,2302.0,3192.0,4733.0,1457.0,1344.0,255.0,81.0,106.0
16478,County,2020/01/06,22.0,LA,22065.0,Madison Parish,2807.0,8354.0,42822.0,14171.0,13629.0,2490.0,2715.0,5878.0,2130.0,1302.0,409.0,66.0,32.0
19732,County,2020/01/07,22.0,LA,22065.0,Madison Parish,2767.0,8394.0,49537.0,17865.0,11979.0,2513.0,3717.0,8313.0,3152.0,1295.0,540.0,60.0,103.0
24580,County,2020/01/08,22.0,LA,22065.0,Madison Parish,2425.0,8736.0,46009.0,15355.0,12105.0,2281.0,3604.0,7977.0,2503.0,1590.0,378.0,117.0,99.0
27711,County,2020/01/09,22.0,LA,22065.0,Madison Parish,2752.0,8409.0,45880.0,16054.0,11614.0,2749.0,3981.0,6465.0,2783.0,1513.0,569.0,88.0,64.0
29305,County,2020/01/10,22.0,LA,22065.0,Madison Parish,2744.0,8417.0,48303.0,17700.0,11750.0,2210.0,3965.0,7832.0,3013.0,1306.0,428.0,72.0,27.0
32546,County,2020/01/11,22.0,LA,22065.0,Madison Parish,2965.0,8196.0,37909.0,11536.0,11166.0,2005.0,4296.0,5352.0,2382.0,846.0,242.0,34.0,50.0
35702,County,2020/01/12,22.0,LA,22065.0,Madison Parish,3260.0,7901.0,38880.0,13210.0,9354.0,3033.0,3702.0,6011.0,2057.0,1157.0,221.0,59.0,76.0
38945,County,2020/01/13,22.0,LA,22065.0,Madison Parish,2938.0,8223.0,42686.0,15447.0,11199.0,3258.0,2478.0,5365.0,2807.0,1514.0,500.0,90.0,28.0
43678,County,2020/01/14,22.0,LA,22065.0,Madison Parish,2596.0,8565.0,40362.0,14381.0,10155.0,2469.0,2806.0,5570.0,2883.0,1396.0,561.0,70.0,71.0
45260,County,2020/01/15,22.0,LA,22065.0,Madison Parish,2779.0,8382.0,43359.0,15052.0,11492.0,2329.0,3261.0,6522.0,2486.0,1485.0,537.0,64.0,131.0
48411,County,2020/01/16,22.0,LA,22065.0,Madison Parish,2446.0,8715.0,46870.0,16320.0,12145.0,3179.0,3650.0,7056.0,2150.0,1825.0,383.0,73.0,89.0
51668,County,2020/01/17,22.0,LA,22065.0,Madison Parish,2343.0,8818.0,51309.0,17893.0,13462.0,3151.0,4368.0,7664.0,2785.0,1349.0,510.0,67.0,60.0
56448,County,2020/01/18,22.0,LA,22065.0,Madison Parish,2842.0,8319.0,46110.0,15235.0,11890.0,3435.0,3946.0,6934.0,2701.0,1572.0,321.0,57.0,19.0
58047,County,2020/01/19,22.0,LA,22065.0,Madison Parish,3406.0,7755.0,42598.0,16630.0,9624.0,3768.0,3880.0,5670.0,1794.0,687.0,419.0,60.0,66.0
62810,County,2020/01/20,22.0,LA,22065.0,Madison Parish,2815.0,8346.0,45246.0,15746.0,11930.0,2763.0,3595.0,6673.0,2182.0,1819.0,407.0,63.0,68.0
64437,County,2020/01/21,22.0,LA,22065.0,Madison Parish,2906.0,8255.0,47734.0,19183.0,12244.0,2379.0,3791.0,5921.0,2192.0,1421.0,444.0,76.0,83.0
69199,County,2020/01/22,22.0,LA,22065.0,Madison Parish,2739.0,8422.0,45523.0,15434.0,11455.0,2773.0,3322.0,7876.0,2491.0,1575.0,458.0,110.0,29.0
72431,County,2020/01/23,22.0,LA,22065.0,Madison Parish,2606.0,8555.0,43338.0,14326.0,11677.0,2746.0,2647.0,7755.0,1946.0,1590.0,437.0,82.0,132.0
75586,County,2020/01/24,22.0,LA,22065.0,Madison Parish,2802.0,8359.0,48312.0,16317.0,12829.0,3261.0,4126.0,6465.0,3337.0,1459.0,375.0,88.0,55.0
77213,County,2020/01/25,22.0,LA,22065.0,Madison Parish,2788.0,8373.0,45586.0,15401.0,12161.0,3005.0,3881.0,6622.0,2381.0,1691.0,318.0,86.0,40.0
80995,County,2020/01/26,22.0,LA,22065.0,Madison Parish,3182.0,7979.0,32647.0,11077.0,7765.0,2150.0,2818.0,5582.0,1663.0,974.0,453.0,73.0,92.0
85136,County,2020/01/27,22.0,LA,22065.0,Madison Parish,2935.0,8226.0,42599.0,14487.0,10616.0,2709.0,3021.0,7208.0,2433.0,1573.0,459.0,55.0,38.0
88941,County,2020/01/28,22.0,LA,22065.0,Madison Parish,2508.0,8653.0,46664.0,15296.0,12766.0,2817.0,3994.0,6169.0,3194.0,1864.0,426.0,84.0,54.0
91591,County,2020/01/29,22.0,LA,22065.0,Madison Parish,3062.0,8099.0,45490.0,17201.0,12584.0,2383.0,3489.0,5576.0,2117.0,1627.0,383.0,64.0,66.0
94797,County,2020/01/30,22.0,LA,22065.0,Madison Parish,2801.0,8360.0,46518.0,16789.0,11751.0,2708.0,4454.0,6098.0,2341.0,1856.0,365.0,95.0,61.0
96372,County,2020/01/31,22.0,LA,22065.0,Madison Parish,2814.0,8347.0,51479.0,19144.0,12600.0,3073.0,4335.0,6985.0,3099.0,1670.0,403.0,76.0,94.0
99621,County,2020/02/01,22.0,LA,22065.0,Madison Parish,2819.0,8342.0,41087.0,12650.0,9231.0,3161.0,4445.0,7579.0,2222.0,1309.0,320.0,92.0,78.0
104332,County,2020/02/02,22.0,LA,22065.0,Madison Parish,2982.0,8179.0,41022.0,13069.0,11339.0,2453.0,3809.0,5693.0,3017.0,1140.0,290.0,103.0,109.0
107584,County,2020/02/03,22.0,LA,22065.0,Madison Parish,2758.0,8403.0,51743.0,16625.0,13561.0,4166.0,5136.0,7044.0,2530.0,2079.0,433.0,94.0,75.0
110720,County,2020/02/04,22.0,LA,22065.0,Madison Parish,2522.0,8639.0,45955.0,13308.0,11906.0,3856.0,4530.0,7084.0,2847.0,1887.0,376.0,99.0,62.0
112347,County,2020/02/05,22.0,LA,22065.0,Madison Parish,2956.0,8205.0,45306.0,15678.0,10805.0,3410.0,4422.0,6589.0,2638.0,1129.0,401.0,97.0,137.0
117130,County,2020/02/06,22.0,LA,22065.0,Madison Parish,2565.0,8596.0,45815.0,16234.0,10450.0,2449.0,4462.0,7147.0,2492.0,1878.0,531.0,79.0,93.0
120384,County,2020/02/07,22.0,LA,22065.0,Madison Parish,2510.0,8651.0,53534.0,19627.0,13643.0,2681.0,3911.0,7920.0,3139.0,2013.0,467.0,86.0,47.0
121955,County,2020/02/08,22.0,LA,22065.0,Madison Parish,2794.0,8367.0,45627.0,15287.0,12766.0,3456.0,3526.0,6311.0,2397.0,1381.0,325.0,82.0,96.0
125158,County,2020/02/09,22.0,LA,22065.0,Madison Parish,3109.0,8052.0,39628.0,13051.0,11376.0,2554.0,3225.0,5488.0,2355.0,1047.0,344.0,95.0,93.0
129454,County,2020/02/10,22.0,LA,22065.0,Madison Parish,2618.0,8543.0,44529.0,15423.0,11326.0,2992.0,4074.0,5912.0,2599.0,1544.0,514.0,78.0,67.0
132002,County,2020/02/11,22.0,LA,22065.0,Madison Parish,2667.0,8494.0,43837.0,15183.0,10227.0,2965.0,3490.0,6166.0,2995.0,2038.0,605.0,83.0,85.0
136242,County,2020/02/12,22.0,LA,22065.0,Madison Parish,2905.0,8256.0,42929.0,13136.0,12040.0,2663.0,3901.0,6432.0,2493.0,1524.0,470.0,119.0,151.0
139512,County,2020/02/13,22.0,LA,22065.0,Madison Parish,2377.0,8784.0,44546.0,12324.0,11941.0,2488.0,4732.0,7487.0,3207.0,1592.0,531.0,90.0,154.0
142667,County,2020/02/14,22.0,LA,22065.0,Madison Parish,2610.0,8551.0,48239.0,14247.0,13038.0,3272.0,3937.0,8318.0,2951.0,1770.0,518.0,81.0,107.0
144291,County,2020/02/15,22.0,LA,22065.0,Madison Parish,2797.0,8364.0,45857.0,13992.0,10450.0,3440.0,4520.0,7910.0,3074.0,1937.0,341.0,85.0,108.0
149075,County,2020/02/16,22.0,LA,22065.0,Madison Parish,3165.0,7996.0,40680.0,12080.0,9856.0,3192.0,4652.0,6655.0,2498.0,1221.0,348.0,80.0,98.0
150703,County,2020/02/17,22.0,LA,22065.0,Madison Parish,3304.0,7857.0,40272.0,13325.0,9386.0,2737.0,3861.0,6124.0,2659.0,1627.0,369.0,70.0,114.0
155386,County,2020/02/18,22.0,LA,22065.0,Madison Parish,2513.0,8648.0,47536.0,15366.0,12092.0,3401.0,4741.0,6788.0,2685.0,1877.0,353.0,108.0,125.0
158629,County,2020/02/19,22.0,LA,22065.0,Madison Parish,2544.0,8617.0,47838.0,14986.0,12816.0,3154.0,6086.0,7254.0,1926.0,1082.0,338.0,110.0,86.0
161825,County,2020/02/20,22.0,LA,22065.0,Madison Parish,2684.0,8477.0,45021.0,14578.0,14215.0,2904.0,3351.0,5926.0,2135.0,1396.0,398.0,71.0,47.0
163451,County,2020/02/21,22.0,LA,22065.0,Madison Parish,2569.0,8592.0,52359.0,18324.0,14642.0,2556.0,3893.0,8015.0,2714.0,1748.0,344.0,67.0,56.0
168163,County,2020/02/22,22.0,LA,22065.0,Madison Parish,2710.0,8451.0,47166.0,18505.0,10535.0,3233.0,3477.0,6344.0,3234.0,1328.0,279.0,67.0,164.0
171411,County,2020/02/23,22.0,LA,22065.0,Madison Parish,3259.0,7902.0,42459.0,15197.0,9920.0,3513.0,4331.0,5880.0,2010.0,1160.0,282.0,60.0,106.0
173037,County,2020/02/24,22.0,LA,22065.0,Madison Parish,3181.0,7980.0,45062.0,15860.0,10897.0,3560.0,4825.0,5489.0,2244.0,1641.0,370.0,82.0,94.0
177011,County,2020/02/25,22.0,LA,22065.0,Madison Parish,2639.0,8522.0,45885.0,13084.0,11298.0,3516.0,5181.0,7202.0,3045.0,1837.0,560.0,102.0,60.0
180009,County,2020/02/26,22.0,LA,22065.0,Madison Parish,2435.0,8726.0,51995.0,14286.0,11878.0,4316.0,5503.0,9531.0,4538.0,1461.0,357.0,56.0,69.0
184176,County,2020/02/27,22.0,LA,22065.0,Madison Parish,2459.0,8702.0,46033.0,14381.0,11243.0,3207.0,4292.0,7422.0,3129.0,1713.0,464.0,91.0,91.0
185903,County,2020/02/28,22.0,LA,22065.0,Madison Parish,2519.0,8642.0,53136.0,16526.0,11818.0,3850.0,5382.0,9755.0,3310.0,1890.0,444.0,120.0,41.0
189004,County,2020/02/29,22.0,LA,22065.0,Madison Parish,2480.0,8681.0,50124.0,17881.0,10330.0,3387.0,5377.0,7417.0,3504.0,1600.0,415.0,71.0,142.0
193788,County,2020/03/01,22.0,LA,22065.0,Madison Parish,2679.0,8482.0,45730.0,15551.0,9681.0,5729.0,4905.0,5381.0,2226.0,1775.0,293.0,68.0,121.0
195417,County,2020/03/02,22.0,LA,22065.0,Madison Parish,2538.0,8623.0,54122.0,17987.0,13872.0,3753.0,4674.0,9442.0,2301.0,1657.0,332.0,57.0,47.0
198572,County,2020/03/03,22.0,LA,22065.0,Madison Parish,2302.0,8859.0,52544.0,17729.0,12830.0,4287.0,4615.0,8300.0,2966.0,1133.0,552.0,91.0,41.0
203357,County,2020/03/04,22.0,LA,22065.0,Madison Parish,2493.0,8668.0,52397.0,16055.0,13726.0,4317.0,4816.0,7247.0,4405.0,1276.0,405.0,67.0,83.0
204922,County,2020/03/05,22.0,LA,22065.0,Madison Parish,2112.0,9049.0,48685.0,13479.0,10956.0,5304.0,6401.0,8160.0,2490.0,1165.0,525.0,109.0,96.0
208090,County,2020/03/06,22.0,LA,22065.0,Madison Parish,2102.0,9059.0,60912.0,17533.0,15099.0,4601.0,6966.0,10221.0,3985.0,1775.0,633.0,37.0,62.0
213006,County,2020/03/07,22.0,LA,22065.0,Madison Parish,2397.0,8764.0,51770.0,14350.0,11834.0,4623.0,5259.0,10048.0,3402.0,1611.0,490.0,83.0,70.0
214557,County,2020/03/08,22.0,LA,22065.0,Madison Parish,2762.0,8399.0,51831.0,18872.0,10492.0,5080.0,3988.0,9089.0,2989.0,1049.0,182.0,37.0,53.0
217759,County,2020/03/09,22.0,LA,22065.0,Madison Parish,2403.0,8758.0,52468.0,17874.0,12068.0,4040.0,4828.0,8625.0,2835.0,1810.0,296.0,65.0,27.0
222558,County,2020/03/10,22.0,LA,22065.0,Madison Parish,2292.0,8869.0,45944.0,15878.0,12440.0,2827.0,4555.0,4646.0,3546.0,1368.0,567.0,72.0,45.0
225788,County,2020/03/11,22.0,LA,22065.0,Madison Parish,2371.0,8790.0,46728.0,14258.0,10860.0,2006.0,4271.0,11230.0,3049.0,508.0,395.0,83.0,68.0
227367,County,2020/03/12,22.0,LA,22065.0,Madison Parish,2516.0,8645.0,57792.0,18340.0,16311.0,5743.0,3975.0,8131.0,3643.0,1104.0,382.0,51.0,112.0
230526,County,2020/03/13,22.0,LA,22065.0,Madison Parish,2504.0,8657.0,66843.0,20202.0,17795.0,6329.0,5515.0,11702.0,3142.0,1792.0,239.0,52.0,75.0
233725,County,2020/03/14,22.0,LA,22065.0,Madison Parish,2849.0,8312.0,59655.0,19657.0,14423.0,8739.0,5893.0,6381.0,3059.0,1133.0,98.0,79.0,193.0
238479,County,2020/03/15,22.0,LA,22065.0,Madison Parish,3196.0,7965.0,44424.0,14164.0,10965.0,4826.0,4547.0,6630.0,1878.0,812.0,501.0,54.0,47.0
241722,County,2020/03/16,22.0,LA,22065.0,Madison Parish,2875.0,8286.0,45483.0,13015.0,11895.0,3785.0,4896.0,6306.0,2785.0,2216.0,474.0,68.0,43.0
244913,County,2020/03/17,22.0,LA,22065.0,Madison Parish,3273.0,7888.0,40378.0,11831.0,12377.0,2791.0,2746.0,5450.0,3226.0,1258.0,514.0,107.0,78.0
246493,County,2020/03/18,22.0,LA,22065.0,Madison Parish,2955.0,8206.0,45158.0,16093.0,9592.0,2575.0,3742.0,8103.0,2871.0,1523.0,470.0,86.0,103.0
249699,County,2020/03/19,22.0,LA,22065.0,Madison Parish,3294.0,7867.0,47212.0,15356.0,13620.0,3433.0,4245.0,5678.0,2559.0,1716.0,414.0,92.0,99.0
252933,County,2020/03/20,22.0,LA,22065.0,Madison Parish,3251.0,7910.0,41922.0,10090.0,12423.0,3512.0,5059.0,6449.0,2630.0,1173.0,458.0,100.0,28.0
257643,County,2020/03/21,22.0,LA,22065.0,Madison Parish,3259.0,7902.0,37053.0,10669.0,9340.0,3230.0,4895.0,5700.0,1523.0,1154.0,399.0,96.0,47.0
259263,County,2020/03/22,22.0,LA,22065.0,Madison Parish,3403.0,7758.0,39401.0,15835.0,8091.0,3612.0,2998.0,4768.0,2810.0,820.0,243.0,49.0,175.0
264042,County,2020/03/23,22.0,LA,22065.0,Madison Parish,2924.0,8237.0,40372.0,12248.0,10903.0,2964.0,5080.0,4889.0,3265.0,403.0,505.0,33.0,82.0
265668,County,2020/03/24,22.0,LA,22065.0,Madison Parish,3242.0,7919.0,35265.0,13626.0,8376.0,2099.0,2688.0,4319.0,2406.0,1084.0,468.0,111.0,88.0
268902,County,2020/03/25,22.0,LA,22065.0,Madison Parish,3398.0,7763.0,35713.0,9648.0,10876.0,3218.0,2485.0,5381.0,2415.0,978.0,537.0,112.0,63.0
272047,County,2020/03/26,22.0,LA,22065.0,Madison Parish,3147.0,8014.0,42754.0,16831.0,9152.0,1667.0,4426.0,6708.0,2522.0,885.0,421.0,82.0,60.0
276809,County,2020/03/27,22.0,LA,22065.0,Madison Parish,3137.0,8024.0,50052.0,18588.0,12199.0,4031.0,4955.0,6657.0,2064.0,1032.0,436.0,59.0,31.0
278436,County,2020/03/28,22.0,LA,22065.0,Madison Parish,3352.0,7809.0,44264.0,15821.0,9540.0,3193.0,5173.0,6886.0,2289.0,954.0,330.0,35.0,43.0
283196,County,2020/03/29,22.0,LA,22065.0,Madison Parish,3605.0,7556.0,36508.0,11045.0,7723.0,3433.0,5648.0,5182.0,2225.0,838.0,331.0,67.0,16.0
286422,County,2020/03/30,22.0,LA,22065.0,Madison Parish,2963.0,8198.0,38466.0,12940.0,10137.0,2928.0,3107.0,5692.0,2090.0,1195.0,258.0,65.0,54.0
288019,County,2020/03/31,22.0,LA,22065.0,Madison Parish,3129.0,8032.0,30294.0,7359.0,7954.0,2525.0,3058.0,5401.0,1930.0,1458.0,452.0,89.0,68.0
291255,County,2020/04/01,22.0,LA,22065.0,Madison Parish,2943.0,8218.0,38426.0,12811.0,8882.0,2895.0,3739.0,5611.0,2038.0,1859.0,459.0,89.0,43.0
295987,County,2020/04/02,22.0,LA,22065.0,Madison Parish,3122.0,8039.0,41282.0,14050.0,10504.0,2368.0,3874.0,6291.0,2508.0,1211.0,323.0,108.0,45.0
297648,County,2020/04/03,22.0,LA,22065.0,Madison Parish,3283.0,7878.0,38682.0,12943.0,10045.0,2082.0,3929.0,4931.0,2611.0,1674.0,328.0,78.0,61.0
302394,County,2020/04/04,22.0,LA,22065.0,Madison Parish,3347.0,7814.0,32062.0,11139.0,6512.0,3670.0,2729.0,4728.0,1910.0,967.0,236.0,32.0,139.0
305547,County,2020/04/05,22.0,LA,22065.0,Madison Parish,3493.0,7668.0,28669.0,8605.0,7777.0,2198.0,2860.0,4092.0,1685.0,1021.0,309.0,53.0,69.0
308748,County,2020/04/06,22.0,LA,22065.0,Madison Parish,2995.0,8166.0,43835.0,14605.0,12470.0,3482.0,4137.0,5484.0,1962.0,1108.0,456.0,59.0,72.0
311987,County,2020/04/07,22.0,LA,22065.0,Madison Parish,3324.0,7837.0,35602.0,10369.0,9434.0,3108.0,2372.0,6322.0,2326.0,1083.0,493.0,64.0,31.0
315160,County,2020/04/08,22.0,LA,22065.0,Madison Parish,3098.0,8063.0,45040.0,18008.0,10026.0,3535.0,4037.0,4370.0,2815.0,1643.0,487.0,87.0,32.0
316787,County,2020/04/09,22.0,LA,22065.0,Madison Parish,3208.0,7953.0,39136.0,13075.0,10380.0,2756.0,3514.0,5611.0,2041.0,1153.0,474.0,102.0,30.0
321524,County,2020/04/10,22.0,LA,22065.0,Madison Parish,3265.0,7896.0,39022.0,12636.0,10968.0,2967.0,3401.0,5574.0,2137.0,862.0,298.0,70.0,109.0
324769,County,2020/04/11,22.0,LA,22065.0,Madison Parish,3058.0,8103.0,39434.0,12765.0,8358.0,3336.0,5539.0,6746.0,1557.0,757.0,262.0,55.0,59.0
326343,County,2020/04/12,22.0,LA,22065.0,Madison Parish,3722.0,7439.0,27504.0,6981.0,7288.0,3097.0,4194.0,3472.0,1603.0,565.0,195.0,53.0,56.0
329609,County,2020/04/13,22.0,LA,22065.0,Madison Parish,3371.0,7790.0,34099.0,8492.0,10763.0,2308.0,3954.0,4878.0,1999.0,1322.0,278.0,58.0,47.0
332733,County,2020/04/14,22.0,LA,22065.0,Madison Parish,3160.0,8001.0,34149.0,12088.0,7021.0,1646.0,5010.0,4520.0,2754.0,731.0,180.0,29.0,170.0
337535,County,2020/04/15,22.0,LA,22065.0,Madison Parish,2727.0,8434.0,39508.0,15293.0,7658.0,2719.0,4718.0,6203.0,1895.0,632.0,255.0,49.0,86.0
339112,County,2020/04/16,22.0,LA,22065.0,Madison Parish,3279.0,7882.0,32920.0,7959.0,10315.0,1238.0,3947.0,4487.0,4142.0,494.0,213.0,91.0,34.0
342412,County,2020/04/17,22.0,LA,22065.0,Madison Parish,2864.0,8297.0,47955.0,15920.0,15889.0,2594.0,3536.0,5743.0,2289.0,1607.0,312.0,65.0,0.0
345518,County,2020/04/18,22.0,LA,22065.0,Madison Parish,3654.0,7507.0,33487.0,9685.0,7618.0,4696.0,2515.0,6124.0,2357.0,262.0,181.0,49.0,0.0
350269,County,2020/04/19,22.0,LA,22065.0,Madison Parish,3281.0,7880.0,29797.0,7789.0,8448.0,3401.0,5462.0,2793.0,1252.0,284.0,229.0,62.0,77.0
353519,County,2020/04/20,22.0,LA,22065.0,Madison Parish,2869.0,8292.0,36927.0,11164.0,9519.0,2504.0,1596.0,7559.0,3141.0,1122.0,172.0,116.0,34.0
355090,County,2020/04/21,22.0,LA,22065.0,Madison Parish,3221.0,7940.0,43248.0,13915.0,10897.0,3697.0,4795.0,5295.0,2732.0,1438.0,352.0,78.0,49.0
358334,County,2020/04/22,22.0,LA,22065.0,Madison Parish,2662.0,8499.0,40332.0,13209.0,10967.0,3432.0,3661.0,4504.0,2932.0,832.0,665.0,102.0,28.0
363066,County,2020/04/23,22.0,LA,22065.0,Madison Parish,2987.0,8174.0,40861.0,10296.0,13265.0,2575.0,3984.0,6621.0,2153.0,1506.0,380.0,65.0,16.0
364693,County,2020/04/24,22.0,LA,22065.0,Madison Parish,2924.0,8237.0,37666.0,11219.0,9796.0,1893.0,4662.0,5810.0,2638.0,1265.0,266.0,72.0,45.0
367861,County,2020/04/25,22.0,LA,22065.0,Madison Parish,3367.0,7794.0,38084.0,11420.0,8616.0,2232.0,4753.0,6494.0,3139.0,1132.0,220.0,59.0,19.0
371025,County,2020/04/26,22.0,LA,22065.0,Madison Parish,2974.0,8187.0,31982.0,10558.0,8257.0,2778.0,2672.0,4512.0,1682.0,1069.0,300.0,81.0,73.0
375860,County,2020/04/27,22.0,LA,22065.0,Madison Parish,3200.0,7961.0,42955.0,16083.0,9283.0,3798.0,3429.0,5242.0,3176.0,1450.0,436.0,41.0,17.0
379031,County,2020/04/28,22.0,LA,22065.0,Madison Parish,2878.0,8283.0,45730.0,18550.0,9864.0,2191.0,4299.0,6844.0,2464.0,1001.0,310.0,78.0,129.0
382235,County,2020/04/29,22.0,LA,22065.0,Madison Parish,3113.0,8048.0,37650.0,12235.0,8615.0,2876.0,4374.0,5051.0,2332.0,1397.0,609.0,62.0,99.0
383854,County,2020/04/30,22.0,LA,22065.0,Madison Parish,2995.0,8166.0,44025.0,14381.0,10607.0,2183.0,4871.0,7141.0,2586.0,1712.0,438.0,89.0,17.0
388640,County,2020/05/01,22.0,LA,22065.0,Madison Parish,2614.0,8547.0,57112.0,24666.0,13223.0,3271.0,4241.0,6727.0,3031.0,1479.0,405.0,69.0,0.0
391790,County,2020/05/02,22.0,LA,22065.0,Madison Parish,3119.0,8042.0,54678.0,23620.0,11809.0,3767.0,5749.0,5985.0,2321.0,1036.0,334.0,19.0,38.0
394985,County,2020/05/03,22.0,LA,22065.0,Madison Parish,3136.0,8025.0,43120.0,16962.0,9991.0,2628.0,4284.0,6102.0,1521.0,1268.0,292.0,72.0,0.0
396636,County,2020/05/04,22.0,LA,22065.0,Madison Parish,2967.0,8194.0,51079.0,18808.0,13157.0,3106.0,5047.0,6108.0,2597.0,1794.0,342.0,86.0,34.0
401404,County,2020/05/05,22.0,LA,22065.0,Madison Parish,2632.0,8529.0,47035.0,18223.0,12106.0,2635.0,3582.0,4972.0,3099.0,1894.0,397.0,80.0,47.0
402986,County,2020/05/06,22.0,LA,22065.0,Madison Parish,2830.0,8331.0,52651.0,18145.0,12345.0,4388.0,5285.0,7736.0,2275.0,2080.0,317.0,80.0,0.0
407705,County,2020/05/07,22.0,LA,22065.0,Madison Parish,2830.0,8331.0,44978.0,14831.0,10556.0,3736.0,5557.0,6110.0,2083.0,1465.0,525.0,56.0,59.0
409493,County,2020/05/08,22.0,LA,22065.0,Madison Parish,2903.0,8258.0,43336.0,13707.0,10662.0,3547.0,4968.0,6176.0,1862.0,1840.0,457.0,70.0,47.0
412547,County,2020/05/09,22.0,LA,22065.0,Madison Parish,2832.0,8329.0,43495.0,13314.0,9525.0,3526.0,5071.0,7956.0,3026.0,582.0,447.0,30.0,18.0
417345,County,2020/05/10,22.0,LA,22065.0,Madison Parish,3214.0,7947.0,45913.0,15691.0,11035.0,3503.0,5024.0,6889.0,2427.0,907.0,386.0,32.0,19.0
420623,County,2020/05/11,22.0,LA,22065.0,Madison Parish,2566.0,8595.0,54068.0,21579.0,12308.0,3106.0,4124.0,7501.0,3586.0,1306.0,451.0,70.0,37.0
423828,County,2020/05/12,22.0,LA,22065.0,Madison Parish,2608.0,8553.0,61056.0,26410.0,12617.0,3149.0,3822.0,9171.0,3446.0,1582.0,714.0,75.0,70.0
426876,County,2020/05/13,22.0,LA,22065.0,Madison Parish,2478.0,8683.0,51814.0,18160.0,11610.0,3039.0,4011.0,8065.0,3973.0,2089.0,629.0,125.0,113.0
428602,County,2020/05/14,22.0,LA,22065.0,Madison Parish,2491.0,8670.0,49160.0,18239.0,9741.0,2839.0,3410.0,8544.0,3506.0,2040.0,642.0,108.0,91.0
431797,County,2020/05/15,22.0,LA,22065.0,Madison Parish,2247.0,8914.0,50108.0,16894.0,11492.0,3023.0,3746.0,9480.0,3195.0,1375.0,678.0,82.0,143.0
435020,County,2020/05/16,22.0,LA,22065.0,Madison Parish,2383.0,8778.0,50942.0,19733.0,11854.0,2679.0,3697.0,8005.0,3151.0,1171.0,405.0,109.0,138.0
439655,County,2020/05/17,22.0,LA,22065.0,Madison Parish,2642.0,8519.0,44047.0,15069.0,10911.0,3465.0,3513.0,7227.0,2283.0,1098.0,379.0,82.0,20.0
442945,County,2020/05/18,22.0,LA,22065.0,Madison Parish,2123.0,9038.0,49322.0,15586.0,12896.0,4643.0,5509.0,4772.0,3635.0,1722.0,476.0,64.0,19.0
446108,County,2020/05/19,22.0,LA,22065.0,Madison Parish,1957.0,9204.0,48584.0,13383.0,9671.0,4891.0,6001.0,8860.0,3763.0,1364.0,519.0,95.0,37.0
447740,County,2020/05/20,22.0,LA,22065.0,Madison Parish,2240.0,8921.0,48705.0,16077.0,11543.0,3684.0,4109.0,8280.0,3081.0,1355.0,444.0,93.0,39.0
450911,County,2020/05/21,22.0,LA,22065.0,Madison Parish,2113.0,9048.0,44243.0,12683.0,10654.0,3425.0,3589.0,6517.0,4166.0,2532.0,525.0,34.0,118.0
454098,County,2020/05/22,22.0,LA,22065.0,Madison Parish,2008.0,9153.0,50779.0,15544.0,13568.0,3333.0,5295.0,7196.0,3547.0,1690.0,438.0,72.0,96.0
458881,County,2020/05/23,22.0,LA,22065.0,Madison Parish,2637.0,8524.0,43470.0,14064.0,8016.0,5215.0,5322.0,6298.0,3155.0,773.0,535.0,50.0,42.0
460510,County,2020/05/24,22.0,LA,22065.0,Madison Parish,3166.0,7995.0,41503.0,16594.0,9761.0,2262.0,3244.0,4878.0,3017.0,1089.0,493.0,73.0,92.0
463713,County,2020/05/25,22.0,LA,22065.0,Madison Parish,2625.0,8536.0,41761.0,14027.0,9762.0,2780.0,4219.0,6880.0,2401.0,890.0,615.0,83.0,104.0
466818,County,2020/05/26,22.0,LA,22065.0,Madison Parish,2500.0,8661.0,52744.0,22137.0,10842.0,2590.0,3765.0,7874.0,3209.0,1483.0,702.0,81.0,61.0
471686,County,2020/05/27,22.0,LA,22065.0,Madison Parish,2421.0,8740.0,52837.0,21487.0,11153.0,2653.0,3897.0,7957.0,3106.0,1788.0,639.0,115.0,42.0
474786,County,2020/05/28,22.0,LA,22065.0,Madison Parish,2566.0,8595.0,51851.0,23339.0,9524.0,2167.0,4011.0,7906.0,2198.0,1864.0,655.0,117.0,70.0
476464,County,2020/05/29,22.0,LA,22065.0,Madison Parish,2972.0,8189.0,49585.0,17167.0,12024.0,3323.0,4723.0,8092.0,2241.0,1495.0,452.0,38.0,30.0
479651,County,2020/05/30,22.0,LA,22065.0,Madison Parish,3124.0,8037.0,47456.0,16458.0,12644.0,2793.0,4822.0,7309.0,2113.0,974.0,240.0,65.0,38.0
482779,County,2020/05/31,22.0,LA,22065.0,Madison Parish,3210.0,7951.0,38326.0,14662.0,7863.0,2256.0,3495.0,5827.0,2463.0,1267.0,317.0,69.0,107.0
487719,County,2020/06/01,22.0,LA,22065.0,Madison Parish,2575.0,8586.0,41664.0,14920.0,10124.0,2613.0,4035.0,6067.0,2395.0,1051.0,315.0,68.0,76.0
489287,County,2020/06/02,22.0,LA,22065.0,Madison Parish,2850.0,8311.0,42845.0,16672.0,9136.0,2420.0,3388.0,6653.0,2239.0,1543.0,658.0,87.0,49.0
494049,County,2020/06/03,22.0,LA,22065.0,Madison Parish,2412.0,8749.0,48174.0,19037.0,10666.0,2697.0,3942.0,7019.0,2644.0,1394.0,616.0,115.0,44.0
495618,County,2020/06/04,22.0,LA,22065.0,Madison Parish,2522.0,8639.0,44995.0,17370.0,10161.0,2040.0,4286.0,6817.0,2301.0,1290.0,572.0,95.0,63.0
500394,County,2020/06/05,22.0,LA,22065.0,Madison Parish,2446.0,8715.0,46513.0,17390.0,10814.0,2560.0,4019.0,6125.0,3290.0,1685.0,445.0,77.0,108.0
503595,County,2020/06/06,22.0,LA,22065.0,Madison Parish,3322.0,7839.0,40896.0,12364.0,10195.0,2530.0,2605.0,8461.0,2984.0,1085.0,516.0,21.0,135.0
505209,County,2020/06/07,22.0,LA,22065.0,Madison Parish,2851.0,8310.0,45659.0,19047.0,10798.0,2252.0,3462.0,4557.0,3308.0,1443.0,543.0,122.0,127.0
510005,County,2020/06/08,22.0,LA,22065.0,Madison Parish,2475.0,8686.0,45668.0,17035.0,10924.0,1656.0,3836.0,6461.0,3196.0,1687.0,604.0,132.0,137.0
513161,County,2020/06/09,22.0,LA,22065.0,Madison Parish,2493.0,8668.0,49048.0,18863.0,10655.0,2636.0,3599.0,6915.0,3078.0,2344.0,723.0,115.0,120.0
516415,County,2020/06/10,22.0,LA,22065.0,Madison Parish,2520.0,8641.0,55029.0,23406.0,12513.0,2584.0,4065.0,6463.0,2971.0,1898.0,934.0,108.0,87.0
519523,County,2020/06/11,22.0,LA,22065.0,Madison Parish,2204.0,8957.0,52916.0,23962.0,10013.0,2477.0,3096.0,7169.0,2964.0,2233.0,834.0,111.0,57.0
522795,County,2020/06/12,22.0,LA,22065.0,Madison Parish,2153.0,9008.0,43953.0,15269.0,9575.0,2184.0,4384.0,6803.0,2629.0,2100.0,810.0,133.0,66.0
524374,County,2020/06/13,22.0,LA,22065.0,Madison Parish,2460.0,8701.0,42095.0,14902.0,9303.0,3066.0,4560.0,5947.0,2137.0,1328.0,638.0,100.0,114.0
529137,County,2020/06/14,22.0,LA,22065.0,Madison Parish,2981.0,8180.0,45414.0,15976.0,9500.0,2517.0,3942.0,9246.0,2552.0,933.0,529.0,97.0,122.0
530766,County,2020/06/15,22.0,LA,22065.0,Madison Parish,2446.0,8715.0,48087.0,15166.0,11297.0,2683.0,4160.0,9062.0,3195.0,1902.0,482.0,80.0,60.0
535547,County,2020/06/16,22.0,LA,22065.0,Madison Parish,2499.0,8662.0,54202.0,19196.0,11521.0,3780.0,4116.0,9783.0,3124.0,1820.0,629.0,114.0,119.0
538715,County,2020/06/17,22.0,LA,22065.0,Madison Parish,2519.0,8642.0,52098.0,20554.0,11478.0,2913.0,3401.0,7310.0,3083.0,2411.0,735.0,127.0,86.0
540345,County,2020/06/18,22.0,LA,22065.0,Madison Parish,2584.0,8577.0,45818.0,17560.0,8614.0,2719.0,3764.0,7699.0,2430.0,2059.0,768.0,116.0,89.0
543537,County,2020/06/19,22.0,LA,22065.0,Madison Parish,2737.0,8424.0,52148.0,21918.0,10393.0,3220.0,3199.0,7655.0,2819.0,2034.0,691.0,124.0,95.0
546742,County,2020/06/20,22.0,LA,22065.0,Madison Parish,2873.0,8288.0,49365.0,20620.0,8323.0,2704.0,3878.0,8664.0,2538.0,1885.0,625.0,86.0,42.0
549946,County,2020/06/21,22.0,LA,22065.0,Madison Parish,3271.0,7890.0,35546.0,15573.0,7453.0,1854.0,2923.0,4014.0,2085.0,980.0,508.0,95.0,61.0
553122,County,2020/06/22,22.0,LA,22065.0,Madison Parish,2943.0,8218.0,39704.0,13928.0,8551.0,2449.0,3763.0,5717.0,2775.0,1972.0,433.0,64.0,52.0
557881,County,2020/06/23,22.0,LA,22065.0,Madison Parish,2884.0,8277.0,41156.0,15871.0,8542.0,1863.0,3851.0,6551.0,1970.0,1795.0,555.0,85.0,73.0
559513,County,2020/06/24,22.0,LA,22065.0,Madison Parish,2873.0,8288.0,32893.0,8675.0,8292.0,1583.0,3708.0,5416.0,2868.0,1729.0,496.0,106.0,20.0
564250,County,2020/06/25,22.0,LA,22065.0,Madison Parish,3061.0,8100.0,33978.0,11448.0,6913.0,1760.0,3206.0,6517.0,2158.0,1390.0,424.0,95.0,67.0
565956,County,2020/06/26,22.0,LA,22065.0,Madison Parish,2782.0,8379.0,36813.0,11932.0,7624.0,1965.0,2724.0,7696.0,2540.0,1536.0,617.0,89.0,90.0
570647,County,2020/06/27,22.0,LA,22065.0,Madison Parish,3320.0,7841.0,38682.0,17730.0,8414.0,1258.0,3040.0,4641.0,1402.0,1656.0,438.0,77.0,26.0
572285,County,2020/06/28,22.0,LA,22065.0,Madison Parish,3039.0,8122.0,44214.0,16531.0,9124.0,2716.0,3452.0,7932.0,2588.0,1277.0,472.0,74.0,48.0
577058,County,2020/06/29,22.0,LA,22065.0,Madison Parish,2862.0,8299.0,49351.0,16597.0,11410.0,2389.0,4372.0,8949.0,2970.0,1964.0,531.0,76.0,93.0
578700,County,2020/06/30,22.0,LA,22065.0,Madison Parish,2617.0,8544.0,47326.0,14764.0,9611.0,2431.0,3551.0,11045.0,3437.0,1574.0,614.0,113.0,186.0
583452,County,2020/07/01,22.0,LA,22065.0,Madison Parish,2518.0,8643.0,49736.0,17362.0,9680.0,2546.0,3976.0,10043.0,3312.0,2011.0,600.0,99.0,107.0
586641,County,2020/07/02,22.0,LA,22065.0,Madison Parish,3094.0,8067.0,36064.0,12151.0,7337.0,1868.0,3403.0,6917.0,2291.0,1475.0,450.0,101.0,71.0
589843,County,2020/07/03,22.0,LA,22065.0,Madison Parish,3021.0,8140.0,36606.0,11865.0,7581.0,1954.0,2709.0,7653.0,2526.0,1527.0,614.0,88.0,89.0
591486,County,2020/07/04,22.0,LA,22065.0,Madison Parish,3601.0,7560.0,31319.0,10151.0,6486.0,1672.0,2317.0,6547.0,2161.0,1307.0,525.0,76.0,77.0
594678,County,2020/07/05,22.0,LA,22065.0,Madison Parish,3425.0,7736.0,39111.0,16986.0,9878.0,2338.0,3043.0,4047.0,1369.0,1032.0,263.0,66.0,89.0
598534,County,2020/07/06,22.0,LA,22065.0,Madison Parish,3198.0,7963.0,42079.0,15794.0,9828.0,2540.0,4027.0,5974.0,1901.0,1584.0,290.0,65.0,76.0
603024,County,2020/07/07,22.0,LA,22065.0,Madison Parish,2707.0,8454.0,38814.0,13267.0,7802.0,2966.0,4495.0,5677.0,2340.0,1678.0,418.0,76.0,95.0
604221,County,2020/07/08,22.0,LA,22065.0,Madison Parish,2747.0,8414.0,43465.0,16677.0,9413.0,2611.0,3819.0,6447.0,2086.0,1820.0,433.0,60.0,99.0
608993,County,2020/07/09,22.0,LA,22065.0,Madison Parish,2815.0,8346.0,44697.0,16221.0,10525.0,2610.0,4235.0,6662.0,2579.0,1158.0,472.0,123.0,112.0
610616,County,2020/07/10,22.0,LA,22065.0,Madison Parish,2931.0,8230.0,46409.0,14842.0,10058.0,3021.0,4822.0,8726.0,2377.0,1940.0,471.0,73.0,79.0
615414,County,2020/07/11,22.0,LA,22065.0,Madison Parish,3048.0,8113.0,39124.0,12269.0,9110.0,1935.0,4240.0,7345.0,2948.0,819.0,366.0,13.0,79.0
616999,County,2020/07/12,22.0,LA,22065.0,Madison Parish,3291.0,7870.0,28647.0,9830.0,6629.0,1484.0,3627.0,3500.0,2305.0,641.0,409.0,115.0,107.0
621758,County,2020/07/13,22.0,LA,22065.0,Madison Parish,2906.0,8255.0,32692.0,10461.0,7767.0,1947.0,3066.0,5049.0,2299.0,1397.0,593.0,59.0,54.0
623388,County,2020/07/14,22.0,LA,22065.0,Madison Parish,3023.0,8138.0,40252.0,16044.0,10492.0,2185.0,3591.0,3957.0,2115.0,1242.0,471.0,90.0,65.0
626510,County,2020/07/15,22.0,LA,22065.0,Madison Parish,2723.0,8438.0,40056.0,13446.0,10360.0,2099.0,4005.0,6270.0,2217.0,1040.0,492.0,75.0,52.0
631440,County,2020/07/16,22.0,LA,22065.0,Madison Parish,2640.0,8521.0,34324.0,10721.0,9300.0,2059.0,3769.0,4590.0,2031.0,1251.0,420.0,123.0,60.0
634486,County,2020/07/17,22.0,LA,22065.0,Madison Parish,2710.0,8451.0,36572.0,12532.0,8775.0,2218.0,3137.0,6663.0,1809.0,867.0,391.0,119.0,61.0
637738,County,2020/07/18,22.0,LA,22065.0,Madison Parish,3427.0,7734.0,38797.0,12188.0,9913.0,2506.0,4913.0,6328.0,1778.0,688.0,274.0,94.0,115.0
640940,County,2020/07/19,22.0,LA,22065.0,Madison Parish,3491.0,7670.0,32803.0,12477.0,8058.0,1734.0,2418.0,5235.0,1510.0,856.0,366.0,94.0,55.0
644149,County,2020/07/20,22.0,LA,22065.0,Madison Parish,3232.0,7929.0,41608.0,14090.0,9207.0,1501.0,3951.0,7976.0,2711.0,1674.0,420.0,78.0,0.0
647793,County,2020/07/21,22.0,LA,22065.0,Madison Parish,2926.0,8235.0,37656.0,11371.0,8627.0,2519.0,4066.0,5890.0,3048.0,1569.0,439.0,66.0,61.0
650506,County,2020/07/22,22.0,LA,22065.0,Madison Parish,2788.0,8373.0,41609.0,12675.0,10156.0,2425.0,4646.0,7959.0,1852.0,1250.0,521.0,65.0,60.0
653700,County,2020/07/23,22.0,LA,22065.0,Madison Parish,2813.0,8348.0,35788.0,10510.0,8533.0,2084.0,4172.0,6840.0,1743.0,1304.0,425.0,66.0,111.0
656974,County,2020/07/24,22.0,LA,22065.0,Madison Parish,2817.0,8344.0,38383.0,10720.0,9276.0,1802.0,4508.0,7453.0,2832.0,1142.0,500.0,78.0,72.0
660191,County,2020/07/25,22.0,LA,22065.0,Madison Parish,3344.0,7817.0,30956.0,8558.0,7319.0,2100.0,4026.0,6261.0,1372.0,915.0,300.0,55.0,50.0
661715,County,2020/07/26,22.0,LA,22065.0,Madison Parish,3263.0,7898.0,35296.0,11988.0,8460.0,2225.0,2836.0,5682.0,2339.0,1329.0,261.0,103.0,73.0
665011,County,2020/07/27,22.0,LA,22065.0,Madison Parish,2780.0,8381.0,37121.0,9769.0,7886.0,2242.0,5002.0,7310.0,2578.0,1485.0,702.0,73.0,74.0
668124,County,2020/07/28,22.0,LA,22065.0,Madison Parish,2849.0,8312.0,47628.0,16728.0,10083.0,2707.0,4437.0,7939.0,3234.0,1772.0,520.0,114.0,94.0
672960,County,2020/07/29,22.0,LA,22065.0,Madison Parish,2903.0,8258.0,45059.0,12484.0,10740.0,3207.0,4663.0,8851.0,2489.0,1796.0,594.0,115.0,120.0
676041,County,2020/07/30,22.0,LA,22065.0,Madison Parish,2994.0,8167.0,49508.0,17385.0,9907.0,2918.0,4421.0,8842.0,3452.0,1765.0,637.0,118.0,63.0
677692,County,2020/07/31,22.0,LA,22065.0,Madison Parish,2903.0,8258.0,50584.0,17103.0,10840.0,2493.0,4359.0,9782.0,3078.0,2093.0,669.0,81.0,86.0
682439,County,2020/08/01,22.0,LA,22065.0,Madison Parish,3271.0,7890.0,39445.0,13633.0,8981.0,1788.0,3376.0,5982.0,2992.0,2015.0,497.0,90.0,91.0
684073,County,2020/08/02,22.0,LA,22065.0,Madison Parish,3462.0,7699.0,31818.0,11969.0,7815.0,1509.0,2854.0,3803.0,1865.0,1189.0,616.0,111.0,87.0
687269,County,2020/08/03,22.0,LA,22065.0,Madison Parish,3007.0,8154.0,46055.0,17547.0,11153.0,1772.0,3887.0,6420.0,3210.0,1523.0,412.0,53.0,78.0
692044,County,2020/08/04,22.0,LA,22065.0,Madison Parish,3112.0,8049.0,40907.0,16844.0,9239.0,1889.0,3159.0,5320.0,2237.0,1425.0,569.0,96.0,129.0
693673,County,2020/08/05,22.0,LA,22065.0,Madison Parish,2858.0,8303.0,41684.0,13134.0,12353.0,2257.0,4406.0,5204.0,2274.0,1359.0,506.0,94.0,97.0
696879,County,2020/08/06,22.0,LA,22065.0,Madison Parish,2656.0,8505.0,43442.0,16019.0,9608.0,2109.0,4200.0,6911.0,2477.0,1225.0,665.0,95.0,133.0
701611,County,2020/08/07,22.0,LA,22065.0,Madison Parish,2729.0,8432.0,41029.0,14134.0,10067.0,1760.0,3084.0,6375.0,3027.0,1928.0,448.0,111.0,95.0
703240,County,2020/08/08,22.0,LA,22065.0,Madison Parish,3214.0,7947.0,30944.0,10654.0,7928.0,1734.0,2970.0,4189.0,1710.0,1123.0,418.0,89.0,129.0
708022,County,2020/08/09,22.0,LA,22065.0,Madison Parish,3335.0,7826.0,33179.0,12536.0,7483.0,2063.0,3888.0,3866.0,1844.0,892.0,446.0,134.0,27.0
711240,County,2020/08/10,22.0,LA,22065.0,Madison Parish,3182.0,7979.0,39127.0,11052.0,9904.0,1508.0,3747.0,7698.0,3325.0,1338.0,446.0,57.0,52.0
712820,County,2020/08/11,22.0,LA,22065.0,Madison Parish,3302.0,7859.0,34928.0,11543.0,7104.0,2448.0,4384.0,5135.0,3017.0,673.0,450.0,88.0,86.0
716014,County,2020/08/12,22.0,LA,22065.0,Madison Parish,2873.0,8288.0,32527.0,8659.0,8404.0,1852.0,2665.0,5844.0,2547.0,1624.0,677.0,97.0,158.0
720774,County,2020/08/13,22.0,LA,22065.0,Madison Parish,2988.0,8173.0,34430.0,10148.0,8158.0,1908.0,4388.0,5182.0,2293.0,1621.0,431.0,120.0,181.0
724000,County,2020/08/14,22.0,LA,22065.0,Madison Parish,2997.0,8164.0,37531.0,11191.0,8272.0,2455.0,5477.0,5279.0,2754.0,1377.0,504.0,97.0,125.0
725631,County,2020/08/15,22.0,LA,22065.0,Madison Parish,3113.0,8048.0,36225.0,11071.0,9073.0,2005.0,3673.0,5965.0,2873.0,849.0,448.0,79.0,189.0
728790,County,2020/08/16,22.0,LA,22065.0,Madison Parish,3283.0,7878.0,34538.0,10924.0,8406.0,1983.0,3180.0,5016.0,2799.0,1297.0,522.0,141.0,270.0
733571,County,2020/08/17,22.0,LA,22065.0,Madison Parish,3045.0,8116.0,38296.0,11367.0,8781.0,2136.0,2834.0,6972.0,3284.0,1891.0,626.0,131.0,274.0
735198,County,2020/08/18,22.0,LA,22065.0,Madison Parish,2998.0,8163.0,32378.0,7611.0,7976.0,1515.0,2275.0,8444.0,2193.0,1259.0,645.0,129.0,331.0
739938,County,2020/08/19,22.0,LA,22065.0,Madison Parish,2794.0,8367.0,39302.0,11004.0,8495.0,2386.0,2724.0,8299.0,3373.0,2059.0,643.0,136.0,183.0
741566,County,2020/08/20,22.0,LA,22065.0,Madison Parish,2612.0,8549.0,41738.0,14801.0,8180.0,1844.0,3811.0,7532.0,3085.0,1286.0,758.0,154.0,287.0
744765,County,2020/08/21,22.0,LA,22065.0,Madison Parish,2409.0,8752.0,45705.0,14780.0,9868.0,2596.0,4720.0,8244.0,2784.0,1651.0,679.0,106.0,277.0
749547,County,2020/08/22,22.0,LA,22065.0,Madison Parish,2593.0,8568.0,38028.0,11583.0,9047.0,1980.0,3948.0,7679.0,2107.0,836.0,505.0,93.0,250.0
751163,County,2020/08/23,22.0,LA,22065.0,Madison Parish,3150.0,8011.0,29619.0,8790.0,8155.0,1194.0,3126.0,5139.0,1345.0,1267.0,325.0,81.0,197.0
754387,County,2020/08/24,22.0,LA,22065.0,Madison Parish,2829.0,8332.0,35075.0,11038.0,8813.0,1953.0,2710.0,5637.0,2669.0,1427.0,528.0,83.0,217.0
757536,County,2020/08/25,22.0,LA,22065.0,Madison Parish,2741.0,8420.0,35307.0,12401.0,9560.0,1264.0,2922.0,4528.0,2531.0,1291.0,479.0,118.0,213.0
760730,County,2020/08/26,22.0,LA,22065.0,Madison Parish,2786.0,8375.0,34296.0,11240.0,7558.0,1426.0,3567.0,5428.0,2385.0,1777.0,552.0,101.0,262.0
765503,County,2020/08/27,22.0,LA,22065.0,Madison Parish,2924.0,8237.0,32060.0,8900.0,8071.0,2331.0,3389.0,4473.0,2193.0,1828.0,601.0,141.0,133.0
768718,County,2020/08/28,22.0,LA,22065.0,Madison Parish,2824.0,8337.0,34427.0,10788.0,7248.0,1995.0,3165.0,6531.0,2299.0,1607.0,619.0,83.0,92.0
771870,County,2020/08/29,22.0,LA,22065.0,Madison Parish,2850.0,8311.0,36762.0,12393.0,8223.0,2422.0,3457.0,5848.0,2349.0,1351.0,490.0,101.0,128.0
773505,County,2020/08/30,22.0,LA,22065.0,Madison Parish,3037.0,8124.0,30853.0,8982.0,7046.0,1890.0,2976.0,5169.0,2603.0,1472.0,495.0,115.0,105.0
776696,County,2020/08/31,22.0,LA,22065.0,Madison Parish,2958.0,8203.0,35620.0,10288.0,8132.0,1591.0,3430.0,6724.0,2439.0,2218.0,601.0,117.0,80.0
781477,County,2020/09/01,22.0,LA,22065.0,Madison Parish,2747.0,8414.0,40893.0,14427.0,8359.0,2618.0,3538.0,6141.0,2611.0,2176.0,752.0,138.0,133.0
783083,County,2020/09/02,22.0,LA,22065.0,Madison Parish,2961.0,8200.0,37293.0,12681.0,7706.0,1974.0,3652.0,4958.0,3216.0,2029.0,814.0,135.0,128.0
786232,County,2020/09/03,22.0,LA,22065.0,Madison Parish,2339.0,8822.0,41451.0,13701.0,10172.0,1994.0,2966.0,6308.0,3058.0,2218.0,801.0,99.0,134.0
791062,County,2020/09/04,22.0,LA,22065.0,Madison Parish,2751.0,8410.0,39330.0,10214.0,9340.0,3136.0,3731.0,7196.0,2797.0,2113.0,580.0,84.0,139.0
794251,County,2020/09/05,22.0,LA,22065.0,Madison Parish,2923.0,8238.0,42816.0,14537.0,8523.0,2852.0,4860.0,7471.0,3059.0,937.0,402.0,83.0,92.0
795855,County,2020/09/06,22.0,LA,22065.0,Madison Parish,3561.0,7600.0,35340.0,11526.0,8785.0,2918.0,3907.0,4935.0,1708.0,1119.0,247.0,57.0,138.0
799065,County,2020/09/07,22.0,LA,22065.0,Madison Parish,3596.0,7565.0,32752.0,8764.0,8759.0,2186.0,3776.0,6132.0,1828.0,737.0,442.0,101.0,27.0
802278,County,2020/09/08,22.0,LA,22065.0,Madison Parish,3118.0,8043.0,39714.0,12151.0,10171.0,2220.0,4126.0,6392.0,2379.0,1547.0,384.0,107.0,237.0
805445,County,2020/09/09,22.0,LA,22065.0,Madison Parish,3110.0,8051.0,40121.0,13698.0,8601.0,2076.0,3316.0,6773.0,2626.0,2151.0,608.0,113.0,159.0
810214,County,2020/09/10,22.0,LA,22065.0,Madison Parish,2696.0,8465.0,39276.0,14191.0,9367.0,1940.0,3274.0,4938.0,2849.0,1937.0,581.0,119.0,80.0
811843,County,2020/09/11,22.0,LA,22065.0,Madison Parish,2844.0,8317.0,42159.0,15555.0,9537.0,2563.0,4136.0,4741.0,2872.0,1862.0,749.0,113.0,31.0
816594,County,2020/09/12,22.0,LA,22065.0,Madison Parish,3169.0,7992.0,38550.0,13552.0,8325.0,2576.0,3233.0,6455.0,2531.0,1257.0,419.0,117.0,85.0
819825,County,2020/09/13,22.0,LA,22065.0,Madison Parish,2860.0,8301.0,31153.0,9468.0,5509.0,2639.0,2424.0,5999.0,2726.0,1678.0,501.0,124.0,85.0
822982,County,2020/09/14,22.0,LA,22065.0,Madison Parish,2698.0,8463.0,40278.0,12922.0,9111.0,1631.0,3867.0,7082.0,2430.0,2204.0,749.0,156.0,126.0
824610,County,2020/09/15,22.0,LA,22065.0,Madison Parish,2787.0,8374.0,43526.0,13698.0,9658.0,2660.0,3765.0,7165.0,3465.0,1747.0,1060.0,163.0,145.0
829417,County,2020/09/16,22.0,LA,22065.0,Madison Parish,2548.0,8613.0,38102.0,11392.0,7674.0,1822.0,3843.0,6302.0,3664.0,2162.0,973.0,121.0,149.0
832594,County,2020/09/17,22.0,LA,22065.0,Madison Parish,2771.0,8390.0,41117.0,15092.0,8091.0,1546.0,3004.0,6867.0,3129.0,2121.0,962.0,172.0,133.0
835758,County,2020/09/18,22.0,LA,22065.0,Madison Parish,2740.0,8421.0,43997.0,15971.0,8592.0,2034.0,4130.0,6927.0,3009.0,2181.0,892.0,152.0,109.0
837386,County,2020/09/19,22.0,LA,22065.0,Madison Parish,2714.0,8447.0,39911.0,10844.0,9711.0,2405.0,4430.0,7227.0,2759.0,1599.0,674.0,145.0,117.0
842161,County,2020/09/20,22.0,LA,22065.0,Madison Parish,3456.0,7705.0,26016.0,8418.0,5737.0,1408.0,2637.0,3948.0,1893.0,1227.0,448.0,157.0,143.0
843789,County,2020/09/21,22.0,LA,22065.0,Madison Parish,3249.0,7912.0,26051.0,7436.0,5558.0,1894.0,2668.0,3912.0,2167.0,1563.0,624.0,78.0,151.0
846993,County,2020/09/22,22.0,LA,22065.0,Madison Parish,3133.0,8028.0,27639.0,7337.0,6054.0,1532.0,2362.0,5769.0,2073.0,1571.0,727.0,120.0,94.0
850161,County,2020/09/23,22.0,LA,22065.0,Madison Parish,2821.0,8340.0,30339.0,9885.0,6316.0,1588.0,2558.0,5219.0,2176.0,1722.0,680.0,137.0,58.0
854927,County,2020/09/24,22.0,LA,22065.0,Madison Parish,2827.0,8334.0,34974.0,12253.0,7426.0,2163.0,2866.0,4790.0,2977.0,1697.0,597.0,111.0,94.0
856556,County,2020/09/25,22.0,LA,22065.0,Madison Parish,2920.0,8241.0,37156.0,10934.0,8685.0,1760.0,2737.0,7325.0,3098.0,1743.0,669.0,126.0,79.0
861309,County,2020/09/26,22.0,LA,22065.0,Madison Parish,3284.0,7877.0,32733.0,10378.0,7249.0,2016.0,3463.0,4342.0,2733.0,1785.0,499.0,113.0,155.0
862963,County,2020/09/27,22.0,LA,22065.0,Madison Parish,3133.0,8028.0,30146.0,8672.0,7061.0,1672.0,3542.0,4239.0,2562.0,1592.0,577.0,123.0,106.0
867698,County,2020/09/28,22.0,LA,22065.0,Madison Parish,2954.0,8207.0,38168.0,13248.0,8325.0,1345.0,3865.0,6246.0,2552.0,1875.0,586.0,87.0,39.0
869325,County,2020/09/29,22.0,LA,22065.0,Madison Parish,2808.0,8353.0,39899.0,13505.0,8820.0,1989.0,3258.0,6304.0,3170.0,2253.0,481.0,76.0,43.0
874104,County,2020/09/30,22.0,LA,22065.0,Madison Parish,3059.0,8102.0,36811.0,14468.0,6807.0,1484.0,2996.0,5462.0,2718.0,2217.0,569.0,75.0,15.0
875732,County,2020/10/01,22.0,LA,22065.0,Madison Parish,2553.0,8608.0,36938.0,12117.0,8743.0,1341.0,3135.0,5400.0,2884.0,2449.0,717.0,114.0,38.0
878935,County,2020/10/02,22.0,LA,22065.0,Madison Parish,2930.0,8231.0,38832.0,12453.0,9161.0,1749.0,3381.0,6265.0,3510.0,1666.0,510.0,99.0,38.0
882102,County,2020/10/03,22.0,LA,22065.0,Madison Parish,3266.0,7895.0,39010.0,12425.0,10818.0,2264.0,2813.0,5310.0,2703.0,2164.0,435.0,56.0,22.0
885815,County,2020/10/04,22.0,LA,22065.0,Madison Parish,3308.0,7853.0,34993.0,10025.0,10541.0,1908.0,2761.0,5375.0,2495.0,1352.0,416.0,83.0,37.0
889061,County,2020/10/05,22.0,LA,22065.0,Madison Parish,2957.0,8204.0,34644.0,8980.0,8846.0,2021.0,2714.0,7525.0,2450.0,1546.0,466.0,71.0,25.0
892257,County,2020/10/06,22.0,LA,22065.0,Madison Parish,2974.0,8187.0,40301.0,14009.0,10072.0,2485.0,3019.0,6105.0,2112.0,1906.0,501.0,62.0,30.0
895455,County,2020/10/07,22.0,LA,22065.0,Madison Parish,2861.0,8300.0,41233.0,11777.0,11365.0,2474.0,4429.0,6142.0,3250.0,1346.0,345.0,78.0,27.0
898634,County,2020/10/08,22.0,LA,22065.0,Madison Parish,2922.0,8239.0,37478.0,11115.0,9508.0,1836.0,3391.0,6501.0,2727.0,1812.0,485.0,54.0,49.0
901806,County,2020/10/09,22.0,LA,22065.0,Madison Parish,3153.0,8008.0,34931.0,9280.0,8729.0,1621.0,3570.0,7572.0,1865.0,1780.0,398.0,74.0,42.0
904993,County,2020/10/10,22.0,LA,22065.0,Madison Parish,3397.0,7764.0,28186.0,6323.0,7220.0,2161.0,3016.0,5386.0,2038.0,1567.0,390.0,54.0,31.0
909630,County,2020/10/11,22.0,LA,22065.0,Madison Parish,2997.0,8164.0,30553.0,9301.0,8394.0,1598.0,2204.0,4829.0,1930.0,1660.0,516.0,71.0,50.0
913411,County,2020/10/12,22.0,LA,22065.0,Madison Parish,3002.0,8159.0,31323.0,8865.0,7377.0,1871.0,2594.0,5275.0,2777.0,1895.0,581.0,65.0,23.0
915355,County,2020/10/13,22.0,LA,22065.0,Madison Parish,3021.0,8140.0,34323.0,10896.0,7531.0,2082.0,3061.0,5842.0,2480.0,1804.0,511.0,85.0,31.0
918684,County,2020/10/14,22.0,LA,22065.0,Madison Parish,2697.0,8464.0,36922.0,12483.0,7922.0,1832.0,3151.0,6330.0,2311.0,1988.0,764.0,104.0,37.0
921941,County,2020/10/15,22.0,LA,22065.0,Madison Parish,2825.0,8336.0,33795.0,8808.0,7255.0,1894.0,2722.0,7890.0,2177.0,2280.0,645.0,76.0,48.0
925010,County,2020/10/16,22.0,LA,22065.0,Madison Parish,2665.0,8496.0,38759.0,12188.0,9436.0,2566.0,3433.0,4875.0,3287.0,2285.0,574.0,92.0,23.0
928212,County,2020/10/17,22.0,LA,22065.0,Madison Parish,2772.0,8389.0,37773.0,12001.0,9028.0,2861.0,2887.0,5078.0,3013.0,2375.0,404.0,72.0,54.0
931865,County,2020/10/18,22.0,LA,22065.0,Madison Parish,3341.0,7820.0,35031.0,10068.0,10537.0,1907.0,3530.0,4880.0,2134.0,1594.0,276.0,63.0,42.0
935455,County,2020/10/19,22.0,LA,22065.0,Madison Parish,2852.0,8309.0,36958.0,12538.0,10155.0,1969.0,2764.0,4625.0,2952.0,1523.0,330.0,77.0,25.0
937788,County,2020/10/20,22.0,LA,22065.0,Madison Parish,2723.0,8438.0,37931.0,13461.0,8647.0,1791.0,2359.0,6587.0,2527.0,2009.0,436.0,72.0,42.0
940955,County,2020/10/21,22.0,LA,22065.0,Madison Parish,3080.0,8081.0,34254.0,10016.0,8951.0,1842.0,2734.0,6157.0,2103.0,1809.0,548.0,78.0,16.0
944551,County,2020/10/22,22.0,LA,22065.0,Madison Parish,2755.0,8406.0,38267.0,11577.0,10310.0,2586.0,3567.0,5386.0,2521.0,1668.0,552.0,71.0,29.0
947404,County,2020/10/23,22.0,LA,22065.0,Madison Parish,2834.0,8327.0,41881.0,12255.0,12500.0,2735.0,3280.0,6007.0,2746.0,1982.0,296.0,60.0,20.0
950540,County,2020/10/24,22.0,LA,22065.0,Madison Parish,3113.0,8048.0,37746.0,10587.0,9728.0,2565.0,3828.0,6558.0,2489.0,1551.0,389.0,22.0,29.0
