,Level,Date,State FIPS,State Postal Code,County FIPS,County Name,Population Staying at Home,Population Not Staying at Home,Number of Trips,Number of Trips <1,Number of Trips 1-3,Number of Trips 3-5,Number of Trips 5-10,Number of Trips 10-25,Number of Trips 25-50,Number of Trips 50-100,Number of Trips 100-250,Number of Trips 250-500,Number of Trips >=500
3055,County,2020/01/01,55.0,WI,55019.0,Clark County,6854.0,27855.0,90241.0,16805.0,17190.0,10902.0,15341.0,16981.0,8408.0,3297.0,896.0,388.0,33.0
3970,County,2020/01/02,55.0,WI,55019.0,Clark County,5824.0,28885.0,117476.0,23278.0,23349.0,12173.0,18277.0,23378.0,12718.0,2768.0,1270.0,223.0,42.0
6915,County,2020/01/03,55.0,WI,55019.0,Clark County,5181.0,29528.0,126631.0,24370.0,23664.0,11426.0,19187.0,27892.0,14742.0,3954.0,1213.0,144.0,39.0
11155,County,2020/01/04,55.0,WI,55019.0,Clark County,5942.0,28767.0,112706.0,21126.0,21490.0,11416.0,17900.0,24484.0,10724.0,4042.0,1230.0,279.0,15.0
15897,County,2020/01/05,55.0,WI,55019.0,Clark County,7319.0,27390.0,88434.0,17792.0,17529.0,10119.0,13024.0,16972.0,7080.0,4071.0,1388.0,393.0,66.0
19074,County,2020/01/06,55.0,WI,55019.0,Clark County,5767.0,28942.0,112858.0,20772.0,22806.0,10916.0,18817.0,22173.0,12408.0,3382.0,1201.0,340.0,43.0
22269,County,2020/01/07,55.0,WI,55019.0,Clark County,5913.0,28796.0,109006.0,21983.0,18732.0,10115.0,16927.0,23254.0,12623.0,3667.0,1442.0,236.0,27.0
25463,County,2020/01/08,55.0,WI,55019.0,Clark County,5740.0,28969.0,111331.0,22652.0,18522.0,11523.0,16596.0,25048.0,12656.0,2780.0,1284.0,244.0,26.0
28644,County,2020/01/09,55.0,WI,55019.0,Clark County,6142.0,28567.0,109651.0,20802.0,17428.0,10096.0,19400.0,25390.0,10718.0,3676.0,1776.0,332.0,33.0
31851,County,2020/01/10,55.0,WI,55019.0,Clark County,5291.0,29418.0,120697.0,23710.0,20760.0,11431.0,18932.0,27311.0,13155.0,4111.0,1119.0,142.0,26.0
33529,County,2020/01/11,55.0,WI,55019.0,Clark County,6328.0,28381.0,112453.0,19572.0,20537.0,12843.0,17568.0,24273.0,12092.0,4296.0,1062.0,181.0,29.0
36684,County,2020/01/12,55.0,WI,55019.0,Clark County,6956.0,27753.0,96731.0,17060.0,18122.0,10894.0,16546.0,19302.0,8654.0,3783.0,2140.0,215.0,15.0
41460,County,2020/01/13,55.0,WI,55019.0,Clark County,5985.0,28724.0,115664.0,20443.0,22173.0,11156.0,20472.0,24967.0,10749.0,4185.0,1289.0,224.0,6.0
43089,County,2020/01/14,55.0,WI,55019.0,Clark County,5898.0,28811.0,120577.0,24405.0,23736.0,11195.0,17632.0,26494.0,12816.0,2911.0,1137.0,219.0,32.0
47816,County,2020/01/15,55.0,WI,55019.0,Clark County,5918.0,28791.0,117346.0,23292.0,20776.0,13295.0,20774.0,22528.0,12156.0,2929.0,1400.0,177.0,19.0
49345,County,2020/01/16,55.0,WI,55019.0,Clark County,5622.0,29087.0,119537.0,22876.0,22755.0,12886.0,18572.0,24252.0,12368.0,4258.0,1318.0,228.0,24.0
52683,County,2020/01/17,55.0,WI,55019.0,Clark County,5750.0,28959.0,120053.0,21137.0,23806.0,13434.0,21160.0,25394.0,9806.0,3458.0,1614.0,226.0,18.0
55833,County,2020/01/18,55.0,WI,55019.0,Clark County,7553.0,27156.0,117938.0,26938.0,26321.0,13159.0,20397.0,19042.0,8205.0,2485.0,1120.0,200.0,71.0
59030,County,2020/01/19,55.0,WI,55019.0,Clark County,7057.0,27652.0,101849.0,18912.0,19072.0,12630.0,18551.0,17325.0,9359.0,4063.0,1381.0,533.0,23.0
62212,County,2020/01/20,55.0,WI,55019.0,Clark County,5794.0,28915.0,121599.0,24482.0,25469.0,13311.0,18654.0,23401.0,11398.0,3101.0,1545.0,219.0,19.0
65419,County,2020/01/21,55.0,WI,55019.0,Clark County,5264.0,29445.0,123012.0,23632.0,22121.0,14708.0,19717.0,24752.0,11895.0,4031.0,1800.0,320.0,36.0
70179,County,2020/01/22,55.0,WI,55019.0,Clark County,6061.0,28648.0,119229.0,23693.0,22051.0,12535.0,19780.0,24135.0,11728.0,3530.0,1599.0,145.0,33.0
71805,County,2020/01/23,55.0,WI,55019.0,Clark County,5711.0,28998.0,127830.0,24173.0,28460.0,11592.0,22213.0,22887.0,12479.0,4037.0,1712.0,210.0,67.0
76567,County,2020/01/24,55.0,WI,55019.0,Clark County,5505.0,29204.0,129164.0,26262.0,24780.0,12172.0,22665.0,25727.0,11488.0,3982.0,1819.0,214.0,55.0
78195,County,2020/01/25,55.0,WI,55019.0,Clark County,5891.0,28818.0,121139.0,21863.0,24257.0,13224.0,19825.0,23177.0,10877.0,6067.0,1476.0,322.0,51.0
82905,County,2020/01/26,55.0,WI,55019.0,Clark County,6456.0,28253.0,111518.0,20012.0,26212.0,10757.0,16301.0,22287.0,10744.0,3030.0,1809.0,325.0,41.0
83487,County,2020/01/27,55.0,WI,55019.0,Clark County,5437.0,29272.0,122630.0,25984.0,23212.0,12747.0,20566.0,21439.0,12418.0,4276.0,1791.0,191.0,6.0
87839,County,2020/01/28,55.0,WI,55019.0,Clark County,5291.0,29418.0,118474.0,21762.0,23778.0,12755.0,16884.0,24066.0,12791.0,4707.0,1333.0,374.0,24.0
90945,County,2020/01/29,55.0,WI,55019.0,Clark County,5856.0,28853.0,123880.0,23858.0,22210.0,13851.0,20274.0,24461.0,12929.0,4504.0,1516.0,215.0,62.0
95729,County,2020/01/30,55.0,WI,55019.0,Clark County,5685.0,29024.0,123364.0,27235.0,21090.0,11577.0,20704.0,25359.0,12527.0,3083.0,1360.0,362.0,67.0
98925,County,2020/01/31,55.0,WI,55019.0,Clark County,5062.0,29647.0,127488.0,25143.0,20774.0,11481.0,22203.0,29919.0,12365.0,3500.0,1665.0,363.0,75.0
102112,County,2020/02/01,55.0,WI,55019.0,Clark County,5835.0,28874.0,125251.0,24210.0,23407.0,12708.0,18295.0,26249.0,12868.0,5548.0,1682.0,211.0,73.0
105313,County,2020/02/02,55.0,WI,55019.0,Clark County,6638.0,28071.0,108866.0,20918.0,21903.0,13638.0,15860.0,20882.0,9373.0,3930.0,1804.0,464.0,94.0
106939,County,2020/02/03,55.0,WI,55019.0,Clark County,5358.0,29351.0,127744.0,27190.0,21857.0,16024.0,19397.0,24693.0,12135.0,4156.0,1703.0,483.0,106.0
110134,County,2020/02/04,55.0,WI,55019.0,Clark County,5453.0,29256.0,128037.0,27821.0,22142.0,13387.0,20121.0,25061.0,12794.0,4458.0,1776.0,454.0,23.0
113280,County,2020/02/05,55.0,WI,55019.0,Clark County,5802.0,28907.0,125215.0,24950.0,22815.0,11788.0,20373.0,27801.0,12151.0,3345.0,1681.0,197.0,114.0
116426,County,2020/02/06,55.0,WI,55019.0,Clark County,5551.0,29158.0,128959.0,26902.0,22500.0,15095.0,19150.0,25928.0,12927.0,4405.0,1711.0,280.0,61.0
119689,County,2020/02/07,55.0,WI,55019.0,Clark County,5029.0,29680.0,133073.0,24707.0,22922.0,15053.0,23640.0,26092.0,12846.0,5437.0,1798.0,497.0,81.0
122935,County,2020/02/08,55.0,WI,55019.0,Clark County,5871.0,28838.0,122821.0,25299.0,22427.0,11978.0,17848.0,25417.0,12820.0,5154.0,1453.0,315.0,110.0
127072,County,2020/02/09,55.0,WI,55019.0,Clark County,8181.0,26528.0,107916.0,23674.0,22441.0,15087.0,15960.0,19463.0,5888.0,3410.0,1580.0,246.0,167.0
128221,County,2020/02/10,55.0,WI,55019.0,Clark County,5837.0,28872.0,137131.0,31416.0,24057.0,13354.0,22621.0,25942.0,12975.0,4364.0,1783.0,492.0,127.0
132983,County,2020/02/11,55.0,WI,55019.0,Clark County,5072.0,29637.0,140883.0,29917.0,25171.0,14408.0,20976.0,29324.0,13744.0,4765.0,2046.0,370.0,162.0
134586,County,2020/02/12,55.0,WI,55019.0,Clark County,5542.0,29167.0,134262.0,27374.0,24852.0,11978.0,19603.0,28938.0,14084.0,4760.0,2081.0,477.0,115.0
138916,County,2020/02/13,55.0,WI,55019.0,Clark County,5171.0,29538.0,136235.0,28617.0,26512.0,14755.0,19289.0,26088.0,13872.0,4598.0,1915.0,452.0,137.0
141976,County,2020/02/14,55.0,WI,55019.0,Clark County,5196.0,29513.0,142094.0,28587.0,25347.0,12767.0,21663.0,31572.0,14164.0,5181.0,1972.0,699.0,142.0
145273,County,2020/02/15,55.0,WI,55019.0,Clark County,5906.0,28803.0,131538.0,24706.0,23847.0,12458.0,21150.0,28509.0,12943.0,5367.0,1977.0,408.0,173.0
148461,County,2020/02/16,55.0,WI,55019.0,Clark County,6904.0,27805.0,113872.0,25769.0,24161.0,11819.0,16023.0,19508.0,9356.0,4381.0,2144.0,504.0,207.0
151638,County,2020/02/17,55.0,WI,55019.0,Clark County,6863.0,27846.0,108242.0,25048.0,21086.0,9791.0,14620.0,22442.0,9717.0,3206.0,1843.0,413.0,76.0
156417,County,2020/02/18,55.0,WI,55019.0,Clark County,5789.0,28920.0,137410.0,31555.0,24930.0,14458.0,21350.0,25793.0,13986.0,3558.0,1207.0,450.0,123.0
158045,County,2020/02/19,55.0,WI,55019.0,Clark County,5709.0,29000.0,132489.0,29799.0,22766.0,14543.0,20263.0,25348.0,13628.0,3825.0,1700.0,459.0,158.0
161106,County,2020/02/20,55.0,WI,55019.0,Clark County,5586.0,29123.0,126268.0,26005.0,22628.0,14195.0,18653.0,25032.0,12466.0,5061.0,1659.0,446.0,123.0
165999,County,2020/02/21,55.0,WI,55019.0,Clark County,5556.0,29153.0,137011.0,29012.0,22570.0,12434.0,22519.0,29525.0,14753.0,3883.0,1642.0,565.0,108.0
169144,County,2020/02/22,55.0,WI,55019.0,Clark County,5356.0,29353.0,133191.0,27861.0,23198.0,11558.0,20134.0,27356.0,14365.0,6158.0,2018.0,474.0,69.0
172343,County,2020/02/23,55.0,WI,55019.0,Clark County,6673.0,28036.0,114568.0,24527.0,21628.0,11128.0,18037.0,21748.0,11301.0,4047.0,1769.0,337.0,46.0
175587,County,2020/02/24,55.0,WI,55019.0,Clark County,6134.0,28575.0,129808.0,27806.0,25982.0,12242.0,17325.0,27226.0,12558.0,4485.0,1773.0,297.0,114.0
178726,County,2020/02/25,55.0,WI,55019.0,Clark County,5759.0,28950.0,132333.0,28317.0,24042.0,12834.0,20333.0,24455.0,13951.0,5669.0,2270.0,406.0,56.0
181919,County,2020/02/26,55.0,WI,55019.0,Clark County,5529.0,29180.0,131255.0,28167.0,20742.0,13045.0,22710.0,26472.0,12870.0,4987.0,1917.0,276.0,69.0
185158,County,2020/02/27,55.0,WI,55019.0,Clark County,5621.0,29088.0,132278.0,31855.0,24011.0,12112.0,18194.0,25514.0,14005.0,4568.0,1583.0,336.0,100.0
188357,County,2020/02/28,55.0,WI,55019.0,Clark County,5139.0,29570.0,142240.0,29940.0,26522.0,15253.0,20314.0,28833.0,14431.0,4592.0,1832.0,407.0,116.0
191551,County,2020/02/29,55.0,WI,55019.0,Clark County,5920.0,28789.0,136966.0,29930.0,24552.0,16851.0,21248.0,25333.0,10988.0,6097.0,1499.0,343.0,125.0
193176,County,2020/03/01,55.0,WI,55019.0,Clark County,6216.0,28493.0,113003.0,27502.0,20316.0,12305.0,20073.0,19248.0,7898.0,4112.0,1225.0,240.0,84.0
196398,County,2020/03/02,55.0,WI,55019.0,Clark County,5824.0,28885.0,126314.0,27964.0,25423.0,12828.0,17681.0,23140.0,13446.0,3933.0,1481.0,324.0,94.0
199457,County,2020/03/03,55.0,WI,55019.0,Clark County,5184.0,29525.0,129645.0,27449.0,24411.0,15160.0,20089.0,23550.0,12208.0,3697.0,2292.0,707.0,82.0
201884,County,2020/03/04,55.0,WI,55019.0,Clark County,5419.0,29290.0,128596.0,29267.0,24823.0,10696.0,20059.0,23701.0,11853.0,5696.0,2036.0,433.0,32.0
205905,County,2020/03/05,55.0,WI,55019.0,Clark County,4746.0,29963.0,129351.0,26125.0,22267.0,10279.0,19505.0,30431.0,13613.0,4523.0,1996.0,593.0,19.0
209023,County,2020/03/06,55.0,WI,55019.0,Clark County,5019.0,29690.0,147889.0,31183.0,24324.0,15460.0,22490.0,35028.0,10986.0,5546.0,2379.0,421.0,72.0
212323,County,2020/03/07,55.0,WI,55019.0,Clark County,5249.0,29460.0,138006.0,28742.0,25216.0,14132.0,19355.0,27180.0,14030.0,6762.0,2107.0,392.0,90.0
215540,County,2020/03/08,55.0,WI,55019.0,Clark County,6419.0,28290.0,127406.0,30809.0,24176.0,13698.0,18960.0,22952.0,9341.0,4434.0,2076.0,896.0,64.0
220297,County,2020/03/09,55.0,WI,55019.0,Clark County,5429.0,29280.0,135025.0,32383.0,23473.0,12245.0,20510.0,27337.0,12745.0,3694.0,2160.0,417.0,61.0
223490,County,2020/03/10,55.0,WI,55019.0,Clark County,5164.0,29545.0,129962.0,29662.0,22553.0,12237.0,21242.0,24014.0,13006.0,5023.0,1679.0,475.0,71.0
225164,County,2020/03/11,55.0,WI,55019.0,Clark County,5082.0,29627.0,149167.0,35320.0,31299.0,11330.0,20603.0,25248.0,13290.0,7019.0,3497.0,1446.0,115.0
229811,County,2020/03/12,55.0,WI,55019.0,Clark County,5302.0,29407.0,161251.0,38571.0,35942.0,10402.0,17683.0,33978.0,14188.0,7287.0,2388.0,812.0,0.0
231508,County,2020/03/13,55.0,WI,55019.0,Clark County,4743.0,29966.0,155677.0,44711.0,32156.0,15526.0,21748.0,22316.0,10302.0,5200.0,2387.0,1171.0,160.0
234561,County,2020/03/14,55.0,WI,55019.0,Clark County,6140.0,28569.0,135482.0,33920.0,24518.0,16261.0,15247.0,27454.0,12823.0,3148.0,1444.0,507.0,160.0
239461,County,2020/03/15,55.0,WI,55019.0,Clark County,7123.0,27586.0,104323.0,24871.0,21538.0,11101.0,14712.0,16358.0,10009.0,3498.0,1987.0,225.0,24.0
242654,County,2020/03/16,55.0,WI,55019.0,Clark County,6203.0,28506.0,123960.0,31994.0,21352.0,12594.0,16804.0,24161.0,11600.0,2432.0,2458.0,554.0,11.0
245847,County,2020/03/17,55.0,WI,55019.0,Clark County,6856.0,27853.0,121877.0,25395.0,20732.0,12756.0,16950.0,26090.0,13272.0,4358.0,1727.0,587.0,10.0
249003,County,2020/03/18,55.0,WI,55019.0,Clark County,6784.0,27925.0,119588.0,28840.0,22242.0,9500.0,16106.0,25691.0,10542.0,4091.0,2224.0,321.0,31.0
250681,County,2020/03/19,55.0,WI,55019.0,Clark County,7254.0,27455.0,116834.0,25099.0,16944.0,14769.0,14856.0,29044.0,10178.0,3796.0,1723.0,345.0,80.0
255431,County,2020/03/20,55.0,WI,55019.0,Clark County,7802.0,26907.0,134005.0,30135.0,24213.0,11759.0,18082.0,30655.0,14270.0,3000.0,1615.0,276.0,0.0
257008,County,2020/03/21,55.0,WI,55019.0,Clark County,8542.0,26167.0,106420.0,26146.0,20710.0,8796.0,15640.0,22934.0,7464.0,3391.0,793.0,546.0,0.0
261812,County,2020/03/22,55.0,WI,55019.0,Clark County,8073.0,26636.0,97434.0,28471.0,14725.0,12528.0,12253.0,16663.0,8284.0,2470.0,1311.0,681.0,48.0
263448,County,2020/03/23,55.0,WI,55019.0,Clark County,7030.0,27679.0,105656.0,24664.0,18883.0,11089.0,17284.0,19791.0,9075.0,2748.0,1673.0,379.0,70.0
268204,County,2020/03/24,55.0,WI,55019.0,Clark County,7246.0,27463.0,106067.0,25628.0,15879.0,9614.0,19409.0,20358.0,10001.0,3433.0,1324.0,390.0,31.0
271401,County,2020/03/25,55.0,WI,55019.0,Clark County,7370.0,27339.0,105824.0,23657.0,24571.0,8716.0,14581.0,19128.0,9748.0,3132.0,1770.0,521.0,0.0
274576,County,2020/03/26,55.0,WI,55019.0,Clark County,7521.0,27188.0,109015.0,25905.0,21976.0,8321.0,17968.0,21364.0,10403.0,1396.0,1338.0,311.0,33.0
276214,County,2020/03/27,55.0,WI,55019.0,Clark County,6825.0,27884.0,115761.0,30261.0,21259.0,13512.0,16025.0,18720.0,12219.0,1729.0,1551.0,439.0,46.0
280976,County,2020/03/28,55.0,WI,55019.0,Clark County,7813.0,26896.0,84786.0,20754.0,15567.0,9938.0,11554.0,16502.0,6666.0,2322.0,794.0,617.0,72.0
284177,County,2020/03/29,55.0,WI,55019.0,Clark County,9408.0,25301.0,71795.0,12708.0,14136.0,8046.0,9197.0,15718.0,7525.0,2564.0,1307.0,550.0,44.0
285805,County,2020/03/30,55.0,WI,55019.0,Clark County,7351.0,27358.0,101022.0,22018.0,21128.0,9484.0,15716.0,19110.0,9180.0,2843.0,1118.0,396.0,29.0
290559,County,2020/03/31,55.0,WI,55019.0,Clark County,7229.0,27480.0,104481.0,21317.0,17847.0,9512.0,17008.0,21945.0,11892.0,3340.0,1159.0,411.0,50.0
293759,County,2020/04/01,55.0,WI,55019.0,Clark County,7350.0,27359.0,107029.0,28502.0,15913.0,11948.0,16438.0,17384.0,11150.0,4188.0,1341.0,125.0,40.0
295387,County,2020/04/02,55.0,WI,55019.0,Clark County,7385.0,27324.0,104169.0,22892.0,19762.0,9179.0,16115.0,20305.0,10576.0,3334.0,1607.0,379.0,20.0
300147,County,2020/04/03,55.0,WI,55019.0,Clark County,7190.0,27519.0,100564.0,19915.0,19942.0,8924.0,14829.0,20911.0,11123.0,3146.0,1500.0,245.0,29.0
301773,County,2020/04/04,55.0,WI,55019.0,Clark County,8319.0,26390.0,89812.0,20316.0,16213.0,7790.0,11155.0,24000.0,6640.0,2896.0,712.0,78.0,12.0
304955,County,2020/04/05,55.0,WI,55019.0,Clark County,8642.0,26067.0,93493.0,24011.0,16043.0,10887.0,17513.0,15021.0,6139.0,2724.0,850.0,292.0,13.0
309729,County,2020/04/06,55.0,WI,55019.0,Clark County,7210.0,27499.0,92038.0,20827.0,13127.0,9911.0,14569.0,18964.0,10477.0,2047.0,1745.0,329.0,42.0
312920,County,2020/04/07,55.0,WI,55019.0,Clark County,7402.0,27307.0,103309.0,25878.0,18378.0,8953.0,17202.0,20533.0,8985.0,2198.0,892.0,269.0,21.0
314550,County,2020/04/08,55.0,WI,55019.0,Clark County,7592.0,27117.0,106166.0,25629.0,18898.0,14672.0,15109.0,20443.0,7113.0,3395.0,790.0,106.0,11.0
317768,County,2020/04/09,55.0,WI,55019.0,Clark County,7253.0,27456.0,105816.0,24334.0,16817.0,10230.0,16925.0,24349.0,8578.0,3325.0,1158.0,100.0,0.0
320946,County,2020/04/10,55.0,WI,55019.0,Clark County,7228.0,27481.0,117308.0,30701.0,19450.0,12536.0,18086.0,23422.0,8777.0,2693.0,1222.0,400.0,21.0
325699,County,2020/04/11,55.0,WI,55019.0,Clark County,7660.0,27049.0,111268.0,27971.0,19194.0,14723.0,15183.0,21067.0,8694.0,3226.0,948.0,251.0,11.0
328867,County,2020/04/12,55.0,WI,55019.0,Clark County,9974.0,24735.0,66519.0,15281.0,11524.0,7027.0,14270.0,12457.0,2876.0,2032.0,666.0,327.0,59.0
328988,County,2020/04/13,55.0,WI,55019.0,Clark County,8029.0,26680.0,107371.0,26219.0,21671.0,9926.0,15273.0,20785.0,9633.0,2484.0,1318.0,38.0,24.0
333667,County,2020/04/14,55.0,WI,55019.0,Clark County,7608.0,27101.0,112681.0,31093.0,20722.0,15059.0,14936.0,18875.0,8091.0,1131.0,2410.0,364.0,0.0
338466,County,2020/04/15,55.0,WI,55019.0,Clark County,7379.0,27330.0,117889.0,30854.0,20344.0,10093.0,21945.0,20004.0,9577.0,3535.0,1247.0,262.0,28.0
341611,County,2020/04/16,55.0,WI,55019.0,Clark County,8073.0,26636.0,120467.0,32681.0,18605.0,14623.0,21091.0,20858.0,8941.0,3125.0,410.0,101.0,32.0
341769,County,2020/04/17,55.0,WI,55019.0,Clark County,6593.0,28116.0,109957.0,25978.0,21422.0,12418.0,16271.0,21888.0,6974.0,4074.0,593.0,292.0,47.0
348020,County,2020/04/18,55.0,WI,55019.0,Clark County,7789.0,26920.0,100795.0,23447.0,25485.0,11674.0,10614.0,16676.0,7349.0,5007.0,364.0,179.0,0.0
351251,County,2020/04/19,55.0,WI,55019.0,Clark County,8533.0,26176.0,96677.0,15958.0,21045.0,14260.0,18670.0,18778.0,6223.0,353.0,1390.0,0.0,0.0
354451,County,2020/04/20,55.0,WI,55019.0,Clark County,6659.0,28050.0,99989.0,22173.0,15731.0,15797.0,14364.0,22107.0,4536.0,3606.0,1182.0,414.0,79.0
357638,County,2020/04/21,55.0,WI,55019.0,Clark County,6589.0,28120.0,111880.0,24755.0,20981.0,11751.0,18359.0,23051.0,9029.0,2256.0,1479.0,198.0,21.0
359266,County,2020/04/22,55.0,WI,55019.0,Clark County,6602.0,28107.0,115915.0,29701.0,20043.0,13283.0,18040.0,22567.0,7797.0,2605.0,1434.0,402.0,43.0
362373,County,2020/04/23,55.0,WI,55019.0,Clark County,6849.0,27860.0,114453.0,26611.0,18196.0,11466.0,18160.0,23260.0,12990.0,2063.0,1352.0,332.0,23.0
365684,County,2020/04/24,55.0,WI,55019.0,Clark County,6491.0,28218.0,119637.0,26367.0,20820.0,13732.0,20490.0,25264.0,8765.0,3273.0,715.0,211.0,0.0
370417,County,2020/04/25,55.0,WI,55019.0,Clark County,6998.0,27711.0,110708.0,22662.0,21858.0,10861.0,19032.0,24170.0,8080.0,3304.0,401.0,315.0,25.0
371960,County,2020/04/26,55.0,WI,55019.0,Clark County,8360.0,26349.0,105271.0,26650.0,18437.0,10304.0,18330.0,20610.0,7638.0,2082.0,910.0,268.0,42.0
375237,County,2020/04/27,55.0,WI,55019.0,Clark County,7117.0,27592.0,104841.0,24497.0,17435.0,12106.0,16592.0,19217.0,9241.0,3471.0,2055.0,216.0,11.0
380012,County,2020/04/28,55.0,WI,55019.0,Clark County,6510.0,28199.0,108649.0,24356.0,20835.0,9163.0,16370.0,22119.0,9319.0,4383.0,1828.0,256.0,20.0
381639,County,2020/04/29,55.0,WI,55019.0,Clark County,6983.0,27726.0,108313.0,25905.0,17934.0,9386.0,15395.0,23303.0,10041.0,4447.0,1645.0,257.0,0.0
386385,County,2020/04/30,55.0,WI,55019.0,Clark County,6730.0,27979.0,120717.0,27118.0,23188.0,10657.0,17441.0,23839.0,11749.0,4952.0,1443.0,319.0,11.0
389571,County,2020/05/01,55.0,WI,55019.0,Clark County,6074.0,28635.0,119882.0,25190.0,25222.0,11070.0,19137.0,22768.0,10951.0,3671.0,1583.0,280.0,10.0
392773,County,2020/05/02,55.0,WI,55019.0,Clark County,6606.0,28103.0,126642.0,28424.0,29160.0,9666.0,19568.0,25248.0,9577.0,3277.0,1408.0,291.0,23.0
395921,County,2020/05/03,55.0,WI,55019.0,Clark County,7768.0,26941.0,100715.0,23747.0,18634.0,10077.0,16035.0,20493.0,7185.0,2554.0,1582.0,365.0,43.0
399161,County,2020/05/04,55.0,WI,55019.0,Clark County,6520.0,28189.0,123916.0,31942.0,21372.0,12084.0,18311.0,23800.0,10390.0,4449.0,1280.0,244.0,44.0
400788,County,2020/05/05,55.0,WI,55019.0,Clark County,6520.0,28189.0,118768.0,26473.0,25017.0,9982.0,18470.0,23209.0,9913.0,3364.0,1921.0,419.0,0.0
405543,County,2020/05/06,55.0,WI,55019.0,Clark County,6291.0,28418.0,126803.0,31257.0,24970.0,10000.0,19079.0,26431.0,10062.0,3149.0,1465.0,359.0,31.0
407170,County,2020/05/07,55.0,WI,55019.0,Clark County,6753.0,27956.0,117251.0,23313.0,25796.0,12505.0,16107.0,23457.0,9475.0,4305.0,1834.0,415.0,44.0
411900,County,2020/05/08,55.0,WI,55019.0,Clark County,6451.0,28258.0,125635.0,28138.0,24554.0,12376.0,19379.0,25246.0,10198.0,3621.0,1815.0,308.0,0.0
413479,County,2020/05/09,55.0,WI,55019.0,Clark County,6846.0,27863.0,124295.0,24707.0,26757.0,12396.0,23652.0,24759.0,8096.0,2596.0,1206.0,104.0,22.0
418325,County,2020/05/10,55.0,WI,55019.0,Clark County,8161.0,26548.0,108191.0,20833.0,26404.0,8722.0,19825.0,22823.0,6394.0,2162.0,797.0,217.0,14.0
421507,County,2020/05/11,55.0,WI,55019.0,Clark County,6229.0,28480.0,116539.0,27136.0,20848.0,12465.0,17203.0,22829.0,9867.0,3862.0,1989.0,333.0,7.0
424711,County,2020/05/12,55.0,WI,55019.0,Clark County,5932.0,28777.0,120031.0,26038.0,25714.0,10087.0,15639.0,23661.0,9775.0,7302.0,1596.0,212.0,7.0
427907,County,2020/05/13,55.0,WI,55019.0,Clark County,6464.0,28245.0,114260.0,23692.0,22954.0,10759.0,16470.0,23539.0,9284.0,5510.0,1739.0,285.0,28.0
431101,County,2020/05/14,55.0,WI,55019.0,Clark County,6215.0,28494.0,112173.0,21682.0,18786.0,10889.0,18734.0,26044.0,10047.0,3837.0,1561.0,532.0,61.0
432729,County,2020/05/15,55.0,WI,55019.0,Clark County,6104.0,28605.0,120831.0,19924.0,22345.0,10978.0,21879.0,29392.0,10739.0,3779.0,1576.0,177.0,42.0
437478,County,2020/05/16,55.0,WI,55019.0,Clark County,6389.0,28320.0,120727.0,23043.0,22655.0,13920.0,20272.0,24894.0,11182.0,3508.0,958.0,235.0,60.0
439105,County,2020/05/17,55.0,WI,55019.0,Clark County,6735.0,27974.0,100942.0,18968.0,19004.0,9309.0,15814.0,23574.0,9857.0,2580.0,1692.0,98.0,46.0
443877,County,2020/05/18,55.0,WI,55019.0,Clark County,5409.0,29300.0,125823.0,27165.0,24494.0,14198.0,18984.0,22207.0,10964.0,5046.0,2544.0,208.0,13.0
445505,County,2020/05/19,55.0,WI,55019.0,Clark County,5381.0,29328.0,132968.0,33242.0,21982.0,12577.0,23840.0,23932.0,11048.0,4491.0,1559.0,297.0,0.0
450265,County,2020/05/20,55.0,WI,55019.0,Clark County,5625.0,29084.0,135369.0,37515.0,21224.0,11433.0,20790.0,27313.0,10298.0,4277.0,2191.0,301.0,27.0
453451,County,2020/05/21,55.0,WI,55019.0,Clark County,4655.0,30054.0,139185.0,40984.0,26252.0,13383.0,20041.0,20434.0,12482.0,3536.0,1759.0,314.0,0.0
456652,County,2020/05/22,55.0,WI,55019.0,Clark County,5265.0,29444.0,152326.0,42565.0,21119.0,14336.0,23463.0,33020.0,11453.0,4822.0,1414.0,82.0,52.0
458275,County,2020/05/23,55.0,WI,55019.0,Clark County,5811.0,28898.0,127042.0,29266.0,24275.0,11581.0,21472.0,25302.0,10221.0,3095.0,1199.0,588.0,43.0
461443,County,2020/05/24,55.0,WI,55019.0,Clark County,6704.0,28005.0,104895.0,20031.0,20962.0,11450.0,17062.0,21120.0,8604.0,3941.0,1335.0,296.0,94.0
464695,County,2020/05/25,55.0,WI,55019.0,Clark County,6062.0,28647.0,99363.0,17584.0,17450.0,13501.0,17549.0,19663.0,7716.0,3947.0,1545.0,360.0,48.0
469427,County,2020/05/26,55.0,WI,55019.0,Clark County,5767.0,28942.0,115604.0,22661.0,22757.0,12163.0,17203.0,23195.0,10998.0,4187.0,2196.0,216.0,28.0
472619,County,2020/05/27,55.0,WI,55019.0,Clark County,5433.0,29276.0,126295.0,23676.0,25210.0,14837.0,19880.0,25048.0,11117.0,4234.0,1982.0,311.0,0.0
475817,County,2020/05/28,55.0,WI,55019.0,Clark County,5554.0,29155.0,118580.0,23961.0,22412.0,13696.0,15398.0,24450.0,11044.0,4759.0,2368.0,480.0,12.0
479005,County,2020/05/29,55.0,WI,55019.0,Clark County,6172.0,28537.0,116102.0,19182.0,19223.0,13546.0,20207.0,27336.0,10248.0,4262.0,1762.0,316.0,20.0
480584,County,2020/05/30,55.0,WI,55019.0,Clark County,6364.0,28345.0,110238.0,21314.0,19852.0,13481.0,17692.0,22866.0,9020.0,3861.0,1808.0,304.0,40.0
483713,County,2020/05/31,55.0,WI,55019.0,Clark County,5822.0,28887.0,97313.0,17029.0,22441.0,9534.0,16408.0,18107.0,8978.0,2883.0,1752.0,181.0,0.0
487074,County,2020/06/01,55.0,WI,55019.0,Clark County,5505.0,29204.0,106447.0,20251.0,22100.0,9852.0,17269.0,20748.0,9905.0,4153.0,1733.0,385.0,51.0
491760,County,2020/06/02,55.0,WI,55019.0,Clark County,5464.0,29245.0,117528.0,24690.0,18996.0,10962.0,18536.0,27412.0,9571.0,4888.0,2122.0,286.0,65.0
494980,County,2020/06/03,55.0,WI,55019.0,Clark County,5147.0,29562.0,122646.0,24755.0,21490.0,12995.0,20002.0,24788.0,11374.0,4818.0,2120.0,265.0,39.0
498164,County,2020/06/04,55.0,WI,55019.0,Clark County,5639.0,29070.0,129511.0,27585.0,24869.0,11646.0,21279.0,26965.0,9909.0,4467.0,2388.0,354.0,49.0
499802,County,2020/06/05,55.0,WI,55019.0,Clark County,4760.0,29949.0,131976.0,27319.0,23634.0,12439.0,21207.0,28526.0,11947.0,4175.0,2358.0,351.0,20.0
502950,County,2020/06/06,55.0,WI,55019.0,Clark County,6423.0,28286.0,120725.0,26392.0,17965.0,14992.0,20122.0,24346.0,10419.0,5220.0,986.0,256.0,27.0
506141,County,2020/06/07,55.0,WI,55019.0,Clark County,6763.0,27946.0,122992.0,27562.0,19450.0,15420.0,22198.0,20744.0,11172.0,4279.0,1826.0,320.0,21.0
509363,County,2020/06/08,55.0,WI,55019.0,Clark County,5127.0,29582.0,130882.0,29776.0,23602.0,13396.0,21448.0,25238.0,10261.0,4511.0,2208.0,368.0,74.0
512567,County,2020/06/09,55.0,WI,55019.0,Clark County,6121.0,28588.0,113690.0,23957.0,20027.0,11253.0,22186.0,20973.0,8586.0,4487.0,1810.0,355.0,56.0
517348,County,2020/06/10,55.0,WI,55019.0,Clark County,5564.0,29145.0,113798.0,22680.0,20658.0,10647.0,19163.0,23201.0,10669.0,4106.0,1986.0,606.0,82.0
520506,County,2020/06/11,55.0,WI,55019.0,Clark County,5515.0,29194.0,124648.0,24202.0,22196.0,10532.0,23323.0,26230.0,10951.0,4587.0,2118.0,437.0,72.0
522178,County,2020/06/12,55.0,WI,55019.0,Clark County,5250.0,29459.0,124279.0,27418.0,19690.0,13512.0,18132.0,27411.0,10998.0,3984.0,2302.0,804.0,28.0
525355,County,2020/06/13,55.0,WI,55019.0,Clark County,6168.0,28541.0,127573.0,28369.0,22497.0,12138.0,21734.0,28541.0,9629.0,2993.0,1207.0,395.0,70.0
528550,County,2020/06/14,55.0,WI,55019.0,Clark County,6998.0,27711.0,109600.0,27164.0,17868.0,11954.0,14999.0,22703.0,8804.0,3777.0,1991.0,310.0,30.0
533309,County,2020/06/15,55.0,WI,55019.0,Clark County,6002.0,28707.0,106104.0,23257.0,16920.0,8791.0,14884.0,25077.0,9785.0,4195.0,2504.0,665.0,26.0
536528,County,2020/06/16,55.0,WI,55019.0,Clark County,6125.0,28584.0,108393.0,20777.0,20558.0,10918.0,16385.0,23086.0,10193.0,3810.0,2239.0,380.0,47.0
538130,County,2020/06/17,55.0,WI,55019.0,Clark County,5969.0,28740.0,123800.0,26837.0,22384.0,9592.0,21610.0,26091.0,9812.0,4160.0,2771.0,489.0,54.0
541278,County,2020/06/18,55.0,WI,55019.0,Clark County,5843.0,28866.0,116505.0,24716.0,25350.0,9909.0,17928.0,23131.0,8137.0,4198.0,2546.0,564.0,26.0
546044,County,2020/06/19,55.0,WI,55019.0,Clark County,5920.0,28789.0,100573.0,21373.0,17139.0,9785.0,13565.0,21916.0,9844.0,4622.0,1928.0,328.0,73.0
549279,County,2020/06/20,55.0,WI,55019.0,Clark County,6463.0,28246.0,98913.0,18222.0,20213.0,10572.0,16391.0,18974.0,8120.0,4206.0,1537.0,643.0,35.0
552467,County,2020/06/21,55.0,WI,55019.0,Clark County,6915.0,27794.0,92954.0,15914.0,17259.0,9961.0,14451.0,19368.0,9159.0,4646.0,1864.0,268.0,64.0
555659,County,2020/06/22,55.0,WI,55019.0,Clark County,6176.0,28533.0,100962.0,17665.0,15558.0,9218.0,17809.0,22900.0,9358.0,5841.0,2255.0,292.0,66.0
557288,County,2020/06/23,55.0,WI,55019.0,Clark County,5587.0,29122.0,111891.0,23064.0,23346.0,11594.0,17892.0,19664.0,9503.0,4548.0,1944.0,276.0,60.0
562055,County,2020/06/24,55.0,WI,55019.0,Clark County,5733.0,28976.0,109049.0,23679.0,18261.0,10656.0,16819.0,24185.0,8981.0,4298.0,1838.0,281.0,51.0
563683,County,2020/06/25,55.0,WI,55019.0,Clark County,5889.0,28820.0,106043.0,22199.0,17999.0,9614.0,17022.0,24260.0,8282.0,4452.0,1768.0,383.0,64.0
566935,County,2020/06/26,55.0,WI,55019.0,Clark County,5868.0,28841.0,119264.0,31356.0,20582.0,10667.0,16420.0,22911.0,10083.0,4384.0,2359.0,442.0,60.0
571629,County,2020/06/27,55.0,WI,55019.0,Clark County,5939.0,28770.0,115024.0,22621.0,20598.0,12055.0,18902.0,23571.0,10318.0,4802.0,1799.0,319.0,39.0
573251,County,2020/06/28,55.0,WI,55019.0,Clark County,6088.0,28621.0,96446.0,20230.0,16466.0,9418.0,13333.0,20328.0,8943.0,4801.0,2518.0,356.0,53.0
576409,County,2020/06/29,55.0,WI,55019.0,Clark County,5729.0,28980.0,114068.0,21722.0,18412.0,13291.0,19314.0,22740.0,11087.0,5221.0,1880.0,379.0,22.0
581223,County,2020/06/30,55.0,WI,55019.0,Clark County,5980.0,28729.0,113026.0,22899.0,22126.0,10152.0,17643.0,21695.0,11919.0,4220.0,1984.0,307.0,81.0
582870,County,2020/07/01,55.0,WI,55019.0,Clark County,5971.0,28738.0,118109.0,27500.0,20391.0,9566.0,19818.0,22385.0,10240.0,6002.0,1918.0,266.0,23.0
587606,County,2020/07/02,55.0,WI,55019.0,Clark County,6423.0,28286.0,112555.0,23562.0,19104.0,10204.0,18067.0,25750.0,8791.0,4725.0,1877.0,407.0,68.0
589244,County,2020/07/03,55.0,WI,55019.0,Clark County,6622.0,28087.0,118592.0,31179.0,20466.0,10607.0,16327.0,22782.0,10026.0,4359.0,2346.0,440.0,60.0
593988,County,2020/07/04,55.0,WI,55019.0,Clark County,7752.0,26957.0,101458.0,26675.0,17509.0,9074.0,13969.0,19490.0,8578.0,3729.0,2007.0,376.0,51.0
595640,County,2020/07/05,55.0,WI,55019.0,Clark County,6206.0,28503.0,101512.0,17765.0,19411.0,10925.0,15385.0,22268.0,8632.0,4210.0,2652.0,239.0,25.0
600383,County,2020/07/06,55.0,WI,55019.0,Clark County,6144.0,28565.0,92452.0,16115.0,16392.0,10655.0,13672.0,20511.0,9508.0,3640.0,1578.0,337.0,44.0
602401,County,2020/07/07,55.0,WI,55019.0,Clark County,6281.0,28428.0,97487.0,15322.0,20423.0,11102.0,15516.0,21347.0,8553.0,3949.0,835.0,369.0,71.0
606770,County,2020/07/08,55.0,WI,55019.0,Clark County,6294.0,28415.0,97086.0,18952.0,19396.0,10657.0,14119.0,20304.0,8029.0,3710.0,1443.0,405.0,71.0
608398,County,2020/07/09,55.0,WI,55019.0,Clark County,6062.0,28647.0,87109.0,14686.0,15936.0,8516.0,13018.0,19196.0,8743.0,4523.0,1673.0,765.0,53.0
611598,County,2020/07/10,55.0,WI,55019.0,Clark County,5685.0,29024.0,111704.0,20195.0,21464.0,9852.0,18096.0,23604.0,11537.0,4501.0,2061.0,337.0,57.0
616346,County,2020/07/11,55.0,WI,55019.0,Clark County,6572.0,28137.0,103534.0,20646.0,21611.0,10286.0,15007.0,20696.0,9298.0,4595.0,1166.0,191.0,38.0
619534,County,2020/07/12,55.0,WI,55019.0,Clark County,6695.0,28014.0,91697.0,19161.0,15951.0,9079.0,12028.0,21129.0,6987.0,5143.0,1791.0,362.0,66.0
622741,County,2020/07/13,55.0,WI,55019.0,Clark County,6033.0,28676.0,102552.0,21627.0,17473.0,9287.0,15929.0,23875.0,8565.0,4512.0,986.0,231.0,67.0
625934,County,2020/07/14,55.0,WI,55019.0,Clark County,6007.0,28702.0,93922.0,15761.0,18469.0,9091.0,16358.0,20114.0,8876.0,3558.0,1283.0,382.0,30.0
627442,County,2020/07/15,55.0,WI,55019.0,Clark County,6436.0,28273.0,104311.0,20869.0,22324.0,10635.0,14203.0,20667.0,10048.0,4119.0,1170.0,199.0,77.0
630732,County,2020/07/16,55.0,WI,55019.0,Clark County,6060.0,28649.0,103403.0,21304.0,15475.0,9040.0,16243.0,26162.0,9908.0,3467.0,1355.0,429.0,20.0
635468,County,2020/07/17,55.0,WI,55019.0,Clark County,6408.0,28301.0,103018.0,19469.0,17520.0,10417.0,15021.0,24337.0,9544.0,5020.0,1111.0,566.0,13.0
637145,County,2020/07/18,55.0,WI,55019.0,Clark County,6571.0,28138.0,92034.0,18831.0,17736.0,10226.0,12810.0,19758.0,7284.0,3520.0,1477.0,385.0,7.0
640300,County,2020/07/19,55.0,WI,55019.0,Clark County,7096.0,27613.0,80642.0,15008.0,15082.0,8716.0,11992.0,16168.0,7743.0,3837.0,1770.0,297.0,29.0
643533,County,2020/07/20,55.0,WI,55019.0,Clark County,6486.0,28223.0,100205.0,16180.0,14681.0,9287.0,18278.0,26892.0,9621.0,3569.0,1385.0,305.0,7.0
646710,County,2020/07/21,55.0,WI,55019.0,Clark County,6196.0,28513.0,95610.0,17341.0,15463.0,8546.0,16027.0,23626.0,8742.0,4369.0,1172.0,277.0,47.0
651486,County,2020/07/22,55.0,WI,55019.0,Clark County,6158.0,28551.0,99432.0,16381.0,15748.0,10294.0,16728.0,25699.0,9933.0,3461.0,934.0,240.0,14.0
654681,County,2020/07/23,55.0,WI,55019.0,Clark County,6517.0,28192.0,101861.0,18995.0,18282.0,8330.0,14441.0,25313.0,9846.0,4955.0,1398.0,266.0,35.0
656313,County,2020/07/24,55.0,WI,55019.0,Clark County,5770.0,28939.0,117867.0,28425.0,18777.0,10679.0,17556.0,24858.0,11108.0,4411.0,1840.0,172.0,41.0
659497,County,2020/07/25,55.0,WI,55019.0,Clark County,6581.0,28128.0,102749.0,19315.0,16853.0,9684.0,17393.0,23313.0,10926.0,3778.0,1068.0,381.0,38.0
664206,County,2020/07/26,55.0,WI,55019.0,Clark County,6296.0,28413.0,121297.0,31822.0,24106.0,8324.0,17929.0,23022.0,8732.0,4681.0,2236.0,357.0,88.0
664366,County,2020/07/27,55.0,WI,55019.0,Clark County,5725.0,28984.0,124929.0,23767.0,20303.0,14266.0,18404.0,27276.0,13139.0,5364.0,2130.0,218.0,62.0
669154,County,2020/07/28,55.0,WI,55019.0,Clark County,5549.0,29160.0,129119.0,23400.0,25944.0,13086.0,22348.0,26319.0,11951.0,3384.0,2218.0,454.0,15.0
672359,County,2020/07/29,55.0,WI,55019.0,Clark County,5737.0,28972.0,125551.0,23994.0,25741.0,12698.0,14844.0,28583.0,13443.0,4196.0,1621.0,385.0,46.0
677024,County,2020/07/30,55.0,WI,55019.0,Clark County,5448.0,29261.0,125421.0,19804.0,25834.0,11620.0,23878.0,26876.0,10302.0,4464.0,2359.0,232.0,52.0
678673,County,2020/07/31,55.0,WI,55019.0,Clark County,5711.0,28998.0,112679.0,19553.0,19882.0,10879.0,18097.0,25672.0,10876.0,5592.0,1858.0,246.0,24.0
683420,County,2020/08/01,55.0,WI,55019.0,Clark County,6598.0,28111.0,107845.0,19525.0,24246.0,10190.0,17547.0,21243.0,9476.0,3540.0,1630.0,370.0,78.0
686612,County,2020/08/02,55.0,WI,55019.0,Clark County,6593.0,28116.0,97777.0,17263.0,20802.0,8824.0,13153.0,18683.0,11839.0,4751.0,1762.0,664.0,36.0
689815,County,2020/08/03,55.0,WI,55019.0,Clark County,6562.0,28147.0,107251.0,23073.0,21570.0,9365.0,14067.0,24058.0,8515.0,4710.0,1544.0,298.0,51.0
691443,County,2020/08/04,55.0,WI,55019.0,Clark County,5770.0,28939.0,108228.0,23136.0,19610.0,11401.0,16020.0,22551.0,9031.0,4710.0,1450.0,276.0,43.0
696202,County,2020/08/05,55.0,WI,55019.0,Clark County,6126.0,28583.0,106507.0,22168.0,20288.0,10661.0,16230.0,22183.0,8960.0,4148.0,1511.0,272.0,86.0
697812,County,2020/08/06,55.0,WI,55019.0,Clark County,5788.0,28921.0,110661.0,21761.0,19179.0,10196.0,17247.0,26218.0,10106.0,4114.0,1300.0,472.0,68.0
701024,County,2020/08/07,55.0,WI,55019.0,Clark County,5918.0,28791.0,109772.0,21248.0,23108.0,11432.0,14660.0,23666.0,9519.0,4697.0,1076.0,312.0,54.0
705785,County,2020/08/08,55.0,WI,55019.0,Clark County,6174.0,28535.0,99536.0,19478.0,21199.0,8752.0,16396.0,19363.0,7596.0,4848.0,1669.0,185.0,50.0
709004,County,2020/08/09,55.0,WI,55019.0,Clark County,6500.0,28209.0,95026.0,17532.0,19824.0,8405.0,13455.0,17688.0,10335.0,4694.0,2789.0,260.0,44.0
712173,County,2020/08/10,55.0,WI,55019.0,Clark County,6043.0,28666.0,102166.0,19170.0,20886.0,9706.0,12412.0,22867.0,10983.0,4626.0,1213.0,276.0,27.0
715366,County,2020/08/11,55.0,WI,55019.0,Clark County,5839.0,28870.0,107046.0,17910.0,19764.0,11416.0,18372.0,22164.0,11288.0,4315.0,1576.0,227.0,14.0
718561,County,2020/08/12,55.0,WI,55019.0,Clark County,6126.0,28583.0,113064.0,22222.0,20695.0,11667.0,16932.0,25000.0,10633.0,4032.0,1595.0,246.0,42.0
721755,County,2020/08/13,55.0,WI,55019.0,Clark County,5862.0,28847.0,137769.0,41179.0,24153.0,12071.0,16512.0,26240.0,11219.0,4170.0,1606.0,511.0,108.0
723382,County,2020/08/14,55.0,WI,55019.0,Clark County,5187.0,29522.0,121027.0,22407.0,24483.0,12532.0,18158.0,23480.0,11882.0,5682.0,1904.0,447.0,52.0
726614,County,2020/08/15,55.0,WI,55019.0,Clark County,6210.0,28499.0,108848.0,19906.0,21955.0,11063.0,15962.0,22128.0,10250.0,5364.0,1856.0,288.0,76.0
731337,County,2020/08/16,55.0,WI,55019.0,Clark County,6272.0,28437.0,111593.0,22334.0,24275.0,9447.0,17049.0,19517.0,10576.0,5241.0,2635.0,421.0,98.0
732966,County,2020/08/17,55.0,WI,55019.0,Clark County,5990.0,28719.0,123393.0,22757.0,25364.0,7831.0,19188.0,28906.0,11766.0,5263.0,1887.0,397.0,34.0
736181,County,2020/08/18,55.0,WI,55019.0,Clark County,6114.0,28595.0,111966.0,19518.0,22009.0,9015.0,15733.0,25652.0,13287.0,4325.0,1890.0,463.0,74.0
739337,County,2020/08/19,55.0,WI,55019.0,Clark County,5588.0,29121.0,119553.0,19208.0,21741.0,14029.0,17494.0,28986.0,12210.0,3560.0,1791.0,399.0,135.0
742548,County,2020/08/20,55.0,WI,55019.0,Clark County,5158.0,29551.0,118084.0,22185.0,23603.0,12946.0,15572.0,24475.0,10484.0,5515.0,2684.0,484.0,136.0
745748,County,2020/08/21,55.0,WI,55019.0,Clark County,4931.0,29778.0,125430.0,19951.0,25429.0,12862.0,19880.0,28335.0,12191.0,4542.0,1881.0,180.0,179.0
748952,County,2020/08/22,55.0,WI,55019.0,Clark County,5873.0,28836.0,108968.0,17266.0,22592.0,10882.0,15116.0,23475.0,11853.0,5525.0,1781.0,392.0,86.0
752146,County,2020/08/23,55.0,WI,55019.0,Clark County,6619.0,28090.0,89847.0,12858.0,16265.0,9663.0,14035.0,20763.0,9757.0,3655.0,2497.0,275.0,79.0
755318,County,2020/08/24,55.0,WI,55019.0,Clark County,6089.0,28620.0,99574.0,18042.0,18915.0,9195.0,14388.0,22201.0,10791.0,3644.0,1868.0,341.0,189.0
760080,County,2020/08/25,55.0,WI,55019.0,Clark County,6097.0,28612.0,103655.0,17404.0,17991.0,11913.0,13217.0,23802.0,12448.0,4876.0,1509.0,240.0,255.0
761662,County,2020/08/26,55.0,WI,55019.0,Clark County,5999.0,28710.0,106270.0,20268.0,21073.0,10341.0,15913.0,21104.0,10230.0,5211.0,1615.0,408.0,107.0
764869,County,2020/08/27,55.0,WI,55019.0,Clark County,5999.0,28710.0,110072.0,24288.0,19480.0,11079.0,15364.0,21916.0,11066.0,4438.0,1909.0,312.0,220.0
768075,County,2020/08/28,55.0,WI,55019.0,Clark County,5587.0,29122.0,106664.0,19039.0,19117.0,11831.0,14184.0,22537.0,11924.0,5060.0,2552.0,209.0,211.0
771279,County,2020/08/29,55.0,WI,55019.0,Clark County,6354.0,28355.0,106196.0,19275.0,21756.0,10927.0,14556.0,22093.0,11438.0,4252.0,1445.0,406.0,48.0
776053,County,2020/08/30,55.0,WI,55019.0,Clark County,7016.0,27693.0,92919.0,17209.0,16431.0,9061.0,12770.0,18740.0,8755.0,6831.0,2515.0,512.0,95.0
777660,County,2020/08/31,55.0,WI,55019.0,Clark County,6312.0,28397.0,96264.0,16159.0,16543.0,10243.0,13969.0,20982.0,11414.0,4180.0,2131.0,399.0,244.0
782441,County,2020/09/01,55.0,WI,55019.0,Clark County,6188.0,28521.0,107113.0,18325.0,19908.0,11479.0,15307.0,22501.0,12438.0,4742.0,1864.0,356.0,193.0
784835,County,2020/09/02,55.0,WI,55019.0,Clark County,6323.0,28386.0,106521.0,21423.0,17829.0,11489.0,16079.0,21574.0,11180.0,4319.0,1992.0,334.0,302.0
787196,County,2020/09/03,55.0,WI,55019.0,Clark County,5565.0,29144.0,111325.0,18941.0,21338.0,11163.0,14190.0,26059.0,12197.0,4799.0,2035.0,567.0,36.0
792023,County,2020/09/04,55.0,WI,55019.0,Clark County,5729.0,28980.0,103897.0,15812.0,16900.0,10796.0,15775.0,23976.0,12446.0,5415.0,2454.0,257.0,66.0
793533,County,2020/09/05,55.0,WI,55019.0,Clark County,6773.0,27936.0,101706.0,18858.0,18767.0,11274.0,15571.0,18792.0,10998.0,5659.0,1449.0,257.0,81.0
796816,County,2020/09/06,55.0,WI,55019.0,Clark County,7067.0,27642.0,90837.0,11293.0,17283.0,10347.0,11465.0,22108.0,11466.0,4508.0,2101.0,225.0,41.0
800033,County,2020/09/07,55.0,WI,55019.0,Clark County,7202.0,27507.0,88378.0,17606.0,16071.0,7905.0,11470.0,17464.0,11127.0,4377.0,1981.0,335.0,42.0
804799,County,2020/09/08,55.0,WI,55019.0,Clark County,6321.0,28388.0,109401.0,19005.0,20196.0,12106.0,14795.0,25932.0,11363.0,3549.0,1957.0,416.0,82.0
807992,County,2020/09/09,55.0,WI,55019.0,Clark County,6059.0,28650.0,107915.0,16234.0,20977.0,12457.0,16422.0,23449.0,11724.0,4554.0,1720.0,347.0,31.0
809620,County,2020/09/10,55.0,WI,55019.0,Clark County,5987.0,28722.0,102765.0,14550.0,20821.0,9808.0,17510.0,21607.0,11665.0,4892.0,1360.0,477.0,75.0
812825,County,2020/09/11,55.0,WI,55019.0,Clark County,5643.0,29066.0,131636.0,31536.0,22788.0,11620.0,21902.0,25340.0,12135.0,3600.0,2114.0,555.0,46.0
817575,County,2020/09/12,55.0,WI,55019.0,Clark County,6700.0,28009.0,101362.0,15025.0,18496.0,10637.0,16208.0,21235.0,13235.0,4988.0,1226.0,230.0,82.0
820759,County,2020/09/13,55.0,WI,55019.0,Clark County,7044.0,27665.0,93875.0,15586.0,16245.0,10907.0,14559.0,20764.0,8387.0,4458.0,2594.0,301.0,74.0
822388,County,2020/09/14,55.0,WI,55019.0,Clark County,5989.0,28720.0,106141.0,18672.0,17212.0,9911.0,15801.0,23724.0,12593.0,5047.0,2703.0,461.0,17.0
827157,County,2020/09/15,55.0,WI,55019.0,Clark County,5951.0,28758.0,106730.0,18944.0,18941.0,10607.0,16878.0,21041.0,12116.0,5257.0,2423.0,423.0,100.0
830351,County,2020/09/16,55.0,WI,55019.0,Clark County,5691.0,29018.0,110546.0,17979.0,23347.0,10764.0,14441.0,23935.0,12264.0,4717.0,2613.0,444.0,42.0
831978,County,2020/09/17,55.0,WI,55019.0,Clark County,6076.0,28633.0,106466.0,15449.0,21259.0,11235.0,15262.0,24910.0,11262.0,4529.0,2255.0,297.0,8.0
835157,County,2020/09/18,55.0,WI,55019.0,Clark County,5506.0,29203.0,110171.0,16192.0,19529.0,11321.0,17437.0,25520.0,12079.0,4952.0,2651.0,398.0,92.0
839933,County,2020/09/19,55.0,WI,55019.0,Clark County,6278.0,28431.0,118918.0,18153.0,24445.0,13475.0,18737.0,23417.0,10054.0,6778.0,3220.0,569.0,70.0
841562,County,2020/09/20,55.0,WI,55019.0,Clark County,7904.0,26805.0,98289.0,27721.0,18741.0,8613.0,13182.0,16237.0,7538.0,4536.0,1399.0,286.0,36.0
844771,County,2020/09/21,55.0,WI,55019.0,Clark County,7239.0,27470.0,96315.0,17351.0,21039.0,8554.0,14478.0,20328.0,7628.0,4485.0,2085.0,367.0,0.0
849515,County,2020/09/22,55.0,WI,55019.0,Clark County,6701.0,28008.0,94359.0,15392.0,16963.0,8965.0,15522.0,20734.0,10553.0,4642.0,1247.0,294.0,47.0
852705,County,2020/09/23,55.0,WI,55019.0,Clark County,6379.0,28330.0,100891.0,17367.0,18899.0,8178.0,17208.0,22780.0,10676.0,4126.0,1471.0,186.0,0.0
854333,County,2020/09/24,55.0,WI,55019.0,Clark County,6319.0,28390.0,104442.0,17365.0,21291.0,11914.0,14544.0,21884.0,12113.0,3349.0,1792.0,176.0,14.0
859097,County,2020/09/25,55.0,WI,55019.0,Clark County,6746.0,27963.0,105362.0,15615.0,17019.0,12748.0,17874.0,25745.0,8775.0,4946.0,2323.0,309.0,8.0
862291,County,2020/09/26,55.0,WI,55019.0,Clark County,6776.0,27933.0,98844.0,17467.0,16169.0,10815.0,16511.0,22880.0,8924.0,3971.0,1681.0,426.0,0.0
863896,County,2020/09/27,55.0,WI,55019.0,Clark County,7361.0,27348.0,92833.0,15863.0,17023.0,10188.0,13834.0,20549.0,9384.0,4345.0,1290.0,290.0,67.0
867101,County,2020/09/28,55.0,WI,55019.0,Clark County,6512.0,28197.0,94040.0,15968.0,15525.0,8446.0,14043.0,21491.0,11273.0,5159.0,1862.0,265.0,8.0
871873,County,2020/09/29,55.0,WI,55019.0,Clark County,6355.0,28354.0,101055.0,16012.0,17322.0,10404.0,15766.0,22951.0,11919.0,4899.0,1472.0,278.0,32.0
873501,County,2020/09/30,55.0,WI,55019.0,Clark County,5755.0,28954.0,107550.0,14947.0,18148.0,10261.0,15955.0,26862.0,15516.0,4239.0,1317.0,292.0,13.0
878240,County,2020/10/01,55.0,WI,55019.0,Clark County,5543.0,29166.0,97540.0,13359.0,17781.0,10623.0,14365.0,24027.0,10496.0,4726.0,1805.0,327.0,31.0
879869,County,2020/10/02,55.0,WI,55019.0,Clark County,6074.0,28635.0,101236.0,14934.0,18060.0,9723.0,14770.0,25522.0,11401.0,4702.0,1791.0,310.0,23.0
883085,County,2020/10/03,55.0,WI,55019.0,Clark County,6874.0,27835.0,101887.0,16635.0,18600.0,9830.0,14944.0,27229.0,9218.0,3522.0,1690.0,195.0,24.0
884939,County,2020/10/04,55.0,WI,55019.0,Clark County,7318.0,27391.0,87313.0,11837.0,15815.0,9611.0,13396.0,20036.0,9877.0,4201.0,2273.0,217.0,50.0
890967,County,2020/10/05,55.0,WI,55019.0,Clark County,6842.0,27867.0,96202.0,13619.0,16012.0,12014.0,12330.0,22039.0,13474.0,4997.0,1379.0,315.0,23.0
894149,County,2020/10/06,55.0,WI,55019.0,Clark County,6218.0,28491.0,103562.0,17839.0,17891.0,11458.0,15564.0,21948.0,12104.0,5326.0,1177.0,240.0,15.0
897354,County,2020/10/07,55.0,WI,55019.0,Clark County,5907.0,28802.0,109775.0,16571.0,21297.0,10609.0,14098.0,27371.0,11935.0,6495.0,1211.0,177.0,11.0
897619,County,2020/10/08,55.0,WI,55019.0,Clark County,5719.0,28990.0,104528.0,15163.0,19689.0,11326.0,15382.0,23235.0,12692.0,4962.0,1799.0,272.0,8.0
903747,County,2020/10/09,55.0,WI,55019.0,Clark County,5956.0,28753.0,117353.0,17885.0,20214.0,11150.0,18925.0,27933.0,13189.0,6368.0,1519.0,162.0,8.0
906948,County,2020/10/10,55.0,WI,55019.0,Clark County,6782.0,27927.0,101449.0,14358.0,20367.0,11893.0,15866.0,21085.0,11984.0,4414.0,1221.0,245.0,16.0
907668,County,2020/10/11,55.0,WI,55019.0,Clark County,7003.0,27706.0,89830.0,12423.0,16640.0,8396.0,15247.0,21901.0,8416.0,4462.0,2045.0,289.0,11.0
910368,County,2020/10/12,55.0,WI,55019.0,Clark County,5970.0,28739.0,104886.0,17362.0,20515.0,11950.0,13465.0,21875.0,12107.0,5537.0,1700.0,364.0,11.0
913887,County,2020/10/13,55.0,WI,55019.0,Clark County,6281.0,28428.0,103757.0,17208.0,19923.0,9687.0,17421.0,22539.0,10959.0,4348.0,1367.0,290.0,15.0
916834,County,2020/10/14,55.0,WI,55019.0,Clark County,5838.0,28871.0,102419.0,15757.0,18718.0,10285.0,15203.0,23487.0,11278.0,5862.0,1619.0,201.0,9.0
920056,County,2020/10/15,55.0,WI,55019.0,Clark County,6027.0,28682.0,99509.0,12022.0,18087.0,11455.0,16618.0,22326.0,11096.0,5874.0,1803.0,218.0,10.0
923220,County,2020/10/16,55.0,WI,55019.0,Clark County,5571.0,29138.0,114089.0,16102.0,20602.0,10086.0,20959.0,25296.0,12378.0,6702.0,1693.0,255.0,16.0
926450,County,2020/10/17,55.0,WI,55019.0,Clark County,6608.0,28101.0,103558.0,17349.0,20182.0,12811.0,16009.0,18310.0,11304.0,6189.0,1188.0,201.0,15.0
929540,County,2020/10/18,55.0,WI,55019.0,Clark County,6680.0,28029.0,87768.0,12007.0,18344.0,7795.0,14487.0,18778.0,8623.0,5788.0,1506.0,418.0,22.0
932784,County,2020/10/19,55.0,WI,55019.0,Clark County,6221.0,28488.0,105642.0,18834.0,20448.0,12678.0,13917.0,21228.0,11740.0,5086.0,1381.0,307.0,23.0
935947,County,2020/10/20,55.0,WI,55019.0,Clark County,5996.0,28713.0,103695.0,17424.0,19832.0,10602.0,14437.0,23634.0,11514.0,4392.0,1647.0,199.0,14.0
939184,County,2020/10/21,55.0,WI,55019.0,Clark County,6410.0,28299.0,100783.0,15271.0,20576.0,9684.0,15015.0,21664.0,11793.0,4526.0,1970.0,256.0,28.0
942719,County,2020/10/22,55.0,WI,55019.0,Clark County,6013.0,28696.0,102017.0,14773.0,16847.0,12030.0,14472.0,23609.0,13033.0,5516.0,1455.0,274.0,8.0
945486,County,2020/10/23,55.0,WI,55019.0,Clark County,5442.0,29267.0,116332.0,17313.0,21158.0,13717.0,18436.0,26890.0,11807.0,4928.0,1924.0,146.0,13.0
948795,County,2020/10/24,55.0,WI,55019.0,Clark County,5961.0,28748.0,113964.0,19830.0,23106.0,13447.0,17142.0,22505.0,11335.0,4936.0,1428.0,224.0,11.0
