,Level,Date,State FIPS,State Postal Code,County FIPS,County Name,Population Staying at Home,Population Not Staying at Home,Number of Trips,Number of Trips <1,Number of Trips 1-3,Number of Trips 3-5,Number of Trips 5-10,Number of Trips 10-25,Number of Trips 25-50,Number of Trips 50-100,Number of Trips 100-250,Number of Trips 250-500,Number of Trips >=500
675,County,2020/01/01,17.0,IL,17161.0,Rock Island County,39436.0,104041.0,424883.0,102562.0,118722.0,61305.0,82939.0,40876.0,8742.0,5897.0,2990.0,655.0,195.0
6057,County,2020/01/02,17.0,IL,17161.0,Rock Island County,30371.0,113106.0,574395.0,149919.0,152870.0,83567.0,103812.0,57991.0,14436.0,7303.0,3367.0,934.0,196.0
7944,County,2020/01/03,17.0,IL,17161.0,Rock Island County,30063.0,113414.0,577654.0,143388.0,147841.0,83644.0,113046.0,61786.0,13221.0,9575.0,4368.0,641.0,144.0
9883,County,2020/01/04,17.0,IL,17161.0,Rock Island County,34557.0,108920.0,510580.0,127704.0,137018.0,73943.0,97873.0,49798.0,12408.0,6773.0,4391.0,492.0,180.0
13451,County,2020/01/05,17.0,IL,17161.0,Rock Island County,37949.0,105528.0,443499.0,110685.0,121995.0,67614.0,81674.0,42922.0,8158.0,5359.0,4236.0,583.0,273.0
16253,County,2020/01/06,17.0,IL,17161.0,Rock Island County,32326.0,111151.0,534519.0,137079.0,141503.0,75108.0,100364.0,57015.0,13766.0,5715.0,3359.0,403.0,207.0
19507,County,2020/01/07,17.0,IL,17161.0,Rock Island County,29380.0,114097.0,550817.0,144776.0,144250.0,78393.0,106017.0,54485.0,11679.0,7041.0,3425.0,573.0,178.0
22689,County,2020/01/08,17.0,IL,17161.0,Rock Island County,29081.0,114396.0,587189.0,155046.0,158188.0,83652.0,109955.0,57424.0,11691.0,7318.0,3228.0,502.0,185.0
25884,County,2020/01/09,17.0,IL,17161.0,Rock Island County,29013.0,114464.0,596155.0,163451.0,154161.0,84133.0,111612.0,57858.0,12664.0,8316.0,3105.0,716.0,139.0
29079,County,2020/01/10,17.0,IL,17161.0,Rock Island County,27558.0,115919.0,632885.0,172848.0,175670.0,89458.0,112616.0,59222.0,11398.0,7208.0,3659.0,643.0,163.0
32321,County,2020/01/11,17.0,IL,17161.0,Rock Island County,40566.0,102911.0,464871.0,127556.0,137255.0,67837.0,82232.0,36945.0,5940.0,3694.0,2756.0,490.0,166.0
35477,County,2020/01/12,17.0,IL,17161.0,Rock Island County,38793.0,104684.0,474211.0,127613.0,139193.0,70564.0,81967.0,38225.0,7491.0,5118.0,3418.0,426.0,196.0
40255,County,2020/01/13,17.0,IL,17161.0,Rock Island County,30831.0,112646.0,566427.0,152396.0,153063.0,83597.0,102896.0,51440.0,13059.0,6956.0,2530.0,343.0,147.0
41881,County,2020/01/14,17.0,IL,17161.0,Rock Island County,28949.0,114528.0,592180.0,162213.0,157877.0,82571.0,110784.0,55932.0,12172.0,6939.0,3135.0,471.0,86.0
45034,County,2020/01/15,17.0,IL,17161.0,Rock Island County,30802.0,112675.0,568346.0,157953.0,148482.0,80530.0,105249.0,53647.0,11555.0,7626.0,2655.0,568.0,81.0
48186,County,2020/01/16,17.0,IL,17161.0,Rock Island County,28846.0,114631.0,586208.0,153250.0,155145.0,84413.0,112307.0,56686.0,12349.0,7444.0,3737.0,669.0,208.0
53102,County,2020/01/17,17.0,IL,17161.0,Rock Island County,30567.0,112910.0,575850.0,161896.0,160941.0,81992.0,98583.0,51392.0,10490.0,6614.0,3280.0,499.0,163.0
56174,County,2020/01/18,17.0,IL,17161.0,Rock Island County,37899.0,105578.0,509709.0,137889.0,144090.0,74572.0,96386.0,42140.0,6972.0,4382.0,2415.0,628.0,235.0
59421,County,2020/01/19,17.0,IL,17161.0,Rock Island County,40131.0,103346.0,461485.0,127258.0,126666.0,65429.0,84882.0,40497.0,7537.0,5530.0,2825.0,661.0,200.0
62584,County,2020/01/20,17.0,IL,17161.0,Rock Island County,34083.0,109394.0,534567.0,138582.0,143774.0,76457.0,99433.0,52970.0,11941.0,7273.0,3192.0,761.0,184.0
64212,County,2020/01/21,17.0,IL,17161.0,Rock Island County,29977.0,113500.0,580294.0,155618.0,152740.0,81640.0,110222.0,58044.0,11590.0,6726.0,2834.0,739.0,141.0
67414,County,2020/01/22,17.0,IL,17161.0,Rock Island County,29006.0,114471.0,592486.0,162431.0,155971.0,86703.0,108216.0,57060.0,11012.0,6961.0,3293.0,659.0,180.0
70598,County,2020/01/23,17.0,IL,17161.0,Rock Island County,29611.0,113866.0,581630.0,159108.0,148636.0,83346.0,110814.0,56636.0,12511.0,6810.0,3069.0,536.0,164.0
75312,County,2020/01/24,17.0,IL,17161.0,Rock Island County,29040.0,114437.0,612920.0,164190.0,167628.0,89451.0,115275.0,52781.0,12159.0,7343.0,3298.0,484.0,311.0
76987,County,2020/01/25,17.0,IL,17161.0,Rock Island County,32960.0,110517.0,550179.0,143098.0,147824.0,82516.0,105615.0,50633.0,9829.0,6282.0,3601.0,518.0,263.0
80525,County,2020/01/26,17.0,IL,17161.0,Rock Island County,35959.0,107518.0,495696.0,133622.0,136773.0,71917.0,91437.0,42457.0,9800.0,6187.0,2773.0,481.0,249.0
84715,County,2020/01/27,17.0,IL,17161.0,Rock Island County,29650.0,113827.0,586796.0,167195.0,154404.0,79342.0,107087.0,56187.0,11546.0,6730.0,3498.0,640.0,167.0
86584,County,2020/01/28,17.0,IL,17161.0,Rock Island County,29161.0,114316.0,586476.0,158743.0,156504.0,85556.0,105714.0,57083.0,11508.0,7464.0,3201.0,615.0,88.0
91317,County,2020/01/29,17.0,IL,17161.0,Rock Island County,29856.0,113621.0,599989.0,161249.0,160392.0,84896.0,111843.0,58787.0,11388.0,7055.0,3522.0,724.0,133.0
93043,County,2020/01/30,17.0,IL,17161.0,Rock Island County,28751.0,114726.0,599743.0,163761.0,163077.0,80254.0,110869.0,54103.0,11899.0,9285.0,5230.0,976.0,289.0
96147,County,2020/01/31,17.0,IL,17161.0,Rock Island County,26923.0,116554.0,625171.0,165281.0,170173.0,88263.0,117214.0,57993.0,12196.0,7397.0,5325.0,1024.0,305.0
99396,County,2020/02/01,17.0,IL,17161.0,Rock Island County,30739.0,112738.0,581958.0,147402.0,162248.0,88440.0,108913.0,50034.0,11166.0,7200.0,5338.0,812.0,405.0
102523,County,2020/02/02,17.0,IL,17161.0,Rock Island County,33526.0,109951.0,500946.0,133716.0,143973.0,67456.0,89661.0,46240.0,8143.0,5917.0,4533.0,836.0,471.0
105733,County,2020/02/03,17.0,IL,17161.0,Rock Island County,29198.0,114279.0,573474.0,149135.0,157920.0,83482.0,101616.0,56376.0,12362.0,6303.0,4912.0,941.0,427.0
110494,County,2020/02/04,17.0,IL,17161.0,Rock Island County,28539.0,114938.0,579553.0,151271.0,157121.0,79641.0,103639.0,59780.0,14162.0,7534.0,4737.0,1209.0,459.0
112122,County,2020/02/05,17.0,IL,17161.0,Rock Island County,28361.0,115116.0,588429.0,161431.0,156615.0,78629.0,105812.0,59456.0,11716.0,7372.0,5618.0,1270.0,510.0
115217,County,2020/02/06,17.0,IL,17161.0,Rock Island County,27937.0,115540.0,611336.0,165256.0,163364.0,86026.0,109151.0,61185.0,12298.0,7748.0,4804.0,972.0,532.0
118483,County,2020/02/07,17.0,IL,17161.0,Rock Island County,27143.0,116334.0,633834.0,168328.0,171747.0,90527.0,116137.0,61542.0,11203.0,7876.0,4793.0,1155.0,526.0
121729,County,2020/02/08,17.0,IL,17161.0,Rock Island County,30257.0,113220.0,574308.0,139717.0,165621.0,87023.0,106984.0,51322.0,9380.0,8453.0,4663.0,749.0,396.0
124898,County,2020/02/09,17.0,IL,17161.0,Rock Island County,39850.0,103627.0,471915.0,125526.0,137632.0,68133.0,84393.0,36526.0,7061.0,6019.0,5082.0,902.0,641.0
128984,County,2020/02/10,17.0,IL,17161.0,Rock Island County,29114.0,114363.0,630227.0,179036.0,168228.0,87929.0,109476.0,57053.0,12531.0,8680.0,5365.0,1291.0,638.0
131630,County,2020/02/11,17.0,IL,17161.0,Rock Island County,26795.0,116682.0,628492.0,164619.0,165456.0,91248.0,115690.0,61443.0,13275.0,9580.0,5472.0,1160.0,549.0
134954,County,2020/02/12,17.0,IL,17161.0,Rock Island County,28796.0,114681.0,618587.0,171919.0,163455.0,86027.0,105168.0,61056.0,14021.0,8461.0,6541.0,1295.0,644.0
139286,County,2020/02/13,17.0,IL,17161.0,Rock Island County,29557.0,113920.0,621143.0,166950.0,169355.0,85286.0,110769.0,58400.0,11715.0,9644.0,6590.0,1630.0,804.0
142442,County,2020/02/14,17.0,IL,17161.0,Rock Island County,28434.0,115043.0,682376.0,172902.0,182745.0,94949.0,125470.0,73057.0,13617.0,9696.0,7592.0,1494.0,854.0
144066,County,2020/02/15,17.0,IL,17161.0,Rock Island County,32125.0,111352.0,609184.0,155142.0,170759.0,84807.0,111104.0,56913.0,11368.0,10530.0,6931.0,1053.0,577.0
147255,County,2020/02/16,17.0,IL,17161.0,Rock Island County,36163.0,107314.0,540987.0,147704.0,152377.0,73478.0,93871.0,48147.0,9758.0,7750.0,6221.0,1126.0,555.0
152017,County,2020/02/17,17.0,IL,17161.0,Rock Island County,41440.0,102037.0,491763.0,131287.0,131483.0,67108.0,86044.0,50252.0,11422.0,7247.0,5050.0,1260.0,610.0
153643,County,2020/02/18,17.0,IL,17161.0,Rock Island County,29704.0,113773.0,623781.0,169065.0,159195.0,86866.0,112376.0,64475.0,14386.0,9563.0,5558.0,1688.0,609.0
158404,County,2020/02/19,17.0,IL,17161.0,Rock Island County,28603.0,114874.0,623579.0,165732.0,159549.0,85307.0,118047.0,62520.0,14710.0,9508.0,5875.0,1816.0,515.0
161502,County,2020/02/20,17.0,IL,17161.0,Rock Island County,28261.0,115216.0,623149.0,165955.0,160097.0,88189.0,112436.0,64133.0,13427.0,10560.0,6378.0,1428.0,546.0
164793,County,2020/02/21,17.0,IL,17161.0,Rock Island County,28261.0,115216.0,662693.0,177248.0,174637.0,92545.0,118702.0,67293.0,13616.0,9061.0,6978.0,1960.0,653.0
167937,County,2020/02/22,17.0,IL,17161.0,Rock Island County,27462.0,116015.0,613291.0,153001.0,165657.0,87171.0,113378.0,63570.0,11677.0,8938.0,8028.0,1401.0,470.0
171185,County,2020/02/23,17.0,IL,17161.0,Rock Island County,34246.0,109231.0,548837.0,138632.0,162372.0,75828.0,96110.0,52175.0,10769.0,7035.0,4517.0,994.0,405.0
174430,County,2020/02/24,17.0,IL,17161.0,Rock Island County,31935.0,111542.0,592725.0,149127.0,161817.0,85731.0,109759.0,60177.0,13488.0,7408.0,3806.0,942.0,470.0
176737,County,2020/02/25,17.0,IL,17161.0,Rock Island County,28392.0,115085.0,625130.0,164679.0,160518.0,89433.0,114132.0,67243.0,15690.0,8492.0,3500.0,933.0,510.0
179539,County,2020/02/26,17.0,IL,17161.0,Rock Island County,29843.0,113634.0,524712.0,121525.0,148483.0,75985.0,100724.0,57331.0,10285.0,6353.0,3017.0,674.0,335.0
183706,County,2020/02/27,17.0,IL,17161.0,Rock Island County,28369.0,115108.0,627889.0,166858.0,160026.0,91711.0,111006.0,68368.0,14689.0,10063.0,4145.0,610.0,413.0
185677,County,2020/02/28,17.0,IL,17161.0,Rock Island County,27451.0,116026.0,661516.0,161343.0,181262.0,97227.0,123264.0,67785.0,14296.0,10982.0,4158.0,709.0,490.0
188779,County,2020/02/29,17.0,IL,17161.0,Rock Island County,31634.0,111843.0,648809.0,163782.0,180627.0,99627.0,119301.0,58022.0,12750.0,9275.0,4369.0,653.0,403.0
191968,County,2020/03/01,17.0,IL,17161.0,Rock Island County,33868.0,109609.0,544513.0,146015.0,157418.0,79696.0,92570.0,46423.0,10144.0,7818.0,3529.0,589.0,311.0
196768,County,2020/03/02,17.0,IL,17161.0,Rock Island County,29908.0,113569.0,610001.0,159345.0,160529.0,94952.0,106842.0,64819.0,12295.0,6913.0,3413.0,547.0,346.0
199828,County,2020/03/03,17.0,IL,17161.0,Rock Island County,28046.0,115431.0,587371.0,157060.0,153258.0,80481.0,102070.0,62224.0,14669.0,8705.0,7216.0,1469.0,219.0
203132,County,2020/03/04,17.0,IL,17161.0,Rock Island County,27893.0,115584.0,586247.0,151846.0,153129.0,78515.0,104637.0,62778.0,15818.0,10343.0,7604.0,1407.0,170.0
204697,County,2020/03/05,17.0,IL,17161.0,Rock Island County,26248.0,117229.0,593338.0,155560.0,152712.0,84954.0,101863.0,63985.0,12327.0,12631.0,7918.0,1162.0,226.0
207816,County,2020/03/06,17.0,IL,17161.0,Rock Island County,26425.0,117052.0,628398.0,168484.0,161021.0,87991.0,109213.0,65635.0,14348.0,12039.0,8344.0,1150.0,173.0
212780,County,2020/03/07,17.0,IL,17161.0,Rock Island County,29446.0,114031.0,600037.0,158165.0,168225.0,82481.0,108306.0,51624.0,11595.0,10384.0,7800.0,1294.0,163.0
215891,County,2020/03/08,17.0,IL,17161.0,Rock Island County,32525.0,110952.0,532528.0,144157.0,155458.0,74009.0,89371.0,41339.0,10724.0,8608.0,6785.0,1768.0,309.0
217534,County,2020/03/09,17.0,IL,17161.0,Rock Island County,29877.0,113600.0,548051.0,139086.0,134290.0,78949.0,107113.0,57817.0,13186.0,10760.0,5665.0,973.0,212.0
222284,County,2020/03/10,17.0,IL,17161.0,Rock Island County,27995.0,115482.0,559076.0,138660.0,138470.0,82157.0,102598.0,62214.0,15517.0,11337.0,7098.0,859.0,166.0
223908,County,2020/03/11,17.0,IL,17161.0,Rock Island County,28935.0,114542.0,539001.0,132962.0,138965.0,67662.0,97129.0,59501.0,14983.0,11677.0,12935.0,2873.0,314.0
228653,County,2020/03/12,17.0,IL,17161.0,Rock Island County,29314.0,114163.0,535121.0,144915.0,138836.0,70861.0,85613.0,57500.0,12044.0,10315.0,10892.0,3694.0,451.0
230301,County,2020/03/13,17.0,IL,17161.0,Rock Island County,28348.0,115129.0,573354.0,159199.0,141707.0,69223.0,101131.0,65943.0,12227.0,10320.0,10713.0,2250.0,641.0
233500,County,2020/03/14,17.0,IL,17161.0,Rock Island County,35017.0,108460.0,479958.0,128344.0,131158.0,53000.0,82394.0,52600.0,10027.0,10223.0,8902.0,2545.0,765.0
236687,County,2020/03/15,17.0,IL,17161.0,Rock Island County,40974.0,102503.0,442841.0,113553.0,120498.0,64170.0,80024.0,41075.0,10643.0,6764.0,4487.0,1355.0,272.0
239881,County,2020/03/16,17.0,IL,17161.0,Rock Island County,33452.0,110025.0,549690.0,140729.0,144406.0,75472.0,100916.0,56767.0,13796.0,9636.0,6472.0,1331.0,165.0
244687,County,2020/03/17,17.0,IL,17161.0,Rock Island County,37229.0,106248.0,525974.0,141775.0,131351.0,68183.0,92936.0,60460.0,14621.0,9235.0,6014.0,1192.0,207.0
247795,County,2020/03/18,17.0,IL,17161.0,Rock Island County,40145.0,103332.0,498707.0,121871.0,126286.0,67316.0,87484.0,63853.0,14287.0,9633.0,6424.0,1344.0,209.0
249474,County,2020/03/19,17.0,IL,17161.0,Rock Island County,41866.0,101611.0,487555.0,124365.0,119361.0,66128.0,92485.0,58686.0,12835.0,7309.0,5315.0,878.0,193.0
252659,County,2020/03/20,17.0,IL,17161.0,Rock Island County,41305.0,102172.0,508067.0,131791.0,132670.0,68320.0,91917.0,54031.0,13879.0,8653.0,5413.0,1132.0,261.0
255851,County,2020/03/21,17.0,IL,17161.0,Rock Island County,46450.0,97027.0,432256.0,105615.0,132836.0,60124.0,72090.0,39868.0,9585.0,5641.0,4837.0,1395.0,265.0
260604,County,2020/03/22,17.0,IL,17161.0,Rock Island County,51750.0,91727.0,299243.0,80957.0,88333.0,37339.0,46248.0,28390.0,7216.0,4104.0,5628.0,957.0,71.0
263817,County,2020/03/23,17.0,IL,17161.0,Rock Island County,40412.0,103065.0,394786.0,110269.0,94265.0,50081.0,71304.0,46531.0,9498.0,6956.0,4634.0,1059.0,189.0
265394,County,2020/03/24,17.0,IL,17161.0,Rock Island County,41021.0,102456.0,408857.0,113266.0,97039.0,54536.0,71905.0,47769.0,9542.0,8185.0,5283.0,1157.0,175.0
270195,County,2020/03/25,17.0,IL,17161.0,Rock Island County,40093.0,103384.0,409958.0,112471.0,99424.0,47626.0,77319.0,47278.0,11487.0,7870.0,5381.0,939.0,163.0
271821,County,2020/03/26,17.0,IL,17161.0,Rock Island County,40625.0,102852.0,419731.0,127409.0,99613.0,55195.0,64057.0,48264.0,11367.0,8352.0,4365.0,993.0,116.0
276583,County,2020/03/27,17.0,IL,17161.0,Rock Island County,41056.0,102421.0,436139.0,130534.0,104338.0,56495.0,70340.0,49924.0,10477.0,7712.0,5205.0,1004.0,110.0
278211,County,2020/03/28,17.0,IL,17161.0,Rock Island County,45560.0,97917.0,410705.0,137177.0,106733.0,49388.0,64777.0,38343.0,5467.0,3031.0,4388.0,1232.0,169.0
281404,County,2020/03/29,17.0,IL,17161.0,Rock Island County,50596.0,92881.0,356706.0,114616.0,103806.0,45751.0,51893.0,28710.0,3767.0,3449.0,3645.0,928.0,141.0
284597,County,2020/03/30,17.0,IL,17161.0,Rock Island County,39524.0,103953.0,477379.0,154734.0,115568.0,63271.0,76840.0,43302.0,11167.0,7522.0,3970.0,869.0,136.0
287793,County,2020/03/31,17.0,IL,17161.0,Rock Island County,41834.0,101643.0,456548.0,156113.0,106187.0,55119.0,68242.0,47482.0,10495.0,7631.0,3934.0,1191.0,154.0
291029,County,2020/04/01,17.0,IL,17161.0,Rock Island County,40650.0,102827.0,463584.0,160631.0,111909.0,53647.0,67664.0,47067.0,11322.0,6620.0,3760.0,860.0,104.0
295762,County,2020/04/02,17.0,IL,17161.0,Rock Island County,40681.0,102796.0,445233.0,145873.0,108192.0,53015.0,67315.0,46669.0,10755.0,7584.0,4408.0,1206.0,216.0
298940,County,2020/04/03,17.0,IL,17161.0,Rock Island County,40331.0,103146.0,469157.0,147210.0,113225.0,55556.0,79443.0,51085.0,11145.0,6511.0,3943.0,907.0,132.0
300567,County,2020/04/04,17.0,IL,17161.0,Rock Island County,45692.0,97785.0,390327.0,117166.0,114180.0,47537.0,60586.0,35326.0,5954.0,4881.0,3472.0,1019.0,206.0
305321,County,2020/04/05,17.0,IL,17161.0,Rock Island County,49384.0,94093.0,374398.0,124877.0,105048.0,45328.0,56843.0,30692.0,5026.0,3193.0,2263.0,929.0,199.0
308522,County,2020/04/06,17.0,IL,17161.0,Rock Island County,43015.0,100462.0,432221.0,133734.0,108445.0,54516.0,69230.0,46325.0,9991.0,6589.0,2763.0,562.0,66.0
311762,County,2020/04/07,17.0,IL,17161.0,Rock Island County,42062.0,101415.0,459694.0,145671.0,105350.0,63502.0,75245.0,47541.0,12046.0,6764.0,2768.0,703.0,104.0
313344,County,2020/04/08,17.0,IL,17161.0,Rock Island County,42654.0,100823.0,466690.0,145928.0,111183.0,57947.0,81639.0,49107.0,10511.0,6266.0,3333.0,713.0,63.0
318103,County,2020/04/09,17.0,IL,17161.0,Rock Island County,42078.0,101399.0,454748.0,144361.0,106675.0,60276.0,74534.0,46905.0,11547.0,7228.0,2380.0,743.0,99.0
319789,County,2020/04/10,17.0,IL,17161.0,Rock Island County,40418.0,103059.0,488702.0,143988.0,120305.0,66378.0,87003.0,50714.0,10030.0,6047.0,3260.0,861.0,116.0
322925,County,2020/04/11,17.0,IL,17161.0,Rock Island County,44197.0,99280.0,422453.0,127738.0,114657.0,52429.0,76120.0,34421.0,9115.0,4780.0,2522.0,614.0,57.0
327658,County,2020/04/12,17.0,IL,17161.0,Rock Island County,52213.0,91264.0,336847.0,117727.0,89575.0,45338.0,49507.0,26075.0,3305.0,3026.0,1653.0,528.0,113.0
329335,County,2020/04/13,17.0,IL,17161.0,Rock Island County,43824.0,99653.0,427637.0,119491.0,96823.0,64273.0,83839.0,43599.0,10467.0,6739.0,2119.0,241.0,46.0
334056,County,2020/04/14,17.0,IL,17161.0,Rock Island County,45286.0,98191.0,387887.0,112818.0,95063.0,50826.0,66980.0,38525.0,9200.0,8422.0,4456.0,1501.0,96.0
337309,County,2020/04/15,17.0,IL,17161.0,Rock Island County,43526.0,99951.0,384974.0,117401.0,102481.0,46851.0,63314.0,34208.0,9743.0,5522.0,4265.0,980.0,209.0
340403,County,2020/04/16,17.0,IL,17161.0,Rock Island County,45035.0,98442.0,385931.0,115852.0,95997.0,55912.0,69092.0,33483.0,9047.0,3434.0,2535.0,466.0,113.0
343715,County,2020/04/17,17.0,IL,17161.0,Rock Island County,42543.0,100934.0,373124.0,109221.0,97693.0,48074.0,61962.0,35302.0,7624.0,8248.0,3716.0,837.0,447.0
345293,County,2020/04/18,17.0,IL,17161.0,Rock Island County,47745.0,95732.0,431896.0,131977.0,130192.0,53203.0,65883.0,37584.0,7435.0,2617.0,2365.0,345.0,295.0
348464,County,2020/04/19,17.0,IL,17161.0,Rock Island County,49010.0,94467.0,341329.0,86150.0,109401.0,48036.0,58143.0,25959.0,4672.0,4562.0,3722.0,564.0,120.0
351671,County,2020/04/20,17.0,IL,17161.0,Rock Island County,40972.0,102505.0,414659.0,138384.0,100512.0,45370.0,68054.0,44451.0,8533.0,5127.0,2941.0,1047.0,240.0
354864,County,2020/04/21,17.0,IL,17161.0,Rock Island County,40367.0,103110.0,441526.0,116236.0,105958.0,61898.0,84926.0,51329.0,8734.0,7675.0,3893.0,764.0,113.0
359636,County,2020/04/22,17.0,IL,17161.0,Rock Island County,41060.0,102417.0,440922.0,124440.0,106274.0,59039.0,76986.0,49197.0,12541.0,7466.0,4030.0,847.0,102.0
362841,County,2020/04/23,17.0,IL,17161.0,Rock Island County,39040.0,104437.0,456200.0,121451.0,115674.0,61587.0,86653.0,49300.0,10660.0,6792.0,3175.0,875.0,33.0
366053,County,2020/04/24,17.0,IL,17161.0,Rock Island County,40045.0,103432.0,431385.0,102972.0,110854.0,61627.0,83568.0,48214.0,11846.0,7974.0,3883.0,368.0,79.0
369209,County,2020/04/25,17.0,IL,17161.0,Rock Island County,43071.0,100406.0,403669.0,107227.0,116855.0,52102.0,71698.0,40801.0,7305.0,3834.0,3133.0,676.0,38.0
370799,County,2020/04/26,17.0,IL,17161.0,Rock Island County,44867.0,98610.0,417190.0,119714.0,116566.0,54614.0,74028.0,37307.0,7384.0,4345.0,2618.0,478.0,136.0
375634,County,2020/04/27,17.0,IL,17161.0,Rock Island County,39354.0,104123.0,466731.0,126738.0,123714.0,62899.0,82939.0,48697.0,9747.0,8453.0,2947.0,542.0,55.0
378806,County,2020/04/28,17.0,IL,17161.0,Rock Island County,39161.0,104316.0,458131.0,123232.0,115978.0,61370.0,81143.0,51594.0,13300.0,8117.0,2556.0,779.0,62.0
380432,County,2020/04/29,17.0,IL,17161.0,Rock Island County,40551.0,102926.0,432130.0,112675.0,111546.0,56917.0,77256.0,53724.0,9354.0,7246.0,2687.0,597.0,128.0
385178,County,2020/04/30,17.0,IL,17161.0,Rock Island County,36399.0,107078.0,487063.0,129419.0,125181.0,64897.0,86949.0,57995.0,12293.0,5895.0,3651.0,707.0,76.0
386804,County,2020/05/01,17.0,IL,17161.0,Rock Island County,36575.0,106902.0,515614.0,145474.0,133855.0,70818.0,88391.0,54181.0,11491.0,7283.0,3397.0,631.0,93.0
391564,County,2020/05/02,17.0,IL,17161.0,Rock Island County,39244.0,104233.0,475007.0,126088.0,131756.0,65844.0,84910.0,45001.0,13128.0,4839.0,2625.0,695.0,121.0
393200,County,2020/05/03,17.0,IL,17161.0,Rock Island County,43727.0,99750.0,431151.0,113243.0,127085.0,60034.0,76322.0,37766.0,9244.0,4978.0,1949.0,460.0,70.0
396362,County,2020/05/04,17.0,IL,17161.0,Rock Island County,37214.0,106263.0,492646.0,138763.0,118685.0,73607.0,89141.0,48170.0,13259.0,7204.0,2870.0,826.0,121.0
399581,County,2020/05/05,17.0,IL,17161.0,Rock Island County,39814.0,103663.0,449476.0,109822.0,115689.0,65564.0,83481.0,51588.0,11717.0,7984.0,2753.0,798.0,80.0
402760,County,2020/05/06,17.0,IL,17161.0,Rock Island County,36904.0,106573.0,480356.0,122020.0,122695.0,64762.0,88803.0,56448.0,12444.0,9280.0,3144.0,622.0,138.0
407479,County,2020/05/07,17.0,IL,17161.0,Rock Island County,37008.0,106469.0,497483.0,138642.0,121526.0,71068.0,87150.0,54089.0,12675.0,7636.0,3833.0,716.0,148.0
410791,County,2020/05/08,17.0,IL,17161.0,Rock Island County,37108.0,106369.0,522460.0,128008.0,142370.0,77479.0,94860.0,56764.0,12246.0,6395.0,3844.0,416.0,78.0
413890,County,2020/05/09,17.0,IL,17161.0,Rock Island County,39810.0,103667.0,490632.0,126202.0,141006.0,67726.0,90631.0,45878.0,11317.0,4769.0,2518.0,515.0,70.0
415551,County,2020/05/10,17.0,IL,17161.0,Rock Island County,44274.0,99203.0,384111.0,90142.0,120858.0,52327.0,68745.0,35589.0,8022.0,4555.0,2940.0,736.0,197.0
418745,County,2020/05/11,17.0,IL,17161.0,Rock Island County,34231.0,109246.0,504723.0,138648.0,122644.0,68698.0,92445.0,55991.0,14963.0,7525.0,3126.0,500.0,183.0
423602,County,2020/05/12,17.0,IL,17161.0,Rock Island County,33559.0,109918.0,513332.0,142762.0,132298.0,67931.0,87936.0,56610.0,13244.0,7940.0,3851.0,654.0,106.0
426651,County,2020/05/13,17.0,IL,17161.0,Rock Island County,35059.0,108418.0,482916.0,134702.0,113302.0,70887.0,86134.0,52348.0,11956.0,8489.0,4369.0,563.0,166.0
428377,County,2020/05/14,17.0,IL,17161.0,Rock Island County,33642.0,109835.0,459586.0,128320.0,114846.0,59030.0,80930.0,49960.0,13242.0,7732.0,4458.0,822.0,246.0
431523,County,2020/05/15,17.0,IL,17161.0,Rock Island County,32579.0,110898.0,520278.0,138322.0,127980.0,70528.0,96518.0,56168.0,15913.0,8940.0,4805.0,867.0,237.0
434746,County,2020/05/16,17.0,IL,17161.0,Rock Island County,35203.0,108274.0,480196.0,135033.0,126530.0,61238.0,86701.0,46685.0,10797.0,7413.0,4904.0,644.0,251.0
439429,County,2020/05/17,17.0,IL,17161.0,Rock Island County,38856.0,104621.0,419572.0,119924.0,100491.0,62616.0,76613.0,40923.0,9402.0,4936.0,3749.0,793.0,125.0
442720,County,2020/05/18,17.0,IL,17161.0,Rock Island County,29398.0,114079.0,529314.0,136102.0,135315.0,71802.0,100317.0,58007.0,15142.0,7906.0,3969.0,711.0,43.0
444298,County,2020/05/19,17.0,IL,17161.0,Rock Island County,29804.0,113673.0,541210.0,142931.0,129194.0,71410.0,101476.0,61981.0,18588.0,10763.0,3911.0,913.0,43.0
449059,County,2020/05/20,17.0,IL,17161.0,Rock Island County,29239.0,114238.0,535551.0,140709.0,129254.0,73622.0,96436.0,61388.0,18550.0,9571.0,4857.0,1120.0,44.0
450685,County,2020/05/21,17.0,IL,17161.0,Rock Island County,27204.0,116273.0,569884.0,153574.0,138322.0,81320.0,100314.0,62934.0,15735.0,9803.0,6629.0,1154.0,99.0
455444,County,2020/05/22,17.0,IL,17161.0,Rock Island County,27000.0,116477.0,588073.0,159824.0,147448.0,78321.0,105436.0,65172.0,14659.0,10285.0,5803.0,1001.0,124.0
458656,County,2020/05/23,17.0,IL,17161.0,Rock Island County,30879.0,112598.0,535593.0,154398.0,133686.0,72447.0,92057.0,55340.0,11444.0,8466.0,6375.0,1291.0,89.0
461811,County,2020/05/24,17.0,IL,17161.0,Rock Island County,37176.0,106301.0,429271.0,115408.0,113738.0,61922.0,74347.0,40817.0,9090.0,5944.0,7285.0,490.0,230.0
465113,County,2020/05/25,17.0,IL,17161.0,Rock Island County,38585.0,104892.0,424168.0,109706.0,116000.0,60152.0,74227.0,37366.0,11109.0,6964.0,7696.0,793.0,155.0
466592,County,2020/05/26,17.0,IL,17161.0,Rock Island County,33299.0,110178.0,498451.0,135066.0,124554.0,67915.0,90541.0,52689.0,12500.0,8006.0,5972.0,1074.0,134.0
471461,County,2020/05/27,17.0,IL,17161.0,Rock Island County,33345.0,110132.0,511175.0,141632.0,129239.0,73022.0,87639.0,54664.0,10612.0,7733.0,5410.0,1115.0,109.0
474561,County,2020/05/28,17.0,IL,17161.0,Rock Island County,33465.0,110012.0,492784.0,136506.0,121474.0,68811.0,88291.0,52350.0,10864.0,8062.0,5114.0,1210.0,102.0
477799,County,2020/05/29,17.0,IL,17161.0,Rock Island County,35548.0,107929.0,518629.0,142573.0,129170.0,71399.0,93027.0,53848.0,14054.0,7967.0,5405.0,1118.0,68.0
480999,County,2020/05/30,17.0,IL,17161.0,Rock Island County,36919.0,106558.0,492631.0,133222.0,127794.0,69241.0,89853.0,48643.0,11447.0,7170.0,4153.0,1030.0,78.0
484143,County,2020/05/31,17.0,IL,17161.0,Rock Island County,41336.0,102141.0,449250.0,128984.0,121659.0,64285.0,75709.0,36916.0,9526.0,6279.0,4611.0,1150.0,131.0
487494,County,2020/06/01,17.0,IL,17161.0,Rock Island County,36048.0,107429.0,479398.0,144316.0,127098.0,61549.0,78022.0,46009.0,10516.0,6299.0,4395.0,1071.0,123.0
490552,County,2020/06/02,17.0,IL,17161.0,Rock Island County,37722.0,105755.0,469754.0,128164.0,121368.0,59715.0,84293.0,50011.0,12742.0,7716.0,4580.0,1018.0,147.0
493775,County,2020/06/03,17.0,IL,17161.0,Rock Island County,33145.0,110332.0,502322.0,132815.0,124541.0,69824.0,91534.0,55053.0,14332.0,7585.0,5164.0,1222.0,252.0
495392,County,2020/06/04,17.0,IL,17161.0,Rock Island County,31472.0,112005.0,508760.0,144654.0,125760.0,67844.0,91273.0,52987.0,12075.0,6841.0,5845.0,1270.0,211.0
500169,County,2020/06/05,17.0,IL,17161.0,Rock Island County,31915.0,111562.0,548337.0,148218.0,139411.0,75289.0,100096.0,56718.0,13374.0,8718.0,4903.0,1429.0,181.0
501792,County,2020/06/06,17.0,IL,17161.0,Rock Island County,35276.0,108201.0,468965.0,119030.0,128076.0,68315.0,86680.0,44583.0,9778.0,6949.0,3879.0,1448.0,227.0
504984,County,2020/06/07,17.0,IL,17161.0,Rock Island County,36228.0,107249.0,469372.0,118060.0,131372.0,71523.0,85354.0,41625.0,9738.0,6387.0,3841.0,1163.0,309.0
508158,County,2020/06/08,17.0,IL,17161.0,Rock Island County,29018.0,114459.0,566225.0,151741.0,147526.0,81334.0,102476.0,58292.0,11138.0,8634.0,3942.0,1044.0,98.0
512935,County,2020/06/09,17.0,IL,17161.0,Rock Island County,33357.0,110120.0,469767.0,120383.0,113799.0,64572.0,92923.0,54189.0,10422.0,7524.0,4765.0,1086.0,104.0
514567,County,2020/06/10,17.0,IL,17161.0,Rock Island County,30938.0,112539.0,503657.0,131085.0,124821.0,72649.0,96215.0,52987.0,11230.0,7152.0,6208.0,1212.0,98.0
517770,County,2020/06/11,17.0,IL,17161.0,Rock Island County,30939.0,112538.0,536973.0,139526.0,141063.0,74231.0,95329.0,57815.0,13289.0,8448.0,6010.0,1146.0,116.0
522570,County,2020/06/12,17.0,IL,17161.0,Rock Island County,31520.0,111957.0,549395.0,143002.0,139126.0,77848.0,99360.0,61727.0,12553.0,8695.0,5922.0,1090.0,72.0
525708,County,2020/06/13,17.0,IL,17161.0,Rock Island County,33594.0,109883.0,536031.0,153622.0,139486.0,71434.0,93322.0,54016.0,11207.0,6767.0,4630.0,1439.0,108.0
527343,County,2020/06/14,17.0,IL,17161.0,Rock Island County,38288.0,105189.0,469652.0,147465.0,119565.0,60557.0,74564.0,42707.0,10695.0,7214.0,5346.0,1378.0,161.0
530541,County,2020/06/15,17.0,IL,17161.0,Rock Island County,34541.0,108936.0,495324.0,144977.0,122834.0,68481.0,83765.0,50246.0,11212.0,8323.0,4255.0,1044.0,187.0
533730,County,2020/06/16,17.0,IL,17161.0,Rock Island County,34117.0,109360.0,511281.0,145509.0,126800.0,71378.0,87950.0,53913.0,12426.0,8306.0,3825.0,1047.0,127.0
538490,County,2020/06/17,17.0,IL,17161.0,Rock Island County,33054.0,110423.0,522041.0,145057.0,132158.0,67675.0,92767.0,55703.0,14276.0,8569.0,4813.0,812.0,211.0
541685,County,2020/06/18,17.0,IL,17161.0,Rock Island County,32320.0,111157.0,512041.0,140480.0,126454.0,70863.0,93358.0,53920.0,11623.0,9259.0,5008.0,961.0,115.0
543312,County,2020/06/19,17.0,IL,17161.0,Rock Island County,32132.0,111345.0,503926.0,129934.0,127959.0,72272.0,91554.0,55333.0,14205.0,7230.0,4043.0,1184.0,212.0
546517,County,2020/06/20,17.0,IL,17161.0,Rock Island County,35623.0,107854.0,473494.0,131230.0,124258.0,64905.0,79710.0,49011.0,10921.0,8442.0,3903.0,879.0,235.0
551259,County,2020/06/21,17.0,IL,17161.0,Rock Island County,39874.0,103603.0,439417.0,125650.0,113927.0,60343.0,74307.0,42779.0,10752.0,6810.0,3885.0,755.0,209.0
552896,County,2020/06/22,17.0,IL,17161.0,Rock Island County,35988.0,107489.0,426329.0,110189.0,107325.0,59742.0,77210.0,48142.0,9032.0,8169.0,4876.0,1412.0,232.0
557655,County,2020/06/23,17.0,IL,17161.0,Rock Island County,32864.0,110613.0,509733.0,138416.0,129346.0,71937.0,89047.0,53494.0,12871.0,8474.0,4707.0,1356.0,85.0
559288,County,2020/06/24,17.0,IL,17161.0,Rock Island County,34806.0,108671.0,466998.0,123540.0,113164.0,66771.0,82507.0,52887.0,12977.0,8846.0,4957.0,1255.0,94.0
562476,County,2020/06/25,17.0,IL,17161.0,Rock Island County,33337.0,110140.0,497372.0,135583.0,120118.0,68388.0,90849.0,54013.0,11855.0,9546.0,5297.0,1574.0,149.0
567320,County,2020/06/26,17.0,IL,17161.0,Rock Island County,33258.0,110219.0,496045.0,135373.0,122492.0,70370.0,87934.0,51846.0,12316.0,8310.0,5782.0,1458.0,164.0
570421,County,2020/06/27,17.0,IL,17161.0,Rock Island County,35016.0,108461.0,496217.0,136339.0,128405.0,67626.0,87906.0,50047.0,11515.0,8848.0,4387.0,936.0,208.0
572060,County,2020/06/28,17.0,IL,17161.0,Rock Island County,37908.0,105569.0,455929.0,128534.0,120793.0,63121.0,75369.0,40717.0,11569.0,9035.0,5106.0,1558.0,127.0
576785,County,2020/06/29,17.0,IL,17161.0,Rock Island County,35024.0,108453.0,488036.0,131480.0,122049.0,66287.0,87484.0,52968.0,11897.0,8735.0,5239.0,1721.0,176.0
580034,County,2020/06/30,17.0,IL,17161.0,Rock Island County,33283.0,110194.0,480308.0,130211.0,121147.0,64125.0,85364.0,51723.0,12428.0,8329.0,5138.0,1436.0,407.0
583227,County,2020/07/01,17.0,IL,17161.0,Rock Island County,33156.0,110321.0,491217.0,134443.0,125144.0,64263.0,82591.0,54266.0,13850.0,9482.0,5522.0,1465.0,191.0
586416,County,2020/07/02,17.0,IL,17161.0,Rock Island County,35731.0,107746.0,527912.0,143908.0,127494.0,72587.0,96427.0,57330.0,12583.0,10132.0,5622.0,1671.0,158.0
588052,County,2020/07/03,17.0,IL,17161.0,Rock Island County,38232.0,105245.0,493251.0,134610.0,121802.0,69974.0,87439.0,51554.0,12247.0,8263.0,5749.0,1450.0,163.0
592803,County,2020/07/04,17.0,IL,17161.0,Rock Island County,41266.0,102211.0,421987.0,115162.0,104204.0,59864.0,74806.0,44106.0,10477.0,7069.0,4919.0,1240.0,140.0
594452,County,2020/07/05,17.0,IL,17161.0,Rock Island County,39292.0,104185.0,435353.0,135481.0,106701.0,57181.0,67480.0,43627.0,12080.0,7489.0,3795.0,1223.0,296.0
599128,County,2020/07/06,17.0,IL,17161.0,Rock Island County,35879.0,107598.0,471854.0,128925.0,114775.0,65728.0,87901.0,46865.0,10620.0,10161.0,5349.0,1213.0,317.0
600803,County,2020/07/07,17.0,IL,17161.0,Rock Island County,34226.0,109251.0,452854.0,111079.0,114186.0,64568.0,86920.0,47981.0,12479.0,8032.0,6010.0,1332.0,267.0
605514,County,2020/07/08,17.0,IL,17161.0,Rock Island County,34675.0,108802.0,463825.0,128086.0,111557.0,64081.0,84880.0,49000.0,10735.0,7962.0,5616.0,1595.0,313.0
608768,County,2020/07/09,17.0,IL,17161.0,Rock Island County,33312.0,110165.0,483569.0,136035.0,108266.0,63884.0,91769.0,55254.0,13678.0,6285.0,6409.0,1781.0,208.0
610391,County,2020/07/10,17.0,IL,17161.0,Rock Island County,33042.0,110435.0,502090.0,131810.0,123583.0,72190.0,93535.0,51563.0,11544.0,9466.0,6864.0,1288.0,247.0
615189,County,2020/07/11,17.0,IL,17161.0,Rock Island County,35760.0,107717.0,470122.0,139180.0,117637.0,61540.0,79767.0,46522.0,9304.0,7971.0,6140.0,1692.0,369.0
616773,County,2020/07/12,17.0,IL,17161.0,Rock Island County,39846.0,103631.0,419185.0,117993.0,111465.0,54629.0,72123.0,39933.0,9280.0,6530.0,5599.0,1315.0,318.0
619963,County,2020/07/13,17.0,IL,17161.0,Rock Island County,36179.0,107298.0,468059.0,126002.0,116940.0,68020.0,82605.0,48967.0,12428.0,7017.0,4504.0,1322.0,254.0
624727,County,2020/07/14,17.0,IL,17161.0,Rock Island County,35882.0,107595.0,460795.0,119963.0,118562.0,63659.0,81909.0,50748.0,12909.0,7149.0,4614.0,1138.0,144.0
627900,County,2020/07/15,17.0,IL,17161.0,Rock Island County,36364.0,107113.0,436437.0,111383.0,108807.0,57762.0,81831.0,52754.0,11443.0,6535.0,4658.0,1102.0,162.0
629526,County,2020/07/16,17.0,IL,17161.0,Rock Island County,36697.0,106780.0,474437.0,131788.0,111353.0,62179.0,85781.0,54406.0,15140.0,7866.0,4755.0,1041.0,128.0
634260,County,2020/07/17,17.0,IL,17161.0,Rock Island County,35780.0,107697.0,479406.0,128758.0,116895.0,61160.0,86724.0,55800.0,14477.0,9437.0,4919.0,1003.0,233.0
635938,County,2020/07/18,17.0,IL,17161.0,Rock Island County,40359.0,103118.0,449903.0,126150.0,112361.0,62783.0,76302.0,47305.0,11842.0,6555.0,5157.0,1164.0,284.0
639142,County,2020/07/19,17.0,IL,17161.0,Rock Island County,42290.0,101187.0,388690.0,105254.0,94725.0,55033.0,70886.0,37693.0,11999.0,7477.0,4352.0,1047.0,224.0
642327,County,2020/07/20,17.0,IL,17161.0,Rock Island County,37693.0,105784.0,440894.0,113431.0,114442.0,58282.0,79393.0,47565.0,14351.0,8239.0,3773.0,1285.0,133.0
647567,County,2020/07/21,17.0,IL,17161.0,Rock Island County,36836.0,106641.0,439272.0,113352.0,106317.0,55938.0,80228.0,54719.0,13603.0,8182.0,5477.0,1289.0,167.0
649757,County,2020/07/22,17.0,IL,17161.0,Rock Island County,36118.0,107359.0,458342.0,116493.0,115499.0,63570.0,81282.0,53004.0,14041.0,7891.0,5282.0,1014.0,266.0
653476,County,2020/07/23,17.0,IL,17161.0,Rock Island County,36234.0,107243.0,458131.0,119681.0,112245.0,62242.0,82269.0,52106.0,14277.0,8395.0,5527.0,1077.0,312.0
654994,County,2020/07/24,17.0,IL,17161.0,Rock Island County,34321.0,109156.0,486727.0,119020.0,122760.0,68146.0,91666.0,55645.0,13072.0,8478.0,6567.0,1134.0,239.0
658291,County,2020/07/25,17.0,IL,17161.0,Rock Island County,39048.0,104429.0,442859.0,120947.0,112671.0,57991.0,76922.0,49951.0,10157.0,7912.0,5364.0,724.0,220.0
661490,County,2020/07/26,17.0,IL,17161.0,Rock Island County,40786.0,102691.0,438255.0,113817.0,112871.0,60481.0,73682.0,46686.0,12699.0,9322.0,7107.0,1177.0,413.0
666318,County,2020/07/27,17.0,IL,17161.0,Rock Island County,38547.0,104930.0,452278.0,117240.0,102863.0,60999.0,85451.0,55969.0,12430.0,8839.0,7094.0,1065.0,328.0
669521,County,2020/07/28,17.0,IL,17161.0,Rock Island County,36681.0,106796.0,494754.0,132224.0,117033.0,69648.0,88161.0,57375.0,13042.0,9055.0,6719.0,1181.0,316.0
671056,County,2020/07/29,17.0,IL,17161.0,Rock Island County,37075.0,106402.0,482596.0,128913.0,114083.0,64575.0,87556.0,56791.0,13189.0,9567.0,6189.0,1366.0,367.0
674266,County,2020/07/30,17.0,IL,17161.0,Rock Island County,35942.0,107535.0,474650.0,114654.0,116595.0,65832.0,89966.0,58142.0,11992.0,8629.0,6980.0,1597.0,263.0
677467,County,2020/07/31,17.0,IL,17161.0,Rock Island County,36474.0,107003.0,489825.0,124666.0,124035.0,65736.0,90440.0,52981.0,12981.0,10914.0,6477.0,1328.0,267.0
682165,County,2020/08/01,17.0,IL,17161.0,Rock Island County,40697.0,102780.0,457488.0,119037.0,123074.0,62138.0,80393.0,44022.0,10100.0,9915.0,6932.0,1645.0,232.0
685405,County,2020/08/02,17.0,IL,17161.0,Rock Island County,41318.0,102159.0,437702.0,116131.0,113442.0,57975.0,81041.0,43359.0,10469.0,7006.0,6869.0,1242.0,168.0
687043,County,2020/08/03,17.0,IL,17161.0,Rock Island County,36832.0,106645.0,483227.0,119436.0,124535.0,60566.0,91890.0,56634.0,15124.0,9370.0,4464.0,964.0,244.0
691819,County,2020/08/04,17.0,IL,17161.0,Rock Island County,34446.0,109031.0,519760.0,138372.0,130284.0,69461.0,94773.0,59423.0,12990.0,8439.0,4705.0,1066.0,247.0
694995,County,2020/08/05,17.0,IL,17161.0,Rock Island County,34346.0,109131.0,529735.0,150098.0,133841.0,70700.0,91015.0,54918.0,13749.0,8904.0,4939.0,1432.0,139.0
698190,County,2020/08/06,17.0,IL,17161.0,Rock Island County,33689.0,109788.0,520386.0,144884.0,122951.0,68029.0,97494.0,57197.0,14055.0,9114.0,5303.0,1185.0,174.0
699817,County,2020/08/07,17.0,IL,17161.0,Rock Island County,34213.0,109264.0,540527.0,142243.0,136396.0,74176.0,99536.0,56441.0,14162.0,10906.0,5559.0,991.0,117.0
703015,County,2020/08/08,17.0,IL,17161.0,Rock Island County,37056.0,106421.0,462189.0,122544.0,114925.0,63844.0,85792.0,48323.0,10969.0,9329.0,5334.0,983.0,146.0
706205,County,2020/08/09,17.0,IL,17161.0,Rock Island County,39436.0,104041.0,452915.0,114199.0,127390.0,61617.0,78772.0,44454.0,11291.0,8798.0,5096.0,1177.0,121.0
709426,County,2020/08/10,17.0,IL,17161.0,Rock Island County,34543.0,108934.0,476034.0,119204.0,124184.0,67016.0,89464.0,49540.0,11203.0,8993.0,5254.0,954.0,222.0
712594,County,2020/08/11,17.0,IL,17161.0,Rock Island County,33876.0,109601.0,543995.0,138499.0,143824.0,76726.0,98889.0,57586.0,13187.0,9095.0,5507.0,472.0,210.0
715789,County,2020/08/12,17.0,IL,17161.0,Rock Island County,34021.0,109456.0,525789.0,133291.0,139783.0,74050.0,91252.0,57093.0,13456.0,8850.0,6340.0,1178.0,496.0
718982,County,2020/08/13,17.0,IL,17161.0,Rock Island County,32868.0,110609.0,520688.0,126785.0,133416.0,73649.0,102005.0,53854.0,12530.0,10006.0,6317.0,1549.0,577.0
722175,County,2020/08/14,17.0,IL,17161.0,Rock Island County,31294.0,112183.0,552581.0,137166.0,143270.0,76462.0,105547.0,56949.0,13893.0,10383.0,7034.0,1344.0,533.0
725405,County,2020/08/15,17.0,IL,17161.0,Rock Island County,34822.0,108655.0,501255.0,128413.0,126699.0,72178.0,89242.0,52905.0,14456.0,8933.0,6228.0,1509.0,692.0
728565,County,2020/08/16,17.0,IL,17161.0,Rock Island County,39125.0,104352.0,449381.0,108120.0,120530.0,59327.0,81770.0,48284.0,13075.0,8407.0,7210.0,1615.0,1043.0
733346,County,2020/08/17,17.0,IL,17161.0,Rock Island County,38275.0,105202.0,492101.0,113941.0,123306.0,71441.0,97362.0,54836.0,13583.0,8740.0,6216.0,1818.0,858.0
736518,County,2020/08/18,17.0,IL,17161.0,Rock Island County,36781.0,106696.0,488775.0,116147.0,121814.0,66715.0,91926.0,56399.0,14205.0,10774.0,8167.0,1632.0,996.0
739712,County,2020/08/19,17.0,IL,17161.0,Rock Island County,35647.0,107830.0,515035.0,131111.0,130408.0,69808.0,94690.0,57070.0,13970.0,8421.0,7319.0,1318.0,920.0
741340,County,2020/08/20,17.0,IL,17161.0,Rock Island County,33753.0,109724.0,505527.0,127748.0,125744.0,67378.0,95938.0,54915.0,14275.0,10350.0,6691.0,1516.0,972.0
744540,County,2020/08/21,17.0,IL,17161.0,Rock Island County,31900.0,111577.0,526607.0,116802.0,138165.0,75808.0,103039.0,60441.0,15236.0,8550.0,5956.0,1797.0,813.0
747745,County,2020/08/22,17.0,IL,17161.0,Rock Island County,34823.0,108654.0,504642.0,124063.0,132331.0,70292.0,89180.0,56575.0,12548.0,11076.0,6443.0,1217.0,917.0
750938,County,2020/08/23,17.0,IL,17161.0,Rock Island County,41626.0,101851.0,390633.0,90255.0,107494.0,57337.0,72943.0,37808.0,10520.0,7553.0,4937.0,986.0,800.0
755681,County,2020/08/24,17.0,IL,17161.0,Rock Island County,39710.0,103767.0,425938.0,101715.0,108483.0,62293.0,85515.0,43262.0,9940.0,7914.0,5163.0,985.0,668.0
757310,County,2020/08/25,17.0,IL,17161.0,Rock Island County,37983.0,105494.0,445412.0,107440.0,114119.0,61445.0,86693.0,48740.0,12476.0,8081.0,4646.0,1116.0,656.0
762033,County,2020/08/26,17.0,IL,17161.0,Rock Island County,38632.0,104845.0,427425.0,99913.0,109534.0,61606.0,84430.0,47657.0,10913.0,7345.0,4489.0,1068.0,470.0
763661,County,2020/08/27,17.0,IL,17161.0,Rock Island County,38832.0,104645.0,446294.0,109782.0,115904.0,59478.0,87190.0,49122.0,10383.0,7429.0,5676.0,959.0,371.0
768444,County,2020/08/28,17.0,IL,17161.0,Rock Island County,37379.0,106098.0,466155.0,108874.0,120051.0,69201.0,88336.0,53066.0,11904.0,7387.0,5838.0,1112.0,386.0
771644,County,2020/08/29,17.0,IL,17161.0,Rock Island County,38806.0,104671.0,462692.0,111552.0,121613.0,67739.0,84540.0,49504.0,12969.0,8352.0,4900.0,1062.0,461.0
774863,County,2020/08/30,17.0,IL,17161.0,Rock Island County,43457.0,100020.0,417245.0,114339.0,105496.0,57198.0,71912.0,42281.0,9507.0,8081.0,6127.0,1770.0,534.0
776472,County,2020/08/31,17.0,IL,17161.0,Rock Island County,39696.0,103781.0,431234.0,111033.0,107662.0,57749.0,81506.0,46600.0,9815.0,8424.0,6561.0,1380.0,504.0
781251,County,2020/09/01,17.0,IL,17161.0,Rock Island County,39686.0,103791.0,441697.0,113893.0,102813.0,62008.0,83917.0,52927.0,10888.0,7489.0,6248.0,1209.0,305.0
782858,County,2020/09/02,17.0,IL,17161.0,Rock Island County,39372.0,104105.0,475022.0,123578.0,117267.0,67470.0,85453.0,52176.0,12137.0,8512.0,7011.0,1008.0,410.0
786006,County,2020/09/03,17.0,IL,17161.0,Rock Island County,35582.0,107895.0,571044.0,186695.0,133470.0,68862.0,99675.0,52432.0,12001.0,9503.0,6725.0,1223.0,458.0
790837,County,2020/09/04,17.0,IL,17161.0,Rock Island County,38050.0,105427.0,508485.0,130704.0,132439.0,67282.0,94862.0,51955.0,12745.0,9817.0,6708.0,1661.0,312.0
792342,County,2020/09/05,17.0,IL,17161.0,Rock Island County,38426.0,105051.0,485157.0,131009.0,122521.0,69997.0,85043.0,46298.0,12688.0,9635.0,6368.0,1288.0,310.0
797183,County,2020/09/06,17.0,IL,17161.0,Rock Island County,44226.0,99251.0,387873.0,98548.0,97923.0,52816.0,74841.0,37325.0,10699.0,7979.0,6252.0,1069.0,421.0
798841,County,2020/09/07,17.0,IL,17161.0,Rock Island County,45443.0,98034.0,380664.0,93588.0,100190.0,54271.0,66890.0,37423.0,11337.0,7999.0,6803.0,1743.0,420.0
803592,County,2020/09/08,17.0,IL,17161.0,Rock Island County,40694.0,102783.0,439093.0,102661.0,119339.0,61393.0,86475.0,43811.0,11056.0,6695.0,5981.0,1251.0,431.0
805219,County,2020/09/09,17.0,IL,17161.0,Rock Island County,39451.0,104026.0,454248.0,103204.0,119439.0,64833.0,90782.0,48929.0,11906.0,7487.0,6188.0,1193.0,287.0
809989,County,2020/09/10,17.0,IL,17161.0,Rock Island County,39522.0,103955.0,435483.0,104197.0,110796.0,58892.0,84448.0,48613.0,11820.0,8370.0,6636.0,1430.0,281.0
811618,County,2020/09/11,17.0,IL,17161.0,Rock Island County,38183.0,105294.0,472390.0,107831.0,126123.0,69699.0,90276.0,49848.0,12474.0,7886.0,6555.0,1452.0,246.0
816369,County,2020/09/12,17.0,IL,17161.0,Rock Island County,41530.0,101947.0,429304.0,98437.0,121666.0,61338.0,79899.0,45347.0,8986.0,6485.0,5727.0,1208.0,211.0
819551,County,2020/09/13,17.0,IL,17161.0,Rock Island County,43736.0,99741.0,401212.0,97225.0,111828.0,53403.0,74379.0,38637.0,11456.0,7477.0,5038.0,1415.0,354.0
822756,County,2020/09/14,17.0,IL,17161.0,Rock Island County,39861.0,103616.0,475678.0,119664.0,118925.0,69000.0,90784.0,48023.0,13166.0,8601.0,6105.0,993.0,417.0
824385,County,2020/09/15,17.0,IL,17161.0,Rock Island County,39271.0,104206.0,478267.0,119019.0,122848.0,67850.0,89391.0,51859.0,12384.0,6964.0,6559.0,1104.0,289.0
827577,County,2020/09/16,17.0,IL,17161.0,Rock Island County,39403.0,104074.0,481780.0,112449.0,122723.0,72933.0,93843.0,51410.0,13462.0,7877.0,5461.0,1236.0,386.0
830771,County,2020/09/17,17.0,IL,17161.0,Rock Island County,38718.0,104759.0,491687.0,115414.0,125022.0,70985.0,98383.0,53324.0,12284.0,8002.0,6568.0,1354.0,351.0
835532,County,2020/09/18,17.0,IL,17161.0,Rock Island County,37419.0,106058.0,504259.0,115070.0,135039.0,76838.0,96938.0,50530.0,12708.0,8171.0,7172.0,1427.0,366.0
837160,County,2020/09/19,17.0,IL,17161.0,Rock Island County,40183.0,103294.0,502239.0,124141.0,127436.0,67792.0,98314.0,53205.0,13341.0,10239.0,6502.0,1017.0,252.0
841936,County,2020/09/20,17.0,IL,17161.0,Rock Island County,41493.0,101984.0,398592.0,97817.0,105515.0,56154.0,76150.0,39031.0,8415.0,8616.0,5471.0,1166.0,257.0
845140,County,2020/09/21,17.0,IL,17161.0,Rock Island County,43539.0,99938.0,421140.0,100275.0,109180.0,57506.0,84366.0,45424.0,12679.0,6903.0,3711.0,967.0,129.0
848308,County,2020/09/22,17.0,IL,17161.0,Rock Island County,39508.0,103969.0,445505.0,107738.0,118029.0,63709.0,83527.0,49085.0,10373.0,7574.0,4426.0,932.0,112.0
849935,County,2020/09/23,17.0,IL,17161.0,Rock Island County,36330.0,107147.0,478061.0,114073.0,123604.0,67786.0,92736.0,53555.0,14421.0,6926.0,4020.0,803.0,137.0
854702,County,2020/09/24,17.0,IL,17161.0,Rock Island County,36854.0,106623.0,480356.0,115838.0,118719.0,69707.0,95345.0,53438.0,12263.0,8762.0,5306.0,831.0,147.0
856331,County,2020/09/25,17.0,IL,17161.0,Rock Island County,35094.0,108383.0,515262.0,130896.0,128773.0,72204.0,100805.0,55067.0,14673.0,7095.0,4622.0,982.0,145.0
859517,County,2020/09/26,17.0,IL,17161.0,Rock Island County,38417.0,105060.0,482357.0,114080.0,129847.0,66684.0,93373.0,52177.0,13653.0,8127.0,3369.0,873.0,174.0
864264,County,2020/09/27,17.0,IL,17161.0,Rock Island County,42999.0,100478.0,409489.0,99521.0,110846.0,52390.0,78656.0,43129.0,11990.0,7147.0,4485.0,1199.0,126.0
867472,County,2020/09/28,17.0,IL,17161.0,Rock Island County,39338.0,104139.0,458066.0,106329.0,118790.0,69417.0,88940.0,51224.0,11317.0,7799.0,3272.0,921.0,57.0
869100,County,2020/09/29,17.0,IL,17161.0,Rock Island County,37058.0,106419.0,452976.0,107170.0,114712.0,65934.0,89909.0,48212.0,13286.0,8128.0,4513.0,1022.0,90.0
873879,County,2020/09/30,17.0,IL,17161.0,Rock Island County,36944.0,106533.0,471032.0,104275.0,123251.0,66931.0,95173.0,52609.0,14118.0,8856.0,4846.0,898.0,75.0
877033,County,2020/10/01,17.0,IL,17161.0,Rock Island County,34478.0,108999.0,474772.0,112838.0,115437.0,73299.0,91819.0,53061.0,14315.0,8132.0,4608.0,1149.0,114.0
878661,County,2020/10/02,17.0,IL,17161.0,Rock Island County,37288.0,106189.0,480767.0,115190.0,120791.0,70977.0,91749.0,53084.0,14638.0,7709.0,5586.0,945.0,98.0
881876,County,2020/10/03,17.0,IL,17161.0,Rock Island County,40780.0,102697.0,447834.0,107743.0,111407.0,59929.0,91156.0,49770.0,12734.0,8291.0,5702.0,940.0,162.0
885049,County,2020/10/04,17.0,IL,17161.0,Rock Island County,44147.0,99330.0,390804.0,90506.0,103817.0,57710.0,73566.0,40276.0,11455.0,8124.0,4546.0,682.0,122.0
888575,County,2020/10/05,17.0,IL,17161.0,Rock Island County,42423.0,101054.0,429905.0,102761.0,112488.0,61345.0,83357.0,45351.0,11862.0,7284.0,4457.0,908.0,92.0
891942,County,2020/10/06,17.0,IL,17161.0,Rock Island County,39347.0,104130.0,456097.0,107472.0,117112.0,64076.0,91771.0,50626.0,12097.0,7487.0,4864.0,508.0,84.0
894987,County,2020/10/07,17.0,IL,17161.0,Rock Island County,38077.0,105400.0,508798.0,124334.0,132411.0,69909.0,95462.0,58581.0,14253.0,8331.0,4783.0,634.0,100.0
898170,County,2020/10/08,17.0,IL,17161.0,Rock Island County,37975.0,105502.0,467424.0,108395.0,121904.0,62516.0,93840.0,51198.0,15795.0,8066.0,4907.0,671.0,132.0
901361,County,2020/10/09,17.0,IL,17161.0,Rock Island County,38855.0,104622.0,482089.0,102600.0,130694.0,70875.0,94163.0,53035.0,14626.0,9426.0,5948.0,646.0,76.0
904531,County,2020/10/10,17.0,IL,17161.0,Rock Island County,41245.0,102232.0,465216.0,109992.0,123955.0,66415.0,85563.0,48807.0,14776.0,10472.0,4612.0,561.0,63.0
910199,County,2020/10/11,17.0,IL,17161.0,Rock Island County,41149.0,102328.0,395736.0,94436.0,102176.0,55218.0,75387.0,38202.0,13119.0,10472.0,6095.0,558.0,73.0
913020,County,2020/10/12,17.0,IL,17161.0,Rock Island County,41102.0,102375.0,430302.0,103297.0,114315.0,57304.0,84831.0,47212.0,10146.0,7340.0,5187.0,599.0,71.0
916372,County,2020/10/13,17.0,IL,17161.0,Rock Island County,38109.0,105368.0,466812.0,111363.0,123645.0,61293.0,92343.0,51271.0,11944.0,8870.0,5208.0,796.0,79.0
919162,County,2020/10/14,17.0,IL,17161.0,Rock Island County,36081.0,107396.0,458306.0,107648.0,118760.0,63099.0,89373.0,52524.0,11195.0,9558.0,5346.0,692.0,111.0
922735,County,2020/10/15,17.0,IL,17161.0,Rock Island County,37959.0,105518.0,447551.0,108493.0,113259.0,61138.0,87209.0,49759.0,11177.0,9766.0,5836.0,790.0,124.0
925309,County,2020/10/16,17.0,IL,17161.0,Rock Island County,35886.0,107591.0,488154.0,113272.0,129777.0,66972.0,95578.0,54027.0,12493.0,9472.0,5679.0,715.0,169.0
928779,County,2020/10/17,17.0,IL,17161.0,Rock Island County,40411.0,103066.0,447669.0,102308.0,112275.0,60533.0,91931.0,52894.0,10755.0,10488.0,5685.0,674.0,126.0
932000,County,2020/10/18,17.0,IL,17161.0,Rock Island County,44381.0,99096.0,363924.0,87084.0,101988.0,49784.0,64446.0,37628.0,8245.0,7855.0,5770.0,992.0,132.0
933468,County,2020/10/19,17.0,IL,17161.0,Rock Island County,39913.0,103564.0,432975.0,108896.0,111077.0,54930.0,84630.0,47681.0,12155.0,7550.0,4979.0,930.0,147.0
938240,County,2020/10/20,17.0,IL,17161.0,Rock Island County,39837.0,103640.0,442514.0,108276.0,107511.0,63214.0,86091.0,48915.0,13852.0,8802.0,5099.0,652.0,102.0
941847,County,2020/10/21,17.0,IL,17161.0,Rock Island County,40679.0,102798.0,426003.0,97331.0,104467.0,59332.0,89517.0,47811.0,12175.0,8542.0,5840.0,859.0,129.0
945159,County,2020/10/22,17.0,IL,17161.0,Rock Island County,38429.0,105048.0,470870.0,117553.0,119290.0,62678.0,90836.0,51581.0,11358.0,10665.0,5991.0,792.0,126.0
948280,County,2020/10/23,17.0,IL,17161.0,Rock Island County,37426.0,106051.0,475377.0,105035.0,129202.0,66208.0,96034.0,51024.0,12322.0,8623.0,5950.0,864.0,115.0
951163,County,2020/10/24,17.0,IL,17161.0,Rock Island County,40451.0,103026.0,467617.0,109853.0,122214.0,69894.0,89712.0,47949.0,13761.0,8664.0,4769.0,696.0,105.0
