,Level,Date,State FIPS,State Postal Code,County FIPS,County Name,Population Staying at Home,Population Not Staying at Home,Number of Trips,Number of Trips <1,Number of Trips 1-3,Number of Trips 3-5,Number of Trips 5-10,Number of Trips 10-25,Number of Trips 25-50,Number of Trips 50-100,Number of Trips 100-250,Number of Trips 250-500,Number of Trips >=500
793,County,2020/01/01,19.0,IA,19009.0,Audubon County,875.0,4631.0,16038.0,3138.0,5178.0,741.0,1846.0,2592.0,1458.0,867.0,121.0,24.0,73.0
6175,County,2020/01/02,19.0,IA,19009.0,Audubon County,817.0,4689.0,22915.0,5120.0,5964.0,856.0,2683.0,4838.0,2304.0,901.0,216.0,33.0,0.0
7826,County,2020/01/03,19.0,IA,19009.0,Audubon County,693.0,4813.0,18234.0,3538.0,4482.0,628.0,2364.0,3619.0,1938.0,1082.0,477.0,77.0,29.0
9814,County,2020/01/04,19.0,IA,19009.0,Audubon County,917.0,4589.0,18746.0,3427.0,4420.0,1003.0,2589.0,3691.0,2148.0,1248.0,169.0,51.0,0.0
13569,County,2020/01/05,19.0,IA,19009.0,Audubon County,932.0,4574.0,15617.0,2554.0,5957.0,692.0,1723.0,2270.0,1143.0,993.0,219.0,66.0,0.0
17985,County,2020/01/06,19.0,IA,19009.0,Audubon County,733.0,4773.0,20958.0,4443.0,5444.0,671.0,2894.0,4077.0,1822.0,1155.0,339.0,82.0,31.0
21131,County,2020/01/07,19.0,IA,19009.0,Audubon County,724.0,4782.0,23083.0,4814.0,7039.0,887.0,3314.0,3620.0,2004.0,994.0,370.0,41.0,0.0
22758,County,2020/01/08,19.0,IA,19009.0,Audubon County,710.0,4796.0,21487.0,4024.0,5879.0,1062.0,2821.0,4242.0,1825.0,1171.0,355.0,49.0,59.0
25953,County,2020/01/09,19.0,IA,19009.0,Audubon County,742.0,4764.0,21278.0,3629.0,6757.0,852.0,2262.0,3557.0,2768.0,1174.0,259.0,20.0,0.0
29148,County,2020/01/10,19.0,IA,19009.0,Audubon County,701.0,4805.0,19760.0,3761.0,5494.0,834.0,2834.0,3698.0,1837.0,958.0,271.0,18.0,55.0
33957,County,2020/01/11,19.0,IA,19009.0,Audubon County,799.0,4707.0,19045.0,3001.0,6448.0,614.0,1882.0,3809.0,1561.0,1261.0,251.0,22.0,196.0
37076,County,2020/01/12,19.0,IA,19009.0,Audubon County,982.0,4524.0,15019.0,2407.0,5795.0,471.0,1998.0,2814.0,980.0,271.0,199.0,48.0,36.0
40324,County,2020/01/13,19.0,IA,19009.0,Audubon County,755.0,4751.0,20138.0,4634.0,5377.0,900.0,2490.0,3703.0,1558.0,1108.0,260.0,49.0,59.0
41950,County,2020/01/14,19.0,IA,19009.0,Audubon County,786.0,4720.0,22193.0,4904.0,6678.0,937.0,2191.0,4088.0,2064.0,1027.0,226.0,49.0,29.0
45103,County,2020/01/15,19.0,IA,19009.0,Audubon County,783.0,4723.0,19724.0,3256.0,6503.0,747.0,2340.0,3902.0,1827.0,1036.0,94.0,19.0,0.0
49835,County,2020/01/16,19.0,IA,19009.0,Audubon County,645.0,4861.0,20555.0,3058.0,5411.0,761.0,3005.0,4206.0,2034.0,1528.0,385.0,42.0,125.0
51463,County,2020/01/17,19.0,IA,19009.0,Audubon County,985.0,4521.0,18804.0,4653.0,6317.0,767.0,2036.0,3091.0,788.0,572.0,427.0,47.0,106.0
56243,County,2020/01/18,19.0,IA,19009.0,Audubon County,891.0,4615.0,16957.0,2560.0,5879.0,676.0,2244.0,3291.0,1489.0,582.0,147.0,22.0,67.0
59490,County,2020/01/19,19.0,IA,19009.0,Audubon County,1050.0,4456.0,17730.0,2873.0,6253.0,935.0,2910.0,3254.0,644.0,705.0,89.0,27.0,40.0
62653,County,2020/01/20,19.0,IA,19009.0,Audubon County,810.0,4696.0,20822.0,3932.0,6390.0,770.0,2271.0,4146.0,1696.0,1105.0,325.0,69.0,118.0
65852,County,2020/01/21,19.0,IA,19009.0,Audubon County,667.0,4839.0,18955.0,3345.0,5496.0,436.0,1929.0,3731.0,2401.0,1189.0,303.0,50.0,75.0
69043,County,2020/01/22,19.0,IA,19009.0,Audubon County,803.0,4703.0,18936.0,3507.0,5942.0,867.0,1919.0,3528.0,1956.0,640.0,501.0,19.0,57.0
70667,County,2020/01/23,19.0,IA,19009.0,Audubon County,684.0,4822.0,20475.0,4101.0,6067.0,650.0,2221.0,3854.0,2317.0,856.0,348.0,35.0,26.0
75381,County,2020/01/24,19.0,IA,19009.0,Audubon County,653.0,4853.0,21163.0,3954.0,5354.0,840.0,2852.0,4875.0,1977.0,921.0,319.0,18.0,53.0
77056,County,2020/01/25,19.0,IA,19009.0,Audubon County,847.0,4659.0,20193.0,4618.0,5271.0,985.0,2698.0,3641.0,1465.0,1103.0,299.0,11.0,102.0
80643,County,2020/01/26,19.0,IA,19009.0,Audubon County,874.0,4632.0,15632.0,2656.0,4415.0,506.0,2139.0,2960.0,1774.0,832.0,244.0,42.0,64.0
84833,County,2020/01/27,19.0,IA,19009.0,Audubon County,830.0,4676.0,24426.0,4898.0,7123.0,824.0,3096.0,4748.0,2246.0,1046.0,395.0,50.0,0.0
86653,County,2020/01/28,19.0,IA,19009.0,Audubon County,734.0,4772.0,20615.0,4190.0,5225.0,971.0,2820.0,3534.0,2184.0,1220.0,368.0,19.0,84.0
91386,County,2020/01/29,19.0,IA,19009.0,Audubon County,757.0,4749.0,20520.0,4840.0,5841.0,990.0,2036.0,3951.0,1875.0,545.0,360.0,27.0,55.0
93112,County,2020/01/30,19.0,IA,19009.0,Audubon County,670.0,4836.0,18434.0,3309.0,5165.0,690.0,2292.0,3571.0,2155.0,826.0,320.0,53.0,53.0
97786,County,2020/01/31,19.0,IA,19009.0,Audubon County,656.0,4850.0,19736.0,3962.0,6103.0,808.0,2362.0,3693.0,1780.0,630.0,292.0,26.0,80.0
100974,County,2020/02/01,19.0,IA,19009.0,Audubon County,768.0,4738.0,21343.0,4630.0,6653.0,973.0,2152.0,3501.0,1741.0,1396.0,185.0,0.0,112.0
102592,County,2020/02/02,19.0,IA,19009.0,Audubon County,852.0,4654.0,18509.0,3479.0,6567.0,1229.0,1899.0,3132.0,934.0,876.0,257.0,19.0,117.0
105802,County,2020/02/03,19.0,IA,19009.0,Audubon County,647.0,4859.0,20038.0,2812.0,6428.0,996.0,2919.0,3313.0,2047.0,1143.0,327.0,30.0,23.0
110563,County,2020/02/04,19.0,IA,19009.0,Audubon County,650.0,4856.0,22568.0,4710.0,6395.0,1344.0,2348.0,3973.0,2377.0,1036.0,295.0,41.0,49.0
113719,County,2020/02/05,19.0,IA,19009.0,Audubon County,636.0,4870.0,22667.0,4924.0,6627.0,1706.0,2529.0,3866.0,1599.0,1063.0,303.0,25.0,25.0
115286,County,2020/02/06,19.0,IA,19009.0,Audubon County,649.0,4857.0,22031.0,4218.0,6248.0,998.0,3195.0,3730.0,2317.0,1013.0,271.0,41.0,0.0
118552,County,2020/02/07,19.0,IA,19009.0,Audubon County,692.0,4814.0,22251.0,4044.0,5576.0,1675.0,3324.0,3915.0,2166.0,1161.0,332.0,33.0,25.0
121798,County,2020/02/08,19.0,IA,19009.0,Audubon County,716.0,4790.0,20708.0,3818.0,5880.0,815.0,2586.0,4012.0,1326.0,2044.0,161.0,41.0,25.0
124967,County,2020/02/09,19.0,IA,19009.0,Audubon County,932.0,4574.0,18082.0,2487.0,6537.0,976.0,2581.0,2915.0,1314.0,966.0,138.0,42.0,126.0
129102,County,2020/02/10,19.0,IA,19009.0,Audubon County,677.0,4829.0,23735.0,4299.0,5768.0,1340.0,4385.0,4180.0,1968.0,1282.0,367.0,68.0,78.0
131748,County,2020/02/11,19.0,IA,19009.0,Audubon County,586.0,4920.0,23433.0,4878.0,6198.0,1344.0,3405.0,3972.0,2260.0,914.0,323.0,17.0,122.0
135023,County,2020/02/12,19.0,IA,19009.0,Audubon County,628.0,4878.0,22229.0,4172.0,5758.0,1320.0,3952.0,3644.0,1737.0,1081.0,440.0,36.0,89.0
139355,County,2020/02/13,19.0,IA,19009.0,Audubon County,766.0,4740.0,22422.0,4052.0,5688.0,1067.0,2624.0,5275.0,2569.0,885.0,180.0,27.0,55.0
140839,County,2020/02/14,19.0,IA,19009.0,Audubon County,715.0,4791.0,23765.0,4689.0,6234.0,1088.0,2772.0,4363.0,2995.0,1405.0,147.0,18.0,54.0
145717,County,2020/02/15,19.0,IA,19009.0,Audubon County,788.0,4718.0,21688.0,2903.0,5356.0,1406.0,3614.0,3832.0,2249.0,1797.0,447.0,21.0,63.0
147324,County,2020/02/16,19.0,IA,19009.0,Audubon County,1008.0,4498.0,18603.0,2394.0,6290.0,1447.0,2829.0,2678.0,1423.0,801.0,432.0,59.0,250.0
152086,County,2020/02/17,19.0,IA,19009.0,Audubon County,972.0,4534.0,17763.0,3335.0,4792.0,948.0,1923.0,3639.0,1276.0,1360.0,320.0,24.0,146.0
153712,County,2020/02/18,19.0,IA,19009.0,Audubon County,747.0,4759.0,20393.0,4138.0,5071.0,1559.0,2451.0,4018.0,1898.0,777.0,405.0,47.0,29.0
156907,County,2020/02/19,19.0,IA,19009.0,Audubon County,713.0,4793.0,23568.0,4402.0,6325.0,1380.0,3192.0,3773.0,2395.0,1656.0,349.0,38.0,58.0
161571,County,2020/02/20,19.0,IA,19009.0,Audubon County,656.0,4850.0,21606.0,4152.0,5660.0,917.0,3372.0,4628.0,1493.0,1030.0,272.0,55.0,27.0
164862,County,2020/02/21,19.0,IA,19009.0,Audubon County,717.0,4789.0,25297.0,3466.0,7947.0,1128.0,2941.0,4754.0,3193.0,1457.0,336.0,19.0,56.0
168006,County,2020/02/22,19.0,IA,19009.0,Audubon County,777.0,4729.0,23162.0,3520.0,8151.0,1359.0,2740.0,3729.0,1872.0,1463.0,295.0,33.0,0.0
169667,County,2020/02/23,19.0,IA,19009.0,Audubon County,827.0,4679.0,20135.0,3176.0,6562.0,1171.0,2486.0,3684.0,1443.0,1209.0,285.0,22.0,97.0
174450,County,2020/02/24,19.0,IA,19009.0,Audubon County,810.0,4696.0,24502.0,4287.0,6114.0,1721.0,4178.0,4308.0,2033.0,1337.0,350.0,58.0,116.0
176070,County,2020/02/25,19.0,IA,19009.0,Audubon County,627.0,4879.0,24411.0,4543.0,7093.0,1071.0,4119.0,3457.0,2197.0,1383.0,370.0,78.0,100.0
179657,County,2020/02/26,19.0,IA,19009.0,Audubon County,706.0,4800.0,25505.0,2403.0,6004.0,1824.0,4970.0,6624.0,2008.0,1346.0,296.0,30.0,0.0
183824,County,2020/02/27,19.0,IA,19009.0,Audubon County,717.0,4789.0,26461.0,6519.0,6032.0,1792.0,3495.0,4901.0,2121.0,1389.0,170.0,11.0,31.0
187268,County,2020/02/28,19.0,IA,19009.0,Audubon County,694.0,4812.0,26327.0,6196.0,5902.0,1022.0,3614.0,5118.0,3035.0,1034.0,303.0,41.0,62.0
190365,County,2020/02/29,19.0,IA,19009.0,Audubon County,745.0,4761.0,22726.0,4112.0,6257.0,1308.0,3619.0,3953.0,1868.0,1252.0,257.0,0.0,100.0
192037,County,2020/03/01,19.0,IA,19009.0,Audubon County,917.0,4589.0,20055.0,4706.0,4883.0,1489.0,3021.0,3229.0,1580.0,808.0,251.0,12.0,76.0
196837,County,2020/03/02,19.0,IA,19009.0,Audubon County,794.0,4712.0,24163.0,5750.0,4868.0,1407.0,4379.0,5347.0,1485.0,758.0,89.0,40.0,40.0
199897,County,2020/03/03,19.0,IA,19009.0,Audubon County,643.0,4863.0,26904.0,5194.0,7554.0,1041.0,3570.0,5263.0,2599.0,1314.0,369.0,0.0,0.0
202274,County,2020/03/04,19.0,IA,19009.0,Audubon County,644.0,4862.0,27012.0,5323.0,6264.0,1436.0,4878.0,5517.0,2230.0,1125.0,149.0,45.0,45.0
206403,County,2020/03/05,19.0,IA,19009.0,Audubon County,668.0,4838.0,24406.0,4119.0,7173.0,1842.0,2718.0,4453.0,2254.0,1351.0,465.0,31.0,0.0
209617,County,2020/03/06,19.0,IA,19009.0,Audubon County,629.0,4877.0,27328.0,4655.0,8409.0,1878.0,3671.0,5147.0,2215.0,981.0,356.0,16.0,0.0
212849,County,2020/03/07,19.0,IA,19009.0,Audubon County,662.0,4844.0,21932.0,3931.0,5060.0,1372.0,3834.0,4920.0,1431.0,995.0,273.0,66.0,50.0
214400,County,2020/03/08,19.0,IA,19009.0,Audubon County,786.0,4720.0,20358.0,4261.0,4835.0,1430.0,3427.0,4041.0,1399.0,753.0,121.0,91.0,0.0
219159,County,2020/03/09,19.0,IA,19009.0,Audubon County,620.0,4886.0,25144.0,4763.0,5763.0,1394.0,2685.0,6693.0,2027.0,1586.0,169.0,26.0,38.0
222353,County,2020/03/10,19.0,IA,19009.0,Audubon County,652.0,4854.0,24359.0,3433.0,5703.0,2334.0,3036.0,5207.0,3197.0,1142.0,192.0,72.0,43.0
223977,County,2020/03/11,19.0,IA,19009.0,Audubon County,584.0,4922.0,30549.0,3769.0,4344.0,2522.0,6699.0,7911.0,3335.0,1304.0,511.0,38.0,116.0
227210,County,2020/03/12,19.0,IA,19009.0,Audubon County,655.0,4851.0,21312.0,2459.0,5903.0,3389.0,2187.0,3252.0,2487.0,1460.0,0.0,44.0,131.0
231942,County,2020/03/13,19.0,IA,19009.0,Audubon County,650.0,4856.0,22618.0,2449.0,3528.0,1565.0,3463.0,6009.0,3256.0,1647.0,661.0,40.0,0.0
234997,County,2020/03/14,19.0,IA,19009.0,Audubon County,915.0,4591.0,15923.0,1477.0,3295.0,1430.0,2964.0,2743.0,787.0,2462.0,271.0,246.0,248.0
236756,County,2020/03/15,19.0,IA,19009.0,Audubon County,912.0,4594.0,16293.0,3780.0,3619.0,682.0,2407.0,3275.0,1315.0,735.0,324.0,156.0,0.0
239950,County,2020/03/16,19.0,IA,19009.0,Audubon County,783.0,4723.0,19897.0,3846.0,4313.0,714.0,3126.0,4052.0,2289.0,1063.0,345.0,59.0,90.0
244756,County,2020/03/17,19.0,IA,19009.0,Audubon County,935.0,4571.0,20426.0,3298.0,5529.0,1536.0,3518.0,3930.0,1288.0,1133.0,110.0,33.0,51.0
246337,County,2020/03/18,19.0,IA,19009.0,Audubon County,1012.0,4494.0,23067.0,5976.0,4908.0,783.0,3896.0,5183.0,1552.0,472.0,297.0,0.0,0.0
251119,County,2020/03/19,19.0,IA,19009.0,Audubon County,953.0,4553.0,18248.0,3788.0,3762.0,1421.0,2461.0,3618.0,2246.0,692.0,47.0,42.0,171.0
252728,County,2020/03/20,19.0,IA,19009.0,Audubon County,989.0,4517.0,18257.0,2272.0,3969.0,1179.0,4145.0,3531.0,1529.0,1494.0,106.0,32.0,0.0
257486,County,2020/03/21,19.0,IA,19009.0,Audubon County,990.0,4516.0,17802.0,2867.0,5836.0,1356.0,2625.0,2313.0,1410.0,1038.0,286.0,18.0,53.0
260673,County,2020/03/22,19.0,IA,19009.0,Audubon County,1063.0,4443.0,11430.0,1661.0,3517.0,953.0,1714.0,1754.0,700.0,890.0,241.0,0.0,0.0
262311,County,2020/03/23,19.0,IA,19009.0,Audubon County,884.0,4622.0,17147.0,2916.0,4774.0,979.0,2554.0,3357.0,1233.0,1265.0,53.0,16.0,0.0
265463,County,2020/03/24,19.0,IA,19009.0,Audubon County,813.0,4693.0,16877.0,4221.0,5109.0,862.0,1736.0,2895.0,1356.0,530.0,140.0,28.0,0.0
270264,County,2020/03/25,19.0,IA,19009.0,Audubon County,892.0,4614.0,19033.0,3447.0,4977.0,1594.0,3155.0,3708.0,1283.0,687.0,140.0,0.0,42.0
271890,County,2020/03/26,19.0,IA,19009.0,Audubon County,796.0,4710.0,17274.0,1950.0,5060.0,853.0,3440.0,3101.0,2081.0,682.0,93.0,14.0,0.0
275077,County,2020/03/27,19.0,IA,19009.0,Audubon County,825.0,4681.0,18267.0,3632.0,4299.0,1364.0,3019.0,3656.0,1503.0,587.0,129.0,39.0,39.0
279838,County,2020/03/28,19.0,IA,19009.0,Audubon County,875.0,4631.0,13237.0,1267.0,5425.0,634.0,1722.0,1605.0,1270.0,993.0,175.0,66.0,80.0
281473,County,2020/03/29,19.0,IA,19009.0,Audubon County,1089.0,4417.0,12528.0,2590.0,3351.0,632.0,2228.0,2502.0,522.0,612.0,0.0,36.0,55.0
286266,County,2020/03/30,19.0,IA,19009.0,Audubon County,830.0,4676.0,16447.0,3527.0,3698.0,826.0,2349.0,2943.0,1624.0,1066.0,224.0,27.0,163.0
289470,County,2020/03/31,19.0,IA,19009.0,Audubon County,963.0,4543.0,19667.0,4080.0,5576.0,1249.0,3490.0,3090.0,1303.0,849.0,0.0,30.0,0.0
292620,County,2020/04/01,19.0,IA,19009.0,Audubon County,825.0,4681.0,19118.0,4189.0,4938.0,1124.0,3287.0,3135.0,1710.0,645.0,41.0,12.0,37.0
294249,County,2020/04/02,19.0,IA,19009.0,Audubon County,859.0,4647.0,17485.0,3351.0,5860.0,1282.0,1850.0,2568.0,1535.0,720.0,254.0,26.0,39.0
297443,County,2020/04/03,19.0,IA,19009.0,Audubon County,922.0,4584.0,17383.0,3773.0,4736.0,1252.0,2286.0,2404.0,2000.0,593.0,238.0,14.0,87.0
300636,County,2020/04/04,19.0,IA,19009.0,Audubon County,1029.0,4477.0,18247.0,4763.0,5115.0,1386.0,2707.0,2661.0,1078.0,281.0,124.0,19.0,113.0
305390,County,2020/04/05,19.0,IA,19009.0,Audubon County,1084.0,4422.0,15973.0,1893.0,5034.0,1109.0,3680.0,2128.0,1315.0,367.0,388.0,0.0,59.0
307026,County,2020/04/06,19.0,IA,19009.0,Audubon County,936.0,4570.0,17821.0,3575.0,4755.0,925.0,2742.0,3236.0,1674.0,683.0,201.0,30.0,0.0
310219,County,2020/04/07,19.0,IA,19009.0,Audubon County,772.0,4734.0,20150.0,3970.0,5317.0,1552.0,2944.0,4310.0,1099.0,668.0,252.0,0.0,38.0
313413,County,2020/04/08,19.0,IA,19009.0,Audubon County,881.0,4625.0,18460.0,3525.0,4622.0,857.0,3611.0,3164.0,1307.0,852.0,400.0,76.0,46.0
318172,County,2020/04/09,19.0,IA,19009.0,Audubon County,819.0,4687.0,23620.0,5227.0,8504.0,1123.0,3335.0,2666.0,1758.0,814.0,179.0,14.0,0.0
319858,County,2020/04/10,19.0,IA,19009.0,Audubon County,851.0,4655.0,19636.0,4012.0,5405.0,1038.0,3546.0,3633.0,1277.0,526.0,185.0,14.0,0.0
322994,County,2020/04/11,19.0,IA,19009.0,Audubon County,903.0,4603.0,19885.0,3821.0,6357.0,1554.0,3140.0,3113.0,1265.0,466.0,154.0,15.0,0.0
327727,County,2020/04/12,19.0,IA,19009.0,Audubon County,1261.0,4245.0,14241.0,2476.0,4548.0,758.0,2832.0,1821.0,1044.0,408.0,288.0,66.0,0.0
329404,County,2020/04/13,19.0,IA,19009.0,Audubon County,941.0,4565.0,16189.0,2005.0,4860.0,1418.0,2915.0,3565.0,892.0,349.0,154.0,31.0,0.0
334125,County,2020/04/14,19.0,IA,19009.0,Audubon County,852.0,4654.0,15504.0,2160.0,5303.0,1176.0,1085.0,3511.0,1296.0,675.0,298.0,0.0,0.0
337378,County,2020/04/15,19.0,IA,19009.0,Audubon County,819.0,4687.0,20027.0,1902.0,5087.0,2005.0,3952.0,4812.0,1242.0,540.0,285.0,28.0,174.0
340472,County,2020/04/16,19.0,IA,19009.0,Audubon County,963.0,4543.0,19078.0,2392.0,3842.0,2975.0,2716.0,3998.0,2130.0,1025.0,0.0,0.0,0.0
342207,County,2020/04/17,19.0,IA,19009.0,Audubon County,834.0,4672.0,19651.0,2667.0,4978.0,1349.0,2463.0,4274.0,2823.0,697.0,307.0,0.0,93.0
346882,County,2020/04/18,19.0,IA,19009.0,Audubon County,1035.0,4471.0,14886.0,1014.0,2855.0,2516.0,4175.0,2600.0,1279.0,167.0,146.0,0.0,134.0
348533,County,2020/04/19,19.0,IA,19009.0,Audubon County,924.0,4582.0,11396.0,1512.0,2231.0,1814.0,3260.0,1741.0,333.0,390.0,115.0,0.0,0.0
351740,County,2020/04/20,19.0,IA,19009.0,Audubon County,819.0,4687.0,19417.0,3643.0,4325.0,1719.0,4928.0,3751.0,172.0,404.0,475.0,0.0,0.0
354933,County,2020/04/21,19.0,IA,19009.0,Audubon County,868.0,4638.0,22107.0,4149.0,6428.0,1140.0,3785.0,4074.0,1396.0,818.0,288.0,29.0,0.0
358129,County,2020/04/22,19.0,IA,19009.0,Audubon County,819.0,4687.0,20570.0,3786.0,5522.0,1736.0,4173.0,3276.0,1055.0,722.0,273.0,27.0,0.0
361234,County,2020/04/23,19.0,IA,19009.0,Audubon County,766.0,4740.0,20595.0,3900.0,5897.0,1732.0,3316.0,3068.0,1834.0,631.0,202.0,15.0,0.0
366122,County,2020/04/24,19.0,IA,19009.0,Audubon County,825.0,4681.0,19068.0,2835.0,4623.0,1574.0,3772.0,3469.0,1862.0,552.0,354.0,27.0,0.0
369278,County,2020/04/25,19.0,IA,19009.0,Audubon County,862.0,4644.0,19287.0,3413.0,5579.0,2037.0,3688.0,2784.0,1292.0,372.0,94.0,28.0,0.0
370868,County,2020/04/26,19.0,IA,19009.0,Audubon County,850.0,4656.0,16862.0,4451.0,4293.0,901.0,3115.0,2306.0,1075.0,647.0,57.0,17.0,0.0
375703,County,2020/04/27,19.0,IA,19009.0,Audubon County,782.0,4724.0,20985.0,3780.0,6601.0,1256.0,3647.0,3013.0,1867.0,649.0,143.0,29.0,0.0
377249,County,2020/04/28,19.0,IA,19009.0,Audubon County,763.0,4743.0,16815.0,3790.0,4143.0,1152.0,2103.0,2819.0,1776.0,744.0,262.0,26.0,0.0
380501,County,2020/04/29,19.0,IA,19009.0,Audubon County,836.0,4670.0,18199.0,3435.0,3650.0,1625.0,3166.0,4069.0,1401.0,730.0,107.0,16.0,0.0
385247,County,2020/04/30,19.0,IA,19009.0,Audubon County,799.0,4707.0,20034.0,2876.0,4456.0,1275.0,5011.0,3800.0,1921.0,578.0,102.0,15.0,0.0
386873,County,2020/05/01,19.0,IA,19009.0,Audubon County,793.0,4713.0,20387.0,4410.0,4642.0,1192.0,3517.0,3496.0,2115.0,799.0,201.0,15.0,0.0
390056,County,2020/05/02,19.0,IA,19009.0,Audubon County,789.0,4717.0,19298.0,3602.0,5363.0,1175.0,4414.0,3087.0,1090.0,426.0,141.0,0.0,0.0
393269,County,2020/05/03,19.0,IA,19009.0,Audubon County,914.0,4592.0,14792.0,3377.0,4087.0,1278.0,2404.0,2372.0,939.0,147.0,129.0,0.0,59.0
398023,County,2020/05/04,19.0,IA,19009.0,Audubon County,805.0,4701.0,18800.0,3109.0,5970.0,859.0,3069.0,3233.0,1891.0,569.0,100.0,0.0,0.0
399650,County,2020/05/05,19.0,IA,19009.0,Audubon County,926.0,4580.0,19256.0,3325.0,6811.0,738.0,3309.0,3261.0,1301.0,382.0,112.0,17.0,0.0
402829,County,2020/05/06,19.0,IA,19009.0,Audubon County,764.0,4742.0,19905.0,2906.0,6080.0,1803.0,3715.0,2925.0,1644.0,803.0,0.0,29.0,0.0
406032,County,2020/05/07,19.0,IA,19009.0,Audubon County,874.0,4632.0,19612.0,3639.0,5737.0,1446.0,3361.0,3332.0,1513.0,374.0,110.0,0.0,100.0
409288,County,2020/05/08,19.0,IA,19009.0,Audubon County,818.0,4688.0,20031.0,3738.0,5794.0,2005.0,2551.0,3400.0,1546.0,748.0,203.0,46.0,0.0
413959,County,2020/05/09,19.0,IA,19009.0,Audubon County,901.0,4605.0,18715.0,3678.0,5613.0,1062.0,2936.0,3057.0,1559.0,488.0,322.0,0.0,0.0
415620,County,2020/05/10,19.0,IA,19009.0,Audubon County,1031.0,4475.0,17730.0,2882.0,6170.0,704.0,3798.0,2450.0,1260.0,379.0,67.0,20.0,0.0
418814,County,2020/05/11,19.0,IA,19009.0,Audubon County,834.0,4672.0,18480.0,2930.0,6312.0,1124.0,2109.0,3003.0,2100.0,463.0,371.0,34.0,34.0
423671,County,2020/05/12,19.0,IA,19009.0,Audubon County,775.0,4731.0,20298.0,5276.0,5008.0,1794.0,2011.0,3071.0,1975.0,835.0,294.0,0.0,34.0
425154,County,2020/05/13,19.0,IA,19009.0,Audubon County,787.0,4719.0,18060.0,3532.0,5002.0,1792.0,2212.0,3000.0,1468.0,792.0,209.0,21.0,32.0
429963,County,2020/05/14,19.0,IA,19009.0,Audubon County,868.0,4638.0,17875.0,3825.0,3670.0,777.0,2819.0,3633.0,1978.0,836.0,258.0,45.0,34.0
433137,County,2020/05/15,19.0,IA,19009.0,Audubon County,747.0,4759.0,20627.0,4500.0,4605.0,1337.0,2293.0,4578.0,2062.0,845.0,304.0,41.0,62.0
434815,County,2020/05/16,19.0,IA,19009.0,Audubon County,762.0,4744.0,21296.0,4079.0,5610.0,2042.0,3803.0,3279.0,1377.0,897.0,190.0,19.0,0.0
439498,County,2020/05/17,19.0,IA,19009.0,Audubon County,875.0,4631.0,15564.0,3296.0,4689.0,847.0,2461.0,2542.0,817.0,912.0,0.0,0.0,0.0
441213,County,2020/05/18,19.0,IA,19009.0,Audubon County,727.0,4779.0,18240.0,2852.0,4855.0,1034.0,3744.0,3609.0,1346.0,729.0,71.0,0.0,0.0
444367,County,2020/05/19,19.0,IA,19009.0,Audubon County,615.0,4891.0,17068.0,2252.0,5229.0,945.0,2423.0,3957.0,1892.0,370.0,0.0,0.0,0.0
449128,County,2020/05/20,19.0,IA,19009.0,Audubon County,728.0,4778.0,19260.0,2816.0,5516.0,684.0,3545.0,3936.0,1223.0,1325.0,195.0,20.0,0.0
452018,County,2020/05/21,19.0,IA,19009.0,Audubon County,661.0,4845.0,19711.0,2538.0,5066.0,1212.0,4826.0,3179.0,1601.0,1044.0,245.0,0.0,0.0
453941,County,2020/05/22,19.0,IA,19009.0,Audubon County,781.0,4725.0,21997.0,3813.0,6350.0,1205.0,3142.0,4295.0,1706.0,1186.0,261.0,39.0,0.0
457137,County,2020/05/23,19.0,IA,19009.0,Audubon County,805.0,4701.0,18702.0,4160.0,3679.0,1179.0,3461.0,3133.0,2297.0,703.0,69.0,21.0,0.0
461880,County,2020/05/24,19.0,IA,19009.0,Audubon County,843.0,4663.0,17551.0,2610.0,3398.0,639.0,5427.0,2201.0,2112.0,1004.0,143.0,17.0,0.0
465182,County,2020/05/25,19.0,IA,19009.0,Audubon County,878.0,4628.0,18839.0,3772.0,6477.0,1084.0,3813.0,1831.0,716.0,859.0,197.0,30.0,60.0
466661,County,2020/05/26,19.0,IA,19009.0,Audubon County,729.0,4777.0,17235.0,2602.0,3491.0,1555.0,3365.0,3601.0,1415.0,728.0,385.0,23.0,70.0
469918,County,2020/05/27,19.0,IA,19009.0,Audubon County,838.0,4668.0,20770.0,4512.0,4723.0,1898.0,3956.0,3263.0,1118.0,760.0,469.0,71.0,0.0
474581,County,2020/05/28,19.0,IA,19009.0,Audubon County,807.0,4699.0,21530.0,5927.0,4376.0,1554.0,4140.0,2552.0,1847.0,634.0,434.0,66.0,0.0
477868,County,2020/05/29,19.0,IA,19009.0,Audubon County,887.0,4619.0,23183.0,5383.0,5428.0,1704.0,3598.0,3717.0,2104.0,845.0,392.0,12.0,0.0
481068,County,2020/05/30,19.0,IA,19009.0,Audubon County,851.0,4655.0,16510.0,2608.0,3504.0,1607.0,2991.0,2711.0,1663.0,713.0,702.0,11.0,0.0
482622,County,2020/05/31,19.0,IA,19009.0,Audubon County,804.0,4702.0,16491.0,3334.0,3453.0,1046.0,3015.0,2642.0,1758.0,996.0,209.0,38.0,0.0
485841,County,2020/06/01,19.0,IA,19009.0,Audubon County,772.0,4734.0,18834.0,4030.0,4599.0,1458.0,3044.0,2889.0,1347.0,891.0,500.0,43.0,33.0
490621,County,2020/06/02,19.0,IA,19009.0,Audubon County,763.0,4743.0,20455.0,3678.0,5310.0,1638.0,3047.0,3620.0,1913.0,812.0,414.0,23.0,0.0
492251,County,2020/06/03,19.0,IA,19009.0,Audubon County,701.0,4805.0,25952.0,5518.0,6187.0,1982.0,3205.0,4731.0,2631.0,1269.0,347.0,47.0,35.0
495461,County,2020/06/04,19.0,IA,19009.0,Audubon County,684.0,4822.0,21836.0,3944.0,4329.0,1809.0,3814.0,4552.0,2154.0,926.0,297.0,11.0,0.0
498665,County,2020/06/05,19.0,IA,19009.0,Audubon County,578.0,4928.0,23450.0,3707.0,5643.0,2118.0,3905.0,4517.0,2177.0,851.0,500.0,32.0,0.0
501812,County,2020/06/06,19.0,IA,19009.0,Audubon County,775.0,4731.0,22024.0,2642.0,7034.0,1874.0,4076.0,3474.0,1281.0,1447.0,196.0,0.0,0.0
506588,County,2020/06/07,19.0,IA,19009.0,Audubon County,882.0,4624.0,22789.0,4106.0,4116.0,2550.0,4972.0,3365.0,2387.0,1099.0,194.0,0.0,0.0
508227,County,2020/06/08,19.0,IA,19009.0,Audubon County,580.0,4926.0,25579.0,4771.0,7203.0,1591.0,4260.0,3297.0,2827.0,1059.0,521.0,25.0,25.0
513004,County,2020/06/09,19.0,IA,19009.0,Audubon County,710.0,4796.0,26299.0,5497.0,6873.0,2339.0,4342.0,3082.0,2227.0,1400.0,421.0,36.0,82.0
516210,County,2020/06/10,19.0,IA,19009.0,Audubon County,599.0,4907.0,22076.0,5495.0,4870.0,1444.0,4176.0,2336.0,1908.0,1244.0,470.0,47.0,86.0
517839,County,2020/06/11,19.0,IA,19009.0,Audubon County,730.0,4776.0,26137.0,6020.0,5607.0,2073.0,5045.0,2962.0,2181.0,1269.0,874.0,74.0,32.0
521041,County,2020/06/12,19.0,IA,19009.0,Audubon County,656.0,4850.0,25130.0,4460.0,6599.0,1881.0,5480.0,2950.0,1869.0,1383.0,487.0,21.0,0.0
525777,County,2020/06/13,19.0,IA,19009.0,Audubon County,726.0,4780.0,21134.0,4250.0,5389.0,1643.0,3561.0,4206.0,1257.0,668.0,139.0,21.0,0.0
528980,County,2020/06/14,19.0,IA,19009.0,Audubon County,907.0,4599.0,17960.0,5039.0,3230.0,1070.0,2341.0,3221.0,2036.0,754.0,258.0,11.0,0.0
532171,County,2020/06/15,19.0,IA,19009.0,Audubon County,806.0,4700.0,21092.0,5058.0,4928.0,1527.0,3589.0,3094.0,1308.0,1059.0,451.0,19.0,59.0
533799,County,2020/06/16,19.0,IA,19009.0,Audubon County,870.0,4636.0,20071.0,4619.0,4720.0,2187.0,2625.0,2769.0,1537.0,1082.0,424.0,11.0,97.0
536993,County,2020/06/17,19.0,IA,19009.0,Audubon County,809.0,4697.0,22074.0,4196.0,5907.0,2013.0,4251.0,2678.0,1461.0,1064.0,451.0,21.0,32.0
540188,County,2020/06/18,19.0,IA,19009.0,Audubon County,682.0,4824.0,20311.0,4016.0,5979.0,1203.0,3216.0,2726.0,1472.0,1237.0,355.0,61.0,46.0
544906,County,2020/06/19,19.0,IA,19009.0,Audubon County,798.0,4708.0,19192.0,3707.0,5054.0,849.0,3074.0,3519.0,1360.0,1163.0,351.0,35.0,80.0
548141,County,2020/06/20,19.0,IA,19009.0,Audubon County,775.0,4731.0,17776.0,2842.0,4599.0,1413.0,3310.0,3270.0,1556.0,573.0,126.0,29.0,58.0
551328,County,2020/06/21,19.0,IA,19009.0,Audubon County,754.0,4752.0,15178.0,2229.0,3502.0,1509.0,3151.0,2056.0,1448.0,713.0,369.0,33.0,168.0
552965,County,2020/06/22,19.0,IA,19009.0,Audubon County,807.0,4699.0,17159.0,2764.0,3798.0,1471.0,3138.0,2823.0,1666.0,1013.0,351.0,77.0,58.0
556149,County,2020/06/23,19.0,IA,19009.0,Audubon County,719.0,4787.0,18668.0,4047.0,3708.0,1270.0,3424.0,2996.0,1573.0,1002.0,562.0,49.0,37.0
560917,County,2020/06/24,19.0,IA,19009.0,Audubon County,777.0,4729.0,19312.0,3355.0,5577.0,791.0,3860.0,2545.0,1691.0,1122.0,318.0,53.0,0.0
562545,County,2020/06/25,19.0,IA,19009.0,Audubon County,817.0,4689.0,18565.0,3493.0,4427.0,706.0,4061.0,3659.0,985.0,851.0,286.0,32.0,65.0
567389,County,2020/06/26,19.0,IA,19009.0,Audubon County,723.0,4783.0,17435.0,3174.0,3730.0,1362.0,2945.0,3208.0,1500.0,960.0,470.0,57.0,29.0
570490,County,2020/06/27,19.0,IA,19009.0,Audubon County,803.0,4703.0,19897.0,3754.0,5453.0,1001.0,3244.0,3295.0,1733.0,986.0,398.0,33.0,0.0
573682,County,2020/06/28,19.0,IA,19009.0,Audubon County,858.0,4648.0,18072.0,3030.0,5154.0,1016.0,1686.0,3108.0,2238.0,1367.0,385.0,44.0,44.0
576854,County,2020/06/29,19.0,IA,19009.0,Audubon County,732.0,4774.0,18023.0,2999.0,4026.0,1058.0,3293.0,3364.0,1675.0,911.0,652.0,45.0,0.0
580103,County,2020/06/30,19.0,IA,19009.0,Audubon County,606.0,4900.0,17710.0,3053.0,3445.0,843.0,2999.0,3354.0,2256.0,1297.0,366.0,14.0,83.0
581703,County,2020/07/01,19.0,IA,19009.0,Audubon County,558.0,4948.0,20613.0,4026.0,5281.0,859.0,3041.0,3902.0,1450.0,1578.0,304.0,53.0,119.0
584895,County,2020/07/02,19.0,IA,19009.0,Audubon County,658.0,4848.0,19704.0,3707.0,4699.0,749.0,4310.0,3884.0,1045.0,903.0,304.0,34.0,69.0
589688,County,2020/07/03,19.0,IA,19009.0,Audubon County,754.0,4752.0,17337.0,3156.0,3709.0,1354.0,2928.0,3190.0,1492.0,955.0,467.0,57.0,29.0
592872,County,2020/07/04,19.0,IA,19009.0,Audubon County,928.0,4578.0,14832.0,2700.0,3173.0,1159.0,2505.0,2729.0,1276.0,817.0,400.0,48.0,25.0
594521,County,2020/07/05,19.0,IA,19009.0,Audubon County,770.0,4736.0,16401.0,1455.0,4617.0,626.0,4500.0,2402.0,1378.0,958.0,369.0,48.0,48.0
599197,County,2020/07/06,19.0,IA,19009.0,Audubon County,790.0,4716.0,17417.0,3395.0,4978.0,1096.0,2449.0,2590.0,1672.0,763.0,416.0,29.0,29.0
600872,County,2020/07/07,19.0,IA,19009.0,Audubon County,687.0,4819.0,16321.0,2914.0,4251.0,1000.0,2093.0,3339.0,1485.0,974.0,165.0,100.0,0.0
605583,County,2020/07/08,19.0,IA,19009.0,Audubon County,795.0,4711.0,16063.0,2597.0,4543.0,626.0,2425.0,2725.0,1425.0,1043.0,602.0,48.0,29.0
607260,County,2020/07/09,19.0,IA,19009.0,Audubon County,710.0,4796.0,17231.0,3431.0,4899.0,793.0,3026.0,2435.0,917.0,1400.0,211.0,64.0,55.0
612042,County,2020/07/10,19.0,IA,19009.0,Audubon County,703.0,4803.0,19126.0,4015.0,4969.0,1093.0,3110.0,2735.0,1591.0,1143.0,326.0,63.0,81.0
613670,County,2020/07/11,19.0,IA,19009.0,Audubon County,747.0,4759.0,16124.0,2895.0,3375.0,1064.0,2684.0,3063.0,1922.0,696.0,258.0,49.0,118.0
616842,County,2020/07/12,19.0,IA,19009.0,Audubon County,944.0,4562.0,15106.0,2002.0,3311.0,598.0,3971.0,2239.0,1450.0,1030.0,409.0,55.0,41.0
620032,County,2020/07/13,19.0,IA,19009.0,Audubon County,842.0,4664.0,15232.0,2440.0,3770.0,1363.0,2789.0,2529.0,1000.0,743.0,483.0,52.0,63.0
623232,County,2020/07/14,19.0,IA,19009.0,Audubon County,753.0,4753.0,17612.0,3095.0,5263.0,722.0,3137.0,2771.0,1439.0,799.0,339.0,47.0,0.0
627969,County,2020/07/15,19.0,IA,19009.0,Audubon County,758.0,4748.0,16762.0,3415.0,4633.0,432.0,2279.0,3164.0,1686.0,879.0,238.0,36.0,0.0
629595,County,2020/07/16,19.0,IA,19009.0,Audubon County,905.0,4601.0,15906.0,3761.0,3928.0,639.0,1679.0,2402.0,1994.0,1009.0,323.0,24.0,147.0
634329,County,2020/07/17,19.0,IA,19009.0,Audubon County,847.0,4659.0,16736.0,3119.0,4538.0,1109.0,1921.0,3148.0,1913.0,582.0,329.0,44.0,33.0
637582,County,2020/07/18,19.0,IA,19009.0,Audubon County,854.0,4652.0,17659.0,3799.0,6053.0,1063.0,1994.0,2351.0,1069.0,915.0,351.0,0.0,64.0
640735,County,2020/07/19,19.0,IA,19009.0,Audubon County,933.0,4573.0,15844.0,1907.0,5201.0,738.0,3342.0,2706.0,1109.0,520.0,306.0,15.0,0.0
642396,County,2020/07/20,19.0,IA,19009.0,Audubon County,853.0,4653.0,16765.0,3710.0,3181.0,862.0,3742.0,2865.0,1242.0,800.0,302.0,15.0,46.0
647636,County,2020/07/21,19.0,IA,19009.0,Audubon County,797.0,4709.0,22730.0,4180.0,5477.0,1366.0,3843.0,3876.0,2616.0,767.0,496.0,27.0,82.0
650301,County,2020/07/22,19.0,IA,19009.0,Audubon County,773.0,4733.0,21434.0,5203.0,4593.0,920.0,3683.0,4052.0,1312.0,1119.0,452.0,25.0,75.0
651891,County,2020/07/23,19.0,IA,19009.0,Audubon County,698.0,4808.0,18880.0,3762.0,4499.0,1145.0,3139.0,3679.0,1645.0,686.0,302.0,23.0,0.0
655063,County,2020/07/24,19.0,IA,19009.0,Audubon County,714.0,4792.0,21305.0,4506.0,6267.0,877.0,2637.0,3787.0,1811.0,897.0,333.0,38.0,152.0
658360,County,2020/07/25,19.0,IA,19009.0,Audubon County,937.0,4569.0,18021.0,3688.0,5436.0,589.0,2079.0,2687.0,1866.0,1333.0,224.0,68.0,51.0
663065,County,2020/07/26,19.0,IA,19009.0,Audubon County,897.0,4609.0,14301.0,2384.0,3985.0,432.0,2048.0,1718.0,2311.0,904.0,234.0,71.0,214.0
666338,County,2020/07/27,19.0,IA,19009.0,Audubon County,792.0,4714.0,21832.0,4836.0,5587.0,873.0,4156.0,2963.0,1347.0,1254.0,574.0,40.0,202.0
669590,County,2020/07/28,19.0,IA,19009.0,Audubon County,774.0,4732.0,21165.0,3597.0,4847.0,1259.0,4088.0,4571.0,1267.0,1131.0,291.0,38.0,76.0
672803,County,2020/07/29,19.0,IA,19009.0,Audubon County,809.0,4697.0,21195.0,4661.0,5261.0,900.0,3571.0,3217.0,2039.0,1206.0,190.0,81.0,69.0
675885,County,2020/07/30,19.0,IA,19009.0,Audubon County,770.0,4736.0,19764.0,4484.0,5470.0,885.0,3109.0,2546.0,1548.0,1165.0,197.0,72.0,288.0
679113,County,2020/07/31,19.0,IA,19009.0,Audubon County,880.0,4626.0,20370.0,3707.0,4896.0,807.0,3926.0,3877.0,1589.0,944.0,438.0,106.0,80.0
680693,County,2020/08/01,19.0,IA,19009.0,Audubon County,900.0,4606.0,17652.0,4111.0,4892.0,863.0,3275.0,1895.0,1223.0,956.0,281.0,71.0,85.0
683916,County,2020/08/02,19.0,IA,19009.0,Audubon County,839.0,4667.0,19802.0,3980.0,3346.0,1813.0,4715.0,2553.0,1731.0,1041.0,275.0,55.0,293.0
688677,County,2020/08/03,19.0,IA,19009.0,Audubon County,789.0,4717.0,19786.0,3716.0,4819.0,1247.0,3055.0,3648.0,1242.0,1278.0,631.0,27.0,123.0
690305,County,2020/08/04,19.0,IA,19009.0,Audubon County,815.0,4691.0,23559.0,5510.0,5527.0,1131.0,4785.0,2605.0,2366.0,1120.0,386.0,51.0,78.0
695064,County,2020/08/05,19.0,IA,19009.0,Audubon County,777.0,4729.0,23232.0,6150.0,5361.0,912.0,4256.0,3282.0,1882.0,835.0,476.0,39.0,39.0
698259,County,2020/08/06,19.0,IA,19009.0,Audubon County,685.0,4821.0,21706.0,5739.0,4588.0,1690.0,3583.0,3198.0,1240.0,971.0,427.0,75.0,195.0
699886,County,2020/08/07,19.0,IA,19009.0,Audubon County,742.0,4764.0,24157.0,4875.0,5361.0,1237.0,6465.0,2255.0,1702.0,1491.0,657.0,29.0,85.0
704647,County,2020/08/08,19.0,IA,19009.0,Audubon County,775.0,4731.0,23594.0,4147.0,6504.0,1264.0,4747.0,4022.0,1905.0,802.0,50.0,61.0,92.0
706274,County,2020/08/09,19.0,IA,19009.0,Audubon County,896.0,4610.0,18726.0,2500.0,5590.0,849.0,3822.0,3025.0,1668.0,1096.0,92.0,42.0,42.0
709495,County,2020/08/10,19.0,IA,19009.0,Audubon County,680.0,4826.0,21066.0,4245.0,6094.0,1206.0,2959.0,3422.0,1848.0,813.0,358.0,48.0,73.0
712663,County,2020/08/11,19.0,IA,19009.0,Audubon County,883.0,4623.0,22170.0,4123.0,4653.0,923.0,5514.0,3189.0,2168.0,1166.0,420.0,14.0,0.0
717325,County,2020/08/12,19.0,IA,19009.0,Audubon County,872.0,4634.0,19793.0,3931.0,3748.0,929.0,4240.0,2341.0,2429.0,1450.0,485.0,120.0,120.0
719051,County,2020/08/13,19.0,IA,19009.0,Audubon County,820.0,4686.0,24620.0,5701.0,5501.0,973.0,4848.0,3388.0,1810.0,1834.0,369.0,69.0,127.0
722244,County,2020/08/14,19.0,IA,19009.0,Audubon County,779.0,4727.0,24588.0,5055.0,3842.0,1446.0,6049.0,3221.0,2548.0,1744.0,483.0,80.0,120.0
725474,County,2020/08/15,19.0,IA,19009.0,Audubon County,782.0,4724.0,23969.0,4800.0,5813.0,1939.0,3922.0,2966.0,2336.0,1565.0,460.0,0.0,168.0
730198,County,2020/08/16,19.0,IA,19009.0,Audubon County,878.0,4628.0,19541.0,3563.0,3323.0,1544.0,3524.0,3273.0,2338.0,1218.0,195.0,29.0,534.0
731827,County,2020/08/17,19.0,IA,19009.0,Audubon County,843.0,4663.0,18209.0,1972.0,3923.0,1286.0,3940.0,2610.0,2233.0,1491.0,263.0,80.0,411.0
736587,County,2020/08/18,19.0,IA,19009.0,Audubon County,961.0,4545.0,18230.0,3313.0,3479.0,1105.0,2699.0,3496.0,1863.0,1456.0,444.0,105.0,270.0
739781,County,2020/08/19,19.0,IA,19009.0,Audubon County,835.0,4671.0,21804.0,5747.0,3629.0,1106.0,3571.0,2655.0,2708.0,1376.0,560.0,70.0,382.0
742980,County,2020/08/20,19.0,IA,19009.0,Audubon County,864.0,4642.0,22929.0,6077.0,4106.0,1416.0,4255.0,3303.0,2229.0,755.0,461.0,93.0,234.0
746186,County,2020/08/21,19.0,IA,19009.0,Audubon County,802.0,4704.0,24616.0,4293.0,6433.0,1356.0,4395.0,2976.0,2775.0,1168.0,834.0,118.0,268.0
747814,County,2020/08/22,19.0,IA,19009.0,Audubon County,809.0,4697.0,22493.0,3924.0,6180.0,1182.0,3597.0,3089.0,2387.0,1357.0,399.0,14.0,364.0
751007,County,2020/08/23,19.0,IA,19009.0,Audubon County,728.0,4778.0,19917.0,4123.0,4503.0,851.0,3957.0,2343.0,2502.0,1075.0,302.0,26.0,235.0
755750,County,2020/08/24,19.0,IA,19009.0,Audubon County,798.0,4708.0,19301.0,4593.0,4040.0,791.0,2827.0,3329.0,1809.0,995.0,693.0,98.0,126.0
757379,County,2020/08/25,19.0,IA,19009.0,Audubon County,683.0,4823.0,20422.0,3731.0,3571.0,920.0,4820.0,2741.0,2506.0,1293.0,661.0,44.0,135.0
760574,County,2020/08/26,19.0,IA,19009.0,Audubon County,700.0,4806.0,21621.0,3244.0,4868.0,931.0,4037.0,3229.0,3192.0,1470.0,471.0,36.0,143.0
763730,County,2020/08/27,19.0,IA,19009.0,Audubon County,755.0,4751.0,19324.0,3159.0,2987.0,1026.0,3940.0,3212.0,2496.0,1395.0,860.0,62.0,187.0
768513,County,2020/08/28,19.0,IA,19009.0,Audubon County,706.0,4800.0,23110.0,4723.0,4669.0,1539.0,3953.0,3620.0,2296.0,1197.0,942.0,68.0,103.0
771713,County,2020/08/29,19.0,IA,19009.0,Audubon County,761.0,4745.0,20212.0,3953.0,4791.0,693.0,2969.0,2714.0,2733.0,1739.0,394.0,26.0,200.0
774932,County,2020/08/30,19.0,IA,19009.0,Audubon County,951.0,4555.0,17172.0,2371.0,3146.0,640.0,4717.0,2933.0,2192.0,734.0,323.0,17.0,99.0
776541,County,2020/08/31,19.0,IA,19009.0,Audubon County,806.0,4700.0,17819.0,3134.0,4995.0,1072.0,2902.0,2003.0,1739.0,1360.0,471.0,26.0,117.0
781320,County,2020/09/01,19.0,IA,19009.0,Audubon County,787.0,4719.0,17705.0,3663.0,3657.0,1189.0,3384.0,2664.0,1622.0,634.0,515.0,64.0,313.0
783715,County,2020/09/02,19.0,IA,19009.0,Audubon County,820.0,4686.0,21437.0,5035.0,5129.0,695.0,3985.0,2183.0,2505.0,1197.0,432.0,101.0,175.0
786075,County,2020/09/03,19.0,IA,19009.0,Audubon County,799.0,4707.0,17780.0,2683.0,3839.0,1102.0,3148.0,2937.0,2156.0,1159.0,418.0,84.0,254.0
789281,County,2020/09/04,19.0,IA,19009.0,Audubon County,757.0,4749.0,16823.0,2687.0,3780.0,1280.0,2975.0,2335.0,1974.0,993.0,681.0,29.0,89.0
792411,County,2020/09/05,19.0,IA,19009.0,Audubon County,921.0,4585.0,25301.0,4329.0,6561.0,2032.0,4697.0,2856.0,2957.0,1438.0,331.0,0.0,100.0
795700,County,2020/09/06,19.0,IA,19009.0,Audubon County,1048.0,4458.0,18012.0,3286.0,3299.0,1490.0,4122.0,2289.0,2079.0,1027.0,76.0,0.0,344.0
800465,County,2020/09/07,19.0,IA,19009.0,Audubon County,1073.0,4433.0,14474.0,2034.0,3420.0,619.0,2393.0,2373.0,1361.0,1686.0,469.0,48.0,71.0
803661,County,2020/09/08,19.0,IA,19009.0,Audubon County,875.0,4631.0,16407.0,3042.0,4237.0,786.0,2307.0,2610.0,1665.0,1041.0,413.0,97.0,209.0
805288,County,2020/09/09,19.0,IA,19009.0,Audubon County,863.0,4643.0,18472.0,3358.0,3547.0,682.0,2471.0,3096.0,2323.0,1923.0,800.0,57.0,215.0
808481,County,2020/09/10,19.0,IA,19009.0,Audubon County,771.0,4735.0,15920.0,2473.0,3036.0,604.0,2914.0,2843.0,2175.0,1228.0,458.0,75.0,114.0
813242,County,2020/09/11,19.0,IA,19009.0,Audubon County,868.0,4638.0,16997.0,3356.0,3629.0,571.0,2422.0,2680.0,2376.0,1038.0,867.0,58.0,0.0
816438,County,2020/09/12,19.0,IA,19009.0,Audubon County,895.0,4611.0,15968.0,1620.0,4193.0,827.0,2973.0,2315.0,2124.0,1423.0,366.0,31.0,96.0
819620,County,2020/09/13,19.0,IA,19009.0,Audubon County,965.0,4541.0,13362.0,2827.0,2652.0,261.0,1301.0,1505.0,2302.0,1688.0,718.0,43.0,65.0
822825,County,2020/09/14,19.0,IA,19009.0,Audubon County,929.0,4577.0,19475.0,3909.0,3631.0,787.0,2744.0,2721.0,2689.0,1899.0,896.0,90.0,109.0
826018,County,2020/09/15,19.0,IA,19009.0,Audubon County,910.0,4596.0,21107.0,5342.0,5088.0,895.0,2474.0,2289.0,2710.0,1605.0,566.0,35.0,103.0
827646,County,2020/09/16,19.0,IA,19009.0,Audubon County,863.0,4643.0,20008.0,4086.0,4797.0,723.0,2278.0,3675.0,2227.0,1617.0,439.0,16.0,150.0
830840,County,2020/09/17,19.0,IA,19009.0,Audubon County,791.0,4715.0,20257.0,3156.0,4125.0,1490.0,3373.0,3317.0,2837.0,1284.0,566.0,109.0,0.0
834018,County,2020/09/18,19.0,IA,19009.0,Audubon County,771.0,4735.0,23719.0,5792.0,6452.0,648.0,3010.0,3730.0,2212.0,1227.0,394.0,30.0,224.0
838793,County,2020/09/19,19.0,IA,19009.0,Audubon County,852.0,4654.0,23844.0,5304.0,5875.0,2461.0,3364.0,3266.0,1914.0,1184.0,275.0,0.0,201.0
840422,County,2020/09/20,19.0,IA,19009.0,Audubon County,818.0,4688.0,15744.0,3425.0,3032.0,763.0,1461.0,3324.0,2004.0,1315.0,312.0,27.0,81.0
845209,County,2020/09/21,19.0,IA,19009.0,Audubon County,936.0,4570.0,17096.0,3936.0,5135.0,626.0,1848.0,2338.0,1380.0,1379.0,422.0,32.0,0.0
848377,County,2020/09/22,19.0,IA,19009.0,Audubon County,842.0,4664.0,16724.0,3713.0,3697.0,668.0,1885.0,2949.0,1986.0,1496.0,253.0,31.0,46.0
850004,County,2020/09/23,19.0,IA,19009.0,Audubon County,962.0,4544.0,19404.0,4620.0,4835.0,1008.0,2231.0,2903.0,2517.0,637.0,561.0,92.0,0.0
853194,County,2020/09/24,19.0,IA,19009.0,Audubon County,839.0,4667.0,18659.0,3752.0,4370.0,711.0,3145.0,1990.0,2348.0,1428.0,629.0,81.0,205.0
857958,County,2020/09/25,19.0,IA,19009.0,Audubon County,801.0,4705.0,21398.0,4709.0,4241.0,747.0,2575.0,3310.0,2912.0,2178.0,567.0,40.0,119.0
859586,County,2020/09/26,19.0,IA,19009.0,Audubon County,795.0,4711.0,19580.0,3129.0,5105.0,944.0,3027.0,3441.0,2633.0,1192.0,95.0,14.0,0.0
864333,County,2020/09/27,19.0,IA,19009.0,Audubon County,895.0,4611.0,16653.0,3725.0,4666.0,1012.0,2309.0,2246.0,1323.0,1035.0,192.0,14.0,131.0
867541,County,2020/09/28,19.0,IA,19009.0,Audubon County,960.0,4546.0,16827.0,3174.0,3587.0,1408.0,2671.0,2446.0,1698.0,1155.0,611.0,31.0,46.0
870733,County,2020/09/29,19.0,IA,19009.0,Audubon County,828.0,4678.0,17126.0,3149.0,3710.0,894.0,2225.0,3218.0,1970.0,1219.0,675.0,32.0,34.0
872362,County,2020/09/30,19.0,IA,19009.0,Audubon County,931.0,4575.0,20080.0,2824.0,5311.0,720.0,2987.0,3195.0,3667.0,1318.0,0.0,23.0,35.0
877102,County,2020/10/01,19.0,IA,19009.0,Audubon County,747.0,4759.0,19930.0,4248.0,5214.0,920.0,2182.0,2713.0,2462.0,1698.0,465.0,10.0,18.0
878730,County,2020/10/02,19.0,IA,19009.0,Audubon County,797.0,4709.0,18575.0,3820.0,4496.0,964.0,1881.0,2884.0,2372.0,1660.0,419.0,19.0,60.0
881945,County,2020/10/03,19.0,IA,19009.0,Audubon County,995.0,4511.0,18320.0,2519.0,5109.0,1197.0,2981.0,2587.0,3050.0,644.0,233.0,0.0,0.0
886735,County,2020/10/04,19.0,IA,19009.0,Audubon County,971.0,4535.0,18847.0,2846.0,4626.0,668.0,3763.0,3865.0,1301.0,1133.0,592.0,0.0,53.0
888696,County,2020/10/05,19.0,IA,19009.0,Audubon County,904.0,4602.0,19233.0,4319.0,4757.0,1387.0,2401.0,2935.0,1888.0,1036.0,477.0,0.0,33.0
891866,County,2020/10/06,19.0,IA,19009.0,Audubon County,802.0,4704.0,19218.0,3111.0,5231.0,1004.0,2586.0,3329.0,2214.0,1506.0,185.0,31.0,21.0
895115,County,2020/10/07,19.0,IA,19009.0,Audubon County,780.0,4726.0,23773.0,4396.0,7452.0,641.0,3615.0,3700.0,1591.0,1674.0,624.0,39.0,41.0
898247,County,2020/10/08,19.0,IA,19009.0,Audubon County,734.0,4772.0,18620.0,3532.0,3033.0,1401.0,3141.0,3697.0,2511.0,1115.0,190.0,0.0,0.0
901486,County,2020/10/09,19.0,IA,19009.0,Audubon County,771.0,4735.0,20705.0,4077.0,5759.0,1202.0,3201.0,3137.0,1679.0,1388.0,194.0,25.0,43.0
904660,County,2020/10/10,19.0,IA,19009.0,Audubon County,973.0,4533.0,22284.0,4088.0,4947.0,2543.0,5003.0,2834.0,1300.0,1453.0,105.0,11.0,0.0
907231,County,2020/10/11,19.0,IA,19009.0,Audubon County,956.0,4550.0,16616.0,4484.0,3844.0,1583.0,1986.0,1999.0,1314.0,979.0,379.0,35.0,13.0
912501,County,2020/10/12,19.0,IA,19009.0,Audubon County,830.0,4676.0,18813.0,3955.0,4150.0,1531.0,1814.0,3811.0,2218.0,894.0,395.0,21.0,24.0
915937,County,2020/10/13,19.0,IA,19009.0,Audubon County,816.0,4690.0,22373.0,5741.0,5212.0,806.0,3528.0,3596.0,1751.0,1255.0,416.0,56.0,12.0
919082,County,2020/10/14,19.0,IA,19009.0,Audubon County,672.0,4834.0,21388.0,3945.0,3766.0,1204.0,3951.0,4196.0,2180.0,1758.0,326.0,51.0,11.0
922267,County,2020/10/15,19.0,IA,19009.0,Audubon County,807.0,4699.0,19121.0,3184.0,5697.0,881.0,3374.0,2376.0,1914.0,1372.0,284.0,12.0,27.0
925088,County,2020/10/16,19.0,IA,19009.0,Audubon County,844.0,4662.0,20711.0,5601.0,3229.0,1267.0,3864.0,2790.0,1475.0,1983.0,420.0,57.0,25.0
928664,County,2020/10/17,19.0,IA,19009.0,Audubon County,856.0,4650.0,19855.0,4737.0,3549.0,945.0,2680.0,3610.0,2521.0,1431.0,349.0,33.0,0.0
931723,County,2020/10/18,19.0,IA,19009.0,Audubon County,1048.0,4458.0,13418.0,2439.0,1844.0,589.0,2096.0,2935.0,1707.0,1291.0,399.0,49.0,69.0
934583,County,2020/10/19,19.0,IA,19009.0,Audubon County,876.0,4630.0,17229.0,3603.0,4100.0,1015.0,1280.0,3060.0,2543.0,956.0,589.0,29.0,54.0
937963,County,2020/10/20,19.0,IA,19009.0,Audubon County,812.0,4694.0,18654.0,3570.0,4834.0,833.0,2611.0,2830.0,1892.0,1726.0,307.0,19.0,32.0
941391,County,2020/10/21,19.0,IA,19009.0,Audubon County,869.0,4637.0,16870.0,2915.0,5069.0,523.0,1858.0,2683.0,1798.0,1527.0,404.0,44.0,49.0
944998,County,2020/10/22,19.0,IA,19009.0,Audubon County,842.0,4664.0,18407.0,3635.0,3688.0,1179.0,2708.0,3082.0,2646.0,895.0,501.0,29.0,44.0
948162,County,2020/10/23,19.0,IA,19009.0,Audubon County,766.0,4740.0,20717.0,4590.0,3442.0,494.0,3125.0,3425.0,3218.0,1730.0,655.0,18.0,20.0
951068,County,2020/10/24,19.0,IA,19009.0,Audubon County,850.0,4656.0,24772.0,4144.0,4339.0,2311.0,4669.0,3736.0,2608.0,2649.0,258.0,33.0,25.0
