,Level,Date,State FIPS,State Postal Code,County FIPS,County Name,Population Staying at Home,Population Not Staying at Home,Number of Trips,Number of Trips <1,Number of Trips 1-3,Number of Trips 3-5,Number of Trips 5-10,Number of Trips 10-25,Number of Trips 25-50,Number of Trips 50-100,Number of Trips 100-250,Number of Trips 250-500,Number of Trips >=500
1825,County,2020/01/01,35.0,NM,35059.0,Union County,875.0,3243.0,10041.0,3277.0,3365.0,569.0,229.0,595.0,560.0,796.0,559.0,91.0,0.0
5200,County,2020/01/02,35.0,NM,35059.0,Union County,1000.0,3118.0,14216.0,3059.0,5883.0,1154.0,425.0,836.0,640.0,1534.0,619.0,66.0,0.0
7039,County,2020/01/03,35.0,NM,35059.0,Union County,957.0,3161.0,17953.0,3549.0,7472.0,2106.0,408.0,981.0,1092.0,1861.0,446.0,38.0,0.0
10859,County,2020/01/04,35.0,NM,35059.0,Union County,835.0,3283.0,13644.0,2914.0,6140.0,1281.0,322.0,1159.0,657.0,597.0,525.0,49.0,0.0
14601,County,2020/01/05,35.0,NM,35059.0,Union County,1010.0,3108.0,11874.0,2827.0,3618.0,1036.0,434.0,1198.0,877.0,1449.0,405.0,30.0,0.0
18479,County,2020/01/06,35.0,NM,35059.0,Union County,816.0,3302.0,19035.0,4205.0,7718.0,2739.0,492.0,1181.0,903.0,1163.0,612.0,22.0,0.0
20071,County,2020/01/07,35.0,NM,35059.0,Union County,816.0,3302.0,17248.0,5496.0,6110.0,1467.0,688.0,984.0,1084.0,958.0,394.0,67.0,0.0
23301,County,2020/01/08,35.0,NM,35059.0,Union County,858.0,3260.0,14962.0,4785.0,6212.0,850.0,506.0,836.0,756.0,595.0,422.0,0.0,0.0
28049,County,2020/01/09,35.0,NM,35059.0,Union County,923.0,3195.0,14508.0,3003.0,7489.0,594.0,465.0,1036.0,488.0,901.0,487.0,45.0,0.0
29643,County,2020/01/10,35.0,NM,35059.0,Union County,774.0,3344.0,12923.0,2819.0,5072.0,771.0,574.0,862.0,1002.0,1439.0,345.0,39.0,0.0
34451,County,2020/01/11,35.0,NM,35059.0,Union County,906.0,3212.0,13417.0,3233.0,5806.0,1177.0,287.0,689.0,527.0,1123.0,526.0,49.0,0.0
36040,County,2020/01/12,35.0,NM,35059.0,Union County,935.0,3183.0,10068.0,2704.0,3913.0,621.0,347.0,708.0,701.0,507.0,555.0,12.0,0.0
39283,County,2020/01/13,35.0,NM,35059.0,Union County,858.0,3260.0,14811.0,4592.0,5125.0,1795.0,506.0,1102.0,698.0,463.0,465.0,65.0,0.0
44016,County,2020/01/14,35.0,NM,35059.0,Union County,854.0,3264.0,19788.0,6365.0,7676.0,2122.0,640.0,1025.0,523.0,891.0,522.0,24.0,0.0
45597,County,2020/01/15,35.0,NM,35059.0,Union County,925.0,3193.0,14059.0,2693.0,6218.0,1986.0,412.0,951.0,757.0,661.0,338.0,43.0,0.0
50378,County,2020/01/16,35.0,NM,35059.0,Union County,903.0,3215.0,15348.0,3476.0,6279.0,1491.0,499.0,1199.0,918.0,1173.0,292.0,21.0,0.0
52006,County,2020/01/17,35.0,NM,35059.0,Union County,1010.0,3108.0,19914.0,6245.0,8002.0,1036.0,555.0,1125.0,1084.0,1449.0,370.0,48.0,0.0
56787,County,2020/01/18,35.0,NM,35059.0,Union County,910.0,3208.0,19225.0,3903.0,9706.0,1222.0,375.0,1065.0,1253.0,1211.0,455.0,35.0,0.0
58386,County,2020/01/19,35.0,NM,35059.0,Union County,996.0,3122.0,13459.0,3213.0,6101.0,900.0,301.0,905.0,969.0,629.0,402.0,39.0,0.0
61618,County,2020/01/20,35.0,NM,35059.0,Union County,874.0,3244.0,15447.0,3355.0,6317.0,1249.0,740.0,1353.0,1124.0,1008.0,301.0,0.0,0.0
66346,County,2020/01/21,35.0,NM,35059.0,Union County,839.0,3279.0,14576.0,3654.0,5635.0,1114.0,402.0,1034.0,1108.0,1139.0,460.0,30.0,0.0
67977,County,2020/01/22,35.0,NM,35059.0,Union County,969.0,3149.0,13468.0,3770.0,3716.0,969.0,577.0,1472.0,1060.0,1205.0,674.0,25.0,0.0
72768,County,2020/01/23,35.0,NM,35059.0,Union County,807.0,3311.0,19629.0,4751.0,9031.0,1351.0,332.0,1232.0,1386.0,1071.0,403.0,72.0,0.0
75924,County,2020/01/24,35.0,NM,35059.0,Union County,899.0,3219.0,18486.0,5353.0,6905.0,1251.0,329.0,935.0,1430.0,1563.0,679.0,41.0,0.0
77551,County,2020/01/25,35.0,NM,35059.0,Union County,965.0,3153.0,17263.0,4771.0,7080.0,630.0,176.0,1606.0,1099.0,1102.0,751.0,48.0,0.0
81675,County,2020/01/26,35.0,NM,35059.0,Union County,886.0,3232.0,15973.0,3941.0,8558.0,628.0,210.0,903.0,663.0,628.0,401.0,41.0,0.0
85523,County,2020/01/27,35.0,NM,35059.0,Union County,949.0,3169.0,18736.0,4963.0,8151.0,1653.0,369.0,1256.0,1130.0,1028.0,123.0,63.0,0.0
87196,County,2020/01/28,35.0,NM,35059.0,Union County,928.0,3190.0,15742.0,3650.0,6246.0,814.0,394.0,1056.0,1559.0,1455.0,526.0,42.0,0.0
90351,County,2020/01/29,35.0,NM,35059.0,Union County,816.0,3302.0,16107.0,3146.0,6553.0,1744.0,445.0,1470.0,1278.0,988.0,445.0,38.0,0.0
95135,County,2020/01/30,35.0,NM,35059.0,Union County,877.0,3241.0,19464.0,3751.0,8840.0,1499.0,591.0,1809.0,1411.0,863.0,670.0,30.0,0.0
96710,County,2020/01/31,35.0,NM,35059.0,Union County,801.0,3317.0,19574.0,4731.0,8458.0,1527.0,431.0,1100.0,1336.0,1406.0,539.0,46.0,0.0
101468,County,2020/02/01,35.0,NM,35059.0,Union County,908.0,3210.0,17198.0,3958.0,7033.0,1183.0,366.0,1135.0,1345.0,1210.0,895.0,73.0,0.0
103087,County,2020/02/02,35.0,NM,35059.0,Union County,967.0,3151.0,12979.0,4042.0,6120.0,286.0,96.0,768.0,294.0,935.0,427.0,11.0,0.0
107922,County,2020/02/03,35.0,NM,35059.0,Union County,822.0,3296.0,14105.0,2860.0,5140.0,1340.0,499.0,1108.0,1329.0,1354.0,466.0,9.0,0.0
111058,County,2020/02/04,35.0,NM,35059.0,Union County,952.0,3166.0,14450.0,2985.0,6660.0,1013.0,170.0,1290.0,1143.0,886.0,264.0,39.0,0.0
114261,County,2020/02/05,35.0,NM,35059.0,Union County,971.0,3147.0,16728.0,3129.0,6615.0,1627.0,746.0,1550.0,1528.0,1198.0,306.0,29.0,0.0
117468,County,2020/02/06,35.0,NM,35059.0,Union County,865.0,3253.0,16562.0,2934.0,7787.0,1204.0,645.0,1066.0,1334.0,899.0,610.0,83.0,0.0
120722,County,2020/02/07,35.0,NM,35059.0,Union County,703.0,3415.0,16391.0,3133.0,8276.0,690.0,785.0,1110.0,1104.0,868.0,370.0,55.0,0.0
123882,County,2020/02/08,35.0,NM,35059.0,Union County,1055.0,3063.0,17004.0,2033.0,9710.0,1303.0,495.0,454.0,1337.0,972.0,660.0,40.0,0.0
125838,County,2020/02/09,35.0,NM,35059.0,Union County,1028.0,3090.0,12381.0,2177.0,5886.0,1171.0,393.0,775.0,679.0,530.0,738.0,32.0,0.0
130134,County,2020/02/10,35.0,NM,35059.0,Union County,761.0,3357.0,18339.0,4220.0,7224.0,2033.0,506.0,1056.0,1130.0,1605.0,557.0,8.0,0.0
134042,County,2020/02/11,35.0,NM,35059.0,Union County,855.0,3263.0,13638.0,2962.0,5989.0,890.0,244.0,1270.0,1146.0,793.0,289.0,55.0,0.0
135517,County,2020/02/12,35.0,NM,35059.0,Union County,876.0,3242.0,15621.0,2954.0,6362.0,1433.0,408.0,1269.0,1632.0,1153.0,353.0,57.0,0.0
138275,County,2020/02/13,35.0,NM,35059.0,Union County,746.0,3372.0,15524.0,3364.0,5881.0,1403.0,517.0,1016.0,1554.0,932.0,784.0,73.0,0.0
143005,County,2020/02/14,35.0,NM,35059.0,Union County,845.0,3273.0,17662.0,5010.0,5813.0,1354.0,580.0,1816.0,1343.0,1106.0,605.0,35.0,0.0
146211,County,2020/02/15,35.0,NM,35059.0,Union County,993.0,3125.0,18581.0,4303.0,7399.0,1272.0,754.0,1811.0,1626.0,890.0,481.0,45.0,0.0
147818,County,2020/02/16,35.0,NM,35059.0,Union County,1030.0,3088.0,16493.0,2736.0,6997.0,2553.0,539.0,1217.0,1223.0,794.0,423.0,11.0,0.0
151041,County,2020/02/17,35.0,NM,35059.0,Union County,971.0,3147.0,13908.0,2451.0,6218.0,1240.0,644.0,898.0,916.0,1084.0,443.0,14.0,0.0
155724,County,2020/02/18,35.0,NM,35059.0,Union County,805.0,3313.0,16320.0,3933.0,5802.0,1691.0,369.0,888.0,1630.0,1389.0,592.0,26.0,0.0
158967,County,2020/02/19,35.0,NM,35059.0,Union County,834.0,3284.0,15615.0,3271.0,6276.0,1612.0,682.0,1195.0,1201.0,950.0,379.0,49.0,0.0
162211,County,2020/02/20,35.0,NM,35059.0,Union County,875.0,3243.0,16937.0,3645.0,6929.0,1349.0,310.0,1289.0,1505.0,1297.0,565.0,48.0,0.0
163789,County,2020/02/21,35.0,NM,35059.0,Union County,827.0,3291.0,17206.0,3811.0,6452.0,1201.0,617.0,1934.0,1331.0,1233.0,608.0,19.0,0.0
166983,County,2020/02/22,35.0,NM,35059.0,Union County,749.0,3369.0,15276.0,2607.0,6147.0,1359.0,569.0,2051.0,785.0,1130.0,608.0,20.0,0.0
171749,County,2020/02/23,35.0,NM,35059.0,Union County,928.0,3190.0,10551.0,2704.0,3460.0,916.0,613.0,994.0,620.0,384.0,818.0,42.0,0.0
174992,County,2020/02/24,35.0,NM,35059.0,Union County,843.0,3275.0,15247.0,2642.0,5775.0,1716.0,766.0,1249.0,1107.0,1543.0,402.0,47.0,0.0
177496,County,2020/02/25,35.0,NM,35059.0,Union County,726.0,3392.0,14917.0,2027.0,5525.0,2241.0,782.0,1352.0,1264.0,1371.0,334.0,21.0,0.0
180689,County,2020/02/26,35.0,NM,35059.0,Union County,677.0,3441.0,13497.0,2482.0,3149.0,2980.0,713.0,770.0,1573.0,1637.0,95.0,98.0,0.0
184563,County,2020/02/27,35.0,NM,35059.0,Union County,657.0,3461.0,16001.0,3659.0,6272.0,1380.0,599.0,1045.0,1399.0,966.0,653.0,28.0,0.0
187762,County,2020/02/28,35.0,NM,35059.0,Union County,736.0,3382.0,17574.0,4545.0,7443.0,1090.0,534.0,1079.0,1445.0,997.0,374.0,67.0,0.0
190908,County,2020/02/29,35.0,NM,35059.0,Union County,659.0,3459.0,17773.0,3150.0,7704.0,986.0,743.0,1654.0,1671.0,1552.0,294.0,19.0,0.0
194126,County,2020/03/01,35.0,NM,35059.0,Union County,846.0,3272.0,15651.0,3432.0,7485.0,1423.0,541.0,802.0,525.0,797.0,636.0,10.0,0.0
197331,County,2020/03/02,35.0,NM,35059.0,Union County,737.0,3381.0,17253.0,2527.0,6441.0,2067.0,693.0,1533.0,1876.0,1751.0,340.0,25.0,0.0
198911,County,2020/03/03,35.0,NM,35059.0,Union County,673.0,3445.0,17604.0,3267.0,8015.0,1500.0,670.0,905.0,1540.0,1399.0,280.0,28.0,0.0
201240,County,2020/03/04,35.0,NM,35059.0,Union County,766.0,3352.0,19581.0,3116.0,9541.0,1519.0,555.0,834.0,1361.0,2127.0,433.0,95.0,0.0
206897,County,2020/03/05,35.0,NM,35059.0,Union County,691.0,3427.0,16701.0,2045.0,7789.0,1921.0,687.0,927.0,1418.0,985.0,915.0,14.0,0.0
210160,County,2020/03/06,35.0,NM,35059.0,Union County,716.0,3402.0,16006.0,3516.0,6476.0,1022.0,488.0,1057.0,1527.0,1429.0,457.0,34.0,0.0
211729,County,2020/03/07,35.0,NM,35059.0,Union County,753.0,3365.0,14974.0,2831.0,5994.0,1121.0,281.0,847.0,2072.0,1373.0,439.0,16.0,0.0
214895,County,2020/03/08,35.0,NM,35059.0,Union County,833.0,3285.0,12732.0,2194.0,5798.0,1227.0,308.0,1111.0,755.0,859.0,480.0,0.0,0.0
218097,County,2020/03/09,35.0,NM,35059.0,Union County,767.0,3351.0,20092.0,2827.0,7810.0,3959.0,1220.0,1401.0,1365.0,996.0,496.0,18.0,0.0
221331,County,2020/03/10,35.0,NM,35059.0,Union County,787.0,3331.0,15024.0,2354.0,6194.0,1739.0,291.0,1808.0,982.0,1217.0,389.0,50.0,0.0
224520,County,2020/03/11,35.0,NM,35059.0,Union County,356.0,3762.0,41638.0,10156.0,18126.0,2756.0,1107.0,2842.0,2742.0,2620.0,1174.0,115.0,0.0
227705,County,2020/03/12,35.0,NM,35059.0,Union County,708.0,3410.0,15166.0,1059.0,4701.0,2859.0,1094.0,1315.0,2766.0,1143.0,182.0,47.0,0.0
230864,County,2020/03/13,35.0,NM,35059.0,Union County,755.0,3363.0,14609.0,1939.0,2376.0,481.0,1291.0,1163.0,4448.0,2696.0,215.0,0.0,0.0
235540,County,2020/03/14,35.0,NM,35059.0,Union County,465.0,3653.0,27762.0,6010.0,11334.0,2395.0,921.0,2196.0,2352.0,1708.0,790.0,56.0,0.0
237250,County,2020/03/15,35.0,NM,35059.0,Union County,1096.0,3022.0,13459.0,1729.0,7297.0,1243.0,714.0,857.0,109.0,993.0,476.0,41.0,0.0
240493,County,2020/03/16,35.0,NM,35059.0,Union County,916.0,3202.0,17389.0,2837.0,7363.0,896.0,986.0,1390.0,2048.0,1253.0,572.0,44.0,0.0
245252,County,2020/03/17,35.0,NM,35059.0,Union County,886.0,3232.0,13353.0,2364.0,5588.0,1336.0,488.0,879.0,1122.0,1019.0,543.0,14.0,0.0
246831,County,2020/03/18,35.0,NM,35059.0,Union County,1008.0,3110.0,17742.0,3656.0,8245.0,1584.0,795.0,903.0,975.0,1200.0,354.0,30.0,0.0
251613,County,2020/03/19,35.0,NM,35059.0,Union County,1013.0,3105.0,13822.0,3947.0,5893.0,384.0,514.0,1133.0,1261.0,448.0,228.0,14.0,0.0
253271,County,2020/03/20,35.0,NM,35059.0,Union County,1211.0,2907.0,16344.0,3010.0,7922.0,1054.0,454.0,1394.0,741.0,1264.0,471.0,34.0,0.0
256414,County,2020/03/21,35.0,NM,35059.0,Union County,1012.0,3106.0,11648.0,1372.0,5570.0,161.0,540.0,909.0,1589.0,677.0,793.0,37.0,0.0
261168,County,2020/03/22,35.0,NM,35059.0,Union County,1095.0,3023.0,9259.0,1777.0,3168.0,701.0,235.0,282.0,1402.0,1103.0,470.0,121.0,0.0
264380,County,2020/03/23,35.0,NM,35059.0,Union County,983.0,3135.0,14480.0,2270.0,6661.0,1520.0,509.0,1376.0,1013.0,974.0,113.0,44.0,0.0
266006,County,2020/03/24,35.0,NM,35059.0,Union County,1080.0,3038.0,12177.0,2902.0,4352.0,623.0,469.0,1316.0,1054.0,1198.0,209.0,54.0,0.0
269239,County,2020/03/25,35.0,NM,35059.0,Union County,952.0,3166.0,15237.0,2905.0,6740.0,1447.0,485.0,1067.0,1113.0,1181.0,216.0,83.0,0.0
273980,County,2020/03/26,35.0,NM,35059.0,Union County,995.0,3123.0,14918.0,2543.0,7699.0,911.0,349.0,733.0,1281.0,1183.0,174.0,45.0,0.0
277147,County,2020/03/27,35.0,NM,35059.0,Union County,1046.0,3072.0,15077.0,3742.0,5711.0,1241.0,707.0,1148.0,1222.0,1041.0,222.0,43.0,0.0
278774,County,2020/03/28,35.0,NM,35059.0,Union County,1047.0,3071.0,13988.0,2287.0,6728.0,1270.0,567.0,1647.0,1043.0,99.0,315.0,32.0,0.0
283534,County,2020/03/29,35.0,NM,35059.0,Union County,1269.0,2849.0,11960.0,1877.0,5463.0,1187.0,318.0,1528.0,877.0,498.0,212.0,0.0,0.0
285161,County,2020/03/30,35.0,NM,35059.0,Union County,1024.0,3094.0,10636.0,1886.0,4025.0,773.0,259.0,1244.0,952.0,1352.0,115.0,30.0,0.0
289964,County,2020/03/31,35.0,NM,35059.0,Union County,963.0,3155.0,11302.0,1614.0,4880.0,1113.0,456.0,1045.0,1142.0,692.0,332.0,28.0,0.0
291592,County,2020/04/01,35.0,NM,35059.0,Union County,935.0,3183.0,8569.0,1206.0,3387.0,970.0,284.0,780.0,746.0,1017.0,54.0,125.0,0.0
296325,County,2020/04/02,35.0,NM,35059.0,Union County,1043.0,3075.0,10829.0,1571.0,4129.0,925.0,709.0,957.0,1221.0,1110.0,177.0,30.0,0.0
297986,County,2020/04/03,35.0,NM,35059.0,Union County,998.0,3120.0,10552.0,1904.0,3729.0,882.0,464.0,1014.0,931.0,1234.0,394.0,0.0,0.0
302732,County,2020/04/04,35.0,NM,35059.0,Union County,1025.0,3093.0,9289.0,1246.0,4431.0,793.0,319.0,1021.0,781.0,554.0,71.0,73.0,0.0
305885,County,2020/04/05,35.0,NM,35059.0,Union County,1229.0,2889.0,7223.0,1223.0,3332.0,608.0,611.0,245.0,873.0,284.0,0.0,47.0,0.0
309085,County,2020/04/06,35.0,NM,35059.0,Union County,1042.0,3076.0,11420.0,1209.0,5443.0,1261.0,370.0,1015.0,1262.0,772.0,70.0,18.0,0.0
312325,County,2020/04/07,35.0,NM,35059.0,Union County,954.0,3164.0,11461.0,2687.0,4622.0,625.0,523.0,1068.0,1250.0,546.0,140.0,0.0,0.0
315498,County,2020/04/08,35.0,NM,35059.0,Union County,950.0,3168.0,9155.0,1485.0,3967.0,1207.0,556.0,850.0,464.0,422.0,135.0,69.0,0.0
317125,County,2020/04/09,35.0,NM,35059.0,Union County,878.0,3240.0,8757.0,2352.0,3943.0,600.0,201.0,483.0,517.0,419.0,214.0,28.0,0.0
320352,County,2020/04/10,35.0,NM,35059.0,Union County,1102.0,3016.0,10354.0,1456.0,4956.0,1005.0,505.0,674.0,928.0,586.0,225.0,19.0,0.0
323537,County,2020/04/11,35.0,NM,35059.0,Union County,1080.0,3038.0,9620.0,2261.0,4438.0,844.0,452.0,747.0,623.0,236.0,0.0,19.0,0.0
326682,County,2020/04/12,35.0,NM,35059.0,Union County,1144.0,2974.0,8594.0,1179.0,5690.0,150.0,454.0,484.0,278.0,105.0,202.0,52.0,0.0
329947,County,2020/04/13,35.0,NM,35059.0,Union County,1035.0,3083.0,12005.0,3130.0,4318.0,1168.0,391.0,940.0,898.0,817.0,326.0,17.0,0.0
333071,County,2020/04/14,35.0,NM,35059.0,Union County,932.0,3186.0,11231.0,672.0,3347.0,873.0,1559.0,1639.0,2327.0,814.0,0.0,0.0,0.0
336296,County,2020/04/15,35.0,NM,35059.0,Union County,832.0,3286.0,28645.0,4420.0,7786.0,1734.0,912.0,3215.0,4468.0,3985.0,1843.0,282.0,0.0
339450,County,2020/04/16,35.0,NM,35059.0,Union County,883.0,3235.0,28630.0,4173.0,8067.0,1663.0,905.0,3228.0,4137.0,4352.0,1902.0,203.0,0.0
342750,County,2020/04/17,35.0,NM,35059.0,Union County,905.0,3213.0,28812.0,4114.0,8676.0,1920.0,1063.0,3041.0,4167.0,3916.0,1737.0,178.0,0.0
345856,County,2020/04/18,35.0,NM,35059.0,Union County,1029.0,3089.0,23239.0,3589.0,7451.0,1712.0,882.0,2085.0,3383.0,2645.0,1326.0,166.0,0.0
350608,County,2020/04/19,35.0,NM,35059.0,Union County,919.0,3199.0,18972.0,2948.0,6404.0,1729.0,702.0,1849.0,2391.0,1957.0,901.0,91.0,0.0
353857,County,2020/04/20,35.0,NM,35059.0,Union County,751.0,3367.0,26897.0,3973.0,8088.0,1981.0,873.0,2970.0,4081.0,3256.0,1561.0,114.0,0.0
355428,County,2020/04/21,35.0,NM,35059.0,Union County,1075.0,3043.0,8931.0,1667.0,2759.0,839.0,234.0,844.0,1378.0,881.0,313.0,16.0,0.0
358671,County,2020/04/22,35.0,NM,35059.0,Union County,979.0,3139.0,15814.0,2759.0,8168.0,1177.0,438.0,842.0,966.0,1098.0,351.0,15.0,0.0
363404,County,2020/04/23,35.0,NM,35059.0,Union County,992.0,3126.0,15673.0,3007.0,7794.0,1006.0,241.0,1387.0,1857.0,301.0,64.0,16.0,0.0
365031,County,2020/04/24,35.0,NM,35059.0,Union County,1052.0,3066.0,18652.0,2717.0,9953.0,1362.0,710.0,1035.0,1770.0,953.0,135.0,17.0,0.0
368198,County,2020/04/25,35.0,NM,35059.0,Union County,1062.0,3056.0,18255.0,4345.0,7610.0,1852.0,434.0,1490.0,912.0,1425.0,166.0,21.0,0.0
371364,County,2020/04/26,35.0,NM,35059.0,Union County,1036.0,3082.0,11132.0,2943.0,4698.0,1608.0,180.0,503.0,440.0,500.0,240.0,20.0,0.0
376198,County,2020/04/27,35.0,NM,35059.0,Union County,979.0,3139.0,12916.0,2500.0,4667.0,1943.0,451.0,842.0,1288.0,941.0,267.0,17.0,0.0
377792,County,2020/04/28,35.0,NM,35059.0,Union County,859.0,3259.0,14331.0,3008.0,6745.0,1207.0,728.0,680.0,1114.0,591.0,216.0,42.0,0.0
382572,County,2020/04/29,35.0,NM,35059.0,Union County,921.0,3197.0,12718.0,2415.0,4930.0,473.0,899.0,1206.0,1263.0,1214.0,282.0,36.0,0.0
385790,County,2020/04/30,35.0,NM,35059.0,Union County,886.0,3232.0,13718.0,2758.0,6861.0,942.0,496.0,921.0,912.0,753.0,60.0,15.0,0.0
388978,County,2020/05/01,35.0,NM,35059.0,Union County,878.0,3240.0,12562.0,1862.0,4969.0,1439.0,627.0,1563.0,886.0,604.0,579.0,33.0,0.0
392128,County,2020/05/02,35.0,NM,35059.0,Union County,914.0,3204.0,12010.0,2235.0,5567.0,1031.0,740.0,711.0,725.0,721.0,263.0,17.0,0.0
395324,County,2020/05/03,35.0,NM,35059.0,Union County,954.0,3164.0,9177.0,1445.0,4096.0,767.0,257.0,386.0,1062.0,670.0,428.0,66.0,0.0
396974,County,2020/05/04,35.0,NM,35059.0,Union County,943.0,3175.0,13819.0,2616.0,6699.0,784.0,368.0,1703.0,772.0,439.0,420.0,18.0,0.0
400193,County,2020/05/05,35.0,NM,35059.0,Union County,946.0,3172.0,13544.0,2010.0,7190.0,1166.0,684.0,763.0,718.0,816.0,130.0,67.0,0.0
404948,County,2020/05/06,35.0,NM,35059.0,Union County,751.0,3367.0,16002.0,1988.0,8896.0,1848.0,486.0,690.0,1138.0,646.0,295.0,15.0,0.0
408043,County,2020/05/07,35.0,NM,35059.0,Union County,857.0,3261.0,16154.0,2646.0,7916.0,2819.0,669.0,992.0,651.0,329.0,105.0,27.0,0.0
411305,County,2020/05/08,35.0,NM,35059.0,Union County,979.0,3139.0,17008.0,1405.0,8844.0,2241.0,751.0,1563.0,736.0,1150.0,267.0,51.0,0.0
412885,County,2020/05/09,35.0,NM,35059.0,Union County,916.0,3202.0,13984.0,1852.0,6577.0,2400.0,759.0,751.0,739.0,653.0,238.0,15.0,0.0
417682,County,2020/05/10,35.0,NM,35059.0,Union County,847.0,3271.0,10809.0,1509.0,5423.0,1414.0,474.0,758.0,508.0,577.0,105.0,41.0,0.0
419357,County,2020/05/11,35.0,NM,35059.0,Union County,840.0,3278.0,13319.0,2215.0,5723.0,1570.0,549.0,1044.0,1261.0,621.0,305.0,31.0,0.0
422541,County,2020/05/12,35.0,NM,35059.0,Union County,822.0,3296.0,13570.0,3057.0,4310.0,1842.0,783.0,855.0,1396.0,843.0,443.0,41.0,0.0
425599,County,2020/05/13,35.0,NM,35059.0,Union County,843.0,3275.0,13458.0,1850.0,6042.0,919.0,641.0,770.0,1791.0,750.0,616.0,79.0,0.0
428940,County,2020/05/14,35.0,NM,35059.0,Union County,779.0,3339.0,12926.0,3127.0,4348.0,1355.0,562.0,908.0,1390.0,722.0,433.0,81.0,0.0
433680,County,2020/05/15,35.0,NM,35059.0,Union County,738.0,3380.0,11459.0,2502.0,4246.0,961.0,463.0,894.0,1294.0,588.0,456.0,55.0,0.0
435358,County,2020/05/16,35.0,NM,35059.0,Union County,796.0,3322.0,10131.0,1935.0,3919.0,749.0,411.0,1014.0,1174.0,715.0,183.0,31.0,0.0
439994,County,2020/05/17,35.0,NM,35059.0,Union County,884.0,3234.0,22840.0,4097.0,7772.0,1853.0,861.0,2439.0,2564.0,2342.0,849.0,63.0,0.0
443283,County,2020/05/18,35.0,NM,35059.0,Union County,828.0,3290.0,27308.0,5032.0,9920.0,2324.0,976.0,2675.0,2876.0,2457.0,978.0,70.0,0.0
446446,County,2020/05/19,35.0,NM,35059.0,Union County,825.0,3293.0,29767.0,5081.0,9910.0,2250.0,991.0,3158.0,3908.0,3168.0,1208.0,93.0,0.0
448077,County,2020/05/20,35.0,NM,35059.0,Union County,841.0,3277.0,30984.0,5441.0,9240.0,2148.0,1051.0,3520.0,4507.0,3652.0,1317.0,108.0,0.0
452512,County,2020/05/21,35.0,NM,35059.0,Union County,831.0,3287.0,14357.0,2188.0,6371.0,1179.0,1016.0,746.0,726.0,1414.0,678.0,39.0,0.0
454435,County,2020/05/22,35.0,NM,35059.0,Union County,833.0,3285.0,27676.0,5058.0,9048.0,2075.0,999.0,2818.0,3466.0,2996.0,1120.0,96.0,0.0
457631,County,2020/05/23,35.0,NM,35059.0,Union County,894.0,3224.0,25344.0,4889.0,8653.0,1956.0,884.0,2459.0,2843.0,2616.0,965.0,79.0,0.0
460848,County,2020/05/24,35.0,NM,35059.0,Union County,744.0,3374.0,10999.0,1765.0,4349.0,1058.0,554.0,1064.0,1018.0,509.0,621.0,61.0,0.0
465725,County,2020/05/25,35.0,NM,35059.0,Union County,816.0,3302.0,9139.0,1259.0,3674.0,609.0,295.0,681.0,1209.0,805.0,545.0,62.0,0.0
467156,County,2020/05/26,35.0,NM,35059.0,Union County,701.0,3417.0,15446.0,2123.0,6256.0,1497.0,752.0,1707.0,1613.0,960.0,502.0,36.0,0.0
472024,County,2020/05/27,35.0,NM,35059.0,Union County,753.0,3365.0,15742.0,2752.0,7373.0,1025.0,451.0,1315.0,1499.0,538.0,745.0,44.0,0.0
475124,County,2020/05/28,35.0,NM,35059.0,Union County,897.0,3221.0,13746.0,2928.0,5358.0,954.0,346.0,1663.0,1126.0,667.0,604.0,100.0,0.0
476802,County,2020/05/29,35.0,NM,35059.0,Union County,816.0,3302.0,13875.0,2328.0,6234.0,1151.0,658.0,1308.0,1292.0,616.0,272.0,16.0,0.0
479989,County,2020/05/30,35.0,NM,35059.0,Union County,859.0,3259.0,14602.0,3339.0,5254.0,1311.0,412.0,1286.0,1362.0,1261.0,330.0,47.0,0.0
483118,County,2020/05/31,35.0,NM,35059.0,Union County,956.0,3162.0,9003.0,2235.0,3549.0,514.0,276.0,910.0,823.0,431.0,230.0,35.0,0.0
488057,County,2020/06/01,35.0,NM,35059.0,Union County,755.0,3363.0,10925.0,2217.0,3401.0,1448.0,485.0,1082.0,1189.0,724.0,339.0,40.0,0.0
489625,County,2020/06/02,35.0,NM,35059.0,Union County,695.0,3423.0,11450.0,2059.0,4091.0,1590.0,371.0,640.0,894.0,1209.0,556.0,40.0,0.0
492793,County,2020/06/03,35.0,NM,35059.0,Union County,759.0,3359.0,12054.0,2229.0,5547.0,649.0,543.0,705.0,679.0,953.0,667.0,82.0,0.0
497568,County,2020/06/04,35.0,NM,35059.0,Union County,842.0,3276.0,13646.0,2857.0,6934.0,1184.0,397.0,774.0,456.0,621.0,364.0,59.0,0.0
500732,County,2020/06/05,35.0,NM,35059.0,Union County,837.0,3281.0,12378.0,2202.0,4667.0,1535.0,463.0,1482.0,709.0,590.0,686.0,44.0,0.0
503933,County,2020/06/06,35.0,NM,35059.0,Union County,850.0,3268.0,10933.0,2662.0,4455.0,484.0,389.0,740.0,834.0,880.0,433.0,56.0,0.0
505547,County,2020/06/07,35.0,NM,35059.0,Union County,789.0,3329.0,14501.0,3307.0,6336.0,1504.0,283.0,567.0,810.0,986.0,589.0,119.0,0.0
510343,County,2020/06/08,35.0,NM,35059.0,Union County,675.0,3443.0,17136.0,2479.0,8028.0,1530.0,591.0,1349.0,1630.0,988.0,473.0,68.0,0.0
513499,County,2020/06/09,35.0,NM,35059.0,Union County,735.0,3383.0,13555.0,2211.0,6084.0,1077.0,406.0,1543.0,1036.0,753.0,391.0,54.0,0.0
515129,County,2020/06/10,35.0,NM,35059.0,Union County,727.0,3391.0,14279.0,2964.0,7093.0,548.0,574.0,1047.0,717.0,623.0,674.0,39.0,0.0
519861,County,2020/06/11,35.0,NM,35059.0,Union County,794.0,3324.0,15062.0,2644.0,7785.0,1528.0,486.0,676.0,1129.0,481.0,307.0,26.0,0.0
523133,County,2020/06/12,35.0,NM,35059.0,Union County,890.0,3228.0,13691.0,1962.0,6816.0,1017.0,629.0,598.0,1300.0,930.0,385.0,54.0,0.0
526320,County,2020/06/13,35.0,NM,35059.0,Union County,921.0,3197.0,12458.0,1632.0,6369.0,484.0,162.0,701.0,835.0,1558.0,606.0,111.0,0.0
529475,County,2020/06/14,35.0,NM,35059.0,Union County,960.0,3158.0,8511.0,2250.0,3391.0,495.0,359.0,432.0,305.0,808.0,443.0,28.0,0.0
531104,County,2020/06/15,35.0,NM,35059.0,Union County,865.0,3253.0,11732.0,1904.0,4483.0,1119.0,633.0,1041.0,1076.0,929.0,531.0,16.0,0.0
535885,County,2020/06/16,35.0,NM,35059.0,Union County,786.0,3332.0,9128.0,1714.0,3650.0,493.0,413.0,819.0,721.0,647.0,607.0,64.0,0.0
537487,County,2020/06/17,35.0,NM,35059.0,Union County,833.0,3285.0,11824.0,2847.0,3437.0,1372.0,810.0,920.0,1086.0,731.0,584.0,37.0,0.0
540683,County,2020/06/18,35.0,NM,35059.0,Union County,764.0,3354.0,12328.0,2402.0,5028.0,1470.0,374.0,781.0,869.0,699.0,631.0,74.0,0.0
543875,County,2020/06/19,35.0,NM,35059.0,Union County,827.0,3291.0,12846.0,2508.0,4707.0,2071.0,449.0,686.0,1200.0,767.0,409.0,49.0,0.0
547080,County,2020/06/20,35.0,NM,35059.0,Union County,802.0,3316.0,11468.0,2108.0,3867.0,1140.0,406.0,1549.0,1185.0,798.0,382.0,33.0,0.0
550284,County,2020/06/21,35.0,NM,35059.0,Union County,830.0,3288.0,8692.0,1171.0,3792.0,538.0,721.0,804.0,473.0,323.0,791.0,79.0,0.0
555064,County,2020/06/22,35.0,NM,35059.0,Union County,894.0,3224.0,14458.0,2783.0,6315.0,912.0,523.0,1100.0,882.0,1184.0,699.0,60.0,0.0
558219,County,2020/06/23,35.0,NM,35059.0,Union County,841.0,3277.0,11963.0,2906.0,4401.0,704.0,496.0,992.0,1084.0,985.0,346.0,49.0,0.0
559850,County,2020/06/24,35.0,NM,35059.0,Union County,804.0,3314.0,10187.0,1712.0,3731.0,920.0,267.0,1012.0,982.0,815.0,713.0,35.0,0.0
563040,County,2020/06/25,35.0,NM,35059.0,Union County,873.0,3245.0,10812.0,1648.0,3615.0,1026.0,368.0,1298.0,1128.0,974.0,688.0,67.0,0.0
567884,County,2020/06/26,35.0,NM,35059.0,Union County,913.0,3205.0,12131.0,2029.0,4723.0,1242.0,286.0,781.0,1291.0,1032.0,694.0,53.0,0.0
569415,County,2020/06/27,35.0,NM,35059.0,Union County,822.0,3296.0,12171.0,2062.0,5175.0,732.0,221.0,1502.0,991.0,1127.0,327.0,34.0,0.0
574217,County,2020/06/28,35.0,NM,35059.0,Union County,878.0,3240.0,9120.0,1024.0,4338.0,720.0,241.0,483.0,591.0,1007.0,679.0,37.0,0.0
577390,County,2020/06/29,35.0,NM,35059.0,Union County,823.0,3295.0,13870.0,2236.0,5644.0,1837.0,722.0,932.0,1131.0,670.0,643.0,55.0,0.0
579033,County,2020/06/30,35.0,NM,35059.0,Union County,710.0,3408.0,12970.0,2129.0,4652.0,1340.0,948.0,719.0,1284.0,1198.0,666.0,34.0,0.0
582235,County,2020/07/01,35.0,NM,35059.0,Union County,786.0,3332.0,12650.0,1932.0,4782.0,1072.0,564.0,924.0,1697.0,1071.0,582.0,26.0,0.0
586972,County,2020/07/02,35.0,NM,35059.0,Union County,915.0,3203.0,11476.0,1749.0,3837.0,1089.0,391.0,1378.0,1197.0,1034.0,730.0,71.0,0.0
590169,County,2020/07/03,35.0,NM,35059.0,Union County,854.0,3264.0,12063.0,2018.0,4696.0,1235.0,284.0,777.0,1284.0,1026.0,690.0,53.0,0.0
591819,County,2020/07/04,35.0,NM,35059.0,Union County,1009.0,3109.0,10319.0,1726.0,4018.0,1057.0,243.0,664.0,1098.0,878.0,590.0,45.0,0.0
596564,County,2020/07/05,35.0,NM,35059.0,Union County,971.0,3147.0,8433.0,1377.0,3096.0,1113.0,430.0,827.0,632.0,659.0,230.0,69.0,0.0
597703,County,2020/07/06,35.0,NM,35059.0,Union County,910.0,3208.0,9206.0,2060.0,2343.0,1650.0,427.0,362.0,508.0,1049.0,738.0,69.0,0.0
603362,County,2020/07/07,35.0,NM,35059.0,Union County,791.0,3327.0,11169.0,1249.0,3909.0,1864.0,474.0,1086.0,1068.0,1124.0,373.0,22.0,0.0
604559,County,2020/07/08,35.0,NM,35059.0,Union County,913.0,3205.0,11918.0,2240.0,4389.0,2403.0,268.0,788.0,603.0,809.0,398.0,20.0,0.0
609331,County,2020/07/09,35.0,NM,35059.0,Union County,921.0,3197.0,11444.0,1974.0,3577.0,1813.0,364.0,1204.0,1116.0,888.0,446.0,62.0,0.0
610954,County,2020/07/10,35.0,NM,35059.0,Union County,878.0,3240.0,17329.0,2975.0,7542.0,3148.0,542.0,543.0,1052.0,881.0,563.0,83.0,0.0
615751,County,2020/07/11,35.0,NM,35059.0,Union County,876.0,3242.0,8985.0,1576.0,2557.0,951.0,376.0,904.0,1436.0,604.0,541.0,40.0,0.0
618938,County,2020/07/12,35.0,NM,35059.0,Union County,929.0,3189.0,7176.0,1187.0,2369.0,1225.0,314.0,493.0,621.0,353.0,548.0,66.0,0.0
620526,County,2020/07/13,35.0,NM,35059.0,Union County,810.0,3308.0,10111.0,1354.0,4212.0,1668.0,339.0,671.0,624.0,875.0,293.0,75.0,0.0
623726,County,2020/07/14,35.0,NM,35059.0,Union County,850.0,3268.0,10837.0,1412.0,4107.0,2242.0,408.0,696.0,907.0,762.0,229.0,74.0,0.0
626848,County,2020/07/15,35.0,NM,35059.0,Union County,716.0,3402.0,10876.0,1827.0,5161.0,698.0,409.0,982.0,895.0,447.0,364.0,93.0,0.0
631778,County,2020/07/16,35.0,NM,35059.0,Union County,868.0,3250.0,10827.0,1573.0,4053.0,1799.0,424.0,1019.0,861.0,746.0,268.0,84.0,0.0
633290,County,2020/07/17,35.0,NM,35059.0,Union County,804.0,3314.0,11169.0,1918.0,5102.0,1194.0,380.0,816.0,661.0,584.0,480.0,34.0,0.0
638076,County,2020/07/18,35.0,NM,35059.0,Union County,984.0,3134.0,10525.0,1792.0,4622.0,1125.0,269.0,937.0,742.0,731.0,215.0,92.0,0.0
641279,County,2020/07/19,35.0,NM,35059.0,Union County,1052.0,3066.0,8263.0,1416.0,2813.0,855.0,255.0,918.0,527.0,798.0,637.0,44.0,0.0
644487,County,2020/07/20,35.0,NM,35059.0,Union County,924.0,3194.0,13720.0,2002.0,5285.0,2606.0,611.0,769.0,909.0,1033.0,505.0,0.0,0.0
646115,County,2020/07/21,35.0,NM,35059.0,Union County,996.0,3122.0,13161.0,2338.0,4819.0,1986.0,570.0,1103.0,1339.0,529.0,423.0,54.0,0.0
650843,County,2020/07/22,35.0,NM,35059.0,Union County,881.0,3237.0,10891.0,1655.0,4230.0,1060.0,837.0,883.0,839.0,1006.0,338.0,43.0,0.0
654038,County,2020/07/23,35.0,NM,35059.0,Union County,964.0,3154.0,10976.0,1538.0,4607.0,778.0,443.0,971.0,1150.0,1035.0,418.0,36.0,0.0
657312,County,2020/07/24,35.0,NM,35059.0,Union County,846.0,3272.0,12405.0,1572.0,5600.0,1363.0,708.0,768.0,1174.0,763.0,426.0,31.0,0.0
660529,County,2020/07/25,35.0,NM,35059.0,Union County,949.0,3169.0,10515.0,2650.0,3812.0,994.0,305.0,900.0,714.0,695.0,407.0,38.0,0.0
662054,County,2020/07/26,35.0,NM,35059.0,Union County,962.0,3156.0,7267.0,1942.0,1787.0,669.0,336.0,673.0,618.0,585.0,561.0,96.0,0.0
665349,County,2020/07/27,35.0,NM,35059.0,Union County,798.0,3320.0,11617.0,1777.0,3427.0,1529.0,861.0,1286.0,1368.0,924.0,373.0,72.0,0.0
668462,County,2020/07/28,35.0,NM,35059.0,Union County,861.0,3257.0,12206.0,2146.0,4311.0,1656.0,486.0,1277.0,978.0,917.0,371.0,64.0,0.0
671667,County,2020/07/29,35.0,NM,35059.0,Union County,874.0,3244.0,12191.0,1783.0,5271.0,1185.0,280.0,1094.0,1202.0,829.0,467.0,80.0,0.0
674830,County,2020/07/30,35.0,NM,35059.0,Union County,820.0,3298.0,11568.0,2107.0,4358.0,816.0,387.0,957.0,1088.0,1284.0,516.0,55.0,0.0
678031,County,2020/07/31,35.0,NM,35059.0,Union County,821.0,3297.0,9578.0,1702.0,3740.0,483.0,277.0,776.0,934.0,964.0,647.0,55.0,0.0
682777,County,2020/08/01,35.0,NM,35059.0,Union County,906.0,3212.0,9017.0,1869.0,3364.0,767.0,228.0,788.0,945.0,597.0,381.0,78.0,0.0
686017,County,2020/08/02,35.0,NM,35059.0,Union County,871.0,3247.0,8367.0,1634.0,3287.0,774.0,173.0,649.0,358.0,632.0,778.0,82.0,0.0
687608,County,2020/08/03,35.0,NM,35059.0,Union County,866.0,3252.0,10430.0,1846.0,3648.0,1040.0,233.0,837.0,1110.0,1164.0,465.0,87.0,0.0
692383,County,2020/08/04,35.0,NM,35059.0,Union County,770.0,3348.0,11892.0,2639.0,4632.0,735.0,328.0,1011.0,943.0,1028.0,548.0,28.0,0.0
694011,County,2020/08/05,35.0,NM,35059.0,Union County,768.0,3350.0,11612.0,2289.0,4242.0,818.0,358.0,1038.0,930.0,1233.0,675.0,29.0,0.0
697217,County,2020/08/06,35.0,NM,35059.0,Union County,816.0,3302.0,12208.0,2656.0,4965.0,629.0,527.0,1216.0,542.0,969.0,675.0,29.0,0.0
701950,County,2020/08/07,35.0,NM,35059.0,Union County,701.0,3417.0,12573.0,2565.0,5204.0,731.0,449.0,980.0,1199.0,1022.0,381.0,42.0,0.0
703579,County,2020/08/08,35.0,NM,35059.0,Union County,773.0,3345.0,9962.0,1458.0,3091.0,1805.0,303.0,938.0,509.0,1210.0,571.0,77.0,0.0
706769,County,2020/08/09,35.0,NM,35059.0,Union County,953.0,3165.0,8601.0,1953.0,3465.0,88.0,176.0,777.0,540.0,676.0,825.0,101.0,0.0
711578,County,2020/08/10,35.0,NM,35059.0,Union County,989.0,3129.0,7839.0,1615.0,1999.0,348.0,291.0,908.0,908.0,972.0,698.0,100.0,0.0
713158,County,2020/08/11,35.0,NM,35059.0,Union County,852.0,3266.0,10215.0,1353.0,5205.0,221.0,370.0,741.0,454.0,1030.0,757.0,84.0,0.0
716353,County,2020/08/12,35.0,NM,35059.0,Union County,874.0,3244.0,7882.0,1332.0,2486.0,217.0,241.0,927.0,1020.0,1109.0,450.0,100.0,0.0
721112,County,2020/08/13,35.0,NM,35059.0,Union County,821.0,3297.0,9196.0,1769.0,3128.0,680.0,364.0,656.0,795.0,1141.0,577.0,86.0,0.0
724338,County,2020/08/14,35.0,NM,35059.0,Union County,687.0,3431.0,10349.0,2161.0,3382.0,579.0,431.0,983.0,990.0,1125.0,632.0,66.0,0.0
725970,County,2020/08/15,35.0,NM,35059.0,Union County,939.0,3179.0,12542.0,1728.0,5496.0,1088.0,235.0,1596.0,718.0,870.0,695.0,116.0,0.0
729129,County,2020/08/16,35.0,NM,35059.0,Union County,973.0,3145.0,10809.0,1442.0,5598.0,426.0,115.0,890.0,838.0,774.0,609.0,117.0,0.0
733909,County,2020/08/17,35.0,NM,35059.0,Union County,993.0,3125.0,13101.0,3229.0,5117.0,732.0,338.0,958.0,902.0,1281.0,450.0,94.0,0.0
737081,County,2020/08/18,35.0,NM,35059.0,Union County,861.0,3257.0,13159.0,1884.0,6765.0,807.0,270.0,844.0,795.0,1016.0,685.0,93.0,0.0
738742,County,2020/08/19,35.0,NM,35059.0,Union County,747.0,3371.0,11319.0,1680.0,5847.0,820.0,252.0,853.0,379.0,813.0,581.0,94.0,0.0
741905,County,2020/08/20,35.0,NM,35059.0,Union County,741.0,3377.0,12586.0,2777.0,5688.0,809.0,173.0,829.0,544.0,926.0,756.0,84.0,0.0
745104,County,2020/08/21,35.0,NM,35059.0,Union County,771.0,3347.0,16028.0,2385.0,8514.0,1294.0,561.0,1104.0,703.0,1065.0,340.0,62.0,0.0
749885,County,2020/08/22,35.0,NM,35059.0,Union County,745.0,3373.0,12052.0,1860.0,5354.0,543.0,624.0,936.0,907.0,1030.0,762.0,36.0,0.0
753054,County,2020/08/23,35.0,NM,35059.0,Union County,910.0,3208.0,11120.0,2114.0,6365.0,483.0,208.0,334.0,596.0,532.0,464.0,24.0,0.0
754724,County,2020/08/24,35.0,NM,35059.0,Union County,869.0,3249.0,10442.0,1403.0,4469.0,1011.0,169.0,661.0,740.0,1062.0,877.0,50.0,0.0
757875,County,2020/08/25,35.0,NM,35059.0,Union County,859.0,3259.0,11963.0,1997.0,6151.0,571.0,383.0,561.0,624.0,931.0,680.0,65.0,0.0
761068,County,2020/08/26,35.0,NM,35059.0,Union County,758.0,3360.0,9207.0,1443.0,4053.0,616.0,206.0,744.0,379.0,1176.0,526.0,64.0,0.0
765841,County,2020/08/27,35.0,NM,35059.0,Union County,805.0,3313.0,10337.0,2093.0,4011.0,833.0,338.0,527.0,622.0,1166.0,665.0,82.0,0.0
767481,County,2020/08/28,35.0,NM,35059.0,Union County,827.0,3291.0,11964.0,2248.0,4984.0,758.0,380.0,1067.0,661.0,1061.0,762.0,43.0,0.0
772209,County,2020/08/29,35.0,NM,35059.0,Union County,804.0,3314.0,10202.0,1408.0,4579.0,862.0,333.0,853.0,817.0,742.0,563.0,45.0,0.0
773887,County,2020/08/30,35.0,NM,35059.0,Union County,954.0,3164.0,9245.0,1420.0,4242.0,382.0,257.0,269.0,883.0,936.0,812.0,44.0,0.0
778611,County,2020/08/31,35.0,NM,35059.0,Union County,751.0,3367.0,10696.0,1816.0,4337.0,1173.0,418.0,678.0,767.0,768.0,655.0,84.0,0.0
780221,County,2020/09/01,35.0,NM,35059.0,Union County,998.0,3120.0,9823.0,1136.0,5169.0,491.0,329.0,672.0,544.0,963.0,395.0,124.0,0.0
784250,County,2020/09/02,35.0,NM,35059.0,Union County,921.0,3197.0,11365.0,2150.0,4898.0,788.0,441.0,775.0,810.0,797.0,666.0,40.0,0.0
788205,County,2020/09/03,35.0,NM,35059.0,Union County,771.0,3347.0,9985.0,2127.0,3647.0,665.0,372.0,684.0,1047.0,879.0,496.0,68.0,0.0
789820,County,2020/09/04,35.0,NM,35059.0,Union County,979.0,3139.0,11887.0,2028.0,5288.0,625.0,688.0,791.0,825.0,1001.0,600.0,41.0,0.0
794582,County,2020/09/05,35.0,NM,35059.0,Union County,1013.0,3105.0,10486.0,2479.0,3697.0,586.0,590.0,865.0,783.0,753.0,700.0,33.0,0.0
797787,County,2020/09/06,35.0,NM,35059.0,Union County,1048.0,3070.0,10830.0,2052.0,5747.0,700.0,391.0,750.0,215.0,571.0,364.0,40.0,0.0
800998,County,2020/09/07,35.0,NM,35059.0,Union County,883.0,3235.0,10694.0,2530.0,3935.0,957.0,289.0,810.0,707.0,1005.0,428.0,33.0,0.0
802617,County,2020/09/08,35.0,NM,35059.0,Union County,1039.0,3079.0,11064.0,1925.0,4768.0,870.0,324.0,855.0,834.0,677.0,734.0,77.0,0.0
805785,County,2020/09/09,35.0,NM,35059.0,Union County,864.0,3254.0,9755.0,1925.0,3822.0,895.0,329.0,648.0,551.0,813.0,680.0,92.0,0.0
810553,County,2020/09/10,35.0,NM,35059.0,Union County,840.0,3278.0,9425.0,2206.0,3141.0,612.0,332.0,677.0,1036.0,855.0,478.0,88.0,0.0
812182,County,2020/09/11,35.0,NM,35059.0,Union County,773.0,3345.0,10514.0,1830.0,3099.0,1450.0,315.0,816.0,804.0,1064.0,1069.0,67.0,0.0
815367,County,2020/09/12,35.0,NM,35059.0,Union County,750.0,3368.0,10058.0,1488.0,4577.0,773.0,441.0,747.0,524.0,1082.0,346.0,80.0,0.0
820164,County,2020/09/13,35.0,NM,35059.0,Union County,952.0,3166.0,9468.0,1018.0,4103.0,500.0,209.0,1004.0,1076.0,960.0,525.0,73.0,0.0
823321,County,2020/09/14,35.0,NM,35059.0,Union County,771.0,3347.0,9661.0,1605.0,2907.0,769.0,387.0,805.0,1231.0,1129.0,722.0,106.0,0.0
824949,County,2020/09/15,35.0,NM,35059.0,Union County,867.0,3251.0,12665.0,1594.0,4661.0,1250.0,279.0,1241.0,1078.0,1750.0,783.0,29.0,0.0
829756,County,2020/09/16,35.0,NM,35059.0,Union County,791.0,3327.0,12795.0,1554.0,5199.0,753.0,379.0,817.0,1530.0,1686.0,808.0,69.0,0.0
832933,County,2020/09/17,35.0,NM,35059.0,Union County,809.0,3309.0,9479.0,1459.0,3219.0,313.0,237.0,914.0,868.0,1644.0,735.0,90.0,0.0
834562,County,2020/09/18,35.0,NM,35059.0,Union County,828.0,3290.0,12342.0,2174.0,6340.0,884.0,350.0,420.0,693.0,731.0,611.0,139.0,0.0
837725,County,2020/09/19,35.0,NM,35059.0,Union County,835.0,3283.0,11677.0,1808.0,4956.0,1223.0,410.0,722.0,753.0,1310.0,401.0,94.0,0.0
842500,County,2020/09/20,35.0,NM,35059.0,Union County,1036.0,3082.0,12388.0,2267.0,6373.0,473.0,253.0,1103.0,466.0,860.0,550.0,43.0,0.0
844128,County,2020/09/21,35.0,NM,35059.0,Union County,1011.0,3107.0,9592.0,1702.0,4288.0,373.0,125.0,637.0,918.0,912.0,541.0,96.0,0.0
847332,County,2020/09/22,35.0,NM,35059.0,Union County,968.0,3150.0,8586.0,1656.0,3959.0,321.0,27.0,323.0,1236.0,505.0,467.0,92.0,0.0
850500,County,2020/09/23,35.0,NM,35059.0,Union County,965.0,3153.0,8962.0,1290.0,3710.0,781.0,378.0,873.0,481.0,729.0,660.0,60.0,0.0
855266,County,2020/09/24,35.0,NM,35059.0,Union County,870.0,3248.0,11875.0,2116.0,5324.0,810.0,244.0,717.0,947.0,963.0,652.0,102.0,0.0
856895,County,2020/09/25,35.0,NM,35059.0,Union County,778.0,3340.0,12210.0,2525.0,5323.0,1030.0,148.0,888.0,906.0,566.0,790.0,34.0,0.0
860081,County,2020/09/26,35.0,NM,35059.0,Union County,895.0,3223.0,11907.0,1678.0,6690.0,442.0,385.0,748.0,599.0,928.0,396.0,41.0,0.0
864877,County,2020/09/27,35.0,NM,35059.0,Union County,999.0,3119.0,8324.0,1426.0,3519.0,389.0,261.0,665.0,359.0,953.0,696.0,56.0,0.0
868036,County,2020/09/28,35.0,NM,35059.0,Union County,918.0,3200.0,9618.0,1095.0,4442.0,838.0,218.0,450.0,860.0,912.0,750.0,53.0,0.0
869664,County,2020/09/29,35.0,NM,35059.0,Union County,992.0,3126.0,9757.0,1560.0,3045.0,1338.0,207.0,828.0,823.0,1224.0,687.0,45.0,0.0
874443,County,2020/09/30,35.0,NM,35059.0,Union County,875.0,3243.0,10504.0,1849.0,4270.0,831.0,243.0,710.0,831.0,1308.0,443.0,19.0,0.0
876071,County,2020/10/01,35.0,NM,35059.0,Union County,823.0,3295.0,8160.0,1901.0,3322.0,288.0,161.0,735.0,534.0,741.0,434.0,44.0,0.0
879274,County,2020/10/02,35.0,NM,35059.0,Union County,957.0,3161.0,10776.0,2163.0,3630.0,849.0,256.0,888.0,784.0,1426.0,773.0,7.0,0.0
884007,County,2020/10/03,35.0,NM,35059.0,Union County,1080.0,3038.0,11311.0,2442.0,3539.0,1699.0,417.0,684.0,697.0,1426.0,374.0,33.0,0.0
886497,County,2020/10/04,35.0,NM,35059.0,Union County,1018.0,3100.0,10921.0,2099.0,4702.0,829.0,279.0,559.0,401.0,1489.0,539.0,24.0,0.0
889742,County,2020/10/05,35.0,NM,35059.0,Union County,939.0,3179.0,9333.0,1675.0,3049.0,824.0,635.0,784.0,980.0,999.0,362.0,25.0,0.0
892898,County,2020/10/06,35.0,NM,35059.0,Union County,833.0,3285.0,12334.0,2246.0,5673.0,681.0,601.0,648.0,810.0,1290.0,368.0,17.0,0.0
896147,County,2020/10/07,35.0,NM,35059.0,Union County,822.0,3296.0,10228.0,2577.0,3220.0,403.0,506.0,971.0,1054.0,879.0,587.0,31.0,0.0
899524,County,2020/10/08,35.0,NM,35059.0,Union County,922.0,3196.0,14349.0,2993.0,5723.0,773.0,738.0,735.0,1226.0,1406.0,731.0,24.0,0.0
902513,County,2020/10/09,35.0,NM,35059.0,Union County,883.0,3235.0,10561.0,2196.0,3988.0,940.0,537.0,698.0,814.0,991.0,364.0,33.0,0.0
905703,County,2020/10/10,35.0,NM,35059.0,Union County,938.0,3180.0,8625.0,2061.0,3015.0,301.0,266.0,587.0,538.0,1302.0,489.0,66.0,0.0
908488,County,2020/10/11,35.0,NM,35059.0,Union County,1064.0,3054.0,7653.0,1196.0,3288.0,347.0,384.0,272.0,702.0,741.0,672.0,51.0,0.0
911667,County,2020/10/12,35.0,NM,35059.0,Union County,796.0,3322.0,9384.0,1491.0,3835.0,819.0,298.0,449.0,547.0,1165.0,728.0,52.0,0.0
914794,County,2020/10/13,35.0,NM,35059.0,Union County,966.0,3152.0,9879.0,1863.0,3861.0,831.0,368.0,578.0,673.0,1116.0,536.0,53.0,0.0
918028,County,2020/10/14,35.0,NM,35059.0,Union County,932.0,3186.0,10440.0,1983.0,4137.0,458.0,303.0,860.0,501.0,1434.0,689.0,75.0,0.0
921080,County,2020/10/15,35.0,NM,35059.0,Union County,940.0,3178.0,7790.0,1129.0,2803.0,373.0,309.0,692.0,565.0,1325.0,541.0,53.0,0.0
924401,County,2020/10/16,35.0,NM,35059.0,Union County,932.0,3186.0,8920.0,1728.0,3831.0,825.0,212.0,394.0,501.0,782.0,595.0,52.0,0.0
927145,County,2020/10/17,35.0,NM,35059.0,Union County,900.0,3218.0,9737.0,2115.0,4340.0,769.0,414.0,339.0,175.0,1025.0,493.0,67.0,0.0
931197,County,2020/10/18,35.0,NM,35059.0,Union County,1035.0,3083.0,8210.0,1071.0,3582.0,504.0,293.0,394.0,765.0,1076.0,517.0,8.0,0.0
935180,County,2020/10/19,35.0,NM,35059.0,Union County,950.0,3168.0,13856.0,2295.0,7079.0,914.0,303.0,358.0,1528.0,895.0,469.0,15.0,0.0
937514,County,2020/10/20,35.0,NM,35059.0,Union County,949.0,3169.0,10943.0,1982.0,4474.0,962.0,283.0,670.0,909.0,1294.0,329.0,40.0,0.0
940226,County,2020/10/21,35.0,NM,35059.0,Union County,979.0,3139.0,7986.0,1030.0,3892.0,553.0,146.0,477.0,740.0,710.0,417.0,21.0,0.0
943384,County,2020/10/22,35.0,NM,35059.0,Union County,1001.0,3117.0,11778.0,1620.0,4151.0,1241.0,535.0,777.0,904.0,1678.0,848.0,24.0,0.0
947188,County,2020/10/23,35.0,NM,35059.0,Union County,1013.0,3105.0,12349.0,2352.0,5152.0,1340.0,577.0,629.0,813.0,1048.0,412.0,26.0,0.0
950294,County,2020/10/24,35.0,NM,35059.0,Union County,1035.0,3083.0,14275.0,2375.0,7537.0,563.0,513.0,937.0,940.0,902.0,481.0,27.0,0.0
