,Level,Date,State FIPS,State Postal Code,County FIPS,County Name,Population Staying at Home,Population Not Staying at Home,Number of Trips,Number of Trips <1,Number of Trips 1-3,Number of Trips 3-5,Number of Trips 5-10,Number of Trips 10-25,Number of Trips 25-50,Number of Trips 50-100,Number of Trips 100-250,Number of Trips 250-500,Number of Trips >=500
168,County,2020/01/01,5.0,AR,5115.0,Pope County,12358.0,51642.0,164176.0,31918.0,44528.0,19922.0,26647.0,25788.0,8127.0,5568.0,1455.0,182.0,41.0
5550,County,2020/01/02,5.0,AR,5115.0,Pope County,10830.0,53170.0,197135.0,39816.0,56714.0,24320.0,29384.0,30666.0,8216.0,6479.0,1354.0,166.0,20.0
8451,County,2020/01/03,5.0,AR,5115.0,Pope County,10578.0,53422.0,215045.0,45282.0,60406.0,23369.0,32891.0,35972.0,9257.0,5795.0,1843.0,197.0,33.0
10094,County,2020/01/04,5.0,AR,5115.0,Pope County,11841.0,52159.0,197270.0,43709.0,51504.0,22681.0,32638.0,30209.0,6667.0,7867.0,1652.0,291.0,52.0
12944,County,2020/01/05,5.0,AR,5115.0,Pope County,12574.0,51426.0,171703.0,34072.0,46295.0,19479.0,30037.0,29005.0,6667.0,4430.0,1213.0,445.0,60.0
17654,County,2020/01/06,5.0,AR,5115.0,Pope County,10454.0,53546.0,212718.0,44642.0,60513.0,26127.0,33805.0,31977.0,8015.0,6389.0,1001.0,217.0,32.0
19244,County,2020/01/07,5.0,AR,5115.0,Pope County,10824.0,53176.0,212857.0,45105.0,57058.0,26826.0,34919.0,33129.0,8860.0,5805.0,1013.0,122.0,20.0
24094,County,2020/01/08,5.0,AR,5115.0,Pope County,10911.0,53089.0,212319.0,45093.0,58510.0,25048.0,32907.0,32732.0,9669.0,7131.0,1083.0,119.0,27.0
25622,County,2020/01/09,5.0,AR,5115.0,Pope County,10753.0,53247.0,210485.0,43587.0,57015.0,26045.0,35290.0,32936.0,8274.0,6282.0,858.0,171.0,27.0
28817,County,2020/01/10,5.0,AR,5115.0,Pope County,10279.0,53721.0,218612.0,47746.0,60040.0,27554.0,34345.0,33801.0,8317.0,5394.0,1243.0,148.0,24.0
32059,County,2020/01/11,5.0,AR,5115.0,Pope County,11729.0,52271.0,189225.0,35880.0,53873.0,23553.0,27420.0,28570.0,10374.0,8085.0,1314.0,128.0,28.0
35214,County,2020/01/12,5.0,AR,5115.0,Pope County,12542.0,51458.0,179643.0,37904.0,49838.0,21870.0,28876.0,27820.0,6809.0,5083.0,1305.0,114.0,24.0
38458,County,2020/01/13,5.0,AR,5115.0,Pope County,11021.0,52979.0,214203.0,45076.0,58953.0,27859.0,34854.0,31028.0,9483.0,5787.0,1037.0,115.0,11.0
43192,County,2020/01/14,5.0,AR,5115.0,Pope County,10256.0,53744.0,215328.0,43652.0,63383.0,25389.0,31808.0,34750.0,8841.0,6174.0,1220.0,93.0,18.0
46348,County,2020/01/15,5.0,AR,5115.0,Pope County,10395.0,53605.0,212844.0,44999.0,60232.0,25248.0,34036.0,32039.0,9212.0,5715.0,1195.0,141.0,27.0
47924,County,2020/01/16,5.0,AR,5115.0,Pope County,10419.0,53581.0,211691.0,44675.0,60724.0,25758.0,33054.0,31254.0,8706.0,6052.0,1311.0,129.0,28.0
51180,County,2020/01/17,5.0,AR,5115.0,Pope County,10089.0,53911.0,230695.0,50025.0,65369.0,27840.0,36151.0,33478.0,9633.0,6499.0,1550.0,132.0,18.0
55961,County,2020/01/18,5.0,AR,5115.0,Pope County,10984.0,53016.0,208926.0,37518.0,61144.0,24723.0,33060.0,34531.0,7961.0,8313.0,1524.0,135.0,17.0
59159,County,2020/01/19,5.0,AR,5115.0,Pope County,12412.0,51588.0,176443.0,30994.0,49787.0,22483.0,32604.0,28522.0,6464.0,4145.0,1326.0,106.0,12.0
62323,County,2020/01/20,5.0,AR,5115.0,Pope County,11579.0,52421.0,206483.0,44697.0,57650.0,23312.0,31867.0,31457.0,9901.0,6234.0,1248.0,94.0,23.0
63950,County,2020/01/21,5.0,AR,5115.0,Pope County,10780.0,53220.0,208640.0,47809.0,56787.0,25143.0,31753.0,30927.0,9313.0,5638.0,1123.0,128.0,19.0
68713,County,2020/01/22,5.0,AR,5115.0,Pope County,10898.0,53102.0,191913.0,41406.0,55020.0,23706.0,28105.0,29008.0,7879.0,5479.0,1144.0,133.0,33.0
71942,County,2020/01/23,5.0,AR,5115.0,Pope County,10907.0,53093.0,206480.0,43545.0,61218.0,24311.0,29305.0,32131.0,9043.0,5772.0,984.0,136.0,35.0
75099,County,2020/01/24,5.0,AR,5115.0,Pope County,10735.0,53265.0,233440.0,48928.0,66509.0,28612.0,33449.0,38000.0,9643.0,6720.0,1427.0,121.0,31.0
76726,County,2020/01/25,5.0,AR,5115.0,Pope County,11256.0,52744.0,208495.0,43140.0,56597.0,25529.0,33325.0,30341.0,9609.0,8665.0,1145.0,116.0,28.0
80018,County,2020/01/26,5.0,AR,5115.0,Pope County,11714.0,52286.0,180549.0,33884.0,49953.0,23063.0,32740.0,27244.0,7188.0,5094.0,1233.0,122.0,28.0
84208,County,2020/01/27,5.0,AR,5115.0,Pope County,10994.0,53006.0,220588.0,47555.0,61655.0,27123.0,34753.0,32694.0,9229.0,6458.0,971.0,117.0,33.0
88453,County,2020/01/28,5.0,AR,5115.0,Pope County,10968.0,53032.0,210860.0,49246.0,56789.0,23965.0,35416.0,29994.0,8627.0,5552.0,1092.0,152.0,27.0
89526,County,2020/01/29,5.0,AR,5115.0,Pope County,11086.0,52914.0,224700.0,47893.0,63138.0,28834.0,36186.0,32433.0,9330.0,5548.0,1145.0,152.0,41.0
92733,County,2020/01/30,5.0,AR,5115.0,Pope County,10464.0,53536.0,211750.0,46631.0,61073.0,25478.0,32675.0,30443.0,7434.0,6316.0,1395.0,238.0,67.0
97456,County,2020/01/31,5.0,AR,5115.0,Pope County,10219.0,53781.0,231525.0,49365.0,64871.0,27842.0,36850.0,33408.0,9811.0,7653.0,1471.0,188.0,66.0
99133,County,2020/02/01,5.0,AR,5115.0,Pope County,10991.0,53009.0,205560.0,38906.0,56146.0,24684.0,35888.0,32906.0,8843.0,6154.0,1733.0,241.0,59.0
103845,County,2020/02/02,5.0,AR,5115.0,Pope County,11511.0,52489.0,194956.0,35674.0,55395.0,23830.0,34810.0,30488.0,8031.0,5208.0,1282.0,179.0,59.0
105472,County,2020/02/03,5.0,AR,5115.0,Pope County,9848.0,54152.0,223339.0,47434.0,63395.0,28159.0,33282.0,34063.0,9407.0,5972.0,1334.0,238.0,55.0
110232,County,2020/02/04,5.0,AR,5115.0,Pope County,10386.0,53614.0,216449.0,48427.0,62417.0,25634.0,33990.0,28685.0,9716.0,5773.0,1451.0,283.0,73.0
111860,County,2020/02/05,5.0,AR,5115.0,Pope County,10242.0,53758.0,217223.0,48143.0,64013.0,25371.0,33618.0,30845.0,8539.0,5082.0,1296.0,259.0,57.0
115003,County,2020/02/06,5.0,AR,5115.0,Pope County,10278.0,53722.0,218926.0,48129.0,65050.0,25049.0,34471.0,30037.0,9436.0,5174.0,1322.0,184.0,74.0
118270,County,2020/02/07,5.0,AR,5115.0,Pope County,9823.0,54177.0,231588.0,48121.0,67992.0,26000.0,38900.0,32082.0,9273.0,7535.0,1444.0,166.0,75.0
123057,County,2020/02/08,5.0,AR,5115.0,Pope County,10822.0,53178.0,209520.0,40764.0,57955.0,23418.0,35840.0,33863.0,8885.0,7184.0,1430.0,128.0,53.0
124636,County,2020/02/09,5.0,AR,5115.0,Pope County,11652.0,52348.0,179320.0,33106.0,51065.0,24957.0,32619.0,25828.0,5434.0,4537.0,1410.0,264.0,100.0
128477,County,2020/02/10,5.0,AR,5115.0,Pope County,9670.0,54330.0,224327.0,48032.0,64003.0,30338.0,34957.0,29925.0,9246.0,5789.0,1584.0,326.0,127.0
131123,County,2020/02/11,5.0,AR,5115.0,Pope County,8770.0,55230.0,214717.0,42907.0,59740.0,31880.0,32415.0,30247.0,9563.0,6239.0,1264.0,367.0,95.0
135755,County,2020/02/12,5.0,AR,5115.0,Pope County,9278.0,54722.0,203638.0,40560.0,54601.0,34253.0,31266.0,26985.0,8543.0,5283.0,1587.0,433.0,127.0
139026,County,2020/02/13,5.0,AR,5115.0,Pope County,8850.0,55150.0,219763.0,44456.0,59761.0,38175.0,32870.0,28473.0,7980.0,6108.0,1483.0,333.0,124.0
142180,County,2020/02/14,5.0,AR,5115.0,Pope County,9076.0,54924.0,247169.0,52017.0,65945.0,34207.0,37355.0,37068.0,10057.0,8283.0,1762.0,352.0,123.0
143803,County,2020/02/15,5.0,AR,5115.0,Pope County,10103.0,53897.0,209131.0,40369.0,51423.0,30446.0,35542.0,30817.0,9991.0,8148.0,1923.0,355.0,117.0
148588,County,2020/02/16,5.0,AR,5115.0,Pope County,11204.0,52796.0,194555.0,39223.0,52590.0,25695.0,33584.0,26476.0,8180.0,6686.0,1653.0,340.0,128.0
151756,County,2020/02/17,5.0,AR,5115.0,Pope County,12542.0,51458.0,187968.0,40488.0,53769.0,24979.0,30184.0,23228.0,7812.0,5583.0,1486.0,341.0,98.0
153382,County,2020/02/18,5.0,AR,5115.0,Pope County,9530.0,54470.0,220353.0,44648.0,62382.0,29347.0,37788.0,30030.0,8241.0,5981.0,1387.0,439.0,110.0
158142,County,2020/02/19,5.0,AR,5115.0,Pope County,9613.0,54387.0,235934.0,51424.0,67212.0,28564.0,38575.0,32509.0,9296.0,6427.0,1554.0,296.0,77.0
159782,County,2020/02/20,5.0,AR,5115.0,Pope County,10263.0,53737.0,229920.0,50374.0,64396.0,27672.0,36316.0,33404.0,9244.0,6743.0,1454.0,253.0,64.0
164532,County,2020/02/21,5.0,AR,5115.0,Pope County,9949.0,54051.0,250223.0,50076.0,70040.0,31875.0,39030.0,38259.0,11022.0,7705.0,1868.0,274.0,74.0
166158,County,2020/02/22,5.0,AR,5115.0,Pope County,9745.0,54255.0,229484.0,43846.0,61901.0,27261.0,36285.0,38136.0,10765.0,9250.0,1767.0,224.0,49.0
170922,County,2020/02/23,5.0,AR,5115.0,Pope County,12405.0,51595.0,190386.0,37907.0,47796.0,23112.0,33285.0,32070.0,7643.0,6849.0,1493.0,179.0,52.0
172550,County,2020/02/24,5.0,AR,5115.0,Pope County,10310.0,53690.0,218839.0,46745.0,59212.0,27064.0,37039.0,32471.0,9418.0,5398.0,1162.0,278.0,52.0
175787,County,2020/02/25,5.0,AR,5115.0,Pope County,9341.0,54659.0,243302.0,51031.0,69537.0,29290.0,37424.0,37592.0,10027.0,6783.0,1308.0,259.0,51.0
179032,County,2020/02/26,5.0,AR,5115.0,Pope County,9760.0,54240.0,223500.0,39129.0,69307.0,25087.0,33094.0,40526.0,9514.0,5349.0,1289.0,178.0,27.0
183199,County,2020/02/27,5.0,AR,5115.0,Pope County,9845.0,54155.0,246162.0,55587.0,67627.0,29117.0,36597.0,37464.0,10344.0,7920.0,1256.0,220.0,30.0
185366,County,2020/02/28,5.0,AR,5115.0,Pope County,9582.0,54418.0,269245.0,59829.0,75549.0,32815.0,38615.0,41956.0,11003.0,7927.0,1305.0,221.0,25.0
190035,County,2020/02/29,5.0,AR,5115.0,Pope County,10242.0,53758.0,243066.0,51525.0,63181.0,29782.0,38213.0,36708.0,11624.0,10181.0,1622.0,205.0,25.0
193300,County,2020/03/01,5.0,AR,5115.0,Pope County,10920.0,53080.0,193325.0,38930.0,51363.0,25055.0,34030.0,29204.0,7003.0,5860.0,1635.0,207.0,38.0
194930,County,2020/03/02,5.0,AR,5115.0,Pope County,9996.0,54004.0,228771.0,49172.0,69903.0,26770.0,33712.0,32056.0,9318.0,6288.0,1302.0,223.0,27.0
199567,County,2020/03/03,5.0,AR,5115.0,Pope County,9213.0,54787.0,242202.0,53524.0,69105.0,27798.0,35564.0,37411.0,10477.0,6452.0,1698.0,150.0,23.0
201992,County,2020/03/04,5.0,AR,5115.0,Pope County,9468.0,54532.0,238866.0,52522.0,67509.0,28114.0,33459.0,36808.0,10171.0,8011.0,2126.0,129.0,17.0
204434,County,2020/03/05,5.0,AR,5115.0,Pope County,8670.0,55330.0,250489.0,56467.0,69931.0,30296.0,37046.0,36525.0,9884.0,8352.0,1820.0,149.0,19.0
207653,County,2020/03/06,5.0,AR,5115.0,Pope County,8946.0,55054.0,275162.0,64327.0,70744.0,32994.0,35484.0,46145.0,13327.0,10032.0,1866.0,221.0,22.0
212519,County,2020/03/07,5.0,AR,5115.0,Pope County,9696.0,54304.0,240307.0,50075.0,60948.0,25998.0,33380.0,46373.0,11177.0,10457.0,1640.0,219.0,40.0
214068,County,2020/03/08,5.0,AR,5115.0,Pope County,10493.0,53507.0,215830.0,50586.0,55275.0,24213.0,32569.0,35594.0,8185.0,7474.0,1725.0,160.0,49.0
217271,County,2020/03/09,5.0,AR,5115.0,Pope County,10140.0,53860.0,233139.0,50329.0,63850.0,28317.0,32898.0,38255.0,10540.0,7251.0,1480.0,166.0,53.0
220505,County,2020/03/10,5.0,AR,5115.0,Pope County,9429.0,54571.0,241537.0,53678.0,65956.0,27172.0,35425.0,39072.0,10644.0,7518.0,1825.0,201.0,46.0
225300,County,2020/03/11,5.0,AR,5115.0,Pope County,9301.0,54699.0,242030.0,54199.0,64679.0,27789.0,32858.0,41003.0,10110.0,7951.0,2989.0,358.0,94.0
228392,County,2020/03/12,5.0,AR,5115.0,Pope County,9314.0,54686.0,235594.0,46779.0,70956.0,24531.0,30441.0,37158.0,12521.0,9619.0,3162.0,348.0,79.0
230039,County,2020/03/13,5.0,AR,5115.0,Pope County,9093.0,54907.0,235847.0,50288.0,66103.0,28649.0,29065.0,36167.0,12465.0,10011.0,2583.0,444.0,72.0
233237,County,2020/03/14,5.0,AR,5115.0,Pope County,11948.0,52052.0,244922.0,49158.0,68127.0,24898.0,29824.0,48452.0,13330.0,8325.0,2405.0,323.0,80.0
237991,County,2020/03/15,5.0,AR,5115.0,Pope County,13052.0,50948.0,182637.0,36402.0,49839.0,22091.0,31111.0,30701.0,6008.0,4932.0,1378.0,129.0,46.0
241235,County,2020/03/16,5.0,AR,5115.0,Pope County,11578.0,52422.0,201700.0,42343.0,52180.0,24614.0,29731.0,34062.0,10038.0,7159.0,1348.0,175.0,50.0
244426,County,2020/03/17,5.0,AR,5115.0,Pope County,12488.0,51512.0,205133.0,39166.0,52821.0,26205.0,32497.0,35986.0,10176.0,6589.0,1510.0,120.0,63.0
247533,County,2020/03/18,5.0,AR,5115.0,Pope County,13181.0,50819.0,208445.0,44567.0,53456.0,20595.0,31994.0,38929.0,10900.0,6500.0,1327.0,141.0,36.0
249211,County,2020/03/19,5.0,AR,5115.0,Pope County,13208.0,50792.0,190295.0,41572.0,52426.0,20347.0,28344.0,31405.0,8885.0,5784.0,1328.0,171.0,33.0
254012,County,2020/03/20,5.0,AR,5115.0,Pope County,12745.0,51255.0,210836.0,45519.0,54731.0,25068.0,30461.0,38672.0,8578.0,6024.0,1497.0,250.0,36.0
255590,County,2020/03/21,5.0,AR,5115.0,Pope County,14709.0,49291.0,186996.0,45368.0,46885.0,21895.0,27509.0,32351.0,6967.0,4587.0,1169.0,222.0,43.0
258775,County,2020/03/22,5.0,AR,5115.0,Pope County,15689.0,48311.0,137764.0,28070.0,38313.0,16137.0,22057.0,21935.0,5604.0,4359.0,1076.0,186.0,27.0
263555,County,2020/03/23,5.0,AR,5115.0,Pope County,13149.0,50851.0,167039.0,35485.0,41148.0,17794.0,27621.0,30630.0,7702.0,5421.0,1057.0,138.0,43.0
266783,County,2020/03/24,5.0,AR,5115.0,Pope County,12978.0,51022.0,165625.0,36044.0,41423.0,18984.0,26881.0,29480.0,6955.0,3989.0,1650.0,183.0,36.0
268416,County,2020/03/25,5.0,AR,5115.0,Pope County,12789.0,51211.0,168832.0,37479.0,42786.0,17710.0,23644.0,30589.0,9403.0,5395.0,1592.0,195.0,39.0
271560,County,2020/03/26,5.0,AR,5115.0,Pope County,12872.0,51128.0,179161.0,38969.0,43191.0,20993.0,29093.0,30776.0,8790.0,5528.0,1663.0,125.0,33.0
276322,County,2020/03/27,5.0,AR,5115.0,Pope County,12696.0,51304.0,169725.0,33951.0,42125.0,20462.0,29787.0,30442.0,7497.0,4047.0,1250.0,128.0,36.0
277949,County,2020/03/28,5.0,AR,5115.0,Pope County,13918.0,50082.0,152168.0,31898.0,38766.0,20269.0,24645.0,24995.0,6137.0,4031.0,1211.0,185.0,31.0
282708,County,2020/03/29,5.0,AR,5115.0,Pope County,14411.0,49589.0,146927.0,32535.0,37058.0,18917.0,24605.0,23310.0,5511.0,3797.0,947.0,222.0,25.0
285935,County,2020/03/30,5.0,AR,5115.0,Pope County,12985.0,51015.0,157719.0,31976.0,37054.0,18834.0,29474.0,26308.0,7741.0,5068.0,1079.0,159.0,26.0
289139,County,2020/03/31,5.0,AR,5115.0,Pope County,13406.0,50594.0,157265.0,34241.0,36805.0,19011.0,26697.0,25564.0,8031.0,5395.0,1319.0,167.0,35.0
290767,County,2020/04/01,5.0,AR,5115.0,Pope County,13195.0,50805.0,176541.0,37064.0,43316.0,20365.0,29445.0,30545.0,8788.0,5623.0,1239.0,132.0,24.0
295499,County,2020/04/02,5.0,AR,5115.0,Pope County,12380.0,51620.0,177741.0,37858.0,46037.0,22022.0,29075.0,28149.0,8202.0,5019.0,1190.0,156.0,33.0
298726,County,2020/04/03,5.0,AR,5115.0,Pope County,12463.0,51537.0,164840.0,31231.0,41971.0,19456.0,29270.0,26982.0,9023.0,5525.0,1151.0,190.0,41.0
301907,County,2020/04/04,5.0,AR,5115.0,Pope County,13637.0,50363.0,137892.0,22179.0,36777.0,18729.0,26996.0,21836.0,6032.0,3962.0,1159.0,180.0,42.0
305060,County,2020/04/05,5.0,AR,5115.0,Pope County,14378.0,49622.0,130571.0,25626.0,32879.0,16381.0,26465.0,20232.0,4685.0,3133.0,953.0,191.0,26.0
308260,County,2020/04/06,5.0,AR,5115.0,Pope County,12723.0,51277.0,175857.0,39322.0,47420.0,18205.0,26317.0,31284.0,7280.0,4823.0,1067.0,109.0,30.0
311499,County,2020/04/07,5.0,AR,5115.0,Pope County,13525.0,50475.0,187912.0,43709.0,47809.0,22388.0,28785.0,32603.0,6789.0,4755.0,971.0,75.0,28.0
314672,County,2020/04/08,5.0,AR,5115.0,Pope County,12957.0,51043.0,176515.0,38232.0,43940.0,21653.0,29599.0,28406.0,7696.0,5497.0,1314.0,157.0,21.0
316300,County,2020/04/09,5.0,AR,5115.0,Pope County,13061.0,50939.0,178027.0,39363.0,46290.0,20114.0,28620.0,28877.0,7373.0,5949.0,1278.0,119.0,44.0
321037,County,2020/04/10,5.0,AR,5115.0,Pope County,12992.0,51008.0,192237.0,39943.0,46423.0,26020.0,32927.0,33179.0,8275.0,4066.0,1271.0,104.0,29.0
322664,County,2020/04/11,5.0,AR,5115.0,Pope County,13433.0,50567.0,166857.0,35232.0,46625.0,19871.0,26819.0,26687.0,7507.0,3007.0,956.0,121.0,32.0
327395,County,2020/04/12,5.0,AR,5115.0,Pope County,15748.0,48252.0,122837.0,25987.0,33793.0,15233.0,19441.0,19658.0,4647.0,3094.0,782.0,183.0,19.0
330667,County,2020/04/13,5.0,AR,5115.0,Pope County,13270.0,50730.0,168844.0,35381.0,44803.0,20112.0,26160.0,29742.0,8066.0,3519.0,942.0,104.0,15.0
333795,County,2020/04/14,5.0,AR,5115.0,Pope County,13804.0,50196.0,171577.0,38672.0,46541.0,19352.0,27633.0,26670.0,6184.0,4954.0,1396.0,160.0,15.0
337048,County,2020/04/15,5.0,AR,5115.0,Pope County,13617.0,50383.0,194440.0,43777.0,54101.0,23364.0,27982.0,32560.0,6731.0,4583.0,1168.0,141.0,33.0
340142,County,2020/04/16,5.0,AR,5115.0,Pope County,14176.0,49824.0,191577.0,42105.0,50589.0,24037.0,26647.0,33399.0,8232.0,5492.0,854.0,182.0,40.0
343453,County,2020/04/17,5.0,AR,5115.0,Pope County,12864.0,51136.0,176562.0,38994.0,45716.0,15383.0,27406.0,34782.0,7206.0,5089.0,1795.0,143.0,48.0
345030,County,2020/04/18,5.0,AR,5115.0,Pope County,14593.0,49407.0,171599.0,37388.0,49493.0,16114.0,24939.0,29618.0,8202.0,4490.0,1168.0,169.0,18.0
349782,County,2020/04/19,5.0,AR,5115.0,Pope County,14591.0,49409.0,133812.0,25423.0,41453.0,18018.0,19378.0,18432.0,5463.0,4487.0,972.0,149.0,37.0
353032,County,2020/04/20,5.0,AR,5115.0,Pope County,12658.0,51342.0,206366.0,46447.0,60715.0,26028.0,27572.0,30579.0,7806.0,5962.0,1034.0,181.0,42.0
354602,County,2020/04/21,5.0,AR,5115.0,Pope County,12525.0,51475.0,189622.0,40995.0,45710.0,24141.0,30074.0,33029.0,8536.0,5715.0,1309.0,83.0,30.0
359374,County,2020/04/22,5.0,AR,5115.0,Pope County,12873.0,51127.0,166797.0,31926.0,46021.0,17776.0,24705.0,32200.0,7483.0,5415.0,1128.0,126.0,17.0
360952,County,2020/04/23,5.0,AR,5115.0,Pope County,12496.0,51504.0,197691.0,46030.0,48018.0,21501.0,30750.0,38039.0,6997.0,5114.0,1145.0,74.0,23.0
364206,County,2020/04/24,5.0,AR,5115.0,Pope County,12609.0,51391.0,190612.0,43874.0,48571.0,21630.0,29043.0,34395.0,7479.0,4581.0,908.0,102.0,29.0
367373,County,2020/04/25,5.0,AR,5115.0,Pope County,12831.0,51169.0,184266.0,39667.0,44128.0,24444.0,28480.0,33774.0,6976.0,5848.0,853.0,82.0,14.0
370538,County,2020/04/26,5.0,AR,5115.0,Pope County,13257.0,50743.0,169015.0,30953.0,44852.0,22955.0,30256.0,28690.0,6484.0,3944.0,741.0,122.0,18.0
373768,County,2020/04/27,5.0,AR,5115.0,Pope County,12481.0,51519.0,190963.0,40332.0,50738.0,22789.0,31501.0,32614.0,7133.0,4419.0,1315.0,107.0,15.0
376966,County,2020/04/28,5.0,AR,5115.0,Pope County,12274.0,51726.0,190563.0,44874.0,51007.0,20165.0,28710.0,31073.0,7897.0,5314.0,1395.0,106.0,22.0
380171,County,2020/04/29,5.0,AR,5115.0,Pope County,12317.0,51683.0,203906.0,44432.0,55050.0,23434.0,32602.0,34149.0,7844.0,5240.0,993.0,136.0,26.0
383367,County,2020/04/30,5.0,AR,5115.0,Pope County,11337.0,52663.0,209800.0,46624.0,58309.0,24244.0,33114.0,31251.0,9275.0,5589.0,1211.0,159.0,24.0
388152,County,2020/05/01,5.0,AR,5115.0,Pope County,11511.0,52489.0,222652.0,49795.0,61321.0,29454.0,31521.0,36880.0,8303.0,4069.0,1191.0,89.0,29.0
391302,County,2020/05/02,5.0,AR,5115.0,Pope County,12010.0,51990.0,209577.0,47236.0,58279.0,28100.0,29384.0,32779.0,8014.0,4506.0,1105.0,134.0,40.0
392938,County,2020/05/03,5.0,AR,5115.0,Pope County,13491.0,50509.0,182598.0,45735.0,51914.0,21774.0,21579.0,28218.0,7845.0,4180.0,1218.0,116.0,19.0
396148,County,2020/05/04,5.0,AR,5115.0,Pope County,12022.0,51978.0,192943.0,40014.0,53869.0,21686.0,29078.0,33121.0,8832.0,5082.0,1124.0,124.0,13.0
400917,County,2020/05/05,5.0,AR,5115.0,Pope County,12258.0,51742.0,200477.0,41009.0,55590.0,24597.0,30711.0,34621.0,7933.0,4683.0,1190.0,130.0,13.0
402499,County,2020/05/06,5.0,AR,5115.0,Pope County,11448.0,52552.0,198922.0,42627.0,52366.0,24092.0,29318.0,34599.0,9245.0,5077.0,1264.0,296.0,38.0
407217,County,2020/05/07,5.0,AR,5115.0,Pope County,11722.0,52278.0,190132.0,45064.0,49633.0,21342.0,29314.0,29868.0,8201.0,5016.0,1308.0,356.0,30.0
408958,County,2020/05/08,5.0,AR,5115.0,Pope County,11951.0,52049.0,215598.0,43430.0,60156.0,27675.0,31798.0,37269.0,8773.0,4909.0,1457.0,125.0,6.0
413629,County,2020/05/09,5.0,AR,5115.0,Pope County,12481.0,51519.0,206550.0,41415.0,53980.0,24574.0,34688.0,37701.0,7835.0,5205.0,1039.0,99.0,14.0
416858,County,2020/05/10,5.0,AR,5115.0,Pope County,13160.0,50840.0,181004.0,36243.0,45102.0,23703.0,30364.0,32363.0,6828.0,5299.0,988.0,99.0,15.0
418484,County,2020/05/11,5.0,AR,5115.0,Pope County,9716.0,54284.0,209429.0,46182.0,56079.0,25576.0,31917.0,32480.0,9660.0,5861.0,1536.0,127.0,11.0
423341,County,2020/05/12,5.0,AR,5115.0,Pope County,10379.0,53621.0,206028.0,41640.0,57049.0,24989.0,31526.0,33923.0,9806.0,5490.0,1428.0,156.0,21.0
424873,County,2020/05/13,5.0,AR,5115.0,Pope County,9503.0,54497.0,202031.0,44058.0,53075.0,24653.0,32647.0,32111.0,8831.0,4799.0,1685.0,138.0,34.0
429680,County,2020/05/14,5.0,AR,5115.0,Pope County,9516.0,54484.0,205648.0,42825.0,54876.0,24378.0,33274.0,33176.0,8664.0,6594.0,1654.0,182.0,25.0
432856,County,2020/05/15,5.0,AR,5115.0,Pope County,10117.0,53883.0,211644.0,51848.0,52435.0,22831.0,32672.0,34705.0,9175.0,6356.0,1393.0,196.0,33.0
434484,County,2020/05/16,5.0,AR,5115.0,Pope County,10477.0,53523.0,200964.0,45381.0,48867.0,24867.0,31709.0,32233.0,9438.0,6351.0,1933.0,152.0,33.0
439167,County,2020/05/17,5.0,AR,5115.0,Pope County,11040.0,52960.0,194475.0,39791.0,50216.0,24131.0,32330.0,34446.0,6639.0,5295.0,1485.0,126.0,16.0
442458,County,2020/05/18,5.0,AR,5115.0,Pope County,9457.0,54543.0,253361.0,55299.0,66616.0,26518.0,38496.0,46729.0,10517.0,7208.0,1825.0,144.0,9.0
445620,County,2020/05/19,5.0,AR,5115.0,Pope County,9008.0,54992.0,238691.0,53811.0,64735.0,27153.0,36527.0,38433.0,10473.0,5733.0,1686.0,99.0,41.0
447253,County,2020/05/20,5.0,AR,5115.0,Pope County,8680.0,55320.0,239993.0,58661.0,67667.0,26608.0,35914.0,34731.0,9027.0,5712.0,1503.0,137.0,33.0
450424,County,2020/05/21,5.0,AR,5115.0,Pope County,9380.0,54620.0,223773.0,47001.0,61064.0,25954.0,37701.0,35859.0,9458.0,5006.0,1502.0,197.0,31.0
455182,County,2020/05/22,5.0,AR,5115.0,Pope County,8414.0,55586.0,221063.0,47467.0,59588.0,27703.0,34074.0,32084.0,10785.0,7667.0,1288.0,374.0,33.0
458393,County,2020/05/23,5.0,AR,5115.0,Pope County,9525.0,54475.0,201640.0,43017.0,51874.0,29712.0,32048.0,30207.0,7723.0,5407.0,1302.0,302.0,48.0
460022,County,2020/05/24,5.0,AR,5115.0,Pope County,10948.0,53052.0,144515.0,29768.0,40858.0,18494.0,24660.0,19284.0,5823.0,3794.0,1081.0,700.0,53.0
463226,County,2020/05/25,5.0,AR,5115.0,Pope County,10549.0,53451.0,133950.0,26903.0,36936.0,18432.0,21641.0,18364.0,5741.0,3477.0,1161.0,1261.0,34.0
468008,County,2020/05/26,5.0,AR,5115.0,Pope County,9247.0,54753.0,147368.0,28273.0,43282.0,18037.0,22179.0,23238.0,5762.0,4155.0,1093.0,1310.0,39.0
471200,County,2020/05/27,5.0,AR,5115.0,Pope County,10279.0,53721.0,194677.0,41493.0,54142.0,23607.0,29757.0,30306.0,7647.0,5820.0,1540.0,331.0,34.0
474298,County,2020/05/28,5.0,AR,5115.0,Pope County,10482.0,53518.0,192137.0,38249.0,51427.0,24139.0,31865.0,30854.0,8851.0,4745.0,1841.0,142.0,24.0
477538,County,2020/05/29,5.0,AR,5115.0,Pope County,11981.0,52019.0,208186.0,43774.0,53498.0,26230.0,31261.0,35771.0,9980.0,5830.0,1731.0,95.0,16.0
480738,County,2020/05/30,5.0,AR,5115.0,Pope County,12159.0,51841.0,193814.0,38767.0,50524.0,24749.0,32845.0,31412.0,8029.0,5571.0,1771.0,112.0,34.0
483882,County,2020/05/31,5.0,AR,5115.0,Pope County,11881.0,52119.0,174307.0,33891.0,44109.0,22903.0,28238.0,29377.0,7864.0,5734.0,2005.0,163.0,23.0
487233,County,2020/06/01,5.0,AR,5115.0,Pope County,10448.0,53552.0,197000.0,39516.0,55824.0,24208.0,29884.0,29636.0,9636.0,5906.0,2149.0,220.0,21.0
488799,County,2020/06/02,5.0,AR,5115.0,Pope County,10476.0,53524.0,198382.0,44105.0,53781.0,21216.0,29554.0,31013.0,9137.0,7233.0,2084.0,227.0,32.0
493562,County,2020/06/03,5.0,AR,5115.0,Pope County,9003.0,54997.0,207706.0,45529.0,52260.0,24230.0,34131.0,32591.0,9446.0,6786.0,2492.0,194.0,47.0
495131,County,2020/06/04,5.0,AR,5115.0,Pope County,9784.0,54216.0,200150.0,45945.0,51806.0,23639.0,28918.0,31833.0,8212.0,7245.0,2254.0,246.0,52.0
499907,County,2020/06/05,5.0,AR,5115.0,Pope County,9382.0,54618.0,221382.0,49366.0,56963.0,24686.0,35225.0,35012.0,9992.0,7211.0,2695.0,202.0,30.0
501530,County,2020/06/06,5.0,AR,5115.0,Pope County,11236.0,52764.0,182573.0,38867.0,47788.0,20966.0,29772.0,26643.0,10189.0,6454.0,1595.0,270.0,29.0
506256,County,2020/06/07,5.0,AR,5115.0,Pope County,11239.0,52761.0,183587.0,37995.0,50792.0,22683.0,27757.0,26980.0,8762.0,6636.0,1756.0,196.0,30.0
507945,County,2020/06/08,5.0,AR,5115.0,Pope County,9146.0,54854.0,209468.0,44069.0,56148.0,24331.0,34551.0,34273.0,7708.0,6231.0,1895.0,237.0,25.0
512673,County,2020/06/09,5.0,AR,5115.0,Pope County,10097.0,53903.0,204433.0,43582.0,55854.0,23101.0,31390.0,31017.0,10180.0,7300.0,1756.0,233.0,20.0
514305,County,2020/06/10,5.0,AR,5115.0,Pope County,9776.0,54224.0,205369.0,44543.0,53417.0,23555.0,32002.0,33641.0,9092.0,6628.0,2063.0,399.0,29.0
517508,County,2020/06/11,5.0,AR,5115.0,Pope County,9172.0,54828.0,216220.0,43884.0,61123.0,24560.0,32905.0,34780.0,9948.0,6648.0,1839.0,505.0,28.0
522308,County,2020/06/12,5.0,AR,5115.0,Pope County,9546.0,54454.0,216358.0,49678.0,57974.0,24020.0,31860.0,33273.0,9979.0,7318.0,2015.0,206.0,35.0
523886,County,2020/06/13,5.0,AR,5115.0,Pope County,10655.0,53345.0,198921.0,45506.0,49173.0,23375.0,27880.0,32815.0,10866.0,7642.0,1450.0,187.0,27.0
527081,County,2020/06/14,5.0,AR,5115.0,Pope County,11079.0,52921.0,166686.0,36201.0,42475.0,18578.0,29278.0,23980.0,8018.0,5889.0,1932.0,297.0,38.0
530278,County,2020/06/15,5.0,AR,5115.0,Pope County,10602.0,53398.0,191620.0,42741.0,51024.0,22158.0,29241.0,29793.0,8862.0,5458.0,2080.0,240.0,23.0
535060,County,2020/06/16,5.0,AR,5115.0,Pope County,10449.0,53551.0,199698.0,41647.0,54045.0,23293.0,32096.0,31574.0,8681.0,5781.0,2300.0,246.0,35.0
538228,County,2020/06/17,5.0,AR,5115.0,Pope County,9879.0,54121.0,207688.0,48509.0,54381.0,22730.0,31532.0,29944.0,10044.0,7742.0,2579.0,188.0,39.0
539856,County,2020/06/18,5.0,AR,5115.0,Pope County,10523.0,53477.0,211743.0,50249.0,55522.0,22771.0,31686.0,32133.0,10344.0,6597.0,2226.0,182.0,33.0
543050,County,2020/06/19,5.0,AR,5115.0,Pope County,10307.0,53693.0,200782.0,44096.0,52131.0,22295.0,29576.0,32341.0,10389.0,7529.0,2204.0,197.0,24.0
546254,County,2020/06/20,5.0,AR,5115.0,Pope County,10934.0,53066.0,179157.0,38598.0,48693.0,19309.0,27827.0,26778.0,9108.0,6513.0,2149.0,142.0,40.0
549459,County,2020/06/21,5.0,AR,5115.0,Pope County,12076.0,51924.0,166341.0,39004.0,39090.0,19576.0,27611.0,26957.0,7204.0,5426.0,1229.0,193.0,51.0
552634,County,2020/06/22,5.0,AR,5115.0,Pope County,10476.0,53524.0,187785.0,43599.0,50526.0,21408.0,26651.0,28761.0,8432.0,6514.0,1710.0,144.0,40.0
557393,County,2020/06/23,5.0,AR,5115.0,Pope County,10403.0,53597.0,197849.0,44478.0,54124.0,20887.0,29822.0,31356.0,9210.0,6426.0,1273.0,231.0,42.0
559025,County,2020/06/24,5.0,AR,5115.0,Pope County,11084.0,52916.0,191339.0,44665.0,50658.0,23354.0,25177.0,31949.0,8344.0,5362.0,1641.0,148.0,41.0
563763,County,2020/06/25,5.0,AR,5115.0,Pope County,10634.0,53366.0,202431.0,48158.0,53884.0,22511.0,28969.0,31995.0,8362.0,6698.0,1625.0,194.0,35.0
565470,County,2020/06/26,5.0,AR,5115.0,Pope County,10552.0,53448.0,203740.0,47608.0,52399.0,21735.0,30975.0,32747.0,9434.0,6891.0,1749.0,164.0,38.0
570159,County,2020/06/27,5.0,AR,5115.0,Pope County,11193.0,52807.0,191619.0,42441.0,49732.0,23213.0,28045.0,30683.0,8579.0,6999.0,1753.0,136.0,38.0
571798,County,2020/06/28,5.0,AR,5115.0,Pope County,11982.0,52018.0,166785.0,32068.0,45000.0,21339.0,26001.0,26726.0,8005.0,5808.0,1600.0,200.0,38.0
575009,County,2020/06/29,5.0,AR,5115.0,Pope County,11614.0,52386.0,173339.0,32294.0,47100.0,22154.0,26284.0,27279.0,8317.0,7901.0,1780.0,198.0,32.0
579773,County,2020/06/30,5.0,AR,5115.0,Pope County,11132.0,52868.0,182067.0,39779.0,50883.0,18699.0,26985.0,26747.0,9697.0,6780.0,2248.0,202.0,47.0
582966,County,2020/07/01,5.0,AR,5115.0,Pope County,10612.0,53388.0,174838.0,34779.0,46670.0,19546.0,28469.0,28716.0,8495.0,5997.0,1880.0,230.0,56.0
586156,County,2020/07/02,5.0,AR,5115.0,Pope County,11975.0,52025.0,214861.0,51115.0,57193.0,23893.0,30748.0,33960.0,8875.0,7109.0,1725.0,206.0,37.0
587792,County,2020/07/03,5.0,AR,5115.0,Pope County,12530.0,51470.0,202593.0,47340.0,52104.0,21613.0,30800.0,32563.0,9381.0,6852.0,1739.0,163.0,38.0
592543,County,2020/07/04,5.0,AR,5115.0,Pope County,13178.0,50822.0,173323.0,40500.0,44576.0,18490.0,26351.0,27858.0,8026.0,5862.0,1488.0,140.0,32.0
595748,County,2020/07/05,5.0,AR,5115.0,Pope County,12091.0,51909.0,162796.0,33218.0,42930.0,20905.0,27325.0,23879.0,7398.0,5291.0,1677.0,142.0,31.0
597363,County,2020/07/06,5.0,AR,5115.0,Pope County,11248.0,52752.0,172866.0,38344.0,44518.0,21273.0,28331.0,26123.0,7563.0,5016.0,1501.0,157.0,40.0
602536,County,2020/07/07,5.0,AR,5115.0,Pope County,11147.0,52853.0,187467.0,40016.0,47836.0,21196.0,33514.0,29656.0,7273.0,6165.0,1570.0,193.0,48.0
603733,County,2020/07/08,5.0,AR,5115.0,Pope County,11454.0,52546.0,177841.0,38928.0,46819.0,18916.0,28527.0,26408.0,9508.0,6600.0,1866.0,227.0,42.0
608506,County,2020/07/09,5.0,AR,5115.0,Pope County,11221.0,52779.0,178976.0,37255.0,48723.0,19845.0,28421.0,26763.0,9640.0,6031.0,2025.0,222.0,51.0
610128,County,2020/07/10,5.0,AR,5115.0,Pope County,10954.0,53046.0,188278.0,38059.0,53903.0,22067.0,28077.0,28587.0,8841.0,6391.0,2103.0,188.0,62.0
613339,County,2020/07/11,5.0,AR,5115.0,Pope County,11914.0,52086.0,176481.0,37612.0,44367.0,21767.0,28168.0,27652.0,7879.0,7054.0,1635.0,261.0,86.0
616512,County,2020/07/12,5.0,AR,5115.0,Pope County,12344.0,51656.0,151034.0,29734.0,39493.0,18154.0,25174.0,22511.0,7634.0,6402.0,1599.0,276.0,57.0
621271,County,2020/07/13,5.0,AR,5115.0,Pope County,11115.0,52885.0,169023.0,36015.0,44746.0,20849.0,25232.0,26445.0,7363.0,6352.0,1774.0,176.0,71.0
624465,County,2020/07/14,5.0,AR,5115.0,Pope County,10805.0,53195.0,176379.0,37088.0,45516.0,21342.0,26815.0,30132.0,7566.0,5900.0,1795.0,161.0,64.0
627638,County,2020/07/15,5.0,AR,5115.0,Pope County,11074.0,52926.0,182136.0,37962.0,48056.0,22150.0,28063.0,28737.0,9521.0,5678.0,1765.0,173.0,31.0
630953,County,2020/07/16,5.0,AR,5115.0,Pope County,11200.0,52800.0,196972.0,42985.0,52371.0,22047.0,31832.0,30906.0,8589.0,6549.0,1492.0,176.0,25.0
633998,County,2020/07/17,5.0,AR,5115.0,Pope County,11342.0,52658.0,186020.0,38215.0,50695.0,20078.0,29631.0,30656.0,8743.0,6457.0,1381.0,140.0,24.0
635676,County,2020/07/18,5.0,AR,5115.0,Pope County,12546.0,51454.0,177498.0,36964.0,47831.0,21034.0,28161.0,25925.0,8892.0,6866.0,1606.0,193.0,26.0
638879,County,2020/07/19,5.0,AR,5115.0,Pope County,13964.0,50036.0,150154.0,29815.0,39082.0,16578.0,27761.0,23236.0,5968.0,5535.0,1949.0,177.0,53.0
643662,County,2020/07/20,5.0,AR,5115.0,Pope County,12437.0,51563.0,179693.0,40065.0,48941.0,20325.0,26842.0,27522.0,8996.0,5364.0,1448.0,156.0,34.0
647306,County,2020/07/21,5.0,AR,5115.0,Pope County,11656.0,52344.0,175692.0,37352.0,44719.0,21487.0,25657.0,29063.0,9505.0,6126.0,1546.0,176.0,61.0
649495,County,2020/07/22,5.0,AR,5115.0,Pope County,11569.0,52431.0,174435.0,36002.0,45600.0,21840.0,26956.0,25529.0,9791.0,6891.0,1579.0,182.0,65.0
653214,County,2020/07/23,5.0,AR,5115.0,Pope County,11445.0,52555.0,176213.0,35949.0,46362.0,22689.0,28031.0,27791.0,7465.0,6050.0,1577.0,239.0,60.0
656439,County,2020/07/24,5.0,AR,5115.0,Pope County,11246.0,52754.0,180936.0,35861.0,50149.0,22449.0,26658.0,28678.0,8290.0,6768.0,1818.0,211.0,54.0
659704,County,2020/07/25,5.0,AR,5115.0,Pope County,12621.0,51379.0,169672.0,34555.0,43309.0,20249.0,28559.0,25329.0,9335.0,6095.0,1981.0,197.0,63.0
661228,County,2020/07/26,5.0,AR,5115.0,Pope County,12765.0,51235.0,161063.0,31619.0,38714.0,20657.0,26815.0,23322.0,8653.0,8374.0,2657.0,195.0,57.0
666055,County,2020/07/27,5.0,AR,5115.0,Pope County,11732.0,52268.0,175351.0,38181.0,44335.0,20327.0,27694.0,26458.0,8464.0,7219.0,2326.0,262.0,85.0
667637,County,2020/07/28,5.0,AR,5115.0,Pope County,11350.0,52650.0,182896.0,35891.0,45739.0,21755.0,31447.0,28722.0,8939.0,8053.0,2008.0,282.0,60.0
672472,County,2020/07/29,5.0,AR,5115.0,Pope County,11657.0,52343.0,184118.0,38363.0,47837.0,21889.0,26620.0,28667.0,10218.0,8058.0,2131.0,271.0,64.0
674004,County,2020/07/30,5.0,AR,5115.0,Pope County,10890.0,53110.0,185637.0,38935.0,48789.0,24028.0,27020.0,26189.0,10452.0,7147.0,2721.0,293.0,63.0
678782,County,2020/07/31,5.0,AR,5115.0,Pope County,11529.0,52471.0,172883.0,34925.0,42568.0,21407.0,26521.0,26843.0,8645.0,8800.0,2804.0,292.0,78.0
680411,County,2020/08/01,5.0,AR,5115.0,Pope County,12425.0,51575.0,159503.0,32250.0,43037.0,20023.0,22577.0,23327.0,8572.0,6952.0,2354.0,336.0,75.0
683586,County,2020/08/02,5.0,AR,5115.0,Pope County,13172.0,50828.0,155285.0,28219.0,38019.0,19516.0,27108.0,24999.0,7547.0,7054.0,2511.0,253.0,59.0
686781,County,2020/08/03,5.0,AR,5115.0,Pope County,11344.0,52656.0,192336.0,36605.0,51948.0,23501.0,29913.0,31308.0,9566.0,7664.0,1609.0,184.0,38.0
691557,County,2020/08/04,5.0,AR,5115.0,Pope County,10431.0,53569.0,203691.0,43947.0,53945.0,26131.0,30779.0,30456.0,11039.0,5933.0,1286.0,153.0,22.0
693186,County,2020/08/05,5.0,AR,5115.0,Pope County,10537.0,53463.0,199016.0,40716.0,54197.0,21164.0,30763.0,31881.0,10735.0,7303.0,2055.0,160.0,42.0
697929,County,2020/08/06,5.0,AR,5115.0,Pope County,10740.0,53260.0,209167.0,46488.0,56757.0,21739.0,33158.0,30537.0,10842.0,7569.0,1938.0,101.0,38.0
699556,County,2020/08/07,5.0,AR,5115.0,Pope County,10899.0,53101.0,193117.0,42800.0,48515.0,21133.0,30001.0,31600.0,9722.0,7468.0,1674.0,160.0,44.0
702752,County,2020/08/08,5.0,AR,5115.0,Pope County,11465.0,52535.0,177966.0,34717.0,49052.0,21936.0,26067.0,28419.0,8067.0,7696.0,1794.0,177.0,41.0
707534,County,2020/08/09,5.0,AR,5115.0,Pope County,12915.0,51085.0,170544.0,30826.0,45283.0,21687.0,29778.0,27131.0,7401.0,6285.0,1890.0,222.0,41.0
709164,County,2020/08/10,5.0,AR,5115.0,Pope County,11929.0,52071.0,194283.0,42485.0,48919.0,24814.0,28408.0,32548.0,8910.0,6331.0,1647.0,189.0,32.0
712332,County,2020/08/11,5.0,AR,5115.0,Pope County,11372.0,52628.0,198941.0,41552.0,51284.0,23055.0,32773.0,31493.0,10058.0,7215.0,1299.0,172.0,40.0
715527,County,2020/08/12,5.0,AR,5115.0,Pope County,11005.0,52995.0,178184.0,33520.0,45894.0,22668.0,29116.0,29398.0,9824.0,5729.0,1682.0,264.0,89.0
720286,County,2020/08/13,5.0,AR,5115.0,Pope County,10302.0,53698.0,199925.0,41234.0,52238.0,24840.0,31874.0,28468.0,11821.0,7005.0,2111.0,218.0,116.0
723513,County,2020/08/14,5.0,AR,5115.0,Pope County,10089.0,53911.0,204515.0,39763.0,53665.0,24761.0,33838.0,32319.0,10349.0,7230.0,2213.0,286.0,91.0
726724,County,2020/08/15,5.0,AR,5115.0,Pope County,10507.0,53493.0,188901.0,34740.0,46279.0,23895.0,28515.0,34763.0,10879.0,7271.0,2178.0,251.0,130.0
728303,County,2020/08/16,5.0,AR,5115.0,Pope County,12558.0,51442.0,163569.0,29599.0,38116.0,18610.0,31530.0,25088.0,8560.0,8660.0,2928.0,292.0,186.0
733083,County,2020/08/17,5.0,AR,5115.0,Pope County,11634.0,52366.0,187185.0,37081.0,49343.0,22575.0,29321.0,30161.0,9034.0,6794.0,2284.0,388.0,204.0
734711,County,2020/08/18,5.0,AR,5115.0,Pope County,11672.0,52328.0,170118.0,32064.0,40388.0,21278.0,26932.0,30310.0,8752.0,7377.0,2385.0,385.0,247.0
739451,County,2020/08/19,5.0,AR,5115.0,Pope County,11453.0,52547.0,187457.0,39519.0,49086.0,22202.0,28907.0,27931.0,9999.0,7123.0,2128.0,411.0,151.0
741078,County,2020/08/20,5.0,AR,5115.0,Pope County,11012.0,52988.0,190770.0,39807.0,51722.0,21985.0,29447.0,28275.0,9729.0,6912.0,2413.0,322.0,158.0
744277,County,2020/08/21,5.0,AR,5115.0,Pope County,10363.0,53637.0,205247.0,42532.0,54347.0,23344.0,30836.0,31947.0,10560.0,8910.0,2362.0,250.0,159.0
749060,County,2020/08/22,5.0,AR,5115.0,Pope County,11756.0,52244.0,185069.0,40269.0,47725.0,21826.0,28875.0,26554.0,9854.0,7564.0,2001.0,210.0,191.0
750675,County,2020/08/23,5.0,AR,5115.0,Pope County,12739.0,51261.0,153488.0,28738.0,37437.0,17576.0,27619.0,25221.0,7474.0,7142.0,1944.0,220.0,117.0
753900,County,2020/08/24,5.0,AR,5115.0,Pope County,12705.0,51295.0,165788.0,33256.0,47262.0,19955.0,23676.0,25411.0,7599.0,6553.0,1737.0,220.0,119.0
757048,County,2020/08/25,5.0,AR,5115.0,Pope County,11970.0,52030.0,176986.0,37651.0,49554.0,20691.0,26621.0,25978.0,7143.0,7283.0,1704.0,244.0,117.0
761771,County,2020/08/26,5.0,AR,5115.0,Pope County,12027.0,51973.0,161802.0,30535.0,44211.0,17880.0,26765.0,24455.0,8330.0,7637.0,1648.0,247.0,94.0
763448,County,2020/08/27,5.0,AR,5115.0,Pope County,11686.0,52314.0,159992.0,32772.0,41817.0,19087.0,25713.0,25279.0,7852.0,5284.0,1759.0,332.0,97.0
766656,County,2020/08/28,5.0,AR,5115.0,Pope County,11894.0,52106.0,176574.0,33670.0,45177.0,21345.0,29138.0,29475.0,8249.0,7309.0,1844.0,282.0,85.0
771383,County,2020/08/29,5.0,AR,5115.0,Pope County,12080.0,51920.0,169534.0,32766.0,41552.0,22268.0,27206.0,27145.0,9046.0,7767.0,1367.0,314.0,103.0
773018,County,2020/08/30,5.0,AR,5115.0,Pope County,14025.0,49975.0,140527.0,24321.0,36921.0,16759.0,22870.0,24631.0,5589.0,6709.0,2390.0,255.0,82.0
777793,County,2020/08/31,5.0,AR,5115.0,Pope County,12809.0,51191.0,153784.0,31286.0,39888.0,17210.0,23444.0,24110.0,8080.0,7249.0,2103.0,332.0,82.0
780991,County,2020/09/01,5.0,AR,5115.0,Pope County,11970.0,52030.0,165997.0,31994.0,44500.0,21176.0,26471.0,24831.0,8187.0,6528.0,1933.0,294.0,83.0
783387,County,2020/09/02,5.0,AR,5115.0,Pope County,12081.0,51919.0,172134.0,36952.0,44004.0,20391.0,27248.0,24953.0,8894.0,6873.0,2434.0,295.0,90.0
787336,County,2020/09/03,5.0,AR,5115.0,Pope County,11316.0,52684.0,191083.0,41292.0,50745.0,20650.0,29128.0,28756.0,9870.0,7912.0,2360.0,286.0,84.0
789001,County,2020/09/04,5.0,AR,5115.0,Pope County,12189.0,51811.0,173799.0,33411.0,45743.0,19423.0,28111.0,27895.0,8649.0,7801.0,2376.0,300.0,90.0
793668,County,2020/09/05,5.0,AR,5115.0,Pope County,12553.0,51447.0,187893.0,36209.0,48009.0,21174.0,30529.0,30602.0,9605.0,9142.0,2381.0,193.0,49.0
795371,County,2020/09/06,5.0,AR,5115.0,Pope County,13939.0,50061.0,152790.0,27687.0,37866.0,17115.0,27300.0,24153.0,8919.0,7421.0,2031.0,221.0,77.0
798580,County,2020/09/07,5.0,AR,5115.0,Pope County,13871.0,50129.0,146070.0,29001.0,37499.0,16409.0,21846.0,23659.0,8714.0,6457.0,2114.0,270.0,101.0
801791,County,2020/09/08,5.0,AR,5115.0,Pope County,12218.0,51782.0,188694.0,40052.0,52242.0,22441.0,25808.0,30154.0,8196.0,7265.0,2188.0,256.0,92.0
804958,County,2020/09/09,5.0,AR,5115.0,Pope County,12178.0,51822.0,197586.0,39906.0,52095.0,23020.0,35226.0,29340.0,8442.0,7117.0,2121.0,242.0,77.0
809727,County,2020/09/10,5.0,AR,5115.0,Pope County,11864.0,52136.0,187461.0,40599.0,49490.0,21712.0,28419.0,29067.0,8290.0,7140.0,2405.0,239.0,100.0
811355,County,2020/09/11,5.0,AR,5115.0,Pope County,11801.0,52199.0,200824.0,40250.0,52174.0,24414.0,32174.0,32432.0,9281.0,7697.0,2048.0,259.0,95.0
816108,County,2020/09/12,5.0,AR,5115.0,Pope County,13043.0,50957.0,171160.0,30230.0,44824.0,21134.0,27300.0,27269.0,8552.0,9484.0,1957.0,350.0,60.0
819289,County,2020/09/13,5.0,AR,5115.0,Pope County,13547.0,50453.0,139928.0,23718.0,37049.0,17485.0,24680.0,21891.0,5847.0,6850.0,1969.0,337.0,102.0
822495,County,2020/09/14,5.0,AR,5115.0,Pope County,12460.0,51540.0,191771.0,34761.0,53727.0,25712.0,29908.0,30542.0,7641.0,7377.0,1796.0,237.0,70.0
824123,County,2020/09/15,5.0,AR,5115.0,Pope County,12150.0,51850.0,202179.0,42671.0,53421.0,23040.0,31498.0,33322.0,8194.0,7696.0,1997.0,249.0,91.0
828929,County,2020/09/16,5.0,AR,5115.0,Pope County,11951.0,52049.0,191760.0,39029.0,50175.0,23141.0,33322.0,27564.0,9460.0,6632.0,2064.0,281.0,92.0
832107,County,2020/09/17,5.0,AR,5115.0,Pope County,11480.0,52520.0,198727.0,39692.0,54595.0,23562.0,31190.0,29833.0,10137.0,7026.0,2295.0,305.0,92.0
835271,County,2020/09/18,5.0,AR,5115.0,Pope County,11517.0,52483.0,203750.0,39682.0,53509.0,23468.0,31614.0,32145.0,11853.0,8807.0,2341.0,263.0,68.0
836898,County,2020/09/19,5.0,AR,5115.0,Pope County,12306.0,51694.0,194271.0,35627.0,50045.0,23333.0,30736.0,34033.0,9631.0,8573.0,1966.0,255.0,72.0
841673,County,2020/09/20,5.0,AR,5115.0,Pope County,12768.0,51232.0,159391.0,30228.0,41346.0,19783.0,28291.0,25508.0,6100.0,5994.0,1833.0,265.0,43.0
843301,County,2020/09/21,5.0,AR,5115.0,Pope County,13430.0,50570.0,171560.0,30798.0,48330.0,21226.0,25476.0,29695.0,8702.0,5672.0,1451.0,169.0,41.0
848047,County,2020/09/22,5.0,AR,5115.0,Pope County,12070.0,51930.0,265045.0,102307.0,65509.0,22001.0,28837.0,29362.0,9860.0,5760.0,1239.0,143.0,27.0
849674,County,2020/09/23,5.0,AR,5115.0,Pope County,11587.0,52413.0,182467.0,33789.0,50931.0,21752.0,28741.0,29558.0,8407.0,7495.0,1624.0,134.0,36.0
854440,County,2020/09/24,5.0,AR,5115.0,Pope County,10955.0,53045.0,183743.0,34608.0,50494.0,21899.0,27939.0,30048.0,9294.0,7513.0,1722.0,171.0,55.0
856068,County,2020/09/25,5.0,AR,5115.0,Pope County,10624.0,53376.0,252538.0,81208.0,60706.0,22362.0,34907.0,32781.0,11931.0,7069.0,1397.0,150.0,27.0
860821,County,2020/09/26,5.0,AR,5115.0,Pope County,12095.0,51905.0,191455.0,36412.0,48275.0,25453.0,30212.0,30574.0,10201.0,8520.0,1639.0,131.0,38.0
862476,County,2020/09/27,5.0,AR,5115.0,Pope County,11583.0,52417.0,170249.0,31604.0,42776.0,21276.0,31819.0,27170.0,7161.0,6554.0,1731.0,127.0,31.0
867211,County,2020/09/28,5.0,AR,5115.0,Pope County,10860.0,53140.0,191951.0,43471.0,52299.0,22240.0,28454.0,28895.0,8079.0,6884.0,1483.0,121.0,25.0
868838,County,2020/09/29,5.0,AR,5115.0,Pope County,11738.0,52262.0,187307.0,38750.0,49458.0,24136.0,29365.0,28598.0,7801.0,7589.0,1433.0,162.0,15.0
873616,County,2020/09/30,5.0,AR,5115.0,Pope County,12397.0,51603.0,175178.0,32500.0,45357.0,20323.0,30246.0,26541.0,10536.0,7817.0,1693.0,140.0,25.0
875245,County,2020/10/01,5.0,AR,5115.0,Pope County,11689.0,52311.0,189919.0,36379.0,50858.0,21595.0,31134.0,31430.0,8787.0,7887.0,1644.0,167.0,38.0
879987,County,2020/10/02,5.0,AR,5115.0,Pope County,11278.0,52722.0,190073.0,37077.0,53674.0,22094.0,30732.0,29151.0,8031.0,7243.0,1880.0,170.0,21.0
881614,County,2020/10/03,5.0,AR,5115.0,Pope County,12748.0,51252.0,174158.0,36798.0,45093.0,19369.0,27519.0,25994.0,9615.0,8120.0,1476.0,144.0,30.0
884753,County,2020/10/04,5.0,AR,5115.0,Pope County,13594.0,50406.0,146288.0,23245.0,38058.0,15074.0,29485.0,23598.0,7202.0,7011.0,2409.0,186.0,20.0
888101,County,2020/10/05,5.0,AR,5115.0,Pope County,13703.0,50297.0,160870.0,31483.0,45639.0,16871.0,24436.0,24859.0,9076.0,6881.0,1405.0,198.0,22.0
891289,County,2020/10/06,5.0,AR,5115.0,Pope County,12408.0,51592.0,177745.0,31983.0,46855.0,21529.0,29696.0,29251.0,9777.0,6687.0,1782.0,164.0,21.0
894587,County,2020/10/07,5.0,AR,5115.0,Pope County,12006.0,51994.0,180147.0,34181.0,48006.0,21265.0,27173.0,27898.0,11916.0,7527.0,1989.0,166.0,26.0
897648,County,2020/10/08,5.0,AR,5115.0,Pope County,12487.0,51513.0,171146.0,31982.0,45416.0,19538.0,26371.0,28484.0,9748.0,7731.0,1670.0,179.0,27.0
900877,County,2020/10/09,5.0,AR,5115.0,Pope County,12557.0,51443.0,165328.0,30494.0,40682.0,21379.0,27019.0,25797.0,9316.0,8827.0,1622.0,168.0,24.0
904016,County,2020/10/10,5.0,AR,5115.0,Pope County,14021.0,49979.0,150276.0,26396.0,38776.0,16882.0,24654.0,25637.0,9019.0,6792.0,1974.0,125.0,21.0
909438,County,2020/10/11,5.0,AR,5115.0,Pope County,13953.0,50047.0,145709.0,24914.0,34709.0,17727.0,24082.0,23873.0,9617.0,8435.0,2197.0,143.0,12.0
913247,County,2020/10/12,5.0,AR,5115.0,Pope County,12963.0,51037.0,171734.0,33648.0,47200.0,20828.0,26463.0,24854.0,8979.0,7783.0,1829.0,137.0,13.0
916521,County,2020/10/13,5.0,AR,5115.0,Pope County,11985.0,52015.0,185362.0,36448.0,49680.0,22970.0,27034.0,27516.0,10995.0,8735.0,1825.0,140.0,19.0
919596,County,2020/10/14,5.0,AR,5115.0,Pope County,11354.0,52646.0,178216.0,32723.0,47095.0,21982.0,29001.0,26924.0,10398.0,8073.0,1812.0,185.0,23.0
922955,County,2020/10/15,5.0,AR,5115.0,Pope County,12122.0,51878.0,162643.0,30114.0,44516.0,17832.0,24808.0,23925.0,10463.0,8993.0,1757.0,205.0,30.0
926026,County,2020/10/16,5.0,AR,5115.0,Pope County,10991.0,53009.0,186227.0,34519.0,48954.0,24846.0,28094.0,27745.0,11223.0,8697.0,1897.0,226.0,26.0
929163,County,2020/10/17,5.0,AR,5115.0,Pope County,12470.0,51530.0,163485.0,28858.0,41249.0,20181.0,25610.0,25639.0,11068.0,8871.0,1802.0,180.0,27.0
932474,County,2020/10/18,5.0,AR,5115.0,Pope County,13421.0,50579.0,143786.0,23998.0,34714.0,17879.0,26205.0,22190.0,9162.0,7380.0,2093.0,149.0,16.0
935637,County,2020/10/19,5.0,AR,5115.0,Pope County,11631.0,52369.0,161522.0,31976.0,41512.0,17358.0,24598.0,25805.0,9519.0,8856.0,1715.0,157.0,26.0
938629,County,2020/10/20,5.0,AR,5115.0,Pope County,12238.0,51762.0,170831.0,35184.0,45094.0,21118.0,25383.0,24701.0,8815.0,8725.0,1668.0,123.0,20.0
942134,County,2020/10/21,5.0,AR,5115.0,Pope County,13245.0,50755.0,164616.0,31438.0,43729.0,21665.0,23394.0,24991.0,9399.0,7859.0,1961.0,158.0,22.0
944113,County,2020/10/22,5.0,AR,5115.0,Pope County,11723.0,52277.0,186350.0,35443.0,53334.0,23969.0,28204.0,25186.0,9218.0,8837.0,1984.0,155.0,20.0
947847,County,2020/10/23,5.0,AR,5115.0,Pope County,10389.0,53611.0,202831.0,41095.0,54236.0,24400.0,32089.0,28617.0,10321.0,9969.0,1971.0,117.0,16.0
951574,County,2020/10/24,5.0,AR,5115.0,Pope County,11816.0,52184.0,176861.0,31277.0,45897.0,21894.0,28234.0,27851.0,10636.0,9009.0,1923.0,122.0,18.0
