,Level,Date,State FIPS,State Postal Code,County FIPS,County Name,Population Staying at Home,Population Not Staying at Home,Number of Trips,Number of Trips <1,Number of Trips 1-3,Number of Trips 3-5,Number of Trips 5-10,Number of Trips 10-25,Number of Trips 25-50,Number of Trips 50-100,Number of Trips 100-250,Number of Trips 250-500,Number of Trips >=500
2183,County,2020/01/01,40.0,OK,40107.0,Okfuskee County,2476.0,9622.0,41114.0,7591.0,14762.0,3576.0,6092.0,5064.0,2519.0,1098.0,364.0,23.0,25.0
4842,County,2020/01/02,40.0,OK,40107.0,Okfuskee County,2223.0,9875.0,45695.0,10334.0,12884.0,3622.0,5601.0,6995.0,3501.0,2617.0,127.0,14.0,0.0
9261,County,2020/01/03,40.0,OK,40107.0,Okfuskee County,1963.0,10135.0,48309.0,7367.0,13786.0,4436.0,6710.0,8569.0,4278.0,2813.0,330.0,20.0,0.0
10697,County,2020/01/04,40.0,OK,40107.0,Okfuskee County,2156.0,9942.0,42481.0,8409.0,9010.0,5187.0,8120.0,6364.0,2905.0,2220.0,218.0,43.0,5.0
14959,County,2020/01/05,40.0,OK,40107.0,Okfuskee County,2700.0,9398.0,38915.0,9844.0,11184.0,3519.0,5898.0,4600.0,2307.0,1337.0,143.0,47.0,36.0
18641,County,2020/01/06,40.0,OK,40107.0,Okfuskee County,2106.0,9992.0,43377.0,8381.0,11983.0,2812.0,7824.0,6564.0,2742.0,2780.0,235.0,39.0,17.0
21836,County,2020/01/07,40.0,OK,40107.0,Okfuskee County,2115.0,9983.0,42304.0,7768.0,12629.0,3668.0,6845.0,6548.0,2642.0,1940.0,223.0,25.0,16.0
25031,County,2020/01/08,40.0,OK,40107.0,Okfuskee County,2218.0,9880.0,43158.0,9084.0,10109.0,4294.0,6681.0,6967.0,3241.0,2461.0,268.0,32.0,21.0
28211,County,2020/01/09,40.0,OK,40107.0,Okfuskee County,2091.0,10007.0,44417.0,10393.0,10969.0,3782.0,7336.0,6114.0,3256.0,2257.0,281.0,25.0,4.0
31418,County,2020/01/10,40.0,OK,40107.0,Okfuskee County,1971.0,10127.0,44657.0,8227.0,14957.0,4041.0,5889.0,6427.0,2910.0,1939.0,230.0,29.0,8.0
33095,County,2020/01/11,40.0,OK,40107.0,Okfuskee County,2816.0,9282.0,36984.0,5835.0,12792.0,3122.0,5919.0,5511.0,2534.0,962.0,247.0,52.0,10.0
36251,County,2020/01/12,40.0,OK,40107.0,Okfuskee County,2411.0,9687.0,35492.0,5723.0,8850.0,3649.0,5796.0,5016.0,3622.0,2531.0,242.0,58.0,5.0
41029,County,2020/01/13,40.0,OK,40107.0,Okfuskee County,2432.0,9666.0,39737.0,8007.0,10335.0,3547.0,6209.0,6167.0,3034.0,2223.0,178.0,33.0,4.0
44178,County,2020/01/14,40.0,OK,40107.0,Okfuskee County,2230.0,9868.0,37977.0,7153.0,10534.0,3155.0,5233.0,6314.0,2875.0,2545.0,133.0,31.0,4.0
47383,County,2020/01/15,40.0,OK,40107.0,Okfuskee County,2205.0,9893.0,42663.0,8828.0,12409.0,3803.0,6939.0,6094.0,2721.0,1715.0,113.0,25.0,16.0
48912,County,2020/01/16,40.0,OK,40107.0,Okfuskee County,2097.0,10001.0,39261.0,6504.0,10965.0,5060.0,4510.0,6211.0,3183.0,2548.0,247.0,29.0,4.0
53827,County,2020/01/17,40.0,OK,40107.0,Okfuskee County,2104.0,9994.0,41702.0,8435.0,11572.0,3575.0,5424.0,7262.0,3517.0,1707.0,142.0,41.0,27.0
55400,County,2020/01/18,40.0,OK,40107.0,Okfuskee County,2614.0,9484.0,36950.0,6271.0,9990.0,2858.0,6422.0,5090.0,3738.0,2445.0,106.0,7.0,23.0
58548,County,2020/01/19,40.0,OK,40107.0,Okfuskee County,2828.0,9270.0,32890.0,6031.0,7789.0,3599.0,5421.0,5031.0,2639.0,2209.0,115.0,46.0,10.0
61780,County,2020/01/20,40.0,OK,40107.0,Okfuskee County,2157.0,9941.0,38101.0,7787.0,10528.0,4222.0,5473.0,5273.0,3186.0,1361.0,207.0,56.0,8.0
64986,County,2020/01/21,40.0,OK,40107.0,Okfuskee County,2085.0,10013.0,37967.0,7705.0,9501.0,3740.0,6464.0,5441.0,2672.0,2098.0,300.0,28.0,18.0
69746,County,2020/01/22,40.0,OK,40107.0,Okfuskee County,2138.0,9960.0,41675.0,9374.0,12031.0,4242.0,4911.0,6131.0,3020.0,1720.0,160.0,71.0,15.0
71372,County,2020/01/23,40.0,OK,40107.0,Okfuskee County,2107.0,9991.0,39887.0,8292.0,12519.0,2923.0,4984.0,5442.0,3696.0,1792.0,158.0,47.0,34.0
74520,County,2020/01/24,40.0,OK,40107.0,Okfuskee County,2058.0,10040.0,42271.0,7084.0,13294.0,3751.0,6348.0,5936.0,3735.0,1632.0,418.0,58.0,15.0
79321,County,2020/01/25,40.0,OK,40107.0,Okfuskee County,2361.0,9737.0,39705.0,7689.0,9870.0,3454.0,6752.0,6406.0,3144.0,2110.0,183.0,42.0,55.0
82033,County,2020/01/26,40.0,OK,40107.0,Okfuskee County,2622.0,9476.0,38081.0,5966.0,10501.0,4637.0,6201.0,6309.0,2245.0,1880.0,273.0,52.0,17.0
83052,County,2020/01/27,40.0,OK,40107.0,Okfuskee County,2285.0,9813.0,39053.0,7769.0,10958.0,3850.0,5823.0,5053.0,3018.0,2254.0,280.0,27.0,21.0
87938,County,2020/01/28,40.0,OK,40107.0,Okfuskee County,2337.0,9761.0,39699.0,7995.0,10882.0,3859.0,5336.0,6360.0,2757.0,2211.0,258.0,34.0,7.0
92091,County,2020/01/29,40.0,OK,40107.0,Okfuskee County,2204.0,9894.0,41669.0,7606.0,11604.0,3906.0,6421.0,6805.0,2929.0,2103.0,222.0,62.0,11.0
95297,County,2020/01/30,40.0,OK,40107.0,Okfuskee County,2075.0,10023.0,43220.0,8491.0,11338.0,4029.0,5847.0,7194.0,3748.0,2087.0,440.0,28.0,18.0
98491,County,2020/01/31,40.0,OK,40107.0,Okfuskee County,2059.0,10039.0,49525.0,9829.0,14868.0,3880.0,7222.0,7253.0,3829.0,2227.0,349.0,39.0,29.0
101679,County,2020/02/01,40.0,OK,40107.0,Okfuskee County,2154.0,9944.0,39892.0,7051.0,10765.0,2972.0,5971.0,6672.0,3274.0,2781.0,322.0,53.0,31.0
104881,County,2020/02/02,40.0,OK,40107.0,Okfuskee County,2437.0,9661.0,37415.0,5688.0,8770.0,5017.0,6953.0,6182.0,2350.0,2014.0,386.0,38.0,17.0
108084,County,2020/02/03,40.0,OK,40107.0,Okfuskee County,1964.0,10134.0,44038.0,8938.0,11378.0,4812.0,5605.0,7588.0,2772.0,2373.0,497.0,62.0,13.0
109701,County,2020/02/04,40.0,OK,40107.0,Okfuskee County,1986.0,10112.0,43993.0,7851.0,11520.0,4740.0,7607.0,6452.0,3236.0,2061.0,483.0,30.0,13.0
112847,County,2020/02/05,40.0,OK,40107.0,Okfuskee County,2883.0,9215.0,34359.0,6580.0,10608.0,3914.0,5515.0,4875.0,1370.0,1168.0,265.0,44.0,20.0
115991,County,2020/02/06,40.0,OK,40107.0,Okfuskee County,2151.0,9947.0,39116.0,7154.0,11208.0,5168.0,4653.0,5407.0,3142.0,2056.0,272.0,53.0,3.0
120884,County,2020/02/07,40.0,OK,40107.0,Okfuskee County,2136.0,9962.0,41405.0,7284.0,11291.0,3617.0,6074.0,7029.0,3399.0,2281.0,365.0,45.0,20.0
124044,County,2020/02/08,40.0,OK,40107.0,Okfuskee County,2303.0,9795.0,44561.0,8149.0,12082.0,3162.0,8706.0,5775.0,3885.0,2458.0,295.0,38.0,11.0
126197,County,2020/02/09,40.0,OK,40107.0,Okfuskee County,2871.0,9227.0,36710.0,6885.0,8013.0,4111.0,8087.0,4883.0,2532.0,1777.0,364.0,37.0,21.0
130492,County,2020/02/10,40.0,OK,40107.0,Okfuskee County,2019.0,10079.0,45835.0,9056.0,12548.0,3590.0,7755.0,7703.0,2943.0,1745.0,386.0,83.0,26.0
132550,County,2020/02/11,40.0,OK,40107.0,Okfuskee County,1869.0,10229.0,43331.0,7814.0,10380.0,4554.0,6830.0,6209.0,3639.0,3598.0,238.0,50.0,19.0
134153,County,2020/02/12,40.0,OK,40107.0,Okfuskee County,2257.0,9841.0,46184.0,9183.0,12480.0,4980.0,6544.0,6720.0,3707.0,2239.0,258.0,30.0,43.0
140013,County,2020/02/13,40.0,OK,40107.0,Okfuskee County,1935.0,10163.0,44957.0,9329.0,12165.0,4332.0,6138.0,6858.0,3394.0,2373.0,301.0,47.0,20.0
143216,County,2020/02/14,40.0,OK,40107.0,Okfuskee County,1789.0,10309.0,51260.0,9859.0,15561.0,4909.0,7237.0,6832.0,4394.0,2198.0,193.0,64.0,13.0
144840,County,2020/02/15,40.0,OK,40107.0,Okfuskee County,2389.0,9709.0,51599.0,10555.0,14659.0,4105.0,8079.0,7762.0,3912.0,2294.0,195.0,26.0,12.0
148029,County,2020/02/16,40.0,OK,40107.0,Okfuskee County,2537.0,9561.0,44298.0,7855.0,12247.0,5299.0,7938.0,6255.0,2754.0,1528.0,354.0,46.0,22.0
151205,County,2020/02/17,40.0,OK,40107.0,Okfuskee County,2876.0,9222.0,39864.0,5982.0,12408.0,4710.0,5722.0,5361.0,2438.0,2892.0,258.0,76.0,17.0
155984,County,2020/02/18,40.0,OK,40107.0,Okfuskee County,2250.0,9848.0,50830.0,9637.0,15791.0,5386.0,7128.0,7098.0,3219.0,2160.0,356.0,31.0,24.0
157612,County,2020/02/19,40.0,OK,40107.0,Okfuskee County,2139.0,9959.0,49368.0,8991.0,15207.0,4947.0,6339.0,7413.0,3604.0,2342.0,456.0,57.0,12.0
160673,County,2020/02/20,40.0,OK,40107.0,Okfuskee County,2134.0,9964.0,45655.0,8370.0,12703.0,4789.0,7495.0,7018.0,2701.0,2120.0,423.0,24.0,12.0
163951,County,2020/02/21,40.0,OK,40107.0,Okfuskee County,2005.0,10093.0,47473.0,9627.0,13039.0,3730.0,6790.0,7816.0,3433.0,2557.0,406.0,64.0,11.0
168711,County,2020/02/22,40.0,OK,40107.0,Okfuskee County,1770.0,10328.0,44072.0,8887.0,10252.0,5295.0,6274.0,6269.0,3610.0,3110.0,248.0,82.0,45.0
170373,County,2020/02/23,40.0,OK,40107.0,Okfuskee County,2506.0,9592.0,38000.0,6188.0,9415.0,4444.0,6284.0,6892.0,2185.0,2049.0,406.0,59.0,78.0
175154,County,2020/02/24,40.0,OK,40107.0,Okfuskee County,2213.0,9885.0,44148.0,8855.0,11443.0,4196.0,6020.0,6646.0,3463.0,3056.0,411.0,30.0,28.0
177854,County,2020/02/25,40.0,OK,40107.0,Okfuskee County,2007.0,10091.0,51760.0,10418.0,14176.0,6231.0,7693.0,6686.0,4180.0,1948.0,375.0,43.0,10.0
181047,County,2020/02/26,40.0,OK,40107.0,Okfuskee County,1866.0,10232.0,46060.0,5379.0,13014.0,6057.0,7853.0,6825.0,4286.0,2372.0,252.0,14.0,8.0
184725,County,2020/02/27,40.0,OK,40107.0,Okfuskee County,1997.0,10101.0,46014.0,8831.0,12519.0,4332.0,6440.0,7865.0,3705.0,1965.0,271.0,77.0,9.0
186451,County,2020/02/28,40.0,OK,40107.0,Okfuskee County,1608.0,10490.0,54256.0,10871.0,16418.0,4553.0,7573.0,7633.0,3890.0,2666.0,593.0,38.0,21.0
189504,County,2020/02/29,40.0,OK,40107.0,Okfuskee County,2121.0,9977.0,49933.0,10891.0,13007.0,4506.0,7611.0,7450.0,3709.0,2200.0,479.0,60.0,20.0
194337,County,2020/03/01,40.0,OK,40107.0,Okfuskee County,2569.0,9529.0,41621.0,6616.0,13061.0,5332.0,6113.0,5955.0,2409.0,1883.0,194.0,32.0,26.0
197493,County,2020/03/02,40.0,OK,40107.0,Okfuskee County,1974.0,10124.0,49592.0,9624.0,13318.0,5266.0,8232.0,6421.0,3777.0,2475.0,399.0,74.0,6.0
200768,County,2020/03/03,40.0,OK,40107.0,Okfuskee County,1791.0,10307.0,45373.0,7168.0,12601.0,4723.0,7304.0,7522.0,3502.0,2077.0,387.0,83.0,6.0
201451,County,2020/03/04,40.0,OK,40107.0,Okfuskee County,1666.0,10432.0,51216.0,10475.0,14839.0,5145.0,7670.0,6459.0,3819.0,2533.0,229.0,47.0,0.0
205471,County,2020/03/05,40.0,OK,40107.0,Okfuskee County,1557.0,10541.0,53557.0,9924.0,13952.0,6542.0,8427.0,7708.0,3912.0,2725.0,358.0,9.0,0.0
210322,County,2020/03/06,40.0,OK,40107.0,Okfuskee County,1684.0,10414.0,51502.0,9962.0,11832.0,5538.0,8205.0,7471.0,5175.0,2755.0,499.0,58.0,7.0
213505,County,2020/03/07,40.0,OK,40107.0,Okfuskee County,1909.0,10189.0,62691.0,13586.0,17697.0,9050.0,8750.0,7209.0,3781.0,2380.0,171.0,67.0,0.0
215106,County,2020/03/08,40.0,OK,40107.0,Okfuskee County,2291.0,9807.0,49699.0,7268.0,14843.0,6672.0,9173.0,7809.0,1755.0,1991.0,169.0,11.0,8.0
219864,County,2020/03/09,40.0,OK,40107.0,Okfuskee County,1979.0,10119.0,50977.0,9492.0,13477.0,6411.0,8256.0,7445.0,3479.0,2176.0,225.0,10.0,6.0
223057,County,2020/03/10,40.0,OK,40107.0,Okfuskee County,1984.0,10114.0,56355.0,9230.0,18533.0,5258.0,8978.0,8504.0,3226.0,2220.0,343.0,57.0,6.0
224682,County,2020/03/11,40.0,OK,40107.0,Okfuskee County,1759.0,10339.0,56818.0,7454.0,18547.0,4057.0,11328.0,8438.0,4083.0,2795.0,70.0,46.0,0.0
227867,County,2020/03/12,40.0,OK,40107.0,Okfuskee County,1801.0,10297.0,68230.0,10869.0,20583.0,7254.0,13085.0,8935.0,4760.0,2447.0,211.0,70.0,16.0
231075,County,2020/03/13,40.0,OK,40107.0,Okfuskee County,1828.0,10270.0,52463.0,8445.0,13343.0,8046.0,7489.0,9364.0,2802.0,2216.0,690.0,68.0,0.0
234225,County,2020/03/14,40.0,OK,40107.0,Okfuskee County,2374.0,9724.0,60911.0,10588.0,14900.0,10462.0,9376.0,9479.0,2729.0,2774.0,346.0,257.0,0.0
239028,County,2020/03/15,40.0,OK,40107.0,Okfuskee County,2706.0,9392.0,37907.0,5878.0,8792.0,4402.0,6793.0,6476.0,2847.0,2252.0,386.0,81.0,0.0
240655,County,2020/03/16,40.0,OK,40107.0,Okfuskee County,2178.0,9920.0,46315.0,9310.0,11848.0,4321.0,9006.0,6464.0,2366.0,2427.0,482.0,66.0,25.0
245414,County,2020/03/17,40.0,OK,40107.0,Okfuskee County,2794.0,9304.0,41829.0,7451.0,10317.0,4493.0,6053.0,7742.0,2526.0,2524.0,648.0,68.0,7.0
248569,County,2020/03/18,40.0,OK,40107.0,Okfuskee County,2616.0,9482.0,43924.0,8091.0,11739.0,4602.0,6449.0,7126.0,3191.0,2227.0,444.0,55.0,0.0
251775,County,2020/03/19,40.0,OK,40107.0,Okfuskee County,2888.0,9210.0,45444.0,7741.0,10066.0,7261.0,9305.0,5964.0,2141.0,2466.0,447.0,47.0,6.0
253433,County,2020/03/20,40.0,OK,40107.0,Okfuskee County,2523.0,9575.0,49867.0,10216.0,12960.0,8650.0,7048.0,5489.0,2549.0,2729.0,166.0,54.0,6.0
256576,County,2020/03/21,40.0,OK,40107.0,Okfuskee County,2816.0,9282.0,42436.0,9681.0,10409.0,6631.0,6433.0,5141.0,2316.0,1615.0,151.0,39.0,20.0
259812,County,2020/03/22,40.0,OK,40107.0,Okfuskee County,3223.0,8875.0,34535.0,8933.0,9341.0,5344.0,3753.0,4516.0,1596.0,598.0,372.0,74.0,8.0
263016,County,2020/03/23,40.0,OK,40107.0,Okfuskee County,2283.0,9815.0,38916.0,8030.0,12916.0,4298.0,5083.0,5243.0,1821.0,1080.0,353.0,92.0,0.0
267771,County,2020/03/24,40.0,OK,40107.0,Okfuskee County,2602.0,9496.0,45930.0,10573.0,13071.0,4411.0,6427.0,7303.0,2853.0,1128.0,112.0,46.0,6.0
269401,County,2020/03/25,40.0,OK,40107.0,Okfuskee County,2760.0,9338.0,48435.0,11110.0,11691.0,9070.0,6651.0,5486.0,2213.0,1969.0,184.0,61.0,0.0
274142,County,2020/03/26,40.0,OK,40107.0,Okfuskee County,2534.0,9564.0,46086.0,9134.0,11092.0,4819.0,10309.0,5973.0,2607.0,1798.0,295.0,53.0,6.0
275782,County,2020/03/27,40.0,OK,40107.0,Okfuskee County,2833.0,9265.0,40560.0,7209.0,9717.0,5180.0,8845.0,5531.0,1971.0,1885.0,169.0,47.0,6.0
280543,County,2020/03/28,40.0,OK,40107.0,Okfuskee County,2715.0,9383.0,32664.0,6208.0,7614.0,4146.0,5321.0,6229.0,1770.0,1050.0,252.0,56.0,18.0
282178,County,2020/03/29,40.0,OK,40107.0,Okfuskee County,3092.0,9006.0,28524.0,5155.0,8069.0,4308.0,3325.0,4953.0,1471.0,1102.0,103.0,23.0,15.0
285323,County,2020/03/30,40.0,OK,40107.0,Okfuskee County,2558.0,9540.0,34305.0,6961.0,8676.0,2836.0,5311.0,5174.0,3032.0,1975.0,290.0,44.0,6.0
290126,County,2020/03/31,40.0,OK,40107.0,Okfuskee County,2922.0,9176.0,36432.0,8305.0,8498.0,3511.0,6186.0,5912.0,2310.0,1209.0,421.0,80.0,0.0
293325,County,2020/04/01,40.0,OK,40107.0,Okfuskee County,2465.0,9633.0,38079.0,7254.0,9653.0,5917.0,7057.0,4800.0,1488.0,1413.0,369.0,105.0,23.0
294954,County,2020/04/02,40.0,OK,40107.0,Okfuskee County,2614.0,9484.0,36751.0,6879.0,8432.0,3868.0,6578.0,7631.0,1569.0,1489.0,250.0,37.0,18.0
299714,County,2020/04/03,40.0,OK,40107.0,Okfuskee County,2860.0,9238.0,34091.0,5508.0,8873.0,3807.0,6463.0,5952.0,1779.0,1298.0,364.0,40.0,7.0
302894,County,2020/04/04,40.0,OK,40107.0,Okfuskee County,2922.0,9176.0,32514.0,5766.0,5899.0,4781.0,7534.0,5341.0,1698.0,1175.0,282.0,31.0,7.0
304522,County,2020/04/05,40.0,OK,40107.0,Okfuskee County,2919.0,9179.0,29886.0,6461.0,7859.0,2980.0,5286.0,4039.0,1499.0,1591.0,140.0,23.0,8.0
307730,County,2020/04/06,40.0,OK,40107.0,Okfuskee County,2717.0,9381.0,31047.0,5215.0,10051.0,3019.0,5094.0,3980.0,2242.0,1201.0,192.0,53.0,0.0
310923,County,2020/04/07,40.0,OK,40107.0,Okfuskee County,2652.0,9446.0,34853.0,7361.0,9326.0,2808.0,5946.0,5966.0,1342.0,1760.0,313.0,31.0,0.0
314118,County,2020/04/08,40.0,OK,40107.0,Okfuskee County,2444.0,9654.0,38900.0,7225.0,9845.0,5901.0,6143.0,5526.0,2294.0,1601.0,329.0,30.0,6.0
317287,County,2020/04/09,40.0,OK,40107.0,Okfuskee County,2614.0,9484.0,35200.0,8601.0,8382.0,3165.0,6341.0,5001.0,1809.0,1460.0,385.0,42.0,14.0
320514,County,2020/04/10,40.0,OK,40107.0,Okfuskee County,2511.0,9587.0,37805.0,6022.0,11280.0,3764.0,6158.0,6059.0,3044.0,963.0,479.0,30.0,6.0
325266,County,2020/04/11,40.0,OK,40107.0,Okfuskee County,2997.0,9101.0,35871.0,6583.0,11018.0,4655.0,5909.0,3746.0,2196.0,1563.0,162.0,32.0,7.0
328433,County,2020/04/12,40.0,OK,40107.0,Okfuskee County,3362.0,8736.0,22588.0,3997.0,6315.0,2852.0,3328.0,3581.0,1722.0,596.0,159.0,31.0,7.0
331655,County,2020/04/13,40.0,OK,40107.0,Okfuskee County,2492.0,9606.0,36707.0,6557.0,9468.0,5699.0,6289.0,3904.0,3173.0,1302.0,270.0,27.0,18.0
333233,County,2020/04/14,40.0,OK,40107.0,Okfuskee County,2528.0,9570.0,33914.0,3744.0,10169.0,5726.0,7070.0,3687.0,2195.0,813.0,425.0,20.0,65.0
338033,County,2020/04/15,40.0,OK,40107.0,Okfuskee County,2582.0,9516.0,39557.0,9372.0,10696.0,4145.0,8956.0,3050.0,1787.0,1061.0,330.0,88.0,72.0
341177,County,2020/04/16,40.0,OK,40107.0,Okfuskee County,2607.0,9491.0,35614.0,5964.0,7589.0,7929.0,5139.0,4923.0,2137.0,1521.0,315.0,42.0,55.0
342961,County,2020/04/17,40.0,OK,40107.0,Okfuskee County,2532.0,9566.0,37471.0,7101.0,9872.0,8169.0,4968.0,3506.0,1826.0,1625.0,337.0,67.0,0.0
347587,County,2020/04/18,40.0,OK,40107.0,Okfuskee County,2676.0,9422.0,38933.0,7193.0,9786.0,6843.0,6183.0,5406.0,2504.0,742.0,208.0,68.0,0.0
350819,County,2020/04/19,40.0,OK,40107.0,Okfuskee County,3032.0,9066.0,33808.0,3927.0,8633.0,7761.0,6403.0,4543.0,1597.0,631.0,236.0,26.0,51.0
354019,County,2020/04/20,40.0,OK,40107.0,Okfuskee County,2425.0,9673.0,46424.0,7294.0,12498.0,10400.0,5617.0,6486.0,2126.0,1939.0,0.0,48.0,16.0
357205,County,2020/04/21,40.0,OK,40107.0,Okfuskee County,2493.0,9605.0,34649.0,7367.0,8982.0,4296.0,5351.0,4881.0,1653.0,1885.0,197.0,37.0,0.0
358833,County,2020/04/22,40.0,OK,40107.0,Okfuskee County,2544.0,9554.0,35556.0,7037.0,9210.0,5928.0,5977.0,4452.0,1305.0,1400.0,220.0,27.0,0.0
361939,County,2020/04/23,40.0,OK,40107.0,Okfuskee County,2667.0,9431.0,45680.0,9209.0,13412.0,6345.0,7652.0,4845.0,2524.0,1497.0,164.0,11.0,21.0
366827,County,2020/04/24,40.0,OK,40107.0,Okfuskee County,2403.0,9695.0,41379.0,7611.0,13111.0,5562.0,7102.0,4151.0,2353.0,1132.0,310.0,47.0,0.0
368360,County,2020/04/25,40.0,OK,40107.0,Okfuskee County,2555.0,9543.0,39633.0,6825.0,10899.0,5924.0,4581.0,7427.0,2588.0,1116.0,208.0,57.0,8.0
371526,County,2020/04/26,40.0,OK,40107.0,Okfuskee County,2751.0,9347.0,38565.0,9042.0,9395.0,6175.0,6226.0,4417.0,1985.0,1126.0,153.0,38.0,8.0
374803,County,2020/04/27,40.0,OK,40107.0,Okfuskee County,2454.0,9644.0,38714.0,8392.0,10200.0,5074.0,6578.0,4410.0,2617.0,1211.0,198.0,28.0,6.0
377954,County,2020/04/28,40.0,OK,40107.0,Okfuskee County,2548.0,9550.0,39618.0,7972.0,9952.0,4155.0,6882.0,5944.0,3019.0,1378.0,231.0,68.0,17.0
381206,County,2020/04/29,40.0,OK,40107.0,Okfuskee County,2329.0,9769.0,49613.0,12359.0,12019.0,5428.0,7858.0,6990.0,2458.0,1944.0,454.0,90.0,13.0
385952,County,2020/04/30,40.0,OK,40107.0,Okfuskee County,2404.0,9694.0,47865.0,11194.0,14631.0,4993.0,7398.0,5236.0,2297.0,1618.0,382.0,95.0,21.0
389140,County,2020/05/01,40.0,OK,40107.0,Okfuskee County,2000.0,10098.0,53414.0,13723.0,13588.0,6326.0,7934.0,6389.0,3121.0,1925.0,332.0,46.0,30.0
392339,County,2020/05/02,40.0,OK,40107.0,Okfuskee County,2434.0,9664.0,38791.0,9021.0,9282.0,4125.0,6638.0,5586.0,2719.0,1188.0,190.0,21.0,21.0
393974,County,2020/05/03,40.0,OK,40107.0,Okfuskee County,2719.0,9379.0,41267.0,8751.0,12722.0,5375.0,6242.0,5407.0,1690.0,902.0,150.0,12.0,16.0
398728,County,2020/05/04,40.0,OK,40107.0,Okfuskee County,2323.0,9775.0,39142.0,8261.0,9877.0,4359.0,6383.0,6236.0,2254.0,1445.0,270.0,45.0,12.0
400355,County,2020/05/05,40.0,OK,40107.0,Okfuskee County,2411.0,9687.0,46921.0,11222.0,13606.0,4151.0,7288.0,5846.0,2807.0,1703.0,260.0,19.0,19.0
405110,County,2020/05/06,40.0,OK,40107.0,Okfuskee County,2184.0,9914.0,39473.0,6989.0,11008.0,3527.0,8055.0,5676.0,2281.0,1654.0,225.0,46.0,12.0
406736,County,2020/05/07,40.0,OK,40107.0,Okfuskee County,2312.0,9786.0,44166.0,8281.0,13868.0,5049.0,7481.0,5340.0,2238.0,1650.0,188.0,71.0,0.0
410041,County,2020/05/08,40.0,OK,40107.0,Okfuskee County,2463.0,9635.0,39984.0,8679.0,10469.0,4948.0,5289.0,6203.0,2489.0,1399.0,464.0,38.0,6.0
414663,County,2020/05/09,40.0,OK,40107.0,Okfuskee County,2541.0,9557.0,37956.0,7118.0,10257.0,3397.0,4004.0,7556.0,3807.0,1106.0,654.0,57.0,0.0
416325,County,2020/05/10,40.0,OK,40107.0,Okfuskee County,2696.0,9402.0,32129.0,5795.0,7081.0,4253.0,6564.0,5477.0,1376.0,997.0,508.0,78.0,0.0
421074,County,2020/05/11,40.0,OK,40107.0,Okfuskee County,2227.0,9871.0,39462.0,6336.0,11429.0,4247.0,7142.0,5569.0,2526.0,1890.0,293.0,23.0,7.0
422752,County,2020/05/12,40.0,OK,40107.0,Okfuskee County,2398.0,9700.0,38283.0,6419.0,10866.0,3840.0,6569.0,5802.0,2326.0,2011.0,384.0,58.0,8.0
427474,County,2020/05/13,40.0,OK,40107.0,Okfuskee County,2417.0,9681.0,37784.0,8030.0,10024.0,4421.0,6253.0,5227.0,1861.0,1583.0,287.0,83.0,15.0
430668,County,2020/05/14,40.0,OK,40107.0,Okfuskee County,2291.0,9807.0,41571.0,8721.0,11387.0,4646.0,5607.0,6858.0,2499.0,1482.0,303.0,53.0,15.0
433842,County,2020/05/15,40.0,OK,40107.0,Okfuskee County,2144.0,9954.0,37784.0,6967.0,10153.0,3305.0,7400.0,5512.0,2570.0,1479.0,301.0,61.0,36.0
435520,County,2020/05/16,40.0,OK,40107.0,Okfuskee County,2235.0,9863.0,41980.0,6798.0,10997.0,4803.0,8738.0,4828.0,3434.0,1810.0,488.0,68.0,16.0
440205,County,2020/05/17,40.0,OK,40107.0,Okfuskee County,2234.0,9864.0,43778.0,11820.0,10251.0,3910.0,9292.0,5286.0,1574.0,1167.0,392.0,58.0,28.0
441918,County,2020/05/18,40.0,OK,40107.0,Okfuskee County,2037.0,10061.0,48410.0,12575.0,11548.0,2883.0,9499.0,7076.0,2538.0,1828.0,361.0,93.0,9.0
445072,County,2020/05/19,40.0,OK,40107.0,Okfuskee County,1754.0,10344.0,47295.0,8594.0,15789.0,3197.0,7500.0,7351.0,2757.0,1817.0,204.0,79.0,7.0
448239,County,2020/05/20,40.0,OK,40107.0,Okfuskee County,2056.0,10042.0,44279.0,9429.0,11278.0,2789.0,10774.0,6125.0,2311.0,1371.0,146.0,48.0,8.0
451410,County,2020/05/21,40.0,OK,40107.0,Okfuskee County,1960.0,10138.0,46635.0,9397.0,13522.0,4521.0,8205.0,6985.0,2654.0,1079.0,235.0,22.0,15.0
456219,County,2020/05/22,40.0,OK,40107.0,Okfuskee County,1642.0,10456.0,45829.0,8691.0,14388.0,5084.0,6528.0,5892.0,2631.0,2167.0,356.0,64.0,28.0
457842,County,2020/05/23,40.0,OK,40107.0,Okfuskee County,2171.0,9927.0,44414.0,10113.0,11312.0,5048.0,6041.0,6500.0,2247.0,2549.0,519.0,57.0,28.0
461010,County,2020/05/24,40.0,OK,40107.0,Okfuskee County,2406.0,9692.0,38336.0,6887.0,8915.0,4151.0,7808.0,6288.0,2252.0,1700.0,254.0,54.0,27.0
464213,County,2020/05/25,40.0,OK,40107.0,Okfuskee County,2582.0,9516.0,37808.0,7004.0,9772.0,3473.0,6735.0,6326.0,2472.0,1415.0,566.0,37.0,8.0
467416,County,2020/05/26,40.0,OK,40107.0,Okfuskee County,2200.0,9898.0,44385.0,7802.0,10163.0,4323.0,7538.0,8789.0,3091.0,2173.0,422.0,73.0,11.0
470623,County,2020/05/27,40.0,OK,40107.0,Okfuskee County,2193.0,9905.0,45842.0,8457.0,12845.0,4303.0,7112.0,6708.0,3913.0,2073.0,336.0,84.0,11.0
475384,County,2020/05/28,40.0,OK,40107.0,Okfuskee County,2137.0,9961.0,40519.0,8342.0,8756.0,3831.0,6812.0,6165.0,3632.0,2374.0,509.0,87.0,11.0
476964,County,2020/05/29,40.0,OK,40107.0,Okfuskee County,2350.0,9748.0,44907.0,9089.0,10791.0,6259.0,7114.0,6127.0,3106.0,2098.0,267.0,44.0,12.0
480151,County,2020/05/30,40.0,OK,40107.0,Okfuskee County,2307.0,9791.0,46171.0,9658.0,11741.0,4783.0,8092.0,6618.0,3175.0,1822.0,204.0,68.0,10.0
484918,County,2020/05/31,40.0,OK,40107.0,Okfuskee County,2767.0,9331.0,38574.0,6363.0,8485.0,5085.0,7092.0,7441.0,1745.0,1725.0,567.0,60.0,11.0
488219,County,2020/06/01,40.0,OK,40107.0,Okfuskee County,2179.0,9919.0,44630.0,10128.0,10204.0,5093.0,6950.0,6270.0,3507.0,2027.0,418.0,20.0,13.0
491326,County,2020/06/02,40.0,OK,40107.0,Okfuskee County,2189.0,9909.0,41562.0,9139.0,10554.0,3568.0,6721.0,6302.0,3084.0,1693.0,408.0,67.0,26.0
492955,County,2020/06/03,40.0,OK,40107.0,Okfuskee County,2006.0,10092.0,46211.0,11657.0,9989.0,5057.0,6890.0,6567.0,3019.0,2507.0,458.0,63.0,4.0
497730,County,2020/06/04,40.0,OK,40107.0,Okfuskee County,2133.0,9965.0,44625.0,10232.0,9126.0,4852.0,7210.0,6576.0,3341.0,2591.0,607.0,82.0,8.0
499370,County,2020/06/05,40.0,OK,40107.0,Okfuskee County,2044.0,10054.0,45501.0,9016.0,10984.0,5604.0,6385.0,6943.0,3418.0,2382.0,643.0,106.0,20.0
502517,County,2020/06/06,40.0,OK,40107.0,Okfuskee County,2143.0,9955.0,47568.0,10054.0,12718.0,5982.0,6802.0,7027.0,2957.0,1566.0,421.0,31.0,10.0
507294,County,2020/06/07,40.0,OK,40107.0,Okfuskee County,2433.0,9665.0,39912.0,9361.0,9569.0,3018.0,7201.0,5676.0,2734.0,1658.0,619.0,53.0,23.0
510505,County,2020/06/08,40.0,OK,40107.0,Okfuskee County,1935.0,10163.0,47737.0,9071.0,12614.0,4127.0,8682.0,7520.0,2821.0,2463.0,399.0,29.0,11.0
512134,County,2020/06/09,40.0,OK,40107.0,Okfuskee County,2080.0,10018.0,42742.0,10580.0,9133.0,4354.0,7225.0,7064.0,2454.0,1611.0,272.0,32.0,17.0
516915,County,2020/06/10,40.0,OK,40107.0,Okfuskee County,1804.0,10294.0,43776.0,8560.0,13347.0,3207.0,7444.0,6430.0,3043.0,1258.0,408.0,61.0,18.0
520072,County,2020/06/11,40.0,OK,40107.0,Okfuskee County,1926.0,10172.0,49521.0,11666.0,12271.0,5670.0,7312.0,7359.0,2853.0,1988.0,281.0,86.0,35.0
521746,County,2020/06/12,40.0,OK,40107.0,Okfuskee County,1927.0,10171.0,45875.0,10746.0,11271.0,4507.0,8035.0,6288.0,2929.0,1457.0,523.0,83.0,36.0
524922,County,2020/06/13,40.0,OK,40107.0,Okfuskee County,1806.0,10292.0,44106.0,9533.0,8748.0,4086.0,7309.0,7953.0,3251.0,2665.0,445.0,84.0,32.0
529686,County,2020/06/14,40.0,OK,40107.0,Okfuskee County,2547.0,9551.0,39310.0,11032.0,8272.0,3448.0,6048.0,5550.0,2551.0,1937.0,407.0,60.0,5.0
532876,County,2020/06/15,40.0,OK,40107.0,Okfuskee County,2120.0,9978.0,43074.0,10342.0,10268.0,3752.0,6183.0,6516.0,2985.0,2447.0,505.0,51.0,25.0
536096,County,2020/06/16,40.0,OK,40107.0,Okfuskee County,2024.0,10074.0,41924.0,8166.0,11889.0,4443.0,5689.0,6198.0,3063.0,1915.0,513.0,24.0,24.0
539215,County,2020/06/17,40.0,OK,40107.0,Okfuskee County,2045.0,10053.0,49341.0,10269.0,14204.0,5093.0,6205.0,7686.0,3318.0,1893.0,614.0,43.0,16.0
540845,County,2020/06/18,40.0,OK,40107.0,Okfuskee County,1919.0,10179.0,40235.0,7640.0,9683.0,4312.0,6165.0,6157.0,3155.0,2527.0,489.0,81.0,26.0
545611,County,2020/06/19,40.0,OK,40107.0,Okfuskee County,2000.0,10098.0,41547.0,9391.0,10742.0,4813.0,5852.0,5410.0,2340.0,2483.0,418.0,78.0,20.0
548846,County,2020/06/20,40.0,OK,40107.0,Okfuskee County,2091.0,10007.0,35934.0,6652.0,7945.0,5401.0,4438.0,6670.0,2361.0,1850.0,552.0,39.0,26.0
550446,County,2020/06/21,40.0,OK,40107.0,Okfuskee County,2566.0,9532.0,30322.0,5564.0,6771.0,4281.0,6167.0,3413.0,2103.0,1521.0,409.0,68.0,25.0
555226,County,2020/06/22,40.0,OK,40107.0,Okfuskee County,2123.0,9975.0,36337.0,7030.0,8821.0,4136.0,5395.0,5175.0,2670.0,2375.0,643.0,69.0,23.0
556854,County,2020/06/23,40.0,OK,40107.0,Okfuskee County,2006.0,10092.0,40536.0,6848.0,11226.0,2794.0,7563.0,5871.0,2960.0,2546.0,639.0,71.0,18.0
561622,County,2020/06/24,40.0,OK,40107.0,Okfuskee County,1951.0,10147.0,37695.0,7418.0,10284.0,3610.0,5616.0,5836.0,2543.0,1772.0,483.0,118.0,15.0
564798,County,2020/06/25,40.0,OK,40107.0,Okfuskee County,2116.0,9982.0,40113.0,9272.0,10053.0,3537.0,5815.0,6220.0,2648.0,2059.0,365.0,115.0,29.0
568046,County,2020/06/26,40.0,OK,40107.0,Okfuskee County,2164.0,9934.0,42918.0,8874.0,10304.0,4686.0,5579.0,6945.0,2803.0,3008.0,650.0,52.0,17.0
571196,County,2020/06/27,40.0,OK,40107.0,Okfuskee County,2115.0,9983.0,39971.0,7070.0,10531.0,3520.0,6659.0,6369.0,2632.0,2668.0,445.0,63.0,14.0
574379,County,2020/06/28,40.0,OK,40107.0,Okfuskee County,2099.0,9999.0,40996.0,9932.0,9609.0,2850.0,6423.0,6161.0,2868.0,2430.0,658.0,45.0,20.0
575982,County,2020/06/29,40.0,OK,40107.0,Okfuskee County,2216.0,9882.0,42731.0,8792.0,12719.0,3264.0,6083.0,6042.0,2823.0,2496.0,432.0,60.0,20.0
580793,County,2020/06/30,40.0,OK,40107.0,Okfuskee County,2151.0,9947.0,42956.0,9159.0,10362.0,4136.0,7328.0,5924.0,3173.0,2530.0,253.0,61.0,30.0
582397,County,2020/07/01,40.0,OK,40107.0,Okfuskee County,2021.0,10077.0,42932.0,8453.0,10673.0,4961.0,6019.0,6388.0,3792.0,2278.0,319.0,21.0,28.0
585586,County,2020/07/02,40.0,OK,40107.0,Okfuskee County,2496.0,9602.0,42575.0,9841.0,10670.0,3754.0,6172.0,6602.0,2811.0,2185.0,387.0,122.0,31.0
590378,County,2020/07/03,40.0,OK,40107.0,Okfuskee County,2212.0,9886.0,42677.0,8824.0,10246.0,4660.0,5548.0,6906.0,2787.0,2991.0,646.0,52.0,17.0
593563,County,2020/07/04,40.0,OK,40107.0,Okfuskee County,2739.0,9359.0,36510.0,7549.0,8766.0,3986.0,4746.0,5908.0,2385.0,2559.0,553.0,44.0,14.0
595214,County,2020/07/05,40.0,OK,40107.0,Okfuskee County,2367.0,9731.0,35087.0,6646.0,8719.0,3741.0,7113.0,4496.0,2070.0,1861.0,389.0,46.0,6.0
597865,County,2020/07/06,40.0,OK,40107.0,Okfuskee County,2269.0,9829.0,42595.0,8568.0,13706.0,5237.0,6432.0,4259.0,2219.0,1865.0,246.0,54.0,9.0
601479,County,2020/07/07,40.0,OK,40107.0,Okfuskee County,2080.0,10018.0,43788.0,8684.0,11668.0,4536.0,6731.0,6281.0,2928.0,2503.0,400.0,57.0,0.0
606239,County,2020/07/08,40.0,OK,40107.0,Okfuskee County,2132.0,9966.0,38187.0,6434.0,10234.0,3903.0,6977.0,5597.0,2589.0,1959.0,435.0,46.0,13.0
607965,County,2020/07/09,40.0,OK,40107.0,Okfuskee County,1962.0,10136.0,40735.0,7260.0,11540.0,4063.0,5121.0,7138.0,2981.0,2172.0,358.0,69.0,33.0
611165,County,2020/07/10,40.0,OK,40107.0,Okfuskee County,2053.0,10045.0,41769.0,7391.0,10213.0,5275.0,6873.0,6478.0,3021.0,2034.0,398.0,66.0,20.0
615913,County,2020/07/11,40.0,OK,40107.0,Okfuskee County,2315.0,9783.0,42267.0,8343.0,11297.0,4754.0,6929.0,5881.0,2533.0,2225.0,249.0,34.0,22.0
619100,County,2020/07/12,40.0,OK,40107.0,Okfuskee County,2560.0,9538.0,28713.0,5984.0,6320.0,4472.0,4030.0,4166.0,2298.0,1136.0,212.0,49.0,46.0
622307,County,2020/07/13,40.0,OK,40107.0,Okfuskee County,2364.0,9734.0,36723.0,8266.0,9662.0,3739.0,5620.0,4867.0,2004.0,2183.0,308.0,66.0,8.0
625501,County,2020/07/14,40.0,OK,40107.0,Okfuskee County,2173.0,9925.0,40104.0,8651.0,9202.0,5467.0,5850.0,4749.0,3144.0,2641.0,329.0,58.0,13.0
628674,County,2020/07/15,40.0,OK,40107.0,Okfuskee County,2294.0,9804.0,43194.0,11259.0,11787.0,4029.0,5186.0,5574.0,2976.0,1995.0,325.0,51.0,12.0
631940,County,2020/07/16,40.0,OK,40107.0,Okfuskee County,2126.0,9972.0,39825.0,6718.0,11160.0,4913.0,6622.0,5093.0,2640.0,2286.0,297.0,80.0,16.0
635035,County,2020/07/17,40.0,OK,40107.0,Okfuskee County,2264.0,9834.0,40538.0,7834.0,9005.0,4190.0,5874.0,6953.0,3373.0,2778.0,456.0,48.0,27.0
636712,County,2020/07/18,40.0,OK,40107.0,Okfuskee County,2549.0,9549.0,41582.0,7549.0,11472.0,5609.0,5145.0,6559.0,2707.0,1981.0,485.0,25.0,50.0
639867,County,2020/07/19,40.0,OK,40107.0,Okfuskee County,2810.0,9288.0,34396.0,5607.0,8697.0,5597.0,6773.0,4084.0,1940.0,1336.0,249.0,83.0,30.0
644649,County,2020/07/20,40.0,OK,40107.0,Okfuskee County,2181.0,9917.0,43549.0,11048.0,10604.0,5733.0,5820.0,5097.0,2564.0,2118.0,507.0,40.0,18.0
647146,County,2020/07/21,40.0,OK,40107.0,Okfuskee County,2192.0,9906.0,39061.0,7190.0,11439.0,3999.0,6442.0,4857.0,2241.0,2441.0,385.0,54.0,13.0
648959,County,2020/07/22,40.0,OK,40107.0,Okfuskee County,1901.0,10197.0,38542.0,6050.0,11064.0,3581.0,5902.0,6917.0,2305.0,2287.0,334.0,74.0,28.0
652596,County,2020/07/23,40.0,OK,40107.0,Okfuskee County,2113.0,9985.0,40441.0,7176.0,9060.0,4771.0,7406.0,5745.0,3023.0,2689.0,512.0,46.0,13.0
655719,County,2020/07/24,40.0,OK,40107.0,Okfuskee County,2083.0,10015.0,37198.0,6579.0,8360.0,4304.0,6743.0,5138.0,2662.0,2783.0,500.0,99.0,30.0
660691,County,2020/07/25,40.0,OK,40107.0,Okfuskee County,2186.0,9912.0,38212.0,6200.0,11109.0,4815.0,6908.0,4402.0,2180.0,2184.0,343.0,43.0,28.0
663771,County,2020/07/26,40.0,OK,40107.0,Okfuskee County,2426.0,9672.0,39813.0,7674.0,9137.0,5155.0,7797.0,5462.0,1999.0,1987.0,526.0,56.0,20.0
667044,County,2020/07/27,40.0,OK,40107.0,Okfuskee County,2318.0,9780.0,41608.0,7807.0,11285.0,4067.0,6278.0,6298.0,2972.0,2486.0,367.0,29.0,19.0
670198,County,2020/07/28,40.0,OK,40107.0,Okfuskee County,1980.0,10118.0,42616.0,8148.0,12403.0,3903.0,7206.0,5539.0,2945.0,1959.0,434.0,53.0,26.0
671829,County,2020/07/29,40.0,OK,40107.0,Okfuskee County,2302.0,9796.0,34216.0,6679.0,9439.0,2796.0,5001.0,4780.0,3153.0,1727.0,494.0,78.0,69.0
675041,County,2020/07/30,40.0,OK,40107.0,Okfuskee County,2002.0,10096.0,39817.0,7422.0,11664.0,3552.0,5232.0,5508.0,3330.0,2361.0,629.0,95.0,24.0
679818,County,2020/07/31,40.0,OK,40107.0,Okfuskee County,2135.0,9963.0,37533.0,7803.0,9227.0,3864.0,6273.0,4249.0,3272.0,2138.0,567.0,104.0,36.0
682939,County,2020/08/01,40.0,OK,40107.0,Okfuskee County,2203.0,9895.0,36975.0,7770.0,10895.0,3418.0,5213.0,4724.0,2731.0,1501.0,627.0,67.0,29.0
686179,County,2020/08/02,40.0,OK,40107.0,Okfuskee County,2694.0,9404.0,35178.0,5627.0,10913.0,3902.0,6552.0,3948.0,2019.0,1731.0,323.0,131.0,32.0
689382,County,2020/08/03,40.0,OK,40107.0,Okfuskee County,2472.0,9626.0,36321.0,6360.0,10312.0,3518.0,5069.0,5766.0,2843.0,2100.0,261.0,87.0,5.0
691010,County,2020/08/04,40.0,OK,40107.0,Okfuskee County,2073.0,10025.0,37500.0,6455.0,9973.0,3305.0,5858.0,5400.0,3496.0,2427.0,453.0,100.0,33.0
695770,County,2020/08/05,40.0,OK,40107.0,Okfuskee County,2338.0,9760.0,35987.0,6778.0,9114.0,3822.0,5991.0,5779.0,2370.0,1591.0,416.0,92.0,34.0
697379,County,2020/08/06,40.0,OK,40107.0,Okfuskee County,2182.0,9916.0,42967.0,7856.0,11955.0,3946.0,6291.0,6661.0,3397.0,2251.0,489.0,91.0,30.0
700591,County,2020/08/07,40.0,OK,40107.0,Okfuskee County,1821.0,10277.0,34050.0,4675.0,9797.0,3616.0,4723.0,5413.0,3088.0,2309.0,338.0,62.0,29.0
705352,County,2020/08/08,40.0,OK,40107.0,Okfuskee County,2555.0,9543.0,41772.0,9275.0,10384.0,4402.0,6031.0,5875.0,3511.0,1601.0,622.0,56.0,15.0
708571,County,2020/08/09,40.0,OK,40107.0,Okfuskee County,2502.0,9596.0,36350.0,7381.0,9244.0,4337.0,6582.0,3881.0,2075.0,2462.0,259.0,93.0,36.0
711740,County,2020/08/10,40.0,OK,40107.0,Okfuskee County,2136.0,9962.0,39558.0,7436.0,10417.0,5053.0,5291.0,6255.0,2982.0,1624.0,433.0,57.0,10.0
714933,County,2020/08/11,40.0,OK,40107.0,Okfuskee County,2251.0,9847.0,41207.0,5273.0,12386.0,3478.0,7015.0,6345.0,4035.0,2364.0,215.0,64.0,32.0
718030,County,2020/08/12,40.0,OK,40107.0,Okfuskee County,2161.0,9937.0,38432.0,7303.0,9424.0,3090.0,6282.0,6318.0,2834.0,2494.0,567.0,94.0,26.0
719757,County,2020/08/13,40.0,OK,40107.0,Okfuskee County,1881.0,10217.0,37785.0,6278.0,10771.0,3272.0,4596.0,6267.0,3087.0,2832.0,528.0,115.0,39.0
724500,County,2020/08/14,40.0,OK,40107.0,Okfuskee County,1947.0,10151.0,41405.0,6424.0,10587.0,3495.0,7550.0,7423.0,2769.0,2346.0,681.0,96.0,34.0
727711,County,2020/08/15,40.0,OK,40107.0,Okfuskee County,2342.0,9756.0,43299.0,7137.0,11523.0,2650.0,7049.0,8401.0,3282.0,2677.0,477.0,68.0,35.0
730903,County,2020/08/16,40.0,OK,40107.0,Okfuskee County,2336.0,9762.0,33452.0,5003.0,10086.0,2164.0,4363.0,6103.0,1711.0,3136.0,758.0,83.0,45.0
732533,County,2020/08/17,40.0,OK,40107.0,Okfuskee County,2096.0,10002.0,42585.0,6940.0,11807.0,2947.0,7562.0,6583.0,3059.0,2969.0,574.0,109.0,35.0
735699,County,2020/08/18,40.0,OK,40107.0,Okfuskee County,2131.0,9967.0,34520.0,4906.0,8697.0,2964.0,6167.0,5512.0,2817.0,2620.0,660.0,113.0,64.0
738904,County,2020/08/19,40.0,OK,40107.0,Okfuskee County,2109.0,9989.0,42476.0,7234.0,10162.0,4811.0,7104.0,6454.0,3732.0,2393.0,425.0,118.0,43.0
743685,County,2020/08/20,40.0,OK,40107.0,Okfuskee County,2037.0,10061.0,41506.0,6714.0,11163.0,4537.0,5925.0,6556.0,3399.0,2527.0,516.0,97.0,72.0
745315,County,2020/08/21,40.0,OK,40107.0,Okfuskee County,1973.0,10125.0,44424.0,7625.0,9228.0,4773.0,7220.0,8451.0,4148.0,2267.0,628.0,48.0,36.0
748520,County,2020/08/22,40.0,OK,40107.0,Okfuskee County,2094.0,10004.0,41625.0,7193.0,10863.0,3536.0,6852.0,7105.0,2965.0,2366.0,549.0,134.0,62.0
751713,County,2020/08/23,40.0,OK,40107.0,Okfuskee County,2462.0,9636.0,33974.0,3956.0,9734.0,4274.0,6296.0,4253.0,2835.0,1913.0,541.0,107.0,65.0
754886,County,2020/08/24,40.0,OK,40107.0,Okfuskee County,2351.0,9747.0,32037.0,4204.0,8147.0,2490.0,6208.0,4748.0,3470.0,2229.0,406.0,85.0,50.0
759647,County,2020/08/25,40.0,OK,40107.0,Okfuskee County,2243.0,9855.0,31766.0,4349.0,7220.0,2916.0,5119.0,6276.0,3438.0,1849.0,488.0,54.0,57.0
762807,County,2020/08/26,40.0,OK,40107.0,Okfuskee County,2290.0,9808.0,39649.0,6776.0,10290.0,5021.0,5537.0,5964.0,3571.0,1809.0,579.0,64.0,38.0
764436,County,2020/08/27,40.0,OK,40107.0,Okfuskee County,2250.0,9848.0,34681.0,5641.0,7869.0,4103.0,5763.0,5779.0,3140.0,1684.0,572.0,76.0,54.0
767643,County,2020/08/28,40.0,OK,40107.0,Okfuskee County,2142.0,9956.0,39484.0,5146.0,11278.0,3715.0,6050.0,6009.0,3826.0,2940.0,385.0,89.0,46.0
770846,County,2020/08/29,40.0,OK,40107.0,Okfuskee County,2349.0,9749.0,37040.0,5435.0,10559.0,4916.0,5082.0,3848.0,3929.0,2647.0,451.0,136.0,37.0
775622,County,2020/08/30,40.0,OK,40107.0,Okfuskee County,2808.0,9290.0,34329.0,6205.0,8623.0,4182.0,6024.0,5592.0,2104.0,1024.0,430.0,94.0,51.0
777232,County,2020/08/31,40.0,OK,40107.0,Okfuskee County,2198.0,9900.0,41889.0,8992.0,11208.0,3548.0,6940.0,5711.0,2490.0,2452.0,479.0,56.0,13.0
782010,County,2020/09/01,40.0,OK,40107.0,Okfuskee County,2520.0,9578.0,38104.0,5879.0,9618.0,3181.0,7562.0,5825.0,3552.0,2018.0,399.0,37.0,33.0
785154,County,2020/09/02,40.0,OK,40107.0,Okfuskee County,2273.0,9825.0,41167.0,7572.0,9953.0,4031.0,7381.0,6796.0,3428.0,1661.0,300.0,36.0,9.0
786766,County,2020/09/03,40.0,OK,40107.0,Okfuskee County,2218.0,9880.0,42590.0,7252.0,9882.0,4566.0,7812.0,6479.0,3563.0,2447.0,520.0,56.0,13.0
789980,County,2020/09/04,40.0,OK,40107.0,Okfuskee County,2151.0,9947.0,38354.0,6899.0,8568.0,3324.0,7138.0,6485.0,2585.0,2645.0,629.0,52.0,29.0
793103,County,2020/09/05,40.0,OK,40107.0,Okfuskee County,2234.0,9864.0,42717.0,6757.0,10118.0,3473.0,8162.0,6638.0,3822.0,2915.0,702.0,72.0,58.0
796391,County,2020/09/06,40.0,OK,40107.0,Okfuskee County,2672.0,9426.0,35350.0,5662.0,7152.0,4425.0,8513.0,5238.0,2370.0,1363.0,509.0,84.0,34.0
801158,County,2020/09/07,40.0,OK,40107.0,Okfuskee County,2950.0,9148.0,33363.0,5230.0,8212.0,3596.0,6836.0,5092.0,1447.0,2490.0,352.0,74.0,34.0
802779,County,2020/09/08,40.0,OK,40107.0,Okfuskee County,2255.0,9843.0,40520.0,9373.0,7989.0,2285.0,5754.0,7484.0,3849.0,3025.0,664.0,44.0,53.0
807559,County,2020/09/09,40.0,OK,40107.0,Okfuskee County,2297.0,9801.0,37906.0,5312.0,10690.0,3918.0,3964.0,6213.0,4711.0,2510.0,469.0,91.0,28.0
809187,County,2020/09/10,40.0,OK,40107.0,Okfuskee County,2162.0,9936.0,37142.0,6598.0,9382.0,3221.0,5649.0,5488.0,3288.0,2827.0,591.0,48.0,50.0
813948,County,2020/09/11,40.0,OK,40107.0,Okfuskee County,2302.0,9796.0,42717.0,7693.0,11128.0,3680.0,5674.0,7364.0,3453.0,3146.0,443.0,103.0,33.0
815529,County,2020/09/12,40.0,OK,40107.0,Okfuskee County,2445.0,9653.0,40896.0,6919.0,12272.0,3431.0,7056.0,6018.0,2857.0,1836.0,396.0,88.0,23.0
820326,County,2020/09/13,40.0,OK,40107.0,Okfuskee County,2747.0,9351.0,41967.0,7656.0,9959.0,3204.0,6308.0,10431.0,2508.0,1275.0,488.0,76.0,62.0
821955,County,2020/09/14,40.0,OK,40107.0,Okfuskee County,2343.0,9755.0,42212.0,8630.0,9388.0,3871.0,7053.0,7005.0,3264.0,2498.0,443.0,15.0,45.0
825111,County,2020/09/15,40.0,OK,40107.0,Okfuskee County,2614.0,9484.0,49436.0,9288.0,11273.0,4553.0,8558.0,8940.0,3952.0,2377.0,456.0,33.0,6.0
829918,County,2020/09/16,40.0,OK,40107.0,Okfuskee County,2384.0,9714.0,42677.0,7120.0,9531.0,3728.0,7428.0,7599.0,4220.0,2472.0,485.0,69.0,25.0
833095,County,2020/09/17,40.0,OK,40107.0,Okfuskee County,2415.0,9683.0,42943.0,7525.0,9746.0,4349.0,7325.0,7969.0,3086.0,2462.0,423.0,58.0,0.0
834724,County,2020/09/18,40.0,OK,40107.0,Okfuskee County,2520.0,9578.0,44353.0,7726.0,11839.0,3767.0,6314.0,7129.0,3676.0,3339.0,509.0,42.0,12.0
839499,County,2020/09/19,40.0,OK,40107.0,Okfuskee County,2515.0,9583.0,47086.0,8573.0,10819.0,3978.0,8368.0,7684.0,4337.0,2691.0,532.0,59.0,45.0
841128,County,2020/09/20,40.0,OK,40107.0,Okfuskee County,2801.0,9297.0,33607.0,8082.0,8584.0,3274.0,5154.0,4968.0,1882.0,1326.0,208.0,78.0,51.0
845915,County,2020/09/21,40.0,OK,40107.0,Okfuskee County,2976.0,9122.0,32493.0,6047.0,9586.0,2903.0,4287.0,4751.0,2130.0,2383.0,323.0,71.0,12.0
847494,County,2020/09/22,40.0,OK,40107.0,Okfuskee County,2754.0,9344.0,34364.0,6029.0,9151.0,4139.0,4219.0,4919.0,2830.0,2660.0,331.0,55.0,31.0
852272,County,2020/09/23,40.0,OK,40107.0,Okfuskee County,2589.0,9509.0,40213.0,7087.0,11745.0,4780.0,6466.0,4817.0,3189.0,1798.0,255.0,46.0,30.0
853900,County,2020/09/24,40.0,OK,40107.0,Okfuskee County,2389.0,9709.0,36427.0,6377.0,9116.0,2920.0,6310.0,5842.0,3463.0,1930.0,395.0,54.0,20.0
858664,County,2020/09/25,40.0,OK,40107.0,Okfuskee County,2351.0,9747.0,42062.0,8070.0,12019.0,3660.0,5943.0,6640.0,3460.0,1853.0,371.0,41.0,5.0
861859,County,2020/09/26,40.0,OK,40107.0,Okfuskee County,2730.0,9368.0,37466.0,6601.0,10703.0,3234.0,4808.0,5997.0,3124.0,2625.0,288.0,67.0,19.0
865039,County,2020/09/27,40.0,OK,40107.0,Okfuskee County,2762.0,9336.0,31851.0,6175.0,7312.0,4107.0,7000.0,3452.0,1607.0,1702.0,407.0,84.0,5.0
866668,County,2020/09/28,40.0,OK,40107.0,Okfuskee County,2439.0,9659.0,39190.0,7626.0,8377.0,4863.0,5665.0,7146.0,2659.0,2271.0,518.0,55.0,10.0
871439,County,2020/09/29,40.0,OK,40107.0,Okfuskee County,2215.0,9883.0,38112.0,6899.0,10119.0,3285.0,5578.0,6647.0,3660.0,1681.0,175.0,60.0,8.0
873068,County,2020/09/30,40.0,OK,40107.0,Okfuskee County,2559.0,9539.0,41031.0,8255.0,10243.0,3370.0,6584.0,6319.0,3243.0,2624.0,355.0,30.0,8.0
877808,County,2020/10/01,40.0,OK,40107.0,Okfuskee County,2187.0,9911.0,38402.0,8488.0,9472.0,3275.0,5033.0,6170.0,3723.0,1665.0,504.0,60.0,12.0
879436,County,2020/10/02,40.0,OK,40107.0,Okfuskee County,2397.0,9701.0,43813.0,9991.0,9646.0,4245.0,6971.0,6969.0,2563.0,3040.0,356.0,28.0,4.0
882652,County,2020/10/03,40.0,OK,40107.0,Okfuskee County,2465.0,9633.0,41271.0,7453.0,8628.0,4859.0,8199.0,6480.0,2910.0,2279.0,423.0,32.0,8.0
886877,County,2020/10/04,40.0,OK,40107.0,Okfuskee County,2654.0,9444.0,37123.0,5318.0,10597.0,4829.0,5796.0,6766.0,2163.0,1225.0,360.0,59.0,10.0
890069,County,2020/10/05,40.0,OK,40107.0,Okfuskee County,2939.0,9159.0,30159.0,5483.0,7432.0,3079.0,4912.0,5502.0,1888.0,1324.0,466.0,66.0,7.0
893268,County,2020/10/06,40.0,OK,40107.0,Okfuskee County,2454.0,9644.0,37401.0,5641.0,9548.0,3515.0,7199.0,6565.0,2336.0,2250.0,319.0,21.0,7.0
896488,County,2020/10/07,40.0,OK,40107.0,Okfuskee County,2173.0,9925.0,36512.0,5969.0,10809.0,4232.0,4783.0,6054.0,2225.0,1863.0,520.0,49.0,8.0
899670,County,2020/10/08,40.0,OK,40107.0,Okfuskee County,2186.0,9912.0,37073.0,6628.0,11183.0,3564.0,4658.0,5686.0,3196.0,1620.0,507.0,20.0,11.0
902855,County,2020/10/09,40.0,OK,40107.0,Okfuskee County,2614.0,9484.0,46253.0,6847.0,11711.0,5155.0,6994.0,9713.0,3471.0,2000.0,321.0,37.0,4.0
905963,County,2020/10/10,40.0,OK,40107.0,Okfuskee County,2680.0,9418.0,34891.0,5834.0,8522.0,2356.0,6785.0,5777.0,2363.0,2828.0,379.0,37.0,10.0
908225,County,2020/10/11,40.0,OK,40107.0,Okfuskee County,2804.0,9294.0,33255.0,5954.0,7097.0,3989.0,5343.0,6248.0,2640.0,1615.0,317.0,43.0,9.0
911241,County,2020/10/12,40.0,OK,40107.0,Okfuskee County,2429.0,9669.0,34192.0,5295.0,7583.0,3720.0,5267.0,5971.0,3693.0,2189.0,416.0,52.0,6.0
914504,County,2020/10/13,40.0,OK,40107.0,Okfuskee County,2344.0,9754.0,38337.0,6988.0,11113.0,2942.0,5495.0,5869.0,2758.0,2779.0,334.0,49.0,10.0
917542,County,2020/10/14,40.0,OK,40107.0,Okfuskee County,2303.0,9795.0,40616.0,7588.0,10936.0,3286.0,6524.0,5843.0,3314.0,2446.0,614.0,56.0,9.0
920905,County,2020/10/15,40.0,OK,40107.0,Okfuskee County,2364.0,9734.0,34203.0,4638.0,11134.0,4072.0,3577.0,4747.0,2470.0,2953.0,520.0,83.0,9.0
924064,County,2020/10/16,40.0,OK,40107.0,Okfuskee County,2068.0,10030.0,38562.0,5661.0,9487.0,3473.0,6298.0,6395.0,4179.0,2492.0,538.0,30.0,9.0
926842,County,2020/10/17,40.0,OK,40107.0,Okfuskee County,2603.0,9495.0,36267.0,4916.0,11847.0,4047.0,4756.0,4910.0,2761.0,2688.0,258.0,77.0,7.0
930059,County,2020/10/18,40.0,OK,40107.0,Okfuskee County,2614.0,9484.0,30228.0,3766.0,8126.0,4135.0,5151.0,5402.0,2462.0,933.0,201.0,38.0,14.0
933997,County,2020/10/19,40.0,OK,40107.0,Okfuskee County,2168.0,9930.0,36169.0,6378.0,10802.0,2618.0,4575.0,6347.0,2486.0,2489.0,427.0,37.0,10.0
936772,County,2020/10/20,40.0,OK,40107.0,Okfuskee County,2277.0,9821.0,36274.0,4794.0,10962.0,3195.0,5365.0,6005.0,3002.0,2495.0,389.0,60.0,7.0
940056,County,2020/10/21,40.0,OK,40107.0,Okfuskee County,2487.0,9611.0,35031.0,4705.0,10780.0,3635.0,4423.0,5693.0,3262.0,2208.0,239.0,68.0,18.0
943613,County,2020/10/22,40.0,OK,40107.0,Okfuskee County,2466.0,9632.0,38900.0,6715.0,8618.0,4169.0,7128.0,6865.0,2838.0,2170.0,325.0,63.0,9.0
946474,County,2020/10/23,40.0,OK,40107.0,Okfuskee County,2278.0,9820.0,43525.0,6735.0,11522.0,3422.0,6889.0,6984.0,3890.0,3621.0,414.0,40.0,8.0
949313,County,2020/10/24,40.0,OK,40107.0,Okfuskee County,2561.0,9537.0,39035.0,5775.0,11501.0,3669.0,6497.0,5582.0,3772.0,1831.0,379.0,21.0,8.0
