,Level,Date,State FIPS,State Postal Code,County FIPS,County Name,Population Staying at Home,Population Not Staying at Home,Number of Trips,Number of Trips <1,Number of Trips 1-3,Number of Trips 3-5,Number of Trips 5-10,Number of Trips 10-25,Number of Trips 25-50,Number of Trips 50-100,Number of Trips 100-250,Number of Trips 250-500,Number of Trips >=500
1896,County,2020/01/01,37.0,NC,37015.0,Bertie County,3490.0,15536.0,60710.0,6948.0,13926.0,9008.0,10586.0,11998.0,4420.0,3056.0,548.0,220.0,0.0
5129,County,2020/01/02,37.0,NC,37015.0,Bertie County,2990.0,16036.0,67950.0,8617.0,14691.0,9828.0,9081.0,15482.0,6613.0,2945.0,538.0,155.0,0.0
7017,County,2020/01/03,37.0,NC,37015.0,Bertie County,2850.0,16176.0,75681.0,13221.0,17100.0,7609.0,9888.0,16231.0,7620.0,3598.0,154.0,260.0,0.0
10837,County,2020/01/04,37.0,NC,37015.0,Bertie County,3009.0,16017.0,63323.0,7322.0,13437.0,8795.0,10437.0,12525.0,7202.0,3113.0,307.0,185.0,0.0
14672,County,2020/01/05,37.0,NC,37015.0,Bertie County,3045.0,15981.0,60596.0,8644.0,12524.0,5859.0,11565.0,13575.0,5320.0,2329.0,475.0,305.0,0.0
16935,County,2020/01/06,37.0,NC,37015.0,Bertie County,2948.0,16078.0,69169.0,9277.0,14536.0,8646.0,11907.0,16923.0,4588.0,2983.0,309.0,0.0,0.0
21696,County,2020/01/07,37.0,NC,37015.0,Bertie County,2848.0,16178.0,61498.0,8720.0,12139.0,8821.0,9038.0,14134.0,5731.0,2268.0,512.0,135.0,0.0
23372,County,2020/01/08,37.0,NC,37015.0,Bertie County,2972.0,16054.0,69399.0,9546.0,14891.0,9114.0,10338.0,16199.0,5394.0,3261.0,548.0,108.0,0.0
28071,County,2020/01/09,37.0,NC,37015.0,Bertie County,2922.0,16104.0,72894.0,9881.0,17778.0,9552.0,10324.0,15969.0,5862.0,3155.0,338.0,35.0,0.0
31278,County,2020/01/10,37.0,NC,37015.0,Bertie County,3040.0,15986.0,74740.0,11933.0,16977.0,8381.0,10269.0,15146.0,7173.0,4592.0,156.0,113.0,0.0
32955,County,2020/01/11,37.0,NC,37015.0,Bertie County,3150.0,15876.0,64505.0,7769.0,14577.0,9619.0,8736.0,14618.0,4987.0,3515.0,502.0,182.0,0.0
37642,County,2020/01/12,37.0,NC,37015.0,Bertie County,3382.0,15644.0,60030.0,8377.0,13072.0,7946.0,10234.0,13937.0,4115.0,1878.0,360.0,111.0,0.0
39305,County,2020/01/13,37.0,NC,37015.0,Bertie County,3093.0,15933.0,66688.0,10692.0,14606.0,7931.0,9389.0,15244.0,5547.0,2997.0,246.0,36.0,0.0
44038,County,2020/01/14,37.0,NC,37015.0,Bertie County,2915.0,16111.0,68443.0,9427.0,15658.0,9551.0,9117.0,15722.0,6162.0,2390.0,416.0,0.0,0.0
45668,County,2020/01/15,37.0,NC,37015.0,Bertie County,3038.0,15988.0,64446.0,7146.0,13454.0,10136.0,8891.0,15721.0,6066.0,2434.0,564.0,34.0,0.0
48772,County,2020/01/16,37.0,NC,37015.0,Bertie County,2732.0,16294.0,71218.0,10280.0,15919.0,9304.0,11740.0,14760.0,6336.0,2396.0,450.0,33.0,0.0
53687,County,2020/01/17,37.0,NC,37015.0,Bertie County,2700.0,16326.0,68103.0,9740.0,14553.0,8486.0,10325.0,14582.0,7568.0,2119.0,696.0,34.0,0.0
56809,County,2020/01/18,37.0,NC,37015.0,Bertie County,2928.0,16098.0,64282.0,9008.0,13746.0,8085.0,9526.0,14112.0,6313.0,2713.0,743.0,36.0,0.0
58408,County,2020/01/19,37.0,NC,37015.0,Bertie County,3274.0,15752.0,54452.0,5851.0,10749.0,6761.0,8572.0,12917.0,5295.0,3545.0,725.0,37.0,0.0
63170,County,2020/01/20,37.0,NC,37015.0,Bertie County,3119.0,15907.0,62043.0,7249.0,12871.0,7740.0,9831.0,15290.0,5710.0,2630.0,543.0,179.0,0.0
66417,County,2020/01/21,37.0,NC,37015.0,Bertie County,3183.0,15843.0,65604.0,9268.0,12530.0,7326.0,9168.0,15847.0,6771.0,4170.0,385.0,139.0,0.0
69606,County,2020/01/22,37.0,NC,37015.0,Bertie County,2901.0,16125.0,75247.0,9779.0,15771.0,9853.0,10516.0,18514.0,6859.0,3444.0,402.0,109.0,0.0
72790,County,2020/01/23,37.0,NC,37015.0,Bertie County,2917.0,16109.0,68608.0,10112.0,16706.0,6557.0,9706.0,15419.0,7223.0,2157.0,664.0,64.0,0.0
75946,County,2020/01/24,37.0,NC,37015.0,Bertie County,2979.0,16047.0,73288.0,10902.0,14559.0,7778.0,10881.0,18133.0,7470.0,2858.0,641.0,66.0,0.0
79181,County,2020/01/25,37.0,NC,37015.0,Bertie County,3180.0,15846.0,64600.0,10310.0,12302.0,8765.0,9790.0,14136.0,5345.0,3135.0,749.0,68.0,0.0
81746,County,2020/01/26,37.0,NC,37015.0,Bertie County,3560.0,15466.0,60637.0,9009.0,13838.0,8139.0,9590.0,12363.0,4508.0,2276.0,698.0,216.0,0.0
83903,County,2020/01/27,37.0,NC,37015.0,Bertie County,2919.0,16107.0,67034.0,11130.0,13085.0,8834.0,8190.0,15355.0,6539.0,3155.0,618.0,128.0,0.0
87218,County,2020/01/28,37.0,NC,37015.0,Bertie County,2967.0,16059.0,66741.0,10766.0,13620.0,8080.0,7496.0,16455.0,6576.0,2893.0,724.0,131.0,0.0
90373,County,2020/01/29,37.0,NC,37015.0,Bertie County,2912.0,16114.0,67754.0,11379.0,13746.0,7249.0,9622.0,15522.0,7117.0,2699.0,389.0,31.0,0.0
93677,County,2020/01/30,37.0,NC,37015.0,Bertie County,2784.0,16242.0,71451.0,10273.0,17480.0,7909.0,8866.0,16986.0,6273.0,2992.0,641.0,31.0,0.0
98351,County,2020/01/31,37.0,NC,37015.0,Bertie County,2763.0,16263.0,74196.0,12313.0,15027.0,7719.0,9397.0,18717.0,6910.0,3092.0,877.0,144.0,0.0
100030,County,2020/02/01,37.0,NC,37015.0,Bertie County,2947.0,16079.0,59831.0,6052.0,10849.0,8198.0,9414.0,14144.0,5708.0,4443.0,931.0,92.0,0.0
103109,County,2020/02/02,37.0,NC,37015.0,Bertie County,3201.0,15825.0,63771.0,9713.0,13783.0,8457.0,9068.0,15377.0,4219.0,2062.0,994.0,98.0,0.0
107944,County,2020/02/03,37.0,NC,37015.0,Bertie County,2762.0,16264.0,74712.0,11875.0,14034.0,10591.0,11079.0,16751.0,6546.0,3297.0,450.0,89.0,0.0
109561,County,2020/02/04,37.0,NC,37015.0,Bertie County,2629.0,16397.0,74511.0,11536.0,16173.0,8349.0,11677.0,16129.0,6994.0,2918.0,652.0,83.0,0.0
112707,County,2020/02/05,37.0,NC,37015.0,Bertie County,2783.0,16243.0,73656.0,11608.0,17071.0,10470.0,9923.0,15435.0,6061.0,2440.0,561.0,87.0,0.0
115851,County,2020/02/06,37.0,NC,37015.0,Bertie County,2775.0,16251.0,69536.0,10670.0,16559.0,9469.0,10051.0,14138.0,5902.0,2188.0,479.0,80.0,0.0
120744,County,2020/02/07,37.0,NC,37015.0,Bertie County,2527.0,16499.0,70238.0,10044.0,14785.0,7480.0,10968.0,16311.0,7121.0,2455.0,947.0,127.0,0.0
123904,County,2020/02/08,37.0,NC,37015.0,Bertie County,2903.0,16123.0,67716.0,8022.0,12901.0,9327.0,10625.0,15920.0,6240.0,3718.0,827.0,136.0,0.0
125909,County,2020/02/09,37.0,NC,37015.0,Bertie County,3507.0,15519.0,59229.0,7277.0,13755.0,8386.0,9904.0,12692.0,4230.0,2388.0,571.0,26.0,0.0
130205,County,2020/02/10,37.0,NC,37015.0,Bertie County,2650.0,16376.0,72622.0,10953.0,16716.0,8936.0,11106.0,15836.0,5715.0,2553.0,678.0,129.0,0.0
134064,County,2020/02/11,37.0,NC,37015.0,Bertie County,2520.0,16506.0,65281.0,9923.0,14380.0,7580.0,9094.0,15052.0,5952.0,2866.0,356.0,78.0,0.0
135539,County,2020/02/12,37.0,NC,37015.0,Bertie County,2558.0,16468.0,76769.0,12903.0,14846.0,9466.0,10507.0,17490.0,6959.0,3729.0,794.0,75.0,0.0
139873,County,2020/02/13,37.0,NC,37015.0,Bertie County,2432.0,16594.0,69938.0,11565.0,13348.0,8044.0,10832.0,16533.0,5896.0,2678.0,915.0,127.0,0.0
141404,County,2020/02/14,37.0,NC,37015.0,Bertie County,2387.0,16639.0,83485.0,12965.0,16155.0,12125.0,13103.0,17910.0,7071.0,3284.0,696.0,176.0,0.0
144700,County,2020/02/15,37.0,NC,37015.0,Bertie County,2831.0,16195.0,69361.0,10668.0,15629.0,9733.0,9461.0,13951.0,5552.0,3606.0,650.0,111.0,0.0
149435,County,2020/02/16,37.0,NC,37015.0,Bertie County,3508.0,15518.0,67015.0,9110.0,15585.0,9625.0,11166.0,13884.0,4538.0,2652.0,425.0,30.0,0.0
151063,County,2020/02/17,37.0,NC,37015.0,Bertie County,3441.0,15585.0,67531.0,11122.0,15048.0,8260.0,9602.0,14736.0,5817.0,2122.0,519.0,305.0,0.0
154277,County,2020/02/18,37.0,NC,37015.0,Bertie County,2768.0,16258.0,70936.0,10147.0,14498.0,9617.0,10791.0,15838.0,6492.0,2736.0,704.0,113.0,0.0
157472,County,2020/02/19,37.0,NC,37015.0,Bertie County,2612.0,16414.0,76301.0,13005.0,15732.0,9491.0,10908.0,17365.0,5998.0,2750.0,825.0,227.0,0.0
160533,County,2020/02/20,37.0,NC,37015.0,Bertie County,2606.0,16420.0,65984.0,10663.0,12941.0,7525.0,11372.0,14022.0,5410.0,2864.0,1076.0,111.0,0.0
163811,County,2020/02/21,37.0,NC,37015.0,Bertie County,3521.0,15505.0,65159.0,11603.0,13490.0,7332.0,11421.0,13857.0,5061.0,1544.0,784.0,67.0,0.0
167005,County,2020/02/22,37.0,NC,37015.0,Bertie County,2905.0,16121.0,72555.0,10170.0,13016.0,11330.0,11609.0,13363.0,8481.0,3497.0,750.0,339.0,0.0
170233,County,2020/02/23,37.0,NC,37015.0,Bertie County,3074.0,15952.0,62268.0,8875.0,11914.0,7991.0,10105.0,14387.0,4753.0,3112.0,930.0,201.0,0.0
173397,County,2020/02/24,37.0,NC,37015.0,Bertie County,3196.0,15830.0,67409.0,9793.0,16617.0,8772.0,9857.0,13883.0,5909.0,2373.0,173.0,32.0,0.0
177567,County,2020/02/25,37.0,NC,37015.0,Bertie County,2630.0,16396.0,73144.0,11790.0,16425.0,9071.0,10860.0,15522.0,6177.0,2654.0,435.0,210.0,0.0
180760,County,2020/02/26,37.0,NC,37015.0,Bertie County,2803.0,16223.0,76069.0,10943.0,17726.0,10544.0,10127.0,19330.0,5059.0,2010.0,330.0,0.0,0.0
184585,County,2020/02/27,37.0,NC,37015.0,Bertie County,2768.0,16258.0,74796.0,11124.0,17224.0,8092.0,12027.0,17177.0,6177.0,2548.0,368.0,59.0,0.0
186311,County,2020/02/28,37.0,NC,37015.0,Bertie County,2526.0,16500.0,81766.0,15458.0,17812.0,8922.0,9654.0,19326.0,6944.0,2992.0,628.0,30.0,0.0
189364,County,2020/02/29,37.0,NC,37015.0,Bertie County,2785.0,16241.0,73377.0,8550.0,14688.0,10462.0,10745.0,15802.0,7536.0,4993.0,601.0,0.0,0.0
192553,County,2020/03/01,37.0,NC,37015.0,Bertie County,2840.0,16186.0,67772.0,9857.0,13173.0,9429.0,12019.0,15462.0,4759.0,2171.0,866.0,36.0,0.0
197353,County,2020/03/02,37.0,NC,37015.0,Bertie County,2580.0,16446.0,77887.0,11730.0,17284.0,12583.0,11567.0,16060.0,5686.0,2467.0,432.0,78.0,0.0
200578,County,2020/03/03,37.0,NC,37015.0,Bertie County,2386.0,16640.0,93011.0,16970.0,22058.0,12498.0,13088.0,17202.0,7389.0,3073.0,505.0,228.0,0.0
203764,County,2020/03/04,37.0,NC,37015.0,Bertie County,2543.0,16483.0,93769.0,18455.0,21593.0,12357.0,10982.0,16961.0,9226.0,3538.0,410.0,247.0,0.0
205331,County,2020/03/05,37.0,NC,37015.0,Bertie County,2344.0,16682.0,89457.0,15043.0,16067.0,15646.0,12354.0,18180.0,9481.0,2308.0,330.0,48.0,0.0
208450,County,2020/03/06,37.0,NC,37015.0,Bertie County,2397.0,16629.0,80991.0,11263.0,16706.0,9975.0,12851.0,19099.0,6194.0,4102.0,607.0,194.0,0.0
211751,County,2020/03/07,37.0,NC,37015.0,Bertie County,2436.0,16590.0,79226.0,9667.0,16329.0,9785.0,14323.0,16816.0,7299.0,4126.0,571.0,310.0,0.0
216526,County,2020/03/08,37.0,NC,37015.0,Bertie County,2771.0,16255.0,77596.0,14270.0,17779.0,9698.0,11054.0,17156.0,4513.0,2486.0,371.0,269.0,0.0
219724,County,2020/03/09,37.0,NC,37015.0,Bertie County,2636.0,16390.0,91290.0,16053.0,16131.0,14843.0,15503.0,16825.0,7262.0,4131.0,398.0,144.0,0.0
222917,County,2020/03/10,37.0,NC,37015.0,Bertie County,2561.0,16465.0,82343.0,15033.0,17922.0,8498.0,11972.0,16136.0,9646.0,2475.0,520.0,141.0,0.0
224542,County,2020/03/11,37.0,NC,37015.0,Bertie County,2273.0,16753.0,78483.0,11150.0,18077.0,8253.0,13591.0,16478.0,7226.0,2678.0,541.0,489.0,0.0
229238,County,2020/03/12,37.0,NC,37015.0,Bertie County,2646.0,16380.0,76202.0,8406.0,17961.0,10593.0,11029.0,17409.0,6516.0,4061.0,0.0,227.0,0.0
232507,County,2020/03/13,37.0,NC,37015.0,Bertie County,2424.0,16602.0,79467.0,12203.0,17307.0,10294.0,11985.0,16113.0,6798.0,3271.0,1289.0,207.0,0.0
234085,County,2020/03/14,37.0,NC,37015.0,Bertie County,2868.0,16158.0,86487.0,13742.0,18016.0,9255.0,13696.0,21585.0,6535.0,3116.0,314.0,228.0,0.0
237272,County,2020/03/15,37.0,NC,37015.0,Bertie County,3549.0,15477.0,66378.0,9648.0,14227.0,10017.0,9465.0,15222.0,4809.0,2181.0,755.0,54.0,0.0
242082,County,2020/03/16,37.0,NC,37015.0,Bertie County,3042.0,15984.0,75930.0,13644.0,17011.0,10601.0,11558.0,15102.0,5170.0,2403.0,394.0,47.0,0.0
245323,County,2020/03/17,37.0,NC,37015.0,Bertie County,3639.0,15387.0,78528.0,15847.0,16911.0,8230.0,11712.0,16284.0,6746.0,2557.0,140.0,101.0,0.0
248429,County,2020/03/18,37.0,NC,37015.0,Bertie County,3549.0,15477.0,77629.0,13972.0,17800.0,11091.0,9214.0,15697.0,6533.0,2829.0,344.0,149.0,0.0
250108,County,2020/03/19,37.0,NC,37015.0,Bertie County,3495.0,15531.0,75295.0,14569.0,17504.0,9572.0,8247.0,16522.0,5531.0,2940.0,266.0,144.0,0.0
253293,County,2020/03/20,37.0,NC,37015.0,Bertie County,3286.0,15740.0,79278.0,16862.0,16647.0,11307.0,9123.0,15702.0,6641.0,2866.0,130.0,0.0,0.0
258051,County,2020/03/21,37.0,NC,37015.0,Bertie County,3719.0,15307.0,59554.0,11088.0,11948.0,6609.0,8343.0,11691.0,6109.0,3300.0,362.0,104.0,0.0
261239,County,2020/03/22,37.0,NC,37015.0,Bertie County,3997.0,15029.0,60413.0,10519.0,14361.0,8743.0,10078.0,11084.0,3845.0,1783.0,0.0,0.0,0.0
262876,County,2020/03/23,37.0,NC,37015.0,Bertie County,3250.0,15776.0,59245.0,11206.0,11195.0,9094.0,7296.0,12207.0,5373.0,2618.0,123.0,133.0,0.0
267631,County,2020/03/24,37.0,NC,37015.0,Bertie County,3279.0,15747.0,59846.0,9604.0,13487.0,8558.0,8351.0,10669.0,6568.0,2564.0,0.0,45.0,0.0
269261,County,2020/03/25,37.0,NC,37015.0,Bertie County,3420.0,15606.0,55893.0,8762.0,12437.0,5897.0,8739.0,11723.0,6119.0,1865.0,258.0,93.0,0.0
274002,County,2020/03/26,37.0,NC,37015.0,Bertie County,3556.0,15470.0,63426.0,10080.0,15545.0,9403.0,7799.0,12884.0,5184.0,1982.0,549.0,0.0,0.0
275642,County,2020/03/27,37.0,NC,37015.0,Bertie County,3211.0,15815.0,65457.0,12557.0,16290.0,10279.0,7797.0,11283.0,5205.0,1474.0,484.0,88.0,0.0
280403,County,2020/03/28,37.0,NC,37015.0,Bertie County,3339.0,15687.0,65336.0,13260.0,16829.0,8716.0,7576.0,12234.0,4865.0,1498.0,263.0,95.0,0.0
282038,County,2020/03/29,37.0,NC,37015.0,Bertie County,3618.0,15408.0,59798.0,11402.0,13137.0,8189.0,10721.0,11374.0,3098.0,1378.0,348.0,151.0,0.0
285183,County,2020/03/30,37.0,NC,37015.0,Bertie County,3440.0,15586.0,56311.0,8404.0,13047.0,7478.0,7806.0,12879.0,4228.0,1874.0,454.0,141.0,0.0
289986,County,2020/03/31,37.0,NC,37015.0,Bertie County,3822.0,15204.0,57304.0,10511.0,8954.0,7484.0,9705.0,12798.0,4884.0,2180.0,788.0,0.0,0.0
293185,County,2020/04/01,37.0,NC,37015.0,Bertie County,3370.0,15656.0,54769.0,9029.0,11108.0,7974.0,8029.0,12063.0,4588.0,1346.0,632.0,0.0,0.0
294814,County,2020/04/02,37.0,NC,37015.0,Bertie County,3562.0,15464.0,58870.0,10195.0,13672.0,7169.0,7420.0,11077.0,6476.0,1841.0,874.0,146.0,0.0
298008,County,2020/04/03,37.0,NC,37015.0,Bertie County,3222.0,15804.0,76672.0,20324.0,15131.0,9327.0,7710.0,14499.0,5774.0,3359.0,454.0,94.0,0.0
302754,County,2020/04/04,37.0,NC,37015.0,Bertie County,3656.0,15370.0,64064.0,8416.0,18468.0,8594.0,9470.0,11933.0,4417.0,2381.0,223.0,162.0,0.0
304382,County,2020/04/05,37.0,NC,37015.0,Bertie County,3534.0,15492.0,55026.0,9069.0,12269.0,8247.0,9207.0,9690.0,4557.0,1741.0,143.0,103.0,0.0
309156,County,2020/04/06,37.0,NC,37015.0,Bertie County,3339.0,15687.0,61231.0,11097.0,12188.0,8882.0,8951.0,12157.0,6247.0,1527.0,134.0,48.0,0.0
310784,County,2020/04/07,37.0,NC,37015.0,Bertie County,3401.0,15625.0,64810.0,12448.0,12546.0,9595.0,7814.0,13174.0,5559.0,3304.0,132.0,238.0,0.0
315520,County,2020/04/08,37.0,NC,37015.0,Bertie County,3268.0,15758.0,62100.0,11965.0,14193.0,8391.0,8033.0,11777.0,5433.0,1827.0,253.0,228.0,0.0
317147,County,2020/04/09,37.0,NC,37015.0,Bertie County,3438.0,15588.0,72051.0,15142.0,17140.0,8495.0,10682.0,12788.0,5365.0,2052.0,284.0,103.0,0.0
320374,County,2020/04/10,37.0,NC,37015.0,Bertie County,3307.0,15719.0,68858.0,16001.0,13463.0,9509.0,8746.0,13049.0,5298.0,2317.0,331.0,144.0,0.0
325127,County,2020/04/11,37.0,NC,37015.0,Bertie County,3504.0,15522.0,64814.0,13465.0,15128.0,6750.0,8686.0,13219.0,4383.0,2634.0,288.0,261.0,0.0
328293,County,2020/04/12,37.0,NC,37015.0,Bertie County,3948.0,15078.0,50551.0,9248.0,12476.0,6687.0,7173.0,11140.0,2656.0,876.0,64.0,231.0,0.0
329969,County,2020/04/13,37.0,NC,37015.0,Bertie County,3761.0,15265.0,54389.0,9913.0,12778.0,5869.0,8545.0,12240.0,3260.0,1295.0,284.0,205.0,0.0
333142,County,2020/04/14,37.0,NC,37015.0,Bertie County,3515.0,15511.0,64925.0,10254.0,16851.0,12323.0,8793.0,9759.0,3796.0,2257.0,404.0,488.0,0.0
336318,County,2020/04/15,37.0,NC,37015.0,Bertie County,3347.0,15679.0,61745.0,6953.0,14528.0,10227.0,9557.0,14473.0,4141.0,1739.0,127.0,0.0,0.0
341037,County,2020/04/16,37.0,NC,37015.0,Bertie County,3245.0,15781.0,56805.0,8212.0,17158.0,7367.0,5054.0,12845.0,3584.0,1839.0,483.0,263.0,0.0
344300,County,2020/04/17,37.0,NC,37015.0,Bertie County,3082.0,15944.0,62257.0,9811.0,14387.0,8599.0,6814.0,15782.0,4209.0,2442.0,124.0,89.0,0.0
347447,County,2020/04/18,37.0,NC,37015.0,Bertie County,3441.0,15585.0,60113.0,11039.0,14214.0,6586.0,6381.0,12562.0,6240.0,2602.0,394.0,95.0,0.0
350630,County,2020/04/19,37.0,NC,37015.0,Bertie County,3407.0,15619.0,52519.0,7487.0,14490.0,6495.0,6655.0,10917.0,4055.0,2081.0,249.0,90.0,0.0
353879,County,2020/04/20,37.0,NC,37015.0,Bertie County,3293.0,15733.0,47857.0,4578.0,9773.0,9681.0,6061.0,10402.0,3662.0,2757.0,823.0,120.0,0.0
355499,County,2020/04/21,37.0,NC,37015.0,Bertie County,3506.0,15520.0,62891.0,12405.0,12704.0,7162.0,7094.0,15542.0,5636.0,2003.0,292.0,53.0,0.0
360220,County,2020/04/22,37.0,NC,37015.0,Bertie County,3235.0,15791.0,65679.0,12494.0,15674.0,8895.0,8839.0,12588.0,5118.0,1930.0,141.0,0.0,0.0
361799,County,2020/04/23,37.0,NC,37015.0,Bertie County,3524.0,15502.0,62674.0,10569.0,12922.0,10289.0,8034.0,12094.0,5989.0,2320.0,457.0,0.0,0.0
365053,County,2020/04/24,37.0,NC,37015.0,Bertie County,3126.0,15900.0,76041.0,11894.0,19561.0,12119.0,8252.0,15848.0,6581.0,1716.0,70.0,0.0,0.0
368220,County,2020/04/25,37.0,NC,37015.0,Bertie County,3255.0,15771.0,72914.0,11316.0,18503.0,9188.0,11199.0,14123.0,5933.0,2215.0,437.0,0.0,0.0
371386,County,2020/04/26,37.0,NC,37015.0,Bertie County,3595.0,15431.0,53714.0,8155.0,11925.0,8507.0,9022.0,8548.0,6489.0,833.0,235.0,0.0,0.0
374663,County,2020/04/27,37.0,NC,37015.0,Bertie County,3397.0,15629.0,70648.0,11945.0,16931.0,9591.0,11118.0,12768.0,5646.0,2500.0,149.0,0.0,0.0
377863,County,2020/04/28,37.0,NC,37015.0,Bertie County,3217.0,15809.0,71499.0,16643.0,15515.0,10465.0,7300.0,13443.0,6469.0,1463.0,148.0,53.0,0.0
382594,County,2020/04/29,37.0,NC,37015.0,Bertie County,3487.0,15539.0,65025.0,11693.0,15527.0,8464.0,6754.0,14742.0,5431.0,2048.0,150.0,216.0,0.0
384214,County,2020/04/30,37.0,NC,37015.0,Bertie County,3271.0,15755.0,58497.0,9141.0,13613.0,8512.0,6775.0,13768.0,4141.0,2338.0,209.0,0.0,0.0
389000,County,2020/05/01,37.0,NC,37015.0,Bertie County,3092.0,15934.0,73787.0,12107.0,18507.0,8418.0,9369.0,17253.0,5634.0,2232.0,267.0,0.0,0.0
392199,County,2020/05/02,37.0,NC,37015.0,Bertie County,3374.0,15652.0,76707.0,12690.0,16029.0,11144.0,13165.0,16713.0,4644.0,2093.0,229.0,0.0,0.0
393834,County,2020/05/03,37.0,NC,37015.0,Bertie County,3584.0,15442.0,64370.0,14259.0,11704.0,7615.0,10318.0,12195.0,6414.0,1681.0,184.0,0.0,0.0
396996,County,2020/05/04,37.0,NC,37015.0,Bertie County,3231.0,15795.0,75102.0,21426.0,15443.0,7933.0,9144.0,14257.0,4430.0,2218.0,146.0,105.0,0.0
401764,County,2020/05/05,37.0,NC,37015.0,Bertie County,2906.0,16120.0,74163.0,14901.0,15091.0,9364.0,8375.0,16836.0,6586.0,2575.0,282.0,153.0,0.0
404970,County,2020/05/06,37.0,NC,37015.0,Bertie County,2849.0,16177.0,65667.0,12161.0,12524.0,9784.0,8960.0,15269.0,4838.0,1874.0,123.0,134.0,0.0
406597,County,2020/05/07,37.0,NC,37015.0,Bertie County,2684.0,16342.0,80165.0,16271.0,17329.0,11366.0,10734.0,13954.0,5969.0,3829.0,440.0,273.0,0.0
409902,County,2020/05/08,37.0,NC,37015.0,Bertie County,3245.0,15781.0,76860.0,15537.0,19049.0,9474.0,9787.0,14837.0,5077.0,2497.0,499.0,103.0,0.0
414524,County,2020/05/09,37.0,NC,37015.0,Bertie County,3085.0,15941.0,79621.0,14974.0,17750.0,14339.0,8982.0,14998.0,5625.0,2615.0,286.0,52.0,0.0
417704,County,2020/05/10,37.0,NC,37015.0,Bertie County,3270.0,15756.0,64553.0,9839.0,15692.0,10389.0,8534.0,13815.0,5123.0,877.0,165.0,119.0,0.0
419379,County,2020/05/11,37.0,NC,37015.0,Bertie County,3000.0,16026.0,76463.0,13712.0,16003.0,9582.0,12091.0,16201.0,5701.0,2538.0,602.0,33.0,0.0
422612,County,2020/05/12,37.0,NC,37015.0,Bertie County,3128.0,15898.0,77443.0,14511.0,19581.0,9697.0,11019.0,14161.0,5339.0,2524.0,474.0,137.0,0.0
427334,County,2020/05/13,37.0,NC,37015.0,Bertie County,2739.0,16287.0,69067.0,11581.0,14611.0,9818.0,10592.0,13961.0,5400.0,2376.0,477.0,251.0,0.0
430528,County,2020/05/14,37.0,NC,37015.0,Bertie County,3004.0,16022.0,78629.0,16241.0,17107.0,11844.0,10422.0,14936.0,5073.0,2070.0,746.0,190.0,0.0
433702,County,2020/05/15,37.0,NC,37015.0,Bertie County,2651.0,16375.0,75930.0,12795.0,16579.0,10890.0,12016.0,14160.0,5071.0,3514.0,812.0,93.0,0.0
435380,County,2020/05/16,37.0,NC,37015.0,Bertie County,3185.0,15841.0,75107.0,14969.0,15427.0,11615.0,12179.0,12443.0,5396.0,1973.0,997.0,108.0,0.0
440065,County,2020/05/17,37.0,NC,37015.0,Bertie County,2665.0,16361.0,80455.0,15783.0,17099.0,12853.0,9877.0,16068.0,5398.0,2546.0,689.0,142.0,0.0
441778,County,2020/05/18,37.0,NC,37015.0,Bertie County,2388.0,16638.0,75850.0,13075.0,17862.0,12503.0,7128.0,18264.0,4394.0,1692.0,463.0,469.0,0.0
444932,County,2020/05/19,37.0,NC,37015.0,Bertie County,2481.0,16545.0,65683.0,11243.0,15282.0,7952.0,7677.0,13417.0,6248.0,3421.0,375.0,68.0,0.0
448099,County,2020/05/20,37.0,NC,37015.0,Bertie County,2850.0,16176.0,67251.0,9137.0,20204.0,7755.0,9816.0,11944.0,5903.0,2073.0,419.0,0.0,0.0
452534,County,2020/05/21,37.0,NC,37015.0,Bertie County,2472.0,16554.0,71323.0,11144.0,13417.0,13578.0,8853.0,14849.0,6585.0,2014.0,473.0,410.0,0.0
456079,County,2020/05/22,37.0,NC,37015.0,Bertie County,2377.0,16649.0,80829.0,19471.0,18022.0,13022.0,7817.0,14829.0,4988.0,1849.0,561.0,270.0,0.0
459290,County,2020/05/23,37.0,NC,37015.0,Bertie County,2245.0,16781.0,81272.0,13936.0,20059.0,10804.0,12761.0,13025.0,6949.0,2937.0,735.0,66.0,0.0
460870,County,2020/05/24,37.0,NC,37015.0,Bertie County,3402.0,15624.0,63009.0,9482.0,13462.0,10321.0,11262.0,11466.0,4498.0,1804.0,474.0,240.0,0.0
465747,County,2020/05/25,37.0,NC,37015.0,Bertie County,3151.0,15875.0,64109.0,11713.0,14199.0,8984.0,8166.0,12509.0,5329.0,2701.0,444.0,64.0,0.0
467227,County,2020/05/26,37.0,NC,37015.0,Bertie County,2964.0,16062.0,70062.0,11677.0,15229.0,8431.0,12824.0,14946.0,4499.0,1884.0,399.0,173.0,0.0
470483,County,2020/05/27,37.0,NC,37015.0,Bertie County,3023.0,16003.0,67670.0,12168.0,11819.0,11054.0,11280.0,12118.0,5183.0,3421.0,416.0,211.0,0.0
475195,County,2020/05/28,37.0,NC,37015.0,Bertie County,2976.0,16050.0,64905.0,10769.0,12827.0,9088.0,9358.0,13697.0,5508.0,3177.0,209.0,272.0,0.0
476824,County,2020/05/29,37.0,NC,37015.0,Bertie County,2976.0,16050.0,67972.0,11669.0,13260.0,10471.0,9756.0,13442.0,5743.0,3174.0,426.0,31.0,0.0
480011,County,2020/05/30,37.0,NC,37015.0,Bertie County,3088.0,15938.0,61984.0,9393.0,13471.0,8713.0,8980.0,12476.0,5236.0,3082.0,565.0,68.0,0.0
484778,County,2020/05/31,37.0,NC,37015.0,Bertie County,3438.0,15588.0,70341.0,11628.0,13989.0,10864.0,10087.0,15615.0,4007.0,3481.0,520.0,150.0,0.0
486406,County,2020/06/01,37.0,NC,37015.0,Bertie County,3139.0,15887.0,64682.0,9592.0,13700.0,7893.0,10377.0,14938.0,5634.0,1861.0,655.0,32.0,0.0
491186,County,2020/06/02,37.0,NC,37015.0,Bertie County,3056.0,15970.0,66967.0,13928.0,13732.0,6916.0,10487.0,13310.0,5337.0,2450.0,593.0,214.0,0.0
492815,County,2020/06/03,37.0,NC,37015.0,Bertie County,3121.0,15905.0,77990.0,16864.0,14878.0,9727.0,11440.0,14257.0,7097.0,2845.0,684.0,198.0,0.0
497590,County,2020/06/04,37.0,NC,37015.0,Bertie County,2979.0,16047.0,71567.0,13230.0,13252.0,10730.0,11224.0,13972.0,6079.0,2521.0,290.0,269.0,0.0
499230,County,2020/06/05,37.0,NC,37015.0,Bertie County,2750.0,16276.0,71644.0,13263.0,15145.0,10343.0,9646.0,14512.0,5478.0,2781.0,447.0,29.0,0.0
502377,County,2020/06/06,37.0,NC,37015.0,Bertie County,3531.0,15495.0,58522.0,7112.0,10819.0,8398.0,11863.0,11623.0,4878.0,3454.0,170.0,205.0,0.0
505569,County,2020/06/07,37.0,NC,37015.0,Bertie County,3306.0,15720.0,63427.0,8712.0,13825.0,7172.0,12535.0,14029.0,3734.0,2458.0,775.0,187.0,0.0
510365,County,2020/06/08,37.0,NC,37015.0,Bertie County,3009.0,16017.0,72739.0,11756.0,15917.0,9576.0,10899.0,14831.0,6706.0,2526.0,498.0,30.0,0.0
511994,County,2020/06/09,37.0,NC,37015.0,Bertie County,2890.0,16136.0,68869.0,11160.0,14609.0,9207.0,9198.0,14920.0,6333.0,2897.0,423.0,122.0,0.0
516775,County,2020/06/10,37.0,NC,37015.0,Bertie County,3263.0,15763.0,71672.0,12014.0,17850.0,9461.0,9819.0,12492.0,6443.0,2796.0,538.0,259.0,0.0
519932,County,2020/06/11,37.0,NC,37015.0,Bertie County,2932.0,16094.0,73849.0,12522.0,16627.0,8633.0,10868.0,14686.0,6880.0,3082.0,338.0,213.0,0.0
523155,County,2020/06/12,37.0,NC,37015.0,Bertie County,3027.0,15999.0,70091.0,11115.0,12304.0,9193.0,11701.0,16466.0,5804.0,2745.0,572.0,191.0,0.0
526342,County,2020/06/13,37.0,NC,37015.0,Bertie County,3051.0,15975.0,71195.0,13001.0,13117.0,9537.0,12188.0,14817.0,4659.0,2899.0,667.0,310.0,0.0
527977,County,2020/06/14,37.0,NC,37015.0,Bertie County,3342.0,15684.0,68816.0,11168.0,13623.0,10741.0,10922.0,15431.0,3842.0,2275.0,598.0,216.0,0.0
532736,County,2020/06/15,37.0,NC,37015.0,Bertie County,2934.0,16092.0,65460.0,9601.0,12210.0,8929.0,10701.0,13765.0,5574.0,3790.0,537.0,353.0,0.0
534315,County,2020/06/16,37.0,NC,37015.0,Bertie County,2995.0,16031.0,61722.0,9204.0,12757.0,7303.0,10378.0,13025.0,5859.0,2308.0,689.0,199.0,0.0
539075,County,2020/06/17,37.0,NC,37015.0,Bertie County,3107.0,15919.0,61864.0,11556.0,13423.0,6009.0,9159.0,13940.0,5433.0,1584.0,498.0,262.0,0.0
542270,County,2020/06/18,37.0,NC,37015.0,Bertie County,3082.0,15944.0,70027.0,10547.0,15717.0,10066.0,10394.0,14319.0,5927.0,2712.0,241.0,104.0,0.0
545471,County,2020/06/19,37.0,NC,37015.0,Bertie County,3125.0,15901.0,66688.0,9422.0,14739.0,8883.0,10782.0,15000.0,4881.0,2329.0,417.0,235.0,0.0
548706,County,2020/06/20,37.0,NC,37015.0,Bertie County,3123.0,15903.0,63337.0,9995.0,13962.0,8212.0,8161.0,13481.0,5667.0,2909.0,805.0,145.0,0.0
550306,County,2020/06/21,37.0,NC,37015.0,Bertie County,3304.0,15722.0,61134.0,7640.0,16892.0,8429.0,10573.0,11140.0,3968.0,2166.0,285.0,41.0,0.0
555086,County,2020/06/22,37.0,NC,37015.0,Bertie County,2957.0,16069.0,58435.0,7263.0,13226.0,7792.0,8835.0,13716.0,5371.0,1594.0,480.0,158.0,0.0
556714,County,2020/06/23,37.0,NC,37015.0,Bertie County,2798.0,16228.0,63005.0,9677.0,13105.0,8533.0,9253.0,14022.0,5618.0,2386.0,348.0,63.0,0.0
561482,County,2020/06/24,37.0,NC,37015.0,Bertie County,2719.0,16307.0,62674.0,8702.0,12491.0,10013.0,10160.0,13483.0,5561.0,1631.0,536.0,97.0,0.0
563062,County,2020/06/25,37.0,NC,37015.0,Bertie County,2673.0,16353.0,57185.0,7795.0,12232.0,6907.0,8698.0,12014.0,6141.0,2817.0,485.0,96.0,0.0
567906,County,2020/06/26,37.0,NC,37015.0,Bertie County,2644.0,16382.0,68152.0,11356.0,14770.0,8365.0,9717.0,14935.0,5299.0,3332.0,313.0,65.0,0.0
571056,County,2020/06/27,37.0,NC,37015.0,Bertie County,3184.0,15842.0,68569.0,13076.0,12939.0,8553.0,10659.0,13332.0,6061.0,3394.0,478.0,77.0,0.0
574239,County,2020/06/28,37.0,NC,37015.0,Bertie County,3282.0,15744.0,64945.0,12931.0,13194.0,8500.0,9180.0,12680.0,5398.0,2329.0,580.0,153.0,0.0
575844,County,2020/06/29,37.0,NC,37015.0,Bertie County,2884.0,16142.0,68007.0,11651.0,15291.0,9709.0,7629.0,13123.0,6538.0,3584.0,301.0,181.0,0.0
580655,County,2020/06/30,37.0,NC,37015.0,Bertie County,2881.0,16145.0,67179.0,12479.0,14037.0,9148.0,9180.0,12946.0,5717.0,2859.0,742.0,71.0,0.0
582257,County,2020/07/01,37.0,NC,37015.0,Bertie County,2841.0,16185.0,66235.0,11625.0,15141.0,7575.0,9314.0,14437.0,4952.0,2471.0,418.0,302.0,0.0
585449,County,2020/07/02,37.0,NC,37015.0,Bertie County,3218.0,15808.0,60697.0,8274.0,12983.0,7331.0,9232.0,12752.0,6518.0,2990.0,515.0,102.0,0.0
588682,County,2020/07/03,37.0,NC,37015.0,Bertie County,3067.0,15959.0,67768.0,11292.0,14687.0,8318.0,9662.0,14851.0,5269.0,3313.0,311.0,65.0,0.0
593426,County,2020/07/04,37.0,NC,37015.0,Bertie County,3874.0,15152.0,57977.0,9661.0,12565.0,7116.0,8266.0,12705.0,4508.0,2835.0,266.0,55.0,0.0
596586,County,2020/07/05,37.0,NC,37015.0,Bertie County,3633.0,15393.0,57705.0,9407.0,12295.0,6047.0,10326.0,11790.0,5033.0,2348.0,370.0,89.0,0.0
597725,County,2020/07/06,37.0,NC,37015.0,Bertie County,3197.0,15829.0,64799.0,10208.0,14918.0,9128.0,7880.0,12359.0,5832.0,3703.0,621.0,150.0,0.0
603433,County,2020/07/07,37.0,NC,37015.0,Bertie County,2983.0,16043.0,59880.0,9766.0,12555.0,8255.0,7137.0,12997.0,5973.0,2525.0,569.0,103.0,0.0
604630,County,2020/07/08,37.0,NC,37015.0,Bertie County,3054.0,15972.0,58652.0,9280.0,13299.0,7591.0,8749.0,12200.0,3988.0,2881.0,448.0,216.0,0.0
607825,County,2020/07/09,37.0,NC,37015.0,Bertie County,2799.0,16227.0,58895.0,9842.0,12783.0,5924.0,8195.0,12786.0,5716.0,2623.0,862.0,164.0,0.0
611025,County,2020/07/10,37.0,NC,37015.0,Bertie County,3129.0,15897.0,65529.0,12302.0,15406.0,7914.0,8054.0,13016.0,4952.0,2542.0,1130.0,213.0,0.0
615773,County,2020/07/11,37.0,NC,37015.0,Bertie County,3350.0,15676.0,59126.0,9873.0,12031.0,7910.0,7313.0,12157.0,5134.0,3888.0,738.0,82.0,0.0
618960,County,2020/07/12,37.0,NC,37015.0,Bertie County,3512.0,15514.0,58725.0,7998.0,11251.0,9247.0,8415.0,11622.0,5303.0,3998.0,447.0,444.0,0.0
622167,County,2020/07/13,37.0,NC,37015.0,Bertie County,3089.0,15937.0,60251.0,9862.0,12883.0,7509.0,8078.0,13350.0,4794.0,3478.0,172.0,125.0,0.0
625361,County,2020/07/14,37.0,NC,37015.0,Bertie County,2895.0,16131.0,62349.0,10388.0,12492.0,6512.0,8316.0,13282.0,8087.0,2812.0,396.0,64.0,0.0
626870,County,2020/07/15,37.0,NC,37015.0,Bertie County,2992.0,16034.0,57809.0,8248.0,12574.0,6358.0,9074.0,12354.0,6048.0,2681.0,371.0,101.0,0.0
631800,County,2020/07/16,37.0,NC,37015.0,Bertie County,2878.0,16148.0,61596.0,9776.0,13770.0,8099.0,8980.0,14000.0,4259.0,2293.0,283.0,136.0,0.0
634895,County,2020/07/17,37.0,NC,37015.0,Bertie County,2667.0,16359.0,68770.0,9652.0,15813.0,9634.0,10379.0,14971.0,5789.0,2047.0,391.0,94.0,0.0
636572,County,2020/07/18,37.0,NC,37015.0,Bertie County,2857.0,16169.0,63462.0,9982.0,12243.0,7629.0,8794.0,12693.0,6740.0,4757.0,521.0,103.0,0.0
639727,County,2020/07/19,37.0,NC,37015.0,Bertie County,3270.0,15756.0,59417.0,9076.0,10931.0,8962.0,8795.0,12530.0,6177.0,2491.0,347.0,108.0,0.0
644509,County,2020/07/20,37.0,NC,37015.0,Bertie County,3017.0,16009.0,67998.0,11854.0,13767.0,7731.0,10144.0,15145.0,5843.0,2900.0,520.0,94.0,0.0
648201,County,2020/07/21,37.0,NC,37015.0,Bertie County,3007.0,16019.0,62128.0,10319.0,13196.0,8357.0,8919.0,13666.0,4553.0,2726.0,299.0,93.0,0.0
648819,County,2020/07/22,37.0,NC,37015.0,Bertie County,3027.0,15999.0,63359.0,10551.0,13703.0,6703.0,9199.0,13417.0,5935.0,3347.0,440.0,64.0,0.0
652456,County,2020/07/23,37.0,NC,37015.0,Bertie County,3255.0,15771.0,61395.0,11000.0,10544.0,7514.0,7724.0,15191.0,6048.0,2661.0,583.0,130.0,0.0
657334,County,2020/07/24,37.0,NC,37015.0,Bertie County,3032.0,15994.0,72213.0,13002.0,15927.0,7472.0,10175.0,15459.0,6505.0,3306.0,304.0,63.0,0.0
660551,County,2020/07/25,37.0,NC,37015.0,Bertie County,3158.0,15868.0,67425.0,11121.0,13780.0,7660.0,11176.0,12693.0,6339.0,4203.0,356.0,97.0,0.0
663631,County,2020/07/26,37.0,NC,37015.0,Bertie County,3529.0,15497.0,62314.0,9123.0,12704.0,7630.0,9412.0,12219.0,7247.0,3509.0,370.0,100.0,0.0
666904,County,2020/07/27,37.0,NC,37015.0,Bertie County,3451.0,15575.0,64171.0,10948.0,11860.0,7579.0,10321.0,13917.0,5945.0,2817.0,529.0,255.0,0.0
668533,County,2020/07/28,37.0,NC,37015.0,Bertie County,2952.0,16074.0,66557.0,10060.0,12381.0,11472.0,9455.0,13530.0,6681.0,2558.0,420.0,0.0,0.0
671689,County,2020/07/29,37.0,NC,37015.0,Bertie County,2917.0,16109.0,65593.0,10942.0,12082.0,8806.0,9537.0,14420.0,5939.0,3517.0,155.0,195.0,0.0
676450,County,2020/07/30,37.0,NC,37015.0,Bertie County,3129.0,15897.0,66419.0,10851.0,11888.0,9139.0,8532.0,16014.0,6514.0,2926.0,470.0,85.0,0.0
679678,County,2020/07/31,37.0,NC,37015.0,Bertie County,3017.0,16009.0,73147.0,11363.0,15147.0,7863.0,10621.0,16457.0,6764.0,4224.0,570.0,138.0,0.0
682799,County,2020/08/01,37.0,NC,37015.0,Bertie County,3361.0,15665.0,72434.0,10400.0,16573.0,9146.0,11813.0,15147.0,5963.0,2925.0,402.0,65.0,0.0
686039,County,2020/08/02,37.0,NC,37015.0,Bertie County,3547.0,15479.0,57184.0,8515.0,11894.0,6256.0,9164.0,11551.0,5259.0,3485.0,898.0,162.0,0.0
689242,County,2020/08/03,37.0,NC,37015.0,Bertie County,3197.0,15829.0,65696.0,12191.0,13237.0,8389.0,8821.0,13184.0,6074.0,2963.0,690.0,147.0,0.0
690870,County,2020/08/04,37.0,NC,37015.0,Bertie County,3486.0,15540.0,63210.0,12970.0,15544.0,8983.0,9906.0,10535.0,3172.0,1570.0,420.0,110.0,0.0
694033,County,2020/08/05,37.0,NC,37015.0,Bertie County,3081.0,15945.0,63690.0,9801.0,12748.0,7569.0,9476.0,14502.0,6371.0,2379.0,703.0,141.0,0.0
697239,County,2020/08/06,37.0,NC,37015.0,Bertie County,3167.0,15859.0,66455.0,9888.0,13739.0,7676.0,10339.0,15010.0,6351.0,3000.0,342.0,110.0,0.0
700451,County,2020/08/07,37.0,NC,37015.0,Bertie County,3116.0,15910.0,64164.0,10034.0,14378.0,8335.0,8307.0,13489.0,6182.0,2538.0,682.0,219.0,0.0
705212,County,2020/08/08,37.0,NC,37015.0,Bertie County,3557.0,15469.0,58462.0,9109.0,10154.0,7650.0,7787.0,13287.0,7105.0,2500.0,639.0,231.0,0.0
706791,County,2020/08/09,37.0,NC,37015.0,Bertie County,3438.0,15588.0,56773.0,8323.0,12700.0,6420.0,7400.0,12603.0,5642.0,2678.0,904.0,103.0,0.0
711600,County,2020/08/10,37.0,NC,37015.0,Bertie County,3409.0,15617.0,61272.0,8138.0,13226.0,7537.0,8535.0,12211.0,7902.0,3259.0,365.0,99.0,0.0
713229,County,2020/08/11,37.0,NC,37015.0,Bertie County,3070.0,15956.0,63323.0,9736.0,12550.0,8535.0,8652.0,15034.0,5256.0,2856.0,584.0,120.0,0.0
717890,County,2020/08/12,37.0,NC,37015.0,Bertie County,3022.0,16004.0,59205.0,7213.0,12366.0,7222.0,9829.0,11575.0,6696.0,3103.0,999.0,202.0,0.0
721134,County,2020/08/13,37.0,NC,37015.0,Bertie County,2897.0,16129.0,63600.0,9218.0,12463.0,8937.0,8320.0,13499.0,7374.0,2703.0,829.0,257.0,0.0
724360,County,2020/08/14,37.0,NC,37015.0,Bertie County,2856.0,16170.0,66257.0,8394.0,14719.0,7561.0,8310.0,14806.0,7125.0,4671.0,525.0,146.0,0.0
727571,County,2020/08/15,37.0,NC,37015.0,Bertie County,3363.0,15663.0,54563.0,6788.0,9505.0,8557.0,6962.0,11968.0,6445.0,3167.0,971.0,200.0,0.0
730763,County,2020/08/16,37.0,NC,37015.0,Bertie County,3609.0,15417.0,54418.0,7842.0,9092.0,7116.0,8973.0,11488.0,5755.0,3110.0,562.0,480.0,0.0
732393,County,2020/08/17,37.0,NC,37015.0,Bertie County,3392.0,15634.0,62031.0,9917.0,11468.0,8372.0,8260.0,14041.0,6405.0,2818.0,475.0,275.0,0.0
737103,County,2020/08/18,37.0,NC,37015.0,Bertie County,3276.0,15750.0,60232.0,8893.0,12552.0,5408.0,7272.0,13760.0,7649.0,3999.0,526.0,173.0,0.0
738764,County,2020/08/19,37.0,NC,37015.0,Bertie County,3151.0,15875.0,63932.0,8954.0,12185.0,7638.0,9211.0,15313.0,6647.0,3188.0,585.0,211.0,0.0
743545,County,2020/08/20,37.0,NC,37015.0,Bertie County,2889.0,16137.0,64530.0,7016.0,15327.0,6381.0,8542.0,15584.0,7360.0,3381.0,803.0,136.0,0.0
745175,County,2020/08/21,37.0,NC,37015.0,Bertie County,2674.0,16352.0,73767.0,11301.0,13806.0,9492.0,10229.0,17602.0,6836.0,3432.0,852.0,217.0,0.0
749907,County,2020/08/22,37.0,NC,37015.0,Bertie County,2870.0,16156.0,62357.0,8460.0,11515.0,8676.0,7186.0,15227.0,6982.0,3466.0,621.0,224.0,0.0
753076,County,2020/08/23,37.0,NC,37015.0,Bertie County,3193.0,15833.0,53711.0,7482.0,11029.0,5992.0,8540.0,11256.0,4674.0,3656.0,901.0,181.0,0.0
754746,County,2020/08/24,37.0,NC,37015.0,Bertie County,3199.0,15827.0,62306.0,9898.0,14033.0,6431.0,9544.0,12868.0,5814.0,3178.0,356.0,184.0,0.0
759507,County,2020/08/25,37.0,NC,37015.0,Bertie County,2893.0,16133.0,55463.0,7994.0,11217.0,7581.0,8156.0,11372.0,5508.0,2968.0,465.0,202.0,0.0
762667,County,2020/08/26,37.0,NC,37015.0,Bertie County,3049.0,15977.0,64505.0,10323.0,12239.0,7169.0,10220.0,13602.0,6793.0,3414.0,573.0,172.0,0.0
765863,County,2020/08/27,37.0,NC,37015.0,Bertie County,3182.0,15844.0,60716.0,8978.0,12642.0,8547.0,8957.0,12097.0,6275.0,2716.0,357.0,147.0,0.0
767503,County,2020/08/28,37.0,NC,37015.0,Bertie County,2839.0,16187.0,62336.0,9365.0,12745.0,6082.0,9744.0,14152.0,6249.0,3388.0,474.0,137.0,0.0
770706,County,2020/08/29,37.0,NC,37015.0,Bertie County,3451.0,15575.0,62838.0,8603.0,15822.0,6502.0,9032.0,11856.0,6046.0,4283.0,403.0,291.0,0.0
773909,County,2020/08/30,37.0,NC,37015.0,Bertie County,3722.0,15304.0,52672.0,5214.0,11511.0,6103.0,8598.0,12417.0,5109.0,3111.0,525.0,84.0,0.0
777094,County,2020/08/31,37.0,NC,37015.0,Bertie County,3067.0,15959.0,68191.0,8645.0,15552.0,8798.0,9946.0,14454.0,6680.0,3251.0,697.0,168.0,0.0
780243,County,2020/09/01,37.0,NC,37015.0,Bertie County,3175.0,15851.0,65737.0,9065.0,13394.0,7786.0,8361.0,15322.0,7263.0,3878.0,490.0,178.0,0.0
785016,County,2020/09/02,37.0,NC,37015.0,Bertie County,3357.0,15669.0,66437.0,11302.0,12145.0,8543.0,10452.0,12964.0,7196.0,3221.0,465.0,149.0,0.0
788227,County,2020/09/03,37.0,NC,37015.0,Bertie County,2813.0,16213.0,73113.0,13320.0,15326.0,7873.0,9518.0,16917.0,6342.0,2819.0,838.0,160.0,0.0
791411,County,2020/09/04,37.0,NC,37015.0,Bertie County,3027.0,15999.0,69004.0,11202.0,16659.0,7086.0,8210.0,16430.0,6013.0,2744.0,551.0,109.0,0.0
792966,County,2020/09/05,37.0,NC,37015.0,Bertie County,3158.0,15868.0,64207.0,6930.0,14372.0,8614.0,8424.0,14486.0,7161.0,3441.0,668.0,111.0,0.0
797809,County,2020/09/06,37.0,NC,37015.0,Bertie County,3426.0,15600.0,58190.0,7416.0,10835.0,7989.0,10365.0,12417.0,4637.0,3662.0,782.0,87.0,0.0
801020,County,2020/09/07,37.0,NC,37015.0,Bertie County,3583.0,15443.0,61436.0,10464.0,12567.0,7397.0,9198.0,11324.0,6686.0,2915.0,617.0,268.0,0.0
802639,County,2020/09/08,37.0,NC,37015.0,Bertie County,3219.0,15807.0,62266.0,8694.0,13659.0,7818.0,7625.0,13829.0,6963.0,3084.0,461.0,133.0,0.0
807419,County,2020/09/09,37.0,NC,37015.0,Bertie County,3389.0,15637.0,63613.0,8904.0,10491.0,9313.0,8765.0,14364.0,7269.0,3804.0,529.0,174.0,0.0
809047,County,2020/09/10,37.0,NC,37015.0,Bertie County,3180.0,15846.0,57605.0,7641.0,11379.0,6324.0,8909.0,13221.0,5285.0,3952.0,704.0,190.0,0.0
813808,County,2020/09/11,37.0,NC,37015.0,Bertie County,2807.0,16219.0,66552.0,10218.0,13021.0,8361.0,8454.0,15881.0,5874.0,3568.0,971.0,204.0,0.0
815389,County,2020/09/12,37.0,NC,37015.0,Bertie County,3081.0,15945.0,58503.0,10737.0,12588.0,6774.0,7493.0,10023.0,6780.0,2942.0,1131.0,35.0,0.0
820186,County,2020/09/13,37.0,NC,37015.0,Bertie County,3844.0,15182.0,65479.0,10033.0,13479.0,6347.0,9163.0,14561.0,7466.0,3495.0,704.0,231.0,0.0
821815,County,2020/09/14,37.0,NC,37015.0,Bertie County,3187.0,15839.0,64370.0,12337.0,12579.0,7215.0,10344.0,12269.0,5574.0,3463.0,446.0,143.0,0.0
826584,County,2020/09/15,37.0,NC,37015.0,Bertie County,3132.0,15894.0,66359.0,10496.0,13509.0,6780.0,8222.0,16492.0,6493.0,3629.0,633.0,105.0,0.0
828212,County,2020/09/16,37.0,NC,37015.0,Bertie County,2881.0,16145.0,70537.0,11566.0,14619.0,7909.0,10618.0,15020.0,5864.0,4060.0,782.0,99.0,0.0
832955,County,2020/09/17,37.0,NC,37015.0,Bertie County,3215.0,15811.0,63985.0,8713.0,11669.0,8062.0,8975.0,15431.0,7109.0,3251.0,570.0,205.0,0.0
834584,County,2020/09/18,37.0,NC,37015.0,Bertie County,3357.0,15669.0,64554.0,10546.0,11501.0,7023.0,8652.0,16800.0,6376.0,3039.0,358.0,259.0,0.0
839359,County,2020/09/19,37.0,NC,37015.0,Bertie County,3538.0,15488.0,70572.0,12227.0,15679.0,9116.0,8827.0,13519.0,5102.0,4976.0,918.0,208.0,0.0
840988,County,2020/09/20,37.0,NC,37015.0,Bertie County,4170.0,14856.0,51359.0,9127.0,9511.0,5670.0,8065.0,10841.0,4026.0,2952.0,887.0,280.0,0.0
844150,County,2020/09/21,37.0,NC,37015.0,Bertie County,3680.0,15346.0,55208.0,9866.0,12586.0,7009.0,7707.0,10347.0,4608.0,2450.0,555.0,80.0,0.0
847354,County,2020/09/22,37.0,NC,37015.0,Bertie County,3493.0,15533.0,62344.0,11109.0,12415.0,7469.0,7682.0,14798.0,4695.0,3534.0,528.0,114.0,0.0
852132,County,2020/09/23,37.0,NC,37015.0,Bertie County,3505.0,15521.0,52835.0,9323.0,9311.0,5058.0,8534.0,11048.0,6290.0,2844.0,354.0,73.0,0.0
853760,County,2020/09/24,37.0,NC,37015.0,Bertie County,3335.0,15691.0,59476.0,7496.0,14200.0,6069.0,8510.0,13788.0,5874.0,2457.0,587.0,495.0,0.0
858524,County,2020/09/25,37.0,NC,37015.0,Bertie County,3344.0,15682.0,60472.0,9073.0,11136.0,5773.0,8544.0,13769.0,7499.0,3812.0,688.0,178.0,0.0
860103,County,2020/09/26,37.0,NC,37015.0,Bertie County,3833.0,15193.0,60661.0,8212.0,12206.0,6981.0,7351.0,13263.0,6691.0,4970.0,772.0,215.0,0.0
864899,County,2020/09/27,37.0,NC,37015.0,Bertie County,4020.0,15006.0,54492.0,7845.0,10073.0,7297.0,7443.0,11641.0,5060.0,4452.0,549.0,132.0,0.0
866528,County,2020/09/28,37.0,NC,37015.0,Bertie County,3429.0,15597.0,52627.0,7652.0,9670.0,6224.0,8462.0,13297.0,3994.0,2594.0,495.0,239.0,0.0
871299,County,2020/09/29,37.0,NC,37015.0,Bertie County,3407.0,15619.0,54914.0,7802.0,9856.0,7484.0,7612.0,14175.0,4347.0,3078.0,491.0,69.0,0.0
872928,County,2020/09/30,37.0,NC,37015.0,Bertie County,3389.0,15637.0,57212.0,8782.0,9585.0,7727.0,7662.0,13317.0,6451.0,3224.0,351.0,113.0,0.0
876093,County,2020/10/01,37.0,NC,37015.0,Bertie County,3415.0,15611.0,63241.0,7801.0,12970.0,7995.0,7819.0,16029.0,6517.0,3387.0,562.0,161.0,0.0
879296,County,2020/10/02,37.0,NC,37015.0,Bertie County,3485.0,15541.0,67402.0,11137.0,11544.0,8810.0,11022.0,14385.0,6153.0,3948.0,321.0,82.0,0.0
882512,County,2020/10/03,37.0,NC,37015.0,Bertie County,3524.0,15502.0,62645.0,8988.0,11658.0,8469.0,9296.0,13526.0,6344.0,3806.0,456.0,102.0,0.0
886568,County,2020/10/04,37.0,NC,37015.0,Bertie County,3483.0,15543.0,58303.0,8540.0,11837.0,7923.0,7142.0,13983.0,5087.0,3294.0,397.0,100.0,0.0
889813,County,2020/10/05,37.0,NC,37015.0,Bertie County,3442.0,15584.0,66444.0,12043.0,12868.0,6095.0,10542.0,13776.0,5598.0,4832.0,531.0,159.0,0.0
892971,County,2020/10/06,37.0,NC,37015.0,Bertie County,3024.0,16002.0,70629.0,12798.0,12094.0,7870.0,11748.0,15099.0,6624.0,4134.0,242.0,20.0,0.0
896169,County,2020/10/07,37.0,NC,37015.0,Bertie County,3153.0,15873.0,66542.0,10147.0,13890.0,6778.0,10089.0,14184.0,6693.0,4088.0,611.0,62.0,0.0
899351,County,2020/10/08,37.0,NC,37015.0,Bertie County,3050.0,15976.0,65621.0,9765.0,12551.0,6675.0,7933.0,14740.0,9284.0,4121.0,512.0,40.0,0.0
902592,County,2020/10/09,37.0,NC,37015.0,Bertie County,2914.0,16112.0,70538.0,11604.0,11978.0,7587.0,11227.0,15404.0,7907.0,4397.0,434.0,0.0,0.0
905774,County,2020/10/10,37.0,NC,37015.0,Bertie County,3508.0,15518.0,66059.0,12895.0,10148.0,7712.0,7919.0,12835.0,7765.0,6289.0,472.0,24.0,0.0
908401,County,2020/10/11,37.0,NC,37015.0,Bertie County,3709.0,15317.0,55698.0,11911.0,9913.0,4289.0,7063.0,14272.0,5282.0,2034.0,803.0,131.0,0.0
911596,County,2020/10/12,37.0,NC,37015.0,Bertie County,3256.0,15770.0,58402.0,9770.0,10117.0,6622.0,8018.0,12208.0,7239.0,3912.0,434.0,82.0,0.0
915115,County,2020/10/13,37.0,NC,37015.0,Bertie County,3582.0,15444.0,62782.0,13251.0,10697.0,5890.0,8580.0,14191.0,6100.0,3317.0,689.0,67.0,0.0
917846,County,2020/10/14,37.0,NC,37015.0,Bertie County,3280.0,15746.0,60686.0,10486.0,9924.0,8058.0,9683.0,12594.0,5706.0,3563.0,612.0,60.0,0.0
920927,County,2020/10/15,37.0,NC,37015.0,Bertie County,3433.0,15593.0,57503.0,9778.0,7746.0,6121.0,8184.0,13577.0,8070.0,3547.0,438.0,42.0,0.0
924319,County,2020/10/16,37.0,NC,37015.0,Bertie County,3259.0,15767.0,57943.0,8320.0,9327.0,5365.0,11732.0,11682.0,6693.0,3972.0,692.0,160.0,0.0
926884,County,2020/10/17,37.0,NC,37015.0,Bertie County,3627.0,15399.0,66928.0,8492.0,18571.0,6856.0,9145.0,12714.0,7049.0,3682.0,393.0,26.0,0.0
930743,County,2020/10/18,37.0,NC,37015.0,Bertie County,3784.0,15242.0,55108.0,7573.0,11514.0,6974.0,7420.0,10029.0,7079.0,4190.0,273.0,56.0,0.0
933804,County,2020/10/19,37.0,NC,37015.0,Bertie County,3292.0,15734.0,66685.0,11862.0,12090.0,7141.0,9572.0,14033.0,6890.0,4064.0,867.0,166.0,0.0
937069,County,2020/10/20,37.0,NC,37015.0,Bertie County,3438.0,15588.0,66281.0,13391.0,10473.0,6526.0,10417.0,14288.0,7102.0,3621.0,367.0,96.0,0.0
939800,County,2020/10/21,37.0,NC,37015.0,Bertie County,3241.0,15785.0,62108.0,11132.0,12646.0,7034.0,7920.0,12913.0,7088.0,2779.0,549.0,47.0,0.0
943313,County,2020/10/22,37.0,NC,37015.0,Bertie County,3294.0,15732.0,65930.0,10468.0,13873.0,7444.0,9972.0,13984.0,6695.0,2872.0,576.0,46.0,0.0
946661,County,2020/10/23,37.0,NC,37015.0,Bertie County,3022.0,16004.0,68343.0,12769.0,11421.0,7845.0,9486.0,14074.0,8144.0,3804.0,626.0,174.0,0.0
950223,County,2020/10/24,37.0,NC,37015.0,Bertie County,3350.0,15676.0,76204.0,13957.0,16134.0,11318.0,9652.0,14729.0,6862.0,2945.0,582.0,25.0,0.0
