,Level,Date,State FIPS,State Postal Code,County FIPS,County Name,Population Staying at Home,Population Not Staying at Home,Number of Trips,Number of Trips <1,Number of Trips 1-3,Number of Trips 3-5,Number of Trips 5-10,Number of Trips 10-25,Number of Trips 25-50,Number of Trips 50-100,Number of Trips 100-250,Number of Trips 250-500,Number of Trips >=500
2138,County,2020/01/01,40.0,OK,40017.0,Canadian County,35405.0,109042.0,365537.0,85503.0,92282.0,35048.0,60391.0,68106.0,14629.0,4754.0,3798.0,735.0,291.0
4887,County,2020/01/02,40.0,OK,40017.0,Canadian County,25521.0,118926.0,460586.0,95411.0,105907.0,42306.0,80736.0,105448.0,19228.0,6220.0,4338.0,733.0,259.0
9306,County,2020/01/03,40.0,OK,40017.0,Canadian County,25152.0,119295.0,480704.0,93691.0,109571.0,46740.0,89464.0,108009.0,20647.0,7182.0,4328.0,852.0,220.0
11632,County,2020/01/04,40.0,OK,40017.0,Canadian County,29482.0,114965.0,446074.0,94550.0,102097.0,44146.0,82911.0,90319.0,18989.0,7053.0,4699.0,1097.0,213.0
14914,County,2020/01/05,40.0,OK,40017.0,Canadian County,34425.0,110022.0,393857.0,85414.0,97980.0,40616.0,73460.0,71947.0,13028.0,5088.0,5185.0,918.0,221.0
17079,County,2020/01/06,40.0,OK,40017.0,Canadian County,27141.0,117306.0,467728.0,100014.0,108809.0,44272.0,79896.0,103074.0,21102.0,5861.0,3785.0,713.0,202.0
20237,County,2020/01/07,40.0,OK,40017.0,Canadian County,25286.0,119161.0,482258.0,103069.0,111743.0,44495.0,82798.0,108255.0,21239.0,6626.0,3017.0,825.0,191.0
24986,County,2020/01/08,40.0,OK,40017.0,Canadian County,26056.0,118391.0,468937.0,100318.0,110498.0,41037.0,79183.0,105975.0,21735.0,5113.0,3950.0,923.0,205.0
26613,County,2020/01/09,40.0,OK,40017.0,Canadian County,25739.0,118708.0,491634.0,108434.0,116131.0,47450.0,84242.0,102326.0,22671.0,5892.0,3485.0,809.0,194.0
31373,County,2020/01/10,40.0,OK,40017.0,Canadian County,24107.0,120340.0,498218.0,109004.0,116908.0,46144.0,84531.0,107005.0,22189.0,7709.0,3938.0,608.0,182.0
34617,County,2020/01/11,40.0,OK,40017.0,Canadian County,33112.0,111335.0,425189.0,95074.0,101107.0,40852.0,73696.0,84710.0,18290.0,6431.0,4197.0,639.0,193.0
36206,County,2020/01/12,40.0,OK,40017.0,Canadian County,32529.0,111918.0,407950.0,85848.0,102717.0,41367.0,73928.0,77516.0,15863.0,5667.0,3947.0,921.0,176.0
40984,County,2020/01/13,40.0,OK,40017.0,Canadian County,27308.0,117139.0,460365.0,102330.0,101780.0,41821.0,79777.0,100882.0,22597.0,6959.0,3316.0,712.0,191.0
42610,County,2020/01/14,40.0,OK,40017.0,Canadian County,25969.0,118478.0,485048.0,105880.0,112038.0,47477.0,79173.0,106844.0,21984.0,6710.0,4014.0,766.0,162.0
45763,County,2020/01/15,40.0,OK,40017.0,Canadian County,25250.0,119197.0,477035.0,104373.0,109833.0,45781.0,80662.0,104098.0,21556.0,6091.0,3757.0,668.0,216.0
50544,County,2020/01/16,40.0,OK,40017.0,Canadian County,25766.0,118681.0,469980.0,105265.0,108779.0,45400.0,77822.0,101320.0,20074.0,5801.0,4368.0,867.0,284.0
52172,County,2020/01/17,40.0,OK,40017.0,Canadian County,25909.0,118538.0,489009.0,104762.0,117076.0,46252.0,82789.0,105394.0,20452.0,5770.0,5316.0,916.0,282.0
55355,County,2020/01/18,40.0,OK,40017.0,Canadian County,29167.0,115280.0,462084.0,95854.0,109954.0,44456.0,82293.0,96934.0,20809.0,6163.0,4685.0,714.0,222.0
60151,County,2020/01/19,40.0,OK,40017.0,Canadian County,31952.0,112495.0,406843.0,87249.0,100277.0,42108.0,73554.0,77225.0,16042.0,4747.0,4457.0,895.0,289.0
63314,County,2020/01/20,40.0,OK,40017.0,Canadian County,28166.0,116281.0,457773.0,103790.0,98632.0,46200.0,75782.0,100131.0,22181.0,6350.0,3758.0,712.0,237.0
66512,County,2020/01/21,40.0,OK,40017.0,Canadian County,26011.0,118436.0,458707.0,98822.0,102898.0,44449.0,75921.0,103013.0,21426.0,6767.0,4336.0,874.0,201.0
68143,County,2020/01/22,40.0,OK,40017.0,Canadian County,26262.0,118185.0,451344.0,90493.0,107239.0,46225.0,75961.0,100460.0,20587.0,5720.0,3613.0,842.0,204.0
72934,County,2020/01/23,40.0,OK,40017.0,Canadian County,25214.0,119233.0,480443.0,101398.0,114343.0,48177.0,77976.0,105029.0,21013.0,7408.0,4195.0,627.0,277.0
76090,County,2020/01/24,40.0,OK,40017.0,Canadian County,25101.0,119346.0,533409.0,123496.0,122138.0,51408.0,88124.0,109545.0,25531.0,7397.0,4787.0,735.0,248.0
77717,County,2020/01/25,40.0,OK,40017.0,Canadian County,28644.0,115803.0,475099.0,101974.0,112022.0,48481.0,81211.0,97613.0,21754.0,6629.0,4373.0,796.0,246.0
81988,County,2020/01/26,40.0,OK,40017.0,Canadian County,31378.0,113069.0,422816.0,89977.0,107176.0,46638.0,73887.0,76239.0,17274.0,6791.0,3761.0,849.0,224.0
85689,County,2020/01/27,40.0,OK,40017.0,Canadian County,26069.0,118378.0,478781.0,104477.0,111501.0,47729.0,76635.0,105781.0,22079.0,6056.0,3527.0,759.0,237.0
87893,County,2020/01/28,40.0,OK,40017.0,Canadian County,26801.0,117646.0,440337.0,94336.0,101019.0,44913.0,72256.0,96672.0,20485.0,5659.0,3859.0,844.0,294.0
90468,County,2020/01/29,40.0,OK,40017.0,Canadian County,26272.0,118175.0,486107.0,107874.0,111681.0,46809.0,81057.0,106698.0,21047.0,6263.0,3659.0,705.0,314.0
93821,County,2020/01/30,40.0,OK,40017.0,Canadian County,25042.0,119405.0,481388.0,101030.0,109767.0,52030.0,79135.0,104783.0,21998.0,6409.0,4827.0,900.0,509.0
96876,County,2020/01/31,40.0,OK,40017.0,Canadian County,23868.0,120579.0,524111.0,111887.0,123761.0,52643.0,89085.0,108810.0,23282.0,7234.0,5726.0,1189.0,494.0
100125,County,2020/02/01,40.0,OK,40017.0,Canadian County,27271.0,117176.0,483613.0,106234.0,111801.0,52418.0,83553.0,93784.0,21762.0,6818.0,5453.0,1297.0,493.0
104836,County,2020/02/02,40.0,OK,40017.0,Canadian County,31032.0,113415.0,427772.0,96421.0,102894.0,52173.0,73306.0,73915.0,16880.0,5816.0,4791.0,1065.0,511.0
106462,County,2020/02/03,40.0,OK,40017.0,Canadian County,24663.0,119784.0,497890.0,109134.0,113610.0,52974.0,82707.0,103751.0,23099.0,6422.0,4599.0,1033.0,561.0
111224,County,2020/02/04,40.0,OK,40017.0,Canadian County,24159.0,120288.0,488016.0,106958.0,113261.0,53510.0,76069.0,101770.0,24181.0,6152.0,4584.0,992.0,539.0
114427,County,2020/02/05,40.0,OK,40017.0,Canadian County,37501.0,106946.0,383137.0,91063.0,100991.0,45215.0,57332.0,64427.0,14006.0,4262.0,4090.0,1127.0,624.0
117634,County,2020/02/06,40.0,OK,40017.0,Canadian County,26320.0,118127.0,465079.0,99196.0,106475.0,49634.0,74424.0,100141.0,22652.0,6371.0,4564.0,1131.0,491.0
119212,County,2020/02/07,40.0,OK,40017.0,Canadian County,22477.0,121970.0,528856.0,112196.0,122390.0,53513.0,87239.0,114442.0,24369.0,8292.0,4675.0,1152.0,588.0
122458,County,2020/02/08,40.0,OK,40017.0,Canadian County,27240.0,117207.0,488542.0,104854.0,116142.0,52905.0,83954.0,97322.0,20987.0,6584.0,4335.0,959.0,500.0
126152,County,2020/02/09,40.0,OK,40017.0,Canadian County,33531.0,110916.0,400872.0,85354.0,97498.0,49593.0,67370.0,72511.0,15922.0,6330.0,4645.0,1059.0,590.0
130447,County,2020/02/10,40.0,OK,40017.0,Canadian County,24268.0,120179.0,523748.0,113121.0,122524.0,55642.0,83917.0,111992.0,22562.0,7365.0,4974.0,922.0,729.0
132505,County,2020/02/11,40.0,OK,40017.0,Canadian County,22646.0,121801.0,515508.0,110703.0,118401.0,53466.0,82932.0,110658.0,24699.0,8010.0,4855.0,1128.0,656.0
136746,County,2020/02/12,40.0,OK,40017.0,Canadian County,24001.0,120446.0,514432.0,102440.0,121040.0,54796.0,82566.0,114822.0,23909.0,7444.0,5320.0,1383.0,712.0
138441,County,2020/02/13,40.0,OK,40017.0,Canadian County,23157.0,121290.0,526872.0,106537.0,123084.0,56501.0,89267.0,110818.0,25163.0,7891.0,5595.0,1322.0,694.0
143171,County,2020/02/14,40.0,OK,40017.0,Canadian County,22365.0,122082.0,577164.0,120016.0,140033.0,62929.0,94895.0,119770.0,24361.0,7637.0,5401.0,1301.0,821.0
146377,County,2020/02/15,40.0,OK,40017.0,Canadian County,27600.0,116847.0,528080.0,110585.0,119211.0,63807.0,92421.0,103011.0,23741.0,8128.0,5294.0,1118.0,764.0
147984,County,2020/02/16,40.0,OK,40017.0,Canadian County,30680.0,113767.0,444914.0,92783.0,108458.0,55065.0,76163.0,80395.0,17586.0,6802.0,5660.0,1224.0,778.0
152746,County,2020/02/17,40.0,OK,40017.0,Canadian County,33839.0,110608.0,425167.0,91184.0,98782.0,45485.0,68848.0,88879.0,18601.0,7169.0,4693.0,754.0,772.0
154323,County,2020/02/18,40.0,OK,40017.0,Canadian County,24430.0,120017.0,508765.0,102289.0,119352.0,54193.0,81717.0,111981.0,24796.0,7490.0,5346.0,908.0,693.0
159133,County,2020/02/19,40.0,OK,40017.0,Canadian County,23374.0,121073.0,523186.0,107963.0,122631.0,54928.0,88780.0,111845.0,21632.0,7749.0,5582.0,1304.0,772.0
162377,County,2020/02/20,40.0,OK,40017.0,Canadian County,24043.0,120404.0,509113.0,104334.0,115528.0,52700.0,84365.0,111447.0,24279.0,8216.0,6471.0,1124.0,649.0
165522,County,2020/02/21,40.0,OK,40017.0,Canadian County,23971.0,120476.0,542786.0,113543.0,121971.0,60087.0,89666.0,115643.0,24462.0,8361.0,6994.0,1366.0,693.0
167100,County,2020/02/22,40.0,OK,40017.0,Canadian County,25125.0,119322.0,516607.0,109669.0,119487.0,60567.0,85873.0,101291.0,23877.0,8161.0,6064.0,1138.0,480.0
171915,County,2020/02/23,40.0,OK,40017.0,Canadian County,31433.0,113014.0,409916.0,77178.0,102179.0,49174.0,73398.0,77848.0,16665.0,6286.0,5617.0,1259.0,312.0
173541,County,2020/02/24,40.0,OK,40017.0,Canadian County,24630.0,119817.0,507372.0,102601.0,121913.0,52742.0,86709.0,107637.0,23679.0,6839.0,4185.0,781.0,286.0
177809,County,2020/02/25,40.0,OK,40017.0,Canadian County,22987.0,121460.0,526754.0,108916.0,121091.0,52483.0,89670.0,114899.0,26375.0,7417.0,4742.0,814.0,347.0
181002,County,2020/02/26,40.0,OK,40017.0,Canadian County,26397.0,118050.0,448359.0,78412.0,114811.0,51484.0,79836.0,92068.0,19249.0,6944.0,4399.0,894.0,262.0
182517,County,2020/02/27,40.0,OK,40017.0,Canadian County,22913.0,121534.0,546233.0,117327.0,129669.0,53735.0,89442.0,116531.0,25241.0,8099.0,4944.0,1048.0,197.0
187928,County,2020/02/28,40.0,OK,40017.0,Canadian County,22132.0,122315.0,572166.0,120194.0,131521.0,57426.0,95636.0,124219.0,27456.0,8678.0,5793.0,1056.0,187.0
191074,County,2020/02/29,40.0,OK,40017.0,Canadian County,24838.0,119609.0,539606.0,115646.0,129976.0,54782.0,92341.0,106179.0,26687.0,7904.0,4905.0,898.0,288.0
194292,County,2020/03/01,40.0,OK,40017.0,Canadian County,28113.0,116334.0,448049.0,94317.0,117134.0,48864.0,77600.0,79365.0,17565.0,6771.0,5075.0,1147.0,211.0
195921,County,2020/03/02,40.0,OK,40017.0,Canadian County,24560.0,119887.0,503441.0,105224.0,122045.0,50448.0,79461.0,111389.0,22350.0,7506.0,3621.0,1131.0,266.0
200723,County,2020/03/03,40.0,OK,40017.0,Canadian County,23106.0,121341.0,526238.0,116602.0,121074.0,54001.0,81720.0,114757.0,24641.0,7720.0,4581.0,895.0,247.0
203859,County,2020/03/04,40.0,OK,40017.0,Canadian County,24157.0,120290.0,515389.0,112195.0,118928.0,50165.0,85673.0,108876.0,24892.0,8128.0,5101.0,1159.0,272.0
207063,County,2020/03/05,40.0,OK,40017.0,Canadian County,22585.0,121862.0,522430.0,110140.0,123814.0,50885.0,87151.0,111275.0,24462.0,8299.0,5163.0,1029.0,212.0
210277,County,2020/03/06,40.0,OK,40017.0,Canadian County,23174.0,121273.0,554442.0,122868.0,126616.0,53460.0,93013.0,113494.0,27789.0,10001.0,6087.0,871.0,243.0
211895,County,2020/03/07,40.0,OK,40017.0,Canadian County,25648.0,118799.0,496617.0,106954.0,119981.0,50885.0,80221.0,99468.0,23458.0,7964.0,6122.0,1331.0,233.0
216621,County,2020/03/08,40.0,OK,40017.0,Canadian County,30029.0,114418.0,427868.0,92636.0,111046.0,45978.0,72303.0,74696.0,17023.0,7256.0,5372.0,1242.0,316.0
218263,County,2020/03/09,40.0,OK,40017.0,Canadian County,24505.0,119942.0,495533.0,104628.0,118484.0,48897.0,80583.0,105049.0,24059.0,8342.0,4623.0,657.0,211.0
221497,County,2020/03/10,40.0,OK,40017.0,Canadian County,24283.0,120164.0,511029.0,110723.0,122560.0,50684.0,81714.0,109012.0,23458.0,7331.0,4443.0,910.0,194.0
226242,County,2020/03/11,40.0,OK,40017.0,Canadian County,27477.0,116970.0,514107.0,118245.0,120404.0,51475.0,79401.0,101333.0,23087.0,10535.0,7836.0,1207.0,584.0
229383,County,2020/03/12,40.0,OK,40017.0,Canadian County,28158.0,116289.0,490239.0,99244.0,121976.0,50240.0,81114.0,93672.0,24147.0,9308.0,8210.0,1663.0,665.0
231030,County,2020/03/13,40.0,OK,40017.0,Canadian County,27785.0,116662.0,549514.0,153468.0,121529.0,50796.0,81560.0,99325.0,22576.0,9331.0,8014.0,2510.0,405.0
235706,County,2020/03/14,40.0,OK,40017.0,Canadian County,34078.0,110369.0,426172.0,88435.0,111957.0,44273.0,68373.0,78074.0,19654.0,5611.0,7578.0,1796.0,421.0
238983,County,2020/03/15,40.0,OK,40017.0,Canadian County,36669.0,107778.0,374492.0,81042.0,97199.0,40165.0,63425.0,65934.0,13083.0,6522.0,5635.0,1282.0,205.0
242177,County,2020/03/16,40.0,OK,40017.0,Canadian County,29573.0,114874.0,455184.0,92642.0,101410.0,48358.0,75295.0,98306.0,23413.0,9263.0,5149.0,1122.0,226.0
243842,County,2020/03/17,40.0,OK,40017.0,Canadian County,32659.0,111788.0,428724.0,85048.0,97410.0,44519.0,72976.0,92916.0,21628.0,8194.0,4964.0,858.0,211.0
246997,County,2020/03/18,40.0,OK,40017.0,Canadian County,34436.0,110011.0,429153.0,92934.0,97578.0,45579.0,70320.0,88180.0,20780.0,6998.0,5371.0,1218.0,195.0
250252,County,2020/03/19,40.0,OK,40017.0,Canadian County,36480.0,107967.0,404982.0,83596.0,99051.0,41131.0,64470.0,83664.0,18629.0,8013.0,5008.0,1216.0,204.0
254954,County,2020/03/20,40.0,OK,40017.0,Canadian County,37570.0,106877.0,408540.0,84672.0,96865.0,43523.0,66745.0,83283.0,20034.0,7540.0,4553.0,1063.0,262.0
258146,County,2020/03/21,40.0,OK,40017.0,Canadian County,43688.0,100759.0,369664.0,81689.0,97926.0,42702.0,56069.0,63525.0,14378.0,7414.0,4400.0,1405.0,156.0
259767,County,2020/03/22,40.0,OK,40017.0,Canadian County,44021.0,100426.0,286627.0,64897.0,76988.0,32894.0,42981.0,46657.0,10673.0,5818.0,4344.0,1215.0,160.0
264546,County,2020/03/23,40.0,OK,40017.0,Canadian County,34906.0,109541.0,361850.0,80526.0,83041.0,36280.0,58602.0,73715.0,18609.0,6494.0,3631.0,781.0,171.0
266172,County,2020/03/24,40.0,OK,40017.0,Canadian County,35950.0,108497.0,369956.0,79886.0,85934.0,37270.0,53738.0,82069.0,19436.0,6566.0,3912.0,978.0,167.0
270924,County,2020/03/25,40.0,OK,40017.0,Canadian County,35290.0,109157.0,372159.0,83773.0,87874.0,36924.0,53842.0,77711.0,19595.0,6750.0,4623.0,887.0,180.0
272550,County,2020/03/26,40.0,OK,40017.0,Canadian County,35995.0,108452.0,368349.0,83440.0,88343.0,36667.0,55310.0,72954.0,19458.0,7324.0,3860.0,809.0,184.0
277313,County,2020/03/27,40.0,OK,40017.0,Canadian County,36234.0,108213.0,370421.0,89944.0,89074.0,36788.0,54676.0,71461.0,16767.0,6578.0,4156.0,878.0,99.0
278940,County,2020/03/28,40.0,OK,40017.0,Canadian County,40414.0,104033.0,341171.0,80167.0,88567.0,41757.0,51085.0,52952.0,15917.0,5896.0,3903.0,756.0,171.0
283700,County,2020/03/29,40.0,OK,40017.0,Canadian County,44540.0,99907.0,307146.0,75967.0,83509.0,34169.0,44958.0,46079.0,11053.0,5561.0,4677.0,1006.0,167.0
286925,County,2020/03/30,40.0,OK,40017.0,Canadian County,36947.0,107500.0,336602.0,70157.0,76103.0,35272.0,54990.0,70362.0,18103.0,6228.0,4428.0,720.0,239.0
288523,County,2020/03/31,40.0,OK,40017.0,Canadian County,37577.0,106870.0,353166.0,82700.0,82289.0,36646.0,53320.0,69850.0,16514.0,6325.0,4550.0,795.0,177.0
291758,County,2020/04/01,40.0,OK,40017.0,Canadian County,36977.0,107470.0,355847.0,77562.0,77882.0,39345.0,59779.0,72206.0,16598.0,6985.0,4380.0,947.0,163.0
296491,County,2020/04/02,40.0,OK,40017.0,Canadian County,37196.0,107251.0,344912.0,75870.0,78944.0,35421.0,52907.0,69553.0,19906.0,6499.0,4776.0,816.0,220.0
299669,County,2020/04/03,40.0,OK,40017.0,Canadian County,38662.0,105785.0,333996.0,72287.0,85314.0,33393.0,49673.0,64386.0,17117.0,5935.0,4995.0,752.0,144.0
301296,County,2020/04/04,40.0,OK,40017.0,Canadian County,42847.0,101600.0,296228.0,57683.0,81851.0,36050.0,48358.0,50484.0,12018.0,5080.0,3593.0,925.0,186.0
306050,County,2020/04/05,40.0,OK,40017.0,Canadian County,45324.0,99123.0,289859.0,63388.0,80564.0,36555.0,42033.0,44696.0,13633.0,4426.0,3440.0,955.0,169.0
309251,County,2020/04/06,40.0,OK,40017.0,Canadian County,39157.0,105290.0,355711.0,82382.0,84180.0,36697.0,54553.0,69898.0,18248.0,5699.0,3596.0,380.0,78.0
312491,County,2020/04/07,40.0,OK,40017.0,Canadian County,37574.0,106873.0,379476.0,86010.0,87958.0,39610.0,59965.0,74744.0,20154.0,6936.0,3414.0,586.0,99.0
315664,County,2020/04/08,40.0,OK,40017.0,Canadian County,37094.0,107353.0,370790.0,82937.0,87287.0,41305.0,57189.0,70439.0,19860.0,6631.0,4264.0,759.0,119.0
318832,County,2020/04/09,40.0,OK,40017.0,Canadian County,38348.0,106099.0,353916.0,78993.0,81459.0,38088.0,54774.0,71325.0,18005.0,6860.0,3587.0,724.0,101.0
322028,County,2020/04/10,40.0,OK,40017.0,Canadian County,36555.0,107892.0,385620.0,89303.0,92648.0,39956.0,63914.0,69684.0,19154.0,6150.0,4004.0,694.0,113.0
323703,County,2020/04/11,40.0,OK,40017.0,Canadian County,39842.0,104605.0,341992.0,80548.0,90236.0,40637.0,53370.0,54870.0,12579.0,5393.0,3523.0,686.0,150.0
326848,County,2020/04/12,40.0,OK,40017.0,Canadian County,49673.0,94774.0,237769.0,50230.0,68461.0,25461.0,37740.0,37683.0,9954.0,3770.0,3733.0,663.0,74.0
330113,County,2020/04/13,40.0,OK,40017.0,Canadian County,40595.0,103852.0,349211.0,70490.0,88884.0,37718.0,53586.0,71814.0,17072.0,5777.0,3464.0,326.0,80.0
334785,County,2020/04/14,40.0,OK,40017.0,Canadian County,41311.0,103136.0,331780.0,71009.0,88311.0,34320.0,49788.0,59926.0,16199.0,6042.0,4895.0,1099.0,191.0
336462,County,2020/04/15,40.0,OK,40017.0,Canadian County,39793.0,104654.0,359931.0,88091.0,94852.0,34300.0,48747.0,65139.0,15975.0,6839.0,4292.0,1389.0,307.0
339616,County,2020/04/16,40.0,OK,40017.0,Canadian County,41262.0,103185.0,348508.0,83771.0,97525.0,31433.0,49049.0,58233.0,15663.0,6281.0,5300.0,1062.0,191.0
342916,County,2020/04/17,40.0,OK,40017.0,Canadian County,37443.0,107004.0,335647.0,86946.0,87419.0,27292.0,47373.0,59934.0,13608.0,6063.0,5249.0,1472.0,291.0
346022,County,2020/04/18,40.0,OK,40017.0,Canadian County,42340.0,102107.0,347925.0,82213.0,97660.0,34812.0,53474.0,54178.0,15162.0,4805.0,4504.0,846.0,271.0
350774,County,2020/04/19,40.0,OK,40017.0,Canadian County,44171.0,100276.0,285564.0,72243.0,90046.0,32782.0,35077.0,34255.0,10863.0,4600.0,4247.0,1184.0,267.0
352400,County,2020/04/20,40.0,OK,40017.0,Canadian County,37785.0,106662.0,356548.0,81980.0,84555.0,36484.0,54043.0,66393.0,18759.0,8018.0,4402.0,1685.0,229.0
355594,County,2020/04/21,40.0,OK,40017.0,Canadian County,35777.0,108670.0,377011.0,84417.0,89218.0,40833.0,60274.0,72163.0,18179.0,7116.0,3982.0,666.0,163.0
360364,County,2020/04/22,40.0,OK,40017.0,Canadian County,37413.0,107034.0,341120.0,69260.0,81883.0,33658.0,51725.0,74433.0,18708.0,6649.0,3826.0,842.0,136.0
363570,County,2020/04/23,40.0,OK,40017.0,Canadian County,33794.0,110653.0,393310.0,88845.0,93929.0,41900.0,60801.0,75595.0,18850.0,7897.0,4567.0,762.0,164.0
366782,County,2020/04/24,40.0,OK,40017.0,Canadian County,34256.0,110191.0,397118.0,88043.0,104213.0,42600.0,58245.0,73547.0,17281.0,7428.0,4771.0,788.0,202.0
369938,County,2020/04/25,40.0,OK,40017.0,Canadian County,35315.0,109132.0,387686.0,88266.0,108915.0,43113.0,60919.0,59235.0,14747.0,6995.0,4532.0,870.0,94.0
373132,County,2020/04/26,40.0,OK,40017.0,Canadian County,39731.0,104716.0,349010.0,82870.0,100427.0,34849.0,50907.0,54155.0,13831.0,7061.0,4192.0,611.0,107.0
376364,County,2020/04/27,40.0,OK,40017.0,Canadian County,35336.0,109111.0,383911.0,76742.0,94120.0,36721.0,62836.0,82316.0,19803.0,6382.0,4181.0,683.0,127.0
379535,County,2020/04/28,40.0,OK,40017.0,Canadian County,34394.0,110053.0,378492.0,82336.0,93994.0,38630.0,60660.0,75656.0,17433.0,5777.0,3085.0,808.0,113.0
382738,County,2020/04/29,40.0,OK,40017.0,Canadian County,32569.0,111878.0,422082.0,90914.0,102313.0,46340.0,63326.0,85349.0,22667.0,5997.0,4062.0,923.0,191.0
384309,County,2020/04/30,40.0,OK,40017.0,Canadian County,31413.0,113034.0,419766.0,85052.0,103363.0,45883.0,69005.0,83384.0,20414.0,6622.0,4860.0,988.0,195.0
387582,County,2020/05/01,40.0,OK,40017.0,Canadian County,29925.0,114522.0,430851.0,94537.0,104080.0,45955.0,68429.0,83740.0,22268.0,6390.0,4436.0,906.0,110.0
390716,County,2020/05/02,40.0,OK,40017.0,Canadian County,33149.0,111298.0,397066.0,88903.0,108090.0,46030.0,62713.0,62257.0,16064.0,7569.0,4340.0,929.0,171.0
395490,County,2020/05/03,40.0,OK,40017.0,Canadian County,38635.0,105812.0,348123.0,78488.0,94595.0,40931.0,57425.0,50932.0,13957.0,5900.0,4869.0,882.0,144.0
397140,County,2020/05/04,40.0,OK,40017.0,Canadian County,31929.0,112518.0,405775.0,86574.0,100545.0,44606.0,65753.0,80344.0,18175.0,5521.0,3647.0,511.0,99.0
401859,County,2020/05/05,40.0,OK,40017.0,Canadian County,31561.0,112886.0,424456.0,90584.0,100534.0,43906.0,71119.0,84793.0,22819.0,6447.0,3376.0,786.0,92.0
403489,County,2020/05/06,40.0,OK,40017.0,Canadian County,32846.0,111601.0,430195.0,99058.0,106830.0,43920.0,67010.0,82373.0,20284.0,5993.0,3687.0,897.0,143.0
408209,County,2020/05/07,40.0,OK,40017.0,Canadian County,32454.0,111993.0,411041.0,93488.0,97843.0,42838.0,61834.0,83388.0,19896.0,6173.0,4728.0,758.0,95.0
411471,County,2020/05/08,40.0,OK,40017.0,Canadian County,32204.0,112243.0,422165.0,86668.0,104351.0,42828.0,69146.0,86004.0,20102.0,6917.0,5226.0,786.0,137.0
413051,County,2020/05/09,40.0,OK,40017.0,Canadian County,32904.0,111543.0,418602.0,97394.0,108362.0,42560.0,67730.0,72590.0,17984.0,7050.0,3916.0,881.0,135.0
416280,County,2020/05/10,40.0,OK,40017.0,Canadian County,37446.0,107001.0,355286.0,77468.0,94801.0,42344.0,59207.0,56272.0,13243.0,6721.0,4435.0,685.0,110.0
419523,County,2020/05/11,40.0,OK,40017.0,Canadian County,28650.0,115797.0,434167.0,98084.0,102103.0,43504.0,69319.0,89422.0,20992.0,6100.0,3750.0,772.0,121.0
424283,County,2020/05/12,40.0,OK,40017.0,Canadian County,28751.0,115696.0,433457.0,94194.0,99107.0,44035.0,71456.0,89946.0,22555.0,6608.0,4415.0,987.0,154.0
425765,County,2020/05/13,40.0,OK,40017.0,Canadian County,29918.0,114529.0,406799.0,92410.0,95787.0,38042.0,67875.0,78238.0,20564.0,7142.0,5155.0,1328.0,258.0
429106,County,2020/05/14,40.0,OK,40017.0,Canadian County,29429.0,115018.0,429959.0,97739.0,101591.0,42172.0,66740.0,86684.0,21497.0,7187.0,4923.0,1238.0,188.0
432252,County,2020/05/15,40.0,OK,40017.0,Canadian County,28101.0,116346.0,426325.0,97678.0,102036.0,38822.0,67222.0,84690.0,21500.0,7769.0,5377.0,895.0,336.0
437001,County,2020/05/16,40.0,OK,40017.0,Canadian County,30421.0,114026.0,418227.0,98022.0,108371.0,41361.0,70687.0,69720.0,17519.0,6844.0,4487.0,897.0,319.0
440160,County,2020/05/17,40.0,OK,40017.0,Canadian County,28770.0,115677.0,425396.0,98139.0,111856.0,44809.0,69398.0,67864.0,19918.0,7080.0,5260.0,948.0,124.0
443449,County,2020/05/18,40.0,OK,40017.0,Canadian County,23279.0,121168.0,490023.0,108304.0,113914.0,50263.0,79851.0,100022.0,23733.0,8778.0,4054.0,1014.0,90.0
446612,County,2020/05/19,40.0,OK,40017.0,Canadian County,23914.0,120533.0,498778.0,106006.0,117805.0,52175.0,81080.0,101612.0,25265.0,9036.0,4756.0,915.0,128.0
449788,County,2020/05/20,40.0,OK,40017.0,Canadian County,23878.0,120569.0,483502.0,118091.0,111500.0,44333.0,72562.0,94967.0,26972.0,8649.0,5334.0,938.0,156.0
452678,County,2020/05/21,40.0,OK,40017.0,Canadian County,23099.0,121348.0,494739.0,113513.0,110968.0,49120.0,78620.0,99258.0,26998.0,8845.0,6010.0,1252.0,155.0
454601,County,2020/05/22,40.0,OK,40017.0,Canadian County,21848.0,122599.0,503583.0,113624.0,121258.0,50269.0,84141.0,90986.0,24623.0,10067.0,7254.0,1238.0,123.0
457797,County,2020/05/23,40.0,OK,40017.0,Canadian County,26307.0,118140.0,465566.0,110753.0,120693.0,53099.0,68741.0,76299.0,19600.0,10052.0,5237.0,801.0,291.0
462589,County,2020/05/24,40.0,OK,40017.0,Canadian County,32459.0,111988.0,388922.0,103256.0,93587.0,36692.0,62743.0,61506.0,17114.0,7299.0,5199.0,1030.0,496.0
465842,County,2020/05/25,40.0,OK,40017.0,Canadian County,34469.0,109978.0,325747.0,69499.0,84536.0,33662.0,54348.0,55360.0,14468.0,6045.0,6247.0,975.0,607.0
468950,County,2020/05/26,40.0,OK,40017.0,Canadian County,28663.0,115784.0,409558.0,86474.0,99789.0,39756.0,67222.0,84631.0,20041.0,6298.0,3939.0,714.0,694.0
472190,County,2020/05/27,40.0,OK,40017.0,Canadian County,27213.0,117234.0,441155.0,96938.0,100486.0,43257.0,74873.0,91385.0,21578.0,7020.0,4195.0,1040.0,383.0
473724,County,2020/05/28,40.0,OK,40017.0,Canadian County,27777.0,116670.0,424074.0,94836.0,97978.0,39495.0,67368.0,90884.0,19870.0,7713.0,4566.0,1223.0,141.0
478528,County,2020/05/29,40.0,OK,40017.0,Canadian County,33128.0,111319.0,429145.0,94478.0,106427.0,38211.0,71319.0,85382.0,20673.0,6494.0,4911.0,1120.0,130.0
481728,County,2020/05/30,40.0,OK,40017.0,Canadian County,31551.0,112896.0,447127.0,108856.0,112743.0,45171.0,70082.0,78360.0,19088.0,7082.0,4744.0,883.0,118.0
483284,County,2020/05/31,40.0,OK,40017.0,Canadian County,32412.0,112035.0,390581.0,90604.0,103861.0,39310.0,63439.0,63053.0,16954.0,6851.0,4944.0,1366.0,199.0
486550,County,2020/06/01,40.0,OK,40017.0,Canadian County,27015.0,117432.0,417431.0,93177.0,103235.0,40005.0,63261.0,85354.0,19369.0,7183.0,4644.0,1003.0,200.0
489791,County,2020/06/02,40.0,OK,40017.0,Canadian County,29595.0,114852.0,417792.0,98961.0,95715.0,41020.0,63462.0,83548.0,20685.0,7339.0,5566.0,1220.0,276.0
494503,County,2020/06/03,40.0,OK,40017.0,Canadian County,25315.0,119132.0,470452.0,106458.0,109868.0,46648.0,75251.0,94259.0,23532.0,7498.0,5544.0,1113.0,281.0
496122,County,2020/06/04,40.0,OK,40017.0,Canadian County,26175.0,118272.0,440990.0,96102.0,104634.0,42530.0,69828.0,90325.0,21120.0,8482.0,6276.0,1417.0,276.0
500898,County,2020/06/05,40.0,OK,40017.0,Canadian County,25838.0,118609.0,461967.0,102282.0,111224.0,45790.0,72347.0,90809.0,23600.0,7625.0,6675.0,1272.0,343.0
504099,County,2020/06/06,40.0,OK,40017.0,Canadian County,31383.0,113064.0,431693.0,108868.0,110538.0,41159.0,63797.0,75254.0,19362.0,6505.0,4994.0,980.0,236.0
507249,County,2020/06/07,40.0,OK,40017.0,Canadian County,32395.0,112052.0,377600.0,84211.0,96405.0,42309.0,65149.0,61194.0,15891.0,6108.0,4783.0,1145.0,405.0
508887,County,2020/06/08,40.0,OK,40017.0,Canadian County,24075.0,120372.0,470385.0,99088.0,111999.0,47808.0,80455.0,95751.0,22563.0,6597.0,4881.0,971.0,272.0
513665,County,2020/06/09,40.0,OK,40017.0,Canadian County,28804.0,115643.0,421182.0,91147.0,95878.0,40785.0,67454.0,91580.0,21107.0,7210.0,4476.0,1257.0,288.0
515295,County,2020/06/10,40.0,OK,40017.0,Canadian County,27484.0,116963.0,433431.0,91924.0,104071.0,43182.0,70949.0,89877.0,19061.0,6974.0,5721.0,1260.0,412.0
518499,County,2020/06/11,40.0,OK,40017.0,Canadian County,26523.0,117924.0,460180.0,98660.0,107316.0,45882.0,78760.0,95001.0,20525.0,7949.0,4635.0,1200.0,252.0
521701,County,2020/06/12,40.0,OK,40017.0,Canadian County,27015.0,117432.0,457570.0,103157.0,106433.0,44007.0,75649.0,90942.0,21781.0,8282.0,5978.0,1086.0,255.0
526437,County,2020/06/13,40.0,OK,40017.0,Canadian County,29113.0,115334.0,466012.0,116549.0,114379.0,45545.0,75589.0,80279.0,19804.0,7409.0,4942.0,1317.0,199.0
529641,County,2020/06/14,40.0,OK,40017.0,Canadian County,32082.0,112365.0,361221.0,80395.0,91459.0,39507.0,61063.0,59821.0,15413.0,5849.0,5858.0,1581.0,275.0
531270,County,2020/06/15,40.0,OK,40017.0,Canadian County,30109.0,114338.0,410579.0,95047.0,94247.0,40040.0,64960.0,81446.0,20246.0,7992.0,5148.0,1200.0,253.0
536051,County,2020/06/16,40.0,OK,40017.0,Canadian County,28713.0,115734.0,429204.0,101131.0,98312.0,40548.0,67415.0,86664.0,20156.0,8396.0,5260.0,1067.0,255.0
537653,County,2020/06/17,40.0,OK,40017.0,Canadian County,27817.0,116630.0,448954.0,102869.0,105074.0,42084.0,72678.0,88959.0,22707.0,7996.0,5067.0,1179.0,341.0
542414,County,2020/06/18,40.0,OK,40017.0,Canadian County,27429.0,117018.0,439141.0,102192.0,101006.0,45570.0,67800.0,87283.0,21075.0,6880.0,5831.0,1222.0,282.0
544041,County,2020/06/19,40.0,OK,40017.0,Canadian County,27932.0,116515.0,387793.0,83182.0,88891.0,41805.0,63378.0,77191.0,18344.0,7589.0,5930.0,1178.0,305.0
547246,County,2020/06/20,40.0,OK,40017.0,Canadian County,30767.0,113680.0,381577.0,83878.0,94731.0,43020.0,61340.0,68940.0,16678.0,7110.0,4553.0,1127.0,200.0
551989,County,2020/06/21,40.0,OK,40017.0,Canadian County,34623.0,109824.0,330346.0,68108.0,81639.0,38962.0,55451.0,57964.0,14691.0,6933.0,5230.0,1064.0,304.0
553625,County,2020/06/22,40.0,OK,40017.0,Canadian County,29024.0,115423.0,385428.0,84248.0,87772.0,37218.0,63876.0,80428.0,18957.0,6796.0,4697.0,1110.0,326.0
558385,County,2020/06/23,40.0,OK,40017.0,Canadian County,28592.0,115855.0,422408.0,96224.0,93858.0,44745.0,68902.0,87740.0,17788.0,6708.0,4821.0,1373.0,249.0
560016,County,2020/06/24,40.0,OK,40017.0,Canadian County,29808.0,114639.0,397604.0,87900.0,98165.0,38923.0,64915.0,77654.0,16951.0,6965.0,4650.0,1246.0,235.0
564753,County,2020/06/25,40.0,OK,40017.0,Canadian County,28991.0,115456.0,416025.0,92301.0,99043.0,42078.0,67559.0,82595.0,18403.0,7767.0,4796.0,1181.0,302.0
566459,County,2020/06/26,40.0,OK,40017.0,Canadian County,28796.0,115651.0,407093.0,88907.0,98871.0,39038.0,66118.0,80123.0,18444.0,8057.0,6098.0,1267.0,170.0
569581,County,2020/06/27,40.0,OK,40017.0,Canadian County,30057.0,114390.0,421585.0,94162.0,109199.0,44718.0,71943.0,70293.0,18215.0,7187.0,4726.0,934.0,208.0
572778,County,2020/06/28,40.0,OK,40017.0,Canadian County,32676.0,111771.0,356195.0,75656.0,91037.0,38697.0,57402.0,61300.0,18186.0,6829.0,5787.0,1122.0,179.0
577556,County,2020/06/29,40.0,OK,40017.0,Canadian County,32580.0,111867.0,371283.0,75651.0,90986.0,38453.0,58587.0,74077.0,21519.0,6059.0,4375.0,1288.0,288.0
579198,County,2020/06/30,40.0,OK,40017.0,Canadian County,31435.0,113012.0,370768.0,78060.0,89766.0,35624.0,59057.0,76149.0,18662.0,6803.0,4968.0,1360.0,319.0
583942,County,2020/07/01,40.0,OK,40017.0,Canadian County,29468.0,114979.0,373987.0,79846.0,87484.0,37619.0,57085.0,78014.0,18811.0,8288.0,4953.0,1462.0,425.0
587136,County,2020/07/02,40.0,OK,40017.0,Canadian County,33836.0,110611.0,441572.0,97969.0,105125.0,44662.0,71707.0,87667.0,19533.0,8244.0,5090.0,1254.0,321.0
588776,County,2020/07/03,40.0,OK,40017.0,Canadian County,37368.0,107079.0,404801.0,88406.0,98314.0,38818.0,65746.0,79672.0,18340.0,8012.0,6064.0,1260.0,169.0
591984,County,2020/07/04,40.0,OK,40017.0,Canadian County,41391.0,103056.0,346317.0,75634.0,84110.0,33210.0,56247.0,68161.0,15690.0,6854.0,5188.0,1078.0,145.0
595169,County,2020/07/05,40.0,OK,40017.0,Canadian County,35466.0,108981.0,324665.0,74463.0,80378.0,36741.0,52965.0,51661.0,14470.0,6652.0,5843.0,1219.0,273.0
597820,County,2020/07/06,40.0,OK,40017.0,Canadian County,32509.0,111938.0,349617.0,75639.0,81146.0,37637.0,53783.0,71317.0,17001.0,6970.0,4687.0,1080.0,357.0
603577,County,2020/07/07,40.0,OK,40017.0,Canadian County,31804.0,112643.0,381380.0,86074.0,88981.0,38613.0,60715.0,74109.0,18971.0,7240.0,5202.0,1092.0,383.0
604725,County,2020/07/08,40.0,OK,40017.0,Canadian County,30804.0,113643.0,380239.0,85938.0,88727.0,35877.0,61953.0,73326.0,18781.0,8266.0,5604.0,1415.0,352.0
609497,County,2020/07/09,40.0,OK,40017.0,Canadian County,31089.0,113358.0,393408.0,89022.0,90697.0,40486.0,60042.0,81095.0,18623.0,6940.0,4928.0,1245.0,330.0
612702,County,2020/07/10,40.0,OK,40017.0,Canadian County,30598.0,113849.0,374284.0,78058.0,91804.0,36624.0,57729.0,76842.0,18303.0,7496.0,6007.0,1079.0,342.0
614331,County,2020/07/11,40.0,OK,40017.0,Canadian County,33811.0,110636.0,374558.0,88056.0,92127.0,40167.0,63612.0,63435.0,15217.0,5790.0,4381.0,1465.0,308.0
617502,County,2020/07/12,40.0,OK,40017.0,Canadian County,37140.0,107307.0,325641.0,71288.0,86884.0,35560.0,52904.0,51521.0,14544.0,5489.0,5453.0,1623.0,375.0
620692,County,2020/07/13,40.0,OK,40017.0,Canadian County,33582.0,110865.0,344127.0,75141.0,78586.0,33778.0,54931.0,71086.0,18385.0,5892.0,4665.0,1362.0,301.0
623892,County,2020/07/14,40.0,OK,40017.0,Canadian County,32658.0,111789.0,379231.0,84012.0,87497.0,38949.0,61793.0,75271.0,18508.0,6966.0,4908.0,1108.0,219.0
628629,County,2020/07/15,40.0,OK,40017.0,Canadian County,32137.0,112310.0,378538.0,83480.0,88161.0,38237.0,60707.0,76097.0,19493.0,6265.0,4606.0,1201.0,291.0
630255,County,2020/07/16,40.0,OK,40017.0,Canadian County,31917.0,112530.0,385304.0,85157.0,88221.0,38995.0,61255.0,80037.0,19395.0,6179.0,4614.0,1161.0,290.0
633462,County,2020/07/17,40.0,OK,40017.0,Canadian County,33783.0,110664.0,367756.0,78486.0,85380.0,36042.0,59222.0,74017.0,20761.0,6499.0,5986.0,1053.0,310.0
638242,County,2020/07/18,40.0,OK,40017.0,Canadian County,36403.0,108044.0,354197.0,77684.0,88762.0,35375.0,58311.0,63085.0,18558.0,5898.0,5078.0,1035.0,411.0
641445,County,2020/07/19,40.0,OK,40017.0,Canadian County,38024.0,106423.0,306738.0,66057.0,82533.0,33262.0,46986.0,50884.0,13421.0,6477.0,5273.0,1328.0,517.0
643056,County,2020/07/20,40.0,OK,40017.0,Canadian County,34707.0,109740.0,367236.0,77595.0,86496.0,36634.0,59226.0,78898.0,16537.0,6044.0,4646.0,852.0,308.0
648296,County,2020/07/21,40.0,OK,40017.0,Canadian County,31901.0,112546.0,381751.0,78606.0,89328.0,34982.0,65093.0,80445.0,20215.0,7021.0,4613.0,1121.0,327.0
651009,County,2020/07/22,40.0,OK,40017.0,Canadian County,31480.0,112967.0,391819.0,83257.0,89947.0,37869.0,63538.0,81864.0,21799.0,6996.0,5247.0,999.0,303.0
654204,County,2020/07/23,40.0,OK,40017.0,Canadian County,32404.0,112043.0,385221.0,82696.0,87479.0,38428.0,63587.0,79766.0,19782.0,6826.0,5073.0,1249.0,335.0
655674,County,2020/07/24,40.0,OK,40017.0,Canadian County,30354.0,114093.0,420331.0,93747.0,94642.0,43099.0,66795.0,85957.0,21842.0,7704.0,5054.0,1200.0,291.0
659020,County,2020/07/25,40.0,OK,40017.0,Canadian County,35229.0,109218.0,371105.0,82279.0,92787.0,35227.0,59490.0,68810.0,19112.0,7344.0,4673.0,1156.0,227.0
662220,County,2020/07/26,40.0,OK,40017.0,Canadian County,36035.0,108412.0,365488.0,78104.0,90054.0,39507.0,59607.0,63007.0,19367.0,8289.0,6025.0,1214.0,314.0
665515,County,2020/07/27,40.0,OK,40017.0,Canadian County,33361.0,111086.0,383299.0,80585.0,86480.0,36973.0,64189.0,80982.0,20463.0,7537.0,4337.0,1353.0,400.0
668677,County,2020/07/28,40.0,OK,40017.0,Canadian County,32389.0,112058.0,391291.0,76204.0,89767.0,39349.0,66383.0,82358.0,22268.0,8481.0,5009.0,1090.0,382.0
673465,County,2020/07/29,40.0,OK,40017.0,Canadian County,33811.0,110636.0,383984.0,76615.0,91939.0,36712.0,63051.0,82115.0,18412.0,8894.0,4712.0,1130.0,404.0
674996,County,2020/07/30,40.0,OK,40017.0,Canadian County,30015.0,114432.0,413886.0,86515.0,94306.0,41634.0,68763.0,86343.0,19694.0,8689.0,6106.0,1459.0,377.0
678197,County,2020/07/31,40.0,OK,40017.0,Canadian County,33652.0,110795.0,389750.0,79703.0,89227.0,38852.0,61999.0,82333.0,20741.0,8302.0,6661.0,1480.0,452.0
681354,County,2020/08/01,40.0,OK,40017.0,Canadian County,37389.0,107058.0,365055.0,79787.0,89057.0,38937.0,58744.0,66107.0,16821.0,8393.0,5471.0,1352.0,386.0
684577,County,2020/08/02,40.0,OK,40017.0,Canadian County,36865.0,107582.0,342896.0,72807.0,82116.0,33496.0,59108.0,61126.0,18001.0,7435.0,6834.0,1566.0,407.0
687774,County,2020/08/03,40.0,OK,40017.0,Canadian County,33432.0,111015.0,395274.0,83294.0,91684.0,37912.0,65159.0,83794.0,20844.0,5893.0,5106.0,1242.0,346.0
692549,County,2020/08/04,40.0,OK,40017.0,Canadian County,28358.0,116089.0,426643.0,91549.0,98834.0,41512.0,72517.0,88867.0,20095.0,7239.0,4722.0,1062.0,246.0
695725,County,2020/08/05,40.0,OK,40017.0,Canadian County,30566.0,113881.0,398801.0,84979.0,90830.0,40699.0,66908.0,82666.0,20695.0,6284.0,4194.0,1202.0,344.0
698920,County,2020/08/06,40.0,OK,40017.0,Canadian County,28538.0,115909.0,422224.0,89528.0,98298.0,40644.0,70816.0,90016.0,19642.0,6513.0,5457.0,979.0,331.0
702116,County,2020/08/07,40.0,OK,40017.0,Canadian County,28922.0,115525.0,417479.0,87687.0,94035.0,40247.0,72862.0,87113.0,20133.0,9521.0,4612.0,987.0,282.0
703745,County,2020/08/08,40.0,OK,40017.0,Canadian County,30711.0,113736.0,418412.0,94941.0,102411.0,41668.0,66540.0,80344.0,18523.0,7789.0,4919.0,1005.0,272.0
708526,County,2020/08/09,40.0,OK,40017.0,Canadian County,35989.0,108458.0,368427.0,77093.0,91751.0,38359.0,63112.0,68558.0,15398.0,6274.0,6268.0,1208.0,406.0
710156,County,2020/08/10,40.0,OK,40017.0,Canadian County,32741.0,111706.0,394371.0,82243.0,92259.0,39203.0,64666.0,83471.0,20281.0,6088.0,4937.0,874.0,349.0
713373,County,2020/08/11,40.0,OK,40017.0,Canadian County,31804.0,112643.0,416105.0,84655.0,99221.0,41065.0,69932.0,86283.0,21503.0,6992.0,4989.0,1214.0,251.0
716519,County,2020/08/12,40.0,OK,40017.0,Canadian County,31783.0,112664.0,404675.0,80566.0,97833.0,40492.0,66666.0,85208.0,20283.0,6648.0,5119.0,1319.0,541.0
721278,County,2020/08/13,40.0,OK,40017.0,Canadian County,28277.0,116170.0,469660.0,114651.0,105988.0,46006.0,76778.0,90912.0,20118.0,7932.0,5414.0,1110.0,751.0
722905,County,2020/08/14,40.0,OK,40017.0,Canadian County,27006.0,117441.0,465378.0,101694.0,104630.0,45415.0,75876.0,97527.0,23566.0,7943.0,6731.0,1332.0,664.0
726136,County,2020/08/15,40.0,OK,40017.0,Canadian County,30592.0,113855.0,422997.0,91617.0,99185.0,45783.0,74602.0,77402.0,19962.0,7046.0,5755.0,1039.0,606.0
729295,County,2020/08/16,40.0,OK,40017.0,Canadian County,35223.0,109224.0,386402.0,78086.0,90561.0,40870.0,68141.0,74660.0,16881.0,7834.0,7286.0,1177.0,906.0
734075,County,2020/08/17,40.0,OK,40017.0,Canadian County,32367.0,112080.0,427927.0,91102.0,98420.0,41356.0,69956.0,87770.0,23355.0,7502.0,6095.0,1401.0,970.0
737247,County,2020/08/18,40.0,OK,40017.0,Canadian County,33239.0,111208.0,391664.0,76661.0,87350.0,39825.0,65803.0,83420.0,20157.0,8786.0,6936.0,1610.0,1116.0
740442,County,2020/08/19,40.0,OK,40017.0,Canadian County,31669.0,112778.0,434859.0,88057.0,98442.0,43555.0,71936.0,93975.0,23010.0,7621.0,5667.0,1607.0,989.0
742071,County,2020/08/20,40.0,OK,40017.0,Canadian County,29522.0,114925.0,440348.0,90430.0,96753.0,46521.0,73418.0,95538.0,21377.0,7548.0,6342.0,1387.0,1034.0
746846,County,2020/08/21,40.0,OK,40017.0,Canadian County,27431.0,117016.0,470999.0,95452.0,113061.0,48317.0,78798.0,95234.0,23681.0,8034.0,5854.0,1573.0,995.0
748475,County,2020/08/22,40.0,OK,40017.0,Canadian County,32035.0,112412.0,440940.0,94828.0,108190.0,47152.0,68576.0,82637.0,21751.0,8169.0,7519.0,1216.0,902.0
751668,County,2020/08/23,40.0,OK,40017.0,Canadian County,36785.0,107662.0,340683.0,67270.0,84035.0,37979.0,59964.0,61656.0,15569.0,6693.0,5587.0,1022.0,908.0
756412,County,2020/08/24,40.0,OK,40017.0,Canadian County,35280.0,109167.0,378248.0,82238.0,87755.0,39319.0,64221.0,74382.0,18275.0,5679.0,4446.0,1042.0,891.0
758041,County,2020/08/25,40.0,OK,40017.0,Canadian County,31318.0,113129.0,410488.0,85171.0,93198.0,42246.0,70633.0,85699.0,20341.0,6581.0,4815.0,1004.0,800.0
761234,County,2020/08/26,40.0,OK,40017.0,Canadian County,31814.0,112633.0,396046.0,82821.0,90699.0,42094.0,66654.0,81492.0,19897.0,6092.0,4718.0,849.0,730.0
766007,County,2020/08/27,40.0,OK,40017.0,Canadian County,32349.0,112098.0,408386.0,81869.0,96258.0,41637.0,69018.0,85149.0,20918.0,6781.0,5214.0,1180.0,362.0
769174,County,2020/08/28,40.0,OK,40017.0,Canadian County,31449.0,112998.0,424805.0,86362.0,100636.0,42581.0,74047.0,85080.0,20769.0,7739.0,6206.0,1026.0,359.0
772375,County,2020/08/29,40.0,OK,40017.0,Canadian County,34659.0,109788.0,413201.0,89597.0,98515.0,45538.0,69181.0,77086.0,19202.0,7529.0,5264.0,915.0,374.0
774053,County,2020/08/30,40.0,OK,40017.0,Canadian County,39831.0,104616.0,334953.0,66739.0,80407.0,33544.0,60776.0,61812.0,17774.0,5834.0,6302.0,1363.0,402.0
778776,County,2020/08/31,40.0,OK,40017.0,Canadian County,35038.0,109409.0,369570.0,80695.0,85798.0,35539.0,58308.0,76902.0,19193.0,6120.0,5194.0,1340.0,481.0
780387,County,2020/09/01,40.0,OK,40017.0,Canadian County,33160.0,111287.0,394196.0,87002.0,89955.0,40225.0,64384.0,80468.0,19290.0,6344.0,4844.0,1288.0,396.0
784415,County,2020/09/02,40.0,OK,40017.0,Canadian County,33263.0,111184.0,393556.0,84179.0,87981.0,42678.0,64390.0,80663.0,20646.0,6961.0,4466.0,1269.0,323.0
788371,County,2020/09/03,40.0,OK,40017.0,Canadian County,29832.0,114615.0,450606.0,96847.0,105051.0,45740.0,73571.0,91052.0,21784.0,8801.0,6114.0,1204.0,442.0
791554,County,2020/09/04,40.0,OK,40017.0,Canadian County,34387.0,110060.0,430384.0,90585.0,104171.0,42073.0,70528.0,84893.0,21852.0,7440.0,6994.0,1477.0,371.0
794748,County,2020/09/05,40.0,OK,40017.0,Canadian County,33798.0,110649.0,431560.0,93904.0,103486.0,46344.0,71446.0,80707.0,20671.0,7558.0,6064.0,1094.0,286.0
796346,County,2020/09/06,40.0,OK,40017.0,Canadian County,39346.0,105101.0,357653.0,80288.0,89943.0,39138.0,56424.0,60098.0,15711.0,7190.0,7198.0,1267.0,396.0
799560,County,2020/09/07,40.0,OK,40017.0,Canadian County,41056.0,103391.0,316897.0,68170.0,75337.0,35142.0,50516.0,55290.0,15492.0,7236.0,7513.0,1740.0,461.0
804322,County,2020/09/08,40.0,OK,40017.0,Canadian County,34531.0,109916.0,490804.0,155421.0,103934.0,39515.0,66627.0,88141.0,22156.0,7658.0,5888.0,1133.0,331.0
805951,County,2020/09/09,40.0,OK,40017.0,Canadian County,33797.0,110650.0,388101.0,73718.0,85866.0,37173.0,64689.0,90511.0,20846.0,6814.0,6488.0,1530.0,466.0
810719,County,2020/09/10,40.0,OK,40017.0,Canadian County,34355.0,110092.0,389744.0,76709.0,89110.0,39661.0,65691.0,83263.0,20404.0,6720.0,6366.0,1434.0,386.0
812348,County,2020/09/11,40.0,OK,40017.0,Canadian County,32386.0,112061.0,438802.0,85226.0,98905.0,41787.0,79181.0,95362.0,22816.0,7285.0,6660.0,1184.0,396.0
817098,County,2020/09/12,40.0,OK,40017.0,Canadian County,36916.0,107531.0,393499.0,78310.0,94235.0,45290.0,66664.0,74973.0,17505.0,8844.0,5977.0,1247.0,454.0
818705,County,2020/09/13,40.0,OK,40017.0,Canadian County,41165.0,103282.0,332515.0,62574.0,85009.0,37054.0,57709.0,59434.0,15902.0,7759.0,5478.0,1115.0,481.0
823487,County,2020/09/14,40.0,OK,40017.0,Canadian County,33607.0,110840.0,416272.0,84745.0,101580.0,42761.0,70141.0,81979.0,20090.0,8086.0,5283.0,1189.0,418.0
826728,County,2020/09/15,40.0,OK,40017.0,Canadian County,33114.0,111333.0,422827.0,87221.0,93320.0,42454.0,69731.0,93331.0,21926.0,8146.0,5050.0,1266.0,382.0
828356,County,2020/09/16,40.0,OK,40017.0,Canadian County,33597.0,110850.0,422004.0,85390.0,99700.0,41240.0,70160.0,91236.0,20473.0,7147.0,4927.0,1442.0,289.0
831501,County,2020/09/17,40.0,OK,40017.0,Canadian County,32083.0,112364.0,433756.0,89721.0,103391.0,44674.0,71293.0,88847.0,19901.0,8138.0,6182.0,1295.0,314.0
836262,County,2020/09/18,40.0,OK,40017.0,Canadian County,31335.0,113112.0,459179.0,94323.0,103373.0,47305.0,75286.0,97431.0,24545.0,9147.0,5951.0,1447.0,371.0
837891,County,2020/09/19,40.0,OK,40017.0,Canadian County,35339.0,109108.0,428353.0,87939.0,101480.0,49814.0,70709.0,78961.0,23372.0,8550.0,5849.0,1343.0,336.0
842666,County,2020/09/20,40.0,OK,40017.0,Canadian County,36437.0,108010.0,359835.0,74930.0,85345.0,39690.0,64932.0,65552.0,16945.0,5837.0,5380.0,911.0,313.0
845870,County,2020/09/21,40.0,OK,40017.0,Canadian County,36882.0,107565.0,353739.0,78060.0,84849.0,36776.0,53843.0,71008.0,18594.0,5219.0,4051.0,1080.0,259.0
849038,County,2020/09/22,40.0,OK,40017.0,Canadian County,31662.0,112785.0,382921.0,82625.0,88171.0,35380.0,63673.0,79973.0,20221.0,7189.0,4289.0,1112.0,288.0
850666,County,2020/09/23,40.0,OK,40017.0,Canadian County,29130.0,115317.0,408504.0,84489.0,98817.0,39273.0,67163.0,85617.0,21038.0,6649.0,4125.0,1086.0,247.0
855432,County,2020/09/24,40.0,OK,40017.0,Canadian County,27641.0,116806.0,424271.0,89130.0,98486.0,41963.0,70527.0,90959.0,20819.0,6837.0,4130.0,1110.0,310.0
857061,County,2020/09/25,40.0,OK,40017.0,Canadian County,27179.0,117268.0,449385.0,96826.0,102511.0,44455.0,75369.0,94601.0,21278.0,8120.0,4910.0,1027.0,288.0
861814,County,2020/09/26,40.0,OK,40017.0,Canadian County,32821.0,111626.0,410818.0,86352.0,97289.0,44306.0,68776.0,80237.0,19772.0,7871.0,5065.0,871.0,279.0
863419,County,2020/09/27,40.0,OK,40017.0,Canadian County,34757.0,109690.0,354913.0,70667.0,89616.0,37465.0,59735.0,65719.0,17531.0,6348.0,6155.0,1361.0,316.0
868202,County,2020/09/28,40.0,OK,40017.0,Canadian County,30170.0,114277.0,439961.0,108636.0,101911.0,42714.0,70239.0,83995.0,20395.0,6891.0,3876.0,1081.0,223.0
869830,County,2020/09/29,40.0,OK,40017.0,Canadian County,31339.0,113108.0,428204.0,94196.0,101137.0,42237.0,69043.0,88362.0,21416.0,6943.0,3722.0,999.0,149.0
874609,County,2020/09/30,40.0,OK,40017.0,Canadian County,34603.0,109844.0,493619.0,160708.0,101979.0,40716.0,66547.0,89163.0,21458.0,7660.0,4313.0,928.0,147.0
877763,County,2020/10/01,40.0,OK,40017.0,Canadian County,30386.0,114061.0,429854.0,98815.0,99414.0,41568.0,68328.0,86391.0,22572.0,7452.0,4150.0,1001.0,163.0
880978,County,2020/10/02,40.0,OK,40017.0,Canadian County,30923.0,113524.0,467077.0,127806.0,102608.0,42644.0,72659.0,86518.0,21331.0,7420.0,5073.0,866.0,152.0
884173,County,2020/10/03,40.0,OK,40017.0,Canadian County,34448.0,109999.0,399613.0,81312.0,92435.0,43637.0,69269.0,80245.0,19984.0,7539.0,4231.0,812.0,149.0
886825,County,2020/10/04,40.0,OK,40017.0,Canadian County,34998.0,109449.0,360116.0,73033.0,89861.0,36691.0,59449.0,67388.0,19817.0,7129.0,5411.0,1135.0,202.0
890561,County,2020/10/05,40.0,OK,40017.0,Canadian County,38492.0,105955.0,365481.0,74229.0,87772.0,36826.0,61232.0,74813.0,19250.0,6377.0,4139.0,738.0,105.0
893223,County,2020/10/06,40.0,OK,40017.0,Canadian County,33018.0,111429.0,413916.0,89210.0,94751.0,38675.0,69372.0,85839.0,22667.0,8641.0,3954.0,718.0,89.0
896439,County,2020/10/07,40.0,OK,40017.0,Canadian County,30511.0,113936.0,421188.0,86567.0,99326.0,41951.0,69336.0,89703.0,21521.0,7788.0,4138.0,741.0,117.0
899617,County,2020/10/08,40.0,OK,40017.0,Canadian County,32596.0,111851.0,395184.0,80296.0,92998.0,39704.0,61900.0,85808.0,21934.0,7663.0,4049.0,708.0,124.0
902804,County,2020/10/09,40.0,OK,40017.0,Canadian County,34259.0,110188.0,413336.0,88439.0,94746.0,39997.0,68850.0,86522.0,20142.0,8079.0,5460.0,987.0,114.0
905918,County,2020/10/10,40.0,OK,40017.0,Canadian County,39065.0,105382.0,385639.0,70812.0,102993.0,41356.0,63291.0,72584.0,21203.0,7703.0,4937.0,662.0,98.0
908270,County,2020/10/11,40.0,OK,40017.0,Canadian County,39202.0,105245.0,335246.0,67134.0,85029.0,39671.0,56042.0,58665.0,15639.0,7106.0,5002.0,869.0,89.0
911286,County,2020/10/12,40.0,OK,40017.0,Canadian County,35727.0,108720.0,401500.0,88026.0,98195.0,40450.0,62167.0,80024.0,20457.0,7424.0,4004.0,687.0,66.0
914865,County,2020/10/13,40.0,OK,40017.0,Canadian County,32899.0,111548.0,404041.0,82290.0,98996.0,42829.0,64760.0,81473.0,21421.0,7123.0,4301.0,721.0,127.0
917662,County,2020/10/14,40.0,OK,40017.0,Canadian County,30826.0,113621.0,419916.0,91057.0,97475.0,42397.0,67984.0,86109.0,21953.0,7170.0,4591.0,1039.0,141.0
921685,County,2020/10/15,40.0,OK,40017.0,Canadian County,35838.0,108609.0,376330.0,73980.0,88394.0,39167.0,61765.0,78778.0,20373.0,7674.0,4958.0,1089.0,152.0
924117,County,2020/10/16,40.0,OK,40017.0,Canadian County,31449.0,112998.0,412176.0,84731.0,90809.0,42664.0,67906.0,87334.0,22789.0,9763.0,5209.0,819.0,152.0
927680,County,2020/10/17,40.0,OK,40017.0,Canadian County,35864.0,108583.0,391458.0,77514.0,100696.0,41396.0,68780.0,69158.0,19697.0,8002.0,5469.0,632.0,114.0
930468,County,2020/10/18,40.0,OK,40017.0,Canadian County,38837.0,105610.0,308035.0,59055.0,74421.0,34118.0,52422.0,56413.0,15419.0,7478.0,7469.0,1075.0,165.0
934047,County,2020/10/19,40.0,OK,40017.0,Canadian County,33750.0,110697.0,376796.0,76462.0,87433.0,36535.0,64147.0,80759.0,18274.0,7320.0,5035.0,682.0,149.0
936817,County,2020/10/20,40.0,OK,40017.0,Canadian County,33875.0,110572.0,375669.0,73137.0,92376.0,39037.0,62968.0,77581.0,17822.0,6379.0,5281.0,950.0,138.0
940101,County,2020/10/21,40.0,OK,40017.0,Canadian County,36575.0,107872.0,372842.0,84312.0,85132.0,33492.0,61596.0,77207.0,18245.0,6944.0,4789.0,986.0,139.0
943024,County,2020/10/22,40.0,OK,40017.0,Canadian County,32250.0,112197.0,424341.0,87519.0,104114.0,46558.0,69823.0,82300.0,20234.0,8207.0,4488.0,947.0,151.0
946875,County,2020/10/23,40.0,OK,40017.0,Canadian County,31073.0,113374.0,467170.0,97014.0,115729.0,49021.0,77604.0,92014.0,21028.0,8852.0,5036.0,742.0,130.0
949584,County,2020/10/24,40.0,OK,40017.0,Canadian County,34436.0,110011.0,436454.0,93278.0,112234.0,44614.0,72273.0,80799.0,19954.0,7727.0,4698.0,771.0,106.0
