,Level,Date,State FIPS,State Postal Code,County FIPS,County Name,Population Staying at Home,Population Not Staying at Home,Number of Trips,Number of Trips <1,Number of Trips 1-3,Number of Trips 3-5,Number of Trips 5-10,Number of Trips 10-25,Number of Trips 25-50,Number of Trips 50-100,Number of Trips 100-250,Number of Trips 250-500,Number of Trips >=500
2680,County,2020/01/01,48.0,TX,48317.0,Martin County,1295.0,4458.0,16016.0,3888.0,3016.0,1145.0,2138.0,2483.0,2235.0,627.0,376.0,89.0,19.0
4345,County,2020/01/02,48.0,TX,48317.0,Martin County,1000.0,4753.0,17779.0,4233.0,3685.0,1139.0,2149.0,3177.0,2373.0,481.0,396.0,103.0,43.0
9008,County,2020/01/03,48.0,TX,48317.0,Martin County,1096.0,4657.0,19798.0,4367.0,4416.0,1461.0,2555.0,3333.0,2710.0,476.0,362.0,95.0,23.0
10444,County,2020/01/04,48.0,TX,48317.0,Martin County,1177.0,4576.0,18270.0,4044.0,3631.0,1334.0,2226.0,3441.0,2487.0,618.0,382.0,75.0,32.0
15456,County,2020/01/05,48.0,TX,48317.0,Martin County,1268.0,4485.0,18296.0,4062.0,3837.0,1318.0,2691.0,3005.0,2295.0,688.0,264.0,110.0,26.0
18894,County,2020/01/06,48.0,TX,48317.0,Martin County,1039.0,4714.0,20436.0,4780.0,3901.0,1369.0,2542.0,3730.0,2910.0,695.0,409.0,77.0,23.0
22089,County,2020/01/07,48.0,TX,48317.0,Martin County,1059.0,4694.0,19769.0,5371.0,3739.0,1464.0,1977.0,3377.0,2817.0,536.0,344.0,111.0,33.0
23764,County,2020/01/08,48.0,TX,48317.0,Martin County,1080.0,4673.0,19788.0,5389.0,4255.0,1404.0,1955.0,2946.0,2747.0,545.0,388.0,107.0,52.0
28464,County,2020/01/09,48.0,TX,48317.0,Martin County,1073.0,4680.0,20693.0,4669.0,4949.0,1142.0,2290.0,3309.0,3192.0,669.0,331.0,100.0,42.0
31671,County,2020/01/10,48.0,TX,48317.0,Martin County,1071.0,4682.0,21685.0,5846.0,4451.0,1715.0,2338.0,3348.0,3047.0,521.0,285.0,119.0,15.0
33348,County,2020/01/11,48.0,TX,48317.0,Martin County,1139.0,4614.0,19026.0,4539.0,3827.0,1655.0,2520.0,2983.0,2489.0,557.0,348.0,81.0,27.0
36504,County,2020/01/12,48.0,TX,48317.0,Martin County,1301.0,4452.0,18561.0,4629.0,3476.0,1460.0,2310.0,2722.0,2955.0,547.0,342.0,90.0,30.0
39697,County,2020/01/13,48.0,TX,48317.0,Martin County,1116.0,4637.0,20245.0,5606.0,3657.0,1526.0,1964.0,3465.0,3097.0,503.0,297.0,93.0,37.0
44430,County,2020/01/14,48.0,TX,48317.0,Martin County,1122.0,4631.0,21255.0,5802.0,4137.0,1268.0,2338.0,3695.0,3000.0,534.0,334.0,111.0,36.0
47636,County,2020/01/15,48.0,TX,48317.0,Martin County,1002.0,4751.0,17849.0,4928.0,3388.0,1014.0,1934.0,2951.0,2780.0,421.0,294.0,111.0,28.0
49165,County,2020/01/16,48.0,TX,48317.0,Martin County,1059.0,4694.0,17447.0,4065.0,3190.0,1027.0,2091.0,3378.0,2802.0,436.0,282.0,112.0,64.0
52420,County,2020/01/17,48.0,TX,48317.0,Martin County,1063.0,4690.0,19616.0,4407.0,4053.0,1532.0,2534.0,3348.0,2813.0,484.0,343.0,74.0,28.0
57201,County,2020/01/18,48.0,TX,48317.0,Martin County,1153.0,4600.0,19091.0,3855.0,4164.0,1327.0,2199.0,3180.0,3320.0,640.0,271.0,88.0,47.0
60399,County,2020/01/19,48.0,TX,48317.0,Martin County,1290.0,4463.0,17115.0,3693.0,3336.0,1005.0,2547.0,2728.0,2921.0,481.0,303.0,69.0,32.0
62033,County,2020/01/20,48.0,TX,48317.0,Martin County,1152.0,4601.0,17587.0,3743.0,3148.0,1340.0,1926.0,3392.0,3109.0,562.0,278.0,79.0,10.0
65239,County,2020/01/21,48.0,TX,48317.0,Martin County,1070.0,4683.0,18604.0,3880.0,3294.0,1321.0,2254.0,3833.0,3013.0,592.0,300.0,85.0,32.0
69999,County,2020/01/22,48.0,TX,48317.0,Martin County,1017.0,4736.0,20468.0,4632.0,3990.0,1678.0,2581.0,3757.0,2755.0,643.0,308.0,95.0,29.0
73182,County,2020/01/23,48.0,TX,48317.0,Martin County,1004.0,4749.0,19757.0,4559.0,3799.0,1442.0,2412.0,3464.0,2945.0,608.0,401.0,103.0,24.0
74772,County,2020/01/24,48.0,TX,48317.0,Martin County,1118.0,4635.0,21005.0,5104.0,4183.0,1337.0,2745.0,3672.0,2840.0,637.0,398.0,64.0,25.0
78014,County,2020/01/25,48.0,TX,48317.0,Martin County,1099.0,4654.0,19359.0,4664.0,3803.0,1135.0,2344.0,2768.0,3461.0,709.0,391.0,53.0,31.0
82530,County,2020/01/26,48.0,TX,48317.0,Martin County,1123.0,4630.0,17012.0,3797.0,3559.0,1301.0,2231.0,2471.0,2486.0,625.0,422.0,104.0,16.0
83306,County,2020/01/27,48.0,TX,48317.0,Martin County,1106.0,4647.0,19791.0,4981.0,4434.0,1506.0,2227.0,3269.0,2224.0,639.0,346.0,133.0,32.0
88142,County,2020/01/28,48.0,TX,48317.0,Martin County,1010.0,4743.0,19953.0,5265.0,3828.0,1392.0,2441.0,3490.0,2496.0,535.0,378.0,80.0,48.0
90765,County,2020/01/29,48.0,TX,48317.0,Martin County,1148.0,4605.0,20221.0,5540.0,4032.0,1542.0,2302.0,3013.0,2669.0,667.0,298.0,104.0,54.0
95550,County,2020/01/30,48.0,TX,48317.0,Martin County,1030.0,4723.0,19244.0,4314.0,3970.0,1639.0,2172.0,3555.0,2474.0,554.0,408.0,109.0,49.0
98744,County,2020/01/31,48.0,TX,48317.0,Martin County,1041.0,4712.0,20857.0,4754.0,4308.0,1570.0,2283.0,3765.0,3110.0,500.0,370.0,129.0,68.0
101932,County,2020/02/01,48.0,TX,48317.0,Martin County,1122.0,4631.0,20718.0,4930.0,3878.0,1296.0,2107.0,3965.0,3373.0,652.0,372.0,82.0,63.0
103501,County,2020/02/02,48.0,TX,48317.0,Martin County,1162.0,4591.0,18174.0,3722.0,4171.0,1271.0,1925.0,3432.0,2734.0,415.0,315.0,152.0,37.0
108337,County,2020/02/03,48.0,TX,48317.0,Martin County,973.0,4780.0,20883.0,4916.0,4300.0,1487.0,2454.0,3442.0,3227.0,635.0,280.0,116.0,26.0
109954,County,2020/02/04,48.0,TX,48317.0,Martin County,791.0,4962.0,20248.0,4729.0,4185.0,1660.0,2099.0,3604.0,2949.0,495.0,329.0,148.0,50.0
113100,County,2020/02/05,48.0,TX,48317.0,Martin County,1462.0,4291.0,18219.0,5061.0,4535.0,1581.0,2215.0,2689.0,1526.0,229.0,190.0,134.0,59.0
117882,County,2020/02/06,48.0,TX,48317.0,Martin County,1101.0,4652.0,19822.0,5356.0,4269.0,1315.0,2361.0,3366.0,2310.0,483.0,256.0,94.0,12.0
121137,County,2020/02/07,48.0,TX,48317.0,Martin County,898.0,4855.0,23612.0,6355.0,4658.0,1586.0,2633.0,3831.0,3354.0,663.0,431.0,85.0,16.0
122755,County,2020/02/08,48.0,TX,48317.0,Martin County,930.0,4823.0,21577.0,4662.0,4531.0,1592.0,2683.0,3506.0,3467.0,710.0,309.0,89.0,28.0
126696,County,2020/02/09,48.0,TX,48317.0,Martin County,1174.0,4579.0,18470.0,4281.0,3321.0,1264.0,2160.0,3240.0,3193.0,616.0,297.0,68.0,30.0
127846,County,2020/02/10,48.0,TX,48317.0,Martin County,864.0,4889.0,22469.0,5725.0,3828.0,1451.0,2789.0,3747.0,3639.0,800.0,347.0,104.0,39.0
133405,County,2020/02/11,48.0,TX,48317.0,Martin County,863.0,4890.0,22592.0,5589.0,4301.0,1200.0,2569.0,4036.0,3655.0,785.0,310.0,114.0,33.0
137044,County,2020/02/12,48.0,TX,48317.0,Martin County,890.0,4863.0,22761.0,5090.0,5401.0,1296.0,2188.0,4212.0,3319.0,750.0,293.0,171.0,41.0
140266,County,2020/02/13,48.0,TX,48317.0,Martin County,939.0,4814.0,23027.0,5638.0,4999.0,1477.0,2441.0,3731.0,3360.0,797.0,431.0,128.0,25.0
143469,County,2020/02/14,48.0,TX,48317.0,Martin County,989.0,4764.0,23898.0,5669.0,4851.0,1879.0,3062.0,3606.0,3412.0,710.0,517.0,154.0,38.0
145093,County,2020/02/15,48.0,TX,48317.0,Martin County,1005.0,4748.0,22869.0,4941.0,4624.0,1646.0,2801.0,3786.0,3677.0,913.0,388.0,80.0,13.0
149827,County,2020/02/16,48.0,TX,48317.0,Martin County,1066.0,4687.0,20319.0,4466.0,4057.0,1505.0,2408.0,3370.0,3066.0,839.0,439.0,133.0,36.0
151458,County,2020/02/17,48.0,TX,48317.0,Martin County,1265.0,4488.0,19103.0,5017.0,3730.0,1240.0,2420.0,2923.0,2609.0,643.0,402.0,104.0,15.0
156237,County,2020/02/18,48.0,TX,48317.0,Martin County,945.0,4808.0,21701.0,5718.0,3949.0,1435.0,2559.0,3530.0,3124.0,793.0,365.0,184.0,44.0
157865,County,2020/02/19,48.0,TX,48317.0,Martin County,889.0,4864.0,22199.0,5582.0,4817.0,1607.0,2881.0,3248.0,2609.0,738.0,471.0,168.0,78.0
162674,County,2020/02/20,48.0,TX,48317.0,Martin County,920.0,4833.0,21350.0,4906.0,4372.0,1564.0,2641.0,3885.0,2817.0,648.0,328.0,163.0,26.0
164204,County,2020/02/21,48.0,TX,48317.0,Martin County,982.0,4771.0,23524.0,5965.0,4830.0,1665.0,2981.0,3704.0,2911.0,795.0,530.0,143.0,0.0
168964,County,2020/02/22,48.0,TX,48317.0,Martin County,966.0,4787.0,22730.0,4910.0,4697.0,1575.0,3161.0,4058.0,2925.0,845.0,438.0,111.0,10.0
170626,County,2020/02/23,48.0,TX,48317.0,Martin County,1095.0,4658.0,19026.0,5080.0,3849.0,1203.0,2264.0,2762.0,2699.0,608.0,389.0,151.0,21.0
175407,County,2020/02/24,48.0,TX,48317.0,Martin County,1045.0,4708.0,22305.0,5582.0,4602.0,1454.0,2527.0,4183.0,2810.0,681.0,330.0,97.0,39.0
178351,County,2020/02/25,48.0,TX,48317.0,Martin County,894.0,4859.0,22670.0,5791.0,4798.0,1397.0,2586.0,3840.0,2963.0,898.0,267.0,108.0,22.0
181544,County,2020/02/26,48.0,TX,48317.0,Martin County,984.0,4769.0,19722.0,3725.0,5613.0,1221.0,1918.0,3319.0,2943.0,530.0,290.0,107.0,56.0
184978,County,2020/02/27,48.0,TX,48317.0,Martin County,1039.0,4714.0,22726.0,5947.0,4267.0,1816.0,2089.0,3965.0,3546.0,640.0,327.0,79.0,50.0
188176,County,2020/02/28,48.0,TX,48317.0,Martin County,1024.0,4729.0,22892.0,5562.0,4892.0,1503.0,2782.0,3582.0,3549.0,634.0,252.0,67.0,69.0
191371,County,2020/02/29,48.0,TX,48317.0,Martin County,1031.0,4722.0,22383.0,5376.0,4753.0,1490.0,3006.0,3322.0,3556.0,515.0,282.0,60.0,23.0
194541,County,2020/03/01,48.0,TX,48317.0,Martin County,1144.0,4609.0,19859.0,4952.0,4457.0,1312.0,2142.0,2755.0,3257.0,458.0,400.0,86.0,40.0
197745,County,2020/03/02,48.0,TX,48317.0,Martin County,1028.0,4725.0,20146.0,4737.0,4337.0,1634.0,2475.0,2947.0,3056.0,465.0,357.0,110.0,28.0
199277,County,2020/03/03,48.0,TX,48317.0,Martin County,880.0,4873.0,20456.0,4498.0,4728.0,1368.0,2244.0,3196.0,3352.0,594.0,315.0,130.0,31.0
204156,County,2020/03/04,48.0,TX,48317.0,Martin County,909.0,4844.0,19992.0,3681.0,4931.0,1718.0,2409.0,3146.0,2931.0,560.0,416.0,155.0,45.0
205724,County,2020/03/05,48.0,TX,48317.0,Martin County,807.0,4946.0,19446.0,4096.0,4066.0,1585.0,2438.0,3576.0,2621.0,612.0,306.0,98.0,48.0
210575,County,2020/03/06,48.0,TX,48317.0,Martin County,852.0,4901.0,24294.0,6304.0,5364.0,1917.0,3353.0,3554.0,2625.0,561.0,453.0,155.0,8.0
213757,County,2020/03/07,48.0,TX,48317.0,Martin County,892.0,4861.0,21660.0,5090.0,4504.0,1186.0,2877.0,3796.0,2998.0,711.0,373.0,109.0,16.0
215359,County,2020/03/08,48.0,TX,48317.0,Martin County,1049.0,4704.0,17968.0,3482.0,4186.0,1326.0,2443.0,2940.0,2438.0,531.0,378.0,168.0,76.0
220117,County,2020/03/09,48.0,TX,48317.0,Martin County,908.0,4845.0,21004.0,4564.0,4884.0,1713.0,2370.0,3267.0,2923.0,772.0,371.0,133.0,7.0
221745,County,2020/03/10,48.0,TX,48317.0,Martin County,934.0,4819.0,20375.0,4318.0,4332.0,1551.0,2871.0,3464.0,2671.0,669.0,345.0,132.0,22.0
226490,County,2020/03/11,48.0,TX,48317.0,Martin County,929.0,4824.0,23260.0,3212.0,5562.0,1306.0,4314.0,4354.0,2771.0,1053.0,513.0,119.0,56.0
228168,County,2020/03/12,48.0,TX,48317.0,Martin County,848.0,4905.0,21218.0,3356.0,5542.0,1594.0,3405.0,3139.0,2990.0,675.0,337.0,149.0,31.0
231328,County,2020/03/13,48.0,TX,48317.0,Martin County,887.0,4866.0,22766.0,4700.0,6075.0,1728.0,3064.0,3210.0,2642.0,772.0,333.0,184.0,58.0
234381,County,2020/03/14,48.0,TX,48317.0,Martin County,1064.0,4689.0,24329.0,5714.0,5841.0,2075.0,2838.0,4496.0,2365.0,679.0,104.0,217.0,0.0
237664,County,2020/03/15,48.0,TX,48317.0,Martin County,1127.0,4626.0,16570.0,3414.0,3407.0,1472.0,2085.0,2685.0,2437.0,621.0,310.0,112.0,27.0
240908,County,2020/03/16,48.0,TX,48317.0,Martin County,1176.0,4577.0,18245.0,3923.0,4065.0,1220.0,2617.0,3060.0,2308.0,450.0,482.0,85.0,35.0
245667,County,2020/03/17,48.0,TX,48317.0,Martin County,1158.0,4595.0,22507.0,6199.0,4952.0,1685.0,3208.0,3335.0,2076.0,567.0,344.0,102.0,39.0
248822,County,2020/03/18,48.0,TX,48317.0,Martin County,1127.0,4626.0,20714.0,5334.0,4920.0,1441.0,2544.0,3198.0,2226.0,492.0,360.0,175.0,24.0
250501,County,2020/03/19,48.0,TX,48317.0,Martin County,1316.0,4437.0,21667.0,5952.0,4484.0,1600.0,2471.0,3692.0,2590.0,498.0,283.0,70.0,27.0
253686,County,2020/03/20,48.0,TX,48317.0,Martin County,1318.0,4435.0,20921.0,6045.0,4996.0,1133.0,2602.0,2871.0,2274.0,505.0,344.0,123.0,28.0
256829,County,2020/03/21,48.0,TX,48317.0,Martin County,1443.0,4310.0,18309.0,4744.0,3724.0,1107.0,2844.0,2723.0,2306.0,473.0,252.0,122.0,14.0
261631,County,2020/03/22,48.0,TX,48317.0,Martin County,1498.0,4255.0,15007.0,4524.0,2978.0,1120.0,1858.0,2106.0,1687.0,403.0,201.0,99.0,31.0
263269,County,2020/03/23,48.0,TX,48317.0,Martin County,1290.0,4463.0,19362.0,5370.0,4109.0,1342.0,2710.0,2761.0,2214.0,505.0,252.0,78.0,21.0
268024,County,2020/03/24,48.0,TX,48317.0,Martin County,1209.0,4544.0,19596.0,5545.0,3890.0,862.0,3082.0,2842.0,2296.0,672.0,265.0,135.0,7.0
269654,County,2020/03/25,48.0,TX,48317.0,Martin County,1182.0,4571.0,19330.0,5653.0,3879.0,1402.0,2200.0,3051.0,2401.0,371.0,221.0,117.0,35.0
274395,County,2020/03/26,48.0,TX,48317.0,Martin County,1322.0,4431.0,18479.0,5548.0,4133.0,1165.0,2516.0,2540.0,1782.0,390.0,316.0,82.0,7.0
276035,County,2020/03/27,48.0,TX,48317.0,Martin County,1305.0,4448.0,19684.0,6383.0,4555.0,1387.0,2088.0,2538.0,1775.0,539.0,284.0,108.0,27.0
280796,County,2020/03/28,48.0,TX,48317.0,Martin County,1490.0,4263.0,17358.0,5158.0,3735.0,1165.0,1976.0,2903.0,1591.0,464.0,232.0,105.0,29.0
283948,County,2020/03/29,48.0,TX,48317.0,Martin County,1432.0,4321.0,14128.0,2993.0,4203.0,1006.0,1724.0,2033.0,1520.0,356.0,151.0,119.0,23.0
285576,County,2020/03/30,48.0,TX,48317.0,Martin County,1290.0,4463.0,15201.0,3446.0,2817.0,1081.0,2348.0,3012.0,1654.0,458.0,271.0,114.0,0.0
290379,County,2020/03/31,48.0,TX,48317.0,Martin County,1254.0,4499.0,18361.0,5312.0,3564.0,1524.0,2126.0,3540.0,1522.0,420.0,305.0,41.0,7.0
293578,County,2020/04/01,48.0,TX,48317.0,Martin County,1331.0,4422.0,16995.0,4325.0,3762.0,1355.0,2552.0,2750.0,1558.0,299.0,279.0,86.0,29.0
295207,County,2020/04/02,48.0,TX,48317.0,Martin County,1425.0,4328.0,16292.0,4223.0,3819.0,1238.0,2029.0,2540.0,1572.0,492.0,246.0,118.0,15.0
298400,County,2020/04/03,48.0,TX,48317.0,Martin County,1375.0,4378.0,15559.0,4069.0,3289.0,880.0,2086.0,2933.0,1508.0,520.0,210.0,50.0,14.0
303147,County,2020/04/04,48.0,TX,48317.0,Martin County,1548.0,4205.0,12880.0,3028.0,2996.0,711.0,1843.0,2007.0,1423.0,485.0,232.0,111.0,44.0
306348,County,2020/04/05,48.0,TX,48317.0,Martin County,1491.0,4262.0,14718.0,3618.0,3384.0,1073.0,2069.0,2112.0,1694.0,414.0,246.0,72.0,36.0
309549,County,2020/04/06,48.0,TX,48317.0,Martin County,1259.0,4494.0,16686.0,3900.0,4040.0,1224.0,1936.0,2750.0,2030.0,439.0,280.0,66.0,21.0
311176,County,2020/04/07,48.0,TX,48317.0,Martin County,1279.0,4474.0,16849.0,4917.0,3386.0,1059.0,2427.0,2461.0,1719.0,504.0,274.0,79.0,23.0
315912,County,2020/04/08,48.0,TX,48317.0,Martin County,1381.0,4372.0,15682.0,3474.0,3865.0,1113.0,2217.0,2561.0,1707.0,351.0,272.0,75.0,47.0
319082,County,2020/04/09,48.0,TX,48317.0,Martin County,1471.0,4282.0,16912.0,4465.0,3432.0,1298.0,2233.0,2628.0,2045.0,371.0,339.0,94.0,7.0
320766,County,2020/04/10,48.0,TX,48317.0,Martin County,1446.0,4307.0,16017.0,3706.0,3647.0,1504.0,2112.0,2811.0,1531.0,350.0,260.0,61.0,35.0
325519,County,2020/04/11,48.0,TX,48317.0,Martin County,1442.0,4311.0,15188.0,4287.0,3599.0,1264.0,2125.0,1672.0,1644.0,265.0,223.0,65.0,44.0
328686,County,2020/04/12,48.0,TX,48317.0,Martin County,1735.0,4018.0,10062.0,2479.0,2273.0,700.0,1727.0,1262.0,1067.0,280.0,208.0,52.0,14.0
330361,County,2020/04/13,48.0,TX,48317.0,Martin County,1440.0,4313.0,15546.0,3492.0,3651.0,1172.0,2179.0,2457.0,1971.0,248.0,323.0,53.0,0.0
333486,County,2020/04/14,48.0,TX,48317.0,Martin County,1390.0,4363.0,14072.0,3996.0,3367.0,1211.0,1757.0,2055.0,913.0,227.0,309.0,137.0,100.0
338286,County,2020/04/15,48.0,TX,48317.0,Martin County,1362.0,4391.0,16214.0,4702.0,3808.0,1721.0,1813.0,2745.0,794.0,207.0,229.0,138.0,57.0
341430,County,2020/04/16,48.0,TX,48317.0,Martin County,1345.0,4408.0,14641.0,3963.0,3361.0,1038.0,2478.0,1756.0,1365.0,465.0,155.0,33.0,27.0
343214,County,2020/04/17,48.0,TX,48317.0,Martin County,1228.0,4525.0,13297.0,2571.0,3353.0,984.0,2199.0,2483.0,1361.0,178.0,89.0,79.0,0.0
347840,County,2020/04/18,48.0,TX,48317.0,Martin County,1580.0,4173.0,13403.0,3251.0,3875.0,888.0,1642.0,1396.0,1913.0,309.0,26.0,85.0,18.0
349442,County,2020/04/19,48.0,TX,48317.0,Martin County,1513.0,4240.0,11434.0,2385.0,3278.0,751.0,2008.0,1663.0,924.0,217.0,97.0,94.0,17.0
352697,County,2020/04/20,48.0,TX,48317.0,Martin County,1294.0,4459.0,19110.0,4061.0,6033.0,1910.0,2625.0,2461.0,1272.0,316.0,252.0,158.0,22.0
357458,County,2020/04/21,48.0,TX,48317.0,Martin County,1229.0,4524.0,17928.0,4936.0,4463.0,1158.0,2230.0,2579.0,1728.0,353.0,388.0,85.0,8.0
359086,County,2020/04/22,48.0,TX,48317.0,Martin County,1285.0,4468.0,16184.0,4103.0,3670.0,1370.0,1691.0,2854.0,1782.0,253.0,345.0,76.0,40.0
362192,County,2020/04/23,48.0,TX,48317.0,Martin County,1313.0,4440.0,19041.0,5401.0,4580.0,1641.0,2302.0,2406.0,2201.0,273.0,156.0,72.0,9.0
365445,County,2020/04/24,48.0,TX,48317.0,Martin County,1164.0,4589.0,20307.0,5755.0,4460.0,1719.0,2989.0,2672.0,2003.0,336.0,276.0,80.0,17.0
368613,County,2020/04/25,48.0,TX,48317.0,Martin County,1211.0,4542.0,19267.0,6257.0,4760.0,1238.0,2291.0,2667.0,1597.0,179.0,243.0,35.0,0.0
371779,County,2020/04/26,48.0,TX,48317.0,Martin County,1395.0,4358.0,15486.0,4708.0,3352.0,1414.0,1841.0,1923.0,1678.0,227.0,273.0,59.0,11.0
375056,County,2020/04/27,48.0,TX,48317.0,Martin County,1272.0,4481.0,20091.0,5488.0,4696.0,2010.0,2456.0,2818.0,2049.0,246.0,235.0,62.0,31.0
378207,County,2020/04/28,48.0,TX,48317.0,Martin County,1297.0,4456.0,18364.0,5807.0,4063.0,1346.0,2419.0,2638.0,1592.0,206.0,161.0,76.0,56.0
382986,County,2020/04/29,48.0,TX,48317.0,Martin County,1153.0,4600.0,18755.0,5628.0,3644.0,1524.0,2755.0,3197.0,1362.0,351.0,169.0,100.0,25.0
384606,County,2020/04/30,48.0,TX,48317.0,Martin County,1139.0,4614.0,19995.0,6130.0,4410.0,1461.0,2970.0,2525.0,1703.0,324.0,374.0,55.0,43.0
389392,County,2020/05/01,48.0,TX,48317.0,Martin County,1145.0,4608.0,17562.0,4731.0,4447.0,1752.0,2313.0,2330.0,1472.0,212.0,224.0,65.0,16.0
392592,County,2020/05/02,48.0,TX,48317.0,Martin County,1283.0,4470.0,19329.0,5385.0,4966.0,1397.0,2543.0,2932.0,1548.0,332.0,173.0,44.0,9.0
394227,County,2020/05/03,48.0,TX,48317.0,Martin County,1458.0,4295.0,15971.0,4433.0,3807.0,1230.0,2582.0,2141.0,1067.0,242.0,349.0,67.0,53.0
397388,County,2020/05/04,48.0,TX,48317.0,Martin County,1239.0,4514.0,18637.0,5472.0,4204.0,1021.0,2734.0,2712.0,1848.0,289.0,264.0,49.0,44.0
400608,County,2020/05/05,48.0,TX,48317.0,Martin County,1209.0,4544.0,18937.0,4998.0,5087.0,1527.0,2628.0,2804.0,1241.0,326.0,221.0,97.0,8.0
405363,County,2020/05/06,48.0,TX,48317.0,Martin County,1315.0,4438.0,19406.0,4949.0,4667.0,1551.0,2935.0,2786.0,1881.0,308.0,234.0,61.0,34.0
406989,County,2020/05/07,48.0,TX,48317.0,Martin County,1256.0,4497.0,19244.0,5074.0,4680.0,1581.0,2816.0,2620.0,1696.0,375.0,292.0,81.0,29.0
410294,County,2020/05/08,48.0,TX,48317.0,Martin County,1207.0,4546.0,17309.0,4061.0,4397.0,1088.0,2686.0,2796.0,1618.0,304.0,261.0,60.0,38.0
414916,County,2020/05/09,48.0,TX,48317.0,Martin County,1378.0,4375.0,19238.0,4656.0,4230.0,1744.0,3268.0,2869.0,1857.0,324.0,225.0,48.0,17.0
418096,County,2020/05/10,48.0,TX,48317.0,Martin County,1415.0,4338.0,17992.0,5426.0,4962.0,1390.0,1849.0,2142.0,1569.0,314.0,277.0,63.0,0.0
421327,County,2020/05/11,48.0,TX,48317.0,Martin County,1106.0,4647.0,19466.0,5533.0,4219.0,1412.0,2509.0,2666.0,2194.0,371.0,393.0,139.0,30.0
423005,County,2020/05/12,48.0,TX,48317.0,Martin County,1071.0,4682.0,20579.0,4806.0,4549.0,1760.0,3116.0,2910.0,2581.0,456.0,276.0,100.0,25.0
427727,County,2020/05/13,48.0,TX,48317.0,Martin County,1014.0,4739.0,19441.0,5636.0,4343.0,1447.0,2006.0,3019.0,2312.0,279.0,259.0,97.0,43.0
430921,County,2020/05/14,48.0,TX,48317.0,Martin County,1070.0,4683.0,19008.0,5286.0,3788.0,1722.0,2276.0,3075.0,2102.0,404.0,238.0,59.0,58.0
434095,County,2020/05/15,48.0,TX,48317.0,Martin County,1037.0,4716.0,18397.0,5233.0,4159.0,1322.0,2446.0,2211.0,2081.0,507.0,321.0,103.0,14.0
435773,County,2020/05/16,48.0,TX,48317.0,Martin County,1227.0,4526.0,16391.0,3655.0,3506.0,1314.0,2102.0,2681.0,2269.0,338.0,381.0,125.0,20.0
440457,County,2020/05/17,48.0,TX,48317.0,Martin County,1180.0,4573.0,16865.0,3833.0,4993.0,1483.0,2583.0,1739.0,1288.0,370.0,371.0,158.0,47.0
443697,County,2020/05/18,48.0,TX,48317.0,Martin County,967.0,4786.0,21332.0,4576.0,5030.0,2401.0,3418.0,3045.0,2122.0,351.0,321.0,68.0,0.0
445325,County,2020/05/19,48.0,TX,48317.0,Martin County,943.0,4810.0,21900.0,6630.0,4949.0,1405.0,2919.0,2948.0,2097.0,343.0,500.0,79.0,30.0
448492,County,2020/05/20,48.0,TX,48317.0,Martin County,912.0,4841.0,20368.0,5760.0,4823.0,1398.0,2865.0,2886.0,1813.0,353.0,327.0,116.0,27.0
453271,County,2020/05/21,48.0,TX,48317.0,Martin County,940.0,4813.0,23121.0,6305.0,5771.0,2017.0,3160.0,2901.0,2007.0,394.0,446.0,102.0,18.0
456472,County,2020/05/22,48.0,TX,48317.0,Martin County,841.0,4912.0,23846.0,5689.0,5360.0,2382.0,4164.0,2823.0,2313.0,485.0,473.0,113.0,44.0
458095,County,2020/05/23,48.0,TX,48317.0,Martin County,1092.0,4661.0,19977.0,5056.0,5796.0,1532.0,2205.0,2330.0,2053.0,473.0,385.0,106.0,41.0
462837,County,2020/05/24,48.0,TX,48317.0,Martin County,1073.0,4680.0,16551.0,4307.0,4149.0,1225.0,2189.0,2637.0,1280.0,245.0,330.0,129.0,60.0
464466,County,2020/05/25,48.0,TX,48317.0,Martin County,1289.0,4464.0,14429.0,3418.0,3289.0,1243.0,1701.0,2348.0,1633.0,275.0,419.0,94.0,9.0
469247,County,2020/05/26,48.0,TX,48317.0,Martin County,1044.0,4709.0,21185.0,5149.0,5643.0,1838.0,2019.0,3621.0,2116.0,402.0,286.0,57.0,54.0
472438,County,2020/05/27,48.0,TX,48317.0,Martin County,827.0,4926.0,22367.0,6128.0,5160.0,1576.0,2458.0,3789.0,2398.0,444.0,279.0,91.0,44.0
475637,County,2020/05/28,48.0,TX,48317.0,Martin County,918.0,4835.0,22428.0,6374.0,4641.0,1472.0,2623.0,3603.0,2763.0,474.0,320.0,125.0,33.0
477217,County,2020/05/29,48.0,TX,48317.0,Martin County,1067.0,4686.0,22151.0,6625.0,5240.0,1536.0,2844.0,3098.0,1986.0,403.0,236.0,154.0,29.0
480404,County,2020/05/30,48.0,TX,48317.0,Martin County,1092.0,4661.0,19427.0,5448.0,4895.0,1363.0,2218.0,2586.0,2366.0,286.0,168.0,74.0,23.0
483532,County,2020/05/31,48.0,TX,48317.0,Martin County,1094.0,4659.0,18735.0,5617.0,3843.0,1362.0,2332.0,2858.0,1879.0,386.0,322.0,125.0,11.0
488472,County,2020/06/01,48.0,TX,48317.0,Martin County,1010.0,4743.0,21481.0,6132.0,4198.0,1683.0,2859.0,3531.0,2292.0,342.0,355.0,63.0,26.0
491579,County,2020/06/02,48.0,TX,48317.0,Martin County,1021.0,4732.0,19598.0,5044.0,4022.0,2012.0,1944.0,3129.0,2712.0,407.0,155.0,163.0,10.0
493208,County,2020/06/03,48.0,TX,48317.0,Martin County,882.0,4871.0,21042.0,5331.0,4309.0,1900.0,2290.0,3454.0,2833.0,448.0,294.0,156.0,27.0
497983,County,2020/06/04,48.0,TX,48317.0,Martin County,887.0,4866.0,23392.0,7197.0,4995.0,1843.0,2530.0,3118.0,2711.0,547.0,334.0,89.0,28.0
499623,County,2020/06/05,48.0,TX,48317.0,Martin County,1037.0,4716.0,22169.0,5681.0,4928.0,1753.0,2371.0,4007.0,2519.0,403.0,376.0,92.0,39.0
504347,County,2020/06/06,48.0,TX,48317.0,Martin County,1280.0,4473.0,16822.0,4453.0,2858.0,1320.0,1986.0,2736.0,2814.0,373.0,168.0,62.0,52.0
505961,County,2020/06/07,48.0,TX,48317.0,Martin County,1191.0,4562.0,16245.0,3050.0,3913.0,1606.0,2534.0,3056.0,1436.0,195.0,281.0,144.0,30.0
510758,County,2020/06/08,48.0,TX,48317.0,Martin County,936.0,4817.0,19849.0,4230.0,4939.0,1414.0,2879.0,3264.0,2170.0,478.0,314.0,113.0,48.0
512387,County,2020/06/09,48.0,TX,48317.0,Martin County,978.0,4775.0,18886.0,3914.0,3872.0,1447.0,3028.0,3442.0,2439.0,434.0,225.0,75.0,10.0
517168,County,2020/06/10,48.0,TX,48317.0,Martin County,943.0,4810.0,20128.0,5103.0,3925.0,1597.0,2778.0,3379.0,2441.0,318.0,394.0,151.0,42.0
520325,County,2020/06/11,48.0,TX,48317.0,Martin County,932.0,4821.0,20862.0,5729.0,4481.0,1324.0,2952.0,3258.0,2313.0,413.0,265.0,106.0,21.0
523547,County,2020/06/12,48.0,TX,48317.0,Martin County,1001.0,4752.0,20746.0,5515.0,5332.0,1424.0,2342.0,2876.0,2335.0,412.0,351.0,127.0,32.0
526734,County,2020/06/13,48.0,TX,48317.0,Martin County,1231.0,4522.0,20420.0,4946.0,5496.0,1679.0,2549.0,2879.0,2182.0,299.0,281.0,83.0,26.0
528369,County,2020/06/14,48.0,TX,48317.0,Martin County,1403.0,4350.0,16507.0,3886.0,3925.0,1364.0,1795.0,2639.0,2084.0,369.0,299.0,97.0,49.0
533129,County,2020/06/15,48.0,TX,48317.0,Martin County,1273.0,4480.0,19756.0,5729.0,3931.0,1501.0,2390.0,3693.0,1908.0,205.0,285.0,114.0,0.0
536299,County,2020/06/16,48.0,TX,48317.0,Martin County,1247.0,4506.0,18555.0,4086.0,3599.0,1909.0,1924.0,3695.0,2475.0,265.0,436.0,112.0,54.0
539468,County,2020/06/17,48.0,TX,48317.0,Martin County,1272.0,4481.0,18124.0,5316.0,3472.0,1316.0,2366.0,2901.0,1923.0,336.0,349.0,100.0,45.0
542662,County,2020/06/18,48.0,TX,48317.0,Martin County,1161.0,4592.0,17236.0,3496.0,4351.0,1252.0,2075.0,2961.0,2265.0,357.0,368.0,96.0,15.0
545864,County,2020/06/19,48.0,TX,48317.0,Martin County,1164.0,4589.0,15846.0,3410.0,3106.0,1009.0,2011.0,3502.0,1809.0,416.0,393.0,143.0,47.0
549099,County,2020/06/20,48.0,TX,48317.0,Martin County,1328.0,4425.0,16166.0,4241.0,3128.0,1285.0,2164.0,2748.0,1756.0,272.0,429.0,103.0,40.0
552237,County,2020/06/21,48.0,TX,48317.0,Martin County,1415.0,4338.0,14695.0,2449.0,3681.0,1437.0,2158.0,2523.0,1892.0,235.0,235.0,60.0,25.0
555479,County,2020/06/22,48.0,TX,48317.0,Martin County,1212.0,4541.0,17774.0,3714.0,4848.0,1354.0,2122.0,3067.0,1979.0,311.0,286.0,76.0,17.0
557107,County,2020/06/23,48.0,TX,48317.0,Martin County,1032.0,4721.0,17396.0,3483.0,4799.0,1466.0,2085.0,2841.0,2016.0,330.0,212.0,131.0,33.0
561875,County,2020/06/24,48.0,TX,48317.0,Martin County,993.0,4760.0,16725.0,4376.0,3527.0,1631.0,1873.0,2615.0,2059.0,289.0,184.0,116.0,55.0
565001,County,2020/06/25,48.0,TX,48317.0,Martin County,1050.0,4703.0,18430.0,4679.0,3770.0,1505.0,2740.0,3003.0,2157.0,300.0,157.0,79.0,40.0
568299,County,2020/06/26,48.0,TX,48317.0,Martin County,1044.0,4709.0,18649.0,4565.0,4767.0,1419.0,2578.0,2652.0,1984.0,314.0,254.0,74.0,42.0
571449,County,2020/06/27,48.0,TX,48317.0,Martin County,1234.0,4519.0,16213.0,3922.0,4013.0,1465.0,1879.0,2472.0,2076.0,133.0,216.0,37.0,0.0
574626,County,2020/06/28,48.0,TX,48317.0,Martin County,1374.0,4379.0,16147.0,4649.0,3164.0,1889.0,1803.0,1907.0,1994.0,268.0,289.0,126.0,58.0
576231,County,2020/06/29,48.0,TX,48317.0,Martin County,1231.0,4522.0,17496.0,4285.0,4003.0,1188.0,2083.0,2624.0,2696.0,145.0,344.0,90.0,38.0
581044,County,2020/06/30,48.0,TX,48317.0,Martin County,1045.0,4708.0,18107.0,4452.0,4429.0,1089.0,2134.0,2689.0,2576.0,260.0,297.0,103.0,78.0
584234,County,2020/07/01,48.0,TX,48317.0,Martin County,1157.0,4596.0,16770.0,4322.0,3110.0,1234.0,1968.0,3158.0,2175.0,349.0,366.0,39.0,49.0
585834,County,2020/07/02,48.0,TX,48317.0,Martin County,1323.0,4430.0,19559.0,4966.0,4001.0,1597.0,2908.0,3187.0,2289.0,318.0,167.0,84.0,42.0
590625,County,2020/07/03,48.0,TX,48317.0,Martin County,1509.0,4244.0,18544.0,4539.0,4740.0,1411.0,2563.0,2637.0,1973.0,312.0,253.0,74.0,42.0
593810,County,2020/07/04,48.0,TX,48317.0,Martin County,1587.0,4166.0,15864.0,3883.0,4055.0,1207.0,2193.0,2256.0,1688.0,267.0,216.0,63.0,36.0
596977,County,2020/07/05,48.0,TX,48317.0,Martin County,1298.0,4455.0,12068.0,2189.0,2689.0,1367.0,1733.0,1977.0,1378.0,171.0,407.0,142.0,15.0
600154,County,2020/07/06,48.0,TX,48317.0,Martin County,1241.0,4512.0,16167.0,3915.0,3327.0,1358.0,2292.0,2224.0,2026.0,428.0,400.0,168.0,29.0
601732,County,2020/07/07,48.0,TX,48317.0,Martin County,1184.0,4569.0,16362.0,3875.0,3637.0,1213.0,2126.0,2393.0,2291.0,281.0,323.0,194.0,29.0
606541,County,2020/07/08,48.0,TX,48317.0,Martin County,1255.0,4498.0,16981.0,3940.0,3577.0,819.0,2433.0,2579.0,2566.0,489.0,430.0,107.0,41.0
608218,County,2020/07/09,48.0,TX,48317.0,Martin County,1263.0,4490.0,16470.0,4056.0,3965.0,1337.0,1494.0,2621.0,2205.0,322.0,249.0,170.0,51.0
611418,County,2020/07/10,48.0,TX,48317.0,Martin County,1303.0,4450.0,17311.0,4732.0,3993.0,1358.0,1850.0,2434.0,2209.0,295.0,279.0,127.0,34.0
616166,County,2020/07/11,48.0,TX,48317.0,Martin County,1403.0,4350.0,14525.0,3564.0,3171.0,1168.0,1870.0,1888.0,2097.0,439.0,146.0,182.0,0.0
619354,County,2020/07/12,48.0,TX,48317.0,Martin County,1433.0,4320.0,13006.0,2784.0,3000.0,785.0,1292.0,1923.0,2517.0,133.0,417.0,115.0,40.0
622560,County,2020/07/13,48.0,TX,48317.0,Martin County,1244.0,4509.0,15457.0,3605.0,3298.0,1160.0,1496.0,3014.0,2181.0,244.0,275.0,110.0,74.0
625754,County,2020/07/14,48.0,TX,48317.0,Martin County,1082.0,4671.0,15601.0,3312.0,3172.0,1017.0,1763.0,3024.0,2484.0,379.0,295.0,155.0,0.0
627262,County,2020/07/15,48.0,TX,48317.0,Martin County,1081.0,4672.0,15659.0,2890.0,3087.0,962.0,2222.0,3131.0,2529.0,386.0,329.0,103.0,20.0
632193,County,2020/07/16,48.0,TX,48317.0,Martin County,1076.0,4677.0,16214.0,2944.0,3964.0,1275.0,1912.0,2832.0,2476.0,405.0,261.0,64.0,81.0
635288,County,2020/07/17,48.0,TX,48317.0,Martin County,1223.0,4530.0,15844.0,3517.0,2968.0,1181.0,1755.0,3548.0,2002.0,342.0,389.0,120.0,22.0
636965,County,2020/07/18,48.0,TX,48317.0,Martin County,1371.0,4382.0,14904.0,3640.0,3577.0,1067.0,1796.0,2375.0,1885.0,244.0,169.0,73.0,78.0
640120,County,2020/07/19,48.0,TX,48317.0,Martin County,1321.0,4432.0,14671.0,3258.0,2436.0,1059.0,1939.0,2688.0,2309.0,435.0,336.0,197.0,14.0
644902,County,2020/07/20,48.0,TX,48317.0,Martin County,1314.0,4439.0,17034.0,4181.0,3473.0,936.0,2683.0,2789.0,2323.0,297.0,263.0,77.0,12.0
646530,County,2020/07/21,48.0,TX,48317.0,Martin County,990.0,4763.0,17973.0,4218.0,3536.0,1227.0,2484.0,2987.0,2575.0,355.0,412.0,110.0,69.0
649211,County,2020/07/22,48.0,TX,48317.0,Martin County,997.0,4756.0,18959.0,5036.0,3745.0,1397.0,2056.0,3343.0,2428.0,525.0,213.0,157.0,59.0
652849,County,2020/07/23,48.0,TX,48317.0,Martin County,1037.0,4716.0,20044.0,5530.0,3985.0,1240.0,1944.0,3497.0,2890.0,539.0,299.0,99.0,21.0
655923,County,2020/07/24,48.0,TX,48317.0,Martin County,1205.0,4548.0,19332.0,5283.0,4314.0,1076.0,2201.0,2808.0,2721.0,471.0,258.0,168.0,32.0
660943,County,2020/07/25,48.0,TX,48317.0,Martin County,1280.0,4473.0,16753.0,4938.0,3737.0,915.0,2076.0,1827.0,2305.0,513.0,239.0,132.0,71.0
664024,County,2020/07/26,48.0,TX,48317.0,Martin County,1361.0,4392.0,18193.0,5271.0,3513.0,1502.0,2325.0,2254.0,2299.0,614.0,255.0,113.0,47.0
667297,County,2020/07/27,48.0,TX,48317.0,Martin County,1294.0,4459.0,22492.0,6490.0,4329.0,1190.0,3461.0,3151.0,3038.0,574.0,131.0,82.0,46.0
670451,County,2020/07/28,48.0,TX,48317.0,Martin County,1105.0,4648.0,20542.0,6174.0,3049.0,1242.0,2362.0,3719.0,3015.0,510.0,300.0,108.0,63.0
672131,County,2020/07/29,48.0,TX,48317.0,Martin County,1101.0,4652.0,18556.0,4908.0,2975.0,1095.0,2283.0,3398.0,2922.0,494.0,268.0,125.0,88.0
676843,County,2020/07/30,48.0,TX,48317.0,Martin County,1087.0,4666.0,18651.0,4828.0,2922.0,1315.0,2359.0,3410.0,2674.0,651.0,277.0,100.0,115.0
678494,County,2020/07/31,48.0,TX,48317.0,Martin County,1088.0,4665.0,20535.0,5138.0,4311.0,1259.0,2649.0,3212.0,2877.0,600.0,272.0,127.0,90.0
681603,County,2020/08/01,48.0,TX,48317.0,Martin County,1245.0,4508.0,18429.0,4130.0,3766.0,1293.0,2227.0,2936.0,2805.0,714.0,366.0,144.0,48.0
686432,County,2020/08/02,48.0,TX,48317.0,Martin County,1389.0,4364.0,18694.0,4599.0,4500.0,1273.0,2094.0,2799.0,2614.0,404.0,299.0,87.0,25.0
689635,County,2020/08/03,48.0,TX,48317.0,Martin County,1043.0,4710.0,18601.0,4249.0,4143.0,1206.0,2143.0,3012.0,2868.0,503.0,322.0,116.0,39.0
691263,County,2020/08/04,48.0,TX,48317.0,Martin County,963.0,4790.0,18694.0,4720.0,3090.0,1190.0,2447.0,3452.0,2638.0,716.0,365.0,67.0,9.0
694425,County,2020/08/05,48.0,TX,48317.0,Martin County,882.0,4871.0,18290.0,3458.0,3406.0,1037.0,3185.0,3290.0,2812.0,531.0,461.0,101.0,9.0
697632,County,2020/08/06,48.0,TX,48317.0,Martin County,1077.0,4676.0,20228.0,4297.0,5145.0,1565.0,1901.0,3339.0,3031.0,395.0,424.0,90.0,41.0
700844,County,2020/08/07,48.0,TX,48317.0,Martin County,1042.0,4711.0,17093.0,3830.0,3624.0,1380.0,2304.0,3266.0,1830.0,329.0,439.0,69.0,22.0
705605,County,2020/08/08,48.0,TX,48317.0,Martin County,1249.0,4504.0,16530.0,3387.0,4099.0,1408.0,1622.0,2824.0,2443.0,290.0,326.0,131.0,0.0
707183,County,2020/08/09,48.0,TX,48317.0,Martin County,1307.0,4446.0,16174.0,4359.0,2769.0,981.0,1981.0,2901.0,2391.0,414.0,259.0,48.0,71.0
710453,County,2020/08/10,48.0,TX,48317.0,Martin County,1046.0,4707.0,21740.0,6477.0,4789.0,1174.0,1889.0,3587.0,2854.0,473.0,296.0,139.0,62.0
715186,County,2020/08/11,48.0,TX,48317.0,Martin County,1091.0,4662.0,23367.0,8250.0,4686.0,1074.0,2207.0,3057.0,3216.0,415.0,341.0,90.0,31.0
716718,County,2020/08/12,48.0,TX,48317.0,Martin County,1010.0,4743.0,20358.0,5701.0,4302.0,1168.0,1411.0,2998.0,3619.0,576.0,403.0,119.0,61.0
721526,County,2020/08/13,48.0,TX,48317.0,Martin County,940.0,4813.0,22802.0,7383.0,4944.0,1360.0,1887.0,3362.0,2801.0,548.0,296.0,163.0,58.0
724753,County,2020/08/14,48.0,TX,48317.0,Martin County,933.0,4820.0,23866.0,7265.0,4386.0,1458.0,2219.0,3443.0,3909.0,746.0,338.0,63.0,39.0
727964,County,2020/08/15,48.0,TX,48317.0,Martin County,1118.0,4635.0,21788.0,7430.0,3669.0,1121.0,2869.0,2969.0,2775.0,503.0,260.0,90.0,102.0
731156,County,2020/08/16,48.0,TX,48317.0,Martin County,1227.0,4526.0,16887.0,4562.0,2996.0,838.0,1725.0,2427.0,2902.0,721.0,531.0,82.0,103.0
732786,County,2020/08/17,48.0,TX,48317.0,Martin County,1092.0,4661.0,18614.0,5159.0,3384.0,977.0,1807.0,3123.0,3035.0,606.0,310.0,119.0,94.0
737495,County,2020/08/18,48.0,TX,48317.0,Martin County,1185.0,4568.0,18683.0,4569.0,3543.0,1217.0,1568.0,3378.0,3183.0,549.0,455.0,112.0,109.0
739157,County,2020/08/19,48.0,TX,48317.0,Martin County,1066.0,4687.0,18524.0,4700.0,3326.0,770.0,1808.0,3440.0,3156.0,662.0,374.0,128.0,160.0
743938,County,2020/08/20,48.0,TX,48317.0,Martin County,1060.0,4693.0,18697.0,4614.0,2911.0,987.0,2405.0,3958.0,2537.0,543.0,440.0,179.0,123.0
745568,County,2020/08/21,48.0,TX,48317.0,Martin County,876.0,4877.0,19464.0,4625.0,3265.0,994.0,2580.0,3504.0,3091.0,783.0,324.0,123.0,175.0
750299,County,2020/08/22,48.0,TX,48317.0,Martin County,1136.0,4617.0,20022.0,5559.0,3750.0,935.0,1957.0,3625.0,3003.0,492.0,427.0,136.0,138.0
753468,County,2020/08/23,48.0,TX,48317.0,Martin County,1385.0,4368.0,13681.0,3281.0,2494.0,598.0,1342.0,2540.0,2568.0,347.0,315.0,87.0,109.0
755139,County,2020/08/24,48.0,TX,48317.0,Martin County,1151.0,4602.0,16119.0,3925.0,2943.0,1011.0,2287.0,2779.0,2413.0,321.0,223.0,100.0,117.0
759900,County,2020/08/25,48.0,TX,48317.0,Martin County,1061.0,4692.0,17155.0,4697.0,3430.0,925.0,1223.0,3143.0,2798.0,357.0,268.0,163.0,151.0
761482,County,2020/08/26,48.0,TX,48317.0,Martin County,1149.0,4604.0,17627.0,4928.0,3260.0,887.0,2162.0,3235.0,2197.0,398.0,322.0,157.0,81.0
766255,County,2020/08/27,48.0,TX,48317.0,Martin County,1091.0,4662.0,17807.0,4576.0,3468.0,976.0,2101.0,3025.0,2778.0,420.0,250.0,139.0,74.0
767895,County,2020/08/28,48.0,TX,48317.0,Martin County,1074.0,4679.0,18729.0,4161.0,3515.0,1231.0,2249.0,3849.0,2788.0,541.0,225.0,124.0,46.0
771099,County,2020/08/29,48.0,TX,48317.0,Martin County,1196.0,4557.0,17599.0,4341.0,3750.0,1142.0,1770.0,3206.0,2477.0,369.0,277.0,170.0,97.0
775873,County,2020/08/30,48.0,TX,48317.0,Martin County,1346.0,4407.0,14789.0,3513.0,2552.0,453.0,2127.0,2855.0,2290.0,385.0,403.0,125.0,86.0
777481,County,2020/08/31,48.0,TX,48317.0,Martin County,1160.0,4593.0,17860.0,4023.0,3910.0,772.0,1806.0,3377.0,2914.0,432.0,401.0,128.0,97.0
782261,County,2020/09/01,48.0,TX,48317.0,Martin County,1120.0,4633.0,17850.0,4089.0,3297.0,1170.0,1936.0,3369.0,2959.0,404.0,448.0,128.0,50.0
784656,County,2020/09/02,48.0,TX,48317.0,Martin County,1193.0,4560.0,19319.0,5464.0,3360.0,1038.0,2112.0,3566.0,2812.0,421.0,375.0,108.0,63.0
787016,County,2020/09/03,48.0,TX,48317.0,Martin County,1072.0,4681.0,17230.0,4941.0,3053.0,818.0,1515.0,3301.0,2534.0,371.0,385.0,189.0,123.0
791795,County,2020/09/04,48.0,TX,48317.0,Martin County,1217.0,4536.0,16695.0,3146.0,2917.0,1337.0,2115.0,2805.0,2811.0,640.0,640.0,214.0,70.0
793354,County,2020/09/05,48.0,TX,48317.0,Martin County,1240.0,4513.0,17162.0,3035.0,4394.0,1286.0,1954.0,2728.0,2613.0,450.0,537.0,105.0,60.0
796638,County,2020/09/06,48.0,TX,48317.0,Martin County,1467.0,4286.0,15653.0,3853.0,3712.0,917.0,1721.0,2676.0,1998.0,370.0,162.0,115.0,129.0
801404,County,2020/09/07,48.0,TX,48317.0,Martin County,1514.0,4239.0,13247.0,2894.0,2983.0,1062.0,1355.0,2112.0,2004.0,191.0,361.0,152.0,133.0
803032,County,2020/09/08,48.0,TX,48317.0,Martin County,1247.0,4506.0,17313.0,4444.0,3607.0,1039.0,1776.0,3244.0,2453.0,308.0,232.0,145.0,65.0
807812,County,2020/09/09,48.0,TX,48317.0,Martin County,1135.0,4618.0,16796.0,3355.0,3558.0,815.0,2225.0,3498.0,2389.0,573.0,143.0,111.0,129.0
809440,County,2020/09/10,48.0,TX,48317.0,Martin County,1253.0,4500.0,17739.0,3618.0,4081.0,1032.0,1861.0,3553.0,2775.0,459.0,139.0,136.0,85.0
814201,County,2020/09/11,48.0,TX,48317.0,Martin County,1002.0,4751.0,19580.0,3664.0,4164.0,1079.0,2165.0,4220.0,3366.0,469.0,266.0,121.0,66.0
815782,County,2020/09/12,48.0,TX,48317.0,Martin County,1218.0,4535.0,16773.0,3588.0,3786.0,1081.0,2001.0,2765.0,2559.0,411.0,391.0,109.0,82.0
820579,County,2020/09/13,48.0,TX,48317.0,Martin County,1493.0,4260.0,14019.0,2371.0,2678.0,1022.0,1514.0,2842.0,2026.0,859.0,472.0,131.0,104.0
822208,County,2020/09/14,48.0,TX,48317.0,Martin County,1176.0,4577.0,18910.0,4788.0,4027.0,1242.0,1951.0,3140.0,2566.0,703.0,294.0,154.0,45.0
826977,County,2020/09/15,48.0,TX,48317.0,Martin County,1099.0,4654.0,18355.0,4009.0,3252.0,1288.0,2109.0,3586.0,2788.0,746.0,381.0,143.0,53.0
828604,County,2020/09/16,48.0,TX,48317.0,Martin County,1199.0,4554.0,19280.0,5331.0,3136.0,782.0,2427.0,3505.0,3013.0,546.0,281.0,129.0,130.0
833348,County,2020/09/17,48.0,TX,48317.0,Martin County,1187.0,4566.0,17869.0,3557.0,3435.0,1296.0,1985.0,2640.0,3446.0,722.0,481.0,192.0,115.0
834977,County,2020/09/18,48.0,TX,48317.0,Martin County,1181.0,4572.0,21031.0,5184.0,4250.0,1388.0,2640.0,2973.0,2729.0,1205.0,453.0,139.0,70.0
839752,County,2020/09/19,48.0,TX,48317.0,Martin County,1293.0,4460.0,18756.0,4736.0,4179.0,1517.0,1831.0,2979.0,2256.0,710.0,356.0,62.0,130.0
841382,County,2020/09/20,48.0,TX,48317.0,Martin County,1419.0,4334.0,16246.0,4546.0,2505.0,984.0,1652.0,2666.0,2707.0,839.0,222.0,70.0,55.0
846119,County,2020/09/21,48.0,TX,48317.0,Martin County,1181.0,4572.0,16207.0,4085.0,3287.0,828.0,1239.0,2370.0,3071.0,771.0,407.0,129.0,20.0
847747,County,2020/09/22,48.0,TX,48317.0,Martin County,1035.0,4718.0,17592.0,4902.0,2720.0,1131.0,1153.0,3458.0,2694.0,912.0,399.0,173.0,50.0
852525,County,2020/09/23,48.0,TX,48317.0,Martin County,880.0,4873.0,17848.0,4774.0,3467.0,694.0,1541.0,2815.0,3235.0,657.0,416.0,230.0,19.0
854153,County,2020/09/24,48.0,TX,48317.0,Martin County,1077.0,4676.0,17649.0,4543.0,3382.0,800.0,1819.0,3566.0,2679.0,463.0,261.0,96.0,40.0
858917,County,2020/09/25,48.0,TX,48317.0,Martin County,1077.0,4676.0,18481.0,5342.0,3432.0,933.0,1407.0,2964.0,3171.0,691.0,420.0,100.0,21.0
860495,County,2020/09/26,48.0,TX,48317.0,Martin County,1180.0,4573.0,17629.0,4227.0,3711.0,1127.0,2269.0,3236.0,2212.0,464.0,292.0,67.0,24.0
865292,County,2020/09/27,48.0,TX,48317.0,Martin County,1290.0,4463.0,14335.0,3260.0,3093.0,661.0,1559.0,2411.0,2142.0,615.0,433.0,138.0,23.0
866921,County,2020/09/28,48.0,TX,48317.0,Martin County,1229.0,4524.0,18976.0,4173.0,4029.0,848.0,1882.0,3705.0,3161.0,704.0,409.0,54.0,11.0
871692,County,2020/09/29,48.0,TX,48317.0,Martin County,1165.0,4588.0,18124.0,4700.0,2691.0,1014.0,1657.0,3286.0,3477.0,829.0,348.0,102.0,20.0
873321,County,2020/09/30,48.0,TX,48317.0,Martin County,1258.0,4495.0,20898.0,5835.0,4630.0,650.0,2204.0,3747.0,3103.0,452.0,179.0,80.0,18.0
876485,County,2020/10/01,48.0,TX,48317.0,Martin County,1062.0,4691.0,20481.0,6591.0,3666.0,1097.0,1755.0,4135.0,2521.0,360.0,240.0,102.0,14.0
879689,County,2020/10/02,48.0,TX,48317.0,Martin County,1155.0,4598.0,19609.0,5385.0,3850.0,908.0,2400.0,3538.0,2811.0,361.0,253.0,79.0,24.0
882905,County,2020/10/03,48.0,TX,48317.0,Martin County,1254.0,4499.0,18285.0,5376.0,2819.0,1062.0,2313.0,2918.0,3095.0,254.0,312.0,96.0,40.0
887358,County,2020/10/04,48.0,TX,48317.0,Martin County,1420.0,4333.0,16905.0,5882.0,3065.0,1130.0,1480.0,2350.0,2108.0,515.0,289.0,69.0,17.0
890613,County,2020/10/05,48.0,TX,48317.0,Martin County,1415.0,4338.0,19466.0,5308.0,4307.0,889.0,2437.0,3060.0,2645.0,502.0,212.0,93.0,13.0
893801,County,2020/10/06,48.0,TX,48317.0,Martin County,1166.0,4587.0,19119.0,4611.0,3769.0,1138.0,2368.0,3550.0,2815.0,533.0,197.0,103.0,35.0
896992,County,2020/10/07,48.0,TX,48317.0,Martin County,1075.0,4678.0,18877.0,4759.0,3992.0,740.0,1909.0,3527.0,2727.0,836.0,270.0,88.0,29.0
900158,County,2020/10/08,48.0,TX,48317.0,Martin County,1070.0,4683.0,16527.0,3724.0,3277.0,981.0,2039.0,2782.0,2795.0,619.0,182.0,94.0,34.0
903351,County,2020/10/09,48.0,TX,48317.0,Martin County,1235.0,4518.0,18690.0,4483.0,4231.0,1040.0,1536.0,3742.0,2804.0,587.0,161.0,87.0,19.0
906553,County,2020/10/10,48.0,TX,48317.0,Martin County,1444.0,4309.0,16894.0,3638.0,4937.0,693.0,2109.0,2694.0,2209.0,369.0,151.0,71.0,23.0
907572,County,2020/10/11,48.0,TX,48317.0,Martin County,1171.0,4582.0,16250.0,4961.0,2610.0,547.0,1372.0,3257.0,2445.0,627.0,310.0,86.0,35.0
910791,County,2020/10/12,48.0,TX,48317.0,Martin County,1235.0,4518.0,18544.0,4996.0,3911.0,728.0,2297.0,3254.0,2234.0,698.0,296.0,91.0,39.0
913728,County,2020/10/13,48.0,TX,48317.0,Martin County,1127.0,4626.0,19850.0,6342.0,3364.0,1076.0,1861.0,3723.0,2577.0,581.0,199.0,95.0,32.0
917193,County,2020/10/14,48.0,TX,48317.0,Martin County,1082.0,4671.0,20426.0,5952.0,3788.0,1308.0,2341.0,3115.0,2774.0,805.0,245.0,82.0,16.0
920463,County,2020/10/15,48.0,TX,48317.0,Martin County,1092.0,4661.0,17874.0,5737.0,3691.0,959.0,1482.0,2772.0,2388.0,546.0,226.0,34.0,39.0
923471,County,2020/10/16,48.0,TX,48317.0,Martin County,1092.0,4661.0,18463.0,4394.0,3771.0,1606.0,2553.0,3281.0,1917.0,571.0,228.0,107.0,35.0
927529,County,2020/10/17,48.0,TX,48317.0,Martin County,1196.0,4557.0,16806.0,5088.0,4020.0,971.0,1431.0,2395.0,2042.0,494.0,282.0,59.0,24.0
929876,County,2020/10/18,48.0,TX,48317.0,Martin County,1276.0,4477.0,15606.0,4892.0,3650.0,1022.0,2020.0,1725.0,1579.0,436.0,203.0,56.0,23.0
932846,County,2020/10/19,48.0,TX,48317.0,Martin County,1064.0,4689.0,17387.0,4607.0,3593.0,1009.0,1884.0,3248.0,2354.0,427.0,167.0,72.0,26.0
936299,County,2020/10/20,48.0,TX,48317.0,Martin County,1203.0,4550.0,18856.0,6024.0,3606.0,948.0,1698.0,3357.0,2108.0,764.0,224.0,101.0,26.0
939351,County,2020/10/21,48.0,TX,48317.0,Martin County,1284.0,4469.0,18088.0,4894.0,3668.0,698.0,1831.0,3311.0,2686.0,638.0,232.0,99.0,31.0
942553,County,2020/10/22,48.0,TX,48317.0,Martin County,1121.0,4632.0,19233.0,5102.0,3828.0,1263.0,2007.0,3447.0,2566.0,640.0,286.0,72.0,22.0
945909,County,2020/10/23,48.0,TX,48317.0,Martin County,1050.0,4703.0,19932.0,4450.0,4008.0,1340.0,1771.0,3759.0,3464.0,708.0,347.0,69.0,16.0
949454,County,2020/10/24,48.0,TX,48317.0,Martin County,1195.0,4558.0,20516.0,6469.0,3935.0,1277.0,1938.0,3099.0,2975.0,468.0,229.0,103.0,23.0
