,Level,Date,State FIPS,State Postal Code,County FIPS,County Name,Population Staying at Home,Population Not Staying at Home,Number of Trips,Number of Trips <1,Number of Trips 1-3,Number of Trips 3-5,Number of Trips 5-10,Number of Trips 10-25,Number of Trips 25-50,Number of Trips 50-100,Number of Trips 100-250,Number of Trips 250-500,Number of Trips >=500
81,County,2020/01/01,2.0,AK,2158.0,Kusilvak Census Area,3817.0,4486.0,17423.0,11560.0,802.0,213.0,3344.0,1484.0,0.0,0.0,0.0,0.0,20.0
5463,County,2020/01/02,2.0,AK,2158.0,Kusilvak Census Area,3598.0,4705.0,24402.0,6388.0,1286.0,711.0,893.0,3963.0,8957.0,2067.0,124.0,0.0,13.0
8538,County,2020/01/03,2.0,AK,2158.0,Kusilvak Census Area,3922.0,4381.0,7248.0,3082.0,366.0,729.0,3048.0,0.0,0.0,0.0,0.0,0.0,23.0
12710,County,2020/01/04,2.0,AK,2158.0,Kusilvak Census Area,3837.0,4466.0,28221.0,9602.0,320.0,849.0,2663.0,14777.0,0.0,0.0,0.0,0.0,10.0
12857,County,2020/01/05,2.0,AK,2158.0,Kusilvak Census Area,4072.0,4231.0,13629.0,6514.0,265.0,1056.0,3311.0,2450.0,0.0,0.0,0.0,0.0,33.0
17616,County,2020/01/06,2.0,AK,2158.0,Kusilvak Census Area,3855.0,4448.0,8618.0,4050.0,318.0,634.0,663.0,2943.0,0.0,0.0,0.0,0.0,10.0
19207,County,2020/01/07,2.0,AK,2158.0,Kusilvak Census Area,3593.0,4710.0,14273.0,7264.0,944.0,627.0,983.0,4364.0,0.0,0.0,91.0,0.0,0.0
22390,County,2020/01/08,2.0,AK,2158.0,Kusilvak Census Area,4067.0,4236.0,6041.0,3819.0,796.0,1409.0,0.0,0.0,0.0,0.0,0.0,0.0,17.0
25584,County,2020/01/09,2.0,AK,2158.0,Kusilvak Census Area,3897.0,4406.0,21781.0,4584.0,184.0,977.0,2299.0,3402.0,10252.0,0.0,71.0,0.0,12.0
28779,County,2020/01/10,2.0,AK,2158.0,Kusilvak Census Area,3800.0,4503.0,8826.0,2520.0,846.0,374.0,1175.0,3911.0,0.0,0.0,0.0,0.0,0.0
33638,County,2020/01/11,2.0,AK,2158.0,Kusilvak Census Area,3905.0,4398.0,11191.0,6095.0,551.0,1463.0,3059.0,0.0,0.0,0.0,0.0,0.0,23.0
35176,County,2020/01/12,2.0,AK,2158.0,Kusilvak Census Area,4087.0,4216.0,6813.0,3367.0,528.0,701.0,2200.0,0.0,0.0,0.0,0.0,0.0,17.0
39956,County,2020/01/13,2.0,AK,2158.0,Kusilvak Census Area,4010.0,4293.0,8019.0,6548.0,1075.0,286.0,0.0,0.0,0.0,0.0,83.0,0.0,27.0
41581,County,2020/01/14,2.0,AK,2158.0,Kusilvak Census Area,3905.0,4398.0,9091.0,6362.0,551.0,244.0,0.0,1698.0,0.0,0.0,213.0,0.0,23.0
46310,County,2020/01/15,2.0,AK,2158.0,Kusilvak Census Area,3961.0,4342.0,18491.0,5253.0,652.0,2022.0,4531.0,6033.0,0.0,0.0,0.0,0.0,0.0
49409,County,2020/01/16,2.0,AK,2158.0,Kusilvak Census Area,4044.0,4259.0,3299.0,2466.0,800.0,0.0,0.0,0.0,0.0,0.0,0.0,0.0,33.0
51142,County,2020/01/17,2.0,AK,2158.0,Kusilvak Census Area,4044.0,4259.0,14497.0,4700.0,1067.0,708.0,5556.0,2466.0,0.0,0.0,0.0,0.0,0.0
55923,County,2020/01/18,2.0,AK,2158.0,Kusilvak Census Area,3602.0,4701.0,28625.0,6132.0,392.0,1043.0,1635.0,4839.0,14584.0,0.0,0.0,0.0,0.0
57523,County,2020/01/19,2.0,AK,2158.0,Kusilvak Census Area,4044.0,4259.0,31342.0,5375.0,0.0,354.0,3333.0,7398.0,14865.0,0.0,0.0,0.0,17.0
62285,County,2020/01/20,2.0,AK,2158.0,Kusilvak Census Area,3874.0,4429.0,7033.0,4548.0,919.0,291.0,1270.0,0.0,0.0,0.0,0.0,0.0,5.0
63912,County,2020/01/21,2.0,AK,2158.0,Kusilvak Census Area,3961.0,4342.0,24321.0,4993.0,1740.0,1444.0,0.0,4022.0,12122.0,0.0,0.0,0.0,0.0
67113,County,2020/01/22,2.0,AK,2158.0,Kusilvak Census Area,3726.0,4577.0,15836.0,6741.0,1146.0,952.0,2985.0,0.0,3994.0,0.0,0.0,0.0,18.0
71905,County,2020/01/23,2.0,AK,2158.0,Kusilvak Census Area,4131.0,4172.0,15034.0,7039.0,0.0,1850.0,2902.0,3221.0,0.0,0.0,0.0,0.0,22.0
73495,County,2020/01/24,2.0,AK,2158.0,Kusilvak Census Area,3961.0,4342.0,10231.0,3037.0,435.0,1733.0,906.0,4022.0,0.0,0.0,84.0,0.0,14.0
76689,County,2020/01/25,2.0,AK,2158.0,Kusilvak Census Area,4087.0,4216.0,15378.0,6414.0,528.0,2454.0,1100.0,4882.0,0.0,0.0,0.0,0.0,0.0
79931,County,2020/01/26,2.0,AK,2158.0,Kusilvak Census Area,3914.0,4389.0,21419.0,6603.0,550.0,1947.0,1527.0,0.0,0.0,10604.0,142.0,0.0,46.0
84121,County,2020/01/27,2.0,AK,2158.0,Kusilvak Census Area,3846.0,4457.0,40387.0,8652.0,478.0,847.0,3322.0,4424.0,13333.0,9229.0,62.0,0.0,40.0
86286,County,2020/01/28,2.0,AK,2158.0,Kusilvak Census Area,3970.0,4333.0,16413.0,7431.0,1266.0,1922.0,754.0,5017.0,0.0,0.0,0.0,0.0,23.0
91018,County,2020/01/29,2.0,AK,2158.0,Kusilvak Census Area,3855.0,4448.0,12428.0,7964.0,159.0,846.0,3316.0,0.0,0.0,0.0,123.0,0.0,20.0
94368,County,2020/01/30,2.0,AK,2158.0,Kusilvak Census Area,3525.0,4778.0,15196.0,7023.0,460.0,489.0,1918.0,1702.0,0.0,3551.0,36.0,0.0,17.0
97418,County,2020/01/31,2.0,AK,2158.0,Kusilvak Census Area,3475.0,4828.0,14546.0,7037.0,403.0,321.0,3023.0,3727.0,0.0,0.0,0.0,0.0,35.0
99095,County,2020/02/01,2.0,AK,2158.0,Kusilvak Census Area,3758.0,4545.0,20104.0,7178.0,455.0,454.0,2372.0,7369.0,0.0,2196.0,44.0,0.0,36.0
102222,County,2020/02/02,2.0,AK,2158.0,Kusilvak Census Area,4066.0,4237.0,21333.0,2826.0,212.0,564.0,0.0,5888.0,11830.0,0.0,0.0,0.0,13.0
105434,County,2020/02/03,2.0,AK,2158.0,Kusilvak Census Area,3903.0,4400.0,7811.0,2914.0,1102.0,1673.0,656.0,1456.0,0.0,0.0,0.0,0.0,10.0
110194,County,2020/02/04,2.0,AK,2158.0,Kusilvak Census Area,3982.0,4321.0,12734.0,4632.0,1082.0,479.0,1503.0,0.0,5027.0,0.0,0.0,0.0,11.0
111822,County,2020/02/05,2.0,AK,2158.0,Kusilvak Census Area,3994.0,4309.0,13401.0,5526.0,1439.0,717.0,2249.0,0.0,0.0,3470.0,0.0,0.0,0.0
116500,County,2020/02/06,2.0,AK,2158.0,Kusilvak Census Area,3522.0,4781.0,19861.0,9872.0,878.0,424.0,333.0,0.0,6675.0,1540.0,124.0,0.0,15.0
119811,County,2020/02/07,2.0,AK,2158.0,Kusilvak Census Area,3894.0,4409.0,30418.0,10701.0,736.0,1141.0,511.0,6808.0,3420.0,7101.0,0.0,0.0,0.0
123019,County,2020/02/08,2.0,AK,2158.0,Kusilvak Census Area,3847.0,4456.0,13862.0,4077.0,781.0,296.0,1395.0,5160.0,0.0,2153.0,0.0,0.0,0.0
124598,County,2020/02/09,2.0,AK,2158.0,Kusilvak Census Area,4226.0,4077.0,16931.0,4892.0,1430.0,253.0,398.0,2645.0,5315.0,1839.0,111.0,0.0,48.0
128390,County,2020/02/10,2.0,AK,2158.0,Kusilvak Census Area,4002.0,4301.0,15772.0,6576.0,604.0,0.0,0.0,4193.0,4213.0,0.0,176.0,0.0,10.0
131036,County,2020/02/11,2.0,AK,2158.0,Kusilvak Census Area,3886.0,4417.0,22769.0,7405.0,679.0,225.0,0.0,1569.0,9463.0,3275.0,132.0,0.0,21.0
134655,County,2020/02/12,2.0,AK,2158.0,Kusilvak Census Area,3767.0,4536.0,9039.0,3359.0,599.0,568.0,356.0,791.0,0.0,3297.0,0.0,0.0,69.0
138988,County,2020/02/13,2.0,AK,2158.0,Kusilvak Census Area,3770.0,4533.0,15589.0,6300.0,860.0,980.0,1537.0,1137.0,0.0,4744.0,0.0,0.0,31.0
142093,County,2020/02/14,2.0,AK,2158.0,Kusilvak Census Area,3944.0,4359.0,16369.0,9363.0,271.0,181.0,0.0,1257.0,0.0,5245.0,0.0,0.0,52.0
143765,County,2020/02/15,2.0,AK,2158.0,Kusilvak Census Area,4258.0,4045.0,22789.0,5813.0,0.0,770.0,0.0,0.0,16151.0,0.0,0.0,0.0,55.0
146956,County,2020/02/16,2.0,AK,2158.0,Kusilvak Census Area,4219.0,4084.0,8032.0,3260.0,388.0,773.0,0.0,3587.0,0.0,0.0,0.0,0.0,24.0
151718,County,2020/02/17,2.0,AK,2158.0,Kusilvak Census Area,5514.0,2789.0,16383.0,7582.0,1286.0,2135.0,5359.0,0.0,0.0,0.0,0.0,0.0,21.0
153344,County,2020/02/18,2.0,AK,2158.0,Kusilvak Census Area,3658.0,4645.0,15192.0,4742.0,810.0,1211.0,844.0,5619.0,0.0,1954.0,0.0,0.0,12.0
158104,County,2020/02/19,2.0,AK,2158.0,Kusilvak Census Area,3535.0,4768.0,8721.0,4056.0,1686.0,517.0,1081.0,1199.0,0.0,0.0,150.0,0.0,32.0
159743,County,2020/02/20,2.0,AK,2158.0,Kusilvak Census Area,3887.0,4416.0,14959.0,843.0,1395.0,1588.0,3321.0,0.0,0.0,7686.0,77.0,0.0,49.0
162926,County,2020/02/21,2.0,AK,2158.0,Kusilvak Census Area,3942.0,4361.0,15716.0,6663.0,863.0,229.0,1437.0,1595.0,4808.0,0.0,67.0,0.0,54.0
166120,County,2020/02/22,2.0,AK,2158.0,Kusilvak Census Area,3347.0,4956.0,15087.0,2803.0,707.0,1314.0,3534.0,3921.0,0.0,2727.0,54.0,0.0,27.0
170884,County,2020/02/23,2.0,AK,2158.0,Kusilvak Census Area,3801.0,4502.0,19447.0,3190.0,1411.0,0.0,1470.0,1631.0,4917.0,6806.0,0.0,0.0,22.0
172513,County,2020/02/24,2.0,AK,2158.0,Kusilvak Census Area,3831.0,4472.0,19804.0,7712.0,1408.0,2040.0,3734.0,2367.0,0.0,2469.0,50.0,0.0,24.0
176487,County,2020/02/25,2.0,AK,2158.0,Kusilvak Census Area,3476.0,4827.0,8757.0,4893.0,1584.0,701.0,1466.0,0.0,0.0,0.0,68.0,0.0,45.0
178945,County,2020/02/26,2.0,AK,2158.0,Kusilvak Census Area,2592.0,5711.0,11195.0,7421.0,1929.0,1781.0,0.0,0.0,0.0,0.0,64.0,0.0,0.0
183112,County,2020/02/27,2.0,AK,2158.0,Kusilvak Census Area,3630.0,4673.0,23225.0,8876.0,928.0,1232.0,644.0,2859.0,8617.0,0.0,59.0,0.0,10.0
185328,County,2020/02/28,2.0,AK,2158.0,Kusilvak Census Area,3539.0,4764.0,19313.0,6862.0,1277.0,1017.0,533.0,2362.0,7116.0,0.0,98.0,0.0,48.0
189997,County,2020/02/29,2.0,AK,2158.0,Kusilvak Census Area,3726.0,4577.0,12448.0,9035.0,1058.0,1405.0,734.0,0.0,0.0,0.0,205.0,0.0,11.0
193262,County,2020/03/01,2.0,AK,2158.0,Kusilvak Census Area,3903.0,4400.0,22039.0,4402.0,360.0,957.0,3001.0,13319.0,0.0,0.0,0.0,0.0,0.0
196469,County,2020/03/02,2.0,AK,2158.0,Kusilvak Census Area,3819.0,4484.0,21122.0,6556.0,0.0,2183.0,8559.0,3798.0,0.0,0.0,0.0,0.0,26.0
199529,County,2020/03/03,2.0,AK,2158.0,Kusilvak Census Area,3072.0,5231.0,7678.0,1191.0,366.0,807.0,1088.0,4214.0,0.0,0.0,0.0,0.0,12.0
201954,County,2020/03/04,2.0,AK,2158.0,Kusilvak Census Area,3402.0,4901.0,101963.0,6052.0,2647.0,1757.0,5513.0,12236.0,73758.0,0.0,0.0,0.0,0.0
205981,County,2020/03/05,2.0,AK,2158.0,Kusilvak Census Area,3050.0,5253.0,53677.0,5231.0,685.0,1819.0,1427.0,6334.0,38181.0,0.0,0.0,0.0,0.0
209199,County,2020/03/06,2.0,AK,2158.0,Kusilvak Census Area,3099.0,5204.0,15344.0,5625.0,0.0,1221.0,0.0,8498.0,0.0,0.0,0.0,0.0,0.0
212481,County,2020/03/07,2.0,AK,2158.0,Kusilvak Census Area,2987.0,5316.0,13264.0,10893.0,1178.0,1174.0,0.0,0.0,0.0,0.0,0.0,0.0,19.0
214030,County,2020/03/08,2.0,AK,2158.0,Kusilvak Census Area,3242.0,5061.0,13070.0,4466.0,1648.0,730.0,1145.0,5081.0,0.0,0.0,0.0,0.0,0.0
217233,County,2020/03/09,2.0,AK,2158.0,Kusilvak Census Area,3361.0,4942.0,26741.0,5851.0,654.0,434.0,1363.0,12105.0,0.0,6313.0,0.0,0.0,21.0
222034,County,2020/03/10,2.0,AK,2158.0,Kusilvak Census Area,3104.0,5199.0,15732.0,11682.0,795.0,865.0,758.0,1553.0,0.0,0.0,59.0,0.0,20.0
223609,County,2020/03/11,2.0,AK,2158.0,Kusilvak Census Area,2188.0,6115.0,41020.0,35033.0,1634.0,1683.0,1615.0,1049.0,0.0,0.0,0.0,0.0,6.0
229880,County,2020/03/12,2.0,AK,2158.0,Kusilvak Census Area,2294.0,6009.0,34640.0,28472.0,1267.0,1183.0,1740.0,1915.0,0.0,0.0,47.0,0.0,16.0
230001,County,2020/03/13,2.0,AK,2158.0,Kusilvak Census Area,2308.0,5995.0,29613.0,24731.0,1082.0,250.0,1163.0,2387.0,0.0,0.0,0.0,0.0,0.0
233199,County,2020/03/14,2.0,AK,2158.0,Kusilvak Census Area,2601.0,5702.0,17356.0,15096.0,819.0,807.0,621.0,0.0,0.0,0.0,0.0,0.0,13.0
237953,County,2020/03/15,2.0,AK,2158.0,Kusilvak Census Area,4015.0,4288.0,10117.0,4056.0,807.0,0.0,5047.0,0.0,0.0,0.0,156.0,0.0,51.0
239582,County,2020/03/16,2.0,AK,2158.0,Kusilvak Census Area,3779.0,4524.0,11025.0,7733.0,627.0,634.0,0.0,2022.0,0.0,0.0,0.0,0.0,9.0
244388,County,2020/03/17,2.0,AK,2158.0,Kusilvak Census Area,4054.0,4249.0,8373.0,5150.0,727.0,614.0,461.0,1421.0,0.0,0.0,0.0,0.0,0.0
247495,County,2020/03/18,2.0,AK,2158.0,Kusilvak Census Area,4202.0,4101.0,11657.0,5491.0,1106.0,303.0,1355.0,2135.0,0.0,1195.0,72.0,0.0,0.0
249173,County,2020/03/19,2.0,AK,2158.0,Kusilvak Census Area,4260.0,4043.0,24528.0,22954.0,656.0,675.0,237.0,0.0,0.0,0.0,0.0,0.0,6.0
253925,County,2020/03/20,2.0,AK,2158.0,Kusilvak Census Area,4289.0,4014.0,16564.0,11109.0,474.0,240.0,952.0,2341.0,0.0,1444.0,0.0,0.0,4.0
255552,County,2020/03/21,2.0,AK,2158.0,Kusilvak Census Area,4651.0,3652.0,18553.0,2723.0,0.0,0.0,0.0,15612.0,0.0,0.0,218.0,0.0,0.0
260305,County,2020/03/22,2.0,AK,2158.0,Kusilvak Census Area,3857.0,4446.0,12687.0,1688.0,585.0,365.0,4492.0,0.0,5524.0,0.0,33.0,0.0,0.0
263517,County,2020/03/23,2.0,AK,2158.0,Kusilvak Census Area,3940.0,4363.0,4222.0,2143.0,158.0,458.0,1463.0,0.0,0.0,0.0,0.0,0.0,0.0
265144,County,2020/03/24,2.0,AK,2158.0,Kusilvak Census Area,3989.0,4314.0,5014.0,1338.0,149.0,610.0,1138.0,1751.0,0.0,0.0,0.0,0.0,28.0
269895,County,2020/03/25,2.0,AK,2158.0,Kusilvak Census Area,3897.0,4406.0,4942.0,1485.0,193.0,378.0,1034.0,1811.0,0.0,0.0,41.0,0.0,0.0
271522,County,2020/03/26,2.0,AK,2158.0,Kusilvak Census Area,3880.0,4423.0,9329.0,5074.0,225.0,123.0,571.0,1758.0,0.0,1568.0,0.0,0.0,10.0
276284,County,2020/03/27,2.0,AK,2158.0,Kusilvak Census Area,3896.0,4407.0,10843.0,4626.0,172.0,184.0,984.0,1010.0,3858.0,0.0,0.0,0.0,9.0
277911,County,2020/03/28,2.0,AK,2158.0,Kusilvak Census Area,3819.0,4484.0,7771.0,3474.0,386.0,419.0,473.0,1718.0,1295.0,0.0,0.0,0.0,6.0
282670,County,2020/03/29,2.0,AK,2158.0,Kusilvak Census Area,3899.0,4404.0,5479.0,3215.0,298.0,341.0,227.0,1398.0,0.0,0.0,0.0,0.0,0.0
284298,County,2020/03/30,2.0,AK,2158.0,Kusilvak Census Area,3857.0,4446.0,6422.0,2867.0,198.0,247.0,1109.0,1991.0,0.0,0.0,0.0,0.0,10.0
289101,County,2020/03/31,2.0,AK,2158.0,Kusilvak Census Area,3863.0,4440.0,11728.0,5731.0,866.0,993.0,1130.0,1545.0,0.0,1454.0,0.0,0.0,9.0
290729,County,2020/04/01,2.0,AK,2158.0,Kusilvak Census Area,3935.0,4368.0,10101.0,7548.0,1214.0,892.0,441.0,0.0,0.0,0.0,0.0,0.0,6.0
295461,County,2020/04/02,2.0,AK,2158.0,Kusilvak Census Area,4029.0,4274.0,797.0,385.0,227.0,185.0,0.0,0.0,0.0,0.0,0.0,0.0,0.0
298688,County,2020/04/03,2.0,AK,2158.0,Kusilvak Census Area,3987.0,4316.0,5618.0,3500.0,343.0,467.0,1308.0,0.0,0.0,0.0,0.0,0.0,0.0
300268,County,2020/04/04,2.0,AK,2158.0,Kusilvak Census Area,3976.0,4327.0,7488.0,5316.0,352.0,479.0,1341.0,0.0,0.0,0.0,0.0,0.0,0.0
305022,County,2020/04/05,2.0,AK,2158.0,Kusilvak Census Area,3939.0,4364.0,3887.0,2530.0,189.0,206.0,962.0,0.0,0.0,0.0,0.0,0.0,0.0
308222,County,2020/04/06,2.0,AK,2158.0,Kusilvak Census Area,3869.0,4434.0,6575.0,3926.0,268.0,289.0,2092.0,0.0,0.0,0.0,0.0,0.0,0.0
311461,County,2020/04/07,2.0,AK,2158.0,Kusilvak Census Area,3967.0,4336.0,7213.0,3243.0,694.0,0.0,1547.0,1729.0,0.0,0.0,0.0,0.0,0.0
314634,County,2020/04/08,2.0,AK,2158.0,Kusilvak Census Area,3943.0,4360.0,15133.0,3805.0,174.0,0.0,1988.0,9166.0,0.0,0.0,0.0,0.0,0.0
319342,County,2020/04/09,2.0,AK,2158.0,Kusilvak Census Area,3849.0,4454.0,12453.0,3392.0,288.0,252.0,1469.0,5950.0,0.0,1095.0,0.0,0.0,7.0
320999,County,2020/04/10,2.0,AK,2158.0,Kusilvak Census Area,3920.0,4383.0,8915.0,3580.0,267.0,311.0,2076.0,2681.0,0.0,0.0,0.0,0.0,0.0
322626,County,2020/04/11,2.0,AK,2158.0,Kusilvak Census Area,3915.0,4388.0,5525.0,3377.0,252.0,147.0,686.0,1056.0,0.0,0.0,0.0,0.0,7.0
327356,County,2020/04/12,2.0,AK,2158.0,Kusilvak Census Area,4054.0,4249.0,6582.0,4642.0,359.0,228.0,533.0,820.0,0.0,0.0,0.0,0.0,0.0
330630,County,2020/04/13,2.0,AK,2158.0,Kusilvak Census Area,4037.0,4266.0,11696.0,9188.0,393.0,367.0,429.0,1319.0,0.0,0.0,0.0,0.0,0.0
332208,County,2020/04/14,2.0,AK,2158.0,Kusilvak Census Area,3192.0,5111.0,7915.0,7433.0,312.0,170.0,0.0,0.0,0.0,0.0,0.0,0.0,0.0
337010,County,2020/04/15,2.0,AK,2158.0,Kusilvak Census Area,3109.0,5194.0,3476.0,2618.0,387.0,464.0,0.0,0.0,0.0,0.0,0.0,0.0,7.0
341675,County,2020/04/16,2.0,AK,2158.0,Kusilvak Census Area,3281.0,5022.0,1380.0,970.0,410.0,0.0,0.0,0.0,0.0,0.0,0.0,0.0,0.0
343415,County,2020/04/17,2.0,AK,2158.0,Kusilvak Census Area,3153.0,5150.0,749.0,749.0,0.0,0.0,0.0,0.0,0.0,0.0,0.0,0.0,0.0
344993,County,2020/04/18,2.0,AK,2158.0,Kusilvak Census Area,3271.0,5032.0,75001.0,62495.0,3171.0,1594.0,1859.0,0.0,5882.0,0.0,0.0,0.0,0.0
348165,County,2020/04/19,2.0,AK,2158.0,Kusilvak Census Area,3188.0,5115.0,15827.0,13483.0,887.0,662.0,795.0,0.0,0.0,0.0,0.0,0.0,0.0
351372,County,2020/04/20,2.0,AK,2158.0,Kusilvak Census Area,2871.0,5432.0,7371.0,538.0,150.0,122.0,1706.0,1750.0,0.0,3105.0,0.0,0.0,0.0
354564,County,2020/04/21,2.0,AK,2158.0,Kusilvak Census Area,3948.0,4355.0,7055.0,1958.0,398.0,896.0,1935.0,1868.0,0.0,0.0,0.0,0.0,0.0
359336,County,2020/04/22,2.0,AK,2158.0,Kusilvak Census Area,3864.0,4439.0,5857.0,2664.0,714.0,670.0,881.0,928.0,0.0,0.0,0.0,0.0,0.0
362446,County,2020/04/23,2.0,AK,2158.0,Kusilvak Census Area,3852.0,4451.0,8739.0,5141.0,475.0,623.0,1080.0,1420.0,0.0,0.0,0.0,0.0,0.0
365754,County,2020/04/24,2.0,AK,2158.0,Kusilvak Census Area,3880.0,4423.0,5774.0,3529.0,439.0,272.0,1521.0,0.0,0.0,0.0,0.0,0.0,13.0
368910,County,2020/04/25,2.0,AK,2158.0,Kusilvak Census Area,3954.0,4349.0,9477.0,5618.0,291.0,95.0,3473.0,0.0,0.0,0.0,0.0,0.0,0.0
372033,County,2020/04/26,2.0,AK,2158.0,Kusilvak Census Area,3972.0,4331.0,7652.0,5739.0,349.0,760.0,798.0,0.0,0.0,0.0,0.0,0.0,6.0
373730,County,2020/04/27,2.0,AK,2158.0,Kusilvak Census Area,3933.0,4370.0,6567.0,4662.0,175.0,837.0,887.0,0.0,0.0,0.0,0.0,0.0,6.0
376928,County,2020/04/28,2.0,AK,2158.0,Kusilvak Census Area,3917.0,4386.0,6243.0,2833.0,302.0,281.0,1480.0,1343.0,0.0,0.0,0.0,0.0,4.0
380133,County,2020/04/29,2.0,AK,2158.0,Kusilvak Census Area,3962.0,4341.0,9006.0,2112.0,346.0,188.0,439.0,5921.0,0.0,0.0,0.0,0.0,0.0
384879,County,2020/04/30,2.0,AK,2158.0,Kusilvak Census Area,3956.0,4347.0,12601.0,5575.0,380.0,155.0,1088.0,3346.0,2057.0,0.0,0.0,0.0,0.0
388115,County,2020/05/01,2.0,AK,2158.0,Kusilvak Census Area,3919.0,4384.0,13083.0,7039.0,631.0,94.0,1472.0,1350.0,2488.0,0.0,0.0,0.0,9.0
391264,County,2020/05/02,2.0,AK,2158.0,Kusilvak Census Area,3942.0,4361.0,7313.0,2394.0,599.0,129.0,2337.0,1854.0,0.0,0.0,0.0,0.0,0.0
392899,County,2020/05/03,2.0,AK,2158.0,Kusilvak Census Area,3909.0,4394.0,10784.0,1914.0,808.0,531.0,1783.0,5748.0,0.0,0.0,0.0,0.0,0.0
396110,County,2020/05/04,2.0,AK,2158.0,Kusilvak Census Area,3759.0,4544.0,13181.0,7773.0,613.0,234.0,437.0,2690.0,1431.0,0.0,0.0,0.0,3.0
399282,County,2020/05/05,2.0,AK,2158.0,Kusilvak Census Area,3900.0,4403.0,30762.0,28873.0,976.0,159.0,744.0,0.0,0.0,0.0,0.0,0.0,10.0
404036,County,2020/05/06,2.0,AK,2158.0,Kusilvak Census Area,3863.0,4440.0,25296.0,21368.0,917.0,0.0,2333.0,678.0,0.0,0.0,0.0,0.0,0.0
408748,County,2020/05/07,2.0,AK,2158.0,Kusilvak Census Area,3893.0,4410.0,7870.0,6035.0,434.0,0.0,1386.0,0.0,0.0,0.0,0.0,0.0,15.0
408920,County,2020/05/08,2.0,AK,2158.0,Kusilvak Census Area,3930.0,4373.0,17728.0,16670.0,409.0,365.0,284.0,0.0,0.0,0.0,0.0,0.0,0.0
412070,County,2020/05/09,2.0,AK,2158.0,Kusilvak Census Area,3827.0,4476.0,31017.0,28751.0,636.0,519.0,519.0,576.0,0.0,0.0,0.0,0.0,16.0
415252,County,2020/05/10,2.0,AK,2158.0,Kusilvak Census Area,3970.0,4333.0,60183.0,59110.0,1056.0,0.0,0.0,0.0,0.0,0.0,0.0,0.0,17.0
418446,County,2020/05/11,2.0,AK,2158.0,Kusilvak Census Area,4295.0,4008.0,3920.0,2751.0,502.0,667.0,0.0,0.0,0.0,0.0,0.0,0.0,0.0
423303,County,2020/05/12,2.0,AK,2158.0,Kusilvak Census Area,4305.0,3998.0,1095.0,1032.0,0.0,0.0,0.0,0.0,0.0,0.0,0.0,0.0,63.0
424835,County,2020/05/13,2.0,AK,2158.0,Kusilvak Census Area,4207.0,4096.0,5088.0,3638.0,769.0,681.0,0.0,0.0,0.0,0.0,0.0,0.0,0.0
429642,County,2020/05/14,2.0,AK,2158.0,Kusilvak Census Area,4224.0,4079.0,4800.0,3695.0,766.0,339.0,0.0,0.0,0.0,0.0,0.0,0.0,0.0
431223,County,2020/05/15,2.0,AK,2158.0,Kusilvak Census Area,4131.0,4172.0,8310.0,6045.0,348.0,231.0,0.0,1610.0,0.0,0.0,0.0,0.0,76.0
436022,County,2020/05/16,2.0,AK,2158.0,Kusilvak Census Area,4177.0,4126.0,6682.0,5532.0,775.0,343.0,0.0,0.0,0.0,0.0,0.0,0.0,32.0
440705,County,2020/05/17,2.0,AK,2158.0,Kusilvak Census Area,3735.0,4568.0,13932.0,7893.0,872.0,279.0,1090.0,1336.0,2462.0,0.0,0.0,0.0,0.0
442420,County,2020/05/18,2.0,AK,2158.0,Kusilvak Census Area,3821.0,4482.0,7979.0,3801.0,314.0,154.0,1617.0,736.0,1357.0,0.0,0.0,0.0,0.0
445582,County,2020/05/19,2.0,AK,2158.0,Kusilvak Census Area,3827.0,4476.0,13856.0,2912.0,283.0,206.0,480.0,1419.0,8556.0,0.0,0.0,0.0,0.0
448760,County,2020/05/20,2.0,AK,2158.0,Kusilvak Census Area,3872.0,4431.0,7513.0,3284.0,254.0,277.0,0.0,0.0,3698.0,0.0,0.0,0.0,0.0
450386,County,2020/05/21,2.0,AK,2158.0,Kusilvak Census Area,3809.0,4494.0,12230.0,10888.0,390.0,212.0,740.0,0.0,0.0,0.0,0.0,0.0,0.0
455144,County,2020/05/22,2.0,AK,2158.0,Kusilvak Census Area,3784.0,4519.0,22684.0,17742.0,347.0,469.0,1412.0,2714.0,0.0,0.0,0.0,0.0,0.0
458355,County,2020/05/23,2.0,AK,2158.0,Kusilvak Census Area,3734.0,4569.0,14324.0,8174.0,488.0,236.0,1470.0,3956.0,0.0,0.0,0.0,0.0,0.0
459984,County,2020/05/24,2.0,AK,2158.0,Kusilvak Census Area,4153.0,4150.0,15336.0,11236.0,208.0,1104.0,866.0,1922.0,0.0,0.0,0.0,0.0,0.0
464814,County,2020/05/25,2.0,AK,2158.0,Kusilvak Census Area,4155.0,4148.0,5122.0,4404.0,416.0,276.0,0.0,0.0,0.0,0.0,0.0,0.0,26.0
467970,County,2020/05/26,2.0,AK,2158.0,Kusilvak Census Area,3957.0,4346.0,4913.0,908.0,762.0,289.0,907.0,2013.0,0.0,0.0,0.0,0.0,34.0
471162,County,2020/05/27,2.0,AK,2158.0,Kusilvak Census Area,4286.0,4017.0,9477.0,6878.0,503.0,0.0,2096.0,0.0,0.0,0.0,0.0,0.0,0.0
474260,County,2020/05/28,2.0,AK,2158.0,Kusilvak Census Area,4040.0,4263.0,8241.0,3827.0,949.0,630.0,494.0,0.0,0.0,2288.0,46.0,0.0,7.0
475939,County,2020/05/29,2.0,AK,2158.0,Kusilvak Census Area,3937.0,4366.0,10290.0,4076.0,298.0,0.0,1243.0,1839.0,2771.0,0.0,38.0,0.0,25.0
479126,County,2020/05/30,2.0,AK,2158.0,Kusilvak Census Area,4144.0,4159.0,18387.0,1968.0,208.0,553.0,0.0,0.0,11613.0,4019.0,0.0,0.0,26.0
483844,County,2020/05/31,2.0,AK,2158.0,Kusilvak Census Area,4129.0,4174.0,11127.0,2525.0,1568.0,0.0,2178.0,0.0,4856.0,0.0,0.0,0.0,0.0
485521,County,2020/06/01,2.0,AK,2158.0,Kusilvak Census Area,4285.0,4018.0,21086.0,5555.0,503.0,668.0,0.0,4653.0,0.0,9707.0,0.0,0.0,0.0
488761,County,2020/06/02,2.0,AK,2158.0,Kusilvak Census Area,4151.0,4152.0,7539.0,6431.0,832.0,276.0,0.0,0.0,0.0,0.0,0.0,0.0,0.0
493475,County,2020/06/03,2.0,AK,2158.0,Kusilvak Census Area,4062.0,4241.0,16992.0,7481.0,1195.0,353.0,553.0,0.0,7402.0,0.0,0.0,0.0,8.0
495093,County,2020/06/04,2.0,AK,2158.0,Kusilvak Census Area,4240.0,4063.0,35329.0,5217.0,339.0,0.0,1413.0,0.0,28360.0,0.0,0.0,0.0,0.0
499869,County,2020/06/05,2.0,AK,2158.0,Kusilvak Census Area,4240.0,4063.0,17332.0,13827.0,678.0,0.0,2827.0,0.0,0.0,0.0,0.0,0.0,0.0
501491,County,2020/06/06,2.0,AK,2158.0,Kusilvak Census Area,4074.0,4229.0,10908.0,5431.0,757.0,402.0,0.0,1399.0,0.0,2919.0,0.0,0.0,0.0
506218,County,2020/06/07,2.0,AK,2158.0,Kusilvak Census Area,3577.0,4726.0,15000.0,5811.0,928.0,0.0,430.0,953.0,2874.0,3979.0,0.0,0.0,25.0
509432,County,2020/06/08,2.0,AK,2158.0,Kusilvak Census Area,4024.0,4279.0,9577.0,4048.0,214.0,285.0,0.0,1982.0,2987.0,0.0,41.0,0.0,20.0
512635,County,2020/06/09,2.0,AK,2158.0,Kusilvak Census Area,4031.0,4272.0,9260.0,5442.0,1605.0,533.0,1672.0,0.0,0.0,0.0,0.0,0.0,8.0
514267,County,2020/06/10,2.0,AK,2158.0,Kusilvak Census Area,3877.0,4426.0,5482.0,2980.0,1109.0,0.0,1386.0,0.0,0.0,0.0,0.0,0.0,7.0
517469,County,2020/06/11,2.0,AK,2158.0,Kusilvak Census Area,4068.0,4235.0,6519.0,3363.0,1061.0,201.0,1894.0,0.0,0.0,0.0,0.0,0.0,0.0
520673,County,2020/06/12,2.0,AK,2158.0,Kusilvak Census Area,4086.0,4217.0,7809.0,5522.0,528.0,935.0,734.0,0.0,0.0,0.0,68.0,0.0,22.0
523848,County,2020/06/13,2.0,AK,2158.0,Kusilvak Census Area,4086.0,4217.0,13800.0,5015.0,176.0,468.0,1467.0,3256.0,0.0,3396.0,0.0,0.0,22.0
527043,County,2020/06/14,2.0,AK,2158.0,Kusilvak Census Area,4173.0,4130.0,18759.0,17044.0,827.0,0.0,862.0,0.0,0.0,0.0,0.0,0.0,26.0
530240,County,2020/06/15,2.0,AK,2158.0,Kusilvak Census Area,4201.0,4102.0,6339.0,5312.0,1027.0,0.0,0.0,0.0,0.0,0.0,0.0,0.0,0.0
533431,County,2020/06/16,2.0,AK,2158.0,Kusilvak Census Area,3980.0,4323.0,19127.0,12853.0,974.0,144.0,0.0,0.0,3018.0,2089.0,42.0,0.0,7.0
536625,County,2020/06/17,2.0,AK,2158.0,Kusilvak Census Area,4071.0,4232.0,7552.0,5693.0,606.0,603.0,631.0,0.0,0.0,0.0,0.0,0.0,19.0
539818,County,2020/06/18,2.0,AK,2158.0,Kusilvak Census Area,4058.0,4245.0,9627.0,6595.0,1215.0,403.0,0.0,1404.0,0.0,0.0,0.0,0.0,10.0
543012,County,2020/06/19,2.0,AK,2158.0,Kusilvak Census Area,4136.0,4167.0,11939.0,5403.0,0.0,554.0,0.0,1930.0,0.0,4026.0,0.0,0.0,26.0
546216,County,2020/06/20,2.0,AK,2158.0,Kusilvak Census Area,3883.0,4420.0,10898.0,4338.0,704.0,134.0,0.0,3723.0,0.0,1941.0,39.0,0.0,19.0
550960,County,2020/06/21,2.0,AK,2158.0,Kusilvak Census Area,4201.0,4102.0,4444.0,2478.0,257.0,341.0,1070.0,0.0,0.0,0.0,298.0,0.0,0.0
552596,County,2020/06/22,2.0,AK,2158.0,Kusilvak Census Area,4114.0,4189.0,13280.0,2286.0,0.0,464.0,729.0,0.0,9746.0,0.0,0.0,0.0,55.0
557355,County,2020/06/23,2.0,AK,2158.0,Kusilvak Census Area,4146.0,4157.0,10709.0,2483.0,208.0,277.0,0.0,1925.0,5803.0,0.0,0.0,0.0,13.0
558987,County,2020/06/24,2.0,AK,2158.0,Kusilvak Census Area,4091.0,4212.0,9038.0,1471.0,452.0,0.0,0.0,2788.0,4201.0,0.0,117.0,0.0,9.0
562177,County,2020/06/25,2.0,AK,2158.0,Kusilvak Census Area,3945.0,4358.0,4395.0,2538.0,655.0,145.0,0.0,1009.0,0.0,0.0,0.0,0.0,48.0
567020,County,2020/06/26,2.0,AK,2158.0,Kusilvak Census Area,4144.0,4159.0,5019.0,2551.0,625.0,0.0,1736.0,0.0,0.0,0.0,81.0,0.0,26.0
570121,County,2020/06/27,2.0,AK,2158.0,Kusilvak Census Area,4150.0,4153.0,5190.0,2369.0,260.0,345.0,2167.0,0.0,0.0,0.0,0.0,0.0,49.0
571759,County,2020/06/28,2.0,AK,2158.0,Kusilvak Census Area,4272.0,4031.0,12572.0,2772.0,0.0,0.0,0.0,0.0,0.0,9737.0,0.0,0.0,63.0
576488,County,2020/06/29,2.0,AK,2158.0,Kusilvak Census Area,4195.0,4108.0,17861.0,1865.0,514.0,342.0,3215.0,4757.0,7168.0,0.0,0.0,0.0,0.0
579735,County,2020/06/30,2.0,AK,2158.0,Kusilvak Census Area,4186.0,4117.0,4896.0,3749.0,773.0,342.0,0.0,0.0,0.0,0.0,0.0,0.0,32.0
582928,County,2020/07/01,2.0,AK,2158.0,Kusilvak Census Area,4098.0,4205.0,11233.0,4261.0,351.0,233.0,1463.0,0.0,4892.0,0.0,0.0,0.0,33.0
586120,County,2020/07/02,2.0,AK,2158.0,Kusilvak Census Area,4168.0,4135.0,4665.0,2694.0,695.0,154.0,0.0,1071.0,0.0,0.0,0.0,0.0,51.0
589323,County,2020/07/03,2.0,AK,2158.0,Kusilvak Census Area,4180.0,4123.0,4991.0,2537.0,621.0,0.0,1726.0,0.0,0.0,0.0,81.0,0.0,26.0
592505,County,2020/07/04,2.0,AK,2158.0,Kusilvak Census Area,4074.0,4229.0,4270.0,2170.0,532.0,0.0,1477.0,0.0,0.0,0.0,69.0,0.0,22.0
595710,County,2020/07/05,2.0,AK,2158.0,Kusilvak Census Area,3914.0,4389.0,7571.0,3405.0,275.0,0.0,0.0,3812.0,0.0,0.0,53.0,0.0,26.0
597325,County,2020/07/06,2.0,AK,2158.0,Kusilvak Census Area,4119.0,4184.0,9737.0,1945.0,524.0,696.0,0.0,1615.0,4867.0,0.0,68.0,0.0,22.0
600504,County,2020/07/07,2.0,AK,2158.0,Kusilvak Census Area,4204.0,4099.0,13394.0,3756.0,257.0,341.0,4277.0,4747.0,0.0,0.0,0.0,0.0,16.0
603695,County,2020/07/08,2.0,AK,2158.0,Kusilvak Census Area,4199.0,4104.0,6959.0,1629.0,0.0,341.0,0.0,0.0,0.0,4957.0,0.0,0.0,32.0
608468,County,2020/07/09,2.0,AK,2158.0,Kusilvak Census Area,4013.0,4290.0,6615.0,2612.0,1209.0,178.0,0.0,0.0,0.0,2591.0,0.0,0.0,25.0
610090,County,2020/07/10,2.0,AK,2158.0,Kusilvak Census Area,4091.0,4212.0,11642.0,10038.0,301.0,0.0,1256.0,0.0,0.0,0.0,0.0,0.0,47.0
614890,County,2020/07/11,2.0,AK,2158.0,Kusilvak Census Area,4018.0,4285.0,21733.0,16632.0,460.0,0.0,3194.0,1418.0,0.0,0.0,0.0,0.0,29.0
616474,County,2020/07/12,2.0,AK,2158.0,Kusilvak Census Area,4106.0,4197.0,19872.0,14949.0,350.0,0.0,2920.0,1620.0,0.0,0.0,0.0,0.0,33.0
621233,County,2020/07/13,2.0,AK,2158.0,Kusilvak Census Area,3866.0,4437.0,9013.0,6014.0,342.0,227.0,0.0,0.0,2382.0,0.0,0.0,0.0,48.0
624427,County,2020/07/14,2.0,AK,2158.0,Kusilvak Census Area,4006.0,4297.0,10235.0,1956.0,239.0,318.0,996.0,0.0,6665.0,0.0,46.0,0.0,15.0
627508,County,2020/07/15,2.0,AK,2158.0,Kusilvak Census Area,4064.0,4239.0,5456.0,3566.0,398.0,353.0,1106.0,0.0,0.0,0.0,0.0,0.0,33.0
629227,County,2020/07/16,2.0,AK,2158.0,Kusilvak Census Area,4093.0,4210.0,8918.0,4371.0,301.0,0.0,0.0,4179.0,0.0,0.0,58.0,0.0,9.0
633960,County,2020/07/17,2.0,AK,2158.0,Kusilvak Census Area,4119.0,4184.0,5380.0,2462.0,175.0,232.0,728.0,1615.0,0.0,0.0,135.0,0.0,33.0
635638,County,2020/07/18,2.0,AK,2158.0,Kusilvak Census Area,4045.0,4258.0,12504.0,2939.0,609.0,405.0,0.0,0.0,8492.0,0.0,59.0,0.0,0.0
638841,County,2020/07/19,2.0,AK,2158.0,Kusilvak Census Area,4125.0,4178.0,35769.0,16260.0,837.0,278.0,872.0,0.0,17496.0,0.0,0.0,0.0,26.0
642028,County,2020/07/20,2.0,AK,2158.0,Kusilvak Census Area,4048.0,4255.0,14409.0,9163.0,609.0,404.0,0.0,4223.0,0.0,0.0,0.0,0.0,10.0
647268,County,2020/07/21,2.0,AK,2158.0,Kusilvak Census Area,4209.0,4094.0,2792.0,1499.0,256.0,1021.0,0.0,0.0,0.0,0.0,0.0,0.0,16.0
649457,County,2020/07/22,2.0,AK,2158.0,Kusilvak Census Area,4021.0,4282.0,10765.0,5049.0,670.0,0.0,0.0,1240.0,3737.0,0.0,52.0,0.0,17.0
653175,County,2020/07/23,2.0,AK,2158.0,Kusilvak Census Area,3999.0,4304.0,10084.0,4440.0,359.0,318.0,499.0,1108.0,3338.0,0.0,0.0,0.0,22.0
656193,County,2020/07/24,2.0,AK,2158.0,Kusilvak Census Area,3937.0,4366.0,9858.0,1509.0,219.0,0.0,911.0,1011.0,6096.0,0.0,85.0,0.0,27.0
657992,County,2020/07/25,2.0,AK,2158.0,Kusilvak Census Area,4158.0,4145.0,1698.0,1373.0,260.0,0.0,0.0,0.0,0.0,0.0,0.0,0.0,65.0
661190,County,2020/07/26,2.0,AK,2158.0,Kusilvak Census Area,3571.0,4732.0,8494.0,4576.0,384.0,511.0,1202.0,1778.0,0.0,0.0,0.0,0.0,43.0
666017,County,2020/07/27,2.0,AK,2158.0,Kusilvak Census Area,3825.0,4478.0,6967.0,3043.0,0.0,260.0,0.0,3615.0,0.0,0.0,0.0,0.0,49.0
669222,County,2020/07/28,2.0,AK,2158.0,Kusilvak Census Area,3707.0,4596.0,5434.0,1626.0,0.0,0.0,0.0,0.0,3741.0,0.0,0.0,0.0,67.0
672435,County,2020/07/29,2.0,AK,2158.0,Kusilvak Census Area,3702.0,4601.0,7498.0,1830.0,440.0,0.0,0.0,3051.0,0.0,2122.0,0.0,0.0,55.0
673966,County,2020/07/30,2.0,AK,2158.0,Kusilvak Census Area,3806.0,4497.0,5613.0,4880.0,168.0,447.0,0.0,0.0,0.0,0.0,65.0,0.0,53.0
678744,County,2020/07/31,2.0,AK,2158.0,Kusilvak Census Area,3572.0,4731.0,13703.0,7441.0,833.0,138.0,433.0,1925.0,2901.0,0.0,0.0,0.0,32.0
681866,County,2020/08/01,2.0,AK,2158.0,Kusilvak Census Area,3680.0,4623.0,18906.0,9200.0,869.0,0.0,725.0,3214.0,4843.0,0.0,0.0,0.0,55.0
683548,County,2020/08/02,2.0,AK,2158.0,Kusilvak Census Area,3791.0,4512.0,10566.0,3947.0,0.0,142.0,444.0,2959.0,2973.0,0.0,41.0,0.0,60.0
686743,County,2020/08/03,2.0,AK,2158.0,Kusilvak Census Area,3949.0,4354.0,5405.0,3463.0,830.0,0.0,0.0,1097.0,0.0,0.0,0.0,0.0,15.0
691518,County,2020/08/04,2.0,AK,2158.0,Kusilvak Census Area,4006.0,4297.0,11621.0,9570.0,277.0,0.0,1731.0,0.0,0.0,0.0,0.0,0.0,43.0
694696,County,2020/08/05,2.0,AK,2158.0,Kusilvak Census Area,4091.0,4212.0,10397.0,8595.0,930.0,206.0,646.0,0.0,0.0,0.0,0.0,0.0,20.0
697891,County,2020/08/06,2.0,AK,2158.0,Kusilvak Census Area,4202.0,4101.0,36610.0,31026.0,1322.0,702.0,1101.0,2443.0,0.0,0.0,0.0,0.0,16.0
699518,County,2020/08/07,2.0,AK,2158.0,Kusilvak Census Area,4144.0,4159.0,4884.0,3799.0,1072.0,0.0,0.0,0.0,0.0,0.0,0.0,0.0,13.0
702714,County,2020/08/08,2.0,AK,2158.0,Kusilvak Census Area,4220.0,4083.0,10962.0,481.0,702.0,0.0,0.0,0.0,9779.0,0.0,0.0,0.0,0.0
707496,County,2020/08/09,2.0,AK,2158.0,Kusilvak Census Area,4016.0,4287.0,19908.0,3748.0,516.0,171.0,1076.0,3583.0,10798.0,0.0,0.0,0.0,16.0
710714,County,2020/08/10,2.0,AK,2158.0,Kusilvak Census Area,3911.0,4392.0,12219.0,3493.0,650.0,575.0,451.0,1001.0,6035.0,0.0,0.0,0.0,14.0
712294,County,2020/08/11,2.0,AK,2158.0,Kusilvak Census Area,3985.0,4318.0,13133.0,1247.0,292.0,389.0,3049.0,4060.0,4078.0,0.0,0.0,0.0,18.0
715489,County,2020/08/12,2.0,AK,2158.0,Kusilvak Census Area,3749.0,4554.0,16135.0,4540.0,1059.0,703.0,735.0,0.0,7374.0,1702.0,0.0,0.0,22.0
720248,County,2020/08/13,2.0,AK,2158.0,Kusilvak Census Area,3888.0,4415.0,9356.0,1810.0,460.0,245.0,768.0,3406.0,2567.0,0.0,71.0,0.0,29.0
721876,County,2020/08/14,2.0,AK,2158.0,Kusilvak Census Area,3988.0,4315.0,6972.0,4404.0,1300.0,0.0,0.0,1202.0,0.0,0.0,50.0,0.0,16.0
726686,County,2020/08/15,2.0,AK,2158.0,Kusilvak Census Area,4041.0,4262.0,8316.0,4294.0,825.0,220.0,1376.0,1526.0,0.0,0.0,64.0,0.0,11.0
728265,County,2020/08/16,2.0,AK,2158.0,Kusilvak Census Area,3621.0,4682.0,14016.0,2805.0,174.0,116.0,1086.0,4018.0,2422.0,3352.0,0.0,0.0,43.0
733045,County,2020/08/17,2.0,AK,2158.0,Kusilvak Census Area,3870.0,4433.0,6778.0,2238.0,415.0,275.0,864.0,959.0,0.0,2000.0,0.0,0.0,27.0
736219,County,2020/08/18,2.0,AK,2158.0,Kusilvak Census Area,3525.0,4778.0,16661.0,1996.0,980.0,109.0,1361.0,6039.0,4550.0,1574.0,31.0,0.0,21.0
739413,County,2020/08/19,2.0,AK,2158.0,Kusilvak Census Area,3542.0,4761.0,6449.0,2100.0,454.0,121.0,1135.0,840.0,0.0,1753.0,0.0,0.0,46.0
741040,County,2020/08/20,2.0,AK,2158.0,Kusilvak Census Area,3717.0,4586.0,14364.0,4568.0,1083.0,240.0,1505.0,0.0,0.0,6968.0,0.0,0.0,0.0
744239,County,2020/08/21,2.0,AK,2158.0,Kusilvak Census Area,3320.0,4983.0,9216.0,744.0,559.0,297.0,0.0,1034.0,0.0,6467.0,87.0,0.0,28.0
747446,County,2020/08/22,2.0,AK,2158.0,Kusilvak Census Area,3287.0,5016.0,13421.0,3777.0,993.0,264.0,828.0,918.0,2767.0,3831.0,0.0,0.0,43.0
750637,County,2020/08/23,2.0,AK,2158.0,Kusilvak Census Area,3737.0,4566.0,12155.0,2480.0,641.0,106.0,667.0,2223.0,4467.0,1546.0,0.0,0.0,25.0
755382,County,2020/08/24,2.0,AK,2158.0,Kusilvak Census Area,3762.0,4541.0,7573.0,1697.0,768.0,227.0,0.0,3158.0,0.0,1647.0,33.0,0.0,43.0
757010,County,2020/08/25,2.0,AK,2158.0,Kusilvak Census Area,3941.0,4362.0,7789.0,1123.0,230.0,0.0,0.0,3186.0,3200.0,0.0,0.0,0.0,50.0
761733,County,2020/08/26,2.0,AK,2158.0,Kusilvak Census Area,3844.0,4459.0,6514.0,1324.0,586.0,650.0,1222.0,2714.0,0.0,0.0,0.0,0.0,18.0
763410,County,2020/08/27,2.0,AK,2158.0,Kusilvak Census Area,3976.0,4327.0,9509.0,2302.0,911.0,757.0,2373.0,3159.0,0.0,0.0,0.0,0.0,7.0
768145,County,2020/08/28,2.0,AK,2158.0,Kusilvak Census Area,3976.0,4327.0,6495.0,2726.0,379.0,505.0,528.0,2341.0,0.0,0.0,0.0,0.0,16.0
771345,County,2020/08/29,2.0,AK,2158.0,Kusilvak Census Area,3797.0,4506.0,9669.0,2664.0,198.0,394.0,824.0,3657.0,0.0,1907.0,0.0,0.0,25.0
772980,County,2020/08/30,2.0,AK,2158.0,Kusilvak Census Area,4123.0,4180.0,645.0,355.0,232.0,0.0,0.0,0.0,0.0,0.0,0.0,0.0,58.0
776173,County,2020/08/31,2.0,AK,2158.0,Kusilvak Census Area,3873.0,4430.0,4284.0,1593.0,672.0,0.0,934.0,1036.0,0.0,0.0,0.0,0.0,49.0
780953,County,2020/09/01,2.0,AK,2158.0,Kusilvak Census Area,3976.0,4327.0,7300.0,3667.0,268.0,178.0,557.0,0.0,0.0,2580.0,0.0,0.0,50.0
783351,County,2020/09/02,2.0,AK,2158.0,Kusilvak Census Area,3960.0,4343.0,7050.0,1856.0,939.0,356.0,0.0,1241.0,0.0,2590.0,0.0,0.0,68.0
785756,County,2020/09/03,2.0,AK,2158.0,Kusilvak Census Area,3736.0,4567.0,7703.0,3467.0,363.0,482.0,756.0,839.0,0.0,1750.0,0.0,0.0,46.0
788965,County,2020/09/04,2.0,AK,2158.0,Kusilvak Census Area,3909.0,4394.0,9792.0,1402.0,977.0,162.0,1528.0,2261.0,3406.0,0.0,48.0,0.0,8.0
792144,County,2020/09/05,2.0,AK,2158.0,Kusilvak Census Area,3697.0,4606.0,15798.0,1608.0,394.0,916.0,821.0,2734.0,5492.0,3802.0,0.0,0.0,31.0
796887,County,2020/09/06,2.0,AK,2158.0,Kusilvak Census Area,3976.0,4327.0,9067.0,1254.0,344.0,0.0,716.0,0.0,0.0,6633.0,67.0,0.0,53.0
798543,County,2020/09/07,2.0,AK,2158.0,Kusilvak Census Area,3907.0,4396.0,13856.0,4551.0,0.0,0.0,636.0,1414.0,4259.0,2948.0,0.0,0.0,48.0
803293,County,2020/09/08,2.0,AK,2158.0,Kusilvak Census Area,4149.0,4154.0,9846.0,3958.0,0.0,319.0,1001.0,4444.0,0.0,0.0,94.0,0.0,30.0
804920,County,2020/09/09,2.0,AK,2158.0,Kusilvak Census Area,4026.0,4277.0,18461.0,1735.0,1413.0,704.0,1472.0,3267.0,9848.0,0.0,0.0,0.0,22.0
809689,County,2020/09/10,2.0,AK,2158.0,Kusilvak Census Area,3779.0,4524.0,19728.0,900.0,281.0,248.0,3504.0,1728.0,13019.0,0.0,36.0,0.0,12.0
811317,County,2020/09/11,2.0,AK,2158.0,Kusilvak Census Area,3597.0,4706.0,16424.0,2897.0,573.0,285.0,1194.0,3311.0,3992.0,4145.0,0.0,0.0,27.0
814502,County,2020/09/12,2.0,AK,2158.0,Kusilvak Census Area,3937.0,4366.0,15228.0,2290.0,315.0,838.0,5918.0,5837.0,0.0,0.0,0.0,0.0,30.0
819251,County,2020/09/13,2.0,AK,2158.0,Kusilvak Census Area,3470.0,4833.0,8504.0,2664.0,510.0,1577.0,2121.0,1569.0,0.0,0.0,48.0,0.0,15.0
822457,County,2020/09/14,2.0,AK,2158.0,Kusilvak Census Area,3900.0,4403.0,7998.0,4878.0,991.0,1503.0,590.0,0.0,0.0,0.0,0.0,0.0,36.0
824085,County,2020/09/15,2.0,AK,2158.0,Kusilvak Census Area,3972.0,4331.0,7849.0,4724.0,313.0,0.0,1305.0,1448.0,0.0,0.0,0.0,0.0,59.0
828891,County,2020/09/16,2.0,AK,2158.0,Kusilvak Census Area,3996.0,4307.0,18502.0,5784.0,533.0,472.0,0.0,3290.0,4958.0,3432.0,0.0,0.0,33.0
830472,County,2020/09/17,2.0,AK,2158.0,Kusilvak Census Area,3996.0,4307.0,21608.0,14477.0,711.0,709.0,741.0,0.0,4958.0,0.0,0.0,0.0,12.0
835233,County,2020/09/18,2.0,AK,2158.0,Kusilvak Census Area,3871.0,4432.0,15381.0,3833.0,384.0,341.0,0.0,1184.0,7143.0,2472.0,0.0,0.0,24.0
836860,County,2020/09/19,2.0,AK,2158.0,Kusilvak Census Area,3827.0,4476.0,20085.0,3702.0,719.0,382.0,599.0,6649.0,8016.0,0.0,0.0,0.0,18.0
841635,County,2020/09/20,2.0,AK,2158.0,Kusilvak Census Area,4419.0,3884.0,12043.0,3936.0,0.0,362.0,1136.0,1261.0,0.0,5261.0,53.0,0.0,34.0
843264,County,2020/09/21,2.0,AK,2158.0,Kusilvak Census Area,4556.0,3747.0,12174.0,5821.0,177.0,470.0,736.0,0.0,4926.0,0.0,0.0,0.0,44.0
846468,County,2020/09/22,2.0,AK,2158.0,Kusilvak Census Area,4757.0,3546.0,12617.0,8386.0,0.0,0.0,4231.0,0.0,0.0,0.0,0.0,0.0,0.0
849636,County,2020/09/23,2.0,AK,2158.0,Kusilvak Census Area,4525.0,3778.0,6428.0,654.0,534.0,236.0,0.0,4935.0,0.0,0.0,69.0,0.0,0.0
854402,County,2020/09/24,2.0,AK,2158.0,Kusilvak Census Area,4714.0,3589.0,23853.0,2630.0,342.0,454.0,1424.0,9480.0,9523.0,0.0,0.0,0.0,0.0
856030,County,2020/09/25,2.0,AK,2158.0,Kusilvak Census Area,4563.0,3740.0,5941.0,1182.0,353.0,234.0,735.0,0.0,0.0,3404.0,0.0,0.0,33.0
859218,County,2020/09/26,2.0,AK,2158.0,Kusilvak Census Area,4622.0,3681.0,4485.0,615.0,0.0,347.0,1089.0,2418.0,0.0,0.0,0.0,0.0,16.0
863965,County,2020/09/27,2.0,AK,2158.0,Kusilvak Census Area,4461.0,3842.0,11283.0,2034.0,0.0,236.0,740.0,3287.0,4953.0,0.0,0.0,0.0,33.0
867173,County,2020/09/28,2.0,AK,2158.0,Kusilvak Census Area,4525.0,3778.0,6161.0,883.0,0.0,279.0,876.0,0.0,0.0,4057.0,0.0,0.0,66.0
868800,County,2020/09/29,2.0,AK,2158.0,Kusilvak Census Area,4116.0,4187.0,11631.0,6504.0,402.0,0.0,838.0,0.0,0.0,3879.0,0.0,0.0,8.0
873578,County,2020/09/30,2.0,AK,2158.0,Kusilvak Census Area,4058.0,4245.0,6115.0,2250.0,614.0,408.0,0.0,2843.0,0.0,0.0,0.0,0.0,0.0
876734,County,2020/10/01,2.0,AK,2158.0,Kusilvak Census Area,4202.0,4101.0,13593.0,7836.0,562.0,0.0,0.0,5195.0,0.0,0.0,0.0,0.0,0.0
879949,County,2020/10/02,2.0,AK,2158.0,Kusilvak Census Area,4227.0,4076.0,17773.0,3563.0,560.0,149.0,0.0,4140.0,9358.0,0.0,0.0,0.0,3.0
881576,County,2020/10/03,2.0,AK,2158.0,Kusilvak Census Area,4167.0,4136.0,13164.0,2562.0,356.0,315.0,0.0,0.0,9918.0,0.0,0.0,0.0,13.0
887827,County,2020/10/04,2.0,AK,2158.0,Kusilvak Census Area,3869.0,4434.0,7278.0,859.0,388.0,129.0,1220.0,2703.0,0.0,1965.0,0.0,0.0,14.0
888014,County,2020/10/05,2.0,AK,2158.0,Kusilvak Census Area,4006.0,4297.0,8432.0,2468.0,879.0,576.0,1786.0,0.0,0.0,2721.0,0.0,0.0,2.0
891196,County,2020/10/06,2.0,AK,2158.0,Kusilvak Census Area,3729.0,4574.0,13409.0,7600.0,902.0,526.0,1629.0,886.0,0.0,1861.0,0.0,0.0,5.0
894402,County,2020/10/07,2.0,AK,2158.0,Kusilvak Census Area,3854.0,4449.0,12493.0,8046.0,342.0,149.0,924.0,0.0,3025.0,0.0,0.0,0.0,7.0
897537,County,2020/10/08,2.0,AK,2158.0,Kusilvak Census Area,3959.0,4344.0,8778.0,6226.0,607.0,953.0,984.0,0.0,0.0,0.0,0.0,0.0,8.0
900790,County,2020/10/09,2.0,AK,2158.0,Kusilvak Census Area,3755.0,4548.0,15617.0,6276.0,280.0,487.0,1890.0,0.0,4948.0,1728.0,0.0,0.0,8.0
903979,County,2020/10/10,2.0,AK,2158.0,Kusilvak Census Area,3591.0,4712.0,14687.0,4277.0,425.0,1115.0,2764.0,2253.0,2262.0,1579.0,0.0,0.0,12.0
909892,County,2020/10/11,2.0,AK,2158.0,Kusilvak Census Area,3811.0,4492.0,11880.0,2433.0,308.0,1072.0,1661.0,3627.0,2771.0,0.0,0.0,0.0,8.0
913334,County,2020/10/12,2.0,AK,2158.0,Kusilvak Census Area,3893.0,4410.0,6977.0,1310.0,238.0,155.0,964.0,1053.0,3216.0,0.0,35.0,0.0,6.0
916655,County,2020/10/13,2.0,AK,2158.0,Kusilvak Census Area,4149.0,4154.0,14418.0,3694.0,740.0,321.0,2996.0,0.0,6664.0,0.0,0.0,0.0,3.0
919683,County,2020/10/14,2.0,AK,2158.0,Kusilvak Census Area,4089.0,4214.0,10998.0,2859.0,209.0,544.0,1689.0,0.0,5633.0,0.0,61.0,0.0,3.0
920258,County,2020/10/15,2.0,AK,2158.0,Kusilvak Census Area,3985.0,4318.0,1858.0,857.0,481.0,418.0,0.0,0.0,0.0,0.0,94.0,0.0,8.0
926113,County,2020/10/16,2.0,AK,2158.0,Kusilvak Census Area,4014.0,4289.0,2752.0,1697.0,364.0,475.0,0.0,0.0,0.0,0.0,212.0,0.0,4.0
929201,County,2020/10/17,2.0,AK,2158.0,Kusilvak Census Area,4058.0,4245.0,5621.0,3644.0,840.0,274.0,850.0,0.0,0.0,0.0,0.0,0.0,13.0
932637,County,2020/10/18,2.0,AK,2158.0,Kusilvak Census Area,4001.0,4302.0,3554.0,1149.0,913.0,0.0,1478.0,0.0,0.0,0.0,0.0,0.0,14.0
935208,County,2020/10/19,2.0,AK,2158.0,Kusilvak Census Area,4024.0,4279.0,13262.0,2000.0,159.0,622.0,1929.0,4211.0,4289.0,0.0,46.0,0.0,6.0
938996,County,2020/10/20,2.0,AK,2158.0,Kusilvak Census Area,3972.0,4331.0,3021.0,1022.0,143.0,0.0,578.0,1262.0,0.0,0.0,0.0,0.0,16.0
941729,County,2020/10/21,2.0,AK,2158.0,Kusilvak Census Area,3827.0,4476.0,3303.0,835.0,102.0,134.0,414.0,1808.0,0.0,0.0,0.0,0.0,10.0
944537,County,2020/10/22,2.0,AK,2158.0,Kusilvak Census Area,4041.0,4262.0,4267.0,827.0,633.0,0.0,0.0,2797.0,0.0,0.0,0.0,0.0,10.0
947934,County,2020/10/23,2.0,AK,2158.0,Kusilvak Census Area,3859.0,4444.0,1590.0,340.0,0.0,172.0,1068.0,0.0,0.0,0.0,0.0,0.0,10.0
951661,County,2020/10/24,2.0,AK,2158.0,Kusilvak Census Area,4139.0,4164.0,6678.0,1089.0,494.0,323.0,0.0,0.0,0.0,4769.0,0.0,0.0,3.0
