,Level,Date,State FIPS,State Postal Code,County FIPS,County Name,Population Staying at Home,Population Not Staying at Home,Number of Trips,Number of Trips <1,Number of Trips 1-3,Number of Trips 3-5,Number of Trips 5-10,Number of Trips 10-25,Number of Trips 25-50,Number of Trips 50-100,Number of Trips 100-250,Number of Trips 250-500,Number of Trips >=500
904,County,2020/01/01,20.0,KS,20033.0,Comanche County,711.0,1037.0,5874.0,2400.0,909.0,174.0,510.0,815.0,289.0,514.0,197.0,34.0,32.0
6286,County,2020/01/02,20.0,KS,20033.0,Comanche County,496.0,1252.0,7677.0,3008.0,995.0,41.0,972.0,1218.0,598.0,530.0,293.0,22.0,0.0
7715,County,2020/01/03,20.0,KS,20033.0,Comanche County,525.0,1223.0,5995.0,2088.0,1093.0,101.0,767.0,705.0,500.0,443.0,204.0,0.0,94.0
9752,County,2020/01/04,20.0,KS,20033.0,Comanche County,730.0,1018.0,6399.0,2740.0,1251.0,201.0,537.0,743.0,259.0,459.0,192.0,10.0,7.0
13680,County,2020/01/05,20.0,KS,20033.0,Comanche County,645.0,1103.0,4688.0,2190.0,719.0,130.0,236.0,379.0,404.0,278.0,352.0,0.0,0.0
18047,County,2020/01/06,20.0,KS,20033.0,Comanche County,709.0,1039.0,5955.0,3098.0,1091.0,48.0,350.0,686.0,400.0,133.0,98.0,51.0,0.0
21193,County,2020/01/07,20.0,KS,20033.0,Comanche County,794.0,954.0,4896.0,2390.0,464.0,26.0,697.0,673.0,478.0,141.0,0.0,27.0,0.0
22820,County,2020/01/08,20.0,KS,20033.0,Comanche County,669.0,1079.0,4980.0,2240.0,598.0,110.0,280.0,820.0,548.0,243.0,90.0,0.0,51.0
27568,County,2020/01/09,20.0,KS,20033.0,Comanche County,714.0,1034.0,5328.0,1539.0,1328.0,66.0,479.0,1011.0,456.0,404.0,45.0,0.0,0.0
30775,County,2020/01/10,20.0,KS,20033.0,Comanche County,703.0,1045.0,5070.0,2433.0,402.0,38.0,207.0,959.0,316.0,559.0,116.0,40.0,0.0
34019,County,2020/01/11,20.0,KS,20033.0,Comanche County,573.0,1175.0,6269.0,2864.0,1061.0,41.0,525.0,996.0,386.0,228.0,168.0,0.0,0.0
37138,County,2020/01/12,20.0,KS,20033.0,Comanche County,746.0,1002.0,5590.0,2832.0,1006.0,200.0,403.0,438.0,184.0,204.0,271.0,0.0,52.0
40386,County,2020/01/13,20.0,KS,20033.0,Comanche County,742.0,1006.0,4703.0,2043.0,581.0,85.0,272.0,936.0,177.0,275.0,217.0,67.0,50.0
42012,County,2020/01/14,20.0,KS,20033.0,Comanche County,579.0,1169.0,5503.0,2457.0,787.0,93.0,406.0,694.0,502.0,411.0,114.0,39.0,0.0
46741,County,2020/01/15,20.0,KS,20033.0,Comanche County,613.0,1135.0,5580.0,2400.0,1165.0,88.0,287.0,960.0,291.0,193.0,178.0,18.0,0.0
48268,County,2020/01/16,20.0,KS,20033.0,Comanche County,652.0,1096.0,5885.0,2884.0,897.0,140.0,222.0,689.0,471.0,385.0,142.0,55.0,0.0
53184,County,2020/01/17,20.0,KS,20033.0,Comanche County,680.0,1068.0,4925.0,1904.0,1061.0,123.0,191.0,731.0,510.0,226.0,179.0,0.0,0.0
56305,County,2020/01/18,20.0,KS,20033.0,Comanche County,527.0,1221.0,6322.0,2819.0,967.0,36.0,291.0,701.0,590.0,654.0,181.0,0.0,83.0
59552,County,2020/01/19,20.0,KS,20033.0,Comanche County,577.0,1171.0,4224.0,1432.0,814.0,58.0,280.0,591.0,399.0,354.0,235.0,61.0,0.0
61137,County,2020/01/20,20.0,KS,20033.0,Comanche County,738.0,1010.0,5244.0,1824.0,311.0,124.0,374.0,947.0,470.0,795.0,377.0,22.0,0.0
65914,County,2020/01/21,20.0,KS,20033.0,Comanche County,633.0,1115.0,5494.0,2571.0,609.0,73.0,533.0,643.0,456.0,472.0,75.0,19.0,43.0
69105,County,2020/01/22,20.0,KS,20033.0,Comanche County,685.0,1063.0,5925.0,2446.0,1403.0,77.0,352.0,1145.0,120.0,178.0,118.0,41.0,45.0
70729,County,2020/01/23,20.0,KS,20033.0,Comanche County,633.0,1115.0,6762.0,3223.0,920.0,41.0,479.0,845.0,590.0,560.0,83.0,21.0,0.0
73926,County,2020/01/24,20.0,KS,20033.0,Comanche County,735.0,1013.0,5741.0,2890.0,1020.0,79.0,469.0,522.0,288.0,329.0,81.0,63.0,0.0
78678,County,2020/01/25,20.0,KS,20033.0,Comanche County,644.0,1104.0,6169.0,2962.0,789.0,60.0,438.0,529.0,584.0,554.0,164.0,42.0,47.0
80754,County,2020/01/26,20.0,KS,20033.0,Comanche County,760.0,988.0,5800.0,2749.0,969.0,46.0,333.0,903.0,95.0,463.0,140.0,48.0,54.0
84944,County,2020/01/27,20.0,KS,20033.0,Comanche County,661.0,1087.0,4795.0,2006.0,761.0,34.0,610.0,626.0,174.0,463.0,68.0,53.0,0.0
86715,County,2020/01/28,20.0,KS,20033.0,Comanche County,819.0,929.0,5004.0,2235.0,894.0,79.0,537.0,562.0,246.0,290.0,161.0,0.0,0.0
91448,County,2020/01/29,20.0,KS,20033.0,Comanche County,760.0,988.0,5640.0,2726.0,888.0,84.0,343.0,736.0,305.0,386.0,128.0,44.0,0.0
93174,County,2020/01/30,20.0,KS,20033.0,Comanche County,674.0,1074.0,4958.0,2109.0,1084.0,189.0,274.0,372.0,235.0,521.0,154.0,20.0,0.0
97848,County,2020/01/31,20.0,KS,20033.0,Comanche County,656.0,1092.0,5492.0,1615.0,1059.0,83.0,375.0,1085.0,385.0,758.0,84.0,0.0,48.0
101036,County,2020/02/01,20.0,KS,20033.0,Comanche County,506.0,1242.0,6216.0,2486.0,1275.0,106.0,287.0,501.0,511.0,679.0,215.0,74.0,82.0
102654,County,2020/02/02,20.0,KS,20033.0,Comanche County,643.0,1105.0,6836.0,2996.0,1248.0,300.0,920.0,452.0,273.0,380.0,267.0,0.0,0.0
107441,County,2020/02/03,20.0,KS,20033.0,Comanche County,565.0,1183.0,6300.0,2674.0,1518.0,218.0,487.0,734.0,174.0,370.0,68.0,18.0,39.0
109058,County,2020/02/04,20.0,KS,20033.0,Comanche County,661.0,1087.0,7229.0,3199.0,1464.0,139.0,566.0,873.0,395.0,382.0,211.0,0.0,0.0
113781,County,2020/02/05,20.0,KS,20033.0,Comanche County,663.0,1085.0,5991.0,2454.0,835.0,277.0,603.0,929.0,497.0,339.0,38.0,19.0,0.0
115348,County,2020/02/06,20.0,KS,20033.0,Comanche County,694.0,1054.0,7284.0,2962.0,1681.0,288.0,453.0,1051.0,80.0,529.0,195.0,0.0,45.0
118614,County,2020/02/07,20.0,KS,20033.0,Comanche County,683.0,1065.0,8294.0,3868.0,1753.0,131.0,646.0,1230.0,233.0,413.0,0.0,20.0,0.0
123401,County,2020/02/08,20.0,KS,20033.0,Comanche County,624.0,1124.0,6877.0,3168.0,1121.0,287.0,459.0,850.0,315.0,403.0,274.0,0.0,0.0
127608,County,2020/02/09,20.0,KS,20033.0,Comanche County,790.0,958.0,4385.0,1870.0,909.0,183.0,395.0,366.0,208.0,215.0,204.0,35.0,0.0
129213,County,2020/02/10,20.0,KS,20033.0,Comanche County,703.0,1045.0,7382.0,3233.0,1182.0,280.0,440.0,1061.0,387.0,513.0,266.0,20.0,0.0
131859,County,2020/02/11,20.0,KS,20033.0,Comanche County,603.0,1145.0,7665.0,2951.0,1226.0,265.0,705.0,1276.0,402.0,551.0,252.0,37.0,0.0
135085,County,2020/02/12,20.0,KS,20033.0,Comanche County,765.0,983.0,6894.0,2775.0,881.0,164.0,696.0,1358.0,302.0,469.0,149.0,57.0,43.0
137794,County,2020/02/13,20.0,KS,20033.0,Comanche County,628.0,1120.0,5878.0,2045.0,1025.0,161.0,941.0,665.0,296.0,559.0,145.0,0.0,41.0
140901,County,2020/02/14,20.0,KS,20033.0,Comanche County,800.0,948.0,6595.0,3322.0,720.0,151.0,629.0,997.0,405.0,239.0,132.0,0.0,0.0
145779,County,2020/02/15,20.0,KS,20033.0,Comanche County,560.0,1188.0,7654.0,3599.0,1035.0,121.0,622.0,928.0,376.0,408.0,450.0,21.0,94.0
147386,County,2020/02/16,20.0,KS,20033.0,Comanche County,781.0,967.0,6192.0,2485.0,875.0,97.0,789.0,1058.0,150.0,443.0,295.0,0.0,0.0
150560,County,2020/02/17,20.0,KS,20033.0,Comanche County,666.0,1082.0,5303.0,1785.0,779.0,137.0,386.0,1165.0,221.0,530.0,216.0,48.0,36.0
155291,County,2020/02/18,20.0,KS,20033.0,Comanche County,650.0,1098.0,7521.0,3801.0,699.0,273.0,381.0,1197.0,348.0,541.0,214.0,67.0,0.0
156969,County,2020/02/19,20.0,KS,20033.0,Comanche County,603.0,1145.0,7143.0,3500.0,717.0,220.0,596.0,1160.0,227.0,537.0,148.0,38.0,0.0
161682,County,2020/02/20,20.0,KS,20033.0,Comanche County,566.0,1182.0,6348.0,2329.0,825.0,146.0,860.0,1117.0,377.0,435.0,259.0,0.0,0.0
164924,County,2020/02/21,20.0,KS,20033.0,Comanche County,611.0,1137.0,7846.0,3567.0,993.0,271.0,912.0,1058.0,401.0,426.0,197.0,21.0,0.0
166502,County,2020/02/22,20.0,KS,20033.0,Comanche County,414.0,1334.0,6897.0,2023.0,1543.0,412.0,855.0,818.0,408.0,433.0,359.0,0.0,46.0
169729,County,2020/02/23,20.0,KS,20033.0,Comanche County,639.0,1109.0,6087.0,2493.0,1190.0,337.0,647.0,617.0,195.0,379.0,229.0,0.0,0.0
174512,County,2020/02/24,20.0,KS,20033.0,Comanche County,751.0,997.0,5913.0,2308.0,988.0,212.0,490.0,927.0,160.0,390.0,353.0,40.0,45.0
176868,County,2020/02/25,20.0,KS,20033.0,Comanche County,584.0,1164.0,8729.0,4380.0,1031.0,159.0,867.0,1247.0,330.0,460.0,231.0,24.0,0.0
179768,County,2020/02/26,20.0,KS,20033.0,Comanche County,547.0,1201.0,7941.0,2308.0,1798.0,510.0,1004.0,1490.0,0.0,313.0,518.0,0.0,0.0
183935,County,2020/02/27,20.0,KS,20033.0,Comanche County,627.0,1121.0,8119.0,3619.0,1518.0,314.0,761.0,1010.0,478.0,270.0,127.0,22.0,0.0
187330,County,2020/02/28,20.0,KS,20033.0,Comanche County,634.0,1114.0,8755.0,4593.0,825.0,210.0,916.0,875.0,436.0,386.0,470.0,44.0,0.0
190427,County,2020/02/29,20.0,KS,20033.0,Comanche County,477.0,1271.0,8650.0,3833.0,1199.0,272.0,532.0,1374.0,693.0,576.0,171.0,0.0,0.0
192099,County,2020/03/01,20.0,KS,20033.0,Comanche County,615.0,1133.0,7230.0,3540.0,876.0,165.0,789.0,771.0,301.0,571.0,168.0,0.0,49.0
196899,County,2020/03/02,20.0,KS,20033.0,Comanche County,713.0,1035.0,7100.0,3249.0,1079.0,153.0,695.0,727.0,477.0,563.0,104.0,53.0,0.0
198477,County,2020/03/03,20.0,KS,20033.0,Comanche County,527.0,1221.0,11455.0,5064.0,2014.0,348.0,921.0,1518.0,429.0,777.0,273.0,60.0,51.0
202336,County,2020/03/04,20.0,KS,20033.0,Comanche County,497.0,1251.0,12385.0,5431.0,2197.0,389.0,1084.0,1673.0,485.0,706.0,285.0,51.0,84.0
206465,County,2020/03/05,20.0,KS,20033.0,Comanche County,484.0,1264.0,13403.0,6136.0,2319.0,394.0,1099.0,1625.0,574.0,851.0,303.0,35.0,67.0
209679,County,2020/03/06,20.0,KS,20033.0,Comanche County,426.0,1322.0,12695.0,5670.0,2161.0,395.0,1014.0,1539.0,553.0,1011.0,281.0,54.0,17.0
211248,County,2020/03/07,20.0,KS,20033.0,Comanche County,453.0,1295.0,11540.0,4943.0,2042.0,401.0,1002.0,1466.0,503.0,783.0,302.0,43.0,55.0
214462,County,2020/03/08,20.0,KS,20033.0,Comanche County,528.0,1220.0,6595.0,3012.0,1111.0,79.0,620.0,1093.0,218.0,193.0,214.0,55.0,0.0
219221,County,2020/03/09,20.0,KS,20033.0,Comanche County,546.0,1202.0,9671.0,4998.0,1401.0,410.0,1189.0,479.0,453.0,452.0,167.0,58.0,64.0
222415,County,2020/03/10,20.0,KS,20033.0,Comanche County,551.0,1197.0,8715.0,3817.0,2311.0,312.0,463.0,745.0,470.0,365.0,173.0,59.0,0.0
224039,County,2020/03/11,20.0,KS,20033.0,Comanche County,342.0,1406.0,15318.0,6214.0,2739.0,502.0,1382.0,2344.0,683.0,1008.0,382.0,43.0,21.0
228735,County,2020/03/12,20.0,KS,20033.0,Comanche County,387.0,1361.0,13407.0,5244.0,2452.0,435.0,1161.0,1898.0,662.0,1012.0,407.0,40.0,96.0
232004,County,2020/03/13,20.0,KS,20033.0,Comanche County,386.0,1362.0,11068.0,4009.0,2107.0,403.0,986.0,1536.0,624.0,936.0,377.0,35.0,55.0
235059,County,2020/03/14,20.0,KS,20033.0,Comanche County,431.0,1317.0,9905.0,3884.0,1799.0,334.0,835.0,1305.0,556.0,865.0,297.0,30.0,0.0
236818,County,2020/03/15,20.0,KS,20033.0,Comanche County,725.0,1023.0,4468.0,1689.0,1108.0,141.0,666.0,370.0,59.0,52.0,287.0,30.0,66.0
240012,County,2020/03/16,20.0,KS,20033.0,Comanche County,640.0,1108.0,14908.0,5429.0,2454.0,390.0,1357.0,2262.0,834.0,1418.0,528.0,94.0,142.0
243195,County,2020/03/17,20.0,KS,20033.0,Comanche County,737.0,1011.0,13704.0,5225.0,2106.0,366.0,1210.0,2028.0,751.0,1290.0,521.0,101.0,106.0
246399,County,2020/03/18,20.0,KS,20033.0,Comanche County,815.0,933.0,7841.0,3233.0,1939.0,196.0,709.0,979.0,232.0,410.0,113.0,30.0,0.0
251181,County,2020/03/19,20.0,KS,20033.0,Comanche County,799.0,949.0,7303.0,3708.0,958.0,317.0,672.0,811.0,220.0,340.0,215.0,0.0,62.0
252790,County,2020/03/20,20.0,KS,20033.0,Comanche County,704.0,1044.0,6919.0,3614.0,929.0,283.0,859.0,623.0,147.0,261.0,97.0,50.0,56.0
255933,County,2020/03/21,20.0,KS,20033.0,Comanche County,841.0,907.0,7072.0,3641.0,1501.0,193.0,702.0,605.0,172.0,50.0,113.0,30.0,65.0
259168,County,2020/03/22,20.0,KS,20033.0,Comanche County,891.0,857.0,7336.0,3162.0,940.0,199.0,663.0,1070.0,403.0,607.0,240.0,41.0,11.0
262373,County,2020/03/23,20.0,KS,20033.0,Comanche County,864.0,884.0,8976.0,3888.0,1251.0,228.0,699.0,1423.0,502.0,732.0,180.0,57.0,16.0
265525,County,2020/03/24,20.0,KS,20033.0,Comanche County,760.0,988.0,7202.0,3751.0,1218.0,328.0,732.0,607.0,261.0,278.0,0.0,27.0,0.0
270326,County,2020/03/25,20.0,KS,20033.0,Comanche County,828.0,920.0,5616.0,2863.0,866.0,339.0,284.0,742.0,270.0,144.0,53.0,55.0,0.0
273499,County,2020/03/26,20.0,KS,20033.0,Comanche County,727.0,1021.0,6353.0,2965.0,752.0,204.0,863.0,992.0,141.0,250.0,138.0,48.0,0.0
275139,County,2020/03/27,20.0,KS,20033.0,Comanche County,755.0,993.0,4993.0,2594.0,532.0,110.0,440.0,530.0,46.0,607.0,134.0,0.0,0.0
279900,County,2020/03/28,20.0,KS,20033.0,Comanche County,844.0,904.0,6252.0,3509.0,1246.0,170.0,485.0,372.0,50.0,223.0,197.0,0.0,0.0
281535,County,2020/03/29,20.0,KS,20033.0,Comanche County,1003.0,745.0,4610.0,2290.0,626.0,207.0,564.0,529.0,0.0,254.0,140.0,0.0,0.0
284728,County,2020/03/30,20.0,KS,20033.0,Comanche County,760.0,988.0,7364.0,3417.0,1176.0,321.0,624.0,853.0,238.0,547.0,140.0,48.0,0.0
289483,County,2020/03/31,20.0,KS,20033.0,Comanche County,844.0,904.0,10587.0,4655.0,1332.0,248.0,819.0,1388.0,624.0,1087.0,349.0,48.0,37.0
292682,County,2020/04/01,20.0,KS,20033.0,Comanche County,861.0,887.0,6013.0,3113.0,769.0,311.0,719.0,557.0,117.0,312.0,115.0,0.0,0.0
294311,County,2020/04/02,20.0,KS,20033.0,Comanche County,720.0,1028.0,4771.0,1429.0,1295.0,191.0,649.0,679.0,297.0,175.0,0.0,0.0,56.0
297505,County,2020/04/03,20.0,KS,20033.0,Comanche County,867.0,881.0,7529.0,3548.0,1203.0,157.0,497.0,1038.0,335.0,561.0,153.0,18.0,19.0
300698,County,2020/04/04,20.0,KS,20033.0,Comanche County,760.0,988.0,7170.0,4737.0,761.0,176.0,275.0,607.0,105.0,509.0,0.0,0.0,0.0
303879,County,2020/04/05,20.0,KS,20033.0,Comanche County,876.0,872.0,8584.0,3889.0,1100.0,222.0,644.0,1208.0,411.0,681.0,242.0,45.0,142.0
307088,County,2020/04/06,20.0,KS,20033.0,Comanche County,536.0,1212.0,4683.0,1577.0,809.0,82.0,299.0,542.0,342.0,947.0,42.0,43.0,0.0
310281,County,2020/04/07,20.0,KS,20033.0,Comanche County,894.0,854.0,6088.0,3007.0,877.0,145.0,527.0,573.0,181.0,747.0,0.0,31.0,0.0
313475,County,2020/04/08,20.0,KS,20033.0,Comanche County,829.0,919.0,9672.0,4310.0,1213.0,193.0,764.0,1525.0,479.0,829.0,277.0,44.0,38.0
318234,County,2020/04/09,20.0,KS,20033.0,Comanche County,895.0,853.0,8360.0,4130.0,907.0,211.0,616.0,1145.0,402.0,671.0,202.0,57.0,19.0
319871,County,2020/04/10,20.0,KS,20033.0,Comanche County,563.0,1185.0,5281.0,2481.0,669.0,81.0,841.0,750.0,167.0,148.0,123.0,21.0,0.0
323056,County,2020/04/11,20.0,KS,20033.0,Comanche County,794.0,954.0,7186.0,4282.0,1314.0,179.0,651.0,280.0,0.0,376.0,104.0,0.0,0.0
327789,County,2020/04/12,20.0,KS,20033.0,Comanche County,1073.0,675.0,6038.0,3020.0,771.0,140.0,468.0,969.0,254.0,294.0,100.0,22.0,0.0
329466,County,2020/04/13,20.0,KS,20033.0,Comanche County,923.0,825.0,8215.0,3615.0,1100.0,221.0,680.0,1328.0,495.0,494.0,160.0,29.0,93.0
334187,County,2020/04/14,20.0,KS,20033.0,Comanche County,825.0,923.0,9031.0,3929.0,1364.0,303.0,708.0,1289.0,422.0,531.0,181.0,49.0,255.0
335816,County,2020/04/15,20.0,KS,20033.0,Comanche County,795.0,953.0,9222.0,3947.0,1508.0,332.0,836.0,1278.0,382.0,529.0,213.0,56.0,141.0
340534,County,2020/04/16,20.0,KS,20033.0,Comanche County,795.0,953.0,8117.0,3396.0,1239.0,221.0,708.0,1272.0,384.0,617.0,233.0,47.0,0.0
342269,County,2020/04/17,20.0,KS,20033.0,Comanche County,770.0,978.0,8191.0,3511.0,1403.0,217.0,644.0,1184.0,412.0,613.0,155.0,52.0,0.0
346944,County,2020/04/18,20.0,KS,20033.0,Comanche County,929.0,819.0,7377.0,3291.0,1471.0,184.0,750.0,1091.0,172.0,309.0,82.0,27.0,0.0
348595,County,2020/04/19,20.0,KS,20033.0,Comanche County,812.0,936.0,6564.0,2563.0,846.0,200.0,617.0,1152.0,343.0,562.0,241.0,22.0,18.0
351802,County,2020/04/20,20.0,KS,20033.0,Comanche County,665.0,1083.0,9729.0,3959.0,1263.0,252.0,773.0,1799.0,434.0,916.0,298.0,35.0,0.0
356562,County,2020/04/21,20.0,KS,20033.0,Comanche County,911.0,837.0,9640.0,3898.0,1153.0,243.0,757.0,1592.0,603.0,973.0,346.0,75.0,0.0
358191,County,2020/04/22,20.0,KS,20033.0,Comanche County,892.0,856.0,9312.0,3653.0,1032.0,222.0,767.0,1501.0,648.0,1035.0,361.0,83.0,10.0
361296,County,2020/04/23,20.0,KS,20033.0,Comanche County,970.0,778.0,8739.0,3523.0,1279.0,243.0,703.0,1333.0,447.0,889.0,249.0,56.0,17.0
366184,County,2020/04/24,20.0,KS,20033.0,Comanche County,980.0,768.0,8842.0,3824.0,1194.0,209.0,717.0,1445.0,448.0,726.0,218.0,26.0,35.0
369340,County,2020/04/25,20.0,KS,20033.0,Comanche County,876.0,872.0,8857.0,3690.0,1152.0,230.0,698.0,1443.0,464.0,858.0,267.0,36.0,19.0
372486,County,2020/04/26,20.0,KS,20033.0,Comanche County,894.0,854.0,7630.0,3725.0,1140.0,223.0,542.0,1191.0,301.0,366.0,132.0,10.0,0.0
375765,County,2020/04/27,20.0,KS,20033.0,Comanche County,842.0,906.0,9646.0,4484.0,1332.0,231.0,798.0,1507.0,476.0,542.0,193.0,26.0,57.0
377311,County,2020/04/28,20.0,KS,20033.0,Comanche County,793.0,955.0,9226.0,4072.0,1175.0,225.0,785.0,1398.0,571.0,711.0,194.0,39.0,56.0
380563,County,2020/04/29,20.0,KS,20033.0,Comanche County,835.0,913.0,8369.0,3673.0,1145.0,200.0,659.0,1262.0,498.0,700.0,187.0,26.0,19.0
383711,County,2020/04/30,20.0,KS,20033.0,Comanche County,863.0,885.0,7740.0,3380.0,1069.0,170.0,526.0,1095.0,514.0,688.0,209.0,33.0,56.0
388545,County,2020/05/01,20.0,KS,20033.0,Comanche County,862.0,886.0,7683.0,3336.0,1122.0,179.0,593.0,1074.0,502.0,567.0,215.0,39.0,56.0
390118,County,2020/05/02,20.0,KS,20033.0,Comanche County,867.0,881.0,6664.0,3281.0,951.0,173.0,486.0,867.0,353.0,322.0,192.0,20.0,19.0
393331,County,2020/05/03,20.0,KS,20033.0,Comanche County,898.0,850.0,8425.0,3833.0,1246.0,220.0,734.0,1261.0,388.0,561.0,165.0,17.0,0.0
398085,County,2020/05/04,20.0,KS,20033.0,Comanche County,748.0,1000.0,12007.0,5267.0,1799.0,296.0,1170.0,1893.0,574.0,772.0,159.0,18.0,59.0
399712,County,2020/05/05,20.0,KS,20033.0,Comanche County,809.0,939.0,11136.0,4908.0,1721.0,269.0,1068.0,1671.0,562.0,677.0,169.0,18.0,73.0
404467,County,2020/05/06,20.0,KS,20033.0,Comanche County,770.0,978.0,10518.0,4576.0,1461.0,277.0,1077.0,1797.0,558.0,587.0,163.0,22.0,0.0
406094,County,2020/05/07,20.0,KS,20033.0,Comanche County,761.0,987.0,12059.0,5158.0,1746.0,341.0,1218.0,2136.0,643.0,555.0,219.0,23.0,20.0
409350,County,2020/05/08,20.0,KS,20033.0,Comanche County,808.0,940.0,11810.0,5344.0,1856.0,360.0,1113.0,1811.0,483.0,569.0,216.0,19.0,39.0
414021,County,2020/05/09,20.0,KS,20033.0,Comanche County,868.0,880.0,10630.0,5083.0,1649.0,323.0,869.0,1433.0,469.0,588.0,158.0,20.0,38.0
415682,County,2020/05/10,20.0,KS,20033.0,Comanche County,796.0,952.0,8983.0,3835.0,1165.0,243.0,816.0,1394.0,517.0,742.0,205.0,46.0,20.0
420480,County,2020/05/11,20.0,KS,20033.0,Comanche County,614.0,1134.0,4983.0,2160.0,648.0,116.0,360.0,615.0,308.0,455.0,269.0,52.0,0.0
422060,County,2020/05/12,20.0,KS,20033.0,Comanche County,734.0,1014.0,3919.0,1734.0,646.0,53.0,194.0,859.0,74.0,229.0,36.0,94.0,0.0
425216,County,2020/05/13,20.0,KS,20033.0,Comanche County,713.0,1035.0,4746.0,2303.0,514.0,68.0,433.0,559.0,212.0,344.0,277.0,36.0,0.0
430025,County,2020/05/14,20.0,KS,20033.0,Comanche County,614.0,1134.0,4791.0,1749.0,822.0,272.0,371.0,969.0,176.0,188.0,208.0,36.0,0.0
433199,County,2020/05/15,20.0,KS,20033.0,Comanche County,718.0,1030.0,5453.0,2255.0,1039.0,181.0,526.0,833.0,225.0,300.0,37.0,57.0,0.0
436403,County,2020/05/16,20.0,KS,20033.0,Comanche County,589.0,1159.0,5731.0,2436.0,1209.0,152.0,588.0,710.0,198.0,140.0,233.0,20.0,45.0
438030,County,2020/05/17,20.0,KS,20033.0,Comanche County,886.0,862.0,8507.0,3693.0,1405.0,271.0,796.0,1287.0,385.0,547.0,107.0,16.0,0.0
441275,County,2020/05/18,20.0,KS,20033.0,Comanche County,784.0,964.0,10629.0,4457.0,1473.0,340.0,943.0,1816.0,517.0,859.0,199.0,25.0,0.0
444429,County,2020/05/19,20.0,KS,20033.0,Comanche County,784.0,964.0,12683.0,4921.0,1835.0,437.0,1264.0,2093.0,635.0,1095.0,279.0,48.0,76.0
449190,County,2020/05/20,20.0,KS,20033.0,Comanche County,804.0,944.0,12203.0,4810.0,1702.0,384.0,1242.0,2009.0,684.0,871.0,291.0,65.0,145.0
452031,County,2020/05/21,20.0,KS,20033.0,Comanche County,742.0,1006.0,12107.0,5127.0,1767.0,287.0,1114.0,1897.0,717.0,755.0,310.0,61.0,72.0
454003,County,2020/05/22,20.0,KS,20033.0,Comanche County,712.0,1036.0,12876.0,5780.0,2050.0,315.0,1155.0,2016.0,658.0,655.0,203.0,44.0,0.0
457199,County,2020/05/23,20.0,KS,20033.0,Comanche County,743.0,1005.0,11198.0,4969.0,1878.0,335.0,991.0,1665.0,541.0,649.0,147.0,23.0,0.0
461942,County,2020/05/24,20.0,KS,20033.0,Comanche County,741.0,1007.0,4848.0,1667.0,1078.0,145.0,466.0,929.0,93.0,308.0,113.0,23.0,26.0
465244,County,2020/05/25,20.0,KS,20033.0,Comanche County,718.0,1030.0,3832.0,1174.0,423.0,105.0,339.0,1048.0,290.0,322.0,119.0,12.0,0.0
468401,County,2020/05/26,20.0,KS,20033.0,Comanche County,666.0,1082.0,5968.0,2942.0,787.0,61.0,362.0,1041.0,413.0,253.0,93.0,16.0,0.0
469980,County,2020/05/27,20.0,KS,20033.0,Comanche County,667.0,1081.0,6099.0,2818.0,761.0,268.0,572.0,1035.0,196.0,347.0,32.0,33.0,37.0
473176,County,2020/05/28,20.0,KS,20033.0,Comanche County,691.0,1057.0,6978.0,3053.0,1070.0,154.0,364.0,1418.0,383.0,453.0,31.0,16.0,36.0
477930,County,2020/05/29,20.0,KS,20033.0,Comanche County,675.0,1073.0,7424.0,3456.0,1652.0,281.0,482.0,890.0,162.0,373.0,95.0,33.0,0.0
479508,County,2020/05/30,20.0,KS,20033.0,Comanche County,633.0,1115.0,6355.0,3652.0,859.0,189.0,585.0,581.0,79.0,313.0,77.0,20.0,0.0
484274,County,2020/05/31,20.0,KS,20033.0,Comanche County,655.0,1093.0,5881.0,2689.0,1203.0,219.0,542.0,436.0,289.0,220.0,283.0,0.0,0.0
485903,County,2020/06/01,20.0,KS,20033.0,Comanche County,633.0,1115.0,5764.0,2193.0,916.0,95.0,482.0,1163.0,354.0,522.0,39.0,0.0,0.0
489144,County,2020/06/02,20.0,KS,20033.0,Comanche County,558.0,1190.0,6895.0,3208.0,1388.0,257.0,668.0,806.0,343.0,68.0,75.0,39.0,43.0
492313,County,2020/06/03,20.0,KS,20033.0,Comanche County,451.0,1297.0,6509.0,2789.0,736.0,226.0,506.0,1144.0,433.0,480.0,177.0,18.0,0.0
497087,County,2020/06/04,20.0,KS,20033.0,Comanche County,503.0,1245.0,7155.0,3111.0,1612.0,188.0,550.0,885.0,329.0,318.0,147.0,15.0,0.0
498727,County,2020/06/05,20.0,KS,20033.0,Comanche County,694.0,1054.0,5701.0,2460.0,811.0,153.0,418.0,715.0,756.0,212.0,156.0,20.0,0.0
501874,County,2020/06/06,20.0,KS,20033.0,Comanche County,850.0,898.0,7576.0,3102.0,1358.0,255.0,642.0,1063.0,437.0,579.0,126.0,14.0,0.0
506650,County,2020/06/07,20.0,KS,20033.0,Comanche County,648.0,1100.0,10818.0,4536.0,2099.0,349.0,917.0,1422.0,527.0,722.0,216.0,30.0,0.0
508289,County,2020/06/08,20.0,KS,20033.0,Comanche County,610.0,1138.0,6874.0,3283.0,1148.0,320.0,400.0,876.0,290.0,294.0,81.0,42.0,140.0
511491,County,2020/06/09,20.0,KS,20033.0,Comanche County,665.0,1083.0,7130.0,3503.0,1191.0,197.0,465.0,1080.0,286.0,145.0,201.0,62.0,0.0
516272,County,2020/06/10,20.0,KS,20033.0,Comanche County,591.0,1157.0,11951.0,5029.0,2020.0,355.0,975.0,1676.0,560.0,1004.0,279.0,28.0,25.0
517901,County,2020/06/11,20.0,KS,20033.0,Comanche County,666.0,1082.0,6742.0,3346.0,617.0,388.0,556.0,1074.0,297.0,338.0,83.0,43.0,0.0
521103,County,2020/06/12,20.0,KS,20033.0,Comanche County,685.0,1063.0,5525.0,2151.0,643.0,136.0,703.0,1103.0,241.0,213.0,315.0,20.0,0.0
524279,County,2020/06/13,20.0,KS,20033.0,Comanche County,735.0,1013.0,10163.0,4345.0,1617.0,289.0,1019.0,1520.0,430.0,674.0,173.0,23.0,73.0
529042,County,2020/06/14,20.0,KS,20033.0,Comanche County,575.0,1173.0,6418.0,2924.0,1003.0,100.0,814.0,946.0,103.0,427.0,101.0,0.0,0.0
532233,County,2020/06/15,20.0,KS,20033.0,Comanche County,687.0,1061.0,5704.0,2296.0,919.0,101.0,522.0,1000.0,386.0,342.0,138.0,0.0,0.0
533861,County,2020/06/16,20.0,KS,20033.0,Comanche County,583.0,1165.0,7323.0,3930.0,1006.0,174.0,579.0,889.0,240.0,240.0,265.0,0.0,0.0
538621,County,2020/06/17,20.0,KS,20033.0,Comanche County,514.0,1234.0,7050.0,4052.0,788.0,230.0,362.0,975.0,350.0,197.0,31.0,65.0,0.0
541767,County,2020/06/18,20.0,KS,20033.0,Comanche County,594.0,1154.0,6137.0,2625.0,1488.0,137.0,447.0,869.0,255.0,176.0,111.0,29.0,0.0
544968,County,2020/06/19,20.0,KS,20033.0,Comanche County,693.0,1055.0,4363.0,1714.0,513.0,170.0,231.0,744.0,440.0,312.0,173.0,0.0,66.0
548203,County,2020/06/20,20.0,KS,20033.0,Comanche County,444.0,1304.0,6386.0,2747.0,1326.0,199.0,217.0,903.0,331.0,391.0,216.0,56.0,0.0
551390,County,2020/06/21,20.0,KS,20033.0,Comanche County,745.0,1003.0,3505.0,1376.0,736.0,146.0,221.0,480.0,101.0,246.0,173.0,26.0,0.0
554583,County,2020/06/22,20.0,KS,20033.0,Comanche County,655.0,1093.0,5869.0,2542.0,1519.0,82.0,419.0,834.0,197.0,150.0,83.0,43.0,0.0
556211,County,2020/06/23,20.0,KS,20033.0,Comanche County,583.0,1165.0,7698.0,3548.0,1214.0,280.0,571.0,1110.0,507.0,289.0,142.0,37.0,0.0
560979,County,2020/06/24,20.0,KS,20033.0,Comanche County,639.0,1109.0,5010.0,2171.0,854.0,217.0,296.0,548.0,271.0,360.0,177.0,91.0,25.0
562607,County,2020/06/25,20.0,KS,20033.0,Comanche County,596.0,1152.0,5461.0,2368.0,1025.0,209.0,356.0,830.0,379.0,240.0,27.0,27.0,0.0
565862,County,2020/06/26,20.0,KS,20033.0,Comanche County,565.0,1183.0,5323.0,1846.0,1156.0,235.0,588.0,742.0,275.0,406.0,60.0,15.0,0.0
568983,County,2020/06/27,20.0,KS,20033.0,Comanche County,651.0,1097.0,5176.0,2279.0,869.0,352.0,464.0,666.0,99.0,235.0,195.0,17.0,0.0
572191,County,2020/06/28,20.0,KS,20033.0,Comanche County,622.0,1126.0,4971.0,2101.0,1214.0,115.0,243.0,461.0,278.0,281.0,233.0,0.0,45.0
576916,County,2020/06/29,20.0,KS,20033.0,Comanche County,658.0,1090.0,4791.0,1567.0,839.0,162.0,462.0,609.0,528.0,340.0,235.0,49.0,0.0
578559,County,2020/06/30,20.0,KS,20033.0,Comanche County,,,,,,,,,,,,,
581765,County,2020/07/01,20.0,KS,20033.0,Comanche County,414.0,1334.0,6948.0,2277.0,2289.0,136.0,600.0,766.0,363.0,393.0,79.0,0.0,45.0
584957,County,2020/07/02,20.0,KS,20033.0,Comanche County,623.0,1125.0,5797.0,2513.0,1088.0,222.0,378.0,881.0,402.0,255.0,29.0,29.0,0.0
589750,County,2020/07/03,20.0,KS,20033.0,Comanche County,927.0,821.0,5294.0,1836.0,1149.0,234.0,585.0,738.0,273.0,404.0,60.0,15.0,0.0
592934,County,2020/07/04,20.0,KS,20033.0,Comanche County,803.0,945.0,4527.0,1570.0,983.0,200.0,500.0,631.0,234.0,345.0,51.0,13.0,0.0
596090,County,2020/07/05,20.0,KS,20033.0,Comanche County,699.0,1049.0,4484.0,1859.0,1023.0,143.0,356.0,352.0,296.0,164.0,254.0,37.0,0.0
599259,County,2020/07/06,20.0,KS,20033.0,Comanche County,549.0,1199.0,5594.0,2441.0,978.0,180.0,490.0,709.0,149.0,529.0,0.0,76.0,42.0
600934,County,2020/07/07,20.0,KS,20033.0,Comanche County,611.0,1137.0,5079.0,1741.0,875.0,232.0,316.0,847.0,481.0,249.0,236.0,102.0,0.0
605596,County,2020/07/08,20.0,KS,20033.0,Comanche County,752.0,996.0,5999.0,2501.0,1180.0,313.0,461.0,728.0,324.0,431.0,40.0,21.0,0.0
607322,County,2020/07/09,20.0,KS,20033.0,Comanche County,664.0,1084.0,4963.0,1793.0,1151.0,267.0,450.0,793.0,158.0,175.0,116.0,60.0,0.0
612104,County,2020/07/10,20.0,KS,20033.0,Comanche County,563.0,1185.0,6730.0,3299.0,1156.0,222.0,366.0,1015.0,376.0,296.0,0.0,0.0,0.0
615320,County,2020/07/11,20.0,KS,20033.0,Comanche County,708.0,1040.0,5120.0,2102.0,862.0,184.0,518.0,849.0,254.0,262.0,41.0,0.0,48.0
618457,County,2020/07/12,20.0,KS,20033.0,Comanche County,714.0,1034.0,3001.0,952.0,468.0,78.0,225.0,442.0,193.0,342.0,252.0,49.0,0.0
620094,County,2020/07/13,20.0,KS,20033.0,Comanche County,733.0,1015.0,4079.0,1559.0,1055.0,65.0,235.0,369.0,322.0,380.0,53.0,41.0,0.0
623294,County,2020/07/14,20.0,KS,20033.0,Comanche County,703.0,1045.0,4277.0,1915.0,658.0,73.0,396.0,557.0,151.0,289.0,172.0,38.0,28.0
628031,County,2020/07/15,20.0,KS,20033.0,Comanche County,849.0,899.0,4588.0,2348.0,860.0,32.0,230.0,589.0,131.0,349.0,32.0,17.0,0.0
629657,County,2020/07/16,20.0,KS,20033.0,Comanche County,777.0,971.0,3558.0,1398.0,396.0,146.0,212.0,479.0,332.0,214.0,267.0,46.0,68.0
632858,County,2020/07/17,20.0,KS,20033.0,Comanche County,740.0,1008.0,3486.0,1094.0,546.0,83.0,353.0,731.0,288.0,179.0,57.0,58.0,97.0
637644,County,2020/07/18,20.0,KS,20033.0,Comanche County,674.0,1074.0,4365.0,1868.0,1011.0,91.0,387.0,533.0,126.0,224.0,93.0,32.0,0.0
639224,County,2020/07/19,20.0,KS,20033.0,Comanche County,669.0,1079.0,3108.0,1234.0,352.0,67.0,363.0,329.0,277.0,153.0,237.0,18.0,78.0
642458,County,2020/07/20,20.0,KS,20033.0,Comanche County,633.0,1115.0,6448.0,2756.0,1349.0,244.0,553.0,845.0,126.0,224.0,330.0,21.0,0.0
645634,County,2020/07/21,20.0,KS,20033.0,Comanche County,685.0,1063.0,4292.0,1546.0,409.0,97.0,633.0,679.0,361.0,427.0,79.0,61.0,0.0
650363,County,2020/07/22,20.0,KS,20033.0,Comanche County,529.0,1219.0,6849.0,2444.0,1173.0,78.0,670.0,1064.0,765.0,393.0,197.0,20.0,45.0
651953,County,2020/07/23,20.0,KS,20033.0,Comanche County,612.0,1136.0,5546.0,2179.0,847.0,93.0,577.0,860.0,543.0,275.0,152.0,20.0,0.0
655125,County,2020/07/24,20.0,KS,20033.0,Comanche County,717.0,1031.0,4834.0,1707.0,916.0,101.0,551.0,708.0,377.0,371.0,82.0,21.0,0.0
658422,County,2020/07/25,20.0,KS,20033.0,Comanche County,689.0,1059.0,3901.0,1253.0,690.0,104.0,641.0,592.0,259.0,191.0,127.0,44.0,0.0
661621,County,2020/07/26,20.0,KS,20033.0,Comanche County,665.0,1083.0,7294.0,3772.0,1094.0,249.0,699.0,447.0,563.0,167.0,231.0,72.0,0.0
666400,County,2020/07/27,20.0,KS,20033.0,Comanche County,650.0,1098.0,7119.0,3433.0,940.0,95.0,825.0,1048.0,198.0,352.0,97.0,75.0,56.0
669652,County,2020/07/28,20.0,KS,20033.0,Comanche County,550.0,1198.0,7101.0,2471.0,1171.0,156.0,951.0,1189.0,321.0,392.0,277.0,82.0,91.0
672865,County,2020/07/29,20.0,KS,20033.0,Comanche County,530.0,1218.0,6466.0,2329.0,781.0,189.0,563.0,1057.0,465.0,539.0,316.0,146.0,81.0
675947,County,2020/07/30,20.0,KS,20033.0,Comanche County,499.0,1249.0,5200.0,1606.0,844.0,197.0,657.0,757.0,375.0,484.0,134.0,69.0,77.0
679175,County,2020/07/31,20.0,KS,20033.0,Comanche County,578.0,1170.0,5835.0,2450.0,1064.0,124.0,489.0,908.0,86.0,495.0,127.0,44.0,48.0
680755,County,2020/08/01,20.0,KS,20033.0,Comanche County,637.0,1111.0,6721.0,3153.0,1356.0,202.0,489.0,639.0,233.0,412.0,137.0,47.0,53.0
685536,County,2020/08/02,20.0,KS,20033.0,Comanche County,687.0,1061.0,8408.0,3067.0,1259.0,262.0,847.0,1470.0,506.0,680.0,247.0,36.0,34.0
688739,County,2020/08/03,20.0,KS,20033.0,Comanche County,615.0,1133.0,10179.0,4054.0,1394.0,307.0,882.0,1722.0,616.0,813.0,273.0,37.0,81.0
690367,County,2020/08/04,20.0,KS,20033.0,Comanche County,596.0,1152.0,9647.0,3924.0,1501.0,265.0,816.0,1379.0,567.0,810.0,292.0,44.0,49.0
695126,County,2020/08/05,20.0,KS,20033.0,Comanche County,637.0,1111.0,9003.0,3506.0,1416.0,254.0,811.0,1374.0,540.0,758.0,247.0,39.0,58.0
696736,County,2020/08/06,20.0,KS,20033.0,Comanche County,582.0,1166.0,9647.0,3698.0,1458.0,250.0,870.0,1753.0,590.0,714.0,220.0,27.0,67.0
699948,County,2020/08/07,20.0,KS,20033.0,Comanche County,640.0,1108.0,8888.0,3371.0,1430.0,250.0,809.0,1598.0,465.0,706.0,208.0,35.0,16.0
704709,County,2020/08/08,20.0,KS,20033.0,Comanche County,709.0,1039.0,7818.0,3060.0,1347.0,244.0,758.0,1141.0,415.0,609.0,171.0,31.0,42.0
706336,County,2020/08/09,20.0,KS,20033.0,Comanche County,682.0,1066.0,5378.0,2204.0,445.0,74.0,757.0,537.0,305.0,631.0,399.0,26.0,0.0
709557,County,2020/08/10,20.0,KS,20033.0,Comanche County,633.0,1115.0,6664.0,2399.0,1425.0,185.0,447.0,1078.0,468.0,453.0,209.0,0.0,0.0
714338,County,2020/08/11,20.0,KS,20033.0,Comanche County,600.0,1148.0,6055.0,2827.0,957.0,84.0,537.0,1204.0,219.0,117.0,43.0,67.0,0.0
717387,County,2020/08/12,20.0,KS,20033.0,Comanche County,581.0,1167.0,6627.0,3081.0,1061.0,234.0,532.0,1070.0,405.0,144.0,79.0,21.0,0.0
719113,County,2020/08/13,20.0,KS,20033.0,Comanche County,621.0,1127.0,7763.0,3888.0,604.0,133.0,726.0,1362.0,323.0,449.0,226.0,0.0,52.0
722306,County,2020/08/14,20.0,KS,20033.0,Comanche County,610.0,1138.0,6448.0,3056.0,720.0,152.0,629.0,1044.0,224.0,278.0,176.0,68.0,101.0
727068,County,2020/08/15,20.0,KS,20033.0,Comanche County,549.0,1199.0,7355.0,2941.0,1399.0,221.0,521.0,1112.0,275.0,446.0,314.0,23.0,103.0
730260,County,2020/08/16,20.0,KS,20033.0,Comanche County,610.0,1138.0,4810.0,1326.0,1176.0,0.0,589.0,521.0,404.0,476.0,131.0,136.0,51.0
731889,County,2020/08/17,20.0,KS,20033.0,Comanche County,617.0,1131.0,7239.0,3849.0,856.0,65.0,635.0,670.0,227.0,442.0,222.0,69.0,204.0
736649,County,2020/08/18,20.0,KS,20033.0,Comanche County,580.0,1168.0,5521.0,2104.0,1093.0,121.0,569.0,581.0,49.0,310.0,392.0,76.0,226.0
738261,County,2020/08/19,20.0,KS,20033.0,Comanche County,613.0,1135.0,6653.0,2896.0,902.0,75.0,407.0,1145.0,258.0,549.0,253.0,52.0,116.0
743042,County,2020/08/20,20.0,KS,20033.0,Comanche County,361.0,1387.0,6229.0,1796.0,1349.0,234.0,733.0,978.0,133.0,469.0,216.0,23.0,298.0
746248,County,2020/08/21,20.0,KS,20033.0,Comanche County,442.0,1306.0,65155.0,52059.0,9882.0,174.0,630.0,1234.0,359.0,318.0,352.0,46.0,101.0
747876,County,2020/08/22,20.0,KS,20033.0,Comanche County,500.0,1248.0,17612.0,11145.0,3450.0,388.0,750.0,905.0,252.0,268.0,346.0,51.0,57.0
751069,County,2020/08/23,20.0,KS,20033.0,Comanche County,584.0,1164.0,8723.0,4224.0,1502.0,263.0,701.0,1102.0,323.0,432.0,127.0,13.0,36.0
755812,County,2020/08/24,20.0,KS,20033.0,Comanche County,565.0,1183.0,10090.0,4514.0,1670.0,358.0,941.0,1508.0,343.0,522.0,128.0,22.0,84.0
759004,County,2020/08/25,20.0,KS,20033.0,Comanche County,709.0,1039.0,7235.0,3302.0,1300.0,25.0,643.0,1552.0,105.0,94.0,155.0,0.0,59.0
760636,County,2020/08/26,20.0,KS,20033.0,Comanche County,548.0,1200.0,10369.0,4478.0,1506.0,290.0,968.0,1749.0,470.0,600.0,179.0,59.0,70.0
763792,County,2020/08/27,20.0,KS,20033.0,Comanche County,657.0,1091.0,6100.0,2972.0,777.0,281.0,297.0,1025.0,194.0,387.0,143.0,24.0,0.0
767000,County,2020/08/28,20.0,KS,20033.0,Comanche County,539.0,1209.0,11658.0,4896.0,1768.0,384.0,986.0,1998.0,571.0,837.0,197.0,21.0,0.0
770203,County,2020/08/29,20.0,KS,20033.0,Comanche County,630.0,1118.0,8541.0,3594.0,1341.0,212.0,702.0,1411.0,432.0,578.0,212.0,24.0,35.0
773410,County,2020/08/30,20.0,KS,20033.0,Comanche County,552.0,1196.0,3592.0,885.0,725.0,88.0,356.0,670.0,272.0,321.0,178.0,46.0,51.0
776603,County,2020/08/31,20.0,KS,20033.0,Comanche County,555.0,1193.0,5201.0,1546.0,1019.0,127.0,422.0,694.0,175.0,660.0,343.0,67.0,148.0
779745,County,2020/09/01,20.0,KS,20033.0,Comanche County,706.0,1042.0,5842.0,2302.0,726.0,153.0,516.0,958.0,408.0,402.0,178.0,46.0,153.0
783777,County,2020/09/02,20.0,KS,20033.0,Comanche County,622.0,1126.0,6096.0,2464.0,770.0,63.0,385.0,745.0,441.0,781.0,259.0,89.0,99.0
787728,County,2020/09/03,20.0,KS,20033.0,Comanche County,529.0,1219.0,5828.0,2394.0,782.0,151.0,549.0,708.0,402.0,475.0,175.0,91.0,101.0
789343,County,2020/09/04,20.0,KS,20033.0,Comanche County,678.0,1070.0,6685.0,3687.0,704.0,47.0,423.0,969.0,193.0,471.0,142.0,49.0,0.0
792473,County,2020/09/05,20.0,KS,20033.0,Comanche County,720.0,1028.0,5509.0,2749.0,703.0,70.0,507.0,510.0,241.0,513.0,94.0,122.0,0.0
795762,County,2020/09/06,20.0,KS,20033.0,Comanche County,,,,,,,,,,,,,
800527,County,2020/09/07,20.0,KS,20033.0,Comanche County,670.0,1078.0,5829.0,2985.0,845.0,51.0,693.0,445.0,52.0,421.0,310.0,27.0,0.0
803723,County,2020/09/08,20.0,KS,20033.0,Comanche County,643.0,1105.0,6706.0,3179.0,799.0,122.0,665.0,980.0,253.0,411.0,165.0,85.0,47.0
806916,County,2020/09/09,20.0,KS,20033.0,Comanche County,671.0,1077.0,5013.0,2070.0,1049.0,82.0,334.0,851.0,212.0,225.0,125.0,65.0,0.0
808543,County,2020/09/10,20.0,KS,20033.0,Comanche County,671.0,1077.0,5617.0,1814.0,1914.0,103.0,334.0,762.0,84.0,300.0,125.0,85.0,96.0
813304,County,2020/09/11,20.0,KS,20033.0,Comanche County,615.0,1133.0,6026.0,2439.0,1287.0,111.0,505.0,690.0,346.0,374.0,151.0,79.0,44.0
816500,County,2020/09/12,20.0,KS,20033.0,Comanche County,592.0,1156.0,5280.0,1997.0,499.0,226.0,299.0,678.0,727.0,266.0,293.0,151.0,144.0
818106,County,2020/09/13,20.0,KS,20033.0,Comanche County,539.0,1209.0,13191.0,4622.0,2288.0,410.0,1464.0,2045.0,744.0,1171.0,288.0,55.0,104.0
821311,County,2020/09/14,20.0,KS,20033.0,Comanche County,579.0,1169.0,11381.0,4598.0,1841.0,312.0,1083.0,1592.0,598.0,929.0,257.0,62.0,109.0
826080,County,2020/09/15,20.0,KS,20033.0,Comanche County,566.0,1182.0,12026.0,4704.0,2004.0,351.0,1004.0,1656.0,667.0,1089.0,365.0,79.0,107.0
827708,County,2020/09/16,20.0,KS,20033.0,Comanche County,601.0,1147.0,11976.0,4760.0,1839.0,357.0,967.0,1791.0,683.0,1039.0,379.0,72.0,89.0
830902,County,2020/09/17,20.0,KS,20033.0,Comanche County,566.0,1182.0,12690.0,5125.0,1974.0,372.0,1122.0,2060.0,604.0,899.0,354.0,80.0,100.0
834080,County,2020/09/18,20.0,KS,20033.0,Comanche County,564.0,1184.0,11559.0,4487.0,1931.0,319.0,1098.0,1937.0,600.0,703.0,341.0,74.0,69.0
838855,County,2020/09/19,20.0,KS,20033.0,Comanche County,633.0,1115.0,11203.0,4506.0,1847.0,316.0,1001.0,1572.0,681.0,789.0,328.0,51.0,112.0
840484,County,2020/09/20,20.0,KS,20033.0,Comanche County,675.0,1073.0,9325.0,3774.0,1437.0,265.0,788.0,1519.0,538.0,712.0,226.0,19.0,47.0
845271,County,2020/09/21,20.0,KS,20033.0,Comanche County,644.0,1104.0,9564.0,3747.0,1459.0,243.0,758.0,1606.0,609.0,847.0,248.0,19.0,28.0
848439,County,2020/09/22,20.0,KS,20033.0,Comanche County,622.0,1126.0,9762.0,3981.0,1703.0,259.0,762.0,1520.0,530.0,770.0,197.0,22.0,18.0
851628,County,2020/09/23,20.0,KS,20033.0,Comanche County,631.0,1117.0,10071.0,4133.0,1692.0,290.0,855.0,1554.0,564.0,717.0,171.0,37.0,58.0
853256,County,2020/09/24,20.0,KS,20033.0,Comanche County,570.0,1178.0,9854.0,3822.0,1552.0,304.0,972.0,1664.0,515.0,725.0,222.0,38.0,40.0
858020,County,2020/09/25,20.0,KS,20033.0,Comanche County,570.0,1178.0,9760.0,3763.0,1638.0,321.0,1036.0,1690.0,460.0,671.0,139.0,23.0,19.0
859648,County,2020/09/26,20.0,KS,20033.0,Comanche County,684.0,1064.0,8270.0,3241.0,1637.0,296.0,792.0,1345.0,330.0,418.0,173.0,19.0,19.0
864395,County,2020/09/27,20.0,KS,20033.0,Comanche County,623.0,1125.0,11396.0,5004.0,2037.0,315.0,1107.0,1535.0,405.0,546.0,332.0,53.0,62.0
866023,County,2020/09/28,20.0,KS,20033.0,Comanche County,604.0,1144.0,12652.0,5887.0,2150.0,389.0,1114.0,1685.0,542.0,561.0,256.0,68.0,0.0
870795,County,2020/09/29,20.0,KS,20033.0,Comanche County,518.0,1230.0,14739.0,7278.0,2481.0,430.0,1103.0,2015.0,585.0,639.0,150.0,50.0,8.0
872424,County,2020/09/30,20.0,KS,20033.0,Comanche County,507.0,1241.0,14333.0,6778.0,2370.0,388.0,1020.0,2003.0,649.0,885.0,180.0,49.0,11.0
877164,County,2020/10/01,20.0,KS,20033.0,Comanche County,513.0,1235.0,11964.0,5163.0,1916.0,359.0,1095.0,1830.0,568.0,787.0,204.0,28.0,14.0
878792,County,2020/10/02,20.0,KS,20033.0,Comanche County,596.0,1152.0,11657.0,5201.0,2113.0,355.0,956.0,1738.0,458.0,640.0,161.0,23.0,12.0
883574,County,2020/10/03,20.0,KS,20033.0,Comanche County,655.0,1093.0,11459.0,4968.0,2195.0,367.0,999.0,1679.0,450.0,613.0,157.0,23.0,8.0
885574,County,2020/10/04,20.0,KS,20033.0,Comanche County,722.0,1026.0,6017.0,2453.0,928.0,219.0,524.0,978.0,327.0,412.0,146.0,19.0,11.0
888813,County,2020/10/05,20.0,KS,20033.0,Comanche County,621.0,1127.0,4305.0,1154.0,1228.0,106.0,240.0,397.0,268.0,671.0,148.0,54.0,39.0
891994,County,2020/10/06,20.0,KS,20033.0,Comanche County,720.0,1028.0,4895.0,1524.0,1148.0,86.0,362.0,732.0,462.0,362.0,119.0,58.0,42.0
895182,County,2020/10/07,20.0,KS,20033.0,Comanche County,549.0,1199.0,5479.0,2410.0,754.0,173.0,442.0,522.0,346.0,750.0,34.0,0.0,48.0
898369,County,2020/10/08,20.0,KS,20033.0,Comanche County,597.0,1151.0,6177.0,3028.0,853.0,51.0,455.0,429.0,509.0,591.0,211.0,13.0,37.0
901598,County,2020/10/09,20.0,KS,20033.0,Comanche County,695.0,1053.0,3943.0,1255.0,519.0,169.0,355.0,778.0,56.0,557.0,156.0,57.0,41.0
904784,County,2020/10/10,20.0,KS,20033.0,Comanche County,519.0,1229.0,8036.0,3552.0,1341.0,268.0,656.0,1079.0,417.0,555.0,141.0,17.0,10.0
909852,County,2020/10/11,20.0,KS,20033.0,Comanche County,591.0,1157.0,8341.0,3605.0,1507.0,242.0,816.0,1073.0,303.0,555.0,194.0,33.0,13.0
912390,County,2020/10/12,20.0,KS,20033.0,Comanche County,561.0,1187.0,9911.0,4409.0,1782.0,304.0,931.0,1293.0,433.0,578.0,135.0,25.0,21.0
915669,County,2020/10/13,20.0,KS,20033.0,Comanche County,539.0,1209.0,10642.0,4637.0,2012.0,304.0,887.0,1509.0,493.0,599.0,142.0,28.0,31.0
918923,County,2020/10/14,20.0,KS,20033.0,Comanche County,540.0,1208.0,11082.0,5174.0,1775.0,313.0,892.0,1528.0,496.0,634.0,198.0,37.0,35.0
922156,County,2020/10/15,20.0,KS,20033.0,Comanche County,550.0,1198.0,11480.0,5258.0,1936.0,331.0,968.0,1519.0,449.0,756.0,209.0,30.0,24.0
925567,County,2020/10/16,20.0,KS,20033.0,Comanche County,572.0,1176.0,12277.0,5089.0,2102.0,375.0,1053.0,1794.0,594.0,1039.0,188.0,29.0,14.0
928566,County,2020/10/17,20.0,KS,20033.0,Comanche County,607.0,1141.0,11596.0,4417.0,2330.0,354.0,1060.0,1692.0,537.0,981.0,179.0,25.0,21.0
931599,County,2020/10/18,20.0,KS,20033.0,Comanche County,578.0,1170.0,9847.0,3851.0,1801.0,318.0,940.0,1499.0,438.0,776.0,193.0,24.0,7.0
934278,County,2020/10/19,20.0,KS,20033.0,Comanche County,755.0,993.0,6709.0,3275.0,778.0,225.0,656.0,1138.0,115.0,473.0,0.0,49.0,0.0
937078,County,2020/10/20,20.0,KS,20033.0,Comanche County,559.0,1189.0,9857.0,4472.0,1637.0,308.0,858.0,1279.0,435.0,607.0,208.0,31.0,22.0
941091,County,2020/10/21,20.0,KS,20033.0,Comanche County,573.0,1175.0,10380.0,4406.0,1791.0,310.0,949.0,1600.0,481.0,583.0,197.0,42.0,21.0
944753,County,2020/10/22,20.0,KS,20033.0,Comanche County,486.0,1262.0,11398.0,4699.0,2092.0,354.0,1090.0,1738.0,507.0,677.0,184.0,32.0,25.0
948068,County,2020/10/23,20.0,KS,20033.0,Comanche County,509.0,1239.0,10313.0,4319.0,2029.0,334.0,1003.0,1415.0,425.0,617.0,130.0,17.0,24.0
950927,County,2020/10/24,20.0,KS,20033.0,Comanche County,633.0,1115.0,9670.0,3734.0,1839.0,331.0,986.0,1373.0,478.0,724.0,161.0,15.0,29.0
