,Level,Date,State FIPS,State Postal Code,County FIPS,County Name,Population Staying at Home,Population Not Staying at Home,Number of Trips,Number of Trips <1,Number of Trips 1-3,Number of Trips 3-5,Number of Trips 5-10,Number of Trips 10-25,Number of Trips 25-50,Number of Trips 50-100,Number of Trips 100-250,Number of Trips 250-500,Number of Trips >=500
983,County,2020/01/01,20.0,KS,20191.0,Sumner County,6121.0,16875.0,67375.0,19120.0,17231.0,4366.0,7183.0,10398.0,6816.0,1580.0,552.0,116.0,13.0
3223,County,2020/01/02,20.0,KS,20191.0,Sumner County,5315.0,17681.0,84227.0,23183.0,18521.0,5780.0,8445.0,16350.0,9876.0,1485.0,492.0,81.0,14.0
7636,County,2020/01/03,20.0,KS,20191.0,Sumner County,4988.0,18008.0,88849.0,25037.0,20773.0,6771.0,9031.0,16253.0,8604.0,1650.0,595.0,127.0,8.0
9722,County,2020/01/04,20.0,KS,20191.0,Sumner County,5901.0,17095.0,79296.0,20507.0,17739.0,5540.0,9256.0,14662.0,9417.0,1570.0,473.0,121.0,11.0
13759,County,2020/01/05,20.0,KS,20191.0,Sumner County,6418.0,16578.0,70085.0,21150.0,14368.0,4869.0,7119.0,12714.0,7741.0,1565.0,453.0,90.0,16.0
18077,County,2020/01/06,20.0,KS,20191.0,Sumner County,5558.0,17438.0,82098.0,24328.0,19957.0,5288.0,8577.0,12382.0,8890.0,1961.0,628.0,79.0,8.0
21223,County,2020/01/07,20.0,KS,20191.0,Sumner County,5039.0,17957.0,87417.0,25974.0,19869.0,6723.0,8943.0,14433.0,9049.0,1945.0,346.0,107.0,28.0
22850,County,2020/01/08,20.0,KS,20191.0,Sumner County,4613.0,18383.0,83382.0,24547.0,17787.0,6414.0,8385.0,14985.0,8857.0,1723.0,575.0,93.0,16.0
26045,County,2020/01/09,20.0,KS,20191.0,Sumner County,4593.0,18403.0,89099.0,26929.0,20501.0,6233.0,8562.0,15886.0,9038.0,1255.0,542.0,135.0,18.0
29240,County,2020/01/10,20.0,KS,20191.0,Sumner County,4070.0,18926.0,88301.0,24975.0,19810.0,6783.0,9563.0,14826.0,9732.0,1594.0,813.0,193.0,12.0
34049,County,2020/01/11,20.0,KS,20191.0,Sumner County,6242.0,16754.0,74188.0,20847.0,18098.0,5506.0,8489.0,11894.0,7499.0,1125.0,623.0,95.0,12.0
37168,County,2020/01/12,20.0,KS,20191.0,Sumner County,6523.0,16473.0,66839.0,19954.0,14914.0,4991.0,6792.0,11742.0,6404.0,1250.0,634.0,146.0,12.0
40416,County,2020/01/13,20.0,KS,20191.0,Sumner County,4826.0,18170.0,83448.0,25654.0,16279.0,6618.0,8243.0,14357.0,9791.0,1744.0,644.0,108.0,10.0
42042,County,2020/01/14,20.0,KS,20191.0,Sumner County,4856.0,18140.0,94239.0,30273.0,19461.0,7680.0,8973.0,14997.0,10245.0,2046.0,446.0,107.0,11.0
45195,County,2020/01/15,20.0,KS,20191.0,Sumner County,4637.0,18359.0,89126.0,27112.0,18961.0,8013.0,7899.0,15209.0,9437.0,1787.0,590.0,105.0,13.0
49976,County,2020/01/16,20.0,KS,20191.0,Sumner County,4612.0,18384.0,83453.0,25251.0,18682.0,7112.0,8799.0,12693.0,8210.0,1806.0,742.0,136.0,22.0
53214,County,2020/01/17,20.0,KS,20191.0,Sumner County,4710.0,18286.0,86148.0,24221.0,19866.0,6204.0,8759.0,16196.0,8824.0,1340.0,585.0,138.0,15.0
56335,County,2020/01/18,20.0,KS,20191.0,Sumner County,5681.0,17315.0,85494.0,22013.0,18688.0,7013.0,9150.0,16652.0,9617.0,1812.0,472.0,66.0,11.0
59582,County,2020/01/19,20.0,KS,20191.0,Sumner County,6448.0,16548.0,69988.0,18537.0,16573.0,5810.0,8098.0,12647.0,6552.0,1317.0,361.0,75.0,18.0
62745,County,2020/01/20,20.0,KS,20191.0,Sumner County,5149.0,17847.0,78631.0,21959.0,17417.0,5992.0,7531.0,12508.0,10414.0,2153.0,562.0,84.0,11.0
64373,County,2020/01/21,20.0,KS,20191.0,Sumner County,4639.0,18357.0,83386.0,24805.0,19250.0,6369.0,7667.0,14233.0,8644.0,1639.0,616.0,140.0,23.0
69135,County,2020/01/22,20.0,KS,20191.0,Sumner County,5058.0,17938.0,82557.0,25117.0,18662.0,6662.0,8375.0,13068.0,8714.0,1355.0,477.0,103.0,24.0
70759,County,2020/01/23,20.0,KS,20191.0,Sumner County,4884.0,18112.0,86313.0,28299.0,20361.0,5586.0,7285.0,14018.0,8628.0,1354.0,641.0,114.0,27.0
73956,County,2020/01/24,20.0,KS,20191.0,Sumner County,4699.0,18297.0,99441.0,28964.0,23597.0,7168.0,9695.0,16905.0,10112.0,2205.0,656.0,123.0,16.0
77148,County,2020/01/25,20.0,KS,20191.0,Sumner County,5258.0,17738.0,89644.0,24673.0,19094.0,6661.0,9532.0,16944.0,9754.0,2280.0,569.0,112.0,25.0
80833,County,2020/01/26,20.0,KS,20191.0,Sumner County,5778.0,17218.0,77038.0,22655.0,18889.0,6247.0,8332.0,11534.0,7216.0,1454.0,524.0,167.0,20.0
85023,County,2020/01/27,20.0,KS,20191.0,Sumner County,4723.0,18273.0,97842.0,36755.0,22637.0,6097.0,8384.0,12843.0,8572.0,1699.0,720.0,111.0,24.0
86745,County,2020/01/28,20.0,KS,20191.0,Sumner County,4515.0,18481.0,85135.0,29228.0,18878.0,5813.0,7303.0,13461.0,7907.0,1414.0,913.0,199.0,19.0
91478,County,2020/01/29,20.0,KS,20191.0,Sumner County,5309.0,17687.0,85331.0,25584.0,20253.0,5814.0,8064.0,14747.0,8613.0,1677.0,435.0,128.0,16.0
94732,County,2020/01/30,20.0,KS,20191.0,Sumner County,4842.0,18154.0,89361.0,25720.0,20999.0,6618.0,8496.0,15328.0,9399.0,2062.0,618.0,104.0,17.0
97878,County,2020/01/31,20.0,KS,20191.0,Sumner County,4124.0,18872.0,97780.0,28266.0,21733.0,7078.0,10426.0,16775.0,10694.0,1865.0,761.0,154.0,28.0
101066,County,2020/02/01,20.0,KS,20191.0,Sumner County,5031.0,17965.0,98102.0,27918.0,22836.0,7621.0,9642.0,17247.0,10303.0,1946.0,502.0,74.0,13.0
102684,County,2020/02/02,20.0,KS,20191.0,Sumner County,5842.0,17154.0,79129.0,22869.0,20511.0,6260.0,7784.0,12341.0,7807.0,908.0,543.0,88.0,18.0
105894,County,2020/02/03,20.0,KS,20191.0,Sumner County,5044.0,17952.0,87172.0,26489.0,20683.0,6956.0,8202.0,12985.0,9098.0,1833.0,784.0,124.0,18.0
110655,County,2020/02/04,20.0,KS,20191.0,Sumner County,4473.0,18523.0,83848.0,24539.0,19309.0,5870.0,7699.0,13719.0,10214.0,1424.0,944.0,109.0,21.0
113811,County,2020/02/05,20.0,KS,20191.0,Sumner County,4682.0,18314.0,86727.0,25793.0,20473.0,6272.0,8136.0,14647.0,8784.0,1570.0,925.0,107.0,20.0
115378,County,2020/02/06,20.0,KS,20191.0,Sumner County,4512.0,18484.0,97000.0,30256.0,22277.0,7476.0,8469.0,15719.0,10244.0,1661.0,784.0,105.0,9.0
118644,County,2020/02/07,20.0,KS,20191.0,Sumner County,4507.0,18489.0,102209.0,30109.0,21473.0,7845.0,10823.0,16112.0,12706.0,2312.0,693.0,116.0,20.0
121890,County,2020/02/08,20.0,KS,20191.0,Sumner County,5371.0,17625.0,88453.0,24849.0,17791.0,6986.0,9454.0,16214.0,10324.0,2021.0,683.0,110.0,21.0
125059,County,2020/02/09,20.0,KS,20191.0,Sumner County,6521.0,16475.0,72424.0,19352.0,17355.0,5041.0,8335.0,12685.0,7661.0,1146.0,685.0,99.0,65.0
129292,County,2020/02/10,20.0,KS,20191.0,Sumner County,4831.0,18165.0,90114.0,27833.0,20779.0,6528.0,7550.0,14427.0,10261.0,1667.0,863.0,132.0,74.0
131889,County,2020/02/11,20.0,KS,20191.0,Sumner County,4793.0,18203.0,91902.0,27380.0,19910.0,6319.0,9288.0,16660.0,9792.0,1517.0,835.0,140.0,61.0
135115,County,2020/02/12,20.0,KS,20191.0,Sumner County,4739.0,18257.0,90744.0,26285.0,21079.0,6293.0,9145.0,14865.0,10193.0,1590.0,1031.0,164.0,99.0
139447,County,2020/02/13,20.0,KS,20191.0,Sumner County,4618.0,18378.0,94161.0,28817.0,20948.0,6153.0,8607.0,16070.0,10955.0,1512.0,851.0,161.0,87.0
140931,County,2020/02/14,20.0,KS,20191.0,Sumner County,4257.0,18739.0,106263.0,31443.0,24314.0,7007.0,10538.0,17289.0,12407.0,2117.0,888.0,136.0,124.0
145809,County,2020/02/15,20.0,KS,20191.0,Sumner County,5394.0,17602.0,92647.0,25338.0,20545.0,6128.0,10651.0,15914.0,10694.0,2356.0,821.0,101.0,99.0
147416,County,2020/02/16,20.0,KS,20191.0,Sumner County,5557.0,17439.0,79719.0,23437.0,17552.0,5543.0,7777.0,12708.0,9257.0,2304.0,874.0,116.0,151.0
152178,County,2020/02/17,20.0,KS,20191.0,Sumner County,6352.0,16644.0,72636.0,21379.0,14802.0,5394.0,7099.0,13004.0,8379.0,1638.0,719.0,138.0,84.0
153804,County,2020/02/18,20.0,KS,20191.0,Sumner County,4789.0,18207.0,89190.0,26298.0,20257.0,6631.0,8375.0,14581.0,10037.0,1969.0,772.0,162.0,108.0
156999,County,2020/02/19,20.0,KS,20191.0,Sumner County,4221.0,18775.0,92223.0,27960.0,20233.0,6142.0,8824.0,16242.0,9880.0,1853.0,902.0,145.0,42.0
160108,County,2020/02/20,20.0,KS,20191.0,Sumner County,5002.0,17994.0,92200.0,27720.0,20098.0,6772.0,9320.0,16081.0,9425.0,1901.0,748.0,101.0,34.0
164954,County,2020/02/21,20.0,KS,20191.0,Sumner County,5085.0,17911.0,105133.0,31796.0,24183.0,7789.0,9972.0,17294.0,10803.0,2244.0,923.0,107.0,22.0
168098,County,2020/02/22,20.0,KS,20191.0,Sumner County,5036.0,17960.0,99253.0,26245.0,23892.0,7385.0,11267.0,16363.0,11072.0,2207.0,710.0,91.0,21.0
171346,County,2020/02/23,20.0,KS,20191.0,Sumner County,6476.0,16520.0,75712.0,21125.0,17967.0,5452.0,7924.0,12794.0,8479.0,1216.0,625.0,108.0,22.0
174542,County,2020/02/24,20.0,KS,20191.0,Sumner County,5562.0,17434.0,91922.0,29660.0,18243.0,6385.0,9267.0,16018.0,9737.0,2006.0,490.0,69.0,47.0
176898,County,2020/02/25,20.0,KS,20191.0,Sumner County,4963.0,18033.0,90884.0,26503.0,19579.0,6793.0,8568.0,16541.0,9760.0,2511.0,514.0,77.0,38.0
179847,County,2020/02/26,20.0,KS,20191.0,Sumner County,5325.0,17671.0,75747.0,19415.0,18239.0,5374.0,8522.0,14164.0,8395.0,1104.0,439.0,46.0,49.0
184014,County,2020/02/27,20.0,KS,20191.0,Sumner County,5177.0,17819.0,99438.0,30848.0,20189.0,7310.0,10082.0,17636.0,10736.0,1995.0,520.0,96.0,26.0
185838,County,2020/02/28,20.0,KS,20191.0,Sumner County,4831.0,18165.0,108590.0,33674.0,23607.0,7657.0,10902.0,19049.0,11137.0,1846.0,618.0,78.0,22.0
190457,County,2020/02/29,20.0,KS,20191.0,Sumner County,5460.0,17536.0,97786.0,26743.0,22413.0,7165.0,9427.0,17112.0,11990.0,2220.0,607.0,77.0,32.0
192129,County,2020/03/01,20.0,KS,20191.0,Sumner County,6242.0,16754.0,79442.0,24624.0,18658.0,5840.0,8329.0,11710.0,8259.0,1291.0,621.0,62.0,48.0
196929,County,2020/03/02,20.0,KS,20191.0,Sumner County,5559.0,17437.0,96784.0,31265.0,19302.0,7412.0,9401.0,17493.0,9421.0,1998.0,410.0,65.0,17.0
199989,County,2020/03/03,20.0,KS,20191.0,Sumner County,4546.0,18450.0,98242.0,33813.0,19036.0,9236.0,8852.0,14516.0,9915.0,1972.0,710.0,145.0,47.0
202366,County,2020/03/04,20.0,KS,20191.0,Sumner County,4887.0,18109.0,97120.0,33854.0,20623.0,6843.0,9308.0,14328.0,9141.0,1995.0,912.0,91.0,25.0
206495,County,2020/03/05,20.0,KS,20191.0,Sumner County,4621.0,18375.0,97171.0,25884.0,21962.0,7998.0,10116.0,18481.0,10019.0,1682.0,827.0,177.0,25.0
209709,County,2020/03/06,20.0,KS,20191.0,Sumner County,4345.0,18651.0,95163.0,29981.0,19920.0,7163.0,9861.0,15771.0,9764.0,1820.0,691.0,168.0,24.0
212941,County,2020/03/07,20.0,KS,20191.0,Sumner County,4934.0,18062.0,88890.0,23706.0,19591.0,5801.0,9975.0,16256.0,10235.0,2043.0,1101.0,147.0,35.0
216052,County,2020/03/08,20.0,KS,20191.0,Sumner County,5930.0,17066.0,71842.0,22614.0,13955.0,6174.0,6831.0,12542.0,7009.0,1815.0,796.0,91.0,15.0
219251,County,2020/03/09,20.0,KS,20191.0,Sumner County,5000.0,17996.0,86211.0,26291.0,19967.0,6380.0,7190.0,13660.0,10075.0,1746.0,788.0,91.0,23.0
222445,County,2020/03/10,20.0,KS,20191.0,Sumner County,4878.0,18118.0,88942.0,28195.0,19112.0,7331.0,7563.0,15076.0,9288.0,1436.0,805.0,105.0,31.0
224069,County,2020/03/11,20.0,KS,20191.0,Sumner County,4915.0,18081.0,76250.0,22574.0,19886.0,5658.0,5438.0,10954.0,7456.0,2440.0,1451.0,307.0,86.0
227302,County,2020/03/12,20.0,KS,20191.0,Sumner County,5173.0,17823.0,76189.0,19503.0,19718.0,8139.0,6002.0,10771.0,8568.0,1496.0,1656.0,280.0,56.0
230462,County,2020/03/13,20.0,KS,20191.0,Sumner County,5252.0,17744.0,78971.0,20465.0,20836.0,6028.0,5477.0,13351.0,9028.0,1638.0,1868.0,178.0,102.0
235089,County,2020/03/14,20.0,KS,20191.0,Sumner County,6470.0,16526.0,67286.0,17044.0,11783.0,5485.0,8405.0,14762.0,7198.0,753.0,1600.0,126.0,130.0
236848,County,2020/03/15,20.0,KS,20191.0,Sumner County,6952.0,16044.0,67556.0,20691.0,15447.0,6111.0,6959.0,10341.0,5886.0,1296.0,674.0,110.0,41.0
240042,County,2020/03/16,20.0,KS,20191.0,Sumner County,6188.0,16808.0,79067.0,23016.0,17845.0,5515.0,7202.0,13999.0,8848.0,1681.0,853.0,77.0,31.0
244848,County,2020/03/17,20.0,KS,20191.0,Sumner County,6634.0,16362.0,78623.0,22972.0,18515.0,6456.0,7506.0,13622.0,7740.0,1210.0,466.0,91.0,45.0
246429,County,2020/03/18,20.0,KS,20191.0,Sumner County,6542.0,16454.0,84570.0,26397.0,19999.0,6061.0,6276.0,14784.0,8652.0,1531.0,729.0,125.0,16.0
251211,County,2020/03/19,20.0,KS,20191.0,Sumner County,6528.0,16468.0,79810.0,23690.0,20199.0,5729.0,6169.0,14270.0,7859.0,1190.0,574.0,116.0,14.0
252820,County,2020/03/20,20.0,KS,20191.0,Sumner County,6923.0,16073.0,80156.0,24780.0,19144.0,5546.0,6314.0,14186.0,7634.0,1477.0,945.0,99.0,31.0
257578,County,2020/03/21,20.0,KS,20191.0,Sumner County,8058.0,14938.0,73221.0,22807.0,18317.0,6441.0,5610.0,11034.0,6756.0,1447.0,705.0,92.0,12.0
260765,County,2020/03/22,20.0,KS,20191.0,Sumner County,8658.0,14338.0,47114.0,14083.0,11581.0,3285.0,3711.0,8073.0,5010.0,799.0,442.0,98.0,32.0
262403,County,2020/03/23,20.0,KS,20191.0,Sumner County,6554.0,16442.0,69060.0,22552.0,16090.0,5183.0,6323.0,11146.0,6269.0,900.0,498.0,78.0,21.0
267158,County,2020/03/24,20.0,KS,20191.0,Sumner County,7227.0,15769.0,70320.0,23895.0,15704.0,6031.0,5797.0,10826.0,5840.0,1493.0,658.0,58.0,18.0
270356,County,2020/03/25,20.0,KS,20191.0,Sumner County,7105.0,15891.0,70219.0,23604.0,17032.0,5760.0,5646.0,9758.0,6205.0,1586.0,548.0,61.0,19.0
271982,County,2020/03/26,20.0,KS,20191.0,Sumner County,7096.0,15900.0,78719.0,27791.0,18594.0,6421.0,5158.0,12004.0,6593.0,1692.0,367.0,86.0,13.0
276744,County,2020/03/27,20.0,KS,20191.0,Sumner County,7000.0,15996.0,66175.0,22048.0,14145.0,5168.0,5434.0,11706.0,5968.0,1186.0,438.0,59.0,23.0
279930,County,2020/03/28,20.0,KS,20191.0,Sumner County,7957.0,15039.0,59629.0,20651.0,15357.0,4480.0,4702.0,8815.0,4035.0,989.0,500.0,83.0,17.0
281565,County,2020/03/29,20.0,KS,20191.0,Sumner County,8496.0,14500.0,61700.0,25425.0,14217.0,4260.0,4692.0,7215.0,3984.0,1503.0,311.0,80.0,13.0
286358,County,2020/03/30,20.0,KS,20191.0,Sumner County,7155.0,15841.0,69170.0,25336.0,15367.0,4842.0,5818.0,9834.0,6154.0,1305.0,417.0,81.0,16.0
287954,County,2020/03/31,20.0,KS,20191.0,Sumner County,7289.0,15707.0,70421.0,25951.0,13928.0,5730.0,5367.0,10960.0,6532.0,1478.0,352.0,108.0,15.0
291190,County,2020/04/01,20.0,KS,20191.0,Sumner County,7349.0,15647.0,73429.0,27948.0,16036.0,5452.0,5731.0,10329.0,6434.0,979.0,416.0,91.0,13.0
294341,County,2020/04/02,20.0,KS,20191.0,Sumner County,7193.0,15803.0,61988.0,21363.0,13873.0,4857.0,5009.0,9258.0,5732.0,1352.0,419.0,111.0,14.0
297535,County,2020/04/03,20.0,KS,20191.0,Sumner County,7348.0,15648.0,58248.0,17486.0,13549.0,4400.0,4808.0,10368.0,5677.0,1438.0,394.0,111.0,17.0
300728,County,2020/04/04,20.0,KS,20191.0,Sumner County,8315.0,14681.0,51374.0,15072.0,14002.0,4661.0,4042.0,7634.0,4525.0,863.0,446.0,92.0,37.0
305482,County,2020/04/05,20.0,KS,20191.0,Sumner County,8967.0,14029.0,51875.0,17722.0,10379.0,4747.0,5676.0,7870.0,3988.0,871.0,519.0,89.0,14.0
308683,County,2020/04/06,20.0,KS,20191.0,Sumner County,7552.0,15444.0,62926.0,21937.0,13882.0,4688.0,5074.0,10296.0,5469.0,1164.0,371.0,28.0,17.0
310311,County,2020/04/07,20.0,KS,20191.0,Sumner County,7388.0,15608.0,74118.0,27360.0,15195.0,5024.0,5941.0,13002.0,5926.0,1359.0,251.0,49.0,11.0
313505,County,2020/04/08,20.0,KS,20191.0,Sumner County,6933.0,16063.0,67143.0,20734.0,14663.0,6241.0,7045.0,10969.0,5482.0,1439.0,493.0,69.0,8.0
318264,County,2020/04/09,20.0,KS,20191.0,Sumner County,7624.0,15372.0,70240.0,23530.0,14661.0,6352.0,5894.0,10457.0,7618.0,1122.0,552.0,43.0,11.0
321459,County,2020/04/10,20.0,KS,20191.0,Sumner County,7433.0,15563.0,70196.0,23364.0,15407.0,5429.0,7146.0,10440.0,6426.0,1430.0,391.0,141.0,22.0
324696,County,2020/04/11,20.0,KS,20191.0,Sumner County,7725.0,15271.0,64076.0,22045.0,15358.0,5303.0,5323.0,9919.0,4886.0,796.0,372.0,57.0,17.0
327819,County,2020/04/12,20.0,KS,20191.0,Sumner County,10050.0,12946.0,37529.0,10422.0,9195.0,3729.0,3659.0,5077.0,3987.0,1072.0,297.0,80.0,11.0
329496,County,2020/04/13,20.0,KS,20191.0,Sumner County,7807.0,15189.0,59641.0,18243.0,12714.0,3564.0,5096.0,11348.0,6208.0,1967.0,452.0,29.0,20.0
334217,County,2020/04/14,20.0,KS,20191.0,Sumner County,7729.0,15267.0,50440.0,15227.0,12875.0,4259.0,3752.0,8661.0,3500.0,1496.0,507.0,150.0,13.0
337470,County,2020/04/15,20.0,KS,20191.0,Sumner County,7802.0,15194.0,53988.0,17076.0,14982.0,3616.0,4096.0,9113.0,3516.0,817.0,754.0,18.0,0.0
339047,County,2020/04/16,20.0,KS,20191.0,Sumner County,7699.0,15297.0,47341.0,14867.0,10162.0,4387.0,4591.0,7118.0,4868.0,976.0,280.0,87.0,5.0
342299,County,2020/04/17,20.0,KS,20191.0,Sumner County,7533.0,15463.0,55437.0,17966.0,11615.0,4709.0,5225.0,9578.0,5729.0,138.0,356.0,92.0,29.0
346974,County,2020/04/18,20.0,KS,20191.0,Sumner County,8082.0,14914.0,54451.0,16947.0,11934.0,3640.0,5232.0,8606.0,6631.0,1211.0,168.0,41.0,41.0
348625,County,2020/04/19,20.0,KS,20191.0,Sumner County,8273.0,14723.0,52066.0,22483.0,9280.0,3193.0,3972.0,6751.0,5335.0,445.0,548.0,59.0,0.0
351832,County,2020/04/20,20.0,KS,20191.0,Sumner County,7279.0,15717.0,60321.0,19112.0,18174.0,3761.0,4969.0,8968.0,3522.0,991.0,670.0,154.0,0.0
355025,County,2020/04/21,20.0,KS,20191.0,Sumner County,6861.0,16135.0,80496.0,31263.0,17390.0,4844.0,6782.0,10600.0,7539.0,1678.0,329.0,63.0,8.0
359748,County,2020/04/22,20.0,KS,20191.0,Sumner County,7285.0,15711.0,62258.0,17365.0,13200.0,5975.0,6281.0,10033.0,6690.0,2254.0,396.0,50.0,14.0
361326,County,2020/04/23,20.0,KS,20191.0,Sumner County,6852.0,16144.0,71604.0,25316.0,14300.0,5162.0,6523.0,10512.0,7356.0,1772.0,614.0,43.0,6.0
366214,County,2020/04/24,20.0,KS,20191.0,Sumner County,6678.0,16318.0,70257.0,21329.0,16067.0,4337.0,6645.0,12864.0,6806.0,1838.0,312.0,46.0,13.0
369370,County,2020/04/25,20.0,KS,20191.0,Sumner County,7387.0,15609.0,72414.0,22466.0,17450.0,5985.0,6164.0,12650.0,5934.0,1106.0,567.0,82.0,10.0
370960,County,2020/04/26,20.0,KS,20191.0,Sumner County,7866.0,15130.0,70832.0,23394.0,17679.0,6172.0,6496.0,8644.0,6468.0,1491.0,400.0,81.0,7.0
374190,County,2020/04/27,20.0,KS,20191.0,Sumner County,6506.0,16490.0,71123.0,20087.0,16720.0,7185.0,7268.0,11025.0,6496.0,1893.0,369.0,63.0,17.0
377341,County,2020/04/28,20.0,KS,20191.0,Sumner County,6454.0,16542.0,74902.0,23871.0,16056.0,6264.0,6011.0,12199.0,8203.0,1863.0,380.0,52.0,3.0
380593,County,2020/04/29,20.0,KS,20191.0,Sumner County,6296.0,16700.0,83106.0,29089.0,18654.0,5182.0,9009.0,12865.0,5843.0,1937.0,490.0,37.0,0.0
383741,County,2020/04/30,20.0,KS,20191.0,Sumner County,6560.0,16436.0,80700.0,28869.0,17175.0,5031.0,7773.0,11905.0,7831.0,1580.0,462.0,65.0,9.0
386965,County,2020/05/01,20.0,KS,20191.0,Sumner County,5909.0,17087.0,83077.0,25852.0,17687.0,5446.0,10225.0,14304.0,7251.0,1845.0,416.0,48.0,3.0
391725,County,2020/05/02,20.0,KS,20191.0,Sumner County,7414.0,15582.0,78596.0,28253.0,18503.0,5354.0,7110.0,11853.0,5579.0,1595.0,272.0,57.0,20.0
393361,County,2020/05/03,20.0,KS,20191.0,Sumner County,7170.0,15826.0,69291.0,22798.0,18416.0,3464.0,7324.0,12104.0,4074.0,684.0,379.0,37.0,11.0
398115,County,2020/05/04,20.0,KS,20191.0,Sumner County,6091.0,16905.0,77762.0,26428.0,16130.0,5529.0,7141.0,12295.0,7975.0,1589.0,568.0,99.0,8.0
399742,County,2020/05/05,20.0,KS,20191.0,Sumner County,5697.0,17299.0,85567.0,29514.0,18204.0,5377.0,8336.0,12844.0,9123.0,1775.0,338.0,50.0,6.0
402921,County,2020/05/06,20.0,KS,20191.0,Sumner County,6361.0,16635.0,80197.0,27176.0,18177.0,4915.0,7857.0,12830.0,7106.0,1610.0,471.0,37.0,18.0
407640,County,2020/05/07,20.0,KS,20191.0,Sumner County,6153.0,16843.0,70214.0,21755.0,13438.0,5297.0,7101.0,13054.0,7704.0,1292.0,477.0,65.0,31.0
409380,County,2020/05/08,20.0,KS,20191.0,Sumner County,6395.0,16601.0,81738.0,26350.0,17583.0,6986.0,7966.0,12651.0,7600.0,2165.0,380.0,43.0,14.0
414051,County,2020/05/09,20.0,KS,20191.0,Sumner County,7101.0,15895.0,80175.0,27283.0,19127.0,5987.0,7642.0,11342.0,6472.0,1699.0,560.0,57.0,6.0
415712,County,2020/05/10,20.0,KS,20191.0,Sumner County,7538.0,15458.0,61724.0,17743.0,16162.0,4048.0,6797.0,9837.0,5899.0,1026.0,156.0,40.0,16.0
418906,County,2020/05/11,20.0,KS,20191.0,Sumner County,5879.0,17117.0,73376.0,20942.0,16289.0,4136.0,7037.0,14857.0,8187.0,1428.0,388.0,80.0,32.0
423763,County,2020/05/12,20.0,KS,20191.0,Sumner County,6150.0,16846.0,73742.0,20838.0,15062.0,5589.0,7430.0,13315.0,9183.0,1705.0,515.0,78.0,27.0
425246,County,2020/05/13,20.0,KS,20191.0,Sumner County,5892.0,17104.0,74641.0,21810.0,17047.0,4851.0,6639.0,13118.0,8820.0,1638.0,563.0,114.0,41.0
430055,County,2020/05/14,20.0,KS,20191.0,Sumner County,5757.0,17239.0,80697.0,24693.0,17897.0,5449.0,7261.0,12994.0,8794.0,2634.0,854.0,100.0,21.0
433229,County,2020/05/15,20.0,KS,20191.0,Sumner County,5551.0,17445.0,80944.0,25108.0,16177.0,5461.0,8265.0,14641.0,8131.0,2263.0,745.0,125.0,28.0
434907,County,2020/05/16,20.0,KS,20191.0,Sumner County,5975.0,17021.0,75754.0,23979.0,16984.0,5437.0,6900.0,13795.0,6464.0,1617.0,437.0,116.0,25.0
439590,County,2020/05/17,20.0,KS,20191.0,Sumner County,5847.0,17149.0,75425.0,24140.0,16353.0,6149.0,7051.0,12667.0,6930.0,1620.0,456.0,51.0,8.0
441305,County,2020/05/18,20.0,KS,20191.0,Sumner County,4988.0,18008.0,88256.0,27007.0,19506.0,6510.0,9887.0,13769.0,9581.0,1490.0,425.0,81.0,0.0
444459,County,2020/05/19,20.0,KS,20191.0,Sumner County,4823.0,18173.0,91986.0,33048.0,20783.0,6110.0,8673.0,11862.0,9265.0,1811.0,396.0,27.0,11.0
449220,County,2020/05/20,20.0,KS,20191.0,Sumner County,4801.0,18195.0,97068.0,32091.0,21562.0,6748.0,9736.0,14990.0,10107.0,1267.0,492.0,71.0,4.0
450846,County,2020/05/21,20.0,KS,20191.0,Sumner County,4976.0,18020.0,88937.0,32521.0,18090.0,6985.0,6701.0,12708.0,9438.0,1718.0,702.0,41.0,33.0
455605,County,2020/05/22,20.0,KS,20191.0,Sumner County,4661.0,18335.0,90816.0,29952.0,20020.0,5937.0,8145.0,14182.0,10407.0,1247.0,789.0,71.0,66.0
457229,County,2020/05/23,20.0,KS,20191.0,Sumner County,5362.0,17634.0,77545.0,24996.0,19167.0,5336.0,6705.0,11877.0,7299.0,1590.0,485.0,83.0,7.0
461972,County,2020/05/24,20.0,KS,20191.0,Sumner County,6110.0,16886.0,72319.0,22424.0,15656.0,3453.0,7350.0,14328.0,5772.0,2446.0,798.0,71.0,21.0
465274,County,2020/05/25,20.0,KS,20191.0,Sumner County,6682.0,16314.0,63399.0,20513.0,16228.0,4642.0,5854.0,8178.0,5413.0,1655.0,797.0,96.0,23.0
466753,County,2020/05/26,20.0,KS,20191.0,Sumner County,5349.0,17647.0,78944.0,23244.0,17693.0,4898.0,7027.0,15537.0,8580.0,1473.0,392.0,69.0,31.0
470010,County,2020/05/27,20.0,KS,20191.0,Sumner County,5253.0,17743.0,117049.0,51786.0,22587.0,6185.0,8680.0,15834.0,8666.0,2340.0,838.0,107.0,26.0
474673,County,2020/05/28,20.0,KS,20191.0,Sumner County,5577.0,17419.0,81474.0,26134.0,17277.0,5228.0,8110.0,14766.0,7615.0,1554.0,678.0,99.0,13.0
477960,County,2020/05/29,20.0,KS,20191.0,Sumner County,5792.0,17204.0,87896.0,26781.0,17882.0,6580.0,9486.0,16074.0,8761.0,1734.0,523.0,58.0,17.0
481160,County,2020/05/30,20.0,KS,20191.0,Sumner County,5986.0,17010.0,85221.0,28173.0,19420.0,5672.0,7601.0,13096.0,8969.0,1541.0,638.0,106.0,5.0
482714,County,2020/05/31,20.0,KS,20191.0,Sumner County,6369.0,16627.0,75329.0,25764.0,17324.0,4388.0,7623.0,12155.0,6089.0,1319.0,559.0,98.0,10.0
485933,County,2020/06/01,20.0,KS,20191.0,Sumner County,4753.0,18243.0,85156.0,26122.0,16883.0,5371.0,9508.0,16087.0,8966.0,1597.0,503.0,88.0,31.0
490713,County,2020/06/02,20.0,KS,20191.0,Sumner County,4762.0,18234.0,82277.0,22613.0,19174.0,5247.0,8210.0,15227.0,9229.0,1744.0,687.0,119.0,27.0
493936,County,2020/06/03,20.0,KS,20191.0,Sumner County,4344.0,18652.0,91213.0,26485.0,18746.0,6649.0,10251.0,16456.0,9590.0,2007.0,849.0,151.0,29.0
495553,County,2020/06/04,20.0,KS,20191.0,Sumner County,5201.0,17795.0,91571.0,29162.0,18596.0,6517.0,9775.0,15050.0,9583.0,2123.0,581.0,157.0,27.0
500330,County,2020/06/05,20.0,KS,20191.0,Sumner County,4852.0,18144.0,96764.0,31277.0,20304.0,6119.0,10738.0,15396.0,9935.0,2123.0,784.0,73.0,15.0
503482,County,2020/06/06,20.0,KS,20191.0,Sumner County,5904.0,17092.0,84907.0,29066.0,16509.0,6173.0,7614.0,15468.0,7178.0,2342.0,450.0,91.0,16.0
506680,County,2020/06/07,20.0,KS,20191.0,Sumner County,6100.0,16896.0,79416.0,29436.0,17294.0,4324.0,7328.0,11492.0,7087.0,1578.0,757.0,98.0,22.0
508319,County,2020/06/08,20.0,KS,20191.0,Sumner County,4305.0,18691.0,100205.0,34065.0,18778.0,5525.0,9433.0,18015.0,10997.0,2491.0,768.0,109.0,24.0
513096,County,2020/06/09,20.0,KS,20191.0,Sumner County,5481.0,17515.0,88136.0,28267.0,15972.0,6497.0,8607.0,16624.0,9099.0,2358.0,576.0,122.0,14.0
516302,County,2020/06/10,20.0,KS,20191.0,Sumner County,4968.0,18028.0,101300.0,34645.0,22039.0,7393.0,9660.0,15013.0,9687.0,2027.0,748.0,69.0,19.0
517931,County,2020/06/11,20.0,KS,20191.0,Sumner County,5014.0,17982.0,102969.0,36930.0,21782.0,6868.0,9363.0,16448.0,9186.0,1577.0,677.0,122.0,16.0
521133,County,2020/06/12,20.0,KS,20191.0,Sumner County,4766.0,18230.0,100210.0,34480.0,20714.0,7220.0,8104.0,16786.0,9525.0,2384.0,880.0,94.0,23.0
525869,County,2020/06/13,20.0,KS,20191.0,Sumner County,5503.0,17493.0,93073.0,31946.0,17816.0,6380.0,9678.0,15674.0,8322.0,2499.0,664.0,82.0,12.0
527504,County,2020/06/14,20.0,KS,20191.0,Sumner County,6035.0,16961.0,84534.0,31817.0,15908.0,6709.0,8821.0,12623.0,6046.0,1754.0,723.0,92.0,41.0
532263,County,2020/06/15,20.0,KS,20191.0,Sumner County,5537.0,17459.0,90861.0,34691.0,16335.0,6228.0,8465.0,14075.0,8357.0,1946.0,620.0,122.0,22.0
533891,County,2020/06/16,20.0,KS,20191.0,Sumner County,5752.0,17244.0,92821.0,31969.0,17201.0,7959.0,8894.0,15989.0,7883.0,2186.0,580.0,148.0,12.0
537085,County,2020/06/17,20.0,KS,20191.0,Sumner County,5647.0,17349.0,89825.0,33890.0,14244.0,6252.0,9222.0,14564.0,8618.0,2171.0,732.0,110.0,22.0
541846,County,2020/06/18,20.0,KS,20191.0,Sumner County,5614.0,17382.0,94989.0,35007.0,18650.0,5595.0,8491.0,15429.0,9460.0,1720.0,544.0,84.0,9.0
544998,County,2020/06/19,20.0,KS,20191.0,Sumner County,5429.0,17567.0,79306.0,27166.0,16894.0,4793.0,7678.0,12832.0,7155.0,1928.0,724.0,87.0,49.0
548233,County,2020/06/20,20.0,KS,20191.0,Sumner County,6070.0,16926.0,78122.0,27095.0,17396.0,4678.0,7091.0,12755.0,6250.0,2028.0,719.0,80.0,30.0
551420,County,2020/06/21,20.0,KS,20191.0,Sumner County,6447.0,16549.0,61631.0,19185.0,13303.0,4380.0,6431.0,9309.0,6646.0,1675.0,563.0,119.0,20.0
553057,County,2020/06/22,20.0,KS,20191.0,Sumner County,6175.0,16821.0,79638.0,25951.0,16358.0,5409.0,7482.0,13405.0,8086.0,2100.0,692.0,125.0,30.0
557816,County,2020/06/23,20.0,KS,20191.0,Sumner County,5150.0,17846.0,92023.0,29334.0,19294.0,5356.0,8519.0,16373.0,10392.0,1761.0,830.0,150.0,14.0
561009,County,2020/06/24,20.0,KS,20191.0,Sumner County,5997.0,16999.0,79679.0,27095.0,15358.0,5240.0,6964.0,15163.0,7410.0,1439.0,842.0,136.0,32.0
564186,County,2020/06/25,20.0,KS,20191.0,Sumner County,5603.0,17393.0,86655.0,30611.0,16511.0,5623.0,8190.0,14849.0,8372.0,1649.0,701.0,100.0,49.0
565892,County,2020/06/26,20.0,KS,20191.0,Sumner County,5645.0,17351.0,88459.0,31684.0,16348.0,5334.0,8020.0,14072.0,9731.0,2437.0,685.0,134.0,14.0
570582,County,2020/06/27,20.0,KS,20191.0,Sumner County,6191.0,16805.0,77393.0,25140.0,15136.0,5408.0,8476.0,12875.0,7200.0,2425.0,592.0,126.0,15.0
573774,County,2020/06/28,20.0,KS,20191.0,Sumner County,6677.0,16319.0,67936.0,21839.0,13316.0,3871.0,7993.0,11533.0,6818.0,1577.0,847.0,127.0,15.0
575382,County,2020/06/29,20.0,KS,20191.0,Sumner County,5773.0,17223.0,81796.0,28655.0,16079.0,4546.0,7621.0,13617.0,8317.0,1928.0,825.0,164.0,44.0
580194,County,2020/06/30,20.0,KS,20191.0,Sumner County,5464.0,17532.0,81369.0,26127.0,14746.0,4997.0,8274.0,16394.0,7897.0,1866.0,865.0,150.0,53.0
583388,County,2020/07/01,20.0,KS,20191.0,Sumner County,5636.0,17360.0,81807.0,26466.0,16025.0,5505.0,6742.0,14016.0,9822.0,2219.0,835.0,133.0,44.0
584987,County,2020/07/02,20.0,KS,20191.0,Sumner County,5951.0,17045.0,91976.0,32491.0,17525.0,5968.0,8693.0,15761.0,8886.0,1750.0,744.0,106.0,52.0
589780,County,2020/07/03,20.0,KS,20191.0,Sumner County,6417.0,16579.0,87960.0,31505.0,16256.0,5304.0,7975.0,13993.0,9676.0,2423.0,681.0,133.0,14.0
592964,County,2020/07/04,20.0,KS,20191.0,Sumner County,7406.0,15590.0,75253.0,26954.0,13907.0,4538.0,6823.0,11971.0,8278.0,2073.0,583.0,114.0,12.0
594613,County,2020/07/05,20.0,KS,20191.0,Sumner County,7146.0,15850.0,63304.0,21626.0,12713.0,5231.0,6683.0,10054.0,4644.0,1706.0,458.0,110.0,79.0
599289,County,2020/07/06,20.0,KS,20191.0,Sumner County,5926.0,17070.0,71825.0,22459.0,15470.0,4173.0,7393.0,12678.0,6691.0,2199.0,615.0,104.0,43.0
600964,County,2020/07/07,20.0,KS,20191.0,Sumner County,6064.0,16932.0,75764.0,24034.0,17297.0,4063.0,6728.0,12950.0,7560.0,2205.0,785.0,93.0,49.0
604156,County,2020/07/08,20.0,KS,20191.0,Sumner County,5912.0,17084.0,74890.0,21596.0,18195.0,4698.0,7525.0,12602.0,7371.0,1838.0,803.0,200.0,62.0
607352,County,2020/07/09,20.0,KS,20191.0,Sumner County,5883.0,17113.0,71577.0,22331.0,13681.0,4949.0,6597.0,12888.0,8288.0,1905.0,766.0,141.0,31.0
612134,County,2020/07/10,20.0,KS,20191.0,Sumner County,5893.0,17103.0,72117.0,23507.0,15516.0,4063.0,5529.0,12394.0,8134.0,1962.0,843.0,133.0,36.0
615350,County,2020/07/11,20.0,KS,20191.0,Sumner County,6581.0,16415.0,67681.0,22204.0,13986.0,4547.0,6283.0,11504.0,7109.0,1225.0,693.0,93.0,37.0
616934,County,2020/07/12,20.0,KS,20191.0,Sumner County,7090.0,15906.0,57726.0,19109.0,14306.0,3805.0,5508.0,6839.0,5163.0,1977.0,841.0,126.0,52.0
621693,County,2020/07/13,20.0,KS,20191.0,Sumner County,6184.0,16812.0,69253.0,21318.0,13940.0,4616.0,6402.0,12136.0,8478.0,1409.0,840.0,72.0,42.0
624888,County,2020/07/14,20.0,KS,20191.0,Sumner County,6573.0,16423.0,68831.0,22012.0,15511.0,4627.0,5271.0,10918.0,7840.0,1884.0,586.0,143.0,39.0
628061,County,2020/07/15,20.0,KS,20191.0,Sumner County,6419.0,16577.0,70487.0,21986.0,14032.0,3698.0,7660.0,12612.0,8356.0,1367.0,659.0,81.0,36.0
629687,County,2020/07/16,20.0,KS,20191.0,Sumner County,6512.0,16484.0,66244.0,19389.0,13286.0,4585.0,6901.0,11253.0,8521.0,1585.0,571.0,131.0,22.0
634421,County,2020/07/17,20.0,KS,20191.0,Sumner County,6707.0,16289.0,72255.0,22594.0,14870.0,4153.0,8177.0,11826.0,7237.0,2391.0,868.0,92.0,47.0
637674,County,2020/07/18,20.0,KS,20191.0,Sumner County,7063.0,15933.0,67125.0,18247.0,16492.0,4836.0,8309.0,10683.0,6224.0,1672.0,582.0,57.0,23.0
639254,County,2020/07/19,20.0,KS,20191.0,Sumner County,6953.0,16043.0,62839.0,20353.0,13076.0,4444.0,6275.0,10757.0,5349.0,1684.0,693.0,180.0,28.0
642488,County,2020/07/20,20.0,KS,20191.0,Sumner County,6466.0,16530.0,74193.0,22607.0,13375.0,5588.0,6564.0,15195.0,7983.0,2103.0,652.0,101.0,25.0
647728,County,2020/07/21,20.0,KS,20191.0,Sumner County,5993.0,17003.0,70740.0,20353.0,12783.0,4862.0,7407.0,13905.0,8901.0,1521.0,827.0,149.0,32.0
648394,County,2020/07/22,20.0,KS,20191.0,Sumner County,5959.0,17037.0,76415.0,24022.0,13376.0,5344.0,6307.0,13608.0,10183.0,2519.0,901.0,124.0,31.0
651983,County,2020/07/23,20.0,KS,20191.0,Sumner County,6089.0,16907.0,75224.0,21722.0,13148.0,5859.0,7467.0,13684.0,9241.0,2812.0,1114.0,138.0,39.0
656812,County,2020/07/24,20.0,KS,20191.0,Sumner County,5786.0,17210.0,77412.0,22287.0,14340.0,5939.0,8044.0,14800.0,8627.0,2250.0,888.0,186.0,51.0
658452,County,2020/07/25,20.0,KS,20191.0,Sumner County,6391.0,16605.0,71234.0,22096.0,15035.0,4188.0,6975.0,12830.0,6925.0,1950.0,1121.0,85.0,29.0
663157,County,2020/07/26,20.0,KS,20191.0,Sumner County,6414.0,16582.0,63683.0,21000.0,12922.0,3239.0,5606.0,10971.0,6418.0,2286.0,1012.0,152.0,77.0
666430,County,2020/07/27,20.0,KS,20191.0,Sumner County,6047.0,16949.0,77035.0,22074.0,17984.0,5685.0,6985.0,11405.0,10325.0,1525.0,898.0,104.0,50.0
669682,County,2020/07/28,20.0,KS,20191.0,Sumner County,6075.0,16921.0,76428.0,22591.0,15359.0,5269.0,7737.0,13776.0,8908.0,1785.0,892.0,85.0,26.0
671217,County,2020/07/29,20.0,KS,20191.0,Sumner County,6327.0,16669.0,72570.0,20849.0,15371.0,4629.0,7092.0,13605.0,8546.0,1414.0,906.0,122.0,36.0
674427,County,2020/07/30,20.0,KS,20191.0,Sumner County,5679.0,17317.0,76527.0,21637.0,16582.0,5557.0,7583.0,13595.0,8934.0,1440.0,997.0,139.0,63.0
679205,County,2020/07/31,20.0,KS,20191.0,Sumner County,5995.0,17001.0,79679.0,24477.0,16386.0,6133.0,8310.0,13945.0,7686.0,1671.0,887.0,152.0,32.0
680785,County,2020/08/01,20.0,KS,20191.0,Sumner County,6421.0,16575.0,75190.0,22462.0,16694.0,5768.0,7863.0,11153.0,7814.0,2495.0,779.0,128.0,34.0
684008,County,2020/08/02,20.0,KS,20191.0,Sumner County,6802.0,16194.0,67711.0,20972.0,15679.0,4954.0,7508.0,9628.0,5746.0,1723.0,1291.0,160.0,50.0
687204,County,2020/08/03,20.0,KS,20191.0,Sumner County,6154.0,16842.0,80066.0,24188.0,16206.0,5745.0,8454.0,15505.0,7117.0,1746.0,884.0,186.0,35.0
690397,County,2020/08/04,20.0,KS,20191.0,Sumner County,5480.0,17516.0,93054.0,27967.0,21427.0,6912.0,10101.0,15260.0,8580.0,1776.0,819.0,172.0,40.0
695156,County,2020/08/05,20.0,KS,20191.0,Sumner County,5457.0,17539.0,162006.0,92449.0,29447.0,5923.0,8498.0,14759.0,8190.0,1947.0,627.0,149.0,17.0
698351,County,2020/08/06,20.0,KS,20191.0,Sumner County,5758.0,17238.0,222568.0,147623.0,33268.0,6227.0,7971.0,16205.0,8456.0,1808.0,776.0,213.0,21.0
701546,County,2020/08/07,20.0,KS,20191.0,Sumner County,5756.0,17240.0,82729.0,25181.0,18566.0,4374.0,6863.0,15393.0,9897.0,1560.0,794.0,84.0,17.0
704739,County,2020/08/08,20.0,KS,20191.0,Sumner County,6120.0,16876.0,71473.0,20986.0,14856.0,4870.0,7323.0,12577.0,8069.0,1950.0,701.0,130.0,11.0
706366,County,2020/08/09,20.0,KS,20191.0,Sumner County,6880.0,16116.0,74083.0,22283.0,18018.0,4055.0,8879.0,10491.0,7582.0,1748.0,807.0,181.0,39.0
709587,County,2020/08/10,20.0,KS,20191.0,Sumner County,5508.0,17488.0,83604.0,26051.0,17968.0,4955.0,7219.0,14547.0,9537.0,2094.0,1059.0,145.0,29.0
712755,County,2020/08/11,20.0,KS,20191.0,Sumner County,5549.0,17447.0,79939.0,22513.0,16772.0,5205.0,7180.0,14698.0,10454.0,2161.0,751.0,183.0,22.0
717417,County,2020/08/12,20.0,KS,20191.0,Sumner County,5746.0,17250.0,83524.0,25078.0,16640.0,5395.0,7500.0,16011.0,9490.0,2151.0,1011.0,198.0,50.0
719143,County,2020/08/13,20.0,KS,20191.0,Sumner County,5497.0,17499.0,82145.0,24064.0,18111.0,4712.0,7297.0,14557.0,9641.0,2587.0,941.0,172.0,63.0
722336,County,2020/08/14,20.0,KS,20191.0,Sumner County,5223.0,17773.0,88558.0,25753.0,16391.0,5582.0,9565.0,16616.0,11228.0,2023.0,1136.0,194.0,70.0
725566,County,2020/08/15,20.0,KS,20191.0,Sumner County,5814.0,17182.0,80372.0,25090.0,18150.0,4468.0,8277.0,12753.0,7831.0,2581.0,986.0,169.0,67.0
730290,County,2020/08/16,20.0,KS,20191.0,Sumner County,6216.0,16780.0,77558.0,24585.0,15409.0,3443.0,9252.0,13980.0,6978.0,2268.0,1305.0,205.0,133.0
731919,County,2020/08/17,20.0,KS,20191.0,Sumner County,5794.0,17202.0,86137.0,25711.0,16828.0,4500.0,9000.0,16011.0,10149.0,2553.0,1097.0,185.0,103.0
736679,County,2020/08/18,20.0,KS,20191.0,Sumner County,5752.0,17244.0,85740.0,28093.0,16928.0,5059.0,7327.0,13413.0,10944.0,2483.0,1119.0,257.0,117.0
739873,County,2020/08/19,20.0,KS,20191.0,Sumner County,5387.0,17609.0,87022.0,24779.0,17844.0,4912.0,9385.0,15924.0,10924.0,2007.0,853.0,250.0,144.0
741501,County,2020/08/20,20.0,KS,20191.0,Sumner County,5352.0,17644.0,90732.0,26936.0,18712.0,5127.0,9278.0,17944.0,9591.0,1961.0,901.0,151.0,131.0
746278,County,2020/08/21,20.0,KS,20191.0,Sumner County,4966.0,18030.0,92509.0,28541.0,17087.0,7509.0,9067.0,15882.0,10763.0,2331.0,1054.0,158.0,117.0
747906,County,2020/08/22,20.0,KS,20191.0,Sumner County,5527.0,17469.0,82655.0,22850.0,17138.0,5676.0,10946.0,14482.0,8285.0,2193.0,809.0,173.0,103.0
752651,County,2020/08/23,20.0,KS,20191.0,Sumner County,6742.0,16254.0,67515.0,19051.0,15265.0,3524.0,7482.0,11593.0,8000.0,1735.0,606.0,140.0,119.0
755842,County,2020/08/24,20.0,KS,20191.0,Sumner County,6282.0,16714.0,75464.0,23393.0,16095.0,4577.0,7058.0,12785.0,8706.0,1766.0,859.0,138.0,87.0
757471,County,2020/08/25,20.0,KS,20191.0,Sumner County,5771.0,17225.0,80006.0,21275.0,17486.0,5014.0,8966.0,13528.0,10618.0,2158.0,724.0,141.0,96.0
762194,County,2020/08/26,20.0,KS,20191.0,Sumner County,5611.0,17385.0,81860.0,24112.0,17818.0,5395.0,7464.0,14347.0,9712.0,1993.0,839.0,117.0,63.0
763822,County,2020/08/27,20.0,KS,20191.0,Sumner County,5770.0,17226.0,76133.0,21412.0,16350.0,5024.0,7275.0,14006.0,9450.0,1533.0,842.0,158.0,83.0
767030,County,2020/08/28,20.0,KS,20191.0,Sumner County,5765.0,17231.0,82739.0,26453.0,18110.0,4202.0,7316.0,14609.0,8989.0,1840.0,975.0,160.0,85.0
771805,County,2020/08/29,20.0,KS,20191.0,Sumner County,6092.0,16904.0,76059.0,24417.0,14765.0,4114.0,7570.0,13100.0,8689.0,2387.0,775.0,153.0,89.0
775023,County,2020/08/30,20.0,KS,20191.0,Sumner County,6800.0,16196.0,66567.0,20181.0,14658.0,3493.0,6445.0,10846.0,7608.0,2286.0,781.0,172.0,97.0
776632,County,2020/08/31,20.0,KS,20191.0,Sumner County,5956.0,17040.0,72900.0,22438.0,16284.0,4386.0,5712.0,13042.0,8210.0,1771.0,834.0,155.0,68.0
781412,County,2020/09/01,20.0,KS,20191.0,Sumner County,6167.0,16829.0,83577.0,24921.0,17596.0,4895.0,7658.0,16556.0,8468.0,2447.0,772.0,205.0,59.0
783806,County,2020/09/02,20.0,KS,20191.0,Sumner County,6114.0,16882.0,84638.0,28148.0,16375.0,4679.0,8600.0,14568.0,8754.0,2306.0,939.0,197.0,72.0
786167,County,2020/09/03,20.0,KS,20191.0,Sumner County,5395.0,17601.0,87048.0,25423.0,16068.0,5191.0,7068.0,19458.0,10263.0,2350.0,949.0,199.0,79.0
789372,County,2020/09/04,20.0,KS,20191.0,Sumner County,5469.0,17527.0,89968.0,32435.0,15957.0,5564.0,6343.0,16107.0,9471.0,2542.0,1251.0,221.0,77.0
792502,County,2020/09/05,20.0,KS,20191.0,Sumner County,6093.0,16903.0,78125.0,23159.0,16130.0,3642.0,7554.0,14715.0,8954.0,2525.0,1243.0,135.0,68.0
797342,County,2020/09/06,20.0,KS,20191.0,Sumner County,6772.0,16224.0,64796.0,19176.0,13564.0,3599.0,5823.0,11432.0,8073.0,2017.0,859.0,165.0,88.0
800556,County,2020/09/07,20.0,KS,20191.0,Sumner County,6889.0,16107.0,66958.0,23057.0,14287.0,4324.0,5600.0,9944.0,6397.0,1761.0,1357.0,145.0,86.0
803753,County,2020/09/08,20.0,KS,20191.0,Sumner County,5877.0,17119.0,83942.0,25866.0,15576.0,4695.0,8962.0,17030.0,9214.0,1690.0,685.0,143.0,81.0
805380,County,2020/09/09,20.0,KS,20191.0,Sumner County,5912.0,17084.0,82883.0,22999.0,17530.0,5100.0,8088.0,16345.0,9597.0,2137.0,849.0,172.0,66.0
808573,County,2020/09/10,20.0,KS,20191.0,Sumner County,6391.0,16605.0,77346.0,23536.0,15762.0,4429.0,7475.0,13372.0,9283.0,2025.0,1183.0,196.0,85.0
813334,County,2020/09/11,20.0,KS,20191.0,Sumner County,5552.0,17444.0,90613.0,27078.0,17755.0,4494.0,9194.0,17381.0,11463.0,2083.0,874.0,212.0,79.0
814963,County,2020/09/12,20.0,KS,20191.0,Sumner County,6418.0,16578.0,78687.0,21119.0,16076.0,4780.0,9530.0,14504.0,9322.0,2236.0,918.0,152.0,50.0
819712,County,2020/09/13,20.0,KS,20191.0,Sumner County,7098.0,15898.0,62918.0,19249.0,13458.0,3512.0,6273.0,11468.0,5224.0,2701.0,802.0,145.0,86.0
822917,County,2020/09/14,20.0,KS,20191.0,Sumner County,6034.0,16962.0,77150.0,19994.0,16458.0,5337.0,8242.0,15241.0,8660.0,2359.0,603.0,194.0,62.0
826110,County,2020/09/15,20.0,KS,20191.0,Sumner County,5871.0,17125.0,79011.0,21711.0,16120.0,4468.0,7116.0,15098.0,10627.0,2671.0,1003.0,139.0,58.0
827738,County,2020/09/16,20.0,KS,20191.0,Sumner County,5862.0,17134.0,81235.0,23992.0,16216.0,5032.0,7374.0,14733.0,10239.0,2369.0,989.0,196.0,95.0
830932,County,2020/09/17,20.0,KS,20191.0,Sumner County,5593.0,17403.0,83023.0,22016.0,18259.0,5305.0,8444.0,14409.0,10987.0,2300.0,1032.0,204.0,67.0
835693,County,2020/09/18,20.0,KS,20191.0,Sumner County,5489.0,17507.0,89261.0,27869.0,17572.0,4731.0,8338.0,15993.0,11284.0,2162.0,1064.0,186.0,62.0
837321,County,2020/09/19,20.0,KS,20191.0,Sumner County,5965.0,17031.0,87524.0,28413.0,18221.0,5127.0,9258.0,13145.0,10001.0,2352.0,757.0,221.0,29.0
840514,County,2020/09/20,20.0,KS,20191.0,Sumner County,7143.0,15853.0,68007.0,22454.0,13267.0,4654.0,6046.0,10604.0,8368.0,1604.0,888.0,82.0,40.0
845301,County,2020/09/21,20.0,KS,20191.0,Sumner County,7142.0,15854.0,73086.0,22806.0,15059.0,4102.0,7067.0,13448.0,8315.0,1549.0,643.0,84.0,13.0
848469,County,2020/09/22,20.0,KS,20191.0,Sumner County,6368.0,16628.0,76610.0,21449.0,16223.0,5334.0,6382.0,14799.0,9968.0,1598.0,753.0,95.0,9.0
850096,County,2020/09/23,20.0,KS,20191.0,Sumner County,5723.0,17273.0,81959.0,22411.0,17541.0,6098.0,8596.0,14769.0,9978.0,1844.0,603.0,106.0,13.0
854863,County,2020/09/24,20.0,KS,20191.0,Sumner County,6091.0,16905.0,82995.0,26764.0,17408.0,4906.0,7723.0,14090.0,8612.0,2353.0,1013.0,105.0,21.0
858050,County,2020/09/25,20.0,KS,20191.0,Sumner County,5714.0,17282.0,85579.0,27148.0,17997.0,5027.0,8096.0,14139.0,10363.0,2051.0,662.0,85.0,11.0
859678,County,2020/09/26,20.0,KS,20191.0,Sumner County,6442.0,16554.0,83092.0,25674.0,17340.0,4036.0,8972.0,14506.0,9921.0,2061.0,489.0,85.0,8.0
864425,County,2020/09/27,20.0,KS,20191.0,Sumner County,7053.0,15943.0,66482.0,19739.0,15313.0,3644.0,8111.0,10851.0,6356.0,1769.0,597.0,94.0,8.0
867633,County,2020/09/28,20.0,KS,20191.0,Sumner County,6421.0,16575.0,78941.0,22546.0,16996.0,4937.0,7862.0,13898.0,10138.0,1928.0,538.0,88.0,10.0
869261,County,2020/09/29,20.0,KS,20191.0,Sumner County,5984.0,17012.0,79908.0,23597.0,18842.0,4702.0,7436.0,13121.0,10113.0,1572.0,446.0,52.0,27.0
872454,County,2020/09/30,20.0,KS,20191.0,Sumner County,5474.0,17522.0,85202.0,25192.0,18633.0,5631.0,7814.0,14671.0,10630.0,2098.0,450.0,67.0,16.0
877194,County,2020/10/01,20.0,KS,20191.0,Sumner County,5626.0,17370.0,78192.0,21752.0,14828.0,5375.0,8504.0,13966.0,11223.0,1980.0,457.0,78.0,29.0
880409,County,2020/10/02,20.0,KS,20191.0,Sumner County,6089.0,16907.0,83354.0,25447.0,17458.0,4956.0,7090.0,16174.0,9886.0,1643.0,620.0,66.0,14.0
882037,County,2020/10/03,20.0,KS,20191.0,Sumner County,6075.0,16921.0,73529.0,19407.0,15208.0,5781.0,8109.0,14018.0,8641.0,1772.0,495.0,87.0,11.0
885653,County,2020/10/04,20.0,KS,20191.0,Sumner County,6711.0,16285.0,71330.0,21789.0,15475.0,3450.0,8062.0,12465.0,7679.0,1727.0,616.0,58.0,9.0
888899,County,2020/10/05,20.0,KS,20191.0,Sumner County,6323.0,16673.0,72143.0,18557.0,17106.0,3725.0,7294.0,11993.0,10762.0,2106.0,480.0,104.0,16.0
892075,County,2020/10/06,20.0,KS,20191.0,Sumner County,6016.0,16980.0,78555.0,18917.0,18768.0,4501.0,7422.0,14243.0,11486.0,2602.0,529.0,69.0,18.0
895262,County,2020/10/07,20.0,KS,20191.0,Sumner County,6188.0,16808.0,76827.0,20014.0,16957.0,5786.0,7766.0,13731.0,9506.0,2420.0,549.0,78.0,20.0
898450,County,2020/10/08,20.0,KS,20191.0,Sumner County,5799.0,17197.0,72364.0,18920.0,16441.0,4107.0,6359.0,14406.0,9172.0,2235.0,623.0,80.0,21.0
901686,County,2020/10/09,20.0,KS,20191.0,Sumner County,5916.0,17080.0,80834.0,22859.0,16987.0,4306.0,6733.0,16451.0,9905.0,2886.0,607.0,82.0,18.0
904876,County,2020/10/10,20.0,KS,20191.0,Sumner County,6792.0,16204.0,65137.0,16612.0,15243.0,4451.0,5997.0,11717.0,8315.0,2214.0,484.0,87.0,17.0
909773,County,2020/10/11,20.0,KS,20191.0,Sumner County,6645.0,16351.0,64833.0,17213.0,15245.0,3550.0,7016.0,10899.0,8104.0,2193.0,510.0,92.0,11.0
912717,County,2020/10/12,20.0,KS,20191.0,Sumner County,6354.0,16642.0,76578.0,20963.0,14566.0,6784.0,7442.0,13296.0,10182.0,2581.0,622.0,130.0,12.0
915589,County,2020/10/13,20.0,KS,20191.0,Sumner County,6301.0,16695.0,78197.0,22985.0,17009.0,3964.0,7219.0,13794.0,9947.0,2475.0,687.0,99.0,18.0
918893,County,2020/10/14,20.0,KS,20191.0,Sumner County,5907.0,17089.0,76883.0,20921.0,14370.0,5454.0,7054.0,16116.0,9349.0,2816.0,705.0,80.0,18.0
922427,County,2020/10/15,20.0,KS,20191.0,Sumner County,5690.0,17306.0,71694.0,19177.0,12314.0,4752.0,6698.0,15330.0,10018.0,2643.0,628.0,109.0,25.0
925488,County,2020/10/16,20.0,KS,20191.0,Sumner County,5297.0,17699.0,85456.0,22403.0,18266.0,6086.0,8534.0,14726.0,11289.0,3337.0,666.0,128.0,21.0
928351,County,2020/10/17,20.0,KS,20191.0,Sumner County,6331.0,16665.0,71822.0,18932.0,15140.0,4464.0,7265.0,13900.0,8391.0,2904.0,718.0,88.0,20.0
931514,County,2020/10/18,20.0,KS,20191.0,Sumner County,7395.0,15601.0,56379.0,13991.0,13861.0,3496.0,5375.0,9388.0,7321.0,1984.0,826.0,119.0,18.0
935105,County,2020/10/19,20.0,KS,20191.0,Sumner County,6029.0,16967.0,73454.0,22732.0,16075.0,4219.0,5565.0,12806.0,8311.0,2733.0,889.0,112.0,12.0
938381,County,2020/10/20,20.0,KS,20191.0,Sumner County,6539.0,16457.0,72657.0,18609.0,16549.0,4900.0,6405.0,14401.0,8636.0,2375.0,658.0,110.0,14.0
941522,County,2020/10/21,20.0,KS,20191.0,Sumner County,6295.0,16701.0,72168.0,20608.0,15711.0,5429.0,6129.0,12404.0,8967.0,2084.0,702.0,118.0,16.0
944674,County,2020/10/22,20.0,KS,20191.0,Sumner County,5992.0,17004.0,75090.0,20890.0,16447.0,4446.0,8146.0,13619.0,8534.0,2155.0,687.0,152.0,14.0
947989,County,2020/10/23,20.0,KS,20191.0,Sumner County,5807.0,17189.0,137926.0,71387.0,23187.0,5828.0,8431.0,15284.0,10205.0,2671.0,819.0,98.0,16.0
950848,County,2020/10/24,20.0,KS,20191.0,Sumner County,6516.0,16480.0,76797.0,20774.0,16823.0,4784.0,8579.0,12256.0,9894.0,2955.0,665.0,56.0,11.0
