,Level,Date,State FIPS,State Postal Code,County FIPS,County Name,Population Staying at Home,Population Not Staying at Home,Number of Trips,Number of Trips <1,Number of Trips 1-3,Number of Trips 3-5,Number of Trips 5-10,Number of Trips 10-25,Number of Trips 25-50,Number of Trips 50-100,Number of Trips 100-250,Number of Trips 250-500,Number of Trips >=500
2267,County,2020/01/01,42.0,PA,42049.0,Erie County,75734.0,196327.0,745615.0,205731.0,198310.0,104602.0,112263.0,88864.0,20505.0,8352.0,5715.0,925.0,348.0
4758,County,2020/01/02,42.0,PA,42049.0,Erie County,60815.0,211246.0,1002783.0,279024.0,264868.0,138510.0,155539.0,121114.0,26335.0,11143.0,5097.0,818.0,335.0
9226,County,2020/01/03,42.0,PA,42049.0,Erie County,56808.0,215253.0,1055186.0,287033.0,280156.0,152512.0,158282.0,128404.0,27447.0,12978.0,7104.0,873.0,397.0
11552,County,2020/01/04,42.0,PA,42049.0,Erie County,65997.0,206064.0,944306.0,263506.0,246630.0,132532.0,139972.0,117474.0,24564.0,11851.0,6404.0,919.0,454.0
15043,County,2020/01/05,42.0,PA,42049.0,Erie County,72054.0,200007.0,824278.0,220496.0,237342.0,121261.0,119396.0,89014.0,19430.0,10378.0,5529.0,966.0,466.0
18676,County,2020/01/06,42.0,PA,42049.0,Erie County,61776.0,210285.0,993170.0,274122.0,274909.0,135539.0,147643.0,120963.0,24244.0,9783.0,4842.0,698.0,427.0
21871,County,2020/01/07,42.0,PA,42049.0,Erie County,60026.0,212035.0,1010444.0,286593.0,271985.0,143490.0,149695.0,115728.0,26519.0,10375.0,4609.0,1011.0,439.0
25066,County,2020/01/08,42.0,PA,42049.0,Erie County,60855.0,211206.0,991994.0,277745.0,266619.0,144474.0,148524.0,114958.0,22862.0,10131.0,5222.0,1065.0,394.0
26693,County,2020/01/09,42.0,PA,42049.0,Erie County,59728.0,212333.0,1020963.0,275996.0,282000.0,143395.0,154432.0,120877.0,26844.0,10502.0,5661.0,751.0,505.0
31453,County,2020/01/10,42.0,PA,42049.0,Erie County,57389.0,214672.0,1083367.0,302909.0,302395.0,149303.0,158099.0,125107.0,27395.0,10772.0,6232.0,720.0,435.0
33130,County,2020/01/11,42.0,PA,42049.0,Erie County,61966.0,210095.0,972294.0,259004.0,267593.0,139049.0,146187.0,115218.0,25805.0,12028.0,6258.0,674.0,478.0
36286,County,2020/01/12,42.0,PA,42049.0,Erie County,69459.0,202602.0,839361.0,228244.0,231262.0,114381.0,126460.0,97948.0,21732.0,11647.0,6509.0,739.0,439.0
41064,County,2020/01/13,42.0,PA,42049.0,Erie County,61911.0,210150.0,983383.0,282287.0,261147.0,135971.0,146059.0,115042.0,27452.0,9968.0,4469.0,687.0,301.0
42690,County,2020/01/14,42.0,PA,42049.0,Erie County,59374.0,212687.0,1018748.0,285058.0,276528.0,140177.0,153150.0,119436.0,27833.0,10728.0,4665.0,847.0,326.0
47418,County,2020/01/15,42.0,PA,42049.0,Erie County,59791.0,212270.0,999882.0,275242.0,269766.0,144651.0,143295.0,122334.0,27824.0,9978.0,5588.0,848.0,356.0
48947,County,2020/01/16,42.0,PA,42049.0,Erie County,59505.0,212556.0,996884.0,274191.0,271723.0,136502.0,149013.0,119767.0,28220.0,10364.0,5667.0,1053.0,384.0
53862,County,2020/01/17,42.0,PA,42049.0,Erie County,57322.0,214739.0,1069232.0,294904.0,283626.0,155605.0,158801.0,124963.0,30473.0,12270.0,7116.0,1072.0,402.0
55435,County,2020/01/18,42.0,PA,42049.0,Erie County,73156.0,198905.0,862121.0,244363.0,255783.0,119846.0,119596.0,88168.0,19994.0,7523.0,5465.0,941.0,442.0
60231,County,2020/01/19,42.0,PA,42049.0,Erie County,78631.0,193430.0,830361.0,254946.0,238340.0,112237.0,115274.0,78443.0,17833.0,6429.0,5585.0,957.0,317.0
61815,County,2020/01/20,42.0,PA,42049.0,Erie County,64684.0,207377.0,932190.0,255856.0,251047.0,129813.0,140797.0,111219.0,26706.0,10105.0,5237.0,1142.0,268.0
65021,County,2020/01/21,42.0,PA,42049.0,Erie County,61004.0,211057.0,997059.0,277877.0,271400.0,140205.0,145294.0,118522.0,27768.0,10163.0,4190.0,1284.0,356.0
69781,County,2020/01/22,42.0,PA,42049.0,Erie County,59699.0,212362.0,1019112.0,278554.0,276226.0,145333.0,154589.0,119351.0,26947.0,11358.0,5558.0,903.0,293.0
71407,County,2020/01/23,42.0,PA,42049.0,Erie County,59198.0,212863.0,1031060.0,291246.0,280575.0,141349.0,149006.0,124355.0,26600.0,10980.0,5597.0,1021.0,331.0
76170,County,2020/01/24,42.0,PA,42049.0,Erie County,57706.0,214355.0,1051279.0,285191.0,282997.0,147926.0,158229.0,128361.0,28854.0,12077.0,6191.0,1010.0,443.0
79356,County,2020/01/25,42.0,PA,42049.0,Erie County,63057.0,209004.0,948908.0,253665.0,244924.0,134919.0,149377.0,122037.0,26440.0,10399.0,5861.0,858.0,428.0
82117,County,2020/01/26,42.0,PA,42049.0,Erie County,70242.0,201819.0,825319.0,221975.0,232557.0,117713.0,121994.0,93618.0,21307.0,9322.0,5463.0,977.0,393.0
83088,County,2020/01/27,42.0,PA,42049.0,Erie County,60492.0,211569.0,980033.0,271475.0,268110.0,136228.0,147717.0,116378.0,24270.0,9677.0,4925.0,953.0,300.0
87973,County,2020/01/28,42.0,PA,42049.0,Erie County,59968.0,212093.0,998666.0,274335.0,271806.0,143662.0,145360.0,121464.0,25435.0,10376.0,4891.0,946.0,391.0
90548,County,2020/01/29,42.0,PA,42049.0,Erie County,61869.0,210192.0,1016328.0,288603.0,272761.0,139917.0,148792.0,120674.0,26746.0,11600.0,6018.0,914.0,303.0
95332,County,2020/01/30,42.0,PA,42049.0,Erie County,58534.0,213527.0,993646.0,274505.0,269073.0,139612.0,145785.0,116726.0,26985.0,11087.0,7298.0,1833.0,742.0
98526,County,2020/01/31,42.0,PA,42049.0,Erie County,56150.0,215911.0,1058909.0,290630.0,289436.0,148685.0,155151.0,124849.0,26402.0,11372.0,9684.0,1986.0,714.0
101714,County,2020/02/01,42.0,PA,42049.0,Erie County,61453.0,210608.0,996743.0,271054.0,269985.0,142550.0,148226.0,118365.0,23594.0,10961.0,9376.0,1733.0,899.0
104916,County,2020/02/02,42.0,PA,42049.0,Erie County,69594.0,202467.0,838307.0,236321.0,230422.0,120119.0,120716.0,89636.0,19844.0,8957.0,9595.0,1880.0,817.0
106542,County,2020/02/03,42.0,PA,42049.0,Erie County,58187.0,213874.0,1018962.0,289327.0,277908.0,141655.0,147575.0,115080.0,24745.0,10804.0,9066.0,1928.0,874.0
109736,County,2020/02/04,42.0,PA,42049.0,Erie County,58152.0,213909.0,1018148.0,299923.0,275826.0,137414.0,143901.0,113474.0,24867.0,11850.0,8285.0,1803.0,805.0
112882,County,2020/02/05,42.0,PA,42049.0,Erie County,58341.0,213720.0,1012848.0,288375.0,275006.0,138936.0,145621.0,115656.0,24838.0,12270.0,9514.0,1672.0,960.0
116026,County,2020/02/06,42.0,PA,42049.0,Erie County,56656.0,215405.0,1002141.0,288383.0,272038.0,141849.0,142737.0,109704.0,26278.0,10449.0,8060.0,1721.0,922.0
119292,County,2020/02/07,42.0,PA,42049.0,Erie County,58432.0,213629.0,1052883.0,304580.0,293909.0,149225.0,148564.0,109648.0,25437.0,11079.0,8361.0,1337.0,743.0
122538,County,2020/02/08,42.0,PA,42049.0,Erie County,66621.0,205440.0,960933.0,270036.0,272825.0,134932.0,136816.0,106568.0,20239.0,9464.0,7998.0,1317.0,738.0
126281,County,2020/02/09,42.0,PA,42049.0,Erie County,76526.0,195535.0,762788.0,201371.0,218006.0,109788.0,109158.0,86158.0,18347.0,8832.0,9055.0,1298.0,775.0
130576,County,2020/02/10,42.0,PA,42049.0,Erie County,59842.0,212219.0,981756.0,264141.0,273553.0,138784.0,146933.0,111771.0,24480.0,10284.0,8996.0,1883.0,931.0
132585,County,2020/02/11,42.0,PA,42049.0,Erie County,55633.0,216428.0,979383.0,266987.0,271122.0,134817.0,146299.0,113547.0,23785.0,10923.0,8900.0,1884.0,1119.0
136826,County,2020/02/12,42.0,PA,42049.0,Erie County,56312.0,215749.0,1016694.0,269348.0,280570.0,147825.0,150010.0,120586.0,25980.0,10491.0,8811.0,2024.0,1049.0
140048,County,2020/02/13,42.0,PA,42049.0,Erie County,55286.0,216775.0,1000840.0,272313.0,286818.0,134302.0,148300.0,111749.0,22982.0,11434.0,9938.0,1950.0,1054.0
143251,County,2020/02/14,42.0,PA,42049.0,Erie County,52980.0,219081.0,1073512.0,289843.0,292711.0,149980.0,163915.0,120074.0,26899.0,15743.0,10762.0,2246.0,1339.0
144875,County,2020/02/15,42.0,PA,42049.0,Erie County,60135.0,211926.0,972324.0,245836.0,265646.0,142860.0,147477.0,115753.0,27948.0,14431.0,9310.0,1950.0,1113.0
148064,County,2020/02/16,42.0,PA,42049.0,Erie County,68175.0,203886.0,818891.0,205827.0,233973.0,114358.0,120606.0,95382.0,21596.0,13194.0,10567.0,2056.0,1332.0
152826,County,2020/02/17,42.0,PA,42049.0,Erie County,74799.0,197262.0,802152.0,211502.0,220210.0,113603.0,118476.0,95995.0,20957.0,10440.0,8360.0,1773.0,836.0
156019,County,2020/02/18,42.0,PA,42049.0,Erie County,57744.0,214317.0,981385.0,259615.0,271417.0,136540.0,147613.0,117176.0,24863.0,9873.0,11186.0,2028.0,1074.0
157647,County,2020/02/19,42.0,PA,42049.0,Erie County,55962.0,216099.0,988825.0,255462.0,274549.0,139155.0,150194.0,117845.0,26768.0,11136.0,11101.0,1721.0,894.0
160708,County,2020/02/20,42.0,PA,42049.0,Erie County,57928.0,214133.0,976386.0,256223.0,269899.0,138313.0,146823.0,115036.0,24597.0,11939.0,10958.0,1794.0,804.0
165602,County,2020/02/21,42.0,PA,42049.0,Erie County,54352.0,217709.0,1049040.0,279071.0,278760.0,154978.0,153395.0,124833.0,28765.0,13800.0,12367.0,2209.0,862.0
167180,County,2020/02/22,42.0,PA,42049.0,Erie County,57737.0,214324.0,1026948.0,275137.0,278030.0,151630.0,153657.0,115231.0,26510.0,13481.0,10236.0,2186.0,850.0
170408,County,2020/02/23,42.0,PA,42049.0,Erie County,66129.0,205932.0,884761.0,239190.0,244439.0,127794.0,129405.0,97431.0,22943.0,13216.0,8240.0,1459.0,644.0
173572,County,2020/02/24,42.0,PA,42049.0,Erie County,57985.0,214076.0,977341.0,263144.0,267378.0,138920.0,150216.0,117975.0,23063.0,9270.0,5623.0,1110.0,642.0
177938,County,2020/02/25,42.0,PA,42049.0,Erie County,55016.0,217045.0,1007390.0,265086.0,269652.0,143134.0,150870.0,128907.0,28286.0,12990.0,6311.0,1262.0,892.0
181131,County,2020/02/26,42.0,PA,42049.0,Erie County,58479.0,213582.0,942568.0,246870.0,276657.0,135123.0,131210.0,106757.0,27275.0,10264.0,6768.0,1134.0,510.0
184760,County,2020/02/27,42.0,PA,42049.0,Erie County,57987.0,214074.0,957323.0,259580.0,263559.0,141031.0,144054.0,110231.0,21113.0,10075.0,5936.0,1017.0,727.0
186486,County,2020/02/28,42.0,PA,42049.0,Erie County,54743.0,217318.0,1034888.0,280032.0,290736.0,151739.0,152635.0,114504.0,23681.0,13063.0,6732.0,1005.0,761.0
189539,County,2020/02/29,42.0,PA,42049.0,Erie County,60416.0,211645.0,993685.0,267778.0,265675.0,147514.0,160661.0,107821.0,24145.0,11599.0,6627.0,976.0,889.0
194372,County,2020/03/01,42.0,PA,42049.0,Erie County,64806.0,207255.0,935496.0,259869.0,255970.0,132704.0,138520.0,104893.0,23693.0,10941.0,6848.0,1219.0,839.0
196001,County,2020/03/02,42.0,PA,42049.0,Erie County,56833.0,215228.0,1080748.0,306996.0,295839.0,149725.0,149660.0,127572.0,29942.0,12701.0,6428.0,988.0,897.0
199059,County,2020/03/03,42.0,PA,42049.0,Erie County,54571.0,217490.0,1062629.0,298463.0,284947.0,147193.0,146126.0,129955.0,27914.0,15561.0,10188.0,1795.0,487.0
201486,County,2020/03/04,42.0,PA,42049.0,Erie County,55970.0,216091.0,1072077.0,290743.0,290213.0,150488.0,155836.0,126083.0,29052.0,16441.0,11178.0,1330.0,713.0
205506,County,2020/03/05,42.0,PA,42049.0,Erie County,50804.0,221257.0,1089725.0,308442.0,286476.0,145578.0,155982.0,133750.0,31287.0,15072.0,11232.0,1329.0,577.0
208625,County,2020/03/06,42.0,PA,42049.0,Erie County,52540.0,219521.0,1096224.0,302369.0,287358.0,151747.0,156259.0,135167.0,30688.0,17377.0,13040.0,1534.0,685.0
211975,County,2020/03/07,42.0,PA,42049.0,Erie County,56617.0,215444.0,1042213.0,288253.0,273518.0,145456.0,151469.0,122065.0,32039.0,15808.0,11095.0,1523.0,987.0
215141,County,2020/03/08,42.0,PA,42049.0,Erie County,63544.0,208517.0,960131.0,276076.0,263844.0,131591.0,127103.0,105573.0,25985.0,15946.0,11387.0,1722.0,904.0
219899,County,2020/03/09,42.0,PA,42049.0,Erie County,57207.0,214854.0,1080622.0,311940.0,284032.0,147177.0,154201.0,129690.0,29228.0,13269.0,9026.0,1319.0,740.0
221528,County,2020/03/10,42.0,PA,42049.0,Erie County,57648.0,214413.0,1025007.0,275729.0,279763.0,145806.0,148970.0,121022.0,27649.0,13616.0,10153.0,1487.0,812.0
226322,County,2020/03/11,42.0,PA,42049.0,Erie County,55217.0,216844.0,976504.0,287034.0,254363.0,123036.0,128116.0,112003.0,31992.0,15916.0,18735.0,3186.0,2123.0
229414,County,2020/03/12,42.0,PA,42049.0,Erie County,57747.0,214314.0,961533.0,277162.0,262744.0,113696.0,137640.0,105660.0,28579.0,12474.0,18099.0,3856.0,1623.0
231110,County,2020/03/13,42.0,PA,42049.0,Erie County,55366.0,216695.0,1052647.0,322324.0,276833.0,136288.0,147492.0,107476.0,30583.0,11783.0,15092.0,3379.0,1397.0
235786,County,2020/03/14,42.0,PA,42049.0,Erie County,67078.0,204983.0,937495.0,312471.0,230088.0,120703.0,127358.0,91915.0,23511.0,12140.0,13883.0,3202.0,2224.0
239063,County,2020/03/15,42.0,PA,42049.0,Erie County,77199.0,194862.0,842079.0,234808.0,231896.0,117808.0,116179.0,95318.0,23347.0,12052.0,8115.0,1746.0,810.0
242257,County,2020/03/16,42.0,PA,42049.0,Erie County,67796.0,204265.0,1023160.0,298325.0,260348.0,145595.0,150816.0,114875.0,26849.0,14158.0,9926.0,1675.0,593.0
245449,County,2020/03/17,42.0,PA,42049.0,Erie County,77559.0,194502.0,891828.0,256130.0,231784.0,119176.0,126395.0,108320.0,25615.0,12375.0,9400.0,1798.0,835.0
248604,County,2020/03/18,42.0,PA,42049.0,Erie County,80799.0,191262.0,878606.0,241465.0,235982.0,117542.0,122680.0,109232.0,27070.0,13060.0,9347.0,1535.0,693.0
250283,County,2020/03/19,42.0,PA,42049.0,Erie County,80621.0,191440.0,893369.0,252405.0,233833.0,118575.0,127543.0,111720.0,26630.0,12346.0,8336.0,1516.0,465.0
255034,County,2020/03/20,42.0,PA,42049.0,Erie County,81007.0,191054.0,853894.0,233587.0,228798.0,120668.0,122243.0,102410.0,21632.0,13420.0,8635.0,1830.0,671.0
258226,County,2020/03/21,42.0,PA,42049.0,Erie County,92653.0,179408.0,788832.0,233747.0,215599.0,110583.0,106950.0,81002.0,20003.0,10836.0,7795.0,1722.0,595.0
259847,County,2020/03/22,42.0,PA,42049.0,Erie County,90236.0,181825.0,666703.0,209984.0,181950.0,85217.0,87579.0,71290.0,15363.0,6994.0,6053.0,1683.0,590.0
263051,County,2020/03/23,42.0,PA,42049.0,Erie County,81843.0,190218.0,683276.0,191675.0,185472.0,90310.0,99043.0,79193.0,19220.0,8952.0,6895.0,1786.0,730.0
267806,County,2020/03/24,42.0,PA,42049.0,Erie County,83200.0,188861.0,708794.0,209899.0,188227.0,88244.0,96912.0,86174.0,21122.0,10136.0,6476.0,1241.0,363.0
271004,County,2020/03/25,42.0,PA,42049.0,Erie County,84193.0,187868.0,710990.0,213701.0,194492.0,91847.0,99833.0,74452.0,20817.0,7651.0,6478.0,1352.0,367.0
272630,County,2020/03/26,42.0,PA,42049.0,Erie County,83655.0,188406.0,758894.0,242702.0,195737.0,95825.0,103589.0,81368.0,22289.0,9645.0,5980.0,1372.0,387.0
275817,County,2020/03/27,42.0,PA,42049.0,Erie County,81660.0,190401.0,736292.0,217695.0,198779.0,95850.0,101308.0,84153.0,21307.0,9335.0,6267.0,1206.0,392.0
280578,County,2020/03/28,42.0,PA,42049.0,Erie County,89203.0,182858.0,636782.0,179238.0,180473.0,88488.0,87129.0,69818.0,15167.0,8698.0,5794.0,1420.0,557.0
282213,County,2020/03/29,42.0,PA,42049.0,Erie County,91643.0,180418.0,621488.0,186415.0,182245.0,87629.0,81433.0,57083.0,13104.0,6154.0,5670.0,1183.0,572.0
287005,County,2020/03/30,42.0,PA,42049.0,Erie County,82294.0,189767.0,687121.0,197217.0,178141.0,90671.0,96914.0,85482.0,21104.0,9246.0,6395.0,1442.0,509.0
288603,County,2020/03/31,42.0,PA,42049.0,Erie County,83938.0,188123.0,693626.0,198670.0,190306.0,90295.0,95551.0,81158.0,20207.0,9789.0,5803.0,1317.0,530.0
293360,County,2020/04/01,42.0,PA,42049.0,Erie County,83247.0,188814.0,738404.0,229068.0,198040.0,87642.0,104359.0,84698.0,17442.0,9793.0,5643.0,1251.0,468.0
294989,County,2020/04/02,42.0,PA,42049.0,Erie County,84665.0,187396.0,729900.0,217473.0,194241.0,96657.0,99453.0,83405.0,22888.0,7720.0,6444.0,1149.0,470.0
299749,County,2020/04/03,42.0,PA,42049.0,Erie County,80138.0,191923.0,797256.0,247511.0,205198.0,102541.0,110066.0,95375.0,20948.0,9177.0,5188.0,915.0,337.0
301376,County,2020/04/04,42.0,PA,42049.0,Erie County,87331.0,184730.0,678118.0,186960.0,197256.0,87317.0,95983.0,76106.0,19061.0,8429.0,5301.0,1111.0,594.0
304557,County,2020/04/05,42.0,PA,42049.0,Erie County,92436.0,179625.0,618235.0,172203.0,183848.0,86443.0,84526.0,62565.0,15087.0,6276.0,5601.0,1079.0,607.0
309331,County,2020/04/06,42.0,PA,42049.0,Erie County,82922.0,189139.0,753335.0,222075.0,202949.0,95489.0,105974.0,87416.0,23570.0,9936.0,4703.0,803.0,420.0
310958,County,2020/04/07,42.0,PA,42049.0,Erie County,84086.0,187975.0,731355.0,210000.0,199153.0,93912.0,107637.0,83690.0,22971.0,7537.0,5228.0,983.0,244.0
314153,County,2020/04/08,42.0,PA,42049.0,Erie County,82702.0,189359.0,750118.0,216076.0,198712.0,94537.0,109874.0,92340.0,21729.0,10685.0,5040.0,908.0,217.0
317371,County,2020/04/09,42.0,PA,42049.0,Erie County,84206.0,187855.0,715310.0,196814.0,200644.0,90965.0,102624.0,84622.0,22994.0,10873.0,4588.0,967.0,219.0
322108,County,2020/04/10,42.0,PA,42049.0,Erie County,80683.0,191378.0,748005.0,198407.0,205095.0,110880.0,114247.0,86752.0,17435.0,9203.0,4691.0,1006.0,289.0
325301,County,2020/04/11,42.0,PA,42049.0,Erie County,82304.0,189757.0,820953.0,241598.0,225773.0,119069.0,117480.0,83509.0,20090.0,7018.0,5192.0,908.0,316.0
328468,County,2020/04/12,42.0,PA,42049.0,Erie County,95731.0,176330.0,567783.0,151541.0,165011.0,85787.0,79535.0,62247.0,13646.0,4986.0,4098.0,676.0,256.0
331690,County,2020/04/13,42.0,PA,42049.0,Erie County,85915.0,186146.0,680582.0,177372.0,180901.0,95464.0,106360.0,86946.0,20461.0,8124.0,4180.0,566.0,208.0
334865,County,2020/04/14,42.0,PA,42049.0,Erie County,79848.0,192213.0,777208.0,238361.0,200551.0,110901.0,114104.0,77286.0,21546.0,5361.0,7620.0,1212.0,266.0
336542,County,2020/04/15,42.0,PA,42049.0,Erie County,77443.0,194618.0,746803.0,212000.0,217251.0,105327.0,101236.0,73835.0,21050.0,7370.0,6742.0,1533.0,459.0
341212,County,2020/04/16,42.0,PA,42049.0,Erie County,81863.0,190198.0,727146.0,186415.0,221411.0,104095.0,105710.0,75249.0,22344.0,6687.0,3801.0,801.0,633.0
342996,County,2020/04/17,42.0,PA,42049.0,Erie County,74010.0,198051.0,775200.0,218094.0,230944.0,106463.0,111109.0,75561.0,18256.0,6753.0,6512.0,1191.0,317.0
347622,County,2020/04/18,42.0,PA,42049.0,Erie County,82213.0,189848.0,808424.0,230256.0,237635.0,110778.0,115140.0,80893.0,21102.0,6616.0,5075.0,633.0,296.0
350854,County,2020/04/19,42.0,PA,42049.0,Erie County,84249.0,187812.0,637265.0,182227.0,207728.0,83203.0,84979.0,50297.0,14975.0,6263.0,6027.0,1153.0,413.0
352480,County,2020/04/20,42.0,PA,42049.0,Erie County,76288.0,195773.0,736637.0,210225.0,232873.0,87291.0,92171.0,78653.0,18231.0,7243.0,8402.0,1279.0,269.0
357240,County,2020/04/21,42.0,PA,42049.0,Erie County,81951.0,190110.0,719334.0,197354.0,192410.0,99928.0,103623.0,88484.0,20543.0,9702.0,6222.0,903.0,165.0
358868,County,2020/04/22,42.0,PA,42049.0,Erie County,78129.0,193932.0,767411.0,210099.0,197793.0,109768.0,109009.0,99237.0,22479.0,10848.0,6806.0,1139.0,233.0
361974,County,2020/04/23,42.0,PA,42049.0,Erie County,78800.0,193261.0,788242.0,231246.0,218975.0,104286.0,103045.0,95760.0,19026.0,9288.0,5355.0,976.0,285.0
366862,County,2020/04/24,42.0,PA,42049.0,Erie County,76137.0,195924.0,812953.0,221296.0,222819.0,110931.0,117661.0,96616.0,27196.0,10694.0,4684.0,789.0,267.0
370018,County,2020/04/25,42.0,PA,42049.0,Erie County,80873.0,191188.0,799541.0,229686.0,216587.0,116273.0,113502.0,87049.0,21387.0,10639.0,3470.0,760.0,188.0
373212,County,2020/04/26,42.0,PA,42049.0,Erie County,87850.0,184211.0,613976.0,155175.0,170959.0,88664.0,93924.0,73899.0,18239.0,8502.0,3725.0,640.0,249.0
374838,County,2020/04/27,42.0,PA,42049.0,Erie County,75956.0,196105.0,835469.0,251114.0,221156.0,106708.0,124615.0,96135.0,22660.0,8246.0,3896.0,609.0,330.0
377989,County,2020/04/28,42.0,PA,42049.0,Erie County,76282.0,195779.0,832353.0,247490.0,226826.0,107768.0,112945.0,96891.0,24942.0,9772.0,4673.0,738.0,308.0
381241,County,2020/04/29,42.0,PA,42049.0,Erie County,75592.0,196469.0,799955.0,230227.0,219313.0,104173.0,110945.0,97623.0,22326.0,8977.0,5204.0,967.0,200.0
384389,County,2020/04/30,42.0,PA,42049.0,Erie County,76706.0,195355.0,774140.0,207026.0,222797.0,100023.0,108159.0,99664.0,23026.0,8267.0,4072.0,791.0,315.0
389224,County,2020/05/01,42.0,PA,42049.0,Erie County,72251.0,199810.0,848663.0,244907.0,229907.0,112817.0,122530.0,99996.0,24446.0,8485.0,4611.0,731.0,233.0
392374,County,2020/05/02,42.0,PA,42049.0,Erie County,74449.0,197612.0,892017.0,260723.0,249778.0,120528.0,124269.0,96276.0,26135.0,9090.0,4199.0,864.0,155.0
394009,County,2020/05/03,42.0,PA,42049.0,Erie County,80536.0,191525.0,820256.0,250166.0,236280.0,111800.0,105438.0,84315.0,17969.0,9571.0,3493.0,1000.0,224.0
398763,County,2020/05/04,42.0,PA,42049.0,Erie County,74898.0,197163.0,873104.0,273772.0,239741.0,111756.0,112700.0,99593.0,20582.0,10121.0,3865.0,716.0,258.0
401939,County,2020/05/05,42.0,PA,42049.0,Erie County,72673.0,199388.0,891483.0,258635.0,238284.0,119731.0,132246.0,102515.0,24713.0,10106.0,4429.0,588.0,236.0
403569,County,2020/05/06,42.0,PA,42049.0,Erie County,73244.0,198817.0,871938.0,272312.0,221252.0,120308.0,118453.0,97352.0,26002.0,10139.0,5174.0,713.0,233.0
406771,County,2020/05/07,42.0,PA,42049.0,Erie County,73182.0,198879.0,867754.0,270032.0,228116.0,107469.0,121301.0,98826.0,25112.0,9701.0,6078.0,822.0,297.0
410076,County,2020/05/08,42.0,PA,42049.0,Erie County,71667.0,200394.0,892512.0,260196.0,241132.0,121324.0,129615.0,99507.0,26082.0,9433.0,4626.0,420.0,177.0
414698,County,2020/05/09,42.0,PA,42049.0,Erie County,77900.0,194161.0,811441.0,221528.0,217473.0,114452.0,128239.0,88931.0,23916.0,11234.0,4747.0,640.0,281.0
416360,County,2020/05/10,42.0,PA,42049.0,Erie County,78153.0,193908.0,782124.0,229534.0,214488.0,110449.0,109141.0,84322.0,20943.0,8342.0,3900.0,798.0,207.0
419603,County,2020/05/11,42.0,PA,42049.0,Erie County,70516.0,201545.0,840406.0,233269.0,222714.0,113510.0,121120.0,106015.0,25007.0,11351.0,6096.0,959.0,365.0
422787,County,2020/05/12,42.0,PA,42049.0,Erie County,66372.0,205689.0,937557.0,289003.0,247441.0,125483.0,123928.0,107185.0,26677.0,10233.0,6335.0,836.0,436.0
427509,County,2020/05/13,42.0,PA,42049.0,Erie County,67364.0,204697.0,909618.0,283562.0,229525.0,117194.0,129759.0,105094.0,26530.0,10531.0,6254.0,731.0,438.0
430703,County,2020/05/14,42.0,PA,42049.0,Erie County,68294.0,203767.0,879069.0,261793.0,224189.0,113376.0,126967.0,104774.0,28100.0,13030.0,5543.0,843.0,454.0
432332,County,2020/05/15,42.0,PA,42049.0,Erie County,66625.0,205436.0,908178.0,273979.0,233106.0,116607.0,125581.0,110120.0,27741.0,12445.0,7192.0,901.0,506.0
437081,County,2020/05/16,42.0,PA,42049.0,Erie County,70215.0,201846.0,942754.0,285931.0,250678.0,121892.0,132885.0,103488.0,27162.0,13053.0,6491.0,675.0,499.0
438708,County,2020/05/17,42.0,PA,42049.0,Erie County,69980.0,202081.0,878120.0,283348.0,222139.0,117034.0,121567.0,93423.0,24166.0,11196.0,4316.0,647.0,284.0
441953,County,2020/05/18,42.0,PA,42049.0,Erie County,58235.0,213826.0,982032.0,304092.0,249940.0,131499.0,132666.0,118374.0,27938.0,10936.0,5547.0,664.0,376.0
445107,County,2020/05/19,42.0,PA,42049.0,Erie County,56660.0,215401.0,1044160.0,330295.0,280415.0,128911.0,141735.0,111728.0,33489.0,10781.0,5518.0,992.0,296.0
449868,County,2020/05/20,42.0,PA,42049.0,Erie County,55524.0,216537.0,1088898.0,347610.0,269647.0,138016.0,157659.0,122938.0,31696.0,13513.0,6476.0,1082.0,261.0
451494,County,2020/05/21,42.0,PA,42049.0,Erie County,52442.0,219619.0,1090355.0,347849.0,271940.0,142894.0,153502.0,121512.0,31652.0,13574.0,5935.0,1185.0,312.0
456254,County,2020/05/22,42.0,PA,42049.0,Erie County,51514.0,220547.0,1048902.0,319862.0,262332.0,133641.0,150864.0,127865.0,30139.0,15970.0,6340.0,1331.0,558.0
457877,County,2020/05/23,42.0,PA,42049.0,Erie County,60813.0,211248.0,976835.0,311233.0,237484.0,128796.0,138456.0,108106.0,31659.0,13169.0,6450.0,1037.0,445.0
461045,County,2020/05/24,42.0,PA,42049.0,Erie County,70102.0,201959.0,814990.0,226353.0,232275.0,103341.0,122535.0,88144.0,24752.0,9592.0,5882.0,1261.0,855.0
465922,County,2020/05/25,42.0,PA,42049.0,Erie County,69191.0,202870.0,773343.0,230274.0,208339.0,91762.0,114165.0,87743.0,20704.0,10430.0,7305.0,1668.0,953.0
467451,County,2020/05/26,42.0,PA,42049.0,Erie County,65388.0,206673.0,870655.0,257085.0,228338.0,115786.0,128592.0,97239.0,23874.0,10664.0,6447.0,1632.0,998.0
470658,County,2020/05/27,42.0,PA,42049.0,Erie County,65871.0,206190.0,909734.0,271973.0,242352.0,111673.0,134728.0,104884.0,26296.0,10357.0,5845.0,1072.0,554.0
475419,County,2020/05/28,42.0,PA,42049.0,Erie County,68336.0,203725.0,892008.0,268705.0,232312.0,116228.0,120253.0,104761.0,27163.0,13709.0,7076.0,1403.0,398.0
478608,County,2020/05/29,42.0,PA,42049.0,Erie County,71815.0,200246.0,896104.0,270445.0,228978.0,118942.0,119401.0,110654.0,26620.0,12764.0,6751.0,1183.0,366.0
481808,County,2020/05/30,42.0,PA,42049.0,Erie County,75264.0,196797.0,902010.0,275727.0,228703.0,116008.0,124751.0,107695.0,28614.0,10808.0,8598.0,757.0,349.0
484953,County,2020/05/31,42.0,PA,42049.0,Erie County,74887.0,197174.0,858589.0,263040.0,233328.0,106238.0,111809.0,95463.0,25356.0,13865.0,8163.0,910.0,417.0
488254,County,2020/06/01,42.0,PA,42049.0,Erie County,65150.0,206911.0,927180.0,292885.0,236340.0,121870.0,127435.0,101556.0,27214.0,10823.0,7776.0,854.0,427.0
491361,County,2020/06/02,42.0,PA,42049.0,Erie County,66991.0,205070.0,916951.0,280058.0,247085.0,123407.0,113253.0,104211.0,27045.0,11531.0,8568.0,1324.0,469.0
494583,County,2020/06/03,42.0,PA,42049.0,Erie County,62349.0,209712.0,982934.0,309943.0,250858.0,126107.0,132267.0,112656.0,30115.0,11362.0,7568.0,1522.0,536.0
497765,County,2020/06/04,42.0,PA,42049.0,Erie County,60854.0,211207.0,948232.0,299396.0,232160.0,119563.0,133932.0,108673.0,29499.0,13350.0,9331.0,1753.0,575.0
499405,County,2020/06/05,42.0,PA,42049.0,Erie County,61223.0,210838.0,1012821.0,299665.0,256312.0,134788.0,145940.0,119479.0,31643.0,13808.0,9052.0,1581.0,553.0
502552,County,2020/06/06,42.0,PA,42049.0,Erie County,69246.0,202815.0,899218.0,265902.0,241917.0,118755.0,124519.0,98549.0,27628.0,12817.0,7503.0,1156.0,472.0
505744,County,2020/06/07,42.0,PA,42049.0,Erie County,69063.0,202998.0,846588.0,257336.0,226365.0,103279.0,113840.0,92326.0,27038.0,14516.0,9271.0,1819.0,798.0
508967,County,2020/06/08,42.0,PA,42049.0,Erie County,60224.0,211837.0,996177.0,300215.0,255525.0,130826.0,141470.0,120545.0,25673.0,13108.0,6729.0,1530.0,556.0
512169,County,2020/06/09,42.0,PA,42049.0,Erie County,64868.0,207193.0,940806.0,281529.0,244422.0,122271.0,133852.0,108878.0,29678.0,11863.0,6371.0,1372.0,570.0
516950,County,2020/06/10,42.0,PA,42049.0,Erie County,65451.0,206610.0,900309.0,285158.0,229255.0,111540.0,122753.0,103575.0,28730.0,9454.0,7533.0,1594.0,717.0
520107,County,2020/06/11,42.0,PA,42049.0,Erie County,64998.0,207063.0,913710.0,277560.0,237468.0,116612.0,122890.0,106987.0,28557.0,12901.0,8408.0,1679.0,648.0
523330,County,2020/06/12,42.0,PA,42049.0,Erie County,63675.0,208386.0,957779.0,297642.0,245554.0,121334.0,131616.0,107245.0,29773.0,12785.0,9390.0,1953.0,487.0
526517,County,2020/06/13,42.0,PA,42049.0,Erie County,67657.0,204404.0,920591.0,271026.0,230909.0,115790.0,135695.0,108017.0,32464.0,16040.0,8419.0,1780.0,451.0
529721,County,2020/06/14,42.0,PA,42049.0,Erie County,72708.0,199353.0,817718.0,253787.0,214203.0,101000.0,109232.0,88756.0,26257.0,13581.0,8912.0,1494.0,496.0
532911,County,2020/06/15,42.0,PA,42049.0,Erie County,67213.0,204848.0,903878.0,278414.0,233374.0,121913.0,120785.0,100456.0,27847.0,10459.0,8502.0,1585.0,543.0
536131,County,2020/06/16,42.0,PA,42049.0,Erie County,66779.0,205282.0,948523.0,286585.0,247699.0,126527.0,125572.0,108921.0,29776.0,14573.0,7410.0,1084.0,376.0
537733,County,2020/06/17,42.0,PA,42049.0,Erie County,66038.0,206023.0,965198.0,298572.0,244587.0,125163.0,129218.0,113595.0,28683.0,14990.0,8551.0,1317.0,522.0
540880,County,2020/06/18,42.0,PA,42049.0,Erie County,65232.0,206829.0,953055.0,289232.0,249274.0,121027.0,127754.0,113741.0,29001.0,12785.0,8358.0,1343.0,540.0
545646,County,2020/06/19,42.0,PA,42049.0,Erie County,62681.0,209380.0,939310.0,283167.0,240248.0,121502.0,133819.0,105060.0,29517.0,15040.0,9404.0,1102.0,451.0
548881,County,2020/06/20,42.0,PA,42049.0,Erie County,67651.0,204410.0,909906.0,268410.0,245003.0,111920.0,121471.0,104110.0,31089.0,16525.0,9905.0,1077.0,396.0
552069,County,2020/06/21,42.0,PA,42049.0,Erie County,71786.0,200275.0,803146.0,245215.0,204482.0,103732.0,104666.0,90391.0,30159.0,13467.0,9392.0,1121.0,521.0
553705,County,2020/06/22,42.0,PA,42049.0,Erie County,66102.0,205959.0,856611.0,265139.0,210246.0,113101.0,117125.0,100454.0,26327.0,12922.0,9317.0,1343.0,637.0
556889,County,2020/06/23,42.0,PA,42049.0,Erie County,66708.0,205353.0,911800.0,268185.0,236144.0,115946.0,132356.0,110631.0,27686.0,12207.0,6934.0,1259.0,452.0
561657,County,2020/06/24,42.0,PA,42049.0,Erie County,68532.0,203529.0,893782.0,278720.0,218527.0,118559.0,123410.0,104491.0,29594.0,11335.0,7751.0,1016.0,379.0
563286,County,2020/06/25,42.0,PA,42049.0,Erie County,65817.0,206244.0,922051.0,290840.0,220401.0,124499.0,121559.0,111794.0,30629.0,12151.0,8363.0,1180.0,635.0
566539,County,2020/06/26,42.0,PA,42049.0,Erie County,64509.0,207552.0,964098.0,304156.0,243756.0,125444.0,128161.0,110432.0,27610.0,13734.0,9112.0,1201.0,492.0
571231,County,2020/06/27,42.0,PA,42049.0,Erie County,70544.0,201517.0,896134.0,266629.0,233435.0,121648.0,124252.0,102908.0,25571.0,12319.0,7779.0,1059.0,534.0
572858,County,2020/06/28,42.0,PA,42049.0,Erie County,70295.0,201766.0,826741.0,247326.0,203249.0,110822.0,113307.0,96400.0,30760.0,12674.0,10250.0,1199.0,754.0
576017,County,2020/06/29,42.0,PA,42049.0,Erie County,67492.0,204569.0,893623.0,259526.0,228572.0,123458.0,122466.0,110066.0,26674.0,11355.0,9402.0,1336.0,768.0
580828,County,2020/06/30,42.0,PA,42049.0,Erie County,64592.0,207469.0,860178.0,244029.0,226869.0,114519.0,118885.0,104604.0,27139.0,10858.0,10227.0,1721.0,1327.0
584022,County,2020/07/01,42.0,PA,42049.0,Erie County,64980.0,207081.0,918166.0,280332.0,236203.0,116124.0,129301.0,106700.0,25186.0,11223.0,10820.0,1138.0,1139.0
587216,County,2020/07/02,42.0,PA,42049.0,Erie County,66557.0,205504.0,978669.0,308699.0,233934.0,132144.0,129023.0,118659.0,32510.0,12897.0,8877.0,1252.0,674.0
590413,County,2020/07/03,42.0,PA,42049.0,Erie County,71226.0,200835.0,958666.0,302442.0,242383.0,124737.0,127439.0,109810.0,27454.0,13657.0,9061.0,1194.0,489.0
593598,County,2020/07/04,42.0,PA,42049.0,Erie County,75359.0,196702.0,820164.0,258747.0,207364.0,106716.0,109027.0,93945.0,23488.0,11684.0,7752.0,1022.0,419.0
595249,County,2020/07/05,42.0,PA,42049.0,Erie County,71111.0,200950.0,768756.0,226923.0,203789.0,93281.0,106335.0,90474.0,22699.0,12833.0,9825.0,1751.0,846.0
597900,County,2020/07/06,42.0,PA,42049.0,Erie County,70654.0,201407.0,842261.0,250968.0,216483.0,113135.0,119099.0,96694.0,23373.0,10733.0,9690.0,1263.0,823.0
602005,County,2020/07/07,42.0,PA,42049.0,Erie County,68210.0,203851.0,840158.0,254468.0,211909.0,109821.0,116736.0,100024.0,25260.0,10120.0,9450.0,1383.0,987.0
606274,County,2020/07/08,42.0,PA,42049.0,Erie County,68631.0,203430.0,853446.0,257462.0,217599.0,108719.0,125602.0,98349.0,24264.0,8464.0,10665.0,1158.0,1164.0
608000,County,2020/07/09,42.0,PA,42049.0,Erie County,67651.0,204410.0,827855.0,242079.0,205097.0,111598.0,123119.0,99932.0,23897.0,10077.0,9757.0,1376.0,923.0
611200,County,2020/07/10,42.0,PA,42049.0,Erie County,65661.0,206400.0,845824.0,230802.0,210109.0,113008.0,127758.0,109471.0,28093.0,13618.0,10729.0,1294.0,942.0
614411,County,2020/07/11,42.0,PA,42049.0,Erie County,72449.0,199612.0,775525.0,225118.0,197576.0,101409.0,112381.0,90773.0,25353.0,10444.0,10257.0,1354.0,860.0
617582,County,2020/07/12,42.0,PA,42049.0,Erie County,70987.0,201074.0,757780.0,218401.0,188357.0,99240.0,114312.0,91281.0,21730.0,11590.0,10439.0,1217.0,1213.0
622342,County,2020/07/13,42.0,PA,42049.0,Erie County,67413.0,204648.0,823105.0,243592.0,210614.0,108894.0,118119.0,94973.0,23865.0,10107.0,10700.0,1463.0,778.0
625536,County,2020/07/14,42.0,PA,42049.0,Erie County,68546.0,203515.0,872426.0,273910.0,219462.0,112101.0,118472.0,103550.0,25461.0,9725.0,7947.0,973.0,825.0
628709,County,2020/07/15,42.0,PA,42049.0,Erie County,67837.0,204224.0,888533.0,259708.0,234098.0,118898.0,120204.0,108233.0,24828.0,12610.0,7906.0,1481.0,567.0
630335,County,2020/07/16,42.0,PA,42049.0,Erie County,67462.0,204599.0,855984.0,245849.0,228660.0,109489.0,122470.0,102359.0,25289.0,12264.0,8042.0,1148.0,414.0
635070,County,2020/07/17,42.0,PA,42049.0,Erie County,67555.0,204506.0,918741.0,261787.0,240963.0,124530.0,127155.0,111522.0,29842.0,13747.0,7551.0,1360.0,284.0
636747,County,2020/07/18,42.0,PA,42049.0,Erie County,73051.0,199010.0,875652.0,252770.0,228014.0,111104.0,126897.0,104349.0,29152.0,13701.0,7811.0,1362.0,492.0
639902,County,2020/07/19,42.0,PA,42049.0,Erie County,77269.0,194792.0,714123.0,194473.0,181274.0,98732.0,102060.0,90549.0,24450.0,12056.0,8649.0,1142.0,738.0
643136,County,2020/07/20,42.0,PA,42049.0,Erie County,73716.0,198345.0,849192.0,254970.0,212336.0,112202.0,123170.0,102102.0,24652.0,10990.0,7193.0,1029.0,548.0
646312,County,2020/07/21,42.0,PA,42049.0,Erie County,70887.0,201174.0,828447.0,236386.0,213026.0,115334.0,117329.0,98292.0,28125.0,10963.0,7218.0,1054.0,720.0
648994,County,2020/07/22,42.0,PA,42049.0,Erie County,70938.0,201123.0,810200.0,224354.0,203943.0,116777.0,119590.0,100274.0,24179.0,11178.0,7996.0,1208.0,701.0
652631,County,2020/07/23,42.0,PA,42049.0,Erie County,71054.0,201007.0,819284.0,228954.0,203944.0,109386.0,123541.0,104110.0,25907.0,12541.0,8992.0,1270.0,639.0
655754,County,2020/07/24,42.0,PA,42049.0,Erie County,67608.0,204453.0,880665.0,247347.0,221599.0,118923.0,135398.0,103313.0,28829.0,13110.0,10402.0,1132.0,612.0
659100,County,2020/07/25,42.0,PA,42049.0,Erie County,73937.0,198124.0,803355.0,225088.0,193921.0,109841.0,122299.0,101353.0,27545.0,12842.0,9016.0,917.0,533.0
663806,County,2020/07/26,42.0,PA,42049.0,Erie County,74534.0,197527.0,785087.0,216390.0,196590.0,101687.0,118614.0,95644.0,28246.0,15114.0,10434.0,1277.0,1091.0
667079,County,2020/07/27,42.0,PA,42049.0,Erie County,73260.0,198801.0,833438.0,236860.0,204618.0,117079.0,125851.0,98980.0,26046.0,12068.0,9655.0,1293.0,988.0
668757,County,2020/07/28,42.0,PA,42049.0,Erie County,71405.0,200656.0,872913.0,257845.0,209838.0,119867.0,131501.0,102235.0,26923.0,12579.0,9953.0,1274.0,898.0
671864,County,2020/07/29,42.0,PA,42049.0,Erie County,72480.0,199581.0,829334.0,227796.0,212029.0,112220.0,120681.0,105810.0,26905.0,12171.0,9288.0,1526.0,908.0
676625,County,2020/07/30,42.0,PA,42049.0,Erie County,68938.0,203123.0,848294.0,238908.0,217018.0,115676.0,122499.0,103247.0,25831.0,12690.0,9821.0,1508.0,1096.0
679853,County,2020/07/31,42.0,PA,42049.0,Erie County,69846.0,202215.0,844064.0,233576.0,216422.0,112320.0,124504.0,105385.0,25767.0,12736.0,10626.0,1552.0,1176.0
683023,County,2020/08/01,42.0,PA,42049.0,Erie County,74964.0,197097.0,792141.0,215747.0,202907.0,106142.0,119014.0,97796.0,24159.0,13467.0,9936.0,1297.0,1676.0
684657,County,2020/08/02,42.0,PA,42049.0,Erie County,78979.0,193082.0,703556.0,193114.0,185914.0,95762.0,98147.0,82970.0,22359.0,12621.0,10142.0,1136.0,1391.0
689417,County,2020/08/03,42.0,PA,42049.0,Erie County,71093.0,200968.0,842375.0,244847.0,211692.0,113106.0,119384.0,105013.0,26685.0,11006.0,8383.0,1459.0,800.0
691045,County,2020/08/04,42.0,PA,42049.0,Erie County,68302.0,203759.0,895733.0,261469.0,213902.0,123500.0,137663.0,112505.0,25478.0,13195.0,6617.0,1027.0,377.0
695805,County,2020/08/05,42.0,PA,42049.0,Erie County,70363.0,201698.0,912646.0,272801.0,227529.0,120614.0,130268.0,110138.0,29302.0,13461.0,7129.0,894.0,510.0
699000,County,2020/08/06,42.0,PA,42049.0,Erie County,68198.0,203863.0,918962.0,263160.0,236415.0,123485.0,133227.0,109198.0,31010.0,13395.0,7447.0,1218.0,407.0
700626,County,2020/08/07,42.0,PA,42049.0,Erie County,67812.0,204249.0,920926.0,254078.0,239953.0,126034.0,131509.0,114673.0,31186.0,13746.0,8103.0,1195.0,449.0
705387,County,2020/08/08,42.0,PA,42049.0,Erie County,72818.0,199243.0,828184.0,230178.0,200419.0,107851.0,128512.0,109146.0,28570.0,14106.0,7552.0,1282.0,568.0
708606,County,2020/08/09,42.0,PA,42049.0,Erie County,73727.0,198334.0,777216.0,209264.0,197380.0,107375.0,109945.0,99697.0,25526.0,17131.0,9304.0,1193.0,401.0
710236,County,2020/08/10,42.0,PA,42049.0,Erie County,69541.0,202520.0,845399.0,221060.0,213599.0,121029.0,126076.0,111999.0,29817.0,12818.0,7582.0,1026.0,393.0
714968,County,2020/08/11,42.0,PA,42049.0,Erie County,69356.0,202705.0,857959.0,213479.0,220753.0,117676.0,133063.0,121262.0,29918.0,13715.0,6700.0,1039.0,354.0
718065,County,2020/08/12,42.0,PA,42049.0,Erie County,68805.0,203256.0,833282.0,219334.0,209690.0,109417.0,129329.0,112305.0,29906.0,11834.0,7999.0,1525.0,1943.0
719792,County,2020/08/13,42.0,PA,42049.0,Erie County,65375.0,206686.0,857090.0,219308.0,209948.0,120036.0,139057.0,116179.0,27150.0,12654.0,9136.0,1638.0,1984.0
722985,County,2020/08/14,42.0,PA,42049.0,Erie County,61634.0,210427.0,903295.0,238075.0,219776.0,126710.0,137987.0,121203.0,31012.0,14620.0,9751.0,1692.0,2469.0
727746,County,2020/08/15,42.0,PA,42049.0,Erie County,67434.0,204627.0,804444.0,207149.0,201767.0,111019.0,124159.0,104782.0,27845.0,14776.0,8868.0,1582.0,2497.0
730938,County,2020/08/16,42.0,PA,42049.0,Erie County,74112.0,197949.0,729589.0,174137.0,183137.0,102020.0,119228.0,92812.0,24809.0,15514.0,12921.0,1799.0,3212.0
732568,County,2020/08/17,42.0,PA,42049.0,Erie County,75744.0,196317.0,815030.0,206150.0,203980.0,112415.0,133829.0,105921.0,23727.0,13846.0,10868.0,1919.0,2375.0
737327,County,2020/08/18,42.0,PA,42049.0,Erie County,71804.0,200257.0,819920.0,228359.0,197523.0,114759.0,119961.0,104285.0,26738.0,12776.0,10835.0,2115.0,2569.0
740522,County,2020/08/19,42.0,PA,42049.0,Erie County,68778.0,203283.0,839263.0,216137.0,207170.0,119829.0,127104.0,110629.0,30467.0,12140.0,11106.0,2100.0,2581.0
743720,County,2020/08/20,42.0,PA,42049.0,Erie County,66976.0,205085.0,835907.0,213503.0,205939.0,121668.0,126112.0,110324.0,28872.0,13874.0,10935.0,1995.0,2685.0
745350,County,2020/08/21,42.0,PA,42049.0,Erie County,63085.0,208976.0,897663.0,227470.0,222452.0,121524.0,140108.0,121393.0,31921.0,16970.0,11769.0,1776.0,2280.0
748555,County,2020/08/22,42.0,PA,42049.0,Erie County,69150.0,202911.0,818658.0,201479.0,204041.0,107400.0,128828.0,113662.0,35532.0,13477.0,9875.0,1852.0,2512.0
751748,County,2020/08/23,42.0,PA,42049.0,Erie County,77708.0,194353.0,665216.0,167352.0,168806.0,89002.0,105631.0,78754.0,27356.0,14500.0,10110.0,1922.0,1783.0
756492,County,2020/08/24,42.0,PA,42049.0,Erie County,75530.0,196531.0,732851.0,185980.0,189539.0,108106.0,113453.0,90666.0,22906.0,10479.0,8263.0,1501.0,1958.0
759682,County,2020/08/25,42.0,PA,42049.0,Erie County,74656.0,197405.0,757363.0,190848.0,191456.0,110528.0,117662.0,98474.0,25548.0,11397.0,8316.0,1565.0,1569.0
762842,County,2020/08/26,42.0,PA,42049.0,Erie County,74753.0,197308.0,743631.0,200155.0,186341.0,102444.0,112704.0,94752.0,24580.0,10745.0,8741.0,1663.0,1506.0
764471,County,2020/08/27,42.0,PA,42049.0,Erie County,72942.0,199119.0,753231.0,204333.0,181193.0,100857.0,120811.0,96136.0,26885.0,12000.0,8493.0,1384.0,1139.0
769254,County,2020/08/28,42.0,PA,42049.0,Erie County,71538.0,200523.0,749197.0,183201.0,188062.0,105700.0,118541.0,97481.0,28516.0,15289.0,9968.0,1479.0,960.0
770881,County,2020/08/29,42.0,PA,42049.0,Erie County,75665.0,196396.0,752262.0,202131.0,188861.0,103839.0,114614.0,92223.0,26989.0,12355.0,8653.0,1441.0,1156.0
775657,County,2020/08/30,42.0,PA,42049.0,Erie County,82255.0,189806.0,660152.0,164739.0,172009.0,96150.0,99108.0,80598.0,23885.0,10819.0,10237.0,1273.0,1334.0
777267,County,2020/08/31,42.0,PA,42049.0,Erie County,76250.0,195811.0,741734.0,197448.0,194202.0,103616.0,107307.0,93000.0,22478.0,10523.0,10302.0,1438.0,1420.0
782045,County,2020/09/01,42.0,PA,42049.0,Erie County,75000.0,197061.0,801570.0,222415.0,203423.0,111610.0,120372.0,96599.0,25741.0,10065.0,8832.0,1310.0,1203.0
785189,County,2020/09/02,42.0,PA,42049.0,Erie County,74835.0,197226.0,803421.0,216355.0,205902.0,111109.0,118652.0,101069.0,27734.0,11798.0,8383.0,1470.0,949.0
786801,County,2020/09/03,42.0,PA,42049.0,Erie County,69108.0,202953.0,870297.0,243715.0,225157.0,114620.0,130406.0,106682.0,26654.0,11341.0,9093.0,1492.0,1137.0
790015,County,2020/09/04,42.0,PA,42049.0,Erie County,73418.0,198643.0,815116.0,206411.0,211241.0,116408.0,122318.0,103994.0,27807.0,14441.0,9733.0,1657.0,1106.0
793138,County,2020/09/05,42.0,PA,42049.0,Erie County,76085.0,195976.0,797114.0,208826.0,208047.0,106310.0,121993.0,99828.0,26924.0,15279.0,7919.0,1196.0,792.0
796426,County,2020/09/06,42.0,PA,42049.0,Erie County,81349.0,190712.0,691309.0,187454.0,165914.0,89831.0,105936.0,87467.0,28201.0,15371.0,8606.0,1400.0,1129.0
799640,County,2020/09/07,42.0,PA,42049.0,Erie County,85509.0,186552.0,606432.0,154539.0,158372.0,80507.0,95458.0,70977.0,20862.0,13081.0,9800.0,1597.0,1239.0
804402,County,2020/09/08,42.0,PA,42049.0,Erie County,78371.0,193690.0,797908.0,205479.0,215378.0,114788.0,119131.0,95326.0,24594.0,10608.0,10113.0,1434.0,1057.0
807594,County,2020/09/09,42.0,PA,42049.0,Erie County,75686.0,196375.0,824934.0,215656.0,212703.0,118044.0,121609.0,107048.0,25640.0,12196.0,9252.0,1599.0,1187.0
809222,County,2020/09/10,42.0,PA,42049.0,Erie County,75480.0,196581.0,780843.0,199918.0,204011.0,106531.0,119325.0,102618.0,23817.0,12009.0,9834.0,1691.0,1089.0
813983,County,2020/09/11,42.0,PA,42049.0,Erie County,73233.0,198828.0,823186.0,211240.0,214722.0,113493.0,122502.0,105301.0,28318.0,13698.0,10987.0,1659.0,1266.0
817178,County,2020/09/12,42.0,PA,42049.0,Erie County,79460.0,192601.0,768831.0,191598.0,196041.0,106429.0,122245.0,99131.0,27836.0,13735.0,9250.0,1318.0,1248.0
818785,County,2020/09/13,42.0,PA,42049.0,Erie County,83753.0,188308.0,599129.0,123535.0,166012.0,95380.0,91443.0,76718.0,20764.0,12338.0,9947.0,1562.0,1430.0
821990,County,2020/09/14,42.0,PA,42049.0,Erie County,77736.0,194325.0,759337.0,185033.0,204104.0,105360.0,111462.0,105088.0,25740.0,10666.0,9307.0,1438.0,1139.0
826759,County,2020/09/15,42.0,PA,42049.0,Erie County,75985.0,196076.0,790212.0,188599.0,204011.0,116514.0,126836.0,106230.0,27595.0,9223.0,8656.0,1500.0,1048.0
828387,County,2020/09/16,42.0,PA,42049.0,Erie County,76493.0,195568.0,792889.0,198751.0,204453.0,107057.0,127288.0,106988.0,25733.0,10607.0,9415.0,1617.0,980.0
831581,County,2020/09/17,42.0,PA,42049.0,Erie County,76230.0,195831.0,803091.0,202252.0,209229.0,110265.0,122670.0,106485.0,26506.0,12454.0,10496.0,1593.0,1141.0
836342,County,2020/09/18,42.0,PA,42049.0,Erie County,73973.0,198088.0,844153.0,214254.0,215438.0,120159.0,128794.0,107681.0,29522.0,13916.0,12026.0,1460.0,903.0
839534,County,2020/09/19,42.0,PA,42049.0,Erie County,78088.0,193973.0,822105.0,204204.0,206554.0,115131.0,133011.0,106914.0,30804.0,13550.0,9812.0,1250.0,875.0
841163,County,2020/09/20,42.0,PA,42049.0,Erie County,80862.0,191199.0,713447.0,195109.0,176324.0,104333.0,107838.0,82329.0,25777.0,11539.0,8231.0,1164.0,803.0
845950,County,2020/09/21,42.0,PA,42049.0,Erie County,81447.0,190614.0,703213.0,172020.0,183058.0,101543.0,104261.0,98477.0,24570.0,10407.0,7070.0,1230.0,577.0
849118,County,2020/09/22,42.0,PA,42049.0,Erie County,74258.0,197803.0,785382.0,204248.0,205428.0,105983.0,113568.0,110999.0,27191.0,10972.0,5540.0,1162.0,291.0
852307,County,2020/09/23,42.0,PA,42049.0,Erie County,72931.0,199130.0,810172.0,206243.0,215833.0,113878.0,116705.0,107396.0,30103.0,11900.0,6564.0,1246.0,304.0
853935,County,2020/09/24,42.0,PA,42049.0,Erie County,72956.0,199105.0,817785.0,219116.0,207305.0,117142.0,118186.0,106418.0,29598.0,11884.0,6289.0,1291.0,556.0
858699,County,2020/09/25,42.0,PA,42049.0,Erie County,70065.0,201996.0,876179.0,230286.0,226648.0,113375.0,136522.0,119312.0,26812.0,14130.0,7782.0,992.0,320.0
861894,County,2020/09/26,42.0,PA,42049.0,Erie County,75755.0,196306.0,826664.0,211974.0,215290.0,107483.0,127175.0,110311.0,31070.0,15629.0,6602.0,934.0,196.0
863499,County,2020/09/27,42.0,PA,42049.0,Erie County,79732.0,192329.0,729250.0,199220.0,186471.0,91733.0,103272.0,95106.0,27536.0,15872.0,8553.0,1030.0,457.0
866703,County,2020/09/28,42.0,PA,42049.0,Erie County,75770.0,196291.0,791945.0,208200.0,214594.0,108218.0,116867.0,99765.0,26459.0,11368.0,5173.0,988.0,313.0
871474,County,2020/09/29,42.0,PA,42049.0,Erie County,75814.0,196247.0,754766.0,180177.0,199737.0,109807.0,115837.0,103762.0,26484.0,10063.0,7466.0,1042.0,391.0
873103,County,2020/09/30,42.0,PA,42049.0,Erie County,73273.0,198788.0,762034.0,186502.0,202542.0,105388.0,120179.0,101170.0,27114.0,11369.0,6695.0,703.0,372.0
877843,County,2020/10/01,42.0,PA,42049.0,Erie County,71369.0,200692.0,782606.0,193595.0,207743.0,108650.0,124077.0,101597.0,24954.0,13611.0,6916.0,987.0,476.0
881058,County,2020/10/02,42.0,PA,42049.0,Erie County,73214.0,198847.0,768534.0,193620.0,206356.0,105240.0,117550.0,98481.0,25858.0,12171.0,7783.0,1122.0,353.0
882687,County,2020/10/03,42.0,PA,42049.0,Erie County,80570.0,191491.0,727709.0,183377.0,192005.0,100580.0,107004.0,95884.0,25889.0,13885.0,7841.0,835.0,409.0
886973,County,2020/10/04,42.0,PA,42049.0,Erie County,82807.0,189254.0,636916.0,154339.0,169201.0,92742.0,99913.0,79023.0,20279.0,12492.0,7738.0,900.0,289.0
890158,County,2020/10/05,42.0,PA,42049.0,Erie County,80872.0,191189.0,712016.0,178700.0,189096.0,101943.0,108853.0,91205.0,21932.0,11461.0,7718.0,735.0,373.0
893364,County,2020/10/06,42.0,PA,42049.0,Erie County,76000.0,196061.0,758694.0,178311.0,207611.0,111446.0,118827.0,100411.0,22167.0,11430.0,7183.0,912.0,396.0
896579,County,2020/10/07,42.0,PA,42049.0,Erie County,73268.0,198793.0,781712.0,183054.0,211285.0,116397.0,121651.0,100925.0,27868.0,11736.0,7278.0,1110.0,408.0
899769,County,2020/10/08,42.0,PA,42049.0,Erie County,74673.0,197388.0,721246.0,169099.0,193663.0,101052.0,116412.0,92640.0,27364.0,12397.0,7300.0,916.0,403.0
902943,County,2020/10/09,42.0,PA,42049.0,Erie County,75585.0,196476.0,796674.0,191987.0,203501.0,116156.0,122903.0,107714.0,30530.0,14300.0,8280.0,958.0,345.0
905998,County,2020/10/10,42.0,PA,42049.0,Erie County,79672.0,192389.0,746547.0,177003.0,192987.0,104432.0,109090.0,106485.0,31365.0,16194.0,7962.0,746.0,283.0
908140,County,2020/10/11,42.0,PA,42049.0,Erie County,82014.0,190047.0,640459.0,152774.0,174200.0,90827.0,100038.0,72982.0,24704.0,14815.0,8924.0,954.0,241.0
911157,County,2020/10/12,42.0,PA,42049.0,Erie County,78064.0,193997.0,729802.0,195361.0,186932.0,100268.0,109174.0,92009.0,24461.0,11919.0,8342.0,1035.0,301.0
914420,County,2020/10/13,42.0,PA,42049.0,Erie County,74441.0,197620.0,747686.0,175747.0,197974.0,107628.0,114370.0,102463.0,28148.0,11989.0,8025.0,1010.0,332.0
917450,County,2020/10/14,42.0,PA,42049.0,Erie County,73741.0,198320.0,754120.0,188226.0,189939.0,108329.0,115526.0,101296.0,28190.0,12734.0,8323.0,1149.0,408.0
920821,County,2020/10/15,42.0,PA,42049.0,Erie County,75013.0,197048.0,694926.0,171218.0,180243.0,96650.0,106642.0,92753.0,25433.0,11906.0,8229.0,1372.0,480.0
923437,County,2020/10/16,42.0,PA,42049.0,Erie County,72198.0,199863.0,775947.0,188696.0,206520.0,111153.0,117352.0,98094.0,28613.0,15137.0,8826.0,1078.0,478.0
926758,County,2020/10/17,42.0,PA,42049.0,Erie County,76428.0,195633.0,708162.0,175533.0,178143.0,95976.0,110717.0,99805.0,24740.0,13191.0,8589.0,983.0,485.0
930357,County,2020/10/18,42.0,PA,42049.0,Erie County,81716.0,190345.0,642782.0,159242.0,172587.0,94455.0,97909.0,77004.0,19363.0,12054.0,8780.0,962.0,426.0
933496,County,2020/10/19,42.0,PA,42049.0,Erie County,76845.0,195216.0,717652.0,178952.0,192050.0,102962.0,110569.0,89564.0,21666.0,11026.0,9349.0,1055.0,459.0
936681,County,2020/10/20,42.0,PA,42049.0,Erie County,77673.0,194388.0,741795.0,192647.0,182864.0,106481.0,112167.0,98342.0,26066.0,12737.0,9124.0,987.0,380.0
939828,County,2020/10/21,42.0,PA,42049.0,Erie County,76047.0,196014.0,721492.0,179314.0,189197.0,108062.0,102444.0,92935.0,27686.0,11347.0,9066.0,1081.0,360.0
943529,County,2020/10/22,42.0,PA,42049.0,Erie County,74947.0,197114.0,746080.0,190691.0,191680.0,108700.0,112342.0,95310.0,25822.0,11928.0,8201.0,1025.0,381.0
946328,County,2020/10/23,42.0,PA,42049.0,Erie County,71329.0,200732.0,842987.0,210542.0,221670.0,116464.0,135924.0,105708.0,29961.0,13594.0,7709.0,1051.0,364.0
949229,County,2020/10/24,42.0,PA,42049.0,Erie County,76631.0,195430.0,809986.0,197178.0,217517.0,115920.0,128748.0,101814.0,27955.0,13477.0,6442.0,648.0,287.0
