,Level,Date,State FIPS,State Postal Code,County FIPS,County Name,Population Staying at Home,Population Not Staying at Home,Number of Trips,Number of Trips <1,Number of Trips 1-3,Number of Trips 3-5,Number of Trips 5-10,Number of Trips 10-25,Number of Trips 25-50,Number of Trips 50-100,Number of Trips 100-250,Number of Trips 250-500,Number of Trips >=500
1865,County,2020/01/01,36.0,NY,36077.0,Otsego County,15394.0,44355.0,207055.0,48750.0,41598.0,26837.0,33033.0,36212.0,13140.0,5896.0,1087.0,392.0,110.0
5160,County,2020/01/02,36.0,NY,36077.0,Otsego County,12487.0,47262.0,257602.0,58533.0,48741.0,38719.0,40169.0,47844.0,16386.0,5950.0,853.0,296.0,111.0
9433,County,2020/01/03,36.0,NY,36077.0,Otsego County,12445.0,47304.0,276235.0,67775.0,52506.0,32543.0,46170.0,52674.0,16734.0,6083.0,1325.0,276.0,149.0
11758,County,2020/01/04,36.0,NY,36077.0,Otsego County,13892.0,45857.0,244339.0,59471.0,47610.0,30677.0,33067.0,49395.0,15077.0,8106.0,693.0,162.0,81.0
14641,County,2020/01/05,36.0,NY,36077.0,Otsego County,14493.0,45256.0,215992.0,51352.0,39573.0,29591.0,37673.0,37675.0,12241.0,6268.0,1251.0,241.0,127.0
16904,County,2020/01/06,36.0,NY,36077.0,Otsego County,13201.0,46548.0,267440.0,56200.0,56744.0,37823.0,42328.0,53681.0,13825.0,5462.0,953.0,348.0,76.0
21665,County,2020/01/07,36.0,NY,36077.0,Otsego County,13484.0,46265.0,266878.0,58428.0,56092.0,32255.0,45027.0,54421.0,15325.0,4270.0,798.0,189.0,73.0
23341,County,2020/01/08,36.0,NY,36077.0,Otsego County,13283.0,46466.0,261135.0,60255.0,60868.0,32424.0,37033.0,49733.0,14158.0,5277.0,820.0,467.0,100.0
26487,County,2020/01/09,36.0,NY,36077.0,Otsego County,13054.0,46695.0,265338.0,58271.0,58256.0,30347.0,46411.0,49872.0,16004.0,4904.0,923.0,234.0,116.0
29683,County,2020/01/10,36.0,NY,36077.0,Otsego County,12847.0,46902.0,268649.0,55085.0,55147.0,40460.0,40471.0,54363.0,15345.0,6659.0,793.0,283.0,43.0
32924,County,2020/01/11,36.0,NY,36077.0,Otsego County,13871.0,45878.0,236903.0,50300.0,53190.0,26543.0,39892.0,44552.0,14458.0,6887.0,728.0,261.0,92.0
37611,County,2020/01/12,36.0,NY,36077.0,Otsego County,14952.0,44797.0,217147.0,48293.0,48769.0,29867.0,35033.0,34749.0,12049.0,7043.0,1018.0,302.0,24.0
40858,County,2020/01/13,36.0,NY,36077.0,Otsego County,13301.0,46448.0,256833.0,57147.0,57786.0,35335.0,35526.0,51707.0,12531.0,5892.0,713.0,124.0,72.0
42484,County,2020/01/14,36.0,NY,36077.0,Otsego County,13162.0,46587.0,245849.0,50499.0,54141.0,33125.0,38296.0,48755.0,14768.0,5260.0,803.0,139.0,63.0
45637,County,2020/01/15,36.0,NY,36077.0,Otsego County,13123.0,46626.0,256856.0,60529.0,57349.0,32115.0,38906.0,47217.0,14319.0,5517.0,678.0,157.0,69.0
48741,County,2020/01/16,36.0,NY,36077.0,Otsego County,13334.0,46415.0,242266.0,55785.0,51341.0,29946.0,35584.0,47704.0,15074.0,5376.0,1039.0,340.0,77.0
53656,County,2020/01/17,36.0,NY,36077.0,Otsego County,12690.0,47059.0,260469.0,61315.0,51393.0,32478.0,38007.0,53533.0,15983.0,6696.0,739.0,226.0,99.0
55229,County,2020/01/18,36.0,NY,36077.0,Otsego County,14830.0,44919.0,229798.0,52756.0,47315.0,31709.0,39281.0,38638.0,14360.0,4711.0,768.0,89.0,171.0
60025,County,2020/01/19,36.0,NY,36077.0,Otsego County,15652.0,44097.0,212978.0,52471.0,47422.0,23821.0,38217.0,35440.0,9729.0,4827.0,754.0,170.0,127.0
61658,County,2020/01/20,36.0,NY,36077.0,Otsego County,14172.0,45577.0,244366.0,58940.0,50852.0,32187.0,33868.0,44961.0,15344.0,6782.0,1025.0,296.0,111.0
66386,County,2020/01/21,36.0,NY,36077.0,Otsego County,13336.0,46413.0,236323.0,52717.0,50904.0,30221.0,35836.0,49297.0,11399.0,4766.0,770.0,255.0,158.0
69575,County,2020/01/22,36.0,NY,36077.0,Otsego County,12597.0,47152.0,257207.0,61115.0,53703.0,31695.0,33124.0,56333.0,14318.0,5474.0,1138.0,217.0,90.0
71201,County,2020/01/23,36.0,NY,36077.0,Otsego County,12882.0,46867.0,260092.0,58587.0,55084.0,33207.0,37243.0,51185.0,16556.0,7043.0,894.0,227.0,66.0
74398,County,2020/01/24,36.0,NY,36077.0,Otsego County,12570.0,47179.0,279073.0,67595.0,58884.0,36595.0,39613.0,53862.0,15335.0,5834.0,1000.0,258.0,97.0
77591,County,2020/01/25,36.0,NY,36077.0,Otsego County,14305.0,45444.0,240685.0,57149.0,55724.0,31436.0,36491.0,38967.0,12655.0,7083.0,896.0,184.0,100.0
81715,County,2020/01/26,36.0,NY,36077.0,Otsego County,14271.0,45478.0,225357.0,58895.0,48624.0,28448.0,35548.0,32951.0,12662.0,7072.0,872.0,159.0,126.0
83872,County,2020/01/27,36.0,NY,36077.0,Otsego County,13470.0,46279.0,255299.0,62701.0,54996.0,29339.0,39506.0,47206.0,14995.0,5499.0,689.0,224.0,144.0
89270,County,2020/01/28,36.0,NY,36077.0,Otsego County,13222.0,46527.0,252467.0,54214.0,55483.0,34393.0,38693.0,47497.0,15047.0,5564.0,1333.0,147.0,96.0
91920,County,2020/01/29,36.0,NY,36077.0,Otsego County,13404.0,46345.0,255359.0,61881.0,52943.0,32449.0,37722.0,47608.0,15730.0,5657.0,1026.0,303.0,40.0
95175,County,2020/01/30,36.0,NY,36077.0,Otsego County,12971.0,46778.0,262345.0,64832.0,57679.0,32220.0,35482.0,48241.0,14449.0,7480.0,1374.0,449.0,139.0
98320,County,2020/01/31,36.0,NY,36077.0,Otsego County,12345.0,47404.0,264114.0,63310.0,58119.0,31684.0,38972.0,47448.0,14079.0,8270.0,1754.0,421.0,57.0
99999,County,2020/02/01,36.0,NY,36077.0,Otsego County,12808.0,46941.0,249329.0,59314.0,59801.0,28937.0,38611.0,40315.0,13415.0,6670.0,1616.0,571.0,79.0
104710,County,2020/02/02,36.0,NY,36077.0,Otsego County,14317.0,45432.0,227762.0,56344.0,51122.0,27697.0,35820.0,37469.0,11632.0,5726.0,1417.0,391.0,144.0
106336,County,2020/02/03,36.0,NY,36077.0,Otsego County,12500.0,47249.0,266524.0,65780.0,62038.0,32061.0,35936.0,47240.0,14217.0,7194.0,1536.0,378.0,144.0
111098,County,2020/02/04,36.0,NY,36077.0,Otsego County,12412.0,47337.0,257063.0,63351.0,60680.0,31241.0,33902.0,48201.0,12373.0,5168.0,1605.0,413.0,129.0
112676,County,2020/02/05,36.0,NY,36077.0,Otsego County,12325.0,47424.0,264427.0,64495.0,55814.0,32636.0,37643.0,52507.0,14105.0,5346.0,1423.0,316.0,142.0
115820,County,2020/02/06,36.0,NY,36077.0,Otsego County,12549.0,47200.0,235217.0,53959.0,52911.0,31579.0,34788.0,41001.0,14328.0,4705.0,1557.0,235.0,154.0
119086,County,2020/02/07,36.0,NY,36077.0,Otsego County,14068.0,45681.0,247435.0,59039.0,56605.0,30168.0,42313.0,40934.0,11741.0,4665.0,1392.0,424.0,154.0
122332,County,2020/02/08,36.0,NY,36077.0,Otsego County,13961.0,45788.0,252200.0,59154.0,56720.0,32734.0,38589.0,42541.0,14212.0,6467.0,1385.0,227.0,171.0
125878,County,2020/02/09,36.0,NY,36077.0,Otsego County,15448.0,44301.0,190157.0,43754.0,45479.0,22491.0,31549.0,28710.0,10883.0,5139.0,1550.0,343.0,259.0
130174,County,2020/02/10,36.0,NY,36077.0,Otsego County,12945.0,46804.0,250370.0,59299.0,56601.0,31052.0,35217.0,46507.0,14364.0,5092.0,1581.0,363.0,294.0
132379,County,2020/02/11,36.0,NY,36077.0,Otsego County,11735.0,48014.0,258350.0,58970.0,57101.0,33287.0,39034.0,46457.0,14109.0,6983.0,1747.0,361.0,301.0
136620,County,2020/02/12,36.0,NY,36077.0,Otsego County,12242.0,47507.0,257611.0,54622.0,57395.0,32972.0,37202.0,52024.0,14612.0,6578.0,1517.0,316.0,373.0
138315,County,2020/02/13,36.0,NY,36077.0,Otsego County,11586.0,48163.0,254513.0,57928.0,59254.0,31223.0,36729.0,47222.0,14894.0,4805.0,1680.0,412.0,366.0
141373,County,2020/02/14,36.0,NY,36077.0,Otsego County,11015.0,48734.0,276340.0,64806.0,63784.0,32312.0,39649.0,49256.0,15829.0,7817.0,2126.0,353.0,408.0
144669,County,2020/02/15,36.0,NY,36077.0,Otsego County,12468.0,47281.0,233262.0,50267.0,55240.0,22854.0,35809.0,43317.0,15736.0,7117.0,2096.0,348.0,478.0
147858,County,2020/02/16,36.0,NY,36077.0,Otsego County,13646.0,46103.0,222597.0,52461.0,51185.0,23847.0,36311.0,36090.0,12538.0,7182.0,1875.0,510.0,598.0
152620,County,2020/02/17,36.0,NY,36077.0,Otsego County,15797.0,43952.0,203284.0,46141.0,46242.0,24084.0,32330.0,33047.0,12802.0,6123.0,1660.0,441.0,414.0
155764,County,2020/02/18,36.0,NY,36077.0,Otsego County,12300.0,47449.0,242765.0,56950.0,56560.0,28510.0,35909.0,41774.0,12973.0,7443.0,1640.0,429.0,577.0
157441,County,2020/02/19,36.0,NY,36077.0,Otsego County,12162.0,47587.0,259440.0,64866.0,54810.0,33979.0,36502.0,43306.0,16070.0,6964.0,2330.0,334.0,279.0
160502,County,2020/02/20,36.0,NY,36077.0,Otsego County,12481.0,47268.0,256186.0,56014.0,57566.0,32293.0,39765.0,44732.0,15983.0,7533.0,1718.0,431.0,151.0
165396,County,2020/02/21,36.0,NY,36077.0,Otsego County,12426.0,47323.0,284206.0,65474.0,60501.0,30061.0,43415.0,54135.0,20133.0,7536.0,2493.0,276.0,182.0
168540,County,2020/02/22,36.0,NY,36077.0,Otsego County,12025.0,47724.0,269739.0,64636.0,62444.0,29790.0,38666.0,43542.0,19976.0,7756.0,2213.0,402.0,314.0
171789,County,2020/02/23,36.0,NY,36077.0,Otsego County,13915.0,45834.0,220430.0,54626.0,47270.0,25582.0,33333.0,36810.0,13496.0,7100.0,1642.0,448.0,123.0
173366,County,2020/02/24,36.0,NY,36077.0,Otsego County,12935.0,46814.0,262550.0,61842.0,59546.0,32173.0,41343.0,45461.0,14755.0,5764.0,928.0,329.0,409.0
177536,County,2020/02/25,36.0,NY,36077.0,Otsego County,11783.0,47966.0,296286.0,71733.0,63340.0,39832.0,43984.0,52648.0,16453.0,6696.0,1149.0,223.0,228.0
180729,County,2020/02/26,36.0,NY,36077.0,Otsego County,11970.0,47779.0,294610.0,67690.0,67088.0,43177.0,38694.0,52097.0,17378.0,7103.0,1009.0,164.0,210.0
182391,County,2020/02/27,36.0,NY,36077.0,Otsego County,12510.0,47239.0,253361.0,61482.0,55139.0,32618.0,35152.0,47176.0,14752.0,5802.0,832.0,258.0,150.0
187802,County,2020/02/28,36.0,NY,36077.0,Otsego County,11899.0,47850.0,279230.0,68257.0,57433.0,31776.0,45739.0,52423.0,15960.0,6418.0,962.0,119.0,143.0
189333,County,2020/02/29,36.0,NY,36077.0,Otsego County,12756.0,46993.0,255659.0,65047.0,52713.0,35586.0,39132.0,41725.0,14236.0,5779.0,1181.0,77.0,183.0
194166,County,2020/03/01,36.0,NY,36077.0,Otsego County,13423.0,46326.0,228227.0,58295.0,45840.0,31264.0,35341.0,36633.0,13962.0,5371.0,1060.0,276.0,185.0
195795,County,2020/03/02,36.0,NY,36077.0,Otsego County,12606.0,47143.0,290531.0,71063.0,61545.0,35116.0,42993.0,55316.0,17181.0,5689.0,1102.0,334.0,192.0
198951,County,2020/03/03,36.0,NY,36077.0,Otsego County,11527.0,48222.0,286521.0,63716.0,58586.0,44817.0,39062.0,52857.0,18929.0,6423.0,1545.0,427.0,159.0
203733,County,2020/03/04,36.0,NY,36077.0,Otsego County,11615.0,48134.0,288101.0,66364.0,60069.0,37880.0,39265.0,57609.0,17552.0,7858.0,948.0,368.0,188.0
205300,County,2020/03/05,36.0,NY,36077.0,Otsego County,11391.0,48358.0,296677.0,75684.0,57477.0,38105.0,40157.0,54552.0,19564.0,9511.0,1249.0,228.0,150.0
208419,County,2020/03/06,36.0,NY,36077.0,Otsego County,10807.0,48942.0,289651.0,69412.0,58827.0,38145.0,41219.0,54118.0,15411.0,9647.0,2275.0,479.0,118.0
213383,County,2020/03/07,36.0,NY,36077.0,Otsego County,12139.0,47610.0,268454.0,61544.0,47964.0,30339.0,50056.0,45313.0,20136.0,10916.0,1688.0,272.0,226.0
214935,County,2020/03/08,36.0,NY,36077.0,Otsego County,13522.0,46227.0,254728.0,67361.0,48391.0,30625.0,39985.0,43777.0,15245.0,7161.0,1790.0,169.0,224.0
219693,County,2020/03/09,36.0,NY,36077.0,Otsego County,12349.0,47400.0,275771.0,64523.0,51004.0,36888.0,41233.0,52637.0,20191.0,7531.0,1414.0,200.0,150.0
222886,County,2020/03/10,36.0,NY,36077.0,Otsego County,11958.0,47791.0,269751.0,58192.0,52988.0,38670.0,40026.0,51834.0,20085.0,6313.0,1154.0,229.0,260.0
226116,County,2020/03/11,36.0,NY,36077.0,Otsego County,10505.0,49244.0,243042.0,54320.0,41330.0,33812.0,38571.0,50642.0,13244.0,8285.0,2053.0,462.0,323.0
227745,County,2020/03/12,36.0,NY,36077.0,Otsego County,11526.0,48223.0,284269.0,70606.0,53220.0,37988.0,44881.0,51154.0,14640.0,8843.0,2018.0,510.0,409.0
232476,County,2020/03/13,36.0,NY,36077.0,Otsego County,10674.0,49075.0,242759.0,48977.0,43554.0,27488.0,47770.0,49930.0,16010.0,6650.0,1539.0,467.0,374.0
234054,County,2020/03/14,36.0,NY,36077.0,Otsego County,13439.0,46310.0,226750.0,43632.0,42572.0,32367.0,46758.0,43056.0,10024.0,4449.0,2270.0,1112.0,510.0
238857,County,2020/03/15,36.0,NY,36077.0,Otsego County,15264.0,44485.0,222257.0,51367.0,43872.0,29624.0,43798.0,34464.0,11725.0,5183.0,1566.0,420.0,238.0
242051,County,2020/03/16,36.0,NY,36077.0,Otsego County,14099.0,45650.0,248322.0,53846.0,49187.0,35361.0,40969.0,45663.0,15806.0,5331.0,1386.0,543.0,230.0
245292,County,2020/03/17,36.0,NY,36077.0,Otsego County,16274.0,43475.0,226964.0,49759.0,43296.0,26734.0,38738.0,44362.0,16365.0,6555.0,676.0,339.0,140.0
248398,County,2020/03/18,36.0,NY,36077.0,Otsego County,16794.0,42955.0,241093.0,55366.0,51180.0,32115.0,38730.0,42159.0,14037.0,5921.0,1038.0,373.0,174.0
250077,County,2020/03/19,36.0,NY,36077.0,Otsego County,17217.0,42532.0,226431.0,56238.0,44058.0,29815.0,36006.0,41905.0,13647.0,3444.0,776.0,306.0,236.0
254828,County,2020/03/20,36.0,NY,36077.0,Otsego County,16454.0,43295.0,244592.0,57270.0,51942.0,29441.0,44635.0,41057.0,15056.0,3856.0,927.0,287.0,121.0
258020,County,2020/03/21,36.0,NY,36077.0,Otsego County,18892.0,40857.0,214112.0,54612.0,41835.0,30440.0,33784.0,33663.0,13876.0,4437.0,1054.0,219.0,192.0
261208,County,2020/03/22,36.0,NY,36077.0,Otsego County,17667.0,42082.0,181045.0,45393.0,40120.0,25375.0,28251.0,27708.0,7847.0,5202.0,712.0,377.0,60.0
262845,County,2020/03/23,36.0,NY,36077.0,Otsego County,17244.0,42505.0,183939.0,39027.0,39423.0,23811.0,31865.0,35449.0,9725.0,3237.0,969.0,280.0,153.0
267600,County,2020/03/24,36.0,NY,36077.0,Otsego County,16743.0,43006.0,174335.0,39262.0,34724.0,26195.0,25209.0,32001.0,12064.0,3306.0,917.0,445.0,212.0
270798,County,2020/03/25,36.0,NY,36077.0,Otsego County,16519.0,43230.0,180745.0,40581.0,34381.0,25558.0,30422.0,33014.0,10687.0,4742.0,912.0,182.0,266.0
272424,County,2020/03/26,36.0,NY,36077.0,Otsego County,16861.0,42888.0,202840.0,52506.0,41227.0,26945.0,32263.0,32243.0,12381.0,4140.0,853.0,185.0,97.0
277187,County,2020/03/27,36.0,NY,36077.0,Otsego County,16400.0,43349.0,205051.0,51220.0,48001.0,22816.0,33866.0,35564.0,10202.0,2228.0,758.0,286.0,110.0
280372,County,2020/03/28,36.0,NY,36077.0,Otsego County,17898.0,41851.0,178209.0,43202.0,42233.0,19522.0,33707.0,26140.0,8700.0,3306.0,918.0,365.0,116.0
282007,County,2020/03/29,36.0,NY,36077.0,Otsego County,18154.0,41595.0,156804.0,37585.0,31339.0,24344.0,23096.0,26567.0,8955.0,3628.0,885.0,209.0,196.0
286799,County,2020/03/30,36.0,NY,36077.0,Otsego County,16674.0,43075.0,177490.0,43144.0,31826.0,22759.0,31258.0,34708.0,8035.0,4368.0,797.0,403.0,192.0
288397,County,2020/03/31,36.0,NY,36077.0,Otsego County,17038.0,42711.0,190511.0,45718.0,36071.0,26924.0,29818.0,37566.0,9360.0,3700.0,880.0,335.0,139.0
291632,County,2020/04/01,36.0,NY,36077.0,Otsego County,16801.0,42948.0,192866.0,44902.0,37475.0,28692.0,34873.0,31399.0,9774.0,4188.0,871.0,544.0,148.0
294783,County,2020/04/02,36.0,NY,36077.0,Otsego County,16713.0,43036.0,194091.0,48626.0,35618.0,25087.0,32581.0,37100.0,9515.0,4090.0,878.0,457.0,139.0
299543,County,2020/04/03,36.0,NY,36077.0,Otsego County,16504.0,43245.0,182097.0,39274.0,38485.0,25283.0,28651.0,37462.0,7975.0,3871.0,790.0,149.0,157.0
301170,County,2020/04/04,36.0,NY,36077.0,Otsego County,17317.0,42432.0,183347.0,43163.0,37864.0,25468.0,32289.0,29980.0,9845.0,3606.0,806.0,233.0,93.0
305925,County,2020/04/05,36.0,NY,36077.0,Otsego County,17728.0,42021.0,155644.0,38278.0,35959.0,19315.0,30121.0,21869.0,7211.0,1711.0,787.0,179.0,214.0
309125,County,2020/04/06,36.0,NY,36077.0,Otsego County,16852.0,42897.0,199893.0,48758.0,38321.0,26843.0,39974.0,31598.0,10964.0,2433.0,526.0,316.0,160.0
310753,County,2020/04/07,36.0,NY,36077.0,Otsego County,16766.0,42983.0,207993.0,51304.0,42337.0,28569.0,31822.0,37813.0,12120.0,3340.0,404.0,210.0,74.0
313947,County,2020/04/08,36.0,NY,36077.0,Otsego County,17004.0,42745.0,215119.0,52852.0,41662.0,30722.0,37949.0,38351.0,9233.0,3585.0,437.0,207.0,121.0
318706,County,2020/04/09,36.0,NY,36077.0,Otsego County,17041.0,42708.0,193879.0,40777.0,39300.0,23918.0,31756.0,38856.0,13097.0,5085.0,861.0,142.0,87.0
321902,County,2020/04/10,36.0,NY,36077.0,Otsego County,16330.0,43419.0,191979.0,36128.0,45768.0,23756.0,28359.0,37185.0,14370.0,5579.0,578.0,143.0,113.0
323577,County,2020/04/11,36.0,NY,36077.0,Otsego County,17499.0,42250.0,207517.0,51410.0,46497.0,23683.0,38974.0,32770.0,8284.0,4784.0,834.0,228.0,53.0
328262,County,2020/04/12,36.0,NY,36077.0,Otsego County,19666.0,40083.0,154198.0,39160.0,31717.0,23818.0,23037.0,26950.0,5789.0,2939.0,598.0,120.0,70.0
331484,County,2020/04/13,36.0,NY,36077.0,Otsego County,18039.0,41710.0,186712.0,38511.0,36347.0,26413.0,31650.0,34417.0,13202.0,4874.0,895.0,349.0,54.0
333111,County,2020/04/14,36.0,NY,36077.0,Otsego County,16078.0,43671.0,208924.0,45807.0,38490.0,35307.0,38206.0,33371.0,10225.0,6617.0,617.0,230.0,54.0
337911,County,2020/04/15,36.0,NY,36077.0,Otsego County,15490.0,44259.0,210197.0,51455.0,36809.0,30307.0,40515.0,39625.0,8045.0,2187.0,1081.0,72.0,101.0
339490,County,2020/04/16,36.0,NY,36077.0,Otsego County,16791.0,42958.0,199473.0,41693.0,36273.0,19720.0,41272.0,44379.0,11219.0,3993.0,580.0,168.0,176.0
344269,County,2020/04/17,36.0,NY,36077.0,Otsego County,14937.0,44812.0,202872.0,52443.0,36004.0,21973.0,37591.0,33703.0,12664.0,6556.0,1428.0,413.0,97.0
347416,County,2020/04/18,36.0,NY,36077.0,Otsego County,16616.0,43133.0,185665.0,47914.0,41435.0,18658.0,34801.0,35923.0,3210.0,2137.0,949.0,494.0,144.0
349068,County,2020/04/19,36.0,NY,36077.0,Otsego County,16539.0,43210.0,181018.0,36537.0,43444.0,26912.0,33883.0,28086.0,8038.0,2775.0,1015.0,160.0,168.0
352274,County,2020/04/20,36.0,NY,36077.0,Otsego County,15106.0,44643.0,222632.0,51997.0,48533.0,31568.0,23580.0,48420.0,13233.0,3854.0,1140.0,99.0,208.0
355468,County,2020/04/21,36.0,NY,36077.0,Otsego County,16040.0,43709.0,200664.0,46420.0,39829.0,20965.0,34828.0,40103.0,13120.0,4168.0,945.0,249.0,37.0
360189,County,2020/04/22,36.0,NY,36077.0,Otsego County,16570.0,43179.0,214483.0,40280.0,44719.0,30264.0,39411.0,40788.0,12722.0,5026.0,1015.0,160.0,98.0
361768,County,2020/04/23,36.0,NY,36077.0,Otsego County,15537.0,44212.0,218652.0,45299.0,49550.0,27308.0,39832.0,39267.0,12224.0,3928.0,1002.0,189.0,53.0
366656,County,2020/04/24,36.0,NY,36077.0,Otsego County,15972.0,43777.0,214467.0,46503.0,47887.0,29695.0,30737.0,41948.0,12640.0,3660.0,930.0,346.0,121.0
369812,County,2020/04/25,36.0,NY,36077.0,Otsego County,16531.0,43218.0,212348.0,51000.0,42610.0,25406.0,42598.0,33265.0,12263.0,4251.0,679.0,235.0,41.0
373007,County,2020/04/26,36.0,NY,36077.0,Otsego County,18260.0,41489.0,165504.0,37872.0,29551.0,25365.0,27217.0,30904.0,9207.0,4290.0,924.0,141.0,33.0
376238,County,2020/04/27,36.0,NY,36077.0,Otsego County,15947.0,43802.0,209064.0,42592.0,42962.0,26840.0,37297.0,42529.0,10688.0,4882.0,910.0,338.0,26.0
377832,County,2020/04/28,36.0,NY,36077.0,Otsego County,15818.0,43931.0,225658.0,48732.0,50503.0,28920.0,37706.0,41348.0,12935.0,4050.0,1251.0,187.0,26.0
381035,County,2020/04/29,36.0,NY,36077.0,Otsego County,15869.0,43880.0,234599.0,57564.0,49420.0,30570.0,33762.0,40957.0,15478.0,6010.0,735.0,37.0,66.0
384183,County,2020/04/30,36.0,NY,36077.0,Otsego County,16035.0,43714.0,221771.0,49106.0,41806.0,30991.0,35609.0,42358.0,16132.0,5011.0,625.0,108.0,25.0
387456,County,2020/05/01,36.0,NY,36077.0,Otsego County,15688.0,44061.0,234732.0,54372.0,49089.0,25721.0,38981.0,45408.0,15109.0,5638.0,284.0,105.0,25.0
392168,County,2020/05/02,36.0,NY,36077.0,Otsego County,16533.0,43216.0,227468.0,47982.0,46580.0,31587.0,47515.0,40365.0,7487.0,5482.0,265.0,192.0,13.0
393803,County,2020/05/03,36.0,NY,36077.0,Otsego County,17240.0,42509.0,209873.0,57003.0,44568.0,27214.0,34669.0,35414.0,6021.0,4269.0,541.0,141.0,33.0
398557,County,2020/05/04,36.0,NY,36077.0,Otsego County,15562.0,44187.0,214466.0,45486.0,51753.0,26012.0,31663.0,42181.0,11780.0,4259.0,966.0,328.0,38.0
401733,County,2020/05/05,36.0,NY,36077.0,Otsego County,15840.0,43909.0,232643.0,51824.0,47171.0,28774.0,41132.0,46483.0,13836.0,2724.0,403.0,210.0,86.0
403363,County,2020/05/06,36.0,NY,36077.0,Otsego County,16112.0,43637.0,225953.0,53103.0,47929.0,31472.0,31808.0,43264.0,12809.0,4591.0,774.0,141.0,62.0
408083,County,2020/05/07,36.0,NY,36077.0,Otsego County,15367.0,44382.0,223678.0,54384.0,42119.0,25659.0,36710.0,42736.0,15966.0,5373.0,440.0,191.0,100.0
409871,County,2020/05/08,36.0,NY,36077.0,Otsego County,15107.0,44642.0,220294.0,40907.0,38147.0,30878.0,43672.0,47773.0,11711.0,5826.0,1248.0,98.0,34.0
414493,County,2020/05/09,36.0,NY,36077.0,Otsego County,16611.0,43138.0,207797.0,45952.0,35971.0,30769.0,37857.0,42158.0,10211.0,3799.0,836.0,191.0,53.0
416154,County,2020/05/10,36.0,NY,36077.0,Otsego County,16817.0,42932.0,221104.0,47234.0,46161.0,30707.0,46549.0,37624.0,9964.0,2110.0,562.0,122.0,71.0
420952,County,2020/05/11,36.0,NY,36077.0,Otsego County,13657.0,46092.0,253939.0,66423.0,47077.0,27902.0,42652.0,48795.0,13497.0,6094.0,1200.0,141.0,158.0
422581,County,2020/05/12,36.0,NY,36077.0,Otsego County,13000.0,46749.0,249715.0,56869.0,48402.0,28580.0,45796.0,48891.0,15116.0,4833.0,797.0,319.0,112.0
427303,County,2020/05/13,36.0,NY,36077.0,Otsego County,13789.0,45960.0,258872.0,64978.0,48046.0,29168.0,46208.0,47406.0,16286.0,5369.0,1112.0,193.0,106.0
430497,County,2020/05/14,36.0,NY,36077.0,Otsego County,14216.0,45533.0,264510.0,66445.0,51514.0,33960.0,45813.0,44759.0,15026.0,5951.0,777.0,189.0,76.0
432126,County,2020/05/15,36.0,NY,36077.0,Otsego County,13184.0,46565.0,253804.0,61482.0,53472.0,30322.0,45524.0,44605.0,11838.0,4711.0,1285.0,398.0,167.0
436875,County,2020/05/16,36.0,NY,36077.0,Otsego County,14040.0,45709.0,258865.0,63528.0,52023.0,34849.0,50869.0,41371.0,10391.0,4816.0,589.0,240.0,189.0
440034,County,2020/05/17,36.0,NY,36077.0,Otsego County,13878.0,45871.0,259760.0,61979.0,55511.0,36824.0,48606.0,41435.0,8253.0,6162.0,853.0,57.0,80.0
441747,County,2020/05/18,36.0,NY,36077.0,Otsego County,12210.0,47539.0,285246.0,75662.0,51368.0,41866.0,37965.0,55170.0,15764.0,6224.0,1049.0,144.0,34.0
444901,County,2020/05/19,36.0,NY,36077.0,Otsego County,12284.0,47465.0,294723.0,82372.0,58004.0,43948.0,39481.0,50290.0,13759.0,5556.0,1195.0,49.0,69.0
449662,County,2020/05/20,36.0,NY,36077.0,Otsego County,11724.0,48025.0,309603.0,80627.0,56517.0,41663.0,54604.0,54692.0,15724.0,4842.0,504.0,243.0,187.0
451288,County,2020/05/21,36.0,NY,36077.0,Otsego County,11517.0,48232.0,297126.0,78895.0,54074.0,33404.0,57573.0,50763.0,15650.0,5671.0,701.0,280.0,115.0
454475,County,2020/05/22,36.0,NY,36077.0,Otsego County,10565.0,49184.0,304290.0,85951.0,55205.0,41038.0,45926.0,50281.0,17149.0,7050.0,1303.0,181.0,206.0
459259,County,2020/05/23,36.0,NY,36077.0,Otsego County,12121.0,47628.0,269559.0,62845.0,51400.0,40955.0,47449.0,43121.0,15810.0,6893.0,631.0,298.0,157.0
462414,County,2020/05/24,36.0,NY,36077.0,Otsego County,13656.0,46093.0,260539.0,62476.0,55582.0,33729.0,50958.0,40182.0,11893.0,4455.0,897.0,226.0,141.0
464042,County,2020/05/25,36.0,NY,36077.0,Otsego County,13617.0,46132.0,250460.0,63665.0,55764.0,29140.0,50004.0,35310.0,9873.0,5251.0,979.0,364.0,110.0
467196,County,2020/05/26,36.0,NY,36077.0,Otsego County,12636.0,47113.0,269994.0,70715.0,54206.0,26103.0,49941.0,47870.0,14222.0,5321.0,1363.0,139.0,114.0
470452,County,2020/05/27,36.0,NY,36077.0,Otsego County,12137.0,47612.0,286995.0,74374.0,54298.0,33742.0,49060.0,54760.0,13413.0,5829.0,1221.0,198.0,100.0
475164,County,2020/05/28,36.0,NY,36077.0,Otsego County,12804.0,46945.0,261572.0,63240.0,48240.0,34089.0,44514.0,47140.0,15941.0,6888.0,1302.0,161.0,57.0
478402,County,2020/05/29,36.0,NY,36077.0,Otsego County,12999.0,46750.0,278311.0,70241.0,53794.0,35785.0,46601.0,51048.0,14383.0,5021.0,1200.0,213.0,25.0
481602,County,2020/05/30,36.0,NY,36077.0,Otsego County,13909.0,45840.0,283263.0,71764.0,57275.0,36547.0,46202.0,50329.0,12833.0,7049.0,1132.0,112.0,20.0
483158,County,2020/05/31,36.0,NY,36077.0,Otsego County,14790.0,44959.0,249631.0,67766.0,56183.0,29235.0,39675.0,39886.0,10741.0,5112.0,752.0,248.0,33.0
486375,County,2020/06/01,36.0,NY,36077.0,Otsego County,13337.0,46412.0,266717.0,69153.0,49787.0,37430.0,45825.0,43560.0,12980.0,6828.0,866.0,200.0,88.0
491155,County,2020/06/02,36.0,NY,36077.0,Otsego County,13736.0,46013.0,245284.0,62085.0,54773.0,28459.0,39184.0,38089.0,12781.0,8382.0,1262.0,153.0,116.0
494377,County,2020/06/03,36.0,NY,36077.0,Otsego County,12319.0,47430.0,280224.0,75556.0,55605.0,33263.0,42566.0,49242.0,15560.0,6920.0,1155.0,215.0,142.0
495996,County,2020/06/04,36.0,NY,36077.0,Otsego County,12770.0,46979.0,278461.0,79348.0,52361.0,33013.0,46107.0,45916.0,13590.0,6461.0,1290.0,323.0,52.0
499199,County,2020/06/05,36.0,NY,36077.0,Otsego County,12467.0,47282.0,263826.0,71097.0,46238.0,33208.0,48765.0,42771.0,12337.0,7428.0,1719.0,124.0,139.0
502346,County,2020/06/06,36.0,NY,36077.0,Otsego County,14028.0,45721.0,227103.0,59821.0,44539.0,24725.0,42534.0,37572.0,12100.0,4634.0,788.0,119.0,271.0
507123,County,2020/06/07,36.0,NY,36077.0,Otsego County,14585.0,45164.0,207829.0,49140.0,44831.0,26461.0,39557.0,31262.0,9140.0,5427.0,1334.0,193.0,484.0
508761,County,2020/06/08,36.0,NY,36077.0,Otsego County,13377.0,46372.0,260558.0,71736.0,50636.0,32667.0,39772.0,42412.0,15725.0,5736.0,1453.0,256.0,165.0
513539,County,2020/06/09,36.0,NY,36077.0,Otsego County,14028.0,45721.0,240955.0,61360.0,46468.0,31434.0,40590.0,39519.0,14444.0,5504.0,1134.0,216.0,286.0
516744,County,2020/06/10,36.0,NY,36077.0,Otsego County,13569.0,46180.0,237726.0,66211.0,44837.0,31034.0,37831.0,39021.0,12036.0,4529.0,1283.0,289.0,655.0
519901,County,2020/06/11,36.0,NY,36077.0,Otsego County,13514.0,46235.0,243426.0,62329.0,47016.0,29039.0,44204.0,37453.0,15298.0,6174.0,1195.0,173.0,545.0
521575,County,2020/06/12,36.0,NY,36077.0,Otsego County,13722.0,46027.0,234516.0,68215.0,43324.0,26876.0,33241.0,41232.0,13578.0,5789.0,1706.0,262.0,293.0
524751,County,2020/06/13,36.0,NY,36077.0,Otsego County,14156.0,45593.0,246472.0,63245.0,49231.0,33424.0,39094.0,41952.0,12881.0,5446.0,740.0,333.0,126.0
529515,County,2020/06/14,36.0,NY,36077.0,Otsego County,13882.0,45867.0,208416.0,51252.0,40255.0,25145.0,36343.0,35846.0,12965.0,5141.0,998.0,272.0,199.0
532705,County,2020/06/15,36.0,NY,36077.0,Otsego County,14525.0,45224.0,241601.0,59861.0,43896.0,33039.0,36601.0,45621.0,14484.0,6202.0,1455.0,340.0,102.0
535925,County,2020/06/16,36.0,NY,36077.0,Otsego County,13825.0,45924.0,277435.0,70839.0,52993.0,35622.0,40099.0,52814.0,17245.0,6264.0,1179.0,249.0,131.0
537527,County,2020/06/17,36.0,NY,36077.0,Otsego County,13077.0,46672.0,269866.0,64004.0,49074.0,37564.0,47227.0,48904.0,14856.0,6621.0,1228.0,347.0,41.0
540723,County,2020/06/18,36.0,NY,36077.0,Otsego County,12652.0,47097.0,252900.0,59204.0,45598.0,33095.0,45703.0,46579.0,14404.0,6618.0,1290.0,258.0,151.0
545440,County,2020/06/19,36.0,NY,36077.0,Otsego County,12886.0,46863.0,264328.0,68294.0,50988.0,34476.0,42891.0,45455.0,15048.0,5698.0,1105.0,201.0,172.0
548675,County,2020/06/20,36.0,NY,36077.0,Otsego County,13481.0,46268.0,237322.0,52070.0,51766.0,32117.0,40222.0,38680.0,13340.0,7155.0,1450.0,246.0,276.0
551863,County,2020/06/21,36.0,NY,36077.0,Otsego County,14408.0,45341.0,221732.0,57787.0,42421.0,27359.0,34258.0,40335.0,12571.0,5423.0,1315.0,195.0,68.0
553499,County,2020/06/22,36.0,NY,36077.0,Otsego County,12671.0,47078.0,252543.0,64290.0,49816.0,34563.0,41279.0,39207.0,15709.0,5809.0,1546.0,246.0,78.0
558259,County,2020/06/23,36.0,NY,36077.0,Otsego County,12945.0,46804.0,263168.0,73437.0,49367.0,27755.0,41552.0,47233.0,15060.0,7205.0,1167.0,265.0,127.0
561451,County,2020/06/24,36.0,NY,36077.0,Otsego County,13468.0,46281.0,241459.0,61242.0,48121.0,30794.0,37100.0,42764.0,13177.0,6891.0,1056.0,120.0,194.0
564627,County,2020/06/25,36.0,NY,36077.0,Otsego County,13114.0,46635.0,260979.0,69001.0,47383.0,30618.0,48457.0,42961.0,15073.0,6270.0,807.0,265.0,144.0
566333,County,2020/06/26,36.0,NY,36077.0,Otsego County,13357.0,46392.0,256644.0,64757.0,49123.0,31022.0,43175.0,43167.0,16471.0,7675.0,936.0,197.0,121.0
569455,County,2020/06/27,36.0,NY,36077.0,Otsego County,14774.0,44975.0,235463.0,59302.0,53435.0,30781.0,34760.0,37983.0,11236.0,6743.0,915.0,244.0,64.0
572654,County,2020/06/28,36.0,NY,36077.0,Otsego County,15021.0,44728.0,202259.0,48040.0,44153.0,24452.0,28725.0,37065.0,11942.0,5945.0,1519.0,274.0,144.0
575813,County,2020/06/29,36.0,NY,36077.0,Otsego County,13805.0,45944.0,235299.0,62173.0,48849.0,23857.0,35762.0,42403.0,12751.0,7399.0,1825.0,201.0,79.0
580624,County,2020/06/30,36.0,NY,36077.0,Otsego County,13924.0,45825.0,241957.0,57723.0,51110.0,24696.0,40973.0,43890.0,15690.0,5439.0,2056.0,301.0,79.0
583821,County,2020/07/01,36.0,NY,36077.0,Otsego County,13696.0,46053.0,241425.0,58344.0,44511.0,22836.0,41445.0,50586.0,14615.0,7566.0,1119.0,267.0,136.0
587012,County,2020/07/02,36.0,NY,36077.0,Otsego County,14880.0,44869.0,277004.0,73238.0,50292.0,32498.0,51432.0,45599.0,15999.0,6655.0,857.0,281.0,153.0
588651,County,2020/07/03,36.0,NY,36077.0,Otsego County,13990.0,45759.0,255198.0,64392.0,48846.0,30847.0,42932.0,42924.0,16378.0,7632.0,931.0,196.0,120.0
593395,County,2020/07/04,36.0,NY,36077.0,Otsego County,16102.0,43647.0,218328.0,55089.0,41789.0,26391.0,36729.0,36722.0,14012.0,6529.0,796.0,168.0,103.0
595045,County,2020/07/05,36.0,NY,36077.0,Otsego County,14049.0,45700.0,245588.0,71047.0,45978.0,24413.0,46719.0,41342.0,8912.0,4907.0,1943.0,174.0,153.0
599731,County,2020/07/06,36.0,NY,36077.0,Otsego County,13916.0,45833.0,242996.0,70791.0,42365.0,26392.0,38558.0,44631.0,12751.0,5801.0,1464.0,138.0,105.0
603402,County,2020/07/07,36.0,NY,36077.0,Otsego County,13858.0,45891.0,246992.0,74739.0,40756.0,27165.0,39112.0,43236.0,12310.0,7918.0,1439.0,223.0,94.0
604599,County,2020/07/08,36.0,NY,36077.0,Otsego County,13649.0,46100.0,241550.0,69600.0,41315.0,27239.0,39002.0,41469.0,14439.0,5936.0,2257.0,217.0,76.0
607794,County,2020/07/09,36.0,NY,36077.0,Otsego County,14113.0,45636.0,254477.0,71732.0,40993.0,32302.0,42353.0,42756.0,16238.0,6502.0,1259.0,159.0,183.0
610994,County,2020/07/10,36.0,NY,36077.0,Otsego County,12932.0,46817.0,239425.0,59590.0,46524.0,26976.0,36100.0,45492.0,14576.0,8378.0,1352.0,206.0,231.0
614205,County,2020/07/11,36.0,NY,36077.0,Otsego County,14061.0,45688.0,240007.0,69925.0,41628.0,31953.0,38187.0,40039.0,10604.0,5561.0,1651.0,321.0,138.0
617376,County,2020/07/12,36.0,NY,36077.0,Otsego County,15426.0,44323.0,188168.0,54480.0,32797.0,21848.0,30573.0,32144.0,9029.0,5312.0,1442.0,294.0,249.0
620566,County,2020/07/13,36.0,NY,36077.0,Otsego County,14328.0,45421.0,225280.0,53089.0,41644.0,27787.0,36163.0,43497.0,16122.0,5584.0,1007.0,249.0,138.0
625330,County,2020/07/14,36.0,NY,36077.0,Otsego County,15197.0,44552.0,232698.0,58710.0,43521.0,23900.0,38028.0,45982.0,15733.0,5149.0,1398.0,163.0,114.0
628503,County,2020/07/15,36.0,NY,36077.0,Otsego County,13789.0,45960.0,232558.0,53622.0,41539.0,24955.0,42091.0,51873.0,11955.0,5319.0,901.0,201.0,102.0
630129,County,2020/07/16,36.0,NY,36077.0,Otsego County,14726.0,45023.0,230328.0,54923.0,42297.0,27614.0,37740.0,42220.0,17249.0,6593.0,1365.0,242.0,85.0
633330,County,2020/07/17,36.0,NY,36077.0,Otsego County,14838.0,44911.0,226283.0,52803.0,38598.0,28127.0,40444.0,42175.0,17147.0,6014.0,800.0,149.0,26.0
636541,County,2020/07/18,36.0,NY,36077.0,Otsego County,15808.0,43941.0,232075.0,56356.0,38983.0,33980.0,45020.0,37511.0,12302.0,6634.0,1060.0,122.0,107.0
639696,County,2020/07/19,36.0,NY,36077.0,Otsego County,15579.0,44170.0,214523.0,59586.0,45609.0,25205.0,29614.0,35313.0,10955.0,6668.0,1285.0,186.0,102.0
642930,County,2020/07/20,36.0,NY,36077.0,Otsego County,15601.0,44148.0,230929.0,59518.0,43370.0,29844.0,29121.0,46155.0,14313.0,6961.0,1375.0,181.0,91.0
648170,County,2020/07/21,36.0,NY,36077.0,Otsego County,14646.0,45103.0,255442.0,66435.0,46833.0,24669.0,39015.0,56230.0,13148.0,7224.0,1667.0,89.0,132.0
650883,County,2020/07/22,36.0,NY,36077.0,Otsego County,14379.0,45370.0,248467.0,73747.0,41119.0,26042.0,35768.0,48369.0,15883.0,5623.0,1569.0,230.0,117.0
652425,County,2020/07/23,36.0,NY,36077.0,Otsego County,14298.0,45451.0,222619.0,62776.0,31741.0,22381.0,30819.0,50015.0,14970.0,7869.0,1643.0,289.0,116.0
655548,County,2020/07/24,36.0,NY,36077.0,Otsego County,12963.0,46786.0,232739.0,51236.0,40913.0,29478.0,37187.0,49016.0,13695.0,8694.0,2135.0,214.0,171.0
658894,County,2020/07/25,36.0,NY,36077.0,Otsego County,15067.0,44682.0,232855.0,59195.0,42583.0,34090.0,31772.0,43633.0,12525.0,6798.0,1949.0,217.0,93.0
663600,County,2020/07/26,36.0,NY,36077.0,Otsego County,15803.0,43946.0,218869.0,57147.0,43357.0,26446.0,33105.0,37428.0,12204.0,7028.0,1842.0,123.0,189.0
666873,County,2020/07/27,36.0,NY,36077.0,Otsego County,15472.0,44277.0,229229.0,68257.0,33060.0,27580.0,33553.0,44662.0,14465.0,5964.0,1217.0,230.0,241.0
668502,County,2020/07/28,36.0,NY,36077.0,Otsego County,14701.0,45048.0,224314.0,60911.0,40981.0,23751.0,32386.0,40509.0,14629.0,8543.0,2086.0,325.0,193.0
673339,County,2020/07/29,36.0,NY,36077.0,Otsego County,14812.0,44937.0,221341.0,61594.0,36948.0,24470.0,33609.0,41301.0,11717.0,9098.0,2038.0,333.0,233.0
676419,County,2020/07/30,36.0,NY,36077.0,Otsego County,14400.0,45349.0,224625.0,59612.0,39345.0,22116.0,33413.0,47406.0,12372.0,7735.0,1907.0,469.0,250.0
679647,County,2020/07/31,36.0,NY,36077.0,Otsego County,13945.0,45804.0,214122.0,56504.0,38958.0,24359.0,32335.0,39533.0,12369.0,6657.0,2670.0,525.0,212.0
681228,County,2020/08/01,36.0,NY,36077.0,Otsego County,15242.0,44507.0,201886.0,47414.0,35157.0,27882.0,29019.0,38709.0,12515.0,7754.0,2670.0,549.0,217.0
684451,County,2020/08/02,36.0,NY,36077.0,Otsego County,15492.0,44257.0,168013.0,40985.0,29911.0,19375.0,28384.0,28359.0,11252.0,5409.0,3545.0,557.0,236.0
689211,County,2020/08/03,36.0,NY,36077.0,Otsego County,14902.0,44847.0,210942.0,46297.0,40876.0,25034.0,39046.0,36036.0,13063.0,7386.0,2653.0,472.0,79.0
690839,County,2020/08/04,36.0,NY,36077.0,Otsego County,14658.0,45091.0,209221.0,52098.0,40389.0,22181.0,30131.0,41957.0,14842.0,5810.0,1521.0,238.0,54.0
695599,County,2020/08/05,36.0,NY,36077.0,Otsego County,15093.0,44656.0,253700.0,68339.0,47594.0,28000.0,40985.0,47680.0,15836.0,4167.0,947.0,94.0,58.0
698794,County,2020/08/06,36.0,NY,36077.0,Otsego County,14560.0,45189.0,249192.0,59584.0,49355.0,25984.0,42583.0,48495.0,15622.0,5920.0,1473.0,90.0,86.0
701990,County,2020/08/07,36.0,NY,36077.0,Otsego County,14410.0,45339.0,224633.0,58295.0,38583.0,23027.0,36238.0,45484.0,13970.0,6954.0,1728.0,256.0,98.0
705181,County,2020/08/08,36.0,NY,36077.0,Otsego County,16045.0,43704.0,204751.0,47069.0,36654.0,28145.0,31734.0,42321.0,12505.0,4916.0,1053.0,277.0,77.0
708400,County,2020/08/09,36.0,NY,36077.0,Otsego County,16021.0,43728.0,207680.0,47005.0,37009.0,27440.0,38145.0,35957.0,11921.0,8229.0,1814.0,119.0,41.0
710030,County,2020/08/10,36.0,NY,36077.0,Otsego County,15523.0,44226.0,221184.0,47662.0,37470.0,29943.0,40594.0,38028.0,17562.0,8135.0,1593.0,110.0,87.0
713198,County,2020/08/11,36.0,NY,36077.0,Otsego County,15118.0,44631.0,236960.0,61888.0,40814.0,27663.0,40854.0,40941.0,16435.0,7129.0,1102.0,106.0,28.0
717859,County,2020/08/12,36.0,NY,36077.0,Otsego County,14530.0,45219.0,209237.0,50770.0,37584.0,20356.0,36059.0,42106.0,13763.0,7060.0,992.0,317.0,230.0
719586,County,2020/08/13,36.0,NY,36077.0,Otsego County,14319.0,45430.0,215402.0,53137.0,38296.0,25782.0,34435.0,41072.0,13509.0,6794.0,1782.0,345.0,250.0
722779,County,2020/08/14,36.0,NY,36077.0,Otsego County,13468.0,46281.0,225307.0,55885.0,39129.0,27495.0,37253.0,44336.0,13686.0,5074.0,1886.0,199.0,364.0
726010,County,2020/08/15,36.0,NY,36077.0,Otsego County,14788.0,44961.0,204710.0,51169.0,34309.0,23491.0,32263.0,42723.0,11906.0,6824.0,1465.0,204.0,356.0
730732,County,2020/08/16,36.0,NY,36077.0,Otsego County,15406.0,44343.0,176081.0,39011.0,33912.0,20036.0,23059.0,34603.0,13298.0,8811.0,2296.0,481.0,574.0
732362,County,2020/08/17,36.0,NY,36077.0,Otsego County,15206.0,44543.0,194210.0,49935.0,31781.0,18413.0,29273.0,37311.0,16664.0,7593.0,2205.0,498.0,537.0
735577,County,2020/08/18,36.0,NY,36077.0,Otsego County,14717.0,45032.0,174503.0,38978.0,31183.0,18519.0,26485.0,33062.0,14047.0,8636.0,2638.0,440.0,515.0
740316,County,2020/08/19,36.0,NY,36077.0,Otsego County,13849.0,45900.0,179564.0,40911.0,30521.0,17431.0,29409.0,34959.0,12854.0,9899.0,2724.0,345.0,511.0
743514,County,2020/08/20,36.0,NY,36077.0,Otsego County,13583.0,46166.0,195956.0,43860.0,35950.0,18640.0,33048.0,37370.0,13946.0,9257.0,2790.0,544.0,551.0
745144,County,2020/08/21,36.0,NY,36077.0,Otsego County,13135.0,46614.0,201790.0,47690.0,33646.0,23513.0,29810.0,38322.0,16086.0,9322.0,2457.0,431.0,513.0
748349,County,2020/08/22,36.0,NY,36077.0,Otsego County,14390.0,45359.0,182591.0,42382.0,36885.0,24196.0,26250.0,28667.0,12280.0,7859.0,3069.0,460.0,543.0
751542,County,2020/08/23,36.0,NY,36077.0,Otsego County,15853.0,43896.0,153846.0,36306.0,29043.0,17828.0,20218.0,27827.0,11833.0,8093.0,1728.0,526.0,444.0
756286,County,2020/08/24,36.0,NY,36077.0,Otsego County,15926.0,43823.0,174800.0,39703.0,31642.0,19071.0,28085.0,33674.0,13713.0,6635.0,1505.0,435.0,337.0
757915,County,2020/08/25,36.0,NY,36077.0,Otsego County,15418.0,44331.0,164184.0,34155.0,31872.0,15752.0,22588.0,37457.0,14598.0,5592.0,1509.0,265.0,396.0
762636,County,2020/08/26,36.0,NY,36077.0,Otsego County,15950.0,43799.0,173932.0,38971.0,31518.0,19533.0,26457.0,37762.0,11357.0,6074.0,1661.0,384.0,215.0
764265,County,2020/08/27,36.0,NY,36077.0,Otsego County,16287.0,43462.0,168276.0,37300.0,28937.0,17460.0,22587.0,38229.0,13502.0,8091.0,1561.0,248.0,361.0
769048,County,2020/08/28,36.0,NY,36077.0,Otsego County,15942.0,43807.0,182506.0,44605.0,35579.0,16741.0,29005.0,35680.0,12745.0,5583.0,2004.0,332.0,232.0
772249,County,2020/08/29,36.0,NY,36077.0,Otsego County,16072.0,43677.0,178852.0,43544.0,34347.0,22170.0,25964.0,31675.0,12546.0,6554.0,1627.0,102.0,323.0
775453,County,2020/08/30,36.0,NY,36077.0,Otsego County,16784.0,42965.0,168996.0,36596.0,34293.0,17263.0,27173.0,32693.0,11715.0,7098.0,1783.0,115.0,267.0
777063,County,2020/08/31,36.0,NY,36077.0,Otsego County,16208.0,43541.0,168636.0,36768.0,34339.0,17127.0,24412.0,34350.0,11953.0,7189.0,1987.0,231.0,280.0
781842,County,2020/09/01,36.0,NY,36077.0,Otsego County,15869.0,43880.0,193426.0,37656.0,38213.0,14621.0,39827.0,42321.0,12008.0,6783.0,1680.0,195.0,122.0
784290,County,2020/09/02,36.0,NY,36077.0,Otsego County,15939.0,43810.0,192861.0,44424.0,33260.0,18974.0,29875.0,42600.0,13418.0,8317.0,1557.0,274.0,162.0
786598,County,2020/09/03,36.0,NY,36077.0,Otsego County,15087.0,44662.0,205884.0,51919.0,36902.0,21193.0,33519.0,38950.0,13533.0,7779.0,1652.0,249.0,188.0
789860,County,2020/09/04,36.0,NY,36077.0,Otsego County,15078.0,44671.0,199848.0,45758.0,35471.0,21475.0,33963.0,39420.0,12368.0,9330.0,1631.0,232.0,200.0
792935,County,2020/09/05,36.0,NY,36077.0,Otsego County,16628.0,43121.0,214109.0,60722.0,38775.0,17706.0,36949.0,36487.0,15168.0,6579.0,1356.0,195.0,172.0
796225,County,2020/09/06,36.0,NY,36077.0,Otsego County,17382.0,42367.0,174143.0,39070.0,37862.0,18198.0,26882.0,30386.0,12561.0,7004.0,1764.0,173.0,243.0
799436,County,2020/09/07,36.0,NY,36077.0,Otsego County,17324.0,42425.0,162195.0,39165.0,34575.0,15614.0,22619.0,30654.0,11137.0,6126.0,1822.0,250.0,233.0
804196,County,2020/09/08,36.0,NY,36077.0,Otsego County,15914.0,43835.0,193184.0,43575.0,36029.0,19773.0,32858.0,38359.0,13002.0,7077.0,1934.0,393.0,184.0
805825,County,2020/09/09,36.0,NY,36077.0,Otsego County,16198.0,43551.0,199764.0,44093.0,36570.0,24601.0,29482.0,42315.0,14167.0,6339.0,1787.0,237.0,173.0
809016,County,2020/09/10,36.0,NY,36077.0,Otsego County,15655.0,44094.0,203687.0,44437.0,34662.0,21240.0,36984.0,40453.0,15946.0,8076.0,1529.0,186.0,174.0
813777,County,2020/09/11,36.0,NY,36077.0,Otsego County,15183.0,44566.0,222646.0,49883.0,42328.0,23130.0,35878.0,44866.0,15809.0,8719.0,1586.0,267.0,180.0
816972,County,2020/09/12,36.0,NY,36077.0,Otsego County,15916.0,43833.0,207923.0,53168.0,36730.0,21719.0,32180.0,40123.0,16249.0,5903.0,1408.0,164.0,279.0
818579,County,2020/09/13,36.0,NY,36077.0,Otsego County,16711.0,43038.0,183225.0,31370.0,30975.0,26520.0,33742.0,36893.0,14629.0,7455.0,1163.0,208.0,270.0
823361,County,2020/09/14,36.0,NY,36077.0,Otsego County,16690.0,43059.0,195432.0,33128.0,41919.0,24045.0,31650.0,40923.0,14819.0,6971.0,1532.0,230.0,215.0
826553,County,2020/09/15,36.0,NY,36077.0,Otsego County,16150.0,43599.0,192579.0,41722.0,33432.0,18639.0,29362.0,45780.0,13701.0,7850.0,1815.0,119.0,159.0
828181,County,2020/09/16,36.0,NY,36077.0,Otsego County,16143.0,43606.0,200007.0,43164.0,39360.0,16935.0,33565.0,43781.0,14016.0,7188.0,1667.0,214.0,117.0
831375,County,2020/09/17,36.0,NY,36077.0,Otsego County,15606.0,44143.0,208181.0,48928.0,37616.0,20755.0,33474.0,41543.0,16429.0,7655.0,1359.0,136.0,286.0
836136,County,2020/09/18,36.0,NY,36077.0,Otsego County,15865.0,43884.0,206021.0,45355.0,36507.0,23440.0,33780.0,43508.0,12852.0,8510.0,1650.0,267.0,152.0
837765,County,2020/09/19,36.0,NY,36077.0,Otsego County,16840.0,42909.0,199739.0,37451.0,35741.0,25726.0,35442.0,41270.0,14881.0,7177.0,1652.0,281.0,118.0
840957,County,2020/09/20,36.0,NY,36077.0,Otsego County,16602.0,43147.0,169612.0,34400.0,33234.0,14695.0,28276.0,36904.0,12298.0,7794.0,1666.0,203.0,142.0
845744,County,2020/09/21,36.0,NY,36077.0,Otsego County,17491.0,42258.0,204761.0,46699.0,35826.0,19974.0,33191.0,47391.0,14730.0,6101.0,711.0,117.0,21.0
848912,County,2020/09/22,36.0,NY,36077.0,Otsego County,16101.0,43648.0,213592.0,48502.0,39310.0,21019.0,34523.0,45570.0,15676.0,7483.0,1189.0,284.0,36.0
850540,County,2020/09/23,36.0,NY,36077.0,Otsego County,16168.0,43581.0,217234.0,45298.0,40201.0,24173.0,35755.0,52726.0,13421.0,4073.0,1371.0,138.0,78.0
853729,County,2020/09/24,36.0,NY,36077.0,Otsego County,15061.0,44688.0,224306.0,47787.0,44174.0,29058.0,35939.0,47483.0,13529.0,5141.0,1012.0,129.0,54.0
858493,County,2020/09/25,36.0,NY,36077.0,Otsego County,14798.0,44951.0,215006.0,49314.0,35922.0,24765.0,33521.0,48511.0,16151.0,5328.0,1211.0,256.0,27.0
861688,County,2020/09/26,36.0,NY,36077.0,Otsego County,16782.0,42967.0,224649.0,47706.0,41470.0,29912.0,33502.0,46488.0,17903.0,6332.0,1099.0,159.0,78.0
863293,County,2020/09/27,36.0,NY,36077.0,Otsego County,16931.0,42818.0,189704.0,38156.0,38434.0,25471.0,28937.0,38824.0,11427.0,6564.0,1618.0,224.0,49.0
868076,County,2020/09/28,36.0,NY,36077.0,Otsego County,15386.0,44363.0,201140.0,35102.0,39142.0,23183.0,33736.0,44509.0,17173.0,7041.0,1079.0,123.0,52.0
871268,County,2020/09/29,36.0,NY,36077.0,Otsego County,15516.0,44233.0,199287.0,42392.0,37559.0,23188.0,30901.0,42725.0,13467.0,7470.0,1400.0,139.0,46.0
872897,County,2020/09/30,36.0,NY,36077.0,Otsego County,15491.0,44258.0,192282.0,38858.0,36556.0,23778.0,26390.0,42376.0,13710.0,9160.0,1302.0,110.0,42.0
877637,County,2020/10/01,36.0,NY,36077.0,Otsego County,15158.0,44591.0,204858.0,43989.0,36737.0,23672.0,29037.0,44152.0,16008.0,9783.0,1237.0,125.0,118.0
880852,County,2020/10/02,36.0,NY,36077.0,Otsego County,15048.0,44701.0,194040.0,45315.0,35970.0,18682.0,32294.0,41807.0,13095.0,5399.0,1272.0,106.0,100.0
884047,County,2020/10/03,36.0,NY,36077.0,Otsego County,16926.0,42823.0,193359.0,45157.0,37842.0,22774.0,31173.0,34245.0,12825.0,7943.0,1165.0,157.0,78.0
886537,County,2020/10/04,36.0,NY,36077.0,Otsego County,16839.0,42910.0,157559.0,29380.0,31706.0,19972.0,25742.0,29938.0,11557.0,7849.0,1186.0,153.0,76.0
889782,County,2020/10/05,36.0,NY,36077.0,Otsego County,16472.0,43277.0,185708.0,42012.0,34735.0,18207.0,29709.0,36829.0,14365.0,8625.0,1074.0,72.0,80.0
892938,County,2020/10/06,36.0,NY,36077.0,Otsego County,15480.0,44269.0,186145.0,40471.0,32751.0,20150.0,29327.0,38744.0,15144.0,8488.0,913.0,77.0,80.0
896529,County,2020/10/07,36.0,NY,36077.0,Otsego County,15135.0,44614.0,184571.0,32712.0,35366.0,22787.0,30736.0,40507.0,12061.0,8781.0,1417.0,131.0,73.0
899857,County,2020/10/08,36.0,NY,36077.0,Otsego County,15670.0,44079.0,179430.0,32098.0,32663.0,22368.0,27515.0,40684.0,14996.0,7495.0,1354.0,185.0,72.0
902561,County,2020/10/09,36.0,NY,36077.0,Otsego County,15241.0,44508.0,177291.0,35252.0,31187.0,18773.0,27608.0,40391.0,14426.0,8295.0,1212.0,83.0,64.0
905743,County,2020/10/10,36.0,NY,36077.0,Otsego County,16702.0,43047.0,178115.0,37178.0,34097.0,16134.0,25420.0,44509.0,13016.0,6389.0,1209.0,112.0,51.0
908432,County,2020/10/11,36.0,NY,36077.0,Otsego County,16250.0,43499.0,171829.0,43749.0,26156.0,16410.0,26378.0,33480.0,12892.0,10865.0,1700.0,147.0,52.0
911627,County,2020/10/12,36.0,NY,36077.0,Otsego County,16206.0,43543.0,178641.0,36911.0,34281.0,17648.0,29091.0,37987.0,12074.0,8735.0,1685.0,181.0,48.0
915147,County,2020/10/13,36.0,NY,36077.0,Otsego County,14797.0,44952.0,178202.0,35184.0,35777.0,15363.0,26386.0,38565.0,16764.0,8334.0,1501.0,220.0,108.0
917973,County,2020/10/14,36.0,NY,36077.0,Otsego County,14520.0,45229.0,176224.0,38019.0,29350.0,23075.0,25203.0,36038.0,15107.0,7759.0,1331.0,231.0,111.0
920964,County,2020/10/15,36.0,NY,36077.0,Otsego County,14611.0,45138.0,169693.0,31433.0,28292.0,19628.0,27814.0,37044.0,15943.0,7624.0,1506.0,310.0,99.0
924356,County,2020/10/16,36.0,NY,36077.0,Otsego County,14219.0,45530.0,178021.0,36436.0,31332.0,18890.0,28194.0,40073.0,14656.0,6971.0,1120.0,240.0,109.0
926915,County,2020/10/17,36.0,NY,36077.0,Otsego County,15496.0,44253.0,172918.0,30320.0,27821.0,27777.0,26870.0,36927.0,12400.0,9270.0,1302.0,151.0,80.0
931150,County,2020/10/18,36.0,NY,36077.0,Otsego County,15903.0,43846.0,171715.0,33488.0,26389.0,27895.0,25458.0,34798.0,13591.0,7938.0,1838.0,255.0,65.0
933835,County,2020/10/19,36.0,NY,36077.0,Otsego County,15325.0,44424.0,184994.0,38896.0,30981.0,19904.0,29918.0,41355.0,13837.0,8717.0,1184.0,135.0,67.0
937111,County,2020/10/20,36.0,NY,36077.0,Otsego County,15456.0,44293.0,178682.0,40156.0,30436.0,17498.0,30387.0,37701.0,12534.0,8744.0,993.0,148.0,85.0
940185,County,2020/10/21,36.0,NY,36077.0,Otsego County,15863.0,43886.0,177667.0,42962.0,30984.0,18573.0,28573.0,32579.0,13332.0,9740.0,681.0,117.0,126.0
943344,County,2020/10/22,36.0,NY,36077.0,Otsego County,15561.0,44188.0,200142.0,35492.0,38038.0,24739.0,35150.0,41510.0,13404.0,10514.0,1163.0,84.0,48.0
946692,County,2020/10/23,36.0,NY,36077.0,Otsego County,14425.0,45324.0,205349.0,40020.0,31559.0,23314.0,37636.0,46138.0,15396.0,9887.0,1148.0,186.0,65.0
950254,County,2020/10/24,36.0,NY,36077.0,Otsego County,15636.0,44113.0,188886.0,38970.0,32841.0,24278.0,31146.0,38953.0,12749.0,9018.0,637.0,215.0,79.0
