,Level,Date,State FIPS,State Postal Code,County FIPS,County Name,Population Staying at Home,Population Not Staying at Home,Number of Trips,Number of Trips <1,Number of Trips 1-3,Number of Trips 3-5,Number of Trips 5-10,Number of Trips 10-25,Number of Trips 25-50,Number of Trips 50-100,Number of Trips 100-250,Number of Trips 250-500,Number of Trips >=500
1203,County,2020/01/01,24.0,MD,24023.0,Garrett County,5052.0,24111.0,92430.0,14736.0,23485.0,12411.0,20867.0,13916.0,4514.0,1456.0,759.0,222.0,64.0
3443,County,2020/01/02,24.0,MD,24023.0,Garrett County,4560.0,24603.0,124545.0,24598.0,29383.0,16533.0,23178.0,20145.0,8305.0,1187.0,974.0,111.0,131.0
7416,County,2020/01/03,24.0,MD,24023.0,Garrett County,4319.0,24844.0,120046.0,21240.0,28779.0,14496.0,24104.0,19093.0,8647.0,2431.0,996.0,166.0,94.0
12126,County,2020/01/04,24.0,MD,24023.0,Garrett County,4832.0,24331.0,115024.0,20838.0,27196.0,14664.0,22590.0,19472.0,8322.0,678.0,1048.0,148.0,68.0
13979,County,2020/01/05,24.0,MD,24023.0,Garrett County,5326.0,23837.0,105304.0,18927.0,30594.0,12024.0,17971.0,17172.0,6427.0,1185.0,920.0,35.0,49.0
18200,County,2020/01/06,24.0,MD,24023.0,Garrett County,4578.0,24585.0,120872.0,24088.0,30062.0,14292.0,21337.0,19906.0,8435.0,1766.0,796.0,106.0,84.0
21346,County,2020/01/07,24.0,MD,24023.0,Garrett County,4629.0,24534.0,106206.0,20165.0,28748.0,11984.0,17118.0,19270.0,6137.0,1519.0,987.0,210.0,68.0
22973,County,2020/01/08,24.0,MD,24023.0,Garrett County,4463.0,24700.0,120653.0,21466.0,31777.0,13320.0,24456.0,17644.0,8315.0,2277.0,1181.0,207.0,10.0
27721,County,2020/01/09,24.0,MD,24023.0,Garrett County,4661.0,24502.0,122668.0,22105.0,28344.0,14723.0,24515.0,20573.0,10010.0,1386.0,808.0,163.0,41.0
30928,County,2020/01/10,24.0,MD,24023.0,Garrett County,4374.0,24789.0,123927.0,23680.0,31483.0,13353.0,24109.0,19770.0,8092.0,2265.0,940.0,133.0,102.0
34172,County,2020/01/11,24.0,MD,24023.0,Garrett County,4981.0,24182.0,124348.0,24031.0,33091.0,15834.0,21118.0,18492.0,8905.0,1670.0,1050.0,61.0,96.0
37291,County,2020/01/12,24.0,MD,24023.0,Garrett County,5151.0,24012.0,113019.0,21720.0,32936.0,11680.0,21857.0,17189.0,5304.0,1254.0,876.0,134.0,69.0
40539,County,2020/01/13,24.0,MD,24023.0,Garrett County,4588.0,24575.0,120224.0,22143.0,28321.0,14682.0,25134.0,20006.0,7312.0,1624.0,855.0,87.0,60.0
43688,County,2020/01/14,24.0,MD,24023.0,Garrett County,4676.0,24487.0,113945.0,23057.0,28976.0,10948.0,19886.0,19123.0,9042.0,1888.0,787.0,158.0,80.0
46894,County,2020/01/15,24.0,MD,24023.0,Garrett County,4321.0,24842.0,117281.0,22930.0,29704.0,12351.0,22295.0,18630.0,9026.0,1243.0,814.0,191.0,97.0
50050,County,2020/01/16,24.0,MD,24023.0,Garrett County,4319.0,24844.0,117324.0,20992.0,27457.0,13335.0,23715.0,18773.0,10193.0,1638.0,1025.0,116.0,80.0
53337,County,2020/01/17,24.0,MD,24023.0,Garrett County,4035.0,25128.0,120242.0,22364.0,30827.0,13198.0,22807.0,19139.0,8487.0,2031.0,1178.0,160.0,51.0
54910,County,2020/01/18,24.0,MD,24023.0,Garrett County,5122.0,24041.0,108159.0,20703.0,32357.0,15564.0,18368.0,16068.0,3364.0,894.0,645.0,134.0,62.0
58057,County,2020/01/19,24.0,MD,24023.0,Garrett County,5262.0,23901.0,97559.0,18494.0,27277.0,10723.0,16926.0,16634.0,4365.0,1788.0,1121.0,149.0,82.0
61290,County,2020/01/20,24.0,MD,24023.0,Garrett County,4801.0,24362.0,102394.0,19115.0,26984.0,10849.0,18089.0,18372.0,6547.0,1238.0,909.0,234.0,57.0
66067,County,2020/01/21,24.0,MD,24023.0,Garrett County,4499.0,24664.0,116813.0,22814.0,30021.0,11061.0,22273.0,19286.0,8268.0,1829.0,1081.0,68.0,112.0
69257,County,2020/01/22,24.0,MD,24023.0,Garrett County,4460.0,24703.0,115515.0,21006.0,29843.0,13953.0,20994.0,20408.0,6281.0,1565.0,1363.0,83.0,19.0
70882,County,2020/01/23,24.0,MD,24023.0,Garrett County,4307.0,24856.0,120349.0,22358.0,31573.0,14413.0,21439.0,19321.0,8374.0,1684.0,1052.0,75.0,60.0
75596,County,2020/01/24,24.0,MD,24023.0,Garrett County,4333.0,24830.0,117564.0,21164.0,30624.0,12720.0,22178.0,20194.0,7406.0,1893.0,1150.0,144.0,91.0
78831,County,2020/01/25,24.0,MD,24023.0,Garrett County,4977.0,24186.0,109632.0,17667.0,29512.0,14836.0,20166.0,17380.0,7300.0,1751.0,898.0,102.0,20.0
81053,County,2020/01/26,24.0,MD,24023.0,Garrett County,5019.0,24144.0,100518.0,17632.0,22218.0,13332.0,22479.0,17473.0,4568.0,1352.0,1264.0,152.0,48.0
83601,County,2020/01/27,24.0,MD,24023.0,Garrett County,4457.0,24706.0,115123.0,19957.0,27367.0,14722.0,22986.0,20586.0,6752.0,1733.0,831.0,97.0,92.0
86868,County,2020/01/28,24.0,MD,24023.0,Garrett County,4624.0,24539.0,111479.0,20474.0,29048.0,13125.0,20653.0,19223.0,6363.0,1555.0,859.0,101.0,78.0
91601,County,2020/01/29,24.0,MD,24023.0,Garrett County,4588.0,24575.0,118703.0,25151.0,26982.0,14331.0,21650.0,18415.0,9521.0,1623.0,777.0,144.0,109.0
93327,County,2020/01/30,24.0,MD,24023.0,Garrett County,4562.0,24601.0,111662.0,22749.0,27211.0,11000.0,20949.0,19940.0,6666.0,1684.0,1106.0,231.0,126.0
98001,County,2020/01/31,24.0,MD,24023.0,Garrett County,4426.0,24737.0,114560.0,21021.0,27495.0,14454.0,19932.0,19613.0,8211.0,2302.0,1291.0,94.0,147.0
101189,County,2020/02/01,24.0,MD,24023.0,Garrett County,4601.0,24562.0,105724.0,16943.0,26990.0,12964.0,18330.0,18552.0,8049.0,2450.0,1096.0,197.0,153.0
102807,County,2020/02/02,24.0,MD,24023.0,Garrett County,4831.0,24332.0,98735.0,16417.0,27029.0,12252.0,18336.0,15387.0,5635.0,2372.0,1009.0,228.0,70.0
107594,County,2020/02/03,24.0,MD,24023.0,Garrett County,4106.0,25057.0,122202.0,23232.0,30498.0,13420.0,24241.0,19845.0,8237.0,1446.0,1008.0,102.0,173.0
109211,County,2020/02/04,24.0,MD,24023.0,Garrett County,4135.0,25028.0,114853.0,20765.0,29052.0,12905.0,21461.0,18807.0,8343.0,1908.0,1353.0,127.0,132.0
113934,County,2020/02/05,24.0,MD,24023.0,Garrett County,4255.0,24908.0,119178.0,20520.0,30342.0,13506.0,20759.0,21725.0,8378.0,2212.0,1467.0,150.0,119.0
115501,County,2020/02/06,24.0,MD,24023.0,Garrett County,3868.0,25295.0,114501.0,21076.0,31544.0,10981.0,20381.0,19785.0,7481.0,1853.0,1105.0,190.0,105.0
120394,County,2020/02/07,24.0,MD,24023.0,Garrett County,4244.0,24919.0,110680.0,17276.0,29275.0,14807.0,19267.0,17894.0,8334.0,2026.0,1556.0,153.0,92.0
123554,County,2020/02/08,24.0,MD,24023.0,Garrett County,4662.0,24501.0,120556.0,24275.0,30648.0,15132.0,23467.0,18638.0,5065.0,1935.0,1150.0,168.0,78.0
125216,County,2020/02/09,24.0,MD,24023.0,Garrett County,5269.0,23894.0,99388.0,15716.0,24314.0,13169.0,21925.0,15429.0,5667.0,1845.0,1037.0,176.0,110.0
129512,County,2020/02/10,24.0,MD,24023.0,Garrett County,4082.0,25081.0,109212.0,16335.0,30091.0,12897.0,20348.0,16960.0,8922.0,2159.0,1229.0,100.0,171.0
133762,County,2020/02/11,24.0,MD,24023.0,Garrett County,3836.0,25327.0,117496.0,19262.0,29581.0,14366.0,21032.0,22106.0,8335.0,1765.0,778.0,130.0,141.0
136252,County,2020/02/12,24.0,MD,24023.0,Garrett County,3749.0,25414.0,118029.0,19102.0,30156.0,13760.0,22475.0,20767.0,7974.0,2127.0,1405.0,173.0,90.0
137947,County,2020/02/13,24.0,MD,24023.0,Garrett County,3552.0,25611.0,113845.0,16118.0,30512.0,13265.0,21108.0,19699.0,8567.0,2632.0,1561.0,128.0,255.0
141054,County,2020/02/14,24.0,MD,24023.0,Garrett County,3469.0,25694.0,122745.0,19580.0,27830.0,15360.0,22478.0,23433.0,9101.0,2606.0,1853.0,246.0,258.0
145932,County,2020/02/15,24.0,MD,24023.0,Garrett County,4244.0,24919.0,115601.0,21866.0,24338.0,16124.0,20838.0,21584.0,7497.0,2011.0,999.0,156.0,188.0
147539,County,2020/02/16,24.0,MD,24023.0,Garrett County,4503.0,24660.0,100789.0,15749.0,26058.0,12462.0,21490.0,15726.0,5648.0,1866.0,1338.0,170.0,282.0
150713,County,2020/02/17,24.0,MD,24023.0,Garrett County,5228.0,23935.0,98428.0,16621.0,26624.0,10769.0,17567.0,16978.0,6778.0,1824.0,961.0,138.0,168.0
153927,County,2020/02/18,24.0,MD,24023.0,Garrett County,3912.0,25251.0,106793.0,15079.0,24141.0,14369.0,21240.0,20045.0,8586.0,1651.0,1287.0,143.0,252.0
157122,County,2020/02/19,24.0,MD,24023.0,Garrett County,3832.0,25331.0,121276.0,22352.0,33631.0,13643.0,20241.0,20565.0,8297.0,1596.0,685.0,166.0,100.0
161883,County,2020/02/20,24.0,MD,24023.0,Garrett County,4023.0,25140.0,108100.0,19510.0,26692.0,13223.0,19222.0,18852.0,7944.0,1666.0,730.0,175.0,86.0
163461,County,2020/02/21,24.0,MD,24023.0,Garrett County,3831.0,25332.0,118206.0,20056.0,29364.0,13741.0,22041.0,20038.0,9180.0,2397.0,1008.0,265.0,116.0
166655,County,2020/02/22,24.0,MD,24023.0,Garrett County,4186.0,24977.0,111435.0,16585.0,27542.0,13325.0,21587.0,20332.0,8703.0,2057.0,916.0,220.0,168.0
169882,County,2020/02/23,24.0,MD,24023.0,Garrett County,4554.0,24609.0,103868.0,18472.0,26406.0,11544.0,19413.0,19356.0,4945.0,2101.0,1440.0,84.0,107.0
174665,County,2020/02/24,24.0,MD,24023.0,Garrett County,3856.0,25307.0,115503.0,22899.0,27626.0,14292.0,19769.0,20100.0,8508.0,1335.0,742.0,112.0,120.0
176285,County,2020/02/25,24.0,MD,24023.0,Garrett County,3665.0,25498.0,121330.0,19662.0,30526.0,12940.0,22506.0,22237.0,9635.0,2641.0,940.0,134.0,109.0
180067,County,2020/02/26,24.0,MD,24023.0,Garrett County,4042.0,25121.0,148352.0,25309.0,43823.0,16074.0,27508.0,25774.0,6979.0,2145.0,571.0,71.0,98.0
182072,County,2020/02/27,24.0,MD,24023.0,Garrett County,4093.0,25070.0,108521.0,16978.0,27212.0,14139.0,21738.0,19157.0,6744.0,1681.0,666.0,83.0,123.0
187483,County,2020/02/28,24.0,MD,24023.0,Garrett County,3943.0,25220.0,120770.0,20854.0,30400.0,15230.0,21984.0,21368.0,8267.0,1707.0,820.0,74.0,66.0
190580,County,2020/02/29,24.0,MD,24023.0,Garrett County,4058.0,25105.0,113861.0,18857.0,27804.0,13163.0,20146.0,21884.0,8975.0,1969.0,878.0,105.0,80.0
192252,County,2020/03/01,24.0,MD,24023.0,Garrett County,4664.0,24499.0,117031.0,20968.0,28583.0,15278.0,22689.0,19142.0,6540.0,2619.0,1036.0,64.0,112.0
195427,County,2020/03/02,24.0,MD,24023.0,Garrett County,4060.0,25103.0,130977.0,24703.0,30826.0,13244.0,24571.0,25169.0,9421.0,2026.0,844.0,77.0,96.0
200112,County,2020/03/03,24.0,MD,24023.0,Garrett County,3813.0,25350.0,127386.0,20803.0,29163.0,17572.0,22071.0,23712.0,10218.0,2681.0,1030.0,19.0,117.0
203415,County,2020/03/04,24.0,MD,24023.0,Garrett County,3699.0,25464.0,138794.0,25413.0,30141.0,17182.0,26010.0,24647.0,11576.0,2714.0,892.0,137.0,82.0
206618,County,2020/03/05,24.0,MD,24023.0,Garrett County,3588.0,25575.0,128892.0,26789.0,29543.0,12325.0,22940.0,22935.0,10987.0,1848.0,1209.0,94.0,222.0
208100,County,2020/03/06,24.0,MD,24023.0,Garrett County,3667.0,25496.0,129521.0,25082.0,28226.0,16557.0,23650.0,21904.0,9657.0,3040.0,1099.0,213.0,93.0
211401,County,2020/03/07,24.0,MD,24023.0,Garrett County,4176.0,24987.0,130417.0,19568.0,34058.0,16734.0,25515.0,25129.0,6657.0,1601.0,864.0,94.0,197.0
216175,County,2020/03/08,24.0,MD,24023.0,Garrett County,4437.0,24726.0,119168.0,18721.0,32457.0,13830.0,23329.0,19437.0,7950.0,2022.0,972.0,202.0,248.0
219374,County,2020/03/09,24.0,MD,24023.0,Garrett County,4020.0,25143.0,140708.0,26074.0,29672.0,19203.0,27176.0,25806.0,9462.0,2081.0,1004.0,58.0,172.0
221003,County,2020/03/10,24.0,MD,24023.0,Garrett County,3907.0,25256.0,124788.0,22906.0,28429.0,15239.0,23678.0,23868.0,7664.0,1811.0,837.0,155.0,201.0
224192,County,2020/03/11,24.0,MD,24023.0,Garrett County,3698.0,25465.0,159927.0,24999.0,38081.0,19018.0,32864.0,31027.0,9150.0,3186.0,1026.0,299.0,277.0
228888,County,2020/03/12,24.0,MD,24023.0,Garrett County,3743.0,25420.0,140298.0,26609.0,32677.0,17424.0,31367.0,21350.0,7400.0,1399.0,1488.0,326.0,258.0
232157,County,2020/03/13,24.0,MD,24023.0,Garrett County,3586.0,25577.0,138523.0,18719.0,34561.0,15240.0,30860.0,24745.0,10641.0,1894.0,1673.0,0.0,190.0
235212,County,2020/03/14,24.0,MD,24023.0,Garrett County,4482.0,24681.0,134673.0,17566.0,41451.0,12510.0,28612.0,27346.0,4544.0,1794.0,485.0,107.0,258.0
236971,County,2020/03/15,24.0,MD,24023.0,Garrett County,5521.0,23642.0,100192.0,15692.0,26647.0,10927.0,20827.0,17332.0,6094.0,1219.0,900.0,185.0,369.0
241732,County,2020/03/16,24.0,MD,24023.0,Garrett County,4741.0,24422.0,124697.0,21123.0,28635.0,15929.0,21396.0,24870.0,8855.0,2322.0,1234.0,213.0,120.0
243348,County,2020/03/17,24.0,MD,24023.0,Garrett County,5225.0,23938.0,124134.0,18957.0,28684.0,17927.0,21995.0,23917.0,9235.0,1866.0,1181.0,228.0,144.0
248079,County,2020/03/18,24.0,MD,24023.0,Garrett County,5352.0,23811.0,116564.0,19874.0,29206.0,14905.0,20431.0,19744.0,9102.0,1787.0,1228.0,187.0,100.0
251334,County,2020/03/19,24.0,MD,24023.0,Garrett County,5312.0,23851.0,117449.0,19104.0,26614.0,14421.0,24744.0,22476.0,7727.0,1242.0,844.0,156.0,121.0
252943,County,2020/03/20,24.0,MD,24023.0,Garrett County,5308.0,23855.0,124999.0,19362.0,28313.0,18864.0,25466.0,20638.0,7963.0,2483.0,1731.0,98.0,81.0
256086,County,2020/03/21,24.0,MD,24023.0,Garrett County,6217.0,22946.0,117418.0,19354.0,28821.0,16543.0,24975.0,19185.0,6433.0,1061.0,879.0,25.0,142.0
260888,County,2020/03/22,24.0,MD,24023.0,Garrett County,5782.0,23381.0,103476.0,20496.0,27818.0,17447.0,16669.0,15356.0,3551.0,909.0,1105.0,24.0,101.0
262526,County,2020/03/23,24.0,MD,24023.0,Garrett County,5594.0,23569.0,109137.0,16806.0,30793.0,14900.0,19377.0,18879.0,5632.0,1566.0,952.0,110.0,122.0
267281,County,2020/03/24,24.0,MD,24023.0,Garrett County,5546.0,23617.0,97911.0,15155.0,26163.0,14112.0,17088.0,16924.0,6035.0,1159.0,1080.0,124.0,71.0
268912,County,2020/03/25,24.0,MD,24023.0,Garrett County,5562.0,23601.0,94259.0,14845.0,20624.0,13728.0,17923.0,18732.0,6387.0,981.0,696.0,283.0,60.0
273652,County,2020/03/26,24.0,MD,24023.0,Garrett County,5327.0,23836.0,106926.0,18311.0,24120.0,12101.0,23434.0,19791.0,6747.0,1206.0,870.0,221.0,125.0
275292,County,2020/03/27,24.0,MD,24023.0,Garrett County,5362.0,23801.0,109156.0,18712.0,24876.0,12045.0,23963.0,22292.0,4697.0,1168.0,1128.0,110.0,165.0
280053,County,2020/03/28,24.0,MD,24023.0,Garrett County,5267.0,23896.0,98462.0,15914.0,26120.0,13324.0,20375.0,16351.0,3744.0,1023.0,1398.0,119.0,94.0
281688,County,2020/03/29,24.0,MD,24023.0,Garrett County,5638.0,23525.0,92114.0,15331.0,24272.0,14449.0,19397.0,13830.0,3097.0,732.0,667.0,137.0,202.0
284833,County,2020/03/30,24.0,MD,24023.0,Garrett County,5112.0,24051.0,97092.0,16039.0,23042.0,13858.0,17250.0,18521.0,5801.0,1210.0,1122.0,85.0,164.0
289636,County,2020/03/31,24.0,MD,24023.0,Garrett County,5806.0,23357.0,89930.0,15139.0,21805.0,10949.0,17974.0,15216.0,5665.0,1266.0,1587.0,169.0,160.0
292835,County,2020/04/01,24.0,MD,24023.0,Garrett County,5370.0,23793.0,89101.0,13495.0,19164.0,10941.0,19236.0,17642.0,5498.0,1448.0,1383.0,129.0,165.0
294464,County,2020/04/02,24.0,MD,24023.0,Garrett County,5798.0,23365.0,98653.0,19459.0,18173.0,13469.0,21740.0,17841.0,5352.0,1043.0,1316.0,171.0,89.0
299224,County,2020/04/03,24.0,MD,24023.0,Garrett County,5393.0,23770.0,108610.0,17414.0,25251.0,14826.0,22563.0,20279.0,4993.0,1973.0,1199.0,58.0,54.0
302404,County,2020/04/04,24.0,MD,24023.0,Garrett County,5798.0,23365.0,100626.0,16999.0,25947.0,15976.0,22952.0,13934.0,3058.0,654.0,794.0,131.0,181.0
304032,County,2020/04/05,24.0,MD,24023.0,Garrett County,5751.0,23412.0,86485.0,10213.0,23067.0,15007.0,20674.0,13185.0,2296.0,830.0,958.0,133.0,122.0
307241,County,2020/04/06,24.0,MD,24023.0,Garrett County,5143.0,24020.0,108249.0,23053.0,23465.0,13731.0,22097.0,17299.0,6298.0,1191.0,995.0,79.0,41.0
310434,County,2020/04/07,24.0,MD,24023.0,Garrett County,5441.0,23722.0,98017.0,16162.0,23861.0,14104.0,19187.0,17699.0,4665.0,956.0,1251.0,78.0,54.0
313628,County,2020/04/08,24.0,MD,24023.0,Garrett County,5741.0,23422.0,117959.0,27060.0,28210.0,12614.0,20890.0,20833.0,6305.0,988.0,785.0,162.0,112.0
316797,County,2020/04/09,24.0,MD,24023.0,Garrett County,5675.0,23488.0,109961.0,19734.0,27086.0,15941.0,20318.0,19264.0,5700.0,934.0,757.0,83.0,144.0
320024,County,2020/04/10,24.0,MD,24023.0,Garrett County,5474.0,23689.0,98572.0,16126.0,21844.0,14706.0,20421.0,18633.0,4765.0,1139.0,741.0,152.0,45.0
323209,County,2020/04/11,24.0,MD,24023.0,Garrett County,5404.0,23759.0,105326.0,18189.0,30445.0,16562.0,17576.0,18013.0,3684.0,312.0,332.0,83.0,130.0
327942,County,2020/04/12,24.0,MD,24023.0,Garrett County,6306.0,22857.0,82392.0,15680.0,22687.0,13775.0,14557.0,12350.0,2221.0,402.0,439.0,192.0,89.0
331165,County,2020/04/13,24.0,MD,24023.0,Garrett County,5652.0,23511.0,91485.0,14018.0,20088.0,12696.0,19375.0,17260.0,5964.0,1047.0,909.0,59.0,69.0
332743,County,2020/04/14,24.0,MD,24023.0,Garrett County,5016.0,24147.0,127200.0,23941.0,34001.0,16569.0,26570.0,17064.0,6864.0,1361.0,744.0,36.0,50.0
335969,County,2020/04/15,24.0,MD,24023.0,Garrett County,4778.0,24385.0,134788.0,22842.0,41198.0,17487.0,23871.0,20692.0,5569.0,2106.0,880.0,70.0,73.0
340687,County,2020/04/16,24.0,MD,24023.0,Garrett County,5132.0,24031.0,135000.0,22079.0,37782.0,17130.0,29433.0,20230.0,6410.0,1126.0,684.0,75.0,51.0
343950,County,2020/04/17,24.0,MD,24023.0,Garrett County,4752.0,24411.0,144404.0,31928.0,40802.0,16236.0,25787.0,23155.0,4001.0,1036.0,1180.0,207.0,72.0
347097,County,2020/04/18,24.0,MD,24023.0,Garrett County,5288.0,23875.0,143461.0,26737.0,45277.0,16181.0,29433.0,17496.0,5759.0,615.0,1963.0,0.0,0.0
348748,County,2020/04/19,24.0,MD,24023.0,Garrett County,5551.0,23612.0,128195.0,26009.0,44251.0,16314.0,22339.0,15314.0,2570.0,474.0,671.0,253.0,0.0
353529,County,2020/04/20,24.0,MD,24023.0,Garrett County,5043.0,24120.0,135150.0,22569.0,37452.0,20675.0,25024.0,18739.0,6917.0,2319.0,1174.0,103.0,178.0
356715,County,2020/04/21,24.0,MD,24023.0,Garrett County,5323.0,23840.0,99950.0,20722.0,24416.0,11787.0,17525.0,17343.0,5131.0,1494.0,1261.0,133.0,138.0
359871,County,2020/04/22,24.0,MD,24023.0,Garrett County,5577.0,23586.0,108779.0,17807.0,25013.0,13056.0,22675.0,20948.0,6692.0,1243.0,1104.0,153.0,88.0
361449,County,2020/04/23,24.0,MD,24023.0,Garrett County,5376.0,23787.0,112965.0,22283.0,29813.0,13312.0,20276.0,17170.0,6774.0,2405.0,731.0,99.0,102.0
366337,County,2020/04/24,24.0,MD,24023.0,Garrett County,5090.0,24073.0,111481.0,17905.0,26810.0,13675.0,24315.0,20858.0,6325.0,1266.0,220.0,24.0,83.0
367870,County,2020/04/25,24.0,MD,24023.0,Garrett County,5515.0,23648.0,117267.0,21285.0,34364.0,12725.0,26021.0,15532.0,5238.0,1196.0,671.0,49.0,186.0
372639,County,2020/04/26,24.0,MD,24023.0,Garrett County,6244.0,22919.0,89276.0,17112.0,24595.0,12344.0,17034.0,10566.0,4839.0,1735.0,904.0,33.0,114.0
374313,County,2020/04/27,24.0,MD,24023.0,Garrett County,5116.0,24047.0,104468.0,18208.0,23689.0,14446.0,21276.0,17705.0,6805.0,1246.0,973.0,71.0,49.0
377464,County,2020/04/28,24.0,MD,24023.0,Garrett County,5639.0,23524.0,110831.0,16991.0,30738.0,14429.0,19384.0,19138.0,7450.0,1908.0,638.0,102.0,53.0
380716,County,2020/04/29,24.0,MD,24023.0,Garrett County,5091.0,24072.0,124417.0,24223.0,31525.0,17299.0,20133.0,21220.0,7629.0,1698.0,589.0,86.0,15.0
383864,County,2020/04/30,24.0,MD,24023.0,Garrett County,5523.0,23640.0,108537.0,20583.0,28416.0,13366.0,18877.0,19103.0,6197.0,1393.0,395.0,173.0,34.0
387088,County,2020/05/01,24.0,MD,24023.0,Garrett County,5025.0,24138.0,125658.0,20376.0,36145.0,16026.0,22500.0,22447.0,5654.0,1500.0,960.0,21.0,29.0
390271,County,2020/05/02,24.0,MD,24023.0,Garrett County,5288.0,23875.0,116413.0,22259.0,34357.0,14905.0,17961.0,20476.0,4982.0,680.0,723.0,23.0,47.0
393484,County,2020/05/03,24.0,MD,24023.0,Garrett County,5645.0,23518.0,101765.0,20277.0,31217.0,9559.0,19408.0,15940.0,3204.0,1036.0,882.0,166.0,76.0
398238,County,2020/05/04,24.0,MD,24023.0,Garrett County,4991.0,24172.0,110514.0,21221.0,25182.0,16448.0,18271.0,20444.0,6632.0,1359.0,774.0,136.0,47.0
399865,County,2020/05/05,24.0,MD,24023.0,Garrett County,5107.0,24056.0,125362.0,25344.0,32068.0,17749.0,21955.0,19661.0,6824.0,987.0,700.0,44.0,30.0
404620,County,2020/05/06,24.0,MD,24023.0,Garrett County,5184.0,23979.0,116093.0,21720.0,28997.0,15366.0,18133.0,21536.0,8157.0,1465.0,469.0,165.0,85.0
406247,County,2020/05/07,24.0,MD,24023.0,Garrett County,4990.0,24173.0,121761.0,25479.0,30190.0,16448.0,20577.0,20374.0,6529.0,1412.0,632.0,79.0,41.0
411026,County,2020/05/08,24.0,MD,24023.0,Garrett County,5109.0,24054.0,117607.0,23864.0,30994.0,14436.0,22470.0,18344.0,5493.0,1381.0,513.0,41.0,71.0
414174,County,2020/05/09,24.0,MD,24023.0,Garrett County,5404.0,23759.0,113460.0,18668.0,33099.0,15011.0,20570.0,17262.0,7118.0,962.0,691.0,47.0,32.0
415835,County,2020/05/10,24.0,MD,24023.0,Garrett County,5538.0,23625.0,117492.0,19226.0,34750.0,14350.0,25101.0,18520.0,4127.0,592.0,719.0,45.0,62.0
420633,County,2020/05/11,24.0,MD,24023.0,Garrett County,4724.0,24439.0,114564.0,20906.0,28615.0,15548.0,17455.0,19932.0,9112.0,1663.0,1179.0,103.0,51.0
422213,County,2020/05/12,24.0,MD,24023.0,Garrett County,4312.0,24851.0,117603.0,22634.0,29918.0,13703.0,20759.0,17587.0,9410.0,2443.0,939.0,173.0,37.0
425369,County,2020/05/13,24.0,MD,24023.0,Garrett County,4330.0,24833.0,121263.0,27691.0,29130.0,14774.0,18374.0,18341.0,8214.0,2864.0,1622.0,181.0,72.0
430178,County,2020/05/14,24.0,MD,24023.0,Garrett County,4314.0,24849.0,117390.0,25462.0,25485.0,14634.0,21936.0,17122.0,8605.0,2692.0,1139.0,244.0,71.0
431807,County,2020/05/15,24.0,MD,24023.0,Garrett County,4423.0,24740.0,122242.0,29272.0,26560.0,16230.0,22178.0,17311.0,6960.0,2333.0,1093.0,233.0,72.0
435030,County,2020/05/16,24.0,MD,24023.0,Garrett County,4421.0,24742.0,116802.0,22904.0,30500.0,13493.0,23421.0,18606.0,4591.0,1776.0,1206.0,209.0,96.0
438183,County,2020/05/17,24.0,MD,24023.0,Garrett County,4009.0,25154.0,132592.0,22077.0,40077.0,17198.0,29128.0,17713.0,4309.0,1377.0,579.0,56.0,78.0
441428,County,2020/05/18,24.0,MD,24023.0,Garrett County,3726.0,25437.0,149155.0,32733.0,39168.0,16276.0,23953.0,24802.0,9781.0,1842.0,471.0,129.0,0.0
444582,County,2020/05/19,24.0,MD,24023.0,Garrett County,3838.0,25325.0,128442.0,24195.0,29468.0,15809.0,22891.0,21257.0,11493.0,2448.0,744.0,50.0,87.0
447750,County,2020/05/20,24.0,MD,24023.0,Garrett County,3507.0,25656.0,125587.0,27752.0,30227.0,12724.0,22401.0,20537.0,9993.0,1228.0,632.0,76.0,17.0
452184,County,2020/05/21,24.0,MD,24023.0,Garrett County,3896.0,25267.0,133536.0,24195.0,32649.0,15151.0,24350.0,22723.0,10818.0,2249.0,1129.0,182.0,90.0
454156,County,2020/05/22,24.0,MD,24023.0,Garrett County,3900.0,25263.0,146402.0,24920.0,40964.0,18115.0,27353.0,23114.0,8842.0,2288.0,695.0,76.0,35.0
457352,County,2020/05/23,24.0,MD,24023.0,Garrett County,3987.0,25176.0,136369.0,25147.0,35803.0,17801.0,29266.0,21333.0,4885.0,1394.0,652.0,29.0,59.0
462095,County,2020/05/24,24.0,MD,24023.0,Garrett County,4550.0,24613.0,115686.0,22554.0,32687.0,13735.0,23312.0,16290.0,4500.0,1659.0,776.0,102.0,71.0
463723,County,2020/05/25,24.0,MD,24023.0,Garrett County,4214.0,24949.0,114392.0,21774.0,33688.0,15518.0,18137.0,14065.0,7009.0,2316.0,1753.0,87.0,45.0
468554,County,2020/05/26,24.0,MD,24023.0,Garrett County,3936.0,25227.0,127095.0,27330.0,31264.0,16915.0,23199.0,17230.0,6997.0,2637.0,1307.0,119.0,97.0
470133,County,2020/05/27,24.0,MD,24023.0,Garrett County,3794.0,25369.0,130956.0,27658.0,32895.0,16073.0,24660.0,18448.0,7155.0,2483.0,1385.0,109.0,90.0
473329,County,2020/05/28,24.0,MD,24023.0,Garrett County,4074.0,25089.0,116667.0,21412.0,31901.0,14411.0,22082.0,16729.0,6324.0,2424.0,1146.0,174.0,64.0
476474,County,2020/05/29,24.0,MD,24023.0,Garrett County,4670.0,24493.0,116439.0,22661.0,32209.0,11127.0,21030.0,18316.0,7361.0,2217.0,1321.0,189.0,8.0
479661,County,2020/05/30,24.0,MD,24023.0,Garrett County,4457.0,24706.0,128381.0,26453.0,31578.0,19897.0,22252.0,18857.0,6414.0,1971.0,798.0,131.0,30.0
484427,County,2020/05/31,24.0,MD,24023.0,Garrett County,4842.0,24321.0,106848.0,19268.0,30510.0,13543.0,17602.0,17476.0,5872.0,1804.0,567.0,149.0,57.0
486056,County,2020/06/01,24.0,MD,24023.0,Garrett County,4216.0,24947.0,123520.0,28364.0,29722.0,12699.0,20425.0,20784.0,7736.0,2080.0,1475.0,198.0,37.0
490836,County,2020/06/02,24.0,MD,24023.0,Garrett County,4272.0,24891.0,128173.0,25774.0,32061.0,16411.0,22950.0,20119.0,6443.0,2468.0,1594.0,315.0,38.0
492466,County,2020/06/03,24.0,MD,24023.0,Garrett County,3657.0,25506.0,137305.0,26643.0,32200.0,16959.0,28664.0,20904.0,7928.0,2252.0,1480.0,233.0,42.0
497240,County,2020/06/04,24.0,MD,24023.0,Garrett County,3759.0,25404.0,128045.0,26190.0,29748.0,16011.0,23894.0,19349.0,8732.0,2100.0,1673.0,236.0,112.0
498880,County,2020/06/05,24.0,MD,24023.0,Garrett County,3924.0,25239.0,128977.0,26614.0,28139.0,17466.0,24715.0,19555.0,8156.0,2430.0,1661.0,176.0,65.0
502027,County,2020/06/06,24.0,MD,24023.0,Garrett County,4376.0,24787.0,128485.0,23565.0,35579.0,15824.0,25576.0,18254.0,6247.0,2399.0,802.0,128.0,111.0
506803,County,2020/06/07,24.0,MD,24023.0,Garrett County,4500.0,24663.0,109807.0,22379.0,31232.0,15421.0,16778.0,14390.0,6448.0,1238.0,1543.0,115.0,263.0
510015,County,2020/06/08,24.0,MD,24023.0,Garrett County,3827.0,25336.0,159486.0,49271.0,38525.0,17778.0,22756.0,18964.0,8389.0,2459.0,1036.0,169.0,139.0
511644,County,2020/06/09,24.0,MD,24023.0,Garrett County,4146.0,25017.0,143328.0,35452.0,38203.0,15521.0,21885.0,19929.0,8442.0,2290.0,1363.0,174.0,69.0
514802,County,2020/06/10,24.0,MD,24023.0,Garrett County,4152.0,25011.0,134838.0,30405.0,36665.0,13448.0,21787.0,20940.0,7908.0,1822.0,1704.0,125.0,34.0
518054,County,2020/06/11,24.0,MD,24023.0,Garrett County,3846.0,25317.0,135534.0,26431.0,37652.0,14911.0,25224.0,19857.0,8522.0,1443.0,1228.0,220.0,46.0
522805,County,2020/06/12,24.0,MD,24023.0,Garrett County,4173.0,24990.0,138983.0,28757.0,35195.0,17041.0,25538.0,21135.0,8199.0,1900.0,1047.0,130.0,41.0
524432,County,2020/06/13,24.0,MD,24023.0,Garrett County,4471.0,24692.0,137850.0,32941.0,34915.0,17049.0,24487.0,18527.0,5984.0,2177.0,1529.0,232.0,9.0
527627,County,2020/06/14,24.0,MD,24023.0,Garrett County,4540.0,24623.0,99029.0,19463.0,23586.0,11676.0,18915.0,14931.0,5713.0,2601.0,1923.0,173.0,48.0
532386,County,2020/06/15,24.0,MD,24023.0,Garrett County,4556.0,24607.0,117330.0,21512.0,28270.0,12598.0,21735.0,21428.0,7360.0,2838.0,1347.0,201.0,41.0
534014,County,2020/06/16,24.0,MD,24023.0,Garrett County,4481.0,24682.0,127313.0,28878.0,32719.0,14360.0,20029.0,19188.0,7600.0,2446.0,1811.0,225.0,57.0
538725,County,2020/06/17,24.0,MD,24023.0,Garrett County,4289.0,24874.0,119300.0,25647.0,27813.0,13228.0,19683.0,21247.0,7843.0,1992.0,1598.0,212.0,37.0
541920,County,2020/06/18,24.0,MD,24023.0,Garrett County,4210.0,24953.0,115573.0,21496.0,27300.0,13951.0,21678.0,16967.0,9041.0,3280.0,1618.0,185.0,57.0
545121,County,2020/06/19,24.0,MD,24023.0,Garrett County,4339.0,24824.0,107899.0,20951.0,26232.0,11364.0,22702.0,17099.0,5831.0,1892.0,1566.0,225.0,37.0
548356,County,2020/06/20,24.0,MD,24023.0,Garrett County,4570.0,24593.0,117689.0,24277.0,31191.0,14785.0,20815.0,15952.0,6831.0,1813.0,1826.0,102.0,97.0
549956,County,2020/06/21,24.0,MD,24023.0,Garrett County,4928.0,24235.0,95435.0,19014.0,25615.0,12781.0,16731.0,13426.0,4526.0,1679.0,1403.0,154.0,106.0
554736,County,2020/06/22,24.0,MD,24023.0,Garrett County,4236.0,24927.0,101207.0,20228.0,30670.0,9205.0,19168.0,12281.0,6106.0,1956.0,1358.0,117.0,118.0
556364,County,2020/06/23,24.0,MD,24023.0,Garrett County,4396.0,24767.0,124605.0,25837.0,36171.0,12594.0,23545.0,15586.0,7125.0,2119.0,1345.0,188.0,95.0
561132,County,2020/06/24,24.0,MD,24023.0,Garrett County,4614.0,24549.0,111399.0,21088.0,30467.0,11244.0,21251.0,17197.0,6741.0,1762.0,1447.0,114.0,88.0
564308,County,2020/06/25,24.0,MD,24023.0,Garrett County,4278.0,24885.0,115661.0,23701.0,32235.0,11291.0,19806.0,19016.0,5721.0,2214.0,1504.0,93.0,80.0
567556,County,2020/06/26,24.0,MD,24023.0,Garrett County,4536.0,24627.0,113842.0,22245.0,28030.0,13109.0,20855.0,20712.0,5391.0,1776.0,1430.0,205.0,89.0
569136,County,2020/06/27,24.0,MD,24023.0,Garrett County,4506.0,24657.0,106973.0,18936.0,30655.0,13301.0,21796.0,14217.0,5178.0,1442.0,1269.0,106.0,73.0
573897,County,2020/06/28,24.0,MD,24023.0,Garrett County,4354.0,24809.0,101346.0,16904.0,27753.0,12180.0,21048.0,13720.0,5602.0,1886.0,1977.0,163.0,113.0
575505,County,2020/06/29,24.0,MD,24023.0,Garrett County,4411.0,24752.0,113474.0,25543.0,27298.0,13512.0,21261.0,15409.0,6630.0,2134.0,1297.0,220.0,170.0
578710,County,2020/06/30,24.0,MD,24023.0,Garrett County,4342.0,24821.0,112997.0,25329.0,26982.0,11635.0,22518.0,16282.0,6404.0,2220.0,1380.0,135.0,112.0
581918,County,2020/07/01,24.0,MD,24023.0,Garrett County,4342.0,24821.0,111211.0,22151.0,27630.0,12537.0,22892.0,16758.0,5171.0,2102.0,1575.0,287.0,108.0
585110,County,2020/07/02,24.0,MD,24023.0,Garrett County,4139.0,25024.0,122762.0,25156.0,34214.0,11984.0,21022.0,20184.0,6072.0,2350.0,1596.0,99.0,85.0
589901,County,2020/07/03,24.0,MD,24023.0,Garrett County,5038.0,24125.0,113201.0,22120.0,27872.0,13035.0,20738.0,20595.0,5361.0,1766.0,1422.0,204.0,88.0
591496,County,2020/07/04,24.0,MD,24023.0,Garrett County,5027.0,24136.0,96846.0,18924.0,23845.0,11152.0,17741.0,17620.0,4586.0,1511.0,1217.0,174.0,76.0
596242,County,2020/07/05,24.0,MD,24023.0,Garrett County,4749.0,24414.0,104118.0,18098.0,27114.0,13016.0,19924.0,17742.0,5153.0,1389.0,1317.0,222.0,143.0
599412,County,2020/07/06,24.0,MD,24023.0,Garrett County,4510.0,24653.0,99963.0,17685.0,25117.0,13010.0,20253.0,14163.0,6090.0,2049.0,1365.0,158.0,73.0
603034,County,2020/07/07,24.0,MD,24023.0,Garrett County,4652.0,24511.0,109296.0,21077.0,28452.0,12782.0,21638.0,14904.0,6967.0,2063.0,1112.0,208.0,93.0
605749,County,2020/07/08,24.0,MD,24023.0,Garrett County,4464.0,24699.0,107706.0,21361.0,26770.0,14216.0,21026.0,14598.0,6300.0,1518.0,1661.0,172.0,84.0
607475,County,2020/07/09,24.0,MD,24023.0,Garrett County,4493.0,24670.0,111698.0,23512.0,27025.0,14364.0,19582.0,18496.0,5054.0,1829.0,1629.0,136.0,71.0
612257,County,2020/07/10,24.0,MD,24023.0,Garrett County,4345.0,24818.0,104695.0,20840.0,24105.0,14000.0,20853.0,15034.0,5735.0,2374.0,1333.0,288.0,133.0
613837,County,2020/07/11,24.0,MD,24023.0,Garrett County,4472.0,24691.0,100377.0,16358.0,27333.0,12102.0,21014.0,14911.0,4395.0,2015.0,1876.0,286.0,87.0
618610,County,2020/07/12,24.0,MD,24023.0,Garrett County,4833.0,24330.0,104526.0,18734.0,27532.0,14138.0,20690.0,13951.0,4944.0,2267.0,2012.0,133.0,125.0
620247,County,2020/07/13,24.0,MD,24023.0,Garrett County,4944.0,24219.0,103928.0,19220.0,27234.0,12460.0,19289.0,16563.0,5862.0,1351.0,1696.0,120.0,133.0
625011,County,2020/07/14,24.0,MD,24023.0,Garrett County,4676.0,24487.0,117317.0,24099.0,31015.0,12665.0,22529.0,17105.0,6352.0,1301.0,1881.0,287.0,83.0
628184,County,2020/07/15,24.0,MD,24023.0,Garrett County,4853.0,24310.0,112674.0,22525.0,29251.0,13069.0,19442.0,18983.0,5878.0,1783.0,1482.0,175.0,86.0
631450,County,2020/07/16,24.0,MD,24023.0,Garrett County,4851.0,24312.0,111356.0,22408.0,29601.0,12348.0,19588.0,18187.0,5378.0,2175.0,1474.0,112.0,85.0
633011,County,2020/07/17,24.0,MD,24023.0,Garrett County,4978.0,24185.0,110455.0,20337.0,28736.0,16035.0,18685.0,16521.0,6923.0,1555.0,1362.0,183.0,118.0
636222,County,2020/07/18,24.0,MD,24023.0,Garrett County,5361.0,23802.0,111459.0,20324.0,28247.0,15833.0,19395.0,18491.0,5530.0,2362.0,980.0,138.0,159.0
639377,County,2020/07/19,24.0,MD,24023.0,Garrett County,5088.0,24075.0,100169.0,19155.0,25575.0,12924.0,16415.0,16085.0,5378.0,2615.0,1619.0,303.0,100.0
644159,County,2020/07/20,24.0,MD,24023.0,Garrett County,4992.0,24171.0,121130.0,23615.0,30671.0,15514.0,22215.0,18958.0,6457.0,2268.0,1292.0,88.0,52.0
645787,County,2020/07/21,24.0,MD,24023.0,Garrett County,4718.0,24445.0,116083.0,24174.0,26090.0,13920.0,21429.0,20283.0,6783.0,2001.0,1140.0,178.0,85.0
648469,County,2020/07/22,24.0,MD,24023.0,Garrett County,4625.0,24538.0,118925.0,26734.0,28878.0,14276.0,20068.0,18856.0,6960.0,1789.0,1040.0,166.0,158.0
652106,County,2020/07/23,24.0,MD,24023.0,Garrett County,4570.0,24593.0,120267.0,27578.0,30618.0,12943.0,20166.0,18653.0,5989.0,2684.0,1374.0,184.0,78.0
655229,County,2020/07/24,24.0,MD,24023.0,Garrett County,4431.0,24732.0,117841.0,27465.0,28728.0,13280.0,19199.0,18850.0,6631.0,1904.0,1412.0,203.0,169.0
660201,County,2020/07/25,24.0,MD,24023.0,Garrett County,4773.0,24390.0,109152.0,22439.0,27083.0,15189.0,19051.0,15025.0,6123.0,1948.0,2044.0,177.0,73.0
663280,County,2020/07/26,24.0,MD,24023.0,Garrett County,4594.0,24569.0,118145.0,22600.0,28643.0,15168.0,22648.0,18930.0,5776.0,2021.0,2020.0,156.0,183.0
666553,County,2020/07/27,24.0,MD,24023.0,Garrett County,4561.0,24602.0,123943.0,25057.0,30159.0,15403.0,20534.0,21885.0,7571.0,1566.0,1479.0,104.0,185.0
668134,County,2020/07/28,24.0,MD,24023.0,Garrett County,4584.0,24579.0,118062.0,25209.0,24755.0,14647.0,21729.0,20714.0,7453.0,2094.0,1193.0,116.0,152.0
671340,County,2020/07/29,24.0,MD,24023.0,Garrett County,4526.0,24637.0,127050.0,28727.0,29170.0,15848.0,22094.0,18394.0,8558.0,2455.0,1518.0,140.0,146.0
674550,County,2020/07/30,24.0,MD,24023.0,Garrett County,4357.0,24806.0,119174.0,24041.0,30274.0,11219.0,24714.0,17528.0,7422.0,2160.0,1386.0,224.0,206.0
679328,County,2020/07/31,24.0,MD,24023.0,Garrett County,4583.0,24580.0,111180.0,21659.0,23280.0,12528.0,26454.0,17833.0,5312.0,2177.0,1561.0,232.0,144.0
680908,County,2020/08/01,24.0,MD,24023.0,Garrett County,4869.0,24294.0,107234.0,20683.0,29069.0,13227.0,18056.0,15486.0,5833.0,2489.0,2118.0,172.0,101.0
685689,County,2020/08/02,24.0,MD,24023.0,Garrett County,5247.0,23916.0,98727.0,19751.0,25998.0,10006.0,19242.0,14956.0,3716.0,2807.0,1879.0,152.0,220.0
688892,County,2020/08/03,24.0,MD,24023.0,Garrett County,4687.0,24476.0,119816.0,25343.0,28440.0,13662.0,23110.0,19244.0,6315.0,2052.0,1274.0,154.0,222.0
690520,County,2020/08/04,24.0,MD,24023.0,Garrett County,4430.0,24733.0,114024.0,21033.0,27800.0,12812.0,22296.0,19640.0,7232.0,1786.0,1110.0,190.0,125.0
695279,County,2020/08/05,24.0,MD,24023.0,Garrett County,4678.0,24485.0,123039.0,24280.0,31678.0,12755.0,24674.0,18657.0,7120.0,2276.0,1357.0,105.0,137.0
696889,County,2020/08/06,24.0,MD,24023.0,Garrett County,4393.0,24770.0,116022.0,23550.0,28837.0,10905.0,23313.0,18887.0,7049.0,1943.0,1181.0,238.0,119.0
700101,County,2020/08/07,24.0,MD,24023.0,Garrett County,4460.0,24703.0,118405.0,20858.0,30239.0,10788.0,23386.0,22837.0,6117.0,2423.0,1548.0,155.0,54.0
704862,County,2020/08/08,24.0,MD,24023.0,Garrett County,4687.0,24476.0,104356.0,17847.0,27512.0,12236.0,19223.0,17372.0,6415.0,1809.0,1607.0,198.0,137.0
708080,County,2020/08/09,24.0,MD,24023.0,Garrett County,4843.0,24320.0,108154.0,20428.0,28799.0,13205.0,19946.0,14878.0,5036.0,2999.0,2439.0,245.0,179.0
711250,County,2020/08/10,24.0,MD,24023.0,Garrett County,4494.0,24669.0,115343.0,20680.0,27978.0,15040.0,19922.0,19279.0,8282.0,2117.0,1752.0,168.0,125.0
714491,County,2020/08/11,24.0,MD,24023.0,Garrett County,4494.0,24669.0,125488.0,23520.0,31382.0,14579.0,21883.0,20304.0,9008.0,3259.0,1248.0,214.0,91.0
717540,County,2020/08/12,24.0,MD,24023.0,Garrett County,4382.0,24781.0,109095.0,19823.0,27419.0,11333.0,20141.0,18332.0,7339.0,2449.0,1583.0,446.0,230.0
719266,County,2020/08/13,24.0,MD,24023.0,Garrett County,4121.0,25042.0,110339.0,20721.0,20848.0,11775.0,25433.0,18485.0,8283.0,2241.0,2078.0,223.0,252.0
724010,County,2020/08/14,24.0,MD,24023.0,Garrett County,3983.0,25180.0,114993.0,21519.0,26335.0,14119.0,21585.0,20464.0,6679.0,1996.0,1797.0,247.0,252.0
727221,County,2020/08/15,24.0,MD,24023.0,Garrett County,4278.0,24885.0,100034.0,15069.0,20473.0,14918.0,22174.0,15329.0,6840.0,2683.0,1947.0,299.0,302.0
730413,County,2020/08/16,24.0,MD,24023.0,Garrett County,4962.0,24201.0,103962.0,18635.0,26779.0,11702.0,18764.0,15175.0,7384.0,2928.0,1898.0,364.0,333.0
732042,County,2020/08/17,24.0,MD,24023.0,Garrett County,4529.0,24634.0,110716.0,17155.0,27258.0,11664.0,23080.0,19295.0,7267.0,2344.0,2015.0,247.0,391.0
735208,County,2020/08/18,24.0,MD,24023.0,Garrett County,4639.0,24524.0,100998.0,17022.0,22995.0,11560.0,17627.0,19810.0,7455.0,2317.0,1504.0,281.0,427.0
738414,County,2020/08/19,24.0,MD,24023.0,Garrett County,4315.0,24848.0,120525.0,21109.0,31377.0,13616.0,20267.0,19776.0,9623.0,2413.0,1553.0,416.0,375.0
743195,County,2020/08/20,24.0,MD,24023.0,Garrett County,4133.0,25030.0,107831.0,19058.0,23474.0,14462.0,19261.0,18335.0,8687.0,2212.0,1578.0,321.0,443.0
746401,County,2020/08/21,24.0,MD,24023.0,Garrett County,4017.0,25146.0,116892.0,19974.0,27235.0,14530.0,22734.0,19753.0,8379.0,2171.0,1565.0,188.0,363.0
748029,County,2020/08/22,24.0,MD,24023.0,Garrett County,4254.0,24909.0,113149.0,17315.0,25988.0,12509.0,30631.0,16358.0,7075.0,1242.0,1446.0,165.0,420.0
752774,County,2020/08/23,24.0,MD,24023.0,Garrett County,4546.0,24617.0,92779.0,14253.0,21717.0,7791.0,24243.0,15420.0,5107.0,2132.0,1648.0,197.0,271.0
755917,County,2020/08/24,24.0,MD,24023.0,Garrett County,4457.0,24706.0,103525.0,16175.0,23292.0,10942.0,24170.0,18545.0,6580.0,1694.0,1662.0,195.0,270.0
759157,County,2020/08/25,24.0,MD,24023.0,Garrett County,4800.0,24363.0,109338.0,18029.0,27053.0,14199.0,19446.0,19039.0,7230.0,2539.0,1302.0,296.0,205.0
762317,County,2020/08/26,24.0,MD,24023.0,Garrett County,4831.0,24332.0,105540.0,19776.0,24544.0,12275.0,18155.0,18778.0,7793.0,2161.0,1520.0,249.0,289.0
763945,County,2020/08/27,24.0,MD,24023.0,Garrett County,4717.0,24446.0,107922.0,23209.0,23332.0,10533.0,19749.0,18032.0,8258.0,2577.0,1783.0,201.0,248.0
768728,County,2020/08/28,24.0,MD,24023.0,Garrett County,4439.0,24724.0,108146.0,19995.0,24570.0,12869.0,20732.0,18945.0,7399.0,1811.0,1452.0,174.0,199.0
770356,County,2020/08/29,24.0,MD,24023.0,Garrett County,4717.0,24446.0,97348.0,15510.0,23226.0,14566.0,18774.0,16338.0,5465.0,1440.0,1511.0,221.0,297.0
773563,County,2020/08/30,24.0,MD,24023.0,Garrett County,5226.0,23937.0,87041.0,15232.0,21909.0,8193.0,14932.0,15222.0,6414.0,2276.0,2226.0,341.0,296.0
776754,County,2020/08/31,24.0,MD,24023.0,Garrett County,4813.0,24350.0,92626.0,13373.0,19910.0,9247.0,20067.0,19112.0,7241.0,1639.0,1566.0,238.0,233.0
779899,County,2020/09/01,24.0,MD,24023.0,Garrett County,4971.0,24192.0,107722.0,18086.0,24971.0,13120.0,19496.0,19818.0,8289.0,2421.0,1226.0,81.0,214.0
783929,County,2020/09/02,24.0,MD,24023.0,Garrett County,4757.0,24406.0,107269.0,19801.0,24301.0,12139.0,19920.0,21152.0,6392.0,1735.0,1333.0,204.0,292.0
787881,County,2020/09/03,24.0,MD,24023.0,Garrett County,4415.0,24748.0,105928.0,19151.0,22501.0,11506.0,20484.0,20427.0,7910.0,2064.0,1334.0,195.0,356.0
789495,County,2020/09/04,24.0,MD,24023.0,Garrett County,4692.0,24471.0,103507.0,22251.0,21110.0,12007.0,16775.0,21333.0,5968.0,1705.0,1789.0,207.0,362.0
794261,County,2020/09/05,24.0,MD,24023.0,Garrett County,4712.0,24451.0,119399.0,28134.0,27057.0,14283.0,20357.0,19725.0,7112.0,1369.0,864.0,197.0,301.0
797465,County,2020/09/06,24.0,MD,24023.0,Garrett County,5346.0,23817.0,96851.0,19853.0,24418.0,11347.0,18246.0,15541.0,4893.0,1162.0,872.0,128.0,391.0
800679,County,2020/09/07,24.0,MD,24023.0,Garrett County,5276.0,23887.0,97224.0,22571.0,21492.0,10906.0,17935.0,15051.0,6340.0,1075.0,1347.0,161.0,346.0
802288,County,2020/09/08,24.0,MD,24023.0,Garrett County,4685.0,24478.0,112560.0,22248.0,26784.0,12002.0,20164.0,20386.0,6195.0,2602.0,1698.0,205.0,276.0
807069,County,2020/09/09,24.0,MD,24023.0,Garrett County,4468.0,24695.0,119493.0,23819.0,29388.0,11114.0,21606.0,21713.0,7915.0,2008.0,1355.0,262.0,313.0
808696,County,2020/09/10,24.0,MD,24023.0,Garrett County,4597.0,24566.0,110947.0,20065.0,27049.0,11908.0,20084.0,20920.0,7266.0,1856.0,1290.0,224.0,285.0
813457,County,2020/09/11,24.0,MD,24023.0,Garrett County,4575.0,24588.0,116004.0,23670.0,30172.0,11547.0,17370.0,20483.0,8148.0,3040.0,1114.0,179.0,281.0
816652,County,2020/09/12,24.0,MD,24023.0,Garrett County,4806.0,24357.0,103543.0,19421.0,23148.0,12638.0,21716.0,16835.0,5490.0,2076.0,1703.0,152.0,364.0
819835,County,2020/09/13,24.0,MD,24023.0,Garrett County,5236.0,23927.0,80782.0,12194.0,16540.0,9309.0,14817.0,14655.0,7491.0,3099.0,1831.0,291.0,555.0
821464,County,2020/09/14,24.0,MD,24023.0,Garrett County,4835.0,24328.0,112984.0,20186.0,25906.0,14346.0,19625.0,21929.0,6916.0,1607.0,1921.0,262.0,286.0
826233,County,2020/09/15,24.0,MD,24023.0,Garrett County,4580.0,24583.0,118724.0,22512.0,24217.0,11808.0,21255.0,25138.0,9043.0,2680.0,1508.0,252.0,311.0
827861,County,2020/09/16,24.0,MD,24023.0,Garrett County,4665.0,24498.0,111054.0,17811.0,22979.0,13044.0,20591.0,23068.0,8690.0,2571.0,1743.0,211.0,346.0
832604,County,2020/09/17,24.0,MD,24023.0,Garrett County,4504.0,24659.0,112278.0,17928.0,26513.0,12726.0,17754.0,23789.0,8418.0,2683.0,1950.0,154.0,363.0
834233,County,2020/09/18,24.0,MD,24023.0,Garrett County,4554.0,24609.0,117574.0,20624.0,27171.0,15061.0,18701.0,23459.0,8034.0,2347.0,1605.0,248.0,324.0
839008,County,2020/09/19,24.0,MD,24023.0,Garrett County,4675.0,24488.0,108407.0,16397.0,23303.0,14101.0,21364.0,23076.0,6823.0,1326.0,1451.0,184.0,382.0
840637,County,2020/09/20,24.0,MD,24023.0,Garrett County,5065.0,24098.0,89082.0,15780.0,21989.0,10047.0,15212.0,13617.0,7288.0,2698.0,2103.0,217.0,131.0
845424,County,2020/09/21,24.0,MD,24023.0,Garrett County,5317.0,23846.0,84653.0,17211.0,19884.0,9537.0,13208.0,14745.0,6037.0,2007.0,1700.0,178.0,146.0
847003,County,2020/09/22,24.0,MD,24023.0,Garrett County,4563.0,24600.0,104285.0,15637.0,24370.0,12997.0,20476.0,18423.0,9051.0,2119.0,998.0,155.0,59.0
851781,County,2020/09/23,24.0,MD,24023.0,Garrett County,4522.0,24641.0,105648.0,18190.0,25006.0,12252.0,21643.0,18421.0,7372.0,1441.0,1032.0,206.0,85.0
853409,County,2020/09/24,24.0,MD,24023.0,Garrett County,4418.0,24745.0,102546.0,15849.0,25699.0,10287.0,20368.0,19628.0,7083.0,1908.0,1456.0,196.0,72.0
858173,County,2020/09/25,24.0,MD,24023.0,Garrett County,4608.0,24555.0,111438.0,16939.0,26162.0,15331.0,21378.0,22074.0,6761.0,1315.0,1183.0,266.0,29.0
859801,County,2020/09/26,24.0,MD,24023.0,Garrett County,4696.0,24467.0,108955.0,19864.0,26750.0,13438.0,20483.0,17582.0,7647.0,1821.0,1142.0,141.0,87.0
862973,County,2020/09/27,24.0,MD,24023.0,Garrett County,5285.0,23878.0,92235.0,14657.0,21493.0,9629.0,18674.0,16234.0,6940.0,2525.0,1807.0,224.0,52.0
867756,County,2020/09/28,24.0,MD,24023.0,Garrett County,4750.0,24413.0,107557.0,17428.0,23012.0,13494.0,21253.0,21148.0,6612.0,2692.0,1790.0,81.0,47.0
870948,County,2020/09/29,24.0,MD,24023.0,Garrett County,4743.0,24420.0,94029.0,11153.0,19309.0,11887.0,17865.0,20737.0,9348.0,2631.0,828.0,189.0,82.0
872577,County,2020/09/30,24.0,MD,24023.0,Garrett County,4871.0,24292.0,100554.0,14972.0,17780.0,6962.0,18996.0,25905.0,11205.0,3377.0,1151.0,135.0,71.0
877317,County,2020/10/01,24.0,MD,24023.0,Garrett County,4680.0,24483.0,108461.0,16638.0,24768.0,10931.0,19007.0,22390.0,10702.0,2726.0,1007.0,180.0,112.0
878945,County,2020/10/02,24.0,MD,24023.0,Garrett County,4805.0,24358.0,102176.0,14612.0,22301.0,11892.0,21025.0,21396.0,7070.0,1958.0,1721.0,130.0,71.0
883727,County,2020/10/03,24.0,MD,24023.0,Garrett County,5450.0,23713.0,110000.0,17099.0,26361.0,11239.0,22849.0,19474.0,10107.0,2030.0,685.0,101.0,55.0
885873,County,2020/10/04,24.0,MD,24023.0,Garrett County,5398.0,23765.0,92507.0,16899.0,21660.0,11218.0,15894.0,16242.0,5997.0,2614.0,1809.0,130.0,44.0
889119,County,2020/10/05,24.0,MD,24023.0,Garrett County,5642.0,23521.0,95551.0,16884.0,22986.0,9195.0,19487.0,17483.0,6108.0,1894.0,1337.0,100.0,77.0
892421,County,2020/10/06,24.0,MD,24023.0,Garrett County,4887.0,24276.0,104459.0,17270.0,23204.0,11498.0,19956.0,21259.0,7575.0,2431.0,1054.0,153.0,59.0
895516,County,2020/10/07,24.0,MD,24023.0,Garrett County,4825.0,24338.0,109319.0,18660.0,25230.0,13039.0,20419.0,19958.0,8470.0,2134.0,1252.0,79.0,78.0
898702,County,2020/10/08,24.0,MD,24023.0,Garrett County,5037.0,24126.0,94163.0,15519.0,24174.0,8770.0,18360.0,18223.0,5538.0,1946.0,1455.0,106.0,72.0
901864,County,2020/10/09,24.0,MD,24023.0,Garrett County,4890.0,24273.0,95705.0,16449.0,23177.0,11610.0,16636.0,17890.0,6799.0,1860.0,1104.0,131.0,49.0
905059,County,2020/10/10,24.0,MD,24023.0,Garrett County,5536.0,23627.0,102105.0,17651.0,26124.0,9448.0,20579.0,18664.0,7034.0,1196.0,1252.0,93.0,64.0
909572,County,2020/10/11,24.0,MD,24023.0,Garrett County,5268.0,23895.0,85786.0,17724.0,19997.0,8982.0,15516.0,13492.0,6175.0,2324.0,1341.0,159.0,76.0
912121,County,2020/10/12,24.0,MD,24023.0,Garrett County,5015.0,24148.0,102595.0,17559.0,22512.0,12558.0,18779.0,20023.0,8103.0,1617.0,1292.0,83.0,69.0
915848,County,2020/10/13,24.0,MD,24023.0,Garrett County,4552.0,24611.0,96469.0,14685.0,22968.0,9707.0,19786.0,17992.0,7843.0,2185.0,1097.0,158.0,48.0
918618,County,2020/10/14,24.0,MD,24023.0,Garrett County,4759.0,24404.0,104212.0,18537.0,22545.0,11237.0,19226.0,20957.0,8046.0,2248.0,1277.0,87.0,52.0
921881,County,2020/10/15,24.0,MD,24023.0,Garrett County,4684.0,24479.0,91633.0,15167.0,20493.0,10460.0,15015.0,20465.0,6447.0,2223.0,1208.0,78.0,77.0
924952,County,2020/10/16,24.0,MD,24023.0,Garrett County,4754.0,24409.0,108917.0,15634.0,21898.0,15288.0,22611.0,20268.0,9301.0,2594.0,1158.0,94.0,71.0
928152,County,2020/10/17,24.0,MD,24023.0,Garrett County,5074.0,24089.0,102037.0,19058.0,26055.0,12532.0,17496.0,18272.0,6154.0,1164.0,1063.0,158.0,85.0
931807,County,2020/10/18,24.0,MD,24023.0,Garrett County,5104.0,24059.0,96337.0,15348.0,19804.0,10005.0,23068.0,16353.0,6900.0,3096.0,1598.0,126.0,39.0
934203,County,2020/10/19,24.0,MD,24023.0,Garrett County,4789.0,24374.0,107430.0,18297.0,24604.0,10467.0,21209.0,21123.0,8262.0,1845.0,1414.0,146.0,63.0
937449,County,2020/10/20,24.0,MD,24023.0,Garrett County,4913.0,24250.0,116455.0,18848.0,25949.0,12901.0,21881.0,24847.0,8960.0,1935.0,969.0,126.0,39.0
940883,County,2020/10/21,24.0,MD,24023.0,Garrett County,5039.0,24124.0,99781.0,17197.0,20082.0,11480.0,18846.0,19713.0,9043.0,2200.0,1065.0,106.0,49.0
944325,County,2020/10/22,24.0,MD,24023.0,Garrett County,4698.0,24465.0,104274.0,19379.0,25468.0,11115.0,19406.0,18375.0,7345.0,1650.0,1265.0,221.0,50.0
947345,County,2020/10/23,24.0,MD,24023.0,Garrett County,4692.0,24471.0,121926.0,20502.0,29081.0,13215.0,23173.0,23791.0,8528.0,2308.0,1137.0,131.0,60.0
950985,County,2020/10/24,24.0,MD,24023.0,Garrett County,4673.0,24490.0,110777.0,20193.0,23239.0,13887.0,22566.0,18628.0,8365.0,2422.0,1375.0,66.0,36.0
