,Level,Date,State FIPS,State Postal Code,County FIPS,County Name,Population Staying at Home,Population Not Staying at Home,Number of Trips,Number of Trips <1,Number of Trips 1-3,Number of Trips 3-5,Number of Trips 5-10,Number of Trips 10-25,Number of Trips 25-50,Number of Trips 50-100,Number of Trips 100-250,Number of Trips 250-500,Number of Trips >=500
2133,County,2020/01/01,40.0,OK,40007.0,Beaver County,1178.0,4141.0,12328.0,3369.0,1393.0,763.0,2080.0,2260.0,1447.0,573.0,409.0,31.0,3.0
4892,County,2020/01/02,40.0,OK,40007.0,Beaver County,1015.0,4304.0,14997.0,3208.0,3686.0,651.0,1590.0,2805.0,1674.0,822.0,548.0,10.0,3.0
6482,County,2020/01/03,40.0,OK,40007.0,Beaver County,897.0,4422.0,15954.0,3380.0,2560.0,819.0,1624.0,4064.0,1989.0,800.0,675.0,38.0,5.0
11637,County,2020/01/04,40.0,OK,40007.0,Beaver County,968.0,4351.0,14344.0,2327.0,2826.0,1096.0,1625.0,3149.0,1902.0,639.0,747.0,25.0,8.0
14909,County,2020/01/05,40.0,OK,40007.0,Beaver County,1051.0,4268.0,10759.0,2280.0,2256.0,756.0,1344.0,2228.0,918.0,615.0,342.0,10.0,10.0
17074,County,2020/01/06,40.0,OK,40007.0,Beaver County,932.0,4387.0,17177.0,4036.0,3045.0,578.0,1221.0,3687.0,2590.0,1211.0,793.0,14.0,2.0
20232,County,2020/01/07,40.0,OK,40007.0,Beaver County,891.0,4428.0,17661.0,4545.0,3658.0,618.0,1377.0,4091.0,1834.0,826.0,688.0,22.0,2.0
23511,County,2020/01/08,40.0,OK,40007.0,Beaver County,797.0,4522.0,17140.0,4212.0,4673.0,695.0,1313.0,3042.0,1996.0,733.0,452.0,20.0,4.0
26608,County,2020/01/09,40.0,OK,40007.0,Beaver County,977.0,4342.0,16751.0,3439.0,3097.0,952.0,1459.0,4101.0,1857.0,1402.0,422.0,13.0,9.0
31368,County,2020/01/10,40.0,OK,40007.0,Beaver County,853.0,4466.0,14698.0,2993.0,3350.0,716.0,1392.0,2963.0,1879.0,763.0,629.0,11.0,2.0
34612,County,2020/01/11,40.0,OK,40007.0,Beaver County,958.0,4361.0,15611.0,3502.0,3790.0,960.0,1352.0,3218.0,1900.0,703.0,170.0,14.0,2.0
36201,County,2020/01/12,40.0,OK,40007.0,Beaver County,1074.0,4245.0,11730.0,2345.0,2516.0,712.0,1086.0,2613.0,1345.0,612.0,491.0,10.0,0.0
39444,County,2020/01/13,40.0,OK,40007.0,Beaver County,909.0,4410.0,15363.0,3908.0,2625.0,432.0,1262.0,3337.0,2217.0,941.0,633.0,4.0,4.0
42605,County,2020/01/14,40.0,OK,40007.0,Beaver County,887.0,4432.0,15626.0,3331.0,3011.0,876.0,1209.0,3870.0,2209.0,694.0,418.0,4.0,4.0
45758,County,2020/01/15,40.0,OK,40007.0,Beaver County,834.0,4485.0,14548.0,3566.0,2993.0,514.0,1125.0,3403.0,1733.0,834.0,354.0,26.0,0.0
50539,County,2020/01/16,40.0,OK,40007.0,Beaver County,868.0,4451.0,13340.0,3067.0,2433.0,626.0,1207.0,2854.0,1917.0,865.0,364.0,7.0,0.0
52167,County,2020/01/17,40.0,OK,40007.0,Beaver County,958.0,4361.0,14736.0,3379.0,4152.0,773.0,1133.0,2960.0,1056.0,664.0,584.0,33.0,2.0
56948,County,2020/01/18,40.0,OK,40007.0,Beaver County,1061.0,4258.0,15381.0,2726.0,3275.0,992.0,1369.0,3648.0,2169.0,818.0,379.0,5.0,0.0
60146,County,2020/01/19,40.0,OK,40007.0,Beaver County,1050.0,4269.0,12238.0,2801.0,3140.0,622.0,1176.0,2344.0,1227.0,534.0,371.0,20.0,3.0
63309,County,2020/01/20,40.0,OK,40007.0,Beaver County,896.0,4423.0,16945.0,3409.0,4037.0,933.0,1441.0,3503.0,2121.0,905.0,575.0,19.0,2.0
66507,County,2020/01/21,40.0,OK,40007.0,Beaver County,794.0,4525.0,14136.0,3480.0,3245.0,827.0,1147.0,2340.0,1947.0,711.0,419.0,20.0,0.0
68138,County,2020/01/22,40.0,OK,40007.0,Beaver County,784.0,4535.0,14797.0,3514.0,2926.0,880.0,1280.0,3498.0,1390.0,958.0,336.0,11.0,4.0
72929,County,2020/01/23,40.0,OK,40007.0,Beaver County,905.0,4414.0,13514.0,2857.0,2324.0,631.0,1311.0,2546.0,2153.0,1032.0,631.0,23.0,6.0
76085,County,2020/01/24,40.0,OK,40007.0,Beaver County,841.0,4478.0,17464.0,3506.0,4941.0,695.0,1534.0,3130.0,1956.0,923.0,753.0,24.0,2.0
77712,County,2020/01/25,40.0,OK,40007.0,Beaver County,943.0,4376.0,14296.0,2834.0,3450.0,900.0,877.0,3131.0,2017.0,713.0,363.0,4.0,7.0
81983,County,2020/01/26,40.0,OK,40007.0,Beaver County,1059.0,4260.0,13271.0,2593.0,3500.0,597.0,1408.0,2521.0,1322.0,452.0,837.0,41.0,0.0
85684,County,2020/01/27,40.0,OK,40007.0,Beaver County,776.0,4543.0,14974.0,3425.0,2938.0,739.0,1121.0,3781.0,1739.0,635.0,573.0,12.0,11.0
87357,County,2020/01/28,40.0,OK,40007.0,Beaver County,1092.0,4227.0,11891.0,2506.0,3190.0,557.0,1197.0,2354.0,1239.0,399.0,413.0,32.0,4.0
90463,County,2020/01/29,40.0,OK,40007.0,Beaver County,914.0,4405.0,14376.0,2957.0,3107.0,473.0,1487.0,3395.0,1891.0,597.0,451.0,14.0,4.0
93816,County,2020/01/30,40.0,OK,40007.0,Beaver County,925.0,4394.0,15051.0,3729.0,2661.0,946.0,1412.0,3046.0,2019.0,739.0,465.0,30.0,4.0
96871,County,2020/01/31,40.0,OK,40007.0,Beaver County,788.0,4531.0,17058.0,4035.0,3518.0,573.0,1632.0,3410.0,2485.0,961.0,391.0,46.0,7.0
100120,County,2020/02/01,40.0,OK,40007.0,Beaver County,927.0,4392.0,15740.0,3088.0,3781.0,991.0,1591.0,3025.0,1730.0,852.0,650.0,32.0,0.0
104831,County,2020/02/02,40.0,OK,40007.0,Beaver County,959.0,4360.0,13992.0,2423.0,3980.0,950.0,1650.0,2302.0,1694.0,790.0,170.0,31.0,2.0
106457,County,2020/02/03,40.0,OK,40007.0,Beaver County,831.0,4488.0,18538.0,3450.0,3984.0,772.0,1789.0,4796.0,2421.0,856.0,452.0,13.0,5.0
111219,County,2020/02/04,40.0,OK,40007.0,Beaver County,875.0,4444.0,16611.0,2699.0,3722.0,1143.0,1558.0,4787.0,1920.0,502.0,255.0,19.0,6.0
114422,County,2020/02/05,40.0,OK,40007.0,Beaver County,856.0,4463.0,17734.0,3675.0,3915.0,1139.0,1566.0,4052.0,2294.0,778.0,296.0,10.0,9.0
117629,County,2020/02/06,40.0,OK,40007.0,Beaver County,819.0,4500.0,19098.0,4160.0,4253.0,1156.0,1817.0,4673.0,1959.0,670.0,385.0,21.0,4.0
119207,County,2020/02/07,40.0,OK,40007.0,Beaver County,617.0,4702.0,17478.0,3206.0,3668.0,1055.0,1634.0,4580.0,2249.0,564.0,492.0,21.0,9.0
122453,County,2020/02/08,40.0,OK,40007.0,Beaver County,781.0,4538.0,18015.0,3745.0,4025.0,1184.0,1724.0,3827.0,2321.0,856.0,308.0,21.0,4.0
126147,County,2020/02/09,40.0,OK,40007.0,Beaver County,1065.0,4254.0,15652.0,3352.0,3481.0,1216.0,1497.0,3490.0,1629.0,631.0,338.0,13.0,5.0
130442,County,2020/02/10,40.0,OK,40007.0,Beaver County,737.0,4582.0,18406.0,4148.0,3431.0,941.0,1760.0,4086.0,2480.0,868.0,657.0,23.0,12.0
133152,County,2020/02/11,40.0,OK,40007.0,Beaver County,777.0,4542.0,19372.0,4364.0,3777.0,1112.0,1714.0,4524.0,3118.0,523.0,227.0,10.0,3.0
136741,County,2020/02/12,40.0,OK,40007.0,Beaver County,764.0,4555.0,19046.0,4097.0,3740.0,925.0,1866.0,4525.0,2460.0,838.0,572.0,20.0,3.0
138436,County,2020/02/13,40.0,OK,40007.0,Beaver County,721.0,4598.0,17155.0,3162.0,3702.0,846.0,1335.0,4565.0,1992.0,925.0,587.0,34.0,7.0
143166,County,2020/02/14,40.0,OK,40007.0,Beaver County,639.0,4680.0,20364.0,4603.0,4494.0,771.0,1524.0,4791.0,2419.0,1155.0,570.0,33.0,4.0
146372,County,2020/02/15,40.0,OK,40007.0,Beaver County,880.0,4439.0,21193.0,3936.0,6141.0,1191.0,1634.0,4210.0,2410.0,1391.0,262.0,12.0,6.0
149574,County,2020/02/16,40.0,OK,40007.0,Beaver County,873.0,4446.0,15515.0,2696.0,4157.0,758.0,1723.0,2929.0,1840.0,901.0,473.0,34.0,4.0
152741,County,2020/02/17,40.0,OK,40007.0,Beaver County,1135.0,4184.0,15758.0,3262.0,3528.0,1014.0,1410.0,3233.0,1922.0,871.0,496.0,19.0,3.0
154318,County,2020/02/18,40.0,OK,40007.0,Beaver County,852.0,4467.0,16908.0,3857.0,3300.0,716.0,1855.0,3580.0,2088.0,985.0,492.0,26.0,9.0
159128,County,2020/02/19,40.0,OK,40007.0,Beaver County,778.0,4541.0,17915.0,3571.0,3636.0,1164.0,1544.0,4176.0,2503.0,840.0,454.0,20.0,7.0
162372,County,2020/02/20,40.0,OK,40007.0,Beaver County,732.0,4587.0,17525.0,3269.0,3891.0,1119.0,1556.0,4185.0,1863.0,1139.0,472.0,26.0,5.0
165517,County,2020/02/21,40.0,OK,40007.0,Beaver County,749.0,4570.0,19706.0,4123.0,3939.0,1392.0,1756.0,4124.0,2466.0,1147.0,720.0,29.0,10.0
167095,County,2020/02/22,40.0,OK,40007.0,Beaver County,764.0,4555.0,16798.0,3361.0,3604.0,967.0,1589.0,3613.0,2037.0,969.0,647.0,4.0,7.0
171910,County,2020/02/23,40.0,OK,40007.0,Beaver County,938.0,4381.0,15709.0,3409.0,3669.0,1538.0,1678.0,2479.0,1296.0,1024.0,569.0,45.0,2.0
173536,County,2020/02/24,40.0,OK,40007.0,Beaver County,792.0,4527.0,16855.0,3790.0,3417.0,954.0,1436.0,3502.0,2350.0,842.0,531.0,24.0,9.0
177804,County,2020/02/25,40.0,OK,40007.0,Beaver County,738.0,4581.0,18096.0,2944.0,3543.0,998.0,1545.0,5156.0,2261.0,1314.0,318.0,12.0,5.0
180997,County,2020/02/26,40.0,OK,40007.0,Beaver County,738.0,4581.0,22406.0,3300.0,3331.0,1004.0,2122.0,7421.0,4010.0,925.0,274.0,19.0,0.0
182512,County,2020/02/27,40.0,OK,40007.0,Beaver County,776.0,4543.0,21477.0,4080.0,3660.0,1253.0,1917.0,6026.0,2472.0,1238.0,807.0,20.0,4.0
187923,County,2020/02/28,40.0,OK,40007.0,Beaver County,800.0,4519.0,22234.0,4568.0,4395.0,1683.0,1685.0,4742.0,3419.0,1140.0,587.0,13.0,2.0
191069,County,2020/02/29,40.0,OK,40007.0,Beaver County,800.0,4519.0,19479.0,3316.0,5416.0,1260.0,1564.0,4097.0,2416.0,712.0,664.0,30.0,4.0
194287,County,2020/03/01,40.0,OK,40007.0,Beaver County,936.0,4383.0,14784.0,2895.0,3086.0,826.0,1188.0,3301.0,2050.0,802.0,617.0,14.0,5.0
195916,County,2020/03/02,40.0,OK,40007.0,Beaver County,786.0,4533.0,17247.0,3498.0,4018.0,935.0,1563.0,3581.0,2129.0,1104.0,409.0,5.0,5.0
200718,County,2020/03/03,40.0,OK,40007.0,Beaver County,662.0,4657.0,18497.0,2905.0,4446.0,998.0,2011.0,4040.0,1818.0,1208.0,1039.0,23.0,9.0
203854,County,2020/03/04,40.0,OK,40007.0,Beaver County,719.0,4600.0,17659.0,3490.0,2761.0,1010.0,1713.0,4153.0,2397.0,1498.0,613.0,24.0,0.0
207058,County,2020/03/05,40.0,OK,40007.0,Beaver County,671.0,4648.0,18561.0,2984.0,3618.0,1029.0,1796.0,4115.0,3045.0,1346.0,599.0,23.0,6.0
208589,County,2020/03/06,40.0,OK,40007.0,Beaver County,612.0,4707.0,22371.0,4169.0,5433.0,1342.0,1523.0,5659.0,2681.0,1190.0,331.0,34.0,9.0
211890,County,2020/03/07,40.0,OK,40007.0,Beaver County,613.0,4706.0,19178.0,3655.0,5082.0,1279.0,2278.0,3729.0,1746.0,789.0,610.0,5.0,5.0
216616,County,2020/03/08,40.0,OK,40007.0,Beaver County,737.0,4582.0,15360.0,2813.0,4213.0,1329.0,1286.0,2983.0,1311.0,963.0,436.0,21.0,5.0
218258,County,2020/03/09,40.0,OK,40007.0,Beaver County,642.0,4677.0,20720.0,4575.0,4896.0,1215.0,1738.0,5128.0,1799.0,913.0,434.0,20.0,2.0
221492,County,2020/03/10,40.0,OK,40007.0,Beaver County,627.0,4692.0,18395.0,2890.0,3600.0,875.0,1687.0,5195.0,2359.0,1046.0,691.0,35.0,17.0
226237,County,2020/03/11,40.0,OK,40007.0,Beaver County,687.0,4632.0,18654.0,2756.0,3592.0,1430.0,1704.0,4898.0,3072.0,1040.0,105.0,43.0,14.0
229378,County,2020/03/12,40.0,OK,40007.0,Beaver County,568.0,4751.0,21970.0,3428.0,3953.0,1643.0,1733.0,5898.0,3291.0,1834.0,157.0,11.0,22.0
231025,County,2020/03/13,40.0,OK,40007.0,Beaver County,599.0,4720.0,19771.0,2648.0,4142.0,1204.0,1808.0,5190.0,3120.0,1104.0,460.0,52.0,43.0
235701,County,2020/03/14,40.0,OK,40007.0,Beaver County,800.0,4519.0,20495.0,3243.0,5448.0,1292.0,3056.0,4383.0,1710.0,908.0,448.0,0.0,7.0
238978,County,2020/03/15,40.0,OK,40007.0,Beaver County,979.0,4340.0,11816.0,1525.0,3047.0,1000.0,1056.0,2090.0,1546.0,938.0,564.0,41.0,9.0
242172,County,2020/03/16,40.0,OK,40007.0,Beaver County,753.0,4566.0,19050.0,3614.0,4833.0,1188.0,1394.0,4720.0,2212.0,680.0,378.0,26.0,5.0
243837,County,2020/03/17,40.0,OK,40007.0,Beaver County,1036.0,4283.0,17028.0,3405.0,4188.0,913.0,1500.0,3250.0,1954.0,1122.0,664.0,12.0,20.0
246992,County,2020/03/18,40.0,OK,40007.0,Beaver County,908.0,4411.0,21312.0,4006.0,4965.0,1058.0,1890.0,5317.0,2224.0,1013.0,815.0,16.0,8.0
250247,County,2020/03/19,40.0,OK,40007.0,Beaver County,949.0,4370.0,16289.0,3256.0,3499.0,1057.0,1900.0,3429.0,1902.0,840.0,374.0,16.0,16.0
253432,County,2020/03/20,40.0,OK,40007.0,Beaver County,1014.0,4305.0,19937.0,4041.0,4291.0,1650.0,1637.0,4922.0,1901.0,982.0,485.0,17.0,11.0
258141,County,2020/03/21,40.0,OK,40007.0,Beaver County,1195.0,4124.0,14887.0,3071.0,3291.0,1100.0,1920.0,2887.0,1686.0,453.0,457.0,7.0,15.0
259762,County,2020/03/22,40.0,OK,40007.0,Beaver County,1014.0,4305.0,11202.0,2232.0,2607.0,842.0,1364.0,2965.0,716.0,253.0,201.0,5.0,17.0
264541,County,2020/03/23,40.0,OK,40007.0,Beaver County,894.0,4425.0,14485.0,2626.0,3008.0,536.0,1357.0,3385.0,2038.0,920.0,613.0,0.0,2.0
266167,County,2020/03/24,40.0,OK,40007.0,Beaver County,975.0,4344.0,16696.0,2655.0,3351.0,954.0,1897.0,4766.0,1914.0,784.0,356.0,11.0,8.0
269400,County,2020/03/25,40.0,OK,40007.0,Beaver County,938.0,4381.0,16403.0,3493.0,3284.0,1216.0,1680.0,3741.0,1634.0,1007.0,331.0,6.0,11.0
272545,County,2020/03/26,40.0,OK,40007.0,Beaver County,980.0,4339.0,16266.0,3969.0,3023.0,999.0,1884.0,4305.0,1019.0,515.0,534.0,10.0,8.0
277308,County,2020/03/27,40.0,OK,40007.0,Beaver County,993.0,4326.0,14646.0,2539.0,3543.0,663.0,1502.0,3806.0,1430.0,664.0,492.0,0.0,7.0
278935,County,2020/03/28,40.0,OK,40007.0,Beaver County,1095.0,4224.0,11855.0,1406.0,2663.0,628.0,1532.0,3127.0,1525.0,683.0,280.0,5.0,6.0
283695,County,2020/03/29,40.0,OK,40007.0,Beaver County,1072.0,4247.0,9555.0,1754.0,2345.0,639.0,1440.0,1836.0,776.0,513.0,244.0,5.0,3.0
286920,County,2020/03/30,40.0,OK,40007.0,Beaver County,879.0,4440.0,14085.0,1885.0,3308.0,745.0,1027.0,4101.0,1884.0,827.0,296.0,8.0,4.0
288518,County,2020/03/31,40.0,OK,40007.0,Beaver County,1027.0,4292.0,15989.0,3261.0,4263.0,1160.0,1295.0,2987.0,1749.0,722.0,534.0,10.0,8.0
291753,County,2020/04/01,40.0,OK,40007.0,Beaver County,893.0,4426.0,13968.0,3138.0,2234.0,758.0,1219.0,3629.0,1622.0,961.0,379.0,19.0,9.0
296486,County,2020/04/02,40.0,OK,40007.0,Beaver County,868.0,4451.0,14324.0,2132.0,2656.0,1052.0,1226.0,3871.0,2036.0,734.0,596.0,17.0,4.0
298147,County,2020/04/03,40.0,OK,40007.0,Beaver County,943.0,4376.0,14485.0,2303.0,2793.0,777.0,1442.0,3652.0,2187.0,637.0,674.0,18.0,2.0
301291,County,2020/04/04,40.0,OK,40007.0,Beaver County,1058.0,4261.0,12750.0,3361.0,2308.0,773.0,1517.0,2804.0,1087.0,454.0,427.0,16.0,3.0
306045,County,2020/04/05,40.0,OK,40007.0,Beaver County,1221.0,4098.0,9209.0,1461.0,1976.0,527.0,1213.0,2338.0,1047.0,576.0,46.0,19.0,6.0
309246,County,2020/04/06,40.0,OK,40007.0,Beaver County,897.0,4422.0,13789.0,2582.0,3039.0,589.0,1296.0,3491.0,1610.0,664.0,492.0,24.0,2.0
312486,County,2020/04/07,40.0,OK,40007.0,Beaver County,844.0,4475.0,16319.0,2722.0,3375.0,770.0,1544.0,4810.0,1963.0,496.0,624.0,10.0,5.0
315659,County,2020/04/08,40.0,OK,40007.0,Beaver County,891.0,4428.0,14497.0,1947.0,2979.0,737.0,1375.0,4131.0,2105.0,824.0,387.0,10.0,2.0
318827,County,2020/04/09,40.0,OK,40007.0,Beaver County,985.0,4334.0,14812.0,1772.0,3749.0,1131.0,1819.0,3654.0,1422.0,798.0,462.0,5.0,0.0
322023,County,2020/04/10,40.0,OK,40007.0,Beaver County,913.0,4406.0,14317.0,2327.0,2737.0,986.0,1894.0,3865.0,1427.0,586.0,470.0,20.0,5.0
323698,County,2020/04/11,40.0,OK,40007.0,Beaver County,941.0,4378.0,11638.0,2613.0,2007.0,941.0,1802.0,2813.0,960.0,356.0,144.0,0.0,2.0
326843,County,2020/04/12,40.0,OK,40007.0,Beaver County,1367.0,3952.0,8849.0,1560.0,2003.0,923.0,1264.0,837.0,1356.0,668.0,232.0,6.0,0.0
330108,County,2020/04/13,40.0,OK,40007.0,Beaver County,944.0,4375.0,13805.0,2047.0,3375.0,526.0,1184.0,4381.0,1192.0,783.0,301.0,9.0,7.0
334780,County,2020/04/14,40.0,OK,40007.0,Beaver County,967.0,4352.0,12498.0,1068.0,1126.0,1163.0,1791.0,4178.0,2208.0,812.0,139.0,9.0,4.0
336457,County,2020/04/15,40.0,OK,40007.0,Beaver County,957.0,4362.0,12142.0,1790.0,1997.0,1239.0,1362.0,3002.0,1692.0,665.0,370.0,20.0,5.0
339611,County,2020/04/16,40.0,OK,40007.0,Beaver County,997.0,4322.0,10832.0,1260.0,1799.0,299.0,1315.0,3651.0,1544.0,385.0,570.0,0.0,9.0
342911,County,2020/04/17,40.0,OK,40007.0,Beaver County,903.0,4416.0,13381.0,1658.0,3687.0,996.0,701.0,4070.0,931.0,592.0,731.0,0.0,15.0
346017,County,2020/04/18,40.0,OK,40007.0,Beaver County,1078.0,4241.0,10531.0,591.0,1242.0,632.0,1717.0,4282.0,1097.0,699.0,259.0,12.0,0.0
350769,County,2020/04/19,40.0,OK,40007.0,Beaver County,1109.0,4210.0,9567.0,929.0,2556.0,929.0,1177.0,1201.0,1693.0,639.0,443.0,0.0,0.0
352395,County,2020/04/20,40.0,OK,40007.0,Beaver County,730.0,4589.0,13210.0,1188.0,2508.0,1127.0,1587.0,3714.0,2174.0,570.0,316.0,8.0,18.0
355589,County,2020/04/21,40.0,OK,40007.0,Beaver County,932.0,4387.0,13084.0,2568.0,2860.0,814.0,1246.0,2949.0,1935.0,426.0,270.0,9.0,7.0
360359,County,2020/04/22,40.0,OK,40007.0,Beaver County,979.0,4340.0,15266.0,2620.0,3675.0,458.0,1263.0,3619.0,2503.0,656.0,437.0,20.0,15.0
363565,County,2020/04/23,40.0,OK,40007.0,Beaver County,831.0,4488.0,16834.0,3067.0,3584.0,1197.0,1440.0,4381.0,1782.0,995.0,368.0,15.0,5.0
365192,County,2020/04/24,40.0,OK,40007.0,Beaver County,836.0,4483.0,15078.0,2162.0,3754.0,819.0,1345.0,3473.0,2463.0,670.0,372.0,15.0,5.0
369933,County,2020/04/25,40.0,OK,40007.0,Beaver County,970.0,4349.0,13630.0,2252.0,4040.0,767.0,1924.0,2686.0,1281.0,494.0,183.0,0.0,3.0
373127,County,2020/04/26,40.0,OK,40007.0,Beaver County,1056.0,4263.0,13145.0,2182.0,3073.0,1192.0,1761.0,3252.0,1520.0,51.0,114.0,0.0,0.0
376359,County,2020/04/27,40.0,OK,40007.0,Beaver County,821.0,4498.0,17197.0,3413.0,3414.0,1219.0,1938.0,4603.0,1809.0,543.0,258.0,0.0,0.0
379530,County,2020/04/28,40.0,OK,40007.0,Beaver County,683.0,4636.0,16990.0,3024.0,3702.0,997.0,1993.0,4583.0,1550.0,582.0,533.0,21.0,5.0
382733,County,2020/04/29,40.0,OK,40007.0,Beaver County,780.0,4539.0,17299.0,2775.0,3177.0,1042.0,1634.0,5444.0,2187.0,651.0,362.0,18.0,9.0
384304,County,2020/04/30,40.0,OK,40007.0,Beaver County,847.0,4472.0,14085.0,2517.0,3047.0,1374.0,1372.0,3183.0,1345.0,914.0,296.0,34.0,3.0
387577,County,2020/05/01,40.0,OK,40007.0,Beaver County,862.0,4457.0,18866.0,4485.0,3417.0,1546.0,1554.0,4504.0,2038.0,873.0,421.0,28.0,0.0
390711,County,2020/05/02,40.0,OK,40007.0,Beaver County,926.0,4393.0,16861.0,2745.0,4086.0,1315.0,1851.0,4140.0,1351.0,999.0,338.0,26.0,10.0
395485,County,2020/05/03,40.0,OK,40007.0,Beaver County,1063.0,4256.0,14211.0,1862.0,2864.0,1217.0,2300.0,3405.0,1712.0,606.0,245.0,0.0,0.0
397135,County,2020/05/04,40.0,OK,40007.0,Beaver County,818.0,4501.0,16709.0,3133.0,3786.0,1145.0,1364.0,4302.0,1712.0,757.0,504.0,0.0,6.0
401854,County,2020/05/05,40.0,OK,40007.0,Beaver County,937.0,4382.0,19051.0,2961.0,3725.0,1174.0,1398.0,6483.0,1699.0,1008.0,603.0,0.0,0.0
403484,County,2020/05/06,40.0,OK,40007.0,Beaver County,884.0,4435.0,17112.0,3244.0,3702.0,527.0,1516.0,4861.0,1708.0,793.0,755.0,6.0,0.0
408204,County,2020/05/07,40.0,OK,40007.0,Beaver County,958.0,4361.0,16491.0,3782.0,3445.0,594.0,1384.0,4104.0,1983.0,797.0,390.0,10.0,2.0
411466,County,2020/05/08,40.0,OK,40007.0,Beaver County,812.0,4507.0,18317.0,4824.0,4088.0,767.0,1242.0,4462.0,2236.0,231.0,439.0,20.0,8.0
413046,County,2020/05/09,40.0,OK,40007.0,Beaver County,983.0,4336.0,15371.0,2794.0,4027.0,1147.0,2423.0,2884.0,1161.0,698.0,228.0,6.0,3.0
417843,County,2020/05/10,40.0,OK,40007.0,Beaver County,1167.0,4152.0,12548.0,2374.0,2794.0,963.0,1271.0,3372.0,1170.0,259.0,345.0,0.0,0.0
419518,County,2020/05/11,40.0,OK,40007.0,Beaver County,736.0,4583.0,15434.0,2923.0,3003.0,1015.0,1595.0,4339.0,1519.0,406.0,608.0,24.0,2.0
424278,County,2020/05/12,40.0,OK,40007.0,Beaver County,746.0,4573.0,13406.0,2521.0,2847.0,609.0,1354.0,3428.0,1715.0,356.0,558.0,13.0,5.0
425760,County,2020/05/13,40.0,OK,40007.0,Beaver County,774.0,4545.0,15069.0,3657.0,3165.0,1170.0,1226.0,3360.0,1420.0,534.0,522.0,10.0,5.0
429101,County,2020/05/14,40.0,OK,40007.0,Beaver County,830.0,4489.0,14728.0,2817.0,3065.0,775.0,1346.0,4008.0,1663.0,511.0,518.0,23.0,2.0
433841,County,2020/05/15,40.0,OK,40007.0,Beaver County,622.0,4697.0,16274.0,3347.0,3867.0,1017.0,1340.0,3666.0,1681.0,855.0,475.0,20.0,6.0
436996,County,2020/05/16,40.0,OK,40007.0,Beaver County,851.0,4468.0,16203.0,3808.0,4059.0,1312.0,2072.0,2847.0,920.0,526.0,612.0,41.0,6.0
440155,County,2020/05/17,40.0,OK,40007.0,Beaver County,796.0,4523.0,15501.0,3022.0,4789.0,1045.0,1552.0,3501.0,1339.0,249.0,0.0,0.0,4.0
443444,County,2020/05/18,40.0,OK,40007.0,Beaver County,510.0,4809.0,21083.0,3244.0,5264.0,1757.0,1943.0,4903.0,1951.0,906.0,1102.0,6.0,7.0
446607,County,2020/05/19,40.0,OK,40007.0,Beaver County,684.0,4635.0,20618.0,2650.0,5966.0,631.0,2184.0,5363.0,2682.0,813.0,301.0,14.0,14.0
449783,County,2020/05/20,40.0,OK,40007.0,Beaver County,648.0,4671.0,17478.0,3276.0,3445.0,1002.0,1128.0,4964.0,2616.0,473.0,574.0,0.0,0.0
452673,County,2020/05/21,40.0,OK,40007.0,Beaver County,609.0,4710.0,18720.0,3408.0,3803.0,1152.0,1849.0,4568.0,2854.0,713.0,352.0,18.0,3.0
454596,County,2020/05/22,40.0,OK,40007.0,Beaver County,614.0,4705.0,19094.0,3436.0,3125.0,1627.0,1448.0,5634.0,2150.0,740.0,913.0,12.0,9.0
457792,County,2020/05/23,40.0,OK,40007.0,Beaver County,574.0,4745.0,16900.0,2994.0,5427.0,975.0,1895.0,3334.0,1410.0,519.0,310.0,24.0,12.0
462584,County,2020/05/24,40.0,OK,40007.0,Beaver County,762.0,4557.0,12193.0,2281.0,3172.0,615.0,1177.0,2827.0,1255.0,507.0,329.0,25.0,5.0
465837,County,2020/05/25,40.0,OK,40007.0,Beaver County,1019.0,4300.0,12745.0,2233.0,2645.0,834.0,1354.0,2947.0,1557.0,744.0,398.0,29.0,4.0
468945,County,2020/05/26,40.0,OK,40007.0,Beaver County,748.0,4571.0,17366.0,3568.0,4577.0,1082.0,1523.0,4223.0,1314.0,667.0,371.0,36.0,5.0
472185,County,2020/05/27,40.0,OK,40007.0,Beaver County,642.0,4677.0,20007.0,5106.0,4387.0,1359.0,1952.0,4303.0,1549.0,810.0,503.0,36.0,2.0
473719,County,2020/05/28,40.0,OK,40007.0,Beaver County,731.0,4588.0,19550.0,4816.0,4930.0,1126.0,1999.0,3657.0,1823.0,760.0,409.0,28.0,2.0
476963,County,2020/05/29,40.0,OK,40007.0,Beaver County,832.0,4487.0,19118.0,4276.0,4756.0,1616.0,2275.0,3616.0,1359.0,454.0,742.0,16.0,8.0
481723,County,2020/05/30,40.0,OK,40007.0,Beaver County,802.0,4517.0,16659.0,3705.0,4450.0,1042.0,2288.0,2766.0,1380.0,651.0,361.0,16.0,0.0
483279,County,2020/05/31,40.0,OK,40007.0,Beaver County,844.0,4475.0,15583.0,3578.0,4103.0,1270.0,1951.0,2654.0,1215.0,430.0,367.0,5.0,10.0
486545,County,2020/06/01,40.0,OK,40007.0,Beaver County,667.0,4652.0,21362.0,4601.0,5787.0,1622.0,1852.0,5055.0,1375.0,762.0,292.0,12.0,4.0
489786,County,2020/06/02,40.0,OK,40007.0,Beaver County,708.0,4611.0,17775.0,3201.0,4880.0,1327.0,1715.0,4210.0,1274.0,663.0,471.0,28.0,6.0
494498,County,2020/06/03,40.0,OK,40007.0,Beaver County,628.0,4691.0,19808.0,4624.0,4989.0,1570.0,1480.0,4083.0,1798.0,611.0,622.0,23.0,8.0
496117,County,2020/06/04,40.0,OK,40007.0,Beaver County,599.0,4720.0,19227.0,3871.0,4187.0,1396.0,1945.0,5189.0,1662.0,447.0,496.0,32.0,2.0
500893,County,2020/06/05,40.0,OK,40007.0,Beaver County,603.0,4716.0,21795.0,3858.0,6194.0,1477.0,1663.0,5048.0,2367.0,710.0,451.0,23.0,4.0
504094,County,2020/06/06,40.0,OK,40007.0,Beaver County,914.0,4405.0,19167.0,2806.0,5599.0,1437.0,2393.0,3646.0,1861.0,535.0,868.0,19.0,3.0
505708,County,2020/06/07,40.0,OK,40007.0,Beaver County,906.0,4413.0,15078.0,2637.0,3969.0,1200.0,1917.0,2919.0,1795.0,436.0,177.0,24.0,4.0
508882,County,2020/06/08,40.0,OK,40007.0,Beaver County,568.0,4751.0,21429.0,5344.0,4818.0,1197.0,1811.0,5306.0,1825.0,591.0,511.0,16.0,10.0
513660,County,2020/06/09,40.0,OK,40007.0,Beaver County,652.0,4667.0,16010.0,3134.0,3542.0,1099.0,1334.0,4143.0,1902.0,590.0,236.0,28.0,2.0
515290,County,2020/06/10,40.0,OK,40007.0,Beaver County,645.0,4674.0,20466.0,3836.0,4655.0,1469.0,2210.0,4593.0,2239.0,742.0,715.0,7.0,0.0
518494,County,2020/06/11,40.0,OK,40007.0,Beaver County,619.0,4700.0,20293.0,4010.0,5093.0,1266.0,1665.0,5421.0,2002.0,575.0,228.0,31.0,2.0
521696,County,2020/06/12,40.0,OK,40007.0,Beaver County,642.0,4677.0,20526.0,3711.0,5305.0,1412.0,1785.0,4921.0,2255.0,786.0,324.0,24.0,3.0
526432,County,2020/06/13,40.0,OK,40007.0,Beaver County,645.0,4674.0,19071.0,4517.0,5250.0,1354.0,2048.0,3062.0,1609.0,643.0,577.0,11.0,0.0
529636,County,2020/06/14,40.0,OK,40007.0,Beaver County,788.0,4531.0,16970.0,3037.0,4631.0,1040.0,1276.0,3869.0,2008.0,390.0,687.0,28.0,4.0
531265,County,2020/06/15,40.0,OK,40007.0,Beaver County,628.0,4691.0,18008.0,3450.0,4098.0,1751.0,1541.0,3878.0,2068.0,731.0,464.0,22.0,5.0
534454,County,2020/06/16,40.0,OK,40007.0,Beaver County,719.0,4600.0,17934.0,3899.0,4181.0,1359.0,1561.0,3768.0,1882.0,860.0,410.0,9.0,5.0
537648,County,2020/06/17,40.0,OK,40007.0,Beaver County,781.0,4538.0,18508.0,3720.0,4539.0,1272.0,1537.0,4206.0,2186.0,474.0,550.0,19.0,5.0
542409,County,2020/06/18,40.0,OK,40007.0,Beaver County,680.0,4639.0,16341.0,3392.0,3368.0,1255.0,1534.0,4015.0,1711.0,473.0,567.0,17.0,9.0
544036,County,2020/06/19,40.0,OK,40007.0,Beaver County,734.0,4585.0,14935.0,2529.0,4139.0,1182.0,909.0,3175.0,1781.0,714.0,480.0,20.0,6.0
547241,County,2020/06/20,40.0,OK,40007.0,Beaver County,882.0,4437.0,13551.0,2232.0,3965.0,797.0,1122.0,2944.0,1210.0,587.0,652.0,33.0,9.0
551984,County,2020/06/21,40.0,OK,40007.0,Beaver County,902.0,4417.0,11067.0,1833.0,2847.0,852.0,754.0,2343.0,1479.0,523.0,395.0,35.0,6.0
553620,County,2020/06/22,40.0,OK,40007.0,Beaver County,737.0,4582.0,13800.0,3072.0,3150.0,819.0,1029.0,2968.0,1728.0,670.0,335.0,20.0,9.0
558380,County,2020/06/23,40.0,OK,40007.0,Beaver County,841.0,4478.0,16788.0,4225.0,3917.0,526.0,1480.0,3986.0,1632.0,703.0,279.0,30.0,10.0
560011,County,2020/06/24,40.0,OK,40007.0,Beaver County,837.0,4482.0,14805.0,3076.0,4501.0,786.0,719.0,3084.0,1653.0,517.0,425.0,37.0,7.0
563201,County,2020/06/25,40.0,OK,40007.0,Beaver County,856.0,4463.0,15786.0,3166.0,3826.0,828.0,1111.0,3308.0,2043.0,1067.0,420.0,17.0,0.0
566454,County,2020/06/26,40.0,OK,40007.0,Beaver County,802.0,4517.0,15055.0,3102.0,3534.0,576.0,907.0,3740.0,2031.0,636.0,497.0,25.0,7.0
569576,County,2020/06/27,40.0,OK,40007.0,Beaver County,889.0,4430.0,14559.0,3330.0,3357.0,903.0,1251.0,3181.0,1663.0,376.0,473.0,19.0,6.0
572773,County,2020/06/28,40.0,OK,40007.0,Beaver County,839.0,4480.0,11749.0,1971.0,2209.0,833.0,1002.0,2643.0,1813.0,686.0,563.0,27.0,2.0
577551,County,2020/06/29,40.0,OK,40007.0,Beaver County,670.0,4649.0,15767.0,3185.0,3456.0,1040.0,1122.0,4281.0,1389.0,476.0,794.0,13.0,11.0
579193,County,2020/06/30,40.0,OK,40007.0,Beaver County,684.0,4635.0,16232.0,3193.0,3663.0,1165.0,1359.0,3682.0,2021.0,772.0,349.0,26.0,2.0
583937,County,2020/07/01,40.0,OK,40007.0,Beaver County,763.0,4556.0,17241.0,3297.0,3832.0,1189.0,1438.0,4215.0,2166.0,543.0,532.0,24.0,5.0
587131,County,2020/07/02,40.0,OK,40007.0,Beaver County,968.0,4351.0,16755.0,3360.0,4061.0,879.0,1179.0,3511.0,2168.0,1133.0,446.0,18.0,0.0
588771,County,2020/07/03,40.0,OK,40007.0,Beaver County,892.0,4427.0,14971.0,3085.0,3514.0,573.0,902.0,3719.0,2020.0,632.0,494.0,25.0,7.0
591979,County,2020/07/04,40.0,OK,40007.0,Beaver County,1168.0,4151.0,12808.0,2639.0,3006.0,490.0,772.0,3182.0,1728.0,541.0,423.0,21.0,6.0
595164,County,2020/07/05,40.0,OK,40007.0,Beaver County,948.0,4371.0,11291.0,1733.0,2765.0,513.0,987.0,2211.0,1870.0,676.0,490.0,44.0,2.0
599901,County,2020/07/06,40.0,OK,40007.0,Beaver County,872.0,4447.0,15284.0,3530.0,4244.0,633.0,1158.0,3136.0,1653.0,734.0,151.0,33.0,12.0
603572,County,2020/07/07,40.0,OK,40007.0,Beaver County,703.0,4616.0,16264.0,3199.0,4158.0,1081.0,1362.0,3351.0,1866.0,782.0,434.0,22.0,9.0
604720,County,2020/07/08,40.0,OK,40007.0,Beaver County,742.0,4577.0,15357.0,3049.0,3053.0,966.0,965.0,4878.0,1627.0,428.0,357.0,28.0,6.0
609492,County,2020/07/09,40.0,OK,40007.0,Beaver County,745.0,4574.0,15480.0,3678.0,3330.0,763.0,1260.0,2909.0,1996.0,983.0,504.0,53.0,4.0
612697,County,2020/07/10,40.0,OK,40007.0,Beaver County,851.0,4468.0,16442.0,4278.0,4264.0,890.0,1253.0,3152.0,1274.0,765.0,546.0,16.0,4.0
614326,County,2020/07/11,40.0,OK,40007.0,Beaver County,843.0,4476.0,15543.0,2789.0,4158.0,1147.0,1484.0,2672.0,1845.0,773.0,651.0,20.0,4.0
617497,County,2020/07/12,40.0,OK,40007.0,Beaver County,1030.0,4289.0,11530.0,2488.0,2661.0,708.0,923.0,2487.0,1306.0,563.0,350.0,37.0,7.0
620687,County,2020/07/13,40.0,OK,40007.0,Beaver County,910.0,4409.0,12056.0,2004.0,3039.0,631.0,1066.0,2841.0,1763.0,434.0,241.0,27.0,10.0
623887,County,2020/07/14,40.0,OK,40007.0,Beaver County,984.0,4335.0,11682.0,3064.0,2363.0,408.0,1028.0,2807.0,1226.0,443.0,307.0,30.0,6.0
627009,County,2020/07/15,40.0,OK,40007.0,Beaver County,911.0,4408.0,11887.0,2547.0,2316.0,685.0,1115.0,2512.0,1607.0,731.0,338.0,34.0,2.0
630250,County,2020/07/16,40.0,OK,40007.0,Beaver County,945.0,4374.0,13350.0,2951.0,2750.0,800.0,950.0,3159.0,1487.0,687.0,501.0,58.0,7.0
633457,County,2020/07/17,40.0,OK,40007.0,Beaver County,910.0,4409.0,12678.0,2519.0,2801.0,773.0,700.0,2935.0,1609.0,569.0,738.0,25.0,9.0
638237,County,2020/07/18,40.0,OK,40007.0,Beaver County,1020.0,4299.0,11383.0,2505.0,2996.0,721.0,973.0,2244.0,912.0,516.0,487.0,27.0,2.0
641440,County,2020/07/19,40.0,OK,40007.0,Beaver County,928.0,4391.0,9935.0,2001.0,2539.0,645.0,832.0,1967.0,913.0,600.0,384.0,52.0,2.0
643051,County,2020/07/20,40.0,OK,40007.0,Beaver County,798.0,4521.0,15092.0,2969.0,4133.0,801.0,1104.0,2781.0,1906.0,975.0,382.0,34.0,7.0
648291,County,2020/07/21,40.0,OK,40007.0,Beaver County,783.0,4536.0,12912.0,3117.0,2317.0,460.0,1064.0,3306.0,1477.0,508.0,627.0,34.0,2.0
651004,County,2020/07/22,40.0,OK,40007.0,Beaver County,734.0,4585.0,15253.0,2878.0,3217.0,828.0,928.0,3613.0,2198.0,975.0,586.0,28.0,2.0
654199,County,2020/07/23,40.0,OK,40007.0,Beaver County,812.0,4507.0,12950.0,2105.0,2768.0,651.0,868.0,3887.0,1290.0,912.0,425.0,44.0,0.0
657473,County,2020/07/24,40.0,OK,40007.0,Beaver County,879.0,4440.0,15677.0,3367.0,3943.0,765.0,1150.0,3744.0,1266.0,896.0,531.0,13.0,2.0
659015,County,2020/07/25,40.0,OK,40007.0,Beaver County,836.0,4483.0,14196.0,3583.0,2376.0,567.0,674.0,4022.0,1636.0,700.0,609.0,27.0,2.0
662215,County,2020/07/26,40.0,OK,40007.0,Beaver County,829.0,4490.0,11885.0,1856.0,2608.0,812.0,943.0,2483.0,1800.0,819.0,505.0,55.0,4.0
665510,County,2020/07/27,40.0,OK,40007.0,Beaver County,663.0,4656.0,16016.0,3971.0,3055.0,873.0,1144.0,3937.0,1719.0,776.0,517.0,8.0,16.0
668672,County,2020/07/28,40.0,OK,40007.0,Beaver County,772.0,4547.0,16496.0,4081.0,3689.0,943.0,1189.0,3502.0,2409.0,503.0,156.0,17.0,7.0
673460,County,2020/07/29,40.0,OK,40007.0,Beaver County,768.0,4551.0,18191.0,4213.0,4096.0,966.0,1167.0,4514.0,1803.0,741.0,660.0,31.0,0.0
674991,County,2020/07/30,40.0,OK,40007.0,Beaver County,768.0,4551.0,16953.0,4020.0,3785.0,367.0,916.0,4409.0,2148.0,745.0,541.0,13.0,9.0
678192,County,2020/07/31,40.0,OK,40007.0,Beaver County,702.0,4617.0,15112.0,3129.0,4077.0,885.0,922.0,3000.0,1720.0,913.0,439.0,27.0,0.0
682938,County,2020/08/01,40.0,OK,40007.0,Beaver County,826.0,4493.0,14367.0,3356.0,3303.0,863.0,1021.0,2816.0,1858.0,842.0,262.0,36.0,10.0
684572,County,2020/08/02,40.0,OK,40007.0,Beaver County,1023.0,4296.0,13245.0,2757.0,3128.0,762.0,1281.0,2553.0,1439.0,727.0,565.0,33.0,0.0
687769,County,2020/08/03,40.0,OK,40007.0,Beaver County,763.0,4556.0,13401.0,2787.0,2775.0,900.0,1311.0,3166.0,1696.0,507.0,237.0,20.0,2.0
692544,County,2020/08/04,40.0,OK,40007.0,Beaver County,864.0,4455.0,16498.0,2872.0,4672.0,906.0,1204.0,4048.0,1793.0,548.0,416.0,35.0,4.0
694172,County,2020/08/05,40.0,OK,40007.0,Beaver County,813.0,4506.0,14594.0,3045.0,3671.0,1129.0,1159.0,3330.0,1334.0,498.0,379.0,47.0,2.0
698915,County,2020/08/06,40.0,OK,40007.0,Beaver County,753.0,4566.0,15382.0,3337.0,3426.0,858.0,1208.0,3435.0,1787.0,816.0,468.0,43.0,4.0
702111,County,2020/08/07,40.0,OK,40007.0,Beaver County,827.0,4492.0,14339.0,3025.0,3496.0,896.0,1480.0,2970.0,1298.0,533.0,592.0,40.0,9.0
703740,County,2020/08/08,40.0,OK,40007.0,Beaver County,747.0,4572.0,14850.0,3672.0,2885.0,1392.0,1268.0,2822.0,1392.0,598.0,781.0,37.0,3.0
708521,County,2020/08/09,40.0,OK,40007.0,Beaver County,943.0,4376.0,14213.0,3085.0,2761.0,1033.0,1184.0,3240.0,1672.0,625.0,584.0,29.0,0.0
710151,County,2020/08/10,40.0,OK,40007.0,Beaver County,747.0,4572.0,15668.0,3701.0,2593.0,799.0,1333.0,4036.0,1688.0,813.0,678.0,23.0,4.0
713368,County,2020/08/11,40.0,OK,40007.0,Beaver County,867.0,4452.0,16685.0,3632.0,4194.0,846.0,1351.0,3551.0,1659.0,866.0,559.0,25.0,2.0
716514,County,2020/08/12,40.0,OK,40007.0,Beaver County,748.0,4571.0,16394.0,3903.0,4130.0,961.0,1247.0,2674.0,2115.0,748.0,573.0,31.0,12.0
721273,County,2020/08/13,40.0,OK,40007.0,Beaver County,658.0,4661.0,17567.0,3705.0,3685.0,1010.0,1595.0,3783.0,1934.0,1078.0,731.0,36.0,10.0
722900,County,2020/08/14,40.0,OK,40007.0,Beaver County,722.0,4597.0,17525.0,3966.0,3916.0,809.0,1097.0,4218.0,1783.0,1030.0,658.0,31.0,17.0
726131,County,2020/08/15,40.0,OK,40007.0,Beaver County,806.0,4513.0,16039.0,3342.0,3510.0,1135.0,1483.0,3259.0,1299.0,1169.0,804.0,25.0,13.0
729290,County,2020/08/16,40.0,OK,40007.0,Beaver County,893.0,4426.0,13990.0,2631.0,2427.0,1040.0,967.0,3361.0,2165.0,958.0,390.0,39.0,12.0
734070,County,2020/08/17,40.0,OK,40007.0,Beaver County,811.0,4508.0,18513.0,4204.0,3946.0,1421.0,1180.0,4029.0,2345.0,907.0,452.0,19.0,10.0
737242,County,2020/08/18,40.0,OK,40007.0,Beaver County,854.0,4465.0,18021.0,4506.0,4100.0,875.0,1455.0,3769.0,2076.0,819.0,379.0,11.0,31.0
740437,County,2020/08/19,40.0,OK,40007.0,Beaver County,599.0,4720.0,17835.0,4829.0,4211.0,863.0,1189.0,3171.0,1885.0,1245.0,396.0,18.0,28.0
742066,County,2020/08/20,40.0,OK,40007.0,Beaver County,642.0,4677.0,17995.0,4545.0,3297.0,1033.0,1531.0,3443.0,2553.0,919.0,633.0,10.0,31.0
746841,County,2020/08/21,40.0,OK,40007.0,Beaver County,646.0,4673.0,19404.0,3980.0,4943.0,643.0,1277.0,3858.0,2756.0,1007.0,902.0,19.0,19.0
750046,County,2020/08/22,40.0,OK,40007.0,Beaver County,737.0,4582.0,18001.0,3761.0,6110.0,856.0,1296.0,2706.0,1820.0,957.0,450.0,22.0,23.0
751663,County,2020/08/23,40.0,OK,40007.0,Beaver County,865.0,4454.0,12211.0,2442.0,2328.0,358.0,1150.0,2976.0,2080.0,411.0,418.0,30.0,18.0
756407,County,2020/08/24,40.0,OK,40007.0,Beaver County,856.0,4463.0,15280.0,4002.0,3522.0,426.0,1305.0,3331.0,1597.0,564.0,479.0,29.0,25.0
758036,County,2020/08/25,40.0,OK,40007.0,Beaver County,768.0,4551.0,16455.0,4335.0,2996.0,964.0,1174.0,3674.0,2026.0,828.0,425.0,24.0,9.0
761229,County,2020/08/26,40.0,OK,40007.0,Beaver County,750.0,4569.0,14940.0,3018.0,2788.0,922.0,1505.0,3600.0,1611.0,760.0,703.0,28.0,5.0
766002,County,2020/08/27,40.0,OK,40007.0,Beaver County,593.0,4726.0,15498.0,3144.0,3539.0,784.0,1127.0,3754.0,2103.0,533.0,468.0,42.0,4.0
769169,County,2020/08/28,40.0,OK,40007.0,Beaver County,712.0,4607.0,17512.0,3362.0,4124.0,835.0,1689.0,4046.0,2154.0,837.0,431.0,32.0,2.0
772370,County,2020/08/29,40.0,OK,40007.0,Beaver County,787.0,4532.0,17720.0,4299.0,3682.0,1190.0,1620.0,3361.0,2312.0,647.0,568.0,36.0,5.0
774048,County,2020/08/30,40.0,OK,40007.0,Beaver County,852.0,4467.0,11349.0,2003.0,2094.0,723.0,804.0,2405.0,1710.0,916.0,654.0,20.0,20.0
778771,County,2020/08/31,40.0,OK,40007.0,Beaver County,795.0,4524.0,14001.0,2658.0,2985.0,708.0,923.0,2849.0,2366.0,1035.0,440.0,28.0,9.0
780382,County,2020/09/01,40.0,OK,40007.0,Beaver County,751.0,4568.0,17082.0,3805.0,3804.0,553.0,1444.0,3740.0,2490.0,838.0,342.0,59.0,7.0
784410,County,2020/09/02,40.0,OK,40007.0,Beaver County,669.0,4650.0,18664.0,4202.0,4035.0,815.0,1170.0,4401.0,2335.0,868.0,777.0,54.0,7.0
788366,County,2020/09/03,40.0,OK,40007.0,Beaver County,734.0,4585.0,18421.0,4174.0,3854.0,747.0,1203.0,4140.0,2636.0,978.0,645.0,32.0,12.0
791549,County,2020/09/04,40.0,OK,40007.0,Beaver County,773.0,4546.0,16229.0,3646.0,3653.0,560.0,1024.0,2999.0,2445.0,897.0,925.0,72.0,8.0
794743,County,2020/09/05,40.0,OK,40007.0,Beaver County,642.0,4677.0,15094.0,2703.0,3556.0,963.0,878.0,3278.0,2165.0,766.0,748.0,28.0,9.0
797948,County,2020/09/06,40.0,OK,40007.0,Beaver County,927.0,4392.0,14249.0,3106.0,3829.0,409.0,736.0,3395.0,1435.0,742.0,521.0,64.0,12.0
799555,County,2020/09/07,40.0,OK,40007.0,Beaver County,996.0,4323.0,13747.0,3354.0,3154.0,761.0,1007.0,2442.0,1955.0,615.0,384.0,63.0,12.0
804317,County,2020/09/08,40.0,OK,40007.0,Beaver County,809.0,4510.0,16108.0,3387.0,2736.0,582.0,1066.0,4349.0,2310.0,1001.0,667.0,5.0,5.0
805946,County,2020/09/09,40.0,OK,40007.0,Beaver County,797.0,4522.0,16501.0,3930.0,4140.0,474.0,873.0,3564.0,2172.0,784.0,522.0,33.0,9.0
810714,County,2020/09/10,40.0,OK,40007.0,Beaver County,864.0,4455.0,15510.0,2663.0,4614.0,790.0,944.0,3572.0,1582.0,644.0,678.0,21.0,2.0
812343,County,2020/09/11,40.0,OK,40007.0,Beaver County,744.0,4575.0,18427.0,4325.0,3411.0,290.0,1774.0,4394.0,2510.0,1137.0,552.0,32.0,2.0
815528,County,2020/09/12,40.0,OK,40007.0,Beaver County,834.0,4485.0,16591.0,5105.0,2584.0,820.0,1635.0,3271.0,2378.0,431.0,347.0,17.0,3.0
818700,County,2020/09/13,40.0,OK,40007.0,Beaver County,975.0,4344.0,11735.0,2494.0,1545.0,599.0,1160.0,3012.0,1364.0,1094.0,414.0,42.0,11.0
823482,County,2020/09/14,40.0,OK,40007.0,Beaver County,678.0,4641.0,19836.0,5926.0,4130.0,855.0,1576.0,3859.0,1780.0,1049.0,622.0,31.0,8.0
826723,County,2020/09/15,40.0,OK,40007.0,Beaver County,780.0,4539.0,20445.0,5644.0,4960.0,1442.0,1650.0,3885.0,1915.0,658.0,259.0,29.0,3.0
828351,County,2020/09/16,40.0,OK,40007.0,Beaver County,674.0,4645.0,18290.0,4642.0,4441.0,645.0,1647.0,4058.0,1519.0,832.0,462.0,31.0,13.0
831496,County,2020/09/17,40.0,OK,40007.0,Beaver County,690.0,4629.0,19984.0,5515.0,3737.0,1353.0,1443.0,4595.0,1993.0,599.0,704.0,37.0,8.0
836257,County,2020/09/18,40.0,OK,40007.0,Beaver County,707.0,4612.0,19644.0,4009.0,4801.0,1126.0,1995.0,4251.0,1822.0,931.0,677.0,22.0,10.0
837886,County,2020/09/19,40.0,OK,40007.0,Beaver County,763.0,4556.0,16262.0,5076.0,2284.0,1284.0,1434.0,3116.0,1720.0,875.0,423.0,29.0,21.0
842661,County,2020/09/20,40.0,OK,40007.0,Beaver County,1010.0,4309.0,14465.0,2989.0,3285.0,864.0,1249.0,2222.0,2597.0,625.0,608.0,23.0,3.0
844289,County,2020/09/21,40.0,OK,40007.0,Beaver County,940.0,4379.0,13176.0,3395.0,2009.0,888.0,1382.0,2552.0,1703.0,884.0,357.0,6.0,0.0
849033,County,2020/09/22,40.0,OK,40007.0,Beaver County,856.0,4463.0,14375.0,3360.0,2328.0,722.0,1588.0,3371.0,1535.0,931.0,517.0,23.0,0.0
850661,County,2020/09/23,40.0,OK,40007.0,Beaver County,850.0,4469.0,14083.0,2692.0,2736.0,817.0,1725.0,3027.0,1776.0,628.0,657.0,22.0,3.0
855427,County,2020/09/24,40.0,OK,40007.0,Beaver County,709.0,4610.0,14771.0,2532.0,2818.0,781.0,1648.0,3756.0,1659.0,1073.0,484.0,20.0,0.0
857056,County,2020/09/25,40.0,OK,40007.0,Beaver County,637.0,4682.0,15630.0,2705.0,3574.0,720.0,1604.0,3962.0,1699.0,893.0,458.0,15.0,0.0
860242,County,2020/09/26,40.0,OK,40007.0,Beaver County,883.0,4436.0,14461.0,2707.0,2520.0,1560.0,1231.0,3328.0,1551.0,812.0,722.0,30.0,0.0
863414,County,2020/09/27,40.0,OK,40007.0,Beaver County,1045.0,4274.0,11919.0,2614.0,1492.0,562.0,1114.0,2934.0,1612.0,1009.0,536.0,33.0,13.0
868197,County,2020/09/28,40.0,OK,40007.0,Beaver County,825.0,4494.0,13972.0,3457.0,2050.0,708.0,1102.0,3533.0,1720.0,704.0,640.0,53.0,5.0
869825,County,2020/09/29,40.0,OK,40007.0,Beaver County,829.0,4490.0,14894.0,3142.0,2209.0,686.0,1387.0,3630.0,2289.0,1067.0,458.0,24.0,2.0
874604,County,2020/09/30,40.0,OK,40007.0,Beaver County,906.0,4413.0,13706.0,2384.0,2651.0,331.0,1162.0,3718.0,2007.0,1041.0,393.0,16.0,3.0
876232,County,2020/10/01,40.0,OK,40007.0,Beaver County,811.0,4508.0,13653.0,2990.0,2790.0,478.0,1109.0,2126.0,2493.0,1026.0,602.0,33.0,6.0
880973,County,2020/10/02,40.0,OK,40007.0,Beaver County,929.0,4390.0,14890.0,2852.0,3362.0,570.0,1176.0,2926.0,2226.0,1225.0,516.0,27.0,10.0
884168,County,2020/10/03,40.0,OK,40007.0,Beaver County,1037.0,4282.0,14926.0,2734.0,2980.0,684.0,1183.0,4829.0,1595.0,497.0,411.0,9.0,4.0
886820,County,2020/10/04,40.0,OK,40007.0,Beaver County,934.0,4385.0,14576.0,2975.0,3461.0,900.0,1049.0,2596.0,2143.0,954.0,472.0,26.0,0.0
890507,County,2020/10/05,40.0,OK,40007.0,Beaver County,894.0,4425.0,14673.0,2542.0,3115.0,782.0,1126.0,3569.0,2229.0,842.0,435.0,28.0,5.0
893218,County,2020/10/06,40.0,OK,40007.0,Beaver County,688.0,4631.0,16806.0,3680.0,3481.0,780.0,1083.0,4196.0,2059.0,1224.0,285.0,15.0,3.0
896434,County,2020/10/07,40.0,OK,40007.0,Beaver County,656.0,4663.0,16857.0,3718.0,2399.0,949.0,1221.0,4815.0,2173.0,954.0,616.0,9.0,3.0
899612,County,2020/10/08,40.0,OK,40007.0,Beaver County,715.0,4604.0,15743.0,3309.0,2762.0,347.0,1170.0,4128.0,2325.0,1244.0,450.0,6.0,2.0
902799,County,2020/10/09,40.0,OK,40007.0,Beaver County,823.0,4496.0,14828.0,2522.0,2770.0,795.0,1341.0,3154.0,2464.0,1332.0,442.0,7.0,1.0
905913,County,2020/10/10,40.0,OK,40007.0,Beaver County,853.0,4466.0,13546.0,2256.0,2826.0,463.0,966.0,3701.0,1904.0,776.0,639.0,15.0,0.0
908275,County,2020/10/11,40.0,OK,40007.0,Beaver County,911.0,4408.0,10352.0,1576.0,1803.0,721.0,1147.0,2160.0,1420.0,1126.0,376.0,19.0,4.0
911291,County,2020/10/12,40.0,OK,40007.0,Beaver County,814.0,4505.0,16377.0,3379.0,3426.0,955.0,1696.0,2670.0,2060.0,1544.0,627.0,17.0,3.0
914870,County,2020/10/13,40.0,OK,40007.0,Beaver County,716.0,4603.0,16729.0,3594.0,3632.0,587.0,1508.0,3973.0,1946.0,1105.0,363.0,16.0,5.0
917667,County,2020/10/14,40.0,OK,40007.0,Beaver County,651.0,4668.0,15799.0,1946.0,4111.0,488.0,1296.0,3531.0,2868.0,1124.0,420.0,13.0,2.0
921690,County,2020/10/15,40.0,OK,40007.0,Beaver County,681.0,4638.0,15077.0,2318.0,3171.0,806.0,1121.0,3588.0,2231.0,1496.0,330.0,11.0,5.0
924122,County,2020/10/16,40.0,OK,40007.0,Beaver County,768.0,4551.0,17225.0,3645.0,3761.0,1001.0,1670.0,2795.0,2036.0,1704.0,583.0,28.0,2.0
928102,County,2020/10/17,40.0,OK,40007.0,Beaver County,970.0,4349.0,17155.0,3513.0,3519.0,1552.0,2000.0,3293.0,1721.0,1205.0,336.0,12.0,4.0
930473,County,2020/10/18,40.0,OK,40007.0,Beaver County,995.0,4324.0,9959.0,1251.0,2490.0,328.0,687.0,1990.0,1903.0,814.0,479.0,15.0,2.0
934052,County,2020/10/19,40.0,OK,40007.0,Beaver County,807.0,4512.0,14662.0,2790.0,3516.0,670.0,1265.0,2340.0,1719.0,1548.0,803.0,10.0,1.0
936822,County,2020/10/20,40.0,OK,40007.0,Beaver County,938.0,4381.0,12233.0,2959.0,2389.0,607.0,915.0,2685.0,1877.0,663.0,110.0,25.0,3.0
940106,County,2020/10/21,40.0,OK,40007.0,Beaver County,950.0,4369.0,12187.0,1599.0,2637.0,538.0,1274.0,2934.0,2192.0,753.0,236.0,23.0,1.0
943029,County,2020/10/22,40.0,OK,40007.0,Beaver County,811.0,4508.0,13947.0,2927.0,4004.0,701.0,1073.0,2611.0,1343.0,817.0,443.0,26.0,2.0
946880,County,2020/10/23,40.0,OK,40007.0,Beaver County,833.0,4486.0,15987.0,3668.0,3152.0,779.0,1187.0,3539.0,1750.0,1490.0,391.0,28.0,3.0
949589,County,2020/10/24,40.0,OK,40007.0,Beaver County,1020.0,4299.0,15355.0,3453.0,3701.0,1058.0,1299.0,2086.0,2460.0,870.0,409.0,18.0,1.0
