,Level,Date,State FIPS,State Postal Code,County FIPS,County Name,Population Staying at Home,Population Not Staying at Home,Number of Trips,Number of Trips <1,Number of Trips 1-3,Number of Trips 3-5,Number of Trips 5-10,Number of Trips 10-25,Number of Trips 25-50,Number of Trips 50-100,Number of Trips 100-250,Number of Trips 250-500,Number of Trips >=500
3005,County,2020/01/01,54.0,WV,54029.0,Hancock County,7773.0,21321.0,79615.0,15622.0,24272.0,9887.0,13352.0,9133.0,5724.0,986.0,566.0,59.0,14.0
4020,County,2020/01/02,54.0,WV,54029.0,Hancock County,6305.0,22789.0,97364.0,22413.0,26459.0,10706.0,12512.0,13403.0,9664.0,1744.0,414.0,37.0,12.0
8829,County,2020/01/03,54.0,WV,54029.0,Hancock County,6017.0,23077.0,101409.0,21184.0,27610.0,12900.0,12853.0,16112.0,8550.0,1854.0,266.0,57.0,23.0
10265,County,2020/01/04,54.0,WV,54029.0,Hancock County,7078.0,22016.0,96735.0,20241.0,29507.0,13116.0,13296.0,12659.0,6322.0,1173.0,334.0,62.0,25.0
15781,County,2020/01/05,54.0,WV,54029.0,Hancock County,7081.0,22013.0,85193.0,19774.0,26293.0,10724.0,12893.0,9574.0,4339.0,1072.0,416.0,69.0,39.0
17506,County,2020/01/06,54.0,WV,54029.0,Hancock County,6748.0,22346.0,100454.0,22262.0,25514.0,12310.0,15523.0,14545.0,8731.0,1291.0,232.0,34.0,12.0
20664,County,2020/01/07,54.0,WV,54029.0,Hancock County,6349.0,22745.0,100559.0,23386.0,28136.0,11786.0,12077.0,14615.0,8343.0,1816.0,306.0,72.0,22.0
23943,County,2020/01/08,54.0,WV,54029.0,Hancock County,6041.0,23053.0,97381.0,19835.0,26694.0,12988.0,14170.0,13877.0,7937.0,1527.0,254.0,58.0,41.0
28643,County,2020/01/09,54.0,WV,54029.0,Hancock County,5955.0,23139.0,103796.0,21724.0,26609.0,14335.0,15096.0,14167.0,9830.0,1777.0,165.0,62.0,31.0
30236,County,2020/01/10,54.0,WV,54029.0,Hancock County,6178.0,22916.0,110346.0,26663.0,30434.0,12666.0,14548.0,16813.0,7345.0,1475.0,311.0,58.0,33.0
35043,County,2020/01/11,54.0,WV,54029.0,Hancock County,6829.0,22265.0,101042.0,24363.0,27923.0,13263.0,14272.0,13425.0,5829.0,1552.0,318.0,63.0,34.0
38165,County,2020/01/12,54.0,WV,54029.0,Hancock County,7352.0,21742.0,88079.0,18993.0,27064.0,10855.0,14106.0,9659.0,5976.0,1118.0,233.0,51.0,24.0
39875,County,2020/01/13,54.0,WV,54029.0,Hancock County,6348.0,22746.0,103674.0,25109.0,29078.0,13475.0,13041.0,13730.0,7594.0,1392.0,189.0,34.0,32.0
44609,County,2020/01/14,54.0,WV,54029.0,Hancock County,6006.0,23088.0,102961.0,27567.0,25420.0,9860.0,15622.0,14740.0,8142.0,1382.0,146.0,62.0,20.0
46190,County,2020/01/15,54.0,WV,54029.0,Hancock County,6179.0,22915.0,104920.0,27082.0,27986.0,13083.0,12514.0,14770.0,8036.0,1154.0,219.0,55.0,21.0
50972,County,2020/01/16,54.0,WV,54029.0,Hancock County,6054.0,23040.0,102455.0,25513.0,26652.0,11570.0,12842.0,14579.0,9222.0,1609.0,400.0,58.0,10.0
52598,County,2020/01/17,54.0,WV,54029.0,Hancock County,6112.0,22982.0,106351.0,23412.0,31784.0,13041.0,13980.0,14599.0,7496.0,1473.0,472.0,45.0,49.0
57381,County,2020/01/18,54.0,WV,54029.0,Hancock County,7558.0,21536.0,88014.0,17687.0,26118.0,10343.0,14603.0,11585.0,5678.0,1580.0,354.0,66.0,0.0
60579,County,2020/01/19,54.0,WV,54029.0,Hancock County,7405.0,21689.0,87446.0,22233.0,26176.0,9759.0,12250.0,9330.0,5961.0,1294.0,339.0,80.0,24.0
63741,County,2020/01/20,54.0,WV,54029.0,Hancock County,6771.0,22323.0,93096.0,22402.0,24730.0,11445.0,12450.0,12061.0,8125.0,1671.0,155.0,46.0,11.0
66939,County,2020/01/21,54.0,WV,54029.0,Hancock County,6166.0,22928.0,97783.0,25082.0,25260.0,12854.0,11916.0,12337.0,8507.0,1349.0,391.0,67.0,20.0
68570,County,2020/01/22,54.0,WV,54029.0,Hancock County,5940.0,23154.0,100697.0,25249.0,26506.0,12415.0,13136.0,13269.0,8111.0,1545.0,338.0,86.0,42.0
73362,County,2020/01/23,54.0,WV,54029.0,Hancock County,6152.0,22942.0,101512.0,23493.0,28234.0,11581.0,14272.0,13800.0,8626.0,1039.0,374.0,64.0,29.0
74950,County,2020/01/24,54.0,WV,54029.0,Hancock County,6331.0,22763.0,103416.0,23961.0,28856.0,10582.0,13890.0,15998.0,8148.0,1478.0,403.0,80.0,20.0
79704,County,2020/01/25,54.0,WV,54029.0,Hancock County,7019.0,22075.0,99065.0,24313.0,26448.0,12139.0,14792.0,12755.0,6586.0,1636.0,318.0,44.0,34.0
82855,County,2020/01/26,54.0,WV,54029.0,Hancock County,7393.0,21701.0,87222.0,21064.0,25845.0,10331.0,12848.0,9627.0,5941.0,1227.0,252.0,54.0,33.0
86115,County,2020/01/27,54.0,WV,54029.0,Hancock County,6190.0,22904.0,105802.0,26199.0,28751.0,14883.0,13225.0,12635.0,8552.0,1350.0,87.0,52.0,68.0
88321,County,2020/01/28,54.0,WV,54029.0,Hancock County,6449.0,22645.0,104950.0,26869.0,30183.0,11097.0,14226.0,12556.0,8300.0,1507.0,139.0,73.0,0.0
92523,County,2020/01/29,54.0,WV,54029.0,Hancock County,6172.0,22922.0,101352.0,24137.0,27812.0,12953.0,13728.0,12596.0,8390.0,1383.0,255.0,47.0,51.0
94248,County,2020/01/30,54.0,WV,54029.0,Hancock County,6322.0,22772.0,99366.0,25800.0,26428.0,10823.0,12385.0,13187.0,8435.0,1811.0,320.0,101.0,76.0
97302,County,2020/01/31,54.0,WV,54029.0,Hancock County,5925.0,23169.0,108747.0,28497.0,27731.0,12319.0,14639.0,14085.0,9118.0,1700.0,403.0,142.0,113.0
100552,County,2020/02/01,54.0,WV,54029.0,Hancock County,6593.0,22501.0,99647.0,24320.0,29185.0,11249.0,12454.0,12585.0,7711.0,1398.0,448.0,92.0,205.0
103681,County,2020/02/02,54.0,WV,54029.0,Hancock County,7267.0,21827.0,103165.0,29832.0,30844.0,11499.0,13106.0,10010.0,5720.0,1492.0,508.0,123.0,31.0
108515,County,2020/02/03,54.0,WV,54029.0,Hancock County,6091.0,23003.0,108013.0,27271.0,30622.0,12258.0,14926.0,12767.0,8227.0,1459.0,252.0,81.0,150.0
111651,County,2020/02/04,54.0,WV,54029.0,Hancock County,6104.0,22990.0,98899.0,22954.0,27385.0,10753.0,13258.0,13614.0,8012.0,2260.0,490.0,113.0,60.0
114854,County,2020/02/05,54.0,WV,54029.0,Hancock County,6152.0,22942.0,102410.0,25138.0,29561.0,10633.0,13761.0,12897.0,8126.0,1571.0,471.0,115.0,137.0
118060,County,2020/02/06,54.0,WV,54029.0,Hancock County,5890.0,23204.0,105244.0,28669.0,29237.0,11907.0,11911.0,12946.0,8789.0,1103.0,509.0,62.0,111.0
121315,County,2020/02/07,54.0,WV,54029.0,Hancock County,7019.0,22075.0,96774.0,24872.0,26849.0,12522.0,11741.0,12115.0,6780.0,1011.0,681.0,99.0,104.0
124427,County,2020/02/08,54.0,WV,54029.0,Hancock County,6851.0,22243.0,101776.0,28483.0,28365.0,12670.0,12384.0,10755.0,6548.0,2002.0,427.0,98.0,44.0
127022,County,2020/02/09,54.0,WV,54029.0,Hancock County,8094.0,21000.0,85838.0,23788.0,23759.0,9981.0,11986.0,9069.0,4902.0,1448.0,726.0,82.0,97.0
128171,County,2020/02/10,54.0,WV,54029.0,Hancock County,6072.0,23022.0,101739.0,26682.0,27544.0,12344.0,11493.0,14168.0,7253.0,1444.0,582.0,98.0,131.0
133584,County,2020/02/11,54.0,WV,54029.0,Hancock County,6150.0,22944.0,102106.0,28369.0,25423.0,10761.0,14184.0,13301.0,7722.0,1605.0,449.0,116.0,176.0
137223,County,2020/02/12,54.0,WV,54029.0,Hancock County,6103.0,22991.0,105217.0,28037.0,26658.0,12431.0,13304.0,14075.0,7903.0,2099.0,450.0,123.0,137.0
140397,County,2020/02/13,54.0,WV,54029.0,Hancock County,6063.0,23031.0,96717.0,23370.0,26360.0,11700.0,13024.0,12127.0,8235.0,1271.0,380.0,117.0,133.0
143600,County,2020/02/14,54.0,WV,54029.0,Hancock County,6173.0,22921.0,108717.0,24715.0,28131.0,13144.0,16191.0,14731.0,8974.0,1846.0,741.0,123.0,121.0
146804,County,2020/02/15,54.0,WV,54029.0,Hancock County,6574.0,22520.0,103825.0,27480.0,26839.0,12396.0,14487.0,12672.0,7663.0,1589.0,502.0,97.0,100.0
150006,County,2020/02/16,54.0,WV,54029.0,Hancock County,7452.0,21642.0,89973.0,21933.0,25782.0,10829.0,12696.0,9999.0,6138.0,1817.0,590.0,63.0,126.0
153173,County,2020/02/17,54.0,WV,54029.0,Hancock County,8226.0,20868.0,81668.0,21406.0,18866.0,10260.0,11008.0,11826.0,6502.0,1216.0,442.0,93.0,49.0
154750,County,2020/02/18,54.0,WV,54029.0,Hancock County,6217.0,22877.0,99877.0,26551.0,22974.0,11891.0,12743.0,14790.0,8633.0,1527.0,558.0,126.0,84.0
159560,County,2020/02/19,54.0,WV,54029.0,Hancock County,6039.0,23055.0,103766.0,24714.0,27007.0,12272.0,13591.0,16215.0,7685.0,1449.0,640.0,121.0,72.0
162804,County,2020/02/20,54.0,WV,54029.0,Hancock County,6041.0,23053.0,98862.0,23542.0,25258.0,12935.0,13622.0,12584.0,8427.0,1913.0,438.0,90.0,53.0
165949,County,2020/02/21,54.0,WV,54029.0,Hancock County,6011.0,23083.0,103069.0,23940.0,25475.0,13068.0,14047.0,14748.0,9443.0,1677.0,413.0,112.0,146.0
167527,County,2020/02/22,54.0,WV,54029.0,Hancock County,5876.0,23218.0,95294.0,24363.0,23737.0,10623.0,14980.0,12221.0,6797.0,1565.0,760.0,119.0,129.0
170806,County,2020/02/23,54.0,WV,54029.0,Hancock County,7236.0,21858.0,87988.0,20691.0,26793.0,11047.0,12521.0,8852.0,6259.0,1271.0,408.0,58.0,88.0
173968,County,2020/02/24,54.0,WV,54029.0,Hancock County,6400.0,22694.0,100287.0,25578.0,27020.0,11943.0,12785.0,12920.0,7468.0,1938.0,491.0,49.0,95.0
178676,County,2020/02/25,54.0,WV,54029.0,Hancock County,5977.0,23117.0,104892.0,24645.0,27225.0,11657.0,14235.0,15948.0,8675.0,1924.0,418.0,68.0,97.0
181869,County,2020/02/26,54.0,WV,54029.0,Hancock County,6272.0,22822.0,93399.0,17119.0,29232.0,12220.0,13536.0,12093.0,6886.0,1803.0,400.0,46.0,64.0
182944,County,2020/02/27,54.0,WV,54029.0,Hancock County,5652.0,23442.0,93372.0,20309.0,25088.0,13038.0,12270.0,13518.0,7448.0,1261.0,259.0,45.0,136.0
186883,County,2020/02/28,54.0,WV,54029.0,Hancock County,5590.0,23504.0,104194.0,19765.0,29576.0,13983.0,15354.0,16037.0,7577.0,1436.0,332.0,45.0,89.0
189887,County,2020/02/29,54.0,WV,54029.0,Hancock County,5866.0,23228.0,98118.0,18908.0,28565.0,13176.0,15158.0,12049.0,8293.0,1362.0,442.0,40.0,125.0
194720,County,2020/03/01,54.0,WV,54029.0,Hancock County,6815.0,22279.0,87913.0,20151.0,24620.0,11612.0,13906.0,9786.0,5631.0,1387.0,545.0,45.0,230.0
197924,County,2020/03/02,54.0,WV,54029.0,Hancock County,5900.0,23194.0,103762.0,24171.0,29514.0,12458.0,12946.0,14001.0,8235.0,1785.0,412.0,59.0,181.0
200374,County,2020/03/03,54.0,WV,54029.0,Hancock County,5774.0,23320.0,108979.0,27715.0,26451.0,13208.0,13357.0,16592.0,9034.0,2040.0,427.0,107.0,48.0
204286,County,2020/03/04,54.0,WV,54029.0,Hancock County,6050.0,23044.0,104815.0,23568.0,25928.0,12652.0,15148.0,14717.0,10109.0,2147.0,420.0,59.0,67.0
207490,County,2020/03/05,54.0,WV,54029.0,Hancock County,5496.0,23598.0,107269.0,24673.0,27516.0,12053.0,15807.0,15088.0,9507.0,2180.0,345.0,35.0,65.0
209109,County,2020/03/06,54.0,WV,54029.0,Hancock County,5557.0,23537.0,105201.0,21498.0,28229.0,11924.0,15015.0,16048.0,9781.0,1904.0,678.0,45.0,79.0
213936,County,2020/03/07,54.0,WV,54029.0,Hancock County,6127.0,22967.0,103886.0,22201.0,30935.0,13320.0,15247.0,12960.0,7096.0,1549.0,501.0,20.0,57.0
217049,County,2020/03/08,54.0,WV,54029.0,Hancock County,6752.0,22342.0,94293.0,18943.0,28576.0,12413.0,13832.0,12468.0,5496.0,1909.0,550.0,33.0,73.0
218689,County,2020/03/09,54.0,WV,54029.0,Hancock County,6176.0,22918.0,110659.0,26267.0,31320.0,11948.0,16177.0,13744.0,8978.0,1751.0,388.0,55.0,31.0
221924,County,2020/03/10,54.0,WV,54029.0,Hancock County,6291.0,22803.0,98961.0,22956.0,24509.0,10402.0,14994.0,13366.0,9562.0,2437.0,635.0,52.0,48.0
226669,County,2020/03/11,54.0,WV,54029.0,Hancock County,5836.0,23258.0,90544.0,21211.0,21814.0,8109.0,13169.0,14292.0,9499.0,1858.0,481.0,111.0,0.0
228299,County,2020/03/12,54.0,WV,54029.0,Hancock County,5977.0,23117.0,87742.0,19781.0,23767.0,10565.0,8473.0,10923.0,10813.0,2389.0,679.0,225.0,127.0
233028,County,2020/03/13,54.0,WV,54029.0,Hancock County,5998.0,23096.0,81475.0,14687.0,21559.0,15124.0,9058.0,10410.0,8145.0,1429.0,848.0,119.0,96.0
236231,County,2020/03/14,54.0,WV,54029.0,Hancock County,7241.0,21853.0,81347.0,18280.0,21785.0,10440.0,9149.0,11196.0,8269.0,1400.0,475.0,246.0,107.0
237843,County,2020/03/15,54.0,WV,54029.0,Hancock County,8379.0,20715.0,79442.0,17159.0,24196.0,11091.0,10936.0,9585.0,4728.0,1133.0,501.0,93.0,20.0
241087,County,2020/03/16,54.0,WV,54029.0,Hancock County,7167.0,21927.0,89549.0,19705.0,23882.0,8461.0,12628.0,13838.0,8813.0,1781.0,338.0,56.0,47.0
244269,County,2020/03/17,54.0,WV,54029.0,Hancock County,8195.0,20899.0,84529.0,19925.0,22995.0,7726.0,9418.0,15172.0,7274.0,1384.0,537.0,47.0,51.0
247424,County,2020/03/18,54.0,WV,54029.0,Hancock County,8539.0,20555.0,83722.0,19179.0,19396.0,10091.0,14392.0,11811.0,6618.0,1689.0,463.0,49.0,34.0
252206,County,2020/03/19,54.0,WV,54029.0,Hancock County,8931.0,20163.0,82176.0,21873.0,20117.0,7975.0,11073.0,12916.0,6666.0,762.0,693.0,67.0,34.0
253865,County,2020/03/20,54.0,WV,54029.0,Hancock County,8568.0,20526.0,91516.0,23595.0,24708.0,9689.0,11374.0,13389.0,6547.0,1386.0,717.0,78.0,33.0
258574,County,2020/03/21,54.0,WV,54029.0,Hancock County,9569.0,19525.0,76800.0,15442.0,23043.0,10019.0,13733.0,8977.0,3524.0,1510.0,502.0,50.0,0.0
260195,County,2020/03/22,54.0,WV,54029.0,Hancock County,9291.0,19803.0,64135.0,14148.0,20875.0,7256.0,9540.0,7620.0,3919.0,482.0,191.0,61.0,43.0
264973,County,2020/03/23,54.0,WV,54029.0,Hancock County,8154.0,20940.0,74389.0,17855.0,20873.0,9417.0,9506.0,9395.0,5876.0,1072.0,311.0,68.0,16.0
266599,County,2020/03/24,54.0,WV,54029.0,Hancock County,8689.0,20405.0,68766.0,13646.0,18748.0,9073.0,10354.0,9566.0,5610.0,1205.0,508.0,38.0,18.0
269833,County,2020/03/25,54.0,WV,54029.0,Hancock County,9072.0,20022.0,76605.0,18232.0,21996.0,9467.0,9847.0,9519.0,5785.0,1253.0,350.0,97.0,59.0
272977,County,2020/03/26,54.0,WV,54029.0,Hancock County,8552.0,20542.0,74715.0,16433.0,23884.0,9156.0,8733.0,10103.0,4654.0,1336.0,332.0,84.0,0.0
277740,County,2020/03/27,54.0,WV,54029.0,Hancock County,8441.0,20653.0,69284.0,15758.0,18362.0,9326.0,9720.0,9456.0,4356.0,1726.0,424.0,124.0,32.0
279367,County,2020/03/28,54.0,WV,54029.0,Hancock County,9247.0,19847.0,68662.0,15431.0,22811.0,7775.0,10345.0,7586.0,2957.0,1128.0,535.0,94.0,0.0
284127,County,2020/03/29,54.0,WV,54029.0,Hancock County,9617.0,19477.0,70446.0,17197.0,21550.0,10427.0,9870.0,7936.0,2272.0,887.0,245.0,42.0,20.0
285755,County,2020/03/30,54.0,WV,54029.0,Hancock County,8708.0,20386.0,69658.0,15960.0,21126.0,10274.0,7189.0,8739.0,4476.0,1285.0,522.0,87.0,0.0
288950,County,2020/03/31,54.0,WV,54029.0,Hancock County,9275.0,19819.0,66325.0,15530.0,18454.0,9167.0,6935.0,8360.0,5511.0,1914.0,422.0,32.0,0.0
292185,County,2020/04/01,54.0,WV,54029.0,Hancock County,8961.0,20133.0,67740.0,15039.0,17269.0,9904.0,9875.0,8167.0,5189.0,1738.0,428.0,97.0,34.0
296918,County,2020/04/02,54.0,WV,54029.0,Hancock County,8689.0,20405.0,66013.0,15250.0,18236.0,9441.0,7578.0,8645.0,5105.0,1313.0,356.0,89.0,0.0
298579,County,2020/04/03,54.0,WV,54029.0,Hancock County,8371.0,20723.0,76604.0,18025.0,21229.0,11296.0,11378.0,8806.0,4434.0,1075.0,283.0,62.0,16.0
303326,County,2020/04/04,54.0,WV,54029.0,Hancock County,9260.0,19834.0,67600.0,16762.0,17116.0,8789.0,11465.0,8441.0,3533.0,869.0,550.0,75.0,0.0
306478,County,2020/04/05,54.0,WV,54029.0,Hancock County,9815.0,19279.0,62394.0,16700.0,16650.0,7667.0,10500.0,7567.0,2251.0,679.0,201.0,88.0,91.0
309679,County,2020/04/06,54.0,WV,54029.0,Hancock County,8486.0,20608.0,73737.0,20429.0,21099.0,9364.0,8545.0,8911.0,3845.0,1026.0,487.0,13.0,18.0
311354,County,2020/04/07,54.0,WV,54029.0,Hancock County,8747.0,20347.0,69684.0,16980.0,19368.0,7951.0,8468.0,10513.0,5219.0,856.0,271.0,20.0,38.0
316091,County,2020/04/08,54.0,WV,54029.0,Hancock County,8787.0,20307.0,73289.0,16623.0,21790.0,9417.0,8254.0,10724.0,4791.0,1182.0,462.0,46.0,0.0
317718,County,2020/04/09,54.0,WV,54029.0,Hancock County,8888.0,20206.0,71912.0,15458.0,21166.0,10445.0,8796.0,9785.0,4925.0,871.0,413.0,34.0,19.0
322455,County,2020/04/10,54.0,WV,54029.0,Hancock County,9055.0,20039.0,76077.0,19590.0,21215.0,9935.0,11349.0,8135.0,4362.0,791.0,525.0,112.0,63.0
324130,County,2020/04/11,54.0,WV,54029.0,Hancock County,8668.0,20426.0,86011.0,23243.0,25891.0,13241.0,10891.0,8248.0,3291.0,1010.0,103.0,55.0,38.0
327276,County,2020/04/12,54.0,WV,54029.0,Hancock County,9945.0,19149.0,54706.0,10630.0,15103.0,9616.0,8709.0,7354.0,2328.0,908.0,36.0,22.0,0.0
330539,County,2020/04/13,54.0,WV,54029.0,Hancock County,8629.0,20465.0,68260.0,12897.0,16753.0,11822.0,10452.0,9321.0,5455.0,1102.0,383.0,35.0,40.0
335260,County,2020/04/14,54.0,WV,54029.0,Hancock County,8436.0,20658.0,76593.0,18648.0,23138.0,13707.0,8642.0,7789.0,3253.0,1193.0,81.0,97.0,45.0
336889,County,2020/04/15,54.0,WV,54029.0,Hancock County,7984.0,21110.0,84390.0,16512.0,27488.0,17923.0,8550.0,7532.0,4603.0,1447.0,305.0,30.0,0.0
340043,County,2020/04/16,54.0,WV,54029.0,Hancock County,8541.0,20553.0,84333.0,19285.0,24030.0,13161.0,11108.0,10460.0,5311.0,863.0,82.0,33.0,0.0
344822,County,2020/04/17,54.0,WV,54029.0,Hancock County,7557.0,21537.0,76736.0,14739.0,22564.0,13383.0,10027.0,9963.0,4055.0,1529.0,362.0,73.0,41.0
346449,County,2020/04/18,54.0,WV,54029.0,Hancock County,8449.0,20645.0,79479.0,18046.0,27963.0,9848.0,8421.0,8753.0,5234.0,511.0,484.0,128.0,91.0
349622,County,2020/04/19,54.0,WV,54029.0,Hancock County,8674.0,20420.0,80543.0,21764.0,20666.0,13967.0,8377.0,10517.0,4419.0,520.0,248.0,65.0,0.0
352876,County,2020/04/20,54.0,WV,54029.0,Hancock County,8006.0,21088.0,72935.0,12360.0,24162.0,11624.0,11320.0,8105.0,4124.0,915.0,217.0,108.0,0.0
356021,County,2020/04/21,54.0,WV,54029.0,Hancock County,8411.0,20683.0,75881.0,17349.0,20171.0,9658.0,10697.0,11344.0,4945.0,1504.0,143.0,50.0,20.0
360791,County,2020/04/22,54.0,WV,54029.0,Hancock County,8038.0,21056.0,82163.0,20702.0,20836.0,12638.0,10599.0,10410.0,5731.0,926.0,256.0,44.0,21.0
363997,County,2020/04/23,54.0,WV,54029.0,Hancock County,8078.0,21016.0,80744.0,18870.0,19999.0,12204.0,10003.0,10705.0,6963.0,1521.0,418.0,61.0,0.0
365623,County,2020/04/24,54.0,WV,54029.0,Hancock County,7722.0,21372.0,82423.0,15690.0,24390.0,11161.0,12274.0,11084.0,5460.0,1940.0,389.0,35.0,0.0
368792,County,2020/04/25,54.0,WV,54029.0,Hancock County,8079.0,21015.0,79138.0,19351.0,22427.0,10329.0,12849.0,8454.0,3839.0,1495.0,336.0,37.0,21.0
373559,County,2020/04/26,54.0,WV,54029.0,Hancock County,9122.0,19972.0,69615.0,21264.0,20519.0,7566.0,9134.0,6705.0,3004.0,1214.0,144.0,38.0,27.0
376790,County,2020/04/27,54.0,WV,54029.0,Hancock County,7732.0,21362.0,84842.0,19114.0,22753.0,13577.0,13099.0,10568.0,4587.0,820.0,248.0,56.0,20.0
379962,County,2020/04/28,54.0,WV,54029.0,Hancock County,7490.0,21604.0,80258.0,21290.0,20062.0,9724.0,9241.0,10858.0,6538.0,2176.0,275.0,75.0,19.0
383165,County,2020/04/29,54.0,WV,54029.0,Hancock County,7710.0,21384.0,76735.0,17761.0,19481.0,10967.0,9792.0,9711.0,6855.0,1380.0,655.0,75.0,58.0
384786,County,2020/04/30,54.0,WV,54029.0,Hancock County,8464.0,20630.0,75888.0,19013.0,18974.0,8274.0,9871.0,11818.0,6563.0,896.0,425.0,54.0,0.0
388010,County,2020/05/01,54.0,WV,54029.0,Hancock County,7433.0,21661.0,86378.0,18565.0,24697.0,12861.0,13053.0,10415.0,5087.0,1370.0,260.0,52.0,18.0
391143,County,2020/05/02,54.0,WV,54029.0,Hancock County,7853.0,21241.0,91261.0,23934.0,25328.0,15348.0,11917.0,8675.0,4722.0,1095.0,208.0,34.0,0.0
394405,County,2020/05/03,54.0,WV,54029.0,Hancock County,8397.0,20697.0,81696.0,22345.0,24092.0,10624.0,12698.0,7234.0,3084.0,1369.0,162.0,65.0,23.0
397566,County,2020/05/04,54.0,WV,54029.0,Hancock County,7447.0,21647.0,88763.0,22920.0,22952.0,11171.0,11819.0,12387.0,5596.0,1640.0,271.0,7.0,0.0
402335,County,2020/05/05,54.0,WV,54029.0,Hancock County,7611.0,21483.0,93128.0,22222.0,22508.0,12188.0,13270.0,13416.0,6511.0,2227.0,736.0,32.0,18.0
403916,County,2020/05/06,54.0,WV,54029.0,Hancock County,7751.0,21343.0,83239.0,17999.0,20280.0,10400.0,12469.0,13507.0,7004.0,973.0,561.0,46.0,0.0
408637,County,2020/05/07,54.0,WV,54029.0,Hancock County,7478.0,21616.0,95212.0,24277.0,25132.0,12846.0,11507.0,14838.0,5394.0,870.0,317.0,13.0,18.0
408846,County,2020/05/08,54.0,WV,54029.0,Hancock County,7723.0,21371.0,90531.0,20378.0,25960.0,12706.0,13096.0,10206.0,5958.0,1657.0,512.0,20.0,38.0
415095,County,2020/05/09,54.0,WV,54029.0,Hancock County,7979.0,21115.0,83333.0,17096.0,25456.0,12691.0,12127.0,11035.0,3518.0,1032.0,350.0,28.0,0.0
416708,County,2020/05/10,54.0,WV,54029.0,Hancock County,8208.0,20886.0,90937.0,24155.0,25546.0,12440.0,14876.0,9219.0,3406.0,971.0,283.0,21.0,20.0
421506,County,2020/05/11,54.0,WV,54029.0,Hancock County,6790.0,22304.0,92298.0,23848.0,27751.0,12658.0,11231.0,9997.0,5637.0,830.0,289.0,42.0,15.0
423184,County,2020/05/12,54.0,WV,54029.0,Hancock County,6629.0,22465.0,93858.0,20631.0,30552.0,12440.0,13245.0,10074.0,5219.0,1298.0,359.0,26.0,14.0
426192,County,2020/05/13,54.0,WV,54029.0,Hancock County,6988.0,22106.0,94116.0,26194.0,25381.0,10998.0,12462.0,12531.0,4840.0,1336.0,317.0,42.0,15.0
429533,County,2020/05/14,54.0,WV,54029.0,Hancock County,6927.0,22167.0,84030.0,20063.0,20622.0,11802.0,13681.0,11530.0,4978.0,1079.0,205.0,56.0,14.0
434274,County,2020/05/15,54.0,WV,54029.0,Hancock County,6933.0,22161.0,83148.0,21220.0,19551.0,12128.0,10906.0,10968.0,6332.0,1395.0,529.0,74.0,45.0
435903,County,2020/05/16,54.0,WV,54029.0,Hancock County,6870.0,22224.0,93447.0,22825.0,28189.0,13456.0,14367.0,8981.0,4167.0,1156.0,247.0,44.0,15.0
440589,County,2020/05/17,54.0,WV,54029.0,Hancock County,6584.0,22510.0,98383.0,24757.0,29510.0,10626.0,16527.0,11270.0,3711.0,1379.0,553.0,50.0,0.0
442349,County,2020/05/18,54.0,WV,54029.0,Hancock County,5301.0,23793.0,107063.0,25859.0,31760.0,12453.0,16586.0,11765.0,6055.0,2336.0,123.0,57.0,69.0
447039,County,2020/05/19,54.0,WV,54029.0,Hancock County,5539.0,23555.0,103456.0,24851.0,30276.0,13264.0,13221.0,12636.0,6254.0,2211.0,699.0,44.0,0.0
448671,County,2020/05/20,54.0,WV,54029.0,Hancock County,5497.0,23597.0,107442.0,25492.0,31996.0,12148.0,16318.0,12082.0,6350.0,2339.0,621.0,71.0,25.0
453106,County,2020/05/21,54.0,WV,54029.0,Hancock County,5370.0,23724.0,100811.0,22981.0,25921.0,13699.0,15195.0,12762.0,8017.0,1804.0,367.0,65.0,0.0
455028,County,2020/05/22,54.0,WV,54029.0,Hancock County,5233.0,23861.0,108464.0,27826.0,28189.0,15193.0,15847.0,11286.0,6605.0,2224.0,1140.0,59.0,95.0
459812,County,2020/05/23,54.0,WV,54029.0,Hancock County,5825.0,23269.0,110354.0,26721.0,35659.0,13142.0,15884.0,11538.0,4054.0,2451.0,744.0,56.0,105.0
463016,County,2020/05/24,54.0,WV,54029.0,Hancock County,7443.0,21651.0,92937.0,24861.0,27287.0,12029.0,12856.0,9741.0,4374.0,1265.0,443.0,52.0,29.0
464645,County,2020/05/25,54.0,WV,54029.0,Hancock County,7032.0,22062.0,78425.0,19806.0,21692.0,11131.0,11287.0,9485.0,3280.0,1186.0,416.0,73.0,69.0
467800,County,2020/05/26,54.0,WV,54029.0,Hancock County,6157.0,22937.0,94429.0,24620.0,25970.0,11473.0,12067.0,11149.0,6849.0,1852.0,364.0,85.0,0.0
471055,County,2020/05/27,54.0,WV,54029.0,Hancock County,6403.0,22691.0,92203.0,25775.0,22935.0,11198.0,12805.0,10892.0,6239.0,1824.0,433.0,90.0,12.0
474151,County,2020/05/28,54.0,WV,54029.0,Hancock County,6538.0,22556.0,90094.0,24435.0,22165.0,10965.0,11240.0,12046.0,6650.0,1954.0,517.0,86.0,36.0
477396,County,2020/05/29,54.0,WV,54029.0,Hancock County,7143.0,21951.0,83034.0,20765.0,21610.0,9454.0,11551.0,10614.0,5867.0,2487.0,578.0,67.0,41.0
482155,County,2020/05/30,54.0,WV,54029.0,Hancock County,7140.0,21954.0,89861.0,23627.0,25317.0,11587.0,12824.0,8424.0,5211.0,2277.0,483.0,79.0,32.0
485350,County,2020/05/31,54.0,WV,54029.0,Hancock County,7882.0,21212.0,80820.0,21434.0,22748.0,10219.0,10860.0,7428.0,4595.0,2965.0,487.0,38.0,46.0
486978,County,2020/06/01,54.0,WV,54029.0,Hancock County,6312.0,22782.0,91351.0,21481.0,25788.0,10855.0,13748.0,10162.0,6884.0,1912.0,464.0,21.0,36.0
490217,County,2020/06/02,54.0,WV,54029.0,Hancock County,6823.0,22271.0,86094.0,20032.0,21727.0,10021.0,12592.0,12371.0,6319.0,2533.0,400.0,99.0,0.0
493387,County,2020/06/03,54.0,WV,54029.0,Hancock County,5880.0,23214.0,104204.0,28073.0,27354.0,12419.0,14385.0,13038.0,6143.0,2034.0,650.0,84.0,24.0
496550,County,2020/06/04,54.0,WV,54029.0,Hancock County,6311.0,22783.0,87511.0,21925.0,20839.0,11674.0,12976.0,12094.0,6420.0,1155.0,285.0,118.0,25.0
501324,County,2020/06/05,54.0,WV,54029.0,Hancock County,6532.0,22562.0,96415.0,23625.0,22957.0,11092.0,15269.0,13776.0,6955.0,1832.0,755.0,64.0,90.0
504526,County,2020/06/06,54.0,WV,54029.0,Hancock County,7251.0,21843.0,82099.0,17267.0,23673.0,12435.0,12054.0,8402.0,4394.0,3209.0,526.0,61.0,78.0
507727,County,2020/06/07,54.0,WV,54029.0,Hancock County,6853.0,22241.0,78334.0,15715.0,21735.0,13442.0,11401.0,9831.0,3389.0,2151.0,466.0,122.0,82.0
510937,County,2020/06/08,54.0,WV,54029.0,Hancock County,5682.0,23412.0,95984.0,21837.0,24799.0,13546.0,15085.0,12131.0,6307.0,1769.0,393.0,107.0,10.0
514092,County,2020/06/09,54.0,WV,54029.0,Hancock County,6659.0,22435.0,84895.0,16989.0,23716.0,10890.0,13408.0,11443.0,6284.0,1562.0,501.0,78.0,24.0
515722,County,2020/06/10,54.0,WV,54029.0,Hancock County,6502.0,22592.0,86677.0,20451.0,22869.0,11473.0,12215.0,12440.0,5504.0,1194.0,458.0,61.0,12.0
518926,County,2020/06/11,54.0,WV,54029.0,Hancock County,6464.0,22630.0,92772.0,24026.0,24210.0,10862.0,13048.0,11744.0,6818.0,1494.0,494.0,64.0,12.0
523726,County,2020/06/12,54.0,WV,54029.0,Hancock County,6458.0,22636.0,85335.0,19202.0,21955.0,10782.0,12326.0,11984.0,6844.0,1518.0,563.0,148.0,13.0
526864,County,2020/06/13,54.0,WV,54029.0,Hancock County,6676.0,22418.0,87385.0,20339.0,21732.0,12500.0,16586.0,10631.0,3988.0,1188.0,329.0,79.0,13.0
530069,County,2020/06/14,54.0,WV,54029.0,Hancock County,7334.0,21760.0,79430.0,20223.0,21139.0,9759.0,12956.0,8367.0,4422.0,1525.0,844.0,154.0,41.0
531697,County,2020/06/15,54.0,WV,54029.0,Hancock County,6804.0,22290.0,82432.0,19652.0,21532.0,10591.0,11722.0,11985.0,4694.0,1828.0,297.0,105.0,26.0
536478,County,2020/06/16,54.0,WV,54029.0,Hancock County,6341.0,22753.0,89936.0,24625.0,20150.0,11578.0,13393.0,11992.0,5767.0,1765.0,566.0,36.0,64.0
539647,County,2020/06/17,54.0,WV,54029.0,Hancock County,6396.0,22698.0,95064.0,27446.0,24907.0,11187.0,11919.0,11934.0,5487.0,1661.0,405.0,67.0,51.0
542841,County,2020/06/18,54.0,WV,54029.0,Hancock County,6436.0,22658.0,90135.0,22424.0,25466.0,10584.0,13379.0,11043.0,5404.0,1490.0,251.0,68.0,26.0
544468,County,2020/06/19,54.0,WV,54029.0,Hancock County,6671.0,22423.0,92237.0,22611.0,24484.0,10877.0,12711.0,13592.0,5398.0,2046.0,451.0,54.0,13.0
547673,County,2020/06/20,54.0,WV,54029.0,Hancock County,6925.0,22169.0,84822.0,21719.0,22600.0,11011.0,13130.0,10675.0,4053.0,1168.0,403.0,35.0,28.0
550878,County,2020/06/21,54.0,WV,54029.0,Hancock County,7641.0,21453.0,78833.0,18609.0,23754.0,10644.0,10955.0,8227.0,4363.0,1600.0,596.0,70.0,15.0
554051,County,2020/06/22,54.0,WV,54029.0,Hancock County,6703.0,22391.0,85241.0,22311.0,23234.0,10758.0,10607.0,11631.0,4731.0,1256.0,616.0,74.0,23.0
558812,County,2020/06/23,54.0,WV,54029.0,Hancock County,6661.0,22433.0,93002.0,23549.0,24507.0,11363.0,12352.0,12131.0,6869.0,1844.0,299.0,64.0,24.0
560443,County,2020/06/24,54.0,WV,54029.0,Hancock County,6601.0,22493.0,93760.0,25988.0,25030.0,11930.0,11593.0,11603.0,6236.0,1011.0,305.0,39.0,25.0
563633,County,2020/06/25,54.0,WV,54029.0,Hancock County,6244.0,22850.0,90889.0,21801.0,25435.0,11052.0,12988.0,11237.0,6700.0,1246.0,380.0,50.0,0.0
568478,County,2020/06/26,54.0,WV,54029.0,Hancock County,6706.0,22388.0,85732.0,20732.0,22448.0,11497.0,11930.0,11397.0,6207.0,1030.0,444.0,35.0,12.0
570008,County,2020/06/27,54.0,WV,54029.0,Hancock County,7041.0,22053.0,94744.0,25919.0,24318.0,11936.0,15096.0,9298.0,6131.0,1606.0,381.0,30.0,29.0
574802,County,2020/06/28,54.0,WV,54029.0,Hancock County,6944.0,22150.0,85208.0,24398.0,21212.0,11274.0,11340.0,9619.0,5231.0,1340.0,661.0,76.0,57.0
577974,County,2020/06/29,54.0,WV,54029.0,Hancock County,6869.0,22225.0,94193.0,25514.0,25006.0,10818.0,13134.0,10950.0,6482.0,1916.0,295.0,64.0,14.0
579617,County,2020/06/30,54.0,WV,54029.0,Hancock County,6662.0,22432.0,86138.0,22412.0,20573.0,9467.0,13765.0,10518.0,7334.0,1612.0,370.0,59.0,28.0
582820,County,2020/07/01,54.0,WV,54029.0,Hancock County,6719.0,22375.0,87159.0,25297.0,22135.0,9317.0,11569.0,9660.0,6418.0,2251.0,427.0,85.0,0.0
586012,County,2020/07/02,54.0,WV,54029.0,Hancock County,7197.0,21897.0,96471.0,23140.0,26997.0,11731.0,13786.0,11927.0,7111.0,1323.0,403.0,53.0,0.0
589194,County,2020/07/03,54.0,WV,54029.0,Hancock County,8142.0,20952.0,85249.0,20615.0,22322.0,11432.0,11863.0,11333.0,6172.0,1024.0,441.0,35.0,12.0
592398,County,2020/07/04,54.0,WV,54029.0,Hancock County,7745.0,21349.0,72933.0,17637.0,19097.0,9781.0,10149.0,9695.0,5280.0,876.0,378.0,30.0,10.0
597154,County,2020/07/05,54.0,WV,54029.0,Hancock County,7895.0,21199.0,76904.0,19698.0,21119.0,10250.0,9382.0,8961.0,4567.0,2314.0,518.0,61.0,34.0
598248,County,2020/07/06,54.0,WV,54029.0,Hancock County,7229.0,21865.0,81147.0,20859.0,20913.0,10231.0,11238.0,10221.0,5641.0,1553.0,357.0,84.0,50.0
601911,County,2020/07/07,54.0,WV,54029.0,Hancock County,7299.0,21795.0,77705.0,19543.0,18599.0,10781.0,11586.0,8418.0,6221.0,2001.0,431.0,64.0,61.0
605054,County,2020/07/08,54.0,WV,54029.0,Hancock County,7549.0,21545.0,77055.0,21093.0,18522.0,9084.0,9804.0,9991.0,6674.0,1345.0,479.0,50.0,13.0
609923,County,2020/07/09,54.0,WV,54029.0,Hancock County,7694.0,21400.0,85955.0,21482.0,21517.0,11380.0,12866.0,8670.0,7894.0,1575.0,430.0,90.0,51.0
613129,County,2020/07/10,54.0,WV,54029.0,Hancock County,6977.0,22117.0,79898.0,20456.0,20032.0,9137.0,11179.0,9882.0,7143.0,1651.0,247.0,90.0,81.0
614807,County,2020/07/11,54.0,WV,54029.0,Hancock County,7582.0,21512.0,82159.0,20782.0,21877.0,8916.0,12427.0,10652.0,5602.0,1657.0,123.0,54.0,69.0
617929,County,2020/07/12,54.0,WV,54029.0,Hancock County,7777.0,21317.0,78485.0,21798.0,18840.0,10066.0,11298.0,8327.0,5442.0,2361.0,268.0,44.0,41.0
621118,County,2020/07/13,54.0,WV,54029.0,Hancock County,6764.0,22330.0,86405.0,24151.0,23942.0,9739.0,11129.0,9883.0,5744.0,1398.0,331.0,41.0,47.0
624319,County,2020/07/14,54.0,WV,54029.0,Hancock County,7263.0,21831.0,88113.0,21464.0,25447.0,11081.0,10359.0,12834.0,5400.0,1142.0,339.0,22.0,25.0
629105,County,2020/07/15,54.0,WV,54029.0,Hancock County,7150.0,21944.0,94211.0,24932.0,24514.0,12329.0,11980.0,12208.0,5790.0,2089.0,338.0,31.0,0.0
630782,County,2020/07/16,54.0,WV,54029.0,Hancock County,6888.0,22206.0,84036.0,23200.0,20167.0,10675.0,11499.0,10728.0,5557.0,1868.0,259.0,22.0,61.0
633889,County,2020/07/17,54.0,WV,54029.0,Hancock County,7343.0,21751.0,87454.0,24388.0,22241.0,11528.0,11696.0,10579.0,5198.0,1337.0,423.0,51.0,13.0
638669,County,2020/07/18,54.0,WV,54029.0,Hancock County,7909.0,21185.0,82258.0,21292.0,18153.0,11672.0,11113.0,11219.0,5679.0,2499.0,508.0,28.0,95.0
641873,County,2020/07/19,54.0,WV,54029.0,Hancock County,8454.0,20640.0,68904.0,19222.0,17128.0,9022.0,9597.0,6556.0,5331.0,1530.0,415.0,88.0,15.0
643483,County,2020/07/20,54.0,WV,54029.0,Hancock County,8043.0,21051.0,78445.0,19682.0,20200.0,10917.0,10120.0,9633.0,5574.0,1983.0,282.0,28.0,26.0
647052,County,2020/07/21,54.0,WV,54029.0,Hancock County,8101.0,20993.0,85624.0,23291.0,21736.0,11494.0,11059.0,11233.0,4716.0,1732.0,289.0,62.0,12.0
651436,County,2020/07/22,54.0,WV,54029.0,Hancock County,7819.0,21275.0,77755.0,18836.0,20882.0,9873.0,10026.0,10238.0,5746.0,1706.0,324.0,101.0,23.0
652980,County,2020/07/23,54.0,WV,54029.0,Hancock County,7956.0,21138.0,81029.0,21679.0,21207.0,8409.0,10521.0,10855.0,6456.0,1597.0,225.0,57.0,23.0
656102,County,2020/07/24,54.0,WV,54029.0,Hancock County,7357.0,21737.0,86150.0,19728.0,21443.0,11092.0,11606.0,13106.0,6506.0,2165.0,380.0,49.0,75.0
659519,County,2020/07/25,54.0,WV,54029.0,Hancock County,8063.0,21031.0,86273.0,24049.0,23169.0,10389.0,12102.0,8956.0,5037.0,1995.0,428.0,85.0,63.0
662647,County,2020/07/26,54.0,WV,54029.0,Hancock County,7920.0,21174.0,81065.0,20896.0,20880.0,10961.0,12265.0,7982.0,6060.0,1466.0,464.0,78.0,13.0
667427,County,2020/07/27,54.0,WV,54029.0,Hancock County,7607.0,21487.0,79672.0,19096.0,19706.0,9244.0,11821.0,11383.0,5710.0,2198.0,426.0,64.0,24.0
670630,County,2020/07/28,54.0,WV,54029.0,Hancock County,7694.0,21400.0,87740.0,22354.0,21070.0,11888.0,12735.0,10900.0,6476.0,1783.0,443.0,67.0,24.0
673795,County,2020/07/29,54.0,WV,54029.0,Hancock County,7845.0,21249.0,88120.0,20586.0,23970.0,11012.0,11326.0,12062.0,7031.0,1534.0,514.0,73.0,12.0
676974,County,2020/07/30,54.0,WV,54029.0,Hancock County,7527.0,21567.0,85919.0,20969.0,23057.0,9404.0,12522.0,11715.0,6614.0,1239.0,263.0,101.0,35.0
678623,County,2020/07/31,54.0,WV,54029.0,Hancock County,7476.0,21618.0,85933.0,21424.0,19958.0,12269.0,11336.0,11306.0,6904.0,2012.0,589.0,113.0,22.0
681782,County,2020/08/01,54.0,WV,54029.0,Hancock County,8348.0,20746.0,79421.0,18869.0,22307.0,9053.0,10558.0,9391.0,6297.0,2385.0,478.0,55.0,28.0
685004,County,2020/08/02,54.0,WV,54029.0,Hancock County,8344.0,20750.0,74337.0,18848.0,20533.0,9360.0,8997.0,8558.0,5956.0,1338.0,634.0,70.0,43.0
688201,County,2020/08/03,54.0,WV,54029.0,Hancock County,7751.0,21343.0,88273.0,23702.0,22122.0,9051.0,12421.0,13217.0,5631.0,1472.0,498.0,89.0,70.0
692976,County,2020/08/04,54.0,WV,54029.0,Hancock County,6927.0,22167.0,88016.0,22830.0,22947.0,9227.0,13615.0,11665.0,6136.0,1317.0,223.0,44.0,12.0
694604,County,2020/08/05,54.0,WV,54029.0,Hancock County,7196.0,21898.0,86431.0,20550.0,23002.0,11549.0,12123.0,12096.0,5820.0,833.0,372.0,60.0,26.0
699347,County,2020/08/06,54.0,WV,54029.0,Hancock County,6929.0,22165.0,88645.0,19549.0,24734.0,11957.0,12716.0,12618.0,5502.0,1286.0,203.0,54.0,26.0
702543,County,2020/08/07,54.0,WV,54029.0,Hancock County,7012.0,22082.0,92672.0,24593.0,23387.0,12127.0,12129.0,12073.0,6379.0,1719.0,168.0,43.0,54.0
704172,County,2020/08/08,54.0,WV,54029.0,Hancock County,7287.0,21807.0,89450.0,22243.0,25728.0,12193.0,10757.0,11107.0,5245.0,1819.0,270.0,43.0,45.0
707362,County,2020/08/09,54.0,WV,54029.0,Hancock County,7719.0,21375.0,81201.0,21963.0,20257.0,9816.0,12905.0,9565.0,5313.0,1119.0,224.0,39.0,0.0
710632,County,2020/08/10,54.0,WV,54029.0,Hancock County,7243.0,21851.0,89312.0,22717.0,22485.0,11967.0,13643.0,11148.0,6465.0,610.0,210.0,52.0,15.0
713800,County,2020/08/11,54.0,WV,54029.0,Hancock County,6927.0,22167.0,86265.0,18789.0,23646.0,10945.0,12942.0,11778.0,6183.0,1666.0,222.0,39.0,55.0
716848,County,2020/08/12,54.0,WV,54029.0,Hancock County,7484.0,21610.0,82465.0,18650.0,21795.0,12301.0,10239.0,11519.0,5783.0,1607.0,393.0,74.0,104.0
720140,County,2020/08/13,54.0,WV,54029.0,Hancock County,6954.0,22140.0,80480.0,19192.0,20689.0,9004.0,11981.0,10537.0,6915.0,1584.0,310.0,57.0,211.0
724932,County,2020/08/14,54.0,WV,54029.0,Hancock County,6555.0,22539.0,90455.0,21868.0,22588.0,12282.0,13060.0,11510.0,6793.0,1722.0,356.0,88.0,188.0
726564,County,2020/08/15,54.0,WV,54029.0,Hancock County,7027.0,22067.0,90530.0,22008.0,24507.0,12701.0,12670.0,11024.0,5431.0,1542.0,401.0,47.0,199.0
729722,County,2020/08/16,54.0,WV,54029.0,Hancock County,8293.0,20801.0,80097.0,18776.0,20925.0,11535.0,11579.0,9679.0,5147.0,1536.0,540.0,89.0,291.0
734502,County,2020/08/17,54.0,WV,54029.0,Hancock County,8288.0,20806.0,81186.0,16863.0,21599.0,10483.0,12420.0,10479.0,6273.0,2063.0,566.0,109.0,331.0
737674,County,2020/08/18,54.0,WV,54029.0,Hancock County,7584.0,21510.0,80836.0,17627.0,21435.0,9529.0,12735.0,9960.0,7313.0,1341.0,545.0,109.0,242.0
740869,County,2020/08/19,54.0,WV,54029.0,Hancock County,7251.0,21843.0,83589.0,21008.0,21030.0,11466.0,11706.0,8724.0,6580.0,2053.0,550.0,127.0,345.0
744068,County,2020/08/20,54.0,WV,54029.0,Hancock County,7097.0,21997.0,86486.0,20226.0,23981.0,9699.0,13357.0,9296.0,6643.0,2244.0,555.0,123.0,362.0
745698,County,2020/08/21,54.0,WV,54029.0,Hancock County,6870.0,22224.0,90813.0,20402.0,24108.0,11999.0,13762.0,10660.0,6543.0,2478.0,507.0,160.0,194.0
750478,County,2020/08/22,54.0,WV,54029.0,Hancock County,7377.0,21717.0,83731.0,17511.0,21593.0,11534.0,11916.0,11566.0,6486.0,2327.0,462.0,62.0,274.0
753648,County,2020/08/23,54.0,WV,54029.0,Hancock County,8418.0,20676.0,67621.0,12536.0,17479.0,9790.0,11422.0,8230.0,6373.0,1281.0,293.0,75.0,142.0
755317,County,2020/08/24,54.0,WV,54029.0,Hancock County,8220.0,20874.0,77615.0,16569.0,20697.0,10431.0,11045.0,10399.0,6206.0,1666.0,264.0,88.0,250.0
758468,County,2020/08/25,54.0,WV,54029.0,Hancock County,7943.0,21151.0,79718.0,18522.0,20829.0,9735.0,11296.0,11422.0,5778.0,1646.0,223.0,37.0,230.0
763239,County,2020/08/26,54.0,WV,54029.0,Hancock County,7943.0,21151.0,81591.0,18784.0,23031.0,9163.0,11557.0,10135.0,6760.0,1663.0,357.0,67.0,74.0
766435,County,2020/08/27,54.0,WV,54029.0,Hancock County,7868.0,21226.0,83005.0,19936.0,22494.0,10285.0,10970.0,10399.0,6665.0,1812.0,329.0,44.0,71.0
769650,County,2020/08/28,54.0,WV,54029.0,Hancock County,7885.0,21209.0,81716.0,19058.0,21678.0,9371.0,11528.0,10873.0,6960.0,1748.0,406.0,62.0,32.0
772802,County,2020/08/29,54.0,WV,54029.0,Hancock County,8126.0,20968.0,80520.0,15802.0,21938.0,10639.0,11996.0,11809.0,6512.0,1355.0,362.0,40.0,67.0
774476,County,2020/08/30,54.0,WV,54029.0,Hancock County,9000.0,20094.0,74124.0,15657.0,21762.0,9721.0,10290.0,9022.0,5170.0,1801.0,527.0,90.0,84.0
779197,County,2020/08/31,54.0,WV,54029.0,Hancock County,8082.0,21012.0,72578.0,17171.0,19628.0,9596.0,9413.0,9109.0,5492.0,1711.0,321.0,89.0,48.0
780810,County,2020/09/01,54.0,WV,54029.0,Hancock County,7822.0,21272.0,80137.0,17488.0,22912.0,11101.0,10980.0,9441.0,5732.0,1890.0,438.0,108.0,47.0
784834,County,2020/09/02,54.0,WV,54029.0,Hancock County,8016.0,21078.0,76465.0,17434.0,20985.0,9779.0,10970.0,9502.0,5928.0,1063.0,635.0,95.0,74.0
788794,County,2020/09/03,54.0,WV,54029.0,Hancock County,7553.0,21541.0,85594.0,18443.0,23972.0,11071.0,10563.0,11580.0,7539.0,1798.0,465.0,97.0,66.0
790408,County,2020/09/04,54.0,WV,54029.0,Hancock County,8202.0,20892.0,84826.0,17938.0,23044.0,10588.0,12512.0,11561.0,6776.0,1742.0,482.0,105.0,78.0
795169,County,2020/09/05,54.0,WV,54029.0,Hancock County,7897.0,21197.0,79284.0,17644.0,21829.0,9994.0,10228.0,10481.0,6452.0,2091.0,473.0,54.0,38.0
798372,County,2020/09/06,54.0,WV,54029.0,Hancock County,9070.0,20024.0,70535.0,17551.0,17304.0,9482.0,9896.0,8376.0,5506.0,1649.0,609.0,81.0,81.0
801582,County,2020/09/07,54.0,WV,54029.0,Hancock County,9216.0,19878.0,66256.0,14917.0,17849.0,9692.0,8806.0,6696.0,5679.0,1638.0,717.0,78.0,184.0
803212,County,2020/09/08,54.0,WV,54029.0,Hancock County,8112.0,20982.0,89087.0,19843.0,23748.0,12663.0,11437.0,11712.0,7342.0,1959.0,324.0,35.0,24.0
806378,County,2020/09/09,54.0,WV,54029.0,Hancock County,7934.0,21160.0,90407.0,17606.0,25746.0,11789.0,13077.0,12827.0,7152.0,1653.0,433.0,66.0,58.0
811146,County,2020/09/10,54.0,WV,54029.0,Hancock County,8141.0,20953.0,88895.0,21253.0,24035.0,11241.0,12041.0,11126.0,6382.0,2124.0,567.0,67.0,59.0
814331,County,2020/09/11,54.0,WV,54029.0,Hancock County,7658.0,21436.0,93316.0,21970.0,24888.0,11912.0,13813.0,11970.0,6702.0,1515.0,431.0,69.0,46.0
815961,County,2020/09/12,54.0,WV,54029.0,Hancock County,8289.0,20805.0,81133.0,17481.0,21410.0,10094.0,11753.0,9574.0,7314.0,2707.0,655.0,91.0,54.0
819132,County,2020/09/13,54.0,WV,54029.0,Hancock County,8838.0,20256.0,68134.0,11998.0,18584.0,10848.0,9709.0,7676.0,5749.0,2751.0,695.0,77.0,47.0
823914,County,2020/09/14,54.0,WV,54029.0,Hancock County,8051.0,21043.0,84080.0,20912.0,19940.0,12389.0,11347.0,10884.0,6004.0,2019.0,500.0,50.0,35.0
825542,County,2020/09/15,54.0,WV,54029.0,Hancock County,7775.0,21319.0,86578.0,19210.0,23281.0,12079.0,10950.0,11363.0,7742.0,1301.0,558.0,72.0,22.0
828783,County,2020/09/16,54.0,WV,54029.0,Hancock County,8144.0,20950.0,85665.0,19536.0,22243.0,10871.0,11786.0,12364.0,6893.0,1381.0,486.0,46.0,59.0
833527,County,2020/09/17,54.0,WV,54029.0,Hancock County,8028.0,21066.0,84897.0,19423.0,23491.0,10046.0,11130.0,10897.0,7596.0,1657.0,574.0,59.0,24.0
836689,County,2020/09/18,54.0,WV,54029.0,Hancock County,7530.0,21564.0,89539.0,21134.0,22685.0,12169.0,11458.0,12001.0,7561.0,2135.0,284.0,89.0,23.0
838318,County,2020/09/19,54.0,WV,54029.0,Hancock County,7916.0,21178.0,93798.0,20417.0,25903.0,11639.0,15301.0,11375.0,6987.0,1848.0,292.0,36.0,0.0
843093,County,2020/09/20,54.0,WV,54029.0,Hancock County,8063.0,21031.0,76671.0,16349.0,23026.0,10776.0,10136.0,8886.0,4938.0,1862.0,663.0,35.0,0.0
846297,County,2020/09/21,54.0,WV,54029.0,Hancock County,7732.0,21362.0,76594.0,14816.0,22004.0,11212.0,10743.0,10207.0,5390.0,1776.0,351.0,42.0,53.0
847926,County,2020/09/22,54.0,WV,54029.0,Hancock County,6752.0,22342.0,88911.0,16063.0,26630.0,13917.0,12138.0,12214.0,5873.0,1700.0,300.0,50.0,26.0
851093,County,2020/09/23,54.0,WV,54029.0,Hancock County,6660.0,22434.0,85107.0,18132.0,22239.0,11112.0,13340.0,12215.0,6427.0,1145.0,475.0,9.0,13.0
855859,County,2020/09/24,54.0,WV,54029.0,Hancock County,7078.0,22016.0,86654.0,17353.0,25536.0,11608.0,12822.0,11513.0,6142.0,1265.0,369.0,46.0,0.0
857488,County,2020/09/25,54.0,WV,54029.0,Hancock County,6826.0,22268.0,95797.0,22854.0,24561.0,12296.0,14149.0,13572.0,6452.0,1460.0,416.0,37.0,0.0
860674,County,2020/09/26,54.0,WV,54029.0,Hancock County,7504.0,21590.0,87789.0,21137.0,22184.0,11753.0,13828.0,10494.0,6230.0,1711.0,379.0,27.0,46.0
865471,County,2020/09/27,54.0,WV,54029.0,Hancock County,7602.0,21492.0,79363.0,16360.0,22051.0,10383.0,12272.0,9299.0,6797.0,1616.0,502.0,53.0,30.0
868629,County,2020/09/28,54.0,WV,54029.0,Hancock County,7445.0,21649.0,85194.0,21657.0,20521.0,10132.0,12586.0,10861.0,7395.0,1653.0,343.0,5.0,41.0
870257,County,2020/09/29,54.0,WV,54029.0,Hancock County,7386.0,21708.0,86656.0,17312.0,21245.0,12993.0,12476.0,12118.0,7845.0,2380.0,220.0,62.0,5.0
875036,County,2020/09/30,54.0,WV,54029.0,Hancock County,7243.0,21851.0,85740.0,18359.0,21275.0,12049.0,12659.0,11161.0,7566.0,2163.0,453.0,42.0,13.0
876664,County,2020/10/01,54.0,WV,54029.0,Hancock County,6655.0,22439.0,86868.0,16956.0,23952.0,11870.0,12471.0,11522.0,7415.0,2381.0,261.0,29.0,11.0
881405,County,2020/10/02,54.0,WV,54029.0,Hancock County,7120.0,21974.0,81515.0,16272.0,20160.0,11609.0,12861.0,11739.0,6421.0,1963.0,420.0,49.0,21.0
884600,County,2020/10/03,54.0,WV,54029.0,Hancock County,7870.0,21224.0,81609.0,17946.0,22381.0,10338.0,12659.0,9202.0,6831.0,1662.0,526.0,44.0,20.0
887727,County,2020/10/04,54.0,WV,54029.0,Hancock County,7941.0,21153.0,74684.0,15492.0,19847.0,11783.0,10499.0,9584.0,4721.0,1997.0,699.0,34.0,28.0
890912,County,2020/10/05,54.0,WV,54029.0,Hancock County,8461.0,20633.0,75186.0,16404.0,20770.0,9170.0,10899.0,9405.0,5603.0,2565.0,299.0,42.0,29.0
894099,County,2020/10/06,54.0,WV,54029.0,Hancock County,8083.0,21011.0,80934.0,15715.0,22555.0,11870.0,12353.0,9029.0,6977.0,2134.0,235.0,47.0,19.0
897296,County,2020/10/07,54.0,WV,54029.0,Hancock County,7722.0,21372.0,83640.0,15769.0,22526.0,10896.0,11419.0,12287.0,8391.0,2040.0,255.0,36.0,21.0
900510,County,2020/10/08,54.0,WV,54029.0,Hancock County,7833.0,21261.0,74799.0,13795.0,19995.0,10823.0,10299.0,11636.0,6054.0,1672.0,415.0,76.0,34.0
903697,County,2020/10/09,54.0,WV,54029.0,Hancock County,7842.0,21252.0,87410.0,15981.0,23390.0,12926.0,10882.0,14329.0,7799.0,1708.0,339.0,37.0,19.0
906879,County,2020/10/10,54.0,WV,54029.0,Hancock County,8142.0,20952.0,82084.0,16179.0,21319.0,11046.0,12748.0,10923.0,6942.0,2544.0,340.0,28.0,15.0
907719,County,2020/10/11,54.0,WV,54029.0,Hancock County,8569.0,20525.0,67745.0,14641.0,18602.0,8112.0,11762.0,8062.0,4327.0,1749.0,428.0,33.0,29.0
910418,County,2020/10/12,54.0,WV,54029.0,Hancock County,8179.0,20915.0,78578.0,16918.0,21681.0,9782.0,11061.0,10723.0,6673.0,1278.0,401.0,42.0,19.0
913937,County,2020/10/13,54.0,WV,54029.0,Hancock County,7855.0,21239.0,88248.0,22312.0,25170.0,11591.0,10340.0,10936.0,5844.0,1701.0,277.0,54.0,23.0
917079,County,2020/10/14,54.0,WV,54029.0,Hancock County,7623.0,21471.0,80054.0,17283.0,21763.0,10947.0,10232.0,10753.0,6501.0,1997.0,509.0,49.0,20.0
920106,County,2020/10/15,54.0,WV,54029.0,Hancock County,7778.0,21316.0,74911.0,16723.0,20147.0,10788.0,8273.0,10461.0,6254.0,1695.0,480.0,66.0,24.0
923278,County,2020/10/16,54.0,WV,54029.0,Hancock County,7833.0,21261.0,88021.0,20727.0,24158.0,10299.0,12179.0,11983.0,6572.0,1377.0,632.0,71.0,23.0
926500,County,2020/10/17,54.0,WV,54029.0,Hancock County,7970.0,21124.0,80646.0,17463.0,19741.0,12017.0,12153.0,10317.0,6167.0,2055.0,633.0,62.0,38.0
929597,County,2020/10/18,54.0,WV,54029.0,Hancock County,8449.0,20645.0,69530.0,12656.0,20371.0,9912.0,10245.0,9010.0,5087.0,1704.0,470.0,37.0,38.0
933153,County,2020/10/19,54.0,WV,54029.0,Hancock County,7593.0,21501.0,75728.0,14727.0,18198.0,13264.0,10520.0,10345.0,6194.0,1960.0,426.0,51.0,43.0
935998,County,2020/10/20,54.0,WV,54029.0,Hancock County,7808.0,21286.0,72006.0,12653.0,18036.0,11293.0,10205.0,11054.0,6646.0,1431.0,616.0,43.0,29.0
939917,County,2020/10/21,54.0,WV,54029.0,Hancock County,7978.0,21116.0,76005.0,15640.0,19444.0,10977.0,11829.0,9008.0,6668.0,1869.0,510.0,34.0,26.0
942769,County,2020/10/22,54.0,WV,54029.0,Hancock County,7389.0,21705.0,81111.0,15622.0,23403.0,10922.0,11169.0,11800.0,5915.0,1745.0,454.0,51.0,30.0
945536,County,2020/10/23,54.0,WV,54029.0,Hancock County,7389.0,21705.0,90698.0,17753.0,23731.0,12426.0,13064.0,13799.0,7202.0,2144.0,510.0,31.0,38.0
949128,County,2020/10/24,54.0,WV,54029.0,Hancock County,7633.0,21461.0,80617.0,16758.0,21153.0,10099.0,13498.0,11417.0,6000.0,1333.0,298.0,26.0,35.0
