,Level,Date,State FIPS,State Postal Code,County FIPS,County Name,Population Staying at Home,Population Not Staying at Home,Number of Trips,Number of Trips <1,Number of Trips 1-3,Number of Trips 3-5,Number of Trips 5-10,Number of Trips 10-25,Number of Trips 25-50,Number of Trips 50-100,Number of Trips 100-250,Number of Trips 250-500,Number of Trips >=500
1387,County,2020/01/01,27.0,MN,27147.0,Steele County,8742.0,28061.0,98329.0,19766.0,32423.0,13109.0,10304.0,10774.0,7140.0,3318.0,1094.0,296.0,105.0
3627,County,2020/01/02,27.0,MN,27147.0,Steele County,7237.0,29566.0,136084.0,32947.0,47501.0,16555.0,10233.0,14877.0,8602.0,4210.0,860.0,289.0,10.0
7281,County,2020/01/03,27.0,MN,27147.0,Steele County,6781.0,30022.0,129297.0,28572.0,41580.0,16401.0,11512.0,14855.0,9524.0,5498.0,928.0,364.0,63.0
11052,County,2020/01/04,27.0,MN,27147.0,Steele County,7490.0,29313.0,131918.0,33088.0,39036.0,15239.0,12690.0,14865.0,10016.0,5456.0,1033.0,405.0,90.0
14163,County,2020/01/05,27.0,MN,27147.0,Steele County,8624.0,28179.0,98939.0,22350.0,31911.0,12233.0,9472.0,11161.0,6652.0,3805.0,1028.0,250.0,77.0
18286,County,2020/01/06,27.0,MN,27147.0,Steele County,7176.0,29627.0,135169.0,35899.0,44078.0,16032.0,10898.0,14257.0,8898.0,4165.0,597.0,296.0,49.0
21432,County,2020/01/07,27.0,MN,27147.0,Steele County,7047.0,29756.0,134935.0,32385.0,45230.0,18167.0,10680.0,13647.0,8390.0,5130.0,1052.0,201.0,53.0
23059,County,2020/01/08,27.0,MN,27147.0,Steele County,7020.0,29783.0,130854.0,30919.0,42485.0,17791.0,11853.0,13722.0,8035.0,4825.0,948.0,234.0,42.0
27856,County,2020/01/09,27.0,MN,27147.0,Steele County,6996.0,29807.0,141281.0,36968.0,42091.0,17537.0,13150.0,14334.0,10151.0,5721.0,863.0,371.0,95.0
31014,County,2020/01/10,27.0,MN,27147.0,Steele County,6682.0,30121.0,150980.0,37678.0,48085.0,19841.0,12941.0,15036.0,10456.0,5507.0,1100.0,310.0,26.0
34258,County,2020/01/11,27.0,MN,27147.0,Steele County,7841.0,28962.0,127179.0,25174.0,39532.0,18522.0,13293.0,14628.0,8565.0,6250.0,959.0,170.0,86.0
37377,County,2020/01/12,27.0,MN,27147.0,Steele County,8367.0,28436.0,113507.0,26341.0,35074.0,17430.0,10359.0,12647.0,6084.0,4487.0,816.0,166.0,103.0
40626,County,2020/01/13,27.0,MN,27147.0,Steele County,7560.0,29243.0,129023.0,30155.0,43726.0,17803.0,11006.0,13359.0,7285.0,4348.0,979.0,235.0,127.0
42251,County,2020/01/14,27.0,MN,27147.0,Steele County,7053.0,29750.0,141359.0,36575.0,45333.0,17298.0,11920.0,15537.0,8218.0,5096.0,1075.0,232.0,75.0
46980,County,2020/01/15,27.0,MN,27147.0,Steele County,7036.0,29767.0,132415.0,32490.0,43974.0,17074.0,10663.0,14117.0,8023.0,4878.0,926.0,182.0,88.0
48508,County,2020/01/16,27.0,MN,27147.0,Steele County,6836.0,29967.0,131086.0,31168.0,41987.0,16029.0,12275.0,13204.0,8813.0,6257.0,934.0,289.0,130.0
53423,County,2020/01/17,27.0,MN,27147.0,Steele County,7548.0,29255.0,123285.0,30264.0,41038.0,18409.0,12412.0,10802.0,5425.0,3884.0,785.0,144.0,122.0
54996,County,2020/01/18,27.0,MN,27147.0,Steele County,9491.0,27312.0,117028.0,30687.0,45337.0,16103.0,11056.0,7022.0,3142.0,2885.0,450.0,163.0,183.0
59791,County,2020/01/19,27.0,MN,27147.0,Steele County,8734.0,28069.0,110490.0,23660.0,36743.0,19810.0,11036.0,9970.0,4840.0,3363.0,602.0,397.0,69.0
61376,County,2020/01/20,27.0,MN,27147.0,Steele County,7279.0,29524.0,126987.0,27373.0,43814.0,16780.0,12882.0,13251.0,7060.0,4350.0,1049.0,368.0,60.0
66153,County,2020/01/21,27.0,MN,27147.0,Steele County,7099.0,29704.0,134446.0,31778.0,45356.0,17123.0,10744.0,15638.0,8046.0,4568.0,903.0,202.0,88.0
69343,County,2020/01/22,27.0,MN,27147.0,Steele County,7050.0,29753.0,130860.0,35545.0,43929.0,14817.0,10853.0,12680.0,7127.0,4676.0,845.0,261.0,127.0
70968,County,2020/01/23,27.0,MN,27147.0,Steele County,6977.0,29826.0,148036.0,37848.0,51030.0,18275.0,11895.0,14230.0,8427.0,5045.0,784.0,348.0,154.0
74165,County,2020/01/24,27.0,MN,27147.0,Steele County,6570.0,30233.0,147964.0,34359.0,50917.0,17970.0,13231.0,15553.0,9717.0,5006.0,877.0,222.0,112.0
78917,County,2020/01/25,27.0,MN,27147.0,Steele County,7395.0,29408.0,134931.0,30501.0,41888.0,17998.0,13312.0,14211.0,9447.0,6504.0,719.0,226.0,125.0
81237,County,2020/01/26,27.0,MN,27147.0,Steele County,8036.0,28767.0,119658.0,25641.0,39349.0,17334.0,11574.0,12079.0,7546.0,4262.0,1458.0,297.0,118.0
85281,County,2020/01/27,27.0,MN,27147.0,Steele County,7014.0,29789.0,136522.0,32250.0,47386.0,15422.0,11229.0,14878.0,9508.0,4384.0,1020.0,337.0,108.0
86954,County,2020/01/28,27.0,MN,27147.0,Steele County,6727.0,30076.0,142020.0,33734.0,47562.0,17140.0,13311.0,14592.0,8806.0,5468.0,1158.0,121.0,128.0
90109,County,2020/01/29,27.0,MN,27147.0,Steele County,6520.0,30283.0,136957.0,31879.0,46769.0,16387.0,12657.0,14333.0,9308.0,4496.0,823.0,161.0,144.0
93413,County,2020/01/30,27.0,MN,27147.0,Steele County,6767.0,30036.0,143090.0,36299.0,48919.0,14956.0,12912.0,15212.0,8761.0,4881.0,757.0,249.0,144.0
98087,County,2020/01/31,27.0,MN,27147.0,Steele County,6123.0,30680.0,139566.0,32195.0,48099.0,14847.0,13000.0,14506.0,9062.0,5724.0,1701.0,249.0,183.0
101275,County,2020/02/01,27.0,MN,27147.0,Steele County,7168.0,29635.0,136505.0,29238.0,45569.0,19293.0,13345.0,13419.0,8805.0,5646.0,874.0,215.0,101.0
102893,County,2020/02/02,27.0,MN,27147.0,Steele County,7872.0,28931.0,121264.0,27013.0,42281.0,17718.0,9934.0,11393.0,6378.0,4394.0,1440.0,534.0,179.0
106103,County,2020/02/03,27.0,MN,27147.0,Steele County,6648.0,30155.0,137165.0,33602.0,46149.0,15723.0,12422.0,14774.0,7681.0,5221.0,1077.0,375.0,141.0
109298,County,2020/02/04,27.0,MN,27147.0,Steele County,6474.0,30329.0,137895.0,33160.0,45740.0,16762.0,12893.0,14698.0,7965.0,5461.0,641.0,269.0,306.0
114020,County,2020/02/05,27.0,MN,27147.0,Steele County,6664.0,30139.0,140943.0,34556.0,45371.0,17753.0,13487.0,15230.0,8391.0,4919.0,710.0,341.0,185.0
115587,County,2020/02/06,27.0,MN,27147.0,Steele County,6233.0,30570.0,145116.0,36684.0,46996.0,17784.0,12689.0,15408.0,8983.0,5165.0,949.0,294.0,164.0
118853,County,2020/02/07,27.0,MN,27147.0,Steele County,6062.0,30741.0,144734.0,34128.0,50078.0,16142.0,12670.0,15785.0,8520.0,6096.0,955.0,244.0,116.0
122099,County,2020/02/08,27.0,MN,27147.0,Steele County,6688.0,30115.0,130064.0,28302.0,39114.0,17854.0,11635.0,14608.0,9994.0,7190.0,1107.0,145.0,115.0
125400,County,2020/02/09,27.0,MN,27147.0,Steele County,10313.0,26490.0,107447.0,26635.0,37829.0,16149.0,8298.0,9369.0,4029.0,3764.0,685.0,398.0,291.0
129696,County,2020/02/10,27.0,MN,27147.0,Steele County,6788.0,30015.0,146546.0,35493.0,47590.0,18905.0,11874.0,17257.0,7989.0,6002.0,1011.0,299.0,126.0
133849,County,2020/02/11,27.0,MN,27147.0,Steele County,5991.0,30812.0,147550.0,35844.0,48840.0,17881.0,11716.0,16143.0,9387.0,6064.0,1132.0,307.0,236.0
135324,County,2020/02/12,27.0,MN,27147.0,Steele County,6543.0,30260.0,148399.0,36063.0,50314.0,17658.0,11394.0,16387.0,8399.0,6473.0,1161.0,355.0,195.0
138033,County,2020/02/13,27.0,MN,27147.0,Steele County,6690.0,30113.0,136294.0,32024.0,43235.0,15116.0,11718.0,16330.0,9881.0,5944.0,1323.0,527.0,196.0
141140,County,2020/02/14,27.0,MN,27147.0,Steele County,5797.0,31006.0,156863.0,34689.0,51422.0,19640.0,13581.0,19601.0,10126.0,5970.0,1312.0,321.0,201.0
144436,County,2020/02/15,27.0,MN,27147.0,Steele County,6997.0,29806.0,146491.0,32539.0,43736.0,17803.0,13655.0,17932.0,11199.0,7799.0,1315.0,351.0,162.0
147625,County,2020/02/16,27.0,MN,27147.0,Steele County,7858.0,28945.0,126331.0,28156.0,41260.0,16758.0,10424.0,15354.0,6371.0,5914.0,1225.0,560.0,309.0
152387,County,2020/02/17,27.0,MN,27147.0,Steele County,8673.0,28130.0,113171.0,27064.0,37819.0,13637.0,8885.0,12044.0,6915.0,5127.0,1182.0,278.0,220.0
154013,County,2020/02/18,27.0,MN,27147.0,Steele County,6941.0,29862.0,152255.0,37346.0,52607.0,17978.0,13095.0,14611.0,8951.0,5991.0,1054.0,383.0,239.0
158774,County,2020/02/19,27.0,MN,27147.0,Steele County,6104.0,30699.0,147389.0,35872.0,49476.0,16695.0,12107.0,16434.0,8924.0,6124.0,1296.0,279.0,182.0
161969,County,2020/02/20,27.0,MN,27147.0,Steele County,6528.0,30275.0,154783.0,38010.0,51957.0,18310.0,11769.0,17441.0,9160.0,6270.0,1378.0,400.0,88.0
165163,County,2020/02/21,27.0,MN,27147.0,Steele County,6619.0,30184.0,161631.0,38298.0,51399.0,19733.0,14077.0,18514.0,10652.0,6688.0,1592.0,463.0,215.0
168307,County,2020/02/22,27.0,MN,27147.0,Steele County,6231.0,30572.0,145440.0,32433.0,43634.0,16305.0,14623.0,18254.0,9957.0,8492.0,1201.0,292.0,249.0
169968,County,2020/02/23,27.0,MN,27147.0,Steele County,8020.0,28783.0,123520.0,27428.0,40658.0,15794.0,11904.0,12619.0,7921.0,5617.0,1072.0,370.0,137.0
174751,County,2020/02/24,27.0,MN,27147.0,Steele County,7288.0,29515.0,145316.0,36393.0,47921.0,17681.0,13319.0,15351.0,7878.0,5246.0,1142.0,187.0,198.0
177107,County,2020/02/25,27.0,MN,27147.0,Steele County,6113.0,30690.0,152161.0,36342.0,50248.0,19572.0,12474.0,16876.0,9365.0,5871.0,857.0,398.0,158.0
180251,County,2020/02/26,27.0,MN,27147.0,Steele County,6655.0,30148.0,132385.0,26215.0,43298.0,20671.0,13183.0,14076.0,9484.0,3976.0,1084.0,181.0,217.0
182159,County,2020/02/27,27.0,MN,27147.0,Steele County,6439.0,30364.0,152522.0,40494.0,50112.0,17141.0,12276.0,15527.0,9380.0,6012.0,1076.0,311.0,193.0
187569,County,2020/02/28,27.0,MN,27147.0,Steele County,6291.0,30512.0,163927.0,43190.0,53777.0,17336.0,13466.0,18767.0,9184.0,6233.0,1441.0,326.0,207.0
190667,County,2020/02/29,27.0,MN,27147.0,Steele County,6742.0,30061.0,151353.0,36236.0,46292.0,18149.0,17104.0,14704.0,10883.0,6548.0,929.0,315.0,193.0
192338,County,2020/03/01,27.0,MN,27147.0,Steele County,7050.0,29753.0,122139.0,30778.0,35712.0,17677.0,12335.0,11507.0,7456.0,5304.0,722.0,443.0,205.0
197138,County,2020/03/02,27.0,MN,27147.0,Steele County,6736.0,30067.0,150886.0,42784.0,46825.0,15835.0,14050.0,14550.0,10217.0,5070.0,1155.0,198.0,202.0
198718,County,2020/03/03,27.0,MN,27147.0,Steele County,6377.0,30426.0,151214.0,42060.0,49921.0,13938.0,11609.0,16781.0,9074.0,5740.0,1630.0,311.0,150.0
203501,County,2020/03/04,27.0,MN,27147.0,Steele County,6627.0,30176.0,149358.0,35591.0,48823.0,16523.0,12453.0,17245.0,9529.0,7190.0,1575.0,317.0,112.0
206704,County,2020/03/05,27.0,MN,27147.0,Steele County,5974.0,30829.0,145984.0,33757.0,47344.0,15690.0,13723.0,17101.0,10049.0,6326.0,1548.0,319.0,127.0
209918,County,2020/03/06,27.0,MN,27147.0,Steele County,5931.0,30872.0,162483.0,38123.0,54423.0,18805.0,12521.0,18222.0,10519.0,7635.0,1671.0,414.0,150.0
213150,County,2020/03/07,27.0,MN,27147.0,Steele County,6481.0,30322.0,145880.0,35451.0,45797.0,17274.0,11652.0,16495.0,10236.0,7439.0,1194.0,234.0,108.0
216261,County,2020/03/08,27.0,MN,27147.0,Steele County,7037.0,29766.0,127000.0,31549.0,39712.0,15920.0,11328.0,12605.0,7167.0,7051.0,1253.0,328.0,87.0
219460,County,2020/03/09,27.0,MN,27147.0,Steele County,6380.0,30423.0,144374.0,33279.0,47671.0,17156.0,11936.0,16534.0,10495.0,5768.0,1113.0,369.0,53.0
222654,County,2020/03/10,27.0,MN,27147.0,Steele County,6416.0,30387.0,145584.0,37381.0,45892.0,16929.0,9926.0,16737.0,9632.0,6780.0,1538.0,570.0,199.0
224278,County,2020/03/11,27.0,MN,27147.0,Steele County,6264.0,30539.0,133332.0,33301.0,39863.0,14023.0,10421.0,13300.0,9878.0,9153.0,2175.0,898.0,320.0
228974,County,2020/03/12,27.0,MN,27147.0,Steele County,6310.0,30493.0,142625.0,41467.0,44351.0,15951.0,9603.0,13264.0,6673.0,8432.0,1763.0,950.0,171.0
232244,County,2020/03/13,27.0,MN,27147.0,Steele County,6303.0,30500.0,137526.0,37347.0,40388.0,13530.0,9366.0,17529.0,10323.0,6232.0,1612.0,583.0,616.0
235298,County,2020/03/14,27.0,MN,27147.0,Steele County,8102.0,28701.0,126672.0,29085.0,32744.0,16746.0,14246.0,13957.0,7919.0,9335.0,1799.0,384.0,457.0
237057,County,2020/03/15,27.0,MN,27147.0,Steele County,8872.0,27931.0,110640.0,29378.0,36511.0,13758.0,7219.0,11720.0,6569.0,3907.0,1123.0,360.0,95.0
240251,County,2020/03/16,27.0,MN,27147.0,Steele County,7653.0,29150.0,143786.0,36104.0,50513.0,15071.0,10203.0,15107.0,8752.0,6262.0,1285.0,370.0,119.0
243434,County,2020/03/17,27.0,MN,27147.0,Steele County,8448.0,28355.0,133190.0,35504.0,41347.0,13326.0,12355.0,14473.0,9058.0,5427.0,1321.0,311.0,68.0
248165,County,2020/03/18,27.0,MN,27147.0,Steele County,8707.0,28096.0,129762.0,33974.0,39608.0,13600.0,10561.0,15204.0,8848.0,5780.0,1614.0,410.0,163.0
251420,County,2020/03/19,27.0,MN,27147.0,Steele County,9299.0,27504.0,117032.0,28697.0,37347.0,14438.0,8693.0,14343.0,7275.0,4194.0,1632.0,356.0,57.0
254595,County,2020/03/20,27.0,MN,27147.0,Steele County,9039.0,27764.0,128864.0,34720.0,41111.0,14186.0,10353.0,14653.0,7754.0,4324.0,1247.0,419.0,97.0
257787,County,2020/03/21,27.0,MN,27147.0,Steele County,10494.0,26309.0,118887.0,31608.0,42938.0,13605.0,9035.0,11505.0,5716.0,3488.0,610.0,261.0,121.0
260974,County,2020/03/22,27.0,MN,27147.0,Steele County,10375.0,26428.0,89162.0,23056.0,32108.0,11432.0,5965.0,8284.0,4388.0,2690.0,785.0,379.0,75.0
262612,County,2020/03/23,27.0,MN,27147.0,Steele County,8440.0,28363.0,108614.0,26429.0,34033.0,11797.0,8782.0,13346.0,9173.0,3340.0,1356.0,266.0,92.0
265764,County,2020/03/24,27.0,MN,27147.0,Steele County,8755.0,28048.0,108700.0,28276.0,32627.0,13618.0,8037.0,12901.0,7273.0,3941.0,1747.0,171.0,109.0
270565,County,2020/03/25,27.0,MN,27147.0,Steele County,8918.0,27885.0,109481.0,28609.0,33819.0,13733.0,8999.0,10820.0,6639.0,4613.0,1650.0,545.0,54.0
272191,County,2020/03/26,27.0,MN,27147.0,Steele County,8860.0,27943.0,110577.0,29582.0,31874.0,13314.0,9481.0,12735.0,7542.0,4453.0,1257.0,272.0,67.0
276954,County,2020/03/27,27.0,MN,27147.0,Steele County,8859.0,27944.0,117198.0,31574.0,35963.0,15299.0,10118.0,11631.0,7472.0,3759.0,1111.0,194.0,77.0
280139,County,2020/03/28,27.0,MN,27147.0,Steele County,10413.0,26390.0,78912.0,19274.0,29827.0,9426.0,4605.0,8055.0,3672.0,2716.0,809.0,410.0,118.0
281774,County,2020/03/29,27.0,MN,27147.0,Steele County,11041.0,25762.0,82527.0,19650.0,29105.0,11115.0,7222.0,6665.0,4689.0,2555.0,1033.0,315.0,178.0
286566,County,2020/03/30,27.0,MN,27147.0,Steele County,9094.0,27709.0,109820.0,31313.0,32361.0,13410.0,7854.0,12213.0,6697.0,4258.0,1393.0,257.0,64.0
289722,County,2020/03/31,27.0,MN,27147.0,Steele County,9219.0,27584.0,103834.0,28467.0,30827.0,10438.0,9881.0,10567.0,7786.0,4027.0,1452.0,325.0,64.0
292921,County,2020/04/01,27.0,MN,27147.0,Steele County,9391.0,27412.0,104534.0,27923.0,33430.0,12131.0,6980.0,11638.0,7006.0,3789.0,1188.0,385.0,64.0
294550,County,2020/04/02,27.0,MN,27147.0,Steele County,8867.0,27936.0,97407.0,24187.0,31445.0,10187.0,7697.0,10864.0,7492.0,3426.0,1687.0,294.0,128.0
299310,County,2020/04/03,27.0,MN,27147.0,Steele County,9470.0,27333.0,100287.0,27167.0,31464.0,10547.0,8280.0,11792.0,6281.0,3303.0,1132.0,230.0,91.0
300937,County,2020/04/04,27.0,MN,27147.0,Steele County,10123.0,26680.0,90897.0,23737.0,31451.0,9940.0,7576.0,9055.0,4707.0,3150.0,802.0,354.0,125.0
304118,County,2020/04/05,27.0,MN,27147.0,Steele County,10286.0,26517.0,89838.0,23286.0,34022.0,10411.0,5086.0,7499.0,5486.0,2580.0,1156.0,247.0,65.0
307327,County,2020/04/06,27.0,MN,27147.0,Steele County,8988.0,27815.0,104659.0,24553.0,33939.0,12445.0,9119.0,12934.0,7860.0,2613.0,748.0,380.0,68.0
310520,County,2020/04/07,27.0,MN,27147.0,Steele County,8986.0,27817.0,112277.0,30914.0,33353.0,12696.0,9499.0,12850.0,8186.0,3495.0,1048.0,197.0,39.0
313714,County,2020/04/08,27.0,MN,27147.0,Steele County,9173.0,27630.0,109041.0,30822.0,32796.0,9929.0,8722.0,11977.0,9067.0,3858.0,1531.0,283.0,56.0
318473,County,2020/04/09,27.0,MN,27147.0,Steele County,9742.0,27061.0,107454.0,28229.0,31425.0,11392.0,8464.0,13556.0,9096.0,4141.0,894.0,195.0,62.0
320110,County,2020/04/10,27.0,MN,27147.0,Steele County,8928.0,27875.0,118226.0,32971.0,33947.0,12681.0,10858.0,14163.0,8089.0,3952.0,1051.0,378.0,136.0
324863,County,2020/04/11,27.0,MN,27147.0,Steele County,9408.0,27395.0,112618.0,30900.0,35694.0,14319.0,10983.0,11188.0,5678.0,2703.0,804.0,280.0,69.0
328028,County,2020/04/12,27.0,MN,27147.0,Steele County,12462.0,24341.0,64013.0,11870.0,24034.0,8867.0,5851.0,6439.0,3845.0,2117.0,549.0,377.0,64.0
331251,County,2020/04/13,27.0,MN,27147.0,Steele County,9769.0,27034.0,104480.0,27856.0,31056.0,14927.0,8872.0,9248.0,7008.0,4076.0,1158.0,264.0,15.0
334426,County,2020/04/14,27.0,MN,27147.0,Steele County,9548.0,27255.0,82686.0,17630.0,27389.0,7119.0,6191.0,11530.0,5211.0,4915.0,2336.0,289.0,76.0
337679,County,2020/04/15,27.0,MN,27147.0,Steele County,9091.0,27712.0,89947.0,23053.0,26775.0,11302.0,6031.0,10171.0,4539.0,5270.0,2192.0,542.0,72.0
340773,County,2020/04/16,27.0,MN,27147.0,Steele County,9632.0,27171.0,91346.0,16608.0,31675.0,12466.0,5174.0,11218.0,9050.0,3778.0,1018.0,200.0,159.0
342557,County,2020/04/17,27.0,MN,27147.0,Steele County,9010.0,27793.0,93768.0,17059.0,31058.0,11856.0,8153.0,10571.0,7684.0,5656.0,1362.0,292.0,77.0
347184,County,2020/04/18,27.0,MN,27147.0,Steele County,10058.0,26745.0,86729.0,15503.0,32380.0,9940.0,9455.0,9763.0,6123.0,2071.0,1255.0,109.0,130.0
348835,County,2020/04/19,27.0,MN,27147.0,Steele County,10610.0,26193.0,86679.0,23918.0,24456.0,15113.0,6572.0,8074.0,4367.0,2519.0,1527.0,133.0,0.0
352041,County,2020/04/20,27.0,MN,27147.0,Steele County,8544.0,28259.0,83387.0,19316.0,19416.0,10206.0,10510.0,11310.0,6754.0,4545.0,1085.0,95.0,150.0
356801,County,2020/04/21,27.0,MN,27147.0,Steele County,8923.0,27880.0,106657.0,25987.0,31933.0,12807.0,10572.0,13166.0,7156.0,3785.0,877.0,344.0,30.0
359957,County,2020/04/22,27.0,MN,27147.0,Steele County,8941.0,27862.0,120359.0,31485.0,33801.0,13586.0,12101.0,14944.0,8341.0,4383.0,1378.0,309.0,31.0
361535,County,2020/04/23,27.0,MN,27147.0,Steele County,8443.0,28360.0,121734.0,29139.0,40195.0,15043.0,10840.0,12764.0,8545.0,3913.0,917.0,303.0,75.0
366423,County,2020/04/24,27.0,MN,27147.0,Steele County,8487.0,28316.0,122497.0,30286.0,40798.0,14560.0,10956.0,12916.0,8493.0,3072.0,1067.0,291.0,58.0
369579,County,2020/04/25,27.0,MN,27147.0,Steele County,8839.0,27964.0,112392.0,31035.0,34489.0,14795.0,10859.0,11014.0,6276.0,3067.0,754.0,74.0,29.0
372726,County,2020/04/26,27.0,MN,27147.0,Steele County,9189.0,27614.0,109013.0,31090.0,30446.0,16110.0,11693.0,10887.0,6587.0,1429.0,490.0,213.0,68.0
374399,County,2020/04/27,27.0,MN,27147.0,Steele County,8446.0,28357.0,122506.0,35603.0,35584.0,16141.0,11300.0,12442.0,6348.0,3749.0,1003.0,322.0,14.0
377550,County,2020/04/28,27.0,MN,27147.0,Steele County,8562.0,28241.0,102686.0,23644.0,32578.0,13789.0,7358.0,11818.0,8023.0,3322.0,1595.0,515.0,44.0
380802,County,2020/04/29,27.0,MN,27147.0,Steele County,8182.0,28621.0,112497.0,27054.0,32531.0,16740.0,10021.0,13733.0,6872.0,3568.0,1611.0,306.0,61.0
385548,County,2020/04/30,27.0,MN,27147.0,Steele County,8462.0,28341.0,118715.0,32457.0,36111.0,16136.0,9014.0,12627.0,8280.0,3069.0,720.0,301.0,0.0
387174,County,2020/05/01,27.0,MN,27147.0,Steele County,8047.0,28756.0,128660.0,36513.0,39738.0,15725.0,10090.0,12114.0,8082.0,4475.0,1464.0,405.0,54.0
390358,County,2020/05/02,27.0,MN,27147.0,Steele County,8547.0,28256.0,122958.0,36840.0,38875.0,15827.0,9762.0,11711.0,6256.0,2706.0,807.0,158.0,16.0
393570,County,2020/05/03,27.0,MN,27147.0,Steele County,8573.0,28230.0,109932.0,29754.0,33910.0,16549.0,8208.0,11946.0,5712.0,2453.0,1219.0,91.0,90.0
398324,County,2020/05/04,27.0,MN,27147.0,Steele County,8058.0,28745.0,119836.0,31176.0,35163.0,16188.0,10299.0,13794.0,8271.0,3343.0,1366.0,191.0,45.0
401500,County,2020/05/05,27.0,MN,27147.0,Steele County,8620.0,28183.0,123648.0,35876.0,36446.0,14452.0,10535.0,11621.0,9029.0,4305.0,1145.0,224.0,15.0
404706,County,2020/05/06,27.0,MN,27147.0,Steele County,8152.0,28651.0,125013.0,31375.0,39706.0,16517.0,9810.0,13863.0,8831.0,3822.0,678.0,355.0,56.0
406333,County,2020/05/07,27.0,MN,27147.0,Steele County,8275.0,28528.0,127565.0,36254.0,36408.0,14471.0,11528.0,15329.0,7773.0,4256.0,1318.0,143.0,85.0
411112,County,2020/05/08,27.0,MN,27147.0,Steele County,7967.0,28836.0,131452.0,34532.0,42007.0,16725.0,11548.0,11977.0,9715.0,3327.0,1229.0,321.0,71.0
414261,County,2020/05/09,27.0,MN,27147.0,Steele County,8667.0,28136.0,121427.0,30393.0,38584.0,17316.0,11612.0,12064.0,7729.0,2889.0,562.0,220.0,58.0
417489,County,2020/05/10,27.0,MN,27147.0,Steele County,9525.0,27278.0,101469.0,22757.0,32911.0,13818.0,9903.0,10776.0,6175.0,3543.0,919.0,631.0,36.0
419115,County,2020/05/11,27.0,MN,27147.0,Steele County,7267.0,29536.0,133856.0,37509.0,38408.0,16649.0,11239.0,14478.0,8320.0,5069.0,1741.0,348.0,95.0
422300,County,2020/05/12,27.0,MN,27147.0,Steele County,6999.0,29804.0,140061.0,38236.0,41123.0,16454.0,14309.0,15582.0,8426.0,4125.0,1557.0,208.0,41.0
425455,County,2020/05/13,27.0,MN,27147.0,Steele County,6956.0,29847.0,129722.0,32927.0,36328.0,15372.0,13242.0,16270.0,8625.0,4797.0,1596.0,434.0,131.0
430264,County,2020/05/14,27.0,MN,27147.0,Steele County,7238.0,29565.0,135691.0,39348.0,40944.0,13568.0,11998.0,13558.0,8497.0,5551.0,1814.0,349.0,64.0
431893,County,2020/05/15,27.0,MN,27147.0,Steele County,6537.0,30266.0,145274.0,43205.0,38185.0,17132.0,13415.0,16755.0,9084.0,4375.0,2458.0,576.0,89.0
436642,County,2020/05/16,27.0,MN,27147.0,Steele County,7409.0,29394.0,123852.0,33797.0,36571.0,16510.0,10955.0,13278.0,6489.0,4775.0,1054.0,303.0,120.0
438269,County,2020/05/17,27.0,MN,27147.0,Steele County,8336.0,28467.0,100554.0,25914.0,29753.0,15979.0,9115.0,9071.0,5956.0,2644.0,1929.0,121.0,72.0
441515,County,2020/05/18,27.0,MN,27147.0,Steele County,6621.0,30182.0,135984.0,35936.0,41913.0,15803.0,12676.0,14042.0,8982.0,5170.0,1040.0,384.0,38.0
444668,County,2020/05/19,27.0,MN,27147.0,Steele County,6508.0,30295.0,140083.0,36980.0,41768.0,17443.0,11147.0,14867.0,10330.0,5015.0,2077.0,419.0,37.0
449429,County,2020/05/20,27.0,MN,27147.0,Steele County,6085.0,30718.0,128964.0,31492.0,37711.0,15772.0,12142.0,15033.0,9315.0,5304.0,1858.0,319.0,18.0
452319,County,2020/05/21,27.0,MN,27147.0,Steele County,5651.0,31152.0,146513.0,33985.0,45488.0,17282.0,14822.0,17905.0,10856.0,4279.0,1552.0,294.0,50.0
455815,County,2020/05/22,27.0,MN,27147.0,Steele County,5701.0,31102.0,147247.0,33501.0,41311.0,18043.0,16311.0,19025.0,11619.0,4079.0,2665.0,627.0,66.0
457438,County,2020/05/23,27.0,MN,27147.0,Steele County,7294.0,29509.0,129173.0,30713.0,39858.0,19317.0,12599.0,13061.0,7858.0,3678.0,1709.0,258.0,122.0
460606,County,2020/05/24,27.0,MN,27147.0,Steele County,8062.0,28741.0,109393.0,28319.0,30398.0,16459.0,10929.0,12536.0,5842.0,3451.0,1202.0,200.0,57.0
465484,County,2020/05/25,27.0,MN,27147.0,Steele County,8090.0,28713.0,111288.0,27158.0,33257.0,14550.0,10094.0,13306.0,6556.0,3983.0,1799.0,460.0,125.0
468640,County,2020/05/26,27.0,MN,27147.0,Steele County,6744.0,30059.0,121470.0,29308.0,37665.0,14015.0,10627.0,14754.0,7931.0,4957.0,1674.0,462.0,77.0
470219,County,2020/05/27,27.0,MN,27147.0,Steele County,6781.0,30022.0,131805.0,32429.0,43356.0,16890.0,10033.0,13649.0,8867.0,4911.0,1219.0,398.0,53.0
473415,County,2020/05/28,27.0,MN,27147.0,Steele County,6929.0,29874.0,136787.0,35408.0,43762.0,14798.0,12275.0,15263.0,7686.0,4982.0,2079.0,428.0,106.0
478169,County,2020/05/29,27.0,MN,27147.0,Steele County,7282.0,29521.0,127761.0,33803.0,38988.0,13579.0,12591.0,14447.0,8284.0,4237.0,1469.0,317.0,46.0
481369,County,2020/05/30,27.0,MN,27147.0,Steele County,8044.0,28759.0,135105.0,35550.0,41454.0,15237.0,13967.0,14689.0,8327.0,4435.0,1156.0,290.0,0.0
484513,County,2020/05/31,27.0,MN,27147.0,Steele County,7850.0,28953.0,109116.0,28108.0,34973.0,11963.0,11258.0,11223.0,6008.0,3984.0,1203.0,346.0,50.0
487815,County,2020/06/01,27.0,MN,27147.0,Steele County,6361.0,30442.0,128943.0,31496.0,39849.0,15801.0,12368.0,14401.0,7616.0,6447.0,677.0,228.0,60.0
490922,County,2020/06/02,27.0,MN,27147.0,Steele County,6694.0,30109.0,137641.0,33972.0,40858.0,15032.0,15127.0,17322.0,7882.0,6021.0,1029.0,328.0,70.0
494145,County,2020/06/03,27.0,MN,27147.0,Steele County,6247.0,30556.0,151937.0,39940.0,45279.0,18701.0,14631.0,18198.0,8687.0,4777.0,1394.0,280.0,50.0
497327,County,2020/06/04,27.0,MN,27147.0,Steele County,6041.0,30762.0,144957.0,36616.0,42379.0,18215.0,13595.0,17579.0,8920.0,5259.0,1900.0,404.0,90.0
498966,County,2020/06/05,27.0,MN,27147.0,Steele County,6058.0,30745.0,157931.0,43739.0,44947.0,18121.0,14916.0,18186.0,10391.0,5278.0,1808.0,420.0,125.0
503691,County,2020/06/06,27.0,MN,27147.0,Steele County,7291.0,29512.0,124640.0,31948.0,37393.0,14654.0,14705.0,13571.0,7014.0,4002.0,1012.0,244.0,97.0
506889,County,2020/06/07,27.0,MN,27147.0,Steele County,7900.0,28903.0,112204.0,24001.0,33631.0,15363.0,12804.0,12473.0,7615.0,4486.0,1389.0,338.0,104.0
508528,County,2020/06/08,27.0,MN,27147.0,Steele County,5771.0,31032.0,148298.0,39494.0,42787.0,20862.0,12952.0,15720.0,9482.0,5189.0,1552.0,199.0,61.0
511730,County,2020/06/09,27.0,MN,27147.0,Steele County,6863.0,29940.0,129112.0,28790.0,38197.0,16503.0,14352.0,15164.0,8753.0,5503.0,1329.0,469.0,52.0
516511,County,2020/06/10,27.0,MN,27147.0,Steele County,6454.0,30349.0,135635.0,35129.0,39030.0,17666.0,11949.0,15801.0,9032.0,5188.0,1458.0,266.0,116.0
518140,County,2020/06/11,27.0,MN,27147.0,Steele County,6104.0,30699.0,135176.0,31548.0,39012.0,17796.0,12988.0,15659.0,9914.0,5762.0,1849.0,590.0,58.0
521342,County,2020/06/12,27.0,MN,27147.0,Steele County,6218.0,30585.0,144338.0,37109.0,41236.0,20493.0,13040.0,15214.0,9270.0,5457.0,1956.0,553.0,10.0
526078,County,2020/06/13,27.0,MN,27147.0,Steele County,6874.0,29929.0,133907.0,36314.0,32874.0,18949.0,13393.0,14748.0,9646.0,6079.0,1485.0,397.0,22.0
527713,County,2020/06/14,27.0,MN,27147.0,Steele County,8477.0,28326.0,100208.0,23289.0,28194.0,12317.0,9771.0,13130.0,5996.0,4482.0,2280.0,703.0,46.0
532472,County,2020/06/15,27.0,MN,27147.0,Steele County,7570.0,29233.0,116342.0,31149.0,32905.0,13265.0,10275.0,13122.0,8278.0,5205.0,1465.0,587.0,91.0
534101,County,2020/06/16,27.0,MN,27147.0,Steele County,7432.0,29371.0,122091.0,30509.0,35101.0,15776.0,10510.0,15920.0,7428.0,4417.0,1820.0,459.0,151.0
538860,County,2020/06/17,27.0,MN,27147.0,Steele County,7280.0,29523.0,125525.0,33697.0,33831.0,17112.0,11688.0,15048.0,7688.0,4332.0,1550.0,569.0,10.0
540441,County,2020/06/18,27.0,MN,27147.0,Steele County,6797.0,30006.0,127252.0,30265.0,35177.0,16576.0,13980.0,15018.0,8163.0,5935.0,1517.0,551.0,70.0
545207,County,2020/06/19,27.0,MN,27147.0,Steele County,7025.0,29778.0,126760.0,31512.0,36782.0,15204.0,12564.0,16302.0,7810.0,4234.0,1761.0,533.0,58.0
548442,County,2020/06/20,27.0,MN,27147.0,Steele County,8049.0,28754.0,112641.0,29130.0,32739.0,14089.0,12111.0,12061.0,6219.0,4319.0,1273.0,542.0,158.0
551629,County,2020/06/21,27.0,MN,27147.0,Steele County,8204.0,28599.0,100902.0,25877.0,25639.0,11839.0,13024.0,12320.0,6502.0,3740.0,1162.0,690.0,109.0
554871,County,2020/06/22,27.0,MN,27147.0,Steele County,7492.0,29311.0,119999.0,31465.0,34600.0,14060.0,12168.0,13063.0,7664.0,4842.0,1769.0,311.0,57.0
556450,County,2020/06/23,27.0,MN,27147.0,Steele County,7326.0,29477.0,128503.0,35605.0,36135.0,13606.0,12808.0,14425.0,8638.0,5176.0,1611.0,395.0,104.0
561218,County,2020/06/24,27.0,MN,27147.0,Steele County,7746.0,29057.0,116358.0,30354.0,33557.0,12917.0,12376.0,13394.0,7242.0,4753.0,1180.0,514.0,71.0
562848,County,2020/06/25,27.0,MN,27147.0,Steele County,7383.0,29420.0,122558.0,30235.0,33496.0,16048.0,11213.0,14570.0,9883.0,4960.0,1632.0,483.0,38.0
566100,County,2020/06/26,27.0,MN,27147.0,Steele County,7156.0,29647.0,113564.0,25304.0,32000.0,13431.0,10741.0,13999.0,9084.0,7200.0,1334.0,452.0,19.0
569222,County,2020/06/27,27.0,MN,27147.0,Steele County,7907.0,28896.0,126536.0,33427.0,35124.0,16318.0,11610.0,14245.0,9075.0,4861.0,1332.0,464.0,80.0
573983,County,2020/06/28,27.0,MN,27147.0,Steele County,8008.0,28795.0,100143.0,22822.0,29384.0,13179.0,9853.0,10657.0,6664.0,5275.0,1552.0,679.0,78.0
575591,County,2020/06/29,27.0,MN,27147.0,Steele County,7478.0,29325.0,108396.0,24703.0,33810.0,10502.0,9201.0,14522.0,8355.0,5227.0,1502.0,520.0,54.0
580403,County,2020/06/30,27.0,MN,27147.0,Steele County,7157.0,29646.0,116171.0,25173.0,33116.0,14003.0,11041.0,16491.0,8629.0,5840.0,1175.0,596.0,107.0
582003,County,2020/07/01,27.0,MN,27147.0,Steele County,6580.0,30223.0,119916.0,28035.0,34084.0,13612.0,10830.0,15245.0,10778.0,5050.0,1463.0,688.0,131.0
585196,County,2020/07/02,27.0,MN,27147.0,Steele County,7622.0,29181.0,130085.0,32092.0,35553.0,17033.0,11902.0,15465.0,10490.0,5265.0,1732.0,513.0,40.0
588423,County,2020/07/03,27.0,MN,27147.0,Steele County,8311.0,28492.0,112922.0,25161.0,31820.0,13355.0,10680.0,13920.0,9033.0,7159.0,1326.0,449.0,19.0
593173,County,2020/07/04,27.0,MN,27147.0,Steele County,9187.0,27616.0,96610.0,21526.0,27223.0,11426.0,9137.0,11909.0,7728.0,6125.0,1135.0,385.0,16.0
596329,County,2020/07/05,27.0,MN,27147.0,Steele County,8793.0,28010.0,95638.0,21545.0,27230.0,10830.0,8220.0,11201.0,8232.0,5555.0,2299.0,416.0,110.0
599498,County,2020/07/06,27.0,MN,27147.0,Steele County,7603.0,29200.0,104679.0,21368.0,33368.0,11619.0,9053.0,13467.0,9131.0,4891.0,1267.0,449.0,66.0
601173,County,2020/07/07,27.0,MN,27147.0,Steele County,7632.0,29171.0,110378.0,25588.0,32976.0,12790.0,9862.0,13468.0,7708.0,6222.0,1273.0,371.0,120.0
604366,County,2020/07/08,27.0,MN,27147.0,Steele County,7429.0,29374.0,111711.0,28517.0,33280.0,11255.0,10186.0,12668.0,7962.0,6142.0,1352.0,230.0,119.0
607561,County,2020/07/09,27.0,MN,27147.0,Steele County,7504.0,29299.0,106320.0,24143.0,30474.0,13147.0,10698.0,11495.0,6636.0,7277.0,1929.0,367.0,154.0
612343,County,2020/07/10,27.0,MN,27147.0,Steele County,7292.0,29511.0,119418.0,27794.0,33031.0,13793.0,11410.0,15436.0,9467.0,6108.0,1873.0,450.0,56.0
615558,County,2020/07/11,27.0,MN,27147.0,Steele County,7625.0,29178.0,109479.0,27078.0,31095.0,11586.0,12685.0,11186.0,8824.0,4797.0,1599.0,541.0,88.0
617143,County,2020/07/12,27.0,MN,27147.0,Steele County,8625.0,28178.0,103217.0,27161.0,27049.0,12620.0,11920.0,10874.0,6647.0,5187.0,1389.0,265.0,105.0
621903,County,2020/07/13,27.0,MN,27147.0,Steele County,7840.0,28963.0,108214.0,27953.0,29742.0,12182.0,10144.0,13604.0,7047.0,5650.0,1455.0,319.0,118.0
625098,County,2020/07/14,27.0,MN,27147.0,Steele County,8172.0,28631.0,112088.0,27916.0,33402.0,12359.0,10806.0,13322.0,7859.0,4873.0,1164.0,304.0,83.0
628271,County,2020/07/15,27.0,MN,27147.0,Steele County,7779.0,29024.0,119675.0,29913.0,36683.0,11281.0,11553.0,14320.0,9030.0,5291.0,1233.0,340.0,31.0
629896,County,2020/07/16,27.0,MN,27147.0,Steele County,7465.0,29338.0,113573.0,27247.0,34528.0,12466.0,11217.0,13950.0,7641.0,4841.0,1262.0,381.0,40.0
633097,County,2020/07/17,27.0,MN,27147.0,Steele County,8143.0,28660.0,110981.0,27140.0,30250.0,13986.0,10146.0,12855.0,9125.0,5371.0,1673.0,396.0,39.0
636308,County,2020/07/18,27.0,MN,27147.0,Steele County,8730.0,28073.0,103458.0,25371.0,29999.0,10868.0,10298.0,12591.0,7442.0,4950.0,1420.0,428.0,91.0
639463,County,2020/07/19,27.0,MN,27147.0,Steele County,8693.0,28110.0,93300.0,22398.0,26819.0,11584.0,8423.0,10623.0,6260.0,5454.0,1365.0,334.0,40.0
642697,County,2020/07/20,27.0,MN,27147.0,Steele County,8242.0,28561.0,122961.0,35215.0,37463.0,16131.0,6816.0,12087.0,8239.0,4394.0,2251.0,289.0,76.0
647937,County,2020/07/21,27.0,MN,27147.0,Steele County,7937.0,28866.0,120578.0,31018.0,36206.0,15201.0,10519.0,12893.0,8777.0,4778.0,807.0,345.0,34.0
648555,County,2020/07/22,27.0,MN,27147.0,Steele County,7398.0,29405.0,118185.0,28389.0,33265.0,14410.0,10814.0,14850.0,10491.0,4464.0,1117.0,283.0,102.0
652192,County,2020/07/23,27.0,MN,27147.0,Steele County,7728.0,29075.0,115229.0,26615.0,35183.0,14781.0,9674.0,13740.0,8513.0,4748.0,1467.0,356.0,152.0
655316,County,2020/07/24,27.0,MN,27147.0,Steele County,7397.0,29406.0,122840.0,29876.0,32879.0,16291.0,12891.0,14759.0,9776.0,4403.0,1516.0,388.0,61.0
658661,County,2020/07/25,27.0,MN,27147.0,Steele County,7869.0,28934.0,105545.0,25873.0,28644.0,11708.0,10533.0,13347.0,8891.0,4472.0,1595.0,426.0,56.0
663366,County,2020/07/26,27.0,MN,27147.0,Steele County,8488.0,28315.0,114538.0,33366.0,30626.0,12668.0,9041.0,13673.0,7483.0,4974.0,2197.0,400.0,110.0
666639,County,2020/07/27,27.0,MN,27147.0,Steele County,8214.0,28589.0,121335.0,30046.0,36021.0,12974.0,10986.0,15666.0,8181.0,5385.0,1572.0,361.0,143.0
669891,County,2020/07/28,27.0,MN,27147.0,Steele County,7785.0,29018.0,120406.0,28336.0,34699.0,13914.0,9209.0,17879.0,8617.0,6105.0,1180.0,327.0,140.0
671426,County,2020/07/29,27.0,MN,27147.0,Steele County,7832.0,28971.0,122021.0,29573.0,34477.0,14456.0,11724.0,14599.0,9219.0,5956.0,1532.0,372.0,113.0
676186,County,2020/07/30,27.0,MN,27147.0,Steele County,7643.0,29160.0,121064.0,27182.0,34874.0,12415.0,11199.0,15268.0,11217.0,6209.0,1974.0,597.0,129.0
679414,County,2020/07/31,27.0,MN,27147.0,Steele County,7423.0,29380.0,115462.0,24730.0,30796.0,13671.0,11288.0,16219.0,10754.0,5711.0,1483.0,649.0,161.0
680994,County,2020/08/01,27.0,MN,27147.0,Steele County,8411.0,28392.0,109058.0,25039.0,29433.0,12307.0,10039.0,13432.0,10570.0,5823.0,1885.0,437.0,93.0
684217,County,2020/08/02,27.0,MN,27147.0,Steele County,8562.0,28241.0,96686.0,21623.0,27328.0,10637.0,9424.0,13248.0,7096.0,5354.0,1697.0,210.0,69.0
688978,County,2020/08/03,27.0,MN,27147.0,Steele County,7789.0,29014.0,122152.0,30521.0,34763.0,14691.0,10647.0,14820.0,8445.0,6047.0,1873.0,320.0,25.0
690606,County,2020/08/04,27.0,MN,27147.0,Steele County,7039.0,29764.0,137765.0,41919.0,36536.0,14759.0,12339.0,16350.0,8869.0,5312.0,1172.0,430.0,79.0
695365,County,2020/08/05,27.0,MN,27147.0,Steele County,6897.0,29906.0,123570.0,27974.0,36075.0,15950.0,11297.0,14469.0,10226.0,5271.0,1551.0,608.0,149.0
698560,County,2020/08/06,27.0,MN,27147.0,Steele County,7209.0,29594.0,127805.0,29354.0,34662.0,17683.0,12432.0,16568.0,10110.0,4661.0,1707.0,524.0,104.0
700187,County,2020/08/07,27.0,MN,27147.0,Steele County,6876.0,29927.0,125657.0,30039.0,33555.0,13681.0,12738.0,16642.0,10175.0,6356.0,1734.0,680.0,57.0
704948,County,2020/08/08,27.0,MN,27147.0,Steele County,7283.0,29520.0,115234.0,27623.0,33564.0,12398.0,12367.0,13350.0,8985.0,4676.0,1842.0,353.0,76.0
708166,County,2020/08/09,27.0,MN,27147.0,Steele County,8247.0,28556.0,102708.0,23442.0,29677.0,13429.0,10504.0,10298.0,7520.0,5024.0,2238.0,446.0,130.0
709796,County,2020/08/10,27.0,MN,27147.0,Steele County,7422.0,29381.0,118067.0,29319.0,34368.0,12937.0,9883.0,14870.0,8745.0,6012.0,1541.0,302.0,90.0
714577,County,2020/08/11,27.0,MN,27147.0,Steele County,7795.0,29008.0,121492.0,28657.0,36448.0,13322.0,10650.0,15914.0,10236.0,4796.0,892.0,496.0,81.0
717626,County,2020/08/12,27.0,MN,27147.0,Steele County,7274.0,29529.0,115690.0,28503.0,33466.0,12481.0,8858.0,15689.0,8630.0,6070.0,1288.0,455.0,250.0
719352,County,2020/08/13,27.0,MN,27147.0,Steele County,7166.0,29637.0,126893.0,29654.0,37368.0,15283.0,11118.0,15471.0,9639.0,5879.0,1518.0,646.0,317.0
722545,County,2020/08/14,27.0,MN,27147.0,Steele County,6619.0,30184.0,126914.0,29696.0,35507.0,14035.0,12032.0,16096.0,9993.0,6721.0,1971.0,492.0,371.0
727307,County,2020/08/15,27.0,MN,27147.0,Steele County,7528.0,29275.0,120630.0,28218.0,35658.0,14031.0,13550.0,13331.0,7984.0,5941.0,1099.0,488.0,330.0
730499,County,2020/08/16,27.0,MN,27147.0,Steele County,7921.0,28882.0,110333.0,22285.0,29004.0,11965.0,12116.0,13599.0,10250.0,7229.0,2724.0,750.0,411.0
732128,County,2020/08/17,27.0,MN,27147.0,Steele County,7648.0,29155.0,141313.0,42594.0,38219.0,13911.0,11828.0,14508.0,10196.0,6776.0,2129.0,794.0,358.0
736888,County,2020/08/18,27.0,MN,27147.0,Steele County,7708.0,29095.0,126928.0,31698.0,38497.0,13747.0,11222.0,13729.0,10090.0,5104.0,1705.0,594.0,542.0
740082,County,2020/08/19,27.0,MN,27147.0,Steele County,7172.0,29631.0,128727.0,30948.0,37224.0,14186.0,11178.0,15074.0,10334.0,6551.0,1971.0,911.0,350.0
743281,County,2020/08/20,27.0,MN,27147.0,Steele County,7327.0,29476.0,131443.0,32890.0,35137.0,16899.0,12140.0,15701.0,8989.0,6405.0,1906.0,920.0,456.0
744910,County,2020/08/21,27.0,MN,27147.0,Steele County,6603.0,30200.0,137698.0,35885.0,37352.0,14285.0,12149.0,16172.0,11748.0,6760.0,2304.0,723.0,320.0
748116,County,2020/08/22,27.0,MN,27147.0,Steele County,7155.0,29648.0,123857.0,28651.0,36461.0,14546.0,10150.0,15163.0,9472.0,6164.0,2346.0,552.0,352.0
752860,County,2020/08/23,27.0,MN,27147.0,Steele County,8778.0,28025.0,92580.0,20965.0,25832.0,9942.0,8777.0,10935.0,7679.0,5485.0,2030.0,557.0,378.0
756052,County,2020/08/24,27.0,MN,27147.0,Steele County,8063.0,28740.0,109773.0,27898.0,30973.0,12454.0,9259.0,12776.0,9035.0,5063.0,1623.0,341.0,351.0
759243,County,2020/08/25,27.0,MN,27147.0,Steele County,7714.0,29089.0,114602.0,26529.0,34614.0,13447.0,9847.0,13830.0,9271.0,4851.0,1387.0,476.0,350.0
762403,County,2020/08/26,27.0,MN,27147.0,Steele County,7893.0,28910.0,112587.0,26981.0,34638.0,13077.0,9030.0,12805.0,9202.0,4820.0,1476.0,347.0,211.0
764031,County,2020/08/27,27.0,MN,27147.0,Steele County,7921.0,28882.0,119082.0,28570.0,35181.0,14429.0,9596.0,13666.0,9853.0,5391.0,1730.0,529.0,137.0
767239,County,2020/08/28,27.0,MN,27147.0,Steele County,7400.0,29403.0,112339.0,25041.0,31023.0,14584.0,9551.0,14326.0,9633.0,5481.0,2148.0,395.0,157.0
770442,County,2020/08/29,27.0,MN,27147.0,Steele County,8129.0,28674.0,114059.0,26193.0,32523.0,13514.0,12915.0,12322.0,9338.0,4989.0,1634.0,445.0,186.0
773650,County,2020/08/30,27.0,MN,27147.0,Steele County,8627.0,28176.0,97798.0,21581.0,27628.0,11222.0,8753.0,11589.0,8415.0,5573.0,2160.0,690.0,187.0
776840,County,2020/08/31,27.0,MN,27147.0,Steele County,8220.0,28583.0,105627.0,26490.0,28864.0,13781.0,7097.0,12097.0,9314.0,5647.0,1521.0,623.0,193.0
779985,County,2020/09/01,27.0,MN,27147.0,Steele County,7709.0,29094.0,121314.0,30065.0,34101.0,12697.0,10765.0,15309.0,9987.0,6471.0,1219.0,477.0,223.0
784015,County,2020/09/02,27.0,MN,27147.0,Steele County,7576.0,29227.0,118931.0,28465.0,34509.0,14588.0,9150.0,15532.0,9699.0,5234.0,1217.0,393.0,144.0
786376,County,2020/09/03,27.0,MN,27147.0,Steele County,7237.0,29566.0,126789.0,30435.0,36433.0,15794.0,10350.0,14773.0,10176.0,6104.0,1983.0,606.0,135.0
789581,County,2020/09/04,27.0,MN,27147.0,Steele County,8056.0,28747.0,121678.0,26905.0,35775.0,15507.0,11163.0,13700.0,9837.0,6539.0,1780.0,243.0,229.0
792711,County,2020/09/05,27.0,MN,27147.0,Steele County,7952.0,28851.0,119497.0,28775.0,34877.0,13630.0,10735.0,14762.0,9089.0,5539.0,1771.0,211.0,108.0
797551,County,2020/09/06,27.0,MN,27147.0,Steele County,8853.0,27950.0,103942.0,26210.0,31466.0,11620.0,9300.0,10988.0,7689.0,5168.0,1062.0,325.0,114.0
800765,County,2020/09/07,27.0,MN,27147.0,Steele County,9149.0,27654.0,88929.0,16961.0,25167.0,12977.0,7820.0,11174.0,7223.0,4559.0,2294.0,612.0,142.0
803962,County,2020/09/08,27.0,MN,27147.0,Steele County,8161.0,28642.0,117581.0,25539.0,35970.0,13811.0,10206.0,13999.0,10147.0,5936.0,1148.0,703.0,122.0
807155,County,2020/09/09,27.0,MN,27147.0,Steele County,8137.0,28666.0,124169.0,26656.0,38954.0,15176.0,11221.0,13721.0,10812.0,5785.0,1239.0,515.0,90.0
808782,County,2020/09/10,27.0,MN,27147.0,Steele County,7999.0,28804.0,134083.0,38827.0,35016.0,15682.0,9163.0,16479.0,9161.0,7331.0,1907.0,403.0,114.0
813543,County,2020/09/11,27.0,MN,27147.0,Steele County,7411.0,29392.0,137768.0,35009.0,41274.0,14340.0,11861.0,14549.0,11708.0,6755.0,1505.0,658.0,109.0
816738,County,2020/09/12,27.0,MN,27147.0,Steele County,8221.0,28582.0,117725.0,27534.0,31571.0,14668.0,10643.0,14857.0,10415.0,5462.0,1846.0,625.0,104.0
818345,County,2020/09/13,27.0,MN,27147.0,Steele County,9491.0,27312.0,309624.0,196015.0,60991.0,11472.0,9033.0,15006.0,8746.0,5804.0,1815.0,632.0,110.0
821550,County,2020/09/14,27.0,MN,27147.0,Steele County,7712.0,29091.0,131807.0,32819.0,37473.0,15522.0,10107.0,16411.0,10226.0,6696.0,2145.0,308.0,100.0
826319,County,2020/09/15,27.0,MN,27147.0,Steele County,7613.0,29190.0,125112.0,29553.0,36964.0,12795.0,9648.0,15575.0,11009.0,7185.0,1455.0,770.0,158.0
829513,County,2020/09/16,27.0,MN,27147.0,Steele County,7895.0,28908.0,134822.0,34844.0,34205.0,16840.0,12613.0,15547.0,10734.0,7521.0,2026.0,312.0,180.0
831141,County,2020/09/17,27.0,MN,27147.0,Steele County,7779.0,29024.0,133318.0,35292.0,36113.0,14238.0,10807.0,17433.0,10293.0,6415.0,2033.0,522.0,172.0
835902,County,2020/09/18,27.0,MN,27147.0,Steele County,7687.0,29116.0,139617.0,33307.0,38465.0,17020.0,13166.0,16612.0,11337.0,7281.0,1766.0,603.0,60.0
839094,County,2020/09/19,27.0,MN,27147.0,Steele County,8116.0,28687.0,125721.0,28219.0,36532.0,15107.0,12084.0,14010.0,11347.0,5931.0,1634.0,623.0,234.0
840723,County,2020/09/20,27.0,MN,27147.0,Steele County,8681.0,28122.0,119529.0,39901.0,30790.0,12473.0,8861.0,10931.0,8657.0,5811.0,1617.0,402.0,86.0
845510,County,2020/09/21,27.0,MN,27147.0,Steele County,8413.0,28390.0,120351.0,34367.0,34627.0,12799.0,10033.0,13880.0,7658.0,5224.0,1376.0,286.0,101.0
848678,County,2020/09/22,27.0,MN,27147.0,Steele County,7358.0,29445.0,112845.0,27159.0,31727.0,13798.0,11223.0,13213.0,8827.0,5037.0,1239.0,543.0,79.0
851868,County,2020/09/23,27.0,MN,27147.0,Steele County,7444.0,29359.0,141330.0,44546.0,38989.0,14612.0,11137.0,14240.0,9820.0,6105.0,1401.0,434.0,46.0
853495,County,2020/09/24,27.0,MN,27147.0,Steele County,7178.0,29625.0,129654.0,36049.0,38582.0,14145.0,10208.0,13620.0,9512.0,5209.0,1588.0,689.0,52.0
858259,County,2020/09/25,27.0,MN,27147.0,Steele County,6854.0,29949.0,129186.0,27576.0,38582.0,15116.0,13759.0,15212.0,10168.0,6508.0,1829.0,414.0,22.0
859887,County,2020/09/26,27.0,MN,27147.0,Steele County,7713.0,29090.0,128274.0,32253.0,37162.0,14979.0,13345.0,14524.0,9499.0,4872.0,1313.0,289.0,38.0
864634,County,2020/09/27,27.0,MN,27147.0,Steele County,8367.0,28436.0,104016.0,21449.0,28800.0,14535.0,12066.0,12102.0,7698.0,5228.0,1568.0,465.0,105.0
866263,County,2020/09/28,27.0,MN,27147.0,Steele County,7888.0,28915.0,114464.0,26893.0,33049.0,14647.0,10205.0,13836.0,9315.0,4876.0,1269.0,302.0,72.0
871034,County,2020/09/29,27.0,MN,27147.0,Steele County,7246.0,29557.0,120204.0,27734.0,37419.0,11085.0,11599.0,14642.0,9713.0,6574.0,1219.0,211.0,8.0
872663,County,2020/09/30,27.0,MN,27147.0,Steele County,7438.0,29365.0,126784.0,33419.0,37080.0,13059.0,8748.0,15808.0,10652.0,6350.0,1243.0,391.0,34.0
877403,County,2020/10/01,27.0,MN,27147.0,Steele County,6785.0,30018.0,118093.0,26981.0,34360.0,13429.0,10876.0,14190.0,10155.0,6198.0,1522.0,317.0,65.0
880618,County,2020/10/02,27.0,MN,27147.0,Steele County,7176.0,29627.0,129011.0,30378.0,41473.0,14011.0,10564.0,13444.0,10587.0,6460.0,1748.0,306.0,40.0
882247,County,2020/10/03,27.0,MN,27147.0,Steele County,7651.0,29152.0,119962.0,25672.0,33923.0,14087.0,14781.0,13368.0,10441.0,6340.0,1105.0,204.0,41.0
886057,County,2020/10/04,27.0,MN,27147.0,Steele County,8438.0,28365.0,98627.0,21195.0,28154.0,10849.0,10523.0,12202.0,8137.0,5351.0,1684.0,491.0,41.0
889303,County,2020/10/05,27.0,MN,27147.0,Steele County,8322.0,28481.0,113719.0,27759.0,33158.0,11395.0,9070.0,14362.0,9861.0,6718.0,1188.0,173.0,35.0
892462,County,2020/10/06,27.0,MN,27147.0,Steele County,7619.0,29184.0,128478.0,29861.0,35476.0,13074.0,13592.0,17988.0,10455.0,6797.0,1077.0,131.0,27.0
895660,County,2020/10/07,27.0,MN,27147.0,Steele County,7457.0,29346.0,130470.0,32026.0,37634.0,13478.0,11066.0,17624.0,10693.0,6317.0,1398.0,187.0,47.0
898841,County,2020/10/08,27.0,MN,27147.0,Steele County,7385.0,29418.0,126828.0,29590.0,35616.0,14050.0,11762.0,17727.0,10450.0,6496.0,891.0,210.0,36.0
902073,County,2020/10/09,27.0,MN,27147.0,Steele County,7720.0,29083.0,135403.0,33530.0,40724.0,12314.0,13892.0,16538.0,9962.0,6941.0,1319.0,156.0,27.0
905276,County,2020/10/10,27.0,MN,27147.0,Steele County,8368.0,28435.0,122751.0,26594.0,32519.0,13682.0,15147.0,15077.0,13343.0,5133.0,1077.0,163.0,16.0
908919,County,2020/10/11,27.0,MN,27147.0,Steele County,9090.0,27713.0,97267.0,20521.0,25331.0,10624.0,10069.0,11910.0,8773.0,8316.0,1385.0,305.0,33.0
911937,County,2020/10/12,27.0,MN,27147.0,Steele County,8104.0,28699.0,112358.0,24080.0,33527.0,13893.0,10106.0,14474.0,9315.0,5639.0,1089.0,216.0,19.0
915250,County,2020/10/13,27.0,MN,27147.0,Steele County,7679.0,29124.0,126317.0,30557.0,37989.0,13537.0,11501.0,15294.0,10958.0,5126.0,1048.0,272.0,35.0
918352,County,2020/10/14,27.0,MN,27147.0,Steele County,7625.0,29178.0,120546.0,27153.0,35825.0,14426.0,11345.0,14165.0,9784.0,5807.0,1586.0,399.0,56.0
921614,County,2020/10/15,27.0,MN,27147.0,Steele County,8084.0,28719.0,117084.0,27486.0,30709.0,11606.0,10757.0,18044.0,10195.0,6245.0,1637.0,349.0,56.0
925168,County,2020/10/16,27.0,MN,27147.0,Steele County,7551.0,29252.0,124848.0,29027.0,32329.0,14847.0,12334.0,14752.0,12273.0,6867.0,1883.0,474.0,62.0
928426,County,2020/10/17,27.0,MN,27147.0,Steele County,8248.0,28555.0,113896.0,23125.0,33126.0,12378.0,12692.0,13867.0,9894.0,6925.0,1463.0,365.0,61.0
931089,County,2020/10/18,27.0,MN,27147.0,Steele County,8253.0,28550.0,95489.0,19045.0,25915.0,11024.0,9721.0,12747.0,9441.0,5608.0,1464.0,485.0,39.0
933843,County,2020/10/19,27.0,MN,27147.0,Steele County,7310.0,29493.0,120170.0,26358.0,34202.0,13843.0,11486.0,14937.0,11629.0,6203.0,1259.0,189.0,64.0
937192,County,2020/10/20,27.0,MN,27147.0,Steele County,7749.0,29054.0,113555.0,25763.0,33353.0,13629.0,10728.0,13941.0,9470.0,5432.0,1049.0,144.0,46.0
941151,County,2020/10/21,27.0,MN,27147.0,Steele County,8165.0,28638.0,112761.0,24044.0,34182.0,12532.0,9607.0,14994.0,9925.0,6066.0,1091.0,264.0,56.0
944410,County,2020/10/22,27.0,MN,27147.0,Steele County,7756.0,29047.0,116641.0,26025.0,36272.0,12778.0,9563.0,14917.0,9234.0,6364.0,1226.0,225.0,37.0
947144,County,2020/10/23,27.0,MN,27147.0,Steele County,7468.0,29335.0,127933.0,28635.0,34668.0,17955.0,12185.0,16168.0,10548.0,6146.0,1160.0,399.0,69.0
950121,County,2020/10/24,27.0,MN,27147.0,Steele County,8610.0,28193.0,131014.0,28644.0,37404.0,19626.0,13880.0,13535.0,11185.0,5519.0,861.0,317.0,43.0
