,Level,Date,State FIPS,State Postal Code,County FIPS,County Name,Population Staying at Home,Population Not Staying at Home,Number of Trips,Number of Trips <1,Number of Trips 1-3,Number of Trips 3-5,Number of Trips 5-10,Number of Trips 10-25,Number of Trips 25-50,Number of Trips 50-100,Number of Trips 100-250,Number of Trips 250-500,Number of Trips >=500
278,County,2020/01/01,8.0,CO,8067.0,La Plata County,13500.0,42810.0,192027.0,47032.0,45828.0,22480.0,27215.0,31705.0,11953.0,3161.0,1746.0,608.0,299.0
5660,County,2020/01/02,8.0,CO,8067.0,La Plata County,10723.0,45587.0,245244.0,55917.0,69354.0,26868.0,29194.0,45758.0,13047.0,3394.0,1081.0,335.0,296.0
8341,County,2020/01/03,8.0,CO,8067.0,La Plata County,10230.0,46080.0,254210.0,59188.0,70942.0,27106.0,31996.0,46866.0,12247.0,3424.0,1870.0,422.0,149.0
10082,County,2020/01/04,8.0,CO,8067.0,La Plata County,11666.0,44644.0,228366.0,52584.0,59500.0,24951.0,30650.0,36941.0,16189.0,5080.0,1558.0,566.0,347.0
13055,County,2020/01/05,8.0,CO,8067.0,La Plata County,12522.0,43788.0,193644.0,41232.0,54041.0,18636.0,24862.0,35615.0,13112.0,3320.0,2022.0,610.0,194.0
17716,County,2020/01/06,8.0,CO,8067.0,La Plata County,10132.0,46178.0,239208.0,53901.0,62749.0,26403.0,32123.0,45060.0,12639.0,4354.0,1410.0,336.0,233.0
19306,County,2020/01/07,8.0,CO,8067.0,La Plata County,10143.0,46167.0,237115.0,54889.0,59613.0,26227.0,31884.0,46110.0,12602.0,3464.0,1525.0,504.0,297.0
22489,County,2020/01/08,8.0,CO,8067.0,La Plata County,9734.0,46576.0,245913.0,55744.0,59975.0,29231.0,33858.0,50075.0,10842.0,4508.0,1196.0,374.0,110.0
25683,County,2020/01/09,8.0,CO,8067.0,La Plata County,10642.0,45668.0,244240.0,55618.0,63785.0,27427.0,34244.0,45788.0,12230.0,3518.0,971.0,526.0,133.0
28879,County,2020/01/10,8.0,CO,8067.0,La Plata County,9945.0,46365.0,252879.0,55229.0,64220.0,25466.0,35738.0,51868.0,13928.0,4242.0,1487.0,434.0,267.0
32120,County,2020/01/11,8.0,CO,8067.0,La Plata County,11413.0,44897.0,235975.0,57845.0,56266.0,26804.0,31678.0,42259.0,14213.0,5145.0,1032.0,461.0,272.0
35276,County,2020/01/12,8.0,CO,8067.0,La Plata County,12291.0,44019.0,207296.0,44166.0,53022.0,21068.0,28096.0,42602.0,10431.0,4854.0,2181.0,519.0,357.0
40055,County,2020/01/13,8.0,CO,8067.0,La Plata County,10605.0,45705.0,242931.0,56524.0,63642.0,26469.0,34378.0,46958.0,11214.0,2367.0,1074.0,171.0,134.0
41680,County,2020/01/14,8.0,CO,8067.0,La Plata County,10402.0,45908.0,248278.0,57440.0,66357.0,22939.0,36700.0,46029.0,13421.0,4401.0,511.0,302.0,178.0
44834,County,2020/01/15,8.0,CO,8067.0,La Plata County,10938.0,45372.0,247819.0,57125.0,61580.0,25699.0,33754.0,50915.0,12995.0,4636.0,686.0,297.0,132.0
47985,County,2020/01/16,8.0,CO,8067.0,La Plata County,10214.0,46096.0,245528.0,56530.0,63847.0,29015.0,35526.0,44276.0,10938.0,3521.0,1152.0,468.0,255.0
51242,County,2020/01/17,8.0,CO,8067.0,La Plata County,10417.0,45893.0,234224.0,53435.0,59544.0,24661.0,32772.0,47089.0,10711.0,3956.0,1350.0,512.0,194.0
55974,County,2020/01/18,8.0,CO,8067.0,La Plata County,11477.0,44833.0,236847.0,59034.0,55768.0,25572.0,32832.0,42701.0,14451.0,4534.0,1441.0,323.0,191.0
57622,County,2020/01/19,8.0,CO,8067.0,La Plata County,12217.0,44093.0,207218.0,43403.0,54145.0,23726.0,28375.0,37585.0,13762.0,3947.0,1574.0,433.0,268.0
62384,County,2020/01/20,8.0,CO,8067.0,La Plata County,11445.0,44865.0,207151.0,43004.0,46622.0,24008.0,30062.0,41033.0,13053.0,6543.0,2006.0,417.0,403.0
64011,County,2020/01/21,8.0,CO,8067.0,La Plata County,11339.0,44971.0,229482.0,52957.0,62084.0,22566.0,33250.0,44057.0,9159.0,3747.0,831.0,432.0,399.0
67213,County,2020/01/22,8.0,CO,8067.0,La Plata County,10314.0,45996.0,240565.0,54679.0,62853.0,24168.0,33585.0,48204.0,11627.0,3767.0,1046.0,462.0,174.0
70398,County,2020/01/23,8.0,CO,8067.0,La Plata County,10249.0,46061.0,233159.0,50904.0,59173.0,28869.0,31690.0,46028.0,10176.0,4085.0,1338.0,544.0,352.0
73595,County,2020/01/24,8.0,CO,8067.0,La Plata County,10241.0,46069.0,252310.0,54096.0,64231.0,27929.0,35576.0,49921.0,14135.0,4381.0,1362.0,321.0,358.0
76787,County,2020/01/25,8.0,CO,8067.0,La Plata County,11317.0,44993.0,223238.0,54297.0,51244.0,24024.0,31227.0,39959.0,16298.0,3981.0,1460.0,364.0,384.0
80128,County,2020/01/26,8.0,CO,8067.0,La Plata County,12303.0,44007.0,203887.0,45381.0,49784.0,20208.0,29844.0,38445.0,13682.0,4067.0,1733.0,489.0,254.0
84318,County,2020/01/27,8.0,CO,8067.0,La Plata County,11015.0,45295.0,228269.0,51719.0,58901.0,24961.0,31579.0,44442.0,11214.0,3790.0,1078.0,316.0,269.0
86384,County,2020/01/28,8.0,CO,8067.0,La Plata County,10350.0,45960.0,238061.0,49097.0,67539.0,26070.0,32390.0,46537.0,11633.0,2998.0,995.0,387.0,415.0
91117,County,2020/01/29,8.0,CO,8067.0,La Plata County,10831.0,45479.0,239887.0,56997.0,62103.0,28074.0,30176.0,48169.0,9013.0,3971.0,740.0,248.0,396.0
92843,County,2020/01/30,8.0,CO,8067.0,La Plata County,10618.0,45692.0,232225.0,48139.0,60913.0,28649.0,28010.0,48115.0,10938.0,4474.0,1696.0,656.0,635.0
97517,County,2020/01/31,8.0,CO,8067.0,La Plata County,10236.0,46074.0,245162.0,51773.0,64898.0,28332.0,33499.0,47915.0,12035.0,3320.0,2240.0,623.0,527.0
100754,County,2020/02/01,8.0,CO,8067.0,La Plata County,11215.0,45095.0,228642.0,53250.0,56354.0,26051.0,30780.0,42820.0,12840.0,3259.0,2347.0,579.0,362.0
102323,County,2020/02/02,8.0,CO,8067.0,La Plata County,11531.0,44779.0,201941.0,40679.0,51674.0,23843.0,30623.0,37727.0,10745.0,3181.0,2139.0,817.0,513.0
105533,County,2020/02/03,8.0,CO,8067.0,La Plata County,10632.0,45678.0,226164.0,47473.0,57671.0,26490.0,36136.0,42247.0,10511.0,2815.0,1590.0,723.0,508.0
110294,County,2020/02/04,8.0,CO,8067.0,La Plata County,10333.0,45977.0,226264.0,44177.0,61587.0,23524.0,33242.0,47745.0,8757.0,4375.0,1750.0,548.0,559.0
111921,County,2020/02/05,8.0,CO,8067.0,La Plata County,10127.0,46183.0,230763.0,53996.0,60168.0,25836.0,33361.0,39751.0,11238.0,3633.0,1421.0,800.0,559.0
115065,County,2020/02/06,8.0,CO,8067.0,La Plata County,10382.0,45928.0,237592.0,53287.0,62618.0,24155.0,35223.0,45344.0,10671.0,3551.0,1531.0,854.0,358.0
118282,County,2020/02/07,8.0,CO,8067.0,La Plata County,9355.0,46955.0,244952.0,49928.0,62801.0,29571.0,33141.0,47826.0,14276.0,4321.0,1716.0,868.0,504.0
123118,County,2020/02/08,8.0,CO,8067.0,La Plata County,11417.0,44893.0,223828.0,48755.0,52579.0,27418.0,35138.0,39512.0,12491.0,5072.0,1630.0,753.0,480.0
124698,County,2020/02/09,8.0,CO,8067.0,La Plata County,12429.0,43881.0,191439.0,39025.0,45232.0,20926.0,27866.0,38001.0,12405.0,4351.0,2163.0,795.0,675.0
128587,County,2020/02/10,8.0,CO,8067.0,La Plata County,10333.0,45977.0,244783.0,57670.0,55209.0,29481.0,35547.0,47259.0,12699.0,3521.0,1562.0,1186.0,649.0
131233,County,2020/02/11,8.0,CO,8067.0,La Plata County,9891.0,46419.0,239232.0,51106.0,57620.0,28326.0,32261.0,51281.0,11411.0,4168.0,1620.0,730.0,709.0
134754,County,2020/02/12,8.0,CO,8067.0,La Plata County,10444.0,45866.0,248018.0,52767.0,60258.0,26461.0,29860.0,57059.0,13510.0,4643.0,1977.0,776.0,707.0
139086,County,2020/02/13,8.0,CO,8067.0,La Plata County,10250.0,46060.0,254940.0,54210.0,61862.0,29725.0,34466.0,52078.0,13299.0,5400.0,2449.0,924.0,527.0
142241,County,2020/02/14,8.0,CO,8067.0,La Plata County,9564.0,46746.0,257152.0,57219.0,60002.0,28674.0,33067.0,53526.0,13824.0,4825.0,3912.0,1089.0,1014.0
143865,County,2020/02/15,8.0,CO,8067.0,La Plata County,11203.0,45107.0,233875.0,52451.0,54270.0,22438.0,32434.0,45045.0,18059.0,4893.0,2854.0,746.0,685.0
147055,County,2020/02/16,8.0,CO,8067.0,La Plata County,11785.0,44525.0,205807.0,44070.0,45234.0,20912.0,31042.0,40981.0,14020.0,4780.0,2786.0,1065.0,917.0
151817,County,2020/02/17,8.0,CO,8067.0,La Plata County,14109.0,42201.0,201436.0,43207.0,49539.0,24955.0,26643.0,39321.0,9880.0,3759.0,2719.0,804.0,609.0
153444,County,2020/02/18,8.0,CO,8067.0,La Plata County,10335.0,45975.0,252735.0,55869.0,65805.0,26330.0,32770.0,53050.0,11586.0,3668.0,2170.0,967.0,520.0
158203,County,2020/02/19,8.0,CO,8067.0,La Plata County,9545.0,46765.0,259149.0,53370.0,66121.0,28933.0,35742.0,53924.0,12303.0,5009.0,2577.0,820.0,350.0
159844,County,2020/02/20,8.0,CO,8067.0,La Plata County,10036.0,46274.0,250004.0,55196.0,62303.0,29155.0,32332.0,50257.0,13075.0,3653.0,2670.0,896.0,467.0
164593,County,2020/02/21,8.0,CO,8067.0,La Plata County,10196.0,46114.0,265492.0,56664.0,69792.0,25465.0,35761.0,52505.0,14888.0,4834.0,3689.0,1179.0,715.0
166219,County,2020/02/22,8.0,CO,8067.0,La Plata County,9726.0,46584.0,222597.0,42962.0,53469.0,24333.0,31811.0,46997.0,14217.0,4393.0,2692.0,944.0,779.0
170984,County,2020/02/23,8.0,CO,8067.0,La Plata County,12564.0,43746.0,198680.0,38062.0,51289.0,21776.0,29102.0,38574.0,13162.0,3645.0,1991.0,495.0,584.0
172612,County,2020/02/24,8.0,CO,8067.0,La Plata County,10834.0,45476.0,235570.0,48406.0,57522.0,24882.0,32370.0,53511.0,12554.0,3745.0,1673.0,625.0,282.0
176537,County,2020/02/25,8.0,CO,8067.0,La Plata County,9842.0,46468.0,232748.0,46962.0,60436.0,25387.0,35039.0,46185.0,12698.0,3711.0,1646.0,447.0,237.0
179142,County,2020/02/26,8.0,CO,8067.0,La Plata County,9413.0,46897.0,224459.0,38555.0,55921.0,27515.0,36706.0,51224.0,9316.0,4032.0,542.0,440.0,208.0
183309,County,2020/02/27,8.0,CO,8067.0,La Plata County,9683.0,46627.0,261304.0,61094.0,64311.0,29078.0,36158.0,50243.0,14561.0,3851.0,1322.0,445.0,241.0
187048,County,2020/02/28,8.0,CO,8067.0,La Plata County,9367.0,46943.0,276748.0,60942.0,70967.0,32116.0,35617.0,54792.0,15287.0,4771.0,1722.0,350.0,184.0
188578,County,2020/02/29,8.0,CO,8067.0,La Plata County,10202.0,46108.0,262529.0,56909.0,65390.0,31587.0,36322.0,46012.0,16884.0,6431.0,1955.0,558.0,481.0
191768,County,2020/03/01,8.0,CO,8067.0,La Plata County,11316.0,44994.0,204171.0,39625.0,50658.0,21620.0,32428.0,39151.0,13009.0,4814.0,1813.0,631.0,422.0
194991,County,2020/03/02,8.0,CO,8067.0,La Plata County,10047.0,46263.0,231505.0,51656.0,62157.0,26175.0,31704.0,44985.0,8498.0,4111.0,1008.0,699.0,512.0
198145,County,2020/03/03,8.0,CO,8067.0,La Plata County,9928.0,46382.0,251810.0,56075.0,58925.0,29652.0,37397.0,53015.0,11853.0,2817.0,986.0,800.0,290.0
202053,County,2020/03/04,8.0,CO,8067.0,La Plata County,9972.0,46338.0,244358.0,55099.0,56955.0,28004.0,34076.0,49283.0,13580.0,4518.0,1559.0,785.0,499.0
204496,County,2020/03/05,8.0,CO,8067.0,La Plata County,9901.0,46409.0,237417.0,52167.0,63327.0,27747.0,30547.0,45600.0,13627.0,2266.0,895.0,848.0,393.0
209298,County,2020/03/06,8.0,CO,8067.0,La Plata County,9792.0,46518.0,250059.0,50790.0,59151.0,28535.0,35860.0,51010.0,16823.0,4953.0,1696.0,909.0,332.0
212580,County,2020/03/07,8.0,CO,8067.0,La Plata County,10240.0,46070.0,228280.0,50250.0,47221.0,24827.0,31425.0,47478.0,14945.0,8350.0,2680.0,782.0,322.0
214130,County,2020/03/08,8.0,CO,8067.0,La Plata County,11622.0,44688.0,194640.0,39914.0,49066.0,19514.0,27730.0,39163.0,12213.0,3659.0,1992.0,1057.0,332.0
217333,County,2020/03/09,8.0,CO,8067.0,La Plata County,10497.0,45813.0,232563.0,48207.0,58030.0,27680.0,31591.0,47739.0,11689.0,4423.0,1838.0,891.0,475.0
222084,County,2020/03/10,8.0,CO,8067.0,La Plata County,10200.0,46110.0,229308.0,52976.0,59765.0,24154.0,30874.0,42882.0,10613.0,5466.0,1033.0,951.0,594.0
223708,County,2020/03/11,8.0,CO,8067.0,La Plata County,9950.0,46360.0,247982.0,36702.0,63614.0,26407.0,41498.0,57440.0,13112.0,5191.0,1344.0,2029.0,645.0
228453,County,2020/03/12,8.0,CO,8067.0,La Plata County,10009.0,46301.0,220499.0,39999.0,63356.0,25437.0,30698.0,49103.0,5390.0,1908.0,1129.0,2217.0,1262.0
230100,County,2020/03/13,8.0,CO,8067.0,La Plata County,9851.0,46459.0,207870.0,33507.0,48885.0,26770.0,38498.0,39840.0,10291.0,4933.0,2725.0,1581.0,840.0
233299,County,2020/03/14,8.0,CO,8067.0,La Plata County,11822.0,44488.0,208086.0,48080.0,51913.0,17854.0,25257.0,43702.0,11236.0,4514.0,2671.0,1579.0,1280.0
236487,County,2020/03/15,8.0,CO,8067.0,La Plata County,13608.0,42702.0,180009.0,41165.0,41763.0,21092.0,23947.0,34381.0,9321.0,4377.0,2762.0,912.0,289.0
239681,County,2020/03/16,8.0,CO,8067.0,La Plata County,11807.0,44503.0,226546.0,51214.0,55571.0,23887.0,34726.0,44501.0,9100.0,4286.0,1449.0,1325.0,487.0
244487,County,2020/03/17,8.0,CO,8067.0,La Plata County,13841.0,42469.0,210435.0,43674.0,51096.0,24474.0,33423.0,40454.0,9362.0,5129.0,1517.0,833.0,473.0
247594,County,2020/03/18,8.0,CO,8067.0,La Plata County,13729.0,42581.0,205836.0,49068.0,47214.0,24175.0,29871.0,41445.0,9482.0,2297.0,831.0,982.0,471.0
249273,County,2020/03/19,8.0,CO,8067.0,La Plata County,15209.0,41101.0,196832.0,41935.0,44067.0,27377.0,35071.0,38158.0,6055.0,1725.0,1178.0,702.0,564.0
252459,County,2020/03/20,8.0,CO,8067.0,La Plata County,14145.0,42165.0,214229.0,51923.0,57872.0,22063.0,28458.0,39455.0,9240.0,2062.0,1906.0,775.0,475.0
255651,County,2020/03/21,8.0,CO,8067.0,La Plata County,16796.0,39514.0,180243.0,41213.0,45757.0,20527.0,23599.0,37251.0,6425.0,2226.0,1317.0,1071.0,857.0
258836,County,2020/03/22,8.0,CO,8067.0,La Plata County,15417.0,40893.0,168976.0,46712.0,43193.0,19167.0,19778.0,27474.0,6331.0,3035.0,1526.0,985.0,775.0
263616,County,2020/03/23,8.0,CO,8067.0,La Plata County,13522.0,42788.0,185678.0,45288.0,45307.0,20868.0,28740.0,33152.0,6462.0,3627.0,858.0,930.0,446.0
266846,County,2020/03/24,8.0,CO,8067.0,La Plata County,14222.0,42088.0,182445.0,39045.0,45356.0,20801.0,28154.0,37452.0,7336.0,2196.0,1137.0,462.0,506.0
269994,County,2020/03/25,8.0,CO,8067.0,La Plata County,14411.0,41899.0,183797.0,49038.0,40699.0,19302.0,22514.0,40607.0,7279.0,2315.0,806.0,851.0,386.0
271621,County,2020/03/26,8.0,CO,8067.0,La Plata County,14495.0,41815.0,181112.0,42670.0,46292.0,19966.0,22781.0,36967.0,6777.0,3146.0,1052.0,724.0,737.0
276383,County,2020/03/27,8.0,CO,8067.0,La Plata County,14466.0,41844.0,165536.0,44558.0,38809.0,15724.0,24305.0,30363.0,6260.0,2801.0,1894.0,481.0,341.0
278010,County,2020/03/28,8.0,CO,8067.0,La Plata County,15353.0,40957.0,164830.0,46704.0,37363.0,17292.0,20991.0,34155.0,4914.0,1594.0,772.0,593.0,452.0
282770,County,2020/03/29,8.0,CO,8067.0,La Plata County,16631.0,39679.0,146080.0,43093.0,35187.0,13662.0,19930.0,24530.0,6573.0,869.0,823.0,920.0,493.0
284397,County,2020/03/30,8.0,CO,8067.0,La Plata County,14638.0,41672.0,169721.0,40935.0,36617.0,19757.0,25880.0,35029.0,6861.0,2237.0,1557.0,475.0,373.0
287593,County,2020/03/31,8.0,CO,8067.0,La Plata County,14298.0,42012.0,177949.0,41674.0,46902.0,20632.0,25366.0,32789.0,6053.0,2321.0,992.0,744.0,476.0
290828,County,2020/04/01,8.0,CO,8067.0,La Plata County,14795.0,41515.0,167810.0,42835.0,36615.0,15856.0,22724.0,38808.0,6911.0,2511.0,578.0,537.0,435.0
295561,County,2020/04/02,8.0,CO,8067.0,La Plata County,14974.0,41336.0,171536.0,39058.0,36837.0,22693.0,26789.0,34660.0,7682.0,1918.0,1297.0,330.0,272.0
297174,County,2020/04/03,8.0,CO,8067.0,La Plata County,14106.0,42204.0,176510.0,40581.0,41218.0,17446.0,29036.0,36835.0,7842.0,1871.0,870.0,546.0,265.0
300367,County,2020/04/04,8.0,CO,8067.0,La Plata County,15777.0,40533.0,154090.0,44704.0,34582.0,13971.0,18316.0,34544.0,5319.0,1306.0,290.0,549.0,509.0
305121,County,2020/04/05,8.0,CO,8067.0,La Plata County,15745.0,40565.0,154587.0,45533.0,36047.0,15881.0,19791.0,27071.0,5987.0,1804.0,873.0,670.0,930.0
308321,County,2020/04/06,8.0,CO,8067.0,La Plata County,14367.0,41943.0,183471.0,50455.0,42887.0,19238.0,22768.0,37281.0,7302.0,1769.0,959.0,603.0,209.0
311561,County,2020/04/07,8.0,CO,8067.0,La Plata County,14554.0,41756.0,181501.0,47209.0,42623.0,17374.0,24395.0,37551.0,8581.0,2664.0,556.0,415.0,133.0
314734,County,2020/04/08,8.0,CO,8067.0,La Plata County,15097.0,41213.0,199456.0,52530.0,48999.0,20708.0,26907.0,40377.0,7054.0,1803.0,873.0,158.0,47.0
317903,County,2020/04/09,8.0,CO,8067.0,La Plata County,14924.0,41386.0,186336.0,41219.0,46166.0,23509.0,27916.0,35254.0,7904.0,2712.0,1227.0,384.0,45.0
321098,County,2020/04/10,8.0,CO,8067.0,La Plata County,14133.0,42177.0,176951.0,38989.0,47042.0,20249.0,27284.0,35246.0,4266.0,1785.0,1408.0,429.0,253.0
322725,County,2020/04/11,8.0,CO,8067.0,La Plata County,15242.0,41068.0,162532.0,41554.0,38129.0,20488.0,25139.0,28386.0,5132.0,2132.0,873.0,513.0,186.0
327457,County,2020/04/12,8.0,CO,8067.0,La Plata County,17356.0,38954.0,125496.0,32876.0,32619.0,13726.0,16095.0,24620.0,2550.0,1422.0,1052.0,385.0,151.0
330729,County,2020/04/13,8.0,CO,8067.0,La Plata County,15402.0,40908.0,175614.0,45782.0,37520.0,18861.0,27031.0,37108.0,5191.0,2489.0,1179.0,359.0,94.0
333856,County,2020/04/14,8.0,CO,8067.0,La Plata County,14384.0,41926.0,177983.0,42743.0,51837.0,14978.0,30819.0,28923.0,4473.0,2668.0,451.0,550.0,541.0
337109,County,2020/04/15,8.0,CO,8067.0,La Plata County,13564.0,42746.0,171964.0,37798.0,42058.0,21329.0,30429.0,30809.0,4953.0,2764.0,1227.0,499.0,98.0
340203,County,2020/04/16,8.0,CO,8067.0,La Plata County,14154.0,42156.0,176568.0,49977.0,40278.0,22221.0,24092.0,27034.0,7180.0,4474.0,815.0,497.0,0.0
343514,County,2020/04/17,8.0,CO,8067.0,La Plata County,13606.0,42704.0,169562.0,37292.0,49507.0,14646.0,25638.0,32747.0,5832.0,2236.0,882.0,359.0,423.0
345092,County,2020/04/18,8.0,CO,8067.0,La Plata County,15490.0,40820.0,161637.0,33753.0,43224.0,29410.0,23640.0,23046.0,4752.0,2278.0,539.0,219.0,776.0
348264,County,2020/04/19,8.0,CO,8067.0,La Plata County,14842.0,41468.0,137408.0,29706.0,36541.0,15097.0,25002.0,20685.0,5714.0,2789.0,943.0,479.0,452.0
351471,County,2020/04/20,8.0,CO,8067.0,La Plata County,12945.0,43365.0,203437.0,34340.0,59230.0,27169.0,31489.0,36977.0,6584.0,5891.0,995.0,404.0,358.0
354664,County,2020/04/21,8.0,CO,8067.0,La Plata County,14525.0,41785.0,183039.0,34497.0,48274.0,19739.0,25267.0,39362.0,9794.0,3996.0,1324.0,423.0,363.0
359435,County,2020/04/22,8.0,CO,8067.0,La Plata County,13807.0,42503.0,196093.0,42614.0,45790.0,22655.0,30124.0,42535.0,8679.0,2663.0,295.0,360.0,378.0
362640,County,2020/04/23,8.0,CO,8067.0,La Plata County,13782.0,42528.0,192023.0,43098.0,47440.0,20936.0,30664.0,38846.0,7053.0,2131.0,1261.0,315.0,279.0
365853,County,2020/04/24,8.0,CO,8067.0,La Plata County,13039.0,43271.0,195394.0,41947.0,51281.0,23942.0,30232.0,37237.0,7414.0,2305.0,455.0,407.0,174.0
369009,County,2020/04/25,8.0,CO,8067.0,La Plata County,13448.0,42862.0,183939.0,37934.0,49961.0,21349.0,26831.0,33603.0,8936.0,4012.0,890.0,281.0,142.0
370599,County,2020/04/26,8.0,CO,8067.0,La Plata County,14407.0,41903.0,167540.0,34705.0,49568.0,15766.0,26457.0,27739.0,9685.0,1993.0,1072.0,349.0,206.0
373829,County,2020/04/27,8.0,CO,8067.0,La Plata County,13366.0,42944.0,208708.0,45393.0,55001.0,23158.0,31822.0,37688.0,10757.0,3074.0,1436.0,195.0,184.0
378606,County,2020/04/28,8.0,CO,8067.0,La Plata County,13495.0,42815.0,214774.0,45968.0,58852.0,31476.0,26085.0,37861.0,8687.0,3900.0,1058.0,703.0,184.0
380232,County,2020/04/29,8.0,CO,8067.0,La Plata County,13278.0,43032.0,200320.0,41051.0,52401.0,25707.0,35770.0,32143.0,9118.0,2997.0,591.0,400.0,142.0
384978,County,2020/04/30,8.0,CO,8067.0,La Plata County,12658.0,43652.0,196148.0,38241.0,51487.0,25607.0,29232.0,39156.0,7178.0,4090.0,745.0,189.0,223.0
388213,County,2020/05/01,8.0,CO,8067.0,La Plata County,13166.0,43144.0,224180.0,50020.0,54231.0,27691.0,33449.0,43361.0,9392.0,4228.0,1205.0,603.0,0.0
391363,County,2020/05/02,8.0,CO,8067.0,La Plata County,13770.0,42540.0,219712.0,57023.0,55526.0,29087.0,27078.0,37167.0,8039.0,4282.0,709.0,412.0,389.0
392999,County,2020/05/03,8.0,CO,8067.0,La Plata County,13583.0,42727.0,173144.0,43885.0,43409.0,17943.0,27001.0,28034.0,9315.0,2068.0,779.0,497.0,213.0
396210,County,2020/05/04,8.0,CO,8067.0,La Plata County,12854.0,43456.0,203574.0,43237.0,51704.0,21126.0,33989.0,38787.0,10130.0,2428.0,1724.0,311.0,138.0
399381,County,2020/05/05,8.0,CO,8067.0,La Plata County,13225.0,43085.0,204340.0,46420.0,50327.0,25492.0,28665.0,39888.0,8299.0,3726.0,1286.0,149.0,88.0
402560,County,2020/05/06,8.0,CO,8067.0,La Plata County,13294.0,43016.0,218057.0,56664.0,48728.0,23923.0,36593.0,37530.0,10471.0,2950.0,679.0,473.0,46.0
405763,County,2020/05/07,8.0,CO,8067.0,La Plata County,13912.0,42398.0,201623.0,42716.0,50265.0,26174.0,33858.0,36270.0,7400.0,3406.0,1056.0,156.0,322.0
410590,County,2020/05/08,8.0,CO,8067.0,La Plata County,12621.0,43689.0,211411.0,46089.0,49789.0,25187.0,30777.0,44639.0,8826.0,4408.0,1118.0,265.0,313.0
412121,County,2020/05/09,8.0,CO,8067.0,La Plata County,14368.0,41942.0,206814.0,52153.0,51515.0,30238.0,24961.0,36713.0,7191.0,1896.0,1530.0,373.0,244.0
415351,County,2020/05/10,8.0,CO,8067.0,La Plata County,14501.0,41809.0,201437.0,57904.0,50770.0,21421.0,22866.0,34099.0,10064.0,2281.0,1453.0,380.0,199.0
418545,County,2020/05/11,8.0,CO,8067.0,La Plata County,12182.0,44128.0,208668.0,50186.0,44664.0,27321.0,30962.0,39547.0,9976.0,3376.0,1798.0,487.0,351.0
423403,County,2020/05/12,8.0,CO,8067.0,La Plata County,11102.0,45208.0,225358.0,55201.0,52671.0,24684.0,33297.0,44341.0,10462.0,2748.0,1171.0,502.0,281.0
426450,County,2020/05/13,8.0,CO,8067.0,La Plata County,12133.0,44177.0,236089.0,63735.0,53301.0,28383.0,32261.0,42860.0,10305.0,3371.0,1307.0,335.0,231.0
429742,County,2020/05/14,8.0,CO,8067.0,La Plata County,11482.0,44828.0,231152.0,59412.0,51387.0,27204.0,33161.0,44019.0,9365.0,4561.0,1349.0,274.0,420.0
431322,County,2020/05/15,8.0,CO,8067.0,La Plata County,11212.0,45098.0,227643.0,54634.0,52104.0,28611.0,34576.0,41223.0,10488.0,3416.0,1695.0,583.0,313.0
436121,County,2020/05/16,8.0,CO,8067.0,La Plata County,12599.0,43711.0,231296.0,61577.0,55075.0,24983.0,36271.0,37092.0,12109.0,2580.0,992.0,434.0,183.0
439229,County,2020/05/17,8.0,CO,8067.0,La Plata County,11754.0,44556.0,213965.0,68038.0,47520.0,22874.0,28581.0,29834.0,10957.0,4075.0,1657.0,429.0,0.0
442519,County,2020/05/18,8.0,CO,8067.0,La Plata County,9716.0,46594.0,251116.0,58989.0,58555.0,26726.0,41366.0,45350.0,12966.0,5078.0,1628.0,458.0,0.0
445682,County,2020/05/19,8.0,CO,8067.0,La Plata County,8870.0,47440.0,240004.0,56344.0,59139.0,28800.0,40272.0,38808.0,10002.0,4603.0,1475.0,507.0,54.0
448859,County,2020/05/20,8.0,CO,8067.0,La Plata County,10635.0,45675.0,233812.0,55495.0,56231.0,27367.0,32669.0,43062.0,13161.0,4129.0,1357.0,276.0,65.0
450485,County,2020/05/21,8.0,CO,8067.0,La Plata County,9194.0,47116.0,239554.0,61699.0,57595.0,28142.0,34323.0,39497.0,12805.0,3683.0,1211.0,541.0,58.0
455244,County,2020/05/22,8.0,CO,8067.0,La Plata County,9374.0,46936.0,252599.0,61921.0,66784.0,31763.0,29507.0,43041.0,12909.0,5052.0,956.0,437.0,229.0
458456,County,2020/05/23,8.0,CO,8067.0,La Plata County,10805.0,45505.0,229999.0,51692.0,62619.0,28305.0,29681.0,39618.0,13468.0,2951.0,1310.0,355.0,0.0
461611,County,2020/05/24,8.0,CO,8067.0,La Plata County,11657.0,44653.0,208043.0,51986.0,55913.0,20971.0,26033.0,31800.0,12622.0,4946.0,2864.0,759.0,149.0
464913,County,2020/05/25,8.0,CO,8067.0,La Plata County,11736.0,44574.0,198284.0,50109.0,48676.0,22648.0,24885.0,33684.0,10001.0,4084.0,3065.0,934.0,198.0
466392,County,2020/05/26,8.0,CO,8067.0,La Plata County,10866.0,45444.0,233659.0,56303.0,62498.0,25841.0,31198.0,39244.0,12246.0,3441.0,1761.0,626.0,501.0
471262,County,2020/05/27,8.0,CO,8067.0,La Plata County,10865.0,45445.0,243377.0,60733.0,58788.0,27411.0,33932.0,42707.0,12179.0,4529.0,2121.0,522.0,455.0
474360,County,2020/05/28,8.0,CO,8067.0,La Plata County,11138.0,45172.0,256938.0,63949.0,62010.0,28986.0,36181.0,45614.0,13278.0,4569.0,1577.0,504.0,270.0
477599,County,2020/05/29,8.0,CO,8067.0,La Plata County,11478.0,44832.0,230939.0,55116.0,61302.0,25888.0,31545.0,38081.0,12861.0,3157.0,1926.0,783.0,280.0
480799,County,2020/05/30,8.0,CO,8067.0,La Plata County,11363.0,44947.0,234411.0,54503.0,59023.0,30896.0,32771.0,40018.0,11510.0,2906.0,1653.0,941.0,190.0
483943,County,2020/05/31,8.0,CO,8067.0,La Plata County,12456.0,43854.0,205084.0,49977.0,53603.0,21229.0,25717.0,33513.0,13388.0,3865.0,2156.0,1354.0,282.0
487294,County,2020/06/01,8.0,CO,8067.0,La Plata County,10896.0,45414.0,219536.0,49655.0,56065.0,27254.0,28381.0,37948.0,10801.0,5612.0,2319.0,1071.0,430.0
488861,County,2020/06/02,8.0,CO,8067.0,La Plata County,11262.0,45048.0,231183.0,49264.0,57759.0,28167.0,33862.0,42799.0,13145.0,3995.0,1126.0,823.0,243.0
491982,County,2020/06/03,8.0,CO,8067.0,La Plata County,9750.0,46560.0,238762.0,55658.0,54376.0,26596.0,38081.0,44862.0,12410.0,4373.0,1370.0,598.0,438.0
495192,County,2020/06/04,8.0,CO,8067.0,La Plata County,10499.0,45811.0,234213.0,53454.0,60973.0,28333.0,34130.0,36560.0,12331.0,5456.0,1937.0,678.0,361.0
499968,County,2020/06/05,8.0,CO,8067.0,La Plata County,10076.0,46234.0,234185.0,54137.0,56411.0,28680.0,32558.0,39733.0,14023.0,5916.0,1379.0,992.0,356.0
501591,County,2020/06/06,8.0,CO,8067.0,La Plata County,12436.0,43874.0,198669.0,41289.0,45129.0,25653.0,34867.0,35166.0,10301.0,3774.0,1256.0,766.0,468.0
504784,County,2020/06/07,8.0,CO,8067.0,La Plata County,11227.0,45083.0,206661.0,43178.0,49630.0,27471.0,29561.0,34648.0,13545.0,5358.0,2329.0,631.0,310.0
509531,County,2020/06/08,8.0,CO,8067.0,La Plata County,10067.0,46243.0,243662.0,55184.0,58564.0,33656.0,31413.0,40714.0,14050.0,5995.0,2964.0,821.0,301.0
512735,County,2020/06/09,8.0,CO,8067.0,La Plata County,10521.0,45789.0,227634.0,48625.0,58091.0,25303.0,29520.0,42143.0,14236.0,5840.0,2654.0,814.0,408.0
514367,County,2020/06/10,8.0,CO,8067.0,La Plata County,11281.0,45029.0,228764.0,48826.0,57252.0,27623.0,30617.0,42428.0,12831.0,5327.0,2724.0,521.0,615.0
517569,County,2020/06/11,8.0,CO,8067.0,La Plata County,11057.0,45253.0,229775.0,50184.0,53168.0,24699.0,34447.0,45226.0,15069.0,4203.0,1969.0,611.0,199.0
520772,County,2020/06/12,8.0,CO,8067.0,La Plata County,10628.0,45682.0,220623.0,46562.0,55484.0,26254.0,31210.0,39708.0,12026.0,6293.0,2193.0,477.0,416.0
523947,County,2020/06/13,8.0,CO,8067.0,La Plata County,11832.0,44478.0,212823.0,52205.0,44946.0,27077.0,31802.0,34831.0,11902.0,5741.0,3118.0,747.0,454.0
527143,County,2020/06/14,8.0,CO,8067.0,La Plata County,11969.0,44341.0,188750.0,43880.0,38060.0,22795.0,27014.0,33609.0,13934.0,5638.0,2589.0,992.0,239.0
530340,County,2020/06/15,8.0,CO,8067.0,La Plata County,10807.0,45503.0,204268.0,44011.0,46333.0,27880.0,28231.0,37065.0,11600.0,4986.0,2632.0,1051.0,479.0
533530,County,2020/06/16,8.0,CO,8067.0,La Plata County,11846.0,44464.0,219220.0,48856.0,48380.0,24871.0,31272.0,43956.0,13187.0,5935.0,1978.0,643.0,142.0
536724,County,2020/06/17,8.0,CO,8067.0,La Plata County,11390.0,44920.0,215789.0,49903.0,45013.0,26142.0,28902.0,42403.0,15455.0,4516.0,2242.0,756.0,457.0
539918,County,2020/06/18,8.0,CO,8067.0,La Plata County,10710.0,45600.0,215893.0,49408.0,50622.0,22123.0,32193.0,42185.0,10856.0,5497.0,2248.0,486.0,275.0
543111,County,2020/06/19,8.0,CO,8067.0,La Plata County,11156.0,45154.0,207793.0,44910.0,47606.0,24998.0,30982.0,38964.0,11121.0,5352.0,2969.0,583.0,308.0
546316,County,2020/06/20,8.0,CO,8067.0,La Plata County,11921.0,44389.0,188060.0,42357.0,42947.0,22896.0,26984.0,32450.0,11886.0,4894.0,2669.0,623.0,354.0
551059,County,2020/06/21,8.0,CO,8067.0,La Plata County,11971.0,44339.0,174432.0,35337.0,32310.0,18539.0,24084.0,37954.0,16727.0,4847.0,3655.0,548.0,431.0
552695,County,2020/06/22,8.0,CO,8067.0,La Plata County,10856.0,45454.0,198097.0,41269.0,40993.0,24478.0,30607.0,37598.0,14187.0,5521.0,2414.0,712.0,318.0
557455,County,2020/06/23,8.0,CO,8067.0,La Plata County,10395.0,45915.0,204509.0,40565.0,49187.0,26013.0,32161.0,38019.0,11616.0,3580.0,2165.0,842.0,361.0
559087,County,2020/06/24,8.0,CO,8067.0,La Plata County,11485.0,44825.0,192547.0,39234.0,41144.0,22004.0,29967.0,38698.0,13812.0,4916.0,1705.0,754.0,313.0
562276,County,2020/06/25,8.0,CO,8067.0,La Plata County,10979.0,45331.0,193316.0,34617.0,44495.0,26944.0,30861.0,34664.0,13174.0,4897.0,2529.0,804.0,331.0
567119,County,2020/06/26,8.0,CO,8067.0,La Plata County,10929.0,45381.0,204364.0,43589.0,47713.0,25006.0,30123.0,35803.0,14026.0,4707.0,2089.0,950.0,358.0
570221,County,2020/06/27,8.0,CO,8067.0,La Plata County,11515.0,44795.0,200488.0,39760.0,43499.0,25347.0,32302.0,35386.0,13766.0,5742.0,3617.0,780.0,289.0
571860,County,2020/06/28,8.0,CO,8067.0,La Plata County,11812.0,44498.0,199742.0,52664.0,43704.0,17343.0,30128.0,31901.0,13825.0,5093.0,3606.0,1004.0,474.0
576586,County,2020/06/29,8.0,CO,8067.0,La Plata County,11678.0,44632.0,193391.0,42009.0,41958.0,24245.0,28529.0,35102.0,12393.0,5373.0,2396.0,894.0,492.0
579834,County,2020/06/30,8.0,CO,8067.0,La Plata County,12116.0,44194.0,202744.0,42338.0,42916.0,25392.0,28837.0,40786.0,13018.0,5803.0,2626.0,616.0,412.0
583027,County,2020/07/01,8.0,CO,8067.0,La Plata County,11435.0,44875.0,199291.0,42022.0,49060.0,22702.0,26228.0,38099.0,11897.0,5392.0,2405.0,1157.0,329.0
586216,County,2020/07/02,8.0,CO,8067.0,La Plata County,12064.0,44246.0,205185.0,36743.0,47227.0,28598.0,32756.0,36792.0,13983.0,5198.0,2684.0,853.0,351.0
589420,County,2020/07/03,8.0,CO,8067.0,La Plata County,13648.0,42662.0,203211.0,43343.0,47444.0,24865.0,29953.0,35601.0,13947.0,4680.0,2077.0,945.0,356.0
592603,County,2020/07/04,8.0,CO,8067.0,La Plata County,13988.0,42322.0,173854.0,37081.0,40590.0,21273.0,25626.0,30458.0,11932.0,4004.0,1777.0,808.0,305.0
594253,County,2020/07/05,8.0,CO,8067.0,La Plata County,12302.0,44008.0,173828.0,37919.0,39998.0,20740.0,23893.0,29510.0,12845.0,4737.0,2971.0,866.0,349.0
598928,County,2020/07/06,8.0,CO,8067.0,La Plata County,10976.0,45334.0,186318.0,33357.0,46902.0,21452.0,25639.0,33417.0,13347.0,6801.0,4024.0,1180.0,199.0
600603,County,2020/07/07,8.0,CO,8067.0,La Plata County,10628.0,45682.0,192579.0,37395.0,44311.0,21707.0,25948.0,37673.0,14559.0,6173.0,3242.0,784.0,787.0
603795,County,2020/07/08,8.0,CO,8067.0,La Plata County,10633.0,45677.0,204508.0,45400.0,43078.0,24641.0,26821.0,41088.0,13898.0,5434.0,2432.0,1123.0,593.0
608567,County,2020/07/09,8.0,CO,8067.0,La Plata County,11485.0,44825.0,204313.0,41466.0,49621.0,23290.0,30039.0,36351.0,15538.0,3470.0,3124.0,943.0,471.0
610190,County,2020/07/10,8.0,CO,8067.0,La Plata County,10980.0,45330.0,198835.0,44637.0,40671.0,27579.0,24151.0,34335.0,17614.0,4768.0,3334.0,1234.0,512.0
614989,County,2020/07/11,8.0,CO,8067.0,La Plata County,11526.0,44784.0,184580.0,44002.0,36138.0,19431.0,26673.0,31089.0,16855.0,5755.0,3010.0,1083.0,544.0
616573,County,2020/07/12,8.0,CO,8067.0,La Plata County,12371.0,43939.0,161106.0,33925.0,31421.0,19607.0,19670.0,28725.0,17203.0,5821.0,3169.0,971.0,594.0
621333,County,2020/07/13,8.0,CO,8067.0,La Plata County,11513.0,44797.0,179159.0,32852.0,43796.0,19574.0,24409.0,35198.0,14220.0,5156.0,2347.0,1176.0,431.0
624527,County,2020/07/14,8.0,CO,8067.0,La Plata County,12173.0,44137.0,186267.0,41429.0,40240.0,23536.0,24374.0,35720.0,11598.0,5614.0,2632.0,772.0,352.0
626085,County,2020/07/15,8.0,CO,8067.0,La Plata County,11572.0,44738.0,196217.0,39084.0,46795.0,23648.0,27225.0,36521.0,13889.0,5431.0,2389.0,820.0,415.0
629326,County,2020/07/16,8.0,CO,8067.0,La Plata County,12298.0,44012.0,195568.0,46574.0,43733.0,22715.0,26326.0,36348.0,11377.0,5419.0,2123.0,694.0,259.0
634060,County,2020/07/17,8.0,CO,8067.0,La Plata County,12037.0,44273.0,193043.0,38129.0,46794.0,22370.0,26136.0,39108.0,11369.0,5504.0,2537.0,670.0,426.0
635737,County,2020/07/18,8.0,CO,8067.0,La Plata County,12911.0,43399.0,186670.0,40109.0,48830.0,20807.0,24561.0,32816.0,11094.0,4649.0,2491.0,865.0,448.0
640515,County,2020/07/19,8.0,CO,8067.0,La Plata County,12959.0,43351.0,174914.0,37852.0,37107.0,22104.0,21311.0,29650.0,16179.0,6125.0,3248.0,842.0,496.0
642127,County,2020/07/20,8.0,CO,8067.0,La Plata County,12844.0,43466.0,203060.0,44824.0,44607.0,26428.0,24473.0,36131.0,15506.0,6785.0,3158.0,715.0,433.0
647367,County,2020/07/21,8.0,CO,8067.0,La Plata County,12383.0,43927.0,196514.0,39032.0,45455.0,22467.0,25244.0,39402.0,15306.0,5407.0,2947.0,770.0,484.0
649556,County,2020/07/22,8.0,CO,8067.0,La Plata County,11776.0,44534.0,186157.0,35803.0,44128.0,23180.0,25157.0,34312.0,14327.0,5195.0,2798.0,785.0,472.0
653275,County,2020/07/23,8.0,CO,8067.0,La Plata County,11576.0,44734.0,186138.0,34919.0,44272.0,20999.0,27847.0,36739.0,11705.0,5586.0,2715.0,960.0,396.0
654794,County,2020/07/24,8.0,CO,8067.0,La Plata County,11964.0,44346.0,203525.0,43386.0,38463.0,24946.0,28950.0,42432.0,13678.0,5413.0,4665.0,948.0,644.0
658091,County,2020/07/25,8.0,CO,8067.0,La Plata County,13138.0,43172.0,184691.0,36107.0,44001.0,27579.0,25109.0,29018.0,12595.0,4541.0,4397.0,735.0,609.0
661289,County,2020/07/26,8.0,CO,8067.0,La Plata County,12339.0,43971.0,186417.0,36391.0,40603.0,18130.0,30599.0,32366.0,14227.0,7382.0,5270.0,926.0,523.0
666117,County,2020/07/27,8.0,CO,8067.0,La Plata County,12460.0,43850.0,196263.0,46590.0,42991.0,22154.0,25208.0,35662.0,14032.0,4863.0,3396.0,959.0,408.0
669321,County,2020/07/28,8.0,CO,8067.0,La Plata County,11613.0,44697.0,214098.0,47525.0,43843.0,22714.0,30568.0,42319.0,16654.0,6242.0,3006.0,733.0,494.0
672533,County,2020/07/29,8.0,CO,8067.0,La Plata County,11852.0,44458.0,204135.0,40290.0,50332.0,24004.0,27373.0,37323.0,14447.0,6321.0,2816.0,680.0,549.0
675616,County,2020/07/30,8.0,CO,8067.0,La Plata County,11481.0,44829.0,205539.0,41989.0,47510.0,23642.0,30625.0,36308.0,15022.0,5615.0,3064.0,1122.0,642.0
678844,County,2020/07/31,8.0,CO,8067.0,La Plata County,11880.0,44430.0,194388.0,39504.0,39862.0,25238.0,27672.0,35544.0,15767.0,5654.0,3392.0,1265.0,490.0
681965,County,2020/08/01,8.0,CO,8067.0,La Plata County,12706.0,43604.0,201899.0,41553.0,44037.0,22592.0,28470.0,38919.0,13871.0,6106.0,3667.0,1424.0,1260.0
683647,County,2020/08/02,8.0,CO,8067.0,La Plata County,12491.0,43819.0,177023.0,34281.0,38100.0,17664.0,26255.0,30877.0,17464.0,6742.0,3830.0,1427.0,383.0
686842,County,2020/08/03,8.0,CO,8067.0,La Plata County,12200.0,44110.0,230237.0,50105.0,54320.0,26998.0,32610.0,39998.0,16481.0,6321.0,2439.0,705.0,260.0
691618,County,2020/08/04,8.0,CO,8067.0,La Plata County,11759.0,44551.0,212965.0,45121.0,52969.0,25483.0,27515.0,38741.0,14377.0,5307.0,2502.0,738.0,212.0
694795,County,2020/08/05,8.0,CO,8067.0,La Plata County,11713.0,44597.0,216945.0,48909.0,54738.0,24231.0,32321.0,34420.0,14275.0,5727.0,1396.0,689.0,239.0
697990,County,2020/08/06,8.0,CO,8067.0,La Plata County,11005.0,45305.0,212789.0,47509.0,47908.0,26079.0,27007.0,40761.0,13904.0,6140.0,2629.0,622.0,230.0
699617,County,2020/08/07,8.0,CO,8067.0,La Plata County,11585.0,44725.0,199245.0,41169.0,46771.0,26229.0,28762.0,35265.0,11513.0,6172.0,2435.0,783.0,146.0
702814,County,2020/08/08,8.0,CO,8067.0,La Plata County,11820.0,44490.0,176829.0,35745.0,40176.0,21663.0,23487.0,30248.0,14500.0,5752.0,3914.0,991.0,353.0
707596,County,2020/08/09,8.0,CO,8067.0,La Plata County,12098.0,44212.0,177492.0,38472.0,39851.0,20227.0,22263.0,29273.0,12885.0,8235.0,4629.0,1189.0,468.0
709225,County,2020/08/10,8.0,CO,8067.0,La Plata County,12073.0,44237.0,200870.0,42828.0,46945.0,23485.0,25437.0,35344.0,15629.0,6436.0,3713.0,619.0,434.0
712394,County,2020/08/11,8.0,CO,8067.0,La Plata County,11800.0,44510.0,214818.0,47653.0,52840.0,26751.0,27660.0,36470.0,13582.0,6405.0,2420.0,686.0,351.0
715588,County,2020/08/12,8.0,CO,8067.0,La Plata County,12015.0,44295.0,202058.0,44055.0,46778.0,22770.0,27138.0,39078.0,13184.0,5207.0,2322.0,926.0,600.0
720348,County,2020/08/13,8.0,CO,8067.0,La Plata County,11175.0,45135.0,204306.0,48758.0,44073.0,22266.0,25614.0,38244.0,14535.0,6146.0,3087.0,893.0,690.0
721975,County,2020/08/14,8.0,CO,8067.0,La Plata County,10803.0,45507.0,218611.0,46952.0,52982.0,27707.0,28434.0,38080.0,12776.0,6845.0,2856.0,1039.0,940.0
726785,County,2020/08/15,8.0,CO,8067.0,La Plata County,11591.0,44719.0,190674.0,39040.0,50159.0,19632.0,21986.0,34214.0,12088.0,7320.0,4139.0,1174.0,922.0
728364,County,2020/08/16,8.0,CO,8067.0,La Plata County,12615.0,43695.0,181483.0,44180.0,38134.0,21885.0,21244.0,29321.0,11214.0,7798.0,5136.0,1431.0,1140.0
733145,County,2020/08/17,8.0,CO,8067.0,La Plata County,12748.0,43562.0,194098.0,39095.0,41901.0,24353.0,26223.0,36211.0,14572.0,6957.0,2451.0,1071.0,1264.0
736318,County,2020/08/18,8.0,CO,8067.0,La Plata County,12543.0,43767.0,195720.0,41986.0,45772.0,24756.0,23899.0,33730.0,14740.0,5292.0,3036.0,1099.0,1410.0
739512,County,2020/08/19,8.0,CO,8067.0,La Plata County,11675.0,44635.0,196027.0,38215.0,46223.0,25518.0,25553.0,34113.0,13503.0,6368.0,3631.0,1531.0,1372.0
741139,County,2020/08/20,8.0,CO,8067.0,La Plata County,11696.0,44614.0,206480.0,42428.0,54613.0,27201.0,23582.0,34190.0,14350.0,4387.0,2974.0,1285.0,1470.0
744339,County,2020/08/21,8.0,CO,8067.0,La Plata County,10543.0,45767.0,211576.0,45846.0,51313.0,25860.0,27746.0,37228.0,12011.0,5544.0,3280.0,1059.0,1689.0
747545,County,2020/08/22,8.0,CO,8067.0,La Plata County,12140.0,44170.0,202087.0,43386.0,52299.0,26166.0,26231.0,35048.0,9772.0,4216.0,2994.0,992.0,983.0
752290,County,2020/08/23,8.0,CO,8067.0,La Plata County,13536.0,42774.0,159588.0,34442.0,35472.0,18141.0,17619.0,29862.0,11797.0,6387.0,3644.0,951.0,1273.0
755481,County,2020/08/24,8.0,CO,8067.0,La Plata County,13084.0,43226.0,178751.0,37050.0,45687.0,18393.0,22982.0,32774.0,13028.0,4634.0,2528.0,853.0,822.0
757110,County,2020/08/25,8.0,CO,8067.0,La Plata County,12467.0,43843.0,197068.0,44539.0,45076.0,23247.0,28819.0,34456.0,12598.0,4969.0,1715.0,846.0,803.0
761832,County,2020/08/26,8.0,CO,8067.0,La Plata County,12849.0,43461.0,188028.0,39544.0,44149.0,20528.0,26393.0,34639.0,15128.0,4360.0,1789.0,880.0,618.0
763510,County,2020/08/27,8.0,CO,8067.0,La Plata County,12640.0,43670.0,180053.0,37646.0,38366.0,21354.0,25217.0,34352.0,14719.0,4698.0,2365.0,759.0,577.0
768244,County,2020/08/28,8.0,CO,8067.0,La Plata County,12620.0,43690.0,185718.0,39108.0,44280.0,25676.0,22163.0,32349.0,11835.0,6006.0,2850.0,1075.0,376.0
771444,County,2020/08/29,8.0,CO,8067.0,La Plata County,13190.0,43120.0,177376.0,42056.0,41369.0,22567.0,22522.0,28505.0,12926.0,3916.0,2120.0,922.0,473.0
773079,County,2020/08/30,8.0,CO,8067.0,La Plata County,13992.0,42318.0,162178.0,34756.0,41166.0,18454.0,18442.0,24838.0,12047.0,7019.0,3890.0,1112.0,454.0
777854,County,2020/08/31,8.0,CO,8067.0,La Plata County,13853.0,42457.0,177249.0,35419.0,41715.0,23886.0,24646.0,29906.0,12315.0,4936.0,2920.0,879.0,627.0
781052,County,2020/09/01,8.0,CO,8067.0,La Plata County,13187.0,43123.0,190408.0,38551.0,45936.0,24231.0,26266.0,32135.0,11629.0,6628.0,3728.0,747.0,557.0
783447,County,2020/09/02,8.0,CO,8067.0,La Plata County,12737.0,43573.0,198619.0,44570.0,47947.0,23764.0,26041.0,30824.0,16018.0,5198.0,3123.0,776.0,358.0
787397,County,2020/09/03,8.0,CO,8067.0,La Plata County,11884.0,44426.0,199712.0,40993.0,53490.0,21792.0,26393.0,33676.0,14161.0,5540.0,2200.0,1157.0,310.0
789061,County,2020/09/04,8.0,CO,8067.0,La Plata County,12027.0,44283.0,204131.0,38393.0,56005.0,23468.0,28271.0,34022.0,14397.0,5048.0,3034.0,911.0,582.0
793729,County,2020/09/05,8.0,CO,8067.0,La Plata County,12526.0,43784.0,186521.0,37663.0,41658.0,23614.0,24613.0,33034.0,16619.0,5609.0,2514.0,715.0,482.0
795432,County,2020/09/06,8.0,CO,8067.0,La Plata County,12906.0,43404.0,166780.0,36149.0,36474.0,19182.0,23253.0,27167.0,13241.0,6360.0,3314.0,913.0,727.0
798641,County,2020/09/07,8.0,CO,8067.0,La Plata County,13820.0,42490.0,153518.0,27860.0,41457.0,17997.0,18684.0,26807.0,10527.0,4654.0,3316.0,1462.0,754.0
803392,County,2020/09/08,8.0,CO,8067.0,La Plata County,12687.0,43623.0,189046.0,37856.0,42982.0,22684.0,28166.0,34157.0,14081.0,4639.0,2831.0,1115.0,535.0
805019,County,2020/09/09,8.0,CO,8067.0,La Plata County,12608.0,43702.0,179883.0,34312.0,42813.0,21379.0,26225.0,35464.0,11107.0,4260.0,2349.0,1093.0,881.0
809788,County,2020/09/10,8.0,CO,8067.0,La Plata County,12716.0,43594.0,173524.0,29211.0,43140.0,23310.0,25485.0,32115.0,11464.0,4133.0,2891.0,795.0,980.0
811417,County,2020/09/11,8.0,CO,8067.0,La Plata County,12101.0,44209.0,196464.0,36939.0,43497.0,25736.0,28681.0,35251.0,15110.0,7262.0,2344.0,1040.0,604.0
814601,County,2020/09/12,8.0,CO,8067.0,La Plata County,13430.0,42880.0,185754.0,30430.0,48052.0,22272.0,27313.0,32290.0,12461.0,7845.0,3468.0,933.0,690.0
817775,County,2020/09/13,8.0,CO,8067.0,La Plata County,14016.0,42294.0,162348.0,36463.0,38953.0,17092.0,18705.0,28003.0,13533.0,5535.0,2431.0,1036.0,597.0
822557,County,2020/09/14,8.0,CO,8067.0,La Plata County,13021.0,43289.0,185822.0,35857.0,45905.0,24445.0,24099.0,33375.0,13304.0,4311.0,2706.0,1396.0,424.0
824184,County,2020/09/15,8.0,CO,8067.0,La Plata County,12809.0,43501.0,183857.0,34777.0,45486.0,22998.0,26403.0,33535.0,11592.0,4446.0,2939.0,964.0,717.0
828991,County,2020/09/16,8.0,CO,8067.0,La Plata County,12725.0,43585.0,196527.0,38979.0,52205.0,20361.0,27468.0,35390.0,14045.0,4170.0,2159.0,961.0,789.0
830571,County,2020/09/17,8.0,CO,8067.0,La Plata County,12040.0,44270.0,195561.0,37651.0,50617.0,22403.0,28591.0,37802.0,10296.0,4033.0,2635.0,1152.0,381.0
835332,County,2020/09/18,8.0,CO,8067.0,La Plata County,11888.0,44422.0,199932.0,43614.0,47721.0,22291.0,25770.0,36533.0,13575.0,5382.0,3289.0,1082.0,675.0
836960,County,2020/09/19,8.0,CO,8067.0,La Plata County,13001.0,43309.0,197128.0,38954.0,56027.0,21494.0,24767.0,31398.0,14910.0,5003.0,3081.0,1031.0,463.0
841735,County,2020/09/20,8.0,CO,8067.0,La Plata County,13430.0,42880.0,163992.0,33398.0,35921.0,18634.0,21718.0,26833.0,13765.0,6959.0,5111.0,1154.0,499.0
844940,County,2020/09/21,8.0,CO,8067.0,La Plata County,13300.0,43010.0,162902.0,27382.0,40966.0,18178.0,25030.0,29685.0,11971.0,5083.0,3153.0,966.0,488.0
848108,County,2020/09/22,8.0,CO,8067.0,La Plata County,12728.0,43582.0,186694.0,37391.0,43936.0,21135.0,25074.0,35272.0,13545.0,6604.0,2859.0,581.0,297.0
849735,County,2020/09/23,8.0,CO,8067.0,La Plata County,11596.0,44714.0,188029.0,36133.0,42295.0,21555.0,26671.0,38398.0,13480.0,5469.0,2926.0,613.0,489.0
854501,County,2020/09/24,8.0,CO,8067.0,La Plata County,11287.0,45023.0,200404.0,40817.0,47008.0,21438.0,29729.0,38776.0,12106.0,6365.0,3367.0,522.0,276.0
856130,County,2020/09/25,8.0,CO,8067.0,La Plata County,11331.0,44979.0,211664.0,43298.0,53485.0,23520.0,25281.0,39854.0,14798.0,7008.0,3245.0,678.0,497.0
859317,County,2020/09/26,8.0,CO,8067.0,La Plata County,13151.0,43159.0,202443.0,44746.0,49462.0,19197.0,25311.0,35205.0,17002.0,7478.0,2860.0,768.0,414.0
864064,County,2020/09/27,8.0,CO,8067.0,La Plata County,12923.0,43387.0,170660.0,36842.0,38222.0,18236.0,22480.0,30363.0,13624.0,5816.0,3925.0,765.0,387.0
867272,County,2020/09/28,8.0,CO,8067.0,La Plata County,12441.0,43869.0,191812.0,40413.0,50122.0,20578.0,21933.0,35182.0,12707.0,6761.0,2961.0,781.0,374.0
868899,County,2020/09/29,8.0,CO,8067.0,La Plata County,12881.0,43429.0,195465.0,35611.0,51250.0,22401.0,27953.0,33687.0,14973.0,6812.0,1977.0,617.0,184.0
873678,County,2020/09/30,8.0,CO,8067.0,La Plata County,12214.0,44096.0,194530.0,40791.0,46530.0,22755.0,26451.0,35707.0,14484.0,5304.0,1613.0,658.0,237.0
876833,County,2020/10/01,8.0,CO,8067.0,La Plata County,11734.0,44576.0,195483.0,41986.0,50002.0,22714.0,27207.0,34372.0,13172.0,3181.0,2063.0,587.0,199.0
880048,County,2020/10/02,8.0,CO,8067.0,La Plata County,12928.0,43382.0,185198.0,38836.0,42834.0,22854.0,27240.0,34128.0,10195.0,5966.0,2449.0,538.0,158.0
881676,County,2020/10/03,8.0,CO,8067.0,La Plata County,13452.0,42858.0,170085.0,31592.0,41295.0,21638.0,22328.0,33994.0,11558.0,4625.0,2246.0,663.0,146.0
884823,County,2020/10/04,8.0,CO,8067.0,La Plata County,13865.0,42445.0,154758.0,29028.0,33468.0,15167.0,20297.0,28774.0,16212.0,7695.0,3222.0,760.0,135.0
888211,County,2020/10/05,8.0,CO,8067.0,La Plata County,13947.0,42363.0,176363.0,33396.0,38827.0,19888.0,28027.0,32481.0,15198.0,5880.0,1860.0,652.0,154.0
891352,County,2020/10/06,8.0,CO,8067.0,La Plata County,12793.0,43517.0,186178.0,32111.0,49582.0,24015.0,25738.0,33109.0,14530.0,4997.0,1436.0,509.0,151.0
894551,County,2020/10/07,8.0,CO,8067.0,La Plata County,11876.0,44434.0,199386.0,39301.0,51932.0,23098.0,29214.0,33015.0,14409.0,5321.0,2405.0,573.0,118.0
897712,County,2020/10/08,8.0,CO,8067.0,La Plata County,11637.0,44673.0,179438.0,32595.0,45854.0,19383.0,27718.0,33618.0,12241.0,5387.0,1721.0,795.0,126.0
900987,County,2020/10/09,8.0,CO,8067.0,La Plata County,12561.0,43749.0,200435.0,44824.0,47576.0,19867.0,30600.0,34696.0,11935.0,6378.0,3850.0,588.0,121.0
904149,County,2020/10/10,8.0,CO,8067.0,La Plata County,13093.0,43217.0,180001.0,35824.0,40047.0,22011.0,25234.0,34765.0,13412.0,5790.0,2254.0,532.0,132.0
910286,County,2020/10/11,8.0,CO,8067.0,La Plata County,14405.0,41905.0,162880.0,33466.0,34837.0,18720.0,20488.0,31719.0,14201.0,5673.0,2820.0,825.0,131.0
912963,County,2020/10/12,8.0,CO,8067.0,La Plata County,13286.0,43024.0,190653.0,43052.0,48814.0,23544.0,24680.0,30443.0,11289.0,5756.0,2206.0,774.0,95.0
916406,County,2020/10/13,8.0,CO,8067.0,La Plata County,12719.0,43591.0,181431.0,36227.0,42430.0,23012.0,24241.0,37768.0,11023.0,4076.0,1897.0,629.0,128.0
919428,County,2020/10/14,8.0,CO,8067.0,La Plata County,12825.0,43485.0,181652.0,31357.0,43235.0,24350.0,28058.0,36608.0,10437.0,5221.0,1688.0,543.0,155.0
922828,County,2020/10/15,8.0,CO,8067.0,La Plata County,13156.0,43154.0,173983.0,28415.0,42155.0,20907.0,25776.0,35610.0,10929.0,6510.0,2760.0,715.0,206.0
925810,County,2020/10/16,8.0,CO,8067.0,La Plata County,12284.0,44026.0,186644.0,37138.0,41880.0,20737.0,26283.0,39014.0,12995.0,5432.0,2329.0,656.0,180.0
929049,County,2020/10/17,8.0,CO,8067.0,La Plata County,13407.0,42903.0,185233.0,40222.0,48274.0,21127.0,24573.0,29676.0,13239.0,5631.0,1753.0,586.0,152.0
932323,County,2020/10/18,8.0,CO,8067.0,La Plata County,13694.0,42616.0,171976.0,39292.0,38894.0,17844.0,22967.0,31301.0,11785.0,6177.0,3006.0,546.0,164.0
935514,County,2020/10/19,8.0,CO,8067.0,La Plata County,13223.0,43087.0,181945.0,35860.0,41294.0,21577.0,27268.0,34777.0,12114.0,6059.0,2205.0,587.0,204.0
938503,County,2020/10/20,8.0,CO,8067.0,La Plata County,12726.0,43584.0,171158.0,30180.0,40624.0,19583.0,29113.0,33660.0,9589.0,5636.0,1928.0,705.0,140.0
941600,County,2020/10/21,8.0,CO,8067.0,La Plata County,13195.0,43115.0,176584.0,35388.0,46827.0,20723.0,25659.0,29109.0,11170.0,5414.0,1474.0,603.0,217.0
944786,County,2020/10/22,8.0,CO,8067.0,La Plata County,12304.0,44006.0,183928.0,31150.0,44149.0,21561.0,28933.0,39795.0,11034.0,4568.0,1851.0,739.0,148.0
947706,County,2020/10/23,8.0,CO,8067.0,La Plata County,11338.0,44972.0,206122.0,38597.0,51304.0,26599.0,29930.0,37765.0,12251.0,6626.0,2155.0,695.0,200.0
951426,County,2020/10/24,8.0,CO,8067.0,La Plata County,13088.0,43222.0,196162.0,35670.0,50113.0,23651.0,28277.0,36219.0,13664.0,6088.0,1823.0,469.0,188.0
