,Level,Date,State FIPS,State Postal Code,County FIPS,County Name,Population Staying at Home,Population Not Staying at Home,Number of Trips,Number of Trips <1,Number of Trips 1-3,Number of Trips 3-5,Number of Trips 5-10,Number of Trips 10-25,Number of Trips 25-50,Number of Trips 50-100,Number of Trips 100-250,Number of Trips 250-500,Number of Trips >=500
2052,County,2020/01/01,39.0,OH,39021.0,Champaign County,8306.0,30448.0,104523.0,18425.0,21599.0,9803.0,16240.0,25112.0,8996.0,3029.0,1054.0,181.0,84.0
4973,County,2020/01/02,39.0,OH,39021.0,Champaign County,6539.0,32215.0,130150.0,23987.0,26674.0,12698.0,15493.0,31620.0,15365.0,3442.0,805.0,51.0,15.0
9344,County,2020/01/03,39.0,OH,39021.0,Champaign County,6427.0,32327.0,138382.0,25861.0,26713.0,12561.0,17564.0,35255.0,15470.0,3721.0,1118.0,90.0,29.0
11669,County,2020/01/04,39.0,OH,39021.0,Champaign County,7396.0,31358.0,122294.0,19422.0,23570.0,11458.0,16372.0,34859.0,11991.0,3557.0,937.0,103.0,25.0
14828,County,2020/01/05,39.0,OH,39021.0,Champaign County,7828.0,30926.0,116454.0,23127.0,22207.0,10109.0,16059.0,31324.0,10924.0,1932.0,662.0,59.0,51.0
16993,County,2020/01/06,39.0,OH,39021.0,Champaign County,6547.0,32207.0,129299.0,23243.0,28616.0,10324.0,17160.0,32518.0,13436.0,3453.0,463.0,50.0,36.0
21754,County,2020/01/07,39.0,OH,39021.0,Champaign County,6295.0,32459.0,143829.0,25125.0,30055.0,14939.0,18962.0,35406.0,14826.0,3422.0,921.0,120.0,53.0
24949,County,2020/01/08,39.0,OH,39021.0,Champaign County,6142.0,32612.0,148359.0,29447.0,33055.0,16561.0,17951.0,31001.0,15359.0,4087.0,828.0,44.0,26.0
26576,County,2020/01/09,39.0,OH,39021.0,Champaign County,5974.0,32780.0,144694.0,27460.0,32182.0,14181.0,19106.0,32919.0,14793.0,2871.0,1099.0,77.0,6.0
29772,County,2020/01/10,39.0,OH,39021.0,Champaign County,6078.0,32676.0,147044.0,25602.0,30780.0,14784.0,18339.0,36708.0,16477.0,3211.0,1045.0,86.0,12.0
34580,County,2020/01/11,39.0,OH,39021.0,Champaign County,6814.0,31940.0,136938.0,27582.0,24631.0,13304.0,18335.0,34447.0,13491.0,4258.0,654.0,211.0,25.0
37700,County,2020/01/12,39.0,OH,39021.0,Champaign County,7798.0,30956.0,123330.0,21676.0,26467.0,12038.0,18272.0,30929.0,10621.0,2531.0,583.0,198.0,15.0
40947,County,2020/01/13,39.0,OH,39021.0,Champaign County,6238.0,32516.0,140851.0,27107.0,29873.0,13394.0,19299.0,32364.0,15187.0,2550.0,864.0,194.0,19.0
42573,County,2020/01/14,39.0,OH,39021.0,Champaign County,6231.0,32523.0,147295.0,30709.0,29203.0,15393.0,18350.0,34794.0,14335.0,3572.0,820.0,106.0,13.0
45726,County,2020/01/15,39.0,OH,39021.0,Champaign County,6292.0,32462.0,140111.0,27674.0,29332.0,12907.0,19307.0,32066.0,14443.0,3177.0,1085.0,95.0,25.0
50507,County,2020/01/16,39.0,OH,39021.0,Champaign County,6033.0,32721.0,146999.0,28889.0,31897.0,14810.0,17416.0,34737.0,15234.0,3169.0,710.0,87.0,50.0
53745,County,2020/01/17,39.0,OH,39021.0,Champaign County,6305.0,32449.0,148192.0,29930.0,28300.0,14802.0,18306.0,38449.0,14664.0,2723.0,921.0,91.0,6.0
55318,County,2020/01/18,39.0,OH,39021.0,Champaign County,7371.0,31383.0,129656.0,20962.0,27578.0,14459.0,18585.0,31264.0,12225.0,3341.0,964.0,250.0,28.0
58515,County,2020/01/19,39.0,OH,39021.0,Champaign County,7961.0,30793.0,125027.0,22846.0,23933.0,13631.0,19389.0,32339.0,9133.0,2783.0,763.0,195.0,15.0
63277,County,2020/01/20,39.0,OH,39021.0,Champaign County,7117.0,31637.0,138511.0,28101.0,25553.0,15818.0,17714.0,32974.0,13661.0,3726.0,874.0,56.0,34.0
66475,County,2020/01/21,39.0,OH,39021.0,Champaign County,6174.0,32580.0,142954.0,28957.0,29008.0,12948.0,18197.0,35029.0,14790.0,2943.0,1019.0,51.0,12.0
69664,County,2020/01/22,39.0,OH,39021.0,Champaign County,6118.0,32636.0,150227.0,28835.0,30947.0,15284.0,19790.0,36908.0,14091.0,3552.0,701.0,106.0,13.0
71290,County,2020/01/23,39.0,OH,39021.0,Champaign County,6294.0,32460.0,145288.0,28115.0,30242.0,14863.0,18835.0,34309.0,15210.0,2862.0,710.0,124.0,18.0
74487,County,2020/01/24,39.0,OH,39021.0,Champaign County,6082.0,32672.0,145418.0,28635.0,30539.0,13492.0,17674.0,35968.0,14262.0,3707.0,1004.0,114.0,23.0
77680,County,2020/01/25,39.0,OH,39021.0,Champaign County,6593.0,32161.0,138457.0,25845.0,27059.0,11947.0,20428.0,35977.0,12175.0,3603.0,1282.0,115.0,26.0
81902,County,2020/01/26,39.0,OH,39021.0,Champaign County,7671.0,31083.0,122362.0,23552.0,28031.0,11608.0,16368.0,29149.0,10769.0,1981.0,779.0,65.0,60.0
85603,County,2020/01/27,39.0,OH,39021.0,Champaign County,6157.0,32597.0,142694.0,27910.0,30607.0,13800.0,17799.0,34509.0,13842.0,3170.0,949.0,73.0,35.0
89359,County,2020/01/28,39.0,OH,39021.0,Champaign County,6067.0,32687.0,137117.0,25474.0,29811.0,15090.0,14269.0,34400.0,14422.0,2724.0,845.0,58.0,24.0
92009,County,2020/01/29,39.0,OH,39021.0,Champaign County,5991.0,32763.0,140035.0,28691.0,28589.0,14028.0,18050.0,32298.0,13904.0,3603.0,733.0,91.0,48.0
93784,County,2020/01/30,39.0,OH,39021.0,Champaign County,6027.0,32727.0,139326.0,27411.0,31192.0,13043.0,17553.0,32577.0,12469.0,3798.0,1094.0,110.0,79.0
96839,County,2020/01/31,39.0,OH,39021.0,Champaign County,5879.0,32875.0,149301.0,28254.0,33816.0,12130.0,19327.0,36435.0,13523.0,4162.0,1476.0,125.0,53.0
101597,County,2020/02/01,39.0,OH,39021.0,Champaign County,6412.0,32342.0,142810.0,24215.0,32206.0,13991.0,18317.0,36992.0,11926.0,3707.0,1250.0,171.0,35.0
103216,County,2020/02/02,39.0,OH,39021.0,Champaign County,6993.0,31761.0,134034.0,26252.0,33636.0,13085.0,18206.0,30471.0,7902.0,3365.0,947.0,116.0,54.0
106425,County,2020/02/03,39.0,OH,39021.0,Champaign County,6130.0,32624.0,143673.0,27602.0,35638.0,15365.0,18191.0,29337.0,12502.0,3886.0,966.0,131.0,55.0
111187,County,2020/02/04,39.0,OH,39021.0,Champaign County,6117.0,32637.0,137401.0,25608.0,31588.0,12957.0,15792.0,34001.0,12863.0,3322.0,1096.0,110.0,64.0
114390,County,2020/02/05,39.0,OH,39021.0,Champaign County,5894.0,32860.0,142169.0,27296.0,32739.0,14290.0,18766.0,30444.0,13576.0,3524.0,1367.0,117.0,50.0
115909,County,2020/02/06,39.0,OH,39021.0,Champaign County,6194.0,32560.0,139338.0,25009.0,31521.0,14093.0,17564.0,32987.0,13267.0,3679.0,1056.0,108.0,54.0
119175,County,2020/02/07,39.0,OH,39021.0,Champaign County,5783.0,32971.0,144826.0,26423.0,31970.0,13548.0,17852.0,34764.0,15309.0,3666.0,1060.0,156.0,78.0
122421,County,2020/02/08,39.0,OH,39021.0,Champaign County,6685.0,32069.0,141352.0,26200.0,29886.0,13326.0,17159.0,35454.0,13599.0,4483.0,1033.0,148.0,64.0
126066,County,2020/02/09,39.0,OH,39021.0,Champaign County,7872.0,30882.0,110005.0,18696.0,23753.0,11510.0,15013.0,27962.0,9197.0,2350.0,887.0,532.0,105.0
130361,County,2020/02/10,39.0,OH,39021.0,Champaign County,5865.0,32889.0,135277.0,22400.0,30649.0,14749.0,17657.0,31171.0,13134.0,3650.0,1317.0,464.0,86.0
132468,County,2020/02/11,39.0,OH,39021.0,Champaign County,5356.0,33398.0,141250.0,25057.0,32587.0,14326.0,17814.0,31432.0,14016.0,3894.0,1561.0,478.0,85.0
136709,County,2020/02/12,39.0,OH,39021.0,Champaign County,5568.0,33186.0,141722.0,26025.0,33013.0,13654.0,18394.0,31689.0,12836.0,3622.0,1698.0,655.0,136.0
138404,County,2020/02/13,39.0,OH,39021.0,Champaign County,5831.0,32923.0,133124.0,22291.0,29709.0,13389.0,16304.0,32534.0,12570.0,3981.0,1581.0,628.0,137.0
143134,County,2020/02/14,39.0,OH,39021.0,Champaign County,5081.0,33673.0,143386.0,23549.0,29780.0,14722.0,18820.0,37032.0,13314.0,3303.0,1733.0,965.0,168.0
144758,County,2020/02/15,39.0,OH,39021.0,Champaign County,5933.0,32821.0,138410.0,22469.0,28596.0,13252.0,19274.0,35007.0,13415.0,3640.0,1528.0,1142.0,87.0
147947,County,2020/02/16,39.0,OH,39021.0,Champaign County,6939.0,31815.0,124881.0,21892.0,27837.0,13556.0,16669.0,29701.0,10387.0,2345.0,1341.0,962.0,191.0
151172,County,2020/02/17,39.0,OH,39021.0,Champaign County,7584.0,31170.0,113042.0,18933.0,25580.0,9699.0,14310.0,27728.0,12036.0,2894.0,1269.0,496.0,97.0
155902,County,2020/02/18,39.0,OH,39021.0,Champaign County,5772.0,32982.0,134854.0,21562.0,28375.0,12840.0,18386.0,33984.0,13833.0,3583.0,1556.0,646.0,89.0
159096,County,2020/02/19,39.0,OH,39021.0,Champaign County,5716.0,33038.0,137391.0,22507.0,29178.0,13215.0,17958.0,34480.0,14882.0,3167.0,1443.0,390.0,171.0
160591,County,2020/02/20,39.0,OH,39021.0,Champaign County,5968.0,32786.0,137454.0,22331.0,30212.0,12438.0,19261.0,34127.0,14151.0,3526.0,1192.0,113.0,103.0
165485,County,2020/02/21,39.0,OH,39021.0,Champaign County,5484.0,33270.0,146621.0,26184.0,28242.0,13302.0,18538.0,38506.0,15165.0,4768.0,1630.0,188.0,98.0
167063,County,2020/02/22,39.0,OH,39021.0,Champaign County,6339.0,32415.0,146005.0,26915.0,32027.0,12927.0,16975.0,37591.0,12409.0,5464.0,1532.0,88.0,77.0
171878,County,2020/02/23,39.0,OH,39021.0,Champaign County,7163.0,31591.0,121983.0,24458.0,25361.0,10664.0,16432.0,30111.0,10660.0,3210.0,915.0,134.0,38.0
175072,County,2020/02/24,39.0,OH,39021.0,Champaign County,5793.0,32961.0,132364.0,24492.0,26647.0,13380.0,16819.0,32727.0,14078.0,2813.0,971.0,395.0,42.0
177723,County,2020/02/25,39.0,OH,39021.0,Champaign County,5167.0,33587.0,140843.0,25287.0,29178.0,13754.0,19399.0,33373.0,15249.0,3406.0,778.0,326.0,93.0
180916,County,2020/02/26,39.0,OH,39021.0,Champaign County,6672.0,32082.0,118680.0,16445.0,25950.0,12293.0,19447.0,30438.0,10513.0,2150.0,997.0,344.0,103.0
182480,County,2020/02/27,39.0,OH,39021.0,Champaign County,6014.0,32740.0,129735.0,22795.0,27193.0,12506.0,17176.0,32157.0,14398.0,2684.0,601.0,118.0,107.0
187891,County,2020/02/28,39.0,OH,39021.0,Champaign County,5326.0,33428.0,141471.0,23095.0,29343.0,14588.0,18661.0,37935.0,13538.0,3042.0,1010.0,170.0,89.0
189422,County,2020/02/29,39.0,OH,39021.0,Champaign County,5662.0,33092.0,139146.0,23946.0,26265.0,14186.0,17646.0,35193.0,16728.0,4038.0,864.0,181.0,99.0
192661,County,2020/03/01,39.0,OH,39021.0,Champaign County,6982.0,31772.0,127238.0,22090.0,27757.0,14015.0,14808.0,33824.0,10848.0,3016.0,672.0,145.0,63.0
195884,County,2020/03/02,39.0,OH,39021.0,Champaign County,5665.0,33089.0,140100.0,23365.0,31235.0,14035.0,17222.0,33336.0,15235.0,4367.0,998.0,220.0,87.0
199040,County,2020/03/03,39.0,OH,39021.0,Champaign County,5528.0,33226.0,144097.0,24095.0,30770.0,15167.0,17939.0,33600.0,16032.0,4816.0,1309.0,329.0,40.0
201369,County,2020/03/04,39.0,OH,39021.0,Champaign County,5732.0,33022.0,142466.0,24550.0,23950.0,15198.0,19792.0,36213.0,16228.0,4918.0,1173.0,364.0,80.0
205389,County,2020/03/05,39.0,OH,39021.0,Champaign County,5285.0,33469.0,147438.0,25421.0,29011.0,14258.0,18499.0,36111.0,16879.0,5273.0,1713.0,197.0,76.0
210240,County,2020/03/06,39.0,OH,39021.0,Champaign County,5640.0,33114.0,146996.0,22664.0,29105.0,15662.0,20862.0,37437.0,14965.0,4002.0,1998.0,281.0,20.0
211858,County,2020/03/07,39.0,OH,39021.0,Champaign County,6229.0,32525.0,144157.0,23632.0,31297.0,15096.0,19495.0,36750.0,12037.0,4522.0,1053.0,194.0,81.0
216584,County,2020/03/08,39.0,OH,39021.0,Champaign County,7045.0,31709.0,125296.0,23597.0,26812.0,14507.0,16641.0,28044.0,10874.0,3280.0,1103.0,343.0,95.0
219782,County,2020/03/09,39.0,OH,39021.0,Champaign County,6062.0,32692.0,141402.0,26537.0,29943.0,15019.0,19178.0,31585.0,14870.0,3030.0,982.0,172.0,86.0
222975,County,2020/03/10,39.0,OH,39021.0,Champaign County,5925.0,32829.0,139071.0,23533.0,27203.0,15435.0,16068.0,36579.0,15213.0,3453.0,1198.0,271.0,118.0
226205,County,2020/03/11,39.0,OH,39021.0,Champaign County,6097.0,32657.0,117096.0,15489.0,23115.0,12166.0,19470.0,24041.0,13897.0,6209.0,2174.0,382.0,153.0
227834,County,2020/03/12,39.0,OH,39021.0,Champaign County,6377.0,32377.0,108149.0,16294.0,20218.0,11926.0,14384.0,23248.0,12453.0,5166.0,3571.0,766.0,123.0
230993,County,2020/03/13,39.0,OH,39021.0,Champaign County,6043.0,32711.0,118572.0,15529.0,26330.0,15626.0,19975.0,24016.0,9227.0,3133.0,3973.0,583.0,180.0
234143,County,2020/03/14,39.0,OH,39021.0,Champaign County,7729.0,31025.0,107077.0,12381.0,22960.0,12996.0,17719.0,25261.0,9593.0,3511.0,2086.0,448.0,122.0
237379,County,2020/03/15,39.0,OH,39021.0,Champaign County,8804.0,29950.0,109225.0,16422.0,23225.0,11358.0,18205.0,27393.0,7938.0,2960.0,1195.0,389.0,140.0
242140,County,2020/03/16,39.0,OH,39021.0,Champaign County,7128.0,31626.0,136300.0,23335.0,28672.0,12725.0,18743.0,32010.0,14730.0,4037.0,1592.0,389.0,67.0
243756,County,2020/03/17,39.0,OH,39021.0,Champaign County,7709.0,31045.0,121091.0,19080.0,25814.0,10690.0,16518.0,30097.0,14035.0,2955.0,1387.0,415.0,100.0
246960,County,2020/03/18,39.0,OH,39021.0,Champaign County,8298.0,30456.0,121055.0,18968.0,26171.0,11000.0,15761.0,30739.0,13213.0,3797.0,1126.0,175.0,105.0
251693,County,2020/03/19,39.0,OH,39021.0,Champaign County,8856.0,29898.0,122319.0,17548.0,23765.0,10901.0,19426.0,32077.0,12396.0,4211.0,1674.0,259.0,62.0
254917,County,2020/03/20,39.0,OH,39021.0,Champaign County,8829.0,29925.0,133953.0,23596.0,28496.0,14303.0,20360.0,30037.0,12798.0,3180.0,936.0,216.0,31.0
256494,County,2020/03/21,39.0,OH,39021.0,Champaign County,9723.0,29031.0,108772.0,17916.0,25341.0,11931.0,16702.0,25328.0,7412.0,2750.0,1088.0,242.0,62.0
261297,County,2020/03/22,39.0,OH,39021.0,Champaign County,9216.0,29538.0,93354.0,18671.0,22229.0,8081.0,13343.0,20843.0,6946.0,1966.0,1057.0,195.0,23.0
264509,County,2020/03/23,39.0,OH,39021.0,Champaign County,8269.0,30485.0,109642.0,17865.0,24271.0,9398.0,16159.0,26480.0,10949.0,3442.0,848.0,162.0,68.0
266086,County,2020/03/24,39.0,OH,39021.0,Champaign County,9453.0,29301.0,105303.0,19941.0,24583.0,9810.0,14728.0,21587.0,10121.0,3072.0,1141.0,261.0,59.0
270887,County,2020/03/25,39.0,OH,39021.0,Champaign County,8933.0,29821.0,101417.0,18118.0,21288.0,10691.0,12751.0,23691.0,10497.0,3179.0,991.0,167.0,44.0
272513,County,2020/03/26,39.0,OH,39021.0,Champaign County,8506.0,30248.0,113276.0,23607.0,25299.0,11641.0,14081.0,23757.0,10635.0,3214.0,814.0,168.0,60.0
277276,County,2020/03/27,39.0,OH,39021.0,Champaign County,8765.0,29989.0,102897.0,19443.0,21062.0,11328.0,13348.0,24884.0,8780.0,2775.0,1095.0,152.0,30.0
278903,County,2020/03/28,39.0,OH,39021.0,Champaign County,9608.0,29146.0,95319.0,16480.0,20483.0,11735.0,13794.0,23277.0,6219.0,2273.0,855.0,118.0,85.0
282096,County,2020/03/29,39.0,OH,39021.0,Champaign County,10096.0,28658.0,89149.0,15162.0,21536.0,10086.0,12414.0,21360.0,5800.0,1293.0,1080.0,344.0,74.0
286888,County,2020/03/30,39.0,OH,39021.0,Champaign County,8587.0,30167.0,102210.0,14755.0,23913.0,9412.0,15257.0,25316.0,9059.0,3561.0,724.0,135.0,78.0
288486,County,2020/03/31,39.0,OH,39021.0,Champaign County,8904.0,29850.0,110829.0,23548.0,25631.0,9924.0,12829.0,24615.0,9501.0,3731.0,871.0,86.0,93.0
291721,County,2020/04/01,39.0,OH,39021.0,Champaign County,8850.0,29904.0,113879.0,23236.0,24924.0,10366.0,14961.0,26454.0,8662.0,3953.0,1001.0,229.0,93.0
294872,County,2020/04/02,39.0,OH,39021.0,Champaign County,8653.0,30101.0,111285.0,22097.0,24155.0,11394.0,14130.0,25312.0,9824.0,3284.0,882.0,126.0,81.0
299632,County,2020/04/03,39.0,OH,39021.0,Champaign County,8407.0,30347.0,116075.0,22642.0,23865.0,10325.0,17966.0,26162.0,10230.0,3817.0,825.0,164.0,79.0
301259,County,2020/04/04,39.0,OH,39021.0,Champaign County,9189.0,29565.0,97876.0,20610.0,20100.0,10411.0,14880.0,22001.0,6301.0,2104.0,1065.0,305.0,99.0
304440,County,2020/04/05,39.0,OH,39021.0,Champaign County,9859.0,28895.0,89811.0,16813.0,20516.0,9983.0,11998.0,21594.0,6004.0,2114.0,504.0,181.0,104.0
309214,County,2020/04/06,39.0,OH,39021.0,Champaign County,8399.0,30355.0,113789.0,22936.0,25987.0,11296.0,14445.0,24695.0,9703.0,3638.0,930.0,128.0,31.0
310841,County,2020/04/07,39.0,OH,39021.0,Champaign County,8747.0,30007.0,104668.0,20460.0,22159.0,7572.0,16277.0,25217.0,9388.0,2735.0,728.0,71.0,61.0
314036,County,2020/04/08,39.0,OH,39021.0,Champaign County,8258.0,30496.0,107046.0,20809.0,21029.0,11781.0,16742.0,24384.0,8886.0,2159.0,1144.0,76.0,36.0
318795,County,2020/04/09,39.0,OH,39021.0,Champaign County,8962.0,29792.0,107904.0,19403.0,23277.0,12598.0,14129.0,24516.0,10049.0,3049.0,728.0,134.0,21.0
321991,County,2020/04/10,39.0,OH,39021.0,Champaign County,8427.0,30327.0,120301.0,24558.0,25293.0,11894.0,15742.0,29169.0,10077.0,2787.0,635.0,91.0,55.0
323666,County,2020/04/11,39.0,OH,39021.0,Champaign County,8920.0,29834.0,112553.0,22823.0,24667.0,13617.0,16366.0,27074.0,5823.0,1655.0,295.0,142.0,91.0
326811,County,2020/04/12,39.0,OH,39021.0,Champaign County,10548.0,28206.0,77913.0,14066.0,17955.0,11167.0,12261.0,15808.0,4773.0,1152.0,521.0,173.0,37.0
331573,County,2020/04/13,39.0,OH,39021.0,Champaign County,8935.0,29819.0,105204.0,17571.0,24072.0,10682.0,14589.0,24212.0,11310.0,1983.0,699.0,63.0,23.0
334748,County,2020/04/14,39.0,OH,39021.0,Champaign County,9067.0,29687.0,102115.0,22120.0,18909.0,12148.0,14188.0,23013.0,8759.0,1730.0,963.0,166.0,119.0
336425,County,2020/04/15,39.0,OH,39021.0,Champaign County,8254.0,30500.0,93830.0,17078.0,20600.0,12117.0,11835.0,19326.0,9619.0,1961.0,1169.0,101.0,24.0
339579,County,2020/04/16,39.0,OH,39021.0,Champaign County,9264.0,29490.0,110677.0,24670.0,26484.0,12346.0,12357.0,20915.0,9527.0,3265.0,766.0,288.0,59.0
342879,County,2020/04/17,39.0,OH,39021.0,Champaign County,8559.0,30195.0,100211.0,17742.0,18018.0,11163.0,15196.0,26144.0,6278.0,4069.0,1450.0,39.0,112.0
347505,County,2020/04/18,39.0,OH,39021.0,Champaign County,9230.0,29524.0,111223.0,19847.0,28372.0,9891.0,11353.0,31707.0,7718.0,1558.0,675.0,42.0,60.0
349157,County,2020/04/19,39.0,OH,39021.0,Champaign County,9332.0,29422.0,83845.0,9663.0,22455.0,14247.0,12131.0,16758.0,6009.0,1959.0,496.0,127.0,0.0
352363,County,2020/04/20,39.0,OH,39021.0,Champaign County,8249.0,30505.0,109133.0,21782.0,30657.0,13049.0,10561.0,21487.0,6421.0,2855.0,2119.0,136.0,66.0
357123,County,2020/04/21,39.0,OH,39021.0,Champaign County,8450.0,30304.0,118207.0,24794.0,26313.0,13318.0,15305.0,24425.0,9913.0,3427.0,611.0,66.0,35.0
358800,County,2020/04/22,39.0,OH,39021.0,Champaign County,7794.0,30960.0,113679.0,23357.0,26133.0,11122.0,15098.0,26040.0,8440.0,2419.0,957.0,91.0,22.0
361857,County,2020/04/23,39.0,OH,39021.0,Champaign County,8011.0,30743.0,111452.0,18468.0,22950.0,9674.0,16795.0,28600.0,10837.0,3416.0,543.0,133.0,36.0
366745,County,2020/04/24,39.0,OH,39021.0,Champaign County,8037.0,30717.0,122699.0,24244.0,28897.0,13273.0,13645.0,28830.0,9878.0,3225.0,599.0,96.0,12.0
369901,County,2020/04/25,39.0,OH,39021.0,Champaign County,8306.0,30448.0,130416.0,27373.0,33422.0,13513.0,17459.0,27663.0,8382.0,2087.0,426.0,67.0,24.0
371493,County,2020/04/26,39.0,OH,39021.0,Champaign County,9496.0,29258.0,98090.0,17387.0,23790.0,9095.0,15301.0,23335.0,5955.0,2426.0,550.0,236.0,15.0
376327,County,2020/04/27,39.0,OH,39021.0,Champaign County,8017.0,30737.0,124413.0,25432.0,27042.0,12940.0,15964.0,29110.0,9551.0,3771.0,498.0,61.0,44.0
379449,County,2020/04/28,39.0,OH,39021.0,Champaign County,7778.0,30976.0,118831.0,24254.0,25817.0,11548.0,15184.0,27481.0,10394.0,3537.0,484.0,89.0,43.0
381124,County,2020/04/29,39.0,OH,39021.0,Champaign County,7943.0,30811.0,113406.0,20199.0,25441.0,12426.0,16422.0,24878.0,10621.0,2604.0,632.0,160.0,23.0
385870,County,2020/04/30,39.0,OH,39021.0,Champaign County,7938.0,30816.0,123123.0,24460.0,27697.0,11637.0,16286.0,29360.0,9968.0,2622.0,824.0,257.0,12.0
389107,County,2020/05/01,39.0,OH,39021.0,Champaign County,7394.0,31360.0,124606.0,24029.0,26540.0,11697.0,17769.0,29786.0,10025.0,3825.0,744.0,160.0,31.0
390679,County,2020/05/02,39.0,OH,39021.0,Champaign County,8215.0,30539.0,127223.0,28122.0,29256.0,15130.0,15888.0,27184.0,8022.0,2610.0,799.0,156.0,56.0
393892,County,2020/05/03,39.0,OH,39021.0,Champaign County,8829.0,29925.0,111672.0,25892.0,27149.0,11588.0,13480.0,24114.0,6920.0,1994.0,355.0,153.0,27.0
398646,County,2020/05/04,39.0,OH,39021.0,Champaign County,6979.0,31775.0,127594.0,23983.0,30574.0,11776.0,18042.0,27768.0,11441.0,3144.0,721.0,103.0,42.0
401822,County,2020/05/05,39.0,OH,39021.0,Champaign County,7456.0,31298.0,127513.0,28626.0,27749.0,12139.0,16432.0,27687.0,10609.0,3390.0,828.0,43.0,10.0
403452,County,2020/05/06,39.0,OH,39021.0,Champaign County,7728.0,31026.0,124183.0,24756.0,28867.0,10451.0,18225.0,26617.0,10800.0,3414.0,883.0,117.0,53.0
408172,County,2020/05/07,39.0,OH,39021.0,Champaign County,7313.0,31441.0,132384.0,28004.0,30719.0,15208.0,15253.0,27656.0,11086.0,3298.0,902.0,208.0,50.0
411434,County,2020/05/08,39.0,OH,39021.0,Champaign County,7606.0,31148.0,131016.0,26194.0,27796.0,13548.0,18338.0,29747.0,12030.0,2246.0,973.0,90.0,54.0
414581,County,2020/05/09,39.0,OH,39021.0,Champaign County,8140.0,30614.0,122687.0,25264.0,26229.0,14332.0,17561.0,29599.0,6942.0,2195.0,382.0,148.0,35.0
416243,County,2020/05/10,39.0,OH,39021.0,Champaign County,8327.0,30427.0,109003.0,19670.0,22425.0,12086.0,16361.0,27863.0,7320.0,2657.0,493.0,106.0,22.0
419486,County,2020/05/11,39.0,OH,39021.0,Champaign County,6863.0,31891.0,122605.0,25882.0,26002.0,10806.0,16698.0,30255.0,9371.0,2592.0,928.0,55.0,16.0
424246,County,2020/05/12,39.0,OH,39021.0,Champaign County,6617.0,32137.0,139347.0,30242.0,31175.0,13934.0,17699.0,30443.0,12009.0,2815.0,896.0,96.0,38.0
425728,County,2020/05/13,39.0,OH,39021.0,Champaign County,6078.0,32676.0,134752.0,30857.0,27447.0,13031.0,18090.0,30150.0,11008.0,3201.0,761.0,163.0,44.0
430586,County,2020/05/14,39.0,OH,39021.0,Champaign County,6628.0,32126.0,134617.0,31610.0,28045.0,12144.0,18068.0,30289.0,10551.0,2890.0,805.0,193.0,22.0
432215,County,2020/05/15,39.0,OH,39021.0,Champaign County,6430.0,32324.0,132274.0,25429.0,29356.0,12937.0,15881.0,31261.0,12467.0,3610.0,1103.0,147.0,83.0
436964,County,2020/05/16,39.0,OH,39021.0,Champaign County,6724.0,32030.0,133542.0,27363.0,31653.0,15877.0,17332.0,28590.0,8687.0,3145.0,485.0,393.0,17.0
438591,County,2020/05/17,39.0,OH,39021.0,Champaign County,6935.0,31819.0,128070.0,28708.0,25868.0,15830.0,19038.0,27504.0,8129.0,2361.0,516.0,101.0,15.0
443412,County,2020/05/18,39.0,OH,39021.0,Champaign County,5737.0,33017.0,133445.0,25578.0,25975.0,15135.0,17186.0,33748.0,11257.0,3441.0,899.0,202.0,24.0
444990,County,2020/05/19,39.0,OH,39021.0,Champaign County,6085.0,32669.0,127953.0,24605.0,24024.0,12053.0,18624.0,31646.0,11862.0,4306.0,728.0,92.0,13.0
449751,County,2020/05/20,39.0,OH,39021.0,Champaign County,5504.0,33250.0,130434.0,22660.0,29037.0,14974.0,16944.0,31079.0,10357.0,4116.0,1126.0,104.0,37.0
451377,County,2020/05/21,39.0,OH,39021.0,Champaign County,5381.0,33373.0,124989.0,21580.0,23042.0,12463.0,17595.0,32128.0,12712.0,4025.0,1043.0,365.0,36.0
454564,County,2020/05/22,39.0,OH,39021.0,Champaign County,5137.0,33617.0,145422.0,29747.0,28923.0,15145.0,19268.0,34566.0,12944.0,3069.0,1049.0,651.0,60.0
459348,County,2020/05/23,39.0,OH,39021.0,Champaign County,5418.0,33336.0,128966.0,26099.0,27866.0,15568.0,16069.0,26919.0,10863.0,3725.0,996.0,784.0,77.0
460928,County,2020/05/24,39.0,OH,39021.0,Champaign County,7185.0,31569.0,124506.0,25224.0,28292.0,12270.0,18727.0,28403.0,8446.0,1844.0,590.0,662.0,48.0
465805,County,2020/05/25,39.0,OH,39021.0,Champaign County,6921.0,31833.0,110261.0,23005.0,22304.0,11854.0,15393.0,25791.0,8222.0,2012.0,609.0,920.0,151.0
467334,County,2020/05/26,39.0,OH,39021.0,Champaign County,5956.0,32798.0,133990.0,27225.0,26433.0,14014.0,17014.0,33499.0,11440.0,2690.0,639.0,927.0,109.0
472153,County,2020/05/27,39.0,OH,39021.0,Champaign County,6238.0,32516.0,146129.0,32894.0,27357.0,15080.0,19631.0,35136.0,11283.0,3458.0,986.0,202.0,102.0
475302,County,2020/05/28,39.0,OH,39021.0,Champaign County,6060.0,32694.0,140527.0,27809.0,29918.0,14439.0,18044.0,33747.0,12131.0,3383.0,953.0,68.0,35.0
478491,County,2020/05/29,39.0,OH,39021.0,Champaign County,7312.0,31442.0,128539.0,25441.0,26557.0,13526.0,17240.0,31242.0,8912.0,4400.0,1147.0,34.0,40.0
481691,County,2020/05/30,39.0,OH,39021.0,Champaign County,7203.0,31551.0,135912.0,30927.0,27465.0,16147.0,18455.0,28636.0,9662.0,3394.0,1140.0,56.0,30.0
483247,County,2020/05/31,39.0,OH,39021.0,Champaign County,7202.0,31552.0,116628.0,22788.0,26507.0,13080.0,17273.0,25236.0,8559.0,2102.0,854.0,190.0,39.0
486513,County,2020/06/01,39.0,OH,39021.0,Champaign County,6121.0,32633.0,128024.0,27194.0,26348.0,12635.0,17015.0,28153.0,11723.0,4064.0,770.0,62.0,60.0
489705,County,2020/06/02,39.0,OH,39021.0,Champaign County,6364.0,32390.0,133455.0,26635.0,28567.0,12416.0,14689.0,32024.0,13518.0,4278.0,1085.0,227.0,16.0
494466,County,2020/06/03,39.0,OH,39021.0,Champaign County,5605.0,33149.0,139930.0,29199.0,29794.0,13651.0,15793.0,32815.0,13486.0,3816.0,1074.0,236.0,66.0
496085,County,2020/06/04,39.0,OH,39021.0,Champaign County,5747.0,33007.0,137868.0,26954.0,31336.0,14258.0,16356.0,31698.0,12458.0,3342.0,1241.0,171.0,54.0
500861,County,2020/06/05,39.0,OH,39021.0,Champaign County,6046.0,32708.0,140414.0,24862.0,29542.0,15257.0,19564.0,34744.0,10967.0,4159.0,1008.0,269.0,42.0
502435,County,2020/06/06,39.0,OH,39021.0,Champaign County,7537.0,31217.0,117185.0,19637.0,24831.0,14932.0,17902.0,26432.0,8513.0,3847.0,632.0,437.0,22.0
507212,County,2020/06/07,39.0,OH,39021.0,Champaign County,7710.0,31044.0,117090.0,19018.0,28633.0,13983.0,16614.0,27760.0,7272.0,2596.0,831.0,372.0,11.0
508850,County,2020/06/08,39.0,OH,39021.0,Champaign County,5981.0,32773.0,145040.0,29436.0,28886.0,13763.0,19569.0,36843.0,12257.0,3324.0,815.0,133.0,14.0
513628,County,2020/06/09,39.0,OH,39021.0,Champaign County,6442.0,32312.0,132365.0,25168.0,28129.0,15443.0,16812.0,31287.0,11710.0,2322.0,934.0,545.0,15.0
515258,County,2020/06/10,39.0,OH,39021.0,Champaign County,6271.0,32483.0,118761.0,20645.0,26283.0,12620.0,16655.0,29776.0,8409.0,2507.0,931.0,899.0,36.0
519990,County,2020/06/11,39.0,OH,39021.0,Champaign County,6171.0,32583.0,138666.0,31407.0,27252.0,11265.0,17459.0,32959.0,12222.0,4364.0,1250.0,467.0,21.0
521664,County,2020/06/12,39.0,OH,39021.0,Champaign County,6134.0,32620.0,142059.0,28884.0,29773.0,13457.0,19389.0,33260.0,12618.0,3386.0,1092.0,192.0,8.0
524840,County,2020/06/13,39.0,OH,39021.0,Champaign County,7014.0,31740.0,135215.0,23449.0,29389.0,14915.0,18962.0,32202.0,11999.0,3383.0,781.0,127.0,8.0
529604,County,2020/06/14,39.0,OH,39021.0,Champaign County,7420.0,31334.0,117711.0,22683.0,22913.0,14454.0,15773.0,26168.0,11452.0,3151.0,947.0,144.0,26.0
532794,County,2020/06/15,39.0,OH,39021.0,Champaign County,6818.0,31936.0,133199.0,27547.0,27447.0,14484.0,17777.0,31015.0,10636.0,3419.0,746.0,88.0,40.0
536014,County,2020/06/16,39.0,OH,39021.0,Champaign County,6542.0,32212.0,138631.0,27426.0,30773.0,12911.0,16687.0,34113.0,12295.0,3466.0,815.0,128.0,17.0
537616,County,2020/06/17,39.0,OH,39021.0,Champaign County,6541.0,32213.0,137972.0,27523.0,31150.0,16284.0,16505.0,29734.0,12461.0,3157.0,994.0,109.0,55.0
540812,County,2020/06/18,39.0,OH,39021.0,Champaign County,6185.0,32569.0,123596.0,24313.0,25785.0,11667.0,15985.0,30547.0,11165.0,2908.0,1041.0,149.0,36.0
544004,County,2020/06/19,39.0,OH,39021.0,Champaign County,5717.0,33037.0,131730.0,25421.0,24909.0,16134.0,16534.0,31438.0,11810.0,4176.0,1082.0,198.0,28.0
548764,County,2020/06/20,39.0,OH,39021.0,Champaign County,6824.0,31930.0,126785.0,23354.0,29460.0,14247.0,15098.0,30273.0,11148.0,2289.0,717.0,125.0,74.0
551952,County,2020/06/21,39.0,OH,39021.0,Champaign County,7172.0,31582.0,107843.0,19615.0,22316.0,10266.0,15863.0,26559.0,8967.0,3196.0,875.0,150.0,36.0
553588,County,2020/06/22,39.0,OH,39021.0,Champaign County,6735.0,32019.0,124928.0,23229.0,26699.0,11867.0,15542.0,30862.0,11964.0,3767.0,716.0,244.0,38.0
558348,County,2020/06/23,39.0,OH,39021.0,Champaign County,6083.0,32671.0,127985.0,24775.0,25295.0,13544.0,15221.0,32784.0,11708.0,3505.0,865.0,265.0,23.0
561540,County,2020/06/24,39.0,OH,39021.0,Champaign County,6592.0,32162.0,123324.0,23137.0,24069.0,13635.0,16254.0,30058.0,10870.0,3961.0,1036.0,263.0,41.0
564716,County,2020/06/25,39.0,OH,39021.0,Champaign County,6390.0,32364.0,132078.0,26354.0,26861.0,13062.0,15706.0,32134.0,12837.0,3598.0,1344.0,125.0,57.0
566422,County,2020/06/26,39.0,OH,39021.0,Champaign County,6139.0,32615.0,131343.0,23890.0,28528.0,13821.0,15989.0,32553.0,11526.0,3752.0,1096.0,109.0,79.0
569544,County,2020/06/27,39.0,OH,39021.0,Champaign County,7001.0,31753.0,129469.0,24349.0,25794.0,13341.0,19611.0,30623.0,11126.0,3502.0,886.0,228.0,9.0
572741,County,2020/06/28,39.0,OH,39021.0,Champaign County,6815.0,31939.0,122251.0,23827.0,24444.0,12708.0,16672.0,29954.0,9569.0,3657.0,1222.0,162.0,36.0
577519,County,2020/06/29,39.0,OH,39021.0,Champaign County,6434.0,32320.0,125943.0,25214.0,26760.0,10875.0,16063.0,29557.0,12218.0,3820.0,1118.0,234.0,84.0
580711,County,2020/06/30,39.0,OH,39021.0,Champaign County,6303.0,32451.0,126226.0,23446.0,26219.0,10901.0,15759.0,33761.0,10545.0,4147.0,1014.0,399.0,35.0
583905,County,2020/07/01,39.0,OH,39021.0,Champaign County,6222.0,32532.0,131396.0,25529.0,29670.0,13638.0,15682.0,30270.0,11547.0,3980.0,547.0,423.0,110.0
587099,County,2020/07/02,39.0,OH,39021.0,Champaign County,6877.0,31877.0,140188.0,27972.0,28510.0,13864.0,16670.0,34107.0,13625.0,3819.0,1427.0,133.0,61.0
588739,County,2020/07/03,39.0,OH,39021.0,Champaign County,8032.0,30722.0,130603.0,23755.0,28367.0,13743.0,15899.0,32370.0,11461.0,3731.0,1090.0,108.0,79.0
593481,County,2020/07/04,39.0,OH,39021.0,Champaign County,7849.0,30905.0,111734.0,20323.0,24269.0,11758.0,13602.0,27693.0,9805.0,3192.0,932.0,93.0,67.0
596693,County,2020/07/05,39.0,OH,39021.0,Champaign County,7570.0,31184.0,112987.0,18730.0,22886.0,12644.0,18393.0,26796.0,9260.0,2360.0,1314.0,521.0,83.0
597783,County,2020/07/06,39.0,OH,39021.0,Champaign County,7163.0,31591.0,115822.0,22105.0,24742.0,12145.0,15600.0,25995.0,9569.0,3833.0,1296.0,458.0,79.0
601446,County,2020/07/07,39.0,OH,39021.0,Champaign County,6712.0,32042.0,114897.0,21637.0,22578.0,14346.0,14983.0,28253.0,8407.0,3400.0,787.0,422.0,84.0
604688,County,2020/07/08,39.0,OH,39021.0,Champaign County,6720.0,32034.0,116297.0,21935.0,22057.0,12634.0,16718.0,26840.0,9969.0,4536.0,1114.0,425.0,69.0
609460,County,2020/07/09,39.0,OH,39021.0,Champaign County,6811.0,31943.0,116126.0,19464.0,23986.0,12518.0,16541.0,28204.0,9660.0,4182.0,1140.0,333.0,98.0
611083,County,2020/07/10,39.0,OH,39021.0,Champaign County,6402.0,32352.0,122663.0,19988.0,24173.0,12281.0,18280.0,31459.0,10243.0,4335.0,1420.0,396.0,88.0
614294,County,2020/07/11,39.0,OH,39021.0,Champaign County,6981.0,31773.0,124240.0,26595.0,25688.0,14197.0,15420.0,27494.0,9042.0,3627.0,1605.0,452.0,120.0
617465,County,2020/07/12,39.0,OH,39021.0,Champaign County,7612.0,31142.0,97106.0,17038.0,18008.0,11313.0,14613.0,23228.0,7713.0,3385.0,1090.0,645.0,73.0
620655,County,2020/07/13,39.0,OH,39021.0,Champaign County,7116.0,31638.0,122938.0,22972.0,23777.0,12211.0,16450.0,31881.0,9533.0,4459.0,1068.0,562.0,25.0
625419,County,2020/07/14,39.0,OH,39021.0,Champaign County,6991.0,31763.0,123981.0,25598.0,24130.0,13081.0,17127.0,29435.0,10754.0,2975.0,588.0,252.0,41.0
628592,County,2020/07/15,39.0,OH,39021.0,Champaign County,7104.0,31650.0,126956.0,26219.0,25043.0,13017.0,16207.0,32176.0,10955.0,2387.0,735.0,182.0,35.0
630218,County,2020/07/16,39.0,OH,39021.0,Champaign County,6951.0,31803.0,117231.0,18675.0,24261.0,12548.0,15801.0,30431.0,10465.0,3793.0,1112.0,119.0,26.0
633419,County,2020/07/17,39.0,OH,39021.0,Champaign County,6352.0,32402.0,128723.0,22115.0,24834.0,14780.0,16801.0,31756.0,11767.0,5261.0,1161.0,215.0,33.0
638205,County,2020/07/18,39.0,OH,39021.0,Champaign County,7448.0,31306.0,117493.0,19537.0,24054.0,12653.0,17447.0,26479.0,10705.0,4412.0,2025.0,171.0,10.0
639785,County,2020/07/19,39.0,OH,39021.0,Champaign County,7990.0,30764.0,104905.0,17151.0,19338.0,13013.0,17703.0,24203.0,7587.0,4101.0,1479.0,290.0,40.0
643019,County,2020/07/20,39.0,OH,39021.0,Champaign County,7317.0,31437.0,127755.0,23104.0,28584.0,11104.0,18289.0,31751.0,9848.0,4218.0,675.0,164.0,18.0
648259,County,2020/07/21,39.0,OH,39021.0,Champaign County,6603.0,32151.0,125111.0,22937.0,27849.0,12004.0,16430.0,29496.0,10501.0,4266.0,1339.0,250.0,39.0
650972,County,2020/07/22,39.0,OH,39021.0,Champaign County,6746.0,32008.0,114131.0,15596.0,24217.0,12116.0,15135.0,30498.0,10496.0,4710.0,1039.0,255.0,69.0
652514,County,2020/07/23,39.0,OH,39021.0,Champaign County,6829.0,31925.0,117277.0,19629.0,26624.0,11149.0,14282.0,28410.0,11153.0,4403.0,1276.0,258.0,93.0
655637,County,2020/07/24,39.0,OH,39021.0,Champaign County,6590.0,32164.0,127629.0,22361.0,23117.0,13174.0,17727.0,34069.0,11145.0,4533.0,1212.0,260.0,31.0
658983,County,2020/07/25,39.0,OH,39021.0,Champaign County,7313.0,31441.0,120068.0,22133.0,25720.0,11503.0,16088.0,29422.0,9544.0,4371.0,1059.0,184.0,44.0
662183,County,2020/07/26,39.0,OH,39021.0,Champaign County,7744.0,31010.0,115731.0,20094.0,21418.0,13560.0,16215.0,28540.0,9754.0,4549.0,1296.0,241.0,64.0
666962,County,2020/07/27,39.0,OH,39021.0,Champaign County,7287.0,31467.0,129270.0,25038.0,26727.0,10785.0,16851.0,32533.0,12237.0,4092.0,658.0,247.0,102.0
668640,County,2020/07/28,39.0,OH,39021.0,Champaign County,6482.0,32272.0,133572.0,24180.0,26509.0,11162.0,18250.0,35030.0,12811.0,4013.0,1204.0,337.0,76.0
673428,County,2020/07/29,39.0,OH,39021.0,Champaign County,6832.0,31922.0,130135.0,19835.0,25547.0,14316.0,17060.0,35752.0,11916.0,4244.0,1065.0,312.0,88.0
674959,County,2020/07/30,39.0,OH,39021.0,Champaign County,6576.0,32178.0,126885.0,20899.0,25396.0,13387.0,18003.0,33199.0,10469.0,4034.0,963.0,467.0,68.0
679736,County,2020/07/31,39.0,OH,39021.0,Champaign County,6751.0,32003.0,133275.0,26189.0,26045.0,13548.0,17559.0,31573.0,11639.0,4988.0,1262.0,401.0,71.0
681317,County,2020/08/01,39.0,OH,39021.0,Champaign County,7579.0,31175.0,110000.0,17844.0,23357.0,9873.0,14639.0,29462.0,9062.0,3978.0,1395.0,287.0,103.0
684540,County,2020/08/02,39.0,OH,39021.0,Champaign County,8373.0,30381.0,103248.0,14568.0,22934.0,9571.0,13604.0,28102.0,8264.0,4535.0,1386.0,198.0,86.0
687737,County,2020/08/03,39.0,OH,39021.0,Champaign County,7150.0,31604.0,121800.0,23287.0,26547.0,9397.0,15550.0,30037.0,12277.0,3260.0,1248.0,171.0,26.0
690928,County,2020/08/04,39.0,OH,39021.0,Champaign County,6636.0,32118.0,136367.0,26799.0,31426.0,13047.0,15092.0,32366.0,13348.0,3271.0,885.0,101.0,32.0
695688,County,2020/08/05,39.0,OH,39021.0,Champaign County,6756.0,31998.0,131582.0,21476.0,28704.0,12680.0,18693.0,32043.0,12748.0,3954.0,1167.0,92.0,25.0
698883,County,2020/08/06,39.0,OH,39021.0,Champaign County,6626.0,32128.0,138143.0,27475.0,29253.0,13288.0,17662.0,33431.0,12494.0,3343.0,1106.0,58.0,33.0
702079,County,2020/08/07,39.0,OH,39021.0,Champaign County,6554.0,32200.0,140136.0,26758.0,30362.0,12223.0,18764.0,35040.0,12881.0,2758.0,1234.0,82.0,34.0
705270,County,2020/08/08,39.0,OH,39021.0,Champaign County,7134.0,31620.0,125967.0,24876.0,22338.0,13574.0,19108.0,29937.0,10775.0,4328.0,856.0,136.0,39.0
706898,County,2020/08/09,39.0,OH,39021.0,Champaign County,7689.0,31065.0,119717.0,20595.0,23491.0,12060.0,16935.0,32219.0,10527.0,2990.0,685.0,154.0,61.0
710119,County,2020/08/10,39.0,OH,39021.0,Champaign County,6764.0,31990.0,129236.0,21003.0,27999.0,12569.0,17686.0,33454.0,12472.0,2957.0,966.0,86.0,44.0
713336,County,2020/08/11,39.0,OH,39021.0,Champaign County,7301.0,31453.0,134365.0,23838.0,26654.0,12912.0,17092.0,37055.0,12798.0,3153.0,708.0,145.0,10.0
716482,County,2020/08/12,39.0,OH,39021.0,Champaign County,6776.0,31978.0,122255.0,21575.0,24039.0,10515.0,15939.0,34053.0,11910.0,2900.0,958.0,188.0,178.0
719675,County,2020/08/13,39.0,OH,39021.0,Champaign County,6974.0,31780.0,126519.0,23756.0,24850.0,10211.0,18738.0,32126.0,11778.0,3616.0,1034.0,292.0,118.0
722868,County,2020/08/14,39.0,OH,39021.0,Champaign County,5871.0,32883.0,134753.0,24192.0,26931.0,11541.0,18159.0,35582.0,12466.0,4267.0,1056.0,351.0,208.0
726099,County,2020/08/15,39.0,OH,39021.0,Champaign County,6563.0,32191.0,117247.0,19975.0,22234.0,10586.0,16540.0,29443.0,12012.0,4307.0,1509.0,474.0,167.0
729258,County,2020/08/16,39.0,OH,39021.0,Champaign County,7539.0,31215.0,117465.0,17789.0,23814.0,10601.0,16448.0,31263.0,10878.0,4592.0,1352.0,492.0,236.0
732451,County,2020/08/17,39.0,OH,39021.0,Champaign County,7459.0,31295.0,127298.0,20855.0,27854.0,11781.0,15914.0,33681.0,11372.0,3835.0,1095.0,615.0,296.0
737210,County,2020/08/18,39.0,OH,39021.0,Champaign County,7224.0,31530.0,117561.0,19305.0,21623.0,9794.0,16029.0,30792.0,13736.0,4091.0,1367.0,561.0,263.0
740405,County,2020/08/19,39.0,OH,39021.0,Champaign County,6783.0,31971.0,122994.0,21559.0,24043.0,12571.0,15744.0,29930.0,13283.0,3775.0,1205.0,650.0,234.0
742034,County,2020/08/20,39.0,OH,39021.0,Champaign County,6762.0,31992.0,132213.0,22505.0,23873.0,14125.0,17857.0,35260.0,13269.0,3670.0,1051.0,414.0,189.0
745233,County,2020/08/21,39.0,OH,39021.0,Champaign County,6114.0,32640.0,132013.0,22363.0,25196.0,12670.0,19049.0,33749.0,13017.0,3933.0,1343.0,476.0,217.0
748438,County,2020/08/22,39.0,OH,39021.0,Champaign County,6474.0,32280.0,130516.0,25332.0,24384.0,12701.0,17578.0,31176.0,13151.0,4029.0,1215.0,709.0,241.0
753183,County,2020/08/23,39.0,OH,39021.0,Champaign County,7964.0,30790.0,104687.0,18257.0,20814.0,10060.0,14981.0,26870.0,9102.0,2833.0,1024.0,558.0,188.0
756375,County,2020/08/24,39.0,OH,39021.0,Champaign County,7040.0,31714.0,114333.0,19820.0,22821.0,10724.0,16128.0,30106.0,9605.0,3546.0,927.0,513.0,143.0
758004,County,2020/08/25,39.0,OH,39021.0,Champaign County,7014.0,31740.0,125549.0,22646.0,25793.0,13405.0,14148.0,32339.0,12190.0,3598.0,943.0,385.0,102.0
761197,County,2020/08/26,39.0,OH,39021.0,Champaign County,6775.0,31979.0,114117.0,19582.0,23373.0,10620.0,15718.0,28458.0,10689.0,3802.0,1035.0,666.0,174.0
764354,County,2020/08/27,39.0,OH,39021.0,Champaign County,7044.0,31710.0,116515.0,20337.0,24737.0,9842.0,16448.0,29341.0,10768.0,3164.0,1167.0,623.0,88.0
769137,County,2020/08/28,39.0,OH,39021.0,Champaign County,6799.0,31955.0,121033.0,19593.0,25130.0,12335.0,15440.0,31455.0,11648.0,3672.0,964.0,767.0,29.0
772338,County,2020/08/29,39.0,OH,39021.0,Champaign County,7530.0,31224.0,113833.0,16766.0,25636.0,10372.0,15488.0,27956.0,12512.0,3414.0,871.0,703.0,115.0
775540,County,2020/08/30,39.0,OH,39021.0,Champaign County,8371.0,30383.0,104466.0,18976.0,20160.0,9743.0,14635.0,25472.0,10217.0,3290.0,1087.0,694.0,192.0
778739,County,2020/08/31,39.0,OH,39021.0,Champaign County,7422.0,31332.0,112968.0,19915.0,25062.0,10364.0,12557.0,27331.0,11996.0,3702.0,1044.0,897.0,100.0
781928,County,2020/09/01,39.0,OH,39021.0,Champaign County,7489.0,31265.0,121272.0,22453.0,24977.0,9862.0,15423.0,30864.0,11623.0,4433.0,922.0,606.0,109.0
784378,County,2020/09/02,39.0,OH,39021.0,Champaign County,7350.0,31404.0,123618.0,21337.0,25929.0,13240.0,15223.0,29386.0,13049.0,4006.0,929.0,445.0,74.0
786684,County,2020/09/03,39.0,OH,39021.0,Champaign County,6809.0,31945.0,130495.0,22249.0,29010.0,12951.0,17378.0,31271.0,11622.0,4216.0,1163.0,520.0,115.0
791517,County,2020/09/04,39.0,OH,39021.0,Champaign County,6969.0,31785.0,124189.0,21899.0,24586.0,12556.0,15919.0,30245.0,12655.0,4092.0,1482.0,695.0,60.0
794711,County,2020/09/05,39.0,OH,39021.0,Champaign County,7352.0,31402.0,130909.0,24339.0,26556.0,13565.0,18891.0,28964.0,12771.0,4527.0,803.0,416.0,77.0
796309,County,2020/09/06,39.0,OH,39021.0,Champaign County,8755.0,29999.0,104458.0,20183.0,20550.0,11656.0,15883.0,22312.0,9308.0,3050.0,976.0,450.0,90.0
799523,County,2020/09/07,39.0,OH,39021.0,Champaign County,8985.0,29769.0,95931.0,19080.0,17696.0,10634.0,12033.0,21626.0,8166.0,4144.0,1758.0,692.0,102.0
804285,County,2020/09/08,39.0,OH,39021.0,Champaign County,7641.0,31113.0,126069.0,21322.0,26432.0,13397.0,16795.0,30576.0,12138.0,3931.0,903.0,481.0,94.0
805914,County,2020/09/09,39.0,OH,39021.0,Champaign County,7625.0,31129.0,131472.0,23701.0,28133.0,12523.0,17297.0,32660.0,11876.0,3440.0,1165.0,589.0,88.0
810682,County,2020/09/10,39.0,OH,39021.0,Champaign County,7310.0,31444.0,120650.0,21659.0,26302.0,11411.0,15097.0,29803.0,11010.0,3426.0,1247.0,600.0,95.0
813866,County,2020/09/11,39.0,OH,39021.0,Champaign County,6964.0,31790.0,128516.0,19596.0,24402.0,13494.0,19282.0,33451.0,12959.0,3644.0,1089.0,500.0,99.0
817061,County,2020/09/12,39.0,OH,39021.0,Champaign County,8035.0,30719.0,122799.0,20386.0,26867.0,12488.0,17988.0,27831.0,11983.0,3605.0,1156.0,457.0,38.0
818668,County,2020/09/13,39.0,OH,39021.0,Champaign County,8712.0,30042.0,95521.0,10097.0,19378.0,11822.0,11476.0,26789.0,10516.0,3435.0,1085.0,772.0,151.0
823450,County,2020/09/14,39.0,OH,39021.0,Champaign County,7665.0,31089.0,122969.0,19453.0,25868.0,13036.0,15864.0,31494.0,11907.0,3543.0,1361.0,358.0,85.0
825078,County,2020/09/15,39.0,OH,39021.0,Champaign County,7123.0,31631.0,128853.0,22325.0,27224.0,13041.0,17324.0,32059.0,11934.0,3456.0,884.0,525.0,81.0
829836,County,2020/09/16,39.0,OH,39021.0,Champaign County,7097.0,31657.0,124215.0,17192.0,26808.0,11478.0,17207.0,33823.0,12569.0,3585.0,985.0,424.0,144.0
831464,County,2020/09/17,39.0,OH,39021.0,Champaign County,7155.0,31599.0,129775.0,22206.0,28505.0,13196.0,14522.0,32957.0,12515.0,4229.0,994.0,562.0,89.0
836225,County,2020/09/18,39.0,OH,39021.0,Champaign County,6955.0,31799.0,136747.0,22369.0,28176.0,12509.0,18967.0,35087.0,14370.0,3735.0,1120.0,356.0,58.0
837854,County,2020/09/19,39.0,OH,39021.0,Champaign County,7636.0,31118.0,131933.0,22622.0,28753.0,12272.0,18357.0,33643.0,11693.0,2932.0,1158.0,420.0,83.0
841046,County,2020/09/20,39.0,OH,39021.0,Champaign County,8293.0,30461.0,109241.0,19799.0,25465.0,10285.0,14982.0,25267.0,9770.0,2530.0,748.0,333.0,62.0
845833,County,2020/09/21,39.0,OH,39021.0,Champaign County,7872.0,30882.0,114192.0,20163.0,21816.0,12140.0,16720.0,28326.0,11169.0,3017.0,570.0,206.0,65.0
849001,County,2020/09/22,39.0,OH,39021.0,Champaign County,7217.0,31537.0,119733.0,22034.0,21920.0,12252.0,14366.0,31584.0,13148.0,3406.0,919.0,76.0,28.0
850629,County,2020/09/23,39.0,OH,39021.0,Champaign County,6453.0,32301.0,123671.0,19934.0,25581.0,11735.0,16417.0,31867.0,14163.0,2962.0,919.0,93.0,0.0
855395,County,2020/09/24,39.0,OH,39021.0,Champaign County,7257.0,31497.0,127573.0,23095.0,25539.0,15691.0,15286.0,29949.0,13974.0,2925.0,902.0,212.0,0.0
858582,County,2020/09/25,39.0,OH,39021.0,Champaign County,6766.0,31988.0,135619.0,22926.0,26572.0,14867.0,17579.0,36168.0,12853.0,3723.0,812.0,84.0,35.0
861777,County,2020/09/26,39.0,OH,39021.0,Champaign County,7446.0,31308.0,128062.0,20829.0,23914.0,13333.0,19315.0,34082.0,11003.0,4140.0,1326.0,81.0,39.0
863382,County,2020/09/27,39.0,OH,39021.0,Champaign County,8086.0,30668.0,114688.0,18355.0,22469.0,12853.0,17711.0,28378.0,11611.0,2467.0,720.0,84.0,40.0
868165,County,2020/09/28,39.0,OH,39021.0,Champaign County,6983.0,31771.0,122044.0,21449.0,26417.0,11808.0,15640.0,31696.0,11580.0,2635.0,662.0,148.0,9.0
869793,County,2020/09/29,39.0,OH,39021.0,Champaign County,6716.0,32038.0,124664.0,20008.0,26856.0,12064.0,17273.0,30989.0,13139.0,3359.0,644.0,311.0,21.0
872986,County,2020/09/30,39.0,OH,39021.0,Champaign County,7067.0,31687.0,121309.0,16890.0,22110.0,16827.0,15520.0,32408.0,13041.0,3092.0,1050.0,337.0,34.0
877726,County,2020/10/01,39.0,OH,39021.0,Champaign County,6259.0,32495.0,123366.0,19606.0,27275.0,13682.0,16179.0,30325.0,11577.0,3526.0,729.0,425.0,42.0
880941,County,2020/10/02,39.0,OH,39021.0,Champaign County,7100.0,31654.0,127959.0,21137.0,26847.0,13570.0,16717.0,31749.0,13467.0,3186.0,979.0,282.0,25.0
884136,County,2020/10/03,39.0,OH,39021.0,Champaign County,7973.0,30781.0,125508.0,23785.0,26358.0,12003.0,19059.0,28108.0,11581.0,3531.0,767.0,273.0,43.0
886728,County,2020/10/04,39.0,OH,39021.0,Champaign County,8233.0,30521.0,106635.0,18160.0,23095.0,9786.0,14836.0,26548.0,9351.0,3543.0,1091.0,202.0,23.0
889987,County,2020/10/05,39.0,OH,39021.0,Champaign County,8286.0,30468.0,116138.0,17671.0,26567.0,12376.0,13861.0,28712.0,12249.0,3458.0,903.0,317.0,24.0
893135,County,2020/10/06,39.0,OH,39021.0,Champaign County,7180.0,31574.0,127035.0,20213.0,27882.0,12839.0,17431.0,31723.0,11814.0,3860.0,904.0,338.0,31.0
896340,County,2020/10/07,39.0,OH,39021.0,Champaign County,6771.0,31983.0,130176.0,21449.0,26031.0,12398.0,16505.0,33684.0,14336.0,4443.0,892.0,398.0,40.0
899513,County,2020/10/08,39.0,OH,39021.0,Champaign County,6733.0,32021.0,118584.0,18941.0,24588.0,10359.0,15338.0,29167.0,13841.0,4876.0,1018.0,415.0,41.0
902718,County,2020/10/09,39.0,OH,39021.0,Champaign County,7299.0,31455.0,130567.0,22702.0,25774.0,12086.0,18294.0,31152.0,14047.0,5181.0,1085.0,220.0,26.0
906191,County,2020/10/10,39.0,OH,39021.0,Champaign County,7574.0,31180.0,123810.0,19893.0,25063.0,13201.0,20224.0,29437.0,10315.0,4505.0,875.0,274.0,23.0
908721,County,2020/10/11,39.0,OH,39021.0,Champaign County,8559.0,30195.0,102877.0,16512.0,23253.0,9859.0,14911.0,25987.0,7548.0,3547.0,901.0,344.0,15.0
911691,County,2020/10/12,39.0,OH,39021.0,Champaign County,7609.0,31145.0,117404.0,20990.0,24023.0,11713.0,13359.0,30586.0,12083.0,3429.0,972.0,236.0,13.0
914591,County,2020/10/13,39.0,OH,39021.0,Champaign County,6939.0,31815.0,121111.0,23754.0,26099.0,11322.0,14695.0,27449.0,12184.0,4098.0,1064.0,423.0,23.0
918176,County,2020/10/14,39.0,OH,39021.0,Champaign County,6913.0,31841.0,127345.0,20933.0,27260.0,13791.0,15714.0,32108.0,12086.0,3860.0,1227.0,340.0,26.0
921293,County,2020/10/15,39.0,OH,39021.0,Champaign County,7044.0,31710.0,106726.0,16948.0,21491.0,10762.0,12875.0,27304.0,12139.0,3628.0,1081.0,455.0,43.0
924523,County,2020/10/16,39.0,OH,39021.0,Champaign County,6592.0,32162.0,131443.0,23700.0,25998.0,13600.0,17997.0,31558.0,12439.0,4497.0,1254.0,368.0,32.0
927751,County,2020/10/17,39.0,OH,39021.0,Champaign County,7498.0,31256.0,122410.0,24055.0,24702.0,12454.0,14312.0,27862.0,12794.0,4753.0,1007.0,436.0,35.0
930539,County,2020/10/18,39.0,OH,39021.0,Champaign County,8423.0,30331.0,94245.0,14544.0,18900.0,10311.0,13028.0,25264.0,7062.0,3817.0,905.0,379.0,35.0
933564,County,2020/10/19,39.0,OH,39021.0,Champaign County,7283.0,31471.0,111508.0,17177.0,23621.0,11944.0,14161.0,29022.0,11127.0,3065.0,1077.0,269.0,45.0
937269,County,2020/10/20,39.0,OH,39021.0,Champaign County,7439.0,31315.0,114996.0,15730.0,23881.0,10189.0,16185.0,30735.0,12688.0,4065.0,1259.0,245.0,19.0
940501,County,2020/10/21,39.0,OH,39021.0,Champaign County,7627.0,31127.0,113792.0,17664.0,23241.0,10017.0,14259.0,30177.0,13086.0,3855.0,1255.0,190.0,48.0
943110,County,2020/10/22,39.0,OH,39021.0,Champaign County,7229.0,31525.0,120072.0,21920.0,23844.0,10634.0,13910.0,30453.0,12336.0,5336.0,1410.0,189.0,40.0
946505,County,2020/10/23,39.0,OH,39021.0,Champaign County,6633.0,32121.0,131562.0,24908.0,26350.0,11179.0,17791.0,32426.0,11872.0,5395.0,1359.0,244.0,38.0
949779,County,2020/10/24,39.0,OH,39021.0,Champaign County,7412.0,31342.0,121061.0,22547.0,22382.0,11940.0,16283.0,30938.0,10343.0,5260.0,1262.0,75.0,31.0
