,Level,Date,State FIPS,State Postal Code,County FIPS,County Name,Population Staying at Home,Population Not Staying at Home,Number of Trips,Number of Trips <1,Number of Trips 1-3,Number of Trips 3-5,Number of Trips 5-10,Number of Trips 10-25,Number of Trips 25-50,Number of Trips 50-100,Number of Trips 100-250,Number of Trips 250-500,Number of Trips >=500
849,County,2020/01/01,19.0,IA,19121.0,Madison County,3939.0,12310.0,42969.0,10948.0,9384.0,3718.0,5598.0,6457.0,5745.0,548.0,474.0,97.0,0.0
6231,County,2020/01/02,19.0,IA,19121.0,Madison County,2934.0,13315.0,57417.0,13414.0,12165.0,3713.0,8291.0,9112.0,9274.0,1083.0,292.0,73.0,0.0
7770,County,2020/01/03,19.0,IA,19121.0,Madison County,2517.0,13732.0,53553.0,11338.0,13063.0,4356.0,5711.0,9196.0,8689.0,896.0,254.0,32.0,18.0
12285,County,2020/01/04,19.0,IA,19121.0,Madison County,2909.0,13340.0,54007.0,13505.0,10724.0,3876.0,8505.0,9704.0,6512.0,646.0,407.0,19.0,109.0
13625,County,2020/01/05,19.0,IA,19121.0,Madison County,3648.0,12601.0,43253.0,9106.0,8761.0,3043.0,8218.0,7447.0,4914.0,618.0,972.0,87.0,87.0
16329,County,2020/01/06,19.0,IA,19121.0,Madison County,2757.0,13492.0,55714.0,12398.0,10183.0,4189.0,7909.0,10422.0,9621.0,634.0,338.0,0.0,20.0
19583,County,2020/01/07,19.0,IA,19121.0,Madison County,2659.0,13590.0,56624.0,14190.0,12327.0,3515.0,5883.0,9796.0,9252.0,1085.0,505.0,33.0,38.0
24431,County,2020/01/08,19.0,IA,19121.0,Madison County,2476.0,13773.0,60626.0,13687.0,13813.0,4478.0,6127.0,11287.0,10018.0,744.0,386.0,77.0,9.0
27562,County,2020/01/09,19.0,IA,19121.0,Madison County,2679.0,13570.0,58007.0,12779.0,11649.0,4423.0,8007.0,9405.0,9779.0,1400.0,441.0,62.0,62.0
29155,County,2020/01/10,19.0,IA,19121.0,Madison County,2543.0,13706.0,54784.0,14154.0,11345.0,4020.0,6616.0,7298.0,9538.0,1130.0,527.0,148.0,8.0
32397,County,2020/01/11,19.0,IA,19121.0,Madison County,3446.0,12803.0,52901.0,13975.0,10809.0,3373.0,7105.0,9499.0,6751.0,748.0,504.0,94.0,43.0
35553,County,2020/01/12,19.0,IA,19121.0,Madison County,3533.0,12716.0,45511.0,9488.0,11010.0,2474.0,7574.0,7939.0,5787.0,619.0,519.0,91.0,10.0
38796,County,2020/01/13,19.0,IA,19121.0,Madison County,2842.0,13407.0,52109.0,10307.0,10653.0,4715.0,7038.0,9793.0,8325.0,825.0,383.0,61.0,9.0
43529,County,2020/01/14,19.0,IA,19121.0,Madison County,2363.0,13886.0,54547.0,10857.0,11623.0,4580.0,6701.0,10101.0,9222.0,846.0,558.0,43.0,16.0
45110,County,2020/01/15,19.0,IA,19121.0,Madison County,2803.0,13446.0,56337.0,13175.0,11775.0,4366.0,7246.0,9336.0,9183.0,821.0,326.0,92.0,17.0
49891,County,2020/01/16,19.0,IA,19121.0,Madison County,2604.0,13645.0,60382.0,12290.0,12399.0,4860.0,8262.0,10700.0,10276.0,845.0,612.0,104.0,34.0
51519,County,2020/01/17,19.0,IA,19121.0,Madison County,3588.0,12661.0,46758.0,11759.0,11644.0,3013.0,7508.0,6111.0,5850.0,348.0,407.0,88.0,30.0
54751,County,2020/01/18,19.0,IA,19121.0,Madison County,3710.0,12539.0,50563.0,11760.0,12487.0,4058.0,7031.0,7132.0,7126.0,395.0,497.0,20.0,57.0
57898,County,2020/01/19,19.0,IA,19121.0,Madison County,3690.0,12559.0,46498.0,11597.0,11812.0,3004.0,4676.0,8385.0,5124.0,1327.0,453.0,98.0,22.0
62660,County,2020/01/20,19.0,IA,19121.0,Madison County,2835.0,13414.0,54751.0,14046.0,11540.0,3928.0,6526.0,9068.0,8182.0,977.0,336.0,94.0,54.0
64288,County,2020/01/21,19.0,IA,19121.0,Madison County,2442.0,13807.0,59198.0,14518.0,13434.0,3770.0,6819.0,8859.0,10198.0,887.0,609.0,71.0,33.0
67490,County,2020/01/22,19.0,IA,19121.0,Madison County,2850.0,13399.0,51800.0,11215.0,11997.0,3488.0,5494.0,8826.0,9029.0,1069.0,617.0,47.0,18.0
72281,County,2020/01/23,19.0,IA,19121.0,Madison County,2657.0,13592.0,54939.0,13272.0,11853.0,3373.0,5410.0,10448.0,9449.0,534.0,492.0,58.0,50.0
75437,County,2020/01/24,19.0,IA,19121.0,Madison County,2920.0,13329.0,56178.0,11486.0,13404.0,4260.0,6193.0,8942.0,10312.0,964.0,469.0,77.0,71.0
77063,County,2020/01/25,19.0,IA,19121.0,Madison County,2966.0,13283.0,50929.0,9661.0,10136.0,3866.0,7688.0,9419.0,8808.0,574.0,632.0,68.0,77.0
80699,County,2020/01/26,19.0,IA,19121.0,Madison County,3731.0,12518.0,49466.0,13216.0,11078.0,3430.0,6322.0,7260.0,6924.0,597.0,444.0,96.0,99.0
84889,County,2020/01/27,19.0,IA,19121.0,Madison County,2426.0,13823.0,56071.0,11030.0,14026.0,3651.0,6457.0,10248.0,9403.0,733.0,380.0,91.0,52.0
88792,County,2020/01/28,19.0,IA,19121.0,Madison County,2650.0,13599.0,55467.0,12869.0,10318.0,4089.0,6966.0,10322.0,9702.0,852.0,295.0,45.0,9.0
89864,County,2020/01/29,19.0,IA,19121.0,Madison County,2757.0,13492.0,52920.0,11709.0,9909.0,4441.0,6240.0,8548.0,10982.0,600.0,378.0,61.0,52.0
94647,County,2020/01/30,19.0,IA,19121.0,Madison County,2706.0,13543.0,55243.0,13320.0,12573.0,3445.0,6223.0,8867.0,9238.0,587.0,872.0,59.0,59.0
96223,County,2020/01/31,19.0,IA,19121.0,Madison County,2579.0,13670.0,58696.0,13112.0,12689.0,3247.0,7701.0,10742.0,9717.0,705.0,653.0,88.0,42.0
99472,County,2020/02/01,19.0,IA,19121.0,Madison County,2866.0,13383.0,55757.0,11304.0,13723.0,5108.0,6871.0,10123.0,7394.0,565.0,493.0,123.0,53.0
104183,County,2020/02/02,19.0,IA,19121.0,Madison County,3386.0,12863.0,49081.0,12459.0,11116.0,4557.0,5533.0,7867.0,5924.0,481.0,909.0,187.0,48.0
107435,County,2020/02/03,19.0,IA,19121.0,Madison County,2424.0,13825.0,55749.0,12595.0,13508.0,4206.0,6450.0,8401.0,9278.0,719.0,476.0,93.0,23.0
110570,County,2020/02/04,19.0,IA,19121.0,Madison County,2525.0,13724.0,57159.0,14245.0,12015.0,3223.0,7716.0,8907.0,9480.0,696.0,682.0,164.0,31.0
112198,County,2020/02/05,19.0,IA,19121.0,Madison County,2380.0,13869.0,62069.0,14934.0,12040.0,4377.0,8635.0,10413.0,9464.0,1207.0,785.0,151.0,63.0
116981,County,2020/02/06,19.0,IA,19121.0,Madison County,2365.0,13884.0,64383.0,14639.0,13818.0,5475.0,8720.0,10258.0,9742.0,997.0,531.0,149.0,54.0
120235,County,2020/02/07,19.0,IA,19121.0,Madison County,2325.0,13924.0,60994.0,14216.0,12485.0,4300.0,7661.0,10794.0,9894.0,952.0,576.0,116.0,0.0
123395,County,2020/02/08,19.0,IA,19121.0,Madison County,2531.0,13718.0,52911.0,13135.0,9155.0,3699.0,6712.0,10084.0,8347.0,1089.0,567.0,93.0,30.0
127553,County,2020/02/09,19.0,IA,19121.0,Madison County,3542.0,12707.0,46227.0,12353.0,7908.0,3460.0,6987.0,7676.0,6403.0,635.0,575.0,182.0,48.0
129158,County,2020/02/10,19.0,IA,19121.0,Madison County,2360.0,13889.0,67429.0,17009.0,12243.0,4876.0,8540.0,11265.0,11815.0,702.0,613.0,358.0,8.0
131804,County,2020/02/11,19.0,IA,19121.0,Madison County,2333.0,13916.0,66466.0,14319.0,15453.0,5535.0,8009.0,10741.0,10652.0,970.0,489.0,219.0,79.0
136093,County,2020/02/12,19.0,IA,19121.0,Madison County,2369.0,13880.0,63343.0,16410.0,11573.0,5196.0,7982.0,9949.0,10292.0,751.0,788.0,215.0,187.0
139362,County,2020/02/13,19.0,IA,19121.0,Madison County,2349.0,13900.0,62530.0,13667.0,15728.0,4742.0,6758.0,10071.0,9744.0,542.0,902.0,259.0,117.0
142518,County,2020/02/14,19.0,IA,19121.0,Madison County,2165.0,14084.0,65747.0,14037.0,12962.0,5336.0,7770.0,11783.0,11317.0,1342.0,970.0,111.0,119.0
144142,County,2020/02/15,19.0,IA,19121.0,Madison County,2836.0,13413.0,59601.0,11988.0,14255.0,4892.0,8498.0,9466.0,8391.0,1106.0,668.0,244.0,93.0
148926,County,2020/02/16,19.0,IA,19121.0,Madison County,3326.0,12923.0,50819.0,9889.0,11913.0,4660.0,8409.0,7823.0,6348.0,630.0,795.0,205.0,147.0
150554,County,2020/02/17,19.0,IA,19121.0,Madison County,3063.0,13186.0,49366.0,9915.0,10132.0,3613.0,6168.0,9106.0,8930.0,530.0,667.0,262.0,43.0
153719,County,2020/02/18,19.0,IA,19121.0,Madison County,2349.0,13900.0,63802.0,13471.0,14600.0,4494.0,8074.0,10671.0,11099.0,445.0,644.0,188.0,116.0
158480,County,2020/02/19,19.0,IA,19121.0,Madison County,2382.0,13867.0,62920.0,13588.0,15111.0,3587.0,7300.0,10061.0,11331.0,1008.0,721.0,129.0,84.0
161627,County,2020/02/20,19.0,IA,19121.0,Madison County,2199.0,14050.0,67480.0,16685.0,13692.0,4917.0,7751.0,11430.0,10484.0,1207.0,1070.0,190.0,54.0
163302,County,2020/02/21,19.0,IA,19121.0,Madison County,2309.0,13940.0,68678.0,15071.0,16963.0,4858.0,7375.0,10463.0,11697.0,939.0,1042.0,189.0,81.0
166496,County,2020/02/22,19.0,IA,19121.0,Madison County,2661.0,13588.0,70575.0,19237.0,14677.0,5348.0,10415.0,10488.0,7960.0,1217.0,1033.0,168.0,32.0
171261,County,2020/02/23,19.0,IA,19121.0,Madison County,3068.0,13181.0,60200.0,15717.0,14593.0,4296.0,7179.0,9556.0,7128.0,732.0,724.0,222.0,53.0
172888,County,2020/02/24,19.0,IA,19121.0,Madison County,2669.0,13580.0,62670.0,15321.0,13139.0,4560.0,8091.0,9417.0,10540.0,936.0,365.0,220.0,81.0
176126,County,2020/02/25,19.0,IA,19121.0,Madison County,2484.0,13765.0,63960.0,16486.0,13513.0,4938.0,6181.0,11042.0,9541.0,1486.0,520.0,175.0,78.0
179713,County,2020/02/26,19.0,IA,19121.0,Madison County,2726.0,13523.0,59643.0,12030.0,15205.0,6351.0,6612.0,8927.0,8571.0,1160.0,650.0,137.0,0.0
183880,County,2020/02/27,19.0,IA,19121.0,Madison County,2388.0,13861.0,63522.0,15530.0,14313.0,4326.0,7122.0,10334.0,9686.0,1296.0,787.0,82.0,46.0
185753,County,2020/02/28,19.0,IA,19121.0,Madison County,2136.0,14113.0,68067.0,14869.0,16466.0,6226.0,7684.0,10862.0,9504.0,1469.0,866.0,83.0,38.0
188855,County,2020/02/29,19.0,IA,19121.0,Madison County,2621.0,13628.0,60907.0,14709.0,13227.0,5686.0,7442.0,9972.0,7981.0,1247.0,478.0,77.0,88.0
193639,County,2020/03/01,19.0,IA,19121.0,Madison County,3057.0,13192.0,56711.0,15829.0,12963.0,4393.0,7463.0,8772.0,5869.0,673.0,565.0,138.0,46.0
195268,County,2020/03/02,19.0,IA,19121.0,Madison County,2337.0,13912.0,60406.0,15827.0,13087.0,4383.0,6973.0,9319.0,9265.0,926.0,364.0,204.0,58.0
199904,County,2020/03/03,19.0,IA,19121.0,Madison County,2460.0,13789.0,63149.0,17040.0,13243.0,5057.0,6072.0,10100.0,9961.0,907.0,618.0,106.0,45.0
203208,County,2020/03/04,19.0,IA,19121.0,Madison County,2455.0,13794.0,69094.0,18272.0,15523.0,5921.0,6699.0,9879.0,11174.0,879.0,692.0,26.0,29.0
204773,County,2020/03/05,19.0,IA,19121.0,Madison County,2159.0,14090.0,62022.0,15648.0,13449.0,3443.0,8276.0,9996.0,9337.0,1038.0,694.0,115.0,26.0
207941,County,2020/03/06,19.0,IA,19121.0,Madison County,2230.0,14019.0,67535.0,15289.0,13673.0,6283.0,7494.0,12048.0,9900.0,1586.0,1044.0,204.0,14.0
211242,County,2020/03/07,19.0,IA,19121.0,Madison County,2378.0,13871.0,68518.0,18031.0,15556.0,4110.0,8360.0,12506.0,7438.0,1428.0,949.0,140.0,0.0
215967,County,2020/03/08,19.0,IA,19121.0,Madison County,3121.0,13128.0,53366.0,13108.0,11750.0,3582.0,6513.0,8801.0,6976.0,1135.0,1326.0,142.0,33.0
217610,County,2020/03/09,19.0,IA,19121.0,Madison County,2249.0,14000.0,58861.0,12919.0,14216.0,4066.0,6413.0,9527.0,9136.0,1609.0,844.0,118.0,13.0
220844,County,2020/03/10,19.0,IA,19121.0,Madison County,2147.0,14102.0,58794.0,11973.0,10826.0,5383.0,6922.0,10255.0,11468.0,932.0,880.0,141.0,14.0
225638,County,2020/03/11,19.0,IA,19121.0,Madison County,2235.0,14014.0,53316.0,7300.0,13988.0,6132.0,4658.0,11368.0,8344.0,373.0,588.0,527.0,38.0
227217,County,2020/03/12,19.0,IA,19121.0,Madison County,2479.0,13770.0,63500.0,11596.0,15054.0,6680.0,9426.0,9245.0,8030.0,1699.0,1427.0,267.0,76.0
230377,County,2020/03/13,19.0,IA,19121.0,Madison County,2497.0,13752.0,67937.0,9323.0,16599.0,6454.0,10076.0,12669.0,10066.0,1180.0,1114.0,416.0,40.0
233576,County,2020/03/14,19.0,IA,19121.0,Madison County,3090.0,13159.0,52491.0,4444.0,8369.0,6633.0,10127.0,14173.0,6719.0,685.0,1007.0,242.0,92.0
238330,County,2020/03/15,19.0,IA,19121.0,Madison County,3965.0,12284.0,47081.0,12147.0,8679.0,3833.0,7794.0,7246.0,5351.0,1071.0,618.0,252.0,90.0
241573,County,2020/03/16,19.0,IA,19121.0,Madison County,2628.0,13621.0,58966.0,13366.0,12299.0,5699.0,7523.0,9681.0,8411.0,1046.0,700.0,162.0,79.0
244763,County,2020/03/17,19.0,IA,19121.0,Madison County,3213.0,13036.0,58521.0,13077.0,11669.0,5711.0,8356.0,9168.0,8606.0,933.0,859.0,127.0,15.0
247871,County,2020/03/18,19.0,IA,19121.0,Madison County,3403.0,12846.0,51195.0,10366.0,11931.0,3747.0,6657.0,7841.0,8930.0,847.0,622.0,225.0,29.0
249550,County,2020/03/19,19.0,IA,19121.0,Madison County,3760.0,12489.0,54715.0,11893.0,13000.0,4636.0,7536.0,7384.0,8667.0,1019.0,385.0,167.0,28.0
254350,County,2020/03/20,19.0,IA,19121.0,Madison County,3584.0,12665.0,52170.0,10761.0,12006.0,4173.0,6411.0,8283.0,8210.0,1189.0,874.0,210.0,53.0
255927,County,2020/03/21,19.0,IA,19121.0,Madison County,3958.0,12291.0,44674.0,8351.0,11045.0,4875.0,5566.0,8179.0,5579.0,315.0,644.0,56.0,64.0
260680,County,2020/03/22,19.0,IA,19121.0,Madison County,4513.0,11736.0,34884.0,6728.0,9645.0,4247.0,5592.0,4014.0,3141.0,576.0,786.0,136.0,19.0
263893,County,2020/03/23,19.0,IA,19121.0,Madison County,3708.0,12541.0,43087.0,7313.0,9548.0,3827.0,6299.0,6576.0,7655.0,964.0,780.0,97.0,28.0
267122,County,2020/03/24,19.0,IA,19121.0,Madison County,3251.0,12998.0,46546.0,9602.0,11126.0,5002.0,5954.0,6731.0,7023.0,403.0,549.0,142.0,14.0
268753,County,2020/03/25,19.0,IA,19121.0,Madison County,3556.0,12693.0,43340.0,9223.0,9468.0,3294.0,6928.0,6227.0,6948.0,724.0,411.0,102.0,15.0
273493,County,2020/03/26,19.0,IA,19121.0,Madison County,3379.0,12870.0,42124.0,8386.0,10315.0,3953.0,4830.0,7047.0,6433.0,711.0,313.0,50.0,86.0
276659,County,2020/03/27,19.0,IA,19121.0,Madison County,3560.0,12689.0,43453.0,8929.0,11007.0,3109.0,4644.0,6857.0,7229.0,957.0,517.0,121.0,83.0
278287,County,2020/03/28,19.0,IA,19121.0,Madison County,4066.0,12183.0,38545.0,9844.0,8423.0,2652.0,6321.0,6482.0,3630.0,724.0,228.0,153.0,88.0
283047,County,2020/03/29,19.0,IA,19121.0,Madison County,4744.0,11505.0,33013.0,7220.0,6153.0,2974.0,5481.0,6183.0,3900.0,471.0,474.0,100.0,57.0
284673,County,2020/03/30,19.0,IA,19121.0,Madison County,3354.0,12895.0,44528.0,8930.0,9848.0,3533.0,6851.0,5901.0,7585.0,1041.0,655.0,92.0,92.0
287869,County,2020/03/31,19.0,IA,19121.0,Madison County,3716.0,12533.0,49180.0,14663.0,8501.0,3887.0,5402.0,8245.0,7081.0,957.0,344.0,72.0,28.0
291105,County,2020/04/01,19.0,IA,19121.0,Madison County,3695.0,12554.0,49554.0,15710.0,8087.0,3162.0,5251.0,9368.0,6488.0,1082.0,341.0,24.0,41.0
295838,County,2020/04/02,19.0,IA,19121.0,Madison County,3627.0,12622.0,49567.0,15413.0,9132.0,4343.0,5206.0,7221.0,7008.0,637.0,321.0,247.0,39.0
299065,County,2020/04/03,19.0,IA,19121.0,Madison County,3417.0,12832.0,40533.0,9106.0,8111.0,2652.0,5379.0,7063.0,7003.0,700.0,401.0,67.0,51.0
302245,County,2020/04/04,19.0,IA,19121.0,Madison County,4012.0,12237.0,39593.0,7910.0,7977.0,5364.0,5360.0,6971.0,4794.0,682.0,477.0,27.0,31.0
305397,County,2020/04/05,19.0,IA,19121.0,Madison County,4517.0,11732.0,40393.0,11075.0,9061.0,3707.0,4575.0,6130.0,4797.0,367.0,520.0,32.0,129.0
308598,County,2020/04/06,19.0,IA,19121.0,Madison County,3264.0,12985.0,51480.0,16576.0,8606.0,4210.0,6282.0,8515.0,6321.0,333.0,546.0,24.0,67.0
311838,County,2020/04/07,19.0,IA,19121.0,Madison County,3415.0,12834.0,49644.0,14637.0,8332.0,3773.0,6869.0,6727.0,7696.0,1018.0,428.0,96.0,68.0
315011,County,2020/04/08,19.0,IA,19121.0,Madison County,3310.0,12939.0,55306.0,16177.0,10672.0,5390.0,7279.0,7445.0,7083.0,788.0,413.0,46.0,13.0
316638,County,2020/04/09,19.0,IA,19121.0,Madison County,3553.0,12696.0,49898.0,14786.0,9393.0,4431.0,7098.0,7203.0,5964.0,561.0,398.0,50.0,14.0
321374,County,2020/04/10,19.0,IA,19121.0,Madison County,3353.0,12896.0,48522.0,15565.0,7762.0,4323.0,6568.0,7386.0,5595.0,921.0,332.0,70.0,0.0
324611,County,2020/04/11,19.0,IA,19121.0,Madison County,3911.0,12338.0,50527.0,13556.0,8777.0,5585.0,7740.0,8982.0,5072.0,620.0,195.0,0.0,0.0
326194,County,2020/04/12,19.0,IA,19121.0,Madison County,4992.0,11257.0,31650.0,9962.0,5686.0,2491.0,5075.0,4595.0,3275.0,281.0,177.0,33.0,75.0
331006,County,2020/04/13,19.0,IA,19121.0,Madison County,4110.0,12139.0,46341.0,13019.0,7834.0,3460.0,6924.0,7503.0,6762.0,564.0,203.0,56.0,16.0
332584,County,2020/04/14,19.0,IA,19121.0,Madison County,3527.0,12722.0,46681.0,12981.0,11648.0,3865.0,5417.0,5275.0,6113.0,680.0,642.0,60.0,0.0
335810,County,2020/04/15,19.0,IA,19121.0,Madison County,3221.0,13028.0,39388.0,6629.0,13115.0,2819.0,5606.0,4496.0,5625.0,279.0,615.0,148.0,56.0
340479,County,2020/04/16,19.0,IA,19121.0,Madison County,3847.0,12402.0,44004.0,11954.0,9045.0,3693.0,7389.0,4311.0,6747.0,688.0,108.0,0.0,69.0
343791,County,2020/04/17,19.0,IA,19121.0,Madison County,3639.0,12610.0,49080.0,8933.0,13357.0,6977.0,6336.0,7504.0,5398.0,191.0,240.0,67.0,77.0
345369,County,2020/04/18,19.0,IA,19121.0,Madison County,4126.0,12123.0,40823.0,9683.0,8790.0,7802.0,3668.0,6057.0,4087.0,441.0,139.0,156.0,0.0
350120,County,2020/04/19,19.0,IA,19121.0,Madison County,4094.0,12155.0,51250.0,13122.0,14483.0,9075.0,7029.0,3027.0,3915.0,423.0,133.0,0.0,43.0
353370,County,2020/04/20,19.0,IA,19121.0,Madison County,3367.0,12882.0,59324.0,11183.0,14130.0,9293.0,6274.0,9007.0,7607.0,1132.0,593.0,67.0,38.0
354940,County,2020/04/21,19.0,IA,19121.0,Madison County,3527.0,12722.0,54793.0,12226.0,14940.0,5156.0,7125.0,6498.0,7333.0,1209.0,238.0,53.0,15.0
359712,County,2020/04/22,19.0,IA,19121.0,Madison County,3424.0,12825.0,53602.0,11932.0,11098.0,5803.0,8158.0,8141.0,6650.0,1292.0,452.0,76.0,0.0
362917,County,2020/04/23,19.0,IA,19121.0,Madison County,3159.0,13090.0,54481.0,15799.0,10094.0,6345.0,5448.0,8256.0,6823.0,1019.0,642.0,26.0,29.0
364544,County,2020/04/24,19.0,IA,19121.0,Madison County,3414.0,12835.0,50918.0,13829.0,10803.0,4106.0,6710.0,6853.0,7463.0,830.0,261.0,49.0,14.0
367711,County,2020/04/25,19.0,IA,19121.0,Madison County,3694.0,12555.0,54905.0,16615.0,11439.0,6719.0,5851.0,8568.0,4417.0,1013.0,266.0,0.0,17.0
370875,County,2020/04/26,19.0,IA,19121.0,Madison County,4111.0,12138.0,51691.0,12123.0,11140.0,7769.0,7362.0,8233.0,4164.0,745.0,117.0,0.0,38.0
374105,County,2020/04/27,19.0,IA,19121.0,Madison County,3639.0,12610.0,52099.0,14260.0,11701.0,3273.0,5087.0,9881.0,6511.0,1151.0,181.0,25.0,29.0
378882,County,2020/04/28,19.0,IA,19121.0,Madison County,3708.0,12541.0,57099.0,19331.0,10214.0,4707.0,5681.0,8363.0,7716.0,671.0,375.0,26.0,15.0
382086,County,2020/04/29,19.0,IA,19121.0,Madison County,3157.0,13092.0,56493.0,15042.0,11562.0,4906.0,8633.0,9185.0,6150.0,513.0,461.0,26.0,15.0
385303,County,2020/04/30,19.0,IA,19121.0,Madison County,3215.0,13034.0,55918.0,16832.0,11108.0,5480.0,5618.0,8575.0,6899.0,924.0,403.0,50.0,29.0
388539,County,2020/05/01,19.0,IA,19121.0,Madison County,3232.0,13017.0,54296.0,16625.0,10666.0,4227.0,5990.0,8489.0,6838.0,1115.0,307.0,25.0,14.0
391640,County,2020/05/02,19.0,IA,19121.0,Madison County,3315.0,12934.0,50113.0,12945.0,10468.0,5099.0,7112.0,8168.0,4996.0,889.0,388.0,48.0,0.0
394836,County,2020/05/03,19.0,IA,19121.0,Madison County,3743.0,12506.0,56950.0,17264.0,12473.0,5841.0,8505.0,7007.0,4749.0,800.0,280.0,31.0,0.0
396487,County,2020/05/04,19.0,IA,19121.0,Madison County,3032.0,13217.0,49863.0,14135.0,10539.0,3377.0,5850.0,7222.0,7591.0,914.0,221.0,0.0,14.0
401255,County,2020/05/05,19.0,IA,19121.0,Madison County,3469.0,12780.0,47503.0,10667.0,11192.0,4108.0,6557.0,5912.0,8298.0,443.0,233.0,78.0,15.0
404461,County,2020/05/06,19.0,IA,19121.0,Madison County,3208.0,13041.0,48910.0,11282.0,10575.0,3617.0,5614.0,8254.0,8221.0,838.0,484.0,25.0,0.0
407555,County,2020/05/07,19.0,IA,19121.0,Madison County,3195.0,13054.0,55270.0,15691.0,12390.0,4571.0,7338.0,7360.0,6281.0,1005.0,506.0,47.0,81.0
410867,County,2020/05/08,19.0,IA,19121.0,Madison County,3242.0,13007.0,53755.0,14754.0,10165.0,4072.0,6508.0,10208.0,6875.0,771.0,353.0,49.0,0.0
412398,County,2020/05/09,19.0,IA,19121.0,Madison County,3204.0,13045.0,49928.0,12283.0,10033.0,4021.0,7745.0,8951.0,5319.0,1061.0,490.0,25.0,0.0
417195,County,2020/05/10,19.0,IA,19121.0,Madison County,4229.0,12020.0,47507.0,15815.0,9454.0,4834.0,7161.0,5482.0,4067.0,574.0,120.0,0.0,0.0
420474,County,2020/05/11,19.0,IA,19121.0,Madison County,3419.0,12830.0,53193.0,15633.0,10561.0,4212.0,6183.0,8221.0,6797.0,1126.0,382.0,61.0,17.0
423678,County,2020/05/12,19.0,IA,19121.0,Madison County,3070.0,13179.0,58260.0,17946.0,10647.0,5021.0,7441.0,8611.0,7370.0,820.0,387.0,0.0,17.0
426727,County,2020/05/13,19.0,IA,19121.0,Madison County,3028.0,13221.0,47478.0,10226.0,10502.0,3802.0,5468.0,7769.0,8245.0,895.0,512.0,43.0,16.0
428453,County,2020/05/14,19.0,IA,19121.0,Madison County,3006.0,13243.0,49658.0,10592.0,10320.0,4538.0,6840.0,8060.0,7789.0,869.0,572.0,70.0,8.0
431648,County,2020/05/15,19.0,IA,19121.0,Madison County,3058.0,13191.0,51158.0,11190.0,10787.0,5512.0,7468.0,8293.0,6940.0,579.0,308.0,63.0,18.0
436397,County,2020/05/16,19.0,IA,19121.0,Madison County,3370.0,12879.0,49010.0,12323.0,10629.0,4909.0,7100.0,7856.0,5247.0,662.0,250.0,16.0,18.0
439505,County,2020/05/17,19.0,IA,19121.0,Madison County,3586.0,12663.0,40554.0,7840.0,9400.0,5551.0,4648.0,7731.0,4159.0,925.0,218.0,82.0,0.0
442796,County,2020/05/18,19.0,IA,19121.0,Madison County,2186.0,14063.0,56909.0,15658.0,9584.0,5284.0,8214.0,8427.0,8549.0,784.0,329.0,62.0,18.0
445959,County,2020/05/19,19.0,IA,19121.0,Madison County,2764.0,13485.0,63002.0,18177.0,12333.0,3607.0,7661.0,10778.0,9137.0,921.0,290.0,98.0,0.0
447591,County,2020/05/20,19.0,IA,19121.0,Madison County,2697.0,13552.0,61840.0,14378.0,13682.0,6129.0,8277.0,8243.0,9966.0,746.0,353.0,66.0,0.0
450761,County,2020/05/21,19.0,IA,19121.0,Madison County,2144.0,14105.0,60165.0,16859.0,10971.0,5260.0,5065.0,10652.0,9447.0,935.0,856.0,120.0,0.0
455520,County,2020/05/22,19.0,IA,19121.0,Madison County,2265.0,13984.0,63464.0,16959.0,11657.0,5326.0,5724.0,12429.0,9472.0,1205.0,596.0,61.0,35.0
458732,County,2020/05/23,19.0,IA,19121.0,Madison County,2860.0,13389.0,57149.0,13632.0,11076.0,8276.0,5366.0,10548.0,6709.0,1092.0,375.0,35.0,40.0
460361,County,2020/05/24,19.0,IA,19121.0,Madison County,3407.0,12842.0,46164.0,11262.0,9680.0,5026.0,7663.0,7100.0,3698.0,1215.0,448.0,30.0,42.0
463564,County,2020/05/25,19.0,IA,19121.0,Madison County,3722.0,12527.0,41199.0,9565.0,8294.0,4188.0,5234.0,7367.0,5069.0,645.0,667.0,49.0,121.0
466668,County,2020/05/26,19.0,IA,19121.0,Madison County,3062.0,13187.0,45851.0,9841.0,9438.0,4987.0,5248.0,8079.0,6981.0,846.0,279.0,128.0,24.0
471537,County,2020/05/27,19.0,IA,19121.0,Madison County,2824.0,13425.0,55355.0,12347.0,12191.0,4831.0,8132.0,8042.0,8431.0,782.0,520.0,61.0,18.0
474637,County,2020/05/28,19.0,IA,19121.0,Madison County,2938.0,13311.0,49552.0,12179.0,11017.0,4879.0,6368.0,7524.0,6515.0,569.0,384.0,43.0,74.0
476315,County,2020/05/29,19.0,IA,19121.0,Madison County,3726.0,12523.0,52095.0,11655.0,11019.0,4782.0,6768.0,9826.0,6758.0,933.0,207.0,136.0,11.0
479502,County,2020/05/30,19.0,IA,19121.0,Madison County,3302.0,12947.0,50593.0,10788.0,12684.0,4563.0,6806.0,9434.0,4921.0,959.0,355.0,60.0,23.0
482629,County,2020/05/31,19.0,IA,19121.0,Madison County,3597.0,12652.0,45293.0,10473.0,11396.0,6101.0,5738.0,5766.0,4443.0,564.0,790.0,22.0,0.0
487570,County,2020/06/01,19.0,IA,19121.0,Madison County,3059.0,13190.0,50016.0,13384.0,9537.0,4248.0,5569.0,8343.0,7379.0,961.0,523.0,46.0,26.0
490677,County,2020/06/02,19.0,IA,19121.0,Madison County,3157.0,13092.0,51209.0,13609.0,9827.0,4685.0,5462.0,8247.0,8034.0,834.0,409.0,65.0,37.0
493900,County,2020/06/03,19.0,IA,19121.0,Madison County,2622.0,13627.0,58497.0,16340.0,12150.0,3656.0,6837.0,9052.0,9198.0,734.0,462.0,43.0,25.0
495468,County,2020/06/04,19.0,IA,19121.0,Madison County,2552.0,13697.0,53359.0,13524.0,10736.0,4070.0,7365.0,8541.0,7570.0,1004.0,395.0,103.0,51.0
500245,County,2020/06/05,19.0,IA,19121.0,Madison County,2776.0,13473.0,54756.0,12675.0,11291.0,5145.0,6505.0,9779.0,7721.0,974.0,530.0,109.0,27.0
503446,County,2020/06/06,19.0,IA,19121.0,Madison County,3465.0,12784.0,53874.0,12992.0,12135.0,4922.0,7977.0,8660.0,5554.0,959.0,566.0,85.0,24.0
505060,County,2020/06/07,19.0,IA,19121.0,Madison County,3261.0,12988.0,45983.0,10519.0,10491.0,2930.0,6778.0,7634.0,5671.0,815.0,987.0,133.0,25.0
509856,County,2020/06/08,19.0,IA,19121.0,Madison County,2354.0,13895.0,58502.0,14818.0,10927.0,4045.0,7832.0,10928.0,8458.0,942.0,474.0,40.0,38.0
513011,County,2020/06/09,19.0,IA,19121.0,Madison County,3139.0,13110.0,51365.0,14216.0,9644.0,4310.0,6432.0,8256.0,6843.0,910.0,630.0,96.0,28.0
514643,County,2020/06/10,19.0,IA,19121.0,Madison County,2980.0,13269.0,52328.0,15164.0,9525.0,4517.0,5364.0,9415.0,7368.0,588.0,308.0,69.0,10.0
519374,County,2020/06/11,19.0,IA,19121.0,Madison County,2569.0,13680.0,61898.0,18445.0,12018.0,3833.0,7545.0,10494.0,8024.0,1071.0,337.0,95.0,36.0
522646,County,2020/06/12,19.0,IA,19121.0,Madison County,2673.0,13576.0,59116.0,16135.0,12358.0,4649.0,7550.0,9081.0,8184.0,785.0,309.0,35.0,30.0
525833,County,2020/06/13,19.0,IA,19121.0,Madison County,2743.0,13506.0,63894.0,17843.0,15509.0,5406.0,7273.0,9853.0,6885.0,662.0,417.0,36.0,10.0
527419,County,2020/06/14,19.0,IA,19121.0,Madison County,3633.0,12616.0,43927.0,10931.0,9470.0,3753.0,6574.0,7093.0,4374.0,1094.0,525.0,92.0,21.0
530617,County,2020/06/15,19.0,IA,19121.0,Madison County,2956.0,13293.0,48648.0,11281.0,11737.0,3452.0,6804.0,7132.0,6259.0,973.0,933.0,49.0,28.0
535398,County,2020/06/16,19.0,IA,19121.0,Madison County,2902.0,13347.0,58380.0,15950.0,11534.0,3934.0,8511.0,9949.0,7601.0,351.0,470.0,62.0,18.0
538566,County,2020/06/17,19.0,IA,19121.0,Madison County,3093.0,13156.0,57478.0,13323.0,11711.0,5253.0,9031.0,9544.0,7051.0,970.0,466.0,82.0,47.0
540195,County,2020/06/18,19.0,IA,19121.0,Madison County,2956.0,13293.0,57925.0,16364.0,13544.0,4651.0,5833.0,8454.0,7365.0,931.0,612.0,114.0,57.0
543388,County,2020/06/19,19.0,IA,19121.0,Madison County,2906.0,13343.0,49447.0,11026.0,10069.0,4685.0,6892.0,7786.0,7375.0,937.0,513.0,115.0,49.0
546593,County,2020/06/20,19.0,IA,19121.0,Madison County,3380.0,12869.0,47299.0,11789.0,10458.0,3943.0,5574.0,8338.0,4729.0,1746.0,666.0,56.0,0.0
549797,County,2020/06/21,19.0,IA,19121.0,Madison County,3820.0,12429.0,41540.0,9834.0,9020.0,3462.0,4707.0,8037.0,4805.0,1013.0,488.0,42.0,132.0
554577,County,2020/06/22,19.0,IA,19121.0,Madison County,2982.0,13267.0,51288.0,13504.0,9106.0,4811.0,6599.0,8304.0,7355.0,911.0,521.0,102.0,75.0
557731,County,2020/06/23,19.0,IA,19121.0,Madison County,2906.0,13343.0,54026.0,16786.0,8366.0,4026.0,7275.0,8057.0,8122.0,656.0,620.0,99.0,19.0
559364,County,2020/06/24,19.0,IA,19121.0,Madison County,3135.0,13114.0,51367.0,13486.0,10340.0,4587.0,7650.0,8207.0,5857.0,629.0,396.0,205.0,10.0
564101,County,2020/06/25,19.0,IA,19121.0,Madison County,2773.0,13476.0,54379.0,14665.0,11963.0,4367.0,6242.0,9069.0,6594.0,682.0,687.0,64.0,46.0
565807,County,2020/06/26,19.0,IA,19121.0,Madison County,2789.0,13460.0,45180.0,10709.0,8819.0,4145.0,5659.0,8155.0,5365.0,1259.0,721.0,310.0,38.0
570497,County,2020/06/27,19.0,IA,19121.0,Madison County,3149.0,13100.0,51880.0,13125.0,9640.0,4744.0,6287.0,9724.0,6167.0,1073.0,1014.0,86.0,20.0
572136,County,2020/06/28,19.0,IA,19121.0,Madison County,3205.0,13044.0,43478.0,10784.0,8843.0,4510.0,4873.0,8001.0,4191.0,1373.0,726.0,155.0,22.0
575346,County,2020/06/29,19.0,IA,19121.0,Madison County,3212.0,13037.0,53819.0,13531.0,9455.0,6443.0,7992.0,7678.0,6768.0,1275.0,593.0,39.0,45.0
578553,County,2020/06/30,19.0,IA,19121.0,Madison County,2830.0,13419.0,51086.0,10786.0,11168.0,3624.0,7188.0,8365.0,7577.0,1434.0,660.0,195.0,89.0
583303,County,2020/07/01,19.0,IA,19121.0,Madison County,3012.0,13237.0,48528.0,10588.0,9936.0,5388.0,6291.0,7442.0,7152.0,984.0,482.0,232.0,33.0
586492,County,2020/07/02,19.0,IA,19121.0,Madison County,3081.0,13168.0,57718.0,15565.0,12698.0,4635.0,6625.0,9626.0,6999.0,724.0,729.0,68.0,49.0
588128,County,2020/07/03,19.0,IA,19121.0,Madison County,3629.0,12620.0,44926.0,10649.0,8769.0,4122.0,5627.0,8109.0,5335.0,1252.0,717.0,308.0,38.0
591338,County,2020/07/04,19.0,IA,19121.0,Madison County,3971.0,12278.0,38433.0,9110.0,7502.0,3526.0,4814.0,6937.0,4564.0,1071.0,613.0,264.0,32.0
594528,County,2020/07/05,19.0,IA,19121.0,Madison County,3446.0,12803.0,43545.0,10530.0,9752.0,3528.0,6729.0,6511.0,4567.0,1064.0,586.0,211.0,67.0
598384,County,2020/07/06,19.0,IA,19121.0,Madison County,3423.0,12826.0,42092.0,7641.0,8986.0,4123.0,6306.0,7026.0,5821.0,1187.0,747.0,175.0,80.0
602875,County,2020/07/07,19.0,IA,19121.0,Madison County,3174.0,13075.0,44322.0,9447.0,8884.0,3829.0,5625.0,8405.0,6395.0,782.0,770.0,155.0,30.0
604071,County,2020/07/08,19.0,IA,19121.0,Madison County,3320.0,12929.0,42653.0,9938.0,8584.0,3994.0,5616.0,7078.0,5655.0,840.0,591.0,297.0,60.0
608844,County,2020/07/09,19.0,IA,19121.0,Madison County,3119.0,13130.0,46865.0,10657.0,10468.0,4235.0,6430.0,6799.0,6408.0,1056.0,550.0,243.0,19.0
610467,County,2020/07/10,19.0,IA,19121.0,Madison County,2978.0,13271.0,54071.0,14630.0,10949.0,4400.0,7107.0,8490.0,6116.0,1306.0,853.0,171.0,49.0
615265,County,2020/07/11,19.0,IA,19121.0,Madison County,3216.0,13033.0,41872.0,9645.0,8816.0,4143.0,5699.0,6954.0,4962.0,881.0,555.0,138.0,79.0
618451,County,2020/07/12,19.0,IA,19121.0,Madison County,3692.0,12557.0,40128.0,10254.0,8237.0,3264.0,5548.0,5928.0,4639.0,1216.0,766.0,215.0,61.0
621608,County,2020/07/13,19.0,IA,19121.0,Madison County,3344.0,12905.0,39087.0,9285.0,7315.0,3359.0,5529.0,6555.0,5470.0,686.0,648.0,197.0,43.0
624803,County,2020/07/14,19.0,IA,19121.0,Madison County,3372.0,12877.0,40173.0,8485.0,9252.0,3228.0,5516.0,6494.0,5611.0,548.0,759.0,206.0,74.0
626361,County,2020/07/15,19.0,IA,19121.0,Madison County,3206.0,13043.0,39407.0,8285.0,8615.0,3045.0,5174.0,6778.0,6145.0,661.0,539.0,110.0,55.0
631291,County,2020/07/16,19.0,IA,19121.0,Madison County,3373.0,12876.0,43646.0,9646.0,9866.0,2881.0,7419.0,7112.0,5783.0,372.0,410.0,148.0,9.0
634336,County,2020/07/17,19.0,IA,19121.0,Madison County,3468.0,12781.0,43337.0,10139.0,10193.0,3603.0,5931.0,6976.0,5115.0,920.0,261.0,162.0,37.0
636014,County,2020/07/18,19.0,IA,19121.0,Madison County,3672.0,12577.0,38062.0,7346.0,8317.0,3329.0,6575.0,6167.0,4654.0,1054.0,465.0,112.0,43.0
640791,County,2020/07/19,19.0,IA,19121.0,Madison County,3864.0,12385.0,38216.0,7346.0,6619.0,3997.0,5573.0,7554.0,5316.0,1120.0,581.0,70.0,40.0
644000,County,2020/07/20,19.0,IA,19121.0,Madison County,3651.0,12598.0,42260.0,11373.0,6876.0,2398.0,6139.0,7142.0,6896.0,748.0,543.0,122.0,23.0
645628,County,2020/07/21,19.0,IA,19121.0,Madison County,3006.0,13243.0,50724.0,13530.0,8451.0,3597.0,6941.0,9144.0,6903.0,1473.0,526.0,139.0,20.0
649833,County,2020/07/22,19.0,IA,19121.0,Madison County,3198.0,13051.0,49805.0,11625.0,10702.0,3591.0,5910.0,8894.0,8013.0,588.0,309.0,104.0,69.0
653552,County,2020/07/23,19.0,IA,19121.0,Madison County,3069.0,13180.0,44795.0,10191.0,9032.0,3928.0,5630.0,6646.0,7488.0,1053.0,663.0,124.0,40.0
656776,County,2020/07/24,19.0,IA,19121.0,Madison County,2900.0,13349.0,49081.0,12598.0,7966.0,3096.0,7526.0,9007.0,6495.0,1249.0,938.0,187.0,19.0
660042,County,2020/07/25,19.0,IA,19121.0,Madison County,3375.0,12874.0,44148.0,10390.0,8946.0,3294.0,6051.0,8596.0,4758.0,1304.0,643.0,120.0,46.0
661566,County,2020/07/26,19.0,IA,19121.0,Madison County,3574.0,12675.0,44462.0,7642.0,9549.0,3979.0,7448.0,8037.0,4914.0,1483.0,1167.0,218.0,25.0
664862,County,2020/07/27,19.0,IA,19121.0,Madison County,3191.0,13058.0,51181.0,9690.0,11621.0,3739.0,7979.0,8901.0,6991.0,1096.0,898.0,232.0,34.0
667975,County,2020/07/28,19.0,IA,19121.0,Madison County,2899.0,13350.0,60373.0,14488.0,10597.0,4325.0,9353.0,9299.0,9410.0,1984.0,719.0,158.0,40.0
671181,County,2020/07/29,19.0,IA,19121.0,Madison County,3000.0,13249.0,54933.0,12747.0,11589.0,3527.0,7449.0,9246.0,8039.0,1264.0,796.0,223.0,53.0
674342,County,2020/07/30,19.0,IA,19121.0,Madison County,2730.0,13519.0,52785.0,9794.0,13268.0,4523.0,6188.0,9049.0,7957.0,884.0,820.0,246.0,56.0
677543,County,2020/07/31,19.0,IA,19121.0,Madison County,2895.0,13354.0,52492.0,12694.0,9788.0,3315.0,7202.0,9587.0,7208.0,1889.0,562.0,204.0,43.0
682290,County,2020/08/01,19.0,IA,19121.0,Madison County,3359.0,12890.0,43709.0,8186.0,9312.0,3772.0,7558.0,7363.0,5307.0,1233.0,654.0,206.0,118.0
685530,County,2020/08/02,19.0,IA,19121.0,Madison County,3805.0,12444.0,43155.0,8537.0,7322.0,4437.0,6086.0,9032.0,4860.0,1418.0,1276.0,119.0,68.0
687119,County,2020/08/03,19.0,IA,19121.0,Madison County,3016.0,13233.0,49866.0,9274.0,11429.0,4529.0,6492.0,9043.0,7563.0,694.0,728.0,102.0,12.0
691895,County,2020/08/04,19.0,IA,19121.0,Madison County,2849.0,13400.0,55389.0,13956.0,11506.0,4719.0,6788.0,9463.0,7428.0,758.0,636.0,54.0,81.0
693524,County,2020/08/05,19.0,IA,19121.0,Madison County,2915.0,13334.0,52823.0,12682.0,9816.0,5057.0,6473.0,10476.0,6936.0,770.0,517.0,55.0,41.0
696730,County,2020/08/06,19.0,IA,19121.0,Madison County,3093.0,13156.0,56640.0,13971.0,10617.0,5331.0,8247.0,8742.0,8370.0,661.0,608.0,72.0,21.0
701461,County,2020/08/07,19.0,IA,19121.0,Madison County,2707.0,13542.0,47463.0,10661.0,8529.0,4355.0,6347.0,8170.0,8075.0,669.0,584.0,73.0,0.0
703091,County,2020/08/08,19.0,IA,19121.0,Madison County,2981.0,13268.0,48589.0,11219.0,10071.0,3064.0,7271.0,9227.0,5842.0,1410.0,391.0,60.0,34.0
707873,County,2020/08/09,19.0,IA,19121.0,Madison County,3572.0,12677.0,43299.0,9624.0,8338.0,3722.0,5834.0,8758.0,4522.0,1563.0,795.0,106.0,37.0
711091,County,2020/08/10,19.0,IA,19121.0,Madison County,3125.0,13124.0,47564.0,10852.0,7859.0,3373.0,5766.0,9136.0,8397.0,1335.0,744.0,91.0,11.0
712670,County,2020/08/11,19.0,IA,19121.0,Madison County,3136.0,13113.0,51052.0,10900.0,8318.0,3626.0,8318.0,10093.0,7963.0,1253.0,526.0,55.0,0.0
715865,County,2020/08/12,19.0,IA,19121.0,Madison County,2965.0,13284.0,49567.0,11794.0,8465.0,3102.0,5001.0,9750.0,9721.0,1152.0,410.0,142.0,30.0
720625,County,2020/08/13,19.0,IA,19121.0,Madison County,2641.0,13608.0,52704.0,9626.0,11833.0,3620.0,5926.0,10826.0,8553.0,1269.0,770.0,215.0,66.0
723851,County,2020/08/14,19.0,IA,19121.0,Madison County,2527.0,13722.0,58357.0,13244.0,11437.0,3816.0,6674.0,11216.0,9417.0,1416.0,892.0,150.0,95.0
725481,County,2020/08/15,19.0,IA,19121.0,Madison County,3032.0,13217.0,53181.0,12896.0,9937.0,2148.0,6600.0,11030.0,7352.0,1983.0,964.0,180.0,91.0
728641,County,2020/08/16,19.0,IA,19121.0,Madison County,3410.0,12839.0,43612.0,9250.0,7097.0,2432.0,7422.0,6896.0,8067.0,1444.0,720.0,212.0,72.0
733422,County,2020/08/17,19.0,IA,19121.0,Madison County,3333.0,12916.0,57377.0,14746.0,11140.0,4208.0,7190.0,8997.0,9105.0,1092.0,654.0,135.0,110.0
735049,County,2020/08/18,19.0,IA,19121.0,Madison County,3458.0,12791.0,47726.0,10046.0,8746.0,3878.0,5795.0,9281.0,7619.0,1176.0,905.0,162.0,118.0
738255,County,2020/08/19,19.0,IA,19121.0,Madison County,3041.0,13208.0,51695.0,11129.0,10271.0,4208.0,7644.0,7953.0,8571.0,1366.0,275.0,212.0,66.0
741416,County,2020/08/20,19.0,IA,19121.0,Madison County,2662.0,13587.0,52743.0,10244.0,10059.0,4293.0,7103.0,10497.0,8056.0,1510.0,612.0,152.0,217.0
744616,County,2020/08/21,19.0,IA,19121.0,Madison County,2487.0,13762.0,60289.0,13351.0,10174.0,4286.0,9485.0,9612.0,10906.0,1322.0,796.0,264.0,93.0
749398,County,2020/08/22,19.0,IA,19121.0,Madison County,2996.0,13253.0,55626.0,12570.0,9798.0,3373.0,9640.0,10453.0,7648.0,1180.0,703.0,198.0,63.0
752566,County,2020/08/23,19.0,IA,19121.0,Madison County,3446.0,12803.0,41171.0,9493.0,7394.0,2640.0,7419.0,7303.0,4834.0,1121.0,578.0,215.0,174.0
754238,County,2020/08/24,19.0,IA,19121.0,Madison County,3367.0,12882.0,45575.0,10173.0,8747.0,3344.0,6339.0,7701.0,7346.0,963.0,758.0,136.0,68.0
757386,County,2020/08/25,19.0,IA,19121.0,Madison County,2890.0,13359.0,48953.0,11536.0,6869.0,3221.0,8107.0,8558.0,8867.0,1011.0,527.0,124.0,133.0
762109,County,2020/08/26,19.0,IA,19121.0,Madison County,3138.0,13111.0,50613.0,13624.0,7666.0,3362.0,6019.0,9477.0,8398.0,1120.0,676.0,214.0,57.0
765354,County,2020/08/27,19.0,IA,19121.0,Madison County,2929.0,13320.0,50618.0,11229.0,9893.0,4456.0,6251.0,7783.0,8711.0,1161.0,956.0,142.0,36.0
768569,County,2020/08/28,19.0,IA,19121.0,Madison County,2943.0,13306.0,54911.0,13184.0,10140.0,4075.0,6361.0,10958.0,8073.0,1318.0,515.0,241.0,46.0
771720,County,2020/08/29,19.0,IA,19121.0,Madison County,3112.0,13137.0,47104.0,11309.0,7228.0,4359.0,6355.0,9240.0,6501.0,1380.0,466.0,226.0,40.0
774939,County,2020/08/30,19.0,IA,19121.0,Madison County,4049.0,12200.0,37612.0,9633.0,6081.0,2798.0,5629.0,5876.0,5030.0,1046.0,929.0,391.0,199.0
778128,County,2020/08/31,19.0,IA,19121.0,Madison County,3092.0,13157.0,48578.0,11536.0,8757.0,3227.0,6413.0,7768.0,8562.0,1542.0,364.0,272.0,137.0
781327,County,2020/09/01,19.0,IA,19121.0,Madison County,3279.0,12970.0,54397.0,12149.0,9475.0,5601.0,6494.0,10346.0,8017.0,1461.0,603.0,160.0,91.0
782934,County,2020/09/02,19.0,IA,19121.0,Madison County,3177.0,13072.0,49021.0,9854.0,7557.0,6363.0,5681.0,9787.0,7374.0,1185.0,839.0,331.0,50.0
787722,County,2020/09/03,19.0,IA,19121.0,Madison County,2720.0,13529.0,54308.0,12668.0,10745.0,2782.0,7662.0,9068.0,9160.0,1168.0,793.0,190.0,72.0
790913,County,2020/09/04,19.0,IA,19121.0,Madison County,2805.0,13444.0,53816.0,13222.0,8721.0,5200.0,7167.0,8271.0,8097.0,1707.0,1075.0,265.0,91.0
794104,County,2020/09/05,19.0,IA,19121.0,Madison County,3290.0,12959.0,51558.0,11796.0,11283.0,3823.0,6742.0,9097.0,5713.0,2108.0,783.0,191.0,22.0
797259,County,2020/09/06,19.0,IA,19121.0,Madison County,3631.0,12618.0,40417.0,8286.0,7750.0,4482.0,5556.0,6511.0,5442.0,1379.0,703.0,255.0,53.0
798917,County,2020/09/07,19.0,IA,19121.0,Madison County,4045.0,12204.0,37800.0,6649.0,5988.0,1494.0,6557.0,8472.0,5839.0,1391.0,1095.0,245.0,70.0
802129,County,2020/09/08,19.0,IA,19121.0,Madison County,3325.0,12924.0,51171.0,10461.0,8500.0,4905.0,6674.0,9457.0,8691.0,1346.0,847.0,238.0,52.0
805295,County,2020/09/09,19.0,IA,19121.0,Madison County,3056.0,13193.0,46884.0,9215.0,8580.0,3029.0,7326.0,8122.0,9068.0,832.0,401.0,242.0,69.0
810065,County,2020/09/10,19.0,IA,19121.0,Madison County,3495.0,12754.0,46675.0,9932.0,8928.0,3042.0,6240.0,8250.0,8046.0,1047.0,924.0,203.0,63.0
811694,County,2020/09/11,19.0,IA,19121.0,Madison County,2995.0,13254.0,49588.0,9959.0,9334.0,4068.0,6426.0,8915.0,8617.0,1269.0,707.0,224.0,69.0
814878,County,2020/09/12,19.0,IA,19121.0,Madison County,3430.0,12819.0,48682.0,10569.0,10844.0,2765.0,6971.0,9324.0,6061.0,1361.0,671.0,104.0,12.0
818100,County,2020/09/13,19.0,IA,19121.0,Madison County,4334.0,11915.0,37998.0,7478.0,7065.0,3685.0,4204.0,7382.0,6103.0,1283.0,479.0,268.0,51.0
822832,County,2020/09/14,19.0,IA,19121.0,Madison County,3081.0,13168.0,51132.0,11188.0,10431.0,3006.0,6391.0,8997.0,9240.0,1190.0,469.0,140.0,80.0
824461,County,2020/09/15,19.0,IA,19121.0,Madison County,3017.0,13232.0,51859.0,11560.0,9275.0,3398.0,6439.0,10508.0,8741.0,1076.0,647.0,156.0,59.0
829268,County,2020/09/16,19.0,IA,19121.0,Madison County,2982.0,13267.0,53735.0,12197.0,11360.0,4116.0,6351.0,8996.0,9101.0,763.0,417.0,413.0,21.0
832445,County,2020/09/17,19.0,IA,19121.0,Madison County,2757.0,13492.0,56819.0,13087.0,12428.0,4283.0,6914.0,9714.0,8393.0,1163.0,550.0,239.0,48.0
834074,County,2020/09/18,19.0,IA,19121.0,Madison County,3140.0,13109.0,61971.0,16188.0,9822.0,5754.0,7130.0,11452.0,9695.0,1179.0,540.0,189.0,22.0
837236,County,2020/09/19,19.0,IA,19121.0,Madison County,2869.0,13380.0,53772.0,11163.0,8665.0,3746.0,8221.0,11802.0,7303.0,2197.0,484.0,136.0,55.0
842012,County,2020/09/20,19.0,IA,19121.0,Madison County,3807.0,12442.0,43816.0,10467.0,7144.0,4023.0,5804.0,8097.0,6685.0,708.0,706.0,146.0,36.0
843640,County,2020/09/21,19.0,IA,19121.0,Madison County,3737.0,12512.0,39815.0,7580.0,6510.0,3752.0,5832.0,6132.0,8633.0,866.0,429.0,44.0,37.0
846844,County,2020/09/22,19.0,IA,19121.0,Madison County,2998.0,13251.0,47873.0,11112.0,10008.0,2842.0,6019.0,8183.0,8897.0,523.0,231.0,37.0,21.0
850011,County,2020/09/23,19.0,IA,19121.0,Madison County,2778.0,13471.0,53153.0,13143.0,10785.0,4015.0,6679.0,8935.0,8214.0,974.0,387.0,0.0,21.0
854778,County,2020/09/24,19.0,IA,19121.0,Madison County,2854.0,13395.0,56834.0,15266.0,9430.0,6406.0,7322.0,8577.0,8636.0,528.0,565.0,93.0,11.0
856407,County,2020/09/25,19.0,IA,19121.0,Madison County,2537.0,13712.0,55432.0,13049.0,9237.0,4343.0,8168.0,9088.0,9796.0,1277.0,402.0,52.0,20.0
861160,County,2020/09/26,19.0,IA,19121.0,Madison County,3027.0,13222.0,52498.0,12759.0,10364.0,3891.0,6404.0,11168.0,6652.0,1084.0,144.0,20.0,12.0
862814,County,2020/09/27,19.0,IA,19121.0,Madison County,3768.0,12481.0,42086.0,8465.0,7917.0,3402.0,5226.0,9145.0,5544.0,1735.0,565.0,63.0,24.0
867548,County,2020/09/28,19.0,IA,19121.0,Madison County,3419.0,12830.0,46633.0,9497.0,9770.0,3232.0,6427.0,8209.0,8250.0,640.0,503.0,94.0,11.0
869176,County,2020/09/29,19.0,IA,19121.0,Madison County,3150.0,13099.0,52448.0,12293.0,9477.0,4164.0,6690.0,9067.0,9304.0,824.0,470.0,143.0,16.0
873955,County,2020/09/30,19.0,IA,19121.0,Madison County,3405.0,12844.0,47653.0,9867.0,8642.0,3244.0,6229.0,8601.0,8319.0,1997.0,582.0,152.0,20.0
875583,County,2020/10/01,19.0,IA,19121.0,Madison County,3100.0,13149.0,51538.0,12930.0,10570.0,3366.0,6156.0,8978.0,8003.0,889.0,492.0,140.0,14.0
878786,County,2020/10/02,19.0,IA,19121.0,Madison County,3099.0,13150.0,55909.0,16240.0,10758.0,2971.0,6591.0,8424.0,8805.0,1074.0,827.0,211.0,8.0
881952,County,2020/10/03,19.0,IA,19121.0,Madison County,3522.0,12727.0,43112.0,7596.0,8792.0,3405.0,5995.0,8906.0,6696.0,815.0,842.0,56.0,9.0
885519,County,2020/10/04,19.0,IA,19121.0,Madison County,3849.0,12400.0,43056.0,10108.0,7618.0,4824.0,4658.0,8016.0,5651.0,1190.0,878.0,97.0,16.0
888753,County,2020/10/05,19.0,IA,19121.0,Madison County,3865.0,12384.0,49281.0,11848.0,8967.0,2969.0,6792.0,9047.0,8530.0,637.0,391.0,89.0,11.0
891929,County,2020/10/06,19.0,IA,19121.0,Madison County,3552.0,12697.0,53504.0,11683.0,11785.0,3198.0,7756.0,9884.0,7811.0,705.0,490.0,164.0,28.0
895560,County,2020/10/07,19.0,IA,19121.0,Madison County,3137.0,13112.0,51333.0,13889.0,9998.0,3489.0,5899.0,9443.0,7392.0,592.0,426.0,198.0,7.0
898303,County,2020/10/08,19.0,IA,19121.0,Madison County,2991.0,13258.0,51531.0,11286.0,10676.0,2855.0,6506.0,9570.0,8671.0,1356.0,497.0,99.0,15.0
901543,County,2020/10/09,19.0,IA,19121.0,Madison County,3549.0,12700.0,52208.0,14149.0,11314.0,2662.0,6141.0,8872.0,7520.0,862.0,524.0,150.0,14.0
904722,County,2020/10/10,19.0,IA,19121.0,Madison County,3871.0,12378.0,49010.0,11661.0,10431.0,3742.0,6862.0,9384.0,5681.0,815.0,325.0,90.0,19.0
907370,County,2020/10/11,19.0,IA,19121.0,Madison County,3509.0,12740.0,41244.0,9607.0,7733.0,3087.0,5556.0,8515.0,4806.0,1031.0,861.0,46.0,2.0
912445,County,2020/10/12,19.0,IA,19121.0,Madison County,3314.0,12935.0,50097.0,11534.0,9444.0,3677.0,6651.0,9813.0,7610.0,929.0,330.0,100.0,9.0
915872,County,2020/10/13,19.0,IA,19121.0,Madison County,3118.0,13131.0,53820.0,12393.0,11042.0,3789.0,7197.0,9180.0,8870.0,1056.0,194.0,90.0,9.0
919014,County,2020/10/14,19.0,IA,19121.0,Madison County,3077.0,13172.0,54579.0,12693.0,11926.0,4678.0,6622.0,8478.0,8598.0,928.0,568.0,73.0,15.0
922211,County,2020/10/15,19.0,IA,19121.0,Madison County,3251.0,12998.0,47805.0,11443.0,8626.0,3561.0,4830.0,9005.0,8404.0,1108.0,648.0,162.0,18.0
925032,County,2020/10/16,19.0,IA,19121.0,Madison County,2657.0,13592.0,58994.0,11859.0,11183.0,5171.0,9229.0,12199.0,7818.0,877.0,493.0,147.0,18.0
928623,County,2020/10/17,19.0,IA,19121.0,Madison County,3034.0,13215.0,50756.0,11223.0,9846.0,3221.0,7821.0,10223.0,7179.0,679.0,438.0,118.0,8.0
931659,County,2020/10/18,19.0,IA,19121.0,Madison County,3967.0,12282.0,41650.0,9252.0,7717.0,3659.0,6333.0,7768.0,5041.0,1122.0,631.0,121.0,6.0
934526,County,2020/10/19,19.0,IA,19121.0,Madison County,3185.0,13064.0,51846.0,14010.0,10804.0,3790.0,6087.0,7666.0,7999.0,1038.0,318.0,105.0,29.0
938466,County,2020/10/20,19.0,IA,19121.0,Madison County,3278.0,12971.0,48777.0,13665.0,8858.0,3084.0,6253.0,7836.0,8013.0,719.0,248.0,75.0,26.0
941335,County,2020/10/21,19.0,IA,19121.0,Madison County,3500.0,12749.0,39943.0,8159.0,8139.0,2227.0,5019.0,8191.0,6998.0,690.0,359.0,145.0,16.0
944950,County,2020/10/22,19.0,IA,19121.0,Madison County,3198.0,13051.0,52839.0,11971.0,11297.0,3173.0,6652.0,9747.0,8224.0,1336.0,330.0,100.0,9.0
948123,County,2020/10/23,19.0,IA,19121.0,Madison County,2938.0,13311.0,52628.0,12361.0,7967.0,2609.0,7499.0,10502.0,9662.0,1249.0,618.0,141.0,20.0
951012,County,2020/10/24,19.0,IA,19121.0,Madison County,3117.0,13132.0,53649.0,10684.0,12362.0,2665.0,8676.0,9722.0,8341.0,762.0,328.0,92.0,17.0
