,Level,Date,State FIPS,State Postal Code,County FIPS,County Name,Population Staying at Home,Population Not Staying at Home,Number of Trips,Number of Trips <1,Number of Trips 1-3,Number of Trips 3-5,Number of Trips 5-10,Number of Trips 10-25,Number of Trips 25-50,Number of Trips 50-100,Number of Trips 100-250,Number of Trips 250-500,Number of Trips >=500
1160,County,2020/01/01,22.0,LA,22095.0,St. John the Baptist Parish,8705.0,34479.0,137373.0,32718.0,44200.0,16928.0,11755.0,17923.0,11250.0,1784.0,477.0,265.0,73.0
3400,County,2020/01/02,22.0,LA,22095.0,St. John the Baptist Parish,6983.0,36201.0,156776.0,42101.0,39660.0,16187.0,15606.0,23545.0,15770.0,2637.0,782.0,422.0,66.0
7459,County,2020/01/03,22.0,LA,22095.0,St. John the Baptist Parish,7146.0,36038.0,158775.0,40206.0,39930.0,16990.0,17542.0,23977.0,16252.0,2944.0,579.0,257.0,98.0
9642,County,2020/01/04,22.0,LA,22095.0,St. John the Baptist Parish,7798.0,35386.0,162458.0,44651.0,44389.0,17020.0,15983.0,21870.0,14381.0,2749.0,1079.0,278.0,58.0
13936,County,2020/01/05,22.0,LA,22095.0,St. John the Baptist Parish,8019.0,35165.0,137724.0,31976.0,39427.0,16330.0,12642.0,19815.0,13829.0,2301.0,826.0,519.0,59.0
16493,County,2020/01/06,22.0,LA,22095.0,St. John the Baptist Parish,6989.0,36195.0,169734.0,55284.0,40023.0,15736.0,15790.0,20996.0,17232.0,3358.0,1062.0,180.0,73.0
19747,County,2020/01/07,22.0,LA,22095.0,St. John the Baptist Parish,6669.0,36515.0,176692.0,54247.0,42955.0,16411.0,17543.0,24180.0,16743.0,3177.0,1059.0,322.0,55.0
22930,County,2020/01/08,22.0,LA,22095.0,St. John the Baptist Parish,6816.0,36368.0,170410.0,48997.0,42986.0,18237.0,16966.0,22089.0,16484.0,3291.0,979.0,294.0,87.0
26125,County,2020/01/09,22.0,LA,22095.0,St. John the Baptist Parish,6801.0,36383.0,177160.0,53594.0,47210.0,16285.0,17746.0,22174.0,15956.0,3071.0,823.0,223.0,78.0
29320,County,2020/01/10,22.0,LA,22095.0,St. John the Baptist Parish,6452.0,36732.0,180080.0,53242.0,45383.0,17584.0,16677.0,23783.0,18342.0,3501.0,1183.0,324.0,61.0
32561,County,2020/01/11,22.0,LA,22095.0,St. John the Baptist Parish,7879.0,35305.0,159972.0,44644.0,47432.0,19968.0,14379.0,17650.0,12595.0,2350.0,713.0,187.0,54.0
35717,County,2020/01/12,22.0,LA,22095.0,St. John the Baptist Parish,7924.0,35260.0,147524.0,40551.0,41652.0,16166.0,14156.0,18739.0,12515.0,2473.0,902.0,298.0,72.0
40496,County,2020/01/13,22.0,LA,22095.0,St. John the Baptist Parish,6482.0,36702.0,177684.0,54184.0,47324.0,18440.0,16333.0,21895.0,15786.0,2527.0,933.0,219.0,43.0
42122,County,2020/01/14,22.0,LA,22095.0,St. John the Baptist Parish,6555.0,36629.0,182040.0,53817.0,46501.0,19010.0,17939.0,23243.0,17013.0,3376.0,762.0,279.0,100.0
45275,County,2020/01/15,22.0,LA,22095.0,St. John the Baptist Parish,6638.0,36546.0,184315.0,60256.0,45489.0,16979.0,16850.0,23039.0,17576.0,2731.0,1033.0,282.0,80.0
48426,County,2020/01/16,22.0,LA,22095.0,St. John the Baptist Parish,6296.0,36888.0,189633.0,59738.0,47932.0,19689.0,17377.0,24491.0,16437.0,2900.0,705.0,321.0,43.0
51683,County,2020/01/17,22.0,LA,22095.0,St. John the Baptist Parish,6031.0,37153.0,191366.0,60278.0,46726.0,20775.0,17873.0,23976.0,17131.0,3284.0,989.0,270.0,64.0
54867,County,2020/01/18,22.0,LA,22095.0,St. John the Baptist Parish,7298.0,35886.0,172719.0,49349.0,47072.0,18252.0,16542.0,23018.0,14453.0,2997.0,826.0,128.0,82.0
59662,County,2020/01/19,22.0,LA,22095.0,St. John the Baptist Parish,8162.0,35022.0,146513.0,36769.0,46444.0,15815.0,13008.0,18302.0,12407.0,2426.0,991.0,281.0,70.0
62825,County,2020/01/20,22.0,LA,22095.0,St. John the Baptist Parish,7272.0,35912.0,157915.0,47918.0,37705.0,15708.0,14850.0,20731.0,16175.0,3055.0,1338.0,356.0,79.0
64452,County,2020/01/21,22.0,LA,22095.0,St. John the Baptist Parish,6408.0,36776.0,170761.0,51467.0,41292.0,16968.0,16896.0,23213.0,17125.0,2643.0,954.0,170.0,33.0
69214,County,2020/01/22,22.0,LA,22095.0,St. John the Baptist Parish,6411.0,36773.0,176150.0,53393.0,45276.0,17343.0,16303.0,23126.0,16900.0,2517.0,965.0,258.0,69.0
70840,County,2020/01/23,22.0,LA,22095.0,St. John the Baptist Parish,6745.0,36439.0,167519.0,48573.0,41736.0,18523.0,16134.0,22833.0,15453.0,2985.0,830.0,394.0,58.0
74036,County,2020/01/24,22.0,LA,22095.0,St. John the Baptist Parish,6295.0,36889.0,196354.0,59222.0,52651.0,19022.0,20052.0,24176.0,16932.0,2796.0,1207.0,227.0,69.0
77228,County,2020/01/25,22.0,LA,22095.0,St. John the Baptist Parish,7069.0,36115.0,173678.0,52311.0,43365.0,15999.0,18166.0,23572.0,16048.0,2962.0,941.0,205.0,109.0
81010,County,2020/01/26,22.0,LA,22095.0,St. John the Baptist Parish,8185.0,34999.0,138821.0,38112.0,40121.0,14105.0,12963.0,18433.0,11071.0,2418.0,1198.0,311.0,89.0
85151,County,2020/01/27,22.0,LA,22095.0,St. John the Baptist Parish,6674.0,36510.0,181126.0,57415.0,45551.0,18519.0,17369.0,21965.0,16453.0,2646.0,839.0,301.0,68.0
86825,County,2020/01/28,22.0,LA,22095.0,St. John the Baptist Parish,6699.0,36485.0,168846.0,46748.0,42060.0,17639.0,17078.0,24057.0,17476.0,2460.0,950.0,317.0,61.0
89980,County,2020/01/29,22.0,LA,22095.0,St. John the Baptist Parish,6577.0,36607.0,164139.0,46464.0,40500.0,17174.0,16860.0,23315.0,16065.0,2626.0,684.0,408.0,43.0
94812,County,2020/01/30,22.0,LA,22095.0,St. John the Baptist Parish,6467.0,36717.0,182387.0,58475.0,47440.0,18281.0,16353.0,21510.0,15963.0,2709.0,1138.0,416.0,102.0
96387,County,2020/01/31,22.0,LA,22095.0,St. John the Baptist Parish,6004.0,37180.0,191651.0,55691.0,51045.0,19966.0,19069.0,24015.0,17425.0,3023.0,905.0,399.0,113.0
99636,County,2020/02/01,22.0,LA,22095.0,St. John the Baptist Parish,6754.0,36430.0,177916.0,50401.0,50071.0,19290.0,15362.0,24005.0,15207.0,2407.0,752.0,304.0,117.0
102764,County,2020/02/02,22.0,LA,22095.0,St. John the Baptist Parish,7493.0,35691.0,169095.0,48568.0,48286.0,18388.0,15299.0,22460.0,13044.0,1746.0,811.0,370.0,123.0
105974,County,2020/02/03,22.0,LA,22095.0,St. John the Baptist Parish,6472.0,36712.0,185287.0,54197.0,51660.0,17445.0,17057.0,22442.0,17963.0,3180.0,986.0,248.0,109.0
110735,County,2020/02/04,22.0,LA,22095.0,St. John the Baptist Parish,6194.0,36990.0,175697.0,54443.0,44981.0,15469.0,16143.0,22349.0,17790.0,3248.0,779.0,359.0,136.0
112362,County,2020/02/05,22.0,LA,22095.0,St. John the Baptist Parish,6095.0,37089.0,178380.0,55852.0,45705.0,16401.0,17618.0,21605.0,16830.0,2988.0,915.0,294.0,172.0
117145,County,2020/02/06,22.0,LA,22095.0,St. John the Baptist Parish,6040.0,37144.0,185345.0,53773.0,49490.0,18807.0,17954.0,24107.0,17060.0,2761.0,1032.0,275.0,86.0
118724,County,2020/02/07,22.0,LA,22095.0,St. John the Baptist Parish,5825.0,37359.0,195143.0,54788.0,54614.0,20029.0,18395.0,25923.0,17389.0,2592.0,943.0,387.0,83.0
121970,County,2020/02/08,22.0,LA,22095.0,St. John the Baptist Parish,6710.0,36474.0,176197.0,49647.0,48637.0,19154.0,15449.0,23157.0,16332.0,2690.0,799.0,222.0,110.0
125173,County,2020/02/09,22.0,LA,22095.0,St. John the Baptist Parish,8451.0,34733.0,157019.0,43126.0,48437.0,15716.0,14010.0,18967.0,12924.0,2683.0,819.0,215.0,122.0
129469,County,2020/02/10,22.0,LA,22095.0,St. John the Baptist Parish,6164.0,37020.0,188939.0,55296.0,52953.0,17190.0,17761.0,24119.0,17485.0,2507.0,1182.0,304.0,142.0
133718,County,2020/02/11,22.0,LA,22095.0,St. John the Baptist Parish,6091.0,37093.0,189708.0,54769.0,53418.0,17566.0,18919.0,23071.0,17427.0,3244.0,825.0,325.0,144.0
135195,County,2020/02/12,22.0,LA,22095.0,St. John the Baptist Parish,6416.0,36768.0,193653.0,55924.0,52663.0,18359.0,18571.0,24477.0,19227.0,3100.0,782.0,395.0,155.0
139527,County,2020/02/13,22.0,LA,22095.0,St. John the Baptist Parish,6408.0,36776.0,180779.0,49528.0,50302.0,17846.0,17766.0,22467.0,18610.0,2538.0,1218.0,334.0,170.0
142682,County,2020/02/14,22.0,LA,22095.0,St. John the Baptist Parish,6022.0,37162.0,213801.0,61690.0,57838.0,20289.0,19920.0,29920.0,18302.0,3605.0,1546.0,531.0,160.0
144306,County,2020/02/15,22.0,LA,22095.0,St. John the Baptist Parish,7212.0,35972.0,186903.0,51033.0,54124.0,17749.0,17396.0,25192.0,16612.0,3517.0,748.0,372.0,160.0
147496,County,2020/02/16,22.0,LA,22095.0,St. John the Baptist Parish,8450.0,34734.0,148704.0,36226.0,46693.0,14953.0,14094.0,19588.0,12542.0,2897.0,1283.0,280.0,148.0
152258,County,2020/02/17,22.0,LA,22095.0,St. John the Baptist Parish,8966.0,34218.0,151091.0,44820.0,40378.0,13779.0,14118.0,19133.0,15312.0,2429.0,655.0,300.0,167.0
155401,County,2020/02/18,22.0,LA,22095.0,St. John the Baptist Parish,6579.0,36605.0,184885.0,54724.0,49385.0,18450.0,16701.0,23131.0,17266.0,3711.0,957.0,426.0,134.0
158644,County,2020/02/19,22.0,LA,22095.0,St. John the Baptist Parish,6262.0,36922.0,186347.0,53541.0,48096.0,17325.0,19407.0,23880.0,19415.0,3069.0,1090.0,340.0,184.0
161840,County,2020/02/20,22.0,LA,22095.0,St. John the Baptist Parish,6466.0,36718.0,171701.0,42820.0,49492.0,16632.0,17634.0,24112.0,15701.0,3698.0,1014.0,449.0,149.0
165034,County,2020/02/21,22.0,LA,22095.0,St. John the Baptist Parish,6737.0,36447.0,203619.0,60334.0,57238.0,19030.0,17270.0,25218.0,19248.0,3484.0,1044.0,602.0,151.0
168178,County,2020/02/22,22.0,LA,22095.0,St. John the Baptist Parish,6376.0,36808.0,194759.0,59254.0,55938.0,17964.0,17284.0,22256.0,17264.0,3324.0,928.0,399.0,148.0
171426,County,2020/02/23,22.0,LA,22095.0,St. John the Baptist Parish,7614.0,35570.0,178092.0,52179.0,55574.0,17770.0,14571.0,19763.0,14466.0,2460.0,707.0,432.0,170.0
173052,County,2020/02/24,22.0,LA,22095.0,St. John the Baptist Parish,7205.0,35979.0,177172.0,52085.0,46232.0,17983.0,15981.0,23551.0,16822.0,3099.0,1044.0,273.0,102.0
176242,County,2020/02/25,22.0,LA,22095.0,St. John the Baptist Parish,6887.0,36297.0,168390.0,48629.0,44749.0,16328.0,14701.0,20038.0,18428.0,4082.0,1125.0,203.0,107.0
180024,County,2020/02/26,22.0,LA,22095.0,St. John the Baptist Parish,6463.0,36721.0,177591.0,48521.0,50418.0,17435.0,14960.0,26213.0,15772.0,2934.0,969.0,256.0,113.0
184191,County,2020/02/27,22.0,LA,22095.0,St. John the Baptist Parish,6528.0,36656.0,184455.0,54056.0,49120.0,17219.0,16731.0,24297.0,17568.0,3937.0,1049.0,350.0,128.0
185918,County,2020/02/28,22.0,LA,22095.0,St. John the Baptist Parish,6540.0,36644.0,197001.0,56735.0,50654.0,17708.0,18858.0,27402.0,20058.0,3798.0,1276.0,360.0,152.0
189019,County,2020/02/29,22.0,LA,22095.0,St. John the Baptist Parish,6692.0,36492.0,196930.0,55254.0,56461.0,17552.0,16639.0,28186.0,18607.0,2717.0,968.0,393.0,153.0
192209,County,2020/03/01,22.0,LA,22095.0,St. John the Baptist Parish,7199.0,35985.0,162543.0,48766.0,43996.0,18144.0,14429.0,20230.0,12557.0,3057.0,973.0,304.0,87.0
197009,County,2020/03/02,22.0,LA,22095.0,St. John the Baptist Parish,6316.0,36868.0,177880.0,51852.0,47050.0,18401.0,16704.0,22154.0,16850.0,3216.0,1074.0,444.0,135.0
198587,County,2020/03/03,22.0,LA,22095.0,St. John the Baptist Parish,6032.0,37152.0,184637.0,58526.0,44793.0,15033.0,18940.0,24458.0,17931.0,3293.0,1217.0,403.0,43.0
203372,County,2020/03/04,22.0,LA,22095.0,St. John the Baptist Parish,6032.0,37152.0,180712.0,54577.0,43171.0,17452.0,18672.0,25440.0,17032.0,3200.0,901.0,204.0,63.0
204937,County,2020/03/05,22.0,LA,22095.0,St. John the Baptist Parish,5678.0,37506.0,193451.0,59235.0,50592.0,19491.0,18032.0,22901.0,18092.0,3465.0,1230.0,350.0,63.0
209789,County,2020/03/06,22.0,LA,22095.0,St. John the Baptist Parish,5699.0,37485.0,192647.0,55287.0,46723.0,18900.0,19806.0,28092.0,18811.0,3510.0,1159.0,295.0,64.0
213021,County,2020/03/07,22.0,LA,22095.0,St. John the Baptist Parish,6149.0,37035.0,180769.0,46291.0,50019.0,18911.0,18473.0,25535.0,16516.0,3174.0,1350.0,415.0,85.0
214572,County,2020/03/08,22.0,LA,22095.0,St. John the Baptist Parish,7207.0,35977.0,168430.0,46520.0,49169.0,15854.0,14797.0,23405.0,14085.0,2998.0,1159.0,332.0,111.0
217774,County,2020/03/09,22.0,LA,22095.0,St. John the Baptist Parish,6203.0,36981.0,185134.0,56428.0,50681.0,16771.0,17646.0,22421.0,17285.0,2642.0,782.0,401.0,77.0
220960,County,2020/03/10,22.0,LA,22095.0,St. John the Baptist Parish,6004.0,37180.0,179073.0,51089.0,44035.0,17743.0,18221.0,24397.0,18572.0,3470.0,1260.0,223.0,63.0
224150,County,2020/03/11,22.0,LA,22095.0,St. John the Baptist Parish,6483.0,36701.0,192373.0,49712.0,49037.0,19407.0,19300.0,30673.0,18811.0,4271.0,705.0,245.0,212.0
227382,County,2020/03/12,22.0,LA,22095.0,St. John the Baptist Parish,6653.0,36531.0,215787.0,66817.0,54501.0,22008.0,20856.0,27795.0,19139.0,2604.0,1447.0,452.0,168.0
230541,County,2020/03/13,22.0,LA,22095.0,St. John the Baptist Parish,6591.0,36593.0,205322.0,58768.0,51137.0,18673.0,25040.0,27471.0,17844.0,4064.0,1878.0,298.0,149.0
233740,County,2020/03/14,22.0,LA,22095.0,St. John the Baptist Parish,7925.0,35259.0,212835.0,59219.0,64027.0,25090.0,16948.0,28540.0,14761.0,2435.0,1179.0,537.0,99.0
236928,County,2020/03/15,22.0,LA,22095.0,St. John the Baptist Parish,8573.0,34611.0,152354.0,40801.0,43845.0,16778.0,16104.0,18250.0,12690.0,2480.0,990.0,402.0,14.0
240122,County,2020/03/16,22.0,LA,22095.0,St. John the Baptist Parish,7546.0,35638.0,190561.0,66575.0,44124.0,16177.0,14850.0,25760.0,17104.0,4092.0,1522.0,311.0,46.0
244928,County,2020/03/17,22.0,LA,22095.0,St. John the Baptist Parish,8410.0,34774.0,163180.0,52248.0,37719.0,15248.0,16095.0,21581.0,14965.0,3739.0,1076.0,439.0,70.0
246508,County,2020/03/18,22.0,LA,22095.0,St. John the Baptist Parish,8961.0,34223.0,168824.0,56076.0,41110.0,13489.0,14379.0,20945.0,16659.0,4163.0,1461.0,484.0,58.0
249714,County,2020/03/19,22.0,LA,22095.0,St. John the Baptist Parish,8678.0,34506.0,159130.0,49171.0,38997.0,15228.0,15415.0,22673.0,13436.0,2599.0,1101.0,450.0,60.0
254466,County,2020/03/20,22.0,LA,22095.0,St. John the Baptist Parish,9152.0,34032.0,165026.0,52806.0,44068.0,17383.0,15072.0,19168.0,11287.0,3518.0,1213.0,487.0,24.0
257658,County,2020/03/21,22.0,LA,22095.0,St. John the Baptist Parish,10232.0,32952.0,148838.0,42558.0,46837.0,16810.0,12660.0,16164.0,9872.0,2745.0,793.0,378.0,21.0
259278,County,2020/03/22,22.0,LA,22095.0,St. John the Baptist Parish,9933.0,33251.0,135369.0,42243.0,42732.0,13672.0,11971.0,16214.0,6189.0,1113.0,1061.0,136.0,38.0
264057,County,2020/03/23,22.0,LA,22095.0,St. John the Baptist Parish,8509.0,34675.0,143435.0,46537.0,35684.0,12872.0,13997.0,18408.0,11914.0,2584.0,984.0,419.0,36.0
265683,County,2020/03/24,22.0,LA,22095.0,St. John the Baptist Parish,8933.0,34251.0,134377.0,40804.0,35633.0,12502.0,13089.0,15778.0,12257.0,2891.0,902.0,463.0,58.0
270436,County,2020/03/25,22.0,LA,22095.0,St. John the Baptist Parish,9190.0,33994.0,132731.0,43043.0,33617.0,10368.0,12910.0,16492.0,11779.0,2870.0,1166.0,405.0,81.0
272062,County,2020/03/26,22.0,LA,22095.0,St. John the Baptist Parish,9035.0,34149.0,139493.0,40598.0,37454.0,15092.0,13801.0,17431.0,11650.0,2397.0,809.0,215.0,46.0
276824,County,2020/03/27,22.0,LA,22095.0,St. John the Baptist Parish,8648.0,34536.0,137513.0,39505.0,36537.0,15787.0,11736.0,17314.0,12431.0,2903.0,856.0,381.0,63.0
278451,County,2020/03/28,22.0,LA,22095.0,St. John the Baptist Parish,9610.0,33574.0,131029.0,37743.0,40299.0,14343.0,11326.0,16080.0,7834.0,2136.0,915.0,275.0,78.0
283211,County,2020/03/29,22.0,LA,22095.0,St. John the Baptist Parish,10956.0,32228.0,112346.0,32594.0,35725.0,11442.0,9589.0,12740.0,6538.0,2374.0,1045.0,264.0,35.0
286437,County,2020/03/30,22.0,LA,22095.0,St. John the Baptist Parish,8892.0,34292.0,125844.0,36499.0,35495.0,11583.0,12244.0,17298.0,9065.0,2498.0,707.0,374.0,81.0
288034,County,2020/03/31,22.0,LA,22095.0,St. John the Baptist Parish,9471.0,33713.0,124338.0,35275.0,34764.0,11902.0,12181.0,15498.0,10634.0,2744.0,853.0,434.0,53.0
291270,County,2020/04/01,22.0,LA,22095.0,St. John the Baptist Parish,8900.0,34284.0,136756.0,40730.0,39409.0,13204.0,11092.0,16865.0,11758.0,2505.0,931.0,211.0,51.0
296002,County,2020/04/02,22.0,LA,22095.0,St. John the Baptist Parish,9581.0,33603.0,133532.0,40340.0,36538.0,12694.0,11613.0,17110.0,11039.0,3021.0,828.0,335.0,14.0
299181,County,2020/04/03,22.0,LA,22095.0,St. John the Baptist Parish,9297.0,33887.0,141051.0,38732.0,43481.0,13141.0,14775.0,16998.0,10198.0,2635.0,870.0,201.0,20.0
300808,County,2020/04/04,22.0,LA,22095.0,St. John the Baptist Parish,9832.0,33352.0,128423.0,37844.0,42243.0,14079.0,9469.0,14315.0,7827.0,1588.0,777.0,216.0,65.0
305562,County,2020/04/05,22.0,LA,22095.0,St. John the Baptist Parish,10791.0,32393.0,117235.0,34048.0,41243.0,12018.0,11046.0,9864.0,7372.0,850.0,421.0,338.0,35.0
308763,County,2020/04/06,22.0,LA,22095.0,St. John the Baptist Parish,9343.0,33841.0,136253.0,42065.0,37194.0,12660.0,11553.0,17229.0,11478.0,3023.0,587.0,370.0,94.0
312002,County,2020/04/07,22.0,LA,22095.0,St. John the Baptist Parish,9112.0,34072.0,136563.0,39484.0,39314.0,13365.0,11599.0,17350.0,11924.0,2406.0,946.0,147.0,28.0
315175,County,2020/04/08,22.0,LA,22095.0,St. John the Baptist Parish,9210.0,33974.0,140490.0,44048.0,40799.0,11051.0,12595.0,18395.0,10144.0,2605.0,612.0,170.0,71.0
318344,County,2020/04/09,22.0,LA,22095.0,St. John the Baptist Parish,9363.0,33821.0,139175.0,40132.0,40875.0,14304.0,12647.0,16695.0,10599.0,2961.0,812.0,123.0,27.0
321539,County,2020/04/10,22.0,LA,22095.0,St. John the Baptist Parish,8925.0,34259.0,132488.0,38773.0,40637.0,13394.0,10636.0,17597.0,8537.0,1977.0,689.0,181.0,67.0
324784,County,2020/04/11,22.0,LA,22095.0,St. John the Baptist Parish,9794.0,33390.0,132079.0,35055.0,42802.0,14120.0,12724.0,17327.0,7674.0,1472.0,688.0,180.0,37.0
326358,County,2020/04/12,22.0,LA,22095.0,St. John the Baptist Parish,11322.0,31862.0,90548.0,24482.0,29222.0,10300.0,8776.0,9838.0,6129.0,895.0,709.0,175.0,22.0
329624,County,2020/04/13,22.0,LA,22095.0,St. John the Baptist Parish,9334.0,33850.0,132800.0,36843.0,33295.0,14225.0,12997.0,19084.0,13304.0,2304.0,546.0,195.0,7.0
334297,County,2020/04/14,22.0,LA,22095.0,St. John the Baptist Parish,9582.0,33602.0,128597.0,32028.0,38174.0,13219.0,12345.0,17697.0,10675.0,2805.0,1235.0,343.0,76.0
337550,County,2020/04/15,22.0,LA,22095.0,St. John the Baptist Parish,9254.0,33930.0,121308.0,38406.0,29533.0,10292.0,11067.0,19414.0,8339.0,2471.0,1427.0,283.0,76.0
339127,County,2020/04/16,22.0,LA,22095.0,St. John the Baptist Parish,9477.0,33707.0,120427.0,32654.0,32150.0,15999.0,10625.0,16115.0,9540.0,2263.0,897.0,110.0,74.0
342427,County,2020/04/17,22.0,LA,22095.0,St. John the Baptist Parish,9326.0,33858.0,128464.0,35480.0,36388.0,13048.0,12572.0,17051.0,10941.0,2307.0,508.0,169.0,0.0
345533,County,2020/04/18,22.0,LA,22095.0,St. John the Baptist Parish,10195.0,32989.0,128016.0,38206.0,38936.0,14928.0,11393.0,15902.0,7328.0,795.0,315.0,116.0,97.0
348705,County,2020/04/19,22.0,LA,22095.0,St. John the Baptist Parish,10647.0,32537.0,98150.0,22661.0,34086.0,10953.0,8877.0,13965.0,4763.0,1721.0,682.0,253.0,189.0
351912,County,2020/04/20,22.0,LA,22095.0,St. John the Baptist Parish,8937.0,34247.0,162358.0,46534.0,50937.0,15697.0,12117.0,19416.0,12692.0,3454.0,1200.0,200.0,111.0
355105,County,2020/04/21,22.0,LA,22095.0,St. John the Baptist Parish,8067.0,35117.0,147049.0,38692.0,44202.0,15791.0,14035.0,18460.0,12240.0,2379.0,973.0,229.0,48.0
358349,County,2020/04/22,22.0,LA,22095.0,St. John the Baptist Parish,8552.0,34632.0,137063.0,42816.0,33558.0,12961.0,11500.0,18798.0,11906.0,4171.0,1059.0,255.0,39.0
363081,County,2020/04/23,22.0,LA,22095.0,St. John the Baptist Parish,9021.0,34163.0,137421.0,41471.0,36785.0,13420.0,11916.0,17739.0,11745.0,2972.0,1037.0,329.0,7.0
366294,County,2020/04/24,22.0,LA,22095.0,St. John the Baptist Parish,7954.0,35230.0,156393.0,45140.0,44054.0,16984.0,13020.0,20727.0,11755.0,3546.0,1020.0,84.0,63.0
369451,County,2020/04/25,22.0,LA,22095.0,St. John the Baptist Parish,8755.0,34429.0,137214.0,35281.0,41858.0,16249.0,11716.0,17651.0,10497.0,2819.0,971.0,135.0,37.0
371040,County,2020/04/26,22.0,LA,22095.0,St. John the Baptist Parish,9702.0,33482.0,133745.0,33456.0,46160.0,15065.0,11684.0,15899.0,8702.0,2105.0,479.0,186.0,9.0
375875,County,2020/04/27,22.0,LA,22095.0,St. John the Baptist Parish,8283.0,34901.0,147554.0,41170.0,45705.0,14956.0,12790.0,17369.0,11674.0,2676.0,982.0,196.0,36.0
379046,County,2020/04/28,22.0,LA,22095.0,St. John the Baptist Parish,8197.0,34987.0,138394.0,42361.0,38500.0,12851.0,11825.0,17964.0,11310.0,2657.0,776.0,113.0,37.0
380673,County,2020/04/29,22.0,LA,22095.0,St. John the Baptist Parish,8598.0,34586.0,127152.0,33695.0,34452.0,12256.0,12560.0,18558.0,12349.0,2455.0,663.0,123.0,41.0
385419,County,2020/04/30,22.0,LA,22095.0,St. John the Baptist Parish,7811.0,35373.0,154586.0,44859.0,44715.0,13688.0,15174.0,20567.0,11903.0,2688.0,831.0,147.0,14.0
388655,County,2020/05/01,22.0,LA,22095.0,St. John the Baptist Parish,8041.0,35143.0,163267.0,42777.0,48168.0,16219.0,15240.0,22429.0,13794.0,3235.0,1204.0,151.0,50.0
391805,County,2020/05/02,22.0,LA,22095.0,St. John the Baptist Parish,8126.0,35058.0,155907.0,46285.0,46339.0,15957.0,13811.0,19886.0,10830.0,1927.0,636.0,236.0,0.0
395000,County,2020/05/03,22.0,LA,22095.0,St. John the Baptist Parish,9173.0,34011.0,129021.0,34183.0,39119.0,13550.0,12815.0,15661.0,10141.0,2566.0,726.0,215.0,45.0
396651,County,2020/05/04,22.0,LA,22095.0,St. John the Baptist Parish,8189.0,34995.0,149389.0,40354.0,36246.0,15521.0,15213.0,22281.0,14473.0,4012.0,1100.0,136.0,53.0
399822,County,2020/05/05,22.0,LA,22095.0,St. John the Baptist Parish,7801.0,35383.0,155563.0,43205.0,44544.0,15049.0,14328.0,21399.0,11978.0,3592.0,1297.0,144.0,27.0
403001,County,2020/05/06,22.0,LA,22095.0,St. John the Baptist Parish,8087.0,35097.0,147409.0,41585.0,37723.0,15381.0,15224.0,18479.0,14552.0,2901.0,1400.0,123.0,41.0
407720,County,2020/05/07,22.0,LA,22095.0,St. John the Baptist Parish,7842.0,35342.0,155038.0,43729.0,43044.0,14408.0,15515.0,20575.0,13317.0,3261.0,790.0,339.0,60.0
409508,County,2020/05/08,22.0,LA,22095.0,St. John the Baptist Parish,8497.0,34687.0,144517.0,38634.0,40235.0,15401.0,14035.0,18302.0,13247.0,3315.0,1058.0,243.0,47.0
412562,County,2020/05/09,22.0,LA,22095.0,St. John the Baptist Parish,8636.0,34548.0,147569.0,37306.0,48745.0,16779.0,12576.0,18313.0,11006.0,1962.0,627.0,232.0,23.0
415793,County,2020/05/10,22.0,LA,22095.0,St. John the Baptist Parish,8801.0,34383.0,140702.0,38781.0,45226.0,14626.0,12058.0,15320.0,11129.0,2883.0,531.0,123.0,25.0
418986,County,2020/05/11,22.0,LA,22095.0,St. John the Baptist Parish,6954.0,36230.0,167148.0,52508.0,43845.0,16171.0,13477.0,21937.0,14906.0,2476.0,1410.0,376.0,42.0
423843,County,2020/05/12,22.0,LA,22095.0,St. John the Baptist Parish,6993.0,36191.0,171331.0,53229.0,48015.0,15845.0,14223.0,19029.0,16580.0,2721.0,1320.0,281.0,88.0
426891,County,2020/05/13,22.0,LA,22095.0,St. John the Baptist Parish,6891.0,36293.0,164787.0,51270.0,46638.0,14798.0,14024.0,20462.0,12095.0,2893.0,1966.0,523.0,118.0
428617,County,2020/05/14,22.0,LA,22095.0,St. John the Baptist Parish,7049.0,36135.0,159241.0,56316.0,38075.0,11757.0,13277.0,20240.0,15103.0,2679.0,1327.0,390.0,77.0
433309,County,2020/05/15,22.0,LA,22095.0,St. John the Baptist Parish,6910.0,36274.0,166152.0,53680.0,45319.0,17844.0,12419.0,18875.0,13114.0,2855.0,1493.0,509.0,44.0
436513,County,2020/05/16,22.0,LA,22095.0,St. John the Baptist Parish,7310.0,35874.0,168102.0,54185.0,51487.0,17306.0,11693.0,18020.0,10500.0,3011.0,1374.0,439.0,87.0
439670,County,2020/05/17,22.0,LA,22095.0,St. John the Baptist Parish,7619.0,35565.0,148777.0,44024.0,41340.0,16544.0,12965.0,17955.0,11740.0,2621.0,1385.0,128.0,75.0
442960,County,2020/05/18,22.0,LA,22095.0,St. John the Baptist Parish,6113.0,37071.0,169891.0,47803.0,44947.0,16299.0,18103.0,23777.0,13197.0,3858.0,1617.0,245.0,45.0
446123,County,2020/05/19,22.0,LA,22095.0,St. John the Baptist Parish,5668.0,37516.0,175498.0,54312.0,44674.0,18556.0,15680.0,22709.0,14397.0,3887.0,969.0,269.0,45.0
449300,County,2020/05/20,22.0,LA,22095.0,St. John the Baptist Parish,5151.0,38033.0,173979.0,48806.0,49176.0,20336.0,14626.0,22104.0,13395.0,3788.0,1317.0,366.0,65.0
450926,County,2020/05/21,22.0,LA,22095.0,St. John the Baptist Parish,5338.0,37846.0,180959.0,55374.0,49216.0,17837.0,16297.0,21477.0,15420.0,3971.0,1196.0,128.0,43.0
454113,County,2020/05/22,22.0,LA,22095.0,St. John the Baptist Parish,5587.0,37597.0,189743.0,60198.0,53541.0,18204.0,14600.0,22030.0,15473.0,4413.0,852.0,399.0,33.0
458896,County,2020/05/23,22.0,LA,22095.0,St. John the Baptist Parish,6338.0,36846.0,172145.0,47358.0,54766.0,18149.0,13618.0,23467.0,10218.0,2841.0,1268.0,366.0,94.0
462052,County,2020/05/24,22.0,LA,22095.0,St. John the Baptist Parish,8437.0,34747.0,135310.0,38637.0,46998.0,14392.0,10248.0,12956.0,8793.0,2047.0,919.0,255.0,65.0
465354,County,2020/05/25,22.0,LA,22095.0,St. John the Baptist Parish,8527.0,34657.0,126424.0,34639.0,42966.0,12273.0,9142.0,12763.0,11816.0,1591.0,836.0,345.0,53.0
466833,County,2020/05/26,22.0,LA,22095.0,St. John the Baptist Parish,7490.0,35694.0,135497.0,38075.0,44320.0,12330.0,11177.0,14926.0,11257.0,2058.0,988.0,275.0,91.0
471701,County,2020/05/27,22.0,LA,22095.0,St. John the Baptist Parish,7258.0,35926.0,157361.0,49628.0,42655.0,15468.0,12841.0,19851.0,13405.0,2394.0,744.0,310.0,65.0
474801,County,2020/05/28,22.0,LA,22095.0,St. John the Baptist Parish,7191.0,35993.0,161367.0,50992.0,40740.0,16066.0,13826.0,20695.0,14381.0,3341.0,975.0,285.0,66.0
478040,County,2020/05/29,22.0,LA,22095.0,St. John the Baptist Parish,7819.0,35365.0,154544.0,45469.0,41120.0,15153.0,13942.0,21188.0,13287.0,2834.0,1266.0,214.0,71.0
481240,County,2020/05/30,22.0,LA,22095.0,St. John the Baptist Parish,8421.0,34763.0,155428.0,44379.0,44133.0,17044.0,14589.0,18863.0,12121.0,3450.0,561.0,257.0,31.0
482794,County,2020/05/31,22.0,LA,22095.0,St. John the Baptist Parish,8287.0,34897.0,140795.0,39293.0,44303.0,14065.0,12013.0,16906.0,10322.0,2093.0,1347.0,355.0,98.0
487734,County,2020/06/01,22.0,LA,22095.0,St. John the Baptist Parish,7001.0,36183.0,156505.0,49182.0,41432.0,15826.0,12774.0,18814.0,13762.0,3427.0,954.0,273.0,61.0
489302,County,2020/06/02,22.0,LA,22095.0,St. John the Baptist Parish,7553.0,35631.0,165034.0,53846.0,40656.0,13968.0,15859.0,20181.0,15143.0,3432.0,1529.0,364.0,56.0
492423,County,2020/06/03,22.0,LA,22095.0,St. John the Baptist Parish,6480.0,36704.0,174951.0,58924.0,42811.0,16189.0,15067.0,21198.0,15832.0,2958.0,1538.0,326.0,108.0
495633,County,2020/06/04,22.0,LA,22095.0,St. John the Baptist Parish,6371.0,36813.0,170779.0,54311.0,43091.0,14257.0,14567.0,22564.0,16063.0,3810.0,1585.0,475.0,56.0
500409,County,2020/06/05,22.0,LA,22095.0,St. John the Baptist Parish,6783.0,36401.0,175897.0,51777.0,45479.0,19266.0,15444.0,22837.0,15340.0,3895.0,1548.0,277.0,34.0
503610,County,2020/06/06,22.0,LA,22095.0,St. John the Baptist Parish,7725.0,35459.0,151121.0,44424.0,42340.0,16770.0,11915.0,20719.0,10699.0,2900.0,1117.0,160.0,77.0
506760,County,2020/06/07,22.0,LA,22095.0,St. John the Baptist Parish,10592.0,32592.0,112785.0,29923.0,40144.0,11729.0,9640.0,13505.0,5406.0,1007.0,1022.0,285.0,124.0
508399,County,2020/06/08,22.0,LA,22095.0,St. John the Baptist Parish,7866.0,35318.0,148123.0,43565.0,43189.0,14200.0,12501.0,19572.0,11701.0,2079.0,1048.0,236.0,32.0
513176,County,2020/06/09,22.0,LA,22095.0,St. John the Baptist Parish,7264.0,35920.0,150468.0,49150.0,38169.0,13205.0,12699.0,17726.0,15124.0,3012.0,1006.0,312.0,65.0
516430,County,2020/06/10,22.0,LA,22095.0,St. John the Baptist Parish,7578.0,35606.0,165216.0,57336.0,42807.0,13751.0,13763.0,19548.0,13936.0,2928.0,798.0,282.0,67.0
519538,County,2020/06/11,22.0,LA,22095.0,St. John the Baptist Parish,7009.0,36175.0,162500.0,50745.0,43578.0,14618.0,12676.0,21098.0,15359.0,3085.0,995.0,263.0,83.0
521213,County,2020/06/12,22.0,LA,22095.0,St. John the Baptist Parish,7106.0,36078.0,162268.0,46029.0,45016.0,15384.0,15217.0,20644.0,15513.0,3277.0,880.0,264.0,44.0
524389,County,2020/06/13,22.0,LA,22095.0,St. John the Baptist Parish,7573.0,35611.0,167492.0,45419.0,51144.0,15943.0,16365.0,20133.0,14152.0,3013.0,1067.0,160.0,96.0
529152,County,2020/06/14,22.0,LA,22095.0,St. John the Baptist Parish,7841.0,35343.0,144066.0,42355.0,44335.0,14924.0,11476.0,16144.0,10347.0,2860.0,1259.0,283.0,83.0
530781,County,2020/06/15,22.0,LA,22095.0,St. John the Baptist Parish,6901.0,36283.0,160292.0,49109.0,39114.0,14050.0,14267.0,22001.0,16037.0,3809.0,1449.0,380.0,76.0
533971,County,2020/06/16,22.0,LA,22095.0,St. John the Baptist Parish,7182.0,36002.0,172009.0,57723.0,40732.0,16793.0,16534.0,20738.0,14377.0,3566.0,1163.0,315.0,68.0
537165,County,2020/06/17,22.0,LA,22095.0,St. John the Baptist Parish,6771.0,36413.0,179284.0,56902.0,46886.0,15651.0,14089.0,24106.0,17401.0,2616.0,1324.0,256.0,53.0
540360,County,2020/06/18,22.0,LA,22095.0,St. John the Baptist Parish,6514.0,36670.0,171300.0,54363.0,43290.0,16979.0,15637.0,21787.0,15211.0,2707.0,866.0,388.0,72.0
543552,County,2020/06/19,22.0,LA,22095.0,St. John the Baptist Parish,6786.0,36398.0,168058.0,47142.0,46208.0,15893.0,14523.0,23908.0,14601.0,3976.0,1341.0,419.0,47.0
546757,County,2020/06/20,22.0,LA,22095.0,St. John the Baptist Parish,7109.0,36075.0,169141.0,50378.0,50005.0,14977.0,13861.0,20978.0,13648.0,3264.0,1718.0,260.0,52.0
551500,County,2020/06/21,22.0,LA,22095.0,St. John the Baptist Parish,8414.0,34770.0,130957.0,33760.0,42295.0,15481.0,8963.0,16438.0,10839.0,1887.0,1038.0,192.0,64.0
553137,County,2020/06/22,22.0,LA,22095.0,St. John the Baptist Parish,7395.0,35789.0,143026.0,44103.0,37897.0,13055.0,13508.0,17008.0,13344.0,2981.0,890.0,180.0,60.0
557896,County,2020/06/23,22.0,LA,22095.0,St. John the Baptist Parish,7283.0,35901.0,154573.0,52737.0,38395.0,15150.0,13353.0,17194.0,13500.0,2922.0,924.0,287.0,111.0
559528,County,2020/06/24,22.0,LA,22095.0,St. John the Baptist Parish,7348.0,35836.0,133682.0,38898.0,34156.0,12471.0,13701.0,16502.0,14568.0,2294.0,676.0,316.0,100.0
564265,County,2020/06/25,22.0,LA,22095.0,St. John the Baptist Parish,7211.0,35973.0,156289.0,50627.0,38900.0,13701.0,14524.0,18888.0,15047.0,3567.0,729.0,249.0,57.0
565971,County,2020/06/26,22.0,LA,22095.0,St. John the Baptist Parish,7315.0,35869.0,153381.0,45629.0,37562.0,17225.0,13573.0,18737.0,15974.0,2976.0,1379.0,277.0,49.0
570662,County,2020/06/27,22.0,LA,22095.0,St. John the Baptist Parish,7141.0,36043.0,167777.0,52761.0,43885.0,17863.0,13608.0,21257.0,13808.0,2960.0,1410.0,142.0,83.0
572300,County,2020/06/28,22.0,LA,22095.0,St. John the Baptist Parish,8356.0,34828.0,138409.0,36577.0,42225.0,14530.0,13359.0,16036.0,11685.0,2475.0,1226.0,208.0,88.0
577073,County,2020/06/29,22.0,LA,22095.0,St. John the Baptist Parish,7395.0,35789.0,159108.0,47001.0,43137.0,17363.0,14184.0,19139.0,14016.0,2877.0,905.0,402.0,84.0
580274,County,2020/06/30,22.0,LA,22095.0,St. John the Baptist Parish,7350.0,35834.0,154139.0,49052.0,39272.0,15563.0,13930.0,17211.0,14828.0,2814.0,1032.0,344.0,93.0
583467,County,2020/07/01,22.0,LA,22095.0,St. John the Baptist Parish,7455.0,35729.0,155923.0,47644.0,42665.0,15382.0,12387.0,19712.0,13433.0,3037.0,1318.0,271.0,74.0
586656,County,2020/07/02,22.0,LA,22095.0,St. John the Baptist Parish,8362.0,34822.0,165887.0,53736.0,41289.0,14542.0,15416.0,20048.0,15971.0,3786.0,774.0,264.0,61.0
589858,County,2020/07/03,22.0,LA,22095.0,St. John the Baptist Parish,8858.0,34326.0,152516.0,45372.0,37350.0,17128.0,13497.0,18631.0,15884.0,2959.0,1371.0,275.0,49.0
593044,County,2020/07/04,22.0,LA,22095.0,St. John the Baptist Parish,9703.0,33481.0,130483.0,38817.0,31954.0,14653.0,11547.0,15940.0,13589.0,2532.0,1173.0,236.0,42.0
594693,County,2020/07/05,22.0,LA,22095.0,St. John the Baptist Parish,8806.0,34378.0,125672.0,34929.0,40213.0,12991.0,11141.0,13898.0,8379.0,2726.0,1013.0,292.0,90.0
599369,County,2020/07/06,22.0,LA,22095.0,St. John the Baptist Parish,8683.0,34501.0,142670.0,44299.0,38183.0,14598.0,10924.0,17005.0,14125.0,2352.0,747.0,315.0,122.0
601044,County,2020/07/07,22.0,LA,22095.0,St. John the Baptist Parish,7906.0,35278.0,141570.0,40942.0,39765.0,12192.0,14037.0,17005.0,14012.0,2750.0,481.0,267.0,119.0
604236,County,2020/07/08,22.0,LA,22095.0,St. John the Baptist Parish,7998.0,35186.0,143096.0,39460.0,37692.0,14352.0,14718.0,19243.0,13893.0,2315.0,962.0,393.0,68.0
609008,County,2020/07/09,22.0,LA,22095.0,St. John the Baptist Parish,8027.0,35157.0,148957.0,44343.0,40406.0,13583.0,13961.0,19281.0,14175.0,2092.0,761.0,298.0,57.0
610631,County,2020/07/10,22.0,LA,22095.0,St. John the Baptist Parish,7978.0,35206.0,147819.0,45075.0,38152.0,13805.0,12727.0,18777.0,15064.0,2804.0,1013.0,322.0,80.0
615429,County,2020/07/11,22.0,LA,22095.0,St. John the Baptist Parish,8607.0,34577.0,143512.0,43518.0,40023.0,14376.0,12386.0,17547.0,11961.0,2052.0,1355.0,169.0,125.0
617014,County,2020/07/12,22.0,LA,22095.0,St. John the Baptist Parish,9003.0,34181.0,129494.0,34047.0,43574.0,12086.0,10437.0,16506.0,9664.0,2035.0,778.0,295.0,72.0
621773,County,2020/07/13,22.0,LA,22095.0,St. John the Baptist Parish,8251.0,34933.0,141588.0,38412.0,40813.0,12837.0,14190.0,18936.0,13477.0,1756.0,812.0,242.0,113.0
623403,County,2020/07/14,22.0,LA,22095.0,St. John the Baptist Parish,7536.0,35648.0,153644.0,49368.0,39142.0,14593.0,14010.0,18630.0,15062.0,1759.0,747.0,246.0,87.0
628141,County,2020/07/15,22.0,LA,22095.0,St. John the Baptist Parish,8349.0,34835.0,146035.0,44938.0,39254.0,13526.0,14035.0,17063.0,14250.0,2146.0,539.0,221.0,63.0
629767,County,2020/07/16,22.0,LA,22095.0,St. John the Baptist Parish,8069.0,35115.0,138307.0,38284.0,33323.0,16112.0,12765.0,20646.0,13663.0,2604.0,641.0,194.0,75.0
634501,County,2020/07/17,22.0,LA,22095.0,St. John the Baptist Parish,8324.0,34860.0,152836.0,46439.0,38951.0,16154.0,13350.0,19202.0,14421.0,2972.0,1122.0,173.0,52.0
637753,County,2020/07/18,22.0,LA,22095.0,St. John the Baptist Parish,8752.0,34432.0,143427.0,40638.0,39545.0,15050.0,13604.0,19328.0,11925.0,2373.0,620.0,162.0,182.0
640955,County,2020/07/19,22.0,LA,22095.0,St. John the Baptist Parish,9634.0,33550.0,123184.0,34523.0,32800.0,14077.0,12826.0,16088.0,9629.0,1926.0,1010.0,250.0,55.0
642568,County,2020/07/20,22.0,LA,22095.0,St. John the Baptist Parish,8271.0,34913.0,140271.0,39112.0,37035.0,13495.0,12931.0,19595.0,14830.0,2438.0,585.0,163.0,87.0
647808,County,2020/07/21,22.0,LA,22095.0,St. John the Baptist Parish,8133.0,35051.0,148479.0,44272.0,37428.0,16020.0,13766.0,19268.0,14203.0,2561.0,546.0,334.0,81.0
650521,County,2020/07/22,22.0,LA,22095.0,St. John the Baptist Parish,8124.0,35060.0,143317.0,40934.0,36247.0,15701.0,14182.0,18630.0,14229.0,2422.0,603.0,291.0,78.0
653715,County,2020/07/23,22.0,LA,22095.0,St. John the Baptist Parish,8154.0,35030.0,137556.0,34956.0,34922.0,15395.0,14672.0,20390.0,13656.0,2317.0,939.0,269.0,40.0
655186,County,2020/07/24,22.0,LA,22095.0,St. John the Baptist Parish,8224.0,34960.0,143652.0,40164.0,35300.0,14599.0,13873.0,21180.0,14371.0,2748.0,1056.0,241.0,120.0
658532,County,2020/07/25,22.0,LA,22095.0,St. John the Baptist Parish,9050.0,34134.0,130396.0,33183.0,37064.0,14590.0,13739.0,15548.0,12561.0,2396.0,981.0,281.0,53.0
661730,County,2020/07/26,22.0,LA,22095.0,St. John the Baptist Parish,9814.0,33370.0,127243.0,30330.0,32766.0,15967.0,11162.0,19126.0,12936.0,3106.0,1355.0,346.0,149.0
665026,County,2020/07/27,22.0,LA,22095.0,St. John the Baptist Parish,9009.0,34175.0,141196.0,35552.0,35873.0,12535.0,14436.0,22310.0,15878.0,2870.0,1263.0,368.0,111.0
669762,County,2020/07/28,22.0,LA,22095.0,St. John the Baptist Parish,8385.0,34799.0,143836.0,38613.0,33344.0,11671.0,14752.0,22311.0,17587.0,4071.0,1011.0,337.0,139.0
672975,County,2020/07/29,22.0,LA,22095.0,St. John the Baptist Parish,8741.0,34443.0,149448.0,43238.0,37159.0,13263.0,15427.0,20762.0,15297.0,3044.0,897.0,275.0,86.0
676056,County,2020/07/30,22.0,LA,22095.0,St. John the Baptist Parish,8217.0,34967.0,154995.0,44666.0,38582.0,14687.0,14512.0,21925.0,15768.0,3132.0,1303.0,330.0,90.0
677707,County,2020/07/31,22.0,LA,22095.0,St. John the Baptist Parish,8404.0,34780.0,149418.0,38541.0,37096.0,15916.0,13729.0,23160.0,15766.0,3335.0,1327.0,486.0,62.0
680865,County,2020/08/01,22.0,LA,22095.0,St. John the Baptist Parish,9409.0,33775.0,138649.0,34875.0,38807.0,12908.0,14472.0,18478.0,14652.0,3044.0,877.0,427.0,109.0
684088,County,2020/08/02,22.0,LA,22095.0,St. John the Baptist Parish,9506.0,33678.0,136035.0,36227.0,39653.0,12306.0,10930.0,19587.0,13396.0,2669.0,788.0,354.0,125.0
687284,County,2020/08/03,22.0,LA,22095.0,St. John the Baptist Parish,8062.0,35122.0,152728.0,35952.0,43464.0,15105.0,14618.0,23574.0,16105.0,2556.0,992.0,239.0,123.0
692059,County,2020/08/04,22.0,LA,22095.0,St. John the Baptist Parish,7394.0,35790.0,158579.0,42926.0,43536.0,18261.0,14191.0,20459.0,15823.0,2009.0,1045.0,173.0,156.0
695236,County,2020/08/05,22.0,LA,22095.0,St. John the Baptist Parish,7929.0,35255.0,162398.0,46457.0,44782.0,18545.0,14716.0,20324.0,13934.0,2430.0,803.0,297.0,110.0
698431,County,2020/08/06,22.0,LA,22095.0,St. John the Baptist Parish,7673.0,35511.0,163062.0,47852.0,40600.0,16582.0,16663.0,22289.0,15705.0,2127.0,849.0,309.0,86.0
701626,County,2020/08/07,22.0,LA,22095.0,St. John the Baptist Parish,7378.0,35806.0,157983.0,43798.0,40255.0,15883.0,15085.0,22285.0,16647.0,2930.0,786.0,236.0,78.0
703255,County,2020/08/08,22.0,LA,22095.0,St. John the Baptist Parish,8110.0,35074.0,139314.0,35264.0,39417.0,13922.0,13700.0,20872.0,12311.0,2737.0,750.0,246.0,95.0
708037,County,2020/08/09,22.0,LA,22095.0,St. John the Baptist Parish,9179.0,34005.0,134629.0,35419.0,37903.0,14237.0,12245.0,19979.0,10740.0,2831.0,860.0,332.0,83.0
709667,County,2020/08/10,22.0,LA,22095.0,St. John the Baptist Parish,8258.0,34926.0,140382.0,34022.0,33058.0,17600.0,14001.0,21532.0,16580.0,2178.0,895.0,374.0,142.0
712835,County,2020/08/11,22.0,LA,22095.0,St. John the Baptist Parish,7782.0,35402.0,148656.0,37541.0,38015.0,15664.0,13928.0,21623.0,17921.0,2895.0,789.0,185.0,95.0
716029,County,2020/08/12,22.0,LA,22095.0,St. John the Baptist Parish,7816.0,35368.0,137741.0,30694.0,38287.0,14564.0,14669.0,20682.0,15311.0,2350.0,620.0,392.0,172.0
720789,County,2020/08/13,22.0,LA,22095.0,St. John the Baptist Parish,7673.0,35511.0,133532.0,30365.0,33319.0,15008.0,12460.0,20551.0,17180.0,3091.0,1035.0,326.0,197.0
722416,County,2020/08/14,22.0,LA,22095.0,St. John the Baptist Parish,7582.0,35602.0,152293.0,35920.0,39231.0,15069.0,15022.0,22530.0,18872.0,3358.0,1600.0,468.0,223.0
725646,County,2020/08/15,22.0,LA,22095.0,St. John the Baptist Parish,8110.0,35074.0,149565.0,38609.0,41157.0,15946.0,14026.0,20498.0,14885.0,2607.0,1211.0,443.0,183.0
728805,County,2020/08/16,22.0,LA,22095.0,St. John the Baptist Parish,9610.0,33574.0,128228.0,27310.0,35009.0,15162.0,11987.0,19762.0,14092.0,3389.0,980.0,252.0,285.0
733586,County,2020/08/17,22.0,LA,22095.0,St. John the Baptist Parish,8858.0,34326.0,141313.0,39045.0,35420.0,15011.0,13852.0,17946.0,15423.0,2904.0,883.0,508.0,321.0
736759,County,2020/08/18,22.0,LA,22095.0,St. John the Baptist Parish,8599.0,34585.0,142237.0,34695.0,35866.0,16452.0,13101.0,21061.0,16636.0,2654.0,1039.0,415.0,318.0
739953,County,2020/08/19,22.0,LA,22095.0,St. John the Baptist Parish,8000.0,35184.0,151913.0,40515.0,36245.0,15004.0,15893.0,21086.0,17888.0,3585.0,947.0,444.0,306.0
741581,County,2020/08/20,22.0,LA,22095.0,St. John the Baptist Parish,8095.0,35089.0,156068.0,40753.0,40211.0,15240.0,14203.0,22905.0,17254.0,3512.0,1253.0,435.0,302.0
744780,County,2020/08/21,22.0,LA,22095.0,St. John the Baptist Parish,7362.0,35822.0,167511.0,44080.0,43592.0,18103.0,16002.0,22371.0,18292.0,3097.0,1246.0,426.0,302.0
747986,County,2020/08/22,22.0,LA,22095.0,St. John the Baptist Parish,8549.0,34635.0,159933.0,39592.0,44079.0,17640.0,15893.0,22459.0,16285.0,2649.0,729.0,344.0,263.0
752731,County,2020/08/23,22.0,LA,22095.0,St. John the Baptist Parish,9665.0,33519.0,125382.0,31989.0,36716.0,15201.0,11174.0,15062.0,11413.0,2387.0,905.0,244.0,291.0
754402,County,2020/08/24,22.0,LA,22095.0,St. John the Baptist Parish,9972.0,33212.0,117831.0,32882.0,32211.0,11760.0,10559.0,14547.0,11839.0,2742.0,697.0,310.0,284.0
757551,County,2020/08/25,22.0,LA,22095.0,St. John the Baptist Parish,9491.0,33693.0,121592.0,34165.0,32685.0,11851.0,10970.0,15231.0,12883.0,2308.0,930.0,330.0,239.0
760745,County,2020/08/26,22.0,LA,22095.0,St. John the Baptist Parish,9368.0,33816.0,123049.0,31821.0,31447.0,12175.0,10722.0,19042.0,13161.0,3155.0,1067.0,275.0,184.0
765518,County,2020/08/27,22.0,LA,22095.0,St. John the Baptist Parish,9731.0,33453.0,119229.0,30915.0,30396.0,12501.0,9784.0,19552.0,12372.0,2358.0,1038.0,231.0,82.0
767110,County,2020/08/28,22.0,LA,22095.0,St. John the Baptist Parish,8785.0,34399.0,135726.0,36294.0,32995.0,14923.0,11721.0,19210.0,15124.0,3789.0,1276.0,306.0,88.0
771885,County,2020/08/29,22.0,LA,22095.0,St. John the Baptist Parish,9453.0,33731.0,133390.0,33131.0,34981.0,14551.0,11913.0,18912.0,15745.0,2656.0,1111.0,292.0,98.0
773520,County,2020/08/30,22.0,LA,22095.0,St. John the Baptist Parish,9677.0,33507.0,113286.0,24290.0,32759.0,12248.0,10912.0,15199.0,12860.0,3205.0,1205.0,434.0,174.0
776711,County,2020/08/31,22.0,LA,22095.0,St. John the Baptist Parish,8707.0,34477.0,137039.0,36758.0,33089.0,14339.0,13006.0,18427.0,17031.0,2848.0,984.0,434.0,123.0
781492,County,2020/09/01,22.0,LA,22095.0,St. John the Baptist Parish,8607.0,34577.0,146336.0,40827.0,36042.0,15603.0,12842.0,20293.0,16178.0,2817.0,1250.0,355.0,129.0
783098,County,2020/09/02,22.0,LA,22095.0,St. John the Baptist Parish,7905.0,35279.0,141855.0,37742.0,35062.0,13557.0,14405.0,20093.0,17199.0,2175.0,1085.0,467.0,70.0
786247,County,2020/09/03,22.0,LA,22095.0,St. John the Baptist Parish,7595.0,35589.0,156146.0,46640.0,37249.0,13154.0,13193.0,21834.0,19100.0,3300.0,1142.0,404.0,130.0
791077,County,2020/09/04,22.0,LA,22095.0,St. John the Baptist Parish,8173.0,35011.0,152385.0,39749.0,38682.0,15310.0,15545.0,21898.0,16403.0,2662.0,1639.0,398.0,99.0
792582,County,2020/09/05,22.0,LA,22095.0,St. John the Baptist Parish,8755.0,34429.0,148513.0,39568.0,36979.0,14458.0,16518.0,19488.0,16914.0,3000.0,975.0,433.0,180.0
795870,County,2020/09/06,22.0,LA,22095.0,St. John the Baptist Parish,9418.0,33766.0,125823.0,32766.0,34374.0,13425.0,11217.0,17427.0,12054.0,2705.0,1102.0,549.0,204.0
799080,County,2020/09/07,22.0,LA,22095.0,St. John the Baptist Parish,9955.0,33229.0,124514.0,29636.0,38475.0,13269.0,9638.0,15872.0,12179.0,3528.0,1285.0,513.0,119.0
803833,County,2020/09/08,22.0,LA,22095.0,St. John the Baptist Parish,8411.0,34773.0,152840.0,43361.0,38262.0,15726.0,13796.0,21697.0,14632.0,3309.0,1347.0,599.0,111.0
805460,County,2020/09/09,22.0,LA,22095.0,St. John the Baptist Parish,8382.0,34802.0,156626.0,42242.0,36924.0,14503.0,15463.0,23065.0,18469.0,3630.0,1737.0,516.0,77.0
810229,County,2020/09/10,22.0,LA,22095.0,St. John the Baptist Parish,8086.0,35098.0,149869.0,39086.0,37029.0,15881.0,14679.0,20725.0,17525.0,3127.0,1338.0,323.0,156.0
811858,County,2020/09/11,22.0,LA,22095.0,St. John the Baptist Parish,7901.0,35283.0,160274.0,40228.0,39236.0,18119.0,14872.0,23561.0,18235.0,4345.0,1153.0,427.0,98.0
816609,County,2020/09/12,22.0,LA,22095.0,St. John the Baptist Parish,8516.0,34668.0,132950.0,32191.0,35881.0,14705.0,11253.0,21121.0,13786.0,2427.0,1135.0,352.0,99.0
818216,County,2020/09/13,22.0,LA,22095.0,St. John the Baptist Parish,9484.0,33700.0,128554.0,29815.0,37455.0,13288.0,10493.0,18514.0,13905.0,3209.0,1364.0,379.0,132.0
822997,County,2020/09/14,22.0,LA,22095.0,St. John the Baptist Parish,8769.0,34415.0,140759.0,36330.0,36500.0,13363.0,13086.0,20727.0,15401.0,3425.0,1245.0,535.0,147.0
824625,County,2020/09/15,22.0,LA,22095.0,St. John the Baptist Parish,9481.0,33703.0,125526.0,32126.0,32695.0,13444.0,11100.0,17140.0,14103.0,3193.0,1116.0,500.0,109.0
829432,County,2020/09/16,22.0,LA,22095.0,St. John the Baptist Parish,8541.0,34643.0,144748.0,38738.0,35266.0,14578.0,14437.0,20029.0,17180.0,2743.0,1143.0,464.0,170.0
831012,County,2020/09/17,22.0,LA,22095.0,St. John the Baptist Parish,8484.0,34700.0,148380.0,36754.0,37705.0,14711.0,13801.0,21021.0,19276.0,3310.0,1179.0,495.0,128.0
835773,County,2020/09/18,22.0,LA,22095.0,St. John the Baptist Parish,8455.0,34729.0,150586.0,38526.0,36795.0,15633.0,14935.0,21230.0,18166.0,3380.0,1351.0,391.0,179.0
837401,County,2020/09/19,22.0,LA,22095.0,St. John the Baptist Parish,9028.0,34156.0,135486.0,30201.0,38854.0,15214.0,12752.0,18917.0,14835.0,2827.0,1481.0,268.0,137.0
842176,County,2020/09/20,22.0,LA,22095.0,St. John the Baptist Parish,9667.0,33517.0,110119.0,28215.0,33104.0,10868.0,10827.0,13519.0,10042.0,2332.0,740.0,395.0,77.0
845381,County,2020/09/21,22.0,LA,22095.0,St. John the Baptist Parish,8782.0,34402.0,126386.0,38342.0,31661.0,10933.0,11373.0,15342.0,14835.0,2652.0,919.0,191.0,138.0
848549,County,2020/09/22,22.0,LA,22095.0,St. John the Baptist Parish,8105.0,35079.0,142768.0,44398.0,32678.0,13151.0,13381.0,19424.0,16295.0,2266.0,761.0,367.0,47.0
850176,County,2020/09/23,22.0,LA,22095.0,St. John the Baptist Parish,7669.0,35515.0,134864.0,37679.0,33086.0,12413.0,12615.0,19206.0,16696.0,2106.0,632.0,351.0,80.0
854942,County,2020/09/24,22.0,LA,22095.0,St. John the Baptist Parish,8115.0,35069.0,131859.0,33850.0,32767.0,12678.0,13405.0,19084.0,15469.0,2873.0,1265.0,382.0,86.0
856571,County,2020/09/25,22.0,LA,22095.0,St. John the Baptist Parish,7170.0,36014.0,146957.0,37113.0,39569.0,14456.0,13850.0,22677.0,14897.0,2985.0,999.0,355.0,56.0
859758,County,2020/09/26,22.0,LA,22095.0,St. John the Baptist Parish,7845.0,35339.0,143665.0,39473.0,36312.0,12799.0,13110.0,21510.0,16337.0,3261.0,718.0,73.0,72.0
864505,County,2020/09/27,22.0,LA,22095.0,St. John the Baptist Parish,8323.0,34861.0,121632.0,27659.0,35195.0,14239.0,11261.0,16120.0,12513.0,3117.0,1013.0,436.0,79.0
867713,County,2020/09/28,22.0,LA,22095.0,St. John the Baptist Parish,7848.0,35336.0,146992.0,42809.0,32464.0,13895.0,15437.0,20483.0,17674.0,3057.0,844.0,301.0,28.0
869340,County,2020/09/29,22.0,LA,22095.0,St. John the Baptist Parish,7923.0,35261.0,147893.0,45525.0,34432.0,14536.0,15771.0,17919.0,15457.0,3277.0,702.0,241.0,33.0
874119,County,2020/09/30,22.0,LA,22095.0,St. John the Baptist Parish,7575.0,35609.0,158503.0,43738.0,39748.0,13547.0,16469.0,21879.0,18725.0,3513.0,718.0,128.0,38.0
877274,County,2020/10/01,22.0,LA,22095.0,St. John the Baptist Parish,7506.0,35678.0,161082.0,48499.0,40309.0,15813.0,15702.0,21068.0,15660.0,2946.0,794.0,257.0,34.0
880489,County,2020/10/02,22.0,LA,22095.0,St. John the Baptist Parish,7800.0,35384.0,156572.0,44674.0,37001.0,15319.0,15335.0,22577.0,16512.0,3866.0,944.0,330.0,14.0
882117,County,2020/10/03,22.0,LA,22095.0,St. John the Baptist Parish,8451.0,34733.0,153449.0,43523.0,41310.0,14249.0,14285.0,19944.0,15912.0,3238.0,752.0,216.0,20.0
885830,County,2020/10/04,22.0,LA,22095.0,St. John the Baptist Parish,9251.0,33933.0,116203.0,22048.0,34519.0,14037.0,12568.0,17716.0,11987.0,2120.0,926.0,247.0,35.0
889076,County,2020/10/05,22.0,LA,22095.0,St. John the Baptist Parish,9198.0,33986.0,147574.0,38984.0,37492.0,14911.0,14760.0,21156.0,16267.0,3420.0,447.0,121.0,16.0
892281,County,2020/10/06,22.0,LA,22095.0,St. John the Baptist Parish,8202.0,34982.0,148364.0,39237.0,36781.0,13633.0,15846.0,24122.0,15222.0,2794.0,563.0,150.0,16.0
895470,County,2020/10/07,22.0,LA,22095.0,St. John the Baptist Parish,8174.0,35010.0,156475.0,45339.0,37459.0,14767.0,15848.0,20803.0,17435.0,3932.0,656.0,212.0,24.0
898649,County,2020/10/08,22.0,LA,22095.0,St. John the Baptist Parish,7811.0,35373.0,143303.0,38911.0,34997.0,13107.0,14968.0,20547.0,16937.0,2938.0,677.0,206.0,15.0
901821,County,2020/10/09,22.0,LA,22095.0,St. John the Baptist Parish,8464.0,34720.0,135076.0,33484.0,35474.0,14763.0,14282.0,18990.0,14768.0,2471.0,569.0,233.0,42.0
905016,County,2020/10/10,22.0,LA,22095.0,St. John the Baptist Parish,9158.0,34026.0,144764.0,40868.0,37579.0,14826.0,11799.0,21182.0,15451.0,2121.0,720.0,202.0,16.0
909615,County,2020/10/11,22.0,LA,22095.0,St. John the Baptist Parish,9302.0,33882.0,130316.0,31906.0,34812.0,16785.0,9923.0,18583.0,13750.0,3213.0,1035.0,280.0,29.0
913396,County,2020/10/12,22.0,LA,22095.0,St. John the Baptist Parish,8044.0,35140.0,149444.0,41717.0,37565.0,13874.0,14092.0,21299.0,16625.0,3218.0,835.0,200.0,19.0
915340,County,2020/10/13,22.0,LA,22095.0,St. John the Baptist Parish,7428.0,35756.0,147501.0,38436.0,37212.0,14052.0,15071.0,21017.0,17765.0,2799.0,942.0,171.0,36.0
918669,County,2020/10/14,22.0,LA,22095.0,St. John the Baptist Parish,7746.0,35438.0,156660.0,43949.0,37477.0,16317.0,14518.0,22467.0,17862.0,2888.0,865.0,282.0,35.0
921924,County,2020/10/15,22.0,LA,22095.0,St. John the Baptist Parish,8486.0,34698.0,149409.0,42896.0,36355.0,14604.0,12054.0,20607.0,18401.0,3321.0,989.0,142.0,40.0
924995,County,2020/10/16,22.0,LA,22095.0,St. John the Baptist Parish,7613.0,35571.0,158053.0,47225.0,37439.0,15110.0,14178.0,20859.0,18995.0,3227.0,697.0,278.0,45.0
928197,County,2020/10/17,22.0,LA,22095.0,St. John the Baptist Parish,8555.0,34629.0,156879.0,44329.0,41430.0,16400.0,13668.0,20680.0,15553.0,3708.0,879.0,209.0,23.0
931850,County,2020/10/18,22.0,LA,22095.0,St. John the Baptist Parish,9168.0,34016.0,132491.0,34864.0,37453.0,12713.0,11878.0,18042.0,13688.0,2886.0,643.0,281.0,43.0
935440,County,2020/10/19,22.0,LA,22095.0,St. John the Baptist Parish,8175.0,35009.0,160760.0,51550.0,39974.0,13921.0,15452.0,20462.0,15477.0,3134.0,518.0,238.0,34.0
937492,County,2020/10/20,22.0,LA,22095.0,St. John the Baptist Parish,8090.0,35094.0,147483.0,40228.0,37067.0,14519.0,14949.0,20104.0,16562.0,3163.0,602.0,262.0,27.0
940932,County,2020/10/21,22.0,LA,22095.0,St. John the Baptist Parish,8450.0,34734.0,151802.0,47769.0,36515.0,14389.0,14041.0,19490.0,15940.0,2761.0,575.0,285.0,37.0
944368,County,2020/10/22,22.0,LA,22095.0,St. John the Baptist Parish,7871.0,35313.0,159566.0,41786.0,44258.0,15988.0,15202.0,20662.0,17989.0,2648.0,719.0,278.0,36.0
947389,County,2020/10/23,22.0,LA,22095.0,St. John the Baptist Parish,7311.0,35873.0,166691.0,44393.0,44772.0,16275.0,17306.0,21664.0,18205.0,2889.0,812.0,335.0,40.0
950525,County,2020/10/24,22.0,LA,22095.0,St. John the Baptist Parish,7613.0,35571.0,166853.0,43660.0,47386.0,18087.0,15868.0,22590.0,15799.0,2386.0,798.0,253.0,26.0
