,Level,Date,State FIPS,State Postal Code,County FIPS,County Name,Population Staying at Home,Population Not Staying at Home,Number of Trips,Number of Trips <1,Number of Trips 1-3,Number of Trips 3-5,Number of Trips 5-10,Number of Trips 10-25,Number of Trips 25-50,Number of Trips 50-100,Number of Trips 100-250,Number of Trips 250-500,Number of Trips >=500
280,County,2020/01/01,8.0,CO,8071.0,Las Animas County,4508.0,9995.0,42518.0,13706.0,12745.0,2625.0,3893.0,4941.0,2077.0,1061.0,1421.0,13.0,36.0
5662,County,2020/01/02,8.0,CO,8071.0,Las Animas County,3803.0,10700.0,51774.0,16056.0,13438.0,3757.0,5557.0,7403.0,2456.0,1716.0,1286.0,89.0,16.0
8339,County,2020/01/03,8.0,CO,8071.0,Las Animas County,3780.0,10723.0,54648.0,14609.0,12855.0,4637.0,8915.0,8498.0,2752.0,1298.0,1004.0,56.0,24.0
10080,County,2020/01/04,8.0,CO,8071.0,Las Animas County,4183.0,10320.0,55572.0,18516.0,14521.0,3262.0,6238.0,7875.0,2796.0,1491.0,819.0,37.0,17.0
13057,County,2020/01/05,8.0,CO,8071.0,Las Animas County,4512.0,9991.0,43009.0,11416.0,9587.0,4127.0,6099.0,8249.0,1569.0,1316.0,572.0,38.0,36.0
17718,County,2020/01/06,8.0,CO,8071.0,Las Animas County,3883.0,10620.0,56228.0,16795.0,13006.0,3640.0,6558.0,10577.0,3180.0,1357.0,1077.0,22.0,16.0
19308,County,2020/01/07,8.0,CO,8071.0,Las Animas County,3933.0,10570.0,60279.0,20900.0,13583.0,4039.0,7421.0,8634.0,3707.0,1288.0,668.0,32.0,7.0
22491,County,2020/01/08,8.0,CO,8071.0,Las Animas County,3846.0,10657.0,55696.0,17132.0,13149.0,3379.0,6112.0,9878.0,3073.0,1763.0,1136.0,31.0,43.0
25685,County,2020/01/09,8.0,CO,8071.0,Las Animas County,3981.0,10522.0,51420.0,14788.0,12976.0,3504.0,5370.0,8697.0,3316.0,1862.0,864.0,29.0,14.0
28881,County,2020/01/10,8.0,CO,8071.0,Las Animas County,3966.0,10537.0,48265.0,12402.0,13536.0,4006.0,4060.0,9660.0,2031.0,1405.0,1111.0,40.0,14.0
32122,County,2020/01/11,8.0,CO,8071.0,Las Animas County,4039.0,10464.0,51224.0,14029.0,13135.0,3507.0,6114.0,8959.0,2753.0,1659.0,1046.0,22.0,0.0
35278,County,2020/01/12,8.0,CO,8071.0,Las Animas County,4093.0,10410.0,44958.0,11492.0,11411.0,2944.0,5994.0,8854.0,1837.0,1228.0,1089.0,101.0,8.0
40057,County,2020/01/13,8.0,CO,8071.0,Las Animas County,3942.0,10561.0,52576.0,12183.0,12577.0,3884.0,6857.0,11406.0,2810.0,1674.0,1126.0,52.0,7.0
41682,County,2020/01/14,8.0,CO,8071.0,Las Animas County,3754.0,10749.0,58963.0,19551.0,14234.0,3310.0,5919.0,9785.0,3474.0,1862.0,756.0,58.0,14.0
44836,County,2020/01/15,8.0,CO,8071.0,Las Animas County,3886.0,10617.0,56626.0,16546.0,14655.0,3593.0,6856.0,9425.0,2833.0,1591.0,1070.0,50.0,7.0
47987,County,2020/01/16,8.0,CO,8071.0,Las Animas County,3726.0,10777.0,53803.0,13427.0,12840.0,3248.0,6043.0,13000.0,2825.0,1141.0,1218.0,28.0,33.0
51244,County,2020/01/17,8.0,CO,8071.0,Las Animas County,4038.0,10465.0,53837.0,14419.0,12023.0,2984.0,6611.0,12021.0,3254.0,1248.0,1194.0,49.0,34.0
55976,County,2020/01/18,8.0,CO,8071.0,Las Animas County,4220.0,10283.0,51166.0,14597.0,13126.0,2982.0,5373.0,9801.0,1495.0,2351.0,1404.0,22.0,15.0
57624,County,2020/01/19,8.0,CO,8071.0,Las Animas County,4487.0,10016.0,41941.0,11120.0,9910.0,3106.0,5113.0,7158.0,2617.0,1905.0,928.0,59.0,25.0
62386,County,2020/01/20,8.0,CO,8071.0,Las Animas County,4018.0,10485.0,50685.0,15344.0,12019.0,3158.0,6081.0,9311.0,2479.0,1299.0,904.0,61.0,29.0
64013,County,2020/01/21,8.0,CO,8071.0,Las Animas County,3656.0,10847.0,51604.0,14585.0,11988.0,3471.0,5599.0,11526.0,2131.0,1256.0,971.0,37.0,40.0
67215,County,2020/01/22,8.0,CO,8071.0,Las Animas County,3783.0,10720.0,54462.0,18133.0,12658.0,4120.0,5452.0,8472.0,3426.0,1248.0,876.0,41.0,36.0
70400,County,2020/01/23,8.0,CO,8071.0,Las Animas County,4058.0,10445.0,54183.0,15836.0,12928.0,3336.0,6126.0,9902.0,3913.0,1505.0,569.0,10.0,58.0
73597,County,2020/01/24,8.0,CO,8071.0,Las Animas County,4049.0,10454.0,56696.0,16604.0,12435.0,3801.0,8099.0,10119.0,2333.0,2227.0,988.0,61.0,29.0
76789,County,2020/01/25,8.0,CO,8071.0,Las Animas County,4073.0,10430.0,51475.0,12647.0,12897.0,3225.0,7018.0,8992.0,2483.0,2719.0,1415.0,33.0,46.0
80130,County,2020/01/26,8.0,CO,8071.0,Las Animas County,4254.0,10249.0,48232.0,13788.0,12309.0,3461.0,6733.0,7669.0,1702.0,1538.0,931.0,42.0,59.0
84320,County,2020/01/27,8.0,CO,8071.0,Las Animas County,3725.0,10778.0,48810.0,12848.0,11718.0,3136.0,6675.0,8636.0,3205.0,1479.0,1017.0,17.0,79.0
86386,County,2020/01/28,8.0,CO,8071.0,Las Animas County,4056.0,10447.0,50111.0,13621.0,12368.0,2949.0,5799.0,10268.0,2430.0,1313.0,1212.0,65.0,86.0
91119,County,2020/01/29,8.0,CO,8071.0,Las Animas County,3674.0,10829.0,55113.0,16479.0,13645.0,3523.0,6428.0,10053.0,2315.0,1479.0,1022.0,106.0,63.0
92845,County,2020/01/30,8.0,CO,8071.0,Las Animas County,3889.0,10614.0,51077.0,15331.0,11558.0,3030.0,6111.0,9734.0,2861.0,1096.0,1237.0,81.0,38.0
97519,County,2020/01/31,8.0,CO,8071.0,Las Animas County,3616.0,10887.0,58714.0,16961.0,14243.0,2976.0,6902.0,11544.0,3098.0,1699.0,1182.0,53.0,56.0
100756,County,2020/02/01,8.0,CO,8071.0,Las Animas County,3779.0,10724.0,55251.0,15034.0,11504.0,3894.0,7390.0,10128.0,3336.0,2399.0,1488.0,35.0,43.0
102325,County,2020/02/02,8.0,CO,8071.0,Las Animas County,3917.0,10586.0,48979.0,13409.0,12700.0,3839.0,7126.0,7711.0,1848.0,1237.0,967.0,59.0,83.0
105535,County,2020/02/03,8.0,CO,8071.0,Las Animas County,3557.0,10946.0,53428.0,15351.0,14148.0,3786.0,6961.0,9180.0,1567.0,1281.0,1000.0,61.0,93.0
110296,County,2020/02/04,8.0,CO,8071.0,Las Animas County,4294.0,10209.0,46915.0,13165.0,10688.0,3497.0,5808.0,8344.0,2624.0,1672.0,1002.0,35.0,80.0
111923,County,2020/02/05,8.0,CO,8071.0,Las Animas County,3832.0,10671.0,60535.0,16352.0,13938.0,3740.0,7417.0,13210.0,3364.0,1400.0,992.0,65.0,57.0
115067,County,2020/02/06,8.0,CO,8071.0,Las Animas County,3707.0,10796.0,59627.0,16673.0,12737.0,3284.0,8108.0,11730.0,3979.0,1514.0,1463.0,94.0,45.0
118284,County,2020/02/07,8.0,CO,8071.0,Las Animas County,3682.0,10821.0,58209.0,16704.0,14848.0,3159.0,6136.0,10986.0,3587.0,1561.0,1081.0,86.0,61.0
123120,County,2020/02/08,8.0,CO,8071.0,Las Animas County,3456.0,11047.0,57738.0,15150.0,13344.0,4068.0,7144.0,11141.0,3269.0,1904.0,1546.0,119.0,53.0
124700,County,2020/02/09,8.0,CO,8071.0,Las Animas County,4720.0,9783.0,49908.0,13907.0,11952.0,3191.0,5714.0,8276.0,3618.0,1765.0,1336.0,84.0,65.0
128589,County,2020/02/10,8.0,CO,8071.0,Las Animas County,3489.0,11014.0,61580.0,18978.0,14101.0,3742.0,6903.0,11001.0,3180.0,2045.0,1502.0,42.0,86.0
131235,County,2020/02/11,8.0,CO,8071.0,Las Animas County,3585.0,10918.0,64092.0,21383.0,15890.0,3213.0,6354.0,10743.0,4195.0,1249.0,928.0,70.0,67.0
134756,County,2020/02/12,8.0,CO,8071.0,Las Animas County,3763.0,10740.0,58424.0,16800.0,13032.0,3485.0,6753.0,11568.0,3343.0,1769.0,1469.0,105.0,100.0
139088,County,2020/02/13,8.0,CO,8071.0,Las Animas County,3213.0,11290.0,58998.0,13758.0,14433.0,3421.0,7534.0,11193.0,4440.0,2473.0,1546.0,98.0,102.0
142243,County,2020/02/14,8.0,CO,8071.0,Las Animas County,3149.0,11354.0,65006.0,21596.0,15112.0,2998.0,7352.0,11332.0,3326.0,1646.0,1432.0,105.0,107.0
143867,County,2020/02/15,8.0,CO,8071.0,Las Animas County,3815.0,10688.0,57757.0,17331.0,13764.0,3402.0,7150.0,9394.0,3016.0,1793.0,1711.0,100.0,96.0
147057,County,2020/02/16,8.0,CO,8071.0,Las Animas County,4286.0,10217.0,51673.0,14728.0,10250.0,2749.0,7557.0,9369.0,2948.0,2199.0,1689.0,92.0,92.0
151819,County,2020/02/17,8.0,CO,8071.0,Las Animas County,5090.0,9413.0,47337.0,13282.0,11568.0,2229.0,5279.0,9598.0,2805.0,1568.0,852.0,53.0,103.0
153446,County,2020/02/18,8.0,CO,8071.0,Las Animas County,3961.0,10542.0,53600.0,15255.0,13832.0,2598.0,5953.0,9995.0,3031.0,1452.0,1348.0,72.0,64.0
158205,County,2020/02/19,8.0,CO,8071.0,Las Animas County,3515.0,10988.0,56323.0,16293.0,14233.0,2307.0,6696.0,10905.0,2880.0,1585.0,1181.0,106.0,137.0
159846,County,2020/02/20,8.0,CO,8071.0,Las Animas County,3845.0,10658.0,56010.0,18151.0,13588.0,3441.0,4547.0,10902.0,2903.0,1287.0,1052.0,55.0,84.0
164595,County,2020/02/21,8.0,CO,8071.0,Las Animas County,3779.0,10724.0,65398.0,21272.0,15377.0,3850.0,6504.0,10054.0,3570.0,2397.0,2170.0,146.0,58.0
166221,County,2020/02/22,8.0,CO,8071.0,Las Animas County,3380.0,11123.0,62848.0,20319.0,13564.0,3774.0,6587.0,12262.0,2832.0,1925.0,1430.0,75.0,80.0
170986,County,2020/02/23,8.0,CO,8071.0,Las Animas County,4347.0,10156.0,50171.0,15114.0,10579.0,3736.0,6950.0,8686.0,2635.0,1450.0,961.0,22.0,38.0
172614,County,2020/02/24,8.0,CO,8071.0,Las Animas County,3823.0,10680.0,62259.0,20631.0,14010.0,3238.0,6676.0,12225.0,3329.0,1280.0,810.0,27.0,33.0
176539,County,2020/02/25,8.0,CO,8071.0,Las Animas County,3678.0,10825.0,69850.0,24487.0,17270.0,2896.0,7473.0,10780.0,3522.0,2154.0,1160.0,48.0,60.0
179144,County,2020/02/26,8.0,CO,8071.0,Las Animas County,3051.0,11452.0,75829.0,28841.0,17545.0,3542.0,9430.0,9811.0,4181.0,1642.0,715.0,107.0,15.0
183311,County,2020/02/27,8.0,CO,8071.0,Las Animas County,3375.0,11128.0,67134.0,24476.0,16124.0,3565.0,7360.0,9050.0,3374.0,2337.0,769.0,59.0,20.0
187050,County,2020/02/28,8.0,CO,8071.0,Las Animas County,3592.0,10911.0,67546.0,21966.0,15096.0,4297.0,7174.0,11499.0,3855.0,1999.0,1570.0,40.0,50.0
188580,County,2020/02/29,8.0,CO,8071.0,Las Animas County,3548.0,10955.0,59266.0,13708.0,15428.0,3205.0,9385.0,9222.0,3727.0,2589.0,1857.0,32.0,113.0
191770,County,2020/03/01,8.0,CO,8071.0,Las Animas County,4074.0,10429.0,47267.0,14565.0,10292.0,3339.0,4809.0,9339.0,2132.0,1745.0,971.0,44.0,31.0
194993,County,2020/03/02,8.0,CO,8071.0,Las Animas County,3726.0,10777.0,57688.0,17839.0,13057.0,3687.0,5068.0,10155.0,4157.0,2312.0,1340.0,38.0,35.0
198147,County,2020/03/03,8.0,CO,8071.0,Las Animas County,3585.0,10918.0,63859.0,21492.0,13370.0,2960.0,8108.0,10074.0,3375.0,2857.0,1538.0,63.0,22.0
202055,County,2020/03/04,8.0,CO,8071.0,Las Animas County,3589.0,10914.0,60286.0,17061.0,12617.0,3840.0,7332.0,13054.0,2573.0,2343.0,1359.0,83.0,24.0
204498,County,2020/03/05,8.0,CO,8071.0,Las Animas County,3218.0,11285.0,68366.0,21656.0,16283.0,3293.0,8453.0,11201.0,3231.0,3028.0,1133.0,45.0,43.0
209300,County,2020/03/06,8.0,CO,8071.0,Las Animas County,3222.0,11281.0,58287.0,15071.0,13969.0,2944.0,10131.0,10630.0,2786.0,1148.0,1513.0,49.0,46.0
212582,County,2020/03/07,8.0,CO,8071.0,Las Animas County,3576.0,10927.0,59510.0,15023.0,12720.0,3609.0,9411.0,10800.0,4623.0,1817.0,1475.0,19.0,13.0
214132,County,2020/03/08,8.0,CO,8071.0,Las Animas County,3849.0,10654.0,50963.0,11528.0,12919.0,4297.0,6383.0,8911.0,3708.0,2448.0,676.0,54.0,39.0
217335,County,2020/03/09,8.0,CO,8071.0,Las Animas County,3401.0,11102.0,59704.0,16593.0,15440.0,3034.0,7644.0,10559.0,3983.0,1658.0,695.0,58.0,40.0
222086,County,2020/03/10,8.0,CO,8071.0,Las Animas County,3533.0,10970.0,63720.0,20193.0,14421.0,2813.0,8508.0,10283.0,4042.0,2357.0,1070.0,0.0,33.0
223710,County,2020/03/11,8.0,CO,8071.0,Las Animas County,3075.0,11428.0,71078.0,13822.0,16510.0,3790.0,11639.0,14343.0,7545.0,2416.0,892.0,0.0,121.0
228455,County,2020/03/12,8.0,CO,8071.0,Las Animas County,3018.0,11485.0,53916.0,10540.0,11535.0,2141.0,12981.0,10368.0,2672.0,1261.0,2315.0,33.0,70.0
230102,County,2020/03/13,8.0,CO,8071.0,Las Animas County,3274.0,11229.0,59488.0,12720.0,13889.0,2187.0,9443.0,12588.0,5915.0,930.0,1753.0,37.0,26.0
233301,County,2020/03/14,8.0,CO,8071.0,Las Animas County,3646.0,10857.0,54806.0,15517.0,12395.0,4118.0,6955.0,6271.0,4676.0,2889.0,1827.0,42.0,116.0
236489,County,2020/03/15,8.0,CO,8071.0,Las Animas County,4178.0,10325.0,51664.0,14020.0,12562.0,3249.0,6782.0,8690.0,2828.0,2526.0,938.0,47.0,22.0
239683,County,2020/03/16,8.0,CO,8071.0,Las Animas County,4195.0,10308.0,59307.0,19066.0,15875.0,2230.0,5542.0,9057.0,3368.0,2942.0,1194.0,0.0,33.0
244489,County,2020/03/17,8.0,CO,8071.0,Las Animas County,4459.0,10044.0,50919.0,15195.0,11078.0,3081.0,5584.0,10069.0,2803.0,1820.0,1223.0,45.0,21.0
247596,County,2020/03/18,8.0,CO,8071.0,Las Animas County,4640.0,9863.0,55554.0,18698.0,12962.0,2244.0,5897.0,9419.0,3277.0,1335.0,1605.0,75.0,42.0
249275,County,2020/03/19,8.0,CO,8071.0,Las Animas County,4671.0,9832.0,53672.0,18248.0,12308.0,3388.0,5640.0,9872.0,2151.0,1033.0,926.0,44.0,62.0
252461,County,2020/03/20,8.0,CO,8071.0,Las Animas County,4744.0,9759.0,51423.0,15279.0,12823.0,3478.0,5500.0,9018.0,2281.0,1793.0,1149.0,29.0,73.0
255653,County,2020/03/21,8.0,CO,8071.0,Las Animas County,4401.0,10102.0,47984.0,16801.0,12260.0,2935.0,5618.0,5512.0,2738.0,1029.0,976.0,73.0,42.0
258838,County,2020/03/22,8.0,CO,8071.0,Las Animas County,5022.0,9481.0,41934.0,13788.0,9227.0,2676.0,3888.0,5434.0,3640.0,1871.0,1340.0,34.0,36.0
263618,County,2020/03/23,8.0,CO,8071.0,Las Animas County,4624.0,9879.0,52499.0,17861.0,10229.0,2629.0,7401.0,9936.0,2132.0,1490.0,756.0,44.0,21.0
266848,County,2020/03/24,8.0,CO,8071.0,Las Animas County,4213.0,10290.0,51715.0,15410.0,11755.0,3411.0,8351.0,8885.0,2045.0,1135.0,658.0,44.0,21.0
269996,County,2020/03/25,8.0,CO,8071.0,Las Animas County,4443.0,10060.0,49757.0,17904.0,10784.0,1984.0,6187.0,8679.0,2352.0,973.0,847.0,15.0,32.0
271623,County,2020/03/26,8.0,CO,8071.0,Las Animas County,4661.0,9842.0,41380.0,13897.0,9633.0,2688.0,4372.0,7278.0,2301.0,762.0,387.0,30.0,32.0
276385,County,2020/03/27,8.0,CO,8071.0,Las Animas County,4634.0,9869.0,46336.0,15976.0,9053.0,3137.0,5422.0,8148.0,2840.0,930.0,755.0,44.0,31.0
278012,County,2020/03/28,8.0,CO,8071.0,Las Animas County,4828.0,9675.0,39078.0,14568.0,10085.0,2151.0,5204.0,5340.0,1034.0,406.0,236.0,32.0,22.0
282772,County,2020/03/29,8.0,CO,8071.0,Las Animas County,5646.0,8857.0,36127.0,11099.0,8816.0,2424.0,4586.0,6301.0,1258.0,989.0,574.0,39.0,41.0
284399,County,2020/03/30,8.0,CO,8071.0,Las Animas County,4508.0,9995.0,45505.0,14614.0,8715.0,1551.0,6988.0,8852.0,2637.0,1413.0,710.0,15.0,10.0
287595,County,2020/03/31,8.0,CO,8071.0,Las Animas County,4387.0,10116.0,47864.0,16379.0,9666.0,3382.0,6623.0,7764.0,1908.0,1500.0,598.0,44.0,0.0
290830,County,2020/04/01,8.0,CO,8071.0,Las Animas County,4541.0,9962.0,48766.0,19889.0,9049.0,2577.0,7131.0,7029.0,1434.0,845.0,762.0,29.0,21.0
295563,County,2020/04/02,8.0,CO,8071.0,Las Animas County,4705.0,9798.0,44689.0,13797.0,7424.0,3389.0,6804.0,7781.0,2391.0,1879.0,1199.0,15.0,10.0
297176,County,2020/04/03,8.0,CO,8071.0,Las Animas County,4734.0,9769.0,43574.0,15206.0,8731.0,2132.0,6046.0,7215.0,2562.0,604.0,993.0,63.0,22.0
300369,County,2020/04/04,8.0,CO,8071.0,Las Animas County,5004.0,9499.0,39937.0,13983.0,6519.0,2310.0,6553.0,7472.0,1388.0,873.0,759.0,68.0,12.0
305123,County,2020/04/05,8.0,CO,8071.0,Las Animas County,5308.0,9195.0,42673.0,14428.0,9404.0,3876.0,4253.0,7267.0,2096.0,761.0,515.0,59.0,14.0
308323,County,2020/04/06,8.0,CO,8071.0,Las Animas County,4632.0,9871.0,49075.0,18522.0,8868.0,2328.0,5418.0,8983.0,3022.0,1682.0,230.0,0.0,22.0
311563,County,2020/04/07,8.0,CO,8071.0,Las Animas County,4650.0,9853.0,42175.0,14299.0,9786.0,1832.0,6098.0,8086.0,1421.0,406.0,236.0,0.0,11.0
313146,County,2020/04/08,8.0,CO,8071.0,Las Animas County,4761.0,9742.0,42012.0,14986.0,10252.0,2454.0,4053.0,7807.0,1460.0,417.0,544.0,16.0,23.0
317905,County,2020/04/09,8.0,CO,8071.0,Las Animas County,4665.0,9838.0,42447.0,11759.0,9002.0,3466.0,5855.0,7359.0,2684.0,2009.0,291.0,0.0,22.0
321100,County,2020/04/10,8.0,CO,8071.0,Las Animas County,4768.0,9735.0,38415.0,11041.0,8777.0,2806.0,6703.0,5181.0,1655.0,1735.0,440.0,17.0,60.0
322727,County,2020/04/11,8.0,CO,8071.0,Las Animas County,4959.0,9544.0,50512.0,19416.0,10588.0,2449.0,7558.0,6263.0,2354.0,1388.0,470.0,0.0,26.0
327459,County,2020/04/12,8.0,CO,8071.0,Las Animas County,5783.0,8720.0,32440.0,8118.0,8530.0,2640.0,3303.0,8141.0,952.0,250.0,506.0,0.0,0.0
329137,County,2020/04/13,8.0,CO,8071.0,Las Animas County,5275.0,9228.0,35914.0,10858.0,7646.0,2288.0,4535.0,7620.0,1930.0,466.0,473.0,72.0,26.0
333858,County,2020/04/14,8.0,CO,8071.0,Las Animas County,4560.0,9943.0,33867.0,4179.0,9132.0,1901.0,6617.0,5615.0,4206.0,1322.0,895.0,0.0,0.0
337111,County,2020/04/15,8.0,CO,8071.0,Las Animas County,4376.0,10127.0,41324.0,10263.0,8993.0,1372.0,7555.0,6193.0,3958.0,1945.0,1015.0,30.0,0.0
340205,County,2020/04/16,8.0,CO,8071.0,Las Animas County,4407.0,10096.0,43797.0,14656.0,9005.0,1527.0,4815.0,8992.0,1982.0,1752.0,1017.0,30.0,21.0
343516,County,2020/04/17,8.0,CO,8071.0,Las Animas County,4133.0,10370.0,32594.0,6738.0,7710.0,3138.0,4834.0,5365.0,2411.0,1474.0,855.0,0.0,69.0
345094,County,2020/04/18,8.0,CO,8071.0,Las Animas County,5235.0,9268.0,35531.0,14017.0,8190.0,2133.0,2403.0,5957.0,0.0,1020.0,1774.0,0.0,37.0
348266,County,2020/04/19,8.0,CO,8071.0,Las Animas County,5129.0,9374.0,32960.0,11743.0,13359.0,3624.0,1633.0,1963.0,392.0,0.0,178.0,0.0,68.0
351473,County,2020/04/20,8.0,CO,8071.0,Las Animas County,3762.0,10741.0,41024.0,9650.0,11015.0,2636.0,7125.0,6782.0,2280.0,672.0,780.0,35.0,49.0
354666,County,2020/04/21,8.0,CO,8071.0,Las Animas County,4578.0,9925.0,46893.0,14277.0,8215.0,2228.0,7993.0,10224.0,2142.0,1474.0,305.0,0.0,35.0
359437,County,2020/04/22,8.0,CO,8071.0,Las Animas County,4217.0,10286.0,50531.0,17054.0,10209.0,2601.0,8883.0,8351.0,2042.0,749.0,559.0,83.0,0.0
362642,County,2020/04/23,8.0,CO,8071.0,Las Animas County,4599.0,9904.0,52320.0,17015.0,11391.0,4736.0,5220.0,10232.0,2779.0,514.0,373.0,60.0,0.0
365855,County,2020/04/24,8.0,CO,8071.0,Las Animas County,4393.0,10110.0,54780.0,21582.0,8003.0,3569.0,7636.0,8516.0,3618.0,1024.0,726.0,106.0,0.0
369011,County,2020/04/25,8.0,CO,8071.0,Las Animas County,4578.0,9925.0,49232.0,15463.0,10425.0,3593.0,5620.0,9324.0,3238.0,1146.0,369.0,40.0,14.0
370601,County,2020/04/26,8.0,CO,8071.0,Las Animas County,4436.0,10067.0,45028.0,12943.0,11530.0,3966.0,5665.0,6876.0,2040.0,1604.0,358.0,19.0,27.0
373831,County,2020/04/27,8.0,CO,8071.0,Las Animas County,3869.0,10634.0,51035.0,15338.0,12915.0,2715.0,5129.0,9783.0,3837.0,894.0,389.0,35.0,0.0
378608,County,2020/04/28,8.0,CO,8071.0,Las Animas County,4122.0,10381.0,52740.0,13304.0,10122.0,2129.0,9797.0,12969.0,2853.0,708.0,821.0,37.0,0.0
380234,County,2020/04/29,8.0,CO,8071.0,Las Animas County,4223.0,10280.0,55105.0,14983.0,13314.0,2686.0,8134.0,11096.0,2554.0,1890.0,411.0,37.0,0.0
384980,County,2020/04/30,8.0,CO,8071.0,Las Animas County,4521.0,9982.0,56895.0,19282.0,11451.0,3924.0,7954.0,10758.0,955.0,1877.0,653.0,0.0,41.0
388215,County,2020/05/01,8.0,CO,8071.0,Las Animas County,4098.0,10405.0,52868.0,14953.0,15125.0,3735.0,6692.0,7413.0,2754.0,1624.0,502.0,34.0,36.0
391365,County,2020/05/02,8.0,CO,8071.0,Las Animas County,4294.0,10209.0,39475.0,9064.0,9810.0,4039.0,5289.0,6676.0,2590.0,1198.0,764.0,19.0,26.0
393001,County,2020/05/03,8.0,CO,8071.0,Las Animas County,4642.0,9861.0,44165.0,14277.0,11612.0,2305.0,4412.0,7021.0,2804.0,1029.0,682.0,23.0,0.0
397756,County,2020/05/04,8.0,CO,8071.0,Las Animas County,4191.0,10312.0,50263.0,15054.0,11062.0,2378.0,5165.0,12073.0,3445.0,542.0,503.0,17.0,24.0
399383,County,2020/05/05,8.0,CO,8071.0,Las Animas County,4437.0,10066.0,51304.0,18318.0,7809.0,2960.0,6666.0,9370.0,3954.0,1554.0,644.0,17.0,12.0
402562,County,2020/05/06,8.0,CO,8071.0,Las Animas County,4298.0,10205.0,48946.0,15544.0,10611.0,2847.0,4702.0,9443.0,3849.0,1210.0,702.0,38.0,0.0
405765,County,2020/05/07,8.0,CO,8071.0,Las Animas County,4026.0,10477.0,52056.0,15515.0,12839.0,2367.0,5515.0,11604.0,1986.0,1457.0,724.0,49.0,0.0
410592,County,2020/05/08,8.0,CO,8071.0,Las Animas County,4422.0,10081.0,53753.0,17264.0,11164.0,3946.0,5167.0,9691.0,3871.0,1872.0,747.0,18.0,13.0
412123,County,2020/05/09,8.0,CO,8071.0,Las Animas County,4660.0,9843.0,41135.0,9392.0,9365.0,3266.0,4681.0,8643.0,3693.0,1262.0,805.0,0.0,28.0
415353,County,2020/05/10,8.0,CO,8071.0,Las Animas County,4517.0,9986.0,36266.0,9269.0,8215.0,4829.0,3974.0,6789.0,1657.0,947.0,549.0,37.0,0.0
418547,County,2020/05/11,8.0,CO,8071.0,Las Animas County,3633.0,10870.0,48771.0,11684.0,9451.0,2724.0,6376.0,13016.0,2686.0,1499.0,1185.0,127.0,23.0
423405,County,2020/05/12,8.0,CO,8071.0,Las Animas County,3559.0,10944.0,46130.0,12475.0,9406.0,2845.0,5358.0,10818.0,2349.0,1319.0,1377.0,103.0,80.0
426452,County,2020/05/13,8.0,CO,8071.0,Las Animas County,3815.0,10688.0,50966.0,14723.0,9755.0,3425.0,6490.0,9938.0,3793.0,1733.0,925.0,130.0,54.0
429744,County,2020/05/14,8.0,CO,8071.0,Las Animas County,3815.0,10688.0,55778.0,16501.0,9497.0,4073.0,9997.0,9651.0,2796.0,1998.0,1159.0,62.0,44.0
431324,County,2020/05/15,8.0,CO,8071.0,Las Animas County,3462.0,11041.0,52698.0,14324.0,9867.0,2399.0,7720.0,11038.0,3575.0,1936.0,1738.0,39.0,62.0
436123,County,2020/05/16,8.0,CO,8071.0,Las Animas County,4197.0,10306.0,48218.0,13537.0,11470.0,3011.0,6781.0,8805.0,2442.0,1152.0,935.0,60.0,25.0
439231,County,2020/05/17,8.0,CO,8071.0,Las Animas County,3377.0,11126.0,52717.0,15050.0,11823.0,2405.0,5736.0,10632.0,3214.0,2887.0,942.0,28.0,0.0
442521,County,2020/05/18,8.0,CO,8071.0,Las Animas County,3219.0,11284.0,65324.0,20667.0,12964.0,4616.0,8316.0,12319.0,3423.0,2018.0,975.0,26.0,0.0
445684,County,2020/05/19,8.0,CO,8071.0,Las Animas County,3410.0,11093.0,64723.0,18048.0,11788.0,3285.0,10655.0,12543.0,4477.0,2346.0,1555.0,26.0,0.0
448861,County,2020/05/20,8.0,CO,8071.0,Las Animas County,2802.0,11701.0,66401.0,21997.0,12895.0,3623.0,12662.0,9895.0,2635.0,1912.0,739.0,25.0,18.0
450487,County,2020/05/21,8.0,CO,8071.0,Las Animas County,3377.0,11126.0,64860.0,17338.0,11475.0,2830.0,12747.0,12644.0,3902.0,2346.0,1465.0,113.0,0.0
455246,County,2020/05/22,8.0,CO,8071.0,Las Animas County,2967.0,11536.0,67880.0,24378.0,12736.0,2980.0,8462.0,8946.0,6095.0,2809.0,1342.0,77.0,55.0
458458,County,2020/05/23,8.0,CO,8071.0,Las Animas County,3164.0,11339.0,60768.0,18783.0,10042.0,4767.0,7976.0,11340.0,4198.0,1737.0,1813.0,54.0,58.0
461613,County,2020/05/24,8.0,CO,8071.0,Las Animas County,3911.0,10592.0,44302.0,11449.0,8215.0,3632.0,6758.0,8018.0,3416.0,1678.0,1012.0,42.0,82.0
464915,County,2020/05/25,8.0,CO,8071.0,Las Animas County,3959.0,10544.0,45207.0,12777.0,9507.0,2376.0,6970.0,8193.0,2690.0,1339.0,1185.0,154.0,16.0
466394,County,2020/05/26,8.0,CO,8071.0,Las Animas County,3305.0,11198.0,50254.0,14572.0,10008.0,2980.0,6935.0,8573.0,3142.0,2280.0,1653.0,69.0,42.0
471264,County,2020/05/27,8.0,CO,8071.0,Las Animas County,3521.0,10982.0,60705.0,18826.0,10603.0,3636.0,9411.0,10801.0,3610.0,2422.0,1244.0,129.0,23.0
474362,County,2020/05/28,8.0,CO,8071.0,Las Animas County,3252.0,11251.0,52973.0,16238.0,9345.0,3543.0,6596.0,9880.0,3908.0,1928.0,1432.0,56.0,47.0
477601,County,2020/05/29,8.0,CO,8071.0,Las Animas County,3622.0,10881.0,58079.0,18787.0,10125.0,3721.0,6944.0,10148.0,5175.0,1763.0,1297.0,74.0,45.0
480801,County,2020/05/30,8.0,CO,8071.0,Las Animas County,4472.0,10031.0,57157.0,17410.0,12536.0,3540.0,7972.0,8739.0,4166.0,1859.0,821.0,55.0,59.0
483945,County,2020/05/31,8.0,CO,8071.0,Las Animas County,4047.0,10456.0,45876.0,13276.0,7354.0,3253.0,5421.0,9777.0,3377.0,1493.0,1732.0,129.0,64.0
487296,County,2020/06/01,8.0,CO,8071.0,Las Animas County,3711.0,10792.0,52513.0,14152.0,8298.0,2965.0,8037.0,13713.0,1603.0,2100.0,1462.0,98.0,85.0
488863,County,2020/06/02,8.0,CO,8071.0,Las Animas County,3863.0,10640.0,54633.0,19214.0,10504.0,3502.0,5615.0,11091.0,2311.0,1287.0,966.0,59.0,84.0
491984,County,2020/06/03,8.0,CO,8071.0,Las Animas County,3298.0,11205.0,57150.0,17324.0,11298.0,3469.0,6820.0,10846.0,3394.0,2457.0,1384.0,142.0,16.0
495194,County,2020/06/04,8.0,CO,8071.0,Las Animas County,3492.0,11011.0,55123.0,20261.0,9672.0,3578.0,5455.0,9390.0,2768.0,2106.0,1669.0,131.0,93.0
499970,County,2020/06/05,8.0,CO,8071.0,Las Animas County,3425.0,11078.0,59861.0,18954.0,11491.0,2639.0,8269.0,11068.0,3630.0,2341.0,1315.0,57.0,97.0
501593,County,2020/06/06,8.0,CO,8071.0,Las Animas County,4285.0,10218.0,48930.0,16045.0,9154.0,3725.0,7731.0,7712.0,2251.0,1770.0,486.0,15.0,41.0
504786,County,2020/06/07,8.0,CO,8071.0,Las Animas County,3861.0,10642.0,56673.0,20038.0,10000.0,3403.0,7497.0,8713.0,3000.0,2642.0,1204.0,103.0,73.0
509533,County,2020/06/08,8.0,CO,8071.0,Las Animas County,3345.0,11158.0,65011.0,22708.0,10643.0,3248.0,9436.0,11567.0,4047.0,1741.0,1462.0,66.0,93.0
512737,County,2020/06/09,8.0,CO,8071.0,Las Animas County,3748.0,10755.0,48800.0,14265.0,9918.0,2887.0,6260.0,7056.0,3729.0,2318.0,2174.0,170.0,23.0
514369,County,2020/06/10,8.0,CO,8071.0,Las Animas County,3381.0,11122.0,55645.0,18575.0,10318.0,3348.0,5625.0,9605.0,3793.0,2711.0,1533.0,85.0,52.0
517571,County,2020/06/11,8.0,CO,8071.0,Las Animas County,3425.0,11078.0,51460.0,15062.0,10255.0,2272.0,9120.0,7923.0,3285.0,1700.0,1607.0,187.0,49.0
520774,County,2020/06/12,8.0,CO,8071.0,Las Animas County,3276.0,11227.0,59560.0,19832.0,10393.0,3003.0,7439.0,10163.0,3248.0,3446.0,1851.0,129.0,56.0
523949,County,2020/06/13,8.0,CO,8071.0,Las Animas County,3729.0,10774.0,52706.0,16838.0,12169.0,2930.0,7919.0,8331.0,1616.0,1196.0,1604.0,70.0,33.0
527145,County,2020/06/14,8.0,CO,8071.0,Las Animas County,4317.0,10186.0,40712.0,10894.0,6263.0,2920.0,5016.0,8844.0,3613.0,1199.0,1793.0,128.0,42.0
530342,County,2020/06/15,8.0,CO,8071.0,Las Animas County,4067.0,10436.0,48879.0,16820.0,9174.0,3686.0,5534.0,8445.0,1840.0,1627.0,1573.0,160.0,20.0
533532,County,2020/06/16,8.0,CO,8071.0,Las Animas County,4018.0,10485.0,53748.0,17027.0,10130.0,3879.0,8300.0,10143.0,1967.0,1175.0,968.0,125.0,34.0
536726,County,2020/06/17,8.0,CO,8071.0,Las Animas County,3895.0,10608.0,51002.0,16169.0,8535.0,3888.0,6002.0,9759.0,3118.0,2117.0,1292.0,104.0,18.0
539920,County,2020/06/18,8.0,CO,8071.0,Las Animas County,3789.0,10714.0,47745.0,12186.0,8913.0,2767.0,9160.0,8174.0,2993.0,2192.0,1147.0,142.0,71.0
543113,County,2020/06/19,8.0,CO,8071.0,Las Animas County,3780.0,10723.0,49550.0,15103.0,8677.0,2680.0,6419.0,10367.0,2277.0,2441.0,1416.0,110.0,60.0
546318,County,2020/06/20,8.0,CO,8071.0,Las Animas County,4248.0,10255.0,43169.0,11811.0,8705.0,2596.0,5115.0,8456.0,2807.0,2621.0,960.0,75.0,23.0
551061,County,2020/06/21,8.0,CO,8071.0,Las Animas County,4156.0,10347.0,35829.0,10093.0,7238.0,1529.0,3699.0,7246.0,2756.0,1517.0,1508.0,203.0,40.0
552697,County,2020/06/22,8.0,CO,8071.0,Las Animas County,3724.0,10779.0,48616.0,15216.0,8072.0,2946.0,5874.0,8926.0,3526.0,2279.0,1643.0,86.0,48.0
557457,County,2020/06/23,8.0,CO,8071.0,Las Animas County,3784.0,10719.0,45440.0,11697.0,8162.0,3619.0,6364.0,6846.0,4262.0,2529.0,1833.0,79.0,49.0
559089,County,2020/06/24,8.0,CO,8071.0,Las Animas County,3683.0,10820.0,50991.0,16146.0,9306.0,3569.0,6518.0,8914.0,2739.0,2276.0,1356.0,106.0,61.0
562278,County,2020/06/25,8.0,CO,8071.0,Las Animas County,3660.0,10843.0,45579.0,11000.0,9242.0,2979.0,6380.0,9621.0,2932.0,1557.0,1698.0,136.0,34.0
567121,County,2020/06/26,8.0,CO,8071.0,Las Animas County,3573.0,10930.0,49028.0,14680.0,8124.0,3477.0,5625.0,9449.0,3655.0,2186.0,1666.0,97.0,69.0
570223,County,2020/06/27,8.0,CO,8071.0,Las Animas County,4195.0,10308.0,45729.0,12669.0,8087.0,2812.0,6198.0,8505.0,3785.0,2670.0,841.0,95.0,67.0
571862,County,2020/06/28,8.0,CO,8071.0,Las Animas County,3912.0,10591.0,40424.0,9785.0,6766.0,1959.0,6082.0,7204.0,3693.0,2498.0,2154.0,179.0,104.0
576588,County,2020/06/29,8.0,CO,8071.0,Las Animas County,3427.0,11076.0,51698.0,14634.0,8752.0,2603.0,5753.0,12370.0,3188.0,2694.0,1562.0,107.0,35.0
579836,County,2020/06/30,8.0,CO,8071.0,Las Animas County,3793.0,10710.0,51309.0,14995.0,8696.0,2602.0,6914.0,9088.0,4643.0,3251.0,885.0,176.0,59.0
583029,County,2020/07/01,8.0,CO,8071.0,Las Animas County,3436.0,11067.0,53395.0,19368.0,8883.0,2902.0,6306.0,8892.0,3634.0,2143.0,1092.0,132.0,43.0
586218,County,2020/07/02,8.0,CO,8071.0,Las Animas County,3707.0,10796.0,48377.0,11675.0,9809.0,3162.0,6772.0,10212.0,3112.0,1653.0,1802.0,144.0,36.0
589422,County,2020/07/03,8.0,CO,8071.0,Las Animas County,4155.0,10348.0,48751.0,14597.0,8078.0,3457.0,5593.0,9396.0,3634.0,2174.0,1657.0,96.0,69.0
592605,County,2020/07/04,8.0,CO,8071.0,Las Animas County,4408.0,10095.0,41708.0,12488.0,6911.0,2958.0,4785.0,8038.0,3109.0,1860.0,1417.0,83.0,59.0
594255,County,2020/07/05,8.0,CO,8071.0,Las Animas County,4447.0,10056.0,48613.0,16797.0,7428.0,2097.0,7640.0,8768.0,3602.0,1730.0,456.0,86.0,9.0
598930,County,2020/07/06,8.0,CO,8071.0,Las Animas County,3834.0,10669.0,48498.0,15460.0,7209.0,3170.0,7459.0,8071.0,3838.0,1871.0,1295.0,38.0,87.0
600605,County,2020/07/07,8.0,CO,8071.0,Las Animas County,3686.0,10817.0,46260.0,12901.0,9646.0,2303.0,6352.0,9260.0,2898.0,1319.0,1391.0,84.0,106.0
603797,County,2020/07/08,8.0,CO,8071.0,Las Animas County,4146.0,10357.0,50529.0,17033.0,7379.0,3603.0,7213.0,10061.0,2435.0,1404.0,1295.0,50.0,56.0
608569,County,2020/07/09,8.0,CO,8071.0,Las Animas County,3865.0,10638.0,45813.0,13524.0,8554.0,2191.0,4934.0,8996.0,3791.0,2421.0,1260.0,87.0,55.0
610192,County,2020/07/10,8.0,CO,8071.0,Las Animas County,3825.0,10678.0,47550.0,15386.0,8993.0,2309.0,5310.0,8080.0,3427.0,1817.0,2071.0,88.0,69.0
614991,County,2020/07/11,8.0,CO,8071.0,Las Animas County,4290.0,10213.0,44667.0,12662.0,7899.0,2683.0,6295.0,8741.0,3265.0,1283.0,1695.0,89.0,55.0
616575,County,2020/07/12,8.0,CO,8071.0,Las Animas County,4548.0,9955.0,39923.0,12039.0,5290.0,2152.0,5321.0,7036.0,3066.0,2678.0,2174.0,115.0,52.0
621335,County,2020/07/13,8.0,CO,8071.0,Las Animas County,3824.0,10679.0,44032.0,13288.0,8121.0,3195.0,6309.0,7644.0,1775.0,1954.0,1521.0,139.0,86.0
624529,County,2020/07/14,8.0,CO,8071.0,Las Animas County,3737.0,10766.0,43065.0,11500.0,9061.0,2513.0,5381.0,7530.0,3475.0,1996.0,1462.0,106.0,41.0
626087,County,2020/07/15,8.0,CO,8071.0,Las Animas County,3988.0,10515.0,48466.0,14251.0,7928.0,2728.0,6632.0,10640.0,2740.0,1601.0,1825.0,103.0,18.0
629328,County,2020/07/16,8.0,CO,8071.0,Las Animas County,4139.0,10364.0,42904.0,10656.0,7778.0,3604.0,6035.0,8914.0,3148.0,1237.0,1298.0,156.0,78.0
634062,County,2020/07/17,8.0,CO,8071.0,Las Animas County,3938.0,10565.0,47891.0,13242.0,8636.0,3467.0,6859.0,8088.0,3117.0,2151.0,2183.0,102.0,46.0
635739,County,2020/07/18,8.0,CO,8071.0,Las Animas County,4369.0,10134.0,40737.0,11918.0,6627.0,2247.0,5441.0,8443.0,1914.0,1934.0,2036.0,145.0,32.0
640517,County,2020/07/19,8.0,CO,8071.0,Las Animas County,4701.0,9802.0,32577.0,7758.0,5482.0,1840.0,4396.0,8494.0,1448.0,1138.0,1650.0,277.0,94.0
642129,County,2020/07/20,8.0,CO,8071.0,Las Animas County,4200.0,10303.0,46793.0,15170.0,7996.0,3003.0,6426.0,9149.0,1868.0,1851.0,1259.0,50.0,21.0
647369,County,2020/07/21,8.0,CO,8071.0,Las Animas County,4331.0,10172.0,44594.0,12252.0,8394.0,2654.0,5645.0,9282.0,2711.0,2006.0,1418.0,156.0,76.0
649558,County,2020/07/22,8.0,CO,8071.0,Las Animas County,3788.0,10715.0,43967.0,9731.0,7752.0,2958.0,5585.0,11221.0,2400.0,2497.0,1609.0,104.0,110.0
653277,County,2020/07/23,8.0,CO,8071.0,Las Animas County,4171.0,10332.0,42660.0,12063.0,6400.0,2784.0,5966.0,8207.0,3132.0,2405.0,1461.0,179.0,63.0
654796,County,2020/07/24,8.0,CO,8071.0,Las Animas County,3993.0,10510.0,43272.0,11857.0,7774.0,2451.0,6021.0,8958.0,2602.0,1875.0,1549.0,97.0,88.0
658093,County,2020/07/25,8.0,CO,8071.0,Las Animas County,4420.0,10083.0,40090.0,8999.0,8277.0,2350.0,7409.0,7953.0,2372.0,1598.0,1004.0,62.0,66.0
661291,County,2020/07/26,8.0,CO,8071.0,Las Animas County,4394.0,10109.0,43855.0,10745.0,6803.0,2311.0,7868.0,7640.0,3836.0,2399.0,2067.0,118.0,68.0
666119,County,2020/07/27,8.0,CO,8071.0,Las Animas County,4067.0,10436.0,46253.0,11674.0,10453.0,2935.0,7170.0,8385.0,2179.0,1776.0,1399.0,149.0,133.0
669323,County,2020/07/28,8.0,CO,8071.0,Las Animas County,3921.0,10582.0,48901.0,14344.0,10516.0,3125.0,6064.0,8300.0,3900.0,1288.0,1067.0,162.0,135.0
672535,County,2020/07/29,8.0,CO,8071.0,Las Animas County,4062.0,10441.0,48045.0,13768.0,8896.0,2926.0,4972.0,8759.0,4498.0,2619.0,1405.0,122.0,80.0
675618,County,2020/07/30,8.0,CO,8071.0,Las Animas County,3972.0,10531.0,46888.0,13530.0,8382.0,2700.0,5868.0,9235.0,2843.0,2477.0,1577.0,216.0,60.0
678846,County,2020/07/31,8.0,CO,8071.0,Las Animas County,3767.0,10736.0,50144.0,15591.0,8618.0,2529.0,6662.0,10367.0,3019.0,1460.0,1729.0,142.0,27.0
681967,County,2020/08/01,8.0,CO,8071.0,Las Animas County,4094.0,10409.0,46015.0,11471.0,8341.0,2750.0,8303.0,8913.0,3038.0,1866.0,1212.0,47.0,74.0
683649,County,2020/08/02,8.0,CO,8071.0,Las Animas County,3983.0,10520.0,42418.0,8820.0,7532.0,2430.0,6783.0,9765.0,2229.0,2426.0,2110.0,211.0,112.0
686844,County,2020/08/03,8.0,CO,8071.0,Las Animas County,3993.0,10510.0,49002.0,12635.0,8455.0,2650.0,6658.0,11697.0,3307.0,1755.0,1696.0,91.0,58.0
691620,County,2020/08/04,8.0,CO,8071.0,Las Animas County,3874.0,10629.0,49044.0,11912.0,7508.0,2957.0,6215.0,12609.0,3998.0,1886.0,1786.0,117.0,56.0
694797,County,2020/08/05,8.0,CO,8071.0,Las Animas County,3913.0,10590.0,47660.0,11875.0,9937.0,2728.0,5587.0,10378.0,3782.0,1645.0,1578.0,108.0,42.0
697992,County,2020/08/06,8.0,CO,8071.0,Las Animas County,3866.0,10637.0,51013.0,13433.0,9980.0,2586.0,5943.0,12083.0,3022.0,2244.0,1569.0,124.0,29.0
699619,County,2020/08/07,8.0,CO,8071.0,Las Animas County,3645.0,10858.0,51036.0,11653.0,9854.0,3495.0,6252.0,12945.0,3252.0,2163.0,1331.0,62.0,29.0
702816,County,2020/08/08,8.0,CO,8071.0,Las Animas County,4053.0,10450.0,39015.0,6972.0,7924.0,2852.0,5866.0,8311.0,3521.0,1898.0,1559.0,86.0,26.0
706007,County,2020/08/09,8.0,CO,8071.0,Las Animas County,4215.0,10288.0,39569.0,10706.0,9814.0,2804.0,4531.0,6067.0,2275.0,1633.0,1533.0,145.0,61.0
709227,County,2020/08/10,8.0,CO,8071.0,Las Animas County,4130.0,10373.0,43515.0,10631.0,8673.0,2823.0,4070.0,9517.0,3115.0,1944.0,2422.0,280.0,40.0
712396,County,2020/08/11,8.0,CO,8071.0,Las Animas County,3904.0,10599.0,49779.0,14485.0,8968.0,3045.0,6031.0,8211.0,4429.0,2746.0,1632.0,188.0,44.0
715590,County,2020/08/12,8.0,CO,8071.0,Las Animas County,3679.0,10824.0,50177.0,13476.0,8424.0,3328.0,7943.0,10290.0,2740.0,1711.0,1984.0,218.0,63.0
720350,County,2020/08/13,8.0,CO,8071.0,Las Animas County,3893.0,10610.0,48628.0,12426.0,9459.0,3797.0,6326.0,8133.0,3628.0,2720.0,1885.0,166.0,88.0
721977,County,2020/08/14,8.0,CO,8071.0,Las Animas County,3576.0,10927.0,54326.0,15984.0,8504.0,3711.0,7567.0,9777.0,3417.0,2814.0,2225.0,199.0,128.0
726787,County,2020/08/15,8.0,CO,8071.0,Las Animas County,3889.0,10614.0,43552.0,10566.0,8555.0,2583.0,7081.0,7412.0,3097.0,2291.0,1661.0,156.0,150.0
728366,County,2020/08/16,8.0,CO,8071.0,Las Animas County,4455.0,10048.0,40342.0,12595.0,6562.0,2641.0,3919.0,6946.0,2725.0,2755.0,1864.0,166.0,169.0
733147,County,2020/08/17,8.0,CO,8071.0,Las Animas County,4278.0,10225.0,45798.0,13051.0,8947.0,3136.0,5802.0,8303.0,2089.0,2357.0,1823.0,179.0,111.0
736320,County,2020/08/18,8.0,CO,8071.0,Las Animas County,3835.0,10668.0,54157.0,13343.0,9631.0,3027.0,5722.0,12842.0,4648.0,2758.0,1838.0,173.0,175.0
739514,County,2020/08/19,8.0,CO,8071.0,Las Animas County,4031.0,10472.0,53105.0,15221.0,8334.0,3674.0,7256.0,10676.0,4127.0,1730.0,1840.0,112.0,135.0
741141,County,2020/08/20,8.0,CO,8071.0,Las Animas County,3898.0,10605.0,44317.0,11644.0,7489.0,2516.0,5288.0,10787.0,2539.0,2068.0,1654.0,245.0,87.0
744341,County,2020/08/21,8.0,CO,8071.0,Las Animas County,3625.0,10878.0,48082.0,11871.0,9334.0,2958.0,7444.0,9303.0,3574.0,1331.0,2058.0,127.0,82.0
747547,County,2020/08/22,8.0,CO,8071.0,Las Animas County,3903.0,10600.0,44305.0,11799.0,7742.0,2653.0,6572.0,7947.0,3659.0,2452.0,1177.0,145.0,159.0
752292,County,2020/08/23,8.0,CO,8071.0,Las Animas County,4343.0,10160.0,38096.0,7743.0,7304.0,2600.0,5858.0,6036.0,4047.0,2369.0,1845.0,159.0,135.0
755483,County,2020/08/24,8.0,CO,8071.0,Las Animas County,4093.0,10410.0,44298.0,11029.0,9132.0,3071.0,5245.0,8150.0,3777.0,1832.0,1906.0,79.0,77.0
757112,County,2020/08/25,8.0,CO,8071.0,Las Animas County,3779.0,10724.0,43361.0,10002.0,7458.0,3725.0,6007.0,8964.0,3432.0,1701.0,1836.0,165.0,71.0
761834,County,2020/08/26,8.0,CO,8071.0,Las Animas County,3931.0,10572.0,44619.0,11721.0,7074.0,3482.0,4495.0,10371.0,3540.0,1776.0,1922.0,185.0,53.0
765030,County,2020/08/27,8.0,CO,8071.0,Las Animas County,3929.0,10574.0,43973.0,10392.0,8508.0,3326.0,4616.0,10546.0,2956.0,1975.0,1381.0,145.0,128.0
768246,County,2020/08/28,8.0,CO,8071.0,Las Animas County,3996.0,10507.0,48347.0,13912.0,7452.0,2961.0,5377.0,10085.0,4029.0,2314.0,2013.0,123.0,81.0
771446,County,2020/08/29,8.0,CO,8071.0,Las Animas County,4472.0,10031.0,40549.0,10396.0,8202.0,3311.0,5378.0,7164.0,2553.0,2008.0,1405.0,86.0,46.0
773081,County,2020/08/30,8.0,CO,8071.0,Las Animas County,4503.0,10000.0,35888.0,8681.0,6234.0,2114.0,5169.0,6378.0,3037.0,2465.0,1564.0,144.0,102.0
776273,County,2020/08/31,8.0,CO,8071.0,Las Animas County,4127.0,10376.0,39932.0,13668.0,7245.0,2504.0,4347.0,6992.0,1608.0,1797.0,1466.0,165.0,140.0
781054,County,2020/09/01,8.0,CO,8071.0,Las Animas County,4239.0,10264.0,48182.0,14345.0,8440.0,3722.0,5432.0,9477.0,3233.0,1739.0,1512.0,157.0,125.0
783449,County,2020/09/02,8.0,CO,8071.0,Las Animas County,4165.0,10338.0,46300.0,14869.0,7267.0,2279.0,5620.0,10246.0,2552.0,1799.0,1405.0,194.0,69.0
787399,County,2020/09/03,8.0,CO,8071.0,Las Animas County,4049.0,10454.0,46293.0,11544.0,8784.0,3259.0,5563.0,10034.0,3069.0,1944.0,1904.0,125.0,67.0
789063,County,2020/09/04,8.0,CO,8071.0,Las Animas County,4501.0,10002.0,45301.0,13551.0,10579.0,2343.0,5408.0,8445.0,1520.0,1718.0,1559.0,104.0,74.0
793731,County,2020/09/05,8.0,CO,8071.0,Las Animas County,4419.0,10084.0,44379.0,13711.0,6831.0,3168.0,6732.0,7283.0,2813.0,1830.0,1857.0,95.0,59.0
795434,County,2020/09/06,8.0,CO,8071.0,Las Animas County,4586.0,9917.0,38331.0,11614.0,8045.0,1984.0,5958.0,5372.0,1717.0,1856.0,1566.0,79.0,140.0
798643,County,2020/09/07,8.0,CO,8071.0,Las Animas County,4243.0,10260.0,43695.0,14424.0,7390.0,3902.0,5620.0,6886.0,2180.0,1713.0,1419.0,89.0,72.0
803394,County,2020/09/08,8.0,CO,8071.0,Las Animas County,4505.0,9998.0,48732.0,11878.0,8383.0,3461.0,5874.0,11714.0,4150.0,1791.0,1224.0,180.0,77.0
805021,County,2020/09/09,8.0,CO,8071.0,Las Animas County,4674.0,9829.0,41640.0,10566.0,7955.0,2569.0,5554.0,8870.0,2667.0,1834.0,1368.0,184.0,73.0
809790,County,2020/09/10,8.0,CO,8071.0,Las Animas County,4015.0,10488.0,43865.0,10812.0,8816.0,3030.0,5319.0,9954.0,2314.0,1647.0,1747.0,169.0,57.0
811419,County,2020/09/11,8.0,CO,8071.0,Las Animas County,4196.0,10307.0,45664.0,11331.0,9542.0,3049.0,6009.0,9579.0,2705.0,1397.0,1903.0,95.0,54.0
814603,County,2020/09/12,8.0,CO,8071.0,Las Animas County,4375.0,10128.0,44937.0,12220.0,7549.0,2501.0,5877.0,11151.0,2293.0,1525.0,1568.0,184.0,69.0
817777,County,2020/09/13,8.0,CO,8071.0,Las Animas County,4183.0,10320.0,36570.0,4847.0,6297.0,4422.0,6009.0,8839.0,2961.0,1791.0,1128.0,212.0,64.0
822559,County,2020/09/14,8.0,CO,8071.0,Las Animas County,4244.0,10259.0,44147.0,10082.0,8542.0,3131.0,6335.0,11100.0,2324.0,812.0,1492.0,232.0,97.0
824186,County,2020/09/15,8.0,CO,8071.0,Las Animas County,4030.0,10473.0,80269.0,43998.0,9524.0,3745.0,6327.0,10248.0,2700.0,1990.0,1577.0,94.0,66.0
828993,County,2020/09/16,8.0,CO,8071.0,Las Animas County,4213.0,10290.0,45138.0,10368.0,9680.0,3248.0,6594.0,9404.0,2159.0,1561.0,1968.0,96.0,60.0
830573,County,2020/09/17,8.0,CO,8071.0,Las Animas County,4114.0,10389.0,46081.0,11099.0,8016.0,2459.0,7466.0,9556.0,3383.0,1910.0,2017.0,85.0,90.0
835334,County,2020/09/18,8.0,CO,8071.0,Las Animas County,4087.0,10416.0,48119.0,12594.0,8161.0,2987.0,7536.0,9933.0,2505.0,1970.0,2247.0,113.0,73.0
836962,County,2020/09/19,8.0,CO,8071.0,Las Animas County,4566.0,9937.0,68640.0,29264.0,11414.0,3538.0,9109.0,9881.0,1845.0,1773.0,1682.0,62.0,72.0
841737,County,2020/09/20,8.0,CO,8071.0,Las Animas County,4902.0,9601.0,32730.0,5838.0,7173.0,2060.0,5156.0,6741.0,2228.0,1387.0,1905.0,137.0,105.0
844942,County,2020/09/21,8.0,CO,8071.0,Las Animas County,4864.0,9639.0,39313.0,9346.0,8060.0,2527.0,5150.0,8066.0,3222.0,1688.0,1157.0,72.0,25.0
848110,County,2020/09/22,8.0,CO,8071.0,Las Animas County,4699.0,9804.0,41035.0,10104.0,8789.0,2952.0,5242.0,8185.0,3223.0,1303.0,1134.0,79.0,24.0
849737,County,2020/09/23,8.0,CO,8071.0,Las Animas County,4296.0,10207.0,44543.0,13253.0,9868.0,3147.0,4888.0,6722.0,2377.0,2422.0,1645.0,129.0,92.0
854503,County,2020/09/24,8.0,CO,8071.0,Las Animas County,5006.0,9497.0,44046.0,12934.0,8484.0,2627.0,5367.0,7693.0,3271.0,1870.0,1672.0,85.0,43.0
856132,County,2020/09/25,8.0,CO,8071.0,Las Animas County,4222.0,10281.0,46769.0,13291.0,9162.0,3076.0,6459.0,8259.0,2791.0,1662.0,1967.0,73.0,29.0
859319,County,2020/09/26,8.0,CO,8071.0,Las Animas County,5066.0,9437.0,44177.0,9053.0,8418.0,2174.0,7714.0,10032.0,2778.0,1932.0,1949.0,118.0,9.0
864066,County,2020/09/27,8.0,CO,8071.0,Las Animas County,4451.0,10052.0,31108.0,5601.0,5287.0,2961.0,5034.0,6581.0,2629.0,1140.0,1529.0,244.0,102.0
867274,County,2020/09/28,8.0,CO,8071.0,Las Animas County,4378.0,10125.0,43083.0,10084.0,9030.0,3260.0,5944.0,7357.0,3358.0,2178.0,1684.0,144.0,44.0
868901,County,2020/09/29,8.0,CO,8071.0,Las Animas County,4171.0,10332.0,44032.0,12230.0,9008.0,3547.0,4660.0,7563.0,3164.0,2488.0,1240.0,118.0,14.0
873680,County,2020/09/30,8.0,CO,8071.0,Las Animas County,4114.0,10389.0,188036.0,131162.0,31107.0,3626.0,6681.0,8836.0,3102.0,2102.0,1328.0,64.0,28.0
876835,County,2020/10/01,8.0,CO,8071.0,Las Animas County,3967.0,10536.0,60757.0,21741.0,13396.0,3634.0,4994.0,9007.0,4296.0,1807.0,1769.0,82.0,31.0
880050,County,2020/10/02,8.0,CO,8071.0,Las Animas County,4253.0,10250.0,45444.0,10245.0,9834.0,3348.0,6244.0,8498.0,3309.0,1935.0,1917.0,91.0,23.0
881678,County,2020/10/03,8.0,CO,8071.0,Las Animas County,4581.0,9922.0,42934.0,10424.0,7731.0,2908.0,6817.0,7473.0,4332.0,1968.0,1152.0,105.0,24.0
884825,County,2020/10/04,8.0,CO,8071.0,Las Animas County,4440.0,10063.0,35352.0,8432.0,6677.0,2830.0,4578.0,6597.0,2744.0,1933.0,1437.0,105.0,19.0
888213,County,2020/10/05,8.0,CO,8071.0,Las Animas County,4691.0,9812.0,84029.0,48664.0,14170.0,3338.0,5088.0,6193.0,3103.0,1922.0,1493.0,47.0,11.0
891354,County,2020/10/06,8.0,CO,8071.0,Las Animas County,4298.0,10205.0,46232.0,11779.0,9436.0,2812.0,6254.0,9694.0,3239.0,1712.0,1212.0,72.0,22.0
894553,County,2020/10/07,8.0,CO,8071.0,Las Animas County,3896.0,10607.0,48920.0,14578.0,9996.0,2800.0,5510.0,8569.0,3715.0,2277.0,1355.0,98.0,22.0
897714,County,2020/10/08,8.0,CO,8071.0,Las Animas County,4034.0,10469.0,40276.0,8766.0,7825.0,1779.0,5811.0,8407.0,3836.0,1935.0,1761.0,133.0,23.0
900989,County,2020/10/09,8.0,CO,8071.0,Las Animas County,4218.0,10285.0,48028.0,12655.0,9277.0,2837.0,7362.0,8360.0,3707.0,2058.0,1635.0,125.0,12.0
904151,County,2020/10/10,8.0,CO,8071.0,Las Animas County,4438.0,10065.0,41547.0,8486.0,7642.0,3417.0,8683.0,6710.0,2296.0,3035.0,1193.0,67.0,18.0
910284,County,2020/10/11,8.0,CO,8071.0,Las Animas County,4578.0,9925.0,32377.0,7226.0,5057.0,2022.0,5256.0,5993.0,2967.0,2478.0,1144.0,228.0,6.0
912961,County,2020/10/12,8.0,CO,8071.0,Las Animas County,4326.0,10177.0,38949.0,7500.0,5661.0,2810.0,6607.0,9151.0,2748.0,2701.0,1589.0,160.0,22.0
916404,County,2020/10/13,8.0,CO,8071.0,Las Animas County,4274.0,10229.0,38864.0,8623.0,7885.0,2512.0,5481.0,8305.0,3200.0,1397.0,1363.0,73.0,25.0
919426,County,2020/10/14,8.0,CO,8071.0,Las Animas County,4081.0,10422.0,43353.0,10237.0,8567.0,3055.0,6807.0,7887.0,3629.0,1791.0,1254.0,92.0,34.0
922826,County,2020/10/15,8.0,CO,8071.0,Las Animas County,4680.0,9823.0,36046.0,6872.0,7051.0,2267.0,6156.0,7208.0,2743.0,2152.0,1470.0,97.0,30.0
925808,County,2020/10/16,8.0,CO,8071.0,Las Animas County,4258.0,10245.0,37977.0,8032.0,7562.0,3075.0,5109.0,8548.0,2336.0,1961.0,1238.0,91.0,25.0
929047,County,2020/10/17,8.0,CO,8071.0,Las Animas County,4468.0,10035.0,39628.0,10349.0,6812.0,3511.0,7685.0,6338.0,2615.0,1256.0,856.0,179.0,27.0
932321,County,2020/10/18,8.0,CO,8071.0,Las Animas County,4432.0,10071.0,36527.0,9148.0,6226.0,2988.0,6932.0,5534.0,3087.0,1211.0,1197.0,190.0,14.0
935512,County,2020/10/19,8.0,CO,8071.0,Las Animas County,4566.0,9937.0,40009.0,10549.0,6375.0,2362.0,5955.0,8107.0,3383.0,2178.0,950.0,143.0,7.0
938501,County,2020/10/20,8.0,CO,8071.0,Las Animas County,4357.0,10146.0,42155.0,9189.0,8924.0,2177.0,6332.0,9081.0,3967.0,1099.0,1266.0,99.0,21.0
941598,County,2020/10/21,8.0,CO,8071.0,Las Animas County,4589.0,9914.0,39097.0,9177.0,7654.0,2126.0,7032.0,8784.0,1443.0,1254.0,1567.0,42.0,18.0
944788,County,2020/10/22,8.0,CO,8071.0,Las Animas County,4060.0,10443.0,39430.0,8810.0,7228.0,3294.0,6052.0,8337.0,2683.0,1350.0,1570.0,88.0,18.0
947704,County,2020/10/23,8.0,CO,8071.0,Las Animas County,4298.0,10205.0,43661.0,10740.0,8491.0,3300.0,5796.0,8651.0,3148.0,1811.0,1651.0,62.0,11.0
951424,County,2020/10/24,8.0,CO,8071.0,Las Animas County,4671.0,9832.0,42235.0,10131.0,7569.0,2987.0,4552.0,10250.0,3773.0,1428.0,1512.0,26.0,7.0
