,Level,Date,State FIPS,State Postal Code,County FIPS,County Name,Population Staying at Home,Population Not Staying at Home,Number of Trips,Number of Trips <1,Number of Trips 1-3,Number of Trips 3-5,Number of Trips 5-10,Number of Trips 10-25,Number of Trips 25-50,Number of Trips 50-100,Number of Trips 100-250,Number of Trips 250-500,Number of Trips >=500
1561,County,2020/01/01,29.0,MO,29157.0,Perry County,4437.0,14713.0,55447.0,11590.0,12907.0,7618.0,7203.0,8015.0,5602.0,1603.0,652.0,242.0,15.0
3801,County,2020/01/02,29.0,MO,29157.0,Perry County,3747.0,15403.0,69535.0,17924.0,19623.0,7322.0,8413.0,8063.0,5743.0,1842.0,470.0,119.0,16.0
8717,County,2020/01/03,29.0,MO,29157.0,Perry County,3708.0,15442.0,69342.0,15245.0,20832.0,8385.0,7868.0,7743.0,6712.0,2028.0,380.0,133.0,16.0
11915,County,2020/01/04,29.0,MO,29157.0,Perry County,3917.0,15233.0,69096.0,16490.0,18458.0,8527.0,7476.0,8267.0,6495.0,2790.0,406.0,173.0,14.0
14337,County,2020/01/05,29.0,MO,29157.0,Perry County,4761.0,14389.0,55170.0,11583.0,15268.0,7024.0,7443.0,7514.0,4262.0,1467.0,426.0,179.0,4.0
18362,County,2020/01/06,29.0,MO,29157.0,Perry County,3909.0,15241.0,63398.0,13805.0,16506.0,7799.0,6678.0,8827.0,7385.0,2045.0,270.0,76.0,7.0
21508,County,2020/01/07,29.0,MO,29157.0,Perry County,3608.0,15542.0,63965.0,15956.0,17510.0,6735.0,8092.0,7682.0,5827.0,1432.0,551.0,161.0,19.0
24752,County,2020/01/08,29.0,MO,29157.0,Perry County,3754.0,15396.0,66934.0,16202.0,17914.0,7957.0,8151.0,7748.0,6469.0,1776.0,583.0,112.0,22.0
26330,County,2020/01/09,29.0,MO,29157.0,Perry County,3818.0,15332.0,65674.0,15103.0,17693.0,6334.0,8031.0,8738.0,6317.0,2726.0,565.0,149.0,18.0
29526,County,2020/01/10,29.0,MO,29157.0,Perry County,3561.0,15589.0,68765.0,15069.0,20591.0,7406.0,8157.0,8743.0,6061.0,1985.0,580.0,153.0,20.0
32767,County,2020/01/11,29.0,MO,29157.0,Perry County,4130.0,15020.0,67690.0,15226.0,18057.0,8406.0,7794.0,9762.0,5766.0,2164.0,319.0,190.0,6.0
37454,County,2020/01/12,29.0,MO,29157.0,Perry County,4613.0,14537.0,57745.0,11604.0,15449.0,9672.0,6834.0,6820.0,5023.0,1675.0,547.0,114.0,7.0
40701,County,2020/01/13,29.0,MO,29157.0,Perry County,3739.0,15411.0,68473.0,16578.0,17380.0,7313.0,8037.0,9488.0,7119.0,1943.0,428.0,187.0,0.0
42327,County,2020/01/14,29.0,MO,29157.0,Perry County,3721.0,15429.0,62452.0,14978.0,16816.0,6295.0,8628.0,8348.0,5133.0,1652.0,385.0,208.0,9.0
45481,County,2020/01/15,29.0,MO,29157.0,Perry County,3462.0,15688.0,66244.0,15281.0,17564.0,9056.0,7805.0,8320.0,5430.0,2073.0,536.0,176.0,3.0
50261,County,2020/01/16,29.0,MO,29157.0,Perry County,3537.0,15613.0,65215.0,14562.0,19276.0,7345.0,6995.0,8463.0,6117.0,1680.0,656.0,106.0,15.0
51840,County,2020/01/17,29.0,MO,29157.0,Perry County,3561.0,15589.0,67971.0,15075.0,21540.0,8431.0,8108.0,7048.0,5662.0,1630.0,280.0,154.0,43.0
55072,County,2020/01/18,29.0,MO,29157.0,Perry County,4366.0,14784.0,68168.0,14811.0,19701.0,8116.0,6675.0,9371.0,6928.0,1823.0,505.0,225.0,13.0
59868,County,2020/01/19,29.0,MO,29157.0,Perry County,4820.0,14330.0,54169.0,10727.0,16113.0,8272.0,7535.0,5984.0,3386.0,1595.0,409.0,127.0,21.0
63031,County,2020/01/20,29.0,MO,29157.0,Perry County,3881.0,15269.0,62575.0,14026.0,17297.0,7563.0,8499.0,7388.0,5504.0,1709.0,427.0,135.0,27.0
66229,County,2020/01/21,29.0,MO,29157.0,Perry County,3813.0,15337.0,62851.0,14582.0,15742.0,6934.0,8757.0,7822.0,6410.0,2131.0,352.0,109.0,12.0
69419,County,2020/01/22,29.0,MO,29157.0,Perry County,3601.0,15549.0,67684.0,15136.0,19370.0,8084.0,8037.0,8162.0,6563.0,1902.0,323.0,95.0,12.0
71044,County,2020/01/23,29.0,MO,29157.0,Perry County,4065.0,15085.0,63316.0,14712.0,16198.0,9836.0,6595.0,7440.0,6013.0,2096.0,314.0,92.0,20.0
74241,County,2020/01/24,29.0,MO,29157.0,Perry County,4096.0,15054.0,71427.0,15675.0,21095.0,8472.0,9385.0,8452.0,6108.0,1796.0,370.0,53.0,21.0
77434,County,2020/01/25,29.0,MO,29157.0,Perry County,3794.0,15356.0,68986.0,16076.0,18226.0,8416.0,7708.0,9297.0,6435.0,2338.0,411.0,55.0,24.0
81411,County,2020/01/26,29.0,MO,29157.0,Perry County,4493.0,14657.0,59219.0,13023.0,17585.0,8123.0,5873.0,8102.0,4371.0,1780.0,261.0,88.0,13.0
85357,County,2020/01/27,29.0,MO,29157.0,Perry County,3632.0,15518.0,63226.0,15554.0,17416.0,7474.0,6571.0,8863.0,5398.0,1361.0,497.0,75.0,17.0
89113,County,2020/01/28,29.0,MO,29157.0,Perry County,3684.0,15466.0,65215.0,17078.0,17549.0,7679.0,7688.0,7795.0,5098.0,1813.0,395.0,112.0,8.0
91763,County,2020/01/29,29.0,MO,29157.0,Perry County,4200.0,14950.0,65432.0,16099.0,18413.0,7029.0,7558.0,7371.0,6201.0,2253.0,396.0,106.0,6.0
95018,County,2020/01/30,29.0,MO,29157.0,Perry County,3471.0,15679.0,70372.0,15071.0,21318.0,8119.0,8544.0,8332.0,5827.0,2293.0,659.0,154.0,55.0
96593,County,2020/01/31,29.0,MO,29157.0,Perry County,3563.0,15587.0,72491.0,16026.0,19435.0,8968.0,9400.0,8064.0,7218.0,2443.0,747.0,158.0,32.0
99842,County,2020/02/01,29.0,MO,29157.0,Perry County,4013.0,15137.0,72795.0,14224.0,21959.0,9626.0,8185.0,9302.0,5759.0,2403.0,966.0,342.0,29.0
102969,County,2020/02/02,29.0,MO,29157.0,Perry County,4206.0,14944.0,60359.0,13969.0,18257.0,7852.0,6738.0,8153.0,2810.0,1854.0,430.0,268.0,28.0
106179,County,2020/02/03,29.0,MO,29157.0,Perry County,3588.0,15562.0,70639.0,17015.0,19725.0,9567.0,8942.0,7020.0,5352.0,1854.0,865.0,276.0,23.0
110941,County,2020/02/04,29.0,MO,29157.0,Perry County,3495.0,15655.0,64197.0,14567.0,18957.0,7075.0,7727.0,7171.0,5768.0,1929.0,712.0,272.0,19.0
114145,County,2020/02/05,29.0,MO,29157.0,Perry County,3586.0,15564.0,64895.0,15009.0,17986.0,7955.0,7243.0,8154.0,5610.0,2101.0,582.0,207.0,48.0
115663,County,2020/02/06,29.0,MO,29157.0,Perry County,3871.0,15279.0,61465.0,12750.0,16470.0,8831.0,7385.0,7689.0,5607.0,1980.0,540.0,193.0,20.0
118929,County,2020/02/07,29.0,MO,29157.0,Perry County,3299.0,15851.0,73104.0,17585.0,21686.0,8234.0,7662.0,7472.0,7184.0,2126.0,965.0,169.0,21.0
122175,County,2020/02/08,29.0,MO,29157.0,Perry County,3871.0,15279.0,70755.0,14167.0,21255.0,9215.0,8329.0,8447.0,5889.0,2640.0,652.0,136.0,25.0
125574,County,2020/02/09,29.0,MO,29157.0,Perry County,4399.0,14751.0,57774.0,10105.0,16039.0,9342.0,7016.0,7651.0,5021.0,1600.0,736.0,233.0,31.0
129870,County,2020/02/10,29.0,MO,29157.0,Perry County,3742.0,15408.0,69933.0,15658.0,19425.0,8172.0,8505.0,7485.0,7342.0,2149.0,939.0,214.0,44.0
133924,County,2020/02/11,29.0,MO,29157.0,Perry County,3492.0,15658.0,70863.0,16646.0,19639.0,8623.0,9131.0,7655.0,5622.0,2587.0,699.0,216.0,45.0
135400,County,2020/02/12,29.0,MO,29157.0,Perry County,3668.0,15482.0,70152.0,15090.0,19867.0,9729.0,8740.0,7536.0,5382.0,2563.0,992.0,207.0,46.0
138158,County,2020/02/13,29.0,MO,29157.0,Perry County,3378.0,15772.0,77675.0,17446.0,20677.0,9032.0,10372.0,10435.0,6100.0,2284.0,978.0,314.0,37.0
142888,County,2020/02/14,29.0,MO,29157.0,Perry County,3315.0,15835.0,76783.0,16922.0,23233.0,8484.0,8666.0,9494.0,6500.0,2068.0,980.0,322.0,114.0
144512,County,2020/02/15,29.0,MO,29157.0,Perry County,3785.0,15365.0,69080.0,13987.0,19188.0,9114.0,9077.0,7761.0,6098.0,2520.0,931.0,331.0,73.0
149296,County,2020/02/16,29.0,MO,29157.0,Perry County,3974.0,15176.0,68007.0,15609.0,17107.0,10017.0,7436.0,9144.0,5544.0,1677.0,1074.0,290.0,109.0
152463,County,2020/02/17,29.0,MO,29157.0,Perry County,5061.0,14089.0,63077.0,15352.0,18570.0,7560.0,6560.0,7357.0,4646.0,1713.0,1040.0,190.0,89.0
155607,County,2020/02/18,29.0,MO,29157.0,Perry County,3551.0,15599.0,71751.0,17545.0,18808.0,7848.0,9228.0,9060.0,5753.0,2426.0,757.0,281.0,45.0
157284,County,2020/02/19,29.0,MO,29157.0,Perry County,3606.0,15544.0,78248.0,19050.0,20911.0,10822.0,9456.0,8648.0,6254.0,1726.0,1109.0,240.0,32.0
160345,County,2020/02/20,29.0,MO,29157.0,Perry County,3458.0,15692.0,74036.0,19074.0,18956.0,10168.0,7667.0,9131.0,5844.0,2208.0,661.0,295.0,32.0
165239,County,2020/02/21,29.0,MO,29157.0,Perry County,3389.0,15761.0,78863.0,15949.0,23650.0,9625.0,8533.0,10327.0,6682.0,2812.0,931.0,321.0,33.0
168383,County,2020/02/22,29.0,MO,29157.0,Perry County,3276.0,15874.0,73757.0,15098.0,22908.0,8797.0,8282.0,9757.0,5199.0,2291.0,805.0,596.0,24.0
171632,County,2020/02/23,29.0,MO,29157.0,Perry County,4219.0,14931.0,64249.0,12185.0,18186.0,7590.0,8269.0,10133.0,5476.0,1780.0,326.0,284.0,20.0
174827,County,2020/02/24,29.0,MO,29157.0,Perry County,4109.0,15041.0,63797.0,15761.0,14956.0,8661.0,7063.0,9616.0,5422.0,1584.0,513.0,136.0,85.0
177232,County,2020/02/25,29.0,MO,29157.0,Perry County,3367.0,15783.0,72252.0,16985.0,19420.0,8362.0,9379.0,8239.0,6758.0,2011.0,722.0,316.0,60.0
180425,County,2020/02/26,29.0,MO,29157.0,Perry County,3653.0,15497.0,59064.0,10424.0,14076.0,8766.0,9592.0,8353.0,5974.0,1482.0,208.0,174.0,15.0
184397,County,2020/02/27,29.0,MO,29157.0,Perry County,3529.0,15621.0,76949.0,17855.0,20508.0,9341.0,8376.0,10407.0,7262.0,2518.0,547.0,83.0,52.0
186123,County,2020/02/28,29.0,MO,29157.0,Perry County,3291.0,15859.0,80019.0,20592.0,19868.0,9046.0,11242.0,8903.0,7127.0,2356.0,689.0,181.0,15.0
190742,County,2020/02/29,29.0,MO,29157.0,Perry County,3765.0,15385.0,80758.0,15731.0,20870.0,9742.0,10643.0,12394.0,8177.0,2566.0,465.0,125.0,45.0
192414,County,2020/03/01,29.0,MO,29157.0,Perry County,3789.0,15361.0,59658.0,13311.0,15892.0,7473.0,8139.0,8691.0,3773.0,1668.0,454.0,215.0,42.0
195638,County,2020/03/02,29.0,MO,29157.0,Perry County,3662.0,15488.0,69881.0,16912.0,20158.0,7322.0,9204.0,7069.0,6390.0,2112.0,362.0,333.0,19.0
200274,County,2020/03/03,29.0,MO,29157.0,Perry County,3398.0,15752.0,74078.0,18730.0,19532.0,9300.0,8674.0,9503.0,4744.0,2528.0,750.0,299.0,18.0
202653,County,2020/03/04,29.0,MO,29157.0,Perry County,3446.0,15704.0,77638.0,22219.0,19287.0,8965.0,9374.0,7487.0,6303.0,2910.0,888.0,183.0,22.0
205143,County,2020/03/05,29.0,MO,29157.0,Perry County,3123.0,16027.0,74259.0,16353.0,21241.0,9817.0,7681.0,9102.0,6710.0,2312.0,866.0,159.0,18.0
209994,County,2020/03/06,29.0,MO,29157.0,Perry County,3249.0,15901.0,73031.0,16855.0,22016.0,7596.0,8556.0,8033.0,5985.0,2398.0,1197.0,366.0,29.0
213226,County,2020/03/07,29.0,MO,29157.0,Perry County,3483.0,15667.0,74265.0,18945.0,18566.0,9508.0,9788.0,8523.0,5418.0,2267.0,1038.0,190.0,22.0
214778,County,2020/03/08,29.0,MO,29157.0,Perry County,3962.0,15188.0,71977.0,17164.0,16672.0,11812.0,8540.0,10167.0,4512.0,2157.0,764.0,159.0,30.0
219536,County,2020/03/09,29.0,MO,29157.0,Perry County,3546.0,15604.0,64351.0,12977.0,16000.0,8247.0,6060.0,9755.0,7966.0,2495.0,663.0,157.0,31.0
222730,County,2020/03/10,29.0,MO,29157.0,Perry County,3359.0,15791.0,74504.0,17801.0,21697.0,8956.0,7636.0,8107.0,7233.0,2298.0,626.0,119.0,31.0
225959,County,2020/03/11,29.0,MO,29157.0,Perry County,3679.0,15471.0,54119.0,12101.0,13252.0,7066.0,4508.0,6448.0,5895.0,3249.0,1096.0,490.0,14.0
227588,County,2020/03/12,29.0,MO,29157.0,Perry County,3695.0,15455.0,55257.0,11867.0,16590.0,5922.0,5709.0,6124.0,5598.0,2931.0,232.0,233.0,51.0
230747,County,2020/03/13,29.0,MO,29157.0,Perry County,3522.0,15628.0,55286.0,11405.0,15976.0,7758.0,7381.0,4318.0,4719.0,2712.0,956.0,61.0,0.0
235374,County,2020/03/14,29.0,MO,29157.0,Perry County,4503.0,14647.0,56217.0,7831.0,13684.0,14802.0,6643.0,5758.0,4290.0,2393.0,448.0,301.0,67.0
238700,County,2020/03/15,29.0,MO,29157.0,Perry County,4794.0,14356.0,59552.0,11710.0,16963.0,10999.0,7612.0,6980.0,3302.0,982.0,736.0,232.0,36.0
240327,County,2020/03/16,29.0,MO,29157.0,Perry County,3988.0,15162.0,70579.0,16581.0,17937.0,9772.0,9610.0,8176.0,6023.0,1527.0,801.0,135.0,17.0
243510,County,2020/03/17,29.0,MO,29157.0,Perry County,4271.0,14879.0,74213.0,16176.0,20715.0,9967.0,10620.0,8138.0,6338.0,1589.0,499.0,136.0,35.0
246714,County,2020/03/18,29.0,MO,29157.0,Perry County,4618.0,14532.0,61813.0,12573.0,15635.0,7057.0,9027.0,8707.0,5275.0,2332.0,1033.0,160.0,14.0
251496,County,2020/03/19,29.0,MO,29157.0,Perry County,4583.0,14567.0,60500.0,15579.0,16237.0,7057.0,8326.0,5936.0,4748.0,2031.0,435.0,110.0,41.0
254671,County,2020/03/20,29.0,MO,29157.0,Perry County,4657.0,14493.0,90127.0,31710.0,25104.0,9765.0,8995.0,6602.0,5059.0,2143.0,509.0,218.0,22.0
257863,County,2020/03/21,29.0,MO,29157.0,Perry County,5244.0,13906.0,64670.0,18225.0,17651.0,8597.0,7598.0,5613.0,4265.0,1866.0,699.0,141.0,15.0
259484,County,2020/03/22,29.0,MO,29157.0,Perry County,5573.0,13577.0,41163.0,7479.0,11860.0,7366.0,4852.0,5194.0,2408.0,1407.0,383.0,193.0,21.0
264263,County,2020/03/23,29.0,MO,29157.0,Perry County,4955.0,14195.0,53842.0,13402.0,15568.0,6545.0,6482.0,5117.0,4111.0,1835.0,542.0,231.0,9.0
265840,County,2020/03/24,29.0,MO,29157.0,Perry County,4837.0,14313.0,45148.0,9673.0,10202.0,6626.0,5889.0,7008.0,3626.0,1240.0,687.0,183.0,14.0
270641,County,2020/03/25,29.0,MO,29157.0,Perry County,4784.0,14366.0,50734.0,11698.0,15260.0,6235.0,5310.0,5764.0,3275.0,2436.0,446.0,287.0,23.0
272267,County,2020/03/26,29.0,MO,29157.0,Perry County,4970.0,14180.0,53024.0,12860.0,16353.0,4600.0,6964.0,6284.0,3776.0,1404.0,589.0,170.0,24.0
277030,County,2020/03/27,29.0,MO,29157.0,Perry County,4669.0,14481.0,54151.0,13879.0,13654.0,6400.0,6684.0,6769.0,4296.0,1713.0,555.0,193.0,8.0
278657,County,2020/03/28,29.0,MO,29157.0,Perry County,5005.0,14145.0,53784.0,14201.0,15346.0,7736.0,6877.0,5723.0,1865.0,1140.0,706.0,169.0,21.0
281850,County,2020/03/29,29.0,MO,29157.0,Perry County,5276.0,13874.0,47524.0,11819.0,13267.0,7910.0,5507.0,4751.0,2154.0,1202.0,515.0,389.0,10.0
286642,County,2020/03/30,29.0,MO,29157.0,Perry County,4541.0,14609.0,56638.0,12486.0,15708.0,8774.0,5505.0,7097.0,4270.0,2067.0,491.0,210.0,30.0
288240,County,2020/03/31,29.0,MO,29157.0,Perry County,4851.0,14299.0,53802.0,12870.0,14280.0,7559.0,6149.0,6377.0,4184.0,1529.0,553.0,279.0,22.0
291475,County,2020/04/01,29.0,MO,29157.0,Perry County,4889.0,14261.0,54706.0,14299.0,15646.0,7702.0,6265.0,5431.0,2890.0,1720.0,604.0,122.0,27.0
294626,County,2020/04/02,29.0,MO,29157.0,Perry County,4881.0,14269.0,54306.0,14527.0,13435.0,6365.0,6503.0,7220.0,4288.0,1243.0,527.0,184.0,14.0
297820,County,2020/04/03,29.0,MO,29157.0,Perry County,5031.0,14119.0,53828.0,11939.0,14096.0,8677.0,7286.0,6513.0,3235.0,1422.0,492.0,145.0,23.0
301013,County,2020/04/04,29.0,MO,29157.0,Perry County,5640.0,13510.0,49672.0,8984.0,15370.0,8195.0,6274.0,5892.0,3208.0,1256.0,282.0,190.0,21.0
305768,County,2020/04/05,29.0,MO,29157.0,Perry County,5628.0,13522.0,42439.0,8770.0,12612.0,4136.0,7352.0,5711.0,1539.0,1481.0,606.0,204.0,28.0
308968,County,2020/04/06,29.0,MO,29157.0,Perry County,5260.0,13890.0,59065.0,14315.0,15570.0,10352.0,6691.0,7189.0,2966.0,1287.0,597.0,93.0,5.0
310596,County,2020/04/07,29.0,MO,29157.0,Perry County,5225.0,13925.0,56168.0,13116.0,14028.0,9035.0,7349.0,7053.0,3729.0,1198.0,472.0,167.0,21.0
313790,County,2020/04/08,29.0,MO,29157.0,Perry County,5211.0,13939.0,51318.0,11039.0,13136.0,7641.0,6825.0,6338.0,4407.0,1463.0,351.0,89.0,29.0
318549,County,2020/04/09,29.0,MO,29157.0,Perry County,4874.0,14276.0,56149.0,16361.0,12594.0,7941.0,5525.0,7501.0,4093.0,1581.0,439.0,89.0,25.0
321745,County,2020/04/10,29.0,MO,29157.0,Perry County,5226.0,13924.0,57513.0,13192.0,15379.0,7239.0,8446.0,7541.0,3803.0,1414.0,337.0,146.0,16.0
323420,County,2020/04/11,29.0,MO,29157.0,Perry County,5214.0,13936.0,56787.0,13079.0,16379.0,8073.0,7588.0,6603.0,3308.0,1577.0,95.0,48.0,37.0
326565,County,2020/04/12,29.0,MO,29157.0,Perry County,6240.0,12910.0,39899.0,9215.0,8672.0,7922.0,5362.0,6061.0,2036.0,395.0,148.0,49.0,39.0
329781,County,2020/04/13,29.0,MO,29157.0,Perry County,5289.0,13861.0,51624.0,10753.0,13922.0,7940.0,6889.0,5263.0,4838.0,1427.0,465.0,117.0,10.0
334502,County,2020/04/14,29.0,MO,29157.0,Perry County,5343.0,13807.0,50441.0,8067.0,14140.0,8673.0,6898.0,6727.0,3189.0,2541.0,0.0,192.0,14.0
337754,County,2020/04/15,29.0,MO,29157.0,Perry County,4833.0,14317.0,33052.0,5605.0,8137.0,3485.0,4200.0,4914.0,4271.0,1664.0,567.0,171.0,38.0
339333,County,2020/04/16,29.0,MO,29157.0,Perry County,5452.0,13698.0,60365.0,17442.0,13967.0,12103.0,7130.0,4741.0,4003.0,701.0,263.0,0.0,15.0
342633,County,2020/04/17,29.0,MO,29157.0,Perry County,4852.0,14298.0,50423.0,13521.0,12493.0,6897.0,8865.0,3242.0,2616.0,1796.0,785.0,170.0,38.0
347259,County,2020/04/18,29.0,MO,29157.0,Perry County,5712.0,13438.0,58204.0,9880.0,13574.0,15428.0,9164.0,5827.0,3183.0,646.0,484.0,0.0,18.0
348911,County,2020/04/19,29.0,MO,29157.0,Perry County,5531.0,13619.0,31593.0,3788.0,10762.0,5400.0,3254.0,5077.0,2364.0,704.0,0.0,200.0,44.0
352117,County,2020/04/20,29.0,MO,29157.0,Perry County,4676.0,14474.0,44048.0,7882.0,10320.0,6042.0,6865.0,7607.0,3400.0,1180.0,505.0,191.0,56.0
355311,County,2020/04/21,29.0,MO,29157.0,Perry County,4320.0,14830.0,52796.0,13444.0,15187.0,5649.0,5589.0,7651.0,3358.0,1336.0,479.0,88.0,15.0
360081,County,2020/04/22,29.0,MO,29157.0,Perry County,4480.0,14670.0,56281.0,11158.0,16554.0,9078.0,5798.0,6934.0,4292.0,1596.0,665.0,201.0,5.0
361611,County,2020/04/23,29.0,MO,29157.0,Perry County,4852.0,14298.0,51509.0,11006.0,13186.0,5849.0,7049.0,8020.0,4353.0,1524.0,381.0,120.0,21.0
364914,County,2020/04/24,29.0,MO,29157.0,Perry County,4277.0,14873.0,59772.0,13575.0,17816.0,8396.0,7263.0,7083.0,3387.0,1933.0,220.0,89.0,10.0
369655,County,2020/04/25,29.0,MO,29157.0,Perry County,4888.0,14262.0,48053.0,8655.0,13708.0,6697.0,7626.0,6492.0,3430.0,1047.0,245.0,148.0,5.0
372850,County,2020/04/26,29.0,MO,29157.0,Perry County,5115.0,14035.0,59684.0,11768.0,15994.0,11130.0,6438.0,9940.0,3118.0,942.0,272.0,82.0,0.0
376081,County,2020/04/27,29.0,MO,29157.0,Perry County,4184.0,14966.0,60811.0,13019.0,19669.0,7967.0,8214.0,6554.0,3797.0,1153.0,346.0,87.0,5.0
377626,County,2020/04/28,29.0,MO,29157.0,Perry County,4519.0,14631.0,63086.0,13613.0,17330.0,10792.0,7592.0,6992.0,4367.0,1766.0,512.0,108.0,14.0
380878,County,2020/04/29,29.0,MO,29157.0,Perry County,4572.0,14578.0,59563.0,14347.0,17295.0,6732.0,8076.0,7768.0,3295.0,1614.0,358.0,68.0,10.0
384026,County,2020/04/30,29.0,MO,29157.0,Perry County,4389.0,14761.0,67717.0,17092.0,18609.0,9488.0,6742.0,8420.0,5328.0,1470.0,431.0,121.0,16.0
388861,County,2020/05/01,29.0,MO,29157.0,Perry County,4325.0,14825.0,67010.0,18213.0,18602.0,10269.0,7200.0,7351.0,3351.0,1520.0,410.0,69.0,25.0
390433,County,2020/05/02,29.0,MO,29157.0,Perry County,4436.0,14714.0,69317.0,16255.0,18450.0,10596.0,8691.0,8921.0,4403.0,1668.0,232.0,70.0,31.0
395206,County,2020/05/03,29.0,MO,29157.0,Perry County,5479.0,13671.0,58974.0,12104.0,17533.0,9486.0,8818.0,8053.0,2135.0,756.0,0.0,57.0,32.0
398400,County,2020/05/04,29.0,MO,29157.0,Perry County,4233.0,14917.0,57828.0,13139.0,16262.0,7049.0,6970.0,6796.0,5290.0,1911.0,253.0,106.0,52.0
401576,County,2020/05/05,29.0,MO,29157.0,Perry County,4587.0,14563.0,63261.0,12977.0,16632.0,9883.0,8645.0,7193.0,5610.0,1931.0,280.0,94.0,16.0
403207,County,2020/05/06,29.0,MO,29157.0,Perry County,4467.0,14683.0,62611.0,12877.0,18765.0,8131.0,7512.0,8706.0,4271.0,1941.0,309.0,89.0,10.0
407926,County,2020/05/07,29.0,MO,29157.0,Perry County,4456.0,14694.0,60191.0,13804.0,19417.0,7242.0,6703.0,6434.0,5022.0,1188.0,255.0,107.0,19.0
411188,County,2020/05/08,29.0,MO,29157.0,Perry County,4231.0,14919.0,61176.0,12628.0,19839.0,9431.0,6709.0,6221.0,4954.0,1010.0,267.0,112.0,5.0
414336,County,2020/05/09,29.0,MO,29157.0,Perry County,4350.0,14800.0,63213.0,14637.0,18673.0,9863.0,6326.0,7403.0,4596.0,1243.0,373.0,94.0,5.0
415997,County,2020/05/10,29.0,MO,29157.0,Perry County,5049.0,14101.0,58973.0,14788.0,14788.0,9677.0,7378.0,8064.0,2865.0,1169.0,206.0,26.0,12.0
419191,County,2020/05/11,29.0,MO,29157.0,Perry County,3960.0,15190.0,63103.0,16034.0,14888.0,10078.0,6862.0,8831.0,4317.0,1529.0,487.0,58.0,19.0
424049,County,2020/05/12,29.0,MO,29157.0,Perry County,4013.0,15137.0,61365.0,13679.0,16803.0,7253.0,8557.0,8142.0,4011.0,2013.0,727.0,155.0,25.0
427097,County,2020/05/13,29.0,MO,29157.0,Perry County,3580.0,15570.0,56315.0,11306.0,15162.0,6945.0,7631.0,7759.0,5117.0,1692.0,581.0,107.0,15.0
430340,County,2020/05/14,29.0,MO,29157.0,Perry County,3851.0,15299.0,60893.0,13804.0,16934.0,7030.0,6733.0,9205.0,4220.0,2283.0,561.0,108.0,15.0
431969,County,2020/05/15,29.0,MO,29157.0,Perry County,3548.0,15602.0,59809.0,10683.0,16504.0,9942.0,6731.0,8922.0,4368.0,1942.0,476.0,214.0,27.0
436718,County,2020/05/16,29.0,MO,29157.0,Perry County,4402.0,14748.0,64148.0,15587.0,14022.0,8703.0,10291.0,8591.0,4626.0,1840.0,420.0,45.0,23.0
438345,County,2020/05/17,29.0,MO,29157.0,Perry County,4457.0,14693.0,57654.0,11725.0,18133.0,9533.0,6204.0,8234.0,3005.0,279.0,419.0,106.0,16.0
443166,County,2020/05/18,29.0,MO,29157.0,Perry County,3202.0,15948.0,76167.0,18179.0,22050.0,10078.0,9430.0,8778.0,5709.0,1467.0,405.0,58.0,13.0
444744,County,2020/05/19,29.0,MO,29157.0,Perry County,3334.0,15816.0,70153.0,20347.0,15839.0,9738.0,7328.0,9528.0,4489.0,2640.0,58.0,147.0,39.0
449505,County,2020/05/20,29.0,MO,29157.0,Perry County,2959.0,16191.0,71699.0,16305.0,20514.0,9052.0,7938.0,9777.0,5868.0,1505.0,677.0,57.0,6.0
452395,County,2020/05/21,29.0,MO,29157.0,Perry County,3244.0,15906.0,65679.0,13528.0,17273.0,9081.0,9576.0,8404.0,5466.0,2070.0,222.0,28.0,31.0
455940,County,2020/05/22,29.0,MO,29157.0,Perry County,2909.0,16241.0,82618.0,21120.0,24584.0,11187.0,6896.0,10345.0,6166.0,1648.0,537.0,135.0,0.0
457514,County,2020/05/23,29.0,MO,29157.0,Perry County,3632.0,15518.0,68781.0,14896.0,17306.0,11836.0,8100.0,11326.0,3664.0,1074.0,433.0,125.0,21.0
462257,County,2020/05/24,29.0,MO,29157.0,Perry County,4422.0,14728.0,59359.0,10537.0,17164.0,8698.0,8965.0,8286.0,3889.0,1265.0,461.0,82.0,12.0
463885,County,2020/05/25,29.0,MO,29157.0,Perry County,4243.0,14907.0,55140.0,12154.0,13228.0,6116.0,8979.0,8952.0,3505.0,1412.0,651.0,137.0,6.0
467039,County,2020/05/26,29.0,MO,29157.0,Perry County,3493.0,15657.0,66496.0,16889.0,18812.0,6787.0,8217.0,7345.0,5969.0,1418.0,924.0,117.0,18.0
471907,County,2020/05/27,29.0,MO,29157.0,Perry County,3296.0,15854.0,64714.0,13931.0,18575.0,7554.0,8193.0,7706.0,5783.0,1853.0,894.0,214.0,11.0
473490,County,2020/05/28,29.0,MO,29157.0,Perry County,3353.0,15797.0,61085.0,13669.0,15817.0,7812.0,7975.0,7399.0,5432.0,1975.0,807.0,181.0,18.0
478245,County,2020/05/29,29.0,MO,29157.0,Perry County,4263.0,14887.0,63269.0,13734.0,18559.0,7874.0,6653.0,8160.0,5980.0,1594.0,611.0,98.0,6.0
481445,County,2020/05/30,29.0,MO,29157.0,Perry County,3895.0,15255.0,61253.0,12694.0,16151.0,8625.0,8747.0,9557.0,3766.0,1094.0,492.0,116.0,11.0
483000,County,2020/05/31,29.0,MO,29157.0,Perry County,4530.0,14620.0,63814.0,15897.0,15284.0,9860.0,8573.0,8184.0,4458.0,1170.0,292.0,92.0,4.0
487940,County,2020/06/01,29.0,MO,29157.0,Perry County,3868.0,15282.0,67166.0,19517.0,15706.0,7160.0,8014.0,8437.0,5616.0,1801.0,804.0,101.0,10.0
490998,County,2020/06/02,29.0,MO,29157.0,Perry County,3868.0,15282.0,61715.0,14584.0,16884.0,8509.0,6502.0,7022.0,5333.0,2153.0,566.0,143.0,19.0
492628,County,2020/06/03,29.0,MO,29157.0,Perry County,3218.0,15932.0,67645.0,15244.0,17783.0,9976.0,8618.0,7034.0,6029.0,2208.0,569.0,170.0,14.0
495839,County,2020/06/04,29.0,MO,29157.0,Perry County,3119.0,16031.0,68196.0,15996.0,17633.0,10079.0,7485.0,9092.0,5295.0,1845.0,479.0,268.0,24.0
500615,County,2020/06/05,29.0,MO,29157.0,Perry County,3574.0,15576.0,68998.0,15421.0,17240.0,9708.0,8877.0,8590.0,5599.0,2454.0,920.0,183.0,6.0
502189,County,2020/06/06,29.0,MO,29157.0,Perry County,4317.0,14833.0,56752.0,11095.0,15159.0,9200.0,8384.0,6842.0,4303.0,1182.0,517.0,37.0,33.0
506966,County,2020/06/07,29.0,MO,29157.0,Perry County,4397.0,14753.0,52600.0,11850.0,14080.0,5446.0,6533.0,8029.0,4747.0,1257.0,471.0,147.0,40.0
508604,County,2020/06/08,29.0,MO,29157.0,Perry County,3296.0,15854.0,69385.0,15131.0,17734.0,7624.0,9537.0,10483.0,6408.0,1579.0,647.0,225.0,17.0
513382,County,2020/06/09,29.0,MO,29157.0,Perry County,3706.0,15444.0,63008.0,14744.0,15383.0,9185.0,8772.0,7699.0,4506.0,1761.0,711.0,230.0,17.0
516636,County,2020/06/10,29.0,MO,29157.0,Perry County,3822.0,15328.0,63117.0,15454.0,15963.0,7122.0,7759.0,8838.0,5637.0,1076.0,1140.0,112.0,16.0
518216,County,2020/06/11,29.0,MO,29157.0,Perry County,3509.0,15641.0,74672.0,21412.0,16721.0,10555.0,8796.0,8956.0,5779.0,1712.0,576.0,145.0,20.0
521418,County,2020/06/12,29.0,MO,29157.0,Perry County,3466.0,15684.0,68402.0,17941.0,17564.0,9546.0,6497.0,7655.0,6440.0,1828.0,795.0,124.0,12.0
524594,County,2020/06/13,29.0,MO,29157.0,Perry County,4017.0,15133.0,62098.0,13303.0,16199.0,8964.0,8200.0,8301.0,4709.0,1477.0,886.0,48.0,11.0
529358,County,2020/06/14,29.0,MO,29157.0,Perry County,4528.0,14622.0,54223.0,9931.0,16333.0,7096.0,7470.0,7358.0,3344.0,1916.0,611.0,154.0,10.0
532548,County,2020/06/15,29.0,MO,29157.0,Perry County,3835.0,15315.0,62086.0,15688.0,14866.0,7554.0,7080.0,9272.0,5095.0,1858.0,546.0,124.0,3.0
534176,County,2020/06/16,29.0,MO,29157.0,Perry County,3497.0,15653.0,74257.0,16748.0,18555.0,10763.0,10197.0,10010.0,5361.0,1776.0,706.0,123.0,18.0
538936,County,2020/06/17,29.0,MO,29157.0,Perry County,3280.0,15870.0,73315.0,18017.0,19374.0,7188.0,8494.0,11435.0,6033.0,1781.0,898.0,78.0,17.0
542131,County,2020/06/18,29.0,MO,29157.0,Perry County,3378.0,15772.0,69048.0,16750.0,17477.0,8308.0,9173.0,8378.0,5584.0,2478.0,759.0,132.0,9.0
543758,County,2020/06/19,29.0,MO,29157.0,Perry County,3743.0,15407.0,67348.0,15287.0,16690.0,7868.0,10350.0,8956.0,5328.0,1852.0,888.0,126.0,3.0
548518,County,2020/06/20,29.0,MO,29157.0,Perry County,3774.0,15376.0,61886.0,11290.0,16103.0,9243.0,9456.0,8667.0,4752.0,1498.0,806.0,58.0,13.0
551705,County,2020/06/21,29.0,MO,29157.0,Perry County,4556.0,14594.0,54067.0,10825.0,15251.0,8137.0,5962.0,7726.0,3989.0,1356.0,762.0,48.0,11.0
553342,County,2020/06/22,29.0,MO,29157.0,Perry County,3867.0,15283.0,61677.0,15654.0,14300.0,9008.0,7105.0,8141.0,4947.0,1472.0,815.0,206.0,29.0
558102,County,2020/06/23,29.0,MO,29157.0,Perry County,3735.0,15415.0,66394.0,17642.0,18926.0,7957.0,7442.0,7318.0,3953.0,2264.0,709.0,166.0,17.0
561294,County,2020/06/24,29.0,MO,29157.0,Perry County,3704.0,15446.0,63943.0,17924.0,17336.0,6646.0,6984.0,7310.0,4981.0,1662.0,908.0,157.0,35.0
562923,County,2020/06/25,29.0,MO,29157.0,Perry County,3740.0,15410.0,63900.0,15045.0,18072.0,7831.0,7325.0,8343.0,4606.0,1729.0,798.0,126.0,25.0
566176,County,2020/06/26,29.0,MO,29157.0,Perry County,4170.0,14980.0,69698.0,19420.0,18892.0,8317.0,8784.0,7117.0,4467.0,1570.0,903.0,207.0,21.0
569298,County,2020/06/27,29.0,MO,29157.0,Perry County,4450.0,14700.0,64085.0,15388.0,17504.0,7395.0,8484.0,8065.0,4765.0,1734.0,549.0,175.0,26.0
572506,County,2020/06/28,29.0,MO,29157.0,Perry County,4477.0,14673.0,54700.0,9676.0,15714.0,7034.0,8123.0,7233.0,4362.0,1794.0,544.0,188.0,32.0
575667,County,2020/06/29,29.0,MO,29157.0,Perry County,3997.0,15153.0,61693.0,14819.0,16626.0,6492.0,6817.0,7964.0,5980.0,1946.0,912.0,105.0,32.0
580479,County,2020/06/30,29.0,MO,29157.0,Perry County,3953.0,15197.0,59594.0,12130.0,16985.0,6123.0,7906.0,7709.0,5743.0,1914.0,973.0,65.0,46.0
583673,County,2020/07/01,29.0,MO,29157.0,Perry County,3800.0,15350.0,64798.0,14936.0,16464.0,6912.0,8933.0,9930.0,4629.0,1958.0,911.0,77.0,48.0
585272,County,2020/07/02,29.0,MO,29157.0,Perry County,4529.0,14621.0,67825.0,15969.0,19182.0,8312.0,7775.0,8855.0,4889.0,1835.0,847.0,134.0,27.0
590063,County,2020/07/03,29.0,MO,29157.0,Perry County,4775.0,14375.0,69307.0,19311.0,18786.0,8270.0,8735.0,7077.0,4442.0,1561.0,898.0,206.0,21.0
593249,County,2020/07/04,29.0,MO,29157.0,Perry County,5300.0,13850.0,59293.0,16521.0,16072.0,7075.0,7473.0,6054.0,3800.0,1336.0,768.0,176.0,18.0
594899,County,2020/07/05,29.0,MO,29157.0,Perry County,4707.0,14443.0,50220.0,9771.0,13963.0,6610.0,6967.0,6873.0,3414.0,1576.0,886.0,116.0,44.0
599574,County,2020/07/06,29.0,MO,29157.0,Perry County,4140.0,15010.0,56383.0,11929.0,13603.0,8283.0,6588.0,8955.0,4303.0,1870.0,701.0,109.0,42.0
601249,County,2020/07/07,29.0,MO,29157.0,Perry County,4081.0,15069.0,60501.0,12357.0,15715.0,9141.0,7841.0,7962.0,4943.0,1821.0,630.0,26.0,65.0
605911,County,2020/07/08,29.0,MO,29157.0,Perry County,3846.0,15304.0,58774.0,12094.0,13355.0,7851.0,8638.0,9326.0,4751.0,1800.0,800.0,126.0,33.0
609214,County,2020/07/09,29.0,MO,29157.0,Perry County,3962.0,15188.0,68300.0,17055.0,19304.0,8514.0,7745.0,7811.0,5002.0,2110.0,697.0,41.0,21.0
610837,County,2020/07/10,29.0,MO,29157.0,Perry County,3947.0,15203.0,60903.0,15304.0,15104.0,7828.0,7306.0,7509.0,4829.0,2134.0,720.0,121.0,48.0
614048,County,2020/07/11,29.0,MO,29157.0,Perry County,4204.0,14946.0,57358.0,10484.0,14206.0,8327.0,7393.0,9067.0,5039.0,1688.0,988.0,125.0,41.0
617219,County,2020/07/12,29.0,MO,29157.0,Perry County,4750.0,14400.0,52031.0,8547.0,13750.0,9062.0,7554.0,7442.0,2912.0,1708.0,780.0,252.0,24.0
620409,County,2020/07/13,29.0,MO,29157.0,Perry County,4229.0,14921.0,61336.0,14087.0,15310.0,8536.0,6722.0,8224.0,5505.0,2080.0,742.0,100.0,30.0
625173,County,2020/07/14,29.0,MO,29157.0,Perry County,4412.0,14738.0,64627.0,15023.0,17702.0,7739.0,8293.0,7429.0,5731.0,1603.0,956.0,124.0,27.0
628346,County,2020/07/15,29.0,MO,29157.0,Perry County,4147.0,15003.0,64918.0,15038.0,17509.0,7567.0,8707.0,8548.0,5257.0,1653.0,548.0,72.0,19.0
629972,County,2020/07/16,29.0,MO,29157.0,Perry County,4228.0,14922.0,66413.0,15042.0,15821.0,7186.0,9459.0,9939.0,6243.0,1692.0,836.0,177.0,18.0
634707,County,2020/07/17,29.0,MO,29157.0,Perry County,4148.0,15002.0,60688.0,13055.0,15939.0,7067.0,8623.0,7537.0,5383.0,1933.0,1009.0,130.0,12.0
637959,County,2020/07/18,29.0,MO,29157.0,Perry County,4539.0,14611.0,54092.0,11481.0,14783.0,6801.0,8933.0,5994.0,4049.0,1506.0,398.0,117.0,30.0
639539,County,2020/07/19,29.0,MO,29157.0,Perry County,5193.0,13957.0,49347.0,10530.0,12058.0,6963.0,8278.0,6657.0,2728.0,1337.0,691.0,70.0,35.0
642773,County,2020/07/20,29.0,MO,29157.0,Perry County,4493.0,14657.0,58872.0,14857.0,14448.0,7114.0,7969.0,7065.0,5053.0,1527.0,734.0,89.0,16.0
648013,County,2020/07/21,29.0,MO,29157.0,Perry County,4519.0,14631.0,61388.0,14253.0,15581.0,7876.0,7998.0,8673.0,4509.0,1694.0,648.0,144.0,12.0
650726,County,2020/07/22,29.0,MO,29157.0,Perry County,4184.0,14966.0,61080.0,13903.0,14799.0,8036.0,8534.0,8617.0,4661.0,1831.0,490.0,198.0,11.0
652268,County,2020/07/23,29.0,MO,29157.0,Perry County,4307.0,14843.0,63778.0,13735.0,16958.0,7479.0,8843.0,9182.0,4391.0,2234.0,670.0,260.0,26.0
655391,County,2020/07/24,29.0,MO,29157.0,Perry County,3751.0,15399.0,68979.0,14971.0,18288.0,8626.0,9241.0,9968.0,5203.0,1841.0,678.0,142.0,21.0
658737,County,2020/07/25,29.0,MO,29157.0,Perry County,4434.0,14716.0,59239.0,13006.0,14953.0,8623.0,7216.0,8881.0,4631.0,1211.0,567.0,129.0,22.0
661936,County,2020/07/26,29.0,MO,29157.0,Perry County,4996.0,14154.0,57162.0,10060.0,13664.0,9897.0,7834.0,8741.0,4214.0,1669.0,885.0,153.0,45.0
666715,County,2020/07/27,29.0,MO,29157.0,Perry County,4438.0,14712.0,59677.0,12269.0,14489.0,10665.0,6554.0,6705.0,5508.0,2119.0,1119.0,223.0,26.0
669967,County,2020/07/28,29.0,MO,29157.0,Perry County,4146.0,15004.0,60502.0,14310.0,15106.0,7252.0,7389.0,8134.0,5281.0,1770.0,989.0,219.0,52.0
673181,County,2020/07/29,29.0,MO,29157.0,Perry County,4321.0,14829.0,59122.0,12760.0,14614.0,7067.0,6980.0,9663.0,4754.0,1919.0,1186.0,140.0,39.0
674712,County,2020/07/30,29.0,MO,29157.0,Perry County,3950.0,15200.0,62531.0,14132.0,14749.0,8081.0,7808.0,8492.0,5469.0,2337.0,1183.0,230.0,50.0
679490,County,2020/07/31,29.0,MO,29157.0,Perry County,4388.0,14762.0,60446.0,14074.0,15040.0,8144.0,6712.0,8583.0,4279.0,2224.0,1026.0,324.0,40.0
681070,County,2020/08/01,29.0,MO,29157.0,Perry County,4749.0,14401.0,56814.0,11087.0,14249.0,9479.0,7511.0,7466.0,4026.0,2049.0,649.0,239.0,59.0
684293,County,2020/08/02,29.0,MO,29157.0,Perry County,4519.0,14631.0,59181.0,13181.0,15726.0,8083.0,6406.0,8354.0,4420.0,1731.0,908.0,343.0,29.0
687490,County,2020/08/03,29.0,MO,29157.0,Perry County,4009.0,15141.0,64313.0,11692.0,16974.0,9110.0,9724.0,7417.0,5640.0,2330.0,1238.0,160.0,28.0
690682,County,2020/08/04,29.0,MO,29157.0,Perry County,3694.0,15456.0,73076.0,16586.0,17184.0,9619.0,10055.0,11215.0,5654.0,1861.0,697.0,183.0,22.0
695441,County,2020/08/05,29.0,MO,29157.0,Perry County,3828.0,15322.0,67987.0,16840.0,17941.0,8084.0,8212.0,9018.0,5106.0,1759.0,690.0,303.0,34.0
698636,County,2020/08/06,29.0,MO,29157.0,Perry County,3803.0,15347.0,75300.0,19572.0,18343.0,11075.0,9581.0,8437.0,5870.0,1507.0,753.0,146.0,16.0
701832,County,2020/08/07,29.0,MO,29157.0,Perry County,3794.0,15356.0,60819.0,12435.0,14129.0,8800.0,8676.0,7967.0,5463.0,2149.0,995.0,192.0,13.0
703461,County,2020/08/08,29.0,MO,29157.0,Perry County,4108.0,15042.0,62402.0,12809.0,14594.0,10129.0,8738.0,9089.0,4293.0,1709.0,775.0,255.0,11.0
708242,County,2020/08/09,29.0,MO,29157.0,Perry County,4760.0,14390.0,55517.0,8264.0,14501.0,9602.0,7966.0,7198.0,5362.0,1580.0,829.0,209.0,6.0
709872,County,2020/08/10,29.0,MO,29157.0,Perry County,4395.0,14755.0,60767.0,13718.0,15343.0,7505.0,6913.0,8568.0,5678.0,2095.0,759.0,171.0,17.0
714702,County,2020/08/11,29.0,MO,29157.0,Perry County,4285.0,14865.0,62276.0,13440.0,17305.0,8933.0,6789.0,7456.0,5842.0,1745.0,641.0,107.0,18.0
716235,County,2020/08/12,29.0,MO,29157.0,Perry County,4065.0,15085.0,58166.0,11862.0,14826.0,6876.0,7339.0,8772.0,5374.0,2142.0,791.0,157.0,27.0
719428,County,2020/08/13,29.0,MO,29157.0,Perry County,3827.0,15323.0,67099.0,14583.0,18040.0,9407.0,7506.0,9092.0,5623.0,1679.0,949.0,180.0,40.0
722621,County,2020/08/14,29.0,MO,29157.0,Perry County,3835.0,15315.0,64053.0,13273.0,15739.0,8834.0,8381.0,8801.0,6003.0,1869.0,949.0,156.0,48.0
725852,County,2020/08/15,29.0,MO,29157.0,Perry County,4208.0,14942.0,68489.0,14157.0,16836.0,9168.0,9057.0,10815.0,5769.0,1702.0,771.0,161.0,53.0
729011,County,2020/08/16,29.0,MO,29157.0,Perry County,4483.0,14667.0,57025.0,10254.0,14768.0,9210.0,6448.0,8428.0,4323.0,2068.0,1263.0,203.0,60.0
732204,County,2020/08/17,29.0,MO,29157.0,Perry County,4537.0,14613.0,62740.0,13336.0,16056.0,8023.0,8426.0,7744.0,5870.0,1941.0,1035.0,240.0,69.0
735419,County,2020/08/18,29.0,MO,29157.0,Perry County,4604.0,14546.0,59721.0,12939.0,14744.0,6924.0,7395.0,8038.0,6603.0,2123.0,592.0,283.0,80.0
740158,County,2020/08/19,29.0,MO,29157.0,Perry County,4116.0,15034.0,61137.0,14337.0,14455.0,8170.0,8036.0,7570.0,5439.0,2116.0,779.0,182.0,53.0
741787,County,2020/08/20,29.0,MO,29157.0,Perry County,4059.0,15091.0,68488.0,18250.0,17032.0,6758.0,8144.0,7804.0,6688.0,2602.0,803.0,333.0,74.0
746563,County,2020/08/21,29.0,MO,29157.0,Perry County,3882.0,15268.0,62565.0,13110.0,15880.0,8983.0,6567.0,7518.0,7000.0,2083.0,1012.0,364.0,48.0
748191,County,2020/08/22,29.0,MO,29157.0,Perry County,4550.0,14600.0,69838.0,14606.0,17728.0,8193.0,9656.0,10209.0,6367.0,1885.0,854.0,315.0,25.0
752936,County,2020/08/23,29.0,MO,29157.0,Perry County,4800.0,14350.0,50000.0,7994.0,13882.0,7307.0,7152.0,6220.0,4213.0,2124.0,887.0,198.0,23.0
756128,County,2020/08/24,29.0,MO,29157.0,Perry County,4700.0,14450.0,52736.0,11062.0,15089.0,5490.0,6931.0,5407.0,5859.0,1838.0,842.0,155.0,63.0
757757,County,2020/08/25,29.0,MO,29157.0,Perry County,4566.0,14584.0,60439.0,12688.0,16782.0,7063.0,8493.0,7760.0,5091.0,1636.0,650.0,243.0,33.0
760951,County,2020/08/26,29.0,MO,29157.0,Perry County,4578.0,14572.0,59124.0,12313.0,15761.0,7489.0,7489.0,8539.0,4730.0,1806.0,794.0,177.0,26.0
764107,County,2020/08/27,29.0,MO,29157.0,Perry County,4403.0,14747.0,56844.0,10531.0,13860.0,8681.0,7665.0,7855.0,4721.0,2281.0,1035.0,182.0,33.0
768890,County,2020/08/28,29.0,MO,29157.0,Perry County,4338.0,14812.0,53332.0,10791.0,13284.0,6428.0,8263.0,6604.0,4670.0,2108.0,929.0,211.0,44.0
772091,County,2020/08/29,29.0,MO,29157.0,Perry County,4863.0,14287.0,61137.0,12069.0,15308.0,9602.0,7777.0,9818.0,4288.0,1164.0,732.0,354.0,25.0
775308,County,2020/08/30,29.0,MO,29157.0,Perry County,5156.0,13994.0,51018.0,8518.0,14327.0,8636.0,6819.0,5929.0,3761.0,1998.0,798.0,218.0,14.0
776916,County,2020/08/31,29.0,MO,29157.0,Perry County,4758.0,14392.0,55910.0,12636.0,12887.0,7551.0,6753.0,7286.0,5480.0,2291.0,815.0,191.0,20.0
781698,County,2020/09/01,29.0,MO,29157.0,Perry County,4497.0,14653.0,53200.0,10847.0,13867.0,7581.0,5616.0,6258.0,5293.0,2782.0,812.0,123.0,21.0
784091,County,2020/09/02,29.0,MO,29157.0,Perry County,4497.0,14653.0,52632.0,11304.0,14275.0,6315.0,5316.0,7378.0,4902.0,1952.0,883.0,279.0,28.0
786452,County,2020/09/03,29.0,MO,29157.0,Perry County,4140.0,15010.0,58751.0,12715.0,15840.0,7347.0,7872.0,6740.0,5068.0,1798.0,1088.0,249.0,34.0
791283,County,2020/09/04,29.0,MO,29157.0,Perry County,4622.0,14528.0,54728.0,9504.0,17417.0,6809.0,5819.0,6402.0,5582.0,1975.0,936.0,213.0,71.0
792787,County,2020/09/05,29.0,MO,29157.0,Perry County,4599.0,14551.0,65219.0,12021.0,17433.0,11615.0,8474.0,8409.0,4413.0,1823.0,790.0,214.0,27.0
796077,County,2020/09/06,29.0,MO,29157.0,Perry County,4997.0,14153.0,48531.0,8985.0,12155.0,8262.0,5974.0,7502.0,3090.0,1663.0,623.0,240.0,37.0
799286,County,2020/09/07,29.0,MO,29157.0,Perry County,5371.0,13779.0,46149.0,9611.0,11887.0,5255.0,4634.0,7862.0,4780.0,1251.0,563.0,247.0,59.0
804038,County,2020/09/08,29.0,MO,29157.0,Perry County,4438.0,14712.0,58284.0,11151.0,15503.0,7939.0,6930.0,7100.0,5899.0,2383.0,1049.0,286.0,44.0
805667,County,2020/09/09,29.0,MO,29157.0,Perry County,4247.0,14903.0,61692.0,12652.0,17581.0,9007.0,6447.0,7000.0,5987.0,1795.0,915.0,257.0,51.0
810435,County,2020/09/10,29.0,MO,29157.0,Perry County,4411.0,14739.0,55436.0,12337.0,16430.0,7022.0,6243.0,5151.0,4735.0,2299.0,861.0,308.0,50.0
813619,County,2020/09/11,29.0,MO,29157.0,Perry County,4300.0,14850.0,68416.0,14090.0,20890.0,8698.0,7207.0,9233.0,5339.0,1756.0,973.0,188.0,42.0
816814,County,2020/09/12,29.0,MO,29157.0,Perry County,4528.0,14622.0,59939.0,11557.0,17159.0,8278.0,7730.0,7539.0,4409.0,2155.0,808.0,271.0,33.0
818421,County,2020/09/13,29.0,MO,29157.0,Perry County,5142.0,14008.0,47548.0,7083.0,14586.0,6935.0,3669.0,7277.0,4533.0,2049.0,1076.0,308.0,32.0
823203,County,2020/09/14,29.0,MO,29157.0,Perry County,4439.0,14711.0,59592.0,13250.0,15147.0,8246.0,6449.0,7910.0,5944.0,1499.0,814.0,283.0,50.0
824831,County,2020/09/15,29.0,MO,29157.0,Perry County,4834.0,14316.0,63132.0,13141.0,15336.0,8631.0,8246.0,8549.0,5991.0,2489.0,571.0,151.0,27.0
828023,County,2020/09/16,29.0,MO,29157.0,Perry County,4729.0,14421.0,58631.0,12451.0,16035.0,5981.0,6415.0,8786.0,5917.0,1869.0,817.0,324.0,36.0
831217,County,2020/09/17,29.0,MO,29157.0,Perry County,4427.0,14723.0,59147.0,13557.0,14334.0,7931.0,6680.0,6053.0,7108.0,2370.0,792.0,304.0,18.0
835978,County,2020/09/18,29.0,MO,29157.0,Perry County,4527.0,14623.0,62530.0,13677.0,15779.0,8345.0,7726.0,7677.0,6361.0,1908.0,745.0,285.0,27.0
837607,County,2020/09/19,29.0,MO,29157.0,Perry County,4919.0,14231.0,64070.0,14768.0,14967.0,8163.0,7691.0,9070.0,5978.0,2368.0,905.0,147.0,13.0
840799,County,2020/09/20,29.0,MO,29157.0,Perry County,4902.0,14248.0,54202.0,11157.0,14557.0,7956.0,7479.0,6031.0,4180.0,1710.0,874.0,235.0,23.0
845586,County,2020/09/21,29.0,MO,29157.0,Perry County,5059.0,14091.0,54411.0,11458.0,15599.0,6656.0,5941.0,7407.0,5136.0,1422.0,640.0,138.0,14.0
848754,County,2020/09/22,29.0,MO,29157.0,Perry County,4795.0,14355.0,60213.0,14070.0,15332.0,8302.0,7394.0,7282.0,5318.0,1978.0,385.0,135.0,17.0
850382,County,2020/09/23,29.0,MO,29157.0,Perry County,4427.0,14723.0,61838.0,14426.0,15280.0,7343.0,7624.0,8297.0,6528.0,1692.0,469.0,167.0,12.0
855148,County,2020/09/24,29.0,MO,29157.0,Perry County,4206.0,14944.0,56675.0,12193.0,15182.0,7267.0,7507.0,6588.0,5057.0,2360.0,332.0,167.0,22.0
856777,County,2020/09/25,29.0,MO,29157.0,Perry County,4047.0,15103.0,64296.0,12909.0,15597.0,9141.0,10021.0,8455.0,5679.0,1767.0,576.0,145.0,6.0
861530,County,2020/09/26,29.0,MO,29157.0,Perry County,4539.0,14611.0,68252.0,13235.0,15387.0,10729.0,10425.0,10875.0,4990.0,2183.0,327.0,83.0,18.0
864710,County,2020/09/27,29.0,MO,29157.0,Perry County,5209.0,13941.0,54780.0,10191.0,14451.0,7911.0,7090.0,7621.0,5443.0,1480.0,457.0,132.0,4.0
867918,County,2020/09/28,29.0,MO,29157.0,Perry County,4454.0,14696.0,53936.0,10513.0,15110.0,6669.0,6453.0,6822.0,5724.0,2202.0,275.0,153.0,15.0
869546,County,2020/09/29,29.0,MO,29157.0,Perry County,4213.0,14937.0,57888.0,12092.0,15256.0,8570.0,6732.0,7236.0,5335.0,2109.0,370.0,177.0,11.0
872739,County,2020/09/30,29.0,MO,29157.0,Perry County,4380.0,14770.0,57886.0,12472.0,15638.0,6368.0,6737.0,7318.0,6504.0,2442.0,259.0,134.0,14.0
877479,County,2020/10/01,29.0,MO,29157.0,Perry County,4022.0,15128.0,65620.0,15139.0,17684.0,9047.0,7303.0,8011.0,5913.0,1973.0,335.0,197.0,18.0
880694,County,2020/10/02,29.0,MO,29157.0,Perry County,4493.0,14657.0,62875.0,12519.0,17164.0,8588.0,7438.0,8584.0,5751.0,2176.0,563.0,82.0,10.0
883889,County,2020/10/03,29.0,MO,29157.0,Perry County,4972.0,14178.0,57379.0,10881.0,16332.0,5944.0,7298.0,7749.0,6303.0,2103.0,647.0,116.0,6.0
886231,County,2020/10/04,29.0,MO,29157.0,Perry County,4863.0,14287.0,52983.0,9295.0,12145.0,8372.0,8039.0,6994.0,4443.0,2818.0,793.0,73.0,11.0
889477,County,2020/10/05,29.0,MO,29157.0,Perry County,4730.0,14420.0,56991.0,11204.0,16728.0,7215.0,5958.0,7074.0,5266.0,2835.0,606.0,96.0,9.0
892661,County,2020/10/06,29.0,MO,29157.0,Perry County,4326.0,14824.0,58397.0,11517.0,12711.0,7761.0,9586.0,7010.0,6337.0,3077.0,313.0,82.0,3.0
895858,County,2020/10/07,29.0,MO,29157.0,Perry County,3972.0,15178.0,69888.0,16095.0,17747.0,10008.0,7219.0,8756.0,6879.0,2696.0,322.0,159.0,7.0
899027,County,2020/10/08,29.0,MO,29157.0,Perry County,4448.0,14702.0,61504.0,13814.0,17956.0,7714.0,7060.0,6594.0,5517.0,2194.0,519.0,124.0,12.0
902271,County,2020/10/09,29.0,MO,29157.0,Perry County,4374.0,14776.0,64107.0,13726.0,19659.0,6866.0,7062.0,7380.0,6676.0,2261.0,278.0,191.0,8.0
905414,County,2020/10/10,29.0,MO,29157.0,Perry County,4883.0,14267.0,62099.0,12049.0,20294.0,7762.0,6576.0,7268.0,5345.0,2406.0,288.0,103.0,8.0
908807,County,2020/10/11,29.0,MO,29157.0,Perry County,5160.0,13990.0,47742.0,8913.0,12581.0,6488.0,6100.0,6346.0,4109.0,2484.0,538.0,176.0,7.0
912178,County,2020/10/12,29.0,MO,29157.0,Perry County,4854.0,14296.0,59536.0,13728.0,14260.0,7887.0,6259.0,7782.0,6606.0,2491.0,363.0,149.0,11.0
915482,County,2020/10/13,29.0,MO,29157.0,Perry County,4365.0,14785.0,60468.0,12908.0,15056.0,9197.0,7011.0,6933.0,6180.0,2491.0,566.0,115.0,11.0
918262,County,2020/10/14,29.0,MO,29157.0,Perry County,4380.0,14770.0,65206.0,15875.0,15792.0,9994.0,6783.0,7486.0,6130.0,2473.0,479.0,182.0,12.0
921837,County,2020/10/15,29.0,MO,29157.0,Perry County,4478.0,14672.0,49956.0,9931.0,11644.0,7079.0,6152.0,5977.0,5925.0,2337.0,683.0,212.0,16.0
924605,County,2020/10/16,29.0,MO,29157.0,Perry County,3962.0,15188.0,60865.0,12453.0,16490.0,8411.0,6440.0,7127.0,6614.0,2360.0,642.0,314.0,14.0
927890,County,2020/10/17,29.0,MO,29157.0,Perry County,4605.0,14545.0,59763.0,11692.0,16479.0,8586.0,7906.0,7181.0,5485.0,1777.0,526.0,115.0,16.0
930576,County,2020/10/18,29.0,MO,29157.0,Perry County,5060.0,14090.0,59838.0,11733.0,14452.0,10607.0,7916.0,7909.0,4242.0,2292.0,517.0,160.0,10.0
934352,County,2020/10/19,29.0,MO,29157.0,Perry County,4628.0,14522.0,54351.0,8621.0,15020.0,7999.0,6177.0,7316.0,6300.0,2417.0,334.0,156.0,11.0
937649,County,2020/10/20,29.0,MO,29157.0,Perry County,4623.0,14527.0,59944.0,11182.0,17243.0,8234.0,6674.0,7682.0,5974.0,2357.0,467.0,125.0,6.0
940659,County,2020/10/21,29.0,MO,29157.0,Perry County,4979.0,14171.0,52625.0,9269.0,13228.0,7879.0,6761.0,6901.0,5527.0,2265.0,651.0,128.0,16.0
943779,County,2020/10/22,29.0,MO,29157.0,Perry County,4629.0,14521.0,64607.0,13349.0,16414.0,8027.0,7424.0,8957.0,6267.0,3404.0,599.0,156.0,10.0
947000,County,2020/10/23,29.0,MO,29157.0,Perry County,4097.0,15053.0,67808.0,13107.0,17739.0,9900.0,9487.0,8285.0,5848.0,2676.0,643.0,113.0,10.0
950033,County,2020/10/24,29.0,MO,29157.0,Perry County,4635.0,14515.0,66123.0,11424.0,17903.0,9320.0,8769.0,8496.0,7052.0,2486.0,576.0,90.0,7.0
