,Level,Date,State FIPS,State Postal Code,County FIPS,County Name,Population Staying at Home,Population Not Staying at Home,Number of Trips,Number of Trips <1,Number of Trips 1-3,Number of Trips 3-5,Number of Trips 5-10,Number of Trips 10-25,Number of Trips 25-50,Number of Trips 50-100,Number of Trips 100-250,Number of Trips 250-500,Number of Trips >=500
962,County,2020/01/01,20.0,KS,20149.0,Pottawatomie County,5508.0,18769.0,68708.0,15771.0,14475.0,7343.0,9723.0,12686.0,4745.0,2850.0,899.0,170.0,46.0
3202,County,2020/01/02,20.0,KS,20149.0,Pottawatomie County,4121.0,20156.0,88285.0,20015.0,20334.0,10376.0,12620.0,16061.0,5530.0,2284.0,757.0,246.0,62.0
7657,County,2020/01/03,20.0,KS,20149.0,Pottawatomie County,4061.0,20216.0,92638.0,22570.0,19670.0,8913.0,13574.0,17424.0,6809.0,2410.0,1136.0,108.0,24.0
9743,County,2020/01/04,20.0,KS,20149.0,Pottawatomie County,4449.0,19828.0,91002.0,24720.0,19434.0,8942.0,12428.0,13884.0,7412.0,2638.0,1292.0,173.0,79.0
13738,County,2020/01/05,20.0,KS,20149.0,Pottawatomie County,4562.0,19715.0,74799.0,18034.0,17754.0,7893.0,11133.0,12292.0,3908.0,1845.0,1538.0,388.0,14.0
16393,County,2020/01/06,20.0,KS,20149.0,Pottawatomie County,4075.0,20202.0,87944.0,19020.0,20841.0,9560.0,13880.0,14381.0,7096.0,1988.0,936.0,158.0,84.0
19647,County,2020/01/07,20.0,KS,20149.0,Pottawatomie County,3787.0,20490.0,97016.0,22431.0,22396.0,8896.0,15443.0,17375.0,6987.0,2598.0,596.0,226.0,68.0
22829,County,2020/01/08,20.0,KS,20149.0,Pottawatomie County,4001.0,20276.0,90215.0,22210.0,20601.0,8325.0,13686.0,15994.0,6413.0,2101.0,663.0,176.0,46.0
26024,County,2020/01/09,20.0,KS,20149.0,Pottawatomie County,4079.0,20198.0,93827.0,21214.0,23467.0,8158.0,13419.0,17954.0,6359.0,2257.0,859.0,96.0,44.0
29219,County,2020/01/10,20.0,KS,20149.0,Pottawatomie County,4141.0,20136.0,83023.0,21399.0,19434.0,8133.0,11565.0,14580.0,5100.0,1898.0,675.0,186.0,53.0
32461,County,2020/01/11,20.0,KS,20149.0,Pottawatomie County,4893.0,19384.0,76580.0,17595.0,19676.0,9825.0,9930.0,11461.0,5330.0,2198.0,383.0,116.0,66.0
35617,County,2020/01/12,20.0,KS,20149.0,Pottawatomie County,5292.0,18985.0,77542.0,19755.0,20372.0,8916.0,9419.0,10770.0,5205.0,1755.0,1163.0,147.0,40.0
40395,County,2020/01/13,20.0,KS,20149.0,Pottawatomie County,4333.0,19944.0,79667.0,17241.0,19968.0,9214.0,10320.0,15082.0,5065.0,1643.0,627.0,450.0,57.0
42021,County,2020/01/14,20.0,KS,20149.0,Pottawatomie County,3719.0,20558.0,92218.0,20403.0,22443.0,9131.0,14627.0,15452.0,6789.0,2275.0,861.0,163.0,74.0
45174,County,2020/01/15,20.0,KS,20149.0,Pottawatomie County,3971.0,20306.0,88107.0,20997.0,18924.0,9721.0,13302.0,15926.0,6150.0,2077.0,907.0,71.0,32.0
49955,County,2020/01/16,20.0,KS,20149.0,Pottawatomie County,3782.0,20495.0,88295.0,24185.0,16966.0,8107.0,15194.0,15167.0,5092.0,2425.0,847.0,221.0,91.0
51583,County,2020/01/17,20.0,KS,20149.0,Pottawatomie County,5012.0,19265.0,81133.0,20544.0,19709.0,9060.0,12742.0,12635.0,3781.0,1135.0,1290.0,163.0,74.0
54815,County,2020/01/18,20.0,KS,20149.0,Pottawatomie County,4512.0,19765.0,88514.0,22803.0,17217.0,10677.0,13751.0,13908.0,6261.0,2644.0,1099.0,130.0,24.0
59561,County,2020/01/19,20.0,KS,20149.0,Pottawatomie County,5260.0,19017.0,77516.0,17440.0,19140.0,7814.0,12302.0,12393.0,4560.0,2181.0,1293.0,288.0,105.0
62724,County,2020/01/20,20.0,KS,20149.0,Pottawatomie County,4419.0,19858.0,81867.0,17088.0,19627.0,10916.0,12563.0,12993.0,5515.0,2259.0,716.0,123.0,67.0
64352,County,2020/01/21,20.0,KS,20149.0,Pottawatomie County,4296.0,19981.0,84248.0,20768.0,17487.0,8875.0,11918.0,15905.0,5355.0,2708.0,1047.0,113.0,72.0
67554,County,2020/01/22,20.0,KS,20149.0,Pottawatomie County,4105.0,20172.0,84224.0,19653.0,19732.0,8824.0,13008.0,14736.0,4918.0,2252.0,792.0,162.0,147.0
72345,County,2020/01/23,20.0,KS,20149.0,Pottawatomie County,3860.0,20417.0,88756.0,22029.0,19979.0,8780.0,13180.0,15431.0,5653.0,2209.0,1105.0,314.0,76.0
73935,County,2020/01/24,20.0,KS,20149.0,Pottawatomie County,4003.0,20274.0,90642.0,21709.0,20216.0,10231.0,13177.0,16138.0,5531.0,2061.0,1456.0,92.0,31.0
77127,County,2020/01/25,20.0,KS,20149.0,Pottawatomie County,4284.0,19993.0,88036.0,20191.0,21385.0,8953.0,13398.0,13303.0,6286.0,3017.0,1366.0,126.0,11.0
80812,County,2020/01/26,20.0,KS,20149.0,Pottawatomie County,4761.0,19516.0,80112.0,20296.0,17182.0,9435.0,11364.0,12424.0,6687.0,1539.0,986.0,129.0,70.0
85002,County,2020/01/27,20.0,KS,20149.0,Pottawatomie County,4112.0,20165.0,84562.0,19643.0,22278.0,7389.0,11911.0,14168.0,6138.0,1900.0,860.0,233.0,42.0
88857,County,2020/01/28,20.0,KS,20149.0,Pottawatomie County,3862.0,20415.0,85731.0,18150.0,19757.0,8766.0,12869.0,15945.0,7430.0,1862.0,803.0,109.0,40.0
91457,County,2020/01/29,20.0,KS,20149.0,Pottawatomie County,4215.0,20062.0,83756.0,20813.0,17987.0,7563.0,13029.0,15188.0,6688.0,1625.0,615.0,163.0,85.0
94711,County,2020/01/30,20.0,KS,20149.0,Pottawatomie County,3971.0,20306.0,89173.0,20919.0,19421.0,9932.0,13135.0,15309.0,6059.0,2643.0,1407.0,239.0,109.0
96287,County,2020/01/31,20.0,KS,20149.0,Pottawatomie County,3912.0,20365.0,96488.0,20867.0,22986.0,11518.0,13024.0,15956.0,7364.0,2904.0,1545.0,133.0,191.0
99536,County,2020/02/01,20.0,KS,20149.0,Pottawatomie County,4159.0,20118.0,97417.0,23929.0,22262.0,11999.0,12211.0,14415.0,7332.0,3298.0,1693.0,140.0,138.0
102663,County,2020/02/02,20.0,KS,20149.0,Pottawatomie County,4698.0,19579.0,80752.0,18664.0,20288.0,9411.0,11618.0,12749.0,4715.0,2106.0,983.0,120.0,98.0
105873,County,2020/02/03,20.0,KS,20149.0,Pottawatomie County,4004.0,20273.0,82601.0,16113.0,19093.0,10146.0,12647.0,15287.0,5304.0,1961.0,1658.0,230.0,162.0
110634,County,2020/02/04,20.0,KS,20149.0,Pottawatomie County,3744.0,20533.0,87261.0,19504.0,19632.0,9284.0,12706.0,16275.0,6412.0,1886.0,1146.0,237.0,179.0
112262,County,2020/02/05,20.0,KS,20149.0,Pottawatomie County,3898.0,20379.0,87569.0,21197.0,17685.0,8595.0,14739.0,16326.0,5879.0,1877.0,1108.0,61.0,102.0
117045,County,2020/02/06,20.0,KS,20149.0,Pottawatomie County,3659.0,20618.0,91987.0,21834.0,20354.0,10152.0,13045.0,16498.0,6091.0,2533.0,1225.0,182.0,73.0
118623,County,2020/02/07,20.0,KS,20149.0,Pottawatomie County,3521.0,20756.0,98673.0,22034.0,23997.0,10859.0,13442.0,17748.0,7404.0,2020.0,696.0,325.0,148.0
121869,County,2020/02/08,20.0,KS,20149.0,Pottawatomie County,4312.0,19965.0,90876.0,21498.0,20752.0,11289.0,11886.0,13504.0,6941.0,3108.0,1530.0,253.0,115.0
125038,County,2020/02/09,20.0,KS,20149.0,Pottawatomie County,5138.0,19139.0,76698.0,16247.0,16468.0,10990.0,12086.0,12114.0,5070.0,1948.0,1319.0,234.0,222.0
129271,County,2020/02/10,20.0,KS,20149.0,Pottawatomie County,3695.0,20582.0,100397.0,26418.0,23428.0,9906.0,12844.0,17866.0,6070.0,2333.0,977.0,247.0,308.0
133666,County,2020/02/11,20.0,KS,20149.0,Pottawatomie County,3769.0,20508.0,101840.0,21881.0,23482.0,10985.0,16166.0,19081.0,6262.0,2466.0,1155.0,129.0,233.0
135094,County,2020/02/12,20.0,KS,20149.0,Pottawatomie County,3754.0,20523.0,89515.0,19052.0,21266.0,11238.0,12299.0,15834.0,6334.0,1955.0,1041.0,269.0,227.0
139426,County,2020/02/13,20.0,KS,20149.0,Pottawatomie County,4022.0,20255.0,98888.0,24103.0,19827.0,13456.0,13851.0,18619.0,5310.0,2111.0,1223.0,177.0,211.0
142582,County,2020/02/14,20.0,KS,20149.0,Pottawatomie County,3520.0,20757.0,104424.0,26471.0,23003.0,11406.0,13451.0,17657.0,7042.0,3113.0,1756.0,275.0,250.0
144206,County,2020/02/15,20.0,KS,20149.0,Pottawatomie County,4433.0,19844.0,97852.0,22619.0,23614.0,11466.0,12253.0,16396.0,5794.0,3054.0,1991.0,272.0,393.0
147395,County,2020/02/16,20.0,KS,20149.0,Pottawatomie County,4549.0,19728.0,84420.0,18036.0,20175.0,10171.0,13069.0,13511.0,4914.0,2100.0,1650.0,270.0,524.0
152157,County,2020/02/17,20.0,KS,20149.0,Pottawatomie County,5245.0,19032.0,80885.0,18634.0,18957.0,8733.0,11659.0,12749.0,5942.0,2663.0,1229.0,61.0,258.0
153783,County,2020/02/18,20.0,KS,20149.0,Pottawatomie County,3483.0,20794.0,98654.0,22249.0,22892.0,10714.0,12685.0,18322.0,7147.0,2872.0,1268.0,161.0,344.0
158544,County,2020/02/19,20.0,KS,20149.0,Pottawatomie County,3263.0,21014.0,91294.0,19004.0,22634.0,8457.0,13306.0,16880.0,6329.0,2318.0,1654.0,335.0,377.0
161740,County,2020/02/20,20.0,KS,20149.0,Pottawatomie County,3964.0,20313.0,97386.0,22042.0,23250.0,11890.0,13407.0,16322.0,6048.0,2255.0,1780.0,217.0,175.0
164933,County,2020/02/21,20.0,KS,20149.0,Pottawatomie County,3352.0,20925.0,108949.0,23044.0,24909.0,12291.0,16535.0,18730.0,7396.0,3989.0,1622.0,319.0,114.0
168077,County,2020/02/22,20.0,KS,20149.0,Pottawatomie County,3836.0,20441.0,102486.0,22418.0,25226.0,11290.0,14468.0,16171.0,7070.0,3645.0,1803.0,207.0,188.0
171325,County,2020/02/23,20.0,KS,20149.0,Pottawatomie County,4445.0,19832.0,90304.0,21110.0,22170.0,11587.0,13459.0,12573.0,5246.0,2294.0,1624.0,157.0,84.0
172952,County,2020/02/24,20.0,KS,20149.0,Pottawatomie County,3843.0,20434.0,92357.0,21471.0,21429.0,9426.0,14390.0,16070.0,5389.0,2260.0,1561.0,189.0,172.0
176190,County,2020/02/25,20.0,KS,20149.0,Pottawatomie County,3629.0,20648.0,95708.0,21549.0,23044.0,10258.0,13430.0,17005.0,5948.0,2808.0,1339.0,84.0,243.0
179826,County,2020/02/26,20.0,KS,20149.0,Pottawatomie County,3883.0,20394.0,84294.0,15576.0,21943.0,8935.0,11971.0,16748.0,5965.0,1791.0,1272.0,64.0,29.0
183993,County,2020/02/27,20.0,KS,20149.0,Pottawatomie County,3444.0,20833.0,97158.0,25696.0,20973.0,9760.0,12697.0,17818.0,6159.0,2287.0,1642.0,72.0,54.0
185817,County,2020/02/28,20.0,KS,20149.0,Pottawatomie County,3511.0,20766.0,108623.0,26176.0,23450.0,11858.0,16110.0,18582.0,6967.0,3514.0,1796.0,101.0,69.0
188919,County,2020/02/29,20.0,KS,20149.0,Pottawatomie County,4001.0,20276.0,105624.0,23693.0,27017.0,11997.0,13129.0,17670.0,7047.0,3437.0,1542.0,28.0,64.0
193703,County,2020/03/01,20.0,KS,20149.0,Pottawatomie County,4415.0,19862.0,87308.0,22838.0,20983.0,8511.0,10624.0,13139.0,6356.0,2857.0,1703.0,114.0,183.0
196908,County,2020/03/02,20.0,KS,20149.0,Pottawatomie County,4014.0,20263.0,95219.0,23330.0,21332.0,9911.0,14472.0,17424.0,5231.0,2161.0,1104.0,155.0,99.0
199968,County,2020/03/03,20.0,KS,20149.0,Pottawatomie County,3624.0,20653.0,99611.0,28171.0,19490.0,8701.0,15254.0,17370.0,6274.0,2369.0,1766.0,149.0,67.0
203272,County,2020/03/04,20.0,KS,20149.0,Pottawatomie County,3596.0,20681.0,95834.0,23764.0,19934.0,8261.0,16309.0,16190.0,6618.0,2698.0,1693.0,285.0,82.0
204837,County,2020/03/05,20.0,KS,20149.0,Pottawatomie County,3548.0,20729.0,99680.0,21407.0,22339.0,10559.0,16615.0,16323.0,6785.0,3279.0,2021.0,230.0,122.0
209688,County,2020/03/06,20.0,KS,20149.0,Pottawatomie County,3440.0,20837.0,105112.0,24362.0,21392.0,10846.0,15729.0,18950.0,7899.0,3340.0,2367.0,156.0,71.0
212920,County,2020/03/07,20.0,KS,20149.0,Pottawatomie County,3688.0,20589.0,103921.0,24993.0,22894.0,11647.0,12636.0,17244.0,7887.0,4053.0,2083.0,333.0,151.0
216031,County,2020/03/08,20.0,KS,20149.0,Pottawatomie County,4331.0,19946.0,86499.0,19967.0,22720.0,8016.0,10532.0,13204.0,6836.0,2790.0,2080.0,175.0,179.0
217674,County,2020/03/09,20.0,KS,20149.0,Pottawatomie County,3796.0,20481.0,94124.0,22862.0,20283.0,10540.0,13692.0,14870.0,5930.0,3166.0,2391.0,222.0,168.0
220908,County,2020/03/10,20.0,KS,20149.0,Pottawatomie County,3592.0,20685.0,94425.0,20135.0,22046.0,8987.0,12195.0,18496.0,6858.0,3311.0,1950.0,296.0,151.0
224048,County,2020/03/11,20.0,KS,20149.0,Pottawatomie County,3556.0,20721.0,83841.0,16208.0,20123.0,6894.0,11314.0,17862.0,5263.0,1720.0,3672.0,479.0,306.0
227281,County,2020/03/12,20.0,KS,20149.0,Pottawatomie County,3556.0,20721.0,87051.0,13494.0,16025.0,10144.0,12958.0,17510.0,8252.0,4266.0,3809.0,466.0,127.0
230441,County,2020/03/13,20.0,KS,20149.0,Pottawatomie County,3637.0,20640.0,83216.0,15851.0,18261.0,9669.0,8924.0,17882.0,5936.0,2318.0,3457.0,388.0,530.0
233640,County,2020/03/14,20.0,KS,20149.0,Pottawatomie County,4667.0,19610.0,80036.0,13067.0,18673.0,11704.0,8338.0,17394.0,5595.0,1760.0,2333.0,884.0,288.0
238394,County,2020/03/15,20.0,KS,20149.0,Pottawatomie County,5453.0,18824.0,69065.0,16537.0,16041.0,8316.0,8569.0,11858.0,4070.0,1340.0,1657.0,493.0,184.0
240021,County,2020/03/16,20.0,KS,20149.0,Pottawatomie County,4726.0,19551.0,83697.0,18464.0,21424.0,7887.0,12937.0,14162.0,4984.0,1675.0,1796.0,240.0,128.0
244827,County,2020/03/17,20.0,KS,20149.0,Pottawatomie County,5122.0,19155.0,74733.0,16953.0,13700.0,8330.0,12110.0,15073.0,5250.0,2281.0,886.0,79.0,71.0
247935,County,2020/03/18,20.0,KS,20149.0,Pottawatomie County,5432.0,18845.0,85946.0,20468.0,22092.0,7598.0,10433.0,15590.0,6001.0,1810.0,1668.0,197.0,89.0
249614,County,2020/03/19,20.0,KS,20149.0,Pottawatomie County,4947.0,19330.0,87964.0,19012.0,23593.0,9473.0,12716.0,14696.0,5427.0,1545.0,1302.0,71.0,129.0
252799,County,2020/03/20,20.0,KS,20149.0,Pottawatomie County,5420.0,18857.0,82177.0,21096.0,21685.0,6675.0,11503.0,13799.0,5105.0,994.0,1115.0,153.0,52.0
257557,County,2020/03/21,20.0,KS,20149.0,Pottawatomie County,6117.0,18160.0,75553.0,17445.0,21292.0,8157.0,9502.0,11121.0,4886.0,1568.0,1405.0,93.0,84.0
260744,County,2020/03/22,20.0,KS,20149.0,Pottawatomie County,6152.0,18125.0,57997.0,13212.0,15288.0,8334.0,8138.0,8414.0,2051.0,968.0,1283.0,243.0,66.0
263957,County,2020/03/23,20.0,KS,20149.0,Pottawatomie County,5449.0,18828.0,75394.0,18623.0,17850.0,9284.0,8908.0,12501.0,4750.0,2128.0,1208.0,38.0,104.0
265583,County,2020/03/24,20.0,KS,20149.0,Pottawatomie County,5529.0,18748.0,69200.0,17936.0,16943.0,5409.0,7247.0,13758.0,5006.0,2092.0,770.0,39.0,0.0
270335,County,2020/03/25,20.0,KS,20149.0,Pottawatomie County,5271.0,19006.0,73673.0,20375.0,17498.0,7044.0,9282.0,11172.0,4933.0,2328.0,874.0,78.0,89.0
271961,County,2020/03/26,20.0,KS,20149.0,Pottawatomie County,5308.0,18969.0,74103.0,18828.0,15959.0,8358.0,12049.0,10840.0,5390.0,1422.0,892.0,263.0,102.0
276723,County,2020/03/27,20.0,KS,20149.0,Pottawatomie County,5323.0,18954.0,78309.0,20899.0,19438.0,7355.0,10230.0,12868.0,5134.0,1264.0,884.0,141.0,96.0
278351,County,2020/03/28,20.0,KS,20149.0,Pottawatomie County,5789.0,18488.0,71704.0,19600.0,18709.0,8193.0,8338.0,10783.0,3650.0,1498.0,844.0,38.0,51.0
283111,County,2020/03/29,20.0,KS,20149.0,Pottawatomie County,6145.0,18132.0,63982.0,15134.0,16507.0,7428.0,9475.0,10337.0,3143.0,629.0,1132.0,135.0,62.0
286337,County,2020/03/30,20.0,KS,20149.0,Pottawatomie County,5482.0,18795.0,68444.0,17934.0,16610.0,6530.0,11502.0,8810.0,4192.0,1799.0,906.0,145.0,16.0
287933,County,2020/03/31,20.0,KS,20149.0,Pottawatomie County,5523.0,18754.0,85676.0,28111.0,18817.0,10061.0,8208.0,12680.0,4738.0,2087.0,790.0,150.0,34.0
291169,County,2020/04/01,20.0,KS,20149.0,Pottawatomie County,5278.0,18999.0,76453.0,23336.0,13702.0,9157.0,10886.0,11137.0,5142.0,2059.0,926.0,74.0,34.0
295902,County,2020/04/02,20.0,KS,20149.0,Pottawatomie County,5684.0,18593.0,71012.0,17311.0,16954.0,7045.0,9649.0,11319.0,5702.0,1869.0,1040.0,38.0,85.0
299129,County,2020/04/03,20.0,KS,20149.0,Pottawatomie County,5769.0,18508.0,64443.0,15905.0,15091.0,7176.0,8581.0,10593.0,4573.0,1542.0,817.0,77.0,88.0
300707,County,2020/04/04,20.0,KS,20149.0,Pottawatomie County,6043.0,18234.0,62633.0,16687.0,16281.0,6767.0,8811.0,9993.0,2175.0,1026.0,737.0,0.0,156.0
305461,County,2020/04/05,20.0,KS,20149.0,Pottawatomie County,6531.0,17746.0,59154.0,16302.0,14334.0,6534.0,10034.0,8016.0,2271.0,408.0,1082.0,103.0,70.0
308662,County,2020/04/06,20.0,KS,20149.0,Pottawatomie County,5231.0,19046.0,72156.0,18719.0,15345.0,6750.0,11510.0,12383.0,5149.0,1254.0,935.0,39.0,72.0
311902,County,2020/04/07,20.0,KS,20149.0,Pottawatomie County,5590.0,18687.0,75332.0,20302.0,14946.0,8100.0,12117.0,12230.0,5686.0,1426.0,445.0,42.0,38.0
315075,County,2020/04/08,20.0,KS,20149.0,Pottawatomie County,5871.0,18406.0,73204.0,16651.0,14526.0,9879.0,10751.0,11551.0,7659.0,1513.0,613.0,42.0,19.0
318243,County,2020/04/09,20.0,KS,20149.0,Pottawatomie County,5833.0,18444.0,71178.0,14695.0,17519.0,6442.0,11678.0,12130.0,5957.0,2249.0,401.0,87.0,20.0
321438,County,2020/04/10,20.0,KS,20149.0,Pottawatomie County,5686.0,18591.0,68179.0,14894.0,16857.0,8094.0,8534.0,11045.0,5948.0,1927.0,777.0,84.0,19.0
324675,County,2020/04/11,20.0,KS,20149.0,Pottawatomie County,5594.0,18683.0,69297.0,18559.0,15414.0,7429.0,9251.0,12217.0,4456.0,1352.0,547.0,38.0,34.0
326258,County,2020/04/12,20.0,KS,20149.0,Pottawatomie County,7234.0,17043.0,47304.0,12604.0,11828.0,5334.0,7238.0,6285.0,2806.0,611.0,473.0,102.0,23.0
331070,County,2020/04/13,20.0,KS,20149.0,Pottawatomie County,6087.0,18190.0,60926.0,14721.0,11001.0,6729.0,10791.0,9500.0,5848.0,1139.0,1045.0,132.0,20.0
334196,County,2020/04/14,20.0,KS,20149.0,Pottawatomie County,5589.0,18688.0,64688.0,11770.0,14108.0,9988.0,10165.0,10466.0,5733.0,932.0,1483.0,0.0,43.0
337449,County,2020/04/15,20.0,KS,20149.0,Pottawatomie County,5460.0,18817.0,70147.0,14232.0,17542.0,5799.0,11804.0,11646.0,6411.0,1246.0,1297.0,89.0,81.0
339026,County,2020/04/16,20.0,KS,20149.0,Pottawatomie County,5417.0,18860.0,60458.0,13503.0,10030.0,5645.0,9695.0,11338.0,6907.0,2426.0,803.0,76.0,35.0
343855,County,2020/04/17,20.0,KS,20149.0,Pottawatomie County,5497.0,18780.0,68071.0,15368.0,18214.0,6191.0,10575.0,11901.0,4228.0,570.0,755.0,95.0,174.0
345433,County,2020/04/18,20.0,KS,20149.0,Pottawatomie County,5885.0,18392.0,59249.0,5838.0,14322.0,9259.0,12080.0,10489.0,4755.0,2040.0,270.0,103.0,93.0
350184,County,2020/04/19,20.0,KS,20149.0,Pottawatomie County,6306.0,17971.0,59097.0,11477.0,11067.0,12536.0,13589.0,7663.0,1985.0,469.0,311.0,0.0,0.0
351811,County,2020/04/20,20.0,KS,20149.0,Pottawatomie County,5018.0,19259.0,78906.0,15571.0,21052.0,7304.0,14389.0,12683.0,5148.0,1418.0,1341.0,0.0,0.0
355004,County,2020/04/21,20.0,KS,20149.0,Pottawatomie County,5524.0,18753.0,79490.0,21102.0,16185.0,8455.0,11508.0,12650.0,6928.0,1998.0,602.0,0.0,62.0
358249,County,2020/04/22,20.0,KS,20149.0,Pottawatomie County,5268.0,19009.0,72971.0,15725.0,16774.0,8674.0,9640.0,12255.0,7534.0,1457.0,681.0,172.0,59.0
362981,County,2020/04/23,20.0,KS,20149.0,Pottawatomie County,5161.0,19116.0,75864.0,19389.0,16520.0,8164.0,11689.0,12277.0,4926.0,2366.0,432.0,82.0,19.0
366193,County,2020/04/24,20.0,KS,20149.0,Pottawatomie County,5235.0,19042.0,73267.0,14836.0,19595.0,7568.0,11458.0,11121.0,6470.0,1666.0,473.0,80.0,0.0
369349,County,2020/04/25,20.0,KS,20149.0,Pottawatomie County,5343.0,18934.0,76327.0,19960.0,17111.0,7784.0,10423.0,13246.0,5688.0,1584.0,467.0,44.0,20.0
370939,County,2020/04/26,20.0,KS,20149.0,Pottawatomie County,5628.0,18649.0,65472.0,12855.0,15785.0,8991.0,10836.0,11499.0,4632.0,508.0,269.0,51.0,46.0
374169,County,2020/04/27,20.0,KS,20149.0,Pottawatomie County,5590.0,18687.0,79700.0,17427.0,19515.0,8734.0,10534.0,13425.0,6970.0,2316.0,737.0,0.0,42.0
378946,County,2020/04/28,20.0,KS,20149.0,Pottawatomie County,5138.0,19139.0,76730.0,16510.0,19587.0,5658.0,12838.0,12369.0,6841.0,2152.0,739.0,0.0,36.0
382150,County,2020/04/29,20.0,KS,20149.0,Pottawatomie County,5254.0,19023.0,81421.0,17959.0,21494.0,8617.0,12386.0,11508.0,6374.0,2592.0,491.0,0.0,0.0
383720,County,2020/04/30,20.0,KS,20149.0,Pottawatomie County,5315.0,18962.0,80648.0,19816.0,19523.0,7659.0,12624.0,11525.0,7169.0,2039.0,246.0,47.0,0.0
386944,County,2020/05/01,20.0,KS,20149.0,Pottawatomie County,4753.0,19524.0,83735.0,19290.0,22002.0,9482.0,11938.0,13114.0,5429.0,1932.0,445.0,84.0,19.0
391704,County,2020/05/02,20.0,KS,20149.0,Pottawatomie County,4932.0,19345.0,77054.0,15516.0,21476.0,9054.0,11773.0,10425.0,5495.0,2507.0,745.0,43.0,20.0
394900,County,2020/05/03,20.0,KS,20149.0,Pottawatomie County,5392.0,18885.0,76988.0,18440.0,22301.0,7976.0,11044.0,11029.0,4166.0,1011.0,893.0,0.0,128.0
396551,County,2020/05/04,20.0,KS,20149.0,Pottawatomie County,5037.0,19240.0,76279.0,14875.0,18574.0,10018.0,13910.0,11808.0,5029.0,1368.0,480.0,162.0,55.0
399721,County,2020/05/05,20.0,KS,20149.0,Pottawatomie County,4702.0,19575.0,81138.0,17402.0,17562.0,11184.0,11480.0,13941.0,6759.0,2071.0,659.0,42.0,38.0
402900,County,2020/05/06,20.0,KS,20149.0,Pottawatomie County,5062.0,19215.0,84445.0,19462.0,17478.0,13597.0,11747.0,13988.0,6234.0,1597.0,223.0,42.0,77.0
407619,County,2020/05/07,20.0,KS,20149.0,Pottawatomie County,4968.0,19309.0,78965.0,15947.0,19404.0,10408.0,10773.0,14721.0,5183.0,1605.0,760.0,77.0,87.0
410931,County,2020/05/08,20.0,KS,20149.0,Pottawatomie County,4794.0,19483.0,87296.0,21037.0,16945.0,10563.0,12620.0,14610.0,7777.0,2289.0,1203.0,198.0,54.0
412462,County,2020/05/09,20.0,KS,20149.0,Pottawatomie County,5211.0,19066.0,82645.0,19998.0,19384.0,8457.0,13224.0,14250.0,4601.0,2216.0,470.0,45.0,0.0
415691,County,2020/05/10,20.0,KS,20149.0,Pottawatomie County,5627.0,18650.0,77143.0,19530.0,19730.0,7222.0,12683.0,11041.0,4454.0,1602.0,730.0,151.0,0.0
418885,County,2020/05/11,20.0,KS,20149.0,Pottawatomie County,4650.0,19627.0,81001.0,17150.0,18531.0,9288.0,12763.0,13211.0,6355.0,2389.0,1179.0,77.0,58.0
423742,County,2020/05/12,20.0,KS,20149.0,Pottawatomie County,4337.0,19940.0,83028.0,19141.0,17981.0,8309.0,13253.0,13444.0,7511.0,2127.0,1040.0,153.0,69.0
426791,County,2020/05/13,20.0,KS,20149.0,Pottawatomie County,4308.0,19969.0,80996.0,19237.0,17783.0,8485.0,12367.0,13544.0,6080.0,2023.0,1153.0,260.0,64.0
428517,County,2020/05/14,20.0,KS,20149.0,Pottawatomie County,4156.0,20121.0,75586.0,19047.0,15279.0,8567.0,11110.0,12270.0,5125.0,2735.0,1031.0,211.0,211.0
433208,County,2020/05/15,20.0,KS,20149.0,Pottawatomie County,4477.0,19800.0,79365.0,20570.0,18356.0,7191.0,11241.0,12247.0,6442.0,2126.0,950.0,174.0,68.0
434886,County,2020/05/16,20.0,KS,20149.0,Pottawatomie County,4915.0,19362.0,74548.0,17804.0,17402.0,10448.0,9720.0,10401.0,4960.0,2424.0,1168.0,83.0,138.0
439569,County,2020/05/17,20.0,KS,20149.0,Pottawatomie County,4500.0,19777.0,77161.0,15345.0,17860.0,7842.0,14484.0,14349.0,5289.0,1248.0,744.0,0.0,0.0
442860,County,2020/05/18,20.0,KS,20149.0,Pottawatomie County,4197.0,20080.0,96054.0,23941.0,21134.0,10799.0,14035.0,15364.0,6633.0,2907.0,1185.0,56.0,0.0
446023,County,2020/05/19,20.0,KS,20149.0,Pottawatomie County,3695.0,20582.0,93891.0,20047.0,23089.0,9950.0,14099.0,16795.0,7339.0,1840.0,574.0,109.0,49.0
449199,County,2020/05/20,20.0,KS,20149.0,Pottawatomie County,3599.0,20678.0,92846.0,20453.0,18616.0,10614.0,13942.0,17747.0,7641.0,2864.0,843.0,53.0,73.0
450825,County,2020/05/21,20.0,KS,20149.0,Pottawatomie County,3582.0,20695.0,97850.0,26235.0,23458.0,8358.0,13679.0,15607.0,6581.0,3106.0,707.0,97.0,22.0
455584,County,2020/05/22,20.0,KS,20149.0,Pottawatomie County,2902.0,21375.0,88929.0,19005.0,21552.0,9659.0,13611.0,13216.0,7828.0,2737.0,967.0,229.0,125.0
458796,County,2020/05/23,20.0,KS,20149.0,Pottawatomie County,4080.0,20197.0,100340.0,24893.0,27625.0,10582.0,13327.0,13495.0,6503.0,2274.0,1506.0,57.0,78.0
460425,County,2020/05/24,20.0,KS,20149.0,Pottawatomie County,4733.0,19544.0,74376.0,16527.0,16987.0,8034.0,12910.0,11889.0,5294.0,1408.0,1083.0,68.0,176.0
465253,County,2020/05/25,20.0,KS,20149.0,Pottawatomie County,5205.0,19072.0,61822.0,13411.0,14776.0,7146.0,8973.0,9351.0,4092.0,1931.0,1706.0,199.0,237.0
466732,County,2020/05/26,20.0,KS,20149.0,Pottawatomie County,4287.0,19990.0,84621.0,20456.0,18604.0,9429.0,12296.0,13244.0,7145.0,1844.0,1222.0,292.0,89.0
471601,County,2020/05/27,20.0,KS,20149.0,Pottawatomie County,4197.0,20080.0,85504.0,21554.0,18842.0,9340.0,11684.0,13141.0,7745.0,2096.0,881.0,128.0,93.0
473234,County,2020/05/28,20.0,KS,20149.0,Pottawatomie County,4531.0,19746.0,85621.0,21894.0,18760.0,8890.0,11476.0,13564.0,7496.0,1846.0,1393.0,232.0,70.0
477939,County,2020/05/29,20.0,KS,20149.0,Pottawatomie County,4594.0,19683.0,88534.0,23157.0,17552.0,8720.0,13312.0,14329.0,7278.0,2668.0,1354.0,86.0,78.0
481139,County,2020/05/30,20.0,KS,20149.0,Pottawatomie County,4786.0,19491.0,86161.0,19417.0,21610.0,9278.0,12875.0,12817.0,6079.0,2477.0,1481.0,30.0,97.0
482693,County,2020/05/31,20.0,KS,20149.0,Pottawatomie County,4769.0,19508.0,74508.0,16607.0,16968.0,7115.0,12631.0,11939.0,5038.0,2378.0,1665.0,136.0,31.0
487634,County,2020/06/01,20.0,KS,20149.0,Pottawatomie County,3967.0,20310.0,84911.0,21558.0,18339.0,8492.0,12427.0,13943.0,5643.0,2504.0,1835.0,134.0,36.0
489202,County,2020/06/02,20.0,KS,20149.0,Pottawatomie County,4058.0,20219.0,91561.0,22840.0,22973.0,7249.0,13047.0,15421.0,6477.0,1961.0,1567.0,0.0,26.0
493915,County,2020/06/03,20.0,KS,20149.0,Pottawatomie County,3711.0,20566.0,96499.0,24856.0,22760.0,8954.0,15467.0,14149.0,6650.0,2278.0,1174.0,153.0,58.0
495532,County,2020/06/04,20.0,KS,20149.0,Pottawatomie County,3779.0,20498.0,86177.0,20167.0,16679.0,10033.0,13136.0,15480.0,6516.0,2681.0,1324.0,53.0,108.0
500309,County,2020/06/05,20.0,KS,20149.0,Pottawatomie County,3778.0,20499.0,86843.0,17822.0,20237.0,10478.0,12795.0,15200.0,5780.0,2436.0,1790.0,160.0,145.0
501932,County,2020/06/06,20.0,KS,20149.0,Pottawatomie County,4604.0,19673.0,86014.0,22671.0,19133.0,8284.0,14635.0,11866.0,5052.0,2552.0,1468.0,169.0,184.0
505124,County,2020/06/07,20.0,KS,20149.0,Pottawatomie County,4760.0,19517.0,70730.0,14543.0,17335.0,8389.0,10977.0,11488.0,3637.0,1785.0,2002.0,276.0,298.0
508298,County,2020/06/08,20.0,KS,20149.0,Pottawatomie County,4119.0,20158.0,86223.0,17540.0,19871.0,9780.0,14500.0,15394.0,5966.0,1493.0,989.0,300.0,390.0
513075,County,2020/06/09,20.0,KS,20149.0,Pottawatomie County,4201.0,20076.0,81060.0,21122.0,20787.0,7672.0,10080.0,12403.0,5968.0,1586.0,746.0,210.0,486.0
514707,County,2020/06/10,20.0,KS,20149.0,Pottawatomie County,4324.0,19953.0,71424.0,16114.0,18221.0,6282.0,9493.0,12081.0,5633.0,1554.0,894.0,246.0,906.0
519438,County,2020/06/11,20.0,KS,20149.0,Pottawatomie County,4124.0,20153.0,75132.0,20620.0,16612.0,8294.0,10515.0,10310.0,5062.0,1633.0,923.0,200.0,963.0
521112,County,2020/06/12,20.0,KS,20149.0,Pottawatomie County,4175.0,20102.0,87199.0,24160.0,18665.0,7987.0,13109.0,12426.0,6299.0,2562.0,1569.0,146.0,276.0
525848,County,2020/06/13,20.0,KS,20149.0,Pottawatomie County,4161.0,20116.0,82360.0,20948.0,19464.0,7597.0,11532.0,12459.0,6167.0,2339.0,1658.0,109.0,87.0
527483,County,2020/06/14,20.0,KS,20149.0,Pottawatomie County,5010.0,19267.0,71086.0,16558.0,15991.0,8903.0,10872.0,9218.0,5764.0,2040.0,1352.0,142.0,246.0
530681,County,2020/06/15,20.0,KS,20149.0,Pottawatomie County,4593.0,19684.0,78888.0,20170.0,17498.0,9470.0,11065.0,12491.0,3991.0,2210.0,1764.0,126.0,103.0
535462,County,2020/06/16,20.0,KS,20149.0,Pottawatomie County,4599.0,19678.0,88917.0,21605.0,20036.0,8963.0,16966.0,13633.0,4842.0,1797.0,817.0,129.0,129.0
537064,County,2020/06/17,20.0,KS,20149.0,Pottawatomie County,4522.0,19755.0,93606.0,26222.0,21383.0,9395.0,13276.0,14036.0,5448.0,2263.0,1329.0,207.0,47.0
541825,County,2020/06/18,20.0,KS,20149.0,Pottawatomie County,4046.0,20231.0,83722.0,21069.0,18737.0,8940.0,11446.0,14054.0,5732.0,2396.0,1040.0,270.0,38.0
543452,County,2020/06/19,20.0,KS,20149.0,Pottawatomie County,4114.0,20163.0,78866.0,16691.0,19113.0,9691.0,9914.0,13561.0,5897.0,2279.0,1336.0,264.0,120.0
546657,County,2020/06/20,20.0,KS,20149.0,Pottawatomie County,4820.0,19457.0,83498.0,19157.0,21985.0,8809.0,11738.0,12014.0,5366.0,2995.0,1119.0,191.0,124.0
551399,County,2020/06/21,20.0,KS,20149.0,Pottawatomie County,4974.0,19303.0,71622.0,13693.0,18263.0,9623.0,9144.0,10802.0,5686.0,2629.0,1597.0,110.0,75.0
553036,County,2020/06/22,20.0,KS,20149.0,Pottawatomie County,4485.0,19792.0,77571.0,18399.0,18181.0,8311.0,11616.0,12749.0,5014.0,1592.0,1283.0,259.0,167.0
557795,County,2020/06/23,20.0,KS,20149.0,Pottawatomie County,4241.0,20036.0,88003.0,22397.0,20603.0,9313.0,11689.0,14813.0,5822.0,2188.0,1025.0,80.0,73.0
559428,County,2020/06/24,20.0,KS,20149.0,Pottawatomie County,4438.0,19839.0,77374.0,17959.0,17717.0,7664.0,9986.0,14366.0,6238.0,2046.0,1157.0,150.0,91.0
564165,County,2020/06/25,20.0,KS,20149.0,Pottawatomie County,4072.0,20205.0,89492.0,24373.0,20772.0,8980.0,13272.0,12728.0,5520.0,2114.0,1466.0,222.0,45.0
565871,County,2020/06/26,20.0,KS,20149.0,Pottawatomie County,4504.0,19773.0,82167.0,22190.0,16451.0,8584.0,10560.0,13049.0,6479.0,2614.0,1980.0,164.0,96.0
570561,County,2020/06/27,20.0,KS,20149.0,Pottawatomie County,4746.0,19531.0,81848.0,19089.0,17042.0,8568.0,11073.0,14531.0,6996.0,2688.0,1704.0,117.0,40.0
573753,County,2020/06/28,20.0,KS,20149.0,Pottawatomie County,4914.0,19363.0,77605.0,19821.0,15822.0,6819.0,12087.0,10719.0,5941.0,4284.0,1879.0,190.0,43.0
576974,County,2020/06/29,20.0,KS,20149.0,Pottawatomie County,4502.0,19775.0,80244.0,21213.0,19065.0,7601.0,9724.0,12677.0,5602.0,2613.0,1525.0,125.0,99.0
580173,County,2020/06/30,20.0,KS,20149.0,Pottawatomie County,4576.0,19701.0,82005.0,19947.0,18868.0,8802.0,10628.0,13723.0,6248.0,2244.0,1147.0,193.0,205.0
583367,County,2020/07/01,20.0,KS,20149.0,Pottawatomie County,3931.0,20346.0,86424.0,20705.0,23037.0,8595.0,11595.0,12739.0,5945.0,1890.0,1555.0,115.0,248.0
586556,County,2020/07/02,20.0,KS,20149.0,Pottawatomie County,4571.0,19706.0,94988.0,25870.0,22047.0,9531.0,14087.0,13510.0,5859.0,2244.0,1556.0,236.0,48.0
588192,County,2020/07/03,20.0,KS,20149.0,Pottawatomie County,4954.0,19323.0,81703.0,22065.0,16358.0,8536.0,10501.0,12975.0,6442.0,2599.0,1969.0,163.0,95.0
592943,County,2020/07/04,20.0,KS,20149.0,Pottawatomie County,5406.0,18871.0,69900.0,18877.0,13995.0,7302.0,8983.0,11101.0,5512.0,2224.0,1684.0,140.0,82.0
594592,County,2020/07/05,20.0,KS,20149.0,Pottawatomie County,5243.0,19034.0,64337.0,14719.0,15825.0,5952.0,9590.0,9496.0,4064.0,2060.0,2212.0,143.0,276.0
598448,County,2020/07/06,20.0,KS,20149.0,Pottawatomie County,4634.0,19643.0,75030.0,17384.0,20485.0,7575.0,8923.0,11644.0,5051.0,1999.0,1494.0,206.0,269.0
600943,County,2020/07/07,20.0,KS,20149.0,Pottawatomie County,4521.0,19756.0,81192.0,17992.0,20971.0,8366.0,10502.0,12558.0,5893.0,2624.0,1704.0,474.0,108.0
604135,County,2020/07/08,20.0,KS,20149.0,Pottawatomie County,4435.0,19842.0,78662.0,19591.0,18188.0,7423.0,11218.0,12059.0,6304.0,1952.0,1577.0,263.0,87.0
608908,County,2020/07/09,20.0,KS,20149.0,Pottawatomie County,4558.0,19719.0,76682.0,19906.0,16671.0,7741.0,11336.0,11453.0,5020.0,2537.0,1712.0,120.0,186.0
610531,County,2020/07/10,20.0,KS,20149.0,Pottawatomie County,4343.0,19934.0,79437.0,20271.0,16892.0,7562.0,11026.0,13328.0,5189.0,3201.0,1574.0,195.0,199.0
615329,County,2020/07/11,20.0,KS,20149.0,Pottawatomie County,4834.0,19443.0,80346.0,19005.0,19293.0,9196.0,12308.0,11486.0,4932.0,2165.0,1578.0,272.0,111.0
616913,County,2020/07/12,20.0,KS,20149.0,Pottawatomie County,5426.0,18851.0,67343.0,17163.0,16021.0,6121.0,9115.0,10013.0,4485.0,2566.0,1317.0,322.0,220.0
621672,County,2020/07/13,20.0,KS,20149.0,Pottawatomie County,4610.0,19667.0,75655.0,18596.0,18320.0,7461.0,11301.0,11197.0,5002.0,2187.0,1153.0,200.0,238.0
624867,County,2020/07/14,20.0,KS,20149.0,Pottawatomie County,4411.0,19866.0,75459.0,19659.0,16621.0,6178.0,11056.0,12834.0,5479.0,2059.0,1364.0,115.0,94.0
626425,County,2020/07/15,20.0,KS,20149.0,Pottawatomie County,4519.0,19758.0,77493.0,20086.0,16547.0,6961.0,11347.0,13230.0,5410.0,2335.0,1160.0,195.0,222.0
629666,County,2020/07/16,20.0,KS,20149.0,Pottawatomie County,4831.0,19446.0,77923.0,18591.0,15826.0,10443.0,9100.0,13475.0,6596.0,2636.0,1041.0,113.0,102.0
634400,County,2020/07/17,20.0,KS,20149.0,Pottawatomie County,4887.0,19390.0,74731.0,14558.0,19790.0,7209.0,10808.0,12461.0,5040.0,3264.0,1356.0,194.0,51.0
636078,County,2020/07/18,20.0,KS,20149.0,Pottawatomie County,5097.0,19180.0,72051.0,15603.0,17917.0,8471.0,9384.0,11020.0,5255.0,2448.0,1750.0,129.0,74.0
640855,County,2020/07/19,20.0,KS,20149.0,Pottawatomie County,5564.0,18713.0,59260.0,12395.0,13107.0,7131.0,7990.0,9268.0,4449.0,2892.0,1597.0,242.0,189.0
642467,County,2020/07/20,20.0,KS,20149.0,Pottawatomie County,4877.0,19400.0,75384.0,15850.0,18422.0,8945.0,11502.0,12310.0,4671.0,2383.0,1026.0,180.0,95.0
647707,County,2020/07/21,20.0,KS,20149.0,Pottawatomie County,4561.0,19716.0,76978.0,16982.0,16586.0,7963.0,11613.0,13146.0,6736.0,2586.0,893.0,325.0,148.0
649897,County,2020/07/22,20.0,KS,20149.0,Pottawatomie County,4602.0,19675.0,84309.0,20189.0,19317.0,10217.0,11937.0,13172.0,5340.0,2493.0,1364.0,218.0,62.0
653616,County,2020/07/23,20.0,KS,20149.0,Pottawatomie County,4531.0,19746.0,77611.0,18402.0,16111.0,8540.0,9753.0,14088.0,6648.0,2633.0,1114.0,169.0,153.0
655183,County,2020/07/24,20.0,KS,20149.0,Pottawatomie County,4455.0,19822.0,88835.0,23654.0,21025.0,8999.0,10168.0,13710.0,6780.0,2560.0,1555.0,214.0,170.0
658431,County,2020/07/25,20.0,KS,20149.0,Pottawatomie County,5033.0,19244.0,71759.0,16656.0,15948.0,7772.0,9375.0,10869.0,6159.0,2845.0,1680.0,342.0,113.0
663136,County,2020/07/26,20.0,KS,20149.0,Pottawatomie County,5195.0,19082.0,71216.0,14540.0,14748.0,7611.0,11658.0,11282.0,5501.0,3035.0,2367.0,305.0,169.0
664926,County,2020/07/27,20.0,KS,20149.0,Pottawatomie County,4660.0,19617.0,79855.0,16927.0,18030.0,7804.0,12017.0,14446.0,7044.0,1749.0,1507.0,118.0,213.0
669661,County,2020/07/28,20.0,KS,20149.0,Pottawatomie County,4544.0,19733.0,87150.0,21237.0,17885.0,7643.0,13578.0,17273.0,4953.0,2783.0,1549.0,84.0,165.0
671196,County,2020/07/29,20.0,KS,20149.0,Pottawatomie County,4396.0,19881.0,84761.0,20335.0,17048.0,8306.0,12548.0,14574.0,6922.0,2964.0,1710.0,166.0,188.0
674406,County,2020/07/30,20.0,KS,20149.0,Pottawatomie County,4556.0,19721.0,132257.0,53298.0,28110.0,10623.0,13277.0,14572.0,7353.0,2776.0,1768.0,188.0,292.0
677607,County,2020/07/31,20.0,KS,20149.0,Pottawatomie County,4727.0,19550.0,93711.0,24442.0,22017.0,8870.0,11616.0,14776.0,7017.0,2999.0,1615.0,188.0,171.0
680764,County,2020/08/01,20.0,KS,20149.0,Pottawatomie County,5362.0,18915.0,84782.0,24780.0,17928.0,8025.0,10252.0,12894.0,5907.0,2935.0,1750.0,111.0,200.0
683987,County,2020/08/02,20.0,KS,20149.0,Pottawatomie County,5165.0,19112.0,71950.0,14214.0,16428.0,6114.0,11216.0,11245.0,6226.0,3526.0,2428.0,348.0,205.0
687183,County,2020/08/03,20.0,KS,20149.0,Pottawatomie County,4626.0,19651.0,83509.0,19542.0,16512.0,8660.0,12185.0,15244.0,6582.0,3235.0,1372.0,162.0,15.0
691959,County,2020/08/04,20.0,KS,20149.0,Pottawatomie County,3910.0,20367.0,101356.0,31168.0,20704.0,9118.0,13190.0,15695.0,7175.0,2911.0,1150.0,169.0,76.0
695135,County,2020/08/05,20.0,KS,20149.0,Pottawatomie County,4501.0,19776.0,92177.0,23421.0,22107.0,8484.0,13609.0,14036.0,7331.0,2224.0,737.0,186.0,42.0
698330,County,2020/08/06,20.0,KS,20149.0,Pottawatomie County,4363.0,19914.0,94751.0,24759.0,22639.0,8212.0,14441.0,14883.0,6042.0,2428.0,973.0,283.0,91.0
701525,County,2020/08/07,20.0,KS,20149.0,Pottawatomie County,4119.0,20158.0,81562.0,20822.0,16037.0,8537.0,11516.0,14696.0,5490.0,2912.0,1196.0,263.0,93.0
703155,County,2020/08/08,20.0,KS,20149.0,Pottawatomie County,4578.0,19699.0,76194.0,16779.0,16158.0,7588.0,11306.0,13513.0,6268.0,2891.0,1559.0,101.0,31.0
707937,County,2020/08/09,20.0,KS,20149.0,Pottawatomie County,5051.0,19226.0,70118.0,16117.0,15716.0,6989.0,10339.0,11345.0,5249.0,1796.0,1969.0,528.0,70.0
709566,County,2020/08/10,20.0,KS,20149.0,Pottawatomie County,4436.0,19841.0,83740.0,18613.0,18525.0,7853.0,12286.0,15329.0,7682.0,1785.0,1294.0,309.0,64.0
712734,County,2020/08/11,20.0,KS,20149.0,Pottawatomie County,4371.0,19906.0,84447.0,19635.0,19996.0,8423.0,10879.0,15250.0,6960.0,1949.0,1070.0,196.0,89.0
715929,County,2020/08/12,20.0,KS,20149.0,Pottawatomie County,4078.0,20199.0,80884.0,17113.0,17218.0,8892.0,11801.0,13658.0,7439.0,2530.0,1813.0,208.0,212.0
720689,County,2020/08/13,20.0,KS,20149.0,Pottawatomie County,4067.0,20210.0,84212.0,17826.0,19093.0,9037.0,11449.0,15479.0,6538.0,2263.0,2079.0,155.0,293.0
722315,County,2020/08/14,20.0,KS,20149.0,Pottawatomie County,4077.0,20200.0,94567.0,22798.0,20233.0,9120.0,13295.0,16187.0,8415.0,2330.0,1790.0,133.0,266.0
725545,County,2020/08/15,20.0,KS,20149.0,Pottawatomie County,4501.0,19776.0,85084.0,19583.0,20121.0,8526.0,12087.0,13931.0,5771.0,2568.0,2323.0,31.0,143.0
728705,County,2020/08/16,20.0,KS,20149.0,Pottawatomie County,5038.0,19239.0,79945.0,17160.0,17374.0,8682.0,12321.0,12157.0,7179.0,2464.0,2177.0,103.0,328.0
733486,County,2020/08/17,20.0,KS,20149.0,Pottawatomie County,4612.0,19665.0,89150.0,20414.0,19040.0,9644.0,12232.0,16362.0,6422.0,2660.0,1721.0,373.0,282.0
736658,County,2020/08/18,20.0,KS,20149.0,Pottawatomie County,4635.0,19642.0,87487.0,20169.0,20653.0,8538.0,12132.0,14559.0,7186.0,2422.0,1422.0,279.0,127.0
739852,County,2020/08/19,20.0,KS,20149.0,Pottawatomie County,4197.0,20080.0,86960.0,19297.0,17067.0,9014.0,13795.0,16103.0,8272.0,1797.0,1232.0,156.0,227.0
741480,County,2020/08/20,20.0,KS,20149.0,Pottawatomie County,4193.0,20084.0,91478.0,20343.0,21080.0,8479.0,14715.0,15203.0,6685.0,2602.0,1896.0,163.0,312.0
744680,County,2020/08/21,20.0,KS,20149.0,Pottawatomie County,3728.0,20549.0,99566.0,21967.0,22626.0,11271.0,15167.0,15606.0,8100.0,2421.0,2027.0,192.0,189.0
749462,County,2020/08/22,20.0,KS,20149.0,Pottawatomie County,4479.0,19798.0,88486.0,18791.0,19156.0,11156.0,10809.0,15700.0,8126.0,2837.0,1525.0,193.0,193.0
752630,County,2020/08/23,20.0,KS,20149.0,Pottawatomie County,5382.0,18895.0,69623.0,15777.0,13356.0,6758.0,9825.0,14020.0,5814.0,2170.0,1522.0,192.0,189.0
755821,County,2020/08/24,20.0,KS,20149.0,Pottawatomie County,4988.0,19289.0,79414.0,17575.0,18479.0,8031.0,12225.0,12848.0,6512.0,2435.0,1076.0,87.0,146.0
757450,County,2020/08/25,20.0,KS,20149.0,Pottawatomie County,4643.0,19634.0,85155.0,20993.0,16446.0,9186.0,13002.0,15345.0,6369.0,2301.0,1212.0,158.0,143.0
762173,County,2020/08/26,20.0,KS,20149.0,Pottawatomie County,4575.0,19702.0,84275.0,19780.0,17192.0,8405.0,13115.0,15205.0,6632.0,1766.0,1702.0,295.0,183.0
765418,County,2020/08/27,20.0,KS,20149.0,Pottawatomie County,4615.0,19662.0,85127.0,22923.0,18547.0,7556.0,12265.0,14396.0,4946.0,2737.0,1351.0,296.0,110.0
767009,County,2020/08/28,20.0,KS,20149.0,Pottawatomie County,4375.0,19902.0,93452.0,24072.0,20800.0,9149.0,13715.0,14252.0,6472.0,2922.0,1619.0,293.0,158.0
771784,County,2020/08/29,20.0,KS,20149.0,Pottawatomie County,5200.0,19077.0,75040.0,18482.0,16429.0,7149.0,11797.0,12100.0,5498.0,1551.0,1462.0,300.0,272.0
775002,County,2020/08/30,20.0,KS,20149.0,Pottawatomie County,5516.0,18761.0,65867.0,14106.0,13007.0,7092.0,11719.0,9495.0,5762.0,2622.0,1520.0,230.0,314.0
778192,County,2020/08/31,20.0,KS,20149.0,Pottawatomie County,4813.0,19464.0,72129.0,16689.0,14136.0,7411.0,12207.0,11805.0,5889.0,1834.0,1680.0,244.0,234.0
781391,County,2020/09/01,20.0,KS,20149.0,Pottawatomie County,4629.0,19648.0,84880.0,18447.0,18587.0,9559.0,14089.0,14034.0,6482.0,1927.0,1539.0,113.0,103.0
782998,County,2020/09/02,20.0,KS,20149.0,Pottawatomie County,4750.0,19527.0,86736.0,20723.0,19061.0,8757.0,12297.0,14288.0,7417.0,2392.0,1276.0,352.0,173.0
786146,County,2020/09/03,20.0,KS,20149.0,Pottawatomie County,4174.0,20103.0,84619.0,19152.0,19256.0,8176.0,12012.0,13777.0,7388.0,2906.0,1470.0,265.0,217.0
790977,County,2020/09/04,20.0,KS,20149.0,Pottawatomie County,4597.0,19680.0,80836.0,17224.0,16351.0,8185.0,11445.0,12980.0,7064.0,4221.0,2634.0,522.0,210.0
792481,County,2020/09/05,20.0,KS,20149.0,Pottawatomie County,4871.0,19406.0,90153.0,24112.0,17845.0,10579.0,12369.0,14887.0,5874.0,2256.0,1837.0,291.0,103.0
797321,County,2020/09/06,20.0,KS,20149.0,Pottawatomie County,5430.0,18847.0,63269.0,15273.0,12310.0,6834.0,8419.0,8885.0,6059.0,3014.0,1843.0,350.0,282.0
798981,County,2020/09/07,20.0,KS,20149.0,Pottawatomie County,5869.0,18408.0,62593.0,15172.0,12735.0,6380.0,8497.0,8516.0,6064.0,2500.0,2030.0,405.0,294.0
803732,County,2020/09/08,20.0,KS,20149.0,Pottawatomie County,4868.0,19409.0,81455.0,18431.0,17892.0,7095.0,13261.0,12795.0,6921.0,2800.0,1772.0,218.0,270.0
805359,County,2020/09/09,20.0,KS,20149.0,Pottawatomie County,4653.0,19624.0,79772.0,16493.0,17569.0,8020.0,12595.0,14830.0,5918.0,2615.0,1260.0,269.0,203.0
810129,County,2020/09/10,20.0,KS,20149.0,Pottawatomie County,4704.0,19573.0,81561.0,16046.0,18163.0,9197.0,14432.0,13930.0,5944.0,2112.0,1479.0,121.0,137.0
811758,County,2020/09/11,20.0,KS,20149.0,Pottawatomie County,4401.0,19876.0,88036.0,19142.0,19092.0,7872.0,13570.0,15498.0,7620.0,2804.0,1898.0,276.0,264.0
814942,County,2020/09/12,20.0,KS,20149.0,Pottawatomie County,5265.0,19012.0,76041.0,16718.0,15016.0,7357.0,11998.0,13245.0,6215.0,3276.0,1766.0,154.0,296.0
819691,County,2020/09/13,20.0,KS,20149.0,Pottawatomie County,5762.0,18515.0,61345.0,10852.0,13418.0,6828.0,9785.0,11642.0,4313.0,1915.0,1896.0,261.0,435.0
822896,County,2020/09/14,20.0,KS,20149.0,Pottawatomie County,4532.0,19745.0,84221.0,17797.0,19245.0,8106.0,12068.0,15615.0,6696.0,2838.0,1453.0,226.0,177.0
824525,County,2020/09/15,20.0,KS,20149.0,Pottawatomie County,4692.0,19585.0,90193.0,20736.0,20453.0,8013.0,14445.0,13793.0,7850.0,3082.0,1564.0,197.0,60.0
829332,County,2020/09/16,20.0,KS,20149.0,Pottawatomie County,4478.0,19799.0,89549.0,22470.0,18509.0,7607.0,13754.0,15782.0,7666.0,2221.0,1178.0,159.0,203.0
830911,County,2020/09/17,20.0,KS,20149.0,Pottawatomie County,4389.0,19888.0,92132.0,23631.0,20184.0,8001.0,11354.0,15154.0,8421.0,3469.0,1589.0,127.0,202.0
835672,County,2020/09/18,20.0,KS,20149.0,Pottawatomie County,4216.0,20061.0,99448.0,23819.0,23528.0,7632.0,16601.0,15749.0,7562.0,2444.0,1704.0,291.0,118.0
837300,County,2020/09/19,20.0,KS,20149.0,Pottawatomie County,4666.0,19611.0,93502.0,24386.0,19451.0,9737.0,10598.0,14759.0,8017.0,3638.0,2652.0,147.0,117.0
842076,County,2020/09/20,20.0,KS,20149.0,Pottawatomie County,5483.0,18794.0,80691.0,21377.0,17321.0,8398.0,10841.0,11930.0,6513.0,2272.0,1859.0,134.0,46.0
843704,County,2020/09/21,20.0,KS,20149.0,Pottawatomie County,5596.0,18681.0,81808.0,20647.0,19153.0,7181.0,12096.0,12266.0,6237.0,2199.0,1786.0,178.0,65.0
848448,County,2020/09/22,20.0,KS,20149.0,Pottawatomie County,4811.0,19466.0,85085.0,21847.0,19484.0,8215.0,10950.0,12848.0,8207.0,2499.0,786.0,220.0,29.0
850075,County,2020/09/23,20.0,KS,20149.0,Pottawatomie County,4462.0,19815.0,88859.0,20184.0,20068.0,9792.0,14038.0,14124.0,6898.0,2334.0,1099.0,308.0,14.0
854842,County,2020/09/24,20.0,KS,20149.0,Pottawatomie County,4638.0,19639.0,87171.0,21932.0,19653.0,8904.0,12892.0,12909.0,7118.0,2551.0,1030.0,125.0,57.0
856471,County,2020/09/25,20.0,KS,20149.0,Pottawatomie County,4268.0,20009.0,87907.0,19683.0,19427.0,9192.0,12617.0,15283.0,6487.0,3674.0,1379.0,123.0,42.0
861224,County,2020/09/26,20.0,KS,20149.0,Pottawatomie County,5037.0,19240.0,82028.0,20224.0,17007.0,8647.0,12655.0,14223.0,5998.0,2265.0,938.0,71.0,0.0
864404,County,2020/09/27,20.0,KS,20149.0,Pottawatomie County,4993.0,19284.0,62177.0,13990.0,13270.0,6020.0,9419.0,10759.0,4521.0,2134.0,1671.0,260.0,133.0
867612,County,2020/09/28,20.0,KS,20149.0,Pottawatomie County,4352.0,19925.0,78973.0,18390.0,17657.0,7078.0,11886.0,13760.0,5993.0,2798.0,1128.0,214.0,69.0
869240,County,2020/09/29,20.0,KS,20149.0,Pottawatomie County,4518.0,19759.0,83202.0,18718.0,20402.0,8248.0,11165.0,14063.0,6942.0,2674.0,761.0,148.0,81.0
874019,County,2020/09/30,20.0,KS,20149.0,Pottawatomie County,4482.0,19795.0,87218.0,18805.0,20297.0,9172.0,14000.0,12825.0,7963.0,2919.0,1021.0,160.0,56.0
877173,County,2020/10/01,20.0,KS,20149.0,Pottawatomie County,4207.0,20070.0,86977.0,21206.0,19336.0,9375.0,13099.0,13089.0,6096.0,2941.0,1612.0,194.0,29.0
880388,County,2020/10/02,20.0,KS,20149.0,Pottawatomie County,4422.0,19855.0,84428.0,22294.0,19068.0,7090.0,11872.0,12892.0,5516.0,3877.0,1527.0,244.0,48.0
882016,County,2020/10/03,20.0,KS,20149.0,Pottawatomie County,4660.0,19617.0,77809.0,17231.0,18769.0,6424.0,11973.0,11440.0,7188.0,2927.0,1591.0,191.0,75.0
885632,County,2020/10/04,20.0,KS,20149.0,Pottawatomie County,5506.0,18771.0,68939.0,16099.0,14662.0,7014.0,10132.0,11318.0,5236.0,2754.0,1405.0,245.0,74.0
888871,County,2020/10/05,20.0,KS,20149.0,Pottawatomie County,5339.0,18938.0,77412.0,18920.0,19247.0,6579.0,10342.0,11470.0,6829.0,2474.0,1306.0,176.0,69.0
892054,County,2020/10/06,20.0,KS,20149.0,Pottawatomie County,4990.0,19287.0,79255.0,18282.0,17510.0,7722.0,12963.0,13362.0,5395.0,2802.0,1048.0,132.0,39.0
895241,County,2020/10/07,20.0,KS,20149.0,Pottawatomie County,4362.0,19915.0,87371.0,18636.0,20320.0,8204.0,14665.0,15398.0,6324.0,2616.0,1040.0,106.0,62.0
898429,County,2020/10/08,20.0,KS,20149.0,Pottawatomie County,4598.0,19679.0,77864.0,16898.0,19762.0,6207.0,11791.0,12174.0,6861.0,2664.0,1348.0,110.0,49.0
901660,County,2020/10/09,20.0,KS,20149.0,Pottawatomie County,4553.0,19724.0,79211.0,17973.0,16192.0,9017.0,10276.0,15139.0,6023.0,2767.0,1527.0,251.0,46.0
904851,County,2020/10/10,20.0,KS,20149.0,Pottawatomie County,5122.0,19155.0,83762.0,15066.0,19420.0,11099.0,12539.0,14041.0,7185.0,2845.0,1457.0,76.0,34.0
909794,County,2020/10/11,20.0,KS,20149.0,Pottawatomie County,5473.0,18804.0,63812.0,14194.0,13154.0,5887.0,10028.0,10335.0,5775.0,2613.0,1657.0,151.0,18.0
912738,County,2020/10/12,20.0,KS,20149.0,Pottawatomie County,4921.0,19356.0,75814.0,16544.0,19219.0,6931.0,10706.0,12029.0,5428.0,3665.0,1088.0,172.0,32.0
915617,County,2020/10/13,20.0,KS,20149.0,Pottawatomie County,4821.0,19456.0,81738.0,20482.0,19120.0,7431.0,11338.0,13328.0,6041.0,2394.0,1328.0,242.0,34.0
918384,County,2020/10/14,20.0,KS,20149.0,Pottawatomie County,4342.0,19935.0,84170.0,19669.0,19642.0,9765.0,11284.0,12945.0,5910.0,3352.0,1417.0,155.0,31.0
922032,County,2020/10/15,20.0,KS,20149.0,Pottawatomie County,5230.0,19047.0,81286.0,19537.0,17940.0,7372.0,11040.0,14475.0,6378.0,2908.0,1409.0,192.0,35.0
925509,County,2020/10/16,20.0,KS,20149.0,Pottawatomie County,4761.0,19516.0,88348.0,17471.0,22365.0,10339.0,11239.0,13640.0,7131.0,4411.0,1549.0,177.0,26.0
928498,County,2020/10/17,20.0,KS,20149.0,Pottawatomie County,4994.0,19283.0,84052.0,21232.0,20312.0,7555.0,9986.0,13230.0,5804.0,4377.0,1466.0,43.0,47.0
931537,County,2020/10/18,20.0,KS,20149.0,Pottawatomie County,5509.0,18768.0,64591.0,10918.0,13180.0,6716.0,11997.0,11903.0,5182.0,2812.0,1689.0,157.0,37.0
935127,County,2020/10/19,20.0,KS,20149.0,Pottawatomie County,4740.0,19537.0,84126.0,19761.0,21640.0,8919.0,12929.0,11063.0,5658.0,2361.0,1603.0,156.0,36.0
938402,County,2020/10/20,20.0,KS,20149.0,Pottawatomie County,5013.0,19264.0,85045.0,21576.0,21605.0,7508.0,13291.0,11670.0,5193.0,2340.0,1578.0,246.0,38.0
941543,County,2020/10/21,20.0,KS,20149.0,Pottawatomie County,5046.0,19231.0,78122.0,15457.0,19706.0,8784.0,11052.0,11122.0,6626.0,3379.0,1836.0,125.0,35.0
944695,County,2020/10/22,20.0,KS,20149.0,Pottawatomie County,4682.0,19595.0,88905.0,21132.0,19402.0,8337.0,12022.0,15849.0,6911.0,3714.0,1361.0,133.0,44.0
948010,County,2020/10/23,20.0,KS,20149.0,Pottawatomie County,4390.0,19887.0,93825.0,22014.0,19751.0,9007.0,16108.0,16027.0,5994.0,3094.0,1541.0,248.0,41.0
950869,County,2020/10/24,20.0,KS,20149.0,Pottawatomie County,4580.0,19697.0,86374.0,20975.0,18973.0,8312.0,12270.0,13353.0,7548.0,3473.0,1367.0,66.0,37.0
