,Level,Date,State FIPS,State Postal Code,County FIPS,County Name,Population Staying at Home,Population Not Staying at Home,Number of Trips,Number of Trips <1,Number of Trips 1-3,Number of Trips 3-5,Number of Trips 5-10,Number of Trips 10-25,Number of Trips 25-50,Number of Trips 50-100,Number of Trips 100-250,Number of Trips 250-500,Number of Trips >=500
1192,County,2020/01/01,23.0,ME,23031.0,York County,51852.0,154377.0,561313.0,118533.0,132940.0,70338.0,83033.0,108568.0,33923.0,9512.0,3662.0,351.0,453.0
3432,County,2020/01/02,23.0,ME,23031.0,York County,39916.0,166313.0,760338.0,173471.0,169779.0,87913.0,108777.0,148738.0,55191.0,13243.0,2717.0,250.0,259.0
7427,County,2020/01/03,23.0,ME,23031.0,York County,39374.0,166855.0,756953.0,156726.0,170806.0,88769.0,110792.0,162572.0,52451.0,11101.0,3074.0,316.0,346.0
9610,County,2020/01/04,23.0,ME,23031.0,York County,46991.0,159238.0,667123.0,141220.0,149794.0,90067.0,112268.0,119459.0,40249.0,10882.0,2562.0,251.0,371.0
13968,County,2020/01/05,23.0,ME,23031.0,York County,50144.0,156085.0,599988.0,127161.0,134169.0,86595.0,97064.0,107970.0,32518.0,10520.0,3155.0,426.0,410.0
18189,County,2020/01/06,23.0,ME,23031.0,York County,41144.0,165085.0,688218.0,146933.0,157323.0,77765.0,98234.0,139790.0,53129.0,11480.0,2863.0,338.0,363.0
21335,County,2020/01/07,23.0,ME,23031.0,York County,40967.0,165262.0,715157.0,153802.0,156984.0,87939.0,104155.0,141463.0,53186.0,14166.0,2811.0,265.0,386.0
22962,County,2020/01/08,23.0,ME,23031.0,York County,41166.0,165063.0,735493.0,158829.0,158705.0,89222.0,105560.0,151570.0,54905.0,13494.0,2527.0,263.0,418.0
26157,County,2020/01/09,23.0,ME,23031.0,York County,39136.0,167093.0,733418.0,156544.0,166993.0,85465.0,105817.0,147864.0,55129.0,12423.0,2643.0,182.0,358.0
30917,County,2020/01/10,23.0,ME,23031.0,York County,39638.0,166591.0,792547.0,180497.0,171721.0,99251.0,114561.0,153648.0,54213.0,14710.0,3376.0,239.0,331.0
34161,County,2020/01/11,23.0,ME,23031.0,York County,43697.0,162532.0,744906.0,160601.0,169352.0,98577.0,115640.0,136956.0,48246.0,12269.0,2711.0,221.0,333.0
37280,County,2020/01/12,23.0,ME,23031.0,York County,50206.0,156023.0,603398.0,122812.0,147300.0,84564.0,91771.0,111988.0,31045.0,10302.0,2870.0,284.0,462.0
40528,County,2020/01/13,23.0,ME,23031.0,York County,41150.0,165079.0,698049.0,147717.0,156608.0,81389.0,102656.0,142011.0,52775.0,12363.0,1981.0,214.0,335.0
42154,County,2020/01/14,23.0,ME,23031.0,York County,40404.0,165825.0,708779.0,148383.0,153713.0,83914.0,105868.0,145152.0,55409.0,13182.0,2721.0,181.0,256.0
46883,County,2020/01/15,23.0,ME,23031.0,York County,41045.0,165184.0,725943.0,155444.0,160469.0,87427.0,105636.0,146149.0,54679.0,13219.0,2453.0,190.0,277.0
50039,County,2020/01/16,23.0,ME,23031.0,York County,45248.0,160981.0,672136.0,149450.0,157358.0,87673.0,96886.0,119502.0,45765.0,12480.0,2247.0,272.0,503.0
53326,County,2020/01/17,23.0,ME,23031.0,York County,39327.0,166902.0,755996.0,152401.0,167391.0,93711.0,116749.0,151971.0,57162.0,12738.0,3242.0,250.0,381.0
54899,County,2020/01/18,23.0,ME,23031.0,York County,45168.0,161061.0,682842.0,141030.0,156982.0,92712.0,110632.0,128395.0,37517.0,12028.0,2978.0,198.0,370.0
59694,County,2020/01/19,23.0,ME,23031.0,York County,53241.0,152988.0,637961.0,132498.0,168229.0,90992.0,97540.0,106449.0,28249.0,10394.0,2793.0,321.0,496.0
61279,County,2020/01/20,23.0,ME,23031.0,York County,45165.0,161064.0,672330.0,131210.0,144523.0,84372.0,107434.0,137474.0,49006.0,13942.0,3716.0,216.0,437.0
66056,County,2020/01/21,23.0,ME,23031.0,York County,41412.0,164817.0,698847.0,134223.0,152110.0,90900.0,104571.0,147010.0,53920.0,12260.0,3310.0,181.0,362.0
69246,County,2020/01/22,23.0,ME,23031.0,York County,39060.0,167169.0,733884.0,152101.0,152964.0,92482.0,109912.0,152611.0,56779.0,13883.0,2654.0,158.0,340.0
70871,County,2020/01/23,23.0,ME,23031.0,York County,40147.0,166082.0,727873.0,154314.0,157404.0,89228.0,105363.0,149411.0,55491.0,12968.0,3093.0,213.0,388.0
74068,County,2020/01/24,23.0,ME,23031.0,York County,39589.0,166640.0,770520.0,153411.0,167819.0,98051.0,116131.0,161038.0,54288.0,15597.0,3688.0,163.0,334.0
78820,County,2020/01/25,23.0,ME,23031.0,York County,44487.0,161742.0,671841.0,133686.0,156073.0,86867.0,102145.0,134675.0,42280.0,12071.0,3355.0,196.0,493.0
81042,County,2020/01/26,23.0,ME,23031.0,York County,47267.0,158962.0,638906.0,138671.0,152120.0,83179.0,96245.0,115475.0,38202.0,10245.0,3909.0,370.0,490.0
83590,County,2020/01/27,23.0,ME,23031.0,York County,40192.0,166037.0,710191.0,156190.0,151528.0,83711.0,103198.0,147026.0,52689.0,12511.0,2692.0,216.0,430.0
86857,County,2020/01/28,23.0,ME,23031.0,York County,40308.0,165921.0,701819.0,147764.0,143200.0,87648.0,108305.0,144131.0,54334.0,13367.0,2475.0,215.0,380.0
90012,County,2020/01/29,23.0,ME,23031.0,York County,40297.0,165932.0,701769.0,136818.0,148816.0,81658.0,111602.0,149392.0,55323.0,14378.0,3147.0,281.0,354.0
93316,County,2020/01/30,23.0,ME,23031.0,York County,39122.0,167107.0,698385.0,146145.0,151914.0,80489.0,105562.0,143098.0,51338.0,14536.0,3803.0,580.0,920.0
97990,County,2020/01/31,23.0,ME,23031.0,York County,38865.0,167364.0,734447.0,150929.0,160258.0,86548.0,114365.0,149044.0,52417.0,14297.0,4841.0,700.0,1048.0
101178,County,2020/02/01,23.0,ME,23031.0,York County,42718.0,163511.0,698937.0,141800.0,166986.0,88218.0,109762.0,129243.0,42376.0,14870.0,4120.0,755.0,807.0
102796,County,2020/02/02,23.0,ME,23031.0,York County,46908.0,159321.0,612510.0,125260.0,148354.0,80542.0,92622.0,114098.0,30401.0,15473.0,4207.0,715.0,838.0
106006,County,2020/02/03,23.0,ME,23031.0,York County,40425.0,165804.0,699101.0,137982.0,166682.0,79458.0,103963.0,140129.0,49581.0,15895.0,3746.0,782.0,883.0
109200,County,2020/02/04,23.0,ME,23031.0,York County,38929.0,167300.0,712410.0,144605.0,156223.0,81019.0,104607.0,150397.0,53371.0,16891.0,3776.0,762.0,759.0
113923,County,2020/02/05,23.0,ME,23031.0,York County,40281.0,165948.0,711748.0,151851.0,155224.0,80463.0,106415.0,143747.0,52162.0,16528.0,3612.0,846.0,900.0
115490,County,2020/02/06,23.0,ME,23031.0,York County,44519.0,161710.0,651561.0,139071.0,164490.0,74684.0,93393.0,120530.0,40871.0,13063.0,3863.0,717.0,879.0
118756,County,2020/02/07,23.0,ME,23031.0,York County,44001.0,162228.0,658304.0,138444.0,162033.0,83996.0,96673.0,120196.0,38286.0,11975.0,4930.0,974.0,797.0
123543,County,2020/02/08,23.0,ME,23031.0,York County,43810.0,162419.0,696583.0,146080.0,163082.0,92115.0,105891.0,133194.0,38761.0,12163.0,4018.0,663.0,616.0
125205,County,2020/02/09,23.0,ME,23031.0,York County,49795.0,156434.0,535234.0,101566.0,123203.0,71292.0,85835.0,104726.0,30006.0,12445.0,4530.0,691.0,940.0
129501,County,2020/02/10,23.0,ME,23031.0,York County,39795.0,166434.0,654170.0,120033.0,149393.0,79875.0,102165.0,134857.0,45363.0,15480.0,4920.0,848.0,1236.0
133751,County,2020/02/11,23.0,ME,23031.0,York County,35952.0,170277.0,664364.0,124860.0,150887.0,80148.0,99631.0,139687.0,48697.0,13988.0,4395.0,906.0,1165.0
135227,County,2020/02/12,23.0,ME,23031.0,York County,35849.0,170380.0,706506.0,136279.0,154506.0,88645.0,113400.0,142898.0,48329.0,15095.0,4826.0,1100.0,1428.0
137936,County,2020/02/13,23.0,ME,23031.0,York County,37354.0,168875.0,658791.0,125793.0,150113.0,81973.0,102870.0,137052.0,39290.0,13810.0,5225.0,1173.0,1492.0
141043,County,2020/02/14,23.0,ME,23031.0,York County,33966.0,172263.0,756097.0,138141.0,175176.0,92919.0,118825.0,158141.0,49235.0,14986.0,6028.0,1211.0,1435.0
145921,County,2020/02/15,23.0,ME,23031.0,York County,39664.0,166565.0,683458.0,130627.0,157200.0,88652.0,111867.0,132403.0,38306.0,16010.0,5716.0,1245.0,1432.0
147528,County,2020/02/16,23.0,ME,23031.0,York County,43647.0,162582.0,617615.0,117790.0,142978.0,82293.0,104102.0,114209.0,32287.0,15562.0,5752.0,1255.0,1387.0
152290,County,2020/02/17,23.0,ME,23031.0,York County,49720.0,156509.0,557970.0,102085.0,131185.0,67971.0,86166.0,113533.0,38465.0,12183.0,4304.0,1166.0,912.0
153916,County,2020/02/18,23.0,ME,23031.0,York County,39478.0,166751.0,654790.0,125129.0,158225.0,76461.0,92121.0,132819.0,47846.0,14912.0,4992.0,1038.0,1247.0
157111,County,2020/02/19,23.0,ME,23031.0,York County,37186.0,169043.0,690919.0,132139.0,159702.0,78016.0,102255.0,143135.0,51797.0,17447.0,4451.0,979.0,998.0
161872,County,2020/02/20,23.0,ME,23031.0,York County,38120.0,168109.0,670659.0,129811.0,145627.0,78408.0,102567.0,140526.0,52249.0,14996.0,4822.0,770.0,883.0
165066,County,2020/02/21,23.0,ME,23031.0,York County,38463.0,167766.0,691897.0,125017.0,159240.0,80657.0,102147.0,146738.0,54053.0,16993.0,5120.0,1002.0,930.0
166644,County,2020/02/22,23.0,ME,23031.0,York County,38429.0,167800.0,714682.0,145153.0,167717.0,85269.0,117841.0,131119.0,44033.0,16158.0,5220.0,979.0,1193.0
169871,County,2020/02/23,23.0,ME,23031.0,York County,45295.0,160934.0,606313.0,113739.0,137956.0,79993.0,99820.0,120131.0,34408.0,14160.0,4876.0,644.0,586.0
174654,County,2020/02/24,23.0,ME,23031.0,York County,34645.0,171584.0,704987.0,127893.0,187187.0,80320.0,107873.0,139390.0,45033.0,12598.0,3223.0,797.0,673.0
176274,County,2020/02/25,23.0,ME,23031.0,York County,33074.0,173155.0,722882.0,128041.0,174757.0,84599.0,113317.0,150959.0,52564.0,14561.0,2645.0,774.0,665.0
180056,County,2020/02/26,23.0,ME,23031.0,York County,40661.0,165568.0,653615.0,117507.0,171799.0,79450.0,98246.0,128564.0,41496.0,12596.0,2711.0,523.0,723.0
182061,County,2020/02/27,23.0,ME,23031.0,York County,36262.0,169967.0,654720.0,129486.0,141853.0,73626.0,105142.0,141084.0,47753.0,12389.0,2342.0,463.0,582.0
187472,County,2020/02/28,23.0,ME,23031.0,York County,35043.0,171186.0,719462.0,136944.0,162930.0,87906.0,107996.0,152190.0,52357.0,14502.0,3759.0,301.0,577.0
190569,County,2020/02/29,23.0,ME,23031.0,York County,38768.0,167461.0,701170.0,138234.0,154598.0,89078.0,112070.0,140896.0,47730.0,14302.0,3317.0,345.0,600.0
192241,County,2020/03/01,23.0,ME,23031.0,York County,44879.0,161350.0,628189.0,123182.0,148765.0,76065.0,100417.0,121675.0,38581.0,15272.0,3364.0,321.0,547.0
197041,County,2020/03/02,23.0,ME,23031.0,York County,38385.0,167844.0,728478.0,149388.0,161094.0,86148.0,108115.0,149291.0,57196.0,13480.0,2677.0,388.0,701.0
200101,County,2020/03/03,23.0,ME,23031.0,York County,34464.0,171765.0,770607.0,159878.0,186847.0,86921.0,114753.0,145295.0,54198.0,17083.0,4354.0,763.0,515.0
203404,County,2020/03/04,23.0,ME,23031.0,York County,37640.0,168589.0,764723.0,167232.0,170525.0,84576.0,105060.0,157174.0,58447.0,16253.0,4349.0,599.0,508.0
206607,County,2020/03/05,23.0,ME,23031.0,York County,34751.0,171478.0,763486.0,162741.0,162895.0,84916.0,110811.0,158471.0,60699.0,16239.0,5576.0,578.0,560.0
209821,County,2020/03/06,23.0,ME,23031.0,York County,36306.0,169923.0,763370.0,154832.0,162550.0,92140.0,110416.0,160749.0,57166.0,18954.0,5571.0,542.0,450.0
213053,County,2020/03/07,23.0,ME,23031.0,York County,39474.0,166755.0,722880.0,143030.0,158103.0,92144.0,117024.0,143886.0,44530.0,17017.0,5875.0,658.0,613.0
216164,County,2020/03/08,23.0,ME,23031.0,York County,44428.0,161801.0,647130.0,136850.0,143346.0,85835.0,102057.0,122883.0,35939.0,14333.0,4890.0,449.0,548.0
219363,County,2020/03/09,23.0,ME,23031.0,York County,39793.0,166436.0,715744.0,157215.0,158201.0,78155.0,105426.0,146763.0,49407.0,14779.0,4981.0,358.0,459.0
220992,County,2020/03/10,23.0,ME,23031.0,York County,40464.0,165765.0,716113.0,150623.0,156084.0,82276.0,106920.0,147811.0,50804.0,16183.0,4322.0,467.0,623.0
224181,County,2020/03/11,23.0,ME,23031.0,York County,37543.0,168686.0,648817.0,132838.0,145786.0,69364.0,94341.0,139070.0,39572.0,15857.0,9279.0,1231.0,1479.0
228877,County,2020/03/12,23.0,ME,23031.0,York County,38296.0,167933.0,636225.0,117691.0,123140.0,66918.0,89283.0,154864.0,52841.0,18785.0,10519.0,796.0,1388.0
232146,County,2020/03/13,23.0,ME,23031.0,York County,38786.0,167443.0,618736.0,122120.0,128228.0,67442.0,92369.0,127318.0,50326.0,18546.0,10032.0,588.0,1767.0
235201,County,2020/03/14,23.0,ME,23031.0,York County,46325.0,159904.0,596484.0,117176.0,145339.0,83120.0,89644.0,97352.0,34421.0,19128.0,7950.0,804.0,1550.0
236960,County,2020/03/15,23.0,ME,23031.0,York County,52527.0,153702.0,594279.0,127305.0,141891.0,83704.0,90378.0,105739.0,30760.0,8599.0,4645.0,426.0,832.0
240154,County,2020/03/16,23.0,ME,23031.0,York County,46394.0,159835.0,660169.0,131703.0,151154.0,77622.0,95835.0,138192.0,45121.0,14837.0,4326.0,569.0,810.0
243337,County,2020/03/17,23.0,ME,23031.0,York County,51836.0,154393.0,596202.0,107751.0,137868.0,75336.0,83718.0,131110.0,42273.0,12173.0,4642.0,504.0,827.0
248068,County,2020/03/18,23.0,ME,23031.0,York County,55721.0,150508.0,631606.0,128974.0,141095.0,79747.0,90777.0,130937.0,40209.0,13809.0,5134.0,407.0,517.0
251323,County,2020/03/19,23.0,ME,23031.0,York County,56857.0,149372.0,563430.0,107246.0,126590.0,73497.0,78431.0,118870.0,40973.0,12346.0,4467.0,359.0,651.0
254498,County,2020/03/20,23.0,ME,23031.0,York County,54614.0,151615.0,612273.0,124725.0,137187.0,77994.0,96142.0,121506.0,38099.0,10958.0,4578.0,387.0,697.0
257690,County,2020/03/21,23.0,ME,23031.0,York County,60979.0,145250.0,580398.0,127396.0,140484.0,72442.0,94936.0,104386.0,26022.0,10298.0,3402.0,443.0,589.0
260877,County,2020/03/22,23.0,ME,23031.0,York County,60425.0,145804.0,480372.0,98986.0,124454.0,65763.0,76830.0,79020.0,22033.0,8998.0,3583.0,333.0,372.0
262515,County,2020/03/23,23.0,ME,23031.0,York County,55251.0,150978.0,514939.0,102302.0,119004.0,65091.0,79332.0,100330.0,36257.0,9082.0,2855.0,232.0,454.0
267270,County,2020/03/24,23.0,ME,23031.0,York County,57173.0,149056.0,531829.0,111141.0,124160.0,62811.0,84218.0,102235.0,34077.0,8932.0,3428.0,341.0,486.0
270468,County,2020/03/25,23.0,ME,23031.0,York County,55040.0,151189.0,502055.0,94439.0,113469.0,63715.0,77816.0,103628.0,36029.0,8988.0,3227.0,306.0,438.0
272094,County,2020/03/26,23.0,ME,23031.0,York County,56409.0,149820.0,520880.0,109185.0,125045.0,54385.0,79124.0,104446.0,36007.0,8375.0,3556.0,327.0,430.0
275281,County,2020/03/27,23.0,ME,23031.0,York County,55897.0,150332.0,543396.0,116551.0,120891.0,71973.0,83882.0,103561.0,32066.0,9824.0,3930.0,296.0,422.0
280042,County,2020/03/28,23.0,ME,23031.0,York County,58932.0,147297.0,497625.0,105485.0,116333.0,68902.0,84816.0,88416.0,23880.0,6530.0,2407.0,337.0,519.0
281677,County,2020/03/29,23.0,ME,23031.0,York County,63594.0,142635.0,379125.0,67855.0,102999.0,53388.0,67873.0,62643.0,13762.0,7025.0,2584.0,452.0,544.0
286469,County,2020/03/30,23.0,ME,23031.0,York County,55310.0,150919.0,469473.0,87661.0,110255.0,55437.0,75510.0,95529.0,32650.0,8991.0,2538.0,354.0,548.0
289625,County,2020/03/31,23.0,ME,23031.0,York County,56144.0,150085.0,512038.0,107823.0,121272.0,60750.0,76312.0,96683.0,35964.0,9366.0,2989.0,412.0,467.0
292824,County,2020/04/01,23.0,ME,23031.0,York County,55520.0,150709.0,514793.0,106208.0,115383.0,62211.0,81626.0,104338.0,32694.0,8288.0,3267.0,312.0,466.0
294453,County,2020/04/02,23.0,ME,23031.0,York County,58844.0,147385.0,454280.0,84217.0,101974.0,56716.0,69010.0,96371.0,32610.0,8776.0,3653.0,382.0,571.0
299213,County,2020/04/03,23.0,ME,23031.0,York County,57485.0,148744.0,492264.0,95041.0,112991.0,66702.0,77830.0,98358.0,27944.0,9296.0,3266.0,326.0,510.0
300840,County,2020/04/04,23.0,ME,23031.0,York County,60502.0,145727.0,467978.0,99323.0,122944.0,61396.0,75254.0,77326.0,20657.0,6907.0,2879.0,536.0,756.0
304021,County,2020/04/05,23.0,ME,23031.0,York County,62119.0,144110.0,429027.0,86338.0,115402.0,58344.0,71258.0,74633.0,15210.0,4695.0,2205.0,369.0,573.0
307230,County,2020/04/06,23.0,ME,23031.0,York County,58268.0,147961.0,526045.0,112270.0,116511.0,62285.0,83230.0,109117.0,31933.0,7192.0,2916.0,246.0,345.0
310423,County,2020/04/07,23.0,ME,23031.0,York County,57400.0,148829.0,530005.0,115303.0,115072.0,66704.0,82285.0,104766.0,34763.0,8286.0,2142.0,317.0,367.0
313617,County,2020/04/08,23.0,ME,23031.0,York County,58424.0,147805.0,529601.0,105362.0,128288.0,62087.0,75437.0,110117.0,36523.0,9093.0,2300.0,102.0,292.0
318376,County,2020/04/09,23.0,ME,23031.0,York County,59012.0,147217.0,474642.0,86472.0,102895.0,62098.0,74636.0,102232.0,36396.0,6899.0,2406.0,202.0,406.0
320013,County,2020/04/10,23.0,ME,23031.0,York County,55634.0,150595.0,543344.0,119007.0,118155.0,71250.0,88810.0,102466.0,32193.0,8642.0,2290.0,188.0,343.0
323198,County,2020/04/11,23.0,ME,23031.0,York County,56363.0,149866.0,550223.0,119422.0,136338.0,79846.0,89962.0,90148.0,23202.0,8635.0,2087.0,282.0,301.0
327931,County,2020/04/12,23.0,ME,23031.0,York County,68756.0,137473.0,426233.0,103428.0,109168.0,49162.0,70814.0,66994.0,19409.0,5508.0,1270.0,202.0,278.0
331154,County,2020/04/13,23.0,ME,23031.0,York County,59188.0,147041.0,487755.0,89430.0,109195.0,63519.0,72776.0,109120.0,33027.0,8246.0,1974.0,160.0,308.0
334329,County,2020/04/14,23.0,ME,23031.0,York County,55104.0,151125.0,560082.0,113731.0,132316.0,74301.0,87143.0,108158.0,31142.0,8613.0,3843.0,258.0,577.0
337582,County,2020/04/15,23.0,ME,23031.0,York County,52609.0,153620.0,571610.0,116628.0,144821.0,68634.0,92670.0,107684.0,29878.0,8640.0,1978.0,272.0,405.0
340676,County,2020/04/16,23.0,ME,23031.0,York County,56826.0,149403.0,598132.0,130946.0,150468.0,74494.0,84542.0,111182.0,35437.0,8006.0,2693.0,143.0,221.0
343939,County,2020/04/17,23.0,ME,23031.0,York County,50297.0,155932.0,575135.0,103977.0,136765.0,79660.0,97140.0,107573.0,34337.0,12009.0,3135.0,168.0,371.0
347086,County,2020/04/18,23.0,ME,23031.0,York County,58490.0,147739.0,498956.0,94214.0,136332.0,71333.0,84097.0,82525.0,20166.0,7157.0,2431.0,335.0,366.0
348737,County,2020/04/19,23.0,ME,23031.0,York County,58015.0,148214.0,515049.0,128729.0,124121.0,60066.0,99129.0,75356.0,16327.0,6761.0,3863.0,202.0,495.0
351944,County,2020/04/20,23.0,ME,23031.0,York County,53385.0,152844.0,527102.0,111377.0,131045.0,63984.0,86357.0,92589.0,34786.0,4739.0,1468.0,220.0,537.0
356704,County,2020/04/21,23.0,ME,23031.0,York County,55398.0,150831.0,556802.0,118694.0,118539.0,72155.0,83336.0,110857.0,40237.0,9894.0,2700.0,159.0,231.0
359860,County,2020/04/22,23.0,ME,23031.0,York County,54573.0,151656.0,576617.0,125970.0,120909.0,72920.0,85673.0,114324.0,44366.0,9060.0,3031.0,77.0,287.0
361438,County,2020/04/23,23.0,ME,23031.0,York County,53514.0,152715.0,605276.0,126040.0,130550.0,79162.0,87578.0,121508.0,47812.0,9806.0,2507.0,151.0,162.0
366326,County,2020/04/24,23.0,ME,23031.0,York County,53301.0,152928.0,593006.0,124989.0,127079.0,76949.0,87065.0,123101.0,41679.0,9492.0,2294.0,170.0,188.0
369482,County,2020/04/25,23.0,ME,23031.0,York County,54768.0,151461.0,581917.0,124608.0,132746.0,85018.0,95457.0,100923.0,33432.0,7209.0,2255.0,127.0,142.0
372628,County,2020/04/26,23.0,ME,23031.0,York County,60735.0,145494.0,519869.0,103995.0,131834.0,72701.0,91977.0,87322.0,23663.0,5704.0,2294.0,120.0,259.0
374302,County,2020/04/27,23.0,ME,23031.0,York County,55884.0,150345.0,543372.0,103472.0,132059.0,64778.0,85366.0,106077.0,39325.0,9026.0,2865.0,104.0,300.0
377453,County,2020/04/28,23.0,ME,23031.0,York County,52923.0,153306.0,616264.0,123841.0,139486.0,76231.0,98681.0,121529.0,43946.0,9697.0,2365.0,229.0,259.0
380705,County,2020/04/29,23.0,ME,23031.0,York County,52139.0,154090.0,625647.0,145098.0,135636.0,77210.0,94689.0,117400.0,44211.0,8819.0,2154.0,154.0,276.0
385451,County,2020/04/30,23.0,ME,23031.0,York County,54110.0,152119.0,579238.0,127355.0,120229.0,70576.0,87173.0,117015.0,44105.0,10041.0,2337.0,146.0,261.0
387077,County,2020/05/01,23.0,ME,23031.0,York County,54462.0,151767.0,579121.0,113572.0,139205.0,77162.0,83526.0,111452.0,41494.0,9683.0,2686.0,95.0,246.0
390260,County,2020/05/02,23.0,ME,23031.0,York County,52218.0,154011.0,654790.0,148980.0,156728.0,83562.0,108759.0,115203.0,28685.0,10188.0,2331.0,190.0,164.0
393473,County,2020/05/03,23.0,ME,23031.0,York County,57435.0,148794.0,567878.0,128599.0,131928.0,72783.0,98017.0,100033.0,26862.0,7966.0,1340.0,142.0,208.0
398227,County,2020/05/04,23.0,ME,23031.0,York County,51486.0,154743.0,619076.0,136664.0,149914.0,73024.0,91645.0,115994.0,39943.0,9153.0,2402.0,197.0,140.0
399854,County,2020/05/05,23.0,ME,23031.0,York County,52527.0,153702.0,633111.0,136682.0,138349.0,78800.0,102751.0,122251.0,42276.0,9663.0,1924.0,192.0,223.0
404609,County,2020/05/06,23.0,ME,23031.0,York County,51578.0,154651.0,624467.0,138511.0,140250.0,76255.0,99581.0,116153.0,40675.0,9780.0,2614.0,204.0,444.0
406236,County,2020/05/07,23.0,ME,23031.0,York County,50670.0,155559.0,615901.0,131709.0,139409.0,71589.0,97201.0,120194.0,40808.0,10909.0,3065.0,219.0,798.0
411015,County,2020/05/08,23.0,ME,23031.0,York County,48824.0,157405.0,679812.0,150192.0,145966.0,84791.0,111355.0,126300.0,45967.0,11924.0,2894.0,166.0,257.0
414163,County,2020/05/09,23.0,ME,23031.0,York County,56777.0,149452.0,571008.0,118621.0,135620.0,80721.0,90890.0,104979.0,30456.0,6859.0,2371.0,188.0,303.0
415824,County,2020/05/10,23.0,ME,23031.0,York County,54933.0,151296.0,573978.0,119938.0,135170.0,77480.0,101803.0,100238.0,28805.0,7807.0,2370.0,151.0,216.0
419018,County,2020/05/11,23.0,ME,23031.0,York County,44856.0,161373.0,681277.0,158708.0,157221.0,80397.0,96698.0,124665.0,46290.0,13623.0,3214.0,200.0,261.0
422202,County,2020/05/12,23.0,ME,23031.0,York County,42940.0,163289.0,732624.0,173293.0,157332.0,89831.0,105403.0,139170.0,50494.0,13157.0,3458.0,289.0,197.0
425358,County,2020/05/13,23.0,ME,23031.0,York County,44285.0,161944.0,699771.0,166749.0,141102.0,88997.0,100943.0,139970.0,45640.0,12268.0,3487.0,303.0,312.0
430167,County,2020/05/14,23.0,ME,23031.0,York County,42670.0,163559.0,737538.0,179131.0,156111.0,88277.0,112785.0,135414.0,48228.0,12946.0,3995.0,324.0,327.0
433341,County,2020/05/15,23.0,ME,23031.0,York County,43384.0,162845.0,703428.0,167327.0,150747.0,86875.0,103603.0,128274.0,48920.0,13584.0,3429.0,277.0,392.0
436545,County,2020/05/16,23.0,ME,23031.0,York County,45095.0,161134.0,727652.0,171733.0,163044.0,99457.0,121257.0,122816.0,36154.0,9343.0,3127.0,259.0,462.0
438172,County,2020/05/17,23.0,ME,23031.0,York County,43433.0,162796.0,687567.0,159662.0,160865.0,91849.0,108559.0,120620.0,34431.0,8296.0,2895.0,167.0,223.0
441417,County,2020/05/18,23.0,ME,23031.0,York County,36707.0,169522.0,748945.0,172265.0,164144.0,85879.0,113964.0,145077.0,53225.0,11293.0,2852.0,147.0,99.0
444571,County,2020/05/19,23.0,ME,23031.0,York County,36863.0,169366.0,803631.0,206322.0,169059.0,93128.0,115149.0,145151.0,55633.0,15198.0,3668.0,166.0,157.0
449332,County,2020/05/20,23.0,ME,23031.0,York County,36451.0,169778.0,773129.0,186933.0,156463.0,95971.0,124617.0,139655.0,54725.0,10996.0,3371.0,244.0,154.0
452173,County,2020/05/21,23.0,ME,23031.0,York County,33763.0,172466.0,790297.0,201022.0,148288.0,90333.0,121364.0,158281.0,51393.0,15664.0,3222.0,230.0,500.0
454145,County,2020/05/22,23.0,ME,23031.0,York County,34395.0,171834.0,850953.0,202307.0,178809.0,108554.0,134247.0,150257.0,57650.0,14646.0,3673.0,322.0,488.0
457341,County,2020/05/23,23.0,ME,23031.0,York County,38969.0,167260.0,757537.0,186318.0,168340.0,93928.0,130225.0,121871.0,40573.0,12027.0,3442.0,190.0,623.0
462084,County,2020/05/24,23.0,ME,23031.0,York County,45743.0,160486.0,682438.0,174893.0,157612.0,88072.0,109302.0,105142.0,30729.0,11872.0,3477.0,458.0,881.0
465386,County,2020/05/25,23.0,ME,23031.0,York County,47437.0,158792.0,623303.0,164031.0,138692.0,74943.0,94577.0,101435.0,31128.0,12862.0,4368.0,376.0,891.0
468543,County,2020/05/26,23.0,ME,23031.0,York County,40585.0,165644.0,709515.0,162303.0,154409.0,81263.0,113530.0,130894.0,48641.0,13509.0,3992.0,337.0,637.0
470122,County,2020/05/27,23.0,ME,23031.0,York County,39951.0,166278.0,775392.0,190772.0,170810.0,91888.0,113127.0,140043.0,51358.0,12803.0,3961.0,243.0,387.0
473318,County,2020/05/28,23.0,ME,23031.0,York County,41106.0,165123.0,739741.0,176844.0,161801.0,89025.0,114226.0,131861.0,48146.0,13596.0,3708.0,294.0,240.0
478072,County,2020/05/29,23.0,ME,23031.0,York County,45384.0,160845.0,711550.0,163631.0,162252.0,86961.0,108531.0,127161.0,44518.0,14303.0,3866.0,187.0,140.0
481272,County,2020/05/30,23.0,ME,23031.0,York County,46686.0,159543.0,743723.0,180231.0,185819.0,87866.0,104204.0,130394.0,37616.0,13083.0,3989.0,347.0,174.0
484416,County,2020/05/31,23.0,ME,23031.0,York County,49047.0,157182.0,646118.0,162208.0,150483.0,78534.0,98065.0,103442.0,35963.0,12629.0,4314.0,271.0,209.0
486045,County,2020/06/01,23.0,ME,23031.0,York County,42977.0,163252.0,699506.0,165866.0,156970.0,87200.0,100435.0,123119.0,47651.0,13508.0,4246.0,222.0,289.0
490825,County,2020/06/02,23.0,ME,23031.0,York County,43576.0,162653.0,705380.0,170889.0,160173.0,85089.0,98077.0,126226.0,45378.0,13695.0,5093.0,287.0,473.0
492455,County,2020/06/03,23.0,ME,23031.0,York County,39134.0,167095.0,773517.0,177951.0,173162.0,89426.0,119931.0,146391.0,47658.0,13636.0,4509.0,282.0,571.0
497229,County,2020/06/04,23.0,ME,23031.0,York County,39764.0,166465.0,759229.0,181446.0,170706.0,91140.0,110777.0,138206.0,48716.0,12314.0,5246.0,268.0,410.0
498869,County,2020/06/05,23.0,ME,23031.0,York County,39415.0,166814.0,747370.0,170013.0,166490.0,96816.0,113228.0,134743.0,44975.0,15410.0,4801.0,284.0,610.0
502016,County,2020/06/06,23.0,ME,23031.0,York County,47472.0,158757.0,651389.0,168555.0,153810.0,78869.0,95109.0,108168.0,31467.0,11529.0,3139.0,228.0,515.0
506792,County,2020/06/07,23.0,ME,23031.0,York County,50332.0,155897.0,578497.0,132765.0,152125.0,76784.0,80180.0,85883.0,32086.0,13121.0,4692.0,246.0,615.0
508431,County,2020/06/08,23.0,ME,23031.0,York County,39622.0,166607.0,754188.0,175757.0,170548.0,88690.0,116954.0,134976.0,50158.0,12426.0,4036.0,212.0,431.0
511633,County,2020/06/09,23.0,ME,23031.0,York County,42837.0,163392.0,721628.0,168910.0,157832.0,83069.0,105706.0,139655.0,50400.0,12125.0,3355.0,235.0,341.0
514791,County,2020/06/10,23.0,ME,23031.0,York County,42355.0,163874.0,706999.0,158296.0,160639.0,87148.0,106767.0,129198.0,48930.0,11414.0,3741.0,222.0,644.0
518043,County,2020/06/11,23.0,ME,23031.0,York County,43441.0,162788.0,680959.0,151309.0,146918.0,83211.0,107459.0,125120.0,50153.0,12777.0,3315.0,198.0,499.0
521245,County,2020/06/12,23.0,ME,23031.0,York County,41537.0,164692.0,736436.0,177570.0,161089.0,86399.0,106958.0,136751.0,48431.0,14277.0,4282.0,169.0,510.0
524421,County,2020/06/13,23.0,ME,23031.0,York County,43924.0,162305.0,748493.0,178255.0,182850.0,98032.0,108911.0,122742.0,42031.0,11964.0,3211.0,223.0,274.0
527616,County,2020/06/14,23.0,ME,23031.0,York County,47343.0,158886.0,645798.0,160775.0,148723.0,79196.0,101252.0,104068.0,33304.0,13557.0,4123.0,338.0,462.0
532375,County,2020/06/15,23.0,ME,23031.0,York County,44529.0,161700.0,658179.0,147679.0,155442.0,77553.0,95795.0,118699.0,42821.0,14897.0,4477.0,452.0,364.0
534003,County,2020/06/16,23.0,ME,23031.0,York County,42464.0,163765.0,753304.0,181176.0,168981.0,90731.0,106860.0,137916.0,48145.0,14536.0,4353.0,359.0,247.0
537197,County,2020/06/17,23.0,ME,23031.0,York County,42917.0,163312.0,741323.0,176738.0,167566.0,86707.0,109584.0,134056.0,46187.0,15757.0,4173.0,302.0,253.0
541909,County,2020/06/18,23.0,ME,23031.0,York County,41557.0,164672.0,726629.0,173457.0,169197.0,84502.0,102672.0,131086.0,46930.0,14403.0,3819.0,290.0,273.0
545110,County,2020/06/19,23.0,ME,23031.0,York County,42625.0,163604.0,714137.0,168383.0,162370.0,86897.0,100828.0,128871.0,46401.0,15501.0,4296.0,337.0,253.0
548345,County,2020/06/20,23.0,ME,23031.0,York County,45956.0,160273.0,717439.0,187715.0,163027.0,92111.0,107509.0,117354.0,34449.0,10626.0,4115.0,228.0,305.0
551532,County,2020/06/21,23.0,ME,23031.0,York County,48507.0,157722.0,624233.0,150516.0,146580.0,75957.0,97190.0,100544.0,33406.0,14906.0,4497.0,289.0,348.0
554725,County,2020/06/22,23.0,ME,23031.0,York County,43465.0,162764.0,654684.0,147553.0,147158.0,78061.0,97809.0,124063.0,40802.0,14261.0,4273.0,291.0,413.0
556353,County,2020/06/23,23.0,ME,23031.0,York County,42726.0,163503.0,729292.0,173086.0,160411.0,88185.0,108230.0,134241.0,48208.0,12353.0,4003.0,263.0,312.0
561121,County,2020/06/24,23.0,ME,23031.0,York County,45924.0,160305.0,677975.0,166805.0,150798.0,81745.0,99132.0,120258.0,42176.0,12341.0,4033.0,389.0,298.0
564297,County,2020/06/25,23.0,ME,23031.0,York County,44088.0,162141.0,698834.0,165520.0,154061.0,91291.0,96356.0,127535.0,44797.0,14016.0,4575.0,448.0,235.0
566003,County,2020/06/26,23.0,ME,23031.0,York County,44137.0,162092.0,709292.0,165990.0,157965.0,91704.0,100336.0,125279.0,47587.0,15364.0,4552.0,326.0,189.0
569125,County,2020/06/27,23.0,ME,23031.0,York County,46575.0,159654.0,712885.0,172326.0,164155.0,89372.0,112230.0,120881.0,37295.0,12474.0,3554.0,377.0,221.0
573886,County,2020/06/28,23.0,ME,23031.0,York County,48239.0,157990.0,628145.0,162381.0,149154.0,76939.0,91237.0,95017.0,34068.0,12886.0,5868.0,345.0,250.0
575494,County,2020/06/29,23.0,ME,23031.0,York County,48248.0,157981.0,608649.0,138033.0,134089.0,68704.0,93510.0,116719.0,40156.0,12577.0,4109.0,434.0,318.0
580306,County,2020/06/30,23.0,ME,23031.0,York County,47111.0,159118.0,633329.0,144630.0,139786.0,81772.0,90767.0,115633.0,43595.0,11941.0,4255.0,537.0,413.0
581907,County,2020/07/01,23.0,ME,23031.0,York County,44002.0,162227.0,672925.0,164688.0,147834.0,83970.0,98922.0,119511.0,40277.0,12610.0,4322.0,339.0,452.0
585099,County,2020/07/02,23.0,ME,23031.0,York County,49445.0,156784.0,741747.0,175684.0,163521.0,96897.0,102273.0,135366.0,47548.0,14877.0,4856.0,476.0,249.0
589890,County,2020/07/03,23.0,ME,23031.0,York County,50175.0,156054.0,705295.0,165055.0,157075.0,91187.0,99771.0,124573.0,47319.0,15277.0,4526.0,324.0,188.0
593076,County,2020/07/04,23.0,ME,23031.0,York County,54357.0,151872.0,603395.0,141208.0,134381.0,78013.0,85356.0,106575.0,40482.0,13070.0,3872.0,277.0,161.0
596231,County,2020/07/05,23.0,ME,23031.0,York County,49887.0,156342.0,585956.0,151173.0,136054.0,73680.0,86951.0,86336.0,30901.0,14537.0,5360.0,379.0,585.0
599401,County,2020/07/06,23.0,ME,23031.0,York County,47496.0,158733.0,645956.0,166368.0,146922.0,73488.0,89840.0,114768.0,35321.0,12653.0,5706.0,526.0,364.0
601076,County,2020/07/07,23.0,ME,23031.0,York County,46082.0,160147.0,664017.0,161767.0,147996.0,82535.0,92572.0,115885.0,43469.0,13756.0,5079.0,545.0,413.0
605738,County,2020/07/08,23.0,ME,23031.0,York County,44819.0,161410.0,629620.0,158151.0,142123.0,76233.0,87939.0,106007.0,39852.0,13316.0,4965.0,596.0,438.0
607464,County,2020/07/09,23.0,ME,23031.0,York County,46021.0,160208.0,676720.0,170690.0,152233.0,83333.0,98080.0,111844.0,40747.0,14347.0,4749.0,315.0,382.0
612246,County,2020/07/10,23.0,ME,23031.0,York County,44394.0,161835.0,670079.0,164517.0,146211.0,82235.0,96059.0,115452.0,44159.0,15556.0,4768.0,526.0,596.0
615461,County,2020/07/11,23.0,ME,23031.0,York County,47974.0,158255.0,633096.0,146945.0,151924.0,80977.0,94889.0,103015.0,34811.0,14749.0,4848.0,447.0,491.0
618599,County,2020/07/12,23.0,ME,23031.0,York County,49326.0,156903.0,577136.0,142375.0,137477.0,71725.0,85274.0,90036.0,30129.0,13594.0,5431.0,492.0,603.0
620236,County,2020/07/13,23.0,ME,23031.0,York County,46389.0,159840.0,599524.0,142234.0,135390.0,69235.0,84123.0,109036.0,38930.0,13906.0,5754.0,399.0,517.0
625000,County,2020/07/14,23.0,ME,23031.0,York County,46000.0,160229.0,630654.0,141387.0,145254.0,77894.0,93808.0,114386.0,40960.0,12010.0,4128.0,383.0,444.0
628173,County,2020/07/15,23.0,ME,23031.0,York County,46451.0,159778.0,658220.0,155658.0,145231.0,78969.0,99181.0,122400.0,39266.0,12423.0,4138.0,536.0,418.0
629799,County,2020/07/16,23.0,ME,23031.0,York County,46164.0,160065.0,665511.0,157769.0,146372.0,82708.0,94768.0,121334.0,44390.0,13546.0,3886.0,516.0,222.0
633000,County,2020/07/17,23.0,ME,23031.0,York County,47411.0,158818.0,651832.0,157027.0,145975.0,79067.0,93385.0,114794.0,42358.0,13678.0,5035.0,339.0,174.0
636211,County,2020/07/18,23.0,ME,23031.0,York County,50581.0,155648.0,657839.0,168460.0,151621.0,85084.0,92883.0,104978.0,36365.0,13702.0,3970.0,483.0,293.0
639366,County,2020/07/19,23.0,ME,23031.0,York County,51394.0,154835.0,593914.0,152698.0,140334.0,75223.0,83794.0,90073.0,30678.0,14984.0,5530.0,359.0,241.0
642600,County,2020/07/20,23.0,ME,23031.0,York County,50770.0,155459.0,672160.0,177766.0,154060.0,82288.0,87711.0,111687.0,40938.0,13437.0,3765.0,378.0,130.0
645776,County,2020/07/21,23.0,ME,23031.0,York County,47300.0,158929.0,649438.0,151592.0,147190.0,79061.0,98272.0,114421.0,40868.0,13376.0,4043.0,361.0,254.0
648458,County,2020/07/22,23.0,ME,23031.0,York County,47749.0,158480.0,634346.0,147820.0,139034.0,75699.0,93576.0,116378.0,44220.0,12426.0,4545.0,410.0,238.0
652095,County,2020/07/23,23.0,ME,23031.0,York County,48707.0,157522.0,618272.0,143657.0,132298.0,74583.0,92008.0,116155.0,42192.0,12912.0,3868.0,295.0,304.0
655218,County,2020/07/24,23.0,ME,23031.0,York County,46287.0,159942.0,652872.0,156352.0,144399.0,78960.0,98080.0,113466.0,42778.0,13822.0,4233.0,436.0,346.0
658564,County,2020/07/25,23.0,ME,23031.0,York County,50120.0,156109.0,616463.0,144816.0,143739.0,80822.0,91256.0,101199.0,34347.0,14632.0,4987.0,412.0,253.0
663269,County,2020/07/26,23.0,ME,23031.0,York County,50676.0,155553.0,635282.0,158918.0,141863.0,80271.0,92267.0,105835.0,33319.0,16070.0,5851.0,571.0,317.0
666542,County,2020/07/27,23.0,ME,23031.0,York County,49719.0,156510.0,623213.0,146849.0,133793.0,73078.0,92790.0,113042.0,40797.0,16659.0,5317.0,436.0,452.0
669794,County,2020/07/28,23.0,ME,23031.0,York County,47785.0,158444.0,645440.0,149371.0,140087.0,75314.0,99737.0,119521.0,42167.0,13455.0,4891.0,550.0,347.0
671329,County,2020/07/29,23.0,ME,23031.0,York County,49187.0,157042.0,653618.0,157080.0,140599.0,77108.0,93754.0,123678.0,41099.0,14560.0,4863.0,460.0,417.0
674539,County,2020/07/30,23.0,ME,23031.0,York County,46330.0,159899.0,659674.0,147664.0,142179.0,83623.0,100052.0,121940.0,44402.0,14153.0,4776.0,599.0,286.0
679317,County,2020/07/31,23.0,ME,23031.0,York County,47902.0,158327.0,633594.0,141839.0,138145.0,76886.0,95636.0,114911.0,45712.0,14243.0,5343.0,579.0,300.0
680897,County,2020/08/01,23.0,ME,23031.0,York County,50992.0,155237.0,604037.0,145126.0,135944.0,71545.0,95090.0,102512.0,33564.0,13425.0,5873.0,610.0,348.0
684120,County,2020/08/02,23.0,ME,23031.0,York County,51578.0,154651.0,588376.0,140212.0,129764.0,76549.0,89642.0,96030.0,34756.0,14185.0,6448.0,531.0,259.0
688881,County,2020/08/03,23.0,ME,23031.0,York County,48455.0,157774.0,620432.0,143453.0,143689.0,73631.0,93351.0,107323.0,38867.0,14005.0,5455.0,436.0,222.0
690509,County,2020/08/04,23.0,ME,23031.0,York County,45314.0,160915.0,666460.0,161738.0,148119.0,75769.0,102156.0,116459.0,45192.0,12569.0,3967.0,362.0,129.0
695268,County,2020/08/05,23.0,ME,23031.0,York County,46836.0,159393.0,691939.0,171239.0,158438.0,78115.0,104103.0,118507.0,44023.0,12826.0,4122.0,375.0,191.0
698463,County,2020/08/06,23.0,ME,23031.0,York County,44405.0,161824.0,702275.0,170073.0,154597.0,80991.0,107046.0,125022.0,47074.0,12935.0,4108.0,273.0,156.0
700090,County,2020/08/07,23.0,ME,23031.0,York County,45612.0,160617.0,680354.0,161269.0,152588.0,79081.0,103144.0,118814.0,46106.0,13877.0,4848.0,412.0,215.0
704851,County,2020/08/08,23.0,ME,23031.0,York County,48138.0,158091.0,630847.0,150156.0,142428.0,78534.0,98646.0,104139.0,35958.0,14473.0,5859.0,476.0,178.0
708069,County,2020/08/09,23.0,ME,23031.0,York County,50478.0,155751.0,629695.0,164624.0,148664.0,73027.0,87145.0,93762.0,37248.0,18056.0,6551.0,440.0,178.0
709699,County,2020/08/10,23.0,ME,23031.0,York County,47493.0,158736.0,649884.0,146464.0,146954.0,76608.0,93909.0,116892.0,47886.0,15083.0,5468.0,393.0,227.0
714480,County,2020/08/11,23.0,ME,23031.0,York County,47334.0,158895.0,670125.0,146570.0,152718.0,84861.0,101924.0,119653.0,45058.0,14372.0,4556.0,291.0,122.0
717529,County,2020/08/12,23.0,ME,23031.0,York County,46053.0,160176.0,624836.0,132394.0,137369.0,77595.0,93179.0,117900.0,47113.0,13365.0,4753.0,509.0,659.0
719255,County,2020/08/13,23.0,ME,23031.0,York County,45462.0,160767.0,639308.0,140126.0,139747.0,78348.0,97600.0,119168.0,41818.0,15214.0,5935.0,432.0,920.0
722448,County,2020/08/14,23.0,ME,23031.0,York County,43717.0,162512.0,694727.0,161030.0,150131.0,82844.0,106405.0,123718.0,46853.0,16435.0,5650.0,643.0,1018.0
727210,County,2020/08/15,23.0,ME,23031.0,York County,46022.0,160207.0,638477.0,144529.0,140567.0,84571.0,94615.0,113441.0,38927.0,15163.0,5139.0,602.0,923.0
730402,County,2020/08/16,23.0,ME,23031.0,York County,50874.0,155355.0,567313.0,125917.0,125415.0,68347.0,91245.0,99023.0,30690.0,16932.0,7580.0,778.0,1386.0
732031,County,2020/08/17,23.0,ME,23031.0,York County,51028.0,155201.0,614055.0,128157.0,127779.0,75239.0,97867.0,115461.0,44243.0,16582.0,6716.0,715.0,1296.0
736791,County,2020/08/18,23.0,ME,23031.0,York County,48379.0,157850.0,595976.0,125305.0,126302.0,67293.0,88997.0,117125.0,46173.0,16836.0,5683.0,755.0,1507.0
738403,County,2020/08/19,23.0,ME,23031.0,York County,48039.0,158190.0,612132.0,125413.0,134287.0,71274.0,90976.0,120865.0,44649.0,16883.0,5666.0,636.0,1483.0
743184,County,2020/08/20,23.0,ME,23031.0,York County,45505.0,160724.0,657578.0,146575.0,138858.0,79618.0,103350.0,114262.0,49829.0,16577.0,6428.0,720.0,1361.0
746390,County,2020/08/21,23.0,ME,23031.0,York County,43290.0,162939.0,702030.0,174963.0,146738.0,80075.0,105752.0,126690.0,42385.0,17225.0,6139.0,701.0,1362.0
748018,County,2020/08/22,23.0,ME,23031.0,York County,46607.0,159622.0,637225.0,153585.0,138735.0,74385.0,98978.0,109140.0,38930.0,15162.0,6147.0,707.0,1456.0
752763,County,2020/08/23,23.0,ME,23031.0,York County,51517.0,154712.0,519975.0,114724.0,117940.0,63323.0,83511.0,85585.0,33485.0,14487.0,5087.0,618.0,1215.0
754434,County,2020/08/24,23.0,ME,23031.0,York County,50794.0,155435.0,569993.0,122340.0,127861.0,66284.0,80358.0,109625.0,42699.0,14904.0,4277.0,576.0,1069.0
759146,County,2020/08/25,23.0,ME,23031.0,York County,49558.0,156671.0,587132.0,123246.0,129225.0,67946.0,92353.0,110511.0,44048.0,13766.0,4469.0,532.0,1036.0
762306,County,2020/08/26,23.0,ME,23031.0,York County,50313.0,155916.0,583611.0,121494.0,130830.0,71206.0,84940.0,112351.0,43025.0,13030.0,5429.0,536.0,770.0
763934,County,2020/08/27,23.0,ME,23031.0,York County,50156.0,156073.0,582198.0,119300.0,130465.0,67853.0,88321.0,112071.0,42799.0,15358.0,4953.0,528.0,550.0
767142,County,2020/08/28,23.0,ME,23031.0,York County,50323.0,155906.0,610056.0,123287.0,136981.0,75027.0,93220.0,113104.0,45598.0,16391.0,5311.0,655.0,482.0
770345,County,2020/08/29,23.0,ME,23031.0,York County,54566.0,151663.0,537963.0,106270.0,123357.0,69187.0,88178.0,98155.0,36061.0,11081.0,4547.0,589.0,538.0
773552,County,2020/08/30,23.0,ME,23031.0,York County,55309.0,150920.0,542412.0,119838.0,122883.0,62658.0,80497.0,96176.0,35621.0,17746.0,5655.0,630.0,708.0
776743,County,2020/08/31,23.0,ME,23031.0,York County,52126.0,154103.0,575360.0,126980.0,124203.0,68669.0,82614.0,112547.0,39805.0,14746.0,4435.0,530.0,831.0
779888,County,2020/09/01,23.0,ME,23031.0,York County,51045.0,155184.0,611868.0,133517.0,134166.0,71347.0,94097.0,118869.0,41922.0,12428.0,4520.0,559.0,443.0
783918,County,2020/09/02,23.0,ME,23031.0,York County,52227.0,154002.0,600192.0,120834.0,126424.0,72461.0,95341.0,117190.0,46137.0,16127.0,4953.0,372.0,353.0
787870,County,2020/09/03,23.0,ME,23031.0,York County,48150.0,158079.0,642824.0,140568.0,139343.0,73655.0,98995.0,122058.0,47613.0,14925.0,4587.0,531.0,549.0
789484,County,2020/09/04,23.0,ME,23031.0,York County,51568.0,154661.0,638817.0,142177.0,136288.0,75222.0,98048.0,118971.0,46247.0,15748.0,5154.0,448.0,514.0
792614,County,2020/09/05,23.0,ME,23031.0,York County,52483.0,153746.0,621342.0,146514.0,140908.0,73212.0,97390.0,107575.0,37040.0,12525.0,5323.0,466.0,389.0
797454,County,2020/09/06,23.0,ME,23031.0,York County,56675.0,149554.0,563726.0,145356.0,131841.0,64769.0,83254.0,89039.0,31885.0,12786.0,3873.0,432.0,491.0
800668,County,2020/09/07,23.0,ME,23031.0,York County,57576.0,148653.0,527541.0,122340.0,115030.0,62359.0,75562.0,96242.0,35437.0,14340.0,5111.0,507.0,613.0
803865,County,2020/09/08,23.0,ME,23031.0,York County,52258.0,153971.0,635335.0,129873.0,138791.0,75739.0,100715.0,118218.0,49507.0,15098.0,6375.0,556.0,463.0
807058,County,2020/09/09,23.0,ME,23031.0,York County,51484.0,154745.0,630632.0,129295.0,129278.0,75695.0,98713.0,126309.0,51415.0,13679.0,5132.0,668.0,448.0
808685,County,2020/09/10,23.0,ME,23031.0,York County,50069.0,156160.0,615550.0,124986.0,133099.0,71521.0,95642.0,119561.0,49484.0,15297.0,4750.0,605.0,605.0
813446,County,2020/09/11,23.0,ME,23031.0,York County,49191.0,157038.0,692475.0,165717.0,152872.0,73950.0,104595.0,122927.0,48482.0,17373.0,5404.0,605.0,550.0
816641,County,2020/09/12,23.0,ME,23031.0,York County,53251.0,152978.0,627282.0,135550.0,146647.0,74602.0,97082.0,113761.0,39252.0,14694.0,4689.0,550.0,455.0
818248,County,2020/09/13,23.0,ME,23031.0,York County,57596.0,148633.0,509235.0,106830.0,108095.0,69036.0,78855.0,98301.0,27107.0,15070.0,4455.0,636.0,850.0
821453,County,2020/09/14,23.0,ME,23031.0,York County,53781.0,152448.0,623160.0,124399.0,137445.0,75343.0,94352.0,126494.0,44130.0,15587.0,4381.0,566.0,463.0
826222,County,2020/09/15,23.0,ME,23031.0,York County,51856.0,154373.0,620299.0,129691.0,128066.0,73960.0,98246.0,126057.0,45339.0,13228.0,4598.0,584.0,530.0
827850,County,2020/09/16,23.0,ME,23031.0,York County,52677.0,153552.0,617266.0,120125.0,130379.0,72988.0,102485.0,125515.0,45337.0,14329.0,4893.0,603.0,612.0
831044,County,2020/09/17,23.0,ME,23031.0,York County,50476.0,155753.0,630266.0,121939.0,133191.0,81310.0,100806.0,127219.0,45248.0,14409.0,5097.0,432.0,615.0
834222,County,2020/09/18,23.0,ME,23031.0,York County,50297.0,155932.0,650573.0,129852.0,136673.0,77551.0,103075.0,132045.0,48565.0,16227.0,5590.0,514.0,481.0
838997,County,2020/09/19,23.0,ME,23031.0,York County,53479.0,152750.0,622208.0,133111.0,135956.0,81462.0,97147.0,111141.0,40995.0,15633.0,5710.0,435.0,618.0
840626,County,2020/09/20,23.0,ME,23031.0,York County,53405.0,152824.0,550315.0,125549.0,119581.0,72225.0,88315.0,92578.0,30817.0,14633.0,5814.0,368.0,435.0
845413,County,2020/09/21,23.0,ME,23031.0,York County,53754.0,152475.0,559471.0,112651.0,127194.0,69605.0,82885.0,106805.0,42674.0,13143.0,3987.0,366.0,161.0
848581,County,2020/09/22,23.0,ME,23031.0,York County,49122.0,157107.0,626862.0,137651.0,133794.0,72814.0,96548.0,121173.0,46616.0,13499.0,4231.0,396.0,140.0
851770,County,2020/09/23,23.0,ME,23031.0,York County,46833.0,159396.0,634217.0,130949.0,133093.0,76800.0,96641.0,128040.0,50184.0,13746.0,4338.0,333.0,93.0
853398,County,2020/09/24,23.0,ME,23031.0,York County,47615.0,158614.0,649771.0,136509.0,145529.0,78225.0,91192.0,128671.0,49398.0,14964.0,4759.0,356.0,168.0
858162,County,2020/09/25,23.0,ME,23031.0,York County,48392.0,157837.0,653656.0,131914.0,144206.0,78378.0,101024.0,128078.0,49650.0,14763.0,5114.0,340.0,189.0
859790,County,2020/09/26,23.0,ME,23031.0,York County,51688.0,154541.0,621070.0,128993.0,151227.0,73777.0,94474.0,106506.0,46459.0,15236.0,3989.0,303.0,106.0
864537,County,2020/09/27,23.0,ME,23031.0,York County,51958.0,154271.0,568152.0,133141.0,121288.0,66939.0,89317.0,101208.0,35710.0,14683.0,5440.0,260.0,166.0
867745,County,2020/09/28,23.0,ME,23031.0,York County,49950.0,156279.0,580150.0,121912.0,121204.0,71116.0,88814.0,116881.0,42079.0,13784.0,3990.0,261.0,109.0
870937,County,2020/09/29,23.0,ME,23031.0,York County,49818.0,156411.0,600579.0,114577.0,133590.0,70790.0,93872.0,122707.0,46821.0,13617.0,4120.0,364.0,121.0
872566,County,2020/09/30,23.0,ME,23031.0,York County,49758.0,156471.0,581300.0,105569.0,120875.0,76938.0,92125.0,120364.0,45767.0,15419.0,3771.0,287.0,185.0
877306,County,2020/10/01,23.0,ME,23031.0,York County,48023.0,158206.0,598079.0,114955.0,127190.0,75417.0,98690.0,119706.0,41554.0,15008.0,5037.0,328.0,194.0
880521,County,2020/10/02,23.0,ME,23031.0,York County,49529.0,156700.0,569470.0,105457.0,125126.0,72329.0,93101.0,110684.0,43121.0,14281.0,4891.0,333.0,147.0
883716,County,2020/10/03,23.0,ME,23031.0,York County,53737.0,152492.0,590130.0,118629.0,128167.0,78579.0,97229.0,109277.0,37276.0,16339.0,4196.0,296.0,142.0
885862,County,2020/10/04,23.0,ME,23031.0,York County,54498.0,151731.0,518267.0,104084.0,109096.0,68349.0,85596.0,95926.0,34215.0,16353.0,4223.0,253.0,172.0
889108,County,2020/10/05,23.0,ME,23031.0,York County,55484.0,150745.0,545089.0,103973.0,118405.0,67903.0,86007.0,105707.0,44058.0,14449.0,4067.0,332.0,188.0
892313,County,2020/10/06,23.0,ME,23031.0,York County,50770.0,155459.0,585076.0,110689.0,123559.0,76410.0,92877.0,120553.0,41782.0,14916.0,3761.0,373.0,156.0
895502,County,2020/10/07,23.0,ME,23031.0,York County,50883.0,155346.0,601142.0,111484.0,124676.0,74116.0,98810.0,126560.0,46161.0,14930.0,3908.0,336.0,161.0
898691,County,2020/10/08,23.0,ME,23031.0,York County,50477.0,155752.0,579385.0,107287.0,117326.0,74907.0,94024.0,122083.0,44094.0,15191.0,3972.0,325.0,176.0
901853,County,2020/10/09,23.0,ME,23031.0,York County,51608.0,154621.0,578150.0,103211.0,118978.0,71610.0,97483.0,120395.0,44195.0,17153.0,4655.0,324.0,146.0
905048,County,2020/10/10,23.0,ME,23031.0,York County,56037.0,150192.0,582730.0,115949.0,131544.0,76572.0,92478.0,110449.0,36671.0,14767.0,3881.0,270.0,149.0
909583,County,2020/10/11,23.0,ME,23031.0,York County,55139.0,151090.0,541899.0,117953.0,117917.0,68221.0,92396.0,92646.0,31398.0,15728.0,5239.0,303.0,98.0
912132,County,2020/10/12,23.0,ME,23031.0,York County,53110.0,153119.0,541192.0,104850.0,121327.0,65017.0,83758.0,103631.0,38305.0,17710.0,6161.0,301.0,132.0
915308,County,2020/10/13,23.0,ME,23031.0,York County,51123.0,155106.0,604559.0,140451.0,128586.0,73675.0,86144.0,116140.0,42153.0,12565.0,4299.0,400.0,146.0
918629,County,2020/10/14,23.0,ME,23031.0,York County,49544.0,156685.0,593855.0,120143.0,119129.0,71188.0,97801.0,123307.0,43225.0,14322.0,4158.0,387.0,195.0
921892,County,2020/10/15,23.0,ME,23031.0,York County,50229.0,156000.0,541251.0,101525.0,117311.0,64034.0,85386.0,113550.0,40073.0,14414.0,4308.0,440.0,210.0
924963,County,2020/10/16,23.0,ME,23031.0,York County,48530.0,157699.0,564942.0,100090.0,117940.0,71126.0,95480.0,120398.0,41603.0,13423.0,4249.0,429.0,204.0
928163,County,2020/10/17,23.0,ME,23031.0,York County,53087.0,153142.0,541975.0,102088.0,122693.0,74223.0,84328.0,109221.0,31701.0,13283.0,3842.0,372.0,224.0
931818,County,2020/10/18,23.0,ME,23031.0,York County,55070.0,151159.0,517214.0,104699.0,112479.0,69940.0,83167.0,94877.0,30424.0,16590.0,4555.0,333.0,150.0
934214,County,2020/10/19,23.0,ME,23031.0,York County,51204.0,155025.0,571792.0,108679.0,118754.0,69131.0,93407.0,118050.0,46307.0,12069.0,4931.0,320.0,144.0
937460,County,2020/10/20,23.0,ME,23031.0,York County,53059.0,153170.0,580940.0,111072.0,121521.0,66345.0,88335.0,125437.0,47922.0,15976.0,3925.0,274.0,133.0
940900,County,2020/10/21,23.0,ME,23031.0,York County,50934.0,155295.0,545690.0,94363.0,115541.0,66513.0,91143.0,111986.0,47179.0,14265.0,4193.0,355.0,152.0
944336,County,2020/10/22,23.0,ME,23031.0,York County,49991.0,156238.0,601514.0,108930.0,129457.0,73550.0,93506.0,129596.0,46449.0,15058.0,4482.0,358.0,128.0
947356,County,2020/10/23,23.0,ME,23031.0,York County,49066.0,157163.0,629355.0,119241.0,128651.0,80571.0,97788.0,135217.0,47705.0,14887.0,4695.0,424.0,176.0
950996,County,2020/10/24,23.0,ME,23031.0,York County,52107.0,154122.0,615361.0,125509.0,130544.0,82020.0,102003.0,114332.0,41457.0,14764.0,4317.0,301.0,114.0
