,Level,Date,State FIPS,State Postal Code,County FIPS,County Name,Population Staying at Home,Population Not Staying at Home,Number of Trips,Number of Trips <1,Number of Trips 1-3,Number of Trips 3-5,Number of Trips 5-10,Number of Trips 10-25,Number of Trips 25-50,Number of Trips 50-100,Number of Trips 100-250,Number of Trips 250-500,Number of Trips >=500
297,County,2020/01/01,8.0,CO,8105.0,Rio Grande County,3408.0,7842.0,35097.0,8672.0,8854.0,2145.0,4894.0,6718.0,2249.0,516.0,1007.0,0.0,42.0
5679,County,2020/01/02,8.0,CO,8105.0,Rio Grande County,2815.0,8435.0,45572.0,8528.0,15426.0,2131.0,6356.0,9135.0,2345.0,810.0,727.0,102.0,12.0
8322,County,2020/01/03,8.0,CO,8105.0,Rio Grande County,2778.0,8472.0,43954.0,8671.0,11068.0,2373.0,7013.0,8937.0,4097.0,937.0,711.0,100.0,47.0
10063,County,2020/01/04,8.0,CO,8105.0,Rio Grande County,3174.0,8076.0,42687.0,10438.0,9852.0,2485.0,7774.0,7310.0,3115.0,997.0,563.0,153.0,0.0
13074,County,2020/01/05,8.0,CO,8105.0,Rio Grande County,3278.0,7972.0,39024.0,12394.0,7868.0,2822.0,5193.0,5481.0,3216.0,973.0,981.0,82.0,14.0
17735,County,2020/01/06,8.0,CO,8105.0,Rio Grande County,2728.0,8522.0,47548.0,11834.0,11134.0,3327.0,8120.0,8541.0,3297.0,580.0,581.0,134.0,0.0
20881,County,2020/01/07,8.0,CO,8105.0,Rio Grande County,2573.0,8677.0,46285.0,10481.0,11861.0,3458.0,6613.0,8428.0,3477.0,1224.0,712.0,31.0,0.0
22508,County,2020/01/08,8.0,CO,8105.0,Rio Grande County,2379.0,8871.0,43124.0,9221.0,11402.0,3063.0,6957.0,8750.0,2229.0,654.0,806.0,0.0,42.0
25702,County,2020/01/09,8.0,CO,8105.0,Rio Grande County,2792.0,8458.0,47474.0,11954.0,11437.0,2890.0,7726.0,9068.0,2588.0,1035.0,680.0,96.0,0.0
28898,County,2020/01/10,8.0,CO,8105.0,Rio Grande County,2505.0,8745.0,52019.0,12961.0,14601.0,1972.0,5805.0,12744.0,2322.0,923.0,650.0,30.0,11.0
33707,County,2020/01/11,8.0,CO,8105.0,Rio Grande County,2716.0,8534.0,42897.0,10206.0,10678.0,2442.0,5947.0,9373.0,2865.0,864.0,444.0,66.0,12.0
36826,County,2020/01/12,8.0,CO,8105.0,Rio Grande County,3225.0,8025.0,34285.0,8407.0,9689.0,1466.0,5097.0,7189.0,1392.0,327.0,705.0,0.0,13.0
40074,County,2020/01/13,8.0,CO,8105.0,Rio Grande County,2778.0,8472.0,51952.0,12456.0,15093.0,3307.0,6748.0,10456.0,2704.0,721.0,400.0,67.0,0.0
41699,County,2020/01/14,8.0,CO,8105.0,Rio Grande County,2305.0,8945.0,46893.0,10211.0,14086.0,2768.0,6483.0,9227.0,2653.0,1135.0,272.0,58.0,0.0
44853,County,2020/01/15,8.0,CO,8105.0,Rio Grande County,2781.0,8469.0,48119.0,10294.0,15179.0,2508.0,6612.0,9438.0,2318.0,1088.0,586.0,63.0,33.0
49585,County,2020/01/16,8.0,CO,8105.0,Rio Grande County,2597.0,8653.0,46394.0,11913.0,13096.0,2388.0,6414.0,8744.0,2354.0,647.0,638.0,179.0,21.0
52872,County,2020/01/17,8.0,CO,8105.0,Rio Grande County,2594.0,8656.0,44576.0,11542.0,11644.0,1991.0,5381.0,9511.0,2765.0,1060.0,653.0,29.0,0.0
55993,County,2020/01/18,8.0,CO,8105.0,Rio Grande County,3019.0,8231.0,41127.0,10032.0,11054.0,2899.0,5062.0,7947.0,2033.0,1193.0,873.0,34.0,0.0
57641,County,2020/01/19,8.0,CO,8105.0,Rio Grande County,3097.0,8153.0,37984.0,9351.0,10921.0,2230.0,3283.0,7021.0,2626.0,1714.0,735.0,103.0,0.0
62403,County,2020/01/20,8.0,CO,8105.0,Rio Grande County,2547.0,8703.0,41434.0,8824.0,10861.0,2670.0,7198.0,7563.0,2406.0,1058.0,767.0,57.0,30.0
65602,County,2020/01/21,8.0,CO,8105.0,Rio Grande County,2794.0,8456.0,47273.0,11294.0,11315.0,2690.0,6718.0,10349.0,3138.0,1027.0,712.0,30.0,0.0
68793,County,2020/01/22,8.0,CO,8105.0,Rio Grande County,2717.0,8533.0,47715.0,11046.0,12265.0,3158.0,7324.0,9972.0,1944.0,1077.0,859.0,29.0,41.0
70417,County,2020/01/23,8.0,CO,8105.0,Rio Grande County,2368.0,8882.0,50794.0,10832.0,12991.0,2755.0,9369.0,10497.0,2321.0,1261.0,666.0,83.0,19.0
73614,County,2020/01/24,8.0,CO,8105.0,Rio Grande County,2682.0,8568.0,43639.0,10350.0,10540.0,2790.0,5602.0,9460.0,2963.0,1081.0,784.0,59.0,10.0
76806,County,2020/01/25,8.0,CO,8105.0,Rio Grande County,2602.0,8648.0,48379.0,11760.0,14311.0,2860.0,5141.0,9342.0,3032.0,1067.0,781.0,31.0,54.0
80147,County,2020/01/26,8.0,CO,8105.0,Rio Grande County,2990.0,8260.0,41209.0,14072.0,9288.0,1815.0,4453.0,7602.0,2374.0,741.0,789.0,31.0,44.0
84337,County,2020/01/27,8.0,CO,8105.0,Rio Grande County,3021.0,8229.0,50354.0,14508.0,13057.0,2807.0,7396.0,8485.0,2835.0,832.0,394.0,30.0,10.0
86403,County,2020/01/28,8.0,CO,8105.0,Rio Grande County,2635.0,8615.0,42560.0,9269.0,11786.0,2166.0,4428.0,10244.0,3154.0,965.0,446.0,83.0,19.0
91136,County,2020/01/29,8.0,CO,8105.0,Rio Grande County,2519.0,8731.0,46741.0,11793.0,11661.0,2748.0,6995.0,8722.0,2999.0,1290.0,470.0,54.0,9.0
92862,County,2020/01/30,8.0,CO,8105.0,Rio Grande County,2764.0,8486.0,45180.0,10019.0,12092.0,2885.0,6637.0,10012.0,2192.0,663.0,594.0,28.0,58.0
95965,County,2020/01/31,8.0,CO,8105.0,Rio Grande County,2633.0,8617.0,40424.0,9090.0,12133.0,2235.0,3587.0,10260.0,1372.0,690.0,921.0,80.0,56.0
99165,County,2020/02/01,8.0,CO,8105.0,Rio Grande County,2621.0,8629.0,39741.0,7518.0,9908.0,2369.0,6594.0,8405.0,2239.0,1796.0,857.0,27.0,28.0
102342,County,2020/02/02,8.0,CO,8105.0,Rio Grande County,2724.0,8526.0,34325.0,7884.0,8009.0,1820.0,5725.0,6713.0,2074.0,1001.0,907.0,163.0,29.0
105552,County,2020/02/03,8.0,CO,8105.0,Rio Grande County,2749.0,8501.0,43530.0,9590.0,11769.0,2407.0,6744.0,9655.0,1558.0,1152.0,473.0,76.0,106.0
110313,County,2020/02/04,8.0,CO,8105.0,Rio Grande County,2668.0,8582.0,44325.0,10841.0,12944.0,2519.0,5698.0,8480.0,2751.0,474.0,551.0,24.0,43.0
113469,County,2020/02/05,8.0,CO,8105.0,Rio Grande County,2624.0,8626.0,41528.0,9391.0,10882.0,3137.0,5973.0,8606.0,1849.0,1085.0,501.0,25.0,79.0
116675,County,2020/02/06,8.0,CO,8105.0,Rio Grande County,2559.0,8691.0,47336.0,11172.0,13720.0,2597.0,5436.0,10002.0,3076.0,715.0,535.0,0.0,83.0
118301,County,2020/02/07,8.0,CO,8105.0,Rio Grande County,2370.0,8880.0,45959.0,12560.0,12626.0,2592.0,4677.0,8340.0,2839.0,1223.0,942.0,94.0,66.0
123137,County,2020/02/08,8.0,CO,8105.0,Rio Grande County,2824.0,8426.0,37220.0,10590.0,10378.0,2205.0,3188.0,6722.0,2513.0,737.0,746.0,73.0,68.0
124717,County,2020/02/09,8.0,CO,8105.0,Rio Grande County,3466.0,7784.0,34253.0,10402.0,9162.0,1835.0,3875.0,5771.0,1661.0,758.0,567.0,125.0,97.0
128606,County,2020/02/10,8.0,CO,8105.0,Rio Grande County,2376.0,8874.0,46776.0,10097.0,13108.0,3102.0,6324.0,9552.0,2611.0,1004.0,856.0,44.0,78.0
131252,County,2020/02/11,8.0,CO,8105.0,Rio Grande County,2253.0,8997.0,47560.0,12050.0,11951.0,2900.0,6783.0,10019.0,2240.0,838.0,577.0,114.0,88.0
134773,County,2020/02/12,8.0,CO,8105.0,Rio Grande County,2646.0,8604.0,46828.0,11334.0,12361.0,2556.0,5072.0,9967.0,3199.0,1307.0,681.0,278.0,73.0
139105,County,2020/02/13,8.0,CO,8105.0,Rio Grande County,2387.0,8863.0,51672.0,12938.0,14832.0,2452.0,5594.0,10009.0,3403.0,1336.0,791.0,222.0,95.0
140589,County,2020/02/14,8.0,CO,8105.0,Rio Grande County,2689.0,8561.0,47826.0,11490.0,13740.0,2675.0,3142.0,10824.0,3373.0,1313.0,1055.0,131.0,83.0
145467,County,2020/02/15,8.0,CO,8105.0,Rio Grande County,2846.0,8404.0,48730.0,11986.0,11736.0,2158.0,5582.0,11240.0,3590.0,1462.0,865.0,54.0,57.0
147074,County,2020/02/16,8.0,CO,8105.0,Rio Grande County,3203.0,8047.0,38566.0,9348.0,9513.0,2303.0,5770.0,6839.0,2187.0,1603.0,830.0,59.0,114.0
151836,County,2020/02/17,8.0,CO,8105.0,Rio Grande County,3574.0,7676.0,36289.0,6215.0,10795.0,1940.0,4946.0,7113.0,3176.0,1298.0,584.0,69.0,153.0
153463,County,2020/02/18,8.0,CO,8105.0,Rio Grande County,2575.0,8675.0,48021.0,10001.0,15047.0,2827.0,4554.0,10178.0,3223.0,1241.0,655.0,218.0,77.0
156657,County,2020/02/19,8.0,CO,8105.0,Rio Grande County,2372.0,8878.0,48804.0,8682.0,14458.0,2658.0,7445.0,9770.0,3162.0,1797.0,572.0,241.0,19.0
161321,County,2020/02/20,8.0,CO,8105.0,Rio Grande County,2258.0,8992.0,50563.0,11344.0,15350.0,3354.0,6069.0,8893.0,3057.0,1233.0,1001.0,181.0,81.0
164612,County,2020/02/21,8.0,CO,8105.0,Rio Grande County,2316.0,8934.0,47873.0,9701.0,14337.0,3059.0,6054.0,9542.0,2697.0,1331.0,963.0,133.0,56.0
166238,County,2020/02/22,8.0,CO,8105.0,Rio Grande County,2765.0,8485.0,40215.0,8917.0,11629.0,2330.0,5423.0,7325.0,2577.0,962.0,890.0,63.0,99.0
171003,County,2020/02/23,8.0,CO,8105.0,Rio Grande County,3187.0,8063.0,39293.0,7539.0,11462.0,2979.0,5344.0,7775.0,2715.0,672.0,783.0,0.0,24.0
174199,County,2020/02/24,8.0,CO,8105.0,Rio Grande County,2692.0,8558.0,45423.0,10660.0,13265.0,2883.0,5882.0,8646.0,2857.0,377.0,581.0,232.0,40.0
176556,County,2020/02/25,8.0,CO,8105.0,Rio Grande County,2526.0,8724.0,47253.0,11484.0,13841.0,2249.0,5996.0,9449.0,3094.0,388.0,432.0,144.0,176.0
179161,County,2020/02/26,8.0,CO,8105.0,Rio Grande County,2252.0,8998.0,48374.0,6846.0,16258.0,3468.0,7658.0,9484.0,2687.0,1112.0,686.0,129.0,46.0
183328,County,2020/02/27,8.0,CO,8105.0,Rio Grande County,2471.0,8779.0,52706.0,12296.0,16754.0,3021.0,7452.0,9108.0,2344.0,838.0,754.0,119.0,20.0
187067,County,2020/02/28,8.0,CO,8105.0,Rio Grande County,2593.0,8657.0,49973.0,10614.0,15574.0,2664.0,6708.0,9410.0,2956.0,1125.0,823.0,65.0,34.0
190115,County,2020/02/29,8.0,CO,8105.0,Rio Grande County,2693.0,8557.0,46006.0,10497.0,9621.0,2411.0,7349.0,10021.0,3349.0,1662.0,885.0,174.0,37.0
191787,County,2020/03/01,8.0,CO,8105.0,Rio Grande County,3278.0,7972.0,37879.0,8588.0,8913.0,1727.0,5562.0,8158.0,2362.0,953.0,1440.0,120.0,56.0
195010,County,2020/03/02,8.0,CO,8105.0,Rio Grande County,2455.0,8795.0,47338.0,9738.0,10654.0,3816.0,7620.0,9790.0,3424.0,1628.0,602.0,0.0,66.0
198164,County,2020/03/03,8.0,CO,8105.0,Rio Grande County,2287.0,8963.0,45142.0,10988.0,12159.0,2979.0,6579.0,8763.0,1810.0,1096.0,675.0,45.0,48.0
202902,County,2020/03/04,8.0,CO,8105.0,Rio Grande County,2393.0,8857.0,44359.0,9585.0,11372.0,2844.0,6168.0,9343.0,3125.0,1121.0,691.0,93.0,17.0
206154,County,2020/03/05,8.0,CO,8105.0,Rio Grande County,2442.0,8808.0,49227.0,11464.0,11861.0,4132.0,7408.0,8823.0,3381.0,1487.0,654.0,0.0,17.0
209317,County,2020/03/06,8.0,CO,8105.0,Rio Grande County,2133.0,9117.0,53802.0,13346.0,13656.0,3738.0,6070.0,12164.0,2882.0,993.0,884.0,51.0,18.0
212599,County,2020/03/07,8.0,CO,8105.0,Rio Grande County,2415.0,8835.0,44536.0,11133.0,11970.0,2673.0,6099.0,6911.0,3290.0,1287.0,1057.0,98.0,18.0
214149,County,2020/03/08,8.0,CO,8105.0,Rio Grande County,2886.0,8364.0,40435.0,9188.0,11605.0,1776.0,4360.0,7363.0,2431.0,2851.0,732.0,110.0,19.0
217352,County,2020/03/09,8.0,CO,8105.0,Rio Grande County,2638.0,8612.0,42323.0,9621.0,9779.0,2338.0,6547.0,8844.0,3475.0,917.0,628.0,141.0,33.0
222103,County,2020/03/10,8.0,CO,8105.0,Rio Grande County,2494.0,8756.0,49937.0,12762.0,12829.0,2892.0,5513.0,10657.0,3178.0,1243.0,702.0,144.0,17.0
223727,County,2020/03/11,8.0,CO,8105.0,Rio Grande County,2293.0,8957.0,53724.0,15216.0,9419.0,2936.0,7658.0,12778.0,4185.0,245.0,908.0,339.0,40.0
228472,County,2020/03/12,8.0,CO,8105.0,Rio Grande County,2297.0,8953.0,39773.0,7585.0,11221.0,2292.0,8432.0,5410.0,2089.0,1149.0,1558.0,0.0,37.0
230119,County,2020/03/13,8.0,CO,8105.0,Rio Grande County,2375.0,8875.0,37022.0,10168.0,7786.0,1484.0,5460.0,8914.0,2254.0,0.0,916.0,0.0,40.0
234747,County,2020/03/14,8.0,CO,8105.0,Rio Grande County,2811.0,8439.0,63808.0,18721.0,11955.0,1486.0,10936.0,14405.0,4741.0,596.0,734.0,138.0,96.0
236506,County,2020/03/15,8.0,CO,8105.0,Rio Grande County,3476.0,7774.0,36471.0,9313.0,9005.0,1930.0,5211.0,6559.0,2200.0,1419.0,715.0,119.0,0.0
239700,County,2020/03/16,8.0,CO,8105.0,Rio Grande County,2832.0,8418.0,36965.0,8337.0,9085.0,2240.0,5435.0,6456.0,3830.0,714.0,755.0,47.0,66.0
244506,County,2020/03/17,8.0,CO,8105.0,Rio Grande County,3051.0,8199.0,37513.0,10016.0,8337.0,2149.0,5846.0,7201.0,1704.0,1406.0,809.0,0.0,45.0
246087,County,2020/03/18,8.0,CO,8105.0,Rio Grande County,3273.0,7977.0,42719.0,13143.0,13797.0,2459.0,4336.0,6239.0,1518.0,513.0,570.0,95.0,49.0
250869,County,2020/03/19,8.0,CO,8105.0,Rio Grande County,3304.0,7946.0,40412.0,9039.0,9829.0,2709.0,6647.0,8855.0,1829.0,603.0,620.0,232.0,49.0
252478,County,2020/03/20,8.0,CO,8105.0,Rio Grande County,3867.0,7383.0,44379.0,13071.0,11350.0,2199.0,4857.0,7245.0,3509.0,1213.0,884.0,51.0,0.0
255670,County,2020/03/21,8.0,CO,8105.0,Rio Grande County,3963.0,7287.0,29162.0,7212.0,8426.0,1359.0,2500.0,6602.0,1267.0,743.0,916.0,57.0,80.0
258855,County,2020/03/22,8.0,CO,8105.0,Rio Grande County,4188.0,7062.0,25566.0,5994.0,10383.0,1526.0,3121.0,2529.0,966.0,340.0,629.0,78.0,0.0
262061,County,2020/03/23,8.0,CO,8105.0,Rio Grande County,2831.0,8419.0,37856.0,12382.0,9612.0,2142.0,4113.0,6135.0,1380.0,1214.0,633.0,215.0,30.0
265214,County,2020/03/24,8.0,CO,8105.0,Rio Grande County,3409.0,7841.0,36736.0,8927.0,12024.0,1480.0,5644.0,5521.0,1928.0,424.0,523.0,196.0,69.0
270013,County,2020/03/25,8.0,CO,8105.0,Rio Grande County,3354.0,7896.0,39462.0,9980.0,9372.0,2626.0,5607.0,8227.0,2514.0,843.0,130.0,146.0,17.0
271640,County,2020/03/26,8.0,CO,8105.0,Rio Grande County,3475.0,7775.0,37458.0,10875.0,10393.0,2171.0,4626.0,6817.0,1172.0,573.0,706.0,106.0,19.0
276402,County,2020/03/27,8.0,CO,8105.0,Rio Grande County,3449.0,7801.0,42834.0,14255.0,9078.0,3113.0,6303.0,6450.0,1656.0,1145.0,834.0,0.0,0.0
279588,County,2020/03/28,8.0,CO,8105.0,Rio Grande County,3764.0,7486.0,30930.0,8471.0,6238.0,1308.0,6344.0,5763.0,1219.0,834.0,588.0,165.0,0.0
281223,County,2020/03/29,8.0,CO,8105.0,Rio Grande County,4263.0,6987.0,31475.0,8467.0,7556.0,2560.0,6771.0,4574.0,547.0,481.0,297.0,222.0,0.0
284416,County,2020/03/30,8.0,CO,8105.0,Rio Grande County,3470.0,7780.0,35559.0,10496.0,10380.0,1942.0,5162.0,4828.0,1475.0,541.0,600.0,100.0,35.0
287612,County,2020/03/31,8.0,CO,8105.0,Rio Grande County,3674.0,7576.0,33534.0,9087.0,8231.0,2639.0,4435.0,6704.0,1569.0,460.0,284.0,106.0,19.0
290847,County,2020/04/01,8.0,CO,8105.0,Rio Grande County,3111.0,8139.0,31182.0,7084.0,7268.0,2572.0,4733.0,7255.0,902.0,694.0,550.0,92.0,32.0
293999,County,2020/04/02,8.0,CO,8105.0,Rio Grande County,3300.0,7950.0,35235.0,10138.0,10136.0,1830.0,4303.0,5560.0,1274.0,1019.0,879.0,47.0,49.0
297193,County,2020/04/03,8.0,CO,8105.0,Rio Grande County,3262.0,7988.0,38022.0,12061.0,10542.0,1941.0,4699.0,4951.0,1746.0,1434.0,442.0,189.0,17.0
300386,County,2020/04/04,8.0,CO,8105.0,Rio Grande County,3549.0,7701.0,30532.0,9081.0,8914.0,2237.0,2745.0,5253.0,1275.0,623.0,307.0,57.0,40.0
305140,County,2020/04/05,8.0,CO,8105.0,Rio Grande County,3856.0,7394.0,23652.0,4341.0,4898.0,1960.0,3349.0,7134.0,1117.0,421.0,432.0,0.0,0.0
308340,County,2020/04/06,8.0,CO,8105.0,Rio Grande County,3655.0,7595.0,32374.0,8982.0,8066.0,1869.0,5046.0,5112.0,2414.0,250.0,462.0,173.0,0.0
309969,County,2020/04/07,8.0,CO,8105.0,Rio Grande County,3393.0,7857.0,34429.0,9777.0,10040.0,2121.0,3903.0,6203.0,1422.0,500.0,385.0,58.0,20.0
313163,County,2020/04/08,8.0,CO,8105.0,Rio Grande County,3471.0,7779.0,35867.0,11178.0,11202.0,2009.0,3235.0,5306.0,1717.0,755.0,233.0,232.0,0.0
317922,County,2020/04/09,8.0,CO,8105.0,Rio Grande County,3365.0,7885.0,32324.0,8809.0,8986.0,2740.0,5462.0,4825.0,260.0,801.0,212.0,211.0,18.0
321117,County,2020/04/10,8.0,CO,8105.0,Rio Grande County,3567.0,7683.0,44557.0,14622.0,11437.0,1923.0,6370.0,6215.0,2922.0,771.0,238.0,59.0,0.0
322744,County,2020/04/11,8.0,CO,8105.0,Rio Grande County,3720.0,7530.0,30302.0,7080.0,9783.0,1821.0,3351.0,5658.0,1482.0,522.0,563.0,0.0,42.0
325937,County,2020/04/12,8.0,CO,8105.0,Rio Grande County,4193.0,7057.0,25211.0,4650.0,6230.0,3413.0,3004.0,5902.0,1015.0,447.0,550.0,0.0,0.0
329154,County,2020/04/13,8.0,CO,8105.0,Rio Grande County,3457.0,7793.0,35295.0,8197.0,9255.0,2704.0,5841.0,6576.0,1607.0,589.0,363.0,163.0,0.0
333875,County,2020/04/14,8.0,CO,8105.0,Rio Grande County,3420.0,7830.0,34076.0,4255.0,12287.0,2443.0,7868.0,6074.0,348.0,612.0,189.0,0.0,0.0
337128,County,2020/04/15,8.0,CO,8105.0,Rio Grande County,3289.0,7961.0,37927.0,8511.0,13711.0,1742.0,7479.0,4691.0,1323.0,291.0,179.0,0.0,0.0
340222,County,2020/04/16,8.0,CO,8105.0,Rio Grande County,3622.0,7628.0,42737.0,13738.0,13452.0,1337.0,6153.0,6233.0,763.0,1006.0,0.0,0.0,55.0
341957,County,2020/04/17,8.0,CO,8105.0,Rio Grande County,3094.0,8156.0,32026.0,4439.0,7288.0,4166.0,8214.0,5179.0,1017.0,1491.0,184.0,0.0,48.0
346632,County,2020/04/18,8.0,CO,8105.0,Rio Grande County,3406.0,7844.0,34521.0,3172.0,13554.0,3409.0,8556.0,4238.0,706.0,311.0,575.0,0.0,0.0
348283,County,2020/04/19,8.0,CO,8105.0,Rio Grande County,3652.0,7598.0,24801.0,1766.0,4383.0,2148.0,7905.0,4894.0,3263.0,0.0,442.0,0.0,0.0
351490,County,2020/04/20,8.0,CO,8105.0,Rio Grande County,3044.0,8206.0,37692.0,5635.0,11408.0,725.0,8001.0,10358.0,0.0,726.0,671.0,168.0,0.0
354683,County,2020/04/21,8.0,CO,8105.0,Rio Grande County,3447.0,7803.0,37508.0,6192.0,9666.0,3369.0,8433.0,8376.0,1075.0,270.0,83.0,0.0,44.0
357879,County,2020/04/22,8.0,CO,8105.0,Rio Grande County,3332.0,7918.0,42620.0,10302.0,12954.0,3897.0,6216.0,7105.0,1184.0,521.0,321.0,120.0,0.0
360984,County,2020/04/23,8.0,CO,8105.0,Rio Grande County,3268.0,7982.0,34418.0,9722.0,7331.0,2357.0,5303.0,7000.0,1493.0,525.0,566.0,121.0,0.0
365872,County,2020/04/24,8.0,CO,8105.0,Rio Grande County,3363.0,7887.0,36532.0,7849.0,9281.0,3882.0,5478.0,7560.0,1622.0,519.0,320.0,0.0,21.0
369028,County,2020/04/25,8.0,CO,8105.0,Rio Grande County,3347.0,7903.0,31735.0,8498.0,6571.0,3488.0,2963.0,7337.0,1988.0,269.0,497.0,124.0,0.0
370618,County,2020/04/26,8.0,CO,8105.0,Rio Grande County,3447.0,7803.0,33703.0,13554.0,5658.0,1887.0,2480.0,6533.0,2457.0,676.0,333.0,125.0,0.0
373848,County,2020/04/27,8.0,CO,8105.0,Rio Grande County,3223.0,8027.0,35293.0,10291.0,8473.0,2039.0,4691.0,8080.0,1017.0,383.0,236.0,0.0,83.0
376998,County,2020/04/28,8.0,CO,8105.0,Rio Grande County,3386.0,7864.0,30227.0,8059.0,7771.0,2285.0,2336.0,7100.0,1736.0,509.0,314.0,117.0,0.0
380251,County,2020/04/29,8.0,CO,8105.0,Rio Grande County,3128.0,8122.0,29018.0,8147.0,6557.0,2374.0,4828.0,4814.0,1139.0,752.0,309.0,58.0,40.0
384997,County,2020/04/30,8.0,CO,8105.0,Rio Grande County,3281.0,7969.0,29572.0,6720.0,6317.0,2117.0,4583.0,6965.0,2129.0,375.0,231.0,115.0,20.0
388232,County,2020/05/01,8.0,CO,8105.0,Rio Grande County,2955.0,8295.0,32619.0,8849.0,7036.0,2560.0,5608.0,4394.0,2639.0,855.0,452.0,226.0,0.0
391382,County,2020/05/02,8.0,CO,8105.0,Rio Grande County,3108.0,8142.0,32844.0,7050.0,9515.0,2147.0,3688.0,6761.0,1794.0,1292.0,531.0,66.0,0.0
394579,County,2020/05/03,8.0,CO,8105.0,Rio Grande County,3721.0,7529.0,25169.0,5681.0,4987.0,1140.0,4547.0,5197.0,2383.0,381.0,822.0,0.0,31.0
397773,County,2020/05/04,8.0,CO,8105.0,Rio Grande County,3167.0,8083.0,34657.0,6338.0,9943.0,2416.0,4969.0,7595.0,2267.0,712.0,263.0,131.0,23.0
399400,County,2020/05/05,8.0,CO,8105.0,Rio Grande County,3519.0,7731.0,38950.0,7867.0,10181.0,2686.0,4394.0,9461.0,3061.0,1047.0,184.0,69.0,0.0
402579,County,2020/05/06,8.0,CO,8105.0,Rio Grande County,3138.0,8112.0,38364.0,6111.0,9635.0,3718.0,6082.0,9927.0,2040.0,276.0,511.0,64.0,0.0
405782,County,2020/05/07,8.0,CO,8105.0,Rio Grande County,3439.0,7811.0,39914.0,7552.0,10288.0,2563.0,8325.0,6935.0,2750.0,756.0,745.0,0.0,0.0
409038,County,2020/05/08,8.0,CO,8105.0,Rio Grande County,3353.0,7897.0,40126.0,7475.0,9495.0,3081.0,7019.0,9482.0,1672.0,1177.0,725.0,0.0,0.0
413709,County,2020/05/09,8.0,CO,8105.0,Rio Grande County,3230.0,8020.0,34060.0,7995.0,6529.0,3445.0,4756.0,7138.0,2454.0,720.0,887.0,66.0,70.0
415370,County,2020/05/10,8.0,CO,8105.0,Rio Grande County,3525.0,7725.0,41049.0,8351.0,8960.0,3725.0,6284.0,8489.0,3361.0,1089.0,575.0,215.0,0.0
418564,County,2020/05/11,8.0,CO,8105.0,Rio Grande County,2668.0,8582.0,35228.0,6261.0,7573.0,2374.0,6425.0,7464.0,3103.0,980.0,863.0,162.0,23.0
423422,County,2020/05/12,8.0,CO,8105.0,Rio Grande County,2926.0,8324.0,37025.0,8287.0,10556.0,2757.0,4387.0,7594.0,2208.0,672.0,368.0,172.0,24.0
424904,County,2020/05/13,8.0,CO,8105.0,Rio Grande County,2916.0,8334.0,36591.0,7199.0,10233.0,2659.0,5033.0,7555.0,2771.0,762.0,282.0,35.0,62.0
428147,County,2020/05/14,8.0,CO,8105.0,Rio Grande County,2893.0,8357.0,39910.0,8477.0,10319.0,2329.0,3857.0,8780.0,3273.0,1868.0,863.0,144.0,0.0
431341,County,2020/05/15,8.0,CO,8105.0,Rio Grande County,2889.0,8361.0,38206.0,9815.0,9729.0,1780.0,5732.0,7558.0,1944.0,892.0,687.0,69.0,0.0
436140,County,2020/05/16,8.0,CO,8105.0,Rio Grande County,2987.0,8263.0,33119.0,6718.0,7542.0,2847.0,5689.0,7078.0,1762.0,653.0,653.0,151.0,26.0
439248,County,2020/05/17,8.0,CO,8105.0,Rio Grande County,2848.0,8402.0,35152.0,8522.0,7924.0,2757.0,3262.0,9547.0,1347.0,1185.0,608.0,0.0,0.0
440963,County,2020/05/18,8.0,CO,8105.0,Rio Grande County,2784.0,8466.0,36076.0,7947.0,9073.0,4260.0,4431.0,7137.0,1055.0,1486.0,687.0,0.0,0.0
444117,County,2020/05/19,8.0,CO,8105.0,Rio Grande County,2718.0,8532.0,39340.0,9106.0,10449.0,2240.0,5153.0,8585.0,1489.0,1684.0,461.0,173.0,0.0
448878,County,2020/05/20,8.0,CO,8105.0,Rio Grande County,2166.0,9084.0,45535.0,11853.0,14528.0,3993.0,5878.0,5757.0,1456.0,1281.0,789.0,0.0,0.0
450504,County,2020/05/21,8.0,CO,8105.0,Rio Grande County,2646.0,8604.0,34872.0,7642.0,8667.0,1758.0,4118.0,7946.0,2004.0,2243.0,494.0,0.0,0.0
455263,County,2020/05/22,8.0,CO,8105.0,Rio Grande County,2241.0,9009.0,42309.0,10700.0,11834.0,2105.0,5533.0,8222.0,1885.0,1055.0,836.0,139.0,0.0
456888,County,2020/05/23,8.0,CO,8105.0,Rio Grande County,2367.0,8883.0,34540.0,7558.0,8399.0,2229.0,4733.0,7247.0,2931.0,516.0,848.0,79.0,0.0
461630,County,2020/05/24,8.0,CO,8105.0,Rio Grande County,2609.0,8641.0,40643.0,10126.0,9636.0,2509.0,7434.0,6390.0,2581.0,859.0,983.0,85.0,40.0
464932,County,2020/05/25,8.0,CO,8105.0,Rio Grande County,2609.0,8641.0,38097.0,9321.0,10372.0,1676.0,5218.0,5127.0,3158.0,2068.0,876.0,239.0,42.0
466411,County,2020/05/26,8.0,CO,8105.0,Rio Grande County,2602.0,8648.0,34908.0,8138.0,9335.0,3058.0,4524.0,6037.0,1913.0,902.0,667.0,305.0,29.0
469668,County,2020/05/27,8.0,CO,8105.0,Rio Grande County,2698.0,8552.0,44599.0,9581.0,9999.0,3503.0,7465.0,9015.0,2592.0,1541.0,532.0,341.0,30.0
472864,County,2020/05/28,8.0,CO,8105.0,Rio Grande County,2783.0,8467.0,38568.0,7200.0,11800.0,2864.0,5036.0,7119.0,2756.0,957.0,668.0,147.0,21.0
477618,County,2020/05/29,8.0,CO,8105.0,Rio Grande County,2782.0,8468.0,40975.0,9605.0,10026.0,3452.0,6952.0,7529.0,2301.0,457.0,563.0,90.0,0.0
480818,County,2020/05/30,8.0,CO,8105.0,Rio Grande County,2923.0,8327.0,36954.0,8811.0,7868.0,2902.0,7076.0,5771.0,2480.0,1091.0,807.0,101.0,47.0
483962,County,2020/05/31,8.0,CO,8105.0,Rio Grande County,3293.0,7957.0,30679.0,8410.0,7272.0,2718.0,2501.0,5763.0,1731.0,1282.0,543.0,407.0,52.0
485590,County,2020/06/01,8.0,CO,8105.0,Rio Grande County,2794.0,8456.0,36575.0,7520.0,10248.0,2035.0,5334.0,6669.0,2108.0,1237.0,1181.0,143.0,100.0
490371,County,2020/06/02,8.0,CO,8105.0,Rio Grande County,2847.0,8403.0,31581.0,6035.0,8771.0,1567.0,4152.0,6310.0,2286.0,1257.0,891.0,261.0,51.0
492001,County,2020/06/03,8.0,CO,8105.0,Rio Grande County,2561.0,8689.0,37869.0,8322.0,8523.0,4079.0,4483.0,6690.0,2712.0,2158.0,805.0,79.0,18.0
495211,County,2020/06/04,8.0,CO,8105.0,Rio Grande County,2729.0,8521.0,37685.0,9719.0,7065.0,2734.0,5032.0,8187.0,2620.0,1184.0,922.0,172.0,50.0
499987,County,2020/06/05,8.0,CO,8105.0,Rio Grande County,2612.0,8638.0,39747.0,8564.0,10129.0,2774.0,6327.0,6747.0,2268.0,1633.0,969.0,307.0,29.0
503140,County,2020/06/06,8.0,CO,8105.0,Rio Grande County,3014.0,8236.0,32194.0,7128.0,7472.0,3547.0,4530.0,5759.0,2063.0,798.0,582.0,268.0,47.0
504803,County,2020/06/07,8.0,CO,8105.0,Rio Grande County,2675.0,8575.0,35931.0,7700.0,8266.0,2292.0,5930.0,6408.0,2937.0,1364.0,752.0,166.0,116.0
509550,County,2020/06/08,8.0,CO,8105.0,Rio Grande County,2177.0,9073.0,44996.0,10544.0,12483.0,3010.0,6432.0,7362.0,2600.0,1558.0,870.0,90.0,47.0
512754,County,2020/06/09,8.0,CO,8105.0,Rio Grande County,2563.0,8687.0,39244.0,11627.0,9564.0,2219.0,4782.0,6325.0,2961.0,760.0,836.0,100.0,70.0
515961,County,2020/06/10,8.0,CO,8105.0,Rio Grande County,2650.0,8600.0,44780.0,14879.0,8558.0,2070.0,6695.0,7718.0,2788.0,880.0,969.0,203.0,20.0
519117,County,2020/06/11,8.0,CO,8105.0,Rio Grande County,2710.0,8540.0,41336.0,11567.0,9806.0,3046.0,6728.0,4999.0,2847.0,1344.0,866.0,113.0,20.0
520791,County,2020/06/12,8.0,CO,8105.0,Rio Grande County,2569.0,8681.0,39483.0,10476.0,8228.0,1950.0,5384.0,7415.0,3465.0,1208.0,1205.0,106.0,46.0
523966,County,2020/06/13,8.0,CO,8105.0,Rio Grande County,3054.0,8196.0,36378.0,9975.0,8066.0,1356.0,4118.0,7249.0,2782.0,1156.0,1425.0,251.0,0.0
527162,County,2020/06/14,8.0,CO,8105.0,Rio Grande County,3075.0,8175.0,33590.0,9364.0,7199.0,2118.0,5123.0,4965.0,2483.0,1092.0,897.0,280.0,69.0
531921,County,2020/06/15,8.0,CO,8105.0,Rio Grande County,2625.0,8625.0,36112.0,10487.0,7158.0,2711.0,3295.0,5595.0,3614.0,1795.0,1233.0,166.0,58.0
533549,County,2020/06/16,8.0,CO,8105.0,Rio Grande County,2252.0,8998.0,41009.0,9759.0,11644.0,2652.0,4145.0,6345.0,3936.0,1606.0,742.0,139.0,41.0
536743,County,2020/06/17,8.0,CO,8105.0,Rio Grande County,2798.0,8452.0,43380.0,12260.0,11373.0,3589.0,3829.0,7176.0,3556.0,834.0,643.0,120.0,0.0
539937,County,2020/06/18,8.0,CO,8105.0,Rio Grande County,2688.0,8562.0,43716.0,11634.0,11993.0,2585.0,4551.0,7335.0,3523.0,1296.0,660.0,130.0,9.0
544656,County,2020/06/19,8.0,CO,8105.0,Rio Grande County,2654.0,8596.0,38573.0,7551.0,11032.0,2533.0,5158.0,6030.0,3440.0,1405.0,1199.0,199.0,26.0
547891,County,2020/06/20,8.0,CO,8105.0,Rio Grande County,2906.0,8344.0,37608.0,12798.0,9367.0,2434.0,3695.0,4311.0,2635.0,1586.0,639.0,113.0,30.0
551078,County,2020/06/21,8.0,CO,8105.0,Rio Grande County,3069.0,8181.0,37716.0,11807.0,6150.0,2301.0,4117.0,6753.0,2987.0,2051.0,1185.0,355.0,10.0
552714,County,2020/06/22,8.0,CO,8105.0,Rio Grande County,2576.0,8674.0,40101.0,11100.0,9513.0,2242.0,4038.0,6938.0,3316.0,1626.0,973.0,309.0,46.0
557474,County,2020/06/23,8.0,CO,8105.0,Rio Grande County,2612.0,8638.0,43691.0,12273.0,9917.0,2337.0,5034.0,8283.0,3684.0,848.0,1045.0,230.0,40.0
560667,County,2020/06/24,8.0,CO,8105.0,Rio Grande County,2852.0,8398.0,40420.0,9996.0,10372.0,2557.0,4505.0,6761.0,3906.0,1254.0,908.0,126.0,35.0
562295,County,2020/06/25,8.0,CO,8105.0,Rio Grande County,2624.0,8626.0,42666.0,11765.0,10624.0,1956.0,4925.0,5886.0,4869.0,1600.0,827.0,214.0,0.0
567138,County,2020/06/26,8.0,CO,8105.0,Rio Grande County,3042.0,8208.0,34761.0,8133.0,8048.0,1239.0,5753.0,5719.0,3227.0,1774.0,656.0,164.0,48.0
570240,County,2020/06/27,8.0,CO,8105.0,Rio Grande County,2703.0,8547.0,37225.0,9447.0,9342.0,2158.0,4169.0,6504.0,2582.0,1623.0,1133.0,250.0,17.0
571879,County,2020/06/28,8.0,CO,8105.0,Rio Grande County,2815.0,8435.0,33240.0,9483.0,7263.0,1725.0,3473.0,4960.0,2704.0,2271.0,1100.0,200.0,61.0
576605,County,2020/06/29,8.0,CO,8105.0,Rio Grande County,2858.0,8392.0,35225.0,9052.0,7899.0,1899.0,5855.0,5932.0,2281.0,926.0,1046.0,285.0,50.0
579853,County,2020/06/30,8.0,CO,8105.0,Rio Grande County,2761.0,8489.0,38816.0,9233.0,7264.0,2609.0,5976.0,7941.0,4126.0,587.0,921.0,99.0,60.0
581454,County,2020/07/01,8.0,CO,8105.0,Rio Grande County,2694.0,8556.0,33304.0,7266.0,6934.0,2081.0,5471.0,5912.0,2936.0,1838.0,796.0,46.0,24.0
584647,County,2020/07/02,8.0,CO,8105.0,Rio Grande County,2912.0,8338.0,45284.0,12487.0,11276.0,2076.0,5227.0,6247.0,5168.0,1698.0,878.0,227.0,0.0
589439,County,2020/07/03,8.0,CO,8105.0,Rio Grande County,2958.0,8292.0,34566.0,8087.0,8003.0,1232.0,5721.0,5687.0,3209.0,1764.0,652.0,163.0,48.0
592622,County,2020/07/04,8.0,CO,8105.0,Rio Grande County,3306.0,7944.0,29571.0,6919.0,6846.0,1054.0,4894.0,4865.0,2745.0,1509.0,558.0,140.0,41.0
594272,County,2020/07/05,8.0,CO,8105.0,Rio Grande County,2957.0,8293.0,25380.0,5277.0,6035.0,1610.0,3704.0,3502.0,2228.0,1326.0,1279.0,372.0,47.0
598947,County,2020/07/06,8.0,CO,8105.0,Rio Grande County,2482.0,8768.0,33769.0,9329.0,6824.0,1950.0,3589.0,6242.0,3169.0,1248.0,1128.0,250.0,40.0
600622,County,2020/07/07,8.0,CO,8105.0,Rio Grande County,2677.0,8573.0,34313.0,7797.0,8228.0,2154.0,4692.0,6393.0,2455.0,1410.0,1005.0,122.0,57.0
603814,County,2020/07/08,8.0,CO,8105.0,Rio Grande County,2768.0,8482.0,33303.0,7717.0,7503.0,2099.0,5374.0,5388.0,3068.0,915.0,1015.0,106.0,118.0
607010,County,2020/07/09,8.0,CO,8105.0,Rio Grande County,2747.0,8503.0,33616.0,7272.0,8357.0,1885.0,4194.0,6374.0,3496.0,967.0,894.0,142.0,35.0
611792,County,2020/07/10,8.0,CO,8105.0,Rio Grande County,2676.0,8574.0,36299.0,8347.0,7499.0,2696.0,6181.0,6208.0,3375.0,931.0,819.0,164.0,79.0
615008,County,2020/07/11,8.0,CO,8105.0,Rio Grande County,2738.0,8512.0,34476.0,9068.0,7026.0,1983.0,6023.0,5732.0,2430.0,795.0,1072.0,275.0,72.0
616592,County,2020/07/12,8.0,CO,8105.0,Rio Grande County,3117.0,8133.0,31856.0,7972.0,6307.0,1217.0,5343.0,5471.0,2882.0,1315.0,1071.0,217.0,61.0
621352,County,2020/07/13,8.0,CO,8105.0,Rio Grande County,2904.0,8346.0,31533.0,7315.0,7331.0,1684.0,5822.0,3881.0,3231.0,1359.0,736.0,114.0,60.0
622982,County,2020/07/14,8.0,CO,8105.0,Rio Grande County,2829.0,8421.0,34625.0,6768.0,9136.0,2031.0,4653.0,7059.0,2882.0,1288.0,615.0,153.0,40.0
626104,County,2020/07/15,8.0,CO,8105.0,Rio Grande County,2779.0,8471.0,32963.0,6361.0,9062.0,2106.0,4496.0,5340.0,3360.0,1351.0,651.0,195.0,41.0
629345,County,2020/07/16,8.0,CO,8105.0,Rio Grande County,2706.0,8544.0,33041.0,6555.0,9050.0,1346.0,4876.0,5594.0,2828.0,1603.0,936.0,233.0,20.0
634079,County,2020/07/17,8.0,CO,8105.0,Rio Grande County,3030.0,8220.0,29625.0,6521.0,6757.0,1517.0,5670.0,4115.0,2515.0,1199.0,938.0,319.0,74.0
637332,County,2020/07/18,8.0,CO,8105.0,Rio Grande County,2900.0,8350.0,32079.0,5226.0,10093.0,2349.0,4510.0,4950.0,2793.0,768.0,1104.0,236.0,50.0
638911,County,2020/07/19,8.0,CO,8105.0,Rio Grande County,3125.0,8125.0,26513.0,5713.0,5403.0,1418.0,3447.0,5538.0,2366.0,914.0,1220.0,445.0,49.0
642146,County,2020/07/20,8.0,CO,8105.0,Rio Grande County,3106.0,8144.0,34580.0,7445.0,9583.0,2092.0,4399.0,4891.0,4143.0,1149.0,646.0,184.0,48.0
647386,County,2020/07/21,8.0,CO,8105.0,Rio Grande County,2830.0,8420.0,34459.0,9483.0,8716.0,2205.0,3327.0,5645.0,2714.0,1768.0,381.0,184.0,36.0
649575,County,2020/07/22,8.0,CO,8105.0,Rio Grande County,2894.0,8356.0,35530.0,8313.0,7421.0,2571.0,5204.0,6551.0,3223.0,1504.0,609.0,99.0,35.0
651641,County,2020/07/23,8.0,CO,8105.0,Rio Grande County,2666.0,8584.0,34555.0,9711.0,9027.0,1666.0,3440.0,5657.0,2686.0,1263.0,929.0,150.0,26.0
654813,County,2020/07/24,8.0,CO,8105.0,Rio Grande County,2688.0,8562.0,34997.0,7944.0,9287.0,2634.0,4102.0,6196.0,2725.0,1138.0,726.0,206.0,39.0
658110,County,2020/07/25,8.0,CO,8105.0,Rio Grande County,3096.0,8154.0,32336.0,8299.0,7466.0,2083.0,4769.0,4863.0,2316.0,1274.0,1005.0,212.0,49.0
662815,County,2020/07/26,8.0,CO,8105.0,Rio Grande County,2667.0,8583.0,35848.0,7329.0,8153.0,2091.0,5611.0,5956.0,3823.0,1441.0,1212.0,161.0,71.0
664556,County,2020/07/27,8.0,CO,8105.0,Rio Grande County,2636.0,8614.0,37044.0,7954.0,9174.0,2097.0,4710.0,6153.0,4159.0,1725.0,726.0,291.0,55.0
669340,County,2020/07/28,8.0,CO,8105.0,Rio Grande County,2547.0,8703.0,37661.0,8498.0,9755.0,2395.0,4180.0,6213.0,4189.0,1242.0,944.0,191.0,54.0
672552,County,2020/07/29,8.0,CO,8105.0,Rio Grande County,2672.0,8578.0,36736.0,7623.0,9776.0,1950.0,4624.0,6839.0,3752.0,1130.0,884.0,81.0,77.0
675635,County,2020/07/30,8.0,CO,8105.0,Rio Grande County,2748.0,8502.0,35822.0,8107.0,8561.0,2078.0,5101.0,5492.0,3554.0,1563.0,1097.0,241.0,28.0
677285,County,2020/07/31,8.0,CO,8105.0,Rio Grande County,2963.0,8287.0,32406.0,6707.0,8530.0,1738.0,4709.0,4920.0,3246.0,1211.0,1044.0,223.0,78.0
681984,County,2020/08/01,8.0,CO,8105.0,Rio Grande County,2883.0,8367.0,33045.0,7088.0,8888.0,1430.0,4993.0,5702.0,2474.0,890.0,1219.0,297.0,64.0
683666,County,2020/08/02,8.0,CO,8105.0,Rio Grande County,2994.0,8256.0,29775.0,6082.0,7389.0,1787.0,2193.0,6328.0,2839.0,1466.0,1205.0,451.0,35.0
686861,County,2020/08/03,8.0,CO,8105.0,Rio Grande County,2876.0,8374.0,32691.0,5589.0,9433.0,1192.0,4701.0,6562.0,2200.0,1537.0,1123.0,262.0,92.0
690055,County,2020/08/04,8.0,CO,8105.0,Rio Grande County,2619.0,8631.0,35774.0,7793.0,9881.0,2232.0,4694.0,6341.0,2543.0,1188.0,844.0,169.0,89.0
694814,County,2020/08/05,8.0,CO,8105.0,Rio Grande County,2798.0,8452.0,38439.0,7511.0,9624.0,1765.0,6208.0,7677.0,3076.0,1822.0,514.0,216.0,26.0
698009,County,2020/08/06,8.0,CO,8105.0,Rio Grande County,2749.0,8501.0,40333.0,8037.0,11518.0,2722.0,6104.0,5968.0,3385.0,1588.0,918.0,69.0,24.0
699636,County,2020/08/07,8.0,CO,8105.0,Rio Grande County,2726.0,8524.0,38724.0,9282.0,8208.0,2027.0,5887.0,7157.0,3281.0,2032.0,659.0,148.0,43.0
704397,County,2020/08/08,8.0,CO,8105.0,Rio Grande County,2951.0,8299.0,31570.0,6477.0,8449.0,2273.0,4287.0,5508.0,2266.0,1025.0,983.0,237.0,65.0
706024,County,2020/08/09,8.0,CO,8105.0,Rio Grande County,3300.0,7950.0,32087.0,6784.0,6666.0,2218.0,5232.0,4807.0,2852.0,1653.0,1371.0,421.0,83.0
709244,County,2020/08/10,8.0,CO,8105.0,Rio Grande County,3135.0,8115.0,35085.0,8256.0,8133.0,2270.0,4975.0,5375.0,3142.0,1464.0,1269.0,175.0,26.0
712413,County,2020/08/11,8.0,CO,8105.0,Rio Grande County,3033.0,8217.0,42184.0,11520.0,9724.0,2674.0,5887.0,6714.0,2988.0,1735.0,648.0,243.0,51.0
717075,County,2020/08/12,8.0,CO,8105.0,Rio Grande County,2953.0,8297.0,33876.0,8364.0,7861.0,1960.0,4486.0,6060.0,2724.0,1054.0,1034.0,310.0,23.0
720367,County,2020/08/13,8.0,CO,8105.0,Rio Grande County,2823.0,8427.0,35048.0,7695.0,8150.0,1825.0,5038.0,6985.0,2683.0,1156.0,1336.0,156.0,24.0
721994,County,2020/08/14,8.0,CO,8105.0,Rio Grande County,2649.0,8601.0,34890.0,6750.0,6431.0,2699.0,4967.0,7231.0,3500.0,1773.0,1208.0,301.0,30.0
726804,County,2020/08/15,8.0,CO,8105.0,Rio Grande County,3058.0,8192.0,33663.0,5971.0,9224.0,2835.0,5426.0,5427.0,2003.0,1250.0,1156.0,289.0,82.0
729948,County,2020/08/16,8.0,CO,8105.0,Rio Grande County,2920.0,8330.0,29194.0,5057.0,5846.0,1462.0,3940.0,5192.0,3630.0,1989.0,1678.0,290.0,110.0
731577,County,2020/08/17,8.0,CO,8105.0,Rio Grande County,2919.0,8331.0,34940.0,7441.0,7325.0,2492.0,5504.0,6444.0,2613.0,1549.0,1293.0,207.0,72.0
736337,County,2020/08/18,8.0,CO,8105.0,Rio Grande County,2796.0,8454.0,36043.0,7407.0,8357.0,2337.0,5161.0,6584.0,3373.0,1405.0,1059.0,216.0,144.0
739531,County,2020/08/19,8.0,CO,8105.0,Rio Grande County,2821.0,8429.0,36648.0,8024.0,8083.0,2390.0,4986.0,7659.0,3450.0,959.0,853.0,98.0,146.0
741158,County,2020/08/20,8.0,CO,8105.0,Rio Grande County,2659.0,8591.0,35419.0,8773.0,7447.0,1509.0,4264.0,7702.0,3132.0,1297.0,1033.0,175.0,87.0
745936,County,2020/08/21,8.0,CO,8105.0,Rio Grande County,2489.0,8761.0,38250.0,7858.0,8630.0,2682.0,6513.0,6999.0,2750.0,1505.0,928.0,298.0,87.0
747564,County,2020/08/22,8.0,CO,8105.0,Rio Grande County,2749.0,8501.0,31256.0,5222.0,7691.0,1663.0,4374.0,7976.0,1964.0,1251.0,771.0,247.0,97.0
752309,County,2020/08/23,8.0,CO,8105.0,Rio Grande County,3160.0,8090.0,28070.0,5059.0,6390.0,1572.0,4482.0,5360.0,2834.0,814.0,1160.0,259.0,140.0
755500,County,2020/08/24,8.0,CO,8105.0,Rio Grande County,2882.0,8368.0,32497.0,7411.0,7777.0,2269.0,4006.0,6274.0,2744.0,1254.0,572.0,107.0,83.0
757129,County,2020/08/25,8.0,CO,8105.0,Rio Grande County,3020.0,8230.0,35120.0,7789.0,8406.0,1998.0,4640.0,6683.0,3687.0,906.0,764.0,155.0,92.0
760324,County,2020/08/26,8.0,CO,8105.0,Rio Grande County,2916.0,8334.0,34306.0,7744.0,8264.0,1927.0,4389.0,6158.0,3502.0,1471.0,708.0,106.0,37.0
765047,County,2020/08/27,8.0,CO,8105.0,Rio Grande County,3048.0,8202.0,34825.0,8123.0,9092.0,2384.0,5704.0,5808.0,2717.0,383.0,441.0,88.0,85.0
768263,County,2020/08/28,8.0,CO,8105.0,Rio Grande County,2897.0,8353.0,30941.0,6531.0,7313.0,1598.0,4063.0,6364.0,2731.0,1460.0,667.0,130.0,84.0
771463,County,2020/08/29,8.0,CO,8105.0,Rio Grande County,3331.0,7919.0,31192.0,5395.0,8996.0,1639.0,4056.0,6533.0,2319.0,907.0,1048.0,235.0,64.0
773098,County,2020/08/30,8.0,CO,8105.0,Rio Grande County,3364.0,7886.0,26001.0,4544.0,6211.0,733.0,3837.0,5184.0,2697.0,1639.0,871.0,157.0,128.0
776290,County,2020/08/31,8.0,CO,8105.0,Rio Grande County,3012.0,8238.0,30150.0,5448.0,7790.0,1200.0,4512.0,6033.0,2852.0,1154.0,773.0,324.0,64.0
781071,County,2020/09/01,8.0,CO,8105.0,Rio Grande County,3095.0,8155.0,35155.0,6860.0,8976.0,2487.0,4865.0,7022.0,3013.0,987.0,833.0,95.0,17.0
783466,County,2020/09/02,8.0,CO,8105.0,Rio Grande County,3011.0,8239.0,35886.0,6546.0,8060.0,2433.0,6002.0,6820.0,3893.0,1298.0,607.0,168.0,59.0
787416,County,2020/09/03,8.0,CO,8105.0,Rio Grande County,2919.0,8331.0,34346.0,6954.0,7052.0,1244.0,5587.0,7981.0,3176.0,1198.0,984.0,138.0,32.0
790608,County,2020/09/04,8.0,CO,8105.0,Rio Grande County,3078.0,8172.0,33976.0,5949.0,9755.0,2329.0,4185.0,6595.0,3209.0,1140.0,569.0,175.0,70.0
793748,County,2020/09/05,8.0,CO,8105.0,Rio Grande County,3093.0,8157.0,34795.0,6251.0,9164.0,1896.0,7078.0,6027.0,2414.0,894.0,792.0,207.0,72.0
795451,County,2020/09/06,8.0,CO,8105.0,Rio Grande County,3460.0,7790.0,34184.0,8492.0,8358.0,2285.0,5479.0,5853.0,2210.0,833.0,471.0,192.0,11.0
800216,County,2020/09/07,8.0,CO,8105.0,Rio Grande County,3521.0,7729.0,27957.0,5591.0,5960.0,1703.0,5141.0,5251.0,2019.0,888.0,1221.0,94.0,89.0
803411,County,2020/09/08,8.0,CO,8105.0,Rio Grande County,2952.0,8298.0,36723.0,7798.0,9131.0,2015.0,4887.0,6716.0,3131.0,1515.0,1245.0,233.0,52.0
805038,County,2020/09/09,8.0,CO,8105.0,Rio Grande County,3422.0,7828.0,36415.0,7011.0,11013.0,2082.0,4883.0,6920.0,2371.0,1096.0,900.0,96.0,43.0
808231,County,2020/09/10,8.0,CO,8105.0,Rio Grande County,3077.0,8173.0,32507.0,6606.0,7610.0,2085.0,4336.0,6759.0,2531.0,1408.0,868.0,252.0,52.0
812992,County,2020/09/11,8.0,CO,8105.0,Rio Grande County,2835.0,8415.0,36023.0,7650.0,7419.0,2031.0,4732.0,8412.0,3137.0,1629.0,865.0,104.0,44.0
814620,County,2020/09/12,8.0,CO,8105.0,Rio Grande County,3145.0,8105.0,31761.0,5538.0,7659.0,1421.0,6593.0,5937.0,1684.0,1197.0,1230.0,447.0,55.0
817794,County,2020/09/13,8.0,CO,8105.0,Rio Grande County,3345.0,7905.0,32189.0,5632.0,6574.0,2058.0,7245.0,6006.0,2345.0,1435.0,801.0,30.0,63.0
822576,County,2020/09/14,8.0,CO,8105.0,Rio Grande County,3060.0,8190.0,36891.0,7110.0,9014.0,2161.0,4180.0,7782.0,3600.0,1833.0,1027.0,103.0,81.0
825768,County,2020/09/15,8.0,CO,8105.0,Rio Grande County,3042.0,8208.0,36037.0,6477.0,7921.0,2128.0,5723.0,7053.0,3482.0,1860.0,1180.0,177.0,36.0
827396,County,2020/09/16,8.0,CO,8105.0,Rio Grande County,2708.0,8542.0,35561.0,6344.0,8447.0,1931.0,6081.0,6697.0,3997.0,1275.0,566.0,141.0,82.0
830590,County,2020/09/17,8.0,CO,8105.0,Rio Grande County,2863.0,8387.0,39957.0,8212.0,11245.0,2124.0,3910.0,8125.0,3787.0,1146.0,1313.0,25.0,70.0
835351,County,2020/09/18,8.0,CO,8105.0,Rio Grande County,3245.0,8005.0,36453.0,6848.0,7904.0,1486.0,4784.0,9001.0,3668.0,1241.0,1300.0,201.0,20.0
836979,County,2020/09/19,8.0,CO,8105.0,Rio Grande County,3273.0,7977.0,36727.0,8136.0,8640.0,1894.0,4608.0,5971.0,3779.0,2170.0,1212.0,251.0,66.0
840171,County,2020/09/20,8.0,CO,8105.0,Rio Grande County,3065.0,8185.0,29132.0,4934.0,8068.0,1406.0,3105.0,5174.0,3718.0,1466.0,799.0,416.0,46.0
844959,County,2020/09/21,8.0,CO,8105.0,Rio Grande County,3076.0,8174.0,36041.0,7888.0,7472.0,2164.0,4507.0,6371.0,4413.0,2056.0,915.0,237.0,18.0
848127,County,2020/09/22,8.0,CO,8105.0,Rio Grande County,3194.0,8056.0,34149.0,7140.0,8501.0,1676.0,3495.0,7568.0,3183.0,1120.0,1035.0,413.0,18.0
849754,County,2020/09/23,8.0,CO,8105.0,Rio Grande County,2584.0,8666.0,36571.0,8369.0,7871.0,1516.0,5581.0,6870.0,3958.0,1226.0,967.0,181.0,32.0
854520,County,2020/09/24,8.0,CO,8105.0,Rio Grande County,3077.0,8173.0,37900.0,8597.0,8492.0,2455.0,5854.0,5965.0,4452.0,1231.0,724.0,103.0,27.0
857708,County,2020/09/25,8.0,CO,8105.0,Rio Grande County,2554.0,8696.0,37789.0,9667.0,7072.0,2128.0,6755.0,6877.0,2304.0,1547.0,1150.0,246.0,43.0
859336,County,2020/09/26,8.0,CO,8105.0,Rio Grande County,2905.0,8345.0,39871.0,11467.0,8209.0,2346.0,5681.0,5065.0,3518.0,2229.0,1183.0,143.0,30.0
864083,County,2020/09/27,8.0,CO,8105.0,Rio Grande County,3656.0,7594.0,28885.0,5540.0,7632.0,1337.0,4015.0,5161.0,2005.0,1835.0,1131.0,195.0,34.0
867291,County,2020/09/28,8.0,CO,8105.0,Rio Grande County,2916.0,8334.0,32208.0,5219.0,7834.0,2057.0,5457.0,5341.0,3931.0,1153.0,1047.0,140.0,29.0
870483,County,2020/09/29,8.0,CO,8105.0,Rio Grande County,2960.0,8290.0,36095.0,7462.0,9058.0,2085.0,4455.0,8693.0,3219.0,1011.0,62.0,39.0,11.0
872112,County,2020/09/30,8.0,CO,8105.0,Rio Grande County,2928.0,8322.0,33916.0,6298.0,9499.0,1882.0,4796.0,6930.0,2723.0,1016.0,671.0,91.0,10.0
876852,County,2020/10/01,8.0,CO,8105.0,Rio Grande County,2975.0,8275.0,39660.0,9394.0,11737.0,1548.0,4613.0,6782.0,2941.0,1922.0,636.0,68.0,19.0
880067,County,2020/10/02,8.0,CO,8105.0,Rio Grande County,3127.0,8123.0,34119.0,5626.0,10442.0,2132.0,4708.0,6436.0,2568.0,1099.0,867.0,226.0,15.0
881695,County,2020/10/03,8.0,CO,8105.0,Rio Grande County,3376.0,7874.0,31575.0,4690.0,6876.0,1715.0,4340.0,8350.0,3177.0,1719.0,544.0,147.0,17.0
885262,County,2020/10/04,8.0,CO,8105.0,Rio Grande County,3169.0,8081.0,30038.0,5357.0,5987.0,1094.0,4682.0,6147.0,3936.0,1727.0,948.0,145.0,15.0
888230,County,2020/10/05,8.0,CO,8105.0,Rio Grande County,3367.0,7883.0,32343.0,6691.0,6971.0,1524.0,4665.0,7331.0,3624.0,706.0,708.0,107.0,16.0
891371,County,2020/10/06,8.0,CO,8105.0,Rio Grande County,2946.0,8304.0,36816.0,6044.0,9619.0,1511.0,6115.0,6770.0,4765.0,1342.0,519.0,122.0,9.0
894570,County,2020/10/07,8.0,CO,8105.0,Rio Grande County,2835.0,8415.0,33288.0,3672.0,7332.0,2872.0,6239.0,6655.0,4632.0,1302.0,442.0,125.0,17.0
897744,County,2020/10/08,8.0,CO,8105.0,Rio Grande County,3052.0,8198.0,33423.0,6748.0,7533.0,1937.0,5553.0,6361.0,3941.0,874.0,407.0,66.0,3.0
901007,County,2020/10/09,8.0,CO,8105.0,Rio Grande County,3238.0,8012.0,33593.0,5172.0,6563.0,1974.0,5829.0,8799.0,2808.0,1689.0,656.0,92.0,11.0
904168,County,2020/10/10,8.0,CO,8105.0,Rio Grande County,3180.0,8070.0,32072.0,3673.0,7983.0,1905.0,5034.0,7494.0,3720.0,1270.0,910.0,77.0,6.0
910265,County,2020/10/11,8.0,CO,8105.0,Rio Grande County,3563.0,7687.0,24086.0,3822.0,4624.0,1810.0,3295.0,6567.0,2477.0,642.0,744.0,100.0,5.0
912944,County,2020/10/12,8.0,CO,8105.0,Rio Grande County,3052.0,8198.0,31086.0,6078.0,6955.0,1324.0,4941.0,6485.0,3499.0,676.0,1001.0,118.0,9.0
916286,County,2020/10/13,8.0,CO,8105.0,Rio Grande County,2825.0,8425.0,35080.0,7710.0,9910.0,1663.0,3960.0,7351.0,2949.0,979.0,453.0,97.0,8.0
919409,County,2020/10/14,8.0,CO,8105.0,Rio Grande County,2806.0,8444.0,37997.0,7669.0,10046.0,2181.0,5370.0,7599.0,3532.0,1112.0,363.0,98.0,27.0
922809,County,2020/10/15,8.0,CO,8105.0,Rio Grande County,3155.0,8095.0,30929.0,5712.0,6307.0,1347.0,5030.0,7712.0,3028.0,1012.0,636.0,126.0,19.0
925791,County,2020/10/16,8.0,CO,8105.0,Rio Grande County,2988.0,8262.0,34985.0,5500.0,9167.0,2472.0,4874.0,8386.0,3087.0,561.0,811.0,105.0,22.0
929030,County,2020/10/17,8.0,CO,8105.0,Rio Grande County,3350.0,7900.0,30919.0,5233.0,9135.0,2245.0,4378.0,5914.0,2164.0,1063.0,606.0,163.0,18.0
932303,County,2020/10/18,8.0,CO,8105.0,Rio Grande County,2991.0,8259.0,30132.0,6705.0,7368.0,1894.0,4214.0,4667.0,2682.0,1503.0,895.0,179.0,25.0
935390,County,2020/10/19,8.0,CO,8105.0,Rio Grande County,2845.0,8405.0,37805.0,8808.0,10150.0,1901.0,4571.0,7635.0,2442.0,1385.0,802.0,87.0,24.0
938347,County,2020/10/20,8.0,CO,8105.0,Rio Grande County,2934.0,8316.0,34413.0,4882.0,8238.0,2594.0,5105.0,8140.0,3704.0,1001.0,530.0,196.0,23.0
941581,County,2020/10/21,8.0,CO,8105.0,Rio Grande County,3098.0,8152.0,35430.0,6428.0,9218.0,1797.0,5236.0,7218.0,3800.0,1101.0,543.0,73.0,16.0
944805,County,2020/10/22,8.0,CO,8105.0,Rio Grande County,2963.0,8287.0,33423.0,6194.0,7713.0,2097.0,5215.0,7184.0,2828.0,1497.0,594.0,89.0,12.0
947687,County,2020/10/23,8.0,CO,8105.0,Rio Grande County,2743.0,8507.0,39272.0,8827.0,10371.0,2246.0,4089.0,8488.0,2920.0,1432.0,762.0,125.0,12.0
951404,County,2020/10/24,8.0,CO,8105.0,Rio Grande County,3005.0,8245.0,38947.0,7074.0,8340.0,3748.0,5737.0,8756.0,2394.0,1912.0,845.0,130.0,11.0
