,Level,Date,State FIPS,State Postal Code,County FIPS,County Name,Population Staying at Home,Population Not Staying at Home,Number of Trips,Number of Trips <1,Number of Trips 1-3,Number of Trips 3-5,Number of Trips 5-10,Number of Trips 10-25,Number of Trips 25-50,Number of Trips 50-100,Number of Trips 100-250,Number of Trips 250-500,Number of Trips >=500
3110,County,2020/01/01,55.0,WI,55127.0,Walworth County,25037.0,78681.0,278521.0,59707.0,62664.0,26182.0,46106.0,51265.0,21117.0,8967.0,1714.0,563.0,236.0
3915,County,2020/01/02,55.0,WI,55127.0,Walworth County,19333.0,84385.0,363922.0,76554.0,77177.0,30875.0,58818.0,71502.0,36538.0,9551.0,2266.0,505.0,136.0
6970,County,2020/01/03,55.0,WI,55127.0,Walworth County,18007.0,85711.0,370705.0,72607.0,77170.0,35318.0,61075.0,73510.0,36905.0,10660.0,2563.0,678.0,219.0
11149,County,2020/01/04,55.0,WI,55127.0,Walworth County,21653.0,82065.0,343883.0,64944.0,75926.0,35260.0,58572.0,67941.0,28997.0,9067.0,2244.0,678.0,254.0
15837,County,2020/01/05,55.0,WI,55127.0,Walworth County,24188.0,79530.0,287793.0,56050.0,63359.0,28602.0,56621.0,49892.0,22846.0,6761.0,2837.0,672.0,153.0
17562,County,2020/01/06,55.0,WI,55127.0,Walworth County,18849.0,84869.0,350142.0,66176.0,78005.0,30578.0,57102.0,69283.0,36181.0,10181.0,2160.0,381.0,95.0
20720,County,2020/01/07,55.0,WI,55127.0,Walworth County,19341.0,84377.0,353569.0,66016.0,79235.0,33367.0,58952.0,69487.0,34665.0,9500.0,1800.0,406.0,141.0
23999,County,2020/01/08,55.0,WI,55127.0,Walworth County,19031.0,84687.0,365774.0,79769.0,78196.0,33401.0,56010.0,72833.0,34190.0,9237.0,1511.0,499.0,128.0
27096,County,2020/01/09,55.0,WI,55127.0,Walworth County,18099.0,85619.0,365749.0,73466.0,80576.0,35505.0,59864.0,70521.0,33780.0,9709.0,1714.0,516.0,98.0
30292,County,2020/01/10,55.0,WI,55127.0,Walworth County,17779.0,85939.0,391994.0,83848.0,88422.0,34947.0,66135.0,73616.0,32605.0,9443.0,2413.0,455.0,110.0
33584,County,2020/01/11,55.0,WI,55127.0,Walworth County,26444.0,77274.0,314660.0,73867.0,83844.0,35167.0,51602.0,44311.0,16976.0,6225.0,1872.0,590.0,206.0
38221,County,2020/01/12,55.0,WI,55127.0,Walworth County,23919.0,79799.0,320872.0,69170.0,75328.0,36720.0,55625.0,52985.0,20709.0,7342.0,2177.0,611.0,205.0
38336,County,2020/01/13,55.0,WI,55127.0,Walworth County,18670.0,85048.0,360644.0,71920.0,81188.0,35553.0,57437.0,68071.0,33492.0,10620.0,1754.0,423.0,186.0
43095,County,2020/01/14,55.0,WI,55127.0,Walworth County,17874.0,85844.0,373066.0,76313.0,81120.0,33646.0,60889.0,73040.0,34268.0,11344.0,1884.0,441.0,121.0
46246,County,2020/01/15,55.0,WI,55127.0,Walworth County,18892.0,84826.0,368821.0,78157.0,81028.0,33711.0,58351.0,70421.0,35283.0,9580.0,1811.0,329.0,150.0
51028,County,2020/01/16,55.0,WI,55127.0,Walworth County,17916.0,85802.0,386559.0,84627.0,81779.0,36056.0,60775.0,72346.0,36512.0,11735.0,1995.0,518.0,216.0
52654,County,2020/01/17,55.0,WI,55127.0,Walworth County,18110.0,85608.0,380229.0,86320.0,89535.0,32828.0,58702.0,65254.0,34569.0,9910.0,2423.0,499.0,189.0
57437,County,2020/01/18,55.0,WI,55127.0,Walworth County,22408.0,81310.0,363900.0,84419.0,90575.0,40064.0,62815.0,54515.0,23008.0,6543.0,1478.0,296.0,187.0
59036,County,2020/01/19,55.0,WI,55127.0,Walworth County,22855.0,80863.0,321139.0,68448.0,77614.0,33002.0,54029.0,54042.0,23008.0,8335.0,1932.0,490.0,239.0
63797,County,2020/01/20,55.0,WI,55127.0,Walworth County,19388.0,84330.0,359390.0,84700.0,70944.0,31518.0,57290.0,68117.0,33700.0,10457.0,2145.0,423.0,96.0
66995,County,2020/01/21,55.0,WI,55127.0,Walworth County,19185.0,84533.0,373253.0,87078.0,78654.0,34525.0,56393.0,69794.0,35051.0,9428.0,1701.0,446.0,183.0
68626,County,2020/01/22,55.0,WI,55127.0,Walworth County,18862.0,84856.0,376214.0,84977.0,80167.0,34240.0,59388.0,71656.0,35190.0,8698.0,1230.0,533.0,135.0
71860,County,2020/01/23,55.0,WI,55127.0,Walworth County,18857.0,84861.0,385665.0,86465.0,83887.0,36516.0,61933.0,71384.0,33290.0,9662.0,1743.0,575.0,210.0
76573,County,2020/01/24,55.0,WI,55127.0,Walworth County,18318.0,85400.0,394209.0,83597.0,85676.0,39678.0,64357.0,72728.0,36415.0,8974.0,2140.0,486.0,158.0
79760,County,2020/01/25,55.0,WI,55127.0,Walworth County,21121.0,82597.0,394316.0,101224.0,93014.0,40489.0,61529.0,59878.0,27604.0,8171.0,1700.0,491.0,216.0
82960,County,2020/01/26,55.0,WI,55127.0,Walworth County,22281.0,81437.0,342801.0,81098.0,80902.0,29893.0,57619.0,57126.0,23521.0,8729.0,2803.0,916.0,194.0
86171,County,2020/01/27,55.0,WI,55127.0,Walworth County,19847.0,83871.0,369105.0,82311.0,82453.0,32719.0,57232.0,68648.0,33995.0,9545.0,1553.0,418.0,231.0
88377,County,2020/01/28,55.0,WI,55127.0,Walworth County,20082.0,83636.0,388740.0,98305.0,82704.0,32803.0,57779.0,71759.0,33307.0,9984.0,1439.0,540.0,120.0
90951,County,2020/01/29,55.0,WI,55127.0,Walworth County,19928.0,83790.0,376114.0,87693.0,83522.0,29697.0,58254.0,70149.0,35063.0,9471.0,1548.0,557.0,160.0
94304,County,2020/01/30,55.0,WI,55127.0,Walworth County,19388.0,84330.0,383577.0,89855.0,81493.0,33643.0,60050.0,71293.0,34006.0,9992.0,2242.0,668.0,335.0
97358,County,2020/01/31,55.0,WI,55127.0,Walworth County,18344.0,85374.0,395442.0,83224.0,88486.0,36831.0,64668.0,72814.0,34965.0,10708.0,2609.0,773.0,364.0
100608,County,2020/02/01,55.0,WI,55127.0,Walworth County,20006.0,83712.0,385454.0,88656.0,85728.0,37985.0,60952.0,66817.0,30774.0,11224.0,2295.0,642.0,381.0
103737,County,2020/02/02,55.0,WI,55127.0,Walworth County,21903.0,81815.0,326017.0,70673.0,77156.0,35544.0,54648.0,54964.0,19808.0,9316.0,2728.0,715.0,465.0
108522,County,2020/02/03,55.0,WI,55127.0,Walworth County,18647.0,85071.0,376627.0,81967.0,86256.0,34517.0,58469.0,66986.0,34729.0,10624.0,2115.0,455.0,509.0
111707,County,2020/02/04,55.0,WI,55127.0,Walworth County,18656.0,85062.0,374716.0,79411.0,83577.0,36093.0,60031.0,67379.0,33207.0,11321.0,2456.0,785.0,456.0
114910,County,2020/02/05,55.0,WI,55127.0,Walworth County,18588.0,85130.0,375083.0,79993.0,83812.0,35075.0,59311.0,68510.0,34655.0,10453.0,2182.0,649.0,443.0
118116,County,2020/02/06,55.0,WI,55127.0,Walworth County,18339.0,85379.0,380182.0,88760.0,82142.0,33664.0,58255.0,69716.0,33450.0,10426.0,2708.0,660.0,401.0
119695,County,2020/02/07,55.0,WI,55127.0,Walworth County,17078.0,86640.0,412963.0,93044.0,91655.0,39839.0,61628.0,73756.0,37536.0,11685.0,2675.0,730.0,415.0
124483,County,2020/02/08,55.0,WI,55127.0,Walworth County,19513.0,84205.0,381265.0,88071.0,86094.0,36542.0,59305.0,66640.0,30841.0,10628.0,2052.0,642.0,450.0
127127,County,2020/02/09,55.0,WI,55127.0,Walworth County,25995.0,77723.0,305687.0,71427.0,75391.0,35090.0,47213.0,45466.0,18251.0,8832.0,2782.0,732.0,503.0
128276,County,2020/02/10,55.0,WI,55127.0,Walworth County,18672.0,85046.0,392355.0,84744.0,87539.0,36566.0,60123.0,72118.0,35500.0,11788.0,2527.0,723.0,727.0
133038,County,2020/02/11,55.0,WI,55127.0,Walworth County,16947.0,86771.0,392511.0,82468.0,84949.0,38045.0,61733.0,69903.0,39602.0,11750.0,2485.0,883.0,693.0
134592,County,2020/02/12,55.0,WI,55127.0,Walworth County,18417.0,85301.0,392784.0,86513.0,81870.0,38924.0,61928.0,71693.0,35551.0,11849.0,2896.0,767.0,793.0
140453,County,2020/02/13,55.0,WI,55127.0,Walworth County,18423.0,85295.0,381076.0,86220.0,84606.0,37464.0,57705.0,66823.0,32113.0,11611.0,3135.0,714.0,685.0
143655,County,2020/02/14,55.0,WI,55127.0,Walworth County,17290.0,86428.0,427669.0,90722.0,89853.0,43689.0,67193.0,78432.0,39522.0,13144.0,3437.0,784.0,893.0
146860,County,2020/02/15,55.0,WI,55127.0,Walworth County,20388.0,83330.0,400528.0,87768.0,83861.0,39920.0,65767.0,67229.0,38052.0,12824.0,3346.0,791.0,970.0
150062,County,2020/02/16,55.0,WI,55127.0,Walworth County,21632.0,82086.0,349745.0,75758.0,78598.0,36881.0,54802.0,58387.0,27228.0,11610.0,4582.0,794.0,1105.0
153229,County,2020/02/17,55.0,WI,55127.0,Walworth County,24896.0,78822.0,301330.0,63058.0,63193.0,32395.0,44988.0,55582.0,29296.0,8620.0,2637.0,779.0,782.0
154806,County,2020/02/18,55.0,WI,55127.0,Walworth County,19071.0,84647.0,388975.0,80892.0,86290.0,41167.0,58916.0,68738.0,37317.0,10906.0,3223.0,813.0,713.0
159616,County,2020/02/19,55.0,WI,55127.0,Walworth County,17524.0,86194.0,400498.0,84798.0,84822.0,39430.0,61062.0,73638.0,39421.0,12773.0,3049.0,866.0,639.0
161161,County,2020/02/20,55.0,WI,55127.0,Walworth County,18487.0,85231.0,384445.0,80290.0,81871.0,34922.0,59672.0,72368.0,37843.0,12765.0,2927.0,1331.0,456.0
166005,County,2020/02/21,55.0,WI,55127.0,Walworth County,18039.0,85679.0,409853.0,82756.0,89514.0,38941.0,63250.0,77005.0,38240.0,14252.0,3849.0,1442.0,604.0
169199,County,2020/02/22,55.0,WI,55127.0,Walworth County,17667.0,86051.0,408616.0,83933.0,88400.0,42183.0,67002.0,72524.0,36705.0,12938.0,3057.0,1138.0,736.0
172398,County,2020/02/23,55.0,WI,55127.0,Walworth County,22380.0,81338.0,343234.0,68223.0,77570.0,37260.0,58616.0,62048.0,25569.0,9895.0,2563.0,1137.0,353.0
174024,County,2020/02/24,55.0,WI,55127.0,Walworth County,20022.0,83696.0,374574.0,83806.0,78368.0,34215.0,58943.0,68852.0,36220.0,10275.0,2517.0,676.0,702.0
178781,County,2020/02/25,55.0,WI,55127.0,Walworth County,17499.0,86219.0,380572.0,72216.0,83936.0,37148.0,61783.0,71468.0,39041.0,11419.0,2581.0,478.0,502.0
181974,County,2020/02/26,55.0,WI,55127.0,Walworth County,19156.0,84562.0,336226.0,58584.0,83236.0,40036.0,54715.0,59989.0,30515.0,6621.0,1260.0,1001.0,269.0
183000,County,2020/02/27,55.0,WI,55127.0,Walworth County,18844.0,84874.0,386472.0,82654.0,80482.0,33615.0,62808.0,72993.0,40141.0,10513.0,2319.0,538.0,409.0
186939,County,2020/02/28,55.0,WI,55127.0,Walworth County,17975.0,85743.0,431498.0,89780.0,97734.0,39775.0,68652.0,78435.0,42085.0,10953.0,3153.0,544.0,387.0
189943,County,2020/02/29,55.0,WI,55127.0,Walworth County,19196.0,84522.0,425122.0,91003.0,98312.0,42361.0,72339.0,72009.0,35530.0,10343.0,2369.0,506.0,350.0
194776,County,2020/03/01,55.0,WI,55127.0,Walworth County,20357.0,83361.0,346996.0,75184.0,81267.0,33761.0,58567.0,59320.0,25401.0,9281.0,3146.0,815.0,254.0
196404,County,2020/03/02,55.0,WI,55127.0,Walworth County,19014.0,84704.0,367690.0,78039.0,79274.0,33958.0,55389.0,72558.0,36206.0,9283.0,2285.0,263.0,435.0
200430,County,2020/03/03,55.0,WI,55127.0,Walworth County,17912.0,85806.0,359190.0,74644.0,77849.0,29862.0,53380.0,69958.0,37948.0,11882.0,2519.0,930.0,218.0
204342,County,2020/03/04,55.0,WI,55127.0,Walworth County,17874.0,85844.0,369251.0,74092.0,80601.0,32257.0,59829.0,68532.0,37307.0,13430.0,2160.0,831.0,212.0
207546,County,2020/03/05,55.0,WI,55127.0,Walworth County,16916.0,86802.0,363192.0,72731.0,79862.0,31334.0,56127.0,69057.0,37647.0,12831.0,2457.0,860.0,286.0
209165,County,2020/03/06,55.0,WI,55127.0,Walworth County,17207.0,86511.0,395103.0,77125.0,89673.0,34349.0,59201.0,78283.0,38150.0,14123.0,3191.0,747.0,261.0
212378,County,2020/03/07,55.0,WI,55127.0,Walworth County,18586.0,85132.0,392498.0,82659.0,100172.0,40385.0,59374.0,64660.0,30290.0,11313.0,2459.0,641.0,545.0
217105,County,2020/03/08,55.0,WI,55127.0,Walworth County,20351.0,83367.0,336498.0,69691.0,82535.0,35953.0,54702.0,56114.0,22804.0,10068.0,3577.0,707.0,347.0
218745,County,2020/03/09,55.0,WI,55127.0,Walworth County,18184.0,85534.0,357968.0,71304.0,82906.0,29420.0,51554.0,68904.0,38034.0,12160.0,2551.0,929.0,206.0
221980,County,2020/03/10,55.0,WI,55127.0,Walworth County,17752.0,85966.0,370881.0,74416.0,81265.0,33408.0,56997.0,67179.0,41066.0,12388.0,3064.0,805.0,293.0
225170,County,2020/03/11,55.0,WI,55127.0,Walworth County,17641.0,86077.0,339754.0,57243.0,89884.0,32044.0,46330.0,59470.0,32914.0,16953.0,2763.0,1339.0,814.0
228355,County,2020/03/12,55.0,WI,55127.0,Walworth County,18316.0,85402.0,335232.0,63615.0,89112.0,27150.0,46485.0,57010.0,31149.0,14911.0,3185.0,2094.0,521.0
233084,County,2020/03/13,55.0,WI,55127.0,Walworth County,17665.0,86053.0,354360.0,63118.0,96029.0,32371.0,50434.0,61150.0,31245.0,13832.0,4464.0,1160.0,557.0
236287,County,2020/03/14,55.0,WI,55127.0,Walworth County,22033.0,81685.0,322207.0,56147.0,77134.0,35646.0,55054.0,54641.0,24901.0,12874.0,4149.0,909.0,752.0
237899,County,2020/03/15,55.0,WI,55127.0,Walworth County,24904.0,78814.0,310768.0,63762.0,78514.0,36783.0,51083.0,48283.0,22040.0,7537.0,1703.0,655.0,408.0
242660,County,2020/03/16,55.0,WI,55127.0,Walworth County,20665.0,83053.0,366070.0,73278.0,81530.0,34466.0,56682.0,71605.0,32862.0,11994.0,2258.0,996.0,399.0
244325,County,2020/03/17,55.0,WI,55127.0,Walworth County,22538.0,81180.0,353031.0,74161.0,78289.0,33474.0,54816.0,65533.0,31548.0,11877.0,2053.0,902.0,378.0
249058,County,2020/03/18,55.0,WI,55127.0,Walworth County,24977.0,78741.0,312205.0,57512.0,67605.0,24015.0,48451.0,66586.0,34259.0,9828.0,2548.0,1059.0,342.0
252262,County,2020/03/19,55.0,WI,55127.0,Walworth County,25755.0,77963.0,315467.0,60756.0,69440.0,27861.0,54435.0,60011.0,29970.0,8965.0,3060.0,712.0,257.0
253921,County,2020/03/20,55.0,WI,55127.0,Walworth County,25641.0,78077.0,330789.0,72114.0,68128.0,30688.0,55394.0,60962.0,31599.0,8193.0,2756.0,796.0,159.0
258630,County,2020/03/21,55.0,WI,55127.0,Walworth County,28405.0,75313.0,304024.0,65279.0,72840.0,35495.0,54169.0,49023.0,17406.0,5888.0,2425.0,1167.0,332.0
260251,County,2020/03/22,55.0,WI,55127.0,Walworth County,29872.0,73846.0,235836.0,50397.0,61146.0,30145.0,38182.0,33798.0,13647.0,4654.0,2591.0,846.0,430.0
265029,County,2020/03/23,55.0,WI,55127.0,Walworth County,24970.0,78748.0,277142.0,58065.0,60643.0,26759.0,42613.0,52008.0,27505.0,6505.0,2100.0,679.0,265.0
266655,County,2020/03/24,55.0,WI,55127.0,Walworth County,25578.0,78140.0,282838.0,58799.0,62134.0,28134.0,46406.0,52139.0,24563.0,7846.0,2005.0,629.0,183.0
269889,County,2020/03/25,55.0,WI,55127.0,Walworth County,25594.0,78124.0,283988.0,67802.0,58358.0,28822.0,45061.0,50559.0,22729.0,7241.0,2454.0,835.0,127.0
273033,County,2020/03/26,55.0,WI,55127.0,Walworth County,26014.0,77704.0,277257.0,66566.0,58317.0,22632.0,45117.0,50955.0,23618.0,6873.0,2352.0,601.0,226.0
277796,County,2020/03/27,55.0,WI,55127.0,Walworth County,25699.0,78019.0,280708.0,64330.0,62266.0,27495.0,44971.0,49445.0,22054.0,6382.0,2547.0,1027.0,191.0
279423,County,2020/03/28,55.0,WI,55127.0,Walworth County,27391.0,76327.0,247765.0,51587.0,64766.0,25814.0,43412.0,39045.0,15095.0,5165.0,1921.0,690.0,270.0
282617,County,2020/03/29,55.0,WI,55127.0,Walworth County,30775.0,72943.0,229310.0,47373.0,59202.0,26736.0,39684.0,37879.0,10766.0,4828.0,1745.0,724.0,373.0
285811,County,2020/03/30,55.0,WI,55127.0,Walworth County,25138.0,78580.0,271848.0,64433.0,58304.0,24992.0,44271.0,46139.0,23669.0,7268.0,1947.0,574.0,251.0
289006,County,2020/03/31,55.0,WI,55127.0,Walworth County,26617.0,77101.0,274326.0,61732.0,59530.0,24162.0,41567.0,51327.0,25428.0,7416.0,2167.0,826.0,171.0
292241,County,2020/04/01,55.0,WI,55127.0,Walworth County,26193.0,77525.0,277095.0,63259.0,61582.0,25049.0,40969.0,48577.0,26457.0,7892.0,2392.0,678.0,240.0
296974,County,2020/04/02,55.0,WI,55127.0,Walworth County,26307.0,77411.0,273432.0,65185.0,56603.0,27588.0,41946.0,46334.0,25451.0,6850.0,2322.0,853.0,300.0
298635,County,2020/04/03,55.0,WI,55127.0,Walworth County,24826.0,78892.0,294463.0,68146.0,63509.0,24035.0,48089.0,53861.0,25583.0,7515.0,2843.0,570.0,312.0
301779,County,2020/04/04,55.0,WI,55127.0,Walworth County,27688.0,76030.0,257326.0,52865.0,60033.0,28657.0,45217.0,46810.0,15539.0,5260.0,2130.0,669.0,146.0
306535,County,2020/04/05,55.0,WI,55127.0,Walworth County,28642.0,75076.0,250648.0,47915.0,67518.0,29359.0,46779.0,40763.0,10391.0,5171.0,2083.0,469.0,200.0
308168,County,2020/04/06,55.0,WI,55127.0,Walworth County,25685.0,78033.0,279074.0,55472.0,63815.0,26578.0,43214.0,56134.0,25878.0,5539.0,1920.0,468.0,56.0
311410,County,2020/04/07,55.0,WI,55127.0,Walworth County,23878.0,79840.0,309920.0,69865.0,69411.0,33752.0,45630.0,58668.0,24232.0,5813.0,1798.0,530.0,221.0
316147,County,2020/04/08,55.0,WI,55127.0,Walworth County,24751.0,78967.0,289379.0,63653.0,62768.0,30408.0,47830.0,47950.0,26867.0,7075.0,1960.0,747.0,121.0
317774,County,2020/04/09,55.0,WI,55127.0,Walworth County,26350.0,77368.0,298430.0,66370.0,66859.0,27845.0,49455.0,51797.0,26379.0,7183.0,1901.0,482.0,159.0
322511,County,2020/04/10,55.0,WI,55127.0,Walworth County,24780.0,78938.0,313372.0,66015.0,70010.0,33319.0,53424.0,55375.0,25435.0,7036.0,2229.0,412.0,117.0
324186,County,2020/04/11,55.0,WI,55127.0,Walworth County,27450.0,76268.0,294506.0,67361.0,74796.0,29348.0,51854.0,48582.0,16870.0,3521.0,1461.0,534.0,179.0
327332,County,2020/04/12,55.0,WI,55127.0,Walworth County,31786.0,71932.0,211698.0,48915.0,55627.0,29703.0,31928.0,30165.0,9713.0,3469.0,1531.0,474.0,173.0
332093,County,2020/04/13,55.0,WI,55127.0,Walworth County,27149.0,76569.0,278536.0,68677.0,56575.0,22503.0,43499.0,50505.0,27121.0,6832.0,2243.0,478.0,103.0
333673,County,2020/04/14,55.0,WI,55127.0,Walworth County,27530.0,76188.0,262373.0,53422.0,69299.0,24150.0,42449.0,43547.0,20977.0,6938.0,807.0,466.0,318.0
336945,County,2020/04/15,55.0,WI,55127.0,Walworth County,26686.0,77032.0,258652.0,54109.0,63830.0,26024.0,39290.0,45798.0,20699.0,7124.0,939.0,310.0,529.0
340099,County,2020/04/16,55.0,WI,55127.0,Walworth County,27973.0,75745.0,251689.0,51706.0,67837.0,23015.0,39156.0,44550.0,17725.0,5746.0,1252.0,482.0,220.0
344878,County,2020/04/17,55.0,WI,55127.0,Walworth County,25958.0,77760.0,253999.0,49153.0,62346.0,25814.0,43610.0,44954.0,20318.0,4273.0,2106.0,836.0,589.0
348075,County,2020/04/18,55.0,WI,55127.0,Walworth County,28398.0,75320.0,248783.0,54148.0,73262.0,25771.0,44946.0,34814.0,9479.0,3246.0,1614.0,1271.0,232.0
349678,County,2020/04/19,55.0,WI,55127.0,Walworth County,28351.0,75367.0,211037.0,43083.0,65192.0,25972.0,32107.0,29923.0,9530.0,3092.0,838.0,969.0,331.0
354457,County,2020/04/20,55.0,WI,55127.0,Walworth County,24744.0,78974.0,276700.0,53201.0,74748.0,32561.0,45260.0,42155.0,19237.0,7704.0,824.0,793.0,217.0
356077,County,2020/04/21,55.0,WI,55127.0,Walworth County,24996.0,78722.0,301231.0,62740.0,65829.0,30553.0,49863.0,53691.0,27380.0,8505.0,2038.0,488.0,144.0
360847,County,2020/04/22,55.0,WI,55127.0,Walworth County,25196.0,78522.0,308884.0,70666.0,61322.0,31994.0,51320.0,56025.0,24719.0,10491.0,1890.0,287.0,170.0
364053,County,2020/04/23,55.0,WI,55127.0,Walworth County,23938.0,79780.0,328560.0,73926.0,68231.0,32850.0,53672.0,60579.0,26022.0,10621.0,2093.0,472.0,94.0
365679,County,2020/04/24,55.0,WI,55127.0,Walworth County,24066.0,79652.0,332721.0,74899.0,74069.0,29377.0,55359.0,58600.0,27736.0,10358.0,1609.0,676.0,38.0
370423,County,2020/04/25,55.0,WI,55127.0,Walworth County,25701.0,78017.0,290623.0,64780.0,69478.0,28992.0,48134.0,53932.0,17209.0,5675.0,2059.0,250.0,114.0
373615,County,2020/04/26,55.0,WI,55127.0,Walworth County,26487.0,77231.0,311432.0,77571.0,77717.0,35709.0,48692.0,50155.0,14057.0,5192.0,1873.0,361.0,105.0
375280,County,2020/04/27,55.0,WI,55127.0,Walworth County,25101.0,78617.0,308038.0,69011.0,64811.0,31932.0,47705.0,57736.0,25384.0,9006.0,1936.0,373.0,144.0
378393,County,2020/04/28,55.0,WI,55127.0,Walworth County,23741.0,79977.0,312825.0,72646.0,66702.0,29824.0,49393.0,52327.0,30253.0,8682.0,2345.0,537.0,116.0
383221,County,2020/04/29,55.0,WI,55127.0,Walworth County,25010.0,78708.0,290900.0,60438.0,60766.0,27577.0,47364.0,55708.0,27855.0,8433.0,2316.0,313.0,130.0
386391,County,2020/04/30,55.0,WI,55127.0,Walworth County,23573.0,80145.0,327721.0,75107.0,73687.0,29014.0,50151.0,58906.0,29642.0,8982.0,1699.0,409.0,124.0
388066,County,2020/05/01,55.0,WI,55127.0,Walworth County,22944.0,80774.0,344119.0,78497.0,79991.0,34661.0,52006.0,60194.0,26506.0,10001.0,1931.0,285.0,47.0
391199,County,2020/05/02,55.0,WI,55127.0,Walworth County,24553.0,79165.0,351829.0,94787.0,85191.0,37109.0,56037.0,53524.0,18417.0,4709.0,1817.0,199.0,39.0
395976,County,2020/05/03,55.0,WI,55127.0,Walworth County,25381.0,78337.0,320630.0,75849.0,82832.0,37667.0,53709.0,46286.0,18207.0,4667.0,1074.0,276.0,63.0
397622,County,2020/05/04,55.0,WI,55127.0,Walworth County,23484.0,80234.0,326396.0,74664.0,64293.0,33002.0,52415.0,62344.0,30326.0,7509.0,1433.0,371.0,39.0
400794,County,2020/05/05,55.0,WI,55127.0,Walworth County,23205.0,80513.0,305296.0,61568.0,65072.0,29578.0,50923.0,56233.0,31069.0,8765.0,1625.0,402.0,61.0
403972,County,2020/05/06,55.0,WI,55127.0,Walworth County,24443.0,79275.0,342405.0,83906.0,69606.0,35820.0,48910.0,62426.0,31301.0,7242.0,2335.0,771.0,88.0
408693,County,2020/05/07,55.0,WI,55127.0,Walworth County,23265.0,80453.0,328027.0,76125.0,69442.0,32999.0,48326.0,59081.0,30140.0,9157.0,2100.0,501.0,156.0
411955,County,2020/05/08,55.0,WI,55127.0,Walworth County,22533.0,81185.0,335256.0,76086.0,71332.0,33330.0,54206.0,58154.0,30888.0,8811.0,1693.0,570.0,186.0
415151,County,2020/05/09,55.0,WI,55127.0,Walworth County,24806.0,78912.0,341413.0,78679.0,81674.0,34549.0,57836.0,59148.0,20870.0,6759.0,1359.0,407.0,132.0
416764,County,2020/05/10,55.0,WI,55127.0,Walworth County,27417.0,76301.0,256115.0,49245.0,65700.0,28138.0,42385.0,45886.0,17327.0,5211.0,1472.0,612.0,139.0
420006,County,2020/05/11,55.0,WI,55127.0,Walworth County,20403.0,83315.0,329977.0,77751.0,71312.0,28573.0,53313.0,58878.0,27962.0,9095.0,2473.0,469.0,151.0
423240,County,2020/05/12,55.0,WI,55127.0,Walworth County,19945.0,83773.0,358449.0,83818.0,76034.0,32093.0,57747.0,64321.0,33033.0,8861.0,2013.0,375.0,154.0
426248,County,2020/05/13,55.0,WI,55127.0,Walworth County,19726.0,83992.0,353067.0,85393.0,74957.0,32134.0,52733.0,64063.0,30961.0,9901.0,2216.0,567.0,142.0
429589,County,2020/05/14,55.0,WI,55127.0,Walworth County,20309.0,83409.0,325707.0,72038.0,67696.0,28347.0,50176.0,61157.0,32317.0,9986.0,3384.0,484.0,122.0
434330,County,2020/05/15,55.0,WI,55127.0,Walworth County,18841.0,84877.0,356487.0,87472.0,75467.0,30899.0,56678.0,62823.0,28715.0,8007.0,5771.0,450.0,205.0
435959,County,2020/05/16,55.0,WI,55127.0,Walworth County,21739.0,81979.0,350589.0,84453.0,83109.0,35981.0,57370.0,57943.0,22350.0,6071.0,2599.0,542.0,171.0
440645,County,2020/05/17,55.0,WI,55127.0,Walworth County,23751.0,79967.0,278337.0,61326.0,70125.0,28947.0,46628.0,45167.0,17705.0,5198.0,2662.0,497.0,82.0
440789,County,2020/05/18,55.0,WI,55127.0,Walworth County,16907.0,86811.0,352209.0,75912.0,69435.0,29490.0,59781.0,70351.0,34880.0,8921.0,3024.0,285.0,130.0
447095,County,2020/05/19,55.0,WI,55127.0,Walworth County,18444.0,85274.0,359589.0,78617.0,75636.0,31926.0,57583.0,68150.0,35568.0,8763.0,2939.0,325.0,82.0
450271,County,2020/05/20,55.0,WI,55127.0,Walworth County,17964.0,85754.0,383847.0,90235.0,79356.0,39378.0,57957.0,68330.0,35161.0,10655.0,2135.0,508.0,132.0
453162,County,2020/05/21,55.0,WI,55127.0,Walworth County,16035.0,87683.0,387586.0,83685.0,82482.0,38567.0,59672.0,74739.0,34298.0,9314.0,4305.0,464.0,60.0
455084,County,2020/05/22,55.0,WI,55127.0,Walworth County,15754.0,87964.0,404739.0,98236.0,91307.0,41149.0,61355.0,65067.0,32126.0,10184.0,4882.0,389.0,44.0
459868,County,2020/05/23,55.0,WI,55127.0,Walworth County,17685.0,86033.0,380029.0,94932.0,92021.0,34861.0,62629.0,63676.0,18997.0,6931.0,5472.0,275.0,235.0
463072,County,2020/05/24,55.0,WI,55127.0,Walworth County,21202.0,82516.0,342045.0,90929.0,85649.0,34080.0,51510.0,49980.0,16810.0,6780.0,5767.0,355.0,185.0
464701,County,2020/05/25,55.0,WI,55127.0,Walworth County,21326.0,82392.0,305543.0,74655.0,74979.0,31413.0,46594.0,44259.0,18570.0,9269.0,5004.0,591.0,209.0
467856,County,2020/05/26,55.0,WI,55127.0,Walworth County,18942.0,84776.0,341923.0,75932.0,75191.0,33502.0,53350.0,61245.0,28851.0,10417.0,2634.0,580.0,221.0
471111,County,2020/05/27,55.0,WI,55127.0,Walworth County,18651.0,85067.0,382097.0,91647.0,84302.0,37622.0,56714.0,65862.0,30301.0,10484.0,4520.0,525.0,120.0
474207,County,2020/05/28,55.0,WI,55127.0,Walworth County,19743.0,83975.0,344916.0,79178.0,76207.0,31944.0,54101.0,59503.0,30560.0,10130.0,2725.0,504.0,64.0
477452,County,2020/05/29,55.0,WI,55127.0,Walworth County,21347.0,82371.0,370284.0,88798.0,83699.0,33163.0,55262.0,64929.0,31432.0,10185.0,2269.0,480.0,67.0
482211,County,2020/05/30,55.0,WI,55127.0,Walworth County,21507.0,82211.0,371225.0,91379.0,84074.0,36322.0,60064.0,62507.0,25240.0,8583.0,2393.0,595.0,68.0
485406,County,2020/05/31,55.0,WI,55127.0,Walworth County,21960.0,81758.0,331318.0,79731.0,84236.0,35797.0,49671.0,49976.0,19830.0,8097.0,3110.0,803.0,67.0
487034,County,2020/06/01,55.0,WI,55127.0,Walworth County,19388.0,84330.0,334276.0,74322.0,69984.0,32601.0,53023.0,60798.0,30424.0,9686.0,2626.0,674.0,138.0
491815,County,2020/06/02,55.0,WI,55127.0,Walworth County,19600.0,84118.0,358503.0,82313.0,78068.0,33735.0,54424.0,64127.0,31337.0,9982.0,3398.0,956.0,163.0
494986,County,2020/06/03,55.0,WI,55127.0,Walworth County,17644.0,86074.0,376373.0,90939.0,79875.0,34966.0,55257.0,69242.0,31425.0,9714.0,4007.0,793.0,155.0
496606,County,2020/06/04,55.0,WI,55127.0,Walworth County,18051.0,85667.0,370707.0,84885.0,79264.0,35060.0,54261.0,65728.0,35531.0,11872.0,2866.0,1103.0,137.0
501380,County,2020/06/05,55.0,WI,55127.0,Walworth County,17139.0,86579.0,396562.0,93873.0,87868.0,40101.0,59307.0,69479.0,30395.0,9987.0,4630.0,745.0,177.0
504582,County,2020/06/06,55.0,WI,55127.0,Walworth County,21683.0,82035.0,345338.0,75256.0,82576.0,39131.0,53713.0,59863.0,22499.0,6763.0,4858.0,566.0,113.0
507788,County,2020/06/07,55.0,WI,55127.0,Walworth County,21363.0,82355.0,324278.0,73073.0,82304.0,34585.0,49667.0,52437.0,18965.0,9036.0,3322.0,763.0,126.0
509369,County,2020/06/08,55.0,WI,55127.0,Walworth County,16489.0,87229.0,385764.0,89662.0,86736.0,36945.0,62276.0,66054.0,31212.0,9934.0,2211.0,603.0,131.0
514148,County,2020/06/09,55.0,WI,55127.0,Walworth County,18803.0,84915.0,353742.0,81043.0,77951.0,35156.0,55519.0,61284.0,30990.0,8547.0,2547.0,550.0,155.0
515778,County,2020/06/10,55.0,WI,55127.0,Walworth County,17906.0,85812.0,354152.0,80832.0,77780.0,33101.0,53560.0,63131.0,30708.0,9931.0,4214.0,702.0,193.0
518982,County,2020/06/11,55.0,WI,55127.0,Walworth County,17661.0,86057.0,379015.0,90821.0,80902.0,36922.0,59875.0,62617.0,32005.0,11782.0,3211.0,639.0,241.0
523733,County,2020/06/12,55.0,WI,55127.0,Walworth County,18550.0,85168.0,380207.0,91697.0,84107.0,38302.0,58676.0,61325.0,31139.0,10501.0,3716.0,594.0,150.0
526920,County,2020/06/13,55.0,WI,55127.0,Walworth County,19998.0,83720.0,396989.0,100276.0,92026.0,42347.0,61885.0,61662.0,26226.0,8547.0,3222.0,695.0,103.0
530125,County,2020/06/14,55.0,WI,55127.0,Walworth County,22803.0,80915.0,330708.0,92006.0,73432.0,30183.0,51843.0,51710.0,18716.0,8320.0,3499.0,785.0,214.0
531753,County,2020/06/15,55.0,WI,55127.0,Walworth County,20559.0,83159.0,352338.0,83162.0,74433.0,32017.0,54987.0,63200.0,31208.0,9757.0,2633.0,796.0,145.0
534942,County,2020/06/16,55.0,WI,55127.0,Walworth County,19635.0,84083.0,363358.0,82929.0,81825.0,34586.0,55631.0,65923.0,28256.0,11727.0,1827.0,510.0,144.0
539703,County,2020/06/17,55.0,WI,55127.0,Walworth County,19382.0,84336.0,375266.0,93948.0,80201.0,36292.0,54527.0,66055.0,30587.0,10147.0,3017.0,436.0,56.0
542897,County,2020/06/18,55.0,WI,55127.0,Walworth County,19560.0,84158.0,362664.0,85070.0,77436.0,35227.0,57634.0,63029.0,29771.0,11686.0,2182.0,535.0,94.0
546099,County,2020/06/19,55.0,WI,55127.0,Walworth County,18775.0,84943.0,355126.0,85153.0,76594.0,33248.0,51893.0,61926.0,32595.0,10575.0,2656.0,313.0,173.0
547729,County,2020/06/20,55.0,WI,55127.0,Walworth County,21026.0,82692.0,317710.0,72462.0,71346.0,34495.0,51186.0,52317.0,22803.0,9492.0,2895.0,502.0,212.0
552473,County,2020/06/21,55.0,WI,55127.0,Walworth County,23024.0,80694.0,307802.0,78070.0,69813.0,33169.0,46358.0,47344.0,19330.0,10108.0,2833.0,647.0,130.0
554107,County,2020/06/22,55.0,WI,55127.0,Walworth County,21295.0,82423.0,303575.0,67177.0,62301.0,27219.0,45618.0,56671.0,30539.0,10275.0,2906.0,711.0,158.0
558868,County,2020/06/23,55.0,WI,55127.0,Walworth County,19048.0,84670.0,365078.0,91328.0,74888.0,31957.0,52494.0,63917.0,35643.0,11103.0,2971.0,621.0,156.0
560499,County,2020/06/24,55.0,WI,55127.0,Walworth County,21269.0,82449.0,328388.0,74506.0,70573.0,29441.0,47065.0,65668.0,28662.0,9150.0,2435.0,769.0,119.0
565237,County,2020/06/25,55.0,WI,55127.0,Walworth County,19692.0,84026.0,352882.0,88050.0,77502.0,30393.0,52792.0,59285.0,29389.0,11651.0,2743.0,960.0,117.0
565341,County,2020/06/26,55.0,WI,55127.0,Walworth County,20770.0,82948.0,312814.0,68309.0,66861.0,27472.0,49019.0,57117.0,28994.0,10842.0,3263.0,797.0,140.0
570064,County,2020/06/27,55.0,WI,55127.0,Walworth County,20772.0,82946.0,354317.0,88730.0,81876.0,34842.0,55385.0,57421.0,22743.0,9277.0,3257.0,633.0,153.0
574858,County,2020/06/28,55.0,WI,55127.0,Walworth County,21159.0,82559.0,324165.0,82046.0,72325.0,30563.0,48145.0,50749.0,24769.0,11189.0,3177.0,986.0,216.0
578030,County,2020/06/29,55.0,WI,55127.0,Walworth County,19100.0,84618.0,319947.0,68559.0,65596.0,33966.0,48670.0,57516.0,32056.0,10262.0,2340.0,749.0,233.0
579673,County,2020/06/30,55.0,WI,55127.0,Walworth County,19219.0,84499.0,332639.0,72087.0,69973.0,34188.0,52903.0,57642.0,30961.0,11423.0,2281.0,835.0,346.0
584419,County,2020/07/01,55.0,WI,55127.0,Walworth County,18582.0,85136.0,339636.0,75741.0,70011.0,32774.0,55135.0,62336.0,28401.0,11165.0,2858.0,852.0,363.0
586068,County,2020/07/02,55.0,WI,55127.0,Walworth County,21635.0,82083.0,374550.0,93457.0,82261.0,32259.0,56034.0,62925.0,31194.0,12366.0,2911.0,1019.0,124.0
590807,County,2020/07/03,55.0,WI,55127.0,Walworth County,23961.0,79757.0,311052.0,67924.0,66484.0,27317.0,48743.0,56795.0,28831.0,10781.0,3245.0,793.0,139.0
592454,County,2020/07/04,55.0,WI,55127.0,Walworth County,25054.0,78664.0,266113.0,58111.0,56879.0,23371.0,41701.0,48590.0,24665.0,9223.0,2776.0,678.0,119.0
597210,County,2020/07/05,55.0,WI,55127.0,Walworth County,22392.0,81326.0,291821.0,70528.0,67111.0,30305.0,47820.0,44959.0,16171.0,9741.0,3768.0,1122.0,296.0
598304,County,2020/07/06,55.0,WI,55127.0,Walworth County,22313.0,81405.0,306109.0,69011.0,68794.0,26799.0,46703.0,54633.0,25027.0,11421.0,2619.0,855.0,247.0
602407,County,2020/07/07,55.0,WI,55127.0,Walworth County,21642.0,82076.0,303519.0,66312.0,69835.0,29004.0,43706.0,56396.0,25483.0,9749.0,2094.0,801.0,139.0
605110,County,2020/07/08,55.0,WI,55127.0,Walworth County,21334.0,82384.0,318665.0,76910.0,68952.0,30412.0,47298.0,55624.0,26060.0,9548.0,2526.0,1079.0,256.0
609979,County,2020/07/09,55.0,WI,55127.0,Walworth County,21296.0,82422.0,310986.0,71449.0,69181.0,29052.0,43585.0,56538.0,27248.0,10213.0,2451.0,1036.0,233.0
613185,County,2020/07/10,55.0,WI,55127.0,Walworth County,20837.0,82881.0,329092.0,71402.0,69877.0,29816.0,54381.0,60057.0,29097.0,10788.0,2544.0,796.0,334.0
616352,County,2020/07/11,55.0,WI,55127.0,Walworth County,22898.0,80820.0,312755.0,75880.0,71510.0,30934.0,47036.0,55105.0,19351.0,9161.0,2938.0,577.0,263.0
617985,County,2020/07/12,55.0,WI,55127.0,Walworth County,24020.0,79698.0,295204.0,77140.0,64196.0,26485.0,48649.0,44509.0,20140.0,8789.0,3686.0,1368.0,242.0
621174,County,2020/07/13,55.0,WI,55127.0,Walworth County,21428.0,82290.0,315246.0,73735.0,68469.0,29423.0,46384.0,55094.0,27013.0,11208.0,2589.0,1072.0,259.0
624375,County,2020/07/14,55.0,WI,55127.0,Walworth County,22217.0,81501.0,312731.0,70060.0,66030.0,32355.0,46009.0,58461.0,27216.0,9714.0,2167.0,504.0,215.0
629161,County,2020/07/15,55.0,WI,55127.0,Walworth County,21974.0,81744.0,299710.0,63408.0,63458.0,30278.0,47149.0,57091.0,26997.0,8546.0,1977.0,618.0,188.0
630738,County,2020/07/16,55.0,WI,55127.0,Walworth County,21631.0,82087.0,327704.0,75369.0,68663.0,32088.0,50556.0,59921.0,27708.0,10459.0,2283.0,538.0,119.0
635523,County,2020/07/17,55.0,WI,55127.0,Walworth County,22456.0,81262.0,314558.0,69951.0,68564.0,28632.0,49229.0,58169.0,26296.0,10074.0,2840.0,628.0,175.0
638725,County,2020/07/18,55.0,WI,55127.0,Walworth County,24476.0,79242.0,292949.0,68790.0,66706.0,30306.0,46288.0,47162.0,21570.0,9467.0,2037.0,471.0,152.0
641929,County,2020/07/19,55.0,WI,55127.0,Walworth County,24649.0,79069.0,273438.0,63074.0,62228.0,30038.0,43426.0,42045.0,18888.0,9359.0,3438.0,737.0,205.0
643539,County,2020/07/20,55.0,WI,55127.0,Walworth County,22472.0,81246.0,321597.0,71138.0,69797.0,32439.0,47556.0,57309.0,30203.0,10221.0,2059.0,755.0,120.0
647108,County,2020/07/21,55.0,WI,55127.0,Walworth County,21484.0,82234.0,327031.0,74220.0,67562.0,31643.0,48928.0,62295.0,29133.0,10071.0,2256.0,720.0,203.0
649398,County,2020/07/22,55.0,WI,55127.0,Walworth County,21139.0,82579.0,329789.0,77665.0,70166.0,29509.0,49111.0,59346.0,30360.0,10170.0,2671.0,564.0,227.0
653036,County,2020/07/23,55.0,WI,55127.0,Walworth County,21548.0,82170.0,325429.0,75897.0,70318.0,30812.0,46421.0,59236.0,29838.0,9707.0,2341.0,633.0,226.0
656158,County,2020/07/24,55.0,WI,55127.0,Walworth County,21064.0,82654.0,336050.0,81284.0,66235.0,28120.0,52008.0,65073.0,30111.0,9690.0,2696.0,629.0,204.0
659575,County,2020/07/25,55.0,WI,55127.0,Walworth County,23042.0,80676.0,321096.0,78295.0,73995.0,30891.0,49533.0,52701.0,23273.0,9591.0,2088.0,525.0,204.0
662703,County,2020/07/26,55.0,WI,55127.0,Walworth County,23214.0,80504.0,313822.0,72337.0,65787.0,30638.0,49149.0,52514.0,25411.0,12639.0,4170.0,896.0,281.0
667483,County,2020/07/27,55.0,WI,55127.0,Walworth County,22368.0,81350.0,327890.0,73909.0,66014.0,27246.0,50180.0,63366.0,31730.0,11372.0,3083.0,709.0,281.0
669160,County,2020/07/28,55.0,WI,55127.0,Walworth County,20670.0,83048.0,332133.0,74349.0,67180.0,30335.0,48789.0,66491.0,30316.0,11039.0,2693.0,688.0,253.0
673851,County,2020/07/29,55.0,WI,55127.0,Walworth County,22159.0,81559.0,341270.0,78424.0,69846.0,31243.0,48971.0,64898.0,31592.0,12668.0,2616.0,639.0,373.0
675479,County,2020/07/30,55.0,WI,55127.0,Walworth County,20950.0,82768.0,349943.0,79581.0,71320.0,32211.0,51537.0,68276.0,30518.0,12121.0,3303.0,796.0,280.0
680257,County,2020/07/31,55.0,WI,55127.0,Walworth County,21717.0,82001.0,331868.0,70572.0,71112.0,29579.0,50622.0,64034.0,28991.0,12433.0,3438.0,703.0,384.0
681838,County,2020/08/01,55.0,WI,55127.0,Walworth County,23964.0,79754.0,311801.0,70309.0,72956.0,30940.0,46655.0,50385.0,26223.0,10384.0,2894.0,764.0,291.0
685060,County,2020/08/02,55.0,WI,55127.0,Walworth County,23523.0,80195.0,314434.0,75106.0,69226.0,27527.0,49831.0,52827.0,24186.0,10970.0,3825.0,682.0,254.0
688257,County,2020/08/03,55.0,WI,55127.0,Walworth County,22232.0,81486.0,314027.0,66048.0,69702.0,24618.0,44552.0,60728.0,33292.0,12216.0,2131.0,465.0,275.0
693032,County,2020/08/04,55.0,WI,55127.0,Walworth County,21274.0,82444.0,346983.0,79944.0,70712.0,30433.0,53541.0,67179.0,32511.0,9877.0,2264.0,341.0,181.0
694660,County,2020/08/05,55.0,WI,55127.0,Walworth County,21173.0,82545.0,359820.0,89306.0,71306.0,33109.0,53263.0,68890.0,30979.0,9703.0,2795.0,304.0,165.0
699403,County,2020/08/06,55.0,WI,55127.0,Walworth County,20933.0,82785.0,348742.0,82172.0,71364.0,29172.0,52716.0,65271.0,34853.0,9821.0,2844.0,317.0,212.0
702599,County,2020/08/07,55.0,WI,55127.0,Walworth County,21048.0,82670.0,349241.0,84915.0,71312.0,30679.0,52332.0,62453.0,33293.0,11282.0,2538.0,257.0,180.0
704228,County,2020/08/08,55.0,WI,55127.0,Walworth County,22690.0,81028.0,340346.0,90182.0,72015.0,27937.0,54229.0,57397.0,24893.0,9976.0,3053.0,491.0,173.0
707418,County,2020/08/09,55.0,WI,55127.0,Walworth County,23074.0,80644.0,332807.0,85401.0,71806.0,30884.0,53797.0,50066.0,24043.0,11206.0,4536.0,874.0,194.0
712179,County,2020/08/10,55.0,WI,55127.0,Walworth County,21608.0,82110.0,332487.0,75821.0,64096.0,31066.0,51326.0,60565.0,33273.0,12889.0,2765.0,545.0,141.0
713856,County,2020/08/11,55.0,WI,55127.0,Walworth County,22001.0,81717.0,365059.0,82055.0,77784.0,33040.0,56069.0,68721.0,33414.0,10764.0,2542.0,514.0,156.0
716904,County,2020/08/12,55.0,WI,55127.0,Walworth County,20935.0,82783.0,355452.0,80965.0,72959.0,33315.0,55478.0,64473.0,33013.0,10992.0,3128.0,726.0,403.0
720196,County,2020/08/13,55.0,WI,55127.0,Walworth County,20106.0,83612.0,362989.0,86124.0,72832.0,34148.0,52587.0,65492.0,34689.0,12310.0,3362.0,971.0,474.0
723388,County,2020/08/14,55.0,WI,55127.0,Walworth County,19796.0,83922.0,368601.0,79992.0,72448.0,34213.0,58659.0,69533.0,35468.0,12814.0,3900.0,921.0,653.0
728149,County,2020/08/15,55.0,WI,55127.0,Walworth County,21095.0,82623.0,367268.0,90772.0,80491.0,33890.0,59963.0,61238.0,27246.0,9046.0,3213.0,796.0,613.0
729778,County,2020/08/16,55.0,WI,55127.0,Walworth County,23239.0,80479.0,333660.0,80834.0,69029.0,30586.0,52889.0,51207.0,28084.0,13137.0,5531.0,1636.0,727.0
734558,County,2020/08/17,55.0,WI,55127.0,Walworth County,22777.0,80941.0,354064.0,82198.0,75845.0,30280.0,53879.0,61916.0,31336.0,12905.0,3731.0,1002.0,972.0
737730,County,2020/08/18,55.0,WI,55127.0,Walworth County,21398.0,82320.0,342348.0,74106.0,69251.0,29758.0,53825.0,65693.0,34008.0,11065.0,2655.0,1035.0,952.0
740925,County,2020/08/19,55.0,WI,55127.0,Walworth County,20637.0,83081.0,350104.0,79233.0,70394.0,29661.0,53243.0,66980.0,32717.0,12256.0,3709.0,952.0,959.0
744124,County,2020/08/20,55.0,WI,55127.0,Walworth County,19335.0,84383.0,363308.0,83098.0,73824.0,34932.0,52825.0,66361.0,34135.0,13301.0,3005.0,978.0,849.0
747329,County,2020/08/21,55.0,WI,55127.0,Walworth County,19011.0,84707.0,394447.0,93032.0,79435.0,38363.0,59940.0,71309.0,33586.0,13040.0,4118.0,831.0,793.0
750534,County,2020/08/22,55.0,WI,55127.0,Walworth County,20957.0,82761.0,360466.0,85898.0,79785.0,36036.0,53218.0,63091.0,25833.0,10946.0,3433.0,1343.0,883.0
753707,County,2020/08/23,55.0,WI,55127.0,Walworth County,24700.0,79018.0,280804.0,71355.0,54632.0,25773.0,44277.0,45530.0,22699.0,10758.0,3750.0,1255.0,775.0
756895,County,2020/08/24,55.0,WI,55127.0,Walworth County,24038.0,79680.0,303615.0,69103.0,63867.0,25467.0,44239.0,56360.0,29104.0,11840.0,2166.0,833.0,636.0
758524,County,2020/08/25,55.0,WI,55127.0,Walworth County,22000.0,81718.0,303255.0,59597.0,60515.0,29334.0,48355.0,62434.0,29561.0,9735.0,2183.0,967.0,574.0
763295,County,2020/08/26,55.0,WI,55127.0,Walworth County,22858.0,80860.0,302317.0,59878.0,65415.0,27103.0,50212.0,56055.0,29130.0,10408.0,3042.0,605.0,469.0
766496,County,2020/08/27,55.0,WI,55127.0,Walworth County,22932.0,80786.0,316957.0,68704.0,64281.0,28106.0,51016.0,60417.0,30208.0,10665.0,2659.0,521.0,380.0
768081,County,2020/08/28,55.0,WI,55127.0,Walworth County,21795.0,81923.0,325275.0,66343.0,71076.0,28978.0,50757.0,60312.0,32340.0,10502.0,3808.0,733.0,426.0
772858,County,2020/08/29,55.0,WI,55127.0,Walworth County,24309.0,79409.0,334681.0,84613.0,72962.0,31133.0,52105.0,54311.0,26321.0,9031.0,3152.0,630.0,423.0
774532,County,2020/08/30,55.0,WI,55127.0,Walworth County,25194.0,78524.0,309182.0,76407.0,70197.0,28747.0,46843.0,50079.0,19361.0,11166.0,5013.0,958.0,411.0
779253,County,2020/08/31,55.0,WI,55127.0,Walworth County,23082.0,80636.0,320040.0,77273.0,68741.0,27189.0,48506.0,53738.0,29834.0,10685.0,2610.0,1016.0,448.0
780866,County,2020/09/01,55.0,WI,55127.0,Walworth County,23844.0,79874.0,338915.0,79387.0,73277.0,29586.0,51627.0,61848.0,31427.0,8886.0,2100.0,517.0,260.0
785641,County,2020/09/02,55.0,WI,55127.0,Walworth County,23183.0,80535.0,350683.0,82317.0,76285.0,32114.0,52773.0,63887.0,30777.0,9314.0,2155.0,718.0,343.0
788850,County,2020/09/03,55.0,WI,55127.0,Walworth County,20865.0,82853.0,369310.0,92589.0,78062.0,30441.0,55571.0,64967.0,33105.0,10056.0,3381.0,718.0,420.0
792029,County,2020/09/04,55.0,WI,55127.0,Walworth County,22283.0,81435.0,355127.0,84727.0,72817.0,31812.0,51496.0,64987.0,31959.0,12068.0,4105.0,767.0,389.0
795225,County,2020/09/05,55.0,WI,55127.0,Walworth County,23335.0,80383.0,366445.0,96729.0,81638.0,34276.0,56294.0,56906.0,25772.0,10332.0,3518.0,615.0,365.0
798428,County,2020/09/06,55.0,WI,55127.0,Walworth County,25667.0,78051.0,298212.0,75046.0,69799.0,24904.0,42827.0,49932.0,21478.0,9435.0,3553.0,864.0,374.0
801638,County,2020/09/07,55.0,WI,55127.0,Walworth County,26703.0,77015.0,291772.0,74581.0,65252.0,26957.0,43630.0,43286.0,23337.0,8935.0,4347.0,1008.0,439.0
804805,County,2020/09/08,55.0,WI,55127.0,Walworth County,24619.0,79099.0,344309.0,87072.0,76328.0,28282.0,47213.0,58685.0,31631.0,11151.0,2974.0,590.0,383.0
806434,County,2020/09/09,55.0,WI,55127.0,Walworth County,23653.0,80065.0,330661.0,68413.0,71066.0,32795.0,50411.0,61554.0,31039.0,10712.0,3365.0,887.0,419.0
811202,County,2020/09/10,55.0,WI,55127.0,Walworth County,23346.0,80372.0,322284.0,68423.0,64585.0,30426.0,49007.0,61301.0,32069.0,12257.0,3091.0,657.0,468.0
814387,County,2020/09/11,55.0,WI,55127.0,Walworth County,22060.0,81658.0,351187.0,82619.0,73754.0,31127.0,51908.0,63359.0,31278.0,12113.0,4005.0,698.0,326.0
816017,County,2020/09/12,55.0,WI,55127.0,Walworth County,25508.0,78210.0,306438.0,68856.0,70184.0,30938.0,46924.0,51551.0,23207.0,9961.0,3822.0,619.0,376.0
819188,County,2020/09/13,55.0,WI,55127.0,Walworth County,26184.0,77534.0,282580.0,51777.0,73128.0,25219.0,45623.0,46699.0,23226.0,12223.0,3529.0,702.0,454.0
823970,County,2020/09/14,55.0,WI,55127.0,Walworth County,24482.0,79236.0,329533.0,64531.0,72596.0,28873.0,53812.0,62985.0,33220.0,9980.0,2625.0,583.0,328.0
825598,County,2020/09/15,55.0,WI,55127.0,Walworth County,24335.0,79383.0,336990.0,76478.0,71783.0,29660.0,50279.0,62628.0,32198.0,10934.0,2146.0,620.0,264.0
828839,County,2020/09/16,55.0,WI,55127.0,Walworth County,23803.0,79915.0,334294.0,72442.0,67100.0,32632.0,51673.0,63158.0,34124.0,10267.0,1960.0,491.0,447.0
831984,County,2020/09/17,55.0,WI,55127.0,Walworth County,23396.0,80322.0,349049.0,75380.0,71732.0,30478.0,55514.0,66919.0,35647.0,10139.0,2290.0,623.0,327.0
836745,County,2020/09/18,55.0,WI,55127.0,Walworth County,22915.0,80803.0,342202.0,71816.0,71725.0,30265.0,54400.0,64190.0,34129.0,11126.0,3639.0,573.0,339.0
838374,County,2020/09/19,55.0,WI,55127.0,Walworth County,24745.0,78973.0,365316.0,84016.0,77610.0,31590.0,60045.0,68576.0,29912.0,10351.0,2210.0,649.0,357.0
843149,County,2020/09/20,55.0,WI,55127.0,Walworth County,24620.0,79098.0,293854.0,69507.0,62960.0,30328.0,47884.0,44202.0,22949.0,11372.0,3197.0,1231.0,224.0
846353,County,2020/09/21,55.0,WI,55127.0,Walworth County,24464.0,79254.0,308417.0,64531.0,66812.0,31457.0,45811.0,58790.0,29412.0,9013.0,1976.0,528.0,87.0
849521,County,2020/09/22,55.0,WI,55127.0,Walworth County,22820.0,80898.0,325866.0,70073.0,65828.0,29381.0,52571.0,63309.0,32579.0,9591.0,2006.0,419.0,109.0
851149,County,2020/09/23,55.0,WI,55127.0,Walworth County,21745.0,81973.0,336780.0,74596.0,70643.0,32149.0,52920.0,63528.0,31815.0,8453.0,2090.0,506.0,80.0
855915,County,2020/09/24,55.0,WI,55127.0,Walworth County,21076.0,82642.0,327381.0,68548.0,71377.0,30925.0,50325.0,62718.0,31229.0,8848.0,2556.0,700.0,155.0
857544,County,2020/09/25,55.0,WI,55127.0,Walworth County,20432.0,83286.0,352225.0,78547.0,72727.0,31748.0,56560.0,64167.0,33449.0,10592.0,3656.0,666.0,113.0
860730,County,2020/09/26,55.0,WI,55127.0,Walworth County,22605.0,81113.0,345253.0,77881.0,76959.0,32352.0,54430.0,62074.0,31308.0,7394.0,2410.0,354.0,91.0
863902,County,2020/09/27,55.0,WI,55127.0,Walworth County,24612.0,79106.0,295899.0,67047.0,66125.0,28050.0,47715.0,48075.0,23321.0,10349.0,4430.0,661.0,126.0
868685,County,2020/09/28,55.0,WI,55127.0,Walworth County,22768.0,80950.0,310401.0,69914.0,64586.0,29537.0,46369.0,56461.0,32671.0,8666.0,1615.0,456.0,126.0
870313,County,2020/09/29,55.0,WI,55127.0,Walworth County,22696.0,81022.0,320087.0,64971.0,68654.0,29169.0,49305.0,63245.0,32878.0,9790.0,1588.0,380.0,107.0
875092,County,2020/09/30,55.0,WI,55127.0,Walworth County,23163.0,80555.0,335972.0,72805.0,68445.0,30330.0,50584.0,64276.0,34349.0,12785.0,1920.0,398.0,80.0
878295,County,2020/10/01,55.0,WI,55127.0,Walworth County,21718.0,82000.0,319720.0,65293.0,68683.0,27595.0,49939.0,61746.0,32737.0,11033.0,2076.0,460.0,158.0
881461,County,2020/10/02,55.0,WI,55127.0,Walworth County,22349.0,81369.0,325466.0,66262.0,68699.0,29105.0,53444.0,61124.0,31618.0,11401.0,3202.0,521.0,90.0
884656,County,2020/10/03,55.0,WI,55127.0,Walworth County,24761.0,78957.0,322008.0,67709.0,71252.0,31815.0,53672.0,58633.0,25767.0,10057.0,2657.0,364.0,82.0
887783,County,2020/10/04,55.0,WI,55127.0,Walworth County,26275.0,77443.0,277878.0,60790.0,55160.0,27768.0,47224.0,48324.0,25462.0,8308.0,4019.0,670.0,153.0
891029,County,2020/10/05,55.0,WI,55127.0,Walworth County,25547.0,78171.0,309239.0,61623.0,68263.0,26621.0,47436.0,61221.0,30120.0,11286.0,2112.0,432.0,125.0
894212,County,2020/10/06,55.0,WI,55127.0,Walworth County,23527.0,80191.0,334773.0,66103.0,74022.0,32780.0,52695.0,61676.0,33262.0,11737.0,2100.0,308.0,90.0
897412,County,2020/10/07,55.0,WI,55127.0,Walworth County,22031.0,81687.0,344161.0,68612.0,75991.0,30198.0,55433.0,64965.0,33858.0,13255.0,1560.0,213.0,76.0
900566,County,2020/10/08,55.0,WI,55127.0,Walworth County,23061.0,80657.0,328575.0,68745.0,73228.0,30133.0,47220.0,59862.0,35853.0,10999.0,2194.0,236.0,105.0
903807,County,2020/10/09,55.0,WI,55127.0,Walworth County,23304.0,80414.0,349802.0,75779.0,70784.0,33722.0,51115.0,64033.0,37624.0,13157.0,3220.0,304.0,64.0
907030,County,2020/10/10,55.0,WI,55127.0,Walworth County,25242.0,78476.0,363703.0,91957.0,77777.0,34475.0,55411.0,59318.0,31230.0,10860.0,2360.0,235.0,80.0
907662,County,2020/10/11,55.0,WI,55127.0,Walworth County,26167.0,77551.0,289998.0,59859.0,68147.0,27404.0,46609.0,49748.0,21638.0,11801.0,4249.0,484.0,59.0
910634,County,2020/10/12,55.0,WI,55127.0,Walworth County,23747.0,79971.0,311742.0,65227.0,62521.0,27241.0,49283.0,58818.0,33400.0,12588.0,2212.0,379.0,73.0
914342,County,2020/10/13,55.0,WI,55127.0,Walworth County,22233.0,81485.0,325155.0,67170.0,68733.0,30962.0,51049.0,59543.0,32662.0,12614.0,1914.0,392.0,116.0
916772,County,2020/10/14,55.0,WI,55127.0,Walworth County,21941.0,81777.0,332334.0,67578.0,64575.0,31828.0,53262.0,67861.0,32667.0,11439.0,2613.0,413.0,98.0
920001,County,2020/10/15,55.0,WI,55127.0,Walworth County,22649.0,81069.0,309385.0,61429.0,63138.0,29093.0,46492.0,60654.0,33490.0,12487.0,1970.0,515.0,117.0
923161,County,2020/10/16,55.0,WI,55127.0,Walworth County,21144.0,82574.0,338631.0,67193.0,71773.0,29475.0,50896.0,68698.0,34741.0,12297.0,2959.0,499.0,100.0
926395,County,2020/10/17,55.0,WI,55127.0,Walworth County,24074.0,79644.0,324316.0,67634.0,66959.0,33248.0,50729.0,60875.0,30276.0,11939.0,2049.0,511.0,96.0
929480,County,2020/10/18,55.0,WI,55127.0,Walworth County,25854.0,77864.0,280320.0,62781.0,56567.0,25738.0,46479.0,48868.0,24949.0,11468.0,2922.0,460.0,88.0
932709,County,2020/10/19,55.0,WI,55127.0,Walworth County,22905.0,80813.0,332176.0,68710.0,70666.0,33221.0,53592.0,59964.0,32366.0,11246.0,1989.0,346.0,76.0
935885,County,2020/10/20,55.0,WI,55127.0,Walworth County,22947.0,80771.0,319934.0,66216.0,67013.0,26927.0,52747.0,59106.0,34694.0,11157.0,1616.0,373.0,85.0
939129,County,2020/10/21,55.0,WI,55127.0,Walworth County,23563.0,80155.0,318637.0,63141.0,72184.0,28527.0,47720.0,59431.0,33455.0,11572.0,2028.0,487.0,92.0
942333,County,2020/10/22,55.0,WI,55127.0,Walworth County,22427.0,81291.0,328026.0,68138.0,69504.0,29982.0,54882.0,59069.0,31729.0,11726.0,2568.0,324.0,104.0
945431,County,2020/10/23,55.0,WI,55127.0,Walworth County,21633.0,82085.0,343333.0,74215.0,69976.0,30941.0,57093.0,62663.0,32877.0,13018.0,1964.0,497.0,89.0
948854,County,2020/10/24,55.0,WI,55127.0,Walworth County,24406.0,79312.0,351495.0,76893.0,75514.0,34854.0,59201.0,60409.0,30982.0,10582.0,2640.0,371.0,49.0
