,Level,Date,State FIPS,State Postal Code,County FIPS,County Name,Population Staying at Home,Population Not Staying at Home,Number of Trips,Number of Trips <1,Number of Trips 1-3,Number of Trips 3-5,Number of Trips 5-10,Number of Trips 10-25,Number of Trips 25-50,Number of Trips 50-100,Number of Trips 100-250,Number of Trips 250-500,Number of Trips >=500
2805,County,2020/01/01,50.0,VT,50001.0,Addison County,8473.0,28500.0,105272.0,22392.0,24542.0,11393.0,16045.0,19212.0,7988.0,3115.0,370.0,36.0,179.0
4220,County,2020/01/02,50.0,VT,50001.0,Addison County,7000.0,29973.0,146772.0,31825.0,34936.0,18759.0,20626.0,28820.0,9179.0,1937.0,565.0,75.0,50.0
8932,County,2020/01/03,50.0,VT,50001.0,Addison County,6911.0,30062.0,153214.0,30883.0,36080.0,16627.0,25962.0,32150.0,9184.0,1773.0,381.0,29.0,145.0
10368,County,2020/01/04,50.0,VT,50001.0,Addison County,8085.0,28888.0,132154.0,24706.0,33560.0,12935.0,26398.0,24752.0,7213.0,2014.0,371.0,132.0,73.0
15581,County,2020/01/05,50.0,VT,50001.0,Addison County,8356.0,28617.0,127692.0,30293.0,30895.0,14824.0,17526.0,21274.0,10481.0,1701.0,496.0,76.0,126.0
17403,County,2020/01/06,50.0,VT,50001.0,Addison County,6878.0,30095.0,155397.0,35963.0,37137.0,20376.0,21160.0,29416.0,9328.0,1517.0,276.0,44.0,180.0
20561,County,2020/01/07,50.0,VT,50001.0,Addison County,6845.0,30128.0,150442.0,30369.0,37294.0,17894.0,21597.0,29352.0,11538.0,1882.0,200.0,80.0,236.0
23840,County,2020/01/08,50.0,VT,50001.0,Addison County,7119.0,29854.0,147332.0,33393.0,35492.0,13843.0,24096.0,28392.0,9757.0,1853.0,309.0,14.0,183.0
28540,County,2020/01/09,50.0,VT,50001.0,Addison County,7093.0,29880.0,156021.0,34435.0,44166.0,17828.0,21028.0,26580.0,9813.0,1650.0,405.0,41.0,75.0
30133,County,2020/01/10,50.0,VT,50001.0,Addison County,6726.0,30247.0,169650.0,37044.0,46666.0,17972.0,24398.0,30513.0,10377.0,2135.0,383.0,77.0,85.0
33424,County,2020/01/11,50.0,VT,50001.0,Addison County,7657.0,29316.0,145220.0,29067.0,34837.0,19988.0,24938.0,25484.0,8433.0,1827.0,479.0,57.0,110.0
38062,County,2020/01/12,50.0,VT,50001.0,Addison County,8399.0,28574.0,129670.0,27587.0,36295.0,11253.0,21065.0,23283.0,8497.0,1184.0,345.0,50.0,111.0
41307,County,2020/01/13,50.0,VT,50001.0,Addison County,7667.0,29306.0,157019.0,39236.0,37108.0,19076.0,23583.0,27505.0,8285.0,1800.0,331.0,30.0,65.0
44506,County,2020/01/14,50.0,VT,50001.0,Addison County,6689.0,30284.0,154462.0,34779.0,40608.0,15747.0,22522.0,29623.0,9135.0,1661.0,255.0,41.0,91.0
46087,County,2020/01/15,50.0,VT,50001.0,Addison County,7423.0,29550.0,135618.0,26781.0,33982.0,14754.0,22784.0,27661.0,7696.0,1626.0,250.0,40.0,44.0
50868,County,2020/01/16,50.0,VT,50001.0,Addison County,7170.0,29803.0,151967.0,34650.0,41400.0,18605.0,23096.0,25568.0,7104.0,1002.0,390.0,65.0,87.0
52495,County,2020/01/17,50.0,VT,50001.0,Addison County,6863.0,30110.0,163211.0,35519.0,46455.0,15357.0,24568.0,31656.0,6853.0,2371.0,310.0,51.0,71.0
57278,County,2020/01/18,50.0,VT,50001.0,Addison County,7557.0,29416.0,132250.0,24124.0,35112.0,12471.0,22757.0,24180.0,10885.0,1960.0,571.0,29.0,161.0
60476,County,2020/01/19,50.0,VT,50001.0,Addison County,8458.0,28515.0,126733.0,24902.0,31770.0,15605.0,21206.0,22346.0,8391.0,1884.0,458.0,81.0,90.0
63638,County,2020/01/20,50.0,VT,50001.0,Addison County,7521.0,29452.0,142609.0,31657.0,33794.0,16699.0,20360.0,29409.0,8403.0,1617.0,524.0,84.0,62.0
66836,County,2020/01/21,50.0,VT,50001.0,Addison County,7261.0,29712.0,135917.0,28093.0,31641.0,14658.0,22240.0,28613.0,8685.0,1514.0,319.0,52.0,102.0
68467,County,2020/01/22,50.0,VT,50001.0,Addison County,6896.0,30077.0,149382.0,31031.0,33087.0,16581.0,24713.0,29304.0,11730.0,2459.0,398.0,0.0,79.0
73259,County,2020/01/23,50.0,VT,50001.0,Addison County,7040.0,29933.0,150696.0,31266.0,38472.0,13601.0,20399.0,32586.0,12536.0,1387.0,404.0,0.0,45.0
74847,County,2020/01/24,50.0,VT,50001.0,Addison County,6882.0,30091.0,157672.0,29466.0,39902.0,18183.0,25157.0,30764.0,10620.0,2995.0,448.0,25.0,112.0
79601,County,2020/01/25,50.0,VT,50001.0,Addison County,7322.0,29651.0,138645.0,27511.0,33090.0,15329.0,20540.0,27044.0,10792.0,3870.0,308.0,55.0,106.0
82655,County,2020/01/26,50.0,VT,50001.0,Addison County,7721.0,29252.0,122774.0,23111.0,30149.0,15735.0,18453.0,24501.0,8385.0,1573.0,662.0,54.0,151.0
83382,County,2020/01/27,50.0,VT,50001.0,Addison County,6940.0,30033.0,155165.0,38591.0,36946.0,19257.0,22540.0,26046.0,10244.0,875.0,510.0,74.0,82.0
88218,County,2020/01/28,50.0,VT,50001.0,Addison County,6988.0,29985.0,151664.0,34139.0,37245.0,15426.0,21230.0,30474.0,11290.0,1245.0,508.0,78.0,29.0
92420,County,2020/01/29,50.0,VT,50001.0,Addison County,6995.0,29978.0,150322.0,34467.0,31990.0,18184.0,22294.0,29407.0,11805.0,1715.0,309.0,38.0,113.0
94145,County,2020/01/30,50.0,VT,50001.0,Addison County,7005.0,29968.0,149410.0,33902.0,36957.0,14842.0,18624.0,31392.0,11068.0,1591.0,611.0,248.0,175.0
98820,County,2020/01/31,50.0,VT,50001.0,Addison County,6659.0,30314.0,151603.0,28746.0,38955.0,16228.0,23383.0,30021.0,11199.0,1816.0,916.0,218.0,121.0
100449,County,2020/02/01,50.0,VT,50001.0,Addison County,7269.0,29704.0,140616.0,26945.0,32573.0,14707.0,23554.0,28792.0,9509.0,3410.0,926.0,133.0,67.0
103578,County,2020/02/02,50.0,VT,50001.0,Addison County,7983.0,28990.0,120459.0,21386.0,33646.0,13596.0,17729.0,23280.0,7927.0,1900.0,626.0,141.0,228.0
108412,County,2020/02/03,50.0,VT,50001.0,Addison County,6889.0,30084.0,148818.0,29773.0,35405.0,14056.0,24554.0,32134.0,10141.0,1742.0,762.0,113.0,138.0
111548,County,2020/02/04,50.0,VT,50001.0,Addison County,7001.0,29972.0,154889.0,35682.0,35784.0,15425.0,23936.0,30131.0,10752.0,1991.0,946.0,115.0,127.0
114751,County,2020/02/05,50.0,VT,50001.0,Addison County,7139.0,29834.0,151336.0,32589.0,35601.0,16591.0,21648.0,28952.0,12693.0,2020.0,975.0,87.0,180.0
116320,County,2020/02/06,50.0,VT,50001.0,Addison County,7393.0,29580.0,151433.0,38915.0,35490.0,16808.0,20627.0,28367.0,8182.0,1944.0,789.0,119.0,192.0
121212,County,2020/02/07,50.0,VT,50001.0,Addison County,8749.0,28224.0,153582.0,45315.0,38103.0,18392.0,20234.0,21155.0,7051.0,2198.0,872.0,110.0,152.0
122831,County,2020/02/08,50.0,VT,50001.0,Addison County,7560.0,29413.0,155792.0,36645.0,42560.0,15883.0,24428.0,23764.0,9788.0,1669.0,762.0,68.0,225.0
126821,County,2020/02/09,50.0,VT,50001.0,Addison County,7671.0,29302.0,105025.0,23735.0,21679.0,9275.0,15747.0,19509.0,11079.0,1784.0,1322.0,420.0,475.0
127971,County,2020/02/10,50.0,VT,50001.0,Addison County,6099.0,30874.0,135723.0,31330.0,28787.0,12162.0,19681.0,26894.0,13034.0,1937.0,1190.0,374.0,334.0
133481,County,2020/02/11,50.0,VT,50001.0,Addison County,6025.0,30948.0,133750.0,27131.0,32505.0,11128.0,19912.0,27414.0,10943.0,2795.0,1086.0,443.0,393.0
137120,County,2020/02/12,50.0,VT,50001.0,Addison County,5598.0,31375.0,131668.0,25793.0,27624.0,12239.0,19885.0,28802.0,12832.0,2248.0,1188.0,588.0,469.0
138764,County,2020/02/13,50.0,VT,50001.0,Addison County,5921.0,31052.0,130846.0,25679.0,36020.0,10983.0,18969.0,23256.0,11107.0,2286.0,1074.0,844.0,628.0
141823,County,2020/02/14,50.0,VT,50001.0,Addison County,5899.0,31074.0,130678.0,25221.0,28638.0,9590.0,17728.0,29452.0,13409.0,3190.0,1859.0,954.0,637.0
146701,County,2020/02/15,50.0,VT,50001.0,Addison County,6040.0,30933.0,117876.0,22828.0,22932.0,11224.0,15840.0,27363.0,11911.0,2753.0,1619.0,873.0,533.0
149903,County,2020/02/16,50.0,VT,50001.0,Addison County,6731.0,30242.0,118988.0,22035.0,27014.0,11661.0,19521.0,21150.0,11623.0,2701.0,1871.0,859.0,553.0
151534,County,2020/02/17,50.0,VT,50001.0,Addison County,7810.0,29163.0,114770.0,23806.0,25936.0,11193.0,16677.0,23469.0,10533.0,1373.0,1022.0,376.0,385.0
154647,County,2020/02/18,50.0,VT,50001.0,Addison County,6155.0,30818.0,131554.0,28659.0,28984.0,14675.0,17447.0,27089.0,10229.0,2133.0,1342.0,463.0,533.0
159457,County,2020/02/19,50.0,VT,50001.0,Addison County,5944.0,31029.0,142039.0,29106.0,35453.0,14961.0,19407.0,27268.0,12178.0,2043.0,1005.0,309.0,309.0
162701,County,2020/02/20,50.0,VT,50001.0,Addison County,6619.0,30354.0,143208.0,30758.0,32224.0,12819.0,22498.0,29239.0,12518.0,1842.0,1034.0,159.0,117.0
165846,County,2020/02/21,50.0,VT,50001.0,Addison County,6689.0,30284.0,150039.0,30293.0,37618.0,13519.0,23283.0,29144.0,12803.0,1813.0,1252.0,105.0,209.0
169040,County,2020/02/22,50.0,VT,50001.0,Addison County,6362.0,30611.0,131008.0,25016.0,32792.0,12164.0,18020.0,27260.0,12377.0,1992.0,871.0,239.0,277.0
172239,County,2020/02/23,50.0,VT,50001.0,Addison County,7651.0,29322.0,119747.0,23045.0,26702.0,12376.0,19525.0,22565.0,11595.0,2656.0,967.0,130.0,186.0
173865,County,2020/02/24,50.0,VT,50001.0,Addison County,5872.0,31101.0,137670.0,30828.0,30169.0,15011.0,18009.0,26369.0,14057.0,1482.0,1097.0,373.0,275.0
178476,County,2020/02/25,50.0,VT,50001.0,Addison County,5494.0,31479.0,139799.0,25709.0,34104.0,14048.0,21831.0,27402.0,12566.0,2155.0,1257.0,392.0,335.0
181669,County,2020/02/26,50.0,VT,50001.0,Addison County,6069.0,30904.0,155954.0,23871.0,43061.0,18905.0,27661.0,25710.0,13343.0,2196.0,925.0,113.0,169.0
182841,County,2020/02/27,50.0,VT,50001.0,Addison County,6070.0,30903.0,150477.0,32350.0,36630.0,17771.0,23515.0,28236.0,9348.0,1624.0,658.0,77.0,268.0
186780,County,2020/02/28,50.0,VT,50001.0,Addison County,6794.0,30179.0,161869.0,30544.0,44987.0,16789.0,25615.0,30575.0,10247.0,2343.0,524.0,97.0,148.0
189784,County,2020/02/29,50.0,VT,50001.0,Addison County,7071.0,29902.0,127549.0,22689.0,28963.0,13266.0,21492.0,27327.0,10377.0,2621.0,419.0,132.0,263.0
194617,County,2020/03/01,50.0,VT,50001.0,Addison County,7714.0,29259.0,121767.0,22449.0,29933.0,16249.0,19090.0,20753.0,9811.0,2413.0,856.0,32.0,181.0
197821,County,2020/03/02,50.0,VT,50001.0,Addison County,7252.0,29721.0,148947.0,29533.0,40638.0,18583.0,21403.0,25593.0,10586.0,1765.0,418.0,86.0,342.0
201097,County,2020/03/03,50.0,VT,50001.0,Addison County,6201.0,30772.0,144630.0,29226.0,39730.0,16262.0,20357.0,27247.0,9152.0,1606.0,504.0,269.0,277.0
204183,County,2020/03/04,50.0,VT,50001.0,Addison County,6402.0,30571.0,146337.0,32856.0,35739.0,13822.0,22578.0,27451.0,10193.0,2380.0,913.0,254.0,151.0
207387,County,2020/03/05,50.0,VT,50001.0,Addison County,6152.0,30821.0,159117.0,33179.0,41785.0,15237.0,23644.0,29574.0,11948.0,2582.0,716.0,134.0,318.0
210650,County,2020/03/06,50.0,VT,50001.0,Addison County,6109.0,30864.0,142624.0,32303.0,26986.0,13832.0,21303.0,33356.0,10657.0,2757.0,986.0,97.0,347.0
213833,County,2020/03/07,50.0,VT,50001.0,Addison County,6471.0,30502.0,141535.0,32383.0,35645.0,11018.0,22637.0,25877.0,10621.0,2081.0,769.0,217.0,287.0
216946,County,2020/03/08,50.0,VT,50001.0,Addison County,7200.0,29773.0,120825.0,24535.0,26628.0,14045.0,17859.0,22011.0,11970.0,2190.0,837.0,277.0,473.0
218586,County,2020/03/09,50.0,VT,50001.0,Addison County,6356.0,30617.0,152944.0,34199.0,37116.0,13645.0,25481.0,29785.0,10116.0,1601.0,592.0,133.0,276.0
221821,County,2020/03/10,50.0,VT,50001.0,Addison County,6331.0,30642.0,140863.0,32831.0,32709.0,15145.0,20845.0,26918.0,9643.0,1518.0,681.0,291.0,282.0
226566,County,2020/03/11,50.0,VT,50001.0,Addison County,5737.0,31236.0,134201.0,22749.0,36213.0,8480.0,24907.0,28827.0,9975.0,822.0,1357.0,256.0,615.0
229659,County,2020/03/12,50.0,VT,50001.0,Addison County,6012.0,30961.0,137463.0,23138.0,39225.0,16019.0,19103.0,25987.0,8317.0,2853.0,1497.0,488.0,836.0
232925,County,2020/03/13,50.0,VT,50001.0,Addison County,5991.0,30982.0,151183.0,33230.0,46399.0,9084.0,21144.0,22952.0,12822.0,2932.0,1880.0,183.0,557.0
236128,County,2020/03/14,50.0,VT,50001.0,Addison County,6807.0,30166.0,147805.0,31440.0,43673.0,12782.0,27204.0,19733.0,6817.0,3630.0,1636.0,206.0,684.0
237740,County,2020/03/15,50.0,VT,50001.0,Addison County,8070.0,28903.0,110272.0,21207.0,24326.0,13249.0,17405.0,23446.0,7235.0,1394.0,1219.0,157.0,634.0
240984,County,2020/03/16,50.0,VT,50001.0,Addison County,7194.0,29779.0,147457.0,27514.0,36267.0,17900.0,25163.0,27760.0,8764.0,2480.0,1084.0,194.0,331.0
244166,County,2020/03/17,50.0,VT,50001.0,Addison County,8333.0,28640.0,124398.0,26327.0,29515.0,16063.0,19127.0,22940.0,7630.0,1303.0,829.0,296.0,368.0
247321,County,2020/03/18,50.0,VT,50001.0,Addison County,8858.0,28115.0,138275.0,30945.0,31549.0,17847.0,17583.0,29517.0,7620.0,2175.0,634.0,140.0,265.0
252103,County,2020/03/19,50.0,VT,50001.0,Addison County,8931.0,28042.0,131883.0,25969.0,31156.0,17382.0,18953.0,27453.0,7663.0,2062.0,884.0,151.0,210.0
253762,County,2020/03/20,50.0,VT,50001.0,Addison County,9401.0,27572.0,130497.0,27454.0,35820.0,14358.0,18000.0,21654.0,10405.0,1534.0,708.0,299.0,265.0
258519,County,2020/03/21,50.0,VT,50001.0,Addison County,9750.0,27223.0,118189.0,28073.0,25016.0,14145.0,18564.0,24123.0,6567.0,877.0,468.0,205.0,151.0
260092,County,2020/03/22,50.0,VT,50001.0,Addison County,9443.0,27530.0,84941.0,14923.0,20108.0,10101.0,17658.0,14639.0,5975.0,894.0,261.0,279.0,103.0
264870,County,2020/03/23,50.0,VT,50001.0,Addison County,8678.0,28295.0,112437.0,20721.0,25738.0,16950.0,18437.0,21265.0,5955.0,2568.0,442.0,200.0,161.0
266496,County,2020/03/24,50.0,VT,50001.0,Addison County,8502.0,28471.0,103430.0,19149.0,27330.0,11519.0,15534.0,21345.0,6323.0,1239.0,578.0,135.0,278.0
269730,County,2020/03/25,50.0,VT,50001.0,Addison County,9354.0,27619.0,118110.0,23228.0,28143.0,13236.0,19902.0,23901.0,7040.0,1486.0,866.0,0.0,308.0
274472,County,2020/03/26,50.0,VT,50001.0,Addison County,9559.0,27414.0,103898.0,25879.0,22403.0,14930.0,15092.0,19535.0,4308.0,771.0,674.0,120.0,186.0
277637,County,2020/03/27,50.0,VT,50001.0,Addison County,8907.0,28066.0,119941.0,28574.0,27855.0,13621.0,18223.0,23187.0,5547.0,2221.0,468.0,96.0,149.0
279264,County,2020/03/28,50.0,VT,50001.0,Addison County,9368.0,27605.0,90978.0,18931.0,21260.0,10925.0,15916.0,17592.0,4406.0,940.0,783.0,63.0,162.0
284024,County,2020/03/29,50.0,VT,50001.0,Addison County,9471.0,27502.0,79472.0,16220.0,18577.0,9599.0,12059.0,14896.0,6357.0,826.0,562.0,43.0,333.0
285652,County,2020/03/30,50.0,VT,50001.0,Addison County,9063.0,27910.0,96136.0,16491.0,25674.0,11643.0,13120.0,19791.0,6695.0,1754.0,511.0,176.0,281.0
290455,County,2020/03/31,50.0,VT,50001.0,Addison County,8926.0,28047.0,99452.0,22075.0,18319.0,13673.0,13973.0,22657.0,6397.0,1556.0,488.0,149.0,165.0
292082,County,2020/04/01,50.0,VT,50001.0,Addison County,9252.0,27721.0,108672.0,21215.0,26014.0,15329.0,16311.0,19719.0,7373.0,1451.0,884.0,103.0,273.0
296815,County,2020/04/02,50.0,VT,50001.0,Addison County,8808.0,28165.0,88615.0,14291.0,22339.0,10189.0,15812.0,17193.0,6828.0,718.0,627.0,205.0,413.0
298476,County,2020/04/03,50.0,VT,50001.0,Addison County,8798.0,28175.0,106554.0,22542.0,22722.0,14472.0,18246.0,17951.0,7235.0,1868.0,953.0,182.0,383.0
303223,County,2020/04/04,50.0,VT,50001.0,Addison County,9318.0,27655.0,105158.0,21811.0,22932.0,15628.0,18916.0,16411.0,7003.0,897.0,1046.0,359.0,155.0
306375,County,2020/04/05,50.0,VT,50001.0,Addison County,9164.0,27809.0,81217.0,21535.0,18337.0,7262.0,10897.0,15193.0,5607.0,721.0,925.0,292.0,448.0
309576,County,2020/04/06,50.0,VT,50001.0,Addison County,9139.0,27834.0,107660.0,20213.0,27718.0,15656.0,16361.0,18290.0,6489.0,2021.0,463.0,225.0,224.0
312815,County,2020/04/07,50.0,VT,50001.0,Addison County,9135.0,27838.0,116730.0,33014.0,24229.0,14035.0,17232.0,19047.0,6096.0,2230.0,488.0,22.0,337.0
315988,County,2020/04/08,50.0,VT,50001.0,Addison County,9339.0,27634.0,109094.0,24632.0,23488.0,11885.0,13437.0,26210.0,6897.0,1841.0,447.0,72.0,185.0
319158,County,2020/04/09,50.0,VT,50001.0,Addison County,9965.0,27008.0,107281.0,13798.0,26829.0,18055.0,16883.0,21717.0,7002.0,2373.0,346.0,132.0,146.0
320842,County,2020/04/10,50.0,VT,50001.0,Addison County,8524.0,28449.0,106849.0,21524.0,20950.0,15367.0,19842.0,19817.0,5750.0,2506.0,528.0,108.0,457.0
324027,County,2020/04/11,50.0,VT,50001.0,Addison County,9128.0,27845.0,113086.0,21885.0,32024.0,14561.0,19976.0,16358.0,6377.0,993.0,579.0,88.0,245.0
327173,County,2020/04/12,50.0,VT,50001.0,Addison County,10253.0,26720.0,96200.0,25512.0,21724.0,11537.0,15483.0,15356.0,4890.0,1127.0,188.0,50.0,333.0
330436,County,2020/04/13,50.0,VT,50001.0,Addison County,10292.0,26681.0,102538.0,16508.0,21062.0,16843.0,16262.0,22561.0,6575.0,2126.0,507.0,60.0,34.0
333562,County,2020/04/14,50.0,VT,50001.0,Addison County,8590.0,28383.0,109237.0,25818.0,24952.0,12202.0,15375.0,23603.0,3626.0,2653.0,676.0,104.0,228.0
338362,County,2020/04/15,50.0,VT,50001.0,Addison County,8568.0,28405.0,144971.0,34965.0,43303.0,18567.0,18293.0,22242.0,5608.0,1065.0,621.0,0.0,307.0
339940,County,2020/04/16,50.0,VT,50001.0,Addison County,8566.0,28407.0,128553.0,30668.0,38774.0,10695.0,16735.0,20348.0,8288.0,2599.0,284.0,50.0,112.0
344719,County,2020/04/17,50.0,VT,50001.0,Addison County,8273.0,28700.0,119027.0,18226.0,27683.0,14205.0,22902.0,27054.0,4861.0,3334.0,486.0,104.0,172.0
346346,County,2020/04/18,50.0,VT,50001.0,Addison County,8716.0,28257.0,124111.0,29222.0,30283.0,19464.0,19486.0,19384.0,3544.0,2270.0,189.0,101.0,168.0
349519,County,2020/04/19,50.0,VT,50001.0,Addison County,8683.0,28290.0,81076.0,9255.0,24603.0,7700.0,13131.0,20465.0,2601.0,2448.0,624.0,143.0,106.0
352773,County,2020/04/20,50.0,VT,50001.0,Addison County,8027.0,28946.0,117374.0,24725.0,30216.0,10110.0,18618.0,21151.0,9269.0,2008.0,937.0,62.0,278.0
355918,County,2020/04/21,50.0,VT,50001.0,Addison County,8961.0,28012.0,124314.0,27718.0,28853.0,17946.0,18806.0,24944.0,4094.0,1516.0,295.0,26.0,116.0
360688,County,2020/04/22,50.0,VT,50001.0,Addison County,8941.0,28032.0,113833.0,22273.0,29038.0,13224.0,15635.0,26192.0,4839.0,2087.0,332.0,148.0,65.0
363894,County,2020/04/23,50.0,VT,50001.0,Addison County,8805.0,28168.0,131206.0,32414.0,26008.0,15383.0,20786.0,27193.0,8042.0,757.0,496.0,29.0,98.0
365520,County,2020/04/24,50.0,VT,50001.0,Addison County,8657.0,28316.0,129368.0,22533.0,37484.0,14639.0,20481.0,26543.0,6327.0,1176.0,49.0,78.0,58.0
368689,County,2020/04/25,50.0,VT,50001.0,Addison County,8938.0,28035.0,134743.0,31404.0,35747.0,16009.0,22475.0,20348.0,7114.0,1206.0,351.0,0.0,89.0
371856,County,2020/04/26,50.0,VT,50001.0,Addison County,9540.0,27433.0,113061.0,20100.0,32639.0,15854.0,19887.0,19613.0,3154.0,1398.0,175.0,0.0,241.0
376687,County,2020/04/27,50.0,VT,50001.0,Addison County,8536.0,28437.0,128512.0,25690.0,37493.0,12084.0,21712.0,23609.0,6184.0,1314.0,287.0,26.0,113.0
379859,County,2020/04/28,50.0,VT,50001.0,Addison County,8306.0,28667.0,144719.0,36976.0,37000.0,18844.0,20454.0,22927.0,7541.0,671.0,196.0,52.0,58.0
383062,County,2020/04/29,50.0,VT,50001.0,Addison County,8895.0,28078.0,135521.0,27569.0,31771.0,15479.0,25115.0,26389.0,6612.0,1871.0,545.0,53.0,117.0
384683,County,2020/04/30,50.0,VT,50001.0,Addison County,8620.0,28353.0,115369.0,21857.0,25653.0,15441.0,19168.0,22927.0,6974.0,2551.0,558.0,75.0,165.0
389467,County,2020/05/01,50.0,VT,50001.0,Addison County,8506.0,28467.0,146426.0,25634.0,41667.0,17592.0,26462.0,23553.0,10248.0,811.0,378.0,25.0,56.0
391040,County,2020/05/02,50.0,VT,50001.0,Addison County,8932.0,28041.0,139390.0,27133.0,41695.0,19096.0,22578.0,21316.0,5990.0,1278.0,213.0,28.0,63.0
395816,County,2020/05/03,50.0,VT,50001.0,Addison County,8601.0,28372.0,119600.0,29830.0,31398.0,12619.0,15984.0,21996.0,7011.0,372.0,326.0,0.0,64.0
397463,County,2020/05/04,50.0,VT,50001.0,Addison County,8668.0,28305.0,123635.0,21140.0,35640.0,13132.0,18213.0,22029.0,10140.0,2782.0,355.0,54.0,150.0
400684,County,2020/05/05,50.0,VT,50001.0,Addison County,8271.0,28702.0,156132.0,26217.0,50653.0,21561.0,22785.0,24968.0,7597.0,1983.0,267.0,48.0,53.0
405439,County,2020/05/06,50.0,VT,50001.0,Addison County,8679.0,28294.0,135070.0,26472.0,34507.0,14759.0,24120.0,22761.0,9985.0,1793.0,392.0,23.0,258.0
408533,County,2020/05/07,50.0,VT,50001.0,Addison County,8226.0,28747.0,136988.0,27307.0,37919.0,16772.0,20913.0,22538.0,8878.0,2030.0,355.0,42.0,234.0
411795,County,2020/05/08,50.0,VT,50001.0,Addison County,8510.0,28463.0,158835.0,37907.0,40135.0,19659.0,22966.0,27984.0,8222.0,1450.0,376.0,25.0,111.0
414992,County,2020/05/09,50.0,VT,50001.0,Addison County,8609.0,28364.0,132889.0,22598.0,35697.0,16176.0,27844.0,21916.0,6765.0,1474.0,334.0,0.0,85.0
418172,County,2020/05/10,50.0,VT,50001.0,Addison County,8947.0,28026.0,113549.0,15406.0,23733.0,19417.0,22956.0,22536.0,7480.0,1759.0,205.0,27.0,30.0
421403,County,2020/05/11,50.0,VT,50001.0,Addison County,6972.0,30001.0,136892.0,28592.0,32669.0,13748.0,20471.0,27267.0,10578.0,2813.0,625.0,83.0,46.0
424607,County,2020/05/12,50.0,VT,50001.0,Addison County,7128.0,29845.0,153058.0,29575.0,38019.0,15527.0,26586.0,30501.0,10580.0,1797.0,363.0,86.0,24.0
426089,County,2020/05/13,50.0,VT,50001.0,Addison County,7531.0,29442.0,144793.0,35907.0,32908.0,15155.0,23633.0,25161.0,9671.0,1484.0,629.0,105.0,140.0
429430,County,2020/05/14,50.0,VT,50001.0,Addison County,7118.0,29855.0,138332.0,30978.0,37200.0,14379.0,21103.0,24237.0,7776.0,1792.0,560.0,20.0,287.0
434171,County,2020/05/15,50.0,VT,50001.0,Addison County,6881.0,30092.0,139365.0,37461.0,37065.0,13347.0,16354.0,21584.0,9287.0,3133.0,658.0,195.0,281.0
435849,County,2020/05/16,50.0,VT,50001.0,Addison County,7770.0,29203.0,137333.0,33061.0,31832.0,13199.0,22107.0,22423.0,11041.0,3332.0,265.0,47.0,26.0
438953,County,2020/05/17,50.0,VT,50001.0,Addison County,7384.0,29589.0,139706.0,29423.0,32583.0,18364.0,23765.0,26997.0,5293.0,2819.0,374.0,0.0,88.0
442246,County,2020/05/18,50.0,VT,50001.0,Addison County,6104.0,30869.0,173186.0,44441.0,41173.0,21469.0,23890.0,29397.0,10564.0,1956.0,190.0,68.0,38.0
446936,County,2020/05/19,50.0,VT,50001.0,Addison County,6540.0,30433.0,182547.0,49860.0,44104.0,20037.0,19883.0,32263.0,12271.0,3942.0,144.0,0.0,43.0
448568,County,2020/05/20,50.0,VT,50001.0,Addison County,6105.0,30868.0,178273.0,37400.0,51409.0,16642.0,28285.0,30244.0,10731.0,3103.0,418.0,0.0,41.0
453347,County,2020/05/21,50.0,VT,50001.0,Addison County,7442.0,29531.0,179048.0,35976.0,52964.0,19527.0,27874.0,31159.0,7769.0,3197.0,502.0,38.0,42.0
454925,County,2020/05/22,50.0,VT,50001.0,Addison County,6652.0,30321.0,202600.0,49645.0,49662.0,19395.0,29810.0,38019.0,13520.0,1781.0,584.0,69.0,115.0
459709,County,2020/05/23,50.0,VT,50001.0,Addison County,6675.0,30298.0,146280.0,27265.0,38378.0,19866.0,25399.0,25810.0,7826.0,954.0,626.0,74.0,82.0
462913,County,2020/05/24,50.0,VT,50001.0,Addison County,7282.0,29691.0,153368.0,32258.0,38218.0,19172.0,23842.0,30077.0,6894.0,2294.0,352.0,94.0,167.0
464542,County,2020/05/25,50.0,VT,50001.0,Addison County,7021.0,29952.0,124210.0,28315.0,26402.0,14942.0,20354.0,24991.0,6793.0,1789.0,456.0,52.0,116.0
467696,County,2020/05/26,50.0,VT,50001.0,Addison County,6215.0,30758.0,147530.0,30344.0,38848.0,15997.0,24115.0,26753.0,8656.0,1962.0,512.0,129.0,214.0
472514,County,2020/05/27,50.0,VT,50001.0,Addison County,6839.0,30134.0,158585.0,39536.0,40004.0,14289.0,23639.0,28375.0,10035.0,2092.0,385.0,154.0,76.0
474048,County,2020/05/28,50.0,VT,50001.0,Addison County,6655.0,30318.0,154045.0,33124.0,38572.0,17232.0,24596.0,27805.0,9756.0,2279.0,538.0,68.0,75.0
477293,County,2020/05/29,50.0,VT,50001.0,Addison County,6713.0,30260.0,154167.0,28718.0,42295.0,16300.0,24699.0,27603.0,11391.0,2557.0,497.0,33.0,74.0
480480,County,2020/05/30,50.0,VT,50001.0,Addison County,7292.0,29681.0,138148.0,29818.0,32828.0,15900.0,24269.0,24525.0,9157.0,1346.0,235.0,0.0,70.0
485247,County,2020/05/31,50.0,VT,50001.0,Addison County,7731.0,29242.0,134858.0,34142.0,28817.0,15475.0,23723.0,21016.0,8063.0,2709.0,829.0,84.0,0.0
486874,County,2020/06/01,50.0,VT,50001.0,Addison County,6473.0,30500.0,136514.0,31672.0,29826.0,14342.0,21638.0,25333.0,10474.0,2542.0,580.0,69.0,38.0
491655,County,2020/06/02,50.0,VT,50001.0,Addison County,6638.0,30335.0,143820.0,28743.0,28619.0,16801.0,27879.0,29110.0,8131.0,3718.0,614.0,77.0,128.0
493284,County,2020/06/03,50.0,VT,50001.0,Addison County,6275.0,30698.0,143751.0,29832.0,31771.0,19422.0,21027.0,29052.0,10343.0,1633.0,578.0,73.0,20.0
496447,County,2020/06/04,50.0,VT,50001.0,Addison County,6466.0,30507.0,158063.0,33252.0,29338.0,20515.0,28614.0,33548.0,9255.0,2976.0,347.0,74.0,144.0
501221,County,2020/06/05,50.0,VT,50001.0,Addison County,6832.0,30141.0,166891.0,33224.0,40070.0,21125.0,27151.0,31581.0,11168.0,1839.0,572.0,76.0,85.0
504423,County,2020/06/06,50.0,VT,50001.0,Addison County,7583.0,29390.0,157031.0,28666.0,38743.0,20104.0,29060.0,27127.0,11057.0,1849.0,332.0,44.0,49.0
507624,County,2020/06/07,50.0,VT,50001.0,Addison County,7793.0,29180.0,134559.0,23519.0,35078.0,18327.0,21475.0,25499.0,7597.0,2535.0,345.0,184.0,0.0
510834,County,2020/06/08,50.0,VT,50001.0,Addison County,6265.0,30708.0,183068.0,40629.0,44974.0,17748.0,30620.0,33892.0,12829.0,1893.0,319.0,78.0,86.0
513989,County,2020/06/09,50.0,VT,50001.0,Addison County,7109.0,29864.0,161712.0,40376.0,36495.0,17313.0,28042.0,29016.0,8689.0,1430.0,174.0,74.0,103.0
515619,County,2020/06/10,50.0,VT,50001.0,Addison County,6915.0,30058.0,144705.0,24458.0,36166.0,19855.0,23936.0,28370.0,9517.0,1728.0,504.0,72.0,99.0
518823,County,2020/06/11,50.0,VT,50001.0,Addison County,6628.0,30345.0,147283.0,28819.0,37021.0,15789.0,25607.0,27642.0,10036.0,1609.0,563.0,67.0,130.0
523623,County,2020/06/12,50.0,VT,50001.0,Addison County,6107.0,30866.0,177831.0,46311.0,42687.0,20751.0,26207.0,30662.0,8547.0,1732.0,757.0,84.0,93.0
526810,County,2020/06/13,50.0,VT,50001.0,Addison County,6945.0,30028.0,144751.0,25585.0,31930.0,18673.0,27015.0,27452.0,10944.0,2284.0,703.0,99.0,66.0
529966,County,2020/06/14,50.0,VT,50001.0,Addison County,7670.0,29303.0,118105.0,23586.0,27305.0,15824.0,17221.0,24674.0,6468.0,2105.0,650.0,58.0,214.0
531594,County,2020/06/15,50.0,VT,50001.0,Addison County,6962.0,30011.0,146947.0,30021.0,33439.0,17555.0,24006.0,28607.0,9156.0,3386.0,669.0,51.0,57.0
536375,County,2020/06/16,50.0,VT,50001.0,Addison County,6755.0,30218.0,154749.0,34456.0,38287.0,18982.0,22565.0,28979.0,8244.0,2477.0,597.0,50.0,112.0
539544,County,2020/06/17,50.0,VT,50001.0,Addison County,6658.0,30315.0,154255.0,28724.0,38460.0,17223.0,29999.0,28938.0,7332.0,2965.0,401.0,49.0,164.0
542738,County,2020/06/18,50.0,VT,50001.0,Addison County,6600.0,30373.0,155365.0,32749.0,35373.0,18976.0,22496.0,34417.0,8281.0,2450.0,466.0,83.0,74.0
544365,County,2020/06/19,50.0,VT,50001.0,Addison County,6782.0,30191.0,138306.0,27761.0,29753.0,16188.0,23556.0,27003.0,9895.0,3108.0,843.0,33.0,166.0
547570,County,2020/06/20,50.0,VT,50001.0,Addison County,6617.0,30356.0,147184.0,28425.0,36205.0,15409.0,23565.0,30370.0,10227.0,2306.0,639.0,18.0,20.0
550775,County,2020/06/21,50.0,VT,50001.0,Addison County,7197.0,29776.0,138204.0,28066.0,29238.0,16198.0,23340.0,26129.0,11997.0,2556.0,508.0,72.0,100.0
555555,County,2020/06/22,50.0,VT,50001.0,Addison County,6720.0,30253.0,133952.0,24597.0,33142.0,15278.0,22257.0,25135.0,9471.0,3287.0,493.0,146.0,146.0
558709,County,2020/06/23,50.0,VT,50001.0,Addison County,6107.0,30866.0,151187.0,31848.0,28902.0,16865.0,25736.0,33444.0,11442.0,2025.0,738.0,47.0,140.0
560340,County,2020/06/24,50.0,VT,50001.0,Addison County,7011.0,29962.0,139312.0,29285.0,30248.0,16687.0,25415.0,26697.0,8252.0,1926.0,650.0,47.0,105.0
565077,County,2020/06/25,50.0,VT,50001.0,Addison County,6717.0,30256.0,159809.0,35107.0,33997.0,17171.0,25884.0,35341.0,9695.0,1675.0,747.0,107.0,85.0
568375,County,2020/06/26,50.0,VT,50001.0,Addison County,6434.0,30539.0,138278.0,27546.0,26914.0,15869.0,22444.0,29828.0,12224.0,2386.0,847.0,113.0,107.0
569905,County,2020/06/27,50.0,VT,50001.0,Addison County,7224.0,29749.0,141761.0,31094.0,32962.0,17175.0,23050.0,25079.0,9173.0,2397.0,454.0,149.0,228.0
574700,County,2020/06/28,50.0,VT,50001.0,Addison County,7439.0,29534.0,134450.0,26994.0,35841.0,13128.0,21085.0,22759.0,11343.0,2558.0,559.0,139.0,44.0
576305,County,2020/06/29,50.0,VT,50001.0,Addison County,6769.0,30204.0,154529.0,33828.0,42871.0,13332.0,23447.0,29728.0,10176.0,459.0,502.0,107.0,79.0
579516,County,2020/06/30,50.0,VT,50001.0,Addison County,6313.0,30660.0,156427.0,32400.0,40613.0,13379.0,27435.0,28890.0,11279.0,1619.0,566.0,134.0,112.0
582718,County,2020/07/01,50.0,VT,50001.0,Addison County,6783.0,30190.0,155820.0,37149.0,38684.0,17324.0,24224.0,26938.0,9335.0,1376.0,602.0,89.0,99.0
585909,County,2020/07/02,50.0,VT,50001.0,Addison County,6752.0,30221.0,169622.0,37263.0,36085.0,18225.0,27473.0,37511.0,10290.0,1778.0,793.0,114.0,90.0
589141,County,2020/07/03,50.0,VT,50001.0,Addison County,7137.0,29836.0,137499.0,27391.0,26762.0,15780.0,22318.0,29660.0,12155.0,2373.0,842.0,112.0,106.0
592297,County,2020/07/04,50.0,VT,50001.0,Addison County,7088.0,29885.0,117634.0,23433.0,22896.0,13500.0,19093.0,25375.0,10399.0,2030.0,721.0,96.0,91.0
597052,County,2020/07/05,50.0,VT,50001.0,Addison County,6832.0,30141.0,121896.0,20818.0,23533.0,17565.0,23362.0,23555.0,9977.0,2084.0,822.0,95.0,85.0
600230,County,2020/07/06,50.0,VT,50001.0,Addison County,6290.0,30683.0,145992.0,33460.0,28012.0,16083.0,28681.0,26403.0,9753.0,2584.0,726.0,115.0,175.0
601808,County,2020/07/07,50.0,VT,50001.0,Addison County,6890.0,30083.0,139177.0,29988.0,31336.0,18969.0,19922.0,26398.0,8549.0,2758.0,1026.0,133.0,98.0
604951,County,2020/07/08,50.0,VT,50001.0,Addison County,6425.0,30548.0,143811.0,29507.0,34555.0,18276.0,22263.0,25361.0,10286.0,2558.0,694.0,220.0,91.0
609820,County,2020/07/09,50.0,VT,50001.0,Addison County,6781.0,30192.0,140745.0,28471.0,32261.0,15479.0,19487.0,30343.0,11269.0,2270.0,834.0,246.0,85.0
613026,County,2020/07/10,50.0,VT,50001.0,Addison County,6792.0,30181.0,118472.0,22947.0,24773.0,12387.0,19738.0,24016.0,10586.0,2688.0,1081.0,144.0,112.0
616242,County,2020/07/11,50.0,VT,50001.0,Addison County,7215.0,29758.0,110349.0,21908.0,25348.0,9661.0,20881.0,20417.0,8839.0,2183.0,727.0,259.0,126.0
619430,County,2020/07/12,50.0,VT,50001.0,Addison County,7377.0,29596.0,105205.0,21987.0,20680.0,16687.0,13317.0,20086.0,7720.0,3339.0,1162.0,134.0,93.0
621015,County,2020/07/13,50.0,VT,50001.0,Addison County,6838.0,30135.0,117091.0,21169.0,23750.0,13690.0,22255.0,23351.0,9469.0,2356.0,819.0,169.0,63.0
624216,County,2020/07/14,50.0,VT,50001.0,Addison County,7330.0,29643.0,130755.0,21934.0,29978.0,17594.0,23571.0,26007.0,8758.0,2074.0,633.0,138.0,68.0
627338,County,2020/07/15,50.0,VT,50001.0,Addison County,7754.0,29219.0,130648.0,29234.0,29822.0,11985.0,22584.0,23913.0,10204.0,1768.0,999.0,120.0,19.0
632269,County,2020/07/16,50.0,VT,50001.0,Addison County,7372.0,29601.0,144882.0,26449.0,35951.0,17748.0,25292.0,27334.0,10074.0,1309.0,572.0,153.0,0.0
633786,County,2020/07/17,50.0,VT,50001.0,Addison County,7321.0,29652.0,140202.0,30941.0,34240.0,11795.0,25276.0,27167.0,9003.0,914.0,769.0,79.0,18.0
638566,County,2020/07/18,50.0,VT,50001.0,Addison County,7355.0,29618.0,134264.0,24496.0,30600.0,18130.0,23592.0,27173.0,8124.0,1459.0,532.0,95.0,63.0
641770,County,2020/07/19,50.0,VT,50001.0,Addison County,7829.0,29144.0,115271.0,18061.0,27134.0,12803.0,22293.0,21047.0,10661.0,2645.0,456.0,150.0,21.0
643380,County,2020/07/20,50.0,VT,50001.0,Addison County,7565.0,29408.0,132766.0,25404.0,33192.0,15346.0,22939.0,25140.0,8390.0,1585.0,660.0,71.0,39.0
646606,County,2020/07/21,50.0,VT,50001.0,Addison County,7043.0,29930.0,133829.0,23117.0,35701.0,14288.0,20032.0,26684.0,10539.0,2792.0,494.0,62.0,120.0
651333,County,2020/07/22,50.0,VT,50001.0,Addison County,6899.0,30074.0,134157.0,25346.0,31976.0,13922.0,24689.0,26182.0,8620.0,2614.0,599.0,145.0,64.0
652876,County,2020/07/23,50.0,VT,50001.0,Addison County,6661.0,30312.0,134544.0,27816.0,33230.0,13641.0,20422.0,26566.0,9447.0,2379.0,720.0,228.0,95.0
655999,County,2020/07/24,50.0,VT,50001.0,Addison County,6901.0,30072.0,135527.0,28170.0,27770.0,14674.0,21144.0,28853.0,10932.0,3031.0,801.0,103.0,49.0
661019,County,2020/07/25,50.0,VT,50001.0,Addison County,7125.0,29848.0,132188.0,23776.0,31942.0,15298.0,21493.0,29062.0,8101.0,1847.0,568.0,48.0,53.0
662544,County,2020/07/26,50.0,VT,50001.0,Addison County,7103.0,29870.0,126024.0,23934.0,25498.0,16601.0,21722.0,24853.0,9018.0,3450.0,671.0,97.0,180.0
665838,County,2020/07/27,50.0,VT,50001.0,Addison County,7155.0,29818.0,133362.0,29619.0,27924.0,13690.0,23010.0,26134.0,9357.0,2638.0,769.0,148.0,73.0
670527,County,2020/07/28,50.0,VT,50001.0,Addison County,6629.0,30344.0,127939.0,24998.0,26954.0,13537.0,19840.0,29023.0,10143.0,2428.0,764.0,151.0,101.0
672207,County,2020/07/29,50.0,VT,50001.0,Addison County,7064.0,29909.0,129288.0,22714.0,33301.0,14758.0,21523.0,24836.0,8527.0,2607.0,731.0,187.0,104.0
676870,County,2020/07/30,50.0,VT,50001.0,Addison County,6884.0,30089.0,136885.0,31706.0,30821.0,11978.0,24106.0,26692.0,8945.0,1473.0,859.0,153.0,152.0
680098,County,2020/07/31,50.0,VT,50001.0,Addison County,6647.0,30326.0,144456.0,37012.0,34875.0,11049.0,21421.0,26568.0,9985.0,2514.0,732.0,150.0,150.0
681679,County,2020/08/01,50.0,VT,50001.0,Addison County,7712.0,29261.0,125897.0,21965.0,22878.0,14942.0,21450.0,30683.0,11159.0,1714.0,749.0,209.0,148.0
686508,County,2020/08/02,50.0,VT,50001.0,Addison County,8152.0,28821.0,108423.0,18463.0,27700.0,9380.0,15617.0,23078.0,9127.0,3954.0,894.0,108.0,102.0
688098,County,2020/08/03,50.0,VT,50001.0,Addison County,7683.0,29290.0,146784.0,34666.0,32212.0,18081.0,24137.0,25998.0,8601.0,2052.0,838.0,128.0,71.0
692873,County,2020/08/04,50.0,VT,50001.0,Addison County,7349.0,29624.0,131607.0,22687.0,33394.0,14585.0,23738.0,25107.0,9035.0,2384.0,584.0,44.0,49.0
694501,County,2020/08/05,50.0,VT,50001.0,Addison County,7376.0,29597.0,140176.0,30958.0,31812.0,18425.0,25939.0,22899.0,7627.0,1570.0,658.0,152.0,136.0
697708,County,2020/08/06,50.0,VT,50001.0,Addison County,6960.0,30013.0,159576.0,43210.0,37109.0,12435.0,21719.0,32963.0,9574.0,1946.0,312.0,106.0,202.0
702440,County,2020/08/07,50.0,VT,50001.0,Addison County,6905.0,30068.0,139938.0,29292.0,37369.0,11427.0,23358.0,25628.0,9842.0,1800.0,846.0,203.0,173.0
704069,County,2020/08/08,50.0,VT,50001.0,Addison County,7670.0,29303.0,136113.0,33151.0,32956.0,13227.0,19342.0,23539.0,11647.0,1438.0,524.0,186.0,103.0
707259,County,2020/08/09,50.0,VT,50001.0,Addison County,7287.0,29686.0,122168.0,20051.0,31093.0,13537.0,23365.0,20079.0,9554.0,3370.0,983.0,136.0,0.0
710529,County,2020/08/10,50.0,VT,50001.0,Addison County,7017.0,29956.0,134592.0,27306.0,32489.0,14200.0,22083.0,26015.0,8771.0,3045.0,559.0,105.0,19.0
713697,County,2020/08/11,50.0,VT,50001.0,Addison County,6964.0,30009.0,141669.0,27867.0,33898.0,12975.0,27420.0,27500.0,9225.0,2456.0,293.0,35.0,0.0
718408,County,2020/08/12,50.0,VT,50001.0,Addison County,6710.0,30263.0,139273.0,25470.0,35170.0,14920.0,25453.0,25959.0,9359.0,2243.0,455.0,76.0,168.0
720037,County,2020/08/13,50.0,VT,50001.0,Addison County,6697.0,30276.0,138239.0,29167.0,29515.0,11303.0,26838.0,26473.0,11417.0,2374.0,692.0,170.0,290.0
724829,County,2020/08/14,50.0,VT,50001.0,Addison County,6708.0,30265.0,140252.0,27128.0,32409.0,14127.0,24023.0,28022.0,9470.0,3598.0,991.0,156.0,328.0
727991,County,2020/08/15,50.0,VT,50001.0,Addison County,7182.0,29791.0,137206.0,27989.0,36241.0,15394.0,21060.0,22955.0,9796.0,2612.0,795.0,70.0,294.0
729619,County,2020/08/16,50.0,VT,50001.0,Addison County,7595.0,29378.0,125117.0,27132.0,19797.0,15847.0,22597.0,26446.0,8463.0,3097.0,1031.0,173.0,534.0
734399,County,2020/08/17,50.0,VT,50001.0,Addison County,7228.0,29745.0,129393.0,25649.0,30386.0,11906.0,18769.0,28480.0,9841.0,2830.0,882.0,212.0,438.0
737571,County,2020/08/18,50.0,VT,50001.0,Addison County,7222.0,29751.0,128820.0,24560.0,27380.0,12929.0,20710.0,29584.0,10204.0,1723.0,1068.0,235.0,427.0
739233,County,2020/08/19,50.0,VT,50001.0,Addison County,6671.0,30302.0,137327.0,34976.0,21890.0,13070.0,22668.0,29811.0,10371.0,2977.0,954.0,216.0,394.0
742395,County,2020/08/20,50.0,VT,50001.0,Addison County,6344.0,30629.0,149088.0,27043.0,35544.0,15993.0,24692.0,27799.0,12040.0,4566.0,935.0,90.0,386.0
747170,County,2020/08/21,50.0,VT,50001.0,Addison County,6123.0,30850.0,152723.0,37213.0,27428.0,13921.0,23598.0,32504.0,13485.0,3278.0,678.0,198.0,420.0
750375,County,2020/08/22,50.0,VT,50001.0,Addison County,6823.0,30150.0,141043.0,33354.0,27634.0,17543.0,22703.0,26488.0,9221.0,2816.0,607.0,191.0,486.0
753545,County,2020/08/23,50.0,VT,50001.0,Addison County,7591.0,29382.0,103332.0,19235.0,22792.0,8602.0,20848.0,20233.0,8514.0,1974.0,575.0,184.0,375.0
755214,County,2020/08/24,50.0,VT,50001.0,Addison County,7496.0,29477.0,109798.0,20045.0,26297.0,12337.0,15913.0,24596.0,8326.0,1158.0,562.0,165.0,399.0
758365,County,2020/08/25,50.0,VT,50001.0,Addison County,7179.0,29794.0,115754.0,22086.0,26334.0,12539.0,18631.0,24537.0,8504.0,2274.0,434.0,68.0,347.0
763136,County,2020/08/26,50.0,VT,50001.0,Addison County,7320.0,29653.0,127786.0,27345.0,29751.0,10141.0,22171.0,25834.0,9653.0,1896.0,579.0,183.0,233.0
766332,County,2020/08/27,50.0,VT,50001.0,Addison County,7083.0,29890.0,126078.0,30132.0,27507.0,9239.0,17446.0,27543.0,11055.0,2298.0,696.0,55.0,107.0
767970,County,2020/08/28,50.0,VT,50001.0,Addison County,7365.0,29608.0,132516.0,32694.0,27026.0,11148.0,20868.0,29135.0,9435.0,1553.0,399.0,85.0,173.0
772699,County,2020/08/29,50.0,VT,50001.0,Addison County,7421.0,29552.0,119164.0,19747.0,29256.0,11301.0,25137.0,21824.0,9133.0,1879.0,663.0,139.0,85.0
774373,County,2020/08/30,50.0,VT,50001.0,Addison County,8522.0,28451.0,115494.0,22424.0,30687.0,11003.0,15332.0,25914.0,7467.0,1856.0,541.0,90.0,180.0
777556,County,2020/08/31,50.0,VT,50001.0,Addison County,7420.0,29553.0,120219.0,24781.0,27118.0,9836.0,21302.0,22387.0,11985.0,1758.0,797.0,137.0,118.0
780707,County,2020/09/01,50.0,VT,50001.0,Addison County,7987.0,28986.0,129907.0,25167.0,37444.0,10798.0,17647.0,24123.0,11954.0,1859.0,670.0,188.0,57.0
785482,County,2020/09/02,50.0,VT,50001.0,Addison County,7978.0,28995.0,118317.0,23528.0,27893.0,7627.0,17913.0,27274.0,10734.0,2342.0,652.0,115.0,239.0
788691,County,2020/09/03,50.0,VT,50001.0,Addison County,7196.0,29777.0,133415.0,24991.0,29351.0,11823.0,21275.0,31695.0,11453.0,1886.0,733.0,84.0,124.0
791870,County,2020/09/04,50.0,VT,50001.0,Addison County,7477.0,29496.0,131432.0,24244.0,34422.0,9485.0,21905.0,26149.0,11902.0,2245.0,833.0,159.0,88.0
795066,County,2020/09/05,50.0,VT,50001.0,Addison County,7957.0,29016.0,139164.0,28847.0,24892.0,17734.0,25647.0,27934.0,10463.0,2835.0,667.0,51.0,94.0
798269,County,2020/09/06,50.0,VT,50001.0,Addison County,8225.0,28748.0,113299.0,21737.0,20138.0,13152.0,19992.0,22961.0,12229.0,2062.0,565.0,170.0,293.0
801479,County,2020/09/07,50.0,VT,50001.0,Addison County,8342.0,28631.0,115079.0,23154.0,27531.0,12476.0,17787.0,19241.0,9515.0,4295.0,811.0,138.0,131.0
803109,County,2020/09/08,50.0,VT,50001.0,Addison County,7713.0,29260.0,133352.0,26322.0,31869.0,13151.0,20405.0,29283.0,8977.0,1997.0,932.0,279.0,137.0
806275,County,2020/09/09,50.0,VT,50001.0,Addison County,7662.0,29311.0,134303.0,21537.0,34684.0,12464.0,19554.0,31292.0,12271.0,1486.0,664.0,231.0,120.0
811043,County,2020/09/10,50.0,VT,50001.0,Addison County,7663.0,29310.0,124831.0,20101.0,30012.0,18034.0,17001.0,25256.0,11908.0,1569.0,543.0,137.0,270.0
812672,County,2020/09/11,50.0,VT,50001.0,Addison County,7300.0,29673.0,146402.0,31585.0,34656.0,15335.0,20151.0,29064.0,13098.0,1718.0,444.0,104.0,247.0
815858,County,2020/09/12,50.0,VT,50001.0,Addison County,7895.0,29078.0,134369.0,24396.0,34984.0,15894.0,18522.0,25869.0,11395.0,1994.0,854.0,219.0,242.0
820655,County,2020/09/13,50.0,VT,50001.0,Addison County,8565.0,28408.0,109596.0,20320.0,25053.0,5691.0,20185.0,25698.0,8670.0,2939.0,576.0,71.0,393.0
823811,County,2020/09/14,50.0,VT,50001.0,Addison County,8009.0,28964.0,130116.0,23674.0,27832.0,13849.0,23742.0,25281.0,13611.0,954.0,903.0,167.0,103.0
825439,County,2020/09/15,50.0,VT,50001.0,Addison County,7803.0,29170.0,123910.0,23251.0,28788.0,11519.0,19053.0,25402.0,12229.0,2631.0,567.0,214.0,256.0
828680,County,2020/09/16,50.0,VT,50001.0,Addison County,7653.0,29320.0,122608.0,23115.0,30028.0,14300.0,13059.0,27614.0,12185.0,1212.0,707.0,103.0,285.0
833424,County,2020/09/17,50.0,VT,50001.0,Addison County,7933.0,29040.0,123844.0,18223.0,32205.0,11688.0,17795.0,30151.0,11621.0,1367.0,498.0,178.0,118.0
835053,County,2020/09/18,50.0,VT,50001.0,Addison County,7899.0,29074.0,134731.0,24020.0,32418.0,12563.0,20629.0,30098.0,12261.0,1802.0,701.0,94.0,145.0
838215,County,2020/09/19,50.0,VT,50001.0,Addison County,7886.0,29087.0,128015.0,25824.0,23296.0,13959.0,23669.0,26282.0,12905.0,1011.0,775.0,98.0,196.0
842990,County,2020/09/20,50.0,VT,50001.0,Addison County,7931.0,29042.0,109034.0,18266.0,26868.0,9794.0,19643.0,20398.0,9655.0,3492.0,737.0,56.0,125.0
846194,County,2020/09/21,50.0,VT,50001.0,Addison County,8391.0,28582.0,125418.0,24583.0,28598.0,14861.0,18688.0,22840.0,12882.0,2372.0,529.0,65.0,0.0
847823,County,2020/09/22,50.0,VT,50001.0,Addison County,7540.0,29433.0,138733.0,30444.0,36642.0,12431.0,21385.0,25952.0,8735.0,2696.0,299.0,60.0,89.0
850990,County,2020/09/23,50.0,VT,50001.0,Addison County,7769.0,29204.0,135859.0,28889.0,29726.0,15139.0,20599.0,26478.0,11954.0,2561.0,471.0,42.0,0.0
855756,County,2020/09/24,50.0,VT,50001.0,Addison County,7713.0,29260.0,128033.0,27761.0,29623.0,9624.0,21450.0,25239.0,12239.0,1478.0,392.0,42.0,185.0
857385,County,2020/09/25,50.0,VT,50001.0,Addison County,7338.0,29635.0,144130.0,27823.0,36810.0,10466.0,23898.0,31159.0,11327.0,2162.0,354.0,84.0,47.0
860571,County,2020/09/26,50.0,VT,50001.0,Addison County,8004.0,28969.0,126194.0,21661.0,33113.0,11613.0,20331.0,25828.0,10648.0,2614.0,314.0,72.0,0.0
865368,County,2020/09/27,50.0,VT,50001.0,Addison County,7674.0,29299.0,100487.0,18883.0,19082.0,10805.0,18944.0,20217.0,9859.0,1902.0,591.0,138.0,66.0
868526,County,2020/09/28,50.0,VT,50001.0,Addison County,7566.0,29407.0,130007.0,23875.0,27259.0,14122.0,22073.0,27799.0,12613.0,1854.0,252.0,96.0,64.0
870154,County,2020/09/29,50.0,VT,50001.0,Addison County,7440.0,29533.0,115829.0,18020.0,25304.0,10221.0,20884.0,27602.0,11569.0,1721.0,424.0,45.0,39.0
874933,County,2020/09/30,50.0,VT,50001.0,Addison County,8133.0,28840.0,101365.0,12403.0,20813.0,8055.0,23468.0,19666.0,14438.0,1783.0,620.0,76.0,43.0
876561,County,2020/10/01,50.0,VT,50001.0,Addison County,7412.0,29561.0,112627.0,14071.0,22260.0,13887.0,18031.0,29529.0,11511.0,2305.0,812.0,160.0,61.0
879765,County,2020/10/02,50.0,VT,50001.0,Addison County,7308.0,29665.0,107198.0,17099.0,20308.0,9730.0,19413.0,26685.0,10096.0,3092.0,623.0,88.0,64.0
884497,County,2020/10/03,50.0,VT,50001.0,Addison County,8062.0,28911.0,117488.0,21818.0,22449.0,14428.0,20842.0,25489.0,8906.0,2764.0,661.0,72.0,59.0
887501,County,2020/10/04,50.0,VT,50001.0,Addison County,8802.0,28171.0,109972.0,19778.0,20526.0,12192.0,18965.0,24324.0,10356.0,3094.0,584.0,79.0,74.0
890739,County,2020/10/05,50.0,VT,50001.0,Addison County,8461.0,28512.0,101828.0,18907.0,19558.0,8542.0,17098.0,22384.0,11691.0,2703.0,799.0,123.0,23.0
891240,County,2020/10/06,50.0,VT,50001.0,Addison County,8011.0,28962.0,114075.0,18581.0,25363.0,10703.0,15554.0,28659.0,11461.0,2982.0,606.0,124.0,42.0
897127,County,2020/10/07,50.0,VT,50001.0,Addison County,7450.0,29523.0,102929.0,16541.0,20681.0,7918.0,15467.0,24684.0,14773.0,2045.0,623.0,110.0,87.0
900308,County,2020/10/08,50.0,VT,50001.0,Addison County,7831.0,29142.0,112895.0,23124.0,23848.0,9779.0,16543.0,24178.0,10782.0,3805.0,683.0,112.0,41.0
903503,County,2020/10/09,50.0,VT,50001.0,Addison County,7881.0,29092.0,107995.0,18066.0,20368.0,8708.0,17367.0,28203.0,11147.0,3288.0,718.0,94.0,36.0
906678,County,2020/10/10,50.0,VT,50001.0,Addison County,8713.0,28260.0,106432.0,18322.0,22856.0,8271.0,20980.0,21901.0,9512.0,3878.0,642.0,44.0,26.0
907488,County,2020/10/11,50.0,VT,50001.0,Addison County,8420.0,28553.0,111731.0,18611.0,25480.0,12917.0,16148.0,23388.0,11565.0,2599.0,854.0,134.0,35.0
910666,County,2020/10/12,50.0,VT,50001.0,Addison County,7965.0,29008.0,108107.0,24304.0,18702.0,10352.0,15888.0,24061.0,11370.0,2447.0,834.0,126.0,23.0
913603,County,2020/10/13,50.0,VT,50001.0,Addison County,7659.0,29314.0,120718.0,23900.0,25354.0,10165.0,16525.0,28369.0,13502.0,2215.0,542.0,88.0,58.0
917027,County,2020/10/14,50.0,VT,50001.0,Addison County,7547.0,29426.0,122570.0,22984.0,29184.0,8712.0,19645.0,28479.0,11243.0,1831.0,372.0,66.0,54.0
920338,County,2020/10/15,50.0,VT,50001.0,Addison County,7441.0,29532.0,105693.0,21196.0,21115.0,9741.0,16210.0,23757.0,10356.0,2625.0,575.0,55.0,63.0
923122,County,2020/10/16,50.0,VT,50001.0,Addison County,7310.0,29663.0,112268.0,18178.0,29466.0,10069.0,13353.0,25642.0,12006.0,2709.0,679.0,65.0,101.0
926940,County,2020/10/17,50.0,VT,50001.0,Addison County,7871.0,29102.0,126387.0,28120.0,26733.0,11763.0,20142.0,25439.0,11267.0,2208.0,484.0,161.0,70.0
929732,County,2020/10/18,50.0,VT,50001.0,Addison County,8504.0,28469.0,111183.0,18580.0,28389.0,11897.0,12782.0,21697.0,12701.0,4219.0,754.0,105.0,59.0
933338,County,2020/10/19,50.0,VT,50001.0,Addison County,7641.0,29332.0,129004.0,31104.0,31185.0,11564.0,16904.0,23156.0,12723.0,1485.0,739.0,79.0,65.0
936094,County,2020/10/20,50.0,VT,50001.0,Addison County,8202.0,28771.0,112611.0,20635.0,23641.0,10348.0,16923.0,25800.0,12115.0,2498.0,547.0,49.0,55.0
939498,County,2020/10/21,50.0,VT,50001.0,Addison County,8540.0,28433.0,108516.0,21586.0,20809.0,8546.0,17132.0,26850.0,10956.0,2245.0,281.0,67.0,44.0
942427,County,2020/10/22,50.0,VT,50001.0,Addison County,8096.0,28877.0,109795.0,17934.0,28801.0,8022.0,18995.0,23520.0,9928.0,1967.0,461.0,119.0,48.0
945690,County,2020/10/23,50.0,VT,50001.0,Addison County,7595.0,29378.0,124600.0,22548.0,29163.0,11642.0,17096.0,27688.0,12733.0,2988.0,655.0,48.0,39.0
949399,County,2020/10/24,50.0,VT,50001.0,Addison County,8073.0,28900.0,131829.0,25963.0,30709.0,15861.0,23090.0,24954.0,7852.0,2667.0,657.0,42.0,34.0
