,Level,Date,State FIPS,State Postal Code,County FIPS,County Name,Population Staying at Home,Population Not Staying at Home,Number of Trips,Number of Trips <1,Number of Trips 1-3,Number of Trips 3-5,Number of Trips 5-10,Number of Trips 10-25,Number of Trips 25-50,Number of Trips 50-100,Number of Trips 100-250,Number of Trips 250-500,Number of Trips >=500
2480,County,2020/01/01,47.0,TN,47107.0,McMinn County,10411.0,42874.0,176118.0,37287.0,52755.0,22351.0,23904.0,25559.0,8228.0,4792.0,1007.0,202.0,33.0
4545,County,2020/01/02,47.0,TN,47107.0,McMinn County,9538.0,43747.0,196156.0,42278.0,58001.0,24573.0,26561.0,26934.0,11015.0,5662.0,794.0,312.0,26.0
6633,County,2020/01/03,47.0,TN,47107.0,McMinn County,8808.0,44477.0,210120.0,49749.0,54984.0,29892.0,29530.0,28300.0,10686.0,5683.0,992.0,278.0,26.0
10546,County,2020/01/04,47.0,TN,47107.0,McMinn County,9852.0,43433.0,183613.0,41468.0,48608.0,22200.0,27084.0,27240.0,9117.0,6534.0,1084.0,251.0,27.0
15256,County,2020/01/05,47.0,TN,47107.0,McMinn County,10345.0,42940.0,177406.0,35155.0,49939.0,22921.0,31544.0,24203.0,8500.0,4341.0,548.0,228.0,27.0
18792,County,2020/01/06,47.0,TN,47107.0,McMinn County,9278.0,44007.0,205266.0,44311.0,57765.0,28191.0,29038.0,27728.0,11601.0,5617.0,728.0,255.0,32.0
21987,County,2020/01/07,47.0,TN,47107.0,McMinn County,8835.0,44450.0,221750.0,50750.0,61850.0,28767.0,31541.0,29897.0,12220.0,5564.0,854.0,290.0,17.0
23662,County,2020/01/08,47.0,TN,47107.0,McMinn County,8673.0,44612.0,223295.0,54372.0,60572.0,29060.0,33640.0,28816.0,10125.0,5696.0,765.0,217.0,32.0
28362,County,2020/01/09,47.0,TN,47107.0,McMinn County,8821.0,44464.0,219388.0,48485.0,64159.0,31146.0,31325.0,25287.0,11471.0,6426.0,835.0,240.0,14.0
31569,County,2020/01/10,47.0,TN,47107.0,McMinn County,8091.0,45194.0,231508.0,51328.0,64590.0,30635.0,33020.0,30875.0,13833.0,6224.0,802.0,184.0,17.0
33246,County,2020/01/11,47.0,TN,47107.0,McMinn County,9501.0,43784.0,200935.0,47179.0,55420.0,26175.0,29490.0,26317.0,9639.0,5907.0,655.0,127.0,26.0
36402,County,2020/01/12,47.0,TN,47107.0,McMinn County,9491.0,43794.0,203318.0,47869.0,53102.0,27575.0,30465.0,26950.0,10719.0,5883.0,524.0,217.0,14.0
39595,County,2020/01/13,47.0,TN,47107.0,McMinn County,8754.0,44531.0,222821.0,55422.0,61280.0,27560.0,28406.0,30967.0,11916.0,6231.0,932.0,99.0,8.0
44328,County,2020/01/14,47.0,TN,47107.0,McMinn County,8697.0,44588.0,210355.0,47400.0,62113.0,24208.0,31236.0,26760.0,12237.0,5266.0,852.0,263.0,20.0
47534,County,2020/01/15,47.0,TN,47107.0,McMinn County,8586.0,44699.0,219877.0,51536.0,61891.0,30039.0,30375.0,28736.0,10742.0,5375.0,893.0,268.0,22.0
49063,County,2020/01/16,47.0,TN,47107.0,McMinn County,8093.0,45192.0,227000.0,53710.0,65313.0,25140.0,33155.0,30923.0,12541.0,4966.0,996.0,220.0,36.0
53978,County,2020/01/17,47.0,TN,47107.0,McMinn County,8106.0,45179.0,220377.0,43984.0,65342.0,27768.0,33109.0,29983.0,12996.0,6050.0,873.0,254.0,18.0
55551,County,2020/01/18,47.0,TN,47107.0,McMinn County,9310.0,43975.0,201893.0,46862.0,49108.0,26543.0,30983.0,29920.0,11233.0,5977.0,1029.0,210.0,28.0
58699,County,2020/01/19,47.0,TN,47107.0,McMinn County,9798.0,43487.0,206140.0,48677.0,59023.0,24305.0,31280.0,25985.0,9396.0,6335.0,809.0,295.0,35.0
61931,County,2020/01/20,47.0,TN,47107.0,McMinn County,9632.0,43653.0,199625.0,45981.0,56510.0,22833.0,27157.0,29758.0,11125.0,5099.0,881.0,258.0,23.0
65137,County,2020/01/21,47.0,TN,47107.0,McMinn County,8943.0,44342.0,220870.0,50453.0,61154.0,29448.0,31368.0,30261.0,12182.0,4870.0,868.0,247.0,19.0
69897,County,2020/01/22,47.0,TN,47107.0,McMinn County,8412.0,44873.0,221636.0,52922.0,62949.0,27192.0,33041.0,28949.0,10523.0,5044.0,736.0,263.0,17.0
71523,County,2020/01/23,47.0,TN,47107.0,McMinn County,8864.0,44421.0,224161.0,49383.0,64910.0,27891.0,32352.0,30510.0,11924.0,5902.0,1074.0,200.0,15.0
76237,County,2020/01/24,47.0,TN,47107.0,McMinn County,8322.0,44963.0,255495.0,59139.0,77883.0,28159.0,30564.0,38101.0,13919.0,6362.0,1175.0,172.0,21.0
79472,County,2020/01/25,47.0,TN,47107.0,McMinn County,9208.0,44077.0,221398.0,52340.0,65515.0,23804.0,27819.0,29629.0,14372.0,6875.0,844.0,176.0,24.0
82330,County,2020/01/26,47.0,TN,47107.0,McMinn County,9416.0,43869.0,192554.0,42090.0,56565.0,24664.0,29235.0,26430.0,8234.0,4362.0,687.0,243.0,44.0
83204,County,2020/01/27,47.0,TN,47107.0,McMinn County,8595.0,44690.0,216874.0,49347.0,65863.0,26963.0,28560.0,28027.0,12279.0,4905.0,614.0,288.0,28.0
88040,County,2020/01/28,47.0,TN,47107.0,McMinn County,8748.0,44537.0,232529.0,54796.0,66928.0,28724.0,32336.0,32160.0,11146.0,5328.0,864.0,228.0,19.0
92242,County,2020/01/29,47.0,TN,47107.0,McMinn County,8672.0,44613.0,210847.0,44825.0,64284.0,24683.0,28839.0,27053.0,14075.0,5883.0,959.0,212.0,34.0
95448,County,2020/01/30,47.0,TN,47107.0,McMinn County,8268.0,45017.0,226329.0,52823.0,67915.0,24207.0,32195.0,29824.0,12416.0,5112.0,1441.0,287.0,109.0
97022,County,2020/01/31,47.0,TN,47107.0,McMinn County,8111.0,45174.0,227283.0,55099.0,63961.0,28445.0,29308.0,30869.0,11339.0,6477.0,1433.0,210.0,142.0
101830,County,2020/02/01,47.0,TN,47107.0,McMinn County,8921.0,44364.0,218691.0,48864.0,60757.0,28674.0,32614.0,29565.0,10108.0,6318.0,1384.0,288.0,119.0
103399,County,2020/02/02,47.0,TN,47107.0,McMinn County,9261.0,44024.0,204752.0,48245.0,58155.0,23883.0,33621.0,25752.0,8707.0,4557.0,1483.0,259.0,90.0
108235,County,2020/02/03,47.0,TN,47107.0,McMinn County,8200.0,45085.0,224019.0,50881.0,64842.0,28914.0,32438.0,27477.0,11881.0,5516.0,1681.0,256.0,133.0
109852,County,2020/02/04,47.0,TN,47107.0,McMinn County,7985.0,45300.0,218623.0,47358.0,65216.0,27936.0,29915.0,29253.0,10968.0,5832.0,1630.0,371.0,144.0
112998,County,2020/02/05,47.0,TN,47107.0,McMinn County,8353.0,44932.0,209317.0,43003.0,61479.0,25896.0,30792.0,29140.0,12446.0,4694.0,1434.0,328.0,105.0
116142,County,2020/02/06,47.0,TN,47107.0,McMinn County,8200.0,45085.0,203139.0,43682.0,60387.0,26450.0,28673.0,26302.0,10685.0,5213.0,1325.0,326.0,96.0
121035,County,2020/02/07,47.0,TN,47107.0,McMinn County,8136.0,45149.0,211203.0,48118.0,55572.0,24847.0,32984.0,30340.0,12254.0,5492.0,1181.0,315.0,100.0
124195,County,2020/02/08,47.0,TN,47107.0,McMinn County,10079.0,43206.0,195988.0,44565.0,57395.0,23829.0,27337.0,27107.0,9532.0,4779.0,1105.0,238.0,101.0
126494,County,2020/02/09,47.0,TN,47107.0,McMinn County,9582.0,43703.0,166572.0,29947.0,47643.0,22482.0,27183.0,25259.0,7878.0,4691.0,1024.0,374.0,91.0
130788,County,2020/02/10,47.0,TN,47107.0,McMinn County,8168.0,45117.0,190732.0,34299.0,57615.0,22649.0,30160.0,28032.0,10626.0,5480.0,1357.0,404.0,110.0
133303,County,2020/02/11,47.0,TN,47107.0,McMinn County,7649.0,45636.0,201819.0,43253.0,55453.0,25183.0,30897.0,27527.0,11543.0,6072.0,1328.0,453.0,110.0
134304,County,2020/02/12,47.0,TN,47107.0,McMinn County,7525.0,45760.0,211088.0,43753.0,60861.0,27414.0,33230.0,27755.0,10342.0,5818.0,1285.0,482.0,148.0
140164,County,2020/02/13,47.0,TN,47107.0,McMinn County,7057.0,46228.0,199991.0,39317.0,56987.0,25112.0,31131.0,28768.0,11533.0,5301.0,1170.0,499.0,173.0
143367,County,2020/02/14,47.0,TN,47107.0,McMinn County,6788.0,46497.0,219794.0,44612.0,57889.0,27241.0,32887.0,33969.0,13262.0,7727.0,1432.0,601.0,174.0
144991,County,2020/02/15,47.0,TN,47107.0,McMinn County,7903.0,45382.0,199663.0,38087.0,49953.0,25396.0,34035.0,31369.0,11942.0,6953.0,1189.0,619.0,120.0
149725,County,2020/02/16,47.0,TN,47107.0,McMinn County,9035.0,44250.0,176886.0,34436.0,44841.0,23978.0,31330.0,25339.0,9984.0,5121.0,1173.0,571.0,113.0
151356,County,2020/02/17,47.0,TN,47107.0,McMinn County,9587.0,43698.0,168775.0,34970.0,44687.0,21134.0,27151.0,23078.0,10785.0,5462.0,1140.0,283.0,85.0
156135,County,2020/02/18,47.0,TN,47107.0,McMinn County,7724.0,45561.0,179290.0,33501.0,46073.0,24935.0,30818.0,25547.0,11283.0,4943.0,1397.0,665.0,128.0
157763,County,2020/02/19,47.0,TN,47107.0,McMinn County,7391.0,45894.0,193206.0,36876.0,52939.0,23480.0,33226.0,28066.0,11130.0,5468.0,1458.0,463.0,100.0
162572,County,2020/02/20,47.0,TN,47107.0,McMinn County,7860.0,45425.0,187641.0,36323.0,51636.0,23846.0,31714.0,26497.0,10374.0,5300.0,1473.0,365.0,113.0
164102,County,2020/02/21,47.0,TN,47107.0,McMinn County,7437.0,45848.0,198895.0,36979.0,52815.0,24042.0,33035.0,31556.0,12705.0,5730.0,1567.0,337.0,129.0
168862,County,2020/02/22,47.0,TN,47107.0,McMinn County,8073.0,45212.0,198833.0,40380.0,48901.0,26872.0,32975.0,28996.0,11175.0,7543.0,1527.0,344.0,120.0
170524,County,2020/02/23,47.0,TN,47107.0,McMinn County,9071.0,44214.0,174503.0,34403.0,42216.0,24111.0,30653.0,26541.0,9583.0,5752.0,871.0,303.0,70.0
175305,County,2020/02/24,47.0,TN,47107.0,McMinn County,7870.0,45415.0,203157.0,44663.0,50878.0,27090.0,32167.0,30172.0,11864.0,4786.0,1114.0,367.0,56.0
178151,County,2020/02/25,47.0,TN,47107.0,McMinn County,6890.0,46395.0,220777.0,45368.0,62230.0,27585.0,35930.0,30829.0,12377.0,4902.0,1149.0,361.0,46.0
181344,County,2020/02/26,47.0,TN,47107.0,McMinn County,8049.0,45236.0,261121.0,52070.0,76426.0,33148.0,42634.0,39078.0,11096.0,5019.0,1273.0,352.0,25.0
184876,County,2020/02/27,47.0,TN,47107.0,McMinn County,7241.0,46044.0,213799.0,43788.0,57489.0,27812.0,34184.0,30424.0,13535.0,5505.0,783.0,254.0,25.0
186602,County,2020/02/28,47.0,TN,47107.0,McMinn County,6854.0,46431.0,224083.0,45464.0,59263.0,29710.0,34318.0,33577.0,14115.0,6569.0,796.0,226.0,45.0
189655,County,2020/02/29,47.0,TN,47107.0,McMinn County,7587.0,45698.0,206687.0,39586.0,53182.0,25946.0,33351.0,31062.0,14893.0,7691.0,788.0,158.0,30.0
194488,County,2020/03/01,47.0,TN,47107.0,McMinn County,9333.0,43952.0,212013.0,48621.0,54469.0,28734.0,34612.0,29005.0,9749.0,5787.0,723.0,260.0,53.0
197644,County,2020/03/02,47.0,TN,47107.0,McMinn County,8074.0,45211.0,230495.0,48393.0,64549.0,27500.0,34793.0,32860.0,14740.0,6301.0,1054.0,244.0,61.0
199175,County,2020/03/03,47.0,TN,47107.0,McMinn County,7462.0,45823.0,229983.0,54692.0,60809.0,29291.0,32648.0,32396.0,12636.0,5122.0,1924.0,391.0,74.0
201602,County,2020/03/04,47.0,TN,47107.0,McMinn County,7452.0,45833.0,237759.0,50600.0,63977.0,28598.0,37618.0,32978.0,13350.0,8598.0,1597.0,388.0,55.0
205622,County,2020/03/05,47.0,TN,47107.0,McMinn County,6962.0,46323.0,239072.0,50751.0,65069.0,31374.0,30163.0,37071.0,14315.0,8090.0,1766.0,447.0,26.0
210473,County,2020/03/06,47.0,TN,47107.0,McMinn County,7654.0,45631.0,253265.0,57411.0,72871.0,31761.0,32739.0,32239.0,15573.0,8642.0,1673.0,314.0,42.0
212090,County,2020/03/07,47.0,TN,47107.0,McMinn County,8169.0,45116.0,216990.0,42633.0,57576.0,26439.0,35673.0,31698.0,12441.0,8111.0,1905.0,460.0,54.0
215257,County,2020/03/08,47.0,TN,47107.0,McMinn County,8936.0,44349.0,212657.0,41954.0,62893.0,29567.0,31070.0,29784.0,9419.0,5593.0,1924.0,396.0,57.0
220015,County,2020/03/09,47.0,TN,47107.0,McMinn County,8135.0,45150.0,249196.0,62060.0,63942.0,33304.0,36383.0,32876.0,11832.0,6670.0,1620.0,480.0,29.0
223208,County,2020/03/10,47.0,TN,47107.0,McMinn County,7857.0,45428.0,222296.0,46915.0,58771.0,29304.0,32846.0,31468.0,13276.0,7245.0,1950.0,464.0,57.0
226388,County,2020/03/11,47.0,TN,47107.0,McMinn County,7083.0,46202.0,248017.0,58338.0,72073.0,32273.0,36503.0,27353.0,9489.0,8341.0,2973.0,508.0,166.0
228066,County,2020/03/12,47.0,TN,47107.0,McMinn County,7776.0,45509.0,264851.0,72714.0,65443.0,32944.0,33268.0,34050.0,13937.0,9071.0,2741.0,532.0,151.0
231226,County,2020/03/13,47.0,TN,47107.0,McMinn County,7473.0,45812.0,271264.0,76919.0,73727.0,32535.0,31753.0,34306.0,10737.0,7708.0,3037.0,454.0,88.0
235950,County,2020/03/14,47.0,TN,47107.0,McMinn County,9144.0,44141.0,243345.0,52497.0,62514.0,38648.0,37720.0,30039.0,10563.0,7474.0,3442.0,323.0,125.0
239179,County,2020/03/15,47.0,TN,47107.0,McMinn County,11220.0,42065.0,201448.0,44887.0,51578.0,31327.0,31130.0,26793.0,9151.0,5005.0,1204.0,306.0,67.0
240806,County,2020/03/16,47.0,TN,47107.0,McMinn County,9557.0,43728.0,219817.0,46724.0,63966.0,26503.0,30742.0,31289.0,12391.0,6383.0,1384.0,405.0,30.0
245565,County,2020/03/17,47.0,TN,47107.0,McMinn County,10233.0,43052.0,215222.0,44088.0,55970.0,27682.0,29215.0,37629.0,11945.0,6887.0,1415.0,346.0,45.0
248720,County,2020/03/18,47.0,TN,47107.0,McMinn County,10883.0,42402.0,217649.0,49747.0,59498.0,24517.0,31272.0,32567.0,12675.0,5605.0,1364.0,351.0,53.0
250399,County,2020/03/19,47.0,TN,47107.0,McMinn County,10866.0,42419.0,205137.0,42925.0,61777.0,24606.0,29893.0,27955.0,11106.0,4733.0,1800.0,278.0,64.0
253584,County,2020/03/20,47.0,TN,47107.0,McMinn County,10415.0,42870.0,211511.0,43677.0,56475.0,29599.0,32357.0,29653.0,11990.0,5436.0,1780.0,462.0,82.0
256727,County,2020/03/21,47.0,TN,47107.0,McMinn County,11679.0,41606.0,187136.0,40773.0,53473.0,23124.0,32018.0,25686.0,5827.0,4825.0,991.0,354.0,65.0
261529,County,2020/03/22,47.0,TN,47107.0,McMinn County,11613.0,41672.0,156981.0,32414.0,41646.0,22915.0,26698.0,21912.0,5792.0,4017.0,1193.0,329.0,65.0
263167,County,2020/03/23,47.0,TN,47107.0,McMinn County,10704.0,42581.0,179981.0,42645.0,52905.0,20412.0,25388.0,22132.0,9753.0,5080.0,1358.0,281.0,27.0
266318,County,2020/03/24,47.0,TN,47107.0,McMinn County,10903.0,42382.0,162460.0,35561.0,48147.0,18867.0,22278.0,20373.0,10027.0,5134.0,1654.0,380.0,39.0
269552,County,2020/03/25,47.0,TN,47107.0,McMinn County,10716.0,42569.0,185978.0,43583.0,50852.0,23568.0,24408.0,26490.0,10592.0,4868.0,1253.0,337.0,27.0
274293,County,2020/03/26,47.0,TN,47107.0,McMinn County,10757.0,42528.0,198136.0,52099.0,52465.0,24398.0,26306.0,26617.0,10282.0,4394.0,1208.0,328.0,39.0
275933,County,2020/03/27,47.0,TN,47107.0,McMinn County,10518.0,42767.0,197512.0,48245.0,55575.0,24057.0,26804.0,26817.0,10086.0,3844.0,1704.0,352.0,28.0
280694,County,2020/03/28,47.0,TN,47107.0,McMinn County,11277.0,42008.0,182366.0,42576.0,49197.0,24887.0,25815.0,26134.0,8264.0,4068.0,1209.0,198.0,18.0
282329,County,2020/03/29,47.0,TN,47107.0,McMinn County,12098.0,41187.0,158878.0,39115.0,40611.0,21618.0,25245.0,22626.0,5442.0,2835.0,1074.0,272.0,40.0
285474,County,2020/03/30,47.0,TN,47107.0,McMinn County,10450.0,42835.0,193012.0,45907.0,52127.0,23775.0,30627.0,25147.0,9646.0,3979.0,1164.0,591.0,49.0
290277,County,2020/03/31,47.0,TN,47107.0,McMinn County,11099.0,42186.0,164009.0,39513.0,43129.0,20414.0,23966.0,20563.0,9483.0,4827.0,1849.0,220.0,45.0
293476,County,2020/04/01,47.0,TN,47107.0,McMinn County,10958.0,42327.0,189222.0,48113.0,50479.0,25630.0,26865.0,22891.0,8195.0,5250.0,1541.0,209.0,49.0
295105,County,2020/04/02,47.0,TN,47107.0,McMinn County,11109.0,42176.0,175392.0,40681.0,47169.0,21478.0,27242.0,22412.0,9734.0,5243.0,1115.0,286.0,32.0
298298,County,2020/04/03,47.0,TN,47107.0,McMinn County,10912.0,42373.0,197791.0,47132.0,54263.0,25297.0,27156.0,28265.0,9865.0,4429.0,1161.0,175.0,48.0
303045,County,2020/04/04,47.0,TN,47107.0,McMinn County,12169.0,41116.0,177181.0,38025.0,49095.0,26179.0,30525.0,23481.0,5483.0,2972.0,1122.0,262.0,37.0
304673,County,2020/04/05,47.0,TN,47107.0,McMinn County,12221.0,41064.0,164096.0,35565.0,45705.0,21473.0,26500.0,23623.0,5940.0,3544.0,1404.0,324.0,18.0
309447,County,2020/04/06,47.0,TN,47107.0,McMinn County,10774.0,42511.0,201679.0,51542.0,54092.0,26480.0,28664.0,24665.0,10823.0,4145.0,955.0,288.0,25.0
311074,County,2020/04/07,47.0,TN,47107.0,McMinn County,11094.0,42191.0,193121.0,43854.0,54549.0,24084.0,29654.0,26061.0,9799.0,4099.0,714.0,272.0,35.0
314269,County,2020/04/08,47.0,TN,47107.0,McMinn County,11381.0,41904.0,201748.0,47125.0,59792.0,24938.0,30956.0,26141.0,8341.0,3771.0,498.0,161.0,25.0
317437,County,2020/04/09,47.0,TN,47107.0,McMinn County,11569.0,41716.0,201935.0,49761.0,56077.0,29693.0,28989.0,24134.0,8451.0,3602.0,984.0,221.0,23.0
320664,County,2020/04/10,47.0,TN,47107.0,McMinn County,10943.0,42342.0,209877.0,54075.0,56856.0,25485.0,33148.0,25700.0,10702.0,2942.0,762.0,159.0,48.0
325417,County,2020/04/11,47.0,TN,47107.0,McMinn County,10782.0,42503.0,212568.0,53881.0,59797.0,23739.0,35450.0,26115.0,8582.0,4058.0,769.0,148.0,29.0
328584,County,2020/04/12,47.0,TN,47107.0,McMinn County,12665.0,40620.0,145023.0,28553.0,44075.0,19124.0,27093.0,19238.0,4619.0,1397.0,747.0,147.0,30.0
331806,County,2020/04/13,47.0,TN,47107.0,McMinn County,11708.0,41577.0,191081.0,46950.0,55263.0,24935.0,26957.0,25778.0,7682.0,2793.0,611.0,99.0,13.0
333384,County,2020/04/14,47.0,TN,47107.0,McMinn County,9753.0,43532.0,237894.0,58460.0,68524.0,33947.0,33330.0,30139.0,9348.0,2835.0,881.0,372.0,58.0
338184,County,2020/04/15,47.0,TN,47107.0,McMinn County,9730.0,43555.0,242103.0,58517.0,71885.0,30542.0,35705.0,29100.0,10179.0,4837.0,1049.0,252.0,37.0
341328,County,2020/04/16,47.0,TN,47107.0,McMinn County,10000.0,43285.0,272904.0,68491.0,67818.0,34960.0,39854.0,37430.0,13602.0,9666.0,837.0,232.0,14.0
343112,County,2020/04/17,47.0,TN,47107.0,McMinn County,9110.0,44175.0,248255.0,55806.0,75663.0,35934.0,33340.0,34985.0,8232.0,2988.0,1073.0,191.0,43.0
347738,County,2020/04/18,47.0,TN,47107.0,McMinn County,10770.0,42515.0,237827.0,55860.0,55021.0,31164.0,46308.0,37346.0,8319.0,2456.0,1073.0,250.0,30.0
349340,County,2020/04/19,47.0,TN,47107.0,McMinn County,10867.0,42418.0,194135.0,41249.0,58120.0,28102.0,32168.0,24240.0,7365.0,1973.0,670.0,189.0,59.0
354170,County,2020/04/20,47.0,TN,47107.0,McMinn County,10000.0,43285.0,212678.0,46972.0,58498.0,34784.0,29717.0,29541.0,8554.0,3583.0,861.0,132.0,36.0
357356,County,2020/04/21,47.0,TN,47107.0,McMinn County,10635.0,42650.0,198976.0,47822.0,54922.0,26915.0,28454.0,25114.0,10717.0,3788.0,987.0,238.0,19.0
358984,County,2020/04/22,47.0,TN,47107.0,McMinn County,10118.0,43167.0,194108.0,45955.0,47780.0,27620.0,30391.0,26063.0,10495.0,4771.0,886.0,129.0,18.0
362090,County,2020/04/23,47.0,TN,47107.0,McMinn County,10953.0,42332.0,190163.0,40985.0,53524.0,25206.0,27499.0,26327.0,10324.0,5230.0,858.0,180.0,30.0
366928,County,2020/04/24,47.0,TN,47107.0,McMinn County,10275.0,43010.0,223237.0,55311.0,62263.0,27026.0,30241.0,29958.0,11166.0,6186.0,848.0,213.0,25.0
368511,County,2020/04/25,47.0,TN,47107.0,McMinn County,11119.0,42166.0,187448.0,47342.0,49412.0,24729.0,28190.0,24732.0,7427.0,4669.0,776.0,152.0,19.0
371677,County,2020/04/26,47.0,TN,47107.0,McMinn County,11062.0,42223.0,175447.0,35941.0,52491.0,25800.0,25089.0,25150.0,5965.0,3915.0,886.0,197.0,13.0
374954,County,2020/04/27,47.0,TN,47107.0,McMinn County,9855.0,43430.0,218442.0,58215.0,55951.0,28057.0,31304.0,28881.0,10725.0,4164.0,817.0,317.0,11.0
378105,County,2020/04/28,47.0,TN,47107.0,McMinn County,10352.0,42933.0,208832.0,49474.0,56319.0,28276.0,26289.0,30963.0,11733.0,4770.0,823.0,163.0,22.0
381357,County,2020/04/29,47.0,TN,47107.0,McMinn County,10656.0,42629.0,195051.0,47689.0,52279.0,24506.0,29876.0,25285.0,10083.0,4193.0,906.0,205.0,29.0
386103,County,2020/04/30,47.0,TN,47107.0,McMinn County,10165.0,43120.0,204895.0,49115.0,56000.0,29301.0,28153.0,25576.0,10208.0,5413.0,862.0,256.0,11.0
387729,County,2020/05/01,47.0,TN,47107.0,McMinn County,9474.0,43811.0,210638.0,48844.0,54572.0,29418.0,32727.0,28968.0,10503.0,4443.0,1012.0,128.0,23.0
390911,County,2020/05/02,47.0,TN,47107.0,McMinn County,10223.0,43062.0,203500.0,45594.0,49802.0,27904.0,36730.0,29718.0,8722.0,4378.0,417.0,206.0,29.0
394125,County,2020/05/03,47.0,TN,47107.0,McMinn County,10841.0,42444.0,174783.0,35820.0,46586.0,23048.0,29589.0,27134.0,7702.0,3801.0,932.0,164.0,7.0
398879,County,2020/05/04,47.0,TN,47107.0,McMinn County,9927.0,43358.0,201167.0,45960.0,54790.0,25693.0,30543.0,28429.0,10756.0,3820.0,976.0,176.0,24.0
400506,County,2020/05/05,47.0,TN,47107.0,McMinn County,9550.0,43735.0,204673.0,46819.0,54555.0,26400.0,31756.0,29111.0,10852.0,4174.0,775.0,213.0,18.0
405261,County,2020/05/06,47.0,TN,47107.0,McMinn County,9660.0,43625.0,226329.0,50403.0,62461.0,27572.0,33949.0,35183.0,10684.0,4910.0,973.0,176.0,18.0
406887,County,2020/05/07,47.0,TN,47107.0,McMinn County,9391.0,43894.0,222681.0,52862.0,59023.0,27654.0,34275.0,29729.0,13143.0,4596.0,1108.0,256.0,35.0
410192,County,2020/05/08,47.0,TN,47107.0,McMinn County,9734.0,43551.0,216106.0,47303.0,61991.0,27429.0,34067.0,29976.0,10580.0,3658.0,899.0,176.0,27.0
414814,County,2020/05/09,47.0,TN,47107.0,McMinn County,9970.0,43315.0,218194.0,48039.0,59729.0,31237.0,34696.0,28786.0,9923.0,4690.0,868.0,207.0,19.0
417994,County,2020/05/10,47.0,TN,47107.0,McMinn County,10335.0,42950.0,192858.0,37310.0,48624.0,28076.0,32744.0,31597.0,10187.0,3445.0,674.0,195.0,6.0
421225,County,2020/05/11,47.0,TN,47107.0,McMinn County,7697.0,45588.0,252745.0,57222.0,61490.0,30037.0,42562.0,43830.0,10942.0,5297.0,1049.0,293.0,23.0
422903,County,2020/05/12,47.0,TN,47107.0,McMinn County,7756.0,45529.0,245291.0,60675.0,63039.0,30026.0,38420.0,34833.0,11117.0,5642.0,1207.0,312.0,20.0
427625,County,2020/05/13,47.0,TN,47107.0,McMinn County,8133.0,45152.0,236365.0,55399.0,58356.0,27786.0,36037.0,38963.0,12492.0,6048.0,1012.0,240.0,32.0
430819,County,2020/05/14,47.0,TN,47107.0,McMinn County,7548.0,45737.0,239792.0,60124.0,64511.0,25931.0,33867.0,34946.0,12257.0,6405.0,1357.0,371.0,23.0
433993,County,2020/05/15,47.0,TN,47107.0,McMinn County,7687.0,45598.0,248726.0,64522.0,64453.0,28223.0,33516.0,36844.0,13206.0,5945.0,1547.0,453.0,17.0
435671,County,2020/05/16,47.0,TN,47107.0,McMinn County,8385.0,44900.0,230209.0,55625.0,65010.0,27495.0,34455.0,30739.0,10252.0,4860.0,1555.0,195.0,23.0
440355,County,2020/05/17,47.0,TN,47107.0,McMinn County,8250.0,45035.0,235098.0,55797.0,64409.0,26995.0,40030.0,30006.0,12120.0,4692.0,929.0,120.0,0.0
442069,County,2020/05/18,47.0,TN,47107.0,McMinn County,6658.0,46627.0,239013.0,53015.0,67710.0,29215.0,37006.0,33729.0,12237.0,4930.0,985.0,180.0,6.0
445223,County,2020/05/19,47.0,TN,47107.0,McMinn County,7112.0,46173.0,236233.0,63122.0,63814.0,28796.0,30363.0,31653.0,11807.0,5405.0,984.0,268.0,21.0
448390,County,2020/05/20,47.0,TN,47107.0,McMinn County,7276.0,46009.0,253749.0,62369.0,66175.0,31014.0,33383.0,43792.0,10872.0,4733.0,1244.0,157.0,10.0
452824,County,2020/05/21,47.0,TN,47107.0,McMinn County,6287.0,46998.0,250251.0,61713.0,70821.0,26617.0,36188.0,32271.0,15081.0,5877.0,1442.0,229.0,12.0
456370,County,2020/05/22,47.0,TN,47107.0,McMinn County,6503.0,46782.0,256477.0,67327.0,63985.0,28318.0,35023.0,37279.0,15767.0,7187.0,1286.0,282.0,23.0
457993,County,2020/05/23,47.0,TN,47107.0,McMinn County,7617.0,45668.0,244240.0,57501.0,65055.0,26824.0,39932.0,36798.0,11738.0,4839.0,1127.0,419.0,7.0
461161,County,2020/05/24,47.0,TN,47107.0,McMinn County,8839.0,44446.0,194341.0,43184.0,50607.0,23089.0,32572.0,29318.0,9688.0,3564.0,1537.0,726.0,56.0
464364,County,2020/05/25,47.0,TN,47107.0,McMinn County,9349.0,43936.0,178320.0,42163.0,47865.0,22246.0,28118.0,24163.0,7803.0,3908.0,1485.0,489.0,80.0
469145,County,2020/05/26,47.0,TN,47107.0,McMinn County,7664.0,45621.0,166653.0,37108.0,44282.0,18978.0,24759.0,23299.0,9529.0,5082.0,2447.0,1091.0,78.0
470774,County,2020/05/27,47.0,TN,47107.0,McMinn County,8202.0,45083.0,193285.0,46446.0,52357.0,20511.0,30408.0,26117.0,10350.0,4448.0,2042.0,572.0,34.0
475535,County,2020/05/28,47.0,TN,47107.0,McMinn County,8447.0,44838.0,211268.0,53160.0,58463.0,23604.0,27656.0,28709.0,11945.0,6319.0,1062.0,335.0,15.0
477115,County,2020/05/29,47.0,TN,47107.0,McMinn County,9811.0,43474.0,238811.0,55262.0,60169.0,31494.0,32096.0,40721.0,11715.0,5840.0,1289.0,216.0,9.0
480302,County,2020/05/30,47.0,TN,47107.0,McMinn County,10448.0,42837.0,206184.0,46680.0,56970.0,25543.0,27195.0,31517.0,10391.0,6097.0,1516.0,242.0,33.0
485069,County,2020/05/31,47.0,TN,47107.0,McMinn County,9610.0,43675.0,195864.0,48190.0,50949.0,22655.0,29226.0,28199.0,9517.0,5241.0,1390.0,479.0,18.0
488370,County,2020/06/01,47.0,TN,47107.0,McMinn County,8319.0,44966.0,226516.0,54191.0,61329.0,26694.0,33984.0,32138.0,10794.0,5516.0,1553.0,304.0,13.0
491477,County,2020/06/02,47.0,TN,47107.0,McMinn County,8727.0,44558.0,216876.0,55420.0,56358.0,26846.0,28300.0,30649.0,10797.0,6665.0,1474.0,337.0,30.0
493106,County,2020/06/03,47.0,TN,47107.0,McMinn County,7225.0,46060.0,232352.0,58400.0,63839.0,28516.0,31907.0,30082.0,11593.0,6286.0,1336.0,361.0,32.0
497881,County,2020/06/04,47.0,TN,47107.0,McMinn County,7900.0,45385.0,223689.0,53115.0,58093.0,28692.0,30168.0,32648.0,13475.0,5563.0,1569.0,344.0,22.0
499521,County,2020/06/05,47.0,TN,47107.0,McMinn County,7541.0,45744.0,222446.0,51177.0,56664.0,28136.0,32789.0,32095.0,12379.0,6833.0,1988.0,360.0,25.0
502668,County,2020/06/06,47.0,TN,47107.0,McMinn County,8966.0,44319.0,209632.0,48343.0,48101.0,24892.0,35406.0,33041.0,12390.0,5576.0,1553.0,301.0,29.0
507445,County,2020/06/07,47.0,TN,47107.0,McMinn County,9197.0,44088.0,180178.0,34699.0,55748.0,19510.0,28488.0,26107.0,8627.0,4892.0,1822.0,251.0,34.0
510656,County,2020/06/08,47.0,TN,47107.0,McMinn County,7520.0,45765.0,210854.0,44173.0,59622.0,23180.0,31416.0,33165.0,12224.0,5569.0,1199.0,279.0,27.0
512285,County,2020/06/09,47.0,TN,47107.0,McMinn County,8691.0,44594.0,210581.0,55747.0,54887.0,25348.0,29422.0,27755.0,10334.0,5044.0,1617.0,331.0,96.0
517066,County,2020/06/10,47.0,TN,47107.0,McMinn County,7831.0,45454.0,210345.0,56160.0,52793.0,24601.0,29375.0,27805.0,10768.0,6437.0,1912.0,432.0,62.0
520223,County,2020/06/11,47.0,TN,47107.0,McMinn County,7873.0,45412.0,214308.0,48635.0,57901.0,27840.0,29742.0,30636.0,11777.0,5208.0,2203.0,328.0,38.0
523445,County,2020/06/12,47.0,TN,47107.0,McMinn County,7795.0,45490.0,214201.0,50203.0,58027.0,23804.0,31220.0,29646.0,11685.0,6082.0,3230.0,264.0,40.0
525073,County,2020/06/13,47.0,TN,47107.0,McMinn County,8812.0,44473.0,222279.0,54115.0,55439.0,29439.0,32892.0,31228.0,11723.0,5745.0,1365.0,307.0,26.0
528267,County,2020/06/14,47.0,TN,47107.0,McMinn County,9163.0,44122.0,204072.0,53366.0,52390.0,22002.0,29890.0,28318.0,9969.0,6178.0,1569.0,355.0,35.0
533027,County,2020/06/15,47.0,TN,47107.0,McMinn County,8433.0,44852.0,223258.0,54982.0,60962.0,26793.0,31500.0,30363.0,10610.0,6317.0,1419.0,296.0,16.0
536197,County,2020/06/16,47.0,TN,47107.0,McMinn County,7956.0,45329.0,240372.0,66608.0,62328.0,24621.0,32546.0,33630.0,12966.0,5952.0,1364.0,339.0,18.0
539366,County,2020/06/17,47.0,TN,47107.0,McMinn County,7935.0,45350.0,236478.0,62127.0,65060.0,28267.0,27812.0,30667.0,14812.0,6101.0,1297.0,276.0,59.0
540996,County,2020/06/18,47.0,TN,47107.0,McMinn County,7648.0,45637.0,232752.0,62599.0,58909.0,28615.0,31603.0,29962.0,13108.0,6410.0,1174.0,343.0,29.0
545762,County,2020/06/19,47.0,TN,47107.0,McMinn County,8086.0,45199.0,224414.0,51414.0,59836.0,26290.0,33301.0,32937.0,11876.0,6879.0,1529.0,342.0,10.0
548997,County,2020/06/20,47.0,TN,47107.0,McMinn County,8691.0,44594.0,222338.0,52358.0,61139.0,22598.0,35872.0,31972.0,10980.0,6029.0,1065.0,295.0,30.0
550597,County,2020/06/21,47.0,TN,47107.0,McMinn County,10016.0,43269.0,193664.0,44251.0,52219.0,23411.0,29295.0,29026.0,8863.0,5138.0,1093.0,341.0,27.0
555377,County,2020/06/22,47.0,TN,47107.0,McMinn County,8810.0,44475.0,207693.0,50890.0,59367.0,25500.0,24620.0,29433.0,10509.0,5427.0,1513.0,411.0,23.0
557005,County,2020/06/23,47.0,TN,47107.0,McMinn County,8188.0,45097.0,203344.0,43067.0,57100.0,26642.0,29023.0,28278.0,12467.0,5080.0,1260.0,398.0,29.0
561773,County,2020/06/24,47.0,TN,47107.0,McMinn County,8860.0,44425.0,196682.0,42470.0,57004.0,24941.0,27747.0,27316.0,10906.0,4954.0,1018.0,283.0,43.0
564899,County,2020/06/25,47.0,TN,47107.0,McMinn County,8339.0,44946.0,212362.0,52684.0,60495.0,23979.0,27538.0,28238.0,10421.0,7264.0,1459.0,255.0,29.0
568197,County,2020/06/26,47.0,TN,47107.0,McMinn County,8513.0,44772.0,211962.0,50366.0,55620.0,24946.0,28978.0,31849.0,12788.0,5889.0,1182.0,316.0,28.0
571347,County,2020/06/27,47.0,TN,47107.0,McMinn County,8658.0,44627.0,207484.0,47331.0,58203.0,24142.0,28129.0,30552.0,11994.0,5623.0,1201.0,270.0,39.0
574529,County,2020/06/28,47.0,TN,47107.0,McMinn County,9159.0,44126.0,177439.0,41868.0,47739.0,18264.0,26892.0,27409.0,9418.0,4165.0,1303.0,352.0,29.0
576132,County,2020/06/29,47.0,TN,47107.0,McMinn County,9139.0,44146.0,183944.0,35904.0,50889.0,24225.0,26831.0,28983.0,9837.0,5501.0,1403.0,342.0,29.0
580942,County,2020/06/30,47.0,TN,47107.0,McMinn County,8451.0,44834.0,182833.0,40112.0,48436.0,22996.0,27328.0,26422.0,10302.0,4883.0,1913.0,381.0,60.0
584132,County,2020/07/01,47.0,TN,47107.0,McMinn County,8491.0,44794.0,190187.0,38975.0,50969.0,25120.0,30089.0,25932.0,10400.0,6343.0,1884.0,423.0,52.0
585736,County,2020/07/02,47.0,TN,47107.0,McMinn County,9198.0,44087.0,225403.0,55919.0,64210.0,25451.0,29229.0,29972.0,11061.0,7710.0,1549.0,271.0,31.0
590527,County,2020/07/03,47.0,TN,47107.0,McMinn County,9605.0,43680.0,210768.0,50082.0,55307.0,24805.0,28815.0,31670.0,12716.0,5856.0,1175.0,314.0,28.0
593712,County,2020/07/04,47.0,TN,47107.0,McMinn County,9952.0,43333.0,180319.0,42847.0,47316.0,21222.0,24652.0,27094.0,10879.0,5010.0,1006.0,269.0,24.0
595364,County,2020/07/05,47.0,TN,47107.0,McMinn County,9276.0,44009.0,180868.0,46836.0,50458.0,18904.0,26200.0,24890.0,6775.0,4687.0,1685.0,355.0,78.0
600052,County,2020/07/06,47.0,TN,47107.0,McMinn County,9456.0,43829.0,182446.0,45023.0,46381.0,19861.0,29372.0,26046.0,9025.0,4533.0,1766.0,358.0,81.0
601630,County,2020/07/07,47.0,TN,47107.0,McMinn County,9086.0,44199.0,181299.0,41901.0,48837.0,20196.0,24339.0,27777.0,10653.0,4875.0,2272.0,404.0,45.0
606390,County,2020/07/08,47.0,TN,47107.0,McMinn County,8822.0,44463.0,180312.0,43561.0,48868.0,19686.0,24299.0,26215.0,10456.0,4806.0,1951.0,411.0,59.0
608116,County,2020/07/09,47.0,TN,47107.0,McMinn County,9021.0,44264.0,181041.0,42423.0,49407.0,19989.0,23464.0,28215.0,9942.0,5020.0,2031.0,496.0,54.0
611316,County,2020/07/10,47.0,TN,47107.0,McMinn County,8963.0,44322.0,188797.0,42276.0,48726.0,20199.0,26578.0,30087.0,11386.0,6956.0,2081.0,464.0,44.0
616064,County,2020/07/11,47.0,TN,47107.0,McMinn County,9143.0,44142.0,184840.0,42028.0,45974.0,21529.0,27597.0,27865.0,10885.0,6449.0,2149.0,323.0,41.0
619252,County,2020/07/12,47.0,TN,47107.0,McMinn County,9561.0,43724.0,152987.0,33194.0,38029.0,18606.0,23846.0,23321.0,8911.0,4263.0,2262.0,469.0,86.0
622458,County,2020/07/13,47.0,TN,47107.0,McMinn County,8919.0,44366.0,180978.0,39844.0,43749.0,23365.0,24718.0,30190.0,10799.0,5576.0,2267.0,348.0,122.0
625652,County,2020/07/14,47.0,TN,47107.0,McMinn County,9179.0,44106.0,194987.0,46005.0,50281.0,23313.0,26635.0,28874.0,11450.0,6215.0,1831.0,296.0,87.0
627160,County,2020/07/15,47.0,TN,47107.0,McMinn County,9334.0,43951.0,198112.0,49199.0,53472.0,22248.0,28303.0,26369.0,10804.0,5796.0,1448.0,416.0,57.0
632091,County,2020/07/16,47.0,TN,47107.0,McMinn County,9346.0,43939.0,197804.0,43487.0,51459.0,26523.0,25747.0,31742.0,11860.0,5287.0,1328.0,304.0,67.0
635186,County,2020/07/17,47.0,TN,47107.0,McMinn County,9688.0,43597.0,190540.0,36116.0,54138.0,24404.0,27853.0,29921.0,12105.0,4426.0,1366.0,185.0,26.0
636863,County,2020/07/18,47.0,TN,47107.0,McMinn County,10037.0,43248.0,176444.0,37421.0,42288.0,20715.0,27953.0,30383.0,9560.0,6519.0,1170.0,378.0,57.0
640018,County,2020/07/19,47.0,TN,47107.0,McMinn County,11126.0,42159.0,171558.0,31918.0,50559.0,21296.0,25858.0,27343.0,7745.0,5358.0,1152.0,284.0,45.0
644800,County,2020/07/20,47.0,TN,47107.0,McMinn County,10639.0,42646.0,185684.0,34605.0,51172.0,23743.0,26887.0,30636.0,11983.0,5378.0,1012.0,241.0,27.0
646428,County,2020/07/21,47.0,TN,47107.0,McMinn County,9766.0,43519.0,186763.0,37623.0,53296.0,21990.0,24755.0,29145.0,12211.0,5498.0,1843.0,349.0,53.0
649110,County,2020/07/22,47.0,TN,47107.0,McMinn County,9175.0,44110.0,178031.0,34998.0,50067.0,22090.0,24750.0,27107.0,10603.0,5983.0,2125.0,268.0,40.0
652747,County,2020/07/23,47.0,TN,47107.0,McMinn County,9220.0,44065.0,173808.0,36324.0,46823.0,17952.0,24686.0,27278.0,12284.0,5964.0,2083.0,350.0,64.0
657624,County,2020/07/24,47.0,TN,47107.0,McMinn County,8628.0,44657.0,193420.0,44422.0,50755.0,24524.0,25782.0,27964.0,12589.0,5071.0,1922.0,353.0,38.0
660841,County,2020/07/25,47.0,TN,47107.0,McMinn County,10524.0,42761.0,195767.0,48113.0,50634.0,22788.0,25499.0,31256.0,10668.0,4860.0,1712.0,185.0,52.0
663922,County,2020/07/26,47.0,TN,47107.0,McMinn County,10211.0,43074.0,178576.0,32421.0,50243.0,23244.0,25164.0,26405.0,11227.0,7131.0,2219.0,478.0,44.0
667195,County,2020/07/27,47.0,TN,47107.0,McMinn County,9103.0,44182.0,178420.0,35817.0,47663.0,18860.0,26100.0,29056.0,11768.0,6461.0,2318.0,315.0,62.0
670349,County,2020/07/28,47.0,TN,47107.0,McMinn County,8872.0,44413.0,198773.0,48663.0,49730.0,23269.0,26858.0,29386.0,12040.0,6431.0,1910.0,418.0,68.0
671980,County,2020/07/29,47.0,TN,47107.0,McMinn County,9585.0,43700.0,187102.0,41236.0,45075.0,23624.0,28290.0,28219.0,10830.0,7577.0,1806.0,396.0,49.0
676741,County,2020/07/30,47.0,TN,47107.0,McMinn County,8944.0,44341.0,184747.0,42683.0,47523.0,20358.0,25804.0,26270.0,11359.0,7712.0,2605.0,396.0,37.0
678392,County,2020/07/31,47.0,TN,47107.0,McMinn County,9215.0,44070.0,178120.0,37115.0,47277.0,19148.0,24979.0,28655.0,11252.0,6704.0,2475.0,455.0,60.0
681501,County,2020/08/01,47.0,TN,47107.0,McMinn County,10513.0,42772.0,169430.0,31289.0,46354.0,18914.0,25030.0,28014.0,11953.0,5322.0,2121.0,385.0,48.0
686330,County,2020/08/02,47.0,TN,47107.0,McMinn County,10458.0,42827.0,167065.0,32340.0,45527.0,18987.0,25295.0,27120.0,9073.0,6158.0,2150.0,378.0,37.0
689533,County,2020/08/03,47.0,TN,47107.0,McMinn County,8893.0,44392.0,204012.0,43230.0,56534.0,23392.0,30097.0,30650.0,11959.0,5771.0,1976.0,370.0,33.0
691161,County,2020/08/04,47.0,TN,47107.0,McMinn County,8476.0,44809.0,352168.0,164537.0,76772.0,27470.0,30479.0,32038.0,12372.0,6406.0,1709.0,358.0,27.0
694323,County,2020/08/05,47.0,TN,47107.0,McMinn County,8859.0,44426.0,246700.0,82945.0,60294.0,25803.0,27772.0,30826.0,11475.0,5850.0,1350.0,341.0,44.0
697530,County,2020/08/06,47.0,TN,47107.0,McMinn County,8587.0,44698.0,202296.0,38375.0,63091.0,25589.0,25370.0,28706.0,13172.0,6201.0,1471.0,290.0,31.0
700742,County,2020/08/07,47.0,TN,47107.0,McMinn County,8611.0,44674.0,204542.0,42255.0,54661.0,21673.0,28645.0,36244.0,12626.0,6546.0,1475.0,388.0,29.0
705503,County,2020/08/08,47.0,TN,47107.0,McMinn County,9262.0,44023.0,196530.0,38550.0,53239.0,26604.0,29026.0,29437.0,13119.0,4755.0,1450.0,317.0,33.0
707130,County,2020/08/09,47.0,TN,47107.0,McMinn County,10089.0,43196.0,175277.0,29261.0,50895.0,21972.0,29486.0,27218.0,9505.0,5454.0,1126.0,332.0,28.0
711891,County,2020/08/10,47.0,TN,47107.0,McMinn County,8922.0,44363.0,171083.0,27511.0,46627.0,22557.0,27180.0,28278.0,12081.0,5664.0,857.0,299.0,29.0
715084,County,2020/08/11,47.0,TN,47107.0,McMinn County,9092.0,44193.0,177498.0,32044.0,47148.0,21768.0,27498.0,30224.0,11506.0,5648.0,1410.0,238.0,14.0
718230,County,2020/08/12,47.0,TN,47107.0,McMinn County,8865.0,44420.0,169420.0,34125.0,45087.0,19464.0,24189.0,26799.0,11258.0,6263.0,1921.0,243.0,71.0
719908,County,2020/08/13,47.0,TN,47107.0,McMinn County,7791.0,45494.0,175590.0,32226.0,46632.0,19827.0,26069.0,29036.0,11437.0,7256.0,2617.0,421.0,69.0
724651,County,2020/08/14,47.0,TN,47107.0,McMinn County,7875.0,45410.0,198072.0,46443.0,50313.0,22704.0,28448.0,27886.0,11888.0,7629.0,2293.0,368.0,100.0
727862,County,2020/08/15,47.0,TN,47107.0,McMinn County,8886.0,44399.0,162466.0,27314.0,44966.0,19035.0,24179.0,26354.0,11750.0,6370.0,2094.0,301.0,103.0
731054,County,2020/08/16,47.0,TN,47107.0,McMinn County,10002.0,43283.0,141226.0,22297.0,34547.0,18461.0,23738.0,21782.0,9753.0,6771.0,3025.0,694.0,158.0
732684,County,2020/08/17,47.0,TN,47107.0,McMinn County,9611.0,43674.0,158196.0,29306.0,40197.0,18195.0,23100.0,25463.0,11164.0,7040.0,3000.0,596.0,135.0
735850,County,2020/08/18,47.0,TN,47107.0,McMinn County,9306.0,43979.0,135320.0,24636.0,32572.0,15528.0,18335.0,21884.0,11237.0,6723.0,3562.0,636.0,207.0
739055,County,2020/08/19,47.0,TN,47107.0,McMinn County,8664.0,44621.0,150898.0,24372.0,40269.0,19355.0,22680.0,23044.0,11372.0,5837.0,3140.0,671.0,158.0
743836,County,2020/08/20,47.0,TN,47107.0,McMinn County,8402.0,44883.0,150023.0,24828.0,35772.0,17051.0,24417.0,24077.0,11784.0,8003.0,3215.0,690.0,186.0
747041,County,2020/08/21,47.0,TN,47107.0,McMinn County,8154.0,45131.0,162554.0,28977.0,41310.0,17558.0,25946.0,25614.0,12022.0,7578.0,2864.0,552.0,133.0
750197,County,2020/08/22,47.0,TN,47107.0,McMinn County,9215.0,44070.0,161434.0,26820.0,39537.0,20798.0,26185.0,25893.0,12283.0,6765.0,2491.0,493.0,169.0
753366,County,2020/08/23,47.0,TN,47107.0,McMinn County,10201.0,43084.0,139744.0,23782.0,34863.0,16748.0,24293.0,23770.0,8689.0,4897.0,2140.0,452.0,110.0
755037,County,2020/08/24,47.0,TN,47107.0,McMinn County,9673.0,43612.0,143356.0,22752.0,37832.0,19672.0,22307.0,22849.0,9832.0,5621.0,1963.0,414.0,114.0
759798,County,2020/08/25,47.0,TN,47107.0,McMinn County,8887.0,44398.0,154454.0,27677.0,37210.0,20180.0,26462.0,23282.0,11676.0,5801.0,1626.0,439.0,101.0
761380,County,2020/08/26,47.0,TN,47107.0,McMinn County,9340.0,43945.0,150939.0,26997.0,40123.0,18312.0,23929.0,24197.0,9695.0,5402.0,1834.0,387.0,63.0
764587,County,2020/08/27,47.0,TN,47107.0,McMinn County,9207.0,44078.0,154511.0,26962.0,38170.0,17459.0,26095.0,25297.0,11619.0,5866.0,2539.0,475.0,29.0
767793,County,2020/08/28,47.0,TN,47107.0,McMinn County,8720.0,44565.0,157975.0,27880.0,40270.0,18302.0,25224.0,26558.0,10996.0,6089.0,2183.0,421.0,52.0
770997,County,2020/08/29,47.0,TN,47107.0,McMinn County,9244.0,44041.0,154168.0,28450.0,40955.0,17900.0,23894.0,25286.0,8537.0,6260.0,2338.0,507.0,41.0
775771,County,2020/08/30,47.0,TN,47107.0,McMinn County,10314.0,42971.0,143384.0,23426.0,36779.0,17585.0,22337.0,26077.0,8207.0,5936.0,2335.0,665.0,37.0
777382,County,2020/08/31,47.0,TN,47107.0,McMinn County,9160.0,44125.0,169705.0,30521.0,49431.0,19447.0,23702.0,26019.0,10340.0,7223.0,2485.0,474.0,63.0
782159,County,2020/09/01,47.0,TN,47107.0,McMinn County,9089.0,44196.0,174754.0,32897.0,48182.0,19632.0,24107.0,28703.0,12907.0,5648.0,2101.0,520.0,57.0
784557,County,2020/09/02,47.0,TN,47107.0,McMinn County,9320.0,43965.0,170978.0,30402.0,46147.0,19803.0,25516.0,28017.0,12918.0,5881.0,1851.0,383.0,60.0
786914,County,2020/09/03,47.0,TN,47107.0,McMinn County,8398.0,44887.0,192417.0,37092.0,50243.0,22050.0,29182.0,32089.0,12634.0,6819.0,1896.0,353.0,59.0
790130,County,2020/09/04,47.0,TN,47107.0,McMinn County,9463.0,43822.0,174198.0,31558.0,45172.0,19977.0,27267.0,29116.0,11613.0,6818.0,2041.0,589.0,47.0
793253,County,2020/09/05,47.0,TN,47107.0,McMinn County,9567.0,43718.0,183159.0,31890.0,46544.0,24674.0,28625.0,30504.0,13034.0,5868.0,1631.0,362.0,27.0
796537,County,2020/09/06,47.0,TN,47107.0,McMinn County,10820.0,42465.0,138903.0,27185.0,32647.0,16101.0,25007.0,22857.0,8160.0,4273.0,2232.0,398.0,43.0
801305,County,2020/09/07,47.0,TN,47107.0,McMinn County,10812.0,42473.0,137283.0,24343.0,37509.0,14369.0,20256.0,22883.0,10225.0,4724.0,2353.0,574.0,47.0
802930,County,2020/09/08,47.0,TN,47107.0,McMinn County,9600.0,43685.0,186184.0,34940.0,51641.0,21762.0,28408.0,28659.0,12240.0,5941.0,2052.0,498.0,43.0
807710,County,2020/09/09,47.0,TN,47107.0,McMinn County,9404.0,43881.0,186134.0,35943.0,48428.0,22257.0,25719.0,29997.0,13843.0,7576.0,1792.0,529.0,50.0
809338,County,2020/09/10,47.0,TN,47107.0,McMinn County,9199.0,44086.0,180789.0,37006.0,47392.0,23043.0,25062.0,26492.0,12258.0,6829.0,2185.0,471.0,51.0
814099,County,2020/09/11,47.0,TN,47107.0,McMinn County,8819.0,44466.0,207254.0,44067.0,60132.0,24368.0,28766.0,29770.0,11328.0,6036.0,2265.0,468.0,54.0
815680,County,2020/09/12,47.0,TN,47107.0,McMinn County,10168.0,43117.0,169343.0,32993.0,47295.0,18004.0,27084.0,25204.0,10457.0,5906.0,1976.0,386.0,38.0
820477,County,2020/09/13,47.0,TN,47107.0,McMinn County,10637.0,42648.0,138712.0,23063.0,37656.0,18018.0,20804.0,22426.0,8734.0,4791.0,2567.0,569.0,84.0
822106,County,2020/09/14,47.0,TN,47107.0,McMinn County,9731.0,43554.0,172552.0,28495.0,43655.0,21605.0,28541.0,28865.0,11795.0,6432.0,2606.0,515.0,43.0
826875,County,2020/09/15,47.0,TN,47107.0,McMinn County,9079.0,44206.0,176461.0,31245.0,46784.0,21590.0,27578.0,28137.0,10735.0,7300.0,2572.0,470.0,50.0
830069,County,2020/09/16,47.0,TN,47107.0,McMinn County,9513.0,43772.0,172627.0,33114.0,45528.0,19419.0,25340.0,27106.0,13031.0,5970.0,2488.0,569.0,62.0
833246,County,2020/09/17,47.0,TN,47107.0,McMinn County,8861.0,44424.0,179014.0,32946.0,48319.0,21215.0,28274.0,27703.0,10372.0,7040.0,2615.0,440.0,90.0
834875,County,2020/09/18,47.0,TN,47107.0,McMinn County,8865.0,44420.0,191891.0,35610.0,49527.0,23175.0,28877.0,30873.0,13514.0,7648.0,2162.0,425.0,80.0
839650,County,2020/09/19,47.0,TN,47107.0,McMinn County,9987.0,43298.0,188244.0,36943.0,49678.0,21997.0,28974.0,28842.0,13196.0,6266.0,1877.0,381.0,90.0
841279,County,2020/09/20,47.0,TN,47107.0,McMinn County,10441.0,42844.0,151288.0,26596.0,38233.0,20443.0,24797.0,25320.0,8824.0,5209.0,1502.0,314.0,50.0
844440,County,2020/09/21,47.0,TN,47107.0,McMinn County,10912.0,42373.0,147026.0,24597.0,42326.0,16456.0,21168.0,24607.0,11672.0,4641.0,1175.0,352.0,32.0
847645,County,2020/09/22,47.0,TN,47107.0,McMinn County,9479.0,43806.0,182519.0,37800.0,49931.0,19956.0,27673.0,28645.0,10699.0,6115.0,1370.0,319.0,11.0
852423,County,2020/09/23,47.0,TN,47107.0,McMinn County,9232.0,44053.0,182650.0,35808.0,51207.0,23040.0,26821.0,26840.0,10548.0,6493.0,1410.0,451.0,32.0
854051,County,2020/09/24,47.0,TN,47107.0,McMinn County,9392.0,43893.0,160493.0,26631.0,43724.0,21313.0,23309.0,26481.0,11816.0,5240.0,1601.0,345.0,33.0
858815,County,2020/09/25,47.0,TN,47107.0,McMinn County,8902.0,44383.0,179667.0,33181.0,48494.0,23023.0,27391.0,27522.0,12481.0,5826.0,1382.0,348.0,19.0
860393,County,2020/09/26,47.0,TN,47107.0,McMinn County,10001.0,43284.0,179632.0,33039.0,45834.0,20634.0,28671.0,30909.0,13765.0,5703.0,802.0,254.0,21.0
865190,County,2020/09/27,47.0,TN,47107.0,McMinn County,9991.0,43294.0,168097.0,29970.0,45865.0,19038.0,29260.0,26657.0,11159.0,4890.0,878.0,360.0,20.0
866819,County,2020/09/28,47.0,TN,47107.0,McMinn County,9325.0,43960.0,176978.0,34503.0,45947.0,22263.0,29443.0,25657.0,11305.0,6542.0,1070.0,234.0,14.0
871590,County,2020/09/29,47.0,TN,47107.0,McMinn County,9450.0,43835.0,163478.0,30992.0,41761.0,22234.0,25585.0,24703.0,11366.0,5054.0,1498.0,258.0,27.0
873219,County,2020/09/30,47.0,TN,47107.0,McMinn County,9194.0,44091.0,157952.0,23980.0,42176.0,20678.0,20501.0,28550.0,12922.0,7324.0,1538.0,259.0,24.0
876383,County,2020/10/01,47.0,TN,47107.0,McMinn County,8672.0,44613.0,176019.0,31683.0,46473.0,23518.0,26368.0,26201.0,12765.0,7100.0,1573.0,309.0,29.0
879587,County,2020/10/02,47.0,TN,47107.0,McMinn County,9287.0,43998.0,170688.0,30105.0,40732.0,24397.0,28470.0,28443.0,9798.0,6690.0,1771.0,257.0,25.0
882803,County,2020/10/03,47.0,TN,47107.0,McMinn County,10511.0,42774.0,157717.0,26826.0,37610.0,23456.0,26376.0,25189.0,10822.0,5556.0,1649.0,214.0,19.0
887592,County,2020/10/04,47.0,TN,47107.0,McMinn County,10776.0,42509.0,154992.0,28114.0,38583.0,21974.0,24684.0,25211.0,8909.0,5767.0,1525.0,200.0,25.0
890387,County,2020/10/05,47.0,TN,47107.0,McMinn County,11518.0,41767.0,177882.0,47715.0,48642.0,17856.0,22373.0,23140.0,9226.0,6789.0,1835.0,282.0,24.0
893574,County,2020/10/06,47.0,TN,47107.0,McMinn County,9423.0,43862.0,165359.0,30266.0,45590.0,19877.0,24110.0,25658.0,11231.0,6726.0,1592.0,289.0,20.0
896753,County,2020/10/07,47.0,TN,47107.0,McMinn County,9417.0,43868.0,158704.0,26345.0,40976.0,21806.0,23523.0,26538.0,10626.0,6846.0,1711.0,310.0,23.0
899935,County,2020/10/08,47.0,TN,47107.0,McMinn County,9257.0,44028.0,164360.0,32460.0,40902.0,20737.0,25126.0,27430.0,10190.0,5688.0,1484.0,320.0,23.0
903191,County,2020/10/09,47.0,TN,47107.0,McMinn County,9780.0,43505.0,159307.0,24574.0,41214.0,20202.0,27719.0,24979.0,12934.0,5556.0,1886.0,224.0,19.0
906472,County,2020/10/10,47.0,TN,47107.0,McMinn County,11313.0,41972.0,151423.0,27026.0,44499.0,17564.0,20286.0,25119.0,9183.0,5720.0,1697.0,308.0,21.0
907889,County,2020/10/11,47.0,TN,47107.0,McMinn County,11319.0,41966.0,136425.0,19408.0,38710.0,16369.0,21574.0,24064.0,9205.0,4974.0,1812.0,292.0,17.0
911043,County,2020/10/12,47.0,TN,47107.0,McMinn County,10369.0,42916.0,160293.0,29617.0,40330.0,19358.0,23494.0,26107.0,11304.0,7977.0,1768.0,326.0,12.0
914101,County,2020/10/13,47.0,TN,47107.0,McMinn County,9785.0,43500.0,162476.0,27995.0,42579.0,19738.0,24059.0,26667.0,11928.0,7279.0,1963.0,250.0,18.0
917331,County,2020/10/14,47.0,TN,47107.0,McMinn County,9200.0,44085.0,167948.0,31872.0,41570.0,18195.0,26166.0,28675.0,12210.0,7328.0,1659.0,252.0,21.0
920681,County,2020/10/15,47.0,TN,47107.0,McMinn County,9702.0,43583.0,151804.0,29277.0,39256.0,16622.0,18840.0,27813.0,11563.0,5864.0,2200.0,346.0,23.0
923692,County,2020/10/16,47.0,TN,47107.0,McMinn County,9078.0,44207.0,167958.0,36559.0,38673.0,16707.0,24038.0,29089.0,12098.0,8318.0,2166.0,294.0,16.0
927035,County,2020/10/17,47.0,TN,47107.0,McMinn County,9943.0,43342.0,157649.0,34020.0,40795.0,19245.0,21377.0,24047.0,10886.0,4950.0,2042.0,267.0,20.0
930077,County,2020/10/18,47.0,TN,47107.0,McMinn County,10219.0,43066.0,144201.0,24537.0,37996.0,18085.0,21858.0,25069.0,8413.0,6279.0,1688.0,260.0,16.0
933724,County,2020/10/19,47.0,TN,47107.0,McMinn County,9603.0,43682.0,163466.0,31393.0,41192.0,18744.0,22801.0,27237.0,12642.0,7560.0,1635.0,246.0,16.0
936553,County,2020/10/20,47.0,TN,47107.0,McMinn County,9727.0,43558.0,161760.0,30213.0,41972.0,18091.0,24525.0,26208.0,12419.0,6453.0,1561.0,305.0,13.0
939429,County,2020/10/21,47.0,TN,47107.0,McMinn County,9929.0,43356.0,157464.0,28225.0,43762.0,16915.0,22840.0,25149.0,12231.0,6046.0,1952.0,328.0,16.0
942664,County,2020/10/22,47.0,TN,47107.0,McMinn County,9807.0,43478.0,174363.0,30588.0,44838.0,23612.0,25275.0,27118.0,14054.0,6827.0,1855.0,185.0,11.0
946062,County,2020/10/23,47.0,TN,47107.0,McMinn County,9041.0,44244.0,192103.0,37480.0,48283.0,23910.0,31235.0,27634.0,13233.0,8288.0,1813.0,211.0,16.0
949089,County,2020/10/24,47.0,TN,47107.0,McMinn County,9755.0,43530.0,166622.0,30016.0,37881.0,22949.0,26232.0,29050.0,12758.0,6572.0,1003.0,146.0,15.0
