,Level,Date,State FIPS,State Postal Code,County FIPS,County Name,Population Staying at Home,Population Not Staying at Home,Number of Trips,Number of Trips <1,Number of Trips 1-3,Number of Trips 3-5,Number of Trips 5-10,Number of Trips 10-25,Number of Trips 25-50,Number of Trips 50-100,Number of Trips 100-250,Number of Trips 250-500,Number of Trips >=500
2828,County,2020/01/01,51.0,VA,51019.0,Bedford County,15239.0,63508.0,257622.0,45551.0,64626.0,30577.0,47102.0,47890.0,12919.0,4369.0,3880.0,559.0,149.0
4197,County,2020/01/02,51.0,VA,51019.0,Bedford County,12365.0,66382.0,314763.0,57130.0,76468.0,38004.0,60193.0,59605.0,16180.0,4348.0,2317.0,425.0,93.0
6785,County,2020/01/03,51.0,VA,51019.0,Bedford County,12045.0,66702.0,316229.0,52337.0,75583.0,42729.0,59271.0,64802.0,14072.0,4345.0,2668.0,350.0,72.0
11285,County,2020/01/04,51.0,VA,51019.0,Bedford County,13606.0,65141.0,295603.0,54284.0,65262.0,35856.0,59259.0,59976.0,12658.0,4293.0,3592.0,358.0,65.0
15604,County,2020/01/05,51.0,VA,51019.0,Bedford County,14834.0,63913.0,274199.0,49010.0,61153.0,35878.0,55700.0,52295.0,12768.0,3424.0,3444.0,366.0,161.0
17426,County,2020/01/06,51.0,VA,51019.0,Bedford County,12391.0,66356.0,308886.0,53825.0,72168.0,40213.0,61019.0,61037.0,13899.0,3834.0,2541.0,259.0,91.0
20584,County,2020/01/07,51.0,VA,51019.0,Bedford County,13720.0,65027.0,302588.0,63077.0,77128.0,35179.0,48645.0,58909.0,12856.0,3753.0,2726.0,276.0,39.0
25333,County,2020/01/08,51.0,VA,51019.0,Bedford County,11859.0,66888.0,342708.0,69060.0,82555.0,43096.0,60995.0,63392.0,16883.0,3992.0,2481.0,190.0,64.0
26960,County,2020/01/09,51.0,VA,51019.0,Bedford County,11856.0,66891.0,347248.0,73420.0,84066.0,43981.0,60278.0,63013.0,15118.0,3751.0,3174.0,362.0,85.0
30156,County,2020/01/10,51.0,VA,51019.0,Bedford County,11393.0,67354.0,369905.0,79613.0,87218.0,45499.0,65798.0,67369.0,16841.0,4131.0,2994.0,354.0,88.0
33447,County,2020/01/11,51.0,VA,51019.0,Bedford County,13239.0,65508.0,344760.0,70199.0,84351.0,48382.0,59269.0,62472.0,13165.0,4020.0,2585.0,275.0,42.0
38085,County,2020/01/12,51.0,VA,51019.0,Bedford County,13510.0,65237.0,326104.0,74298.0,79042.0,44091.0,56971.0,52840.0,12727.0,2951.0,2766.0,367.0,51.0
39795,County,2020/01/13,51.0,VA,51019.0,Bedford County,12503.0,66244.0,338732.0,74836.0,78038.0,43807.0,59174.0,60166.0,16908.0,3514.0,1947.0,306.0,36.0
42959,County,2020/01/14,51.0,VA,51019.0,Bedford County,12132.0,66615.0,344058.0,71501.0,81830.0,45753.0,59251.0,62469.0,16497.0,4302.0,2109.0,280.0,66.0
46110,County,2020/01/15,51.0,VA,51019.0,Bedford County,12222.0,66525.0,342118.0,70456.0,78072.0,46946.0,61054.0,63659.0,15841.0,3670.0,2044.0,276.0,100.0
50891,County,2020/01/16,51.0,VA,51019.0,Bedford County,11616.0,67131.0,336247.0,62144.0,80373.0,45256.0,62188.0,63945.0,15735.0,3953.0,2284.0,290.0,79.0
52518,County,2020/01/17,51.0,VA,51019.0,Bedford County,11674.0,67073.0,361564.0,70558.0,86261.0,50740.0,62545.0,67188.0,16510.0,4126.0,3228.0,316.0,92.0
55703,County,2020/01/18,51.0,VA,51019.0,Bedford County,14516.0,64231.0,323171.0,67064.0,78000.0,42828.0,60633.0,56937.0,12171.0,2822.0,2415.0,226.0,75.0
58900,County,2020/01/19,51.0,VA,51019.0,Bedford County,14469.0,64278.0,319824.0,64633.0,78384.0,45045.0,62843.0,52217.0,10063.0,3004.0,3152.0,374.0,109.0
63661,County,2020/01/20,51.0,VA,51019.0,Bedford County,12859.0,65888.0,340140.0,73331.0,80351.0,44262.0,56532.0,61107.0,15839.0,5482.0,2833.0,333.0,70.0
66859,County,2020/01/21,51.0,VA,51019.0,Bedford County,12357.0,66390.0,333880.0,71071.0,75556.0,43115.0,56244.0,64454.0,16592.0,4119.0,2291.0,362.0,76.0
68490,County,2020/01/22,51.0,VA,51019.0,Bedford County,11480.0,67267.0,367986.0,82827.0,85702.0,45790.0,61586.0,69374.0,16512.0,3604.0,2222.0,302.0,67.0
71675,County,2020/01/23,51.0,VA,51019.0,Bedford County,11993.0,66754.0,349353.0,72314.0,79379.0,43501.0,63882.0,65986.0,15948.0,4474.0,3447.0,360.0,62.0
76437,County,2020/01/24,51.0,VA,51019.0,Bedford County,12352.0,66395.0,344537.0,70350.0,83494.0,44547.0,61470.0,61481.0,15654.0,4310.0,2847.0,301.0,83.0
79624,County,2020/01/25,51.0,VA,51019.0,Bedford County,13066.0,65681.0,356678.0,76931.0,87182.0,45897.0,63039.0,62822.0,15303.0,3413.0,1930.0,103.0,58.0
82678,County,2020/01/26,51.0,VA,51019.0,Bedford County,13861.0,64886.0,320743.0,74970.0,76212.0,40609.0,61173.0,49957.0,11210.0,3869.0,2472.0,203.0,68.0
83405,County,2020/01/27,51.0,VA,51019.0,Bedford County,12238.0,66509.0,357180.0,79576.0,80205.0,48584.0,62309.0,64394.0,15341.0,3772.0,2659.0,249.0,91.0
87709,County,2020/01/28,51.0,VA,51019.0,Bedford County,12056.0,66691.0,337005.0,69090.0,78070.0,44603.0,55730.0,66272.0,16204.0,4539.0,2097.0,306.0,94.0
90815,County,2020/01/29,51.0,VA,51019.0,Bedford County,11776.0,66971.0,346907.0,75827.0,80226.0,46953.0,62338.0,59319.0,16218.0,3769.0,1983.0,213.0,61.0
94168,County,2020/01/30,51.0,VA,51019.0,Bedford County,11736.0,67011.0,335992.0,73812.0,75287.0,45643.0,59614.0,57041.0,16527.0,4280.0,3119.0,482.0,187.0
98843,County,2020/01/31,51.0,VA,51019.0,Bedford County,11578.0,67169.0,357296.0,78222.0,81708.0,46443.0,62739.0,62706.0,17068.0,4716.0,3041.0,433.0,220.0
100472,County,2020/02/01,51.0,VA,51019.0,Bedford County,12477.0,66270.0,348899.0,77230.0,76531.0,49376.0,61840.0,59688.0,15764.0,4322.0,3670.0,302.0,176.0
105183,County,2020/02/02,51.0,VA,51019.0,Bedford County,13619.0,65128.0,301481.0,61822.0,72404.0,39528.0,56603.0,51053.0,12700.0,3385.0,3312.0,415.0,259.0
106809,County,2020/02/03,51.0,VA,51019.0,Bedford County,11696.0,67051.0,343339.0,67793.0,83841.0,45366.0,63435.0,59666.0,16004.0,3928.0,2619.0,402.0,285.0
111571,County,2020/02/04,51.0,VA,51019.0,Bedford County,11560.0,67187.0,340957.0,67294.0,82580.0,40977.0,61283.0,64742.0,16347.0,4200.0,2700.0,574.0,260.0
114774,County,2020/02/05,51.0,VA,51019.0,Bedford County,11455.0,67292.0,335065.0,68819.0,79724.0,42801.0,59161.0,60601.0,15748.0,4466.0,3062.0,476.0,207.0
117932,County,2020/02/06,51.0,VA,51019.0,Bedford County,11922.0,66825.0,309370.0,62923.0,73694.0,41233.0,52583.0,55923.0,14606.0,4383.0,3394.0,474.0,157.0
119559,County,2020/02/07,51.0,VA,51019.0,Bedford County,10648.0,68099.0,353965.0,69649.0,87498.0,44132.0,64175.0,62390.0,16807.0,5151.0,3530.0,428.0,205.0
124347,County,2020/02/08,51.0,VA,51019.0,Bedford County,12821.0,65926.0,342230.0,70548.0,85227.0,44085.0,56023.0,62468.0,15084.0,5471.0,2722.0,426.0,176.0
126844,County,2020/02/09,51.0,VA,51019.0,Bedford County,14381.0,64366.0,271561.0,51481.0,66813.0,36191.0,50962.0,47729.0,10206.0,3953.0,3489.0,514.0,223.0
127994,County,2020/02/10,51.0,VA,51019.0,Bedford County,11302.0,67445.0,309513.0,58789.0,69268.0,44180.0,56703.0,58280.0,14706.0,3808.0,2909.0,553.0,317.0
132853,County,2020/02/11,51.0,VA,51019.0,Bedford County,10377.0,68370.0,309759.0,58411.0,70950.0,39078.0,59229.0,58559.0,14745.0,4757.0,2893.0,900.0,237.0
134456,County,2020/02/12,51.0,VA,51019.0,Bedford County,9902.0,68845.0,321224.0,60790.0,76813.0,41761.0,61789.0,56952.0,15557.0,3806.0,2868.0,591.0,297.0
138787,County,2020/02/13,51.0,VA,51019.0,Bedford County,9657.0,69090.0,309952.0,58730.0,72379.0,40022.0,58562.0,57133.0,14477.0,5030.0,2716.0,599.0,304.0
141846,County,2020/02/14,51.0,VA,51019.0,Bedford County,9661.0,69086.0,335044.0,61933.0,77820.0,43211.0,64798.0,61881.0,16832.0,4551.0,2977.0,631.0,410.0
146724,County,2020/02/15,51.0,VA,51019.0,Bedford County,11489.0,67258.0,310131.0,57262.0,69832.0,37717.0,60817.0,58956.0,15743.0,5484.0,3395.0,619.0,306.0
148331,County,2020/02/16,51.0,VA,51019.0,Bedford County,13296.0,65451.0,271033.0,48116.0,60139.0,37900.0,56949.0,48098.0,11005.0,4471.0,3441.0,580.0,334.0
153093,County,2020/02/17,51.0,VA,51019.0,Bedford County,13161.0,65586.0,254628.0,50006.0,56930.0,35977.0,46946.0,45733.0,11416.0,4570.0,2246.0,547.0,257.0
154670,County,2020/02/18,51.0,VA,51019.0,Bedford County,10561.0,68186.0,289732.0,49287.0,64213.0,36925.0,59213.0,56594.0,14812.0,5302.0,2519.0,600.0,267.0
159480,County,2020/02/19,51.0,VA,51019.0,Bedford County,10410.0,68337.0,298622.0,50342.0,69346.0,42310.0,58585.0,56863.0,13096.0,4493.0,2829.0,546.0,212.0
160976,County,2020/02/20,51.0,VA,51019.0,Bedford County,11454.0,67293.0,292328.0,51993.0,66164.0,40496.0,54468.0,56300.0,13926.0,5003.0,3138.0,621.0,219.0
165869,County,2020/02/21,51.0,VA,51019.0,Bedford County,10585.0,68162.0,327159.0,67759.0,71770.0,41932.0,60024.0,60642.0,14772.0,5915.0,3414.0,713.0,218.0
167447,County,2020/02/22,51.0,VA,51019.0,Bedford County,12648.0,66099.0,314248.0,50920.0,75287.0,41282.0,57233.0,63157.0,16130.0,6674.0,2738.0,579.0,248.0
172262,County,2020/02/23,51.0,VA,51019.0,Bedford County,12888.0,65859.0,264263.0,44452.0,62121.0,37612.0,53904.0,46144.0,11601.0,4377.0,3490.0,440.0,122.0
173888,County,2020/02/24,51.0,VA,51019.0,Bedford County,10087.0,68660.0,294585.0,51694.0,68354.0,40638.0,59785.0,56227.0,11852.0,3649.0,1714.0,381.0,291.0
178499,County,2020/02/25,51.0,VA,51019.0,Bedford County,10019.0,68728.0,318119.0,59742.0,75201.0,41002.0,60180.0,58597.0,15227.0,5692.0,1912.0,274.0,292.0
181692,County,2020/02/26,51.0,VA,51019.0,Bedford County,12163.0,66584.0,348518.0,72108.0,86693.0,48178.0,60066.0,56720.0,14643.0,6925.0,2530.0,489.0,166.0
182864,County,2020/02/27,51.0,VA,51019.0,Bedford County,9590.0,69157.0,295809.0,54402.0,65461.0,38195.0,59001.0,58710.0,13605.0,3790.0,2113.0,345.0,187.0
186803,County,2020/02/28,51.0,VA,51019.0,Bedford County,9330.0,69417.0,313562.0,54498.0,72020.0,42986.0,60597.0,59650.0,15577.0,4785.0,3016.0,273.0,160.0
189807,County,2020/02/29,51.0,VA,51019.0,Bedford County,10865.0,67882.0,313408.0,52073.0,69818.0,43012.0,65234.0,60388.0,15420.0,4676.0,2370.0,243.0,174.0
193046,County,2020/03/01,51.0,VA,51019.0,Bedford County,12916.0,65831.0,302841.0,63780.0,67195.0,37821.0,57338.0,53821.0,14021.0,4572.0,3775.0,257.0,261.0
196268,County,2020/03/02,51.0,VA,51019.0,Bedford County,11306.0,67441.0,340305.0,65464.0,75813.0,50064.0,58928.0,66906.0,15997.0,4245.0,2217.0,435.0,236.0
201120,County,2020/03/03,51.0,VA,51019.0,Bedford County,11322.0,67425.0,357997.0,75386.0,80035.0,47849.0,61878.0,64338.0,17835.0,6658.0,3297.0,515.0,206.0
204206,County,2020/03/04,51.0,VA,51019.0,Bedford County,11236.0,67511.0,383163.0,77617.0,90747.0,49266.0,68588.0,68823.0,18315.0,5638.0,3333.0,664.0,172.0
207410,County,2020/03/05,51.0,VA,51019.0,Bedford County,10380.0,68367.0,362469.0,76408.0,82468.0,45596.0,63612.0,65192.0,18681.0,6302.0,3559.0,487.0,164.0
208893,County,2020/03/06,51.0,VA,51019.0,Bedford County,10524.0,68223.0,380777.0,80397.0,86301.0,44025.0,67063.0,70603.0,20464.0,6798.0,4467.0,533.0,126.0
213856,County,2020/03/07,51.0,VA,51019.0,Bedford County,12227.0,66520.0,357385.0,71069.0,88747.0,45542.0,60715.0,63744.0,15800.0,6436.0,4842.0,269.0,221.0
216969,County,2020/03/08,51.0,VA,51019.0,Bedford County,13583.0,65164.0,317629.0,69067.0,71215.0,39294.0,59332.0,52054.0,15047.0,6659.0,4224.0,627.0,110.0
218609,County,2020/03/09,51.0,VA,51019.0,Bedford County,11926.0,66821.0,344340.0,68012.0,84796.0,41326.0,58854.0,63419.0,17304.0,6090.0,3855.0,547.0,137.0
223360,County,2020/03/10,51.0,VA,51019.0,Bedford County,11761.0,66986.0,355726.0,84623.0,83785.0,37002.0,55615.0,66546.0,17397.0,6771.0,3354.0,473.0,160.0
225034,County,2020/03/11,51.0,VA,51019.0,Bedford County,11187.0,67560.0,371801.0,77423.0,109203.0,42893.0,45612.0,59357.0,21894.0,9309.0,4729.0,1118.0,263.0
229682,County,2020/03/12,51.0,VA,51019.0,Bedford County,11778.0,66969.0,421716.0,101543.0,116884.0,39605.0,62689.0,67616.0,14506.0,12104.0,5219.0,1062.0,488.0
232948,County,2020/03/13,51.0,VA,51019.0,Bedford County,11249.0,67498.0,435488.0,95626.0,126134.0,47869.0,62167.0,68681.0,18182.0,9813.0,5608.0,1110.0,298.0
236151,County,2020/03/14,51.0,VA,51019.0,Bedford County,13924.0,64823.0,347795.0,72540.0,100301.0,37455.0,49094.0,61995.0,12136.0,7262.0,5113.0,1490.0,409.0
239331,County,2020/03/15,51.0,VA,51019.0,Bedford County,16052.0,62695.0,283297.0,54378.0,75084.0,38638.0,46090.0,46506.0,12557.0,5410.0,3789.0,632.0,213.0
242524,County,2020/03/16,51.0,VA,51019.0,Bedford County,14254.0,64493.0,334871.0,70839.0,81941.0,39352.0,55398.0,60821.0,17169.0,5826.0,2608.0,774.0,143.0
244189,County,2020/03/17,51.0,VA,51019.0,Bedford County,15989.0,62758.0,318716.0,67231.0,78269.0,35922.0,53365.0,56865.0,16950.0,6360.0,3068.0,525.0,161.0
247344,County,2020/03/18,51.0,VA,51019.0,Bedford County,16451.0,62296.0,315849.0,68960.0,73888.0,39165.0,51163.0,58433.0,15046.0,5655.0,2872.0,479.0,188.0
252126,County,2020/03/19,51.0,VA,51019.0,Bedford County,16750.0,61997.0,309639.0,67243.0,76181.0,32356.0,57136.0,54723.0,13624.0,5236.0,2420.0,539.0,181.0
255301,County,2020/03/20,51.0,VA,51019.0,Bedford County,15936.0,62811.0,325734.0,74115.0,84784.0,36028.0,51451.0,55169.0,13435.0,6484.0,3280.0,768.0,220.0
256879,County,2020/03/21,51.0,VA,51019.0,Bedford County,18344.0,60403.0,285153.0,51034.0,83774.0,41738.0,46999.0,43588.0,9938.0,5120.0,2214.0,418.0,330.0
260115,County,2020/03/22,51.0,VA,51019.0,Bedford County,17867.0,60880.0,234211.0,44661.0,67023.0,36610.0,37705.0,33203.0,7011.0,4659.0,2727.0,373.0,239.0
264893,County,2020/03/23,51.0,VA,51019.0,Bedford County,16455.0,62292.0,266563.0,49462.0,73816.0,33940.0,42888.0,45815.0,12746.0,4847.0,2458.0,458.0,133.0
268074,County,2020/03/24,51.0,VA,51019.0,Bedford County,16297.0,62450.0,273539.0,59245.0,67871.0,31039.0,47826.0,47103.0,12329.0,4746.0,2593.0,590.0,197.0
271271,County,2020/03/25,51.0,VA,51019.0,Bedford County,16567.0,62180.0,260516.0,55386.0,65137.0,29412.0,48506.0,43259.0,12332.0,4215.0,1770.0,407.0,92.0
272897,County,2020/03/26,51.0,VA,51019.0,Bedford County,16275.0,62472.0,266243.0,59007.0,62633.0,34263.0,45903.0,44082.0,14091.0,4017.0,1836.0,290.0,121.0
277660,County,2020/03/27,51.0,VA,51019.0,Bedford County,15701.0,63046.0,270927.0,52088.0,69709.0,36207.0,46587.0,45526.0,12613.0,5072.0,2502.0,460.0,163.0
279287,County,2020/03/28,51.0,VA,51019.0,Bedford County,16826.0,61921.0,244441.0,46620.0,58710.0,35518.0,42277.0,43675.0,9798.0,5775.0,1608.0,358.0,102.0
282481,County,2020/03/29,51.0,VA,51019.0,Bedford County,18196.0,60551.0,246584.0,51783.0,68372.0,33652.0,41835.0,33946.0,10156.0,4721.0,1546.0,389.0,184.0
287272,County,2020/03/30,51.0,VA,51019.0,Bedford County,15810.0,62937.0,260506.0,52743.0,68264.0,32148.0,42083.0,44999.0,13790.0,3657.0,2171.0,448.0,203.0
288870,County,2020/03/31,51.0,VA,51019.0,Bedford County,16862.0,61885.0,244202.0,48368.0,59588.0,31700.0,41065.0,41949.0,13025.0,4780.0,2959.0,594.0,174.0
292105,County,2020/04/01,51.0,VA,51019.0,Bedford County,16508.0,62239.0,250916.0,51256.0,57941.0,33145.0,44362.0,43081.0,13992.0,3823.0,2630.0,494.0,192.0
296838,County,2020/04/02,51.0,VA,51019.0,Bedford County,16479.0,62268.0,258713.0,56515.0,58868.0,27831.0,47829.0,43787.0,13625.0,6885.0,2784.0,439.0,150.0
300017,County,2020/04/03,51.0,VA,51019.0,Bedford County,16687.0,62060.0,295220.0,62819.0,75621.0,38259.0,50293.0,48921.0,11629.0,4312.0,2966.0,238.0,162.0
301643,County,2020/04/04,51.0,VA,51019.0,Bedford County,17586.0,61161.0,251703.0,50306.0,62739.0,35201.0,45727.0,43772.0,7934.0,3051.0,2386.0,324.0,263.0
306398,County,2020/04/05,51.0,VA,51019.0,Bedford County,17658.0,61089.0,229013.0,48042.0,58239.0,33465.0,38147.0,35631.0,9361.0,3831.0,1617.0,469.0,211.0
309599,County,2020/04/06,51.0,VA,51019.0,Bedford County,16323.0,62424.0,277630.0,57158.0,69731.0,33071.0,48053.0,47688.0,13514.0,5546.0,2571.0,195.0,103.0
312838,County,2020/04/07,51.0,VA,51019.0,Bedford County,16871.0,61876.0,274167.0,58873.0,66621.0,37662.0,42856.0,48703.0,13454.0,3857.0,1686.0,361.0,94.0
314421,County,2020/04/08,51.0,VA,51019.0,Bedford County,16665.0,62082.0,278936.0,60506.0,68718.0,34668.0,46156.0,48503.0,13946.0,3665.0,2058.0,592.0,124.0
319181,County,2020/04/09,51.0,VA,51019.0,Bedford County,17023.0,61724.0,266500.0,49126.0,72215.0,33226.0,48044.0,43214.0,14135.0,3410.0,2565.0,445.0,120.0
322375,County,2020/04/10,51.0,VA,51019.0,Bedford County,16086.0,62661.0,291601.0,59218.0,83535.0,32522.0,50416.0,46021.0,13310.0,3357.0,2965.0,143.0,114.0
324050,County,2020/04/11,51.0,VA,51019.0,Bedford County,15815.0,62932.0,297726.0,67928.0,76002.0,36412.0,50531.0,51071.0,9999.0,3385.0,2126.0,189.0,83.0
327196,County,2020/04/12,51.0,VA,51019.0,Bedford County,18746.0,60001.0,204309.0,36141.0,58392.0,28775.0,36740.0,31863.0,7293.0,3026.0,1889.0,82.0,108.0
331957,County,2020/04/13,51.0,VA,51019.0,Bedford County,16980.0,61767.0,269752.0,50978.0,74712.0,34795.0,46969.0,44963.0,12178.0,3834.0,969.0,345.0,9.0
335132,County,2020/04/14,51.0,VA,51019.0,Bedford County,15365.0,63382.0,314511.0,58168.0,94631.0,41234.0,44981.0,54448.0,11717.0,5380.0,3272.0,520.0,160.0
336809,County,2020/04/15,51.0,VA,51019.0,Bedford County,14328.0,64419.0,284117.0,48949.0,79387.0,35391.0,46568.0,54842.0,9195.0,5954.0,3128.0,597.0,106.0
339963,County,2020/04/16,51.0,VA,51019.0,Bedford County,15558.0,63189.0,302388.0,54357.0,86140.0,41862.0,53599.0,49466.0,11634.0,3037.0,1881.0,224.0,188.0
344742,County,2020/04/17,51.0,VA,51019.0,Bedford County,14523.0,64224.0,308936.0,69116.0,78430.0,42164.0,44247.0,56349.0,12384.0,3437.0,2364.0,316.0,129.0
346369,County,2020/04/18,51.0,VA,51019.0,Bedford County,15701.0,63046.0,324015.0,71879.0,83492.0,41658.0,62051.0,54242.0,6496.0,2320.0,1532.0,171.0,174.0
351121,County,2020/04/19,51.0,VA,51019.0,Bedford County,16290.0,62457.0,281174.0,59098.0,78686.0,39809.0,44035.0,41379.0,12726.0,2990.0,2057.0,244.0,150.0
354321,County,2020/04/20,51.0,VA,51019.0,Bedford County,15348.0,63399.0,251838.0,49060.0,69411.0,33213.0,35743.0,42754.0,12606.0,4603.0,3799.0,514.0,135.0
355941,County,2020/04/21,51.0,VA,51019.0,Bedford County,15529.0,63218.0,295499.0,65379.0,74644.0,35911.0,52153.0,47573.0,13461.0,3985.0,2014.0,269.0,110.0
360711,County,2020/04/22,51.0,VA,51019.0,Bedford County,15289.0,63458.0,288714.0,71434.0,69861.0,31248.0,46154.0,46579.0,17125.0,3797.0,2187.0,259.0,70.0
363917,County,2020/04/23,51.0,VA,51019.0,Bedford County,16030.0,62717.0,278286.0,57227.0,74020.0,34602.0,44569.0,48908.0,12498.0,3550.0,2491.0,261.0,160.0
367128,County,2020/04/24,51.0,VA,51019.0,Bedford County,14440.0,64307.0,300217.0,68559.0,76450.0,31449.0,54007.0,50322.0,12453.0,4376.0,2193.0,258.0,150.0
370286,County,2020/04/25,51.0,VA,51019.0,Bedford County,16752.0,61995.0,297748.0,56882.0,89315.0,36391.0,49617.0,49525.0,10637.0,3518.0,1529.0,136.0,198.0
373479,County,2020/04/26,51.0,VA,51019.0,Bedford County,16913.0,61834.0,272105.0,51846.0,77909.0,32517.0,52853.0,40179.0,10429.0,3105.0,2483.0,642.0,142.0
376710,County,2020/04/27,51.0,VA,51019.0,Bedford County,15114.0,63633.0,319320.0,74910.0,79991.0,36370.0,54783.0,53888.0,13146.0,3716.0,2161.0,279.0,76.0
379882,County,2020/04/28,51.0,VA,51019.0,Bedford County,14931.0,63816.0,300752.0,64358.0,70196.0,40664.0,53231.0,52337.0,13039.0,3937.0,2697.0,246.0,47.0
381509,County,2020/04/29,51.0,VA,51019.0,Bedford County,15198.0,63549.0,304397.0,66528.0,73964.0,38315.0,50014.0,54261.0,14664.0,4280.0,2200.0,89.0,82.0
386255,County,2020/04/30,51.0,VA,51019.0,Bedford County,15071.0,63676.0,279699.0,54196.0,72190.0,31640.0,53769.0,47378.0,13570.0,4410.0,2250.0,206.0,90.0
387930,County,2020/05/01,51.0,VA,51019.0,Bedford County,14180.0,64567.0,296871.0,56910.0,75245.0,35921.0,53763.0,54776.0,14777.0,3710.0,1500.0,167.0,102.0
391063,County,2020/05/02,51.0,VA,51019.0,Bedford County,14995.0,63752.0,287965.0,55794.0,65609.0,41994.0,50865.0,56419.0,12232.0,3053.0,1703.0,212.0,84.0
395839,County,2020/05/03,51.0,VA,51019.0,Bedford County,15728.0,63019.0,267650.0,56684.0,67116.0,34563.0,46108.0,45982.0,11283.0,4091.0,1492.0,245.0,86.0
399031,County,2020/05/04,51.0,VA,51019.0,Bedford County,14462.0,64285.0,315854.0,69388.0,73629.0,40344.0,54356.0,58342.0,13016.0,4198.0,2174.0,333.0,74.0
402206,County,2020/05/05,51.0,VA,51019.0,Bedford County,14629.0,64118.0,302589.0,60653.0,77604.0,37774.0,52476.0,53939.0,13906.0,3676.0,2276.0,225.0,60.0
403836,County,2020/05/06,51.0,VA,51019.0,Bedford County,14670.0,64077.0,308362.0,62484.0,72184.0,36511.0,60068.0,56212.0,13672.0,4649.0,2315.0,217.0,50.0
408556,County,2020/05/07,51.0,VA,51019.0,Bedford County,13854.0,64893.0,322444.0,72704.0,76055.0,40666.0,52390.0,57296.0,16219.0,4040.0,2799.0,186.0,89.0
411818,County,2020/05/08,51.0,VA,51019.0,Bedford County,13862.0,64885.0,309514.0,64055.0,75808.0,37687.0,53231.0,58500.0,13383.0,3999.0,2401.0,401.0,49.0
413349,County,2020/05/09,51.0,VA,51019.0,Bedford County,14672.0,64075.0,318738.0,71265.0,80321.0,35703.0,58247.0,55330.0,13000.0,3269.0,1382.0,176.0,45.0
418195,County,2020/05/10,51.0,VA,51019.0,Bedford County,15548.0,63199.0,295124.0,53063.0,80919.0,36272.0,52256.0,55750.0,11234.0,3517.0,1771.0,284.0,58.0
419870,County,2020/05/11,51.0,VA,51019.0,Bedford County,12207.0,66540.0,327045.0,71872.0,82232.0,38962.0,55092.0,56342.0,16435.0,2894.0,2641.0,466.0,109.0
424630,County,2020/05/12,51.0,VA,51019.0,Bedford County,12845.0,65902.0,329888.0,71543.0,82219.0,38664.0,56272.0,60270.0,14787.0,3543.0,2260.0,276.0,54.0
426112,County,2020/05/13,51.0,VA,51019.0,Bedford County,12298.0,66449.0,309876.0,60352.0,74717.0,40838.0,55843.0,55978.0,14774.0,4372.0,2447.0,425.0,130.0
429453,County,2020/05/14,51.0,VA,51019.0,Bedford County,12447.0,66300.0,301066.0,66749.0,75449.0,33425.0,52951.0,49747.0,15275.0,3926.0,2917.0,505.0,122.0
432599,County,2020/05/15,51.0,VA,51019.0,Bedford County,12887.0,65860.0,306236.0,60905.0,78522.0,34923.0,51671.0,56707.0,16109.0,4524.0,2417.0,332.0,126.0
437348,County,2020/05/16,51.0,VA,51019.0,Bedford County,13643.0,65104.0,312749.0,67600.0,80141.0,35575.0,54318.0,53479.0,14068.0,4659.0,2516.0,296.0,97.0
438976,County,2020/05/17,51.0,VA,51019.0,Bedford County,12933.0,65814.0,340338.0,84600.0,87587.0,38879.0,56550.0,52677.0,15478.0,2184.0,1993.0,338.0,52.0
442269,County,2020/05/18,51.0,VA,51019.0,Bedford County,11140.0,67607.0,345192.0,79100.0,88468.0,39193.0,57715.0,59428.0,15647.0,3344.0,2091.0,149.0,57.0
445375,County,2020/05/19,51.0,VA,51019.0,Bedford County,11669.0,67078.0,315098.0,69204.0,77952.0,35769.0,52865.0,54909.0,16644.0,4526.0,2694.0,464.0,71.0
450135,County,2020/05/20,51.0,VA,51019.0,Bedford County,11281.0,67466.0,323478.0,64508.0,85011.0,35703.0,59451.0,55535.0,16462.0,3852.0,2492.0,382.0,82.0
453026,County,2020/05/21,51.0,VA,51019.0,Bedford County,11184.0,67563.0,319916.0,58407.0,86077.0,36919.0,54768.0,60981.0,14378.0,5770.0,2135.0,402.0,79.0
454948,County,2020/05/22,51.0,VA,51019.0,Bedford County,10249.0,68498.0,366641.0,78041.0,90899.0,43386.0,64471.0,63096.0,17632.0,4385.0,4159.0,446.0,126.0
459732,County,2020/05/23,51.0,VA,51019.0,Bedford County,11440.0,67307.0,345304.0,63718.0,94960.0,45915.0,59638.0,60176.0,12250.0,4265.0,3873.0,353.0,156.0
461313,County,2020/05/24,51.0,VA,51019.0,Bedford County,14109.0,64638.0,283168.0,61189.0,68352.0,33883.0,51419.0,47119.0,10886.0,5758.0,3745.0,433.0,384.0
466189,County,2020/05/25,51.0,VA,51019.0,Bedford County,13858.0,64889.0,249135.0,50536.0,64039.0,27980.0,41542.0,39367.0,13244.0,6624.0,5037.0,496.0,270.0
467719,County,2020/05/26,51.0,VA,51019.0,Bedford County,12474.0,66273.0,291108.0,59546.0,70940.0,31784.0,49972.0,51619.0,15441.0,6544.0,4173.0,691.0,398.0
472537,County,2020/05/27,51.0,VA,51019.0,Bedford County,12752.0,65995.0,311163.0,66843.0,71167.0,35533.0,56761.0,53187.0,17762.0,5217.0,4097.0,405.0,191.0
474071,County,2020/05/28,51.0,VA,51019.0,Bedford County,12805.0,65942.0,301879.0,64385.0,73383.0,36544.0,52131.0,50953.0,15312.0,5001.0,3564.0,534.0,72.0
478875,County,2020/05/29,51.0,VA,51019.0,Bedford County,15231.0,63516.0,308070.0,71341.0,71782.0,33943.0,52038.0,52600.0,15593.0,6208.0,4014.0,475.0,76.0
482075,County,2020/05/30,51.0,VA,51019.0,Bedford County,14925.0,63822.0,306809.0,70808.0,74605.0,35230.0,47730.0,52312.0,12850.0,6834.0,5592.0,800.0,48.0
485270,County,2020/05/31,51.0,VA,51019.0,Bedford County,15060.0,63687.0,280395.0,60774.0,70796.0,32964.0,46675.0,43605.0,15529.0,4511.0,4717.0,729.0,95.0
486897,County,2020/06/01,51.0,VA,51019.0,Bedford County,12989.0,65758.0,289082.0,57612.0,75017.0,34007.0,46946.0,50268.0,15198.0,5313.0,4040.0,565.0,116.0
490089,County,2020/06/02,51.0,VA,51019.0,Bedford County,13216.0,65531.0,296567.0,63593.0,72737.0,30204.0,52229.0,50053.0,15349.0,6563.0,4922.0,810.0,107.0
494850,County,2020/06/03,51.0,VA,51019.0,Bedford County,11927.0,66820.0,327804.0,69426.0,82374.0,39842.0,53855.0,54935.0,16864.0,6032.0,3707.0,616.0,153.0
496470,County,2020/06/04,51.0,VA,51019.0,Bedford County,12363.0,66384.0,301135.0,63171.0,75511.0,35880.0,46028.0,54695.0,15188.0,5216.0,4729.0,565.0,152.0
501244,County,2020/06/05,51.0,VA,51019.0,Bedford County,12460.0,66287.0,314625.0,63527.0,77433.0,39281.0,52220.0,53118.0,16144.0,7612.0,4189.0,950.0,151.0
504446,County,2020/06/06,51.0,VA,51019.0,Bedford County,13710.0,65037.0,288552.0,56975.0,71202.0,33743.0,52751.0,50422.0,11878.0,6278.0,4576.0,561.0,166.0
506011,County,2020/06/07,51.0,VA,51019.0,Bedford County,14101.0,64646.0,270578.0,55522.0,69327.0,36322.0,44124.0,41181.0,12898.0,6002.0,4387.0,597.0,218.0
509233,County,2020/06/08,51.0,VA,51019.0,Bedford County,11671.0,67076.0,307671.0,59898.0,72010.0,38595.0,52371.0,58226.0,16076.0,5955.0,3972.0,435.0,133.0
514012,County,2020/06/09,51.0,VA,51019.0,Bedford County,12988.0,65759.0,297800.0,61012.0,70978.0,33246.0,56775.0,53865.0,13223.0,5419.0,2823.0,294.0,165.0
515642,County,2020/06/10,51.0,VA,51019.0,Bedford County,12665.0,66082.0,277829.0,55918.0,64211.0,30803.0,51058.0,51582.0,12592.0,6572.0,4281.0,575.0,237.0
518846,County,2020/06/11,51.0,VA,51019.0,Bedford County,11848.0,66899.0,307401.0,63186.0,72185.0,37093.0,54719.0,54521.0,13840.0,6987.0,4061.0,562.0,247.0
522048,County,2020/06/12,51.0,VA,51019.0,Bedford County,11985.0,66762.0,322474.0,72688.0,76744.0,37253.0,54229.0,55373.0,14138.0,6894.0,4426.0,480.0,249.0
525225,County,2020/06/13,51.0,VA,51019.0,Bedford County,13020.0,65727.0,317793.0,72543.0,73606.0,39940.0,56090.0,50328.0,14185.0,5863.0,4639.0,395.0,204.0
529989,County,2020/06/14,51.0,VA,51019.0,Bedford County,14471.0,64276.0,257568.0,57770.0,62614.0,28558.0,44667.0,38481.0,13387.0,5872.0,5596.0,456.0,167.0
531617,County,2020/06/15,51.0,VA,51019.0,Bedford County,14117.0,64630.0,276526.0,61191.0,65160.0,29437.0,48466.0,48353.0,14004.0,5214.0,4028.0,527.0,146.0
534806,County,2020/06/16,51.0,VA,51019.0,Bedford County,14090.0,64657.0,293030.0,58348.0,72681.0,34114.0,47137.0,55859.0,13929.0,6684.0,3664.0,562.0,52.0
538000,County,2020/06/17,51.0,VA,51019.0,Bedford County,12966.0,65781.0,283460.0,57855.0,69359.0,34008.0,46088.0,52797.0,13473.0,5406.0,3791.0,527.0,156.0
542761,County,2020/06/18,51.0,VA,51019.0,Bedford County,12900.0,65847.0,291818.0,58986.0,69370.0,35561.0,49217.0,54844.0,13749.0,5362.0,4166.0,497.0,66.0
544388,County,2020/06/19,51.0,VA,51019.0,Bedford County,13601.0,65146.0,292536.0,61814.0,72265.0,34915.0,50536.0,51630.0,11452.0,5087.0,4160.0,559.0,118.0
547593,County,2020/06/20,51.0,VA,51019.0,Bedford County,14132.0,64615.0,283422.0,61213.0,65602.0,34050.0,49748.0,49527.0,12333.0,5907.0,4272.0,634.0,136.0
550798,County,2020/06/21,51.0,VA,51019.0,Bedford County,14427.0,64320.0,271131.0,53353.0,65593.0,35950.0,47858.0,46635.0,12017.0,4994.0,4015.0,548.0,168.0
553971,County,2020/06/22,51.0,VA,51019.0,Bedford County,12044.0,66703.0,292150.0,65008.0,69385.0,34173.0,48757.0,51841.0,12492.0,5409.0,4271.0,639.0,175.0
558732,County,2020/06/23,51.0,VA,51019.0,Bedford County,12538.0,66209.0,317668.0,71769.0,77157.0,36474.0,53905.0,54704.0,13974.0,5296.0,3863.0,416.0,110.0
560363,County,2020/06/24,51.0,VA,51019.0,Bedford County,13046.0,65701.0,293909.0,65816.0,66755.0,36679.0,49530.0,50712.0,13842.0,5496.0,4317.0,588.0,174.0
563553,County,2020/06/25,51.0,VA,51019.0,Bedford County,12925.0,65822.0,309189.0,65718.0,76881.0,39696.0,52526.0,51028.0,12552.0,6014.0,3852.0,647.0,275.0
566805,County,2020/06/26,51.0,VA,51019.0,Bedford County,13306.0,65441.0,308178.0,65822.0,71226.0,38608.0,55582.0,50576.0,15967.0,5539.0,4169.0,499.0,190.0
569928,County,2020/06/27,51.0,VA,51019.0,Bedford County,12978.0,65769.0,318608.0,68307.0,75789.0,39427.0,56078.0,51994.0,15187.0,5970.0,5074.0,695.0,87.0
573121,County,2020/06/28,51.0,VA,51019.0,Bedford County,13312.0,65435.0,270940.0,58686.0,65305.0,33069.0,48903.0,41846.0,12083.0,5168.0,5001.0,653.0,226.0
577896,County,2020/06/29,51.0,VA,51019.0,Bedford County,13957.0,64790.0,294431.0,64407.0,68299.0,34491.0,48292.0,53925.0,14030.0,5965.0,4356.0,485.0,181.0
579539,County,2020/06/30,51.0,VA,51019.0,Bedford County,13369.0,65378.0,279690.0,61465.0,64616.0,33282.0,46058.0,49192.0,13373.0,6065.0,4866.0,479.0,294.0
582741,County,2020/07/01,51.0,VA,51019.0,Bedford County,13282.0,65465.0,288974.0,62669.0,64849.0,36341.0,48487.0,49987.0,14035.0,7808.0,4001.0,554.0,243.0
587477,County,2020/07/02,51.0,VA,51019.0,Bedford County,13873.0,64874.0,328174.0,69753.0,81602.0,42133.0,55751.0,54161.0,13323.0,6383.0,4089.0,687.0,292.0
590671,County,2020/07/03,51.0,VA,51019.0,Bedford County,13964.0,64783.0,306442.0,65451.0,70825.0,38390.0,55269.0,50291.0,15877.0,5508.0,4146.0,496.0,189.0
592320,County,2020/07/04,51.0,VA,51019.0,Bedford County,15347.0,63400.0,262169.0,55995.0,60592.0,32844.0,47284.0,43025.0,13583.0,4712.0,3547.0,425.0,162.0
597075,County,2020/07/05,51.0,VA,51019.0,Bedford County,13618.0,65129.0,262948.0,55275.0,60618.0,33942.0,45275.0,42587.0,11346.0,7838.0,5206.0,585.0,276.0
600253,County,2020/07/06,51.0,VA,51019.0,Bedford County,13594.0,65153.0,279839.0,66073.0,63775.0,33383.0,44343.0,47122.0,13599.0,6625.0,3947.0,714.0,258.0
602272,County,2020/07/07,51.0,VA,51019.0,Bedford County,13253.0,65494.0,287331.0,66337.0,61749.0,36524.0,49037.0,46620.0,14436.0,7886.0,3922.0,611.0,209.0
604974,County,2020/07/08,51.0,VA,51019.0,Bedford County,12656.0,66091.0,287766.0,65642.0,62190.0,32663.0,51601.0,47365.0,15083.0,8047.0,4276.0,680.0,219.0
609843,County,2020/07/09,51.0,VA,51019.0,Bedford County,13461.0,65286.0,291773.0,65946.0,66839.0,31029.0,47926.0,55225.0,14385.0,5676.0,3918.0,647.0,182.0
613049,County,2020/07/10,51.0,VA,51019.0,Bedford County,12943.0,65804.0,296420.0,68373.0,63049.0,36360.0,50365.0,51959.0,13977.0,6952.0,4389.0,801.0,195.0
614678,County,2020/07/11,51.0,VA,51019.0,Bedford County,14038.0,64709.0,293632.0,68247.0,69149.0,33855.0,51309.0,45233.0,13524.0,6822.0,4541.0,667.0,285.0
617849,County,2020/07/12,51.0,VA,51019.0,Bedford County,14415.0,64332.0,258636.0,55561.0,61332.0,32409.0,43660.0,40663.0,12748.0,7298.0,3859.0,733.0,373.0
621038,County,2020/07/13,51.0,VA,51019.0,Bedford County,13628.0,65119.0,276365.0,54366.0,64459.0,36996.0,46536.0,48080.0,16160.0,5272.0,3736.0,457.0,303.0
624239,County,2020/07/14,51.0,VA,51019.0,Bedford County,13320.0,65427.0,285063.0,59472.0,64723.0,34262.0,50540.0,51786.0,14901.0,5065.0,3362.0,652.0,300.0
628976,County,2020/07/15,51.0,VA,51019.0,Bedford County,13360.0,65387.0,296772.0,65445.0,69990.0,38711.0,47304.0,53626.0,13893.0,4350.0,2803.0,429.0,221.0
630602,County,2020/07/16,51.0,VA,51019.0,Bedford County,13494.0,65253.0,315190.0,69912.0,74250.0,40667.0,52073.0,57118.0,14168.0,3805.0,2321.0,689.0,187.0
633809,County,2020/07/17,51.0,VA,51019.0,Bedford County,13889.0,64858.0,305513.0,65519.0,73621.0,38448.0,51029.0,54709.0,14529.0,3577.0,3222.0,737.0,122.0
638589,County,2020/07/18,51.0,VA,51019.0,Bedford County,14902.0,63845.0,302305.0,66544.0,73784.0,38894.0,51996.0,48372.0,11610.0,5370.0,4877.0,691.0,167.0
641793,County,2020/07/19,51.0,VA,51019.0,Bedford County,15711.0,63036.0,242757.0,52683.0,59565.0,29438.0,41196.0,42213.0,8689.0,3581.0,4329.0,775.0,288.0
645000,County,2020/07/20,51.0,VA,51019.0,Bedford County,15384.0,63363.0,270322.0,57115.0,63053.0,31118.0,44013.0,52131.0,13899.0,4646.0,3281.0,864.0,202.0
646971,County,2020/07/21,51.0,VA,51019.0,Bedford County,14307.0,64440.0,272367.0,61543.0,62527.0,27431.0,43469.0,49861.0,14408.0,7238.0,4795.0,830.0,265.0
651356,County,2020/07/22,51.0,VA,51019.0,Bedford County,13329.0,65418.0,274435.0,56245.0,64906.0,30937.0,47415.0,48768.0,14043.0,7467.0,3705.0,755.0,194.0
652900,County,2020/07/23,51.0,VA,51019.0,Bedford County,13435.0,65312.0,273992.0,56015.0,61144.0,30051.0,47086.0,52453.0,15589.0,6484.0,3916.0,1023.0,231.0
657824,County,2020/07/24,51.0,VA,51019.0,Bedford County,12502.0,66245.0,289475.0,57491.0,68952.0,37282.0,47509.0,49640.0,15880.0,6861.0,4811.0,774.0,275.0
659367,County,2020/07/25,51.0,VA,51019.0,Bedford County,14132.0,64615.0,282319.0,66303.0,60877.0,31331.0,45811.0,50078.0,14782.0,7013.0,4939.0,991.0,194.0
662567,County,2020/07/26,51.0,VA,51019.0,Bedford County,14048.0,64699.0,276850.0,55043.0,59150.0,36617.0,51093.0,47388.0,14221.0,6607.0,5667.0,720.0,344.0
665861,County,2020/07/27,51.0,VA,51019.0,Bedford County,13747.0,65000.0,304675.0,66034.0,69411.0,35426.0,47152.0,57890.0,17247.0,6522.0,3954.0,786.0,253.0
669024,County,2020/07/28,51.0,VA,51019.0,Bedford County,13240.0,65507.0,295030.0,58781.0,68383.0,33260.0,50153.0,55610.0,16190.0,6925.0,4950.0,495.0,283.0
672230,County,2020/07/29,51.0,VA,51019.0,Bedford County,14015.0,64732.0,295428.0,59186.0,69552.0,33402.0,45903.0,55939.0,17674.0,9142.0,3752.0,569.0,309.0
676893,County,2020/07/30,51.0,VA,51019.0,Bedford County,13347.0,65400.0,296518.0,61911.0,65010.0,32587.0,49571.0,57670.0,15892.0,6997.0,5739.0,779.0,362.0
680121,County,2020/07/31,51.0,VA,51019.0,Bedford County,13622.0,65125.0,290721.0,61620.0,65333.0,34461.0,48154.0,51785.0,15621.0,7646.0,4896.0,829.0,376.0
683290,County,2020/08/01,51.0,VA,51019.0,Bedford County,14871.0,63876.0,281130.0,60354.0,71019.0,30222.0,44216.0,47008.0,13464.0,7209.0,6326.0,876.0,436.0
684924,County,2020/08/02,51.0,VA,51019.0,Bedford County,15462.0,63285.0,221323.0,41668.0,49491.0,24804.0,39547.0,35044.0,12381.0,9427.0,7748.0,936.0,277.0
688121,County,2020/08/03,51.0,VA,51019.0,Bedford County,14505.0,64242.0,252141.0,47893.0,59111.0,27062.0,41151.0,47977.0,15076.0,7795.0,5184.0,671.0,221.0
692896,County,2020/08/04,51.0,VA,51019.0,Bedford County,14094.0,64653.0,298815.0,67388.0,71962.0,37094.0,46859.0,51813.0,13542.0,6364.0,3220.0,410.0,163.0
696072,County,2020/08/05,51.0,VA,51019.0,Bedford County,13868.0,64879.0,295999.0,64967.0,68246.0,36089.0,50721.0,51673.0,15376.0,5064.0,3087.0,573.0,203.0
699267,County,2020/08/06,51.0,VA,51019.0,Bedford County,13901.0,64846.0,301471.0,65219.0,68788.0,37476.0,53577.0,51604.0,14839.0,5868.0,3280.0,679.0,141.0
702463,County,2020/08/07,51.0,VA,51019.0,Bedford County,14216.0,64531.0,292051.0,58267.0,67935.0,39325.0,49731.0,53713.0,13945.0,5072.0,3284.0,566.0,213.0
704092,County,2020/08/08,51.0,VA,51019.0,Bedford County,14419.0,64328.0,251124.0,43880.0,55366.0,34102.0,46374.0,46833.0,14202.0,5030.0,4563.0,568.0,206.0
708874,County,2020/08/09,51.0,VA,51019.0,Bedford County,15603.0,63144.0,260129.0,48965.0,61323.0,34099.0,45460.0,44164.0,13228.0,6700.0,5136.0,791.0,263.0
712043,County,2020/08/10,51.0,VA,51019.0,Bedford County,14346.0,64401.0,261702.0,45972.0,63413.0,29933.0,45679.0,50797.0,14460.0,5370.0,5009.0,730.0,339.0
713720,County,2020/08/11,51.0,VA,51019.0,Bedford County,14431.0,64316.0,273123.0,53651.0,62327.0,32070.0,45267.0,56222.0,14140.0,5275.0,3289.0,680.0,202.0
718431,County,2020/08/12,51.0,VA,51019.0,Bedford County,14547.0,64200.0,259056.0,44326.0,61010.0,29695.0,48193.0,50452.0,14079.0,5296.0,4451.0,1095.0,459.0
721625,County,2020/08/13,51.0,VA,51019.0,Bedford County,13122.0,65625.0,249131.0,42384.0,52668.0,30428.0,45784.0,49953.0,14728.0,6704.0,4939.0,1060.0,483.0
723252,County,2020/08/14,51.0,VA,51019.0,Bedford County,13027.0,65720.0,265454.0,48789.0,55510.0,32384.0,47950.0,51022.0,15803.0,6567.0,5667.0,1175.0,587.0
728014,County,2020/08/15,51.0,VA,51019.0,Bedford County,14753.0,63994.0,230165.0,35220.0,47971.0,30584.0,41497.0,46657.0,14053.0,6494.0,6109.0,1183.0,397.0
729642,County,2020/08/16,51.0,VA,51019.0,Bedford County,15352.0,63395.0,231998.0,37222.0,55588.0,26653.0,39936.0,42800.0,14339.0,7339.0,6016.0,1454.0,651.0
732836,County,2020/08/17,51.0,VA,51019.0,Bedford County,15012.0,63735.0,260971.0,37589.0,59284.0,31578.0,46203.0,56307.0,16140.0,6755.0,5454.0,1105.0,556.0
736051,County,2020/08/18,51.0,VA,51019.0,Bedford County,14253.0,64494.0,242158.0,42046.0,48558.0,27517.0,41343.0,49383.0,18817.0,7127.0,5344.0,1299.0,724.0
740789,County,2020/08/19,51.0,VA,51019.0,Bedford County,13302.0,65445.0,263214.0,44725.0,56898.0,33491.0,42094.0,53063.0,18617.0,6367.0,6118.0,1151.0,690.0
742418,County,2020/08/20,51.0,VA,51019.0,Bedford County,12983.0,65764.0,266651.0,46087.0,59580.0,29442.0,47152.0,53385.0,17499.0,6624.0,5006.0,1198.0,678.0
747193,County,2020/08/21,51.0,VA,51019.0,Bedford County,12806.0,65941.0,279624.0,49223.0,63699.0,33079.0,49678.0,53499.0,17286.0,6591.0,4906.0,993.0,670.0
748822,County,2020/08/22,51.0,VA,51019.0,Bedford County,13858.0,64889.0,263050.0,48155.0,58935.0,33317.0,47255.0,46325.0,15578.0,6874.0,4736.0,1208.0,667.0
752016,County,2020/08/23,51.0,VA,51019.0,Bedford County,15202.0,63545.0,226727.0,42794.0,53008.0,28776.0,38833.0,39867.0,12099.0,5819.0,4122.0,890.0,519.0
756759,County,2020/08/24,51.0,VA,51019.0,Bedford County,14660.0,64087.0,241204.0,44195.0,53716.0,31686.0,41642.0,46187.0,14007.0,4149.0,4110.0,847.0,665.0
758388,County,2020/08/25,51.0,VA,51019.0,Bedford County,13936.0,64811.0,258836.0,49368.0,54066.0,32354.0,44611.0,52430.0,15790.0,5238.0,3528.0,1031.0,420.0
763159,County,2020/08/26,51.0,VA,51019.0,Bedford County,14261.0,64486.0,254948.0,51034.0,51944.0,33235.0,42548.0,51067.0,14237.0,5596.0,3970.0,929.0,388.0
764739,County,2020/08/27,51.0,VA,51019.0,Bedford County,14709.0,64038.0,278652.0,56613.0,61927.0,36275.0,47726.0,50315.0,15159.0,5382.0,4195.0,759.0,301.0
769522,County,2020/08/28,51.0,VA,51019.0,Bedford County,14274.0,64473.0,270646.0,48130.0,60500.0,33480.0,52156.0,51732.0,13682.0,5259.0,4236.0,1115.0,356.0
772722,County,2020/08/29,51.0,VA,51019.0,Bedford County,15575.0,63172.0,234428.0,39546.0,54013.0,31065.0,45293.0,41902.0,11037.0,5332.0,4599.0,1289.0,352.0
774396,County,2020/08/30,51.0,VA,51019.0,Bedford County,16519.0,62228.0,232591.0,40809.0,53035.0,32049.0,39846.0,39273.0,14656.0,6016.0,5523.0,1054.0,330.0
779118,County,2020/08/31,51.0,VA,51019.0,Bedford County,15246.0,63501.0,222744.0,35539.0,48471.0,27962.0,40297.0,43951.0,13635.0,6034.0,5306.0,1117.0,432.0
780730,County,2020/09/01,51.0,VA,51019.0,Bedford County,14357.0,64390.0,261307.0,46525.0,56109.0,31427.0,46138.0,52099.0,15929.0,7362.0,4335.0,1050.0,333.0
785506,County,2020/09/02,51.0,VA,51019.0,Bedford County,14668.0,64079.0,279431.0,54850.0,58514.0,31915.0,47384.0,56111.0,17686.0,7407.0,4226.0,1114.0,224.0
788714,County,2020/09/03,51.0,VA,51019.0,Bedford County,13417.0,65330.0,286061.0,55798.0,58676.0,34055.0,51570.0,56113.0,17072.0,6585.0,4756.0,1050.0,386.0
791893,County,2020/09/04,51.0,VA,51019.0,Bedford County,14445.0,64302.0,277931.0,58401.0,63212.0,32106.0,41299.0,51394.0,17086.0,7648.0,5195.0,1236.0,354.0
795089,County,2020/09/05,51.0,VA,51019.0,Bedford County,14718.0,64029.0,277636.0,56773.0,58991.0,33509.0,48810.0,50785.0,16738.0,7044.0,3905.0,790.0,291.0
798292,County,2020/09/06,51.0,VA,51019.0,Bedford County,16517.0,62230.0,226198.0,40841.0,49419.0,30076.0,37231.0,40893.0,14524.0,6972.0,4909.0,979.0,354.0
799903,County,2020/09/07,51.0,VA,51019.0,Bedford County,16761.0,61986.0,219442.0,46070.0,47828.0,21767.0,36129.0,41456.0,11913.0,7316.0,5490.0,1075.0,398.0
804669,County,2020/09/08,51.0,VA,51019.0,Bedford County,15831.0,62916.0,259169.0,44370.0,57458.0,32165.0,43674.0,51991.0,15904.0,7125.0,5233.0,1011.0,238.0
806298,County,2020/09/09,51.0,VA,51019.0,Bedford County,14773.0,63974.0,266286.0,50974.0,52342.0,31299.0,46447.0,56210.0,15211.0,6826.0,5709.0,967.0,301.0
811066,County,2020/09/10,51.0,VA,51019.0,Bedford County,14810.0,63937.0,259061.0,48332.0,57786.0,30932.0,44005.0,50003.0,14156.0,6421.0,6185.0,884.0,357.0
812695,County,2020/09/11,51.0,VA,51019.0,Bedford County,14440.0,64307.0,291217.0,56396.0,67828.0,33888.0,50439.0,54245.0,14938.0,6828.0,5599.0,804.0,252.0
817445,County,2020/09/12,51.0,VA,51019.0,Bedford County,15989.0,62758.0,243132.0,41764.0,55231.0,29111.0,44557.0,43736.0,13567.0,7768.0,6148.0,984.0,266.0
819052,County,2020/09/13,51.0,VA,51019.0,Bedford County,16977.0,61770.0,212180.0,35376.0,45876.0,24161.0,37180.0,38717.0,14160.0,9345.0,5797.0,1079.0,489.0
823834,County,2020/09/14,51.0,VA,51019.0,Bedford County,15654.0,63093.0,269785.0,47907.0,64206.0,32391.0,46416.0,52368.0,13854.0,6779.0,4485.0,1081.0,298.0
825462,County,2020/09/15,51.0,VA,51019.0,Bedford County,15167.0,63580.0,275538.0,52033.0,58328.0,31097.0,50055.0,54973.0,16705.0,6478.0,4489.0,991.0,389.0
830221,County,2020/09/16,51.0,VA,51019.0,Bedford County,15176.0,63571.0,272034.0,49720.0,58694.0,34192.0,46165.0,56030.0,14882.0,6777.0,4468.0,761.0,345.0
831848,County,2020/09/17,51.0,VA,51019.0,Bedford County,15229.0,63518.0,248946.0,41696.0,52391.0,32053.0,41711.0,52681.0,16430.0,5424.0,5178.0,1074.0,308.0
836609,County,2020/09/18,51.0,VA,51019.0,Bedford County,14651.0,64096.0,283035.0,49959.0,61546.0,34684.0,49762.0,56895.0,16566.0,7121.0,5306.0,883.0,313.0
838238,County,2020/09/19,51.0,VA,51019.0,Bedford County,15625.0,63122.0,274542.0,50491.0,62995.0,31868.0,46387.0,51747.0,15588.0,8055.0,6161.0,966.0,284.0
843013,County,2020/09/20,51.0,VA,51019.0,Bedford County,15793.0,62954.0,226168.0,44488.0,49947.0,28999.0,39391.0,38001.0,12782.0,5943.0,5432.0,1053.0,132.0
844641,County,2020/09/21,51.0,VA,51019.0,Bedford County,16061.0,62686.0,236194.0,39625.0,52029.0,28899.0,45306.0,49041.0,11627.0,4798.0,3860.0,836.0,173.0
849385,County,2020/09/22,51.0,VA,51019.0,Bedford County,14794.0,63953.0,275637.0,56962.0,61808.0,33046.0,49832.0,52218.0,13336.0,4270.0,2971.0,1098.0,96.0
851013,County,2020/09/23,51.0,VA,51019.0,Bedford County,13652.0,65095.0,293873.0,56152.0,64181.0,36398.0,55110.0,58681.0,16260.0,3753.0,2173.0,988.0,177.0
855779,County,2020/09/24,51.0,VA,51019.0,Bedford County,13535.0,65212.0,278144.0,46624.0,64940.0,35744.0,51394.0,57451.0,13584.0,4388.0,3072.0,734.0,213.0
857408,County,2020/09/25,51.0,VA,51019.0,Bedford County,13558.0,65189.0,268845.0,42876.0,66502.0,30355.0,50721.0,53243.0,15658.0,5162.0,3314.0,885.0,129.0
862161,County,2020/09/26,51.0,VA,51019.0,Bedford County,14679.0,64068.0,271098.0,45915.0,63736.0,32515.0,49732.0,56893.0,14833.0,3848.0,2464.0,975.0,187.0
863766,County,2020/09/27,51.0,VA,51019.0,Bedford County,15387.0,63360.0,246929.0,43801.0,55215.0,29947.0,47519.0,49720.0,11455.0,4894.0,3508.0,710.0,160.0
868549,County,2020/09/28,51.0,VA,51019.0,Bedford County,13814.0,64933.0,276806.0,49068.0,62576.0,36284.0,52871.0,55722.0,13150.0,3823.0,2719.0,454.0,139.0
870177,County,2020/09/29,51.0,VA,51019.0,Bedford County,14462.0,64285.0,253477.0,45808.0,51749.0,30209.0,45212.0,52690.0,16025.0,7207.0,3724.0,755.0,98.0
874956,County,2020/09/30,51.0,VA,51019.0,Bedford County,14720.0,64027.0,248089.0,36454.0,50305.0,30762.0,48104.0,51868.0,18966.0,7443.0,3620.0,458.0,109.0
878110,County,2020/10/01,51.0,VA,51019.0,Bedford County,14173.0,64574.0,252106.0,39723.0,55120.0,29909.0,47354.0,54048.0,14686.0,6649.0,3829.0,665.0,123.0
881325,County,2020/10/02,51.0,VA,51019.0,Bedford County,13739.0,65008.0,252594.0,41836.0,54575.0,33905.0,45917.0,50166.0,15032.0,5503.0,4773.0,767.0,120.0
884520,County,2020/10/03,51.0,VA,51019.0,Bedford County,15540.0,63207.0,243525.0,42349.0,47692.0,32127.0,44026.0,50720.0,17106.0,5030.0,3867.0,515.0,93.0
887524,County,2020/10/04,51.0,VA,51019.0,Bedford County,16172.0,62575.0,224118.0,34163.0,50564.0,28310.0,44683.0,41377.0,14194.0,5279.0,4758.0,706.0,84.0
890761,County,2020/10/05,51.0,VA,51019.0,Bedford County,16748.0,61999.0,231332.0,34087.0,53308.0,28737.0,44287.0,42560.0,15728.0,7482.0,4523.0,521.0,99.0
893901,County,2020/10/06,51.0,VA,51019.0,Bedford County,14000.0,64747.0,248487.0,39787.0,55705.0,28293.0,42514.0,53299.0,16213.0,8436.0,3719.0,436.0,85.0
897344,County,2020/10/07,51.0,VA,51019.0,Bedford County,13873.0,64874.0,264669.0,44084.0,61782.0,29366.0,43978.0,54836.0,18928.0,7861.0,3348.0,390.0,96.0
900331,County,2020/10/08,51.0,VA,51019.0,Bedford County,14659.0,64088.0,241508.0,38114.0,52913.0,30927.0,43936.0,48922.0,14311.0,6969.0,4738.0,588.0,90.0
903526,County,2020/10/09,51.0,VA,51019.0,Bedford County,14777.0,63970.0,241675.0,38312.0,58722.0,27483.0,40332.0,48767.0,15453.0,8529.0,3417.0,575.0,85.0
906701,County,2020/10/10,51.0,VA,51019.0,Bedford County,16732.0,62015.0,205283.0,24276.0,50943.0,25989.0,35204.0,43303.0,13266.0,7357.0,4235.0,631.0,79.0
907460,County,2020/10/11,51.0,VA,51019.0,Bedford County,17108.0,61639.0,189905.0,22055.0,47084.0,25397.0,34210.0,35888.0,12961.0,6996.0,4711.0,523.0,80.0
910916,County,2020/10/12,51.0,VA,51019.0,Bedford County,16190.0,62557.0,240435.0,41702.0,55883.0,27620.0,40963.0,48067.0,14439.0,8057.0,3241.0,397.0,66.0
913580,County,2020/10/13,51.0,VA,51019.0,Bedford County,15033.0,63714.0,250183.0,44559.0,55944.0,32950.0,41513.0,46707.0,17033.0,7448.0,3401.0,545.0,83.0
917004,County,2020/10/14,51.0,VA,51019.0,Bedford County,14582.0,64165.0,248324.0,42178.0,54816.0,29007.0,43274.0,51086.0,17285.0,6894.0,3323.0,365.0,96.0
920315,County,2020/10/15,51.0,VA,51019.0,Bedford County,14925.0,63822.0,223565.0,35587.0,50676.0,25401.0,37475.0,43088.0,18179.0,8888.0,3698.0,472.0,101.0
923775,County,2020/10/16,51.0,VA,51019.0,Bedford County,14567.0,64180.0,260762.0,44833.0,64684.0,32122.0,42034.0,48817.0,17122.0,6732.0,3820.0,508.0,90.0
927412,County,2020/10/17,51.0,VA,51019.0,Bedford County,15898.0,62849.0,238985.0,39909.0,57718.0,24400.0,38721.0,48850.0,16328.0,8143.0,4287.0,515.0,114.0
929709,County,2020/10/18,51.0,VA,51019.0,Bedford County,16320.0,62427.0,214379.0,35355.0,50931.0,22993.0,40044.0,38548.0,13090.0,7955.0,4775.0,591.0,97.0
933307,County,2020/10/19,51.0,VA,51019.0,Bedford County,14642.0,64105.0,247577.0,38234.0,61595.0,29861.0,43442.0,47642.0,15492.0,6581.0,4189.0,462.0,79.0
935938,County,2020/10/20,51.0,VA,51019.0,Bedford County,15867.0,62880.0,249226.0,42667.0,56624.0,29838.0,47291.0,46377.0,16798.0,6358.0,2708.0,483.0,82.0
939252,County,2020/10/21,51.0,VA,51019.0,Bedford County,15673.0,63074.0,233397.0,36208.0,55141.0,26203.0,39332.0,48994.0,17019.0,6286.0,3413.0,703.0,98.0
942404,County,2020/10/22,51.0,VA,51019.0,Bedford County,14970.0,63777.0,268859.0,45750.0,65056.0,28538.0,47587.0,54989.0,15933.0,6476.0,3871.0,597.0,62.0
945667,County,2020/10/23,51.0,VA,51019.0,Bedford County,14092.0,64655.0,287469.0,54757.0,68003.0,34949.0,49898.0,52285.0,16427.0,6773.0,3708.0,577.0,92.0
949376,County,2020/10/24,51.0,VA,51019.0,Bedford County,14941.0,63806.0,284998.0,51833.0,66705.0,33343.0,52538.0,54149.0,17353.0,6003.0,2612.0,397.0,65.0
