,Level,Date,State FIPS,State Postal Code,County FIPS,County Name,Population Staying at Home,Population Not Staying at Home,Number of Trips,Number of Trips <1,Number of Trips 1-3,Number of Trips 3-5,Number of Trips 5-10,Number of Trips 10-25,Number of Trips 25-50,Number of Trips 50-100,Number of Trips 100-250,Number of Trips 250-500,Number of Trips >=500
3028,County,2020/01/01,54.0,WV,54075.0,Pocahontas County,2911.0,5503.0,15972.0,2682.0,3318.0,2210.0,3280.0,3151.0,701.0,395.0,173.0,62.0,0.0
3997,County,2020/01/02,54.0,WV,54075.0,Pocahontas County,2316.0,6098.0,20403.0,3504.0,4347.0,1945.0,4478.0,3915.0,1417.0,558.0,195.0,33.0,11.0
6888,County,2020/01/03,54.0,WV,54075.0,Pocahontas County,2467.0,5947.0,20374.0,3356.0,4276.0,1439.0,5058.0,3806.0,1385.0,835.0,161.0,34.0,24.0
11182,County,2020/01/04,54.0,WV,54075.0,Pocahontas County,2833.0,5581.0,18878.0,3580.0,2931.0,2354.0,5043.0,2795.0,1549.0,407.0,170.0,36.0,13.0
15804,County,2020/01/05,54.0,WV,54075.0,Pocahontas County,2723.0,5691.0,15820.0,2347.0,3024.0,1487.0,5082.0,2138.0,842.0,597.0,208.0,70.0,25.0
17529,County,2020/01/06,54.0,WV,54075.0,Pocahontas County,2292.0,6122.0,18807.0,2867.0,3536.0,1630.0,4839.0,3825.0,1477.0,408.0,183.0,31.0,11.0
22242,County,2020/01/07,54.0,WV,54075.0,Pocahontas County,2610.0,5804.0,20559.0,3453.0,4621.0,2447.0,5037.0,3195.0,1199.0,472.0,93.0,31.0,11.0
25436,County,2020/01/08,54.0,WV,54075.0,Pocahontas County,2394.0,6020.0,21108.0,4269.0,4056.0,1945.0,5697.0,3056.0,1836.0,174.0,54.0,0.0,21.0
27063,County,2020/01/09,54.0,WV,54075.0,Pocahontas County,2598.0,5816.0,18894.0,3337.0,4267.0,1753.0,4709.0,2941.0,1241.0,457.0,143.0,34.0,12.0
30259,County,2020/01/10,54.0,WV,54075.0,Pocahontas County,2593.0,5821.0,23577.0,3127.0,4982.0,2424.0,6267.0,4018.0,1696.0,891.0,160.0,0.0,12.0
35066,County,2020/01/11,54.0,WV,54075.0,Pocahontas County,2500.0,5914.0,17958.0,3237.0,4649.0,1783.0,3731.0,2563.0,1443.0,398.0,107.0,15.0,32.0
36657,County,2020/01/12,54.0,WV,54075.0,Pocahontas County,2782.0,5632.0,20238.0,3522.0,3786.0,1743.0,6523.0,2672.0,1563.0,324.0,81.0,0.0,24.0
41433,County,2020/01/13,54.0,WV,54075.0,Pocahontas County,2457.0,5957.0,20397.0,3704.0,5404.0,1574.0,4483.0,2942.0,1709.0,410.0,92.0,46.0,33.0
43062,County,2020/01/14,54.0,WV,54075.0,Pocahontas County,2236.0,6178.0,19433.0,3328.0,4440.0,2328.0,3248.0,3825.0,1507.0,594.0,130.0,0.0,33.0
46213,County,2020/01/15,54.0,WV,54075.0,Pocahontas County,2277.0,6137.0,21521.0,4317.0,5226.0,1737.0,5481.0,2536.0,1514.0,597.0,75.0,16.0,22.0
50995,County,2020/01/16,54.0,WV,54075.0,Pocahontas County,2252.0,6162.0,22905.0,4131.0,5078.0,2013.0,4311.0,4107.0,1839.0,1217.0,127.0,61.0,21.0
54232,County,2020/01/17,54.0,WV,54075.0,Pocahontas County,2126.0,6288.0,24560.0,3930.0,4241.0,1910.0,7461.0,2905.0,2862.0,990.0,138.0,72.0,51.0
55806,County,2020/01/18,54.0,WV,54075.0,Pocahontas County,2696.0,5718.0,20568.0,3911.0,5273.0,2323.0,4270.0,3065.0,1161.0,427.0,115.0,0.0,23.0
59003,County,2020/01/19,54.0,WV,54075.0,Pocahontas County,2759.0,5655.0,18708.0,3715.0,4682.0,1754.0,3973.0,2904.0,1033.0,438.0,98.0,99.0,12.0
63764,County,2020/01/20,54.0,WV,54075.0,Pocahontas County,2344.0,6070.0,19561.0,3447.0,3908.0,2558.0,4530.0,3215.0,943.0,690.0,217.0,14.0,39.0
66962,County,2020/01/21,54.0,WV,54075.0,Pocahontas County,2344.0,6070.0,20976.0,2557.0,4962.0,3318.0,4280.0,3744.0,1560.0,391.0,105.0,59.0,0.0
70152,County,2020/01/22,54.0,WV,54075.0,Pocahontas County,2550.0,5864.0,24618.0,5763.0,4982.0,2908.0,5544.0,3264.0,1412.0,618.0,39.0,65.0,23.0
71778,County,2020/01/23,54.0,WV,54075.0,Pocahontas County,2258.0,6156.0,21698.0,4148.0,3940.0,1950.0,6307.0,3364.0,1450.0,381.0,85.0,43.0,30.0
76540,County,2020/01/24,54.0,WV,54075.0,Pocahontas County,2486.0,5928.0,22721.0,3707.0,4755.0,1437.0,5611.0,5028.0,1415.0,613.0,70.0,44.0,41.0
79727,County,2020/01/25,54.0,WV,54075.0,Pocahontas County,2459.0,5955.0,21267.0,3886.0,4197.0,1543.0,5633.0,2931.0,2127.0,779.0,113.0,47.0,11.0
82878,County,2020/01/26,54.0,WV,54075.0,Pocahontas County,2759.0,5655.0,21323.0,4454.0,4170.0,2595.0,5069.0,2904.0,874.0,939.0,236.0,82.0,0.0
83460,County,2020/01/27,54.0,WV,54075.0,Pocahontas County,2262.0,6152.0,19077.0,2821.0,5138.0,1681.0,4188.0,3066.0,1445.0,518.0,179.0,41.0,0.0
87812,County,2020/01/28,54.0,WV,54075.0,Pocahontas County,2482.0,5932.0,19787.0,3763.0,4202.0,1982.0,4128.0,3950.0,1422.0,177.0,148.0,15.0,0.0
90918,County,2020/01/29,54.0,WV,54075.0,Pocahontas County,2459.0,5955.0,22025.0,4315.0,4756.0,2414.0,5240.0,3857.0,836.0,419.0,113.0,31.0,44.0
94271,County,2020/01/30,54.0,WV,54075.0,Pocahontas County,2252.0,6162.0,20200.0,2162.0,3505.0,1937.0,5785.0,4848.0,1162.0,356.0,399.0,27.0,19.0
97325,County,2020/01/31,54.0,WV,54075.0,Pocahontas County,2158.0,6256.0,21912.0,2880.0,3747.0,2166.0,5366.0,4801.0,1916.0,566.0,370.0,74.0,26.0
102085,County,2020/02/01,54.0,WV,54075.0,Pocahontas County,2476.0,5938.0,20593.0,2940.0,4429.0,1745.0,5795.0,3212.0,1318.0,779.0,245.0,82.0,48.0
105286,County,2020/02/02,54.0,WV,54075.0,Pocahontas County,2571.0,5843.0,19165.0,3451.0,5264.0,1662.0,4569.0,1912.0,1534.0,330.0,310.0,72.0,61.0
106912,County,2020/02/03,54.0,WV,54075.0,Pocahontas County,2397.0,6017.0,22281.0,4237.0,4137.0,1433.0,5273.0,4309.0,1685.0,984.0,170.0,26.0,27.0
111674,County,2020/02/04,54.0,WV,54075.0,Pocahontas County,2262.0,6152.0,23253.0,4399.0,5008.0,1686.0,4690.0,4524.0,1331.0,1323.0,200.0,84.0,8.0
114877,County,2020/02/05,54.0,WV,54075.0,Pocahontas County,2020.0,6394.0,24275.0,3994.0,4603.0,2278.0,6303.0,3875.0,2097.0,805.0,213.0,44.0,63.0
116399,County,2020/02/06,54.0,WV,54075.0,Pocahontas County,2083.0,6331.0,21750.0,4110.0,3928.0,2304.0,5711.0,3007.0,1456.0,950.0,248.0,21.0,15.0
119662,County,2020/02/07,54.0,WV,54075.0,Pocahontas County,2279.0,6135.0,22273.0,3777.0,5208.0,2312.0,3703.0,3457.0,2095.0,1197.0,363.0,130.0,31.0
124450,County,2020/02/08,54.0,WV,54075.0,Pocahontas County,2475.0,5939.0,22993.0,6718.0,5057.0,1801.0,3608.0,2868.0,1570.0,1031.0,246.0,86.0,8.0
127045,County,2020/02/09,54.0,WV,54075.0,Pocahontas County,2825.0,5589.0,15792.0,3216.0,3148.0,1281.0,3150.0,2140.0,1218.0,996.0,428.0,174.0,41.0
128194,County,2020/02/10,54.0,WV,54075.0,Pocahontas County,2553.0,5861.0,18408.0,4145.0,3547.0,1458.0,3605.0,2514.0,1651.0,781.0,490.0,193.0,24.0
132956,County,2020/02/11,54.0,WV,54075.0,Pocahontas County,2464.0,5950.0,22988.0,4667.0,4660.0,2208.0,5918.0,3426.0,1221.0,459.0,303.0,84.0,42.0
134559,County,2020/02/12,54.0,WV,54075.0,Pocahontas County,2538.0,5876.0,21581.0,5443.0,4139.0,1276.0,4522.0,3695.0,1178.0,760.0,463.0,66.0,39.0
140420,County,2020/02/13,54.0,WV,54075.0,Pocahontas County,2361.0,6053.0,20509.0,4645.0,4136.0,1400.0,4009.0,3649.0,1268.0,750.0,470.0,121.0,61.0
143623,County,2020/02/14,54.0,WV,54075.0,Pocahontas County,2249.0,6165.0,21893.0,5078.0,4445.0,1563.0,2867.0,3540.0,2146.0,1396.0,584.0,211.0,63.0
145246,County,2020/02/15,54.0,WV,54075.0,Pocahontas County,2419.0,5995.0,22317.0,5452.0,4503.0,1685.0,4833.0,3088.0,1671.0,658.0,325.0,49.0,53.0
148434,County,2020/02/16,54.0,WV,54075.0,Pocahontas County,2651.0,5763.0,17728.0,3429.0,3429.0,1619.0,4078.0,2522.0,1360.0,839.0,380.0,37.0,35.0
153196,County,2020/02/17,54.0,WV,54075.0,Pocahontas County,2790.0,5624.0,15617.0,1720.0,2736.0,1331.0,4098.0,3203.0,1280.0,757.0,294.0,132.0,66.0
154773,County,2020/02/18,54.0,WV,54075.0,Pocahontas County,2187.0,6227.0,23536.0,3269.0,4210.0,2940.0,6230.0,4242.0,1242.0,1068.0,224.0,70.0,41.0
159583,County,2020/02/19,54.0,WV,54075.0,Pocahontas County,2170.0,6244.0,25109.0,4876.0,4816.0,1793.0,5836.0,4874.0,1847.0,679.0,290.0,89.0,9.0
161079,County,2020/02/20,54.0,WV,54075.0,Pocahontas County,1969.0,6445.0,23820.0,6201.0,4560.0,1806.0,5012.0,3444.0,1399.0,1103.0,280.0,0.0,15.0
165972,County,2020/02/21,54.0,WV,54075.0,Pocahontas County,2086.0,6328.0,26607.0,6335.0,4831.0,2069.0,6930.0,3571.0,1786.0,836.0,193.0,23.0,33.0
167550,County,2020/02/22,54.0,WV,54075.0,Pocahontas County,2325.0,6089.0,23133.0,5697.0,4584.0,2289.0,4351.0,2424.0,2593.0,860.0,202.0,113.0,20.0
170829,County,2020/02/23,54.0,WV,54075.0,Pocahontas County,2445.0,5969.0,20571.0,3420.0,3772.0,2625.0,4558.0,3221.0,1851.0,730.0,343.0,13.0,38.0
175560,County,2020/02/24,54.0,WV,54075.0,Pocahontas County,2178.0,6236.0,29191.0,6001.0,6028.0,3116.0,7460.0,3584.0,2334.0,404.0,211.0,12.0,41.0
178699,County,2020/02/25,54.0,WV,54075.0,Pocahontas County,1943.0,6471.0,25714.0,3734.0,4886.0,2311.0,7961.0,4339.0,1378.0,598.0,427.0,29.0,51.0
181892,County,2020/02/26,54.0,WV,54075.0,Pocahontas County,2053.0,6361.0,22627.0,4170.0,4160.0,1841.0,6294.0,3883.0,1739.0,411.0,129.0,0.0,0.0
182967,County,2020/02/27,54.0,WV,54075.0,Pocahontas County,1999.0,6415.0,24052.0,4469.0,3641.0,2207.0,7821.0,3661.0,1396.0,596.0,216.0,12.0,33.0
186906,County,2020/02/28,54.0,WV,54075.0,Pocahontas County,1879.0,6535.0,23735.0,4108.0,4728.0,2014.0,6394.0,3186.0,1712.0,1259.0,297.0,12.0,25.0
191524,County,2020/02/29,54.0,WV,54075.0,Pocahontas County,2475.0,5939.0,25272.0,4631.0,3963.0,2207.0,8618.0,3454.0,1597.0,493.0,275.0,14.0,20.0
193149,County,2020/03/01,54.0,WV,54075.0,Pocahontas County,2500.0,5914.0,25193.0,5193.0,5402.0,3272.0,5857.0,3370.0,1080.0,852.0,134.0,0.0,33.0
196371,County,2020/03/02,54.0,WV,54075.0,Pocahontas County,2290.0,6124.0,25679.0,4605.0,4987.0,1775.0,7834.0,3638.0,1485.0,1171.0,86.0,72.0,26.0
200397,County,2020/03/03,54.0,WV,54075.0,Pocahontas County,2221.0,6193.0,23147.0,3551.0,5589.0,1149.0,7478.0,3082.0,1843.0,256.0,161.0,22.0,16.0
204309,County,2020/03/04,54.0,WV,54075.0,Pocahontas County,2027.0,6387.0,23997.0,4905.0,4579.0,2459.0,5831.0,3232.0,1592.0,1019.0,345.0,21.0,14.0
205878,County,2020/03/05,54.0,WV,54075.0,Pocahontas County,1857.0,6557.0,27202.0,5592.0,5576.0,2005.0,6038.0,4035.0,2460.0,1193.0,257.0,19.0,27.0
208996,County,2020/03/06,54.0,WV,54075.0,Pocahontas County,1922.0,6492.0,27651.0,5575.0,5185.0,2143.0,7367.0,3846.0,2331.0,1071.0,119.0,0.0,14.0
212423,County,2020/03/07,54.0,WV,54075.0,Pocahontas County,2325.0,6089.0,25985.0,7355.0,6054.0,1707.0,5780.0,1702.0,1934.0,1016.0,256.0,106.0,75.0
217072,County,2020/03/08,54.0,WV,54075.0,Pocahontas County,2479.0,5935.0,23451.0,8016.0,2992.0,1742.0,5003.0,3064.0,1625.0,640.0,287.0,48.0,34.0
220270,County,2020/03/09,54.0,WV,54075.0,Pocahontas County,2284.0,6130.0,26526.0,6661.0,4539.0,1420.0,7947.0,3266.0,1608.0,846.0,160.0,0.0,79.0
223463,County,2020/03/10,54.0,WV,54075.0,Pocahontas County,2155.0,6259.0,26874.0,6076.0,5767.0,1780.0,6590.0,3449.0,2017.0,921.0,236.0,22.0,16.0
225137,County,2020/03/11,54.0,WV,54075.0,Pocahontas County,1668.0,6746.0,37871.0,13233.0,7862.0,2459.0,7362.0,4524.0,1486.0,586.0,229.0,76.0,54.0
228322,County,2020/03/12,54.0,WV,54075.0,Pocahontas County,1800.0,6614.0,28547.0,8589.0,6248.0,1831.0,5525.0,3063.0,2452.0,446.0,233.0,78.0,82.0
233051,County,2020/03/13,54.0,WV,54075.0,Pocahontas County,1885.0,6529.0,28090.0,8909.0,5894.0,1522.0,5095.0,4000.0,1231.0,971.0,244.0,152.0,72.0
234534,County,2020/03/14,54.0,WV,54075.0,Pocahontas County,2540.0,5874.0,18783.0,5169.0,3004.0,2095.0,2558.0,3313.0,1483.0,701.0,294.0,123.0,43.0
239434,County,2020/03/15,54.0,WV,54075.0,Pocahontas County,2726.0,5688.0,18937.0,4607.0,2906.0,1592.0,5052.0,2975.0,676.0,800.0,196.0,117.0,16.0
242627,County,2020/03/16,54.0,WV,54075.0,Pocahontas County,2697.0,5717.0,22681.0,5173.0,3805.0,1972.0,4622.0,4196.0,2011.0,704.0,111.0,70.0,17.0
244292,County,2020/03/17,54.0,WV,54075.0,Pocahontas County,3077.0,5337.0,24198.0,6613.0,4362.0,2290.0,4473.0,3894.0,1805.0,622.0,139.0,0.0,0.0
247447,County,2020/03/18,54.0,WV,54075.0,Pocahontas County,2882.0,5532.0,26663.0,7442.0,3814.0,1829.0,6251.0,4312.0,2590.0,245.0,128.0,22.0,30.0
250654,County,2020/03/19,54.0,WV,54075.0,Pocahontas County,2972.0,5442.0,27289.0,5891.0,4897.0,2528.0,6350.0,4155.0,2251.0,968.0,177.0,42.0,30.0
255404,County,2020/03/20,54.0,WV,54075.0,Pocahontas County,2935.0,5479.0,19166.0,3461.0,3210.0,1865.0,5466.0,3647.0,739.0,250.0,366.0,131.0,31.0
258597,County,2020/03/21,54.0,WV,54075.0,Pocahontas County,3482.0,4932.0,21084.0,5115.0,5192.0,1923.0,3978.0,2213.0,1922.0,505.0,191.0,26.0,19.0
260218,County,2020/03/22,54.0,WV,54075.0,Pocahontas County,3599.0,4815.0,16879.0,5632.0,2187.0,1180.0,4095.0,1960.0,1039.0,351.0,404.0,31.0,0.0
264996,County,2020/03/23,54.0,WV,54075.0,Pocahontas County,3173.0,5241.0,15823.0,2073.0,2830.0,1260.0,4164.0,2898.0,1427.0,779.0,353.0,23.0,16.0
268177,County,2020/03/24,54.0,WV,54075.0,Pocahontas County,3054.0,5360.0,21015.0,4221.0,3854.0,3015.0,4369.0,3020.0,1653.0,608.0,191.0,68.0,16.0
271374,County,2020/03/25,54.0,WV,54075.0,Pocahontas County,3022.0,5392.0,18596.0,4585.0,3979.0,1957.0,4013.0,2250.0,998.0,524.0,219.0,23.0,48.0
273000,County,2020/03/26,54.0,WV,54075.0,Pocahontas County,2933.0,5481.0,20814.0,6287.0,4055.0,1481.0,4159.0,2769.0,1259.0,579.0,182.0,43.0,0.0
277763,County,2020/03/27,54.0,WV,54075.0,Pocahontas County,3135.0,5279.0,18769.0,4296.0,3996.0,2012.0,3368.0,3195.0,1194.0,513.0,134.0,45.0,16.0
279390,County,2020/03/28,54.0,WV,54075.0,Pocahontas County,2915.0,5499.0,16155.0,3220.0,3988.0,1999.0,3055.0,2499.0,1083.0,78.0,219.0,0.0,14.0
284150,County,2020/03/29,54.0,WV,54075.0,Pocahontas County,2986.0,5428.0,15279.0,3225.0,2725.0,2053.0,4192.0,1824.0,529.0,500.0,209.0,22.0,0.0
285778,County,2020/03/30,54.0,WV,54075.0,Pocahontas County,3006.0,5408.0,18799.0,3717.0,3715.0,1998.0,3394.0,3897.0,1083.0,776.0,170.0,20.0,29.0
288973,County,2020/03/31,54.0,WV,54075.0,Pocahontas County,3080.0,5334.0,14875.0,2868.0,2679.0,2038.0,2422.0,3974.0,502.0,158.0,149.0,41.0,44.0
292208,County,2020/04/01,54.0,WV,54075.0,Pocahontas County,2937.0,5477.0,17940.0,2585.0,2708.0,1472.0,4734.0,4380.0,883.0,773.0,364.0,41.0,0.0
295360,County,2020/04/02,54.0,WV,54075.0,Pocahontas County,3041.0,5373.0,18862.0,3370.0,3443.0,1071.0,6448.0,3592.0,404.0,398.0,100.0,21.0,15.0
300120,County,2020/04/03,54.0,WV,54075.0,Pocahontas County,3035.0,5379.0,16654.0,2317.0,2898.0,862.0,5241.0,3306.0,1520.0,342.0,107.0,45.0,16.0
301746,County,2020/04/04,54.0,WV,54075.0,Pocahontas County,3437.0,4977.0,15591.0,3237.0,3305.0,1463.0,4047.0,1542.0,1105.0,653.0,239.0,0.0,0.0
306501,County,2020/04/05,54.0,WV,54075.0,Pocahontas County,3071.0,5343.0,12538.0,2376.0,1856.0,733.0,3885.0,2168.0,949.0,187.0,293.0,74.0,17.0
309702,County,2020/04/06,54.0,WV,54075.0,Pocahontas County,3042.0,5372.0,19025.0,3069.0,3314.0,1291.0,6013.0,3883.0,900.0,355.0,167.0,0.0,33.0
311377,County,2020/04/07,54.0,WV,54075.0,Pocahontas County,2761.0,5653.0,23596.0,4333.0,4140.0,1846.0,8113.0,3398.0,1150.0,495.0,78.0,43.0,0.0
314524,County,2020/04/08,54.0,WV,54075.0,Pocahontas County,3057.0,5357.0,18770.0,5413.0,4106.0,1500.0,4027.0,2911.0,425.0,167.0,184.0,22.0,15.0
317741,County,2020/04/09,54.0,WV,54075.0,Pocahontas County,3330.0,5084.0,19764.0,3740.0,4082.0,949.0,6023.0,3410.0,1209.0,318.0,33.0,0.0,0.0
322478,County,2020/04/10,54.0,WV,54075.0,Pocahontas County,3125.0,5289.0,15566.0,3163.0,3265.0,1943.0,2109.0,3104.0,1468.0,289.0,182.0,25.0,18.0
324153,County,2020/04/11,54.0,WV,54075.0,Pocahontas County,3039.0,5375.0,16643.0,3609.0,2046.0,1962.0,5446.0,2257.0,936.0,184.0,203.0,0.0,0.0
327299,County,2020/04/12,54.0,WV,54075.0,Pocahontas County,3566.0,4848.0,11560.0,2876.0,2287.0,836.0,2243.0,2161.0,828.0,0.0,263.0,49.0,17.0
330562,County,2020/04/13,54.0,WV,54075.0,Pocahontas County,3290.0,5124.0,16381.0,2423.0,2336.0,1281.0,5833.0,3067.0,967.0,286.0,120.0,50.0,18.0
333640,County,2020/04/14,54.0,WV,54075.0,Pocahontas County,2576.0,5838.0,19749.0,2945.0,4754.0,1100.0,5525.0,2530.0,2315.0,422.0,132.0,0.0,26.0
336912,County,2020/04/15,54.0,WV,54075.0,Pocahontas County,2603.0,5811.0,17571.0,3163.0,1886.0,905.0,8124.0,2287.0,820.0,162.0,152.0,42.0,30.0
340066,County,2020/04/16,54.0,WV,54075.0,Pocahontas County,2838.0,5576.0,21419.0,8159.0,3130.0,1876.0,4029.0,2804.0,850.0,335.0,105.0,131.0,0.0
344845,County,2020/04/17,54.0,WV,54075.0,Pocahontas County,2781.0,5633.0,37177.0,9196.0,3489.0,3542.0,14605.0,3621.0,1337.0,1230.0,111.0,46.0,0.0
347993,County,2020/04/18,54.0,WV,54075.0,Pocahontas County,3098.0,5316.0,15571.0,4413.0,3597.0,1380.0,1797.0,2116.0,1563.0,410.0,257.0,0.0,38.0
351224,County,2020/04/19,54.0,WV,54075.0,Pocahontas County,2829.0,5585.0,16261.0,4565.0,2946.0,883.0,3793.0,2234.0,1600.0,0.0,198.0,42.0,0.0
354424,County,2020/04/20,54.0,WV,54075.0,Pocahontas County,2807.0,5607.0,30104.0,5799.0,5859.0,1338.0,13062.0,3385.0,303.0,239.0,75.0,0.0,44.0
356044,County,2020/04/21,54.0,WV,54075.0,Pocahontas County,2798.0,5616.0,20498.0,4025.0,3201.0,1799.0,6614.0,3408.0,1079.0,283.0,89.0,0.0,0.0
360814,County,2020/04/22,54.0,WV,54075.0,Pocahontas County,2781.0,5633.0,20557.0,5436.0,3958.0,1150.0,3144.0,4893.0,1563.0,308.0,32.0,54.0,19.0
362346,County,2020/04/23,54.0,WV,54075.0,Pocahontas County,2846.0,5568.0,17649.0,2000.0,4526.0,1860.0,3875.0,3708.0,1264.0,332.0,35.0,29.0,20.0
367231,County,2020/04/24,54.0,WV,54075.0,Pocahontas County,2804.0,5610.0,21875.0,4697.0,3185.0,2199.0,6441.0,4215.0,692.0,218.0,171.0,57.0,0.0
370390,County,2020/04/25,54.0,WV,54075.0,Pocahontas County,2958.0,5456.0,22234.0,4235.0,3964.0,2495.0,6960.0,2459.0,1346.0,742.0,33.0,0.0,0.0
373582,County,2020/04/26,54.0,WV,54075.0,Pocahontas County,3325.0,5089.0,20642.0,4291.0,3059.0,2053.0,5442.0,3711.0,1495.0,393.0,164.0,34.0,0.0
376813,County,2020/04/27,54.0,WV,54075.0,Pocahontas County,2862.0,5552.0,25314.0,4796.0,4255.0,2225.0,7002.0,4834.0,1401.0,662.0,139.0,0.0,0.0
379985,County,2020/04/28,54.0,WV,54075.0,Pocahontas County,2690.0,5724.0,23142.0,4309.0,4417.0,2060.0,5141.0,5397.0,1426.0,204.0,96.0,54.0,38.0
381612,County,2020/04/29,54.0,WV,54075.0,Pocahontas County,2994.0,5420.0,20137.0,4429.0,3864.0,1853.0,3136.0,5256.0,979.0,551.0,69.0,0.0,0.0
386358,County,2020/04/30,54.0,WV,54075.0,Pocahontas County,2860.0,5554.0,21399.0,5421.0,2221.0,2484.0,4621.0,4082.0,1876.0,528.0,166.0,0.0,0.0
388033,County,2020/05/01,54.0,WV,54075.0,Pocahontas County,2843.0,5571.0,21843.0,5758.0,5218.0,2161.0,3109.0,2616.0,2319.0,406.0,191.0,27.0,38.0
391166,County,2020/05/02,54.0,WV,54075.0,Pocahontas County,3189.0,5225.0,19874.0,3785.0,3970.0,1707.0,5640.0,3020.0,595.0,1055.0,37.0,0.0,65.0
394428,County,2020/05/03,54.0,WV,54075.0,Pocahontas County,3393.0,5021.0,15052.0,4057.0,1946.0,1357.0,2982.0,2537.0,1345.0,606.0,143.0,79.0,0.0
399134,County,2020/05/04,54.0,WV,54075.0,Pocahontas County,2963.0,5451.0,24714.0,5402.0,3571.0,2876.0,4547.0,4883.0,2638.0,611.0,154.0,32.0,0.0
400761,County,2020/05/05,54.0,WV,54075.0,Pocahontas County,2827.0,5587.0,20034.0,5640.0,3882.0,1642.0,3207.0,3022.0,1364.0,1075.0,184.0,0.0,18.0
403939,County,2020/05/06,54.0,WV,54075.0,Pocahontas County,3016.0,5398.0,22321.0,5587.0,3837.0,1840.0,5839.0,3306.0,1042.0,616.0,97.0,81.0,76.0
408660,County,2020/05/07,54.0,WV,54075.0,Pocahontas County,2891.0,5523.0,26899.0,6419.0,4049.0,3177.0,6204.0,4736.0,1466.0,735.0,66.0,28.0,19.0
408869,County,2020/05/08,54.0,WV,54075.0,Pocahontas County,2673.0,5741.0,21048.0,3622.0,5528.0,1623.0,5071.0,3484.0,980.0,580.0,91.0,51.0,18.0
413452,County,2020/05/09,54.0,WV,54075.0,Pocahontas County,3167.0,5247.0,21206.0,2708.0,5957.0,2285.0,4463.0,4763.0,647.0,383.0,0.0,0.0,0.0
418298,County,2020/05/10,54.0,WV,54075.0,Pocahontas County,3125.0,5289.0,15242.0,2340.0,2574.0,2344.0,3133.0,2696.0,1258.0,661.0,207.0,29.0,0.0
419973,County,2020/05/11,54.0,WV,54075.0,Pocahontas County,2552.0,5862.0,21626.0,1735.0,2776.0,1541.0,9576.0,3867.0,1270.0,625.0,236.0,0.0,0.0
423207,County,2020/05/12,54.0,WV,54075.0,Pocahontas County,2263.0,6151.0,18380.0,2594.0,2095.0,1741.0,5493.0,3389.0,2579.0,120.0,338.0,31.0,0.0
426215,County,2020/05/13,54.0,WV,54075.0,Pocahontas County,2803.0,5611.0,18795.0,4002.0,2646.0,2679.0,4405.0,2432.0,1757.0,755.0,119.0,0.0,0.0
431074,County,2020/05/14,54.0,WV,54075.0,Pocahontas County,2191.0,6223.0,23288.0,4435.0,3504.0,2116.0,6562.0,3721.0,2397.0,222.0,244.0,87.0,0.0
432702,County,2020/05/15,54.0,WV,54075.0,Pocahontas County,2395.0,6019.0,22993.0,1954.0,3691.0,1704.0,7935.0,3768.0,2673.0,1053.0,184.0,31.0,0.0
435926,County,2020/05/16,54.0,WV,54075.0,Pocahontas County,2922.0,5492.0,19011.0,2995.0,5225.0,2412.0,2899.0,2134.0,2523.0,497.0,208.0,87.0,31.0
440612,County,2020/05/17,54.0,WV,54075.0,Pocahontas County,2371.0,6043.0,27993.0,5324.0,7324.0,2066.0,7531.0,2217.0,2652.0,615.0,232.0,32.0,0.0
442372,County,2020/05/18,54.0,WV,54075.0,Pocahontas County,2317.0,6097.0,22894.0,5487.0,5122.0,2124.0,3889.0,3664.0,1805.0,474.0,298.0,31.0,0.0
445478,County,2020/05/19,54.0,WV,54075.0,Pocahontas County,2453.0,5961.0,24163.0,4548.0,5794.0,4416.0,3895.0,3113.0,1775.0,509.0,80.0,33.0,0.0
450238,County,2020/05/20,54.0,WV,54075.0,Pocahontas County,2398.0,6016.0,29342.0,6784.0,5123.0,1403.0,6853.0,6295.0,2226.0,501.0,157.0,0.0,0.0
453129,County,2020/05/21,54.0,WV,54075.0,Pocahontas County,2126.0,6288.0,24522.0,6576.0,4922.0,2622.0,3072.0,4222.0,1782.0,936.0,294.0,31.0,65.0
455051,County,2020/05/22,54.0,WV,54075.0,Pocahontas County,2054.0,6360.0,28546.0,6513.0,4029.0,3365.0,6329.0,4874.0,2259.0,1113.0,35.0,29.0,0.0
458248,County,2020/05/23,54.0,WV,54075.0,Pocahontas County,2488.0,5926.0,25885.0,8274.0,3028.0,2445.0,6267.0,3690.0,1558.0,409.0,214.0,0.0,0.0
461416,County,2020/05/24,54.0,WV,54075.0,Pocahontas County,2502.0,5912.0,13810.0,1482.0,2533.0,1308.0,3102.0,2579.0,1270.0,1168.0,262.0,44.0,62.0
464668,County,2020/05/25,54.0,WV,54075.0,Pocahontas County,2770.0,5644.0,16314.0,1267.0,2197.0,1931.0,4286.0,3231.0,2287.0,705.0,246.0,164.0,0.0
467823,County,2020/05/26,54.0,WV,54075.0,Pocahontas County,2709.0,5705.0,16573.0,3540.0,2511.0,774.0,4535.0,2769.0,1364.0,691.0,169.0,121.0,99.0
471078,County,2020/05/27,54.0,WV,54075.0,Pocahontas County,2492.0,5922.0,14361.0,2301.0,1164.0,2009.0,2398.0,4877.0,632.0,698.0,219.0,26.0,37.0
475790,County,2020/05/28,54.0,WV,54075.0,Pocahontas County,2714.0,5700.0,17633.0,2292.0,2184.0,1513.0,4091.0,4416.0,2241.0,831.0,65.0,0.0,0.0
478978,County,2020/05/29,54.0,WV,54075.0,Pocahontas County,2812.0,5602.0,19935.0,4852.0,3135.0,2091.0,2552.0,4359.0,2369.0,467.0,110.0,0.0,0.0
482178,County,2020/05/30,54.0,WV,54075.0,Pocahontas County,2711.0,5703.0,17156.0,2750.0,1762.0,2339.0,4568.0,3736.0,1325.0,464.0,182.0,30.0,0.0
485373,County,2020/05/31,54.0,WV,54075.0,Pocahontas County,2861.0,5553.0,15092.0,1816.0,2648.0,2176.0,2125.0,2503.0,1849.0,1781.0,152.0,42.0,0.0
487001,County,2020/06/01,54.0,WV,54075.0,Pocahontas County,2220.0,6194.0,17271.0,3178.0,4557.0,1214.0,2845.0,2094.0,2338.0,759.0,238.0,28.0,20.0
491733,County,2020/06/02,54.0,WV,54075.0,Pocahontas County,2616.0,5798.0,18846.0,2686.0,4054.0,1794.0,5548.0,2751.0,677.0,934.0,377.0,0.0,25.0
494953,County,2020/06/03,54.0,WV,54075.0,Pocahontas County,2637.0,5777.0,17929.0,3013.0,2671.0,1213.0,4738.0,4185.0,1527.0,361.0,189.0,32.0,0.0
496573,County,2020/06/04,54.0,WV,54075.0,Pocahontas County,2421.0,5993.0,16901.0,1379.0,3340.0,801.0,5734.0,3377.0,1814.0,238.0,187.0,31.0,0.0
501347,County,2020/06/05,54.0,WV,54075.0,Pocahontas County,2060.0,6354.0,20601.0,2889.0,5219.0,1587.0,3338.0,4773.0,1936.0,654.0,205.0,0.0,0.0
502923,County,2020/06/06,54.0,WV,54075.0,Pocahontas County,2778.0,5636.0,19468.0,2786.0,3142.0,1004.0,6864.0,4427.0,758.0,299.0,188.0,0.0,0.0
506114,County,2020/06/07,54.0,WV,54075.0,Pocahontas County,2743.0,5671.0,16749.0,2967.0,2170.0,1040.0,2845.0,4308.0,1415.0,1673.0,234.0,97.0,0.0
509336,County,2020/06/08,54.0,WV,54075.0,Pocahontas County,2223.0,6191.0,19223.0,2957.0,2481.0,1546.0,4414.0,4104.0,2560.0,850.0,200.0,111.0,0.0
514115,County,2020/06/09,54.0,WV,54075.0,Pocahontas County,2232.0,6182.0,18524.0,1403.0,2728.0,1790.0,4571.0,4750.0,2183.0,983.0,116.0,0.0,0.0
515745,County,2020/06/10,54.0,WV,54075.0,Pocahontas County,2395.0,6019.0,18625.0,2837.0,3281.0,2490.0,4096.0,3768.0,1039.0,936.0,147.0,31.0,0.0
520479,County,2020/06/11,54.0,WV,54075.0,Pocahontas County,2171.0,6243.0,19691.0,1855.0,4003.0,1799.0,5154.0,3863.0,1631.0,1285.0,101.0,0.0,0.0
522151,County,2020/06/12,54.0,WV,54075.0,Pocahontas County,2160.0,6254.0,21840.0,3416.0,4648.0,2006.0,4787.0,3844.0,1767.0,1094.0,156.0,104.0,18.0
526887,County,2020/06/13,54.0,WV,54075.0,Pocahontas County,2500.0,5914.0,21327.0,1941.0,2302.0,1656.0,5928.0,5554.0,2501.0,1109.0,271.0,65.0,0.0
530092,County,2020/06/14,54.0,WV,54075.0,Pocahontas County,2967.0,5447.0,17440.0,1628.0,4731.0,1334.0,2866.0,3222.0,2267.0,834.0,411.0,125.0,22.0
533282,County,2020/06/15,54.0,WV,54075.0,Pocahontas County,2500.0,5914.0,16113.0,2605.0,2482.0,621.0,3638.0,3689.0,1993.0,647.0,348.0,73.0,17.0
536501,County,2020/06/16,54.0,WV,54075.0,Pocahontas County,2590.0,5824.0,18450.0,3037.0,2450.0,1566.0,3278.0,4246.0,2028.0,1599.0,157.0,52.0,37.0
538103,County,2020/06/17,54.0,WV,54075.0,Pocahontas County,2724.0,5690.0,20083.0,2303.0,2729.0,1593.0,6222.0,4056.0,1933.0,914.0,287.0,27.0,19.0
542864,County,2020/06/18,54.0,WV,54075.0,Pocahontas County,2618.0,5796.0,19540.0,3253.0,2296.0,1507.0,4074.0,4665.0,2495.0,931.0,292.0,27.0,0.0
544491,County,2020/06/19,54.0,WV,54075.0,Pocahontas County,2383.0,6031.0,16047.0,2388.0,2716.0,2304.0,2347.0,3341.0,1362.0,1252.0,337.0,0.0,0.0
549252,County,2020/06/20,54.0,WV,54075.0,Pocahontas County,2902.0,5512.0,17155.0,3164.0,4225.0,1350.0,3165.0,2019.0,2142.0,844.0,151.0,95.0,0.0
552440,County,2020/06/21,54.0,WV,54075.0,Pocahontas County,2844.0,5570.0,18067.0,4013.0,2602.0,936.0,5786.0,2331.0,883.0,1253.0,175.0,36.0,52.0
554074,County,2020/06/22,54.0,WV,54075.0,Pocahontas County,2344.0,6070.0,18328.0,2337.0,3350.0,1427.0,5111.0,3010.0,1887.0,850.0,300.0,56.0,0.0
558835,County,2020/06/23,54.0,WV,54075.0,Pocahontas County,2755.0,5659.0,21814.0,2060.0,4048.0,2357.0,6498.0,3667.0,2670.0,371.0,78.0,65.0,0.0
562028,County,2020/06/24,54.0,WV,54075.0,Pocahontas County,2766.0,5648.0,14344.0,1949.0,2112.0,945.0,4218.0,2484.0,1835.0,603.0,113.0,63.0,22.0
563656,County,2020/06/25,54.0,WV,54075.0,Pocahontas County,2548.0,5866.0,17117.0,2575.0,2855.0,2053.0,3208.0,2046.0,3101.0,1100.0,115.0,64.0,0.0
566908,County,2020/06/26,54.0,WV,54075.0,Pocahontas County,2783.0,5631.0,19583.0,4899.0,2803.0,2263.0,4421.0,2278.0,1923.0,758.0,238.0,0.0,0.0
570031,County,2020/06/27,54.0,WV,54075.0,Pocahontas County,2791.0,5623.0,18866.0,2946.0,4150.0,2602.0,3587.0,2640.0,1907.0,820.0,214.0,0.0,0.0
573224,County,2020/06/28,54.0,WV,54075.0,Pocahontas County,2754.0,5660.0,13550.0,1777.0,2804.0,672.0,3611.0,1933.0,1523.0,900.0,330.0,0.0,0.0
577997,County,2020/06/29,54.0,WV,54075.0,Pocahontas County,2937.0,5477.0,14127.0,2730.0,2998.0,958.0,1871.0,3306.0,1303.0,513.0,269.0,179.0,0.0
579640,County,2020/06/30,54.0,WV,54075.0,Pocahontas County,2750.0,5664.0,18021.0,2203.0,3921.0,1253.0,4196.0,2677.0,2839.0,639.0,251.0,42.0,0.0
582843,County,2020/07/01,54.0,WV,54075.0,Pocahontas County,2314.0,6100.0,17214.0,2773.0,2493.0,1046.0,4961.0,2750.0,1693.0,1067.0,126.0,280.0,25.0
587579,County,2020/07/02,54.0,WV,54075.0,Pocahontas County,2848.0,5566.0,18168.0,2733.0,3030.0,2179.0,3405.0,2172.0,3291.0,1168.0,122.0,68.0,0.0
589217,County,2020/07/03,54.0,WV,54075.0,Pocahontas County,3185.0,5229.0,19472.0,4871.0,2787.0,2250.0,4396.0,2265.0,1912.0,754.0,237.0,0.0,0.0
592421,County,2020/07/04,54.0,WV,54075.0,Pocahontas County,2921.0,5493.0,16660.0,4168.0,2385.0,1925.0,3761.0,1938.0,1636.0,645.0,202.0,0.0,0.0
595613,County,2020/07/05,54.0,WV,54075.0,Pocahontas County,2371.0,6043.0,13525.0,1674.0,1323.0,1551.0,3855.0,3081.0,639.0,1007.0,395.0,0.0,0.0
600356,County,2020/07/06,54.0,WV,54075.0,Pocahontas County,2289.0,6125.0,17660.0,2434.0,2276.0,1455.0,5683.0,3346.0,1442.0,650.0,280.0,64.0,30.0
602374,County,2020/07/07,54.0,WV,54075.0,Pocahontas County,2637.0,5777.0,17426.0,3127.0,2425.0,1617.0,4541.0,3372.0,1145.0,903.0,255.0,24.0,17.0
605077,County,2020/07/08,54.0,WV,54075.0,Pocahontas County,2467.0,5947.0,17123.0,1924.0,2588.0,1727.0,5058.0,3227.0,1711.0,482.0,363.0,25.0,18.0
609946,County,2020/07/09,54.0,WV,54075.0,Pocahontas County,2571.0,5843.0,16880.0,2263.0,3839.0,1227.0,4793.0,2705.0,1042.0,456.0,401.0,120.0,34.0
611571,County,2020/07/10,54.0,WV,54075.0,Pocahontas County,2550.0,5864.0,18736.0,2558.0,2523.0,1613.0,5709.0,3594.0,1713.0,900.0,85.0,24.0,17.0
616319,County,2020/07/11,54.0,WV,54075.0,Pocahontas County,2940.0,5474.0,16292.0,4309.0,2456.0,1570.0,2810.0,3460.0,1037.0,350.0,257.0,0.0,43.0
617952,County,2020/07/12,54.0,WV,54075.0,Pocahontas County,2738.0,5676.0,16180.0,2029.0,2962.0,1420.0,3698.0,2586.0,2681.0,423.0,298.0,83.0,0.0
621141,County,2020/07/13,54.0,WV,54075.0,Pocahontas County,2459.0,5955.0,19058.0,2552.0,2728.0,1710.0,5698.0,2893.0,1824.0,1258.0,338.0,24.0,33.0
625907,County,2020/07/14,54.0,WV,54075.0,Pocahontas County,2731.0,5683.0,18345.0,3605.0,3025.0,2204.0,4985.0,1468.0,2103.0,622.0,260.0,54.0,19.0
627415,County,2020/07/15,54.0,WV,54075.0,Pocahontas County,2666.0,5748.0,19341.0,2215.0,2874.0,2037.0,5617.0,3859.0,2036.0,535.0,168.0,0.0,0.0
630705,County,2020/07/16,54.0,WV,54075.0,Pocahontas County,2553.0,5861.0,19594.0,2773.0,3101.0,1846.0,5407.0,3420.0,2323.0,458.0,201.0,48.0,17.0
633912,County,2020/07/17,54.0,WV,54075.0,Pocahontas County,2630.0,5784.0,19636.0,2994.0,3941.0,1784.0,4715.0,3501.0,1546.0,844.0,294.0,0.0,17.0
638692,County,2020/07/18,54.0,WV,54075.0,Pocahontas County,2778.0,5636.0,20104.0,2418.0,2618.0,1004.0,7599.0,2598.0,2275.0,1457.0,106.0,29.0,0.0
640273,County,2020/07/19,54.0,WV,54075.0,Pocahontas County,2553.0,5861.0,15766.0,2097.0,1693.0,1373.0,4877.0,2728.0,1839.0,780.0,350.0,29.0,0.0
643506,County,2020/07/20,54.0,WV,54075.0,Pocahontas County,2690.0,5724.0,15881.0,1708.0,2745.0,1373.0,4918.0,2896.0,1297.0,511.0,353.0,80.0,0.0
647075,County,2020/07/21,54.0,WV,54075.0,Pocahontas County,2405.0,6009.0,16992.0,2394.0,3399.0,1367.0,3080.0,2298.0,2621.0,1502.0,265.0,49.0,17.0
651459,County,2020/07/22,54.0,WV,54075.0,Pocahontas County,2560.0,5854.0,15483.0,2517.0,3877.0,744.0,3527.0,2443.0,1324.0,854.0,179.0,0.0,18.0
654654,County,2020/07/23,54.0,WV,54075.0,Pocahontas County,2596.0,5818.0,14884.0,2688.0,2973.0,2112.0,2887.0,1700.0,1196.0,1037.0,207.0,49.0,35.0
656286,County,2020/07/24,54.0,WV,54075.0,Pocahontas County,2891.0,5523.0,13348.0,2401.0,2945.0,1177.0,1379.0,2706.0,933.0,1576.0,231.0,0.0,0.0
659470,County,2020/07/25,54.0,WV,54075.0,Pocahontas County,2720.0,5694.0,16537.0,3186.0,2723.0,1899.0,4173.0,1911.0,941.0,1484.0,133.0,28.0,59.0
662670,County,2020/07/26,54.0,WV,54075.0,Pocahontas County,2657.0,5757.0,13909.0,2242.0,1862.0,1890.0,1845.0,2294.0,1428.0,1876.0,412.0,25.0,35.0
665964,County,2020/07/27,54.0,WV,54075.0,Pocahontas County,2478.0,5936.0,19388.0,4092.0,2320.0,1298.0,4163.0,3517.0,1785.0,1821.0,311.0,65.0,16.0
669127,County,2020/07/28,54.0,WV,54075.0,Pocahontas County,2160.0,6254.0,18558.0,3144.0,3665.0,2021.0,3604.0,2728.0,1393.0,1490.0,443.0,41.0,29.0
673818,County,2020/07/29,54.0,WV,54075.0,Pocahontas County,2542.0,5872.0,14942.0,1835.0,1927.0,973.0,4371.0,3692.0,662.0,955.0,436.0,91.0,0.0
676997,County,2020/07/30,54.0,WV,54075.0,Pocahontas County,2215.0,6199.0,16946.0,2847.0,2501.0,1488.0,3875.0,2377.0,1592.0,1476.0,672.0,77.0,41.0
678646,County,2020/07/31,54.0,WV,54075.0,Pocahontas County,2257.0,6157.0,17877.0,4036.0,2578.0,1705.0,3330.0,2451.0,2124.0,1218.0,335.0,100.0,0.0
683393,County,2020/08/01,54.0,WV,54075.0,Pocahontas County,2478.0,5936.0,18376.0,4542.0,2832.0,872.0,3219.0,2676.0,2087.0,1471.0,516.0,113.0,48.0
685027,County,2020/08/02,54.0,WV,54075.0,Pocahontas County,2664.0,5750.0,16573.0,3653.0,3549.0,957.0,2907.0,2202.0,1566.0,1234.0,387.0,100.0,18.0
688224,County,2020/08/03,54.0,WV,54075.0,Pocahontas County,2444.0,5970.0,15622.0,2022.0,2674.0,1899.0,3154.0,1966.0,1614.0,1866.0,346.0,66.0,15.0
691416,County,2020/08/04,54.0,WV,54075.0,Pocahontas County,2308.0,6106.0,19647.0,4441.0,3211.0,1680.0,4191.0,3112.0,2008.0,833.0,156.0,0.0,15.0
696175,County,2020/08/05,54.0,WV,54075.0,Pocahontas County,2560.0,5854.0,17049.0,2312.0,3235.0,2702.0,3908.0,2072.0,1700.0,626.0,421.0,24.0,49.0
699370,County,2020/08/06,54.0,WV,54075.0,Pocahontas County,2423.0,5991.0,20663.0,3234.0,3648.0,2120.0,4968.0,2804.0,2882.0,663.0,178.0,149.0,17.0
702566,County,2020/08/07,54.0,WV,54075.0,Pocahontas County,2582.0,5832.0,21426.0,4065.0,4976.0,1332.0,4551.0,3063.0,2514.0,793.0,62.0,51.0,19.0
704195,County,2020/08/08,54.0,WV,54075.0,Pocahontas County,2497.0,5917.0,21490.0,4023.0,4729.0,1194.0,5594.0,2883.0,1893.0,959.0,100.0,56.0,59.0
708977,County,2020/08/09,54.0,WV,54075.0,Pocahontas County,2288.0,6126.0,16405.0,1743.0,2398.0,1299.0,3710.0,1264.0,792.0,4464.0,588.0,47.0,100.0
712146,County,2020/08/10,54.0,WV,54075.0,Pocahontas County,2632.0,5782.0,20026.0,3210.0,4601.0,2475.0,3153.0,2723.0,1706.0,1825.0,272.0,25.0,36.0
713823,County,2020/08/11,54.0,WV,54075.0,Pocahontas County,2169.0,6245.0,27668.0,4864.0,5207.0,2344.0,7962.0,2110.0,2193.0,2730.0,143.0,48.0,67.0
716871,County,2020/08/12,54.0,WV,54075.0,Pocahontas County,2379.0,6035.0,25707.0,2945.0,5239.0,2757.0,4232.0,3398.0,1785.0,4573.0,552.0,161.0,65.0
721728,County,2020/08/13,54.0,WV,54075.0,Pocahontas County,2259.0,6155.0,21972.0,2610.0,3783.0,816.0,5844.0,2190.0,1643.0,4291.0,559.0,191.0,45.0
723355,County,2020/08/14,54.0,WV,54075.0,Pocahontas County,2148.0,6266.0,22268.0,3264.0,4354.0,2556.0,3828.0,3332.0,1834.0,2435.0,549.0,60.0,56.0
726587,County,2020/08/15,54.0,WV,54075.0,Pocahontas County,2619.0,5795.0,19191.0,3038.0,3739.0,1742.0,4202.0,3299.0,1625.0,1189.0,316.0,24.0,17.0
729745,County,2020/08/16,54.0,WV,54075.0,Pocahontas County,2778.0,5636.0,14328.0,1487.0,2209.0,941.0,2988.0,2165.0,1600.0,2101.0,527.0,193.0,117.0
732939,County,2020/08/17,54.0,WV,54075.0,Pocahontas County,2976.0,5438.0,16222.0,2688.0,2375.0,759.0,2965.0,3202.0,1864.0,1920.0,318.0,89.0,42.0
736154,County,2020/08/18,54.0,WV,54075.0,Pocahontas County,2723.0,5691.0,15040.0,1429.0,3039.0,1215.0,3083.0,1676.0,2477.0,1409.0,510.0,142.0,60.0
740892,County,2020/08/19,54.0,WV,54075.0,Pocahontas County,2832.0,5582.0,18603.0,1481.0,2764.0,2385.0,4399.0,3352.0,2702.0,1183.0,148.0,124.0,65.0
744091,County,2020/08/20,54.0,WV,54075.0,Pocahontas County,2439.0,5975.0,17003.0,2035.0,2427.0,1397.0,5001.0,3346.0,1450.0,831.0,423.0,54.0,39.0
745721,County,2020/08/21,54.0,WV,54075.0,Pocahontas County,2565.0,5849.0,16703.0,4031.0,2185.0,1309.0,1790.0,4065.0,1335.0,1754.0,74.0,30.0,130.0
748925,County,2020/08/22,54.0,WV,54075.0,Pocahontas County,2364.0,6050.0,13774.0,1633.0,2503.0,1467.0,2344.0,2760.0,755.0,1428.0,672.0,124.0,88.0
752119,County,2020/08/23,54.0,WV,54075.0,Pocahontas County,2806.0,5608.0,12510.0,1332.0,1643.0,1470.0,3897.0,2053.0,1071.0,657.0,235.0,99.0,53.0
756862,County,2020/08/24,54.0,WV,54075.0,Pocahontas County,2783.0,5631.0,14010.0,2393.0,1745.0,1561.0,3049.0,2309.0,1389.0,1095.0,406.0,26.0,37.0
758491,County,2020/08/25,54.0,WV,54075.0,Pocahontas County,2679.0,5735.0,15276.0,1748.0,2362.0,886.0,3846.0,2944.0,2342.0,879.0,221.0,0.0,48.0
763262,County,2020/08/26,54.0,WV,54075.0,Pocahontas County,2844.0,5570.0,16191.0,3097.0,3042.0,876.0,4178.0,2796.0,1652.0,261.0,164.0,45.0,80.0
764842,County,2020/08/27,54.0,WV,54075.0,Pocahontas County,2789.0,5625.0,16490.0,1663.0,2832.0,1810.0,4773.0,2186.0,2051.0,727.0,406.0,42.0,0.0
768048,County,2020/08/28,54.0,WV,54075.0,Pocahontas County,2799.0,5615.0,17961.0,2003.0,3431.0,1196.0,5062.0,3326.0,1807.0,801.0,224.0,94.0,17.0
772825,County,2020/08/29,54.0,WV,54075.0,Pocahontas County,3033.0,5381.0,11117.0,2008.0,2752.0,924.0,1804.0,1821.0,1047.0,353.0,259.0,62.0,87.0
776026,County,2020/08/30,54.0,WV,54075.0,Pocahontas County,2836.0,5578.0,10644.0,2196.0,2424.0,904.0,1514.0,1485.0,877.0,692.0,471.0,60.0,21.0
779220,County,2020/08/31,54.0,WV,54075.0,Pocahontas County,2764.0,5650.0,15271.0,1517.0,2332.0,1341.0,3930.0,2571.0,1647.0,1298.0,564.0,52.0,19.0
782414,County,2020/09/01,54.0,WV,54075.0,Pocahontas County,2627.0,5787.0,16670.0,4227.0,2060.0,1235.0,3135.0,1988.0,2657.0,993.0,346.0,29.0,0.0
785608,County,2020/09/02,54.0,WV,54075.0,Pocahontas County,2690.0,5724.0,19577.0,2846.0,3498.0,1557.0,4211.0,2067.0,3392.0,1818.0,168.0,0.0,20.0
787169,County,2020/09/03,54.0,WV,54075.0,Pocahontas County,2239.0,6175.0,16177.0,2835.0,2703.0,1920.0,1500.0,3091.0,2283.0,1371.0,458.0,0.0,16.0
791996,County,2020/09/04,54.0,WV,54075.0,Pocahontas County,2324.0,6090.0,19531.0,4476.0,3686.0,2209.0,3019.0,2922.0,1627.0,1281.0,248.0,26.0,37.0
795192,County,2020/09/05,54.0,WV,54075.0,Pocahontas County,2804.0,5610.0,14641.0,1988.0,1896.0,2337.0,3297.0,2538.0,1471.0,580.0,473.0,61.0,0.0
798395,County,2020/09/06,54.0,WV,54075.0,Pocahontas County,2794.0,5620.0,12877.0,765.0,1973.0,874.0,3128.0,2678.0,2309.0,650.0,408.0,68.0,24.0
800006,County,2020/09/07,54.0,WV,54075.0,Pocahontas County,2855.0,5559.0,16697.0,2206.0,2641.0,1125.0,4395.0,2912.0,1753.0,1381.0,237.0,0.0,47.0
804772,County,2020/09/08,54.0,WV,54075.0,Pocahontas County,3083.0,5331.0,26513.0,2262.0,2713.0,1301.0,4388.0,3671.0,2412.0,9397.0,266.0,83.0,20.0
806401,County,2020/09/09,54.0,WV,54075.0,Pocahontas County,2930.0,5484.0,26750.0,3598.0,2610.0,2830.0,4252.0,3130.0,2097.0,7872.0,336.0,25.0,0.0
811169,County,2020/09/10,54.0,WV,54075.0,Pocahontas County,2917.0,5497.0,22951.0,3206.0,1921.0,2072.0,3148.0,3046.0,2087.0,6992.0,354.0,107.0,18.0
812798,County,2020/09/11,54.0,WV,54075.0,Pocahontas County,2643.0,5771.0,22400.0,2244.0,3771.0,1306.0,3335.0,3466.0,2503.0,5291.0,366.0,118.0,0.0
817548,County,2020/09/12,54.0,WV,54075.0,Pocahontas County,2977.0,5437.0,21286.0,2467.0,2823.0,1968.0,5045.0,3254.0,1254.0,3844.0,552.0,58.0,21.0
819155,County,2020/09/13,54.0,WV,54075.0,Pocahontas County,3166.0,5248.0,13591.0,470.0,1272.0,244.0,4763.0,3367.0,1935.0,1090.0,297.0,124.0,29.0
823937,County,2020/09/14,54.0,WV,54075.0,Pocahontas County,2805.0,5609.0,14242.0,1956.0,1816.0,1866.0,1944.0,3291.0,1973.0,778.0,383.0,174.0,61.0
825565,County,2020/09/15,54.0,WV,54075.0,Pocahontas County,2856.0,5558.0,20194.0,2742.0,2753.0,1006.0,5648.0,3760.0,2422.0,1572.0,211.0,59.0,21.0
830324,County,2020/09/16,54.0,WV,54075.0,Pocahontas County,2790.0,5624.0,14670.0,2506.0,1691.0,1747.0,2192.0,3443.0,1837.0,779.0,384.0,29.0,62.0
831951,County,2020/09/17,54.0,WV,54075.0,Pocahontas County,2898.0,5516.0,14494.0,1688.0,3253.0,1747.0,1950.0,2439.0,2121.0,891.0,384.0,0.0,21.0
836712,County,2020/09/18,54.0,WV,54075.0,Pocahontas County,2699.0,5715.0,19324.0,2525.0,3732.0,2194.0,2706.0,3054.0,3532.0,1340.0,194.0,27.0,20.0
838341,County,2020/09/19,54.0,WV,54075.0,Pocahontas County,3427.0,4987.0,16458.0,2137.0,4964.0,1940.0,2065.0,1419.0,2796.0,787.0,197.0,124.0,29.0
841535,County,2020/09/20,54.0,WV,54075.0,Pocahontas County,2911.0,5503.0,14227.0,2466.0,3587.0,1397.0,2519.0,1484.0,1340.0,768.0,512.0,101.0,53.0
844744,County,2020/09/21,54.0,WV,54075.0,Pocahontas County,3078.0,5336.0,16132.0,2656.0,2827.0,1678.0,3025.0,2078.0,1901.0,1729.0,217.0,0.0,21.0
849488,County,2020/09/22,54.0,WV,54075.0,Pocahontas County,2915.0,5499.0,29915.0,4368.0,3711.0,2419.0,4447.0,4583.0,1935.0,8133.0,319.0,0.0,0.0
851116,County,2020/09/23,54.0,WV,54075.0,Pocahontas County,2624.0,5790.0,24415.0,3469.0,3397.0,1983.0,3042.0,3257.0,1123.0,7840.0,238.0,66.0,0.0
855882,County,2020/09/24,54.0,WV,54075.0,Pocahontas County,2708.0,5706.0,20313.0,1968.0,2314.0,1436.0,2549.0,3903.0,1331.0,6410.0,402.0,0.0,0.0
859070,County,2020/09/25,54.0,WV,54075.0,Pocahontas County,2099.0,6315.0,24484.0,3298.0,3564.0,1709.0,2711.0,4544.0,1694.0,6675.0,239.0,50.0,0.0
862264,County,2020/09/26,54.0,WV,54075.0,Pocahontas County,2765.0,5649.0,22223.0,2101.0,4003.0,2647.0,3361.0,3502.0,2849.0,3664.0,74.0,0.0,22.0
863869,County,2020/09/27,54.0,WV,54075.0,Pocahontas County,2464.0,5950.0,16355.0,1620.0,1403.0,1615.0,3942.0,2785.0,3049.0,1322.0,566.0,31.0,22.0
868652,County,2020/09/28,54.0,WV,54075.0,Pocahontas County,2584.0,5830.0,18601.0,3206.0,4315.0,1681.0,2778.0,3272.0,1904.0,1155.0,290.0,0.0,0.0
870280,County,2020/09/29,54.0,WV,54075.0,Pocahontas County,2530.0,5884.0,16921.0,2203.0,2690.0,1407.0,4121.0,2291.0,2391.0,1466.0,270.0,69.0,13.0
873474,County,2020/09/30,54.0,WV,54075.0,Pocahontas County,2809.0,5605.0,16431.0,3205.0,2395.0,1837.0,3588.0,1937.0,2082.0,1230.0,117.0,19.0,21.0
878213,County,2020/10/01,54.0,WV,54075.0,Pocahontas County,2741.0,5673.0,20284.0,4462.0,3725.0,1720.0,4910.0,2435.0,2398.0,472.0,115.0,21.0,26.0
881428,County,2020/10/02,54.0,WV,54075.0,Pocahontas County,2935.0,5479.0,16792.0,2153.0,3458.0,1989.0,4533.0,2415.0,1127.0,789.0,274.0,19.0,35.0
884623,County,2020/10/03,54.0,WV,54075.0,Pocahontas County,2738.0,5676.0,17258.0,3861.0,3594.0,1659.0,1745.0,2936.0,2458.0,684.0,294.0,19.0,8.0
887750,County,2020/10/04,54.0,WV,54075.0,Pocahontas County,2989.0,5425.0,16108.0,3366.0,3607.0,1226.0,2189.0,2318.0,1530.0,1463.0,409.0,0.0,0.0
890940,County,2020/10/05,54.0,WV,54075.0,Pocahontas County,2885.0,5529.0,14917.0,1404.0,1889.0,2026.0,4596.0,1988.0,1826.0,934.0,250.0,0.0,4.0
894122,County,2020/10/06,54.0,WV,54075.0,Pocahontas County,2724.0,5690.0,16575.0,3395.0,3679.0,2392.0,2097.0,1814.0,1430.0,1420.0,311.0,37.0,0.0
897319,County,2020/10/07,54.0,WV,54075.0,Pocahontas County,2612.0,5802.0,16100.0,1615.0,2345.0,1442.0,4492.0,2467.0,2429.0,1063.0,211.0,25.0,11.0
900533,County,2020/10/08,54.0,WV,54075.0,Pocahontas County,2786.0,5628.0,14134.0,2281.0,2674.0,920.0,2440.0,2686.0,2140.0,801.0,175.0,13.0,4.0
903720,County,2020/10/09,54.0,WV,54075.0,Pocahontas County,2615.0,5799.0,15921.0,3282.0,2620.0,1126.0,3477.0,2381.0,1973.0,784.0,257.0,13.0,8.0
906919,County,2020/10/10,54.0,WV,54075.0,Pocahontas County,3011.0,5403.0,16743.0,2608.0,1519.0,1569.0,3024.0,3780.0,2575.0,1251.0,373.0,30.0,14.0
907695,County,2020/10/11,54.0,WV,54075.0,Pocahontas County,2784.0,5630.0,13553.0,1357.0,3157.0,1666.0,2069.0,3196.0,665.0,1081.0,281.0,77.0,4.0
910395,County,2020/10/12,54.0,WV,54075.0,Pocahontas County,2641.0,5773.0,16471.0,2184.0,2161.0,2276.0,2776.0,2815.0,2945.0,1197.0,102.0,15.0,0.0
913914,County,2020/10/13,54.0,WV,54075.0,Pocahontas County,2514.0,5900.0,17276.0,2851.0,2680.0,1999.0,3862.0,2591.0,1411.0,1434.0,383.0,54.0,11.0
916862,County,2020/10/14,54.0,WV,54075.0,Pocahontas County,2615.0,5799.0,20613.0,3598.0,4605.0,1627.0,3772.0,2185.0,2424.0,2169.0,163.0,70.0,0.0
920083,County,2020/10/15,54.0,WV,54075.0,Pocahontas County,2799.0,5615.0,16895.0,3244.0,2897.0,1662.0,2980.0,3453.0,1725.0,647.0,203.0,76.0,8.0
923255,County,2020/10/16,54.0,WV,54075.0,Pocahontas County,2542.0,5872.0,17411.0,2407.0,3064.0,2062.0,3585.0,3922.0,1267.0,843.0,221.0,13.0,27.0
926477,County,2020/10/17,54.0,WV,54075.0,Pocahontas County,2753.0,5661.0,14312.0,1531.0,2373.0,1366.0,3360.0,2642.0,1666.0,1129.0,213.0,16.0,16.0
929574,County,2020/10/18,54.0,WV,54075.0,Pocahontas County,2467.0,5947.0,19604.0,5166.0,2402.0,1077.0,3538.0,3616.0,2167.0,1273.0,323.0,42.0,0.0
933128,County,2020/10/19,54.0,WV,54075.0,Pocahontas County,3057.0,5357.0,17582.0,2125.0,3109.0,1783.0,3691.0,1996.0,2420.0,2084.0,328.0,33.0,13.0
935974,County,2020/10/20,54.0,WV,54075.0,Pocahontas County,2917.0,5497.0,17524.0,3377.0,2219.0,2324.0,2469.0,3770.0,1688.0,1478.0,150.0,30.0,19.0
939894,County,2020/10/21,54.0,WV,54075.0,Pocahontas County,2722.0,5692.0,18045.0,2919.0,2519.0,2249.0,4585.0,2796.0,1675.0,1135.0,107.0,48.0,12.0
942746,County,2020/10/22,54.0,WV,54075.0,Pocahontas County,2743.0,5671.0,17944.0,3318.0,2208.0,1271.0,4911.0,3233.0,1679.0,1156.0,149.0,15.0,4.0
945513,County,2020/10/23,54.0,WV,54075.0,Pocahontas County,2495.0,5919.0,20265.0,3847.0,3088.0,1974.0,5219.0,2442.0,1974.0,1511.0,200.0,0.0,10.0
948768,County,2020/10/24,54.0,WV,54075.0,Pocahontas County,2656.0,5758.0,19309.0,3746.0,2683.0,2275.0,3661.0,3394.0,1977.0,1263.0,216.0,81.0,13.0
