,Level,Date,State FIPS,State Postal Code,County FIPS,County Name,Population Staying at Home,Population Not Staying at Home,Number of Trips,Number of Trips <1,Number of Trips 1-3,Number of Trips 3-5,Number of Trips 5-10,Number of Trips 10-25,Number of Trips 25-50,Number of Trips 50-100,Number of Trips 100-250,Number of Trips 250-500,Number of Trips >=500
208,County,2020/01/01,6.0,CA,6045.0,Mendocino County,22820.0,64786.0,259010.0,82932.0,75781.0,31631.0,22660.0,25976.0,11074.0,6911.0,1712.0,80.0,253.0
5590,County,2020/01/02,6.0,CA,6045.0,Mendocino County,18586.0,69020.0,305156.0,90469.0,86314.0,35157.0,32101.0,34549.0,15073.0,8768.0,2319.0,266.0,140.0
8411,County,2020/01/03,6.0,CA,6045.0,Mendocino County,19232.0,68374.0,299024.0,88788.0,89670.0,33555.0,27299.0,31559.0,17537.0,8023.0,2251.0,97.0,245.0
12632,County,2020/01/04,6.0,CA,6045.0,Mendocino County,20328.0,67278.0,273714.0,78178.0,80370.0,35272.0,25727.0,29396.0,14397.0,7566.0,1978.0,625.0,205.0
12984,County,2020/01/05,6.0,CA,6045.0,Mendocino County,22456.0,65150.0,261499.0,77190.0,75895.0,32979.0,20096.0,29379.0,14155.0,9414.0,2101.0,114.0,176.0
16031,County,2020/01/06,6.0,CA,6045.0,Mendocino County,19140.0,68466.0,311503.0,95101.0,92677.0,35577.0,30193.0,36370.0,12389.0,6378.0,2439.0,220.0,159.0
20841,County,2020/01/07,6.0,CA,6045.0,Mendocino County,19203.0,68403.0,306958.0,95583.0,92496.0,33145.0,27983.0,34050.0,14454.0,6958.0,2072.0,96.0,121.0
22468,County,2020/01/08,6.0,CA,6045.0,Mendocino County,18297.0,69309.0,301819.0,89393.0,91467.0,34369.0,29411.0,33494.0,15328.0,6437.0,1683.0,122.0,115.0
25662,County,2020/01/09,6.0,CA,6045.0,Mendocino County,19635.0,67971.0,310494.0,97738.0,93144.0,34765.0,29726.0,29696.0,16399.0,7371.0,1433.0,156.0,66.0
30422,County,2020/01/10,6.0,CA,6045.0,Mendocino County,18533.0,69073.0,313637.0,96172.0,89149.0,35504.0,31763.0,34448.0,15329.0,9163.0,1850.0,120.0,139.0
33667,County,2020/01/11,6.0,CA,6045.0,Mendocino County,20256.0,67350.0,279953.0,84493.0,77874.0,29063.0,30491.0,31547.0,13897.0,9522.0,2772.0,130.0,164.0
36786,County,2020/01/12,6.0,CA,6045.0,Mendocino County,22796.0,64810.0,253290.0,72690.0,75708.0,28307.0,27976.0,26713.0,12565.0,6366.0,2595.0,250.0,120.0
40034,County,2020/01/13,6.0,CA,6045.0,Mendocino County,19949.0,67657.0,305924.0,96051.0,92398.0,31614.0,28752.0,32666.0,15718.0,6884.0,1440.0,273.0,128.0
41659,County,2020/01/14,6.0,CA,6045.0,Mendocino County,19162.0,68444.0,296386.0,85683.0,88299.0,33562.0,28961.0,33006.0,17361.0,8140.0,1169.0,118.0,87.0
46388,County,2020/01/15,6.0,CA,6045.0,Mendocino County,19397.0,68209.0,289748.0,82070.0,87326.0,31618.0,28862.0,31937.0,15774.0,9716.0,2144.0,177.0,124.0
49545,County,2020/01/16,6.0,CA,6045.0,Mendocino County,20105.0,67501.0,274407.0,76200.0,83953.0,33622.0,28665.0,29110.0,13247.0,6962.0,2240.0,147.0,261.0
52832,County,2020/01/17,6.0,CA,6045.0,Mendocino County,19394.0,68212.0,315007.0,96018.0,94654.0,30181.0,34682.0,34481.0,14942.0,6806.0,2920.0,202.0,121.0
54404,County,2020/01/18,6.0,CA,6045.0,Mendocino County,20089.0,67517.0,277566.0,79932.0,76918.0,31181.0,27361.0,31566.0,18188.0,9617.0,2337.0,385.0,81.0
57601,County,2020/01/19,6.0,CA,6045.0,Mendocino County,21853.0,65753.0,247520.0,67175.0,71367.0,29008.0,26583.0,26215.0,15063.0,8322.0,3397.0,235.0,155.0
62363,County,2020/01/20,6.0,CA,6045.0,Mendocino County,21159.0,66447.0,268797.0,75144.0,77851.0,27949.0,29028.0,29920.0,16713.0,8860.0,3072.0,32.0,228.0
65562,County,2020/01/21,6.0,CA,6045.0,Mendocino County,19675.0,67931.0,284884.0,82216.0,84884.0,35882.0,28090.0,30848.0,14845.0,6277.0,1641.0,89.0,112.0
68753,County,2020/01/22,6.0,CA,6045.0,Mendocino County,19181.0,68425.0,299192.0,90671.0,86558.0,36295.0,26255.0,35617.0,14627.0,7051.0,1754.0,256.0,108.0
70377,County,2020/01/23,6.0,CA,6045.0,Mendocino County,19806.0,67800.0,292640.0,85384.0,89376.0,33758.0,27921.0,30404.0,15619.0,7966.0,1856.0,200.0,156.0
73574,County,2020/01/24,6.0,CA,6045.0,Mendocino County,19029.0,68577.0,308550.0,88515.0,96362.0,33760.0,30203.0,33736.0,15250.0,7878.0,2418.0,226.0,202.0
76766,County,2020/01/25,6.0,CA,6045.0,Mendocino County,20071.0,67535.0,270253.0,76391.0,77929.0,33949.0,29529.0,25840.0,15659.0,8720.0,1900.0,210.0,126.0
80058,County,2020/01/26,6.0,CA,6045.0,Mendocino County,22283.0,65323.0,255129.0,74992.0,71515.0,31316.0,23979.0,30087.0,12959.0,7917.0,2195.0,63.0,106.0
84248,County,2020/01/27,6.0,CA,6045.0,Mendocino County,18917.0,68689.0,293134.0,89547.0,84961.0,33152.0,28699.0,31184.0,15884.0,7404.0,1957.0,188.0,158.0
86363,County,2020/01/28,6.0,CA,6045.0,Mendocino County,20022.0,67584.0,295104.0,86363.0,83348.0,34201.0,31725.0,33472.0,16687.0,7180.0,1743.0,254.0,131.0
91096,County,2020/01/29,6.0,CA,6045.0,Mendocino County,19239.0,68367.0,294608.0,91310.0,87924.0,33506.0,25532.0,31809.0,14887.0,7486.0,1978.0,53.0,123.0
92773,County,2020/01/30,6.0,CA,6045.0,Mendocino County,18249.0,69357.0,286545.0,78060.0,81938.0,32454.0,32491.0,33658.0,16398.0,8154.0,2895.0,247.0,250.0
95925,County,2020/01/31,6.0,CA,6045.0,Mendocino County,18379.0,69227.0,327175.0,91598.0,97138.0,38099.0,35967.0,33144.0,17586.0,9775.0,3447.0,122.0,299.0
100684,County,2020/02/01,6.0,CA,6045.0,Mendocino County,20250.0,67356.0,279287.0,78696.0,79237.0,30130.0,31219.0,31057.0,14804.0,10753.0,2977.0,183.0,231.0
102302,County,2020/02/02,6.0,CA,6045.0,Mendocino County,21744.0,65862.0,243818.0,68350.0,68527.0,29246.0,29021.0,27742.0,10720.0,6959.0,2587.0,526.0,140.0
105512,County,2020/02/03,6.0,CA,6045.0,Mendocino County,18743.0,68863.0,291388.0,84841.0,84598.0,32334.0,34444.0,30377.0,13828.0,7209.0,3129.0,357.0,271.0
108705,County,2020/02/04,6.0,CA,6045.0,Mendocino County,18882.0,68724.0,305016.0,91425.0,87975.0,33655.0,30788.0,34249.0,15401.0,7319.0,3452.0,403.0,349.0
113429,County,2020/02/05,6.0,CA,6045.0,Mendocino County,18757.0,68849.0,306860.0,92902.0,90446.0,34547.0,29722.0,34188.0,15630.0,6492.0,2177.0,560.0,196.0
116635,County,2020/02/06,6.0,CA,6045.0,Mendocino County,18439.0,69167.0,310286.0,93408.0,93131.0,32972.0,31487.0,34058.0,15519.0,6117.0,2772.0,539.0,283.0
119889,County,2020/02/07,6.0,CA,6045.0,Mendocino County,18931.0,68675.0,324775.0,98295.0,95272.0,32853.0,32337.0,37176.0,16446.0,9155.0,2781.0,245.0,215.0
123097,County,2020/02/08,6.0,CA,6045.0,Mendocino County,20250.0,67356.0,265275.0,75676.0,78950.0,28087.0,27271.0,29821.0,14688.0,7448.0,2620.0,403.0,311.0
127256,County,2020/02/09,6.0,CA,6045.0,Mendocino County,24094.0,63512.0,231571.0,60684.0,68088.0,32915.0,25234.0,21544.0,11097.0,7709.0,3190.0,598.0,512.0
128517,County,2020/02/10,6.0,CA,6045.0,Mendocino County,19589.0,68017.0,311230.0,94552.0,92753.0,31668.0,30645.0,33624.0,15475.0,7985.0,3824.0,377.0,327.0
131163,County,2020/02/11,6.0,CA,6045.0,Mendocino County,19128.0,68478.0,307494.0,95508.0,88348.0,31218.0,32590.0,31884.0,15366.0,8428.0,3211.0,432.0,509.0
134733,County,2020/02/12,6.0,CA,6045.0,Mendocino County,19096.0,68510.0,317701.0,88770.0,96831.0,35696.0,32137.0,36719.0,15328.0,7931.0,3494.0,248.0,547.0
139065,County,2020/02/13,6.0,CA,6045.0,Mendocino County,18459.0,69147.0,321104.0,95721.0,93732.0,36339.0,33422.0,34827.0,15751.0,7332.0,2753.0,551.0,676.0
140549,County,2020/02/14,6.0,CA,6045.0,Mendocino County,17643.0,69963.0,338859.0,98765.0,95364.0,34786.0,38288.0,37371.0,18890.0,10375.0,3617.0,583.0,820.0
145427,County,2020/02/15,6.0,CA,6045.0,Mendocino County,20531.0,67075.0,291140.0,78642.0,77231.0,34244.0,34079.0,36746.0,16355.0,8580.0,4046.0,557.0,660.0
147034,County,2020/02/16,6.0,CA,6045.0,Mendocino County,22088.0,65518.0,274017.0,75430.0,80043.0,34214.0,27872.0,28877.0,14658.0,8587.0,3226.0,496.0,614.0
151796,County,2020/02/17,6.0,CA,6045.0,Mendocino County,25775.0,61831.0,253117.0,69412.0,76967.0,28370.0,27296.0,27236.0,13811.0,6014.0,3145.0,434.0,432.0
154938,County,2020/02/18,6.0,CA,6045.0,Mendocino County,19111.0,68495.0,313649.0,89272.0,97200.0,37123.0,30240.0,33974.0,14682.0,7371.0,2624.0,389.0,774.0
156617,County,2020/02/19,6.0,CA,6045.0,Mendocino County,17278.0,70328.0,325977.0,91326.0,95365.0,35678.0,36769.0,37337.0,19585.0,6127.0,3033.0,405.0,352.0
161281,County,2020/02/20,6.0,CA,6045.0,Mendocino County,18524.0,69082.0,332564.0,102372.0,94226.0,39241.0,35558.0,34571.0,15839.0,8032.0,1867.0,429.0,429.0
163004,County,2020/02/21,6.0,CA,6045.0,Mendocino County,18573.0,69033.0,341854.0,100230.0,98476.0,39277.0,34314.0,39967.0,18430.0,6861.0,3335.0,560.0,404.0
166198,County,2020/02/22,6.0,CA,6045.0,Mendocino County,18391.0,69215.0,324985.0,89606.0,96792.0,36325.0,36784.0,36404.0,17559.0,7031.0,3814.0,523.0,147.0
169376,County,2020/02/23,6.0,CA,6045.0,Mendocino County,21079.0,66527.0,284523.0,77245.0,79410.0,35850.0,33329.0,32767.0,15112.0,6811.0,3260.0,539.0,200.0
174159,County,2020/02/24,6.0,CA,6045.0,Mendocino County,19816.0,67790.0,330524.0,98112.0,99511.0,37326.0,36505.0,36316.0,13338.0,6556.0,2154.0,250.0,456.0
176516,County,2020/02/25,6.0,CA,6045.0,Mendocino County,18548.0,69058.0,300322.0,81128.0,86713.0,35076.0,33450.0,36679.0,17409.0,7518.0,1717.0,175.0,457.0
179072,County,2020/02/26,6.0,CA,6045.0,Mendocino County,14114.0,73492.0,357368.0,96714.0,113463.0,47356.0,33873.0,39801.0,16086.0,8078.0,1768.0,124.0,105.0
183239,County,2020/02/27,6.0,CA,6045.0,Mendocino County,17362.0,70244.0,343903.0,109242.0,101158.0,39092.0,31469.0,37808.0,15570.0,7337.0,1670.0,257.0,300.0
185406,County,2020/02/28,6.0,CA,6045.0,Mendocino County,16614.0,70992.0,375460.0,116430.0,109421.0,44124.0,34585.0,38733.0,17980.0,10353.0,3231.0,288.0,315.0
190075,County,2020/02/29,6.0,CA,6045.0,Mendocino County,18871.0,68735.0,311708.0,87572.0,90258.0,35993.0,34511.0,33655.0,16755.0,9882.0,2456.0,259.0,367.0
191747,County,2020/03/01,6.0,CA,6045.0,Mendocino County,19829.0,67777.0,277864.0,77101.0,82655.0,37203.0,25868.0,29743.0,14321.0,8099.0,2376.0,196.0,302.0
196547,County,2020/03/02,6.0,CA,6045.0,Mendocino County,19177.0,68429.0,308964.0,100663.0,93681.0,31317.0,28584.0,30159.0,14663.0,7473.0,1648.0,386.0,390.0
199607,County,2020/03/03,6.0,CA,6045.0,Mendocino County,17688.0,69918.0,300586.0,91173.0,90511.0,32617.0,26864.0,33405.0,15050.0,6945.0,3039.0,469.0,513.0
202862,County,2020/03/04,6.0,CA,6045.0,Mendocino County,18227.0,69379.0,319169.0,99726.0,93187.0,31082.0,32691.0,34923.0,13929.0,8715.0,4178.0,576.0,162.0
206114,County,2020/03/05,6.0,CA,6045.0,Mendocino County,17593.0,70013.0,283845.0,83043.0,78749.0,29709.0,30298.0,33778.0,15538.0,7529.0,4239.0,861.0,101.0
209277,County,2020/03/06,6.0,CA,6045.0,Mendocino County,17758.0,69848.0,296285.0,94788.0,86951.0,26833.0,28792.0,29547.0,15764.0,7757.0,4787.0,872.0,194.0
212559,County,2020/03/07,6.0,CA,6045.0,Mendocino County,19247.0,68359.0,295849.0,89468.0,88315.0,28807.0,29939.0,30325.0,14959.0,9645.0,3522.0,541.0,328.0
215670,County,2020/03/08,6.0,CA,6045.0,Mendocino County,20439.0,67167.0,261291.0,78830.0,80749.0,28308.0,25199.0,26787.0,11313.0,5878.0,3249.0,721.0,257.0
218869,County,2020/03/09,6.0,CA,6045.0,Mendocino County,18569.0,69037.0,298751.0,102160.0,84580.0,30219.0,28208.0,28094.0,15331.0,6511.0,2695.0,538.0,415.0
222063,County,2020/03/10,6.0,CA,6045.0,Mendocino County,18783.0,68823.0,291663.0,84973.0,79698.0,32996.0,29630.0,35002.0,16546.0,7879.0,4193.0,511.0,235.0
223687,County,2020/03/11,6.0,CA,6045.0,Mendocino County,16428.0,71178.0,330214.0,87376.0,97477.0,42317.0,33082.0,38005.0,15899.0,9171.0,5683.0,449.0,755.0
228432,County,2020/03/12,6.0,CA,6045.0,Mendocino County,16955.0,70651.0,354608.0,111703.0,113637.0,29960.0,33181.0,32035.0,15948.0,9539.0,6592.0,1351.0,662.0
231652,County,2020/03/13,6.0,CA,6045.0,Mendocino County,17331.0,70275.0,367845.0,100652.0,102163.0,43469.0,38558.0,49938.0,12801.0,13020.0,5484.0,956.0,804.0
234707,County,2020/03/14,6.0,CA,6045.0,Mendocino County,20379.0,67227.0,307521.0,103910.0,77767.0,50372.0,23434.0,27107.0,12292.0,5383.0,5629.0,822.0,805.0
236466,County,2020/03/15,6.0,CA,6045.0,Mendocino County,25913.0,61693.0,246530.0,79255.0,65332.0,30259.0,25248.0,25444.0,12307.0,5664.0,2485.0,181.0,355.0
239660,County,2020/03/16,6.0,CA,6045.0,Mendocino County,21505.0,66101.0,280555.0,89814.0,79501.0,33498.0,27711.0,28853.0,10121.0,7619.0,2680.0,412.0,346.0
244466,County,2020/03/17,6.0,CA,6045.0,Mendocino County,24289.0,63317.0,253549.0,69124.0,78453.0,25584.0,25350.0,31344.0,12885.0,6169.0,3463.0,696.0,481.0
246047,County,2020/03/18,6.0,CA,6045.0,Mendocino County,25581.0,62025.0,227282.0,65530.0,63474.0,30342.0,22595.0,27646.0,9416.0,4713.0,2904.0,334.0,328.0
250829,County,2020/03/19,6.0,CA,6045.0,Mendocino County,27301.0,60305.0,223859.0,70516.0,59737.0,21762.0,25621.0,29258.0,9794.0,4784.0,1639.0,381.0,367.0
252438,County,2020/03/20,6.0,CA,6045.0,Mendocino County,26608.0,60998.0,262472.0,89547.0,74836.0,30046.0,22344.0,25163.0,10239.0,6406.0,2596.0,1006.0,289.0
255630,County,2020/03/21,6.0,CA,6045.0,Mendocino County,29507.0,58099.0,208816.0,60273.0,56599.0,25096.0,24126.0,23737.0,9429.0,4029.0,4424.0,599.0,504.0
260383,County,2020/03/22,6.0,CA,6045.0,Mendocino County,26594.0,61012.0,187433.0,61306.0,51841.0,21375.0,16152.0,21381.0,7513.0,4268.0,2883.0,294.0,420.0
262021,County,2020/03/23,6.0,CA,6045.0,Mendocino County,25528.0,62078.0,198369.0,57795.0,55088.0,26069.0,21150.0,23399.0,8550.0,2652.0,2774.0,567.0,325.0
265173,County,2020/03/24,6.0,CA,6045.0,Mendocino County,25323.0,62283.0,192699.0,50942.0,62218.0,22239.0,19762.0,23704.0,6496.0,4425.0,2066.0,627.0,220.0
269973,County,2020/03/25,6.0,CA,6045.0,Mendocino County,25541.0,62065.0,207320.0,57241.0,65542.0,22187.0,19066.0,26542.0,10406.0,3093.0,2213.0,645.0,385.0
271600,County,2020/03/26,6.0,CA,6045.0,Mendocino County,26182.0,61424.0,192532.0,56013.0,51834.0,21007.0,19961.0,27574.0,9704.0,4000.0,1743.0,441.0,255.0
274786,County,2020/03/27,6.0,CA,6045.0,Mendocino County,26523.0,61083.0,199528.0,53304.0,63913.0,25282.0,20719.0,20931.0,8986.0,3684.0,1751.0,609.0,349.0
279548,County,2020/03/28,6.0,CA,6045.0,Mendocino County,28531.0,59075.0,145092.0,31022.0,42533.0,22051.0,17457.0,16258.0,8588.0,3959.0,2381.0,458.0,385.0
281183,County,2020/03/29,6.0,CA,6045.0,Mendocino County,30284.0,57322.0,157417.0,46071.0,44331.0,20271.0,17596.0,17559.0,6316.0,2536.0,1808.0,609.0,320.0
285975,County,2020/03/30,6.0,CA,6045.0,Mendocino County,26123.0,61483.0,189779.0,56445.0,54811.0,22612.0,19248.0,19893.0,10274.0,3375.0,2353.0,478.0,290.0
289179,County,2020/03/31,6.0,CA,6045.0,Mendocino County,27217.0,60389.0,192240.0,61136.0,53231.0,20517.0,22746.0,21599.0,7300.0,2938.0,2079.0,286.0,408.0
292330,County,2020/04/01,6.0,CA,6045.0,Mendocino County,27063.0,60543.0,211191.0,70364.0,60176.0,23278.0,24312.0,18904.0,7687.0,4661.0,1083.0,342.0,384.0
293959,County,2020/04/02,6.0,CA,6045.0,Mendocino County,27144.0,60462.0,201064.0,62933.0,54473.0,24525.0,21106.0,22199.0,9552.0,3486.0,1732.0,864.0,194.0
297153,County,2020/04/03,6.0,CA,6045.0,Mendocino County,24995.0,62611.0,205709.0,61658.0,62080.0,24223.0,22819.0,18901.0,9804.0,3727.0,1610.0,482.0,405.0
300346,County,2020/04/04,6.0,CA,6045.0,Mendocino County,28735.0,58871.0,143410.0,34550.0,45579.0,19331.0,15913.0,15699.0,5270.0,3737.0,2299.0,726.0,306.0
305100,County,2020/04/05,6.0,CA,6045.0,Mendocino County,29316.0,58290.0,133920.0,32986.0,45216.0,19235.0,17869.0,8619.0,5167.0,1810.0,1893.0,748.0,377.0
306736,County,2020/04/06,6.0,CA,6045.0,Mendocino County,26211.0,61395.0,200294.0,59809.0,59182.0,24543.0,22290.0,21064.0,8907.0,3615.0,398.0,63.0,423.0
309929,County,2020/04/07,6.0,CA,6045.0,Mendocino County,26032.0,61574.0,204034.0,61126.0,57641.0,27429.0,19951.0,23611.0,8760.0,3930.0,685.0,433.0,468.0
313123,County,2020/04/08,6.0,CA,6045.0,Mendocino County,27216.0,60390.0,186113.0,58410.0,51636.0,18742.0,21827.0,20929.0,11406.0,2398.0,418.0,264.0,83.0
317882,County,2020/04/09,6.0,CA,6045.0,Mendocino County,26948.0,60658.0,208843.0,67783.0,60563.0,29244.0,20425.0,18712.0,7363.0,3426.0,738.0,533.0,56.0
321077,County,2020/04/10,6.0,CA,6045.0,Mendocino County,27100.0,60506.0,233119.0,78428.0,65422.0,25287.0,24599.0,22491.0,9379.0,5956.0,1289.0,68.0,200.0
324313,County,2020/04/11,6.0,CA,6045.0,Mendocino County,28415.0,59191.0,177472.0,53154.0,58672.0,18969.0,15859.0,19389.0,7897.0,2008.0,1284.0,147.0,93.0
325897,County,2020/04/12,6.0,CA,6045.0,Mendocino County,31344.0,56262.0,150585.0,43387.0,44951.0,21206.0,14524.0,16930.0,6999.0,1716.0,642.0,162.0,68.0
329114,County,2020/04/13,6.0,CA,6045.0,Mendocino County,27326.0,60280.0,232610.0,76277.0,69798.0,27297.0,17627.0,23662.0,11945.0,4604.0,1203.0,139.0,58.0
333835,County,2020/04/14,6.0,CA,6045.0,Mendocino County,26058.0,61548.0,211708.0,77625.0,65843.0,19096.0,14810.0,15507.0,10817.0,5330.0,1548.0,392.0,740.0
337088,County,2020/04/15,6.0,CA,6045.0,Mendocino County,24721.0,62885.0,213982.0,69613.0,76798.0,22800.0,16088.0,17194.0,6343.0,3889.0,291.0,734.0,232.0
338665,County,2020/04/16,6.0,CA,6045.0,Mendocino County,26421.0,61185.0,214626.0,54361.0,82314.0,23312.0,13181.0,14023.0,16813.0,8836.0,1232.0,390.0,164.0
341917,County,2020/04/17,6.0,CA,6045.0,Mendocino County,23859.0,63747.0,217110.0,59219.0,82300.0,18413.0,19181.0,17945.0,12622.0,6030.0,1051.0,0.0,349.0
346592,County,2020/04/18,6.0,CA,6045.0,Mendocino County,26872.0,60734.0,184380.0,50404.0,64781.0,13611.0,13096.0,18159.0,16661.0,5969.0,1388.0,219.0,92.0
348243,County,2020/04/19,6.0,CA,6045.0,Mendocino County,27154.0,60452.0,187812.0,54769.0,63254.0,32322.0,11434.0,12727.0,8392.0,2005.0,1747.0,883.0,279.0
351450,County,2020/04/20,6.0,CA,6045.0,Mendocino County,24025.0,63581.0,243419.0,94872.0,72926.0,14027.0,21594.0,13832.0,21072.0,3418.0,1072.0,226.0,380.0
356209,County,2020/04/21,6.0,CA,6045.0,Mendocino County,25469.0,62137.0,208652.0,54724.0,67080.0,27685.0,21188.0,24271.0,8332.0,3864.0,1347.0,71.0,90.0
357839,County,2020/04/22,6.0,CA,6045.0,Mendocino County,26459.0,61147.0,228955.0,63892.0,66941.0,26431.0,23456.0,29798.0,11868.0,5092.0,1109.0,280.0,88.0
362570,County,2020/04/23,6.0,CA,6045.0,Mendocino County,26080.0,61526.0,217167.0,62919.0,65143.0,24920.0,21819.0,22009.0,13588.0,4888.0,1334.0,281.0,266.0
365832,County,2020/04/24,6.0,CA,6045.0,Mendocino County,26995.0,60611.0,230502.0,65248.0,68870.0,28173.0,24743.0,26148.0,10370.0,5281.0,994.0,558.0,117.0
368988,County,2020/04/25,6.0,CA,6045.0,Mendocino County,27730.0,59876.0,164449.0,45025.0,49155.0,13543.0,19722.0,19025.0,10264.0,5244.0,1698.0,495.0,278.0
370578,County,2020/04/26,6.0,CA,6045.0,Mendocino County,28808.0,58798.0,161120.0,46606.0,44945.0,22525.0,20589.0,14373.0,6266.0,3842.0,1435.0,272.0,267.0
375412,County,2020/04/27,6.0,CA,6045.0,Mendocino County,25306.0,62300.0,203837.0,55353.0,65774.0,32546.0,22267.0,16614.0,7243.0,2961.0,774.0,70.0,235.0
378536,County,2020/04/28,6.0,CA,6045.0,Mendocino County,25883.0,61723.0,196251.0,46909.0,57443.0,27421.0,18468.0,26142.0,14627.0,4271.0,638.0,134.0,198.0
380211,County,2020/04/29,6.0,CA,6045.0,Mendocino County,25609.0,61997.0,211583.0,61500.0,66285.0,24483.0,15221.0,27020.0,10513.0,5140.0,1120.0,212.0,89.0
384957,County,2020/04/30,6.0,CA,6045.0,Mendocino County,26931.0,60675.0,196601.0,45413.0,58769.0,20786.0,25289.0,28315.0,12013.0,4346.0,1435.0,76.0,159.0
388192,County,2020/05/01,6.0,CA,6045.0,Mendocino County,25058.0,62548.0,221397.0,64244.0,63643.0,28517.0,19206.0,26053.0,12495.0,5675.0,1060.0,335.0,169.0
389766,County,2020/05/02,6.0,CA,6045.0,Mendocino County,28606.0,59000.0,191424.0,43990.0,61475.0,30180.0,19710.0,20372.0,9159.0,5616.0,559.0,177.0,186.0
394539,County,2020/05/03,6.0,CA,6045.0,Mendocino County,29943.0,57663.0,172597.0,41614.0,54349.0,27929.0,18704.0,15377.0,10324.0,2584.0,1351.0,320.0,45.0
397733,County,2020/05/04,6.0,CA,6045.0,Mendocino County,26398.0,61208.0,185156.0,46531.0,56612.0,26298.0,19778.0,23492.0,5889.0,5158.0,938.0,148.0,312.0
399360,County,2020/05/05,6.0,CA,6045.0,Mendocino County,25879.0,61727.0,207178.0,54960.0,63839.0,24075.0,24790.0,24505.0,9752.0,3723.0,1145.0,145.0,244.0
402539,County,2020/05/06,6.0,CA,6045.0,Mendocino County,25385.0,62221.0,200537.0,47395.0,63653.0,26779.0,20876.0,24138.0,12607.0,3413.0,1365.0,199.0,112.0
407257,County,2020/05/07,6.0,CA,6045.0,Mendocino County,26196.0,61410.0,214054.0,52233.0,63551.0,25433.0,21411.0,28142.0,17830.0,3904.0,1248.0,0.0,302.0
408998,County,2020/05/08,6.0,CA,6045.0,Mendocino County,25672.0,61934.0,218732.0,69015.0,59181.0,24929.0,24448.0,22643.0,10987.0,6266.0,1170.0,0.0,93.0
413669,County,2020/05/09,6.0,CA,6045.0,Mendocino County,27496.0,60110.0,177716.0,51263.0,51207.0,21965.0,17179.0,16112.0,13246.0,4593.0,1390.0,559.0,202.0
415330,County,2020/05/10,6.0,CA,6045.0,Mendocino County,26322.0,61284.0,169007.0,41568.0,53698.0,23006.0,16209.0,16384.0,12682.0,3622.0,1010.0,559.0,269.0
418524,County,2020/05/11,6.0,CA,6045.0,Mendocino County,24295.0,63311.0,209055.0,55897.0,65992.0,25792.0,21278.0,19413.0,14047.0,4006.0,2170.0,142.0,318.0
421707,County,2020/05/12,6.0,CA,6045.0,Mendocino County,24699.0,62907.0,177436.0,40631.0,53396.0,26044.0,20581.0,19458.0,10711.0,3838.0,2379.0,141.0,257.0
426380,County,2020/05/13,6.0,CA,6045.0,Mendocino County,25320.0,62286.0,195944.0,61305.0,57770.0,22846.0,15436.0,19084.0,12542.0,4602.0,1941.0,294.0,124.0
428107,County,2020/05/14,6.0,CA,6045.0,Mendocino County,24890.0,62716.0,194386.0,54751.0,57398.0,22773.0,20074.0,21548.0,10578.0,4561.0,2162.0,283.0,258.0
431301,County,2020/05/15,6.0,CA,6045.0,Mendocino County,24401.0,63205.0,197625.0,59951.0,53129.0,22479.0,24298.0,18593.0,12484.0,4118.0,1931.0,188.0,454.0
434524,County,2020/05/16,6.0,CA,6045.0,Mendocino County,25545.0,62061.0,181579.0,48615.0,59846.0,22473.0,16890.0,17457.0,8752.0,5000.0,2004.0,55.0,487.0
437677,County,2020/05/17,6.0,CA,6045.0,Mendocino County,26441.0,61165.0,196480.0,57760.0,58155.0,26515.0,19934.0,16025.0,11528.0,4628.0,1540.0,278.0,117.0
440923,County,2020/05/18,6.0,CA,6045.0,Mendocino County,22338.0,65268.0,207920.0,61151.0,58269.0,20034.0,23429.0,23459.0,13065.0,5722.0,2327.0,420.0,44.0
444077,County,2020/05/19,6.0,CA,6045.0,Mendocino County,20126.0,67480.0,230725.0,62848.0,66904.0,27123.0,24736.0,26501.0,15515.0,5783.0,1058.0,96.0,161.0
448838,County,2020/05/20,6.0,CA,6045.0,Mendocino County,22736.0,64870.0,240301.0,63067.0,72605.0,27958.0,25943.0,26489.0,15607.0,6040.0,1995.0,420.0,177.0
450464,County,2020/05/21,6.0,CA,6045.0,Mendocino County,21012.0,66594.0,233532.0,54905.0,72456.0,25512.0,28543.0,27851.0,17918.0,4280.0,1492.0,377.0,198.0
453651,County,2020/05/22,6.0,CA,6045.0,Mendocino County,21144.0,66462.0,247053.0,75691.0,66800.0,30208.0,23639.0,26985.0,14118.0,5889.0,2771.0,584.0,368.0
456847,County,2020/05/23,6.0,CA,6045.0,Mendocino County,24833.0,62773.0,190687.0,45722.0,53575.0,23291.0,22955.0,25373.0,12390.0,5039.0,1419.0,384.0,539.0
461590,County,2020/05/24,6.0,CA,6045.0,Mendocino County,24104.0,63502.0,174444.0,46186.0,57199.0,18670.0,16575.0,17746.0,10246.0,4632.0,2649.0,239.0,302.0
464892,County,2020/05/25,6.0,CA,6045.0,Mendocino County,24541.0,63065.0,192745.0,48124.0,56978.0,25246.0,21756.0,23148.0,9039.0,5001.0,2688.0,321.0,444.0
468048,County,2020/05/26,6.0,CA,6045.0,Mendocino County,22866.0,64740.0,184730.0,45381.0,56602.0,21181.0,21946.0,20730.0,9448.0,5682.0,2906.0,408.0,446.0
469627,County,2020/05/27,6.0,CA,6045.0,Mendocino County,22627.0,64979.0,221340.0,67900.0,58790.0,27513.0,17808.0,27422.0,13221.0,5729.0,2613.0,242.0,102.0
472824,County,2020/05/28,6.0,CA,6045.0,Mendocino County,22885.0,64721.0,206499.0,62525.0,52846.0,22832.0,19061.0,25495.0,14728.0,5233.0,3309.0,402.0,68.0
476017,County,2020/05/29,6.0,CA,6045.0,Mendocino County,23300.0,64306.0,194914.0,58752.0,52602.0,23359.0,20632.0,18192.0,11782.0,6009.0,3211.0,302.0,73.0
480778,County,2020/05/30,6.0,CA,6045.0,Mendocino County,25725.0,61881.0,170357.0,47396.0,50685.0,15588.0,16841.0,20966.0,11004.0,4154.0,3215.0,439.0,69.0
482331,County,2020/05/31,6.0,CA,6045.0,Mendocino County,26823.0,60783.0,159139.0,39867.0,51541.0,18612.0,14326.0,16882.0,8661.0,5772.0,3191.0,218.0,69.0
485550,County,2020/06/01,6.0,CA,6045.0,Mendocino County,23542.0,64064.0,186964.0,50175.0,52283.0,27077.0,19485.0,18375.0,9823.0,5568.0,3507.0,460.0,211.0
490331,County,2020/06/02,6.0,CA,6045.0,Mendocino County,23971.0,63635.0,189148.0,50869.0,58690.0,23455.0,18077.0,18448.0,12084.0,3906.0,3163.0,333.0,123.0
491961,County,2020/06/03,6.0,CA,6045.0,Mendocino County,23035.0,64571.0,203480.0,54041.0,60506.0,23471.0,24796.0,20603.0,12368.0,4239.0,3202.0,156.0,98.0
495171,County,2020/06/04,6.0,CA,6045.0,Mendocino County,22716.0,64890.0,199714.0,50088.0,58462.0,23163.0,24739.0,20948.0,12028.0,6106.0,3443.0,554.0,183.0
498375,County,2020/06/05,6.0,CA,6045.0,Mendocino County,23300.0,64306.0,195236.0,55626.0,56135.0,21061.0,19944.0,21613.0,8948.0,7185.0,4099.0,389.0,236.0
503100,County,2020/06/06,6.0,CA,6045.0,Mendocino County,24282.0,63324.0,166333.0,37041.0,48894.0,24053.0,19938.0,16863.0,10889.0,5891.0,2274.0,139.0,351.0
504763,County,2020/06/07,6.0,CA,6045.0,Mendocino County,23615.0,63991.0,189017.0,41717.0,62259.0,22445.0,23317.0,21087.0,9599.0,3904.0,3926.0,596.0,167.0
509510,County,2020/06/08,6.0,CA,6045.0,Mendocino County,21893.0,65713.0,212699.0,60459.0,62260.0,21250.0,21790.0,24487.0,12638.0,6172.0,3074.0,324.0,245.0
511138,County,2020/06/09,6.0,CA,6045.0,Mendocino County,24913.0,62693.0,186047.0,45182.0,52169.0,22910.0,19473.0,23434.0,13214.0,5727.0,3245.0,394.0,299.0
515920,County,2020/06/10,6.0,CA,6045.0,Mendocino County,24596.0,63010.0,185601.0,44166.0,52076.0,21257.0,22485.0,22822.0,12488.0,6883.0,2699.0,366.0,359.0
519077,County,2020/06/11,6.0,CA,6045.0,Mendocino County,23593.0,64013.0,180410.0,44209.0,52996.0,19883.0,18302.0,23010.0,11100.0,7574.0,2719.0,224.0,393.0
520751,County,2020/06/12,6.0,CA,6045.0,Mendocino County,22893.0,64713.0,194337.0,53913.0,51293.0,19742.0,20021.0,24049.0,14715.0,6270.0,3643.0,384.0,307.0
523926,County,2020/06/13,6.0,CA,6045.0,Mendocino County,25007.0,62599.0,190030.0,47481.0,58120.0,19355.0,20540.0,23339.0,10964.0,6803.0,2930.0,220.0,278.0
528690,County,2020/06/14,6.0,CA,6045.0,Mendocino County,25967.0,61639.0,157950.0,41934.0,45467.0,16222.0,18070.0,14174.0,11196.0,6024.0,3956.0,556.0,351.0
531881,County,2020/06/15,6.0,CA,6045.0,Mendocino County,24683.0,62923.0,172481.0,49818.0,45125.0,19564.0,15215.0,19434.0,12790.0,5601.0,4113.0,473.0,348.0
533509,County,2020/06/16,6.0,CA,6045.0,Mendocino County,24876.0,62730.0,188460.0,52178.0,54759.0,22039.0,19791.0,20780.0,10911.0,4588.0,2732.0,505.0,177.0
536703,County,2020/06/17,6.0,CA,6045.0,Mendocino County,24777.0,62829.0,205527.0,59934.0,56776.0,24574.0,19181.0,24715.0,11926.0,5675.0,2226.0,341.0,179.0
541415,County,2020/06/18,6.0,CA,6045.0,Mendocino County,24721.0,62885.0,197249.0,48425.0,53970.0,26041.0,19148.0,23906.0,14699.0,7596.0,3097.0,170.0,197.0
544616,County,2020/06/19,6.0,CA,6045.0,Mendocino County,23808.0,63798.0,262502.0,119496.0,59512.0,23435.0,16421.0,24798.0,9127.0,7510.0,1584.0,400.0,219.0
547851,County,2020/06/20,6.0,CA,6045.0,Mendocino County,25327.0,62279.0,191184.0,48759.0,59463.0,17073.0,21032.0,25420.0,10571.0,6720.0,1718.0,345.0,83.0
551038,County,2020/06/21,6.0,CA,6045.0,Mendocino County,26608.0,60998.0,174713.0,44151.0,53532.0,22414.0,15845.0,17815.0,12444.0,6182.0,1957.0,215.0,158.0
552674,County,2020/06/22,6.0,CA,6045.0,Mendocino County,22301.0,65305.0,181430.0,45665.0,53227.0,21675.0,17285.0,21806.0,12096.0,6291.0,2828.0,219.0,338.0
555859,County,2020/06/23,6.0,CA,6045.0,Mendocino County,23831.0,63775.0,204312.0,54580.0,59429.0,23817.0,21553.0,23540.0,12224.0,6172.0,2371.0,416.0,210.0
560627,County,2020/06/24,6.0,CA,6045.0,Mendocino County,24934.0,62672.0,183969.0,50400.0,51686.0,19144.0,22808.0,22166.0,8711.0,6337.0,2164.0,427.0,126.0
562255,County,2020/06/25,6.0,CA,6045.0,Mendocino County,24123.0,63483.0,192047.0,50702.0,47868.0,25751.0,21274.0,23422.0,13640.0,5154.0,3185.0,774.0,277.0
567098,County,2020/06/26,6.0,CA,6045.0,Mendocino County,23904.0,63702.0,181856.0,47166.0,51860.0,22267.0,19035.0,19674.0,11655.0,7292.0,2288.0,281.0,338.0
568630,County,2020/06/27,6.0,CA,6045.0,Mendocino County,25066.0,62540.0,193536.0,55090.0,52598.0,23381.0,21191.0,19867.0,12142.0,4874.0,3708.0,439.0,246.0
573394,County,2020/06/28,6.0,CA,6045.0,Mendocino County,26370.0,61236.0,154219.0,33781.0,50625.0,19794.0,14722.0,15425.0,9033.0,5593.0,4423.0,406.0,417.0
576566,County,2020/06/29,6.0,CA,6045.0,Mendocino County,24375.0,63231.0,170872.0,40962.0,49484.0,20713.0,14817.0,20385.0,13536.0,5868.0,4259.0,515.0,333.0
579813,County,2020/06/30,6.0,CA,6045.0,Mendocino County,25468.0,62138.0,164523.0,38251.0,45036.0,18134.0,20649.0,19281.0,11795.0,7398.0,3202.0,422.0,355.0
581415,County,2020/07/01,6.0,CA,6045.0,Mendocino County,25666.0,61940.0,164264.0,43498.0,42584.0,18640.0,19927.0,17877.0,12860.0,4724.0,3737.0,80.0,337.0
584609,County,2020/07/02,6.0,CA,6045.0,Mendocino County,25946.0,61660.0,203839.0,53815.0,50807.0,27332.0,22580.0,24860.0,14478.0,5470.0,3381.0,822.0,294.0
589401,County,2020/07/03,6.0,CA,6045.0,Mendocino County,27397.0,60209.0,180831.0,46900.0,51568.0,22142.0,18928.0,19563.0,11589.0,7251.0,2275.0,279.0,336.0
592583,County,2020/07/04,6.0,CA,6045.0,Mendocino County,28412.0,59194.0,154706.0,40124.0,44118.0,18943.0,16193.0,16737.0,9915.0,6203.0,1946.0,239.0,288.0
594183,County,2020/07/05,6.0,CA,6045.0,Mendocino County,26220.0,61386.0,148097.0,31060.0,41791.0,17954.0,18209.0,18012.0,9708.0,6053.0,4220.0,429.0,661.0
598907,County,2020/07/06,6.0,CA,6045.0,Mendocino County,24300.0,63306.0,172215.0,46486.0,46513.0,21174.0,17013.0,17842.0,11657.0,5431.0,5112.0,323.0,664.0
600582,County,2020/07/07,6.0,CA,6045.0,Mendocino County,24286.0,63320.0,184456.0,60238.0,47058.0,17195.0,16820.0,24313.0,9208.0,3561.0,5149.0,346.0,568.0
605243,County,2020/07/08,6.0,CA,6045.0,Mendocino County,24194.0,63412.0,174421.0,41478.0,46134.0,18531.0,18878.0,24028.0,12009.0,6906.0,5611.0,492.0,354.0
606970,County,2020/07/09,6.0,CA,6045.0,Mendocino County,23580.0,64026.0,181903.0,44164.0,55296.0,19643.0,16799.0,20637.0,13115.0,6276.0,5228.0,316.0,429.0
611752,County,2020/07/10,6.0,CA,6045.0,Mendocino County,23431.0,64175.0,184448.0,48612.0,47548.0,22507.0,21850.0,20131.0,14333.0,5188.0,3635.0,240.0,404.0
614968,County,2020/07/11,6.0,CA,6045.0,Mendocino County,25283.0,62323.0,172100.0,42180.0,45517.0,18638.0,18049.0,23297.0,12525.0,6607.0,4303.0,412.0,572.0
616552,County,2020/07/12,6.0,CA,6045.0,Mendocino County,26016.0,61590.0,145208.0,31843.0,43392.0,17429.0,16290.0,14154.0,9005.0,6917.0,5203.0,401.0,574.0
619741,County,2020/07/13,6.0,CA,6045.0,Mendocino County,24426.0,63180.0,172917.0,42961.0,44863.0,21249.0,17312.0,19656.0,13482.0,6625.0,5723.0,539.0,507.0
622942,County,2020/07/14,6.0,CA,6045.0,Mendocino County,25210.0,62396.0,167700.0,39871.0,43598.0,21575.0,19235.0,21429.0,11002.0,6989.0,2990.0,525.0,486.0
626064,County,2020/07/15,6.0,CA,6045.0,Mendocino County,24947.0,62659.0,165660.0,38336.0,41712.0,19193.0,20682.0,23069.0,11841.0,7019.0,3396.0,208.0,204.0
629305,County,2020/07/16,6.0,CA,6045.0,Mendocino County,23477.0,64129.0,171108.0,38860.0,50070.0,18572.0,19566.0,22564.0,11846.0,6186.0,2765.0,429.0,250.0
632505,County,2020/07/17,6.0,CA,6045.0,Mendocino County,25005.0,62601.0,170378.0,39551.0,44808.0,21696.0,18336.0,23708.0,10189.0,7837.0,3586.0,576.0,91.0
637292,County,2020/07/18,6.0,CA,6045.0,Mendocino County,27194.0,60412.0,162577.0,38418.0,42827.0,20093.0,18937.0,21488.0,10847.0,5565.0,3975.0,314.0,113.0
640445,County,2020/07/19,6.0,CA,6045.0,Mendocino County,28311.0,59295.0,144114.0,37821.0,38621.0,15144.0,16418.0,16798.0,8919.0,6048.0,3294.0,666.0,385.0
642106,County,2020/07/20,6.0,CA,6045.0,Mendocino County,26520.0,61086.0,162211.0,33998.0,46811.0,20192.0,18969.0,20308.0,11252.0,7100.0,3214.0,175.0,192.0
647346,County,2020/07/21,6.0,CA,6045.0,Mendocino County,26310.0,61296.0,150060.0,33685.0,39429.0,17508.0,16836.0,19257.0,11490.0,7054.0,3836.0,560.0,405.0
650011,County,2020/07/22,6.0,CA,6045.0,Mendocino County,26180.0,61426.0,164064.0,36636.0,45231.0,20636.0,17921.0,19074.0,12796.0,7410.0,3487.0,551.0,322.0
651601,County,2020/07/23,6.0,CA,6045.0,Mendocino County,25431.0,62175.0,145813.0,31886.0,37894.0,18743.0,19169.0,16913.0,11051.0,6216.0,3065.0,382.0,494.0
654773,County,2020/07/24,6.0,CA,6045.0,Mendocino County,26194.0,61412.0,158370.0,39497.0,43608.0,17508.0,17442.0,17551.0,12040.0,6066.0,3904.0,339.0,415.0
658070,County,2020/07/25,6.0,CA,6045.0,Mendocino County,26831.0,60775.0,139717.0,34308.0,41167.0,14688.0,14874.0,15736.0,9007.0,5650.0,3234.0,564.0,489.0
662775,County,2020/07/26,6.0,CA,6045.0,Mendocino County,27136.0,60470.0,156869.0,35613.0,43656.0,16431.0,17013.0,18517.0,11624.0,7892.0,4845.0,832.0,446.0
664516,County,2020/07/27,6.0,CA,6045.0,Mendocino County,24934.0,62672.0,151034.0,37012.0,36627.0,21356.0,15121.0,16232.0,10450.0,7752.0,4933.0,772.0,779.0
669300,County,2020/07/28,6.0,CA,6045.0,Mendocino County,24946.0,62660.0,161838.0,35959.0,43849.0,19773.0,15944.0,21628.0,11630.0,6516.0,5135.0,728.0,676.0
672512,County,2020/07/29,6.0,CA,6045.0,Mendocino County,25255.0,62351.0,158317.0,30208.0,42473.0,22524.0,17479.0,20325.0,12021.0,6830.0,5010.0,721.0,726.0
674044,County,2020/07/30,6.0,CA,6045.0,Mendocino County,25542.0,62064.0,160070.0,39550.0,43304.0,17979.0,16539.0,20418.0,10133.0,6383.0,4485.0,725.0,554.0
677245,County,2020/07/31,6.0,CA,6045.0,Mendocino County,24716.0,62890.0,165061.0,38406.0,41920.0,19341.0,20097.0,20980.0,12053.0,6032.0,4880.0,841.0,511.0
681944,County,2020/08/01,6.0,CA,6045.0,Mendocino County,26213.0,61393.0,159656.0,36332.0,45338.0,17088.0,15495.0,19863.0,11353.0,7200.0,5679.0,831.0,477.0
683626,County,2020/08/02,6.0,CA,6045.0,Mendocino County,27300.0,60306.0,160038.0,35440.0,43579.0,23680.0,17246.0,16505.0,9876.0,6997.0,5188.0,1262.0,265.0
688387,County,2020/08/03,6.0,CA,6045.0,Mendocino County,25695.0,61911.0,169705.0,43019.0,46589.0,18811.0,18089.0,19332.0,11282.0,7950.0,3980.0,338.0,315.0
690015,County,2020/08/04,6.0,CA,6045.0,Mendocino County,25987.0,61619.0,172110.0,42686.0,47742.0,20574.0,18762.0,22926.0,9442.0,6311.0,3130.0,431.0,106.0
694774,County,2020/08/05,6.0,CA,6045.0,Mendocino County,25703.0,61903.0,177950.0,42894.0,49709.0,23594.0,17096.0,24843.0,9887.0,6106.0,3251.0,477.0,93.0
697969,County,2020/08/06,6.0,CA,6045.0,Mendocino County,25434.0,62172.0,176063.0,37759.0,49875.0,22320.0,19898.0,22429.0,13509.0,5916.0,3666.0,615.0,76.0
701163,County,2020/08/07,6.0,CA,6045.0,Mendocino County,24885.0,62721.0,180143.0,46526.0,47514.0,23953.0,20392.0,20463.0,10540.0,6367.0,3995.0,246.0,147.0
704357,County,2020/08/08,6.0,CA,6045.0,Mendocino County,27247.0,60359.0,170731.0,40333.0,48391.0,20849.0,19959.0,20286.0,9040.0,7514.0,3790.0,532.0,37.0
705984,County,2020/08/09,6.0,CA,6045.0,Mendocino County,25341.0,62265.0,180703.0,39782.0,52534.0,21403.0,17460.0,22156.0,13854.0,7610.0,5001.0,645.0,258.0
710792,County,2020/08/10,6.0,CA,6045.0,Mendocino County,24411.0,63195.0,210088.0,52480.0,58077.0,26971.0,22298.0,24337.0,12005.0,8373.0,4684.0,741.0,122.0
713985,County,2020/08/11,6.0,CA,6045.0,Mendocino County,25477.0,62129.0,213409.0,52753.0,64949.0,22888.0,22867.0,25604.0,13223.0,6722.0,3678.0,581.0,144.0
717035,County,2020/08/12,6.0,CA,6045.0,Mendocino County,24016.0,63590.0,191615.0,44858.0,52151.0,24194.0,24075.0,23047.0,11410.0,7585.0,3499.0,412.0,384.0
718761,County,2020/08/13,6.0,CA,6045.0,Mendocino County,23636.0,63970.0,181608.0,44060.0,50775.0,19591.0,19916.0,23314.0,11517.0,6893.0,4176.0,805.0,561.0
721954,County,2020/08/14,6.0,CA,6045.0,Mendocino County,22686.0,64920.0,205718.0,51930.0,52490.0,23097.0,26227.0,25208.0,13326.0,7170.0,4839.0,689.0,742.0
726764,County,2020/08/15,6.0,CA,6045.0,Mendocino County,23991.0,63615.0,181322.0,41173.0,52268.0,19644.0,21271.0,24164.0,11138.0,6504.0,3917.0,586.0,657.0
729908,County,2020/08/16,6.0,CA,6045.0,Mendocino County,26095.0,61511.0,170519.0,34801.0,51201.0,20835.0,21016.0,17732.0,10893.0,6620.0,5753.0,450.0,1218.0
731537,County,2020/08/17,6.0,CA,6045.0,Mendocino County,26019.0,61587.0,235035.0,86344.0,60233.0,20098.0,22071.0,20376.0,11367.0,7860.0,5206.0,375.0,1105.0
736297,County,2020/08/18,6.0,CA,6045.0,Mendocino County,23814.0,63792.0,184374.0,40188.0,52105.0,22300.0,20137.0,24686.0,11063.0,7649.0,4712.0,647.0,887.0
739491,County,2020/08/19,6.0,CA,6045.0,Mendocino County,23258.0,64348.0,189691.0,41717.0,55453.0,24373.0,19319.0,22823.0,14432.0,6024.0,3993.0,673.0,884.0
742690,County,2020/08/20,6.0,CA,6045.0,Mendocino County,22716.0,64890.0,192137.0,43972.0,53899.0,21445.0,20997.0,24759.0,12377.0,8637.0,4379.0,729.0,943.0
745896,County,2020/08/21,6.0,CA,6045.0,Mendocino County,21820.0,65786.0,202514.0,48765.0,58476.0,22546.0,22806.0,25369.0,11108.0,7413.0,4459.0,735.0,837.0
747524,County,2020/08/22,6.0,CA,6045.0,Mendocino County,23635.0,63971.0,181398.0,43153.0,52012.0,20984.0,19828.0,21238.0,10734.0,7158.0,4860.0,495.0,936.0
752269,County,2020/08/23,6.0,CA,6045.0,Mendocino County,27016.0,60590.0,158319.0,39018.0,41259.0,19659.0,17654.0,19094.0,9726.0,6616.0,4076.0,688.0,529.0
755460,County,2020/08/24,6.0,CA,6045.0,Mendocino County,26042.0,61564.0,170538.0,41954.0,43771.0,22536.0,17042.0,20613.0,13119.0,5664.0,4739.0,481.0,619.0
758651,County,2020/08/25,6.0,CA,6045.0,Mendocino County,25273.0,62333.0,178586.0,44717.0,48368.0,17846.0,22502.0,21938.0,11901.0,6338.0,3837.0,606.0,533.0
760284,County,2020/08/26,6.0,CA,6045.0,Mendocino County,26435.0,61171.0,184246.0,45286.0,47768.0,22500.0,22082.0,22566.0,12642.0,7382.0,3114.0,416.0,490.0
765007,County,2020/08/27,6.0,CA,6045.0,Mendocino County,26013.0,61593.0,182394.0,43928.0,52910.0,21434.0,18141.0,25509.0,9595.0,6219.0,3472.0,695.0,491.0
768223,County,2020/08/28,6.0,CA,6045.0,Mendocino County,25032.0,62574.0,171720.0,40638.0,48414.0,19348.0,19856.0,20689.0,10858.0,6478.0,4373.0,542.0,524.0
771423,County,2020/08/29,6.0,CA,6045.0,Mendocino County,27980.0,59626.0,174729.0,39740.0,50195.0,20533.0,18298.0,21422.0,13042.0,6682.0,3663.0,570.0,584.0
774643,County,2020/08/30,6.0,CA,6045.0,Mendocino County,27610.0,59996.0,168948.0,44542.0,45958.0,17408.0,16325.0,21269.0,10560.0,6727.0,4727.0,730.0,702.0
776251,County,2020/08/31,6.0,CA,6045.0,Mendocino County,26261.0,61345.0,162853.0,42209.0,42439.0,19538.0,17790.0,18087.0,9579.0,6340.0,5362.0,771.0,738.0
779394,County,2020/09/01,6.0,CA,6045.0,Mendocino County,25816.0,61790.0,185535.0,49753.0,51677.0,18921.0,16872.0,24284.0,11233.0,6320.0,5381.0,805.0,289.0
782638,County,2020/09/02,6.0,CA,6045.0,Mendocino County,25065.0,62541.0,180040.0,42894.0,48553.0,23306.0,20703.0,20554.0,12103.0,7010.0,3934.0,650.0,333.0
787376,County,2020/09/03,6.0,CA,6045.0,Mendocino County,24469.0,63137.0,203399.0,57947.0,53136.0,23571.0,19979.0,23343.0,13490.0,6564.0,4205.0,651.0,513.0
790569,County,2020/09/04,6.0,CA,6045.0,Mendocino County,24493.0,63113.0,202292.0,54079.0,53604.0,21735.0,23880.0,24919.0,12548.0,6019.0,4425.0,634.0,449.0
793708,County,2020/09/05,6.0,CA,6045.0,Mendocino County,26401.0,61205.0,182654.0,45317.0,51948.0,20390.0,21810.0,22038.0,11562.0,4603.0,3798.0,676.0,512.0
796965,County,2020/09/06,6.0,CA,6045.0,Mendocino County,26975.0,60631.0,177873.0,45087.0,50584.0,18033.0,21346.0,21302.0,8684.0,7941.0,3978.0,592.0,326.0
800177,County,2020/09/07,6.0,CA,6045.0,Mendocino County,27710.0,59896.0,177187.0,41978.0,52296.0,17335.0,23425.0,19173.0,10417.0,6533.0,4830.0,856.0,344.0
803371,County,2020/09/08,6.0,CA,6045.0,Mendocino County,25691.0,61915.0,188257.0,46544.0,53347.0,22405.0,19799.0,21564.0,11542.0,7198.0,5118.0,481.0,259.0
804998,County,2020/09/09,6.0,CA,6045.0,Mendocino County,26387.0,61219.0,184132.0,45955.0,51570.0,21840.0,18400.0,22620.0,12520.0,6278.0,3940.0,636.0,373.0
808191,County,2020/09/10,6.0,CA,6045.0,Mendocino County,25638.0,61968.0,194571.0,50879.0,53973.0,20675.0,19214.0,25576.0,12640.0,6889.0,3731.0,732.0,262.0
812952,County,2020/09/11,6.0,CA,6045.0,Mendocino County,25031.0,62575.0,197573.0,54495.0,50270.0,24034.0,21473.0,24348.0,10590.0,7122.0,4071.0,767.0,403.0
814580,County,2020/09/12,6.0,CA,6045.0,Mendocino County,27181.0,60425.0,186883.0,48636.0,53152.0,20530.0,20320.0,21175.0,11673.0,6339.0,3796.0,879.0,383.0
819329,County,2020/09/13,6.0,CA,6045.0,Mendocino County,24841.0,62765.0,196996.0,43013.0,63358.0,21228.0,21762.0,22426.0,13169.0,7818.0,3106.0,613.0,503.0
820958,County,2020/09/14,6.0,CA,6045.0,Mendocino County,25547.0,62059.0,200785.0,49279.0,50421.0,24798.0,21899.0,27593.0,13660.0,8506.0,3667.0,494.0,468.0
825728,County,2020/09/15,6.0,CA,6045.0,Mendocino County,25848.0,61758.0,203114.0,58053.0,49712.0,22299.0,23040.0,23673.0,13184.0,7516.0,4362.0,727.0,548.0
827356,County,2020/09/16,6.0,CA,6045.0,Mendocino County,25825.0,61781.0,205491.0,54320.0,56397.0,21731.0,23838.0,24685.0,11785.0,8258.0,3484.0,589.0,404.0
830550,County,2020/09/17,6.0,CA,6045.0,Mendocino County,25608.0,61998.0,202847.0,49762.0,60074.0,20259.0,21245.0,26390.0,13027.0,7607.0,3541.0,491.0,451.0
835311,County,2020/09/18,6.0,CA,6045.0,Mendocino County,24966.0,62640.0,200065.0,49488.0,53717.0,24785.0,22500.0,23629.0,13535.0,6617.0,4613.0,760.0,421.0
838503,County,2020/09/19,6.0,CA,6045.0,Mendocino County,25998.0,61608.0,203719.0,49216.0,52831.0,24133.0,21951.0,27818.0,15645.0,7117.0,3722.0,843.0,443.0
840131,County,2020/09/20,6.0,CA,6045.0,Mendocino County,27564.0,60042.0,178492.0,41068.0,48198.0,21072.0,21496.0,23282.0,10496.0,7726.0,4603.0,388.0,163.0
844919,County,2020/09/21,6.0,CA,6045.0,Mendocino County,26993.0,60613.0,187130.0,43023.0,51230.0,23000.0,22183.0,21676.0,15814.0,7168.0,2533.0,288.0,215.0
848087,County,2020/09/22,6.0,CA,6045.0,Mendocino County,27301.0,60305.0,186421.0,40018.0,58523.0,19895.0,18642.0,25406.0,12577.0,8164.0,2417.0,683.0,96.0
849714,County,2020/09/23,6.0,CA,6045.0,Mendocino County,25671.0,61935.0,194167.0,45718.0,54004.0,23306.0,22910.0,22511.0,15469.0,7810.0,1919.0,311.0,209.0
852904,County,2020/09/24,6.0,CA,6045.0,Mendocino County,25915.0,61691.0,180303.0,40324.0,51290.0,21699.0,18865.0,22224.0,14426.0,8110.0,2860.0,374.0,131.0
857668,County,2020/09/25,6.0,CA,6045.0,Mendocino County,25358.0,62248.0,202787.0,48049.0,55433.0,24128.0,22559.0,26049.0,13709.0,9490.0,2937.0,352.0,81.0
859296,County,2020/09/26,6.0,CA,6045.0,Mendocino County,27529.0,60077.0,193021.0,46155.0,52858.0,24933.0,21324.0,25070.0,13212.0,6018.0,3086.0,268.0,97.0
864043,County,2020/09/27,6.0,CA,6045.0,Mendocino County,26653.0,60953.0,183584.0,42462.0,52523.0,21981.0,19880.0,21832.0,13303.0,7444.0,3780.0,214.0,165.0
867251,County,2020/09/28,6.0,CA,6045.0,Mendocino County,25578.0,62028.0,185473.0,39388.0,50377.0,23804.0,21513.0,23197.0,14474.0,8906.0,3287.0,381.0,146.0
870443,County,2020/09/29,6.0,CA,6045.0,Mendocino County,24303.0,63303.0,192928.0,44245.0,55591.0,22227.0,23216.0,24068.0,11911.0,8819.0,2394.0,268.0,189.0
872072,County,2020/09/30,6.0,CA,6045.0,Mendocino County,24477.0,63129.0,189808.0,41591.0,54538.0,24745.0,20316.0,22679.0,15558.0,7235.0,2707.0,261.0,178.0
876812,County,2020/10/01,6.0,CA,6045.0,Mendocino County,22890.0,64716.0,188243.0,39709.0,55412.0,21732.0,21155.0,22098.0,14083.0,9719.0,3744.0,358.0,233.0
880027,County,2020/10/02,6.0,CA,6045.0,Mendocino County,26746.0,60860.0,186159.0,44795.0,47728.0,20758.0,24499.0,23240.0,13744.0,7183.0,3793.0,317.0,102.0
883221,County,2020/10/03,6.0,CA,6045.0,Mendocino County,27849.0,59757.0,170187.0,35431.0,49448.0,20055.0,20804.0,20779.0,13063.0,7077.0,2987.0,421.0,122.0
885222,County,2020/10/04,6.0,CA,6045.0,Mendocino County,27994.0,59612.0,150733.0,35331.0,38151.0,18674.0,15797.0,19075.0,12443.0,7351.0,3366.0,348.0,197.0
888141,County,2020/10/05,6.0,CA,6045.0,Mendocino County,25890.0,61716.0,224574.0,85744.0,49544.0,23915.0,16966.0,24602.0,13243.0,6776.0,3294.0,319.0,171.0
891622,County,2020/10/06,6.0,CA,6045.0,Mendocino County,25988.0,61618.0,404836.0,224852.0,91203.0,20090.0,19424.0,23375.0,13762.0,8542.0,2932.0,525.0,131.0
895069,County,2020/10/07,6.0,CA,6045.0,Mendocino County,24996.0,62610.0,197217.0,51647.0,52459.0,21756.0,19673.0,23568.0,16166.0,7852.0,3485.0,510.0,101.0
897749,County,2020/10/08,6.0,CA,6045.0,Mendocino County,24952.0,62654.0,179903.0,44049.0,45250.0,23128.0,21524.0,22989.0,13114.0,5889.0,3291.0,559.0,110.0
900917,County,2020/10/09,6.0,CA,6045.0,Mendocino County,24445.0,63161.0,194133.0,41603.0,56133.0,22276.0,21175.0,24246.0,16443.0,8815.0,3038.0,301.0,103.0
904058,County,2020/10/10,6.0,CA,6045.0,Mendocino County,26694.0,60912.0,170714.0,34388.0,47189.0,20261.0,19733.0,26289.0,12803.0,7342.0,2107.0,452.0,150.0
907173,County,2020/10/11,6.0,CA,6045.0,Mendocino County,27364.0,60242.0,162591.0,33181.0,44480.0,20822.0,15998.0,20499.0,15110.0,8604.0,3337.0,472.0,88.0
913207,County,2020/10/12,6.0,CA,6045.0,Mendocino County,26224.0,61382.0,166554.0,37849.0,45346.0,18277.0,19643.0,20994.0,11329.0,8530.0,4065.0,439.0,82.0
916476,County,2020/10/13,6.0,CA,6045.0,Mendocino County,25774.0,61832.0,172127.0,40047.0,47974.0,20916.0,20157.0,20745.0,12765.0,6075.0,2671.0,644.0,133.0
919556,County,2020/10/14,6.0,CA,6045.0,Mendocino County,24612.0,62994.0,187014.0,45953.0,46959.0,22228.0,19989.0,27222.0,13129.0,7522.0,3487.0,414.0,111.0
922907,County,2020/10/15,6.0,CA,6045.0,Mendocino County,25128.0,62478.0,161502.0,32331.0,45877.0,18539.0,19656.0,23504.0,10931.0,7183.0,2901.0,446.0,134.0
925986,County,2020/10/16,6.0,CA,6045.0,Mendocino County,24533.0,63073.0,178430.0,42558.0,44043.0,19452.0,22523.0,25046.0,12842.0,7702.0,3696.0,447.0,121.0
929123,County,2020/10/17,6.0,CA,6045.0,Mendocino County,26355.0,61251.0,185965.0,49194.0,50882.0,22973.0,15381.0,24992.0,11677.0,7361.0,2941.0,439.0,125.0
932421,County,2020/10/18,6.0,CA,6045.0,Mendocino County,26479.0,61127.0,155969.0,32516.0,40582.0,19626.0,18208.0,19243.0,11983.0,8758.0,4685.0,261.0,107.0
935593,County,2020/10/19,6.0,CA,6045.0,Mendocino County,26102.0,61504.0,169867.0,38254.0,46804.0,25204.0,17460.0,19118.0,11103.0,7932.0,3438.0,438.0,116.0
938588,County,2020/10/20,6.0,CA,6045.0,Mendocino County,26465.0,61141.0,174213.0,36000.0,48870.0,21964.0,19354.0,22641.0,13053.0,8219.0,3652.0,362.0,98.0
941671,County,2020/10/21,6.0,CA,6045.0,Mendocino County,26898.0,60708.0,169965.0,37999.0,48367.0,20586.0,18760.0,21215.0,12379.0,6586.0,3370.0,600.0,103.0
944195,County,2020/10/22,6.0,CA,6045.0,Mendocino County,25577.0,62029.0,183736.0,39032.0,53016.0,22255.0,20798.0,24931.0,12378.0,7033.0,3761.0,453.0,79.0
947807,County,2020/10/23,6.0,CA,6045.0,Mendocino County,24854.0,62752.0,193530.0,45941.0,54663.0,22650.0,23118.0,23103.0,13247.0,6571.0,3736.0,378.0,123.0
951526,County,2020/10/24,6.0,CA,6045.0,Mendocino County,26856.0,60750.0,195852.0,49458.0,57773.0,22893.0,18202.0,22912.0,14575.0,6660.0,3094.0,189.0,96.0
