,Level,Date,State FIPS,State Postal Code,County FIPS,County Name,Population Staying at Home,Population Not Staying at Home,Number of Trips,Number of Trips <1,Number of Trips 1-3,Number of Trips 3-5,Number of Trips 5-10,Number of Trips 10-25,Number of Trips 25-50,Number of Trips 50-100,Number of Trips 100-250,Number of Trips 250-500,Number of Trips >=500
2675,County,2020/01/01,48.0,TX,48307.0,McCulloch County,1986.0,6001.0,17293.0,3422.0,5620.0,1524.0,2631.0,2033.0,880.0,817.0,285.0,70.0,11.0
4350,County,2020/01/02,48.0,TX,48307.0,McCulloch County,1815.0,6172.0,23618.0,5987.0,8252.0,1667.0,1931.0,3097.0,1404.0,891.0,299.0,88.0,2.0
9013,County,2020/01/03,48.0,TX,48307.0,McCulloch County,1614.0,6373.0,23533.0,6622.0,7767.0,2056.0,2142.0,2728.0,825.0,1159.0,193.0,39.0,2.0
10449,County,2020/01/04,48.0,TX,48307.0,McCulloch County,1943.0,6044.0,22989.0,5772.0,7269.0,2338.0,2879.0,2124.0,919.0,1252.0,372.0,61.0,3.0
15451,County,2020/01/05,48.0,TX,48307.0,McCulloch County,1873.0,6114.0,20937.0,5872.0,6613.0,1911.0,2262.0,1932.0,836.0,1010.0,440.0,56.0,5.0
18889,County,2020/01/06,48.0,TX,48307.0,McCulloch County,1737.0,6250.0,21834.0,5365.0,6856.0,1451.0,2088.0,2792.0,1415.0,1458.0,328.0,72.0,9.0
22084,County,2020/01/07,48.0,TX,48307.0,McCulloch County,1776.0,6211.0,24018.0,5761.0,7250.0,2538.0,2688.0,3049.0,1172.0,1123.0,404.0,20.0,13.0
23759,County,2020/01/08,48.0,TX,48307.0,McCulloch County,1668.0,6319.0,22610.0,5629.0,7284.0,1805.0,2520.0,2459.0,1349.0,1143.0,366.0,50.0,5.0
28459,County,2020/01/09,48.0,TX,48307.0,McCulloch County,1626.0,6361.0,24432.0,5436.0,9265.0,1959.0,1664.0,3594.0,1121.0,965.0,358.0,66.0,4.0
31666,County,2020/01/10,48.0,TX,48307.0,McCulloch County,1516.0,6471.0,26762.0,7461.0,8100.0,2087.0,2381.0,3361.0,1447.0,1454.0,390.0,77.0,4.0
33343,County,2020/01/11,48.0,TX,48307.0,McCulloch County,1771.0,6216.0,25194.0,6305.0,7472.0,1737.0,3190.0,3221.0,1513.0,1387.0,297.0,72.0,0.0
36499,County,2020/01/12,48.0,TX,48307.0,McCulloch County,1869.0,6118.0,20923.0,6165.0,6465.0,1882.0,1489.0,2396.0,941.0,1166.0,288.0,123.0,8.0
39692,County,2020/01/13,48.0,TX,48307.0,McCulloch County,1596.0,6391.0,23999.0,4982.0,8533.0,1979.0,2344.0,3164.0,1819.0,776.0,333.0,67.0,2.0
44425,County,2020/01/14,48.0,TX,48307.0,McCulloch County,1712.0,6275.0,23694.0,5480.0,7735.0,1880.0,2263.0,3194.0,1725.0,1007.0,329.0,79.0,2.0
47631,County,2020/01/15,48.0,TX,48307.0,McCulloch County,1649.0,6338.0,24520.0,6674.0,8402.0,1744.0,2140.0,3116.0,1332.0,772.0,310.0,26.0,4.0
49160,County,2020/01/16,48.0,TX,48307.0,McCulloch County,1644.0,6343.0,20973.0,4579.0,7330.0,1876.0,1541.0,2703.0,1413.0,1087.0,367.0,70.0,7.0
52415,County,2020/01/17,48.0,TX,48307.0,McCulloch County,1713.0,6274.0,23771.0,5447.0,8745.0,1929.0,2264.0,2929.0,1187.0,964.0,214.0,88.0,4.0
57196,County,2020/01/18,48.0,TX,48307.0,McCulloch County,2014.0,5973.0,23935.0,6520.0,8082.0,1554.0,2775.0,2398.0,1160.0,1109.0,290.0,42.0,5.0
60394,County,2020/01/19,48.0,TX,48307.0,McCulloch County,1970.0,6017.0,21307.0,5742.0,6289.0,2364.0,2682.0,2335.0,601.0,844.0,373.0,75.0,2.0
62028,County,2020/01/20,48.0,TX,48307.0,McCulloch County,1637.0,6350.0,24755.0,6323.0,8211.0,2386.0,2477.0,3076.0,928.0,905.0,380.0,65.0,4.0
65234,County,2020/01/21,48.0,TX,48307.0,McCulloch County,1687.0,6300.0,24621.0,6511.0,7691.0,2223.0,2539.0,2508.0,1621.0,903.0,564.0,61.0,0.0
69994,County,2020/01/22,48.0,TX,48307.0,McCulloch County,1674.0,6313.0,23948.0,5661.0,8308.0,2014.0,2354.0,2853.0,1347.0,935.0,407.0,67.0,2.0
71620,County,2020/01/23,48.0,TX,48307.0,McCulloch County,1826.0,6161.0,24066.0,4848.0,9147.0,2314.0,2235.0,3117.0,1095.0,927.0,295.0,88.0,0.0
74767,County,2020/01/24,48.0,TX,48307.0,McCulloch County,1608.0,6379.0,26623.0,6475.0,7403.0,2600.0,2855.0,3925.0,1613.0,1199.0,461.0,92.0,0.0
78009,County,2020/01/25,48.0,TX,48307.0,McCulloch County,1745.0,6242.0,23539.0,6216.0,7738.0,2081.0,1822.0,2533.0,1348.0,1328.0,381.0,90.0,2.0
82525,County,2020/01/26,48.0,TX,48307.0,McCulloch County,1986.0,6001.0,22944.0,5068.0,8197.0,1752.0,2828.0,3013.0,876.0,796.0,378.0,31.0,5.0
83301,County,2020/01/27,48.0,TX,48307.0,McCulloch County,1759.0,6228.0,24899.0,6922.0,7148.0,2224.0,2237.0,3630.0,1178.0,1245.0,229.0,84.0,2.0
87654,County,2020/01/28,48.0,TX,48307.0,McCulloch County,1613.0,6374.0,24098.0,6064.0,8181.0,1716.0,2414.0,2974.0,1413.0,890.0,349.0,92.0,5.0
90760,County,2020/01/29,48.0,TX,48307.0,McCulloch County,1657.0,6330.0,27210.0,7516.0,8803.0,1835.0,2611.0,3849.0,1337.0,852.0,318.0,79.0,10.0
95545,County,2020/01/30,48.0,TX,48307.0,McCulloch County,1621.0,6366.0,26028.0,7028.0,7892.0,2141.0,2903.0,3290.0,1287.0,976.0,375.0,132.0,4.0
98739,County,2020/01/31,48.0,TX,48307.0,McCulloch County,1607.0,6380.0,28598.0,8732.0,9269.0,1952.0,2345.0,3399.0,1446.0,1002.0,357.0,94.0,2.0
101927,County,2020/02/01,48.0,TX,48307.0,McCulloch County,1779.0,6208.0,27869.0,8112.0,7374.0,1929.0,3348.0,3328.0,1601.0,1785.0,348.0,44.0,0.0
103496,County,2020/02/02,48.0,TX,48307.0,McCulloch County,1861.0,6126.0,20628.0,5514.0,6492.0,1485.0,1720.0,3169.0,1174.0,769.0,217.0,72.0,16.0
108332,County,2020/02/03,48.0,TX,48307.0,McCulloch County,1498.0,6489.0,24717.0,6262.0,7799.0,1861.0,2336.0,3398.0,1178.0,1266.0,449.0,162.0,6.0
109949,County,2020/02/04,48.0,TX,48307.0,McCulloch County,1476.0,6511.0,24792.0,6331.0,7088.0,1994.0,2995.0,3252.0,1541.0,1174.0,327.0,86.0,4.0
113095,County,2020/02/05,48.0,TX,48307.0,McCulloch County,1673.0,6314.0,21999.0,6066.0,7388.0,2000.0,1545.0,2414.0,947.0,1216.0,345.0,76.0,2.0
117877,County,2020/02/06,48.0,TX,48307.0,McCulloch County,1605.0,6382.0,27290.0,7202.0,8784.0,1849.0,3021.0,3295.0,1309.0,1331.0,401.0,88.0,10.0
121132,County,2020/02/07,48.0,TX,48307.0,McCulloch County,1552.0,6435.0,31224.0,8461.0,9675.0,2160.0,4132.0,3673.0,1325.0,1210.0,429.0,156.0,3.0
122750,County,2020/02/08,48.0,TX,48307.0,McCulloch County,1744.0,6243.0,25308.0,6776.0,8561.0,1806.0,2765.0,2913.0,938.0,1133.0,364.0,45.0,7.0
126691,County,2020/02/09,48.0,TX,48307.0,McCulloch County,1949.0,6038.0,20250.0,4700.0,7024.0,1955.0,2187.0,1967.0,846.0,1089.0,361.0,113.0,8.0
127841,County,2020/02/10,48.0,TX,48307.0,McCulloch County,1518.0,6469.0,27377.0,6631.0,8294.0,2487.0,3133.0,3677.0,1674.0,933.0,474.0,70.0,4.0
132798,County,2020/02/11,48.0,TX,48307.0,McCulloch County,1503.0,6484.0,27271.0,6991.0,7534.0,2177.0,3497.0,3912.0,1371.0,1327.0,338.0,112.0,12.0
137039,County,2020/02/12,48.0,TX,48307.0,McCulloch County,1589.0,6398.0,26684.0,7322.0,8360.0,2030.0,2353.0,3927.0,874.0,1299.0,393.0,105.0,21.0
140261,County,2020/02/13,48.0,TX,48307.0,McCulloch County,1516.0,6471.0,29283.0,8086.0,8985.0,2157.0,3544.0,3380.0,1458.0,1202.0,332.0,132.0,7.0
143464,County,2020/02/14,48.0,TX,48307.0,McCulloch County,1533.0,6454.0,31784.0,7822.0,10698.0,2457.0,3655.0,3896.0,1411.0,1302.0,453.0,73.0,17.0
145088,County,2020/02/15,48.0,TX,48307.0,McCulloch County,1804.0,6183.0,25402.0,6065.0,7651.0,1929.0,2784.0,3477.0,1529.0,1490.0,390.0,72.0,15.0
149822,County,2020/02/16,48.0,TX,48307.0,McCulloch County,2063.0,5924.0,25178.0,6410.0,7852.0,2276.0,2847.0,3172.0,935.0,1216.0,354.0,103.0,13.0
151453,County,2020/02/17,48.0,TX,48307.0,McCulloch County,2253.0,5734.0,22057.0,5414.0,7069.0,1739.0,2051.0,3068.0,1097.0,1307.0,231.0,66.0,15.0
156232,County,2020/02/18,48.0,TX,48307.0,McCulloch County,1657.0,6330.0,28432.0,6994.0,8996.0,1872.0,3457.0,3437.0,1793.0,1367.0,424.0,89.0,3.0
157860,County,2020/02/19,48.0,TX,48307.0,McCulloch County,1547.0,6440.0,24637.0,5777.0,7971.0,1775.0,2672.0,3432.0,1517.0,1005.0,397.0,82.0,9.0
162669,County,2020/02/20,48.0,TX,48307.0,McCulloch County,1596.0,6391.0,25706.0,6663.0,9265.0,2067.0,2480.0,2669.0,861.0,1042.0,525.0,126.0,8.0
164199,County,2020/02/21,48.0,TX,48307.0,McCulloch County,1726.0,6261.0,32940.0,7880.0,10878.0,2849.0,3955.0,4364.0,1463.0,1029.0,478.0,34.0,10.0
168959,County,2020/02/22,48.0,TX,48307.0,McCulloch County,1481.0,6506.0,27000.0,7157.0,7704.0,1925.0,3300.0,2853.0,1687.0,1597.0,607.0,166.0,4.0
170621,County,2020/02/23,48.0,TX,48307.0,McCulloch County,1911.0,6076.0,23512.0,5321.0,7749.0,2234.0,3041.0,3044.0,874.0,769.0,362.0,114.0,4.0
175402,County,2020/02/24,48.0,TX,48307.0,McCulloch County,1783.0,6204.0,32988.0,8636.0,10337.0,2491.0,3741.0,4628.0,1450.0,1310.0,345.0,36.0,14.0
178346,County,2020/02/25,48.0,TX,48307.0,McCulloch County,1415.0,6572.0,30946.0,7866.0,9281.0,2144.0,4732.0,4288.0,1542.0,702.0,259.0,110.0,22.0
181539,County,2020/02/26,48.0,TX,48307.0,McCulloch County,1335.0,6652.0,26651.0,5330.0,8654.0,3478.0,3632.0,3107.0,1353.0,671.0,313.0,103.0,10.0
184973,County,2020/02/27,48.0,TX,48307.0,McCulloch County,1439.0,6548.0,29897.0,6780.0,10132.0,2039.0,3289.0,4282.0,1572.0,1269.0,434.0,86.0,14.0
188171,County,2020/02/28,48.0,TX,48307.0,McCulloch County,1435.0,6552.0,30549.0,8564.0,9053.0,2214.0,3548.0,3463.0,1820.0,1311.0,483.0,82.0,11.0
191366,County,2020/02/29,48.0,TX,48307.0,McCulloch County,1620.0,6367.0,28391.0,7473.0,8793.0,2326.0,3239.0,2802.0,1589.0,1409.0,639.0,108.0,13.0
192991,County,2020/03/01,48.0,TX,48307.0,McCulloch County,1801.0,6186.0,21889.0,5796.0,6637.0,1680.0,2434.0,2863.0,984.0,1110.0,296.0,87.0,2.0
197740,County,2020/03/02,48.0,TX,48307.0,McCulloch County,1562.0,6425.0,26225.0,6118.0,8866.0,1720.0,3497.0,2961.0,1432.0,1191.0,381.0,54.0,5.0
199272,County,2020/03/03,48.0,TX,48307.0,McCulloch County,1300.0,6687.0,28595.0,7102.0,9561.0,2185.0,3280.0,3017.0,1782.0,1299.0,299.0,54.0,16.0
204151,County,2020/03/04,48.0,TX,48307.0,McCulloch County,1463.0,6524.0,25840.0,6265.0,8269.0,2216.0,2109.0,3677.0,1488.0,1294.0,441.0,70.0,11.0
205719,County,2020/03/05,48.0,TX,48307.0,McCulloch County,1339.0,6648.0,32096.0,7090.0,11552.0,2903.0,2802.0,4400.0,1845.0,1188.0,199.0,105.0,12.0
210570,County,2020/03/06,48.0,TX,48307.0,McCulloch County,1326.0,6661.0,31401.0,7293.0,9958.0,2763.0,3019.0,4854.0,1397.0,1527.0,499.0,79.0,12.0
213752,County,2020/03/07,48.0,TX,48307.0,McCulloch County,1491.0,6496.0,26626.0,7100.0,6630.0,2368.0,3185.0,3285.0,1578.0,1953.0,417.0,92.0,18.0
215354,County,2020/03/08,48.0,TX,48307.0,McCulloch County,1599.0,6388.0,22254.0,5188.0,6016.0,1996.0,2371.0,3713.0,1344.0,1064.0,421.0,125.0,16.0
220112,County,2020/03/09,48.0,TX,48307.0,McCulloch County,1358.0,6629.0,28417.0,6297.0,8671.0,2108.0,3555.0,3558.0,2194.0,1518.0,422.0,85.0,9.0
223305,County,2020/03/10,48.0,TX,48307.0,McCulloch County,1360.0,6627.0,28998.0,7560.0,6839.0,2672.0,4365.0,4061.0,1742.0,1467.0,207.0,74.0,11.0
226485,County,2020/03/11,48.0,TX,48307.0,McCulloch County,1290.0,6697.0,32411.0,7623.0,9332.0,3882.0,3749.0,3336.0,1908.0,1702.0,787.0,92.0,0.0
228163,County,2020/03/12,48.0,TX,48307.0,McCulloch County,1340.0,6647.0,37066.0,7722.0,12656.0,5527.0,4142.0,2360.0,2704.0,1247.0,588.0,120.0,0.0
231323,County,2020/03/13,48.0,TX,48307.0,McCulloch County,1299.0,6688.0,30593.0,7181.0,9492.0,3171.0,3276.0,3216.0,1916.0,1859.0,283.0,187.0,12.0
234376,County,2020/03/14,48.0,TX,48307.0,McCulloch County,1640.0,6347.0,24493.0,4475.0,6391.0,3058.0,2952.0,4584.0,1152.0,1370.0,391.0,111.0,9.0
239276,County,2020/03/15,48.0,TX,48307.0,McCulloch County,1805.0,6182.0,20387.0,4372.0,5492.0,2076.0,2420.0,3511.0,1011.0,842.0,570.0,90.0,3.0
240903,County,2020/03/16,48.0,TX,48307.0,McCulloch County,1659.0,6328.0,22986.0,5098.0,6474.0,1930.0,4410.0,2103.0,1309.0,1215.0,300.0,139.0,8.0
245662,County,2020/03/17,48.0,TX,48307.0,McCulloch County,1731.0,6256.0,23039.0,5330.0,7292.0,2056.0,2785.0,2217.0,1525.0,1367.0,370.0,89.0,8.0
248817,County,2020/03/18,48.0,TX,48307.0,McCulloch County,1977.0,6010.0,25697.0,5730.0,8890.0,2162.0,3364.0,2681.0,1495.0,975.0,283.0,117.0,0.0
250496,County,2020/03/19,48.0,TX,48307.0,McCulloch County,1806.0,6181.0,26093.0,7173.0,8091.0,1664.0,3039.0,3217.0,1437.0,1144.0,266.0,54.0,8.0
253681,County,2020/03/20,48.0,TX,48307.0,McCulloch County,1969.0,6018.0,25819.0,6484.0,9197.0,1675.0,2799.0,3336.0,800.0,1164.0,300.0,58.0,6.0
256824,County,2020/03/21,48.0,TX,48307.0,McCulloch County,2323.0,5664.0,21921.0,5183.0,8067.0,1833.0,2833.0,2054.0,782.0,821.0,268.0,73.0,7.0
261626,County,2020/03/22,48.0,TX,48307.0,McCulloch County,2158.0,5829.0,19348.0,4525.0,5888.0,2149.0,3367.0,1713.0,871.0,477.0,267.0,88.0,3.0
263264,County,2020/03/23,48.0,TX,48307.0,McCulloch County,1767.0,6220.0,22912.0,5123.0,7549.0,1797.0,2714.0,2805.0,1293.0,1263.0,341.0,24.0,3.0
268019,County,2020/03/24,48.0,TX,48307.0,McCulloch County,1789.0,6198.0,24667.0,6730.0,7988.0,1922.0,2712.0,2518.0,1295.0,1179.0,223.0,94.0,6.0
269649,County,2020/03/25,48.0,TX,48307.0,McCulloch County,1770.0,6217.0,22926.0,6119.0,7876.0,1330.0,2963.0,2462.0,1233.0,601.0,262.0,74.0,6.0
274390,County,2020/03/26,48.0,TX,48307.0,McCulloch County,1672.0,6315.0,23376.0,5399.0,8415.0,1937.0,2493.0,2947.0,1204.0,624.0,248.0,93.0,16.0
276030,County,2020/03/27,48.0,TX,48307.0,McCulloch County,1812.0,6175.0,23258.0,5608.0,8078.0,1216.0,2719.0,2790.0,1374.0,1156.0,228.0,81.0,8.0
280791,County,2020/03/28,48.0,TX,48307.0,McCulloch County,2042.0,5945.0,18922.0,4931.0,5120.0,1602.0,2173.0,2834.0,1194.0,716.0,281.0,49.0,22.0
282426,County,2020/03/29,48.0,TX,48307.0,McCulloch County,2130.0,5857.0,17014.0,3961.0,5445.0,1517.0,2564.0,1912.0,857.0,478.0,250.0,27.0,3.0
285571,County,2020/03/30,48.0,TX,48307.0,McCulloch County,1900.0,6087.0,20549.0,3841.0,5808.0,1835.0,3602.0,3116.0,1156.0,884.0,264.0,33.0,10.0
290374,County,2020/03/31,48.0,TX,48307.0,McCulloch County,1950.0,6037.0,20009.0,3760.0,5369.0,1282.0,2856.0,3852.0,1783.0,801.0,270.0,36.0,0.0
293573,County,2020/04/01,48.0,TX,48307.0,McCulloch County,1766.0,6221.0,22444.0,5051.0,7464.0,1990.0,2912.0,2794.0,1159.0,785.0,265.0,22.0,2.0
295202,County,2020/04/02,48.0,TX,48307.0,McCulloch County,1997.0,5990.0,23058.0,5350.0,7984.0,1759.0,2744.0,3043.0,994.0,739.0,390.0,49.0,6.0
299962,County,2020/04/03,48.0,TX,48307.0,McCulloch County,1824.0,6163.0,19893.0,5330.0,6247.0,1689.0,1894.0,2487.0,1324.0,549.0,314.0,59.0,0.0
303142,County,2020/04/04,48.0,TX,48307.0,McCulloch County,2177.0,5810.0,17016.0,3881.0,5372.0,1776.0,1929.0,2117.0,1003.0,621.0,304.0,13.0,0.0
306342,County,2020/04/05,48.0,TX,48307.0,McCulloch County,2262.0,5725.0,15557.0,4394.0,4592.0,1392.0,1547.0,2528.0,524.0,319.0,185.0,76.0,0.0
309544,County,2020/04/06,48.0,TX,48307.0,McCulloch County,1910.0,6077.0,23436.0,6129.0,6770.0,1720.0,3450.0,2254.0,1720.0,1000.0,345.0,48.0,0.0
311171,County,2020/04/07,48.0,TX,48307.0,McCulloch County,1992.0,5995.0,24313.0,5728.0,7494.0,1914.0,3117.0,3120.0,1739.0,883.0,288.0,27.0,3.0
314366,County,2020/04/08,48.0,TX,48307.0,McCulloch County,1939.0,6048.0,23578.0,5527.0,6912.0,1420.0,3702.0,3531.0,1444.0,805.0,195.0,39.0,3.0
319077,County,2020/04/09,48.0,TX,48307.0,McCulloch County,1766.0,6221.0,19466.0,4498.0,5909.0,1153.0,2462.0,2771.0,1338.0,892.0,333.0,110.0,0.0
320761,County,2020/04/10,48.0,TX,48307.0,McCulloch County,1934.0,6053.0,21504.0,5376.0,6104.0,2172.0,3604.0,2266.0,767.0,998.0,205.0,12.0,0.0
325514,County,2020/04/11,48.0,TX,48307.0,McCulloch County,2020.0,5967.0,20117.0,4986.0,6264.0,2169.0,2793.0,2513.0,654.0,547.0,178.0,13.0,0.0
328681,County,2020/04/12,48.0,TX,48307.0,McCulloch County,2348.0,5639.0,14558.0,3021.0,3671.0,1860.0,2957.0,2137.0,371.0,245.0,240.0,53.0,3.0
331903,County,2020/04/13,48.0,TX,48307.0,McCulloch County,1950.0,6037.0,21052.0,4721.0,7204.0,1371.0,2787.0,3048.0,1101.0,515.0,198.0,104.0,3.0
333481,County,2020/04/14,48.0,TX,48307.0,McCulloch County,1885.0,6102.0,21042.0,7362.0,4916.0,1490.0,1582.0,3146.0,1431.0,626.0,408.0,81.0,0.0
338281,County,2020/04/15,48.0,TX,48307.0,McCulloch County,1973.0,6014.0,23016.0,6436.0,6658.0,1460.0,1989.0,4563.0,1067.0,360.0,376.0,93.0,14.0
341425,County,2020/04/16,48.0,TX,48307.0,McCulloch County,2087.0,5900.0,27704.0,10395.0,6252.0,1360.0,4315.0,3177.0,1098.0,816.0,213.0,70.0,8.0
343209,County,2020/04/17,48.0,TX,48307.0,McCulloch County,1803.0,6184.0,21034.0,6412.0,6911.0,1047.0,1887.0,2378.0,1420.0,528.0,345.0,101.0,5.0
347835,County,2020/04/18,48.0,TX,48307.0,McCulloch County,2130.0,5857.0,22690.0,6947.0,6010.0,2013.0,3703.0,2612.0,975.0,161.0,158.0,104.0,7.0
351066,County,2020/04/19,48.0,TX,48307.0,McCulloch County,1967.0,6020.0,21576.0,8043.0,5608.0,1917.0,2188.0,2137.0,886.0,512.0,239.0,32.0,14.0
352692,County,2020/04/20,48.0,TX,48307.0,McCulloch County,1790.0,6197.0,27675.0,8177.0,9713.0,1320.0,3332.0,2766.0,1261.0,682.0,334.0,73.0,17.0
357453,County,2020/04/21,48.0,TX,48307.0,McCulloch County,1716.0,6271.0,23500.0,5663.0,7343.0,1944.0,2383.0,3414.0,1563.0,1005.0,144.0,41.0,0.0
359081,County,2020/04/22,48.0,TX,48307.0,McCulloch County,1758.0,6229.0,24744.0,7309.0,6871.0,1547.0,2910.0,3351.0,1569.0,833.0,261.0,86.0,7.0
362187,County,2020/04/23,48.0,TX,48307.0,McCulloch County,1570.0,6417.0,33002.0,9585.0,10496.0,2795.0,4381.0,3202.0,1328.0,919.0,267.0,29.0,0.0
365440,County,2020/04/24,48.0,TX,48307.0,McCulloch County,1632.0,6355.0,29554.0,8816.0,9666.0,2528.0,2479.0,3772.0,1269.0,809.0,176.0,29.0,10.0
368608,County,2020/04/25,48.0,TX,48307.0,McCulloch County,1818.0,6169.0,24864.0,6169.0,6817.0,2166.0,3502.0,3776.0,1423.0,762.0,249.0,0.0,0.0
371774,County,2020/04/26,48.0,TX,48307.0,McCulloch County,2055.0,5932.0,23587.0,7862.0,6718.0,1926.0,2125.0,2474.0,1430.0,786.0,181.0,80.0,5.0
375051,County,2020/04/27,48.0,TX,48307.0,McCulloch County,1829.0,6158.0,25686.0,6542.0,8460.0,2001.0,1610.0,3976.0,1554.0,1330.0,183.0,30.0,0.0
378202,County,2020/04/28,48.0,TX,48307.0,McCulloch County,1857.0,6130.0,28102.0,7945.0,9886.0,2038.0,2361.0,3110.0,1520.0,959.0,224.0,59.0,0.0
381454,County,2020/04/29,48.0,TX,48307.0,McCulloch County,1662.0,6325.0,25694.0,6071.0,8952.0,2495.0,2906.0,3184.0,1029.0,765.0,239.0,43.0,10.0
384601,County,2020/04/30,48.0,TX,48307.0,McCulloch County,1752.0,6235.0,29128.0,9210.0,8824.0,2298.0,2560.0,4095.0,1099.0,780.0,194.0,64.0,4.0
389387,County,2020/05/01,48.0,TX,48307.0,McCulloch County,1683.0,6304.0,30376.0,8682.0,9096.0,2407.0,3973.0,3809.0,1360.0,815.0,192.0,42.0,0.0
392587,County,2020/05/02,48.0,TX,48307.0,McCulloch County,1858.0,6129.0,28172.0,9765.0,7444.0,2558.0,2964.0,3169.0,1209.0,703.0,306.0,50.0,4.0
394222,County,2020/05/03,48.0,TX,48307.0,McCulloch County,2039.0,5948.0,20660.0,6525.0,5935.0,1580.0,3473.0,1114.0,924.0,641.0,448.0,20.0,0.0
398976,County,2020/05/04,48.0,TX,48307.0,McCulloch County,1712.0,6275.0,25936.0,7509.0,8050.0,1845.0,2533.0,2961.0,1668.0,1033.0,337.0,0.0,0.0
400603,County,2020/05/05,48.0,TX,48307.0,McCulloch County,1662.0,6325.0,25350.0,5802.0,7777.0,2103.0,2858.0,3875.0,1188.0,1538.0,192.0,14.0,3.0
405358,County,2020/05/06,48.0,TX,48307.0,McCulloch County,1716.0,6271.0,27890.0,7743.0,9428.0,1707.0,3511.0,2932.0,880.0,1402.0,244.0,40.0,3.0
406984,County,2020/05/07,48.0,TX,48307.0,McCulloch County,1749.0,6238.0,28659.0,7959.0,9368.0,2210.0,2575.0,3479.0,1550.0,1184.0,293.0,41.0,0.0
410289,County,2020/05/08,48.0,TX,48307.0,McCulloch County,1663.0,6324.0,27791.0,8640.0,9409.0,1368.0,2569.0,3108.0,1160.0,1245.0,209.0,83.0,0.0
414911,County,2020/05/09,48.0,TX,48307.0,McCulloch County,2039.0,5948.0,25183.0,7809.0,7678.0,1474.0,3025.0,2637.0,833.0,1470.0,253.0,0.0,4.0
418091,County,2020/05/10,48.0,TX,48307.0,McCulloch County,1870.0,6117.0,22466.0,5998.0,6477.0,1867.0,3513.0,2153.0,757.0,1448.0,236.0,17.0,0.0
421322,County,2020/05/11,48.0,TX,48307.0,McCulloch County,1564.0,6423.0,26123.0,8158.0,8431.0,1703.0,2878.0,2514.0,1176.0,1053.0,182.0,26.0,2.0
423000,County,2020/05/12,48.0,TX,48307.0,McCulloch County,1666.0,6321.0,25106.0,7701.0,8105.0,1862.0,2472.0,2379.0,1315.0,1017.0,179.0,76.0,0.0
427722,County,2020/05/13,48.0,TX,48307.0,McCulloch County,1627.0,6360.0,24971.0,6819.0,8470.0,1656.0,2741.0,2708.0,1176.0,954.0,402.0,43.0,2.0
430916,County,2020/05/14,48.0,TX,48307.0,McCulloch County,1679.0,6308.0,26091.0,7471.0,8509.0,2063.0,2608.0,3045.0,1027.0,1073.0,242.0,53.0,0.0
434090,County,2020/05/15,48.0,TX,48307.0,McCulloch County,1500.0,6487.0,26279.0,7034.0,9387.0,1512.0,2535.0,3009.0,1708.0,735.0,284.0,72.0,3.0
435768,County,2020/05/16,48.0,TX,48307.0,McCulloch County,1679.0,6308.0,24459.0,6186.0,8582.0,2511.0,3216.0,1885.0,955.0,968.0,126.0,28.0,2.0
440452,County,2020/05/17,48.0,TX,48307.0,McCulloch County,1662.0,6325.0,25699.0,6292.0,7454.0,2464.0,3399.0,2958.0,1724.0,1183.0,161.0,64.0,0.0
443692,County,2020/05/18,48.0,TX,48307.0,McCulloch County,1462.0,6525.0,32357.0,8137.0,10050.0,2971.0,3634.0,4386.0,1847.0,957.0,299.0,72.0,4.0
445320,County,2020/05/19,48.0,TX,48307.0,McCulloch County,1305.0,6682.0,31288.0,7391.0,9272.0,2994.0,4625.0,3389.0,1561.0,1547.0,455.0,50.0,4.0
448487,County,2020/05/20,48.0,TX,48307.0,McCulloch County,1155.0,6832.0,29270.0,7910.0,9093.0,2642.0,2916.0,3857.0,1322.0,1173.0,269.0,82.0,6.0
453266,County,2020/05/21,48.0,TX,48307.0,McCulloch County,1343.0,6644.0,27600.0,7426.0,8739.0,2324.0,3311.0,2544.0,1464.0,1344.0,376.0,69.0,3.0
456467,County,2020/05/22,48.0,TX,48307.0,McCulloch County,1346.0,6641.0,31271.0,9196.0,9528.0,2264.0,3301.0,3399.0,1775.0,1319.0,431.0,50.0,8.0
458090,County,2020/05/23,48.0,TX,48307.0,McCulloch County,1609.0,6378.0,28745.0,10321.0,8240.0,2118.0,3214.0,2474.0,969.0,1101.0,249.0,55.0,4.0
461258,County,2020/05/24,48.0,TX,48307.0,McCulloch County,1662.0,6325.0,20196.0,6023.0,6165.0,1839.0,2220.0,1801.0,974.0,740.0,389.0,42.0,3.0
464461,County,2020/05/25,48.0,TX,48307.0,McCulloch County,1621.0,6366.0,20465.0,4935.0,6839.0,1913.0,2655.0,1846.0,788.0,1054.0,404.0,29.0,2.0
469242,County,2020/05/26,48.0,TX,48307.0,McCulloch County,1605.0,6382.0,28514.0,7772.0,10130.0,2173.0,3288.0,2870.0,1114.0,866.0,283.0,16.0,2.0
472433,County,2020/05/27,48.0,TX,48307.0,McCulloch County,1513.0,6474.0,25691.0,6329.0,8166.0,1827.0,3691.0,2634.0,1536.0,1160.0,315.0,31.0,2.0
475632,County,2020/05/28,48.0,TX,48307.0,McCulloch County,1576.0,6411.0,25386.0,5953.0,8125.0,2012.0,3266.0,3355.0,1427.0,953.0,200.0,93.0,2.0
477212,County,2020/05/29,48.0,TX,48307.0,McCulloch County,1727.0,6260.0,25319.0,6321.0,8038.0,2184.0,3298.0,2213.0,1740.0,1105.0,369.0,51.0,0.0
480399,County,2020/05/30,48.0,TX,48307.0,McCulloch County,1580.0,6407.0,31179.0,8240.0,9294.0,2849.0,4933.0,3079.0,1887.0,578.0,269.0,47.0,3.0
483527,County,2020/05/31,48.0,TX,48307.0,McCulloch County,1789.0,6198.0,23008.0,6227.0,6548.0,2099.0,3040.0,2771.0,1112.0,854.0,342.0,12.0,3.0
488467,County,2020/06/01,48.0,TX,48307.0,McCulloch County,1650.0,6337.0,24644.0,6543.0,8072.0,1910.0,3082.0,2816.0,1153.0,901.0,158.0,9.0,0.0
491574,County,2020/06/02,48.0,TX,48307.0,McCulloch County,1724.0,6263.0,24747.0,6632.0,7330.0,1958.0,2596.0,3664.0,1387.0,933.0,208.0,32.0,7.0
493203,County,2020/06/03,48.0,TX,48307.0,McCulloch County,1474.0,6513.0,29099.0,6469.0,9992.0,2487.0,3759.0,3573.0,1558.0,976.0,222.0,59.0,4.0
497978,County,2020/06/04,48.0,TX,48307.0,McCulloch County,1353.0,6634.0,24723.0,6205.0,8183.0,2140.0,2382.0,2813.0,1422.0,1353.0,166.0,55.0,4.0
499618,County,2020/06/05,48.0,TX,48307.0,McCulloch County,1454.0,6533.0,30251.0,8940.0,10830.0,2300.0,2979.0,2752.0,888.0,1319.0,231.0,0.0,12.0
504342,County,2020/06/06,48.0,TX,48307.0,McCulloch County,1883.0,6104.0,27350.0,7575.0,8225.0,2273.0,4236.0,2337.0,1307.0,1038.0,284.0,72.0,3.0
507543,County,2020/06/07,48.0,TX,48307.0,McCulloch County,1601.0,6386.0,21928.0,5003.0,7988.0,1806.0,2003.0,2461.0,998.0,904.0,675.0,84.0,6.0
510753,County,2020/06/08,48.0,TX,48307.0,McCulloch County,1293.0,6694.0,32270.0,9767.0,10394.0,1743.0,4183.0,3155.0,1801.0,732.0,423.0,54.0,18.0
512382,County,2020/06/09,48.0,TX,48307.0,McCulloch County,1585.0,6402.0,29007.0,8243.0,9019.0,1780.0,3257.0,3575.0,1518.0,1207.0,343.0,57.0,8.0
517163,County,2020/06/10,48.0,TX,48307.0,McCulloch County,1448.0,6539.0,30383.0,10350.0,9301.0,2200.0,2678.0,3245.0,1294.0,962.0,298.0,55.0,0.0
520320,County,2020/06/11,48.0,TX,48307.0,McCulloch County,1377.0,6610.0,31235.0,9869.0,10040.0,2101.0,2582.0,3235.0,1665.0,1421.0,239.0,79.0,4.0
523542,County,2020/06/12,48.0,TX,48307.0,McCulloch County,1525.0,6462.0,31632.0,9602.0,9922.0,2347.0,3229.0,3199.0,1635.0,1161.0,459.0,70.0,8.0
526729,County,2020/06/13,48.0,TX,48307.0,McCulloch County,1517.0,6470.0,27798.0,7753.0,9152.0,2368.0,3370.0,2632.0,1268.0,916.0,325.0,11.0,3.0
528364,County,2020/06/14,48.0,TX,48307.0,McCulloch County,1457.0,6530.0,21883.0,6806.0,5381.0,1588.0,1972.0,2744.0,1763.0,1286.0,280.0,51.0,12.0
533124,County,2020/06/15,48.0,TX,48307.0,McCulloch County,1582.0,6405.0,24865.0,5741.0,7420.0,2005.0,3540.0,3435.0,1230.0,1299.0,141.0,52.0,2.0
534751,County,2020/06/16,48.0,TX,48307.0,McCulloch County,1390.0,6597.0,25658.0,7239.0,8178.0,1940.0,2583.0,3002.0,1304.0,1035.0,316.0,57.0,4.0
539463,County,2020/06/17,48.0,TX,48307.0,McCulloch County,1452.0,6535.0,26449.0,6796.0,9526.0,1673.0,2918.0,2978.0,1189.0,1020.0,311.0,29.0,9.0
542657,County,2020/06/18,48.0,TX,48307.0,McCulloch County,1313.0,6674.0,24371.0,7079.0,7193.0,1717.0,2617.0,2739.0,1531.0,1062.0,372.0,57.0,4.0
545859,County,2020/06/19,48.0,TX,48307.0,McCulloch County,1431.0,6556.0,21666.0,5541.0,7008.0,1156.0,2232.0,2637.0,1420.0,1309.0,276.0,73.0,14.0
549094,County,2020/06/20,48.0,TX,48307.0,McCulloch County,1471.0,6516.0,23124.0,6657.0,7671.0,1504.0,2271.0,2310.0,1205.0,1194.0,285.0,20.0,7.0
552232,County,2020/06/21,48.0,TX,48307.0,McCulloch County,1805.0,6182.0,17723.0,5674.0,5507.0,1032.0,1196.0,1641.0,1244.0,983.0,396.0,50.0,0.0
555474,County,2020/06/22,48.0,TX,48307.0,McCulloch County,1624.0,6363.0,19876.0,4976.0,7021.0,1452.0,2417.0,1944.0,849.0,820.0,357.0,36.0,4.0
557102,County,2020/06/23,48.0,TX,48307.0,McCulloch County,1565.0,6422.0,23112.0,5077.0,9121.0,1503.0,2481.0,2577.0,1096.0,957.0,226.0,70.0,4.0
561870,County,2020/06/24,48.0,TX,48307.0,McCulloch County,1514.0,6473.0,23744.0,6126.0,7939.0,1647.0,2727.0,2779.0,1152.0,1098.0,201.0,66.0,9.0
563498,County,2020/06/25,48.0,TX,48307.0,McCulloch County,1554.0,6433.0,23538.0,6786.0,7597.0,1687.0,2319.0,2377.0,937.0,1489.0,282.0,62.0,2.0
568294,County,2020/06/26,48.0,TX,48307.0,McCulloch County,1480.0,6507.0,25278.0,7687.0,7874.0,1991.0,3109.0,2114.0,827.0,1180.0,401.0,85.0,10.0
571444,County,2020/06/27,48.0,TX,48307.0,McCulloch County,1542.0,6445.0,26109.0,7556.0,7320.0,1531.0,3982.0,2937.0,1377.0,1050.0,274.0,79.0,3.0
573068,County,2020/06/28,48.0,TX,48307.0,McCulloch County,1913.0,6074.0,20807.0,5855.0,6795.0,1336.0,2507.0,1820.0,1342.0,810.0,285.0,54.0,3.0
576226,County,2020/06/29,48.0,TX,48307.0,McCulloch County,1791.0,6196.0,23380.0,7142.0,7903.0,1976.0,1488.0,1689.0,1665.0,1069.0,367.0,73.0,8.0
581038,County,2020/06/30,48.0,TX,48307.0,McCulloch County,1812.0,6175.0,23889.0,6973.0,6447.0,1919.0,2964.0,2614.0,1734.0,967.0,230.0,38.0,3.0
584229,County,2020/07/01,48.0,TX,48307.0,McCulloch County,1649.0,6338.0,21531.0,6100.0,6927.0,1472.0,1996.0,2262.0,1664.0,895.0,155.0,45.0,15.0
585829,County,2020/07/02,48.0,TX,48307.0,McCulloch County,1637.0,6350.0,24983.0,7203.0,8063.0,1791.0,2461.0,2523.0,995.0,1580.0,299.0,66.0,2.0
590620,County,2020/07/03,48.0,TX,48307.0,McCulloch County,1954.0,6033.0,25136.0,7644.0,7830.0,1980.0,3091.0,2102.0,822.0,1173.0,399.0,85.0,10.0
593805,County,2020/07/04,48.0,TX,48307.0,McCulloch County,1917.0,6070.0,21504.0,6539.0,6698.0,1694.0,2645.0,1798.0,704.0,1004.0,341.0,72.0,9.0
596972,County,2020/07/05,48.0,TX,48307.0,McCulloch County,1729.0,6258.0,21177.0,7169.0,6632.0,2047.0,2050.0,1188.0,814.0,796.0,437.0,41.0,3.0
598113,County,2020/07/06,48.0,TX,48307.0,McCulloch County,1829.0,6158.0,19668.0,4567.0,6337.0,1512.0,2219.0,2184.0,1606.0,965.0,199.0,77.0,2.0
601727,County,2020/07/07,48.0,TX,48307.0,McCulloch County,1892.0,6095.0,20382.0,5261.0,6986.0,1555.0,2336.0,1962.0,1139.0,943.0,158.0,42.0,0.0
606536,County,2020/07/08,48.0,TX,48307.0,McCulloch County,1632.0,6355.0,19993.0,5781.0,6534.0,1151.0,1736.0,2564.0,825.0,1062.0,262.0,71.0,7.0
608213,County,2020/07/09,48.0,TX,48307.0,McCulloch County,1699.0,6288.0,24719.0,6851.0,7648.0,1842.0,3098.0,2632.0,1276.0,1098.0,261.0,11.0,2.0
611413,County,2020/07/10,48.0,TX,48307.0,McCulloch County,1693.0,6294.0,23348.0,5827.0,9095.0,1392.0,2633.0,2016.0,1016.0,975.0,350.0,42.0,2.0
616161,County,2020/07/11,48.0,TX,48307.0,McCulloch County,1880.0,6107.0,22265.0,6928.0,6959.0,1687.0,2411.0,2069.0,953.0,935.0,278.0,37.0,8.0
619349,County,2020/07/12,48.0,TX,48307.0,McCulloch County,1816.0,6171.0,20136.0,6029.0,6284.0,1358.0,1919.0,1850.0,1198.0,918.0,527.0,48.0,5.0
622555,County,2020/07/13,48.0,TX,48307.0,McCulloch County,1616.0,6371.0,20959.0,5033.0,7445.0,1768.0,2178.0,1828.0,1378.0,999.0,234.0,88.0,8.0
625749,County,2020/07/14,48.0,TX,48307.0,McCulloch County,1667.0,6320.0,25502.0,7539.0,8032.0,1672.0,2883.0,2401.0,1552.0,1053.0,360.0,0.0,10.0
628921,County,2020/07/15,48.0,TX,48307.0,McCulloch County,1625.0,6362.0,22183.0,5590.0,7931.0,1487.0,2513.0,2243.0,1110.0,981.0,233.0,86.0,9.0
632188,County,2020/07/16,48.0,TX,48307.0,McCulloch County,1589.0,6398.0,23089.0,6933.0,8079.0,1702.0,2076.0,1993.0,1181.0,802.0,278.0,43.0,2.0
635283,County,2020/07/17,48.0,TX,48307.0,McCulloch County,1758.0,6229.0,23247.0,7255.0,6765.0,1524.0,2662.0,2323.0,1640.0,823.0,239.0,13.0,3.0
636960,County,2020/07/18,48.0,TX,48307.0,McCulloch County,1802.0,6185.0,21436.0,5405.0,7599.0,2116.0,2644.0,1866.0,844.0,732.0,182.0,45.0,3.0
640115,County,2020/07/19,48.0,TX,48307.0,McCulloch County,2042.0,5945.0,18673.0,5454.0,5755.0,1786.0,1971.0,1913.0,817.0,679.0,233.0,62.0,3.0
644897,County,2020/07/20,48.0,TX,48307.0,McCulloch County,1840.0,6147.0,20585.0,4446.0,7788.0,2139.0,1508.0,1990.0,1266.0,1027.0,373.0,37.0,11.0
646525,County,2020/07/21,48.0,TX,48307.0,McCulloch County,1683.0,6304.0,23812.0,7050.0,7815.0,1362.0,2511.0,2362.0,1399.0,910.0,323.0,67.0,13.0
649206,County,2020/07/22,48.0,TX,48307.0,McCulloch County,1673.0,6314.0,23709.0,7048.0,8013.0,1179.0,2331.0,2563.0,1269.0,943.0,354.0,0.0,9.0
652844,County,2020/07/23,48.0,TX,48307.0,McCulloch County,1720.0,6267.0,22212.0,6075.0,8067.0,1350.0,2259.0,2084.0,1118.0,932.0,263.0,54.0,10.0
657769,County,2020/07/24,48.0,TX,48307.0,McCulloch County,1620.0,6367.0,23669.0,6115.0,7846.0,1174.0,2987.0,2888.0,1230.0,1155.0,251.0,21.0,2.0
660938,County,2020/07/25,48.0,TX,48307.0,McCulloch County,1616.0,6371.0,22060.0,6156.0,6640.0,1677.0,2119.0,2160.0,1654.0,1152.0,401.0,88.0,13.0
664019,County,2020/07/26,48.0,TX,48307.0,McCulloch County,1706.0,6281.0,20333.0,4645.0,6537.0,1801.0,2719.0,2186.0,1184.0,907.0,252.0,83.0,19.0
667292,County,2020/07/27,48.0,TX,48307.0,McCulloch County,1679.0,6308.0,24085.0,6395.0,8909.0,1576.0,1619.0,3062.0,947.0,1099.0,441.0,37.0,0.0
670446,County,2020/07/28,48.0,TX,48307.0,McCulloch County,1620.0,6367.0,28016.0,7797.0,8473.0,1798.0,3362.0,3676.0,1410.0,1291.0,159.0,31.0,19.0
672126,County,2020/07/29,48.0,TX,48307.0,McCulloch County,1647.0,6340.0,24570.0,5966.0,9303.0,1552.0,2203.0,2546.0,1682.0,1091.0,174.0,35.0,18.0
676838,County,2020/07/30,48.0,TX,48307.0,McCulloch County,1585.0,6402.0,26957.0,7054.0,10574.0,1595.0,2294.0,3152.0,1272.0,656.0,291.0,57.0,12.0
678489,County,2020/07/31,48.0,TX,48307.0,McCulloch County,1715.0,6272.0,19626.0,4570.0,6785.0,1156.0,2297.0,2084.0,1344.0,1113.0,186.0,74.0,17.0
681598,County,2020/08/01,48.0,TX,48307.0,McCulloch County,1861.0,6126.0,22112.0,7246.0,6530.0,1421.0,2597.0,2408.0,825.0,839.0,211.0,28.0,7.0
686427,County,2020/08/02,48.0,TX,48307.0,McCulloch County,1907.0,6080.0,21871.0,5904.0,7134.0,1922.0,2640.0,2165.0,1211.0,558.0,304.0,27.0,6.0
689630,County,2020/08/03,48.0,TX,48307.0,McCulloch County,1663.0,6324.0,25191.0,5943.0,9602.0,990.0,2749.0,3627.0,1189.0,806.0,272.0,0.0,13.0
691258,County,2020/08/04,48.0,TX,48307.0,McCulloch County,1647.0,6340.0,25092.0,6426.0,8918.0,1122.0,2567.0,3099.0,1769.0,869.0,291.0,22.0,9.0
694420,County,2020/08/05,48.0,TX,48307.0,McCulloch County,1755.0,6232.0,27058.0,7464.0,8664.0,1196.0,3594.0,3396.0,1202.0,1284.0,255.0,0.0,3.0
697627,County,2020/08/06,48.0,TX,48307.0,McCulloch County,1655.0,6332.0,26148.0,7889.0,8600.0,1579.0,2562.0,2712.0,1535.0,849.0,329.0,80.0,13.0
700839,County,2020/08/07,48.0,TX,48307.0,McCulloch County,1784.0,6203.0,24886.0,7270.0,8812.0,1157.0,2431.0,2503.0,1307.0,972.0,374.0,37.0,23.0
705600,County,2020/08/08,48.0,TX,48307.0,McCulloch County,1890.0,6097.0,24540.0,6927.0,9322.0,1403.0,2709.0,2177.0,837.0,982.0,129.0,42.0,12.0
708819,County,2020/08/09,48.0,TX,48307.0,McCulloch County,1985.0,6002.0,22182.0,6447.0,6985.0,1602.0,2136.0,2650.0,733.0,1217.0,272.0,137.0,3.0
710448,County,2020/08/10,48.0,TX,48307.0,McCulloch County,1643.0,6344.0,21685.0,4271.0,8232.0,1093.0,2705.0,2701.0,1313.0,947.0,356.0,62.0,5.0
715181,County,2020/08/11,48.0,TX,48307.0,McCulloch County,1855.0,6132.0,23589.0,6632.0,6838.0,1393.0,2550.0,2799.0,1408.0,1541.0,382.0,40.0,6.0
716713,County,2020/08/12,48.0,TX,48307.0,McCulloch County,1764.0,6223.0,22014.0,6351.0,6660.0,1282.0,2289.0,2838.0,1194.0,996.0,352.0,47.0,5.0
720005,County,2020/08/13,48.0,TX,48307.0,McCulloch County,1444.0,6543.0,25201.0,7222.0,7640.0,1443.0,2961.0,2663.0,1495.0,1313.0,330.0,97.0,37.0
724748,County,2020/08/14,48.0,TX,48307.0,McCulloch County,1673.0,6314.0,27392.0,7121.0,9527.0,1276.0,2992.0,2650.0,1957.0,1480.0,300.0,66.0,23.0
727959,County,2020/08/15,48.0,TX,48307.0,McCulloch County,1844.0,6143.0,24445.0,5478.0,9882.0,1489.0,2875.0,1983.0,1384.0,1028.0,254.0,36.0,36.0
731151,County,2020/08/16,48.0,TX,48307.0,McCulloch County,1827.0,6160.0,22153.0,5770.0,8538.0,1363.0,1496.0,2111.0,1401.0,963.0,425.0,45.0,41.0
732781,County,2020/08/17,48.0,TX,48307.0,McCulloch County,1721.0,6266.0,24534.0,6082.0,9778.0,1386.0,2050.0,2250.0,1499.0,1115.0,291.0,42.0,41.0
737490,County,2020/08/18,48.0,TX,48307.0,McCulloch County,1801.0,6186.0,21852.0,4637.0,8307.0,1320.0,2146.0,2319.0,1294.0,1516.0,228.0,37.0,48.0
739152,County,2020/08/19,48.0,TX,48307.0,McCulloch County,1652.0,6335.0,26426.0,7205.0,9880.0,1281.0,1855.0,2443.0,1918.0,1372.0,281.0,151.0,40.0
743933,County,2020/08/20,48.0,TX,48307.0,McCulloch County,1730.0,6257.0,22331.0,5332.0,7849.0,1100.0,1562.0,3130.0,1390.0,1468.0,373.0,82.0,45.0
745563,County,2020/08/21,48.0,TX,48307.0,McCulloch County,1556.0,6431.0,26069.0,7513.0,8714.0,1993.0,2931.0,1940.0,1358.0,1275.0,242.0,80.0,23.0
750294,County,2020/08/22,48.0,TX,48307.0,McCulloch County,1719.0,6268.0,24119.0,6584.0,8205.0,1362.0,2170.0,2600.0,1270.0,1402.0,374.0,99.0,53.0
751961,County,2020/08/23,48.0,TX,48307.0,McCulloch County,1900.0,6087.0,18293.0,5446.0,6203.0,1021.0,1918.0,1244.0,1032.0,947.0,427.0,19.0,36.0
755134,County,2020/08/24,48.0,TX,48307.0,McCulloch County,1904.0,6083.0,22232.0,7311.0,7971.0,859.0,1503.0,2377.0,1152.0,699.0,280.0,58.0,22.0
759895,County,2020/08/25,48.0,TX,48307.0,McCulloch County,1896.0,6091.0,24381.0,6730.0,9063.0,968.0,1923.0,3257.0,1190.0,956.0,219.0,52.0,23.0
761477,County,2020/08/26,48.0,TX,48307.0,McCulloch County,1805.0,6182.0,25325.0,7386.0,9230.0,950.0,2496.0,2804.0,1133.0,997.0,218.0,105.0,6.0
764684,County,2020/08/27,48.0,TX,48307.0,McCulloch County,1854.0,6133.0,26662.0,8015.0,9227.0,1124.0,2480.0,3209.0,1210.0,1102.0,220.0,67.0,8.0
767890,County,2020/08/28,48.0,TX,48307.0,McCulloch County,1756.0,6231.0,24464.0,6424.0,9037.0,1195.0,1986.0,3485.0,943.0,1004.0,321.0,60.0,9.0
771094,County,2020/08/29,48.0,TX,48307.0,McCulloch County,1901.0,6086.0,23540.0,6980.0,6965.0,1818.0,2947.0,2212.0,1174.0,982.0,392.0,70.0,0.0
775868,County,2020/08/30,48.0,TX,48307.0,McCulloch County,2024.0,5963.0,21218.0,6841.0,5964.0,1127.0,2176.0,2436.0,1186.0,947.0,362.0,169.0,10.0
777476,County,2020/08/31,48.0,TX,48307.0,McCulloch County,1663.0,6324.0,22683.0,5100.0,9224.0,1381.0,2001.0,2140.0,1632.0,897.0,190.0,102.0,16.0
782256,County,2020/09/01,48.0,TX,48307.0,McCulloch County,1711.0,6276.0,27930.0,6851.0,10505.0,1487.0,3103.0,3770.0,1210.0,675.0,278.0,43.0,8.0
784651,County,2020/09/02,48.0,TX,48307.0,McCulloch County,1688.0,6299.0,25286.0,6923.0,8524.0,1374.0,2653.0,2604.0,1620.0,1229.0,279.0,76.0,4.0
787011,County,2020/09/03,48.0,TX,48307.0,McCulloch County,1645.0,6342.0,25367.0,7441.0,7621.0,1374.0,2258.0,3386.0,1519.0,1228.0,481.0,42.0,17.0
791790,County,2020/09/04,48.0,TX,48307.0,McCulloch County,1891.0,6096.0,22044.0,5490.0,7388.0,1038.0,2144.0,3124.0,1700.0,933.0,118.0,91.0,18.0
793349,County,2020/09/05,48.0,TX,48307.0,McCulloch County,1757.0,6230.0,28194.0,7440.0,9585.0,1529.0,3805.0,2824.0,1075.0,1512.0,373.0,37.0,14.0
796633,County,2020/09/06,48.0,TX,48307.0,McCulloch County,2027.0,5960.0,22645.0,7208.0,7910.0,1120.0,1817.0,2320.0,1215.0,791.0,221.0,32.0,11.0
801399,County,2020/09/07,48.0,TX,48307.0,McCulloch County,2200.0,5787.0,22891.0,6951.0,8417.0,1411.0,1847.0,1862.0,1338.0,651.0,324.0,82.0,8.0
803027,County,2020/09/08,48.0,TX,48307.0,McCulloch County,1725.0,6262.0,25699.0,7304.0,8862.0,1068.0,2357.0,3493.0,1380.0,794.0,384.0,55.0,2.0
807807,County,2020/09/09,48.0,TX,48307.0,McCulloch County,1600.0,6387.0,26461.0,7152.0,8146.0,1262.0,2913.0,3625.0,1612.0,1243.0,436.0,60.0,12.0
809435,County,2020/09/10,48.0,TX,48307.0,McCulloch County,1700.0,6287.0,23128.0,6156.0,7977.0,1181.0,2009.0,2604.0,1525.0,1251.0,371.0,40.0,14.0
814196,County,2020/09/11,48.0,TX,48307.0,McCulloch County,1486.0,6501.0,31269.0,9656.0,10823.0,1582.0,2667.0,3607.0,1300.0,1256.0,300.0,73.0,5.0
815777,County,2020/09/12,48.0,TX,48307.0,McCulloch County,1694.0,6293.0,25085.0,7330.0,8204.0,1564.0,2417.0,3269.0,1139.0,817.0,305.0,38.0,2.0
820574,County,2020/09/13,48.0,TX,48307.0,McCulloch County,2018.0,5969.0,20359.0,6181.0,6227.0,1468.0,1889.0,2095.0,1264.0,881.0,278.0,55.0,21.0
822203,County,2020/09/14,48.0,TX,48307.0,McCulloch County,1645.0,6342.0,26619.0,7771.0,9417.0,1478.0,2390.0,2577.0,1554.0,1068.0,245.0,99.0,20.0
826972,County,2020/09/15,48.0,TX,48307.0,McCulloch County,1700.0,6287.0,27440.0,8324.0,9358.0,1563.0,2387.0,2526.0,1561.0,1251.0,379.0,79.0,12.0
830166,County,2020/09/16,48.0,TX,48307.0,McCulloch County,1584.0,6403.0,27668.0,7585.0,10465.0,1714.0,1920.0,2710.0,1937.0,892.0,357.0,74.0,14.0
833343,County,2020/09/17,48.0,TX,48307.0,McCulloch County,1635.0,6352.0,31114.0,10667.0,9543.0,1951.0,2908.0,2845.0,1585.0,1063.0,488.0,50.0,14.0
834972,County,2020/09/18,48.0,TX,48307.0,McCulloch County,1576.0,6411.0,29571.0,8669.0,10214.0,1224.0,2972.0,2478.0,1936.0,1645.0,365.0,51.0,17.0
839747,County,2020/09/19,48.0,TX,48307.0,McCulloch County,1601.0,6386.0,32172.0,12063.0,8474.0,1907.0,2408.0,3899.0,1243.0,1725.0,382.0,53.0,18.0
841376,County,2020/09/20,48.0,TX,48307.0,McCulloch County,2059.0,5928.0,21667.0,6815.0,7622.0,520.0,2387.0,2216.0,992.0,710.0,357.0,35.0,13.0
844586,County,2020/09/21,48.0,TX,48307.0,McCulloch County,1940.0,6047.0,23450.0,7717.0,7542.0,991.0,1852.0,2788.0,1445.0,698.0,316.0,93.0,8.0
847742,County,2020/09/22,48.0,TX,48307.0,McCulloch County,1861.0,6126.0,22232.0,5824.0,8363.0,864.0,2169.0,2472.0,1399.0,726.0,379.0,31.0,5.0
852520,County,2020/09/23,48.0,TX,48307.0,McCulloch County,1740.0,6247.0,24557.0,8409.0,7408.0,972.0,2099.0,3078.0,1422.0,913.0,235.0,21.0,0.0
854148,County,2020/09/24,48.0,TX,48307.0,McCulloch County,1745.0,6242.0,25719.0,8175.0,7448.0,1105.0,2438.0,3226.0,1855.0,1140.0,329.0,0.0,3.0
858912,County,2020/09/25,48.0,TX,48307.0,McCulloch County,1626.0,6361.0,24391.0,7055.0,7784.0,1252.0,2231.0,2930.0,1378.0,1348.0,352.0,58.0,3.0
862106,County,2020/09/26,48.0,TX,48307.0,McCulloch County,1976.0,6011.0,25078.0,7384.0,9164.0,1958.0,2315.0,1960.0,1264.0,705.0,285.0,43.0,0.0
865287,County,2020/09/27,48.0,TX,48307.0,McCulloch County,1959.0,6028.0,23886.0,7756.0,7307.0,1186.0,2749.0,2424.0,1519.0,631.0,282.0,29.0,3.0
866916,County,2020/09/28,48.0,TX,48307.0,McCulloch County,1821.0,6166.0,27069.0,9304.0,8489.0,1400.0,2230.0,3005.0,1582.0,706.0,288.0,51.0,14.0
871687,County,2020/09/29,48.0,TX,48307.0,McCulloch County,1734.0,6253.0,27170.0,8665.0,8801.0,1739.0,3135.0,2422.0,1660.0,552.0,174.0,18.0,4.0
873316,County,2020/09/30,48.0,TX,48307.0,McCulloch County,1765.0,6222.0,25474.0,7272.0,8861.0,1298.0,2506.0,2683.0,1568.0,1128.0,100.0,53.0,5.0
876480,County,2020/10/01,48.0,TX,48307.0,McCulloch County,1680.0,6307.0,26802.0,10420.0,7275.0,1210.0,2035.0,2818.0,1499.0,1343.0,150.0,38.0,14.0
879684,County,2020/10/02,48.0,TX,48307.0,McCulloch County,1775.0,6212.0,27311.0,8686.0,8505.0,1784.0,2425.0,2476.0,1755.0,1388.0,225.0,61.0,6.0
882900,County,2020/10/03,48.0,TX,48307.0,McCulloch County,1848.0,6139.0,22795.0,7689.0,7817.0,744.0,1966.0,2080.0,1460.0,757.0,212.0,63.0,7.0
887353,County,2020/10/04,48.0,TX,48307.0,McCulloch County,1873.0,6114.0,22316.0,7254.0,7416.0,1225.0,1505.0,1787.0,1258.0,1259.0,544.0,68.0,0.0
890607,County,2020/10/05,48.0,TX,48307.0,McCulloch County,1915.0,6072.0,19607.0,4725.0,7571.0,1163.0,1233.0,1761.0,1507.0,1307.0,305.0,30.0,5.0
893796,County,2020/10/06,48.0,TX,48307.0,McCulloch County,1627.0,6360.0,24877.0,7125.0,8357.0,1491.0,1849.0,2702.0,1996.0,1038.0,292.0,26.0,1.0
896987,County,2020/10/07,48.0,TX,48307.0,McCulloch County,1748.0,6239.0,27083.0,7714.0,9692.0,1709.0,2225.0,2527.0,1821.0,1058.0,311.0,22.0,4.0
900153,County,2020/10/08,48.0,TX,48307.0,McCulloch County,1709.0,6278.0,24252.0,7575.0,8588.0,1097.0,1925.0,2198.0,1821.0,719.0,294.0,31.0,4.0
903346,County,2020/10/09,48.0,TX,48307.0,McCulloch County,1890.0,6097.0,27344.0,8859.0,8209.0,1507.0,3151.0,3074.0,1327.0,955.0,236.0,26.0,0.0
906548,County,2020/10/10,48.0,TX,48307.0,McCulloch County,2025.0,5962.0,24489.0,6971.0,7974.0,1300.0,3099.0,2784.0,1005.0,1242.0,101.0,9.0,4.0
907577,County,2020/10/11,48.0,TX,48307.0,McCulloch County,2041.0,5946.0,21521.0,6711.0,6534.0,1500.0,2507.0,1429.0,1672.0,921.0,236.0,10.0,1.0
910796,County,2020/10/12,48.0,TX,48307.0,McCulloch County,1609.0,6378.0,23334.0,6257.0,7995.0,1171.0,1789.0,2690.0,2002.0,1134.0,246.0,47.0,3.0
913733,County,2020/10/13,48.0,TX,48307.0,McCulloch County,1677.0,6310.0,27802.0,8985.0,8544.0,1499.0,3540.0,2510.0,1319.0,1045.0,347.0,8.0,5.0
917198,County,2020/10/14,48.0,TX,48307.0,McCulloch County,1571.0,6416.0,29552.0,8292.0,10856.0,1625.0,2540.0,2742.0,2142.0,1042.0,295.0,15.0,3.0
920468,County,2020/10/15,48.0,TX,48307.0,McCulloch County,1749.0,6238.0,29645.0,9325.0,10069.0,1611.0,2478.0,3085.0,1745.0,956.0,319.0,53.0,4.0
923476,County,2020/10/16,48.0,TX,48307.0,McCulloch County,1535.0,6452.0,30068.0,8564.0,10818.0,1670.0,3721.0,2477.0,1684.0,748.0,350.0,31.0,5.0
927534,County,2020/10/17,48.0,TX,48307.0,McCulloch County,1757.0,6230.0,21169.0,5856.0,5875.0,1499.0,2343.0,2469.0,1317.0,1320.0,438.0,46.0,6.0
929881,County,2020/10/18,48.0,TX,48307.0,McCulloch County,1964.0,6023.0,22813.0,6386.0,8215.0,1645.0,2335.0,1900.0,799.0,1009.0,425.0,92.0,7.0
932851,County,2020/10/19,48.0,TX,48307.0,McCulloch County,1594.0,6393.0,24784.0,6716.0,8283.0,1159.0,2846.0,2721.0,1624.0,1047.0,347.0,33.0,8.0
936304,County,2020/10/20,48.0,TX,48307.0,McCulloch County,1645.0,6342.0,26126.0,6541.0,9964.0,1466.0,2734.0,2268.0,1673.0,1133.0,293.0,49.0,5.0
939356,County,2020/10/21,48.0,TX,48307.0,McCulloch County,1799.0,6188.0,22282.0,5358.0,8389.0,991.0,2695.0,2578.0,1105.0,847.0,288.0,23.0,8.0
942558,County,2020/10/22,48.0,TX,48307.0,McCulloch County,1496.0,6491.0,25467.0,6723.0,8529.0,1203.0,3191.0,2525.0,1452.0,1400.0,406.0,27.0,11.0
945914,County,2020/10/23,48.0,TX,48307.0,McCulloch County,1552.0,6435.0,28434.0,6135.0,11479.0,1790.0,3544.0,2589.0,1125.0,1336.0,410.0,19.0,7.0
949459,County,2020/10/24,48.0,TX,48307.0,McCulloch County,1827.0,6160.0,27977.0,7540.0,9437.0,1554.0,4625.0,1938.0,1579.0,1093.0,192.0,18.0,1.0
