,Level,Date,State FIPS,State Postal Code,County FIPS,County Name,Population Staying at Home,Population Not Staying at Home,Number of Trips,Number of Trips <1,Number of Trips 1-3,Number of Trips 3-5,Number of Trips 5-10,Number of Trips 10-25,Number of Trips 25-50,Number of Trips 50-100,Number of Trips 100-250,Number of Trips 250-500,Number of Trips >=500
2550,County,2020/01/01,48.0,TX,48057.0,Calhoun County,4726.0,16835.0,49943.0,10873.0,14376.0,6728.0,5736.0,5682.0,3281.0,1411.0,1703.0,143.0,10.0
4475,County,2020/01/02,48.0,TX,48057.0,Calhoun County,3940.0,17621.0,62691.0,13427.0,18687.0,6648.0,8436.0,7879.0,4249.0,2115.0,1111.0,132.0,7.0
9089,County,2020/01/03,48.0,TX,48057.0,Calhoun County,3664.0,17897.0,71107.0,16890.0,20083.0,7552.0,9468.0,9041.0,4729.0,2015.0,1229.0,95.0,5.0
11416,County,2020/01/04,48.0,TX,48057.0,Calhoun County,4023.0,17538.0,68120.0,16155.0,19950.0,8143.0,8488.0,7309.0,5017.0,1762.0,1214.0,76.0,6.0
15326,County,2020/01/05,48.0,TX,48057.0,Calhoun County,4478.0,17083.0,61614.0,14553.0,19426.0,7326.0,7194.0,5631.0,4190.0,1875.0,1271.0,141.0,7.0
18813,County,2020/01/06,48.0,TX,48057.0,Calhoun County,3938.0,17623.0,70548.0,19231.0,20695.0,6549.0,8821.0,7756.0,4736.0,1854.0,836.0,70.0,0.0
22008,County,2020/01/07,48.0,TX,48057.0,Calhoun County,3716.0,17845.0,73014.0,19985.0,20236.0,7458.0,9593.0,8827.0,4315.0,1590.0,930.0,73.0,7.0
25202,County,2020/01/08,48.0,TX,48057.0,Calhoun County,3606.0,17955.0,73404.0,20298.0,20005.0,8638.0,8657.0,8279.0,4825.0,1627.0,1018.0,49.0,8.0
26829,County,2020/01/09,48.0,TX,48057.0,Calhoun County,3914.0,17647.0,73897.0,19048.0,20909.0,8214.0,9580.0,8510.0,4708.0,1946.0,912.0,68.0,2.0
30025,County,2020/01/10,48.0,TX,48057.0,Calhoun County,3621.0,17940.0,74676.0,18297.0,21441.0,8179.0,9634.0,8705.0,5328.0,1723.0,1261.0,103.0,5.0
33267,County,2020/01/11,48.0,TX,48057.0,Calhoun County,4089.0,17472.0,71181.0,17028.0,19635.0,9301.0,8779.0,7263.0,5812.0,2061.0,1205.0,91.0,6.0
36423,County,2020/01/12,48.0,TX,48057.0,Calhoun County,4338.0,17223.0,64774.0,15115.0,19263.0,8093.0,7631.0,6652.0,4896.0,2114.0,942.0,63.0,5.0
41200,County,2020/01/13,48.0,TX,48057.0,Calhoun County,3907.0,17654.0,73268.0,18572.0,21045.0,8095.0,9605.0,8712.0,4862.0,1502.0,791.0,81.0,3.0
42827,County,2020/01/14,48.0,TX,48057.0,Calhoun County,3937.0,17624.0,75851.0,18748.0,22463.0,9248.0,9536.0,8641.0,5197.0,1535.0,423.0,56.0,4.0
45979,County,2020/01/15,48.0,TX,48057.0,Calhoun County,3814.0,17747.0,75864.0,21461.0,21478.0,7316.0,9373.0,8987.0,4591.0,1753.0,847.0,56.0,2.0
49084,County,2020/01/16,48.0,TX,48057.0,Calhoun County,3730.0,17831.0,71497.0,17946.0,20126.0,8854.0,9313.0,7930.0,4757.0,1527.0,958.0,80.0,6.0
53999,County,2020/01/17,48.0,TX,48057.0,Calhoun County,3830.0,17731.0,78024.0,20065.0,22657.0,7871.0,9410.0,8640.0,5146.0,2525.0,1516.0,191.0,3.0
57120,County,2020/01/18,48.0,TX,48057.0,Calhoun County,4034.0,17527.0,68892.0,16817.0,19440.0,8321.0,8375.0,8096.0,4830.0,1666.0,1273.0,67.0,7.0
60367,County,2020/01/19,48.0,TX,48057.0,Calhoun County,4344.0,17217.0,60024.0,14306.0,15668.0,7285.0,8598.0,7132.0,3878.0,1748.0,1281.0,120.0,8.0
63530,County,2020/01/20,48.0,TX,48057.0,Calhoun County,4214.0,17347.0,70464.0,18551.0,19178.0,7493.0,9635.0,8465.0,4229.0,1910.0,867.0,132.0,4.0
65158,County,2020/01/21,48.0,TX,48057.0,Calhoun County,3778.0,17783.0,75096.0,18337.0,22115.0,9139.0,9356.0,9022.0,4672.0,1386.0,933.0,132.0,4.0
69918,County,2020/01/22,48.0,TX,48057.0,Calhoun County,3913.0,17648.0,69756.0,16246.0,20192.0,8374.0,9424.0,8449.0,4491.0,1633.0,848.0,90.0,9.0
71544,County,2020/01/23,48.0,TX,48057.0,Calhoun County,3708.0,17853.0,77318.0,20267.0,22372.0,8724.0,9628.0,8825.0,4716.0,1720.0,1005.0,51.0,10.0
76307,County,2020/01/24,48.0,TX,48057.0,Calhoun County,3630.0,17931.0,80468.0,22110.0,24140.0,7545.0,10421.0,8278.0,4552.0,2227.0,1100.0,88.0,7.0
77933,County,2020/01/25,48.0,TX,48057.0,Calhoun County,3990.0,17571.0,70760.0,16510.0,20493.0,8030.0,9245.0,7935.0,5337.0,1810.0,1315.0,79.0,6.0
82400,County,2020/01/26,48.0,TX,48057.0,Calhoun County,4140.0,17421.0,63677.0,14691.0,19438.0,7710.0,8342.0,6624.0,3898.0,1482.0,1396.0,80.0,16.0
83225,County,2020/01/27,48.0,TX,48057.0,Calhoun County,3895.0,17666.0,72575.0,20055.0,21155.0,7093.0,9724.0,7264.0,4584.0,1524.0,1142.0,25.0,9.0
87578,County,2020/01/28,48.0,TX,48057.0,Calhoun County,3579.0,17982.0,73092.0,19560.0,21468.0,7553.0,9614.0,8014.0,4365.0,1672.0,765.0,75.0,6.0
90684,County,2020/01/29,48.0,TX,48057.0,Calhoun County,3581.0,17980.0,76630.0,20237.0,22507.0,8071.0,9916.0,8600.0,4867.0,1682.0,687.0,61.0,2.0
94037,County,2020/01/30,48.0,TX,48057.0,Calhoun County,3873.0,17688.0,75394.0,20590.0,22009.0,7962.0,9562.0,8021.0,4821.0,1526.0,824.0,67.0,12.0
98663,County,2020/01/31,48.0,TX,48057.0,Calhoun County,3684.0,17877.0,80949.0,21076.0,22211.0,9987.0,9820.0,9470.0,4576.0,2091.0,1544.0,151.0,23.0
101851,County,2020/02/01,48.0,TX,48057.0,Calhoun County,3770.0,17791.0,74014.0,17195.0,21624.0,9423.0,9010.0,8795.0,4846.0,1615.0,1379.0,105.0,22.0
105052,County,2020/02/02,48.0,TX,48057.0,Calhoun County,3949.0,17612.0,66913.0,15757.0,20108.0,8472.0,8371.0,6758.0,4089.0,1775.0,1476.0,93.0,14.0
106678,County,2020/02/03,48.0,TX,48057.0,Calhoun County,3432.0,18129.0,79940.0,20674.0,23256.0,9484.0,10216.0,8781.0,4768.0,1537.0,1080.0,131.0,13.0
111440,County,2020/02/04,48.0,TX,48057.0,Calhoun County,3501.0,18060.0,78403.0,20320.0,22485.0,8330.0,10728.0,8763.0,4731.0,2071.0,905.0,48.0,22.0
113019,County,2020/02/05,48.0,TX,48057.0,Calhoun County,3632.0,17929.0,74625.0,19621.0,21941.0,7577.0,10330.0,8614.0,4220.0,1574.0,687.0,47.0,14.0
116163,County,2020/02/06,48.0,TX,48057.0,Calhoun County,3576.0,17985.0,78439.0,20745.0,22903.0,8419.0,10493.0,8844.0,4436.0,1667.0,846.0,71.0,15.0
119428,County,2020/02/07,48.0,TX,48057.0,Calhoun County,3257.0,18304.0,86938.0,23262.0,24244.0,8940.0,11742.0,9735.0,5534.0,2104.0,1235.0,129.0,13.0
122674,County,2020/02/08,48.0,TX,48057.0,Calhoun County,3779.0,17782.0,80014.0,19256.0,22905.0,9404.0,10141.0,8501.0,6436.0,1968.0,1319.0,72.0,12.0
126564,County,2020/02/09,48.0,TX,48057.0,Calhoun County,4315.0,17246.0,64356.0,15059.0,20078.0,7411.0,7309.0,6728.0,4345.0,2092.0,1151.0,156.0,27.0
130858,County,2020/02/10,48.0,TX,48057.0,Calhoun County,3424.0,18137.0,82828.0,22589.0,23340.0,8489.0,10960.0,9473.0,4966.0,1742.0,1187.0,53.0,29.0
132722,County,2020/02/11,48.0,TX,48057.0,Calhoun County,3187.0,18374.0,79656.0,21930.0,21967.0,8336.0,11032.0,8775.0,5196.0,1468.0,875.0,32.0,45.0
136963,County,2020/02/12,48.0,TX,48057.0,Calhoun County,3502.0,18059.0,82301.0,22882.0,22919.0,8337.0,11569.0,9044.0,5166.0,1418.0,868.0,47.0,51.0
138656,County,2020/02/13,48.0,TX,48057.0,Calhoun County,3344.0,18217.0,84831.0,23001.0,24781.0,8266.0,10950.0,9243.0,5465.0,1848.0,1173.0,68.0,36.0
143388,County,2020/02/14,48.0,TX,48057.0,Calhoun County,3347.0,18214.0,84897.0,22238.0,24901.0,7905.0,10631.0,9402.0,5938.0,1923.0,1799.0,117.0,43.0
145012,County,2020/02/15,48.0,TX,48057.0,Calhoun County,3702.0,17859.0,79674.0,17783.0,24619.0,8478.0,10482.0,8389.0,5712.0,2584.0,1467.0,122.0,38.0
148200,County,2020/02/16,48.0,TX,48057.0,Calhoun County,4198.0,17363.0,65413.0,14930.0,18539.0,6638.0,8763.0,8523.0,4066.0,2074.0,1669.0,176.0,35.0
152962,County,2020/02/17,48.0,TX,48057.0,Calhoun County,4677.0,16884.0,63945.0,16368.0,17160.0,5599.0,8877.0,7750.0,5250.0,1496.0,1346.0,72.0,27.0
154539,County,2020/02/18,48.0,TX,48057.0,Calhoun County,3803.0,17758.0,79202.0,20457.0,21718.0,7794.0,11572.0,8768.0,5614.0,1949.0,1184.0,116.0,30.0
157784,County,2020/02/19,48.0,TX,48057.0,Calhoun County,3460.0,18101.0,77387.0,19138.0,21635.0,7901.0,11602.0,9060.0,4928.0,1801.0,1194.0,114.0,14.0
162593,County,2020/02/20,48.0,TX,48057.0,Calhoun County,3531.0,18030.0,74924.0,18907.0,21170.0,8020.0,10616.0,8518.0,5084.0,1385.0,1128.0,75.0,21.0
165738,County,2020/02/21,48.0,TX,48057.0,Calhoun County,3667.0,17894.0,83372.0,21093.0,23415.0,8019.0,11027.0,10437.0,5376.0,2506.0,1360.0,126.0,13.0
167316,County,2020/02/22,48.0,TX,48057.0,Calhoun County,3286.0,18275.0,75824.0,18546.0,20799.0,8361.0,9199.0,9060.0,5433.0,3025.0,1228.0,135.0,38.0
172131,County,2020/02/23,48.0,TX,48057.0,Calhoun County,3881.0,17680.0,66799.0,14464.0,19932.0,7724.0,9373.0,6894.0,4402.0,2087.0,1676.0,232.0,15.0
175326,County,2020/02/24,48.0,TX,48057.0,Calhoun County,3647.0,17914.0,76608.0,19055.0,22085.0,8607.0,10107.0,8979.0,4897.0,1686.0,1113.0,64.0,15.0
178221,County,2020/02/25,48.0,TX,48057.0,Calhoun County,3546.0,18015.0,80591.0,20862.0,21317.0,9027.0,11162.0,10429.0,5268.0,1386.0,1072.0,56.0,12.0
181414,County,2020/02/26,48.0,TX,48057.0,Calhoun County,3686.0,17875.0,73694.0,15618.0,21910.0,8409.0,11221.0,9054.0,5486.0,1043.0,796.0,142.0,15.0
182733,County,2020/02/27,48.0,TX,48057.0,Calhoun County,3504.0,18057.0,78726.0,20285.0,20410.0,8394.0,11700.0,8914.0,6265.0,1844.0,823.0,82.0,9.0
186672,County,2020/02/28,48.0,TX,48057.0,Calhoun County,3282.0,18279.0,83703.0,20770.0,24997.0,8505.0,10567.0,9232.0,5782.0,2599.0,1148.0,91.0,12.0
189676,County,2020/02/29,48.0,TX,48057.0,Calhoun County,3598.0,17963.0,79525.0,18279.0,24107.0,8730.0,9507.0,9048.0,5879.0,2676.0,1164.0,126.0,9.0
194509,County,2020/03/01,48.0,TX,48057.0,Calhoun County,3932.0,17629.0,65640.0,14054.0,19302.0,7483.0,8251.0,7658.0,4768.0,2180.0,1772.0,160.0,12.0
196137,County,2020/03/02,48.0,TX,48057.0,Calhoun County,3726.0,17835.0,77676.0,21809.0,21412.0,7111.0,9731.0,9002.0,5338.0,2187.0,1043.0,34.0,9.0
200989,County,2020/03/03,48.0,TX,48057.0,Calhoun County,3273.0,18288.0,79523.0,21166.0,21675.0,7751.0,10690.0,9697.0,5570.0,1878.0,974.0,109.0,13.0
204075,County,2020/03/04,48.0,TX,48057.0,Calhoun County,3314.0,18247.0,83735.0,21340.0,23408.0,8533.0,12115.0,10213.0,5391.0,1913.0,797.0,20.0,5.0
205643,County,2020/03/05,48.0,TX,48057.0,Calhoun County,3068.0,18493.0,82469.0,21601.0,22330.0,9217.0,11198.0,9306.0,5521.0,2517.0,653.0,122.0,4.0
208762,County,2020/03/06,48.0,TX,48057.0,Calhoun County,3165.0,18396.0,88913.0,23166.0,24655.0,9279.0,11174.0,10022.0,6741.0,2600.0,1195.0,76.0,5.0
213676,County,2020/03/07,48.0,TX,48057.0,Calhoun County,3411.0,18150.0,83690.0,22692.0,25245.0,7294.0,10855.0,8234.0,5705.0,2536.0,1062.0,59.0,8.0
216838,County,2020/03/08,48.0,TX,48057.0,Calhoun County,3915.0,17646.0,72271.0,16265.0,19353.0,9114.0,9661.0,8419.0,5507.0,2418.0,1365.0,160.0,9.0
220036,County,2020/03/09,48.0,TX,48057.0,Calhoun County,3440.0,18121.0,77036.0,19286.0,21705.0,8427.0,9884.0,8923.0,5234.0,2414.0,1079.0,79.0,5.0
223229,County,2020/03/10,48.0,TX,48057.0,Calhoun County,3268.0,18293.0,80986.0,19695.0,23312.0,9803.0,10215.0,9824.0,5485.0,1663.0,919.0,63.0,7.0
224903,County,2020/03/11,48.0,TX,48057.0,Calhoun County,3673.0,17888.0,81201.0,19918.0,22856.0,9647.0,11295.0,8314.0,5343.0,1314.0,2417.0,70.0,27.0
229551,County,2020/03/12,48.0,TX,48057.0,Calhoun County,3607.0,17954.0,94619.0,22040.0,29202.0,11951.0,11776.0,9874.0,5821.0,1690.0,2128.0,106.0,31.0
231247,County,2020/03/13,48.0,TX,48057.0,Calhoun County,3371.0,18190.0,98982.0,23441.0,30299.0,10337.0,11421.0,12761.0,5365.0,3336.0,1904.0,97.0,21.0
234299,County,2020/03/14,48.0,TX,48057.0,Calhoun County,4294.0,17267.0,79997.0,17259.0,23575.0,11297.0,11519.0,7763.0,5399.0,1959.0,1088.0,122.0,16.0
239200,County,2020/03/15,48.0,TX,48057.0,Calhoun County,4433.0,17128.0,66777.0,16001.0,19744.0,8037.0,8540.0,6794.0,4556.0,2151.0,864.0,82.0,8.0
242393,County,2020/03/16,48.0,TX,48057.0,Calhoun County,3953.0,17608.0,76703.0,21268.0,20344.0,8600.0,10240.0,9029.0,4358.0,1690.0,1070.0,89.0,15.0
244058,County,2020/03/17,48.0,TX,48057.0,Calhoun County,4224.0,17337.0,76175.0,19219.0,19217.0,9072.0,10896.0,9026.0,6174.0,1786.0,636.0,143.0,6.0
248741,County,2020/03/18,48.0,TX,48057.0,Calhoun County,4288.0,17273.0,77134.0,20041.0,20146.0,9369.0,11133.0,9307.0,5042.0,1456.0,548.0,85.0,7.0
250420,County,2020/03/19,48.0,TX,48057.0,Calhoun County,4308.0,17253.0,71928.0,18267.0,19531.0,7506.0,10662.0,8142.0,5062.0,1900.0,804.0,41.0,13.0
255170,County,2020/03/20,48.0,TX,48057.0,Calhoun County,4442.0,17119.0,75678.0,20467.0,20873.0,8333.0,9607.0,9010.0,4541.0,1748.0,957.0,132.0,10.0
258362,County,2020/03/21,48.0,TX,48057.0,Calhoun County,4978.0,16583.0,67446.0,18100.0,18609.0,7631.0,8537.0,8217.0,3633.0,1393.0,1212.0,110.0,4.0
259984,County,2020/03/22,48.0,TX,48057.0,Calhoun County,4985.0,16576.0,50954.0,12421.0,16130.0,5913.0,5524.0,5512.0,2859.0,1164.0,1390.0,34.0,7.0
263188,County,2020/03/23,48.0,TX,48057.0,Calhoun County,4176.0,17385.0,67688.0,17821.0,20071.0,6770.0,8483.0,7848.0,4016.0,1628.0,986.0,59.0,6.0
266339,County,2020/03/24,48.0,TX,48057.0,Calhoun County,4031.0,17530.0,63414.0,15803.0,17939.0,6999.0,8503.0,8253.0,3518.0,1474.0,889.0,30.0,6.0
271140,County,2020/03/25,48.0,TX,48057.0,Calhoun County,4199.0,17362.0,63910.0,16150.0,18257.0,7576.0,8708.0,7476.0,3502.0,1452.0,697.0,85.0,7.0
272766,County,2020/03/26,48.0,TX,48057.0,Calhoun County,4500.0,17061.0,66443.0,17848.0,18175.0,7570.0,8734.0,8572.0,3374.0,1345.0,775.0,33.0,17.0
277529,County,2020/03/27,48.0,TX,48057.0,Calhoun County,4579.0,16982.0,73568.0,23127.0,20155.0,7760.0,8667.0,7012.0,4208.0,1587.0,938.0,107.0,7.0
280715,County,2020/03/28,48.0,TX,48057.0,Calhoun County,5060.0,16501.0,53026.0,12827.0,15916.0,6266.0,6592.0,6342.0,3477.0,926.0,596.0,76.0,8.0
282350,County,2020/03/29,48.0,TX,48057.0,Calhoun County,5317.0,16244.0,54276.0,14822.0,16547.0,5694.0,6638.0,6383.0,1997.0,1332.0,780.0,75.0,8.0
287141,County,2020/03/30,48.0,TX,48057.0,Calhoun County,4545.0,17016.0,60403.0,16556.0,17349.0,6574.0,7105.0,7579.0,3033.0,1462.0,611.0,125.0,9.0
288739,County,2020/03/31,48.0,TX,48057.0,Calhoun County,4697.0,16864.0,68506.0,19278.0,19581.0,8931.0,7855.0,7589.0,3639.0,1180.0,435.0,11.0,7.0
291974,County,2020/04/01,48.0,TX,48057.0,Calhoun County,4601.0,16960.0,62734.0,17055.0,16233.0,7864.0,7815.0,8277.0,3745.0,1300.0,405.0,32.0,8.0
295126,County,2020/04/02,48.0,TX,48057.0,Calhoun County,4678.0,16883.0,59393.0,13853.0,17780.0,6633.0,7279.0,7817.0,4039.0,1403.0,523.0,63.0,3.0
299886,County,2020/04/03,48.0,TX,48057.0,Calhoun County,4691.0,16870.0,61348.0,15501.0,17250.0,8368.0,7411.0,7325.0,3708.0,1065.0,674.0,39.0,7.0
301512,County,2020/04/04,48.0,TX,48057.0,Calhoun County,5525.0,16036.0,48068.0,10220.0,16122.0,5348.0,6772.0,5477.0,2554.0,917.0,559.0,93.0,6.0
306266,County,2020/04/05,48.0,TX,48057.0,Calhoun County,5437.0,16124.0,48839.0,12267.0,16466.0,5442.0,5293.0,4573.0,2755.0,947.0,1027.0,63.0,6.0
307901,County,2020/04/06,48.0,TX,48057.0,Calhoun County,4648.0,16913.0,57945.0,14652.0,17564.0,6576.0,6767.0,7155.0,3144.0,1280.0,778.0,21.0,8.0
311095,County,2020/04/07,48.0,TX,48057.0,Calhoun County,4818.0,16743.0,66052.0,15657.0,19971.0,9043.0,8272.0,7430.0,3689.0,1415.0,571.0,0.0,4.0
314290,County,2020/04/08,48.0,TX,48057.0,Calhoun County,4467.0,17094.0,63173.0,15627.0,17672.0,8645.0,8001.0,7781.0,3564.0,1062.0,817.0,0.0,4.0
319050,County,2020/04/09,48.0,TX,48057.0,Calhoun County,4593.0,16968.0,54507.0,11814.0,17064.0,6130.0,7201.0,6693.0,3821.0,1363.0,380.0,39.0,2.0
322244,County,2020/04/10,48.0,TX,48057.0,Calhoun County,5047.0,16514.0,59709.0,15002.0,18755.0,6979.0,7274.0,6800.0,3121.0,795.0,884.0,99.0,0.0
323919,County,2020/04/11,48.0,TX,48057.0,Calhoun County,4967.0,16594.0,58228.0,13548.0,18216.0,7399.0,8111.0,6453.0,2975.0,1041.0,440.0,45.0,0.0
328605,County,2020/04/12,48.0,TX,48057.0,Calhoun County,5928.0,15633.0,47629.0,11099.0,16613.0,5576.0,6051.0,4274.0,2257.0,1207.0,480.0,70.0,2.0
331827,County,2020/04/13,48.0,TX,48057.0,Calhoun County,4897.0,16664.0,59598.0,13460.0,18332.0,7154.0,7413.0,7144.0,4219.0,1298.0,555.0,22.0,1.0
335001,County,2020/04/14,48.0,TX,48057.0,Calhoun County,5081.0,16480.0,63395.0,14399.0,20825.0,7419.0,9798.0,6393.0,3471.0,508.0,579.0,0.0,3.0
336678,County,2020/04/15,48.0,TX,48057.0,Calhoun County,4907.0,16654.0,59211.0,14224.0,17019.0,8540.0,8350.0,6998.0,2627.0,870.0,552.0,28.0,3.0
339832,County,2020/04/16,48.0,TX,48057.0,Calhoun County,5280.0,16281.0,64597.0,15793.0,18279.0,9350.0,8537.0,7189.0,3682.0,1400.0,335.0,32.0,0.0
343133,County,2020/04/17,48.0,TX,48057.0,Calhoun County,4517.0,17044.0,55995.0,11791.0,15869.0,8054.0,6036.0,7037.0,3709.0,1627.0,1730.0,142.0,0.0
347759,County,2020/04/18,48.0,TX,48057.0,Calhoun County,5226.0,16335.0,48923.0,10886.0,13291.0,7411.0,6884.0,4843.0,3597.0,858.0,1039.0,111.0,3.0
350990,County,2020/04/19,48.0,TX,48057.0,Calhoun County,5375.0,16186.0,49185.0,12709.0,14006.0,6409.0,6564.0,4139.0,2659.0,684.0,1929.0,86.0,0.0
352616,County,2020/04/20,48.0,TX,48057.0,Calhoun County,4750.0,16811.0,61287.0,12453.0,17801.0,8027.0,10162.0,7241.0,3436.0,1216.0,912.0,39.0,0.0
355810,County,2020/04/21,48.0,TX,48057.0,Calhoun County,4286.0,17275.0,62722.0,14116.0,18806.0,7930.0,8351.0,7687.0,3602.0,1383.0,823.0,24.0,0.0
359005,County,2020/04/22,48.0,TX,48057.0,Calhoun County,4523.0,17038.0,58176.0,14550.0,16764.0,6433.0,6623.0,7678.0,4091.0,1488.0,501.0,47.0,1.0
362111,County,2020/04/23,48.0,TX,48057.0,Calhoun County,4373.0,17188.0,65948.0,14390.0,18569.0,9171.0,8779.0,8778.0,3978.0,1614.0,656.0,13.0,0.0
365413,County,2020/04/24,48.0,TX,48057.0,Calhoun County,4085.0,17476.0,66435.0,15084.0,18855.0,10084.0,9257.0,6660.0,3697.0,2066.0,656.0,74.0,2.0
370154,County,2020/04/25,48.0,TX,48057.0,Calhoun County,4811.0,16750.0,60372.0,15748.0,17755.0,7271.0,8556.0,5590.0,3691.0,1085.0,608.0,63.0,5.0
373348,County,2020/04/26,48.0,TX,48057.0,Calhoun County,4947.0,16614.0,61755.0,14138.0,18993.0,7970.0,8898.0,6528.0,3529.0,1207.0,444.0,44.0,4.0
376580,County,2020/04/27,48.0,TX,48057.0,Calhoun County,4266.0,17295.0,63861.0,15075.0,17290.0,9381.0,8543.0,6847.0,4524.0,1498.0,691.0,12.0,0.0
378126,County,2020/04/28,48.0,TX,48057.0,Calhoun County,4162.0,17399.0,62746.0,13231.0,17533.0,8264.0,9003.0,8329.0,4239.0,1587.0,517.0,43.0,0.0
381378,County,2020/04/29,48.0,TX,48057.0,Calhoun County,4415.0,17146.0,56229.0,10684.0,14877.0,7459.0,9167.0,8273.0,3777.0,1325.0,649.0,11.0,7.0
384525,County,2020/04/30,48.0,TX,48057.0,Calhoun County,4132.0,17429.0,64617.0,14796.0,18571.0,8182.0,7594.0,7898.0,5028.0,2019.0,482.0,47.0,0.0
389360,County,2020/05/01,48.0,TX,48057.0,Calhoun County,4031.0,17530.0,70591.0,16098.0,20314.0,8183.0,10146.0,9537.0,3902.0,1683.0,645.0,82.0,1.0
392511,County,2020/05/02,48.0,TX,48057.0,Calhoun County,4288.0,17273.0,63523.0,12952.0,19864.0,7529.0,8618.0,7212.0,4596.0,2002.0,685.0,62.0,3.0
394146,County,2020/05/03,48.0,TX,48057.0,Calhoun County,4580.0,16981.0,56001.0,12150.0,18150.0,6830.0,8322.0,5728.0,2863.0,1218.0,708.0,28.0,4.0
398900,County,2020/05/04,48.0,TX,48057.0,Calhoun County,4228.0,17333.0,70074.0,16540.0,19993.0,8408.0,9686.0,8312.0,4386.0,2242.0,492.0,13.0,2.0
402075,County,2020/05/05,48.0,TX,48057.0,Calhoun County,4396.0,17165.0,62535.0,15875.0,16774.0,7578.0,8782.0,7738.0,3641.0,1758.0,388.0,0.0,1.0
403705,County,2020/05/06,48.0,TX,48057.0,Calhoun County,4275.0,17286.0,64730.0,15999.0,17419.0,7987.0,9206.0,7206.0,4148.0,2273.0,457.0,32.0,3.0
408425,County,2020/05/07,48.0,TX,48057.0,Calhoun County,4289.0,17272.0,64800.0,16272.0,16801.0,6966.0,9645.0,8027.0,4545.0,1791.0,692.0,55.0,6.0
410213,County,2020/05/08,48.0,TX,48057.0,Calhoun County,4260.0,17301.0,64859.0,13237.0,17542.0,8254.0,10007.0,8392.0,4689.0,2054.0,588.0,93.0,3.0
414835,County,2020/05/09,48.0,TX,48057.0,Calhoun County,4473.0,17088.0,58782.0,12044.0,18652.0,6514.0,8200.0,7283.0,3573.0,1775.0,691.0,47.0,3.0
416496,County,2020/05/10,48.0,TX,48057.0,Calhoun County,4459.0,17102.0,60847.0,11265.0,18853.0,8804.0,8604.0,6804.0,3871.0,1866.0,685.0,93.0,2.0
419739,County,2020/05/11,48.0,TX,48057.0,Calhoun County,3756.0,17805.0,66349.0,16456.0,18686.0,7781.0,8874.0,7180.0,4776.0,1902.0,622.0,68.0,4.0
424499,County,2020/05/12,48.0,TX,48057.0,Calhoun County,4036.0,17525.0,59432.0,14790.0,17049.0,6089.0,8216.0,7037.0,3836.0,1665.0,703.0,45.0,2.0
427646,County,2020/05/13,48.0,TX,48057.0,Calhoun County,3726.0,17835.0,67666.0,16604.0,19931.0,7115.0,9087.0,7452.0,4612.0,2099.0,722.0,41.0,3.0
430840,County,2020/05/14,48.0,TX,48057.0,Calhoun County,3745.0,17816.0,70609.0,19351.0,21556.0,7170.0,8962.0,7252.0,3992.0,1525.0,768.0,32.0,1.0
432468,County,2020/05/15,48.0,TX,48057.0,Calhoun County,3708.0,17853.0,65542.0,17014.0,18773.0,6903.0,8208.0,7230.0,4407.0,1804.0,1159.0,44.0,0.0
437217,County,2020/05/16,48.0,TX,48057.0,Calhoun County,4290.0,17271.0,60886.0,14480.0,19428.0,6942.0,8014.0,5850.0,3489.0,1688.0,938.0,56.0,1.0
438845,County,2020/05/17,48.0,TX,48057.0,Calhoun County,3322.0,18239.0,72438.0,17840.0,21604.0,8686.0,10537.0,6872.0,3773.0,1814.0,1237.0,75.0,0.0
442090,County,2020/05/18,48.0,TX,48057.0,Calhoun County,2700.0,18861.0,85900.0,21466.0,23891.0,11387.0,12564.0,7902.0,5312.0,2198.0,1166.0,14.0,0.0
445244,County,2020/05/19,48.0,TX,48057.0,Calhoun County,2947.0,18614.0,75765.0,16136.0,21317.0,10546.0,11972.0,9493.0,3878.0,1586.0,823.0,14.0,0.0
450004,County,2020/05/20,48.0,TX,48057.0,Calhoun County,2901.0,18660.0,82481.0,22540.0,20401.0,12768.0,10386.0,9077.0,4913.0,1695.0,660.0,41.0,0.0
453239,County,2020/05/21,48.0,TX,48057.0,Calhoun County,2884.0,18677.0,74736.0,18130.0,19869.0,10240.0,10339.0,9397.0,4362.0,1658.0,697.0,39.0,5.0
454817,County,2020/05/22,48.0,TX,48057.0,Calhoun County,3077.0,18484.0,77532.0,17506.0,21574.0,10648.0,10109.0,9264.0,5595.0,2017.0,730.0,82.0,7.0
458014,County,2020/05/23,48.0,TX,48057.0,Calhoun County,3501.0,18060.0,69971.0,15033.0,19690.0,10550.0,9833.0,8302.0,4079.0,1850.0,576.0,46.0,12.0
461182,County,2020/05/24,48.0,TX,48057.0,Calhoun County,4514.0,17047.0,57583.0,15230.0,16935.0,6740.0,7288.0,5702.0,2659.0,2021.0,960.0,44.0,4.0
466058,County,2020/05/25,48.0,TX,48057.0,Calhoun County,4338.0,17223.0,47022.0,10771.0,13112.0,6024.0,5519.0,4524.0,3004.0,2259.0,1749.0,58.0,2.0
467588,County,2020/05/26,48.0,TX,48057.0,Calhoun County,3852.0,17709.0,60221.0,14654.0,16068.0,7757.0,7661.0,7467.0,3869.0,1728.0,954.0,54.0,9.0
470795,County,2020/05/27,48.0,TX,48057.0,Calhoun County,3626.0,17935.0,67238.0,18709.0,18386.0,6859.0,8918.0,8341.0,3813.0,1468.0,702.0,34.0,8.0
475556,County,2020/05/28,48.0,TX,48057.0,Calhoun County,3875.0,17686.0,61092.0,15491.0,16952.0,6905.0,8638.0,6706.0,3580.0,1916.0,830.0,73.0,1.0
478744,County,2020/05/29,48.0,TX,48057.0,Calhoun County,4061.0,17500.0,66459.0,17013.0,18163.0,7651.0,8137.0,8335.0,4235.0,2017.0,869.0,37.0,2.0
481944,County,2020/05/30,48.0,TX,48057.0,Calhoun County,4123.0,17438.0,60672.0,14740.0,16620.0,8655.0,7700.0,6320.0,4152.0,1778.0,659.0,47.0,1.0
483500,County,2020/05/31,48.0,TX,48057.0,Calhoun County,4112.0,17449.0,59785.0,16193.0,15863.0,6494.0,7379.0,6414.0,3973.0,2022.0,1390.0,57.0,0.0
488391,County,2020/06/01,48.0,TX,48057.0,Calhoun County,3727.0,17834.0,61166.0,15283.0,18150.0,6798.0,7207.0,6981.0,3895.0,2043.0,747.0,61.0,1.0
491498,County,2020/06/02,48.0,TX,48057.0,Calhoun County,3836.0,17725.0,62550.0,14173.0,17825.0,6470.0,8996.0,7229.0,4848.0,2016.0,923.0,62.0,8.0
494719,County,2020/06/03,48.0,TX,48057.0,Calhoun County,3653.0,17908.0,65543.0,16165.0,18395.0,7038.0,9346.0,7833.0,4530.0,1365.0,803.0,60.0,8.0
496338,County,2020/06/04,48.0,TX,48057.0,Calhoun County,3332.0,18229.0,69985.0,17682.0,19573.0,7114.0,10202.0,7930.0,4869.0,1696.0,808.0,108.0,3.0
499542,County,2020/06/05,48.0,TX,48057.0,Calhoun County,3228.0,18333.0,74078.0,17811.0,21846.0,8051.0,9135.0,8222.0,5169.0,2533.0,1264.0,43.0,4.0
502689,County,2020/06/06,48.0,TX,48057.0,Calhoun County,4265.0,17296.0,60329.0,14721.0,17163.0,6802.0,8460.0,6284.0,4608.0,1367.0,898.0,18.0,8.0
505880,County,2020/06/07,48.0,TX,48057.0,Calhoun County,4240.0,17321.0,56312.0,13215.0,16270.0,6503.0,7883.0,5453.0,3744.0,1814.0,1311.0,114.0,5.0
509103,County,2020/06/08,48.0,TX,48057.0,Calhoun County,3158.0,18403.0,77731.0,17015.0,21923.0,9275.0,12052.0,8567.0,5239.0,2723.0,879.0,53.0,5.0
513881,County,2020/06/09,48.0,TX,48057.0,Calhoun County,3349.0,18212.0,70107.0,17185.0,20325.0,7088.0,10467.0,7914.0,4883.0,1627.0,580.0,30.0,8.0
517087,County,2020/06/10,48.0,TX,48057.0,Calhoun County,3450.0,18111.0,73555.0,20383.0,18989.0,7253.0,11433.0,8093.0,4817.0,1883.0,651.0,46.0,7.0
520244,County,2020/06/11,48.0,TX,48057.0,Calhoun County,3459.0,18102.0,72555.0,17439.0,20039.0,7101.0,11313.0,8003.0,5328.0,2330.0,910.0,91.0,1.0
521918,County,2020/06/12,48.0,TX,48057.0,Calhoun County,3663.0,17898.0,70865.0,17446.0,19492.0,7351.0,10174.0,7675.0,5440.0,2206.0,959.0,120.0,2.0
526653,County,2020/06/13,48.0,TX,48057.0,Calhoun County,3631.0,17930.0,67551.0,17066.0,19689.0,7404.0,9466.0,7061.0,4262.0,1804.0,695.0,102.0,2.0
529858,County,2020/06/14,48.0,TX,48057.0,Calhoun County,4011.0,17550.0,58039.0,13393.0,16843.0,7162.0,6876.0,6263.0,3963.0,2246.0,1220.0,68.0,5.0
533048,County,2020/06/15,48.0,TX,48057.0,Calhoun County,3565.0,17996.0,66304.0,16498.0,17404.0,7777.0,9411.0,8096.0,4314.0,1879.0,855.0,61.0,9.0
534675,County,2020/06/16,48.0,TX,48057.0,Calhoun County,3665.0,17896.0,71729.0,18187.0,19682.0,8330.0,10078.0,9275.0,4190.0,1482.0,464.0,37.0,4.0
537869,County,2020/06/17,48.0,TX,48057.0,Calhoun County,3388.0,18173.0,71842.0,16927.0,21025.0,8365.0,9743.0,8760.0,4493.0,1887.0,598.0,43.0,1.0
542630,County,2020/06/18,48.0,TX,48057.0,Calhoun County,3335.0,18226.0,67122.0,16152.0,17925.0,7491.0,9237.0,8794.0,4460.0,2193.0,825.0,42.0,3.0
545783,County,2020/06/19,48.0,TX,48057.0,Calhoun County,3458.0,18103.0,70148.0,15864.0,19737.0,8668.0,9507.0,8932.0,4775.0,1758.0,798.0,107.0,2.0
549018,County,2020/06/20,48.0,TX,48057.0,Calhoun County,3780.0,17781.0,61795.0,13910.0,17875.0,7784.0,8253.0,6941.0,3983.0,2044.0,928.0,74.0,3.0
552205,County,2020/06/21,48.0,TX,48057.0,Calhoun County,4282.0,17279.0,51528.0,12486.0,15385.0,5020.0,6212.0,5797.0,3519.0,1833.0,1172.0,101.0,3.0
553841,County,2020/06/22,48.0,TX,48057.0,Calhoun County,4050.0,17511.0,57909.0,14527.0,15470.0,6201.0,8275.0,6571.0,3668.0,2193.0,939.0,59.0,6.0
558601,County,2020/06/23,48.0,TX,48057.0,Calhoun County,3901.0,17660.0,58492.0,13767.0,15617.0,5923.0,8960.0,7333.0,4397.0,1524.0,917.0,45.0,9.0
561794,County,2020/06/24,48.0,TX,48057.0,Calhoun County,3665.0,17896.0,53485.0,12142.0,14273.0,5769.0,7987.0,6890.0,3503.0,1874.0,1002.0,39.0,6.0
563422,County,2020/06/25,48.0,TX,48057.0,Calhoun County,3796.0,17765.0,55026.0,12643.0,15231.0,6095.0,7626.0,6620.0,4217.0,1443.0,1098.0,50.0,3.0
566675,County,2020/06/26,48.0,TX,48057.0,Calhoun County,4002.0,17559.0,54264.0,12224.0,15710.0,5690.0,8013.0,6127.0,4095.0,1238.0,1082.0,82.0,3.0
569797,County,2020/06/27,48.0,TX,48057.0,Calhoun County,3798.0,17763.0,61007.0,14214.0,18080.0,6931.0,9249.0,6621.0,3609.0,1327.0,899.0,71.0,6.0
572992,County,2020/06/28,48.0,TX,48057.0,Calhoun County,3748.0,17813.0,52441.0,13898.0,13661.0,4631.0,6814.0,5986.0,4101.0,2000.0,1254.0,91.0,5.0
577768,County,2020/06/29,48.0,TX,48057.0,Calhoun County,3811.0,17750.0,61078.0,15673.0,15721.0,6701.0,8998.0,7354.0,4072.0,1602.0,902.0,47.0,8.0
580962,County,2020/06/30,48.0,TX,48057.0,Calhoun County,3816.0,17745.0,60325.0,13922.0,17210.0,6007.0,9278.0,7543.0,3789.0,1647.0,869.0,39.0,21.0
584153,County,2020/07/01,48.0,TX,48057.0,Calhoun County,3563.0,17998.0,61572.0,14202.0,17562.0,5834.0,9102.0,8395.0,4304.0,1564.0,574.0,24.0,11.0
587349,County,2020/07/02,48.0,TX,48057.0,Calhoun County,4430.0,17131.0,58403.0,13419.0,16166.0,6469.0,8094.0,7026.0,4476.0,1532.0,1165.0,53.0,3.0
588989,County,2020/07/03,48.0,TX,48057.0,Calhoun County,4565.0,16996.0,53958.0,12155.0,15621.0,5658.0,7968.0,6092.0,4072.0,1231.0,1076.0,82.0,3.0
593732,County,2020/07/04,48.0,TX,48057.0,Calhoun County,4931.0,16630.0,46164.0,10399.0,13365.0,4841.0,6817.0,5212.0,3484.0,1053.0,920.0,70.0,3.0
595385,County,2020/07/05,48.0,TX,48057.0,Calhoun County,4383.0,17178.0,49770.0,11202.0,13080.0,5464.0,6849.0,6147.0,3821.0,1642.0,1444.0,117.0,4.0
598037,County,2020/07/06,48.0,TX,48057.0,Calhoun County,3968.0,17593.0,56980.0,12657.0,16001.0,7129.0,7487.0,6901.0,3731.0,1967.0,1021.0,77.0,9.0
602141,County,2020/07/07,48.0,TX,48057.0,Calhoun County,3749.0,17812.0,58137.0,13154.0,15645.0,6219.0,9051.0,6910.0,4564.0,1531.0,1046.0,15.0,2.0
606460,County,2020/07/08,48.0,TX,48057.0,Calhoun County,3887.0,17674.0,59420.0,14412.0,16235.0,5619.0,9388.0,7143.0,4025.0,1530.0,992.0,72.0,4.0
608137,County,2020/07/09,48.0,TX,48057.0,Calhoun County,3787.0,17774.0,59791.0,13512.0,17640.0,5533.0,8882.0,6881.0,4409.0,2000.0,915.0,15.0,4.0
611337,County,2020/07/10,48.0,TX,48057.0,Calhoun County,3676.0,17885.0,60285.0,13506.0,16626.0,6326.0,9064.0,7535.0,4132.0,1970.0,1050.0,70.0,6.0
614547,County,2020/07/11,48.0,TX,48057.0,Calhoun County,3903.0,17658.0,56997.0,12963.0,16276.0,7055.0,7896.0,6715.0,3589.0,1643.0,791.0,61.0,8.0
617718,County,2020/07/12,48.0,TX,48057.0,Calhoun County,4297.0,17264.0,50216.0,11844.0,14235.0,4829.0,6732.0,6552.0,3055.0,1757.0,1124.0,73.0,15.0
620907,County,2020/07/13,48.0,TX,48057.0,Calhoun County,4082.0,17479.0,57272.0,13184.0,15422.0,6705.0,7560.0,7204.0,4470.0,1699.0,983.0,32.0,13.0
625673,County,2020/07/14,48.0,TX,48057.0,Calhoun County,4206.0,17355.0,59137.0,15008.0,17692.0,5650.0,7922.0,6321.0,4141.0,1506.0,872.0,8.0,17.0
628845,County,2020/07/15,48.0,TX,48057.0,Calhoun County,4047.0,17514.0,60795.0,15587.0,17358.0,6183.0,8034.0,7059.0,4228.0,1648.0,665.0,27.0,6.0
630471,County,2020/07/16,48.0,TX,48057.0,Calhoun County,4258.0,17303.0,59762.0,15086.0,16764.0,6024.0,8513.0,6705.0,4368.0,1681.0,598.0,18.0,5.0
633678,County,2020/07/17,48.0,TX,48057.0,Calhoun County,4187.0,17374.0,57952.0,14757.0,14877.0,5832.0,8277.0,7818.0,3833.0,1628.0,860.0,67.0,3.0
636884,County,2020/07/18,48.0,TX,48057.0,Calhoun County,4314.0,17247.0,56562.0,11230.0,15460.0,7640.0,8802.0,6916.0,4134.0,1237.0,1093.0,49.0,1.0
640039,County,2020/07/19,48.0,TX,48057.0,Calhoun County,4568.0,16993.0,48070.0,11380.0,13572.0,4246.0,6876.0,5869.0,3539.0,1132.0,1371.0,76.0,9.0
643272,County,2020/07/20,48.0,TX,48057.0,Calhoun County,4194.0,17367.0,61425.0,15397.0,17090.0,6626.0,7527.0,7986.0,4337.0,1657.0,725.0,75.0,5.0
646840,County,2020/07/21,48.0,TX,48057.0,Calhoun County,4136.0,17425.0,58920.0,15108.0,15723.0,6051.0,8243.0,6940.0,4493.0,1598.0,720.0,41.0,3.0
651225,County,2020/07/22,48.0,TX,48057.0,Calhoun County,3937.0,17624.0,59418.0,14034.0,16728.0,6340.0,8574.0,6959.0,4004.0,1912.0,794.0,65.0,8.0
652768,County,2020/07/23,48.0,TX,48057.0,Calhoun County,4095.0,17466.0,57904.0,13784.0,16349.0,5627.0,8722.0,6904.0,3594.0,2139.0,748.0,33.0,4.0
657694,County,2020/07/24,48.0,TX,48057.0,Calhoun County,3660.0,17901.0,59069.0,14430.0,15836.0,6018.0,7479.0,6703.0,4491.0,2236.0,1768.0,103.0,5.0
659236,County,2020/07/25,48.0,TX,48057.0,Calhoun County,4873.0,16688.0,50284.0,11501.0,15863.0,7385.0,5378.0,5575.0,2964.0,997.0,517.0,97.0,7.0
663943,County,2020/07/26,48.0,TX,48057.0,Calhoun County,4861.0,16700.0,51212.0,12218.0,16655.0,5851.0,4952.0,4904.0,3340.0,1998.0,1199.0,91.0,4.0
667216,County,2020/07/27,48.0,TX,48057.0,Calhoun County,4144.0,17417.0,60329.0,13899.0,17901.0,6970.0,7814.0,7509.0,3585.0,1570.0,1011.0,63.0,7.0
668893,County,2020/07/28,48.0,TX,48057.0,Calhoun County,4040.0,17521.0,62904.0,15869.0,17544.0,5654.0,9210.0,7582.0,4400.0,1638.0,970.0,30.0,7.0
673681,County,2020/07/29,48.0,TX,48057.0,Calhoun County,4067.0,17494.0,63780.0,17040.0,16793.0,6223.0,9750.0,6889.0,4137.0,1819.0,1026.0,92.0,11.0
676762,County,2020/07/30,48.0,TX,48057.0,Calhoun County,3932.0,17629.0,67674.0,18986.0,19301.0,5722.0,8512.0,7384.0,4712.0,1931.0,1069.0,46.0,11.0
678413,County,2020/07/31,48.0,TX,48057.0,Calhoun County,4157.0,17404.0,64282.0,16635.0,17195.0,7073.0,10460.0,6896.0,3552.0,1478.0,920.0,60.0,13.0
683159,County,2020/08/01,48.0,TX,48057.0,Calhoun County,4525.0,17036.0,60600.0,15394.0,17572.0,6212.0,8583.0,6763.0,3717.0,1284.0,983.0,84.0,8.0
684793,County,2020/08/02,48.0,TX,48057.0,Calhoun County,4296.0,17265.0,57638.0,14039.0,16531.0,6107.0,8149.0,5640.0,3814.0,1905.0,1372.0,75.0,6.0
689554,County,2020/08/03,48.0,TX,48057.0,Calhoun County,3917.0,17644.0,57799.0,14073.0,15759.0,5848.0,8391.0,6976.0,3822.0,1443.0,1408.0,75.0,4.0
691182,County,2020/08/04,48.0,TX,48057.0,Calhoun County,3508.0,18053.0,67108.0,16432.0,18762.0,7546.0,10408.0,6675.0,4568.0,1940.0,729.0,44.0,4.0
695941,County,2020/08/05,48.0,TX,48057.0,Calhoun County,3786.0,17775.0,63783.0,16707.0,17589.0,6434.0,9848.0,6904.0,3655.0,1850.0,759.0,32.0,5.0
699136,County,2020/08/06,48.0,TX,48057.0,Calhoun County,3772.0,17789.0,61713.0,14512.0,17400.0,5978.0,9778.0,6842.0,4612.0,1744.0,749.0,95.0,3.0
702332,County,2020/08/07,48.0,TX,48057.0,Calhoun County,3586.0,17975.0,62345.0,14554.0,17209.0,6663.0,9996.0,6693.0,4407.0,1929.0,789.0,103.0,2.0
705524,County,2020/08/08,48.0,TX,48057.0,Calhoun County,3768.0,17793.0,61869.0,15465.0,17573.0,7619.0,8571.0,6153.0,3850.0,1541.0,1011.0,84.0,2.0
708743,County,2020/08/09,48.0,TX,48057.0,Calhoun County,4395.0,17166.0,57866.0,14289.0,16932.0,6015.0,7729.0,5721.0,3436.0,1930.0,1639.0,170.0,5.0
710372,County,2020/08/10,48.0,TX,48057.0,Calhoun County,4153.0,17408.0,63448.0,15374.0,19085.0,6128.0,9221.0,6448.0,4474.0,1836.0,840.0,39.0,3.0
713589,County,2020/08/11,48.0,TX,48057.0,Calhoun County,3876.0,17685.0,68449.0,16237.0,19357.0,7349.0,9239.0,8075.0,5110.0,2147.0,853.0,81.0,1.0
716637,County,2020/08/12,48.0,TX,48057.0,Calhoun County,3972.0,17589.0,63435.0,14961.0,18360.0,6267.0,8822.0,7363.0,4585.0,2070.0,895.0,93.0,19.0
719929,County,2020/08/13,48.0,TX,48057.0,Calhoun County,3918.0,17643.0,67806.0,16595.0,18338.0,7082.0,10444.0,7749.0,4818.0,1796.0,904.0,54.0,26.0
723121,County,2020/08/14,48.0,TX,48057.0,Calhoun County,3780.0,17781.0,68240.0,14572.0,20068.0,7347.0,10356.0,7729.0,4456.0,2307.0,1305.0,76.0,24.0
726352,County,2020/08/15,48.0,TX,48057.0,Calhoun County,4038.0,17523.0,64310.0,13852.0,18542.0,7960.0,9423.0,6525.0,4607.0,2219.0,1078.0,82.0,22.0
731075,County,2020/08/16,48.0,TX,48057.0,Calhoun County,4039.0,17522.0,58626.0,12324.0,15886.0,6367.0,6665.0,7064.0,5438.0,2869.0,1857.0,135.0,21.0
732705,County,2020/08/17,48.0,TX,48057.0,Calhoun County,4259.0,17302.0,65658.0,14953.0,19514.0,6280.0,8683.0,8033.0,4685.0,2034.0,1393.0,55.0,28.0
735920,County,2020/08/18,48.0,TX,48057.0,Calhoun County,4106.0,17455.0,64773.0,14210.0,19196.0,5846.0,9851.0,7085.0,4912.0,2212.0,1351.0,74.0,36.0
740658,County,2020/08/19,48.0,TX,48057.0,Calhoun County,4036.0,17525.0,68896.0,15236.0,20224.0,7620.0,9753.0,8380.0,4626.0,1859.0,1078.0,95.0,25.0
743857,County,2020/08/20,48.0,TX,48057.0,Calhoun County,3728.0,17833.0,67891.0,16487.0,17429.0,6330.0,9928.0,8486.0,5621.0,2531.0,986.0,72.0,21.0
747062,County,2020/08/21,48.0,TX,48057.0,Calhoun County,3450.0,18111.0,68925.0,16371.0,17879.0,6605.0,10892.0,8128.0,5884.0,1684.0,1375.0,72.0,35.0
748691,County,2020/08/22,48.0,TX,48057.0,Calhoun County,3784.0,17777.0,68908.0,16254.0,19941.0,6103.0,10570.0,7535.0,4933.0,1790.0,1562.0,199.0,21.0
751885,County,2020/08/23,48.0,TX,48057.0,Calhoun County,4649.0,16912.0,51855.0,12586.0,14012.0,5206.0,7041.0,5776.0,3320.0,2101.0,1677.0,115.0,21.0
756628,County,2020/08/24,48.0,TX,48057.0,Calhoun County,4070.0,17491.0,55002.0,12740.0,14659.0,5544.0,8024.0,6599.0,4222.0,1978.0,1113.0,108.0,15.0
758257,County,2020/08/25,48.0,TX,48057.0,Calhoun County,4283.0,17278.0,60065.0,14906.0,17320.0,5611.0,7996.0,6799.0,4566.0,1812.0,970.0,62.0,23.0
762979,County,2020/08/26,48.0,TX,48057.0,Calhoun County,3743.0,17818.0,57299.0,12492.0,16800.0,5624.0,8453.0,6546.0,4604.0,1778.0,923.0,64.0,15.0
764608,County,2020/08/27,48.0,TX,48057.0,Calhoun County,4049.0,17512.0,55285.0,13053.0,15363.0,5070.0,8170.0,6692.0,4440.0,1505.0,919.0,67.0,6.0
769391,County,2020/08/28,48.0,TX,48057.0,Calhoun County,4185.0,17376.0,59108.0,13106.0,16751.0,6075.0,8411.0,7059.0,4077.0,2260.0,1295.0,62.0,12.0
772591,County,2020/08/29,48.0,TX,48057.0,Calhoun County,4388.0,17173.0,60164.0,12812.0,16707.0,6353.0,9958.0,6969.0,4361.0,1909.0,1016.0,66.0,13.0
775792,County,2020/08/30,48.0,TX,48057.0,Calhoun County,4452.0,17109.0,57743.0,14751.0,15806.0,5693.0,7896.0,5865.0,4412.0,1559.0,1588.0,154.0,19.0
778989,County,2020/08/31,48.0,TX,48057.0,Calhoun County,4188.0,17373.0,59436.0,13954.0,16520.0,5348.0,8439.0,7179.0,4447.0,1978.0,1475.0,73.0,23.0
782180,County,2020/09/01,48.0,TX,48057.0,Calhoun County,4039.0,17522.0,62087.0,16548.0,15885.0,6297.0,8375.0,7696.0,4520.0,1626.0,1058.0,64.0,18.0
785375,County,2020/09/02,48.0,TX,48057.0,Calhoun County,4103.0,17458.0,63842.0,16133.0,18038.0,5701.0,8924.0,8467.0,4121.0,1576.0,788.0,82.0,12.0
786935,County,2020/09/03,48.0,TX,48057.0,Calhoun County,3817.0,17744.0,68507.0,17859.0,20177.0,6134.0,9481.0,7451.0,4397.0,1844.0,1119.0,38.0,7.0
790200,County,2020/09/04,48.0,TX,48057.0,Calhoun County,4180.0,17381.0,68800.0,16401.0,20509.0,6004.0,9501.0,7253.0,4937.0,2336.0,1650.0,189.0,20.0
793273,County,2020/09/05,48.0,TX,48057.0,Calhoun County,4011.0,17550.0,65560.0,14901.0,19597.0,7430.0,8273.0,7181.0,4595.0,2034.0,1402.0,130.0,17.0
796558,County,2020/09/06,48.0,TX,48057.0,Calhoun County,4478.0,17083.0,56381.0,13187.0,15020.0,6446.0,8432.0,6632.0,3917.0,1612.0,1046.0,69.0,20.0
799773,County,2020/09/07,48.0,TX,48057.0,Calhoun County,4492.0,17069.0,56714.0,13542.0,16278.0,6593.0,5955.0,5290.0,4378.0,2796.0,1676.0,194.0,12.0
804538,County,2020/09/08,48.0,TX,48057.0,Calhoun County,4176.0,17385.0,64030.0,14618.0,17597.0,6116.0,8803.0,9198.0,4340.0,2008.0,1248.0,95.0,7.0
806167,County,2020/09/09,48.0,TX,48057.0,Calhoun County,3846.0,17715.0,65937.0,16095.0,18218.0,6086.0,8799.0,8532.0,5037.0,2018.0,1037.0,103.0,12.0
809359,County,2020/09/10,48.0,TX,48057.0,Calhoun County,3935.0,17626.0,61605.0,14723.0,16641.0,6119.0,8727.0,7071.0,5067.0,2213.0,1000.0,36.0,8.0
814120,County,2020/09/11,48.0,TX,48057.0,Calhoun County,3878.0,17683.0,67467.0,14604.0,18795.0,7083.0,9745.0,8654.0,5128.0,2205.0,1168.0,76.0,9.0
817314,County,2020/09/12,48.0,TX,48057.0,Calhoun County,4354.0,17207.0,61626.0,14320.0,17251.0,6772.0,8207.0,7487.0,4218.0,2195.0,1094.0,74.0,8.0
818921,County,2020/09/13,48.0,TX,48057.0,Calhoun County,4976.0,16585.0,54976.0,13277.0,15514.0,5438.0,7395.0,5737.0,4200.0,1852.0,1528.0,19.0,16.0
823703,County,2020/09/14,48.0,TX,48057.0,Calhoun County,3942.0,17619.0,63441.0,15645.0,16785.0,5934.0,9247.0,7374.0,4967.0,2127.0,1236.0,119.0,7.0
826896,County,2020/09/15,48.0,TX,48057.0,Calhoun County,4218.0,17343.0,66058.0,16093.0,18236.0,5988.0,9502.0,8117.0,4867.0,2018.0,1103.0,132.0,2.0
830090,County,2020/09/16,48.0,TX,48057.0,Calhoun County,4049.0,17512.0,63722.0,16313.0,16354.0,5338.0,8983.0,7875.0,5197.0,2422.0,1136.0,90.0,14.0
831717,County,2020/09/17,48.0,TX,48057.0,Calhoun County,3927.0,17634.0,62593.0,12942.0,16592.0,6465.0,9866.0,7913.0,5496.0,2243.0,987.0,79.0,10.0
836478,County,2020/09/18,48.0,TX,48057.0,Calhoun County,4063.0,17498.0,67175.0,17199.0,17789.0,6421.0,10146.0,7539.0,4671.0,1888.0,1408.0,113.0,1.0
838107,County,2020/09/19,48.0,TX,48057.0,Calhoun County,3892.0,17669.0,66074.0,14890.0,18337.0,6411.0,9208.0,8712.0,5019.0,2130.0,1265.0,97.0,5.0
841300,County,2020/09/20,48.0,TX,48057.0,Calhoun County,4351.0,17210.0,49013.0,11166.0,13368.0,5851.0,5916.0,5250.0,3351.0,1881.0,2024.0,196.0,10.0
846087,County,2020/09/21,48.0,TX,48057.0,Calhoun County,5585.0,15976.0,47808.0,10419.0,15309.0,5282.0,5714.0,5484.0,3455.0,1313.0,763.0,61.0,8.0
849254,County,2020/09/22,48.0,TX,48057.0,Calhoun County,4674.0,16887.0,51283.0,10427.0,15207.0,6706.0,6788.0,5876.0,3540.0,1417.0,1181.0,137.0,4.0
850882,County,2020/09/23,48.0,TX,48057.0,Calhoun County,4187.0,17374.0,56162.0,12538.0,16021.0,5856.0,7838.0,7122.0,3670.0,2024.0,991.0,99.0,3.0
854072,County,2020/09/24,48.0,TX,48057.0,Calhoun County,4332.0,17229.0,63346.0,15746.0,18120.0,6214.0,8933.0,7127.0,4438.0,1813.0,888.0,66.0,1.0
858836,County,2020/09/25,48.0,TX,48057.0,Calhoun County,4059.0,17502.0,65366.0,14602.0,19446.0,5988.0,9921.0,7896.0,4924.0,1497.0,1027.0,62.0,3.0
862030,County,2020/09/26,48.0,TX,48057.0,Calhoun County,4480.0,17081.0,64830.0,16525.0,18176.0,6258.0,9255.0,7495.0,4516.0,1717.0,859.0,27.0,2.0
863635,County,2020/09/27,48.0,TX,48057.0,Calhoun County,4512.0,17049.0,55794.0,13584.0,15261.0,5374.0,7809.0,5947.0,4331.0,2142.0,1302.0,38.0,6.0
868418,County,2020/09/28,48.0,TX,48057.0,Calhoun County,4137.0,17424.0,60501.0,14229.0,18845.0,5890.0,8311.0,6786.0,4060.0,1478.0,831.0,65.0,6.0
871611,County,2020/09/29,48.0,TX,48057.0,Calhoun County,4113.0,17448.0,62822.0,14608.0,18125.0,5952.0,9519.0,7402.0,4560.0,1781.0,835.0,37.0,3.0
873240,County,2020/09/30,48.0,TX,48057.0,Calhoun County,4312.0,17249.0,65044.0,15541.0,18893.0,5320.0,10249.0,7764.0,5036.0,1534.0,680.0,26.0,1.0
877979,County,2020/10/01,48.0,TX,48057.0,Calhoun County,3736.0,17825.0,65709.0,14770.0,19075.0,6762.0,9672.0,7557.0,4528.0,2379.0,923.0,40.0,3.0
881194,County,2020/10/02,48.0,TX,48057.0,Calhoun County,4079.0,17482.0,64231.0,15084.0,18010.0,6827.0,9085.0,7281.0,4716.0,2116.0,1052.0,58.0,2.0
884389,County,2020/10/03,48.0,TX,48057.0,Calhoun County,4347.0,17214.0,58692.0,13049.0,16373.0,7294.0,7793.0,6960.0,4430.0,1645.0,1063.0,82.0,3.0
887222,County,2020/10/04,48.0,TX,48057.0,Calhoun County,4564.0,16997.0,55758.0,13407.0,16380.0,5534.0,7933.0,5132.0,3851.0,2184.0,1295.0,42.0,0.0
890467,County,2020/10/05,48.0,TX,48057.0,Calhoun County,4808.0,16753.0,60799.0,14471.0,18793.0,5598.0,7757.0,7686.0,3727.0,1574.0,1139.0,53.0,1.0
893657,County,2020/10/06,48.0,TX,48057.0,Calhoun County,4593.0,16968.0,63496.0,14293.0,18333.0,6495.0,9240.0,7784.0,4297.0,2204.0,821.0,27.0,2.0
896828,County,2020/10/07,48.0,TX,48057.0,Calhoun County,4079.0,17482.0,67283.0,16051.0,19140.0,7364.0,9149.0,8038.0,5141.0,1682.0,674.0,43.0,1.0
900005,County,2020/10/08,48.0,TX,48057.0,Calhoun County,4074.0,17487.0,63625.0,14929.0,18155.0,6241.0,8441.0,8460.0,4230.0,2192.0,924.0,52.0,1.0
903212,County,2020/10/09,48.0,TX,48057.0,Calhoun County,4116.0,17445.0,61809.0,16137.0,17521.0,4514.0,8400.0,7344.0,4526.0,2190.0,1149.0,27.0,1.0
906037,County,2020/10/10,48.0,TX,48057.0,Calhoun County,4463.0,17098.0,64738.0,15238.0,19901.0,7437.0,9095.0,5954.0,3981.0,2019.0,1070.0,41.0,2.0
907814,County,2020/10/11,48.0,TX,48057.0,Calhoun County,4599.0,16962.0,55480.0,12661.0,15628.0,6517.0,7032.0,5467.0,4141.0,2383.0,1590.0,60.0,1.0
910973,County,2020/10/12,48.0,TX,48057.0,Calhoun County,3936.0,17625.0,62330.0,14893.0,17181.0,6783.0,7919.0,6779.0,5036.0,2376.0,1284.0,79.0,0.0
913841,County,2020/10/13,48.0,TX,48057.0,Calhoun County,4055.0,17506.0,67654.0,16258.0,20280.0,7577.0,8251.0,8105.0,4706.0,1645.0,789.0,40.0,3.0
917267,County,2020/10/14,48.0,TX,48057.0,Calhoun County,3897.0,17664.0,65407.0,16744.0,18537.0,5353.0,8979.0,7367.0,4660.0,2771.0,953.0,42.0,1.0
920611,County,2020/10/15,48.0,TX,48057.0,Calhoun County,4256.0,17305.0,62181.0,15521.0,16843.0,6568.0,7821.0,8185.0,4150.0,2011.0,1042.0,37.0,3.0
923620,County,2020/10/16,48.0,TX,48057.0,Calhoun County,3865.0,17696.0,66201.0,15544.0,18555.0,6554.0,8830.0,7628.0,5159.0,2445.0,1413.0,71.0,2.0
926346,County,2020/10/17,48.0,TX,48057.0,Calhoun County,4440.0,17121.0,66725.0,12642.0,21305.0,10091.0,8608.0,6995.0,4236.0,1864.0,881.0,101.0,2.0
929992,County,2020/10/18,48.0,TX,48057.0,Calhoun County,4122.0,17439.0,56704.0,14363.0,16300.0,5153.0,7455.0,5939.0,3931.0,1982.0,1464.0,115.0,2.0
932985,County,2020/10/19,48.0,TX,48057.0,Calhoun County,3864.0,17697.0,64280.0,15019.0,19637.0,5366.0,8000.0,8116.0,5050.0,2091.0,932.0,68.0,1.0
936483,County,2020/10/20,48.0,TX,48057.0,Calhoun County,3976.0,17585.0,67299.0,16523.0,19094.0,6316.0,9108.0,8747.0,5031.0,1803.0,637.0,37.0,3.0
939966,County,2020/10/21,48.0,TX,48057.0,Calhoun County,4136.0,17425.0,62948.0,14597.0,17705.0,6070.0,9764.0,7225.0,5139.0,1773.0,649.0,23.0,3.0
942594,County,2020/10/22,48.0,TX,48057.0,Calhoun County,3784.0,17777.0,63204.0,16301.0,17023.0,5229.0,8705.0,8035.0,4548.0,2265.0,1006.0,89.0,3.0
945977,County,2020/10/23,48.0,TX,48057.0,Calhoun County,3485.0,18076.0,70364.0,17392.0,20179.0,6460.0,9937.0,8625.0,4882.0,1831.0,1017.0,39.0,2.0
949563,County,2020/10/24,48.0,TX,48057.0,Calhoun County,4046.0,17515.0,68298.0,16065.0,17991.0,8137.0,9280.0,8577.0,5344.0,2034.0,793.0,76.0,1.0
