,Level,Date,State FIPS,State Postal Code,County FIPS,County Name,Population Staying at Home,Population Not Staying at Home,Number of Trips,Number of Trips <1,Number of Trips 1-3,Number of Trips 3-5,Number of Trips 5-10,Number of Trips 10-25,Number of Trips 25-50,Number of Trips 50-100,Number of Trips 100-250,Number of Trips 250-500,Number of Trips >=500
474,County,2020/01/01,13.0,GA,13177.0,Lee County,6146.0,23618.0,88303.0,16281.0,23372.0,14033.0,17009.0,10940.0,3783.0,1715.0,978.0,155.0,37.0
5856,County,2020/01/02,13.0,GA,13177.0,Lee County,4626.0,25138.0,116050.0,19918.0,28418.0,17004.0,24773.0,16157.0,6139.0,2347.0,1198.0,85.0,11.0
8145,County,2020/01/03,13.0,GA,13177.0,Lee County,4466.0,25298.0,119206.0,20572.0,29618.0,19753.0,24472.0,16086.0,5091.0,2383.0,1064.0,154.0,13.0
9984,County,2020/01/04,13.0,GA,13177.0,Lee County,5084.0,24680.0,103752.0,21172.0,25805.0,15004.0,21218.0,13171.0,3396.0,2710.0,1138.0,126.0,12.0
13250,County,2020/01/05,13.0,GA,13177.0,Lee County,5893.0,23871.0,91729.0,14815.0,22043.0,14659.0,18968.0,12893.0,4450.0,2372.0,1414.0,102.0,13.0
16150,County,2020/01/06,13.0,GA,13177.0,Lee County,4596.0,25168.0,111818.0,18158.0,26280.0,17738.0,23431.0,17788.0,4652.0,2442.0,1158.0,160.0,11.0
19404,County,2020/01/07,13.0,GA,13177.0,Lee County,4485.0,25279.0,112137.0,19303.0,25572.0,17077.0,22554.0,19215.0,5299.0,2089.0,910.0,104.0,14.0
22587,County,2020/01/08,13.0,GA,13177.0,Lee County,4400.0,25364.0,114617.0,18125.0,27343.0,16790.0,24949.0,19021.0,4854.0,2362.0,1079.0,81.0,13.0
27384,County,2020/01/09,13.0,GA,13177.0,Lee County,4576.0,25188.0,114298.0,20062.0,26587.0,16837.0,24500.0,17945.0,5177.0,2186.0,889.0,102.0,13.0
28977,County,2020/01/10,13.0,GA,13177.0,Lee County,4408.0,25356.0,126355.0,21087.0,31207.0,20386.0,26367.0,17918.0,5528.0,2716.0,1027.0,111.0,8.0
32218,County,2020/01/11,13.0,GA,13177.0,Lee County,5351.0,24413.0,97877.0,16437.0,24689.0,17710.0,19332.0,12775.0,3734.0,2187.0,880.0,114.0,19.0
35374,County,2020/01/12,13.0,GA,13177.0,Lee County,5599.0,24165.0,89999.0,15678.0,22376.0,15028.0,17020.0,13146.0,3502.0,1734.0,1335.0,162.0,18.0
40153,County,2020/01/13,13.0,GA,13177.0,Lee County,4467.0,25297.0,110497.0,18949.0,26957.0,14662.0,24922.0,17199.0,4283.0,2233.0,1145.0,139.0,8.0
43351,County,2020/01/14,13.0,GA,13177.0,Lee County,4244.0,25520.0,113408.0,19122.0,23922.0,15943.0,25264.0,20036.0,5420.0,2420.0,1147.0,124.0,10.0
44932,County,2020/01/15,13.0,GA,13177.0,Lee County,4474.0,25290.0,118742.0,20501.0,29689.0,15968.0,24921.0,17941.0,5654.0,2684.0,1258.0,118.0,8.0
48083,County,2020/01/16,13.0,GA,13177.0,Lee County,4332.0,25432.0,118988.0,19543.0,27248.0,17825.0,25455.0,19458.0,5490.0,2589.0,1169.0,181.0,30.0
51340,County,2020/01/17,13.0,GA,13177.0,Lee County,4440.0,25324.0,125883.0,20974.0,29236.0,19585.0,27205.0,19320.0,4929.0,3247.0,1240.0,134.0,13.0
56072,County,2020/01/18,13.0,GA,13177.0,Lee County,4801.0,24963.0,113792.0,20187.0,27930.0,17550.0,22697.0,15071.0,4976.0,3585.0,1658.0,114.0,24.0
57720,County,2020/01/19,13.0,GA,13177.0,Lee County,5990.0,23774.0,91835.0,16989.0,20275.0,14232.0,19317.0,13009.0,3855.0,2533.0,1482.0,137.0,6.0
62482,County,2020/01/20,13.0,GA,13177.0,Lee County,5048.0,24716.0,103549.0,17432.0,24909.0,16485.0,22215.0,13603.0,4838.0,2581.0,1308.0,167.0,11.0
64109,County,2020/01/21,13.0,GA,13177.0,Lee County,4632.0,25132.0,108734.0,16933.0,25912.0,15572.0,24704.0,17607.0,4520.0,2357.0,983.0,136.0,10.0
67311,County,2020/01/22,13.0,GA,13177.0,Lee County,4252.0,25512.0,112269.0,17870.0,26330.0,16860.0,25210.0,17930.0,5290.0,1606.0,1059.0,96.0,18.0
70496,County,2020/01/23,13.0,GA,13177.0,Lee County,4686.0,25078.0,117139.0,22659.0,28061.0,15153.0,25203.0,17705.0,4618.0,2475.0,1154.0,101.0,10.0
73693,County,2020/01/24,13.0,GA,13177.0,Lee County,4429.0,25335.0,122151.0,20303.0,28348.0,19242.0,25937.0,17728.0,5796.0,3167.0,1495.0,130.0,5.0
76885,County,2020/01/25,13.0,GA,13177.0,Lee County,5247.0,24517.0,115120.0,21300.0,24588.0,19583.0,23573.0,16333.0,5833.0,2732.0,976.0,180.0,22.0
80324,County,2020/01/26,13.0,GA,13177.0,Lee County,5495.0,24269.0,90982.0,16161.0,22666.0,14694.0,17002.0,12747.0,3389.0,2380.0,1804.0,129.0,10.0
84514,County,2020/01/27,13.0,GA,13177.0,Lee County,4172.0,25592.0,116847.0,20677.0,27667.0,16382.0,24660.0,19000.0,4678.0,2444.0,1256.0,62.0,21.0
86482,County,2020/01/28,13.0,GA,13177.0,Lee County,3993.0,25771.0,115261.0,20033.0,25993.0,15546.0,24618.0,19216.0,6066.0,2765.0,902.0,89.0,33.0
89636,County,2020/01/29,13.0,GA,13177.0,Lee County,4675.0,25089.0,108394.0,17796.0,24211.0,15864.0,24307.0,17365.0,5147.0,2326.0,1245.0,123.0,10.0
92941,County,2020/01/30,13.0,GA,13177.0,Lee County,4425.0,25339.0,115518.0,21658.0,26588.0,16655.0,24526.0,17543.0,4194.0,2998.0,1121.0,190.0,45.0
96044,County,2020/01/31,13.0,GA,13177.0,Lee County,4267.0,25497.0,117198.0,21053.0,25166.0,17897.0,25739.0,18279.0,4501.0,2771.0,1614.0,115.0,63.0
99293,County,2020/02/01,13.0,GA,13177.0,Lee County,5106.0,24658.0,114000.0,21586.0,27114.0,16766.0,23334.0,17075.0,3787.0,2729.0,1422.0,113.0,74.0
102421,County,2020/02/02,13.0,GA,13177.0,Lee County,5638.0,24126.0,100163.0,16986.0,28547.0,13858.0,20529.0,12859.0,3115.0,1797.0,2303.0,106.0,63.0
105631,County,2020/02/03,13.0,GA,13177.0,Lee County,4233.0,25531.0,117835.0,20172.0,29696.0,16182.0,23907.0,17413.0,5237.0,3160.0,1943.0,69.0,56.0
110392,County,2020/02/04,13.0,GA,13177.0,Lee County,4348.0,25416.0,118527.0,20972.0,28023.0,15915.0,26272.0,18169.0,5662.0,2172.0,1214.0,93.0,35.0
112019,County,2020/02/05,13.0,GA,13177.0,Lee County,4543.0,25221.0,109454.0,20075.0,26537.0,14011.0,21766.0,18260.0,4880.0,2479.0,1285.0,107.0,54.0
115163,County,2020/02/06,13.0,GA,13177.0,Lee County,5274.0,24490.0,100988.0,18474.0,24401.0,14538.0,21248.0,14150.0,4092.0,2333.0,1520.0,177.0,55.0
118380,County,2020/02/07,13.0,GA,13177.0,Lee County,3748.0,26016.0,123019.0,22062.0,29179.0,17595.0,25833.0,18128.0,5319.0,2852.0,1881.0,107.0,63.0
121627,County,2020/02/08,13.0,GA,13177.0,Lee County,5236.0,24528.0,106760.0,18645.0,26138.0,17023.0,20204.0,15255.0,4749.0,2986.0,1661.0,41.0,58.0
124795,County,2020/02/09,13.0,GA,13177.0,Lee County,6040.0,23724.0,79375.0,11975.0,19274.0,12921.0,15892.0,12182.0,3353.0,2145.0,1459.0,99.0,75.0
128783,County,2020/02/10,13.0,GA,13177.0,Lee County,3933.0,25831.0,102490.0,15634.0,23755.0,14227.0,25137.0,16137.0,4122.0,2103.0,1149.0,172.0,54.0
131429,County,2020/02/11,13.0,GA,13177.0,Lee County,3893.0,25871.0,108090.0,17771.0,24794.0,14551.0,25748.0,17034.0,4295.0,2499.0,1208.0,139.0,51.0
134852,County,2020/02/12,13.0,GA,13177.0,Lee County,3746.0,26018.0,106052.0,15638.0,25234.0,15340.0,24534.0,17210.0,4482.0,2114.0,1275.0,135.0,90.0
139184,County,2020/02/13,13.0,GA,13177.0,Lee County,3389.0,26375.0,111741.0,17539.0,26177.0,15960.0,25351.0,17872.0,4250.0,2858.0,1465.0,190.0,79.0
142339,County,2020/02/14,13.0,GA,13177.0,Lee County,3249.0,26515.0,121110.0,20094.0,29188.0,17837.0,27158.0,17495.0,4706.0,2793.0,1622.0,151.0,66.0
143963,County,2020/02/15,13.0,GA,13177.0,Lee County,4473.0,25291.0,108893.0,18609.0,27777.0,14812.0,22343.0,15682.0,4423.0,3135.0,1866.0,138.0,108.0
147153,County,2020/02/16,13.0,GA,13177.0,Lee County,5749.0,24015.0,82344.0,13141.0,22043.0,11853.0,16720.0,11272.0,3387.0,2103.0,1627.0,109.0,89.0
151915,County,2020/02/17,13.0,GA,13177.0,Lee County,5111.0,24653.0,83944.0,11840.0,20102.0,13050.0,19460.0,11706.0,3716.0,2343.0,1533.0,152.0,42.0
153541,County,2020/02/18,13.0,GA,13177.0,Lee County,3617.0,26147.0,100828.0,15517.0,23232.0,15367.0,22064.0,16864.0,4602.0,1857.0,1107.0,163.0,55.0
158301,County,2020/02/19,13.0,GA,13177.0,Lee County,4096.0,25668.0,104181.0,16916.0,24179.0,14674.0,24010.0,16210.0,4762.0,2031.0,1214.0,120.0,65.0
159942,County,2020/02/20,13.0,GA,13177.0,Lee County,4320.0,25444.0,93608.0,14362.0,21308.0,13853.0,21225.0,14558.0,4331.0,2371.0,1378.0,158.0,64.0
164691,County,2020/02/21,13.0,GA,13177.0,Lee County,3748.0,26016.0,110101.0,16578.0,26916.0,17479.0,23581.0,16139.0,5476.0,2413.0,1354.0,107.0,58.0
167835,County,2020/02/22,13.0,GA,13177.0,Lee County,4985.0,24779.0,99450.0,14583.0,26182.0,16314.0,18947.0,14077.0,4585.0,3275.0,1268.0,159.0,60.0
171082,County,2020/02/23,13.0,GA,13177.0,Lee County,5409.0,24355.0,87557.0,13773.0,21888.0,14616.0,18119.0,12292.0,3050.0,2151.0,1529.0,86.0,53.0
172710,County,2020/02/24,13.0,GA,13177.0,Lee County,3576.0,26188.0,104305.0,17693.0,24949.0,15523.0,23426.0,15269.0,4147.0,2252.0,900.0,101.0,45.0
176635,County,2020/02/25,13.0,GA,13177.0,Lee County,3589.0,26175.0,106935.0,16482.0,25258.0,15791.0,24541.0,17150.0,4919.0,1938.0,738.0,92.0,26.0
179338,County,2020/02/26,13.0,GA,13177.0,Lee County,5148.0,24616.0,100137.0,16384.0,26684.0,14033.0,24548.0,12137.0,4033.0,1747.0,542.0,29.0,0.0
183505,County,2020/02/27,13.0,GA,13177.0,Lee County,3034.0,26730.0,110022.0,16466.0,25796.0,15625.0,26594.0,16868.0,5127.0,2452.0,988.0,82.0,24.0
185574,County,2020/02/28,13.0,GA,13177.0,Lee County,3199.0,26565.0,116898.0,19079.0,28490.0,17862.0,26323.0,16584.0,4620.0,2550.0,1285.0,78.0,27.0
188676,County,2020/02/29,13.0,GA,13177.0,Lee County,4056.0,25708.0,109767.0,18106.0,28087.0,17325.0,22293.0,15412.0,4456.0,2405.0,1587.0,59.0,37.0
191866,County,2020/03/01,13.0,GA,13177.0,Lee County,5142.0,24622.0,96382.0,15772.0,23780.0,14770.0,21162.0,12194.0,4173.0,2475.0,1901.0,113.0,42.0
196666,County,2020/03/02,13.0,GA,13177.0,Lee County,3999.0,25765.0,120626.0,19462.0,29916.0,18170.0,25771.0,17656.0,5396.0,2946.0,1161.0,97.0,51.0
199726,County,2020/03/03,13.0,GA,13177.0,Lee County,4038.0,25726.0,133008.0,24003.0,32121.0,17513.0,29322.0,19134.0,5879.0,3337.0,1554.0,123.0,22.0
203030,County,2020/03/04,13.0,GA,13177.0,Lee County,4157.0,25607.0,116156.0,17491.0,29873.0,15798.0,24129.0,19364.0,5491.0,2464.0,1326.0,183.0,37.0
204594,County,2020/03/05,13.0,GA,13177.0,Lee County,3775.0,25989.0,118676.0,18277.0,25975.0,18560.0,28412.0,19032.0,4243.0,2621.0,1382.0,160.0,14.0
209445,County,2020/03/06,13.0,GA,13177.0,Lee County,4119.0,25645.0,142322.0,21747.0,36550.0,22730.0,31572.0,18041.0,5293.0,4640.0,1564.0,155.0,30.0
212678,County,2020/03/07,13.0,GA,13177.0,Lee County,4709.0,25055.0,130758.0,28731.0,30192.0,20774.0,26036.0,15626.0,4180.0,3131.0,1913.0,145.0,30.0
214228,County,2020/03/08,13.0,GA,13177.0,Lee County,5392.0,24372.0,99211.0,18432.0,21732.0,15941.0,19631.0,14553.0,4148.0,2569.0,1964.0,228.0,13.0
217431,County,2020/03/09,13.0,GA,13177.0,Lee County,4519.0,25245.0,125362.0,20434.0,30137.0,15990.0,25597.0,22965.0,6225.0,2737.0,1084.0,167.0,26.0
222182,County,2020/03/10,13.0,GA,13177.0,Lee County,4519.0,25245.0,129398.0,21472.0,29828.0,22228.0,27979.0,18764.0,5166.0,2640.0,1239.0,71.0,11.0
223806,County,2020/03/11,13.0,GA,13177.0,Lee County,4726.0,25038.0,115565.0,21200.0,33950.0,16028.0,19048.0,16849.0,4376.0,2382.0,1362.0,311.0,59.0
228551,County,2020/03/12,13.0,GA,13177.0,Lee County,5246.0,24518.0,118894.0,20308.0,36149.0,13494.0,25471.0,13832.0,4844.0,2110.0,2203.0,393.0,90.0
230198,County,2020/03/13,13.0,GA,13177.0,Lee County,4834.0,24930.0,124746.0,23174.0,40347.0,14376.0,22244.0,15854.0,2779.0,3372.0,2347.0,157.0,96.0
233397,County,2020/03/14,13.0,GA,13177.0,Lee County,6199.0,23565.0,124239.0,23133.0,37134.0,17071.0,23271.0,15824.0,2903.0,2107.0,2362.0,295.0,139.0
236585,County,2020/03/15,13.0,GA,13177.0,Lee County,6686.0,23078.0,99469.0,22177.0,26293.0,13100.0,17571.0,12631.0,3854.0,1943.0,1737.0,140.0,23.0
239779,County,2020/03/16,13.0,GA,13177.0,Lee County,5790.0,23974.0,122747.0,25839.0,27574.0,16673.0,23504.0,18542.0,6134.0,2635.0,1738.0,86.0,22.0
244585,County,2020/03/17,13.0,GA,13177.0,Lee County,6163.0,23601.0,113273.0,21788.0,28952.0,16054.0,22417.0,16047.0,4756.0,1959.0,1224.0,58.0,18.0
247692,County,2020/03/18,13.0,GA,13177.0,Lee County,6888.0,22876.0,122096.0,22695.0,32359.0,16802.0,23288.0,16791.0,6148.0,3037.0,875.0,77.0,24.0
249371,County,2020/03/19,13.0,GA,13177.0,Lee County,6959.0,22805.0,117907.0,23240.0,31388.0,15567.0,21871.0,16564.0,5025.0,3269.0,898.0,77.0,8.0
252557,County,2020/03/20,13.0,GA,13177.0,Lee County,6074.0,23690.0,116096.0,22229.0,31201.0,16908.0,20707.0,15346.0,4951.0,2716.0,1934.0,76.0,28.0
255749,County,2020/03/21,13.0,GA,13177.0,Lee County,8029.0,21735.0,102291.0,23835.0,31668.0,14077.0,17086.0,10451.0,2625.0,1606.0,838.0,56.0,49.0
260502,County,2020/03/22,13.0,GA,13177.0,Lee County,7987.0,21777.0,79852.0,22132.0,22467.0,9585.0,10928.0,8709.0,2383.0,1685.0,1853.0,79.0,31.0
263714,County,2020/03/23,13.0,GA,13177.0,Lee County,6594.0,23170.0,94373.0,19611.0,24535.0,12592.0,16292.0,13820.0,4239.0,2176.0,968.0,99.0,41.0
266943,County,2020/03/24,13.0,GA,13177.0,Lee County,7060.0,22704.0,94041.0,19472.0,23267.0,10804.0,17130.0,15476.0,4352.0,1941.0,1500.0,62.0,37.0
270092,County,2020/03/25,13.0,GA,13177.0,Lee County,6845.0,22919.0,89816.0,17229.0,19035.0,14606.0,16227.0,15097.0,4121.0,2443.0,952.0,78.0,28.0
271719,County,2020/03/26,13.0,GA,13177.0,Lee County,6631.0,23133.0,93629.0,18980.0,24923.0,12183.0,17336.0,12571.0,3964.0,2285.0,1233.0,131.0,23.0
276481,County,2020/03/27,13.0,GA,13177.0,Lee County,6920.0,22844.0,97353.0,18302.0,25091.0,13815.0,19173.0,13027.0,4889.0,1922.0,1014.0,92.0,28.0
278108,County,2020/03/28,13.0,GA,13177.0,Lee County,7650.0,22114.0,89239.0,23672.0,22377.0,11537.0,15263.0,10776.0,3194.0,1537.0,770.0,86.0,27.0
282868,County,2020/03/29,13.0,GA,13177.0,Lee County,7999.0,21765.0,78308.0,17693.0,21303.0,8985.0,14361.0,10074.0,3131.0,1168.0,1405.0,173.0,15.0
284495,County,2020/03/30,13.0,GA,13177.0,Lee County,6634.0,23130.0,92385.0,17825.0,22404.0,12791.0,17709.0,14283.0,4633.0,1697.0,916.0,101.0,26.0
287691,County,2020/03/31,13.0,GA,13177.0,Lee County,7327.0,22437.0,83382.0,13799.0,20723.0,11907.0,16729.0,13485.0,4015.0,2134.0,563.0,0.0,27.0
290926,County,2020/04/01,13.0,GA,13177.0,Lee County,6964.0,22800.0,92563.0,17683.0,24666.0,12127.0,17638.0,12432.0,4689.0,2475.0,764.0,74.0,15.0
295659,County,2020/04/02,13.0,GA,13177.0,Lee County,6649.0,23115.0,94339.0,20541.0,22591.0,13342.0,18807.0,11502.0,4057.0,2464.0,968.0,29.0,38.0
297272,County,2020/04/03,13.0,GA,13177.0,Lee County,6858.0,22906.0,98103.0,19530.0,24933.0,12573.0,18718.0,14699.0,4262.0,2412.0,919.0,30.0,27.0
300465,County,2020/04/04,13.0,GA,13177.0,Lee County,7987.0,21777.0,89251.0,21308.0,23933.0,14338.0,16398.0,9296.0,1972.0,1144.0,660.0,160.0,42.0
305219,County,2020/04/05,13.0,GA,13177.0,Lee County,8265.0,21499.0,79847.0,20329.0,20704.0,10434.0,14025.0,9607.0,2706.0,957.0,1000.0,67.0,18.0
308419,County,2020/04/06,13.0,GA,13177.0,Lee County,6631.0,23133.0,94386.0,17103.0,22822.0,12934.0,20162.0,12886.0,5502.0,1832.0,1047.0,85.0,13.0
311659,County,2020/04/07,13.0,GA,13177.0,Lee County,7032.0,22732.0,93639.0,18649.0,24519.0,12703.0,17512.0,13384.0,4026.0,1954.0,810.0,78.0,4.0
314832,County,2020/04/08,13.0,GA,13177.0,Lee County,7058.0,22706.0,89013.0,19989.0,20342.0,11142.0,18295.0,11551.0,4039.0,2939.0,646.0,46.0,24.0
318001,County,2020/04/09,13.0,GA,13177.0,Lee County,6909.0,22855.0,98097.0,19821.0,24722.0,12294.0,17926.0,14711.0,5314.0,2423.0,836.0,46.0,4.0
321196,County,2020/04/10,13.0,GA,13177.0,Lee County,6421.0,23343.0,102726.0,18443.0,25274.0,15793.0,22391.0,14316.0,3866.0,1571.0,962.0,94.0,16.0
324432,County,2020/04/11,13.0,GA,13177.0,Lee County,6593.0,23171.0,103020.0,23024.0,26222.0,13962.0,20415.0,14001.0,3508.0,1174.0,598.0,104.0,12.0
327555,County,2020/04/12,13.0,GA,13177.0,Lee County,8243.0,21521.0,72065.0,18521.0,18894.0,10777.0,12424.0,7707.0,2118.0,940.0,659.0,16.0,9.0
330827,County,2020/04/13,13.0,GA,13177.0,Lee County,6361.0,23403.0,97557.0,19902.0,23332.0,13799.0,20176.0,13963.0,3803.0,1794.0,731.0,45.0,12.0
333954,County,2020/04/14,13.0,GA,13177.0,Lee County,6020.0,23744.0,122425.0,28828.0,30771.0,17584.0,22251.0,16179.0,3310.0,2642.0,792.0,33.0,35.0
337207,County,2020/04/15,13.0,GA,13177.0,Lee County,6054.0,23710.0,138866.0,31516.0,35636.0,20348.0,24062.0,18078.0,6816.0,1819.0,480.0,102.0,9.0
338783,County,2020/04/16,13.0,GA,13177.0,Lee County,6340.0,23424.0,119621.0,23393.0,35443.0,17411.0,21744.0,14903.0,4015.0,2146.0,416.0,141.0,9.0
343612,County,2020/04/17,13.0,GA,13177.0,Lee County,5969.0,23795.0,132411.0,29406.0,37260.0,20684.0,22944.0,15703.0,4122.0,1882.0,331.0,70.0,9.0
345190,County,2020/04/18,13.0,GA,13177.0,Lee County,6404.0,23360.0,116888.0,24706.0,31470.0,19904.0,23632.0,11275.0,3906.0,1351.0,567.0,68.0,9.0
348362,County,2020/04/19,13.0,GA,13177.0,Lee County,7166.0,22598.0,75735.0,13870.0,27233.0,11354.0,11349.0,7481.0,2117.0,1283.0,846.0,160.0,42.0
351569,County,2020/04/20,13.0,GA,13177.0,Lee County,7026.0,22738.0,101293.0,18746.0,35520.0,12722.0,17153.0,10670.0,4097.0,1627.0,671.0,57.0,30.0
354762,County,2020/04/21,13.0,GA,13177.0,Lee County,6378.0,23386.0,103722.0,22015.0,25363.0,13976.0,21396.0,12932.0,4438.0,2791.0,753.0,53.0,5.0
359533,County,2020/04/22,13.0,GA,13177.0,Lee County,6040.0,23724.0,108358.0,24688.0,26905.0,14913.0,20719.0,13436.0,5147.0,1798.0,672.0,67.0,13.0
362738,County,2020/04/23,13.0,GA,13177.0,Lee County,6799.0,22965.0,85336.0,15533.0,20371.0,10770.0,17038.0,15029.0,3950.0,1863.0,655.0,122.0,5.0
365951,County,2020/04/24,13.0,GA,13177.0,Lee County,5628.0,24136.0,108344.0,20121.0,26628.0,15791.0,21715.0,15865.0,4784.0,2603.0,801.0,32.0,4.0
369107,County,2020/04/25,13.0,GA,13177.0,Lee County,6388.0,23376.0,99309.0,18997.0,29347.0,14116.0,18409.0,13519.0,2134.0,1946.0,708.0,113.0,20.0
370697,County,2020/04/26,13.0,GA,13177.0,Lee County,7017.0,22747.0,86848.0,18309.0,21749.0,14075.0,15562.0,11539.0,3236.0,1638.0,687.0,42.0,11.0
373927,County,2020/04/27,13.0,GA,13177.0,Lee County,5850.0,23914.0,111021.0,20858.0,29656.0,16045.0,21288.0,15010.0,4470.0,2728.0,900.0,52.0,14.0
377126,County,2020/04/28,13.0,GA,13177.0,Lee County,5716.0,24048.0,103866.0,16155.0,26205.0,16863.0,22202.0,14786.0,4065.0,2995.0,553.0,33.0,9.0
380330,County,2020/04/29,13.0,GA,13177.0,Lee County,6283.0,23481.0,96064.0,17689.0,25442.0,10474.0,20685.0,13939.0,4519.0,2679.0,602.0,17.0,18.0
385076,County,2020/04/30,13.0,GA,13177.0,Lee County,5926.0,23838.0,101363.0,15389.0,26498.0,15027.0,23377.0,12882.0,4643.0,2745.0,732.0,49.0,21.0
388311,County,2020/05/01,13.0,GA,13177.0,Lee County,5581.0,24183.0,112680.0,19050.0,29586.0,16019.0,23729.0,15772.0,5367.0,2667.0,467.0,15.0,8.0
391461,County,2020/05/02,13.0,GA,13177.0,Lee County,6222.0,23542.0,111228.0,22504.0,31367.0,17428.0,18960.0,13931.0,4806.0,1788.0,421.0,18.0,5.0
393097,County,2020/05/03,13.0,GA,13177.0,Lee County,6826.0,22938.0,94396.0,16597.0,28675.0,13584.0,16841.0,13506.0,2859.0,1233.0,966.0,129.0,6.0
396308,County,2020/05/04,13.0,GA,13177.0,Lee County,5437.0,24327.0,109320.0,19799.0,28957.0,14940.0,23350.0,14078.0,4653.0,2287.0,1182.0,69.0,5.0
399479,County,2020/05/05,13.0,GA,13177.0,Lee County,4998.0,24766.0,114464.0,20420.0,27485.0,15687.0,23915.0,18457.0,5544.0,2249.0,655.0,44.0,8.0
402658,County,2020/05/06,13.0,GA,13177.0,Lee County,5563.0,24201.0,107450.0,18767.0,25660.0,15638.0,23200.0,16186.0,4608.0,2575.0,743.0,45.0,28.0
407376,County,2020/05/07,13.0,GA,13177.0,Lee County,5202.0,24562.0,111916.0,20324.0,30904.0,15146.0,21676.0,15533.0,5088.0,2321.0,731.0,162.0,31.0
410688,County,2020/05/08,13.0,GA,13177.0,Lee County,5160.0,24604.0,115363.0,21501.0,29982.0,17458.0,22904.0,15913.0,4411.0,2131.0,1038.0,14.0,11.0
412219,County,2020/05/09,13.0,GA,13177.0,Lee County,5422.0,24342.0,109089.0,20002.0,30092.0,19244.0,19613.0,13009.0,3402.0,2742.0,808.0,147.0,30.0
415449,County,2020/05/10,13.0,GA,13177.0,Lee County,6116.0,23648.0,90281.0,14477.0,22856.0,13611.0,17562.0,13979.0,4212.0,2149.0,1375.0,55.0,5.0
418643,County,2020/05/11,13.0,GA,13177.0,Lee County,5004.0,24760.0,109428.0,19490.0,25725.0,16316.0,23265.0,16010.0,4502.0,2984.0,1009.0,107.0,20.0
423500,County,2020/05/12,13.0,GA,13177.0,Lee County,4682.0,25082.0,123028.0,22490.0,28912.0,16021.0,25416.0,20858.0,5349.0,3130.0,777.0,62.0,13.0
426548,County,2020/05/13,13.0,GA,13177.0,Lee County,4449.0,25315.0,112858.0,22859.0,26789.0,16498.0,23060.0,16682.0,3603.0,1988.0,1168.0,192.0,19.0
429840,County,2020/05/14,13.0,GA,13177.0,Lee County,4660.0,25104.0,110696.0,22800.0,27887.0,14879.0,21701.0,16051.0,3960.0,2145.0,1000.0,238.0,35.0
431420,County,2020/05/15,13.0,GA,13177.0,Lee County,4724.0,25040.0,104428.0,20466.0,24400.0,15814.0,21505.0,13874.0,4725.0,2327.0,1067.0,210.0,40.0
436219,County,2020/05/16,13.0,GA,13177.0,Lee County,5183.0,24581.0,107270.0,20173.0,27004.0,16225.0,19213.0,16154.0,4831.0,2299.0,1246.0,92.0,33.0
439327,County,2020/05/17,13.0,GA,13177.0,Lee County,5247.0,24517.0,107038.0,18304.0,32690.0,18170.0,16477.0,14682.0,3800.0,1637.0,1234.0,44.0,0.0
442617,County,2020/05/18,13.0,GA,13177.0,Lee County,3900.0,25864.0,119514.0,23237.0,32028.0,16305.0,22284.0,17152.0,4920.0,2453.0,1093.0,37.0,5.0
445780,County,2020/05/19,13.0,GA,13177.0,Lee County,3601.0,26163.0,127434.0,23882.0,32446.0,16541.0,24797.0,19343.0,6696.0,2526.0,1184.0,19.0,0.0
448957,County,2020/05/20,13.0,GA,13177.0,Lee County,3850.0,25914.0,119418.0,25676.0,30789.0,16242.0,21302.0,16949.0,4788.0,3122.0,526.0,19.0,5.0
450583,County,2020/05/21,13.0,GA,13177.0,Lee County,3672.0,26092.0,126051.0,24963.0,34382.0,16985.0,24275.0,15070.0,5800.0,3333.0,1120.0,105.0,18.0
455341,County,2020/05/22,13.0,GA,13177.0,Lee County,3080.0,26684.0,129896.0,24548.0,33629.0,17324.0,26502.0,16706.0,5866.0,3355.0,1825.0,132.0,9.0
458553,County,2020/05/23,13.0,GA,13177.0,Lee County,4428.0,25336.0,117594.0,27499.0,27620.0,17569.0,22603.0,13982.0,4317.0,2738.0,1158.0,98.0,10.0
461709,County,2020/05/24,13.0,GA,13177.0,Lee County,5159.0,24605.0,79712.0,13859.0,19717.0,10432.0,15148.0,12340.0,3635.0,1890.0,1310.0,1245.0,136.0
465011,County,2020/05/25,13.0,GA,13177.0,Lee County,5998.0,23766.0,81199.0,16755.0,19256.0,11710.0,15893.0,9864.0,3889.0,1942.0,1400.0,432.0,58.0
466490,County,2020/05/26,13.0,GA,13177.0,Lee County,4994.0,24770.0,89768.0,14320.0,21825.0,13282.0,18542.0,12420.0,4588.0,2627.0,1280.0,768.0,116.0
471359,County,2020/05/27,13.0,GA,13177.0,Lee County,5086.0,24678.0,100296.0,18933.0,22567.0,13903.0,21350.0,15119.0,4254.0,2192.0,1735.0,179.0,64.0
474458,County,2020/05/28,13.0,GA,13177.0,Lee County,5142.0,24622.0,98910.0,17289.0,23903.0,14314.0,20424.0,15162.0,3985.0,2321.0,1337.0,146.0,29.0
477697,County,2020/05/29,13.0,GA,13177.0,Lee County,6403.0,23361.0,94959.0,16471.0,20577.0,14270.0,19888.0,13596.0,4555.0,3332.0,2013.0,236.0,21.0
480897,County,2020/05/30,13.0,GA,13177.0,Lee County,6223.0,23541.0,87293.0,14700.0,20082.0,13291.0,17146.0,13342.0,4724.0,1986.0,1757.0,244.0,21.0
484041,County,2020/05/31,13.0,GA,13177.0,Lee County,6612.0,23152.0,79122.0,15076.0,21680.0,12036.0,11386.0,9746.0,3972.0,1946.0,2856.0,381.0,43.0
485718,County,2020/06/01,13.0,GA,13177.0,Lee County,5418.0,24346.0,96234.0,18182.0,22947.0,14226.0,18702.0,13599.0,4220.0,2259.0,1821.0,241.0,37.0
488959,County,2020/06/02,13.0,GA,13177.0,Lee County,5365.0,24399.0,101462.0,18622.0,25909.0,15464.0,18992.0,14069.0,3952.0,2306.0,1876.0,247.0,25.0
493672,County,2020/06/03,13.0,GA,13177.0,Lee County,4736.0,25028.0,120438.0,25941.0,27899.0,17908.0,22847.0,16551.0,5069.0,2783.0,1153.0,229.0,58.0
495290,County,2020/06/04,13.0,GA,13177.0,Lee County,4615.0,25149.0,105854.0,17268.0,28250.0,15829.0,20431.0,14127.0,5372.0,2676.0,1742.0,130.0,29.0
500066,County,2020/06/05,13.0,GA,13177.0,Lee County,4727.0,25037.0,115027.0,21634.0,27826.0,15516.0,21949.0,17994.0,5346.0,2823.0,1688.0,210.0,41.0
503268,County,2020/06/06,13.0,GA,13177.0,Lee County,5866.0,23898.0,101244.0,17787.0,25727.0,13376.0,19184.0,15671.0,4268.0,3492.0,1503.0,176.0,60.0
504882,County,2020/06/07,13.0,GA,13177.0,Lee County,6672.0,23092.0,78311.0,11823.0,22296.0,10608.0,16654.0,10619.0,3317.0,1263.0,1468.0,219.0,44.0
508055,County,2020/06/08,13.0,GA,13177.0,Lee County,4677.0,25087.0,112001.0,21621.0,25273.0,18243.0,23237.0,16170.0,4078.0,2188.0,1093.0,74.0,24.0
512833,County,2020/06/09,13.0,GA,13177.0,Lee County,5228.0,24536.0,109883.0,19390.0,26652.0,16537.0,22621.0,17413.0,4085.0,2202.0,799.0,133.0,51.0
514464,County,2020/06/10,13.0,GA,13177.0,Lee County,5024.0,24740.0,105432.0,21457.0,24817.0,15120.0,21570.0,14654.0,4301.0,2166.0,935.0,297.0,115.0
517667,County,2020/06/11,13.0,GA,13177.0,Lee County,4473.0,25291.0,118316.0,23358.0,29597.0,14817.0,24551.0,17423.0,3957.0,2958.0,1393.0,177.0,85.0
520870,County,2020/06/12,13.0,GA,13177.0,Lee County,4925.0,24839.0,119454.0,20295.0,32001.0,16950.0,23109.0,17421.0,4895.0,2877.0,1698.0,180.0,28.0
525606,County,2020/06/13,13.0,GA,13177.0,Lee County,5167.0,24597.0,119924.0,23336.0,31368.0,18157.0,21673.0,15760.0,4169.0,3690.0,1578.0,181.0,12.0
528809,County,2020/06/14,13.0,GA,13177.0,Lee County,5408.0,24356.0,86453.0,14995.0,19982.0,13010.0,17578.0,12288.0,3846.0,2432.0,2121.0,150.0,51.0
530438,County,2020/06/15,13.0,GA,13177.0,Lee County,4901.0,24863.0,102817.0,19867.0,23368.0,14749.0,22963.0,14013.0,4018.0,2182.0,1565.0,64.0,28.0
533628,County,2020/06/16,13.0,GA,13177.0,Lee County,4709.0,25055.0,120541.0,24129.0,28458.0,18101.0,25045.0,18082.0,4084.0,1541.0,936.0,147.0,18.0
536822,County,2020/06/17,13.0,GA,13177.0,Lee County,4922.0,24842.0,124507.0,25293.0,30610.0,19289.0,25578.0,15237.0,4750.0,2365.0,1259.0,93.0,33.0
541583,County,2020/06/18,13.0,GA,13177.0,Lee County,4803.0,24961.0,115019.0,22544.0,29817.0,16226.0,23065.0,15435.0,4385.0,1991.0,1364.0,161.0,31.0
543209,County,2020/06/19,13.0,GA,13177.0,Lee County,4844.0,24920.0,112701.0,20043.0,28618.0,18202.0,22328.0,16482.0,3329.0,2039.0,1452.0,160.0,48.0
546414,County,2020/06/20,13.0,GA,13177.0,Lee County,5534.0,24230.0,100556.0,20593.0,26061.0,13018.0,18365.0,14704.0,4049.0,2393.0,1153.0,193.0,27.0
551157,County,2020/06/21,13.0,GA,13177.0,Lee County,5754.0,24010.0,90217.0,18529.0,24709.0,11195.0,16006.0,12827.0,3821.0,1719.0,1207.0,155.0,49.0
554399,County,2020/06/22,13.0,GA,13177.0,Lee County,4629.0,25135.0,101261.0,20770.0,24790.0,13374.0,18893.0,15226.0,4005.0,2758.0,1171.0,232.0,42.0
557552,County,2020/06/23,13.0,GA,13177.0,Lee County,4487.0,25277.0,113756.0,24297.0,28429.0,14935.0,21200.0,16344.0,4885.0,2265.0,1236.0,131.0,34.0
559185,County,2020/06/24,13.0,GA,13177.0,Lee County,5111.0,24653.0,105235.0,23548.0,23466.0,15965.0,18492.0,15723.0,4284.0,2424.0,1094.0,214.0,25.0
562374,County,2020/06/25,13.0,GA,13177.0,Lee County,4906.0,24858.0,115641.0,24138.0,28693.0,16854.0,21798.0,15878.0,4476.0,2355.0,1205.0,193.0,51.0
565629,County,2020/06/26,13.0,GA,13177.0,Lee County,4941.0,24823.0,115104.0,27659.0,23978.0,16014.0,22639.0,15576.0,4722.0,2955.0,1356.0,180.0,25.0
570319,County,2020/06/27,13.0,GA,13177.0,Lee County,5139.0,24625.0,116765.0,25690.0,26791.0,17685.0,22497.0,14609.0,4908.0,3133.0,1326.0,78.0,48.0
571958,County,2020/06/28,13.0,GA,13177.0,Lee County,5345.0,24419.0,97900.0,20265.0,22568.0,13929.0,19360.0,13593.0,3543.0,2289.0,2144.0,192.0,17.0
576684,County,2020/06/29,13.0,GA,13177.0,Lee County,5687.0,24077.0,98466.0,20418.0,23837.0,11786.0,19981.0,15345.0,4037.0,1639.0,1176.0,162.0,85.0
579932,County,2020/06/30,13.0,GA,13177.0,Lee County,5413.0,24351.0,104298.0,20140.0,25479.0,15181.0,20647.0,14159.0,4467.0,2729.0,1105.0,321.0,70.0
583125,County,2020/07/01,13.0,GA,13177.0,Lee County,4855.0,24909.0,103069.0,18123.0,25842.0,14509.0,21151.0,15273.0,4541.0,1722.0,1634.0,176.0,98.0
586314,County,2020/07/02,13.0,GA,13177.0,Lee County,4948.0,24816.0,122742.0,25620.0,30455.0,17889.0,23136.0,16853.0,4751.0,2500.0,1279.0,205.0,54.0
589518,County,2020/07/03,13.0,GA,13177.0,Lee County,5865.0,23899.0,114454.0,27503.0,23843.0,15924.0,22511.0,15488.0,4695.0,2938.0,1348.0,179.0,25.0
592702,County,2020/07/04,13.0,GA,13177.0,Lee County,6547.0,23217.0,97920.0,23530.0,20398.0,13623.0,19259.0,13251.0,4017.0,2514.0,1154.0,153.0,21.0
594351,County,2020/07/05,13.0,GA,13177.0,Lee County,5829.0,23935.0,90341.0,15806.0,24209.0,13523.0,17107.0,11854.0,3133.0,2526.0,1879.0,225.0,79.0
599026,County,2020/07/06,13.0,GA,13177.0,Lee County,5650.0,24114.0,86527.0,14420.0,19831.0,13321.0,17787.0,12990.0,4040.0,2152.0,1656.0,251.0,79.0
600701,County,2020/07/07,13.0,GA,13177.0,Lee County,4911.0,24853.0,102490.0,19915.0,24160.0,14800.0,21592.0,14546.0,3837.0,2399.0,1019.0,148.0,74.0
603893,County,2020/07/08,13.0,GA,13177.0,Lee County,5164.0,24600.0,97860.0,19205.0,20652.0,15418.0,19873.0,14435.0,3788.0,3026.0,1192.0,188.0,83.0
608665,County,2020/07/09,13.0,GA,13177.0,Lee County,5215.0,24549.0,111136.0,23654.0,26473.0,15290.0,21239.0,15169.0,4542.0,3060.0,1384.0,232.0,93.0
610288,County,2020/07/10,13.0,GA,13177.0,Lee County,4881.0,24883.0,105181.0,19270.0,24700.0,15376.0,21550.0,14716.0,4855.0,2878.0,1467.0,280.0,89.0
615087,County,2020/07/11,13.0,GA,13177.0,Lee County,5601.0,24163.0,95060.0,19714.0,24622.0,15126.0,16851.0,10899.0,3283.0,2497.0,1713.0,223.0,132.0
616671,County,2020/07/12,13.0,GA,13177.0,Lee County,6341.0,23423.0,87000.0,15336.0,20239.0,14239.0,15673.0,13522.0,3708.0,2120.0,1818.0,252.0,93.0
621430,County,2020/07/13,13.0,GA,13177.0,Lee County,5217.0,24547.0,98582.0,19986.0,22430.0,14389.0,19070.0,13993.0,4949.0,2269.0,1237.0,195.0,64.0
624624,County,2020/07/14,13.0,GA,13177.0,Lee County,4853.0,24911.0,99960.0,20605.0,21467.0,14299.0,19554.0,15119.0,5331.0,2149.0,1247.0,132.0,57.0
626183,County,2020/07/15,13.0,GA,13177.0,Lee County,4821.0,24943.0,105568.0,21580.0,24284.0,14577.0,20160.0,16023.0,4718.0,3054.0,950.0,171.0,51.0
629424,County,2020/07/16,13.0,GA,13177.0,Lee County,4930.0,24834.0,111313.0,22606.0,26243.0,15690.0,21867.0,16732.0,5144.0,1665.0,1286.0,66.0,14.0
634158,County,2020/07/17,13.0,GA,13177.0,Lee County,5188.0,24576.0,111703.0,25050.0,25793.0,16283.0,20608.0,15212.0,4765.0,2223.0,1626.0,108.0,35.0
635835,County,2020/07/18,13.0,GA,13177.0,Lee County,5990.0,23774.0,104051.0,22705.0,23116.0,14486.0,19487.0,15282.0,4620.0,2435.0,1775.0,107.0,38.0
640613,County,2020/07/19,13.0,GA,13177.0,Lee County,7036.0,22728.0,77729.0,16432.0,19011.0,9524.0,14194.0,11801.0,2239.0,2293.0,2030.0,152.0,53.0
642225,County,2020/07/20,13.0,GA,13177.0,Lee County,6721.0,23043.0,91536.0,17272.0,20876.0,13399.0,18791.0,13015.0,4180.0,2693.0,1110.0,175.0,25.0
647465,County,2020/07/21,13.0,GA,13177.0,Lee County,5897.0,23867.0,84733.0,14561.0,19520.0,11285.0,16468.0,12661.0,4451.0,2822.0,2560.0,325.0,80.0
649654,County,2020/07/22,13.0,GA,13177.0,Lee County,5527.0,24237.0,94319.0,18029.0,20929.0,13914.0,17733.0,13553.0,3809.0,3531.0,2513.0,251.0,57.0
653373,County,2020/07/23,13.0,GA,13177.0,Lee County,5744.0,24020.0,86461.0,16630.0,19072.0,12459.0,16765.0,12406.0,3515.0,2298.0,2923.0,340.0,53.0
654892,County,2020/07/24,13.0,GA,13177.0,Lee County,5504.0,24260.0,99841.0,17748.0,23071.0,15383.0,19613.0,13088.0,4144.0,3346.0,3115.0,280.0,53.0
658189,County,2020/07/25,13.0,GA,13177.0,Lee County,6280.0,23484.0,87995.0,18696.0,19488.0,12522.0,15671.0,11856.0,3943.0,2662.0,2840.0,263.0,54.0
661387,County,2020/07/26,13.0,GA,13177.0,Lee County,5995.0,23769.0,94637.0,20373.0,23329.0,11991.0,17027.0,12732.0,3260.0,2160.0,3371.0,302.0,92.0
666215,County,2020/07/27,13.0,GA,13177.0,Lee County,5637.0,24127.0,103550.0,21051.0,23219.0,14852.0,19218.0,16254.0,3737.0,2888.0,2073.0,190.0,68.0
669419,County,2020/07/28,13.0,GA,13177.0,Lee County,5261.0,24503.0,102351.0,17364.0,25010.0,15561.0,19591.0,14580.0,5161.0,2604.0,2017.0,391.0,72.0
672631,County,2020/07/29,13.0,GA,13177.0,Lee County,5521.0,24243.0,93432.0,18717.0,19658.0,14232.0,16960.0,14313.0,4398.0,2473.0,2157.0,457.0,67.0
675714,County,2020/07/30,13.0,GA,13177.0,Lee County,5170.0,24594.0,105878.0,21126.0,25282.0,13315.0,19939.0,16279.0,4506.0,2990.0,2044.0,323.0,74.0
678942,County,2020/07/31,13.0,GA,13177.0,Lee County,5758.0,24006.0,96364.0,17175.0,22237.0,14873.0,17484.0,14649.0,4170.0,3122.0,2219.0,340.0,95.0
682063,County,2020/08/01,13.0,GA,13177.0,Lee County,6875.0,22889.0,92786.0,20990.0,22803.0,14396.0,14536.0,11364.0,3502.0,2599.0,2143.0,378.0,75.0
683745,County,2020/08/02,13.0,GA,13177.0,Lee County,6175.0,23589.0,85974.0,17343.0,19892.0,12753.0,15520.0,12323.0,3877.0,2194.0,1672.0,354.0,46.0
686940,County,2020/08/03,13.0,GA,13177.0,Lee County,5522.0,24242.0,105381.0,20721.0,24480.0,15906.0,22398.0,13283.0,3937.0,2990.0,1463.0,175.0,28.0
691716,County,2020/08/04,13.0,GA,13177.0,Lee County,4688.0,25076.0,119218.0,22751.0,28838.0,18325.0,23849.0,16998.0,5449.0,2088.0,847.0,67.0,6.0
694893,County,2020/08/05,13.0,GA,13177.0,Lee County,5437.0,24327.0,118574.0,24931.0,27989.0,17378.0,25697.0,14942.0,4429.0,2243.0,900.0,62.0,3.0
698088,County,2020/08/06,13.0,GA,13177.0,Lee County,4857.0,24907.0,123868.0,23679.0,32085.0,18859.0,25295.0,15340.0,5294.0,2317.0,870.0,112.0,17.0
699715,County,2020/08/07,13.0,GA,13177.0,Lee County,4686.0,25078.0,122129.0,21866.0,31452.0,18202.0,25552.0,16089.0,5255.0,2457.0,1108.0,133.0,15.0
702912,County,2020/08/08,13.0,GA,13177.0,Lee County,5514.0,24250.0,101650.0,19262.0,23386.0,15633.0,21146.0,13792.0,4088.0,2760.0,1539.0,27.0,17.0
707694,County,2020/08/09,13.0,GA,13177.0,Lee County,6035.0,23729.0,92001.0,14344.0,21213.0,14649.0,20173.0,13768.0,3238.0,2744.0,1810.0,43.0,19.0
710913,County,2020/08/10,13.0,GA,13177.0,Lee County,5605.0,24159.0,92920.0,12712.0,23769.0,15174.0,19890.0,13348.0,4878.0,1944.0,939.0,252.0,14.0
712492,County,2020/08/11,13.0,GA,13177.0,Lee County,5066.0,24698.0,109891.0,17018.0,29851.0,15295.0,22523.0,16462.0,5702.0,2465.0,502.0,63.0,10.0
715686,County,2020/08/12,13.0,GA,13177.0,Lee County,4925.0,24839.0,101112.0,16580.0,24229.0,15857.0,20379.0,15088.0,5203.0,2596.0,909.0,182.0,89.0
720446,County,2020/08/13,13.0,GA,13177.0,Lee County,4515.0,25249.0,111110.0,18614.0,23061.0,16048.0,24926.0,17524.0,6024.0,3106.0,1424.0,297.0,86.0
722073,County,2020/08/14,13.0,GA,13177.0,Lee County,4239.0,25525.0,116201.0,17580.0,28078.0,17136.0,25683.0,18944.0,4492.0,2337.0,1638.0,214.0,99.0
725303,County,2020/08/15,13.0,GA,13177.0,Lee County,5363.0,24401.0,100654.0,17856.0,22102.0,16501.0,20323.0,13481.0,4922.0,2923.0,2212.0,205.0,129.0
728462,County,2020/08/16,13.0,GA,13177.0,Lee County,5485.0,24279.0,86352.0,13327.0,19370.0,14747.0,16185.0,13731.0,3122.0,2901.0,2291.0,491.0,187.0
733243,County,2020/08/17,13.0,GA,13177.0,Lee County,5172.0,24592.0,101889.0,15454.0,22542.0,13775.0,24028.0,17026.0,4506.0,2464.0,1597.0,345.0,152.0
736416,County,2020/08/18,13.0,GA,13177.0,Lee County,5598.0,24166.0,92244.0,14759.0,19505.0,14057.0,21418.0,13303.0,4989.0,2274.0,1221.0,532.0,186.0
739610,County,2020/08/19,13.0,GA,13177.0,Lee County,4812.0,24952.0,101924.0,16302.0,22943.0,14477.0,24501.0,14166.0,4567.0,2959.0,1463.0,390.0,156.0
741237,County,2020/08/20,13.0,GA,13177.0,Lee County,4689.0,25075.0,101702.0,15902.0,22927.0,16265.0,22037.0,15326.0,4636.0,2606.0,1515.0,309.0,179.0
744437,County,2020/08/21,13.0,GA,13177.0,Lee County,4689.0,25075.0,116710.0,17172.0,28422.0,18718.0,26009.0,17050.0,4452.0,2784.0,1619.0,369.0,115.0
747643,County,2020/08/22,13.0,GA,13177.0,Lee County,4958.0,24806.0,98698.0,18881.0,23359.0,14868.0,18902.0,14260.0,3766.0,2101.0,1882.0,433.0,246.0
752388,County,2020/08/23,13.0,GA,13177.0,Lee County,6206.0,23558.0,82373.0,14714.0,17310.0,15019.0,16450.0,12249.0,1984.0,2495.0,1701.0,326.0,125.0
755579,County,2020/08/24,13.0,GA,13177.0,Lee County,5380.0,24384.0,90596.0,13695.0,20523.0,13707.0,19334.0,15342.0,4547.0,2053.0,943.0,328.0,124.0
757208,County,2020/08/25,13.0,GA,13177.0,Lee County,4745.0,25019.0,102109.0,15472.0,24341.0,14752.0,22469.0,16668.0,4527.0,2335.0,1145.0,308.0,92.0
761930,County,2020/08/26,13.0,GA,13177.0,Lee County,4971.0,24793.0,95771.0,15770.0,22308.0,14499.0,21782.0,14003.0,4114.0,1820.0,1065.0,316.0,94.0
765175,County,2020/08/27,13.0,GA,13177.0,Lee County,4942.0,24822.0,99436.0,15368.0,22015.0,15931.0,22348.0,15299.0,4840.0,1868.0,1392.0,309.0,66.0
768342,County,2020/08/28,13.0,GA,13177.0,Lee County,4684.0,25080.0,105419.0,16673.0,23368.0,15978.0,23825.0,17071.0,4473.0,2214.0,1414.0,329.0,74.0
771542,County,2020/08/29,13.0,GA,13177.0,Lee County,5530.0,24234.0,100694.0,17031.0,23368.0,16453.0,20455.0,14653.0,4849.0,2346.0,1180.0,289.0,70.0
773177,County,2020/08/30,13.0,GA,13177.0,Lee County,6315.0,23449.0,87080.0,15673.0,21404.0,14736.0,15175.0,13566.0,2708.0,1880.0,1558.0,257.0,123.0
777952,County,2020/08/31,13.0,GA,13177.0,Lee County,5344.0,24420.0,95893.0,15132.0,23057.0,12373.0,21973.0,16041.0,4056.0,1766.0,1137.0,235.0,123.0
781150,County,2020/09/01,13.0,GA,13177.0,Lee County,5018.0,24746.0,102280.0,16284.0,23776.0,13825.0,22960.0,16895.0,4586.0,2540.0,1099.0,222.0,93.0
782756,County,2020/09/02,13.0,GA,13177.0,Lee County,5078.0,24686.0,104999.0,14656.0,28507.0,15925.0,22372.0,16374.0,4134.0,1867.0,903.0,209.0,52.0
787495,County,2020/09/03,13.0,GA,13177.0,Lee County,4454.0,25310.0,112455.0,16453.0,26857.0,17400.0,24776.0,18552.0,4431.0,2239.0,1378.0,292.0,77.0
789159,County,2020/09/04,13.0,GA,13177.0,Lee County,5389.0,24375.0,105942.0,18154.0,24180.0,17777.0,22250.0,14431.0,4260.0,2360.0,1988.0,450.0,92.0
793827,County,2020/09/05,13.0,GA,13177.0,Lee County,5531.0,24233.0,104732.0,22020.0,24028.0,15534.0,19387.0,13792.0,4314.0,3246.0,2081.0,243.0,87.0
795530,County,2020/09/06,13.0,GA,13177.0,Lee County,6112.0,23652.0,82566.0,15809.0,22891.0,12049.0,12458.0,12142.0,3749.0,1707.0,1408.0,273.0,80.0
798739,County,2020/09/07,13.0,GA,13177.0,Lee County,6550.0,23214.0,73616.0,14426.0,13955.0,13036.0,12805.0,10711.0,3678.0,1859.0,2534.0,485.0,127.0
803490,County,2020/09/08,13.0,GA,13177.0,Lee County,5579.0,24185.0,98187.0,15794.0,21910.0,14020.0,22911.0,14970.0,4698.0,2172.0,1290.0,304.0,118.0
805117,County,2020/09/09,13.0,GA,13177.0,Lee County,5331.0,24433.0,104524.0,17337.0,22015.0,16110.0,22495.0,18467.0,4531.0,2039.0,1241.0,208.0,81.0
809886,County,2020/09/10,13.0,GA,13177.0,Lee County,5324.0,24440.0,97957.0,14363.0,24955.0,14068.0,20715.0,15426.0,4902.0,2150.0,1070.0,204.0,104.0
811515,County,2020/09/11,13.0,GA,13177.0,Lee County,5156.0,24608.0,113936.0,17548.0,26682.0,16952.0,25174.0,17565.0,5627.0,2885.0,1193.0,237.0,73.0
816267,County,2020/09/12,13.0,GA,13177.0,Lee County,6156.0,23608.0,96138.0,18279.0,23066.0,13579.0,17771.0,14294.0,4649.0,2924.0,1221.0,259.0,96.0
817873,County,2020/09/13,13.0,GA,13177.0,Lee County,6985.0,22779.0,71011.0,9322.0,15543.0,12210.0,14644.0,12471.0,3245.0,1616.0,1381.0,448.0,131.0
822654,County,2020/09/14,13.0,GA,13177.0,Lee County,5604.0,24160.0,103630.0,18879.0,21730.0,14753.0,22837.0,16402.0,5117.0,2816.0,689.0,304.0,103.0
824282,County,2020/09/15,13.0,GA,13177.0,Lee County,4985.0,24779.0,105721.0,16839.0,25917.0,15932.0,23024.0,15712.0,4566.0,2337.0,1131.0,194.0,69.0
829089,County,2020/09/16,13.0,GA,13177.0,Lee County,5390.0,24374.0,92951.0,11926.0,20147.0,13528.0,23196.0,15857.0,4456.0,2445.0,1008.0,321.0,67.0
830669,County,2020/09/17,13.0,GA,13177.0,Lee County,5156.0,24608.0,99528.0,14830.0,19709.0,16426.0,22445.0,16932.0,4702.0,2832.0,1352.0,230.0,70.0
835430,County,2020/09/18,13.0,GA,13177.0,Lee County,4955.0,24809.0,121828.0,22109.0,27448.0,17584.0,26927.0,18423.0,4881.0,2497.0,1647.0,240.0,72.0
837057,County,2020/09/19,13.0,GA,13177.0,Lee County,5482.0,24282.0,109582.0,21135.0,22954.0,18833.0,22309.0,16660.0,4088.0,1815.0,1436.0,279.0,73.0
841833,County,2020/09/20,13.0,GA,13177.0,Lee County,6330.0,23434.0,85578.0,15182.0,18743.0,14925.0,17203.0,13233.0,2998.0,1671.0,1385.0,156.0,82.0
845038,County,2020/09/21,13.0,GA,13177.0,Lee County,6048.0,23716.0,84374.0,15876.0,16390.0,12517.0,19728.0,12370.0,4238.0,2046.0,1099.0,93.0,17.0
848206,County,2020/09/22,13.0,GA,13177.0,Lee County,5045.0,24719.0,103858.0,19995.0,24637.0,16642.0,20596.0,14955.0,3872.0,2068.0,1016.0,74.0,3.0
849833,County,2020/09/23,13.0,GA,13177.0,Lee County,4436.0,25328.0,107769.0,17422.0,23733.0,17291.0,24541.0,17570.0,4133.0,2144.0,848.0,87.0,0.0
854599,County,2020/09/24,13.0,GA,13177.0,Lee County,4216.0,25548.0,110641.0,19665.0,24654.0,15509.0,24444.0,18344.0,4872.0,2278.0,738.0,134.0,3.0
856228,County,2020/09/25,13.0,GA,13177.0,Lee County,4225.0,25539.0,117337.0,20097.0,27052.0,17480.0,24631.0,18843.0,4781.0,2814.0,1525.0,108.0,6.0
859415,County,2020/09/26,13.0,GA,13177.0,Lee County,5018.0,24746.0,108906.0,18078.0,26954.0,16288.0,21157.0,16596.0,4602.0,3491.0,1683.0,50.0,7.0
864162,County,2020/09/27,13.0,GA,13177.0,Lee County,6453.0,23311.0,87262.0,14827.0,21763.0,12591.0,17123.0,13258.0,3390.0,2657.0,1525.0,124.0,4.0
867370,County,2020/09/28,13.0,GA,13177.0,Lee County,4536.0,25228.0,102694.0,15243.0,25368.0,15485.0,24482.0,15784.0,4086.0,1508.0,691.0,47.0,0.0
868997,County,2020/09/29,13.0,GA,13177.0,Lee County,4642.0,25122.0,100720.0,15261.0,23389.0,15525.0,23482.0,15903.0,3935.0,2115.0,978.0,99.0,33.0
873776,County,2020/09/30,13.0,GA,13177.0,Lee County,5459.0,24305.0,98333.0,15006.0,22750.0,16652.0,23026.0,14106.0,3912.0,1932.0,632.0,287.0,30.0
876931,County,2020/10/01,13.0,GA,13177.0,Lee County,4825.0,24939.0,107442.0,20393.0,22830.0,15141.0,23889.0,17440.0,4749.0,1920.0,843.0,205.0,32.0
880146,County,2020/10/02,13.0,GA,13177.0,Lee County,4737.0,25027.0,111074.0,17008.0,25865.0,17476.0,26123.0,16776.0,4553.0,1814.0,1276.0,158.0,25.0
881774,County,2020/10/03,13.0,GA,13177.0,Lee County,5604.0,24160.0,97083.0,18626.0,23362.0,13832.0,18613.0,13888.0,4760.0,2526.0,1266.0,183.0,27.0
884929,County,2020/10/04,13.0,GA,13177.0,Lee County,6311.0,23453.0,83494.0,13198.0,18178.0,13499.0,16655.0,13443.0,4343.0,2440.0,1554.0,159.0,25.0
889974,County,2020/10/05,13.0,GA,13177.0,Lee County,7018.0,22746.0,83386.0,10980.0,17649.0,12422.0,20765.0,13675.0,3663.0,2711.0,1272.0,229.0,20.0
891572,County,2020/10/06,13.0,GA,13177.0,Lee County,5262.0,24502.0,98128.0,15010.0,23390.0,13556.0,22092.0,16851.0,3354.0,2313.0,1319.0,217.0,26.0
894759,County,2020/10/07,13.0,GA,13177.0,Lee County,5338.0,24426.0,95789.0,16024.0,20899.0,13117.0,22109.0,15478.0,4550.0,2454.0,907.0,213.0,38.0
897960,County,2020/10/08,13.0,GA,13177.0,Lee County,5491.0,24273.0,91503.0,13825.0,22189.0,13198.0,20974.0,13880.0,4329.0,1917.0,925.0,238.0,28.0
901138,County,2020/10/09,13.0,GA,13177.0,Lee County,5591.0,24173.0,98440.0,16321.0,22000.0,15358.0,20991.0,15590.0,4087.0,2376.0,1441.0,247.0,29.0
904367,County,2020/10/10,13.0,GA,13177.0,Lee County,6790.0,22974.0,88888.0,16067.0,22276.0,12906.0,16662.0,11823.0,4114.0,3433.0,1357.0,233.0,17.0
910030,County,2020/10/11,13.0,GA,13177.0,Lee County,6659.0,23105.0,72450.0,9392.0,18662.0,10394.0,13894.0,12097.0,3879.0,2462.0,1519.0,132.0,19.0
910585,County,2020/10/12,13.0,GA,13177.0,Lee County,5896.0,23868.0,95056.0,16687.0,22572.0,13539.0,19351.0,12300.0,4683.0,4033.0,1635.0,238.0,18.0
916183,County,2020/10/13,13.0,GA,13177.0,Lee County,5311.0,24453.0,98432.0,14549.0,22346.0,15649.0,20668.0,16534.0,4821.0,2536.0,1139.0,167.0,23.0
919727,County,2020/10/14,13.0,GA,13177.0,Lee County,5042.0,24722.0,104738.0,18115.0,23819.0,13339.0,23815.0,17765.0,4582.0,2297.0,826.0,156.0,24.0
922603,County,2020/10/15,13.0,GA,13177.0,Lee County,6036.0,23728.0,92266.0,16130.0,21128.0,12304.0,19310.0,14824.0,4495.0,2660.0,1055.0,340.0,20.0
925678,County,2020/10/16,13.0,GA,13177.0,Lee County,5099.0,24665.0,106278.0,17243.0,24003.0,16354.0,22003.0,17590.0,4722.0,3192.0,839.0,307.0,25.0
929326,County,2020/10/17,13.0,GA,13177.0,Lee County,5755.0,24009.0,91764.0,17367.0,21983.0,12773.0,17508.0,13855.0,3714.0,2847.0,1411.0,273.0,33.0
932579,County,2020/10/18,13.0,GA,13177.0,Lee County,6293.0,23471.0,85344.0,17166.0,19623.0,11196.0,16390.0,12399.0,3941.0,2690.0,1702.0,217.0,20.0
935275,County,2020/10/19,13.0,GA,13177.0,Lee County,5457.0,24307.0,101826.0,19467.0,23153.0,13534.0,20827.0,15550.0,5130.0,2323.0,1617.0,209.0,16.0
938862,County,2020/10/20,13.0,GA,13177.0,Lee County,5379.0,24385.0,106821.0,18218.0,23759.0,15754.0,24317.0,16083.0,4493.0,3179.0,911.0,97.0,10.0
942067,County,2020/10/21,13.0,GA,13177.0,Lee County,5658.0,24106.0,92839.0,13047.0,20826.0,14261.0,19800.0,15222.0,5245.0,3085.0,1177.0,153.0,23.0
945360,County,2020/10/22,13.0,GA,13177.0,Lee County,5356.0,24408.0,111897.0,19750.0,24349.0,15769.0,24110.0,17969.0,5416.0,3033.0,1331.0,158.0,12.0
948481,County,2020/10/23,13.0,GA,13177.0,Lee County,4561.0,25203.0,129586.0,22548.0,29469.0,19989.0,27148.0,19860.0,5520.0,3520.0,1365.0,157.0,10.0
950710,County,2020/10/24,13.0,GA,13177.0,Lee County,5100.0,24664.0,119350.0,23020.0,27641.0,18735.0,23314.0,17984.0,4108.0,3260.0,1173.0,103.0,12.0
