,Level,Date,State FIPS,State Postal Code,County FIPS,County Name,Population Staying at Home,Population Not Staying at Home,Number of Trips,Number of Trips <1,Number of Trips 1-3,Number of Trips 3-5,Number of Trips 5-10,Number of Trips 10-25,Number of Trips 25-50,Number of Trips 50-100,Number of Trips 100-250,Number of Trips 250-500,Number of Trips >=500
1232,County,2020/01/01,26.0,MI,26003.0,Alger County,2563.0,6534.0,24334.0,7309.0,4866.0,2345.0,3735.0,3776.0,1615.0,453.0,113.0,107.0,15.0
3472,County,2020/01/02,26.0,MI,26003.0,Alger County,2260.0,6837.0,28122.0,6048.0,4897.0,3472.0,4836.0,5476.0,2392.0,687.0,262.0,45.0,7.0
7387,County,2020/01/03,26.0,MI,26003.0,Alger County,2247.0,6850.0,33272.0,8474.0,6410.0,3952.0,4305.0,6217.0,2535.0,1064.0,278.0,29.0,8.0
12097,County,2020/01/04,26.0,MI,26003.0,Alger County,2339.0,6758.0,26981.0,5355.0,5219.0,3564.0,4020.0,4253.0,2738.0,1464.0,335.0,29.0,4.0
14008,County,2020/01/05,26.0,MI,26003.0,Alger County,2753.0,6344.0,22720.0,4632.0,5976.0,2379.0,2386.0,3071.0,2782.0,948.0,471.0,71.0,4.0
16517,County,2020/01/06,26.0,MI,26003.0,Alger County,2548.0,6549.0,27139.0,7902.0,4017.0,2657.0,3497.0,5737.0,2013.0,1037.0,244.0,28.0,7.0
19771,County,2020/01/07,26.0,MI,26003.0,Alger County,1992.0,7105.0,30119.0,7141.0,5111.0,3023.0,5171.0,5913.0,2613.0,877.0,242.0,8.0,20.0
24619,County,2020/01/08,26.0,MI,26003.0,Alger County,2250.0,6847.0,30782.0,8895.0,4974.0,3661.0,4153.0,5550.0,2315.0,937.0,269.0,25.0,3.0
27750,County,2020/01/09,26.0,MI,26003.0,Alger County,2127.0,6970.0,29439.0,5316.0,5210.0,3314.0,6735.0,5235.0,2884.0,526.0,190.0,16.0,13.0
30957,County,2020/01/10,26.0,MI,26003.0,Alger County,2021.0,7076.0,29970.0,6801.0,6097.0,2601.0,5004.0,5225.0,2667.0,1243.0,296.0,26.0,10.0
32585,County,2020/01/11,26.0,MI,26003.0,Alger County,2420.0,6677.0,24103.0,5460.0,3690.0,2471.0,3145.0,5396.0,2706.0,989.0,181.0,54.0,11.0
35741,County,2020/01/12,26.0,MI,26003.0,Alger County,2454.0,6643.0,22263.0,4525.0,4514.0,2577.0,3280.0,3457.0,2185.0,1140.0,404.0,177.0,4.0
38984,County,2020/01/13,26.0,MI,26003.0,Alger County,2173.0,6924.0,28262.0,5350.0,5324.0,3042.0,4481.0,6323.0,2445.0,886.0,362.0,45.0,4.0
43717,County,2020/01/14,26.0,MI,26003.0,Alger County,2110.0,6987.0,27268.0,3718.0,5542.0,2669.0,5484.0,5624.0,3050.0,803.0,319.0,55.0,4.0
46923,County,2020/01/15,26.0,MI,26003.0,Alger County,1908.0,7189.0,27782.0,5481.0,4574.0,3962.0,4126.0,6451.0,2351.0,451.0,323.0,60.0,3.0
50079,County,2020/01/16,26.0,MI,26003.0,Alger County,2211.0,6886.0,33284.0,8500.0,5769.0,4006.0,4974.0,6267.0,2366.0,784.0,519.0,81.0,18.0
53366,County,2020/01/17,26.0,MI,26003.0,Alger County,1968.0,7129.0,31416.0,6789.0,5549.0,3572.0,4766.0,6028.0,2857.0,1373.0,352.0,130.0,0.0
56487,County,2020/01/18,26.0,MI,26003.0,Alger County,2805.0,6292.0,27784.0,6937.0,6568.0,3218.0,3227.0,4438.0,2365.0,705.0,233.0,81.0,12.0
58086,County,2020/01/19,26.0,MI,26003.0,Alger County,2643.0,6454.0,28098.0,6816.0,7091.0,3235.0,3934.0,4438.0,1517.0,679.0,253.0,116.0,19.0
61319,County,2020/01/20,26.0,MI,26003.0,Alger County,2302.0,6795.0,30893.0,8687.0,5975.0,3326.0,4626.0,4734.0,2421.0,722.0,230.0,168.0,4.0
64476,County,2020/01/21,26.0,MI,26003.0,Alger County,2137.0,6960.0,27262.0,6150.0,4675.0,2904.0,4368.0,5299.0,3084.0,497.0,222.0,43.0,20.0
67679,County,2020/01/22,26.0,MI,26003.0,Alger County,2313.0,6784.0,26155.0,3967.0,4886.0,2718.0,5326.0,5461.0,2613.0,675.0,413.0,89.0,7.0
72469,County,2020/01/23,26.0,MI,26003.0,Alger County,2212.0,6885.0,29046.0,6427.0,5512.0,3358.0,4790.0,5143.0,2473.0,1047.0,213.0,73.0,10.0
75625,County,2020/01/24,26.0,MI,26003.0,Alger County,1945.0,7152.0,28914.0,6909.0,5267.0,3383.0,3796.0,5931.0,1975.0,1273.0,304.0,73.0,3.0
78860,County,2020/01/25,26.0,MI,26003.0,Alger County,2236.0,6861.0,26843.0,6529.0,4824.0,2669.0,5292.0,3616.0,2842.0,798.0,223.0,43.0,7.0
81082,County,2020/01/26,26.0,MI,26003.0,Alger County,2376.0,6721.0,22566.0,6162.0,3721.0,2338.0,3424.0,3518.0,2204.0,809.0,226.0,147.0,17.0
85175,County,2020/01/27,26.0,MI,26003.0,Alger County,2454.0,6643.0,29488.0,5237.0,6824.0,3760.0,5070.0,5126.0,2590.0,426.0,344.0,100.0,11.0
88980,County,2020/01/28,26.0,MI,26003.0,Alger County,1973.0,7124.0,27934.0,7029.0,4502.0,2847.0,4535.0,5026.0,2538.0,826.0,501.0,118.0,12.0
91630,County,2020/01/29,26.0,MI,26003.0,Alger County,2175.0,6922.0,28604.0,6623.0,5951.0,3076.0,4207.0,4900.0,2004.0,1379.0,388.0,63.0,13.0
93356,County,2020/01/30,26.0,MI,26003.0,Alger County,1811.0,7286.0,29265.0,5332.0,6121.0,3509.0,4587.0,6300.0,2061.0,851.0,375.0,113.0,16.0
96411,County,2020/01/31,26.0,MI,26003.0,Alger County,2129.0,6968.0,29105.0,6619.0,4818.0,4805.0,3530.0,5030.0,2848.0,964.0,433.0,55.0,3.0
99660,County,2020/02/01,26.0,MI,26003.0,Alger County,2289.0,6808.0,27096.0,7509.0,4037.0,2661.0,5505.0,3373.0,2368.0,1230.0,339.0,55.0,19.0
104371,County,2020/02/02,26.0,MI,26003.0,Alger County,2559.0,6538.0,24720.0,5783.0,5467.0,3117.0,4600.0,3077.0,1783.0,483.0,336.0,41.0,33.0
107623,County,2020/02/03,26.0,MI,26003.0,Alger County,2236.0,6861.0,30698.0,7747.0,5299.0,2943.0,4947.0,4984.0,2862.0,1565.0,259.0,73.0,19.0
109240,County,2020/02/04,26.0,MI,26003.0,Alger County,2053.0,7044.0,29200.0,7427.0,5592.0,3261.0,3602.0,5455.0,2527.0,1089.0,187.0,43.0,17.0
112386,County,2020/02/05,26.0,MI,26003.0,Alger County,2064.0,7033.0,29895.0,7716.0,3986.0,2983.0,5117.0,5094.0,3678.0,860.0,342.0,96.0,23.0
115530,County,2020/02/06,26.0,MI,26003.0,Alger County,2032.0,7065.0,30484.0,6527.0,6047.0,2932.0,5881.0,4644.0,3142.0,612.0,589.0,92.0,18.0
120423,County,2020/02/07,26.0,MI,26003.0,Alger County,1939.0,7158.0,29832.0,7223.0,4850.0,2841.0,5113.0,4872.0,3144.0,1225.0,456.0,92.0,16.0
123583,County,2020/02/08,26.0,MI,26003.0,Alger County,2203.0,6894.0,27074.0,6121.0,4222.0,3005.0,3984.0,4338.0,3369.0,1633.0,291.0,100.0,11.0
125245,County,2020/02/09,26.0,MI,26003.0,Alger County,2722.0,6375.0,19378.0,3976.0,2499.0,2317.0,2645.0,3288.0,2838.0,1128.0,560.0,115.0,12.0
129541,County,2020/02/10,26.0,MI,26003.0,Alger County,2246.0,6851.0,23901.0,4240.0,3839.0,2142.0,4869.0,4054.0,3017.0,1213.0,408.0,100.0,19.0
132041,County,2020/02/11,26.0,MI,26003.0,Alger County,1974.0,7123.0,26382.0,6013.0,3801.0,2464.0,4195.0,5938.0,2305.0,993.0,587.0,65.0,21.0
136281,County,2020/02/12,26.0,MI,26003.0,Alger County,1987.0,7110.0,27113.0,6337.0,4260.0,2751.0,4626.0,4824.0,2397.0,1363.0,445.0,92.0,18.0
137976,County,2020/02/13,26.0,MI,26003.0,Alger County,2024.0,7073.0,28531.0,7585.0,4554.0,2235.0,5109.0,3697.0,3632.0,1102.0,511.0,94.0,12.0
142706,County,2020/02/14,26.0,MI,26003.0,Alger County,2062.0,7035.0,31217.0,8212.0,4274.0,2719.0,4019.0,5572.0,4469.0,1569.0,292.0,54.0,37.0
144330,County,2020/02/15,26.0,MI,26003.0,Alger County,2285.0,6812.0,28948.0,8137.0,4477.0,2270.0,4900.0,3423.0,4081.0,1136.0,443.0,56.0,25.0
149114,County,2020/02/16,26.0,MI,26003.0,Alger County,2265.0,6832.0,24737.0,4772.0,3711.0,2777.0,5277.0,3320.0,2484.0,1722.0,477.0,172.0,25.0
150742,County,2020/02/17,26.0,MI,26003.0,Alger County,2707.0,6390.0,25166.0,5310.0,3422.0,2436.0,5155.0,4221.0,3243.0,1086.0,219.0,58.0,16.0
153956,County,2020/02/18,26.0,MI,26003.0,Alger County,2074.0,7023.0,29369.0,8046.0,4406.0,2191.0,5618.0,4666.0,2470.0,1556.0,345.0,49.0,22.0
158668,County,2020/02/19,26.0,MI,26003.0,Alger County,1871.0,7226.0,30411.0,7983.0,5525.0,2768.0,5149.0,4409.0,3260.0,1076.0,144.0,71.0,26.0
160212,County,2020/02/20,26.0,MI,26003.0,Alger County,2111.0,6986.0,29033.0,6563.0,4953.0,3037.0,5129.0,5380.0,2569.0,919.0,434.0,37.0,12.0
163490,County,2020/02/21,26.0,MI,26003.0,Alger County,2148.0,6949.0,28683.0,6200.0,4111.0,3023.0,5359.0,5122.0,2975.0,1243.0,550.0,76.0,24.0
166684,County,2020/02/22,26.0,MI,26003.0,Alger County,2226.0,6871.0,26875.0,6606.0,5168.0,1912.0,4661.0,4331.0,2815.0,1029.0,296.0,38.0,19.0
171450,County,2020/02/23,26.0,MI,26003.0,Alger County,2632.0,6465.0,25348.0,4731.0,5454.0,4002.0,4315.0,3896.0,1378.0,1261.0,273.0,19.0,19.0
174694,County,2020/02/24,26.0,MI,26003.0,Alger County,2203.0,6894.0,26449.0,6187.0,4687.0,3048.0,4275.0,4213.0,2563.0,1105.0,295.0,44.0,32.0
176314,County,2020/02/25,26.0,MI,26003.0,Alger County,2171.0,6926.0,27843.0,5485.0,4921.0,2974.0,4474.0,5099.0,3352.0,1222.0,248.0,38.0,30.0
180096,County,2020/02/26,26.0,MI,26003.0,Alger County,2308.0,6789.0,20892.0,3503.0,3781.0,2184.0,2091.0,5798.0,2736.0,489.0,242.0,56.0,12.0
182101,County,2020/02/27,26.0,MI,26003.0,Alger County,2373.0,6724.0,26099.0,5674.0,4536.0,2780.0,4545.0,4265.0,2415.0,1540.0,271.0,59.0,14.0
185941,County,2020/02/28,26.0,MI,26003.0,Alger County,2144.0,6953.0,32654.0,8657.0,6099.0,2246.0,5743.0,5806.0,1934.0,1569.0,503.0,87.0,10.0
189043,County,2020/02/29,26.0,MI,26003.0,Alger County,2114.0,6983.0,32613.0,7494.0,7385.0,3082.0,5747.0,4198.0,3056.0,1114.0,452.0,60.0,25.0
193827,County,2020/03/01,26.0,MI,26003.0,Alger County,2435.0,6662.0,28046.0,6759.0,4719.0,2859.0,5546.0,4394.0,2177.0,1051.0,461.0,63.0,17.0
195456,County,2020/03/02,26.0,MI,26003.0,Alger County,1978.0,7119.0,30747.0,6683.0,6115.0,2654.0,3764.0,5444.0,4807.0,935.0,279.0,32.0,34.0
200141,County,2020/03/03,26.0,MI,26003.0,Alger County,1997.0,7100.0,25171.0,4290.0,4913.0,3389.0,2999.0,4367.0,3572.0,1311.0,243.0,70.0,17.0
202470,County,2020/03/04,26.0,MI,26003.0,Alger County,2074.0,7023.0,28974.0,6092.0,5398.0,3795.0,3549.0,4992.0,3391.0,1348.0,293.0,116.0,0.0
204961,County,2020/03/05,26.0,MI,26003.0,Alger County,1792.0,7305.0,26159.0,4400.0,5752.0,2612.0,5107.0,4025.0,2998.0,858.0,284.0,123.0,0.0
208129,County,2020/03/06,26.0,MI,26003.0,Alger County,1965.0,7132.0,31585.0,10612.0,5533.0,2906.0,3642.0,4007.0,3070.0,876.0,830.0,109.0,0.0
211430,County,2020/03/07,26.0,MI,26003.0,Alger County,2056.0,7041.0,30496.0,7154.0,5830.0,4230.0,4405.0,4355.0,2540.0,1248.0,664.0,46.0,24.0
214596,County,2020/03/08,26.0,MI,26003.0,Alger County,2318.0,6779.0,18967.0,3723.0,4174.0,1242.0,2336.0,3400.0,1712.0,1702.0,507.0,160.0,11.0
217798,County,2020/03/09,26.0,MI,26003.0,Alger County,2209.0,6888.0,27470.0,4661.0,5965.0,2939.0,4144.0,4134.0,3290.0,1811.0,487.0,39.0,0.0
221032,County,2020/03/10,26.0,MI,26003.0,Alger County,2236.0,6861.0,25119.0,5849.0,3377.0,2432.0,2779.0,4852.0,4021.0,1519.0,238.0,41.0,11.0
224221,County,2020/03/11,26.0,MI,26003.0,Alger County,2120.0,6977.0,19294.0,2578.0,2844.0,846.0,4244.0,1717.0,4276.0,1623.0,1150.0,0.0,16.0
228917,County,2020/03/12,26.0,MI,26003.0,Alger County,2156.0,6941.0,20313.0,3489.0,3831.0,1052.0,1979.0,4480.0,2175.0,1730.0,1502.0,75.0,0.0
230565,County,2020/03/13,26.0,MI,26003.0,Alger County,2097.0,7000.0,19606.0,4263.0,2764.0,823.0,4537.0,4338.0,1134.0,1126.0,335.0,271.0,15.0
233764,County,2020/03/14,26.0,MI,26003.0,Alger County,2613.0,6484.0,25699.0,4148.0,4518.0,2422.0,6069.0,3436.0,3335.0,663.0,823.0,285.0,0.0
238518,County,2020/03/15,26.0,MI,26003.0,Alger County,2903.0,6194.0,21942.0,2618.0,4101.0,2663.0,4171.0,4589.0,1834.0,1277.0,543.0,140.0,6.0
241761,County,2020/03/16,26.0,MI,26003.0,Alger County,2300.0,6797.0,30635.0,7700.0,4804.0,3171.0,4909.0,5105.0,3341.0,1226.0,266.0,92.0,21.0
243377,County,2020/03/17,26.0,MI,26003.0,Alger County,2777.0,6320.0,23027.0,4578.0,3847.0,2525.0,2583.0,5531.0,2505.0,1162.0,123.0,156.0,17.0
246532,County,2020/03/18,26.0,MI,26003.0,Alger County,3013.0,6084.0,22885.0,4349.0,3276.0,2611.0,3143.0,5083.0,2590.0,1373.0,340.0,103.0,17.0
249738,County,2020/03/19,26.0,MI,26003.0,Alger County,3015.0,6082.0,23266.0,4370.0,4149.0,2871.0,3065.0,4619.0,2296.0,1370.0,416.0,104.0,6.0
252972,County,2020/03/20,26.0,MI,26003.0,Alger County,2977.0,6120.0,23157.0,5677.0,4536.0,1978.0,3683.0,4011.0,1557.0,929.0,653.0,106.0,27.0
256115,County,2020/03/21,26.0,MI,26003.0,Alger County,3365.0,5732.0,22923.0,5129.0,4160.0,1801.0,3555.0,3013.0,3412.0,1202.0,597.0,47.0,7.0
259302,County,2020/03/22,26.0,MI,26003.0,Alger County,3177.0,5920.0,17452.0,4388.0,3074.0,2006.0,2541.0,3468.0,1018.0,260.0,646.0,45.0,6.0
264081,County,2020/03/23,26.0,MI,26003.0,Alger County,2640.0,6457.0,21598.0,4994.0,3598.0,2283.0,2289.0,4423.0,2446.0,1181.0,310.0,60.0,14.0
265707,County,2020/03/24,26.0,MI,26003.0,Alger County,2893.0,6204.0,21293.0,4972.0,3130.0,1449.0,4670.0,3652.0,2139.0,680.0,464.0,131.0,6.0
268941,County,2020/03/25,26.0,MI,26003.0,Alger County,2711.0,6386.0,19737.0,4477.0,2829.0,1943.0,4091.0,2482.0,2811.0,798.0,238.0,41.0,27.0
273681,County,2020/03/26,26.0,MI,26003.0,Alger County,3236.0,5861.0,21230.0,5669.0,4024.0,1123.0,2027.0,3415.0,3094.0,1384.0,412.0,63.0,19.0
276848,County,2020/03/27,26.0,MI,26003.0,Alger County,2756.0,6341.0,18854.0,3640.0,3722.0,1574.0,2894.0,3405.0,2048.0,1150.0,357.0,49.0,15.0
278475,County,2020/03/28,26.0,MI,26003.0,Alger County,3338.0,5759.0,18246.0,4939.0,3021.0,1461.0,1860.0,3829.0,1394.0,1386.0,321.0,16.0,19.0
283235,County,2020/03/29,26.0,MI,26003.0,Alger County,3584.0,5513.0,15019.0,2587.0,2582.0,849.0,3467.0,2657.0,2173.0,598.0,99.0,0.0,7.0
284862,County,2020/03/30,26.0,MI,26003.0,Alger County,2891.0,6206.0,18832.0,4774.0,3595.0,1961.0,2414.0,2386.0,1965.0,1246.0,436.0,50.0,5.0
289665,County,2020/03/31,26.0,MI,26003.0,Alger County,3134.0,5963.0,17703.0,4237.0,2722.0,1121.0,2531.0,3184.0,2189.0,1383.0,305.0,26.0,5.0
291293,County,2020/04/01,26.0,MI,26003.0,Alger County,3009.0,6088.0,20689.0,4854.0,3986.0,2190.0,2608.0,2998.0,2389.0,1275.0,335.0,39.0,15.0
296026,County,2020/04/02,26.0,MI,26003.0,Alger County,3090.0,6007.0,19287.0,5535.0,3747.0,2103.0,3020.0,2443.0,1317.0,864.0,234.0,13.0,11.0
299253,County,2020/04/03,26.0,MI,26003.0,Alger County,2846.0,6251.0,20321.0,4737.0,2544.0,1922.0,3943.0,3721.0,2408.0,790.0,214.0,37.0,5.0
302433,County,2020/04/04,26.0,MI,26003.0,Alger County,3676.0,5421.0,17087.0,4694.0,3370.0,1231.0,2880.0,1664.0,1884.0,1012.0,279.0,58.0,15.0
304061,County,2020/04/05,26.0,MI,26003.0,Alger County,3730.0,5367.0,14918.0,2839.0,2551.0,854.0,1499.0,4157.0,1373.0,1287.0,290.0,60.0,8.0
308786,County,2020/04/06,26.0,MI,26003.0,Alger County,3175.0,5922.0,20162.0,3373.0,1979.0,2238.0,3721.0,5446.0,1947.0,1065.0,336.0,50.0,7.0
312026,County,2020/04/07,26.0,MI,26003.0,Alger County,3098.0,5999.0,19679.0,4188.0,3076.0,2136.0,2448.0,4085.0,2803.0,502.0,373.0,57.0,11.0
315199,County,2020/04/08,26.0,MI,26003.0,Alger County,3058.0,6039.0,21377.0,3301.0,5032.0,1863.0,5935.0,3467.0,604.0,721.0,402.0,46.0,6.0
316826,County,2020/04/09,26.0,MI,26003.0,Alger County,3590.0,5507.0,15555.0,2705.0,2635.0,1858.0,2981.0,3466.0,1365.0,305.0,202.0,17.0,21.0
320053,County,2020/04/10,26.0,MI,26003.0,Alger County,3171.0,5926.0,21120.0,4774.0,4119.0,2043.0,3688.0,2983.0,2393.0,840.0,208.0,72.0,0.0
324806,County,2020/04/11,26.0,MI,26003.0,Alger County,3248.0,5849.0,23580.0,5478.0,5445.0,1837.0,5850.0,3549.0,893.0,266.0,220.0,30.0,12.0
326382,County,2020/04/12,26.0,MI,26003.0,Alger County,3563.0,5534.0,12421.0,2970.0,2287.0,1504.0,1778.0,2092.0,1184.0,265.0,263.0,60.0,18.0
329648,County,2020/04/13,26.0,MI,26003.0,Alger County,3643.0,5454.0,18722.0,3233.0,4508.0,3354.0,3027.0,2449.0,1664.0,221.0,164.0,94.0,8.0
332772,County,2020/04/14,26.0,MI,26003.0,Alger County,3151.0,5946.0,15728.0,2549.0,3472.0,775.0,2332.0,4715.0,1068.0,212.0,526.0,36.0,43.0
335998,County,2020/04/15,26.0,MI,26003.0,Alger County,3181.0,5916.0,13280.0,1218.0,1905.0,1133.0,4691.0,2759.0,1171.0,0.0,347.0,40.0,16.0
340716,County,2020/04/16,26.0,MI,26003.0,Alger County,3245.0,5852.0,19201.0,4852.0,2941.0,1751.0,2633.0,4259.0,2411.0,239.0,0.0,82.0,33.0
342451,County,2020/04/17,26.0,MI,26003.0,Alger County,2981.0,6116.0,19683.0,3618.0,5386.0,2939.0,2010.0,2925.0,2208.0,0.0,544.0,38.0,15.0
345557,County,2020/04/18,26.0,MI,26003.0,Alger County,3331.0,5766.0,12375.0,1693.0,2411.0,923.0,1850.0,2245.0,2119.0,758.0,376.0,0.0,0.0
350308,County,2020/04/19,26.0,MI,26003.0,Alger County,3433.0,5664.0,6646.0,1004.0,2311.0,688.0,517.0,1256.0,474.0,0.0,280.0,97.0,19.0
353558,County,2020/04/20,26.0,MI,26003.0,Alger County,2823.0,6274.0,21261.0,4014.0,4409.0,2812.0,1692.0,3079.0,3874.0,693.0,688.0,0.0,0.0
356744,County,2020/04/21,26.0,MI,26003.0,Alger County,3074.0,6023.0,21231.0,3680.0,3933.0,2152.0,3578.0,5375.0,1873.0,465.0,92.0,64.0,19.0
358373,County,2020/04/22,26.0,MI,26003.0,Alger County,3191.0,5906.0,23480.0,6199.0,3848.0,2672.0,2489.0,4026.0,3507.0,628.0,104.0,0.0,7.0
363105,County,2020/04/23,26.0,MI,26003.0,Alger County,3088.0,6009.0,22529.0,5792.0,4086.0,1351.0,2236.0,5097.0,2607.0,1111.0,165.0,76.0,8.0
364732,County,2020/04/24,26.0,MI,26003.0,Alger County,2829.0,6268.0,27448.0,6971.0,4885.0,2475.0,4787.0,5450.0,1462.0,872.0,529.0,17.0,0.0
367899,County,2020/04/25,26.0,MI,26003.0,Alger County,2906.0,6191.0,21814.0,4336.0,4195.0,1208.0,4544.0,3969.0,2331.0,993.0,197.0,34.0,7.0
372668,County,2020/04/26,26.0,MI,26003.0,Alger County,3325.0,5772.0,23929.0,4117.0,4354.0,1944.0,4386.0,6081.0,2487.0,456.0,57.0,39.0,8.0
375899,County,2020/04/27,26.0,MI,26003.0,Alger County,2959.0,6138.0,17903.0,3294.0,3678.0,1751.0,2140.0,3463.0,2111.0,1260.0,179.0,15.0,12.0
379070,County,2020/04/28,26.0,MI,26003.0,Alger County,2861.0,6236.0,23023.0,4426.0,4358.0,1126.0,4467.0,4983.0,2822.0,673.0,125.0,43.0,0.0
382274,County,2020/04/29,26.0,MI,26003.0,Alger County,2863.0,6234.0,21139.0,3534.0,3009.0,1397.0,3557.0,5492.0,2517.0,1413.0,175.0,45.0,0.0
383893,County,2020/04/30,26.0,MI,26003.0,Alger County,2803.0,6294.0,22722.0,4301.0,3524.0,2713.0,3427.0,4488.0,2691.0,1248.0,177.0,153.0,0.0
387117,County,2020/05/01,26.0,MI,26003.0,Alger County,2585.0,6512.0,25224.0,6010.0,3827.0,1952.0,3231.0,5463.0,3900.0,642.0,119.0,69.0,11.0
391829,County,2020/05/02,26.0,MI,26003.0,Alger County,2621.0,6476.0,24528.0,6694.0,4703.0,3199.0,3308.0,3527.0,1928.0,904.0,245.0,14.0,6.0
395024,County,2020/05/03,26.0,MI,26003.0,Alger County,3068.0,6029.0,23331.0,6726.0,3056.0,2598.0,4690.0,3320.0,1253.0,1068.0,583.0,37.0,0.0
396675,County,2020/05/04,26.0,MI,26003.0,Alger County,2541.0,6556.0,24364.0,4420.0,3798.0,3391.0,3507.0,5544.0,2190.0,1219.0,259.0,30.0,6.0
399894,County,2020/05/05,26.0,MI,26003.0,Alger County,2520.0,6577.0,20669.0,3631.0,2616.0,1828.0,3666.0,4200.0,3497.0,1001.0,124.0,100.0,6.0
404649,County,2020/05/06,26.0,MI,26003.0,Alger County,2946.0,6151.0,24120.0,4256.0,4792.0,2194.0,5116.0,4271.0,2418.0,902.0,134.0,31.0,6.0
407744,County,2020/05/07,26.0,MI,26003.0,Alger County,2924.0,6173.0,21402.0,4632.0,3011.0,1792.0,4044.0,4361.0,2469.0,737.0,274.0,63.0,19.0
409532,County,2020/05/08,26.0,MI,26003.0,Alger County,2863.0,6234.0,24406.0,5170.0,4935.0,2149.0,4365.0,4315.0,2073.0,1148.0,175.0,76.0,0.0
412586,County,2020/05/09,26.0,MI,26003.0,Alger County,3193.0,5904.0,24144.0,6137.0,4187.0,2492.0,4312.0,3639.0,2576.0,615.0,102.0,70.0,14.0
417383,County,2020/05/10,26.0,MI,26003.0,Alger County,3101.0,5996.0,17184.0,4619.0,3686.0,2278.0,1904.0,2002.0,1569.0,832.0,155.0,125.0,14.0
420662,County,2020/05/11,26.0,MI,26003.0,Alger County,2645.0,6452.0,23257.0,6417.0,2803.0,2190.0,3294.0,4948.0,2012.0,1286.0,213.0,88.0,6.0
422242,County,2020/05/12,26.0,MI,26003.0,Alger County,2590.0,6507.0,20965.0,4212.0,3541.0,2549.0,2148.0,4218.0,2670.0,1341.0,208.0,72.0,6.0
426915,County,2020/05/13,26.0,MI,26003.0,Alger County,2664.0,6433.0,23986.0,7629.0,3667.0,1796.0,3019.0,4369.0,2328.0,955.0,172.0,45.0,6.0
428641,County,2020/05/14,26.0,MI,26003.0,Alger County,2605.0,6492.0,20947.0,5288.0,4490.0,1704.0,2412.0,4512.0,1381.0,989.0,123.0,42.0,6.0
431836,County,2020/05/15,26.0,MI,26003.0,Alger County,2519.0,6578.0,23812.0,4578.0,3810.0,2101.0,4064.0,5843.0,1930.0,1316.0,122.0,42.0,6.0
435059,County,2020/05/16,26.0,MI,26003.0,Alger County,2583.0,6514.0,23022.0,5937.0,4402.0,2358.0,1858.0,4235.0,3094.0,923.0,183.0,32.0,0.0
438212,County,2020/05/17,26.0,MI,26003.0,Alger County,2753.0,6344.0,21245.0,5168.0,4448.0,1209.0,3117.0,4833.0,1428.0,852.0,141.0,49.0,0.0
442984,County,2020/05/18,26.0,MI,26003.0,Alger County,2015.0,7082.0,26794.0,8290.0,5519.0,1865.0,4407.0,4537.0,918.0,985.0,217.0,56.0,0.0
446147,County,2020/05/19,26.0,MI,26003.0,Alger County,2114.0,6983.0,23784.0,5399.0,4045.0,1655.0,2037.0,5493.0,3939.0,742.0,368.0,106.0,0.0
447779,County,2020/05/20,26.0,MI,26003.0,Alger County,2286.0,6811.0,34085.0,10501.0,5739.0,2562.0,5299.0,4676.0,3751.0,1316.0,196.0,45.0,0.0
452213,County,2020/05/21,26.0,MI,26003.0,Alger County,2121.0,6976.0,27193.0,5581.0,4879.0,2042.0,3277.0,5797.0,3939.0,1343.0,278.0,57.0,0.0
455709,County,2020/05/22,26.0,MI,26003.0,Alger County,2217.0,6880.0,32315.0,9388.0,2765.0,2614.0,5899.0,6715.0,3602.0,1194.0,118.0,20.0,0.0
458920,County,2020/05/23,26.0,MI,26003.0,Alger County,2526.0,6571.0,32206.0,8870.0,6280.0,3058.0,4345.0,6615.0,2107.0,838.0,69.0,24.0,0.0
462124,County,2020/05/24,26.0,MI,26003.0,Alger County,2802.0,6295.0,25991.0,5807.0,4126.0,2484.0,5026.0,4378.0,2715.0,1338.0,105.0,12.0,0.0
463752,County,2020/05/25,26.0,MI,26003.0,Alger County,2516.0,6581.0,22920.0,4411.0,4050.0,1843.0,4693.0,3710.0,2345.0,1340.0,434.0,70.0,24.0
468583,County,2020/05/26,26.0,MI,26003.0,Alger County,2453.0,6644.0,23793.0,5994.0,3528.0,2219.0,3553.0,4181.0,3255.0,647.0,321.0,91.0,4.0
471725,County,2020/05/27,26.0,MI,26003.0,Alger County,2397.0,6700.0,26834.0,6474.0,4724.0,3239.0,3739.0,4949.0,2283.0,1176.0,246.0,0.0,4.0
474825,County,2020/05/28,26.0,MI,26003.0,Alger County,2710.0,6387.0,23564.0,5493.0,3158.0,1934.0,3999.0,5097.0,2775.0,861.0,197.0,45.0,5.0
476503,County,2020/05/29,26.0,MI,26003.0,Alger County,2453.0,6644.0,26649.0,7561.0,3062.0,1847.0,5113.0,4136.0,3665.0,972.0,241.0,52.0,0.0
479690,County,2020/05/30,26.0,MI,26003.0,Alger County,2726.0,6371.0,26529.0,6433.0,4613.0,2654.0,4268.0,4120.0,3909.0,376.0,112.0,39.0,5.0
484456,County,2020/05/31,26.0,MI,26003.0,Alger County,2725.0,6372.0,28184.0,7233.0,6459.0,2575.0,4338.0,3884.0,2696.0,593.0,336.0,58.0,12.0
487758,County,2020/06/01,26.0,MI,26003.0,Alger County,2361.0,6736.0,26886.0,6185.0,5353.0,2025.0,3900.0,4830.0,2902.0,1199.0,430.0,57.0,5.0
489326,County,2020/06/02,26.0,MI,26003.0,Alger County,2545.0,6552.0,29130.0,7588.0,5693.0,3300.0,4427.0,3364.0,3195.0,1173.0,327.0,63.0,0.0
492495,County,2020/06/03,26.0,MI,26003.0,Alger County,2209.0,6888.0,30647.0,8613.0,5586.0,2296.0,4763.0,5587.0,2618.0,846.0,323.0,11.0,4.0
497269,County,2020/06/04,26.0,MI,26003.0,Alger County,2109.0,6988.0,30171.0,7180.0,5071.0,2939.0,5615.0,5508.0,2517.0,914.0,389.0,34.0,4.0
500433,County,2020/06/05,26.0,MI,26003.0,Alger County,2052.0,7045.0,28980.0,5988.0,5035.0,2403.0,4548.0,6036.0,3525.0,1211.0,190.0,44.0,0.0
502056,County,2020/06/06,26.0,MI,26003.0,Alger County,2518.0,6579.0,27710.0,6873.0,5081.0,3649.0,3264.0,4799.0,3261.0,648.0,121.0,14.0,0.0
506832,County,2020/06/07,26.0,MI,26003.0,Alger County,2650.0,6447.0,22476.0,4799.0,5782.0,2436.0,1905.0,3081.0,2818.0,1281.0,239.0,124.0,11.0
510044,County,2020/06/08,26.0,MI,26003.0,Alger County,1886.0,7211.0,31258.0,9778.0,6962.0,1717.0,3384.0,5042.0,2447.0,1314.0,507.0,100.0,7.0
511673,County,2020/06/09,26.0,MI,26003.0,Alger County,2258.0,6839.0,28233.0,7906.0,5538.0,3090.0,3202.0,4011.0,3217.0,790.0,392.0,87.0,0.0
514831,County,2020/06/10,26.0,MI,26003.0,Alger County,2405.0,6692.0,24359.0,6900.0,4140.0,2285.0,2224.0,3598.0,3519.0,1326.0,329.0,38.0,0.0
519562,County,2020/06/11,26.0,MI,26003.0,Alger County,2260.0,6837.0,28006.0,7831.0,5329.0,2700.0,3288.0,3833.0,3543.0,1163.0,288.0,27.0,4.0
522834,County,2020/06/12,26.0,MI,26003.0,Alger County,2415.0,6682.0,25122.0,6353.0,3284.0,1815.0,3886.0,4332.0,3655.0,1262.0,399.0,128.0,8.0
524461,County,2020/06/13,26.0,MI,26003.0,Alger County,2346.0,6751.0,28383.0,7667.0,5241.0,3455.0,4548.0,3941.0,1885.0,1361.0,206.0,71.0,8.0
529176,County,2020/06/14,26.0,MI,26003.0,Alger County,2592.0,6505.0,21598.0,5091.0,3398.0,1979.0,3274.0,3852.0,2454.0,705.0,726.0,93.0,26.0
530805,County,2020/06/15,26.0,MI,26003.0,Alger County,2270.0,6827.0,25024.0,5967.0,3955.0,2257.0,3483.0,4789.0,3031.0,904.0,567.0,65.0,6.0
535586,County,2020/06/16,26.0,MI,26003.0,Alger County,2572.0,6525.0,25900.0,8468.0,3201.0,2189.0,3475.0,4808.0,2346.0,1149.0,223.0,34.0,7.0
538754,County,2020/06/17,26.0,MI,26003.0,Alger County,2520.0,6577.0,27267.0,7568.0,4599.0,2513.0,4702.0,3505.0,2786.0,1259.0,300.0,35.0,0.0
541949,County,2020/06/18,26.0,MI,26003.0,Alger County,2456.0,6641.0,26087.0,6437.0,4793.0,2703.0,4912.0,2809.0,2870.0,926.0,597.0,40.0,0.0
543576,County,2020/06/19,26.0,MI,26003.0,Alger County,2146.0,6951.0,26507.0,6913.0,4056.0,3142.0,4486.0,3758.0,2495.0,1138.0,434.0,82.0,3.0
546781,County,2020/06/20,26.0,MI,26003.0,Alger County,2831.0,6266.0,23799.0,6735.0,5120.0,1910.0,3900.0,2573.0,1880.0,1290.0,334.0,38.0,19.0
549985,County,2020/06/21,26.0,MI,26003.0,Alger County,2745.0,6352.0,21748.0,4646.0,4505.0,1676.0,3631.0,3426.0,2217.0,937.0,656.0,47.0,7.0
554765,County,2020/06/22,26.0,MI,26003.0,Alger County,2329.0,6768.0,22892.0,5572.0,4362.0,2053.0,2850.0,3842.0,2611.0,1038.0,472.0,89.0,3.0
557920,County,2020/06/23,26.0,MI,26003.0,Alger County,2229.0,6868.0,26448.0,5282.0,4130.0,2495.0,4324.0,4223.0,3885.0,1738.0,310.0,61.0,0.0
559552,County,2020/06/24,26.0,MI,26003.0,Alger County,2293.0,6804.0,26744.0,7851.0,3747.0,2654.0,3818.0,4071.0,3020.0,1233.0,282.0,65.0,3.0
562741,County,2020/06/25,26.0,MI,26003.0,Alger County,2302.0,6795.0,28790.0,8854.0,3762.0,2687.0,4976.0,3647.0,3133.0,1232.0,422.0,65.0,12.0
567585,County,2020/06/26,26.0,MI,26003.0,Alger County,2516.0,6581.0,24076.0,5835.0,4500.0,2065.0,2350.0,4549.0,3229.0,1101.0,364.0,71.0,12.0
569165,County,2020/06/27,26.0,MI,26003.0,Alger County,2376.0,6721.0,28732.0,7168.0,5532.0,2561.0,3761.0,4748.0,3277.0,1253.0,398.0,34.0,0.0
572324,County,2020/06/28,26.0,MI,26003.0,Alger County,2138.0,6959.0,25697.0,6271.0,4130.0,2577.0,3810.0,3622.0,3306.0,1242.0,689.0,50.0,0.0
577097,County,2020/06/29,26.0,MI,26003.0,Alger County,2005.0,7092.0,26173.0,6339.0,5781.0,2581.0,3474.0,2755.0,3307.0,1042.0,757.0,134.0,3.0
578739,County,2020/06/30,26.0,MI,26003.0,Alger County,2252.0,6845.0,27114.0,7138.0,4461.0,1819.0,4955.0,3948.0,2778.0,1414.0,501.0,97.0,3.0
583491,County,2020/07/01,26.0,MI,26003.0,Alger County,2214.0,6883.0,26643.0,7068.0,6020.0,2263.0,3333.0,3614.0,2663.0,1008.0,577.0,86.0,11.0
586680,County,2020/07/02,26.0,MI,26003.0,Alger County,2223.0,6874.0,30559.0,9398.0,3993.0,2852.0,5282.0,3871.0,3325.0,1308.0,448.0,69.0,13.0
588317,County,2020/07/03,26.0,MI,26003.0,Alger County,2821.0,6276.0,23941.0,5802.0,4475.0,2053.0,2337.0,4523.0,3211.0,1095.0,362.0,71.0,12.0
591525,County,2020/07/04,26.0,MI,26003.0,Alger County,3127.0,5970.0,20482.0,4964.0,3828.0,1757.0,1999.0,3870.0,2747.0,937.0,310.0,60.0,10.0
596271,County,2020/07/05,26.0,MI,26003.0,Alger County,2420.0,6677.0,22606.0,6173.0,4266.0,1879.0,3056.0,2966.0,2169.0,1294.0,704.0,93.0,6.0
598573,County,2020/07/06,26.0,MI,26003.0,Alger County,2375.0,6722.0,23611.0,7394.0,3479.0,2576.0,3398.0,3221.0,1848.0,1073.0,489.0,119.0,14.0
603063,County,2020/07/07,26.0,MI,26003.0,Alger County,2439.0,6658.0,23341.0,5592.0,3518.0,2649.0,3814.0,3775.0,1825.0,1524.0,571.0,69.0,4.0
605778,County,2020/07/08,26.0,MI,26003.0,Alger County,2561.0,6536.0,22674.0,5652.0,4221.0,1826.0,3507.0,4349.0,1659.0,958.0,380.0,115.0,7.0
609032,County,2020/07/09,26.0,MI,26003.0,Alger County,2324.0,6773.0,20201.0,4067.0,3846.0,1977.0,2608.0,3713.0,1959.0,1397.0,552.0,78.0,4.0
610655,County,2020/07/10,26.0,MI,26003.0,Alger County,2472.0,6625.0,24486.0,5170.0,4018.0,2009.0,5019.0,4278.0,2274.0,1297.0,307.0,106.0,8.0
613866,County,2020/07/11,26.0,MI,26003.0,Alger County,2542.0,6555.0,22957.0,5471.0,4518.0,2103.0,3938.0,3081.0,2188.0,1129.0,455.0,60.0,14.0
618639,County,2020/07/12,26.0,MI,26003.0,Alger County,2496.0,6601.0,21020.0,4684.0,3441.0,2390.0,3594.0,2804.0,1646.0,1403.0,922.0,126.0,10.0
621797,County,2020/07/13,26.0,MI,26003.0,Alger County,2419.0,6678.0,24226.0,6943.0,3244.0,2154.0,3855.0,3208.0,2968.0,1374.0,394.0,84.0,2.0
623427,County,2020/07/14,26.0,MI,26003.0,Alger County,2350.0,6747.0,21872.0,4322.0,3616.0,1840.0,4178.0,3464.0,3157.0,970.0,269.0,54.0,2.0
626549,County,2020/07/15,26.0,MI,26003.0,Alger County,2417.0,6680.0,25057.0,5639.0,4917.0,2557.0,3158.0,4273.0,2367.0,1537.0,545.0,64.0,0.0
631479,County,2020/07/16,26.0,MI,26003.0,Alger County,2389.0,6708.0,23644.0,5451.0,4099.0,2402.0,4186.0,3711.0,2364.0,940.0,435.0,54.0,2.0
633040,County,2020/07/17,26.0,MI,26003.0,Alger County,2605.0,6492.0,24626.0,6334.0,3805.0,2199.0,3668.0,4085.0,2974.0,1051.0,424.0,84.0,2.0
637777,County,2020/07/18,26.0,MI,26003.0,Alger County,2694.0,6403.0,24737.0,5870.0,3449.0,2573.0,4125.0,4311.0,2790.0,1075.0,465.0,77.0,2.0
640979,County,2020/07/19,26.0,MI,26003.0,Alger County,2384.0,6713.0,21898.0,4657.0,2653.0,1920.0,3932.0,3479.0,2758.0,1578.0,783.0,138.0,0.0
644188,County,2020/07/20,26.0,MI,26003.0,Alger County,2359.0,6738.0,24138.0,4876.0,3764.0,2697.0,3245.0,4391.0,2801.0,1739.0,541.0,82.0,2.0
645816,County,2020/07/21,26.0,MI,26003.0,Alger County,2356.0,6741.0,29230.0,8796.0,4552.0,2231.0,5275.0,3636.0,3404.0,950.0,358.0,28.0,0.0
650545,County,2020/07/22,26.0,MI,26003.0,Alger County,2088.0,7009.0,25713.0,5473.0,4120.0,2857.0,4029.0,3607.0,3395.0,1703.0,452.0,75.0,2.0
653739,County,2020/07/23,26.0,MI,26003.0,Alger County,2044.0,7053.0,28276.0,6903.0,4651.0,2282.0,4108.0,4871.0,3247.0,1476.0,641.0,84.0,13.0
657013,County,2020/07/24,26.0,MI,26003.0,Alger County,2158.0,6939.0,27372.0,7107.0,4253.0,2544.0,4913.0,4343.0,2302.0,1373.0,465.0,70.0,2.0
660230,County,2020/07/25,26.0,MI,26003.0,Alger County,2192.0,6905.0,28464.0,6245.0,5911.0,2143.0,4417.0,4393.0,3499.0,1207.0,534.0,106.0,9.0
661754,County,2020/07/26,26.0,MI,26003.0,Alger County,2299.0,6798.0,23786.0,4681.0,3410.0,2202.0,4525.0,3259.0,3133.0,1749.0,748.0,73.0,6.0
665050,County,2020/07/27,26.0,MI,26003.0,Alger County,2443.0,6654.0,27273.0,6078.0,3998.0,2638.0,5310.0,4909.0,2459.0,989.0,791.0,99.0,2.0
668163,County,2020/07/28,26.0,MI,26003.0,Alger County,2261.0,6836.0,29717.0,8386.0,3960.0,2786.0,4889.0,3607.0,4084.0,1350.0,582.0,71.0,2.0
671369,County,2020/07/29,26.0,MI,26003.0,Alger County,2339.0,6758.0,28643.0,7312.0,3815.0,2143.0,5412.0,4331.0,3534.0,1259.0,749.0,81.0,7.0
676080,County,2020/07/30,26.0,MI,26003.0,Alger County,2400.0,6697.0,28637.0,6440.0,4183.0,2380.0,5232.0,4856.0,3279.0,1293.0,881.0,83.0,10.0
677731,County,2020/07/31,26.0,MI,26003.0,Alger County,2322.0,6775.0,26836.0,7292.0,3892.0,1833.0,4998.0,3485.0,3209.0,942.0,1059.0,119.0,7.0
682478,County,2020/08/01,26.0,MI,26003.0,Alger County,2468.0,6629.0,28285.0,7414.0,4413.0,2076.0,5990.0,3350.0,2685.0,1428.0,830.0,84.0,15.0
685718,County,2020/08/02,26.0,MI,26003.0,Alger County,2296.0,6801.0,25498.0,6628.0,3450.0,2423.0,3707.0,4048.0,2829.0,1384.0,871.0,151.0,7.0
687308,County,2020/08/03,26.0,MI,26003.0,Alger County,2403.0,6694.0,28023.0,6143.0,4926.0,2760.0,3871.0,4896.0,3288.0,1538.0,496.0,92.0,13.0
692083,County,2020/08/04,26.0,MI,26003.0,Alger County,2087.0,7010.0,32587.0,8836.0,5315.0,2880.0,5612.0,5132.0,3018.0,1233.0,496.0,63.0,2.0
693712,County,2020/08/05,26.0,MI,26003.0,Alger County,2137.0,6960.0,31642.0,9342.0,5390.0,3024.0,3843.0,4663.0,3404.0,1400.0,538.0,36.0,2.0
696918,County,2020/08/06,26.0,MI,26003.0,Alger County,2197.0,6900.0,35094.0,9862.0,5849.0,2590.0,5493.0,5063.0,3803.0,1920.0,467.0,47.0,0.0
701650,County,2020/08/07,26.0,MI,26003.0,Alger County,2181.0,6916.0,28939.0,7465.0,4684.0,2265.0,5570.0,4346.0,2701.0,1254.0,551.0,98.0,5.0
703279,County,2020/08/08,26.0,MI,26003.0,Alger County,2205.0,6892.0,27276.0,6949.0,5167.0,2065.0,4362.0,4009.0,3027.0,1120.0,484.0,93.0,0.0
706470,County,2020/08/09,26.0,MI,26003.0,Alger County,2311.0,6786.0,22470.0,4563.0,3825.0,2518.0,4173.0,2961.0,2294.0,1123.0,870.0,139.0,4.0
711279,County,2020/08/10,26.0,MI,26003.0,Alger County,2129.0,6968.0,26969.0,6318.0,4159.0,3004.0,3515.0,3656.0,4083.0,1509.0,646.0,77.0,2.0
714520,County,2020/08/11,26.0,MI,26003.0,Alger County,2396.0,6701.0,29319.0,6995.0,5084.0,2733.0,4739.0,4622.0,2872.0,1599.0,586.0,84.0,5.0
716053,County,2020/08/12,26.0,MI,26003.0,Alger County,2184.0,6913.0,27745.0,6371.0,4380.0,2770.0,4474.0,4412.0,3200.0,1507.0,565.0,57.0,9.0
720813,County,2020/08/13,26.0,MI,26003.0,Alger County,2018.0,7079.0,27572.0,6666.0,4254.0,2807.0,4471.0,4420.0,3299.0,882.0,657.0,110.0,6.0
724039,County,2020/08/14,26.0,MI,26003.0,Alger County,1985.0,7112.0,31543.0,8736.0,5399.0,3478.0,4224.0,4182.0,3350.0,1446.0,632.0,94.0,2.0
727250,County,2020/08/15,26.0,MI,26003.0,Alger County,2085.0,7012.0,26013.0,5840.0,4085.0,2789.0,4712.0,4072.0,2956.0,776.0,665.0,108.0,10.0
728829,County,2020/08/16,26.0,MI,26003.0,Alger County,2302.0,6795.0,28750.0,8069.0,4567.0,2689.0,3914.0,2955.0,3586.0,1747.0,1097.0,116.0,10.0
733610,County,2020/08/17,26.0,MI,26003.0,Alger County,2176.0,6921.0,27430.0,6205.0,4128.0,3023.0,4859.0,3426.0,3309.0,1633.0,692.0,134.0,21.0
735237,County,2020/08/18,26.0,MI,26003.0,Alger County,2495.0,6602.0,25945.0,5021.0,4740.0,3064.0,3805.0,4617.0,2882.0,1119.0,595.0,69.0,33.0
738443,County,2020/08/19,26.0,MI,26003.0,Alger County,2164.0,6933.0,28628.0,6767.0,4199.0,2965.0,4788.0,3925.0,3784.0,1540.0,569.0,74.0,17.0
741605,County,2020/08/20,26.0,MI,26003.0,Alger County,2147.0,6950.0,25895.0,5381.0,4250.0,2162.0,4314.0,4992.0,2614.0,1269.0,809.0,69.0,35.0
744804,County,2020/08/21,26.0,MI,26003.0,Alger County,2039.0,7058.0,25750.0,5525.0,3590.0,2829.0,3617.0,4416.0,3378.0,1279.0,981.0,119.0,16.0
749586,County,2020/08/22,26.0,MI,26003.0,Alger County,2177.0,6920.0,26961.0,7092.0,2983.0,1910.0,4763.0,4342.0,3255.0,1694.0,800.0,99.0,23.0
751202,County,2020/08/23,26.0,MI,26003.0,Alger County,2425.0,6672.0,21149.0,5524.0,3240.0,2021.0,2981.0,2605.0,2403.0,1401.0,873.0,89.0,12.0
755946,County,2020/08/24,26.0,MI,26003.0,Alger County,2588.0,6509.0,25883.0,7494.0,4398.0,2249.0,3876.0,2886.0,2705.0,1445.0,734.0,92.0,4.0
759186,County,2020/08/25,26.0,MI,26003.0,Alger County,2342.0,6755.0,26824.0,7022.0,3631.0,2383.0,4995.0,3136.0,3713.0,1284.0,574.0,82.0,4.0
760769,County,2020/08/26,26.0,MI,26003.0,Alger County,2702.0,6395.0,22734.0,5553.0,3020.0,2190.0,2725.0,3332.0,3309.0,1974.0,568.0,59.0,4.0
765542,County,2020/08/27,26.0,MI,26003.0,Alger County,2338.0,6759.0,23726.0,5393.0,3667.0,2246.0,4925.0,2779.0,2833.0,1252.0,513.0,107.0,11.0
768757,County,2020/08/28,26.0,MI,26003.0,Alger County,2269.0,6828.0,24031.0,5797.0,4030.0,2386.0,3760.0,2903.0,3131.0,1338.0,572.0,101.0,13.0
770385,County,2020/08/29,26.0,MI,26003.0,Alger County,2530.0,6567.0,24122.0,5464.0,3548.0,2915.0,4194.0,3187.0,2794.0,1319.0,638.0,54.0,9.0
773592,County,2020/08/30,26.0,MI,26003.0,Alger County,2423.0,6674.0,23867.0,6313.0,3800.0,2027.0,3778.0,3377.0,2367.0,1014.0,1096.0,87.0,8.0
778317,County,2020/08/31,26.0,MI,26003.0,Alger County,2398.0,6699.0,24829.0,6712.0,3795.0,2199.0,3720.0,3622.0,2335.0,1506.0,822.0,110.0,8.0
779928,County,2020/09/01,26.0,MI,26003.0,Alger County,2593.0,6504.0,25546.0,6020.0,4827.0,2251.0,4033.0,4079.0,2640.0,1102.0,489.0,94.0,11.0
783122,County,2020/09/02,26.0,MI,26003.0,Alger County,2579.0,6518.0,24534.0,5517.0,3565.0,2196.0,4518.0,3982.0,2224.0,1621.0,841.0,70.0,0.0
787910,County,2020/09/03,26.0,MI,26003.0,Alger County,2140.0,6957.0,26866.0,6928.0,3537.0,2854.0,3663.0,3889.0,3356.0,1689.0,807.0,134.0,9.0
791101,County,2020/09/04,26.0,MI,26003.0,Alger County,2384.0,6713.0,26196.0,6075.0,4545.0,2930.0,4273.0,3291.0,3168.0,1297.0,515.0,82.0,20.0
794290,County,2020/09/05,26.0,MI,26003.0,Alger County,2528.0,6569.0,28148.0,8064.0,3305.0,2708.0,4584.0,4649.0,2666.0,1431.0,671.0,68.0,2.0
797494,County,2020/09/06,26.0,MI,26003.0,Alger County,2687.0,6410.0,23687.0,6448.0,3485.0,3110.0,3821.0,2586.0,2286.0,1491.0,318.0,131.0,11.0
799104,County,2020/09/07,26.0,MI,26003.0,Alger County,2785.0,6312.0,20240.0,3495.0,3616.0,1812.0,4260.0,3170.0,1873.0,1257.0,647.0,103.0,7.0
802317,County,2020/09/08,26.0,MI,26003.0,Alger County,2401.0,6696.0,23855.0,4328.0,3963.0,2344.0,2973.0,4641.0,2976.0,1851.0,712.0,52.0,15.0
807098,County,2020/09/09,26.0,MI,26003.0,Alger County,2632.0,6465.0,26770.0,6348.0,3698.0,2976.0,3498.0,4414.0,3716.0,1376.0,645.0,91.0,8.0
810253,County,2020/09/10,26.0,MI,26003.0,Alger County,2543.0,6554.0,28567.0,8929.0,3485.0,3204.0,4681.0,3564.0,2712.0,1129.0,765.0,90.0,8.0
811882,County,2020/09/11,26.0,MI,26003.0,Alger County,2409.0,6688.0,26543.0,6460.0,4066.0,2451.0,5188.0,3313.0,2938.0,1380.0,629.0,103.0,15.0
815067,County,2020/09/12,26.0,MI,26003.0,Alger County,2773.0,6324.0,23183.0,5418.0,4111.0,1941.0,3629.0,4657.0,1878.0,948.0,471.0,118.0,12.0
819864,County,2020/09/13,26.0,MI,26003.0,Alger County,2768.0,6329.0,18189.0,3406.0,3552.0,1348.0,3817.0,1833.0,2513.0,1304.0,281.0,113.0,22.0
821493,County,2020/09/14,26.0,MI,26003.0,Alger County,2458.0,6639.0,23975.0,6290.0,3563.0,2789.0,2209.0,4108.0,2697.0,1649.0,539.0,117.0,14.0
824649,County,2020/09/15,26.0,MI,26003.0,Alger County,2279.0,6818.0,24635.0,5446.0,4224.0,2254.0,2767.0,4925.0,2726.0,1474.0,732.0,77.0,10.0
829456,County,2020/09/16,26.0,MI,26003.0,Alger County,2536.0,6561.0,27240.0,7942.0,4232.0,2996.0,3466.0,3476.0,2667.0,1667.0,733.0,59.0,2.0
832633,County,2020/09/17,26.0,MI,26003.0,Alger County,2437.0,6660.0,26917.0,6076.0,3959.0,2884.0,3848.0,4414.0,3396.0,1644.0,550.0,130.0,16.0
834262,County,2020/09/18,26.0,MI,26003.0,Alger County,2326.0,6771.0,27354.0,6923.0,4656.0,2603.0,4192.0,4169.0,2770.0,1277.0,634.0,115.0,15.0
837425,County,2020/09/19,26.0,MI,26003.0,Alger County,2530.0,6567.0,27464.0,7192.0,4711.0,2596.0,4218.0,3728.0,3363.0,981.0,571.0,95.0,9.0
842200,County,2020/09/20,26.0,MI,26003.0,Alger County,2334.0,6763.0,20539.0,4638.0,3260.0,2217.0,3196.0,2979.0,1909.0,1481.0,716.0,130.0,13.0
843828,County,2020/09/21,26.0,MI,26003.0,Alger County,2610.0,6487.0,23984.0,5108.0,3484.0,2747.0,4133.0,3721.0,3000.0,1278.0,444.0,66.0,3.0
847032,County,2020/09/22,26.0,MI,26003.0,Alger County,2367.0,6730.0,25281.0,6072.0,3553.0,2879.0,3964.0,4454.0,2824.0,1163.0,338.0,34.0,0.0
851810,County,2020/09/23,26.0,MI,26003.0,Alger County,2159.0,6938.0,28105.0,6568.0,3367.0,3758.0,3693.0,4816.0,3590.0,1730.0,531.0,49.0,3.0
854966,County,2020/09/24,26.0,MI,26003.0,Alger County,2541.0,6556.0,24393.0,5742.0,3489.0,2285.0,4608.0,3601.0,2790.0,1323.0,466.0,66.0,23.0
856595,County,2020/09/25,26.0,MI,26003.0,Alger County,2334.0,6763.0,25385.0,5895.0,4176.0,2196.0,5071.0,3231.0,3096.0,1091.0,604.0,22.0,3.0
861348,County,2020/09/26,26.0,MI,26003.0,Alger County,2410.0,6687.0,25777.0,6001.0,4537.0,2538.0,4062.0,3877.0,2977.0,1243.0,463.0,76.0,3.0
863002,County,2020/09/27,26.0,MI,26003.0,Alger County,2472.0,6625.0,21687.0,4637.0,3177.0,2033.0,3769.0,2933.0,2736.0,1438.0,868.0,93.0,3.0
867785,County,2020/09/28,26.0,MI,26003.0,Alger County,2552.0,6545.0,22264.0,5990.0,3165.0,2069.0,3492.0,3193.0,2642.0,1161.0,473.0,71.0,8.0
869364,County,2020/09/29,26.0,MI,26003.0,Alger County,2529.0,6568.0,23883.0,4799.0,3763.0,1728.0,3466.0,4790.0,3373.0,1538.0,365.0,55.0,6.0
874143,County,2020/09/30,26.0,MI,26003.0,Alger County,2396.0,6701.0,23460.0,5286.0,3661.0,2271.0,3417.0,3775.0,3588.0,1002.0,400.0,56.0,4.0
875771,County,2020/10/01,26.0,MI,26003.0,Alger County,2353.0,6744.0,24095.0,5802.0,3915.0,2796.0,3380.0,3524.0,3027.0,1313.0,269.0,61.0,8.0
878974,County,2020/10/02,26.0,MI,26003.0,Alger County,2369.0,6728.0,24128.0,4809.0,3954.0,2144.0,3983.0,3938.0,3475.0,1175.0,576.0,69.0,5.0
883756,County,2020/10/03,26.0,MI,26003.0,Alger County,2513.0,6584.0,22501.0,4591.0,3830.0,2364.0,3027.0,4407.0,2495.0,1364.0,354.0,67.0,2.0
885902,County,2020/10/04,26.0,MI,26003.0,Alger County,2565.0,6532.0,18948.0,4147.0,2537.0,1820.0,2307.0,3968.0,2191.0,1019.0,844.0,111.0,4.0
889148,County,2020/10/05,26.0,MI,26003.0,Alger County,2584.0,6513.0,22092.0,4749.0,3352.0,1969.0,2843.0,3862.0,3132.0,1797.0,318.0,67.0,3.0
892744,County,2020/10/06,26.0,MI,26003.0,Alger County,2458.0,6639.0,23298.0,5533.0,3949.0,2491.0,3470.0,3481.0,2558.0,1414.0,345.0,53.0,4.0
895545,County,2020/10/07,26.0,MI,26003.0,Alger County,2421.0,6676.0,24462.0,4965.0,2971.0,2315.0,3288.0,4500.0,4155.0,1774.0,433.0,58.0,3.0
898735,County,2020/10/08,26.0,MI,26003.0,Alger County,2427.0,6670.0,22335.0,5194.0,2486.0,2399.0,3409.0,3683.0,2778.0,1839.0,477.0,67.0,3.0
901901,County,2020/10/09,26.0,MI,26003.0,Alger County,2466.0,6631.0,23744.0,4681.0,4551.0,2282.0,3722.0,4193.0,2744.0,1026.0,479.0,61.0,5.0
905091,County,2020/10/10,26.0,MI,26003.0,Alger County,2874.0,6223.0,21588.0,4963.0,3581.0,2080.0,2392.0,3633.0,2949.0,1560.0,373.0,55.0,2.0
909132,County,2020/10/11,26.0,MI,26003.0,Alger County,3007.0,6090.0,16045.0,2815.0,2128.0,1351.0,2107.0,2286.0,3674.0,1023.0,583.0,75.0,3.0
912092,County,2020/10/12,26.0,MI,26003.0,Alger County,2621.0,6476.0,20393.0,3922.0,2920.0,2445.0,2599.0,4135.0,2215.0,1704.0,381.0,68.0,4.0
915819,County,2020/10/13,26.0,MI,26003.0,Alger County,2769.0,6328.0,21617.0,4666.0,3059.0,2196.0,2541.0,3971.0,3564.0,1173.0,380.0,62.0,5.0
918993,County,2020/10/14,26.0,MI,26003.0,Alger County,2561.0,6536.0,23315.0,4697.0,4193.0,1667.0,4105.0,4559.0,2500.0,1202.0,340.0,49.0,3.0
921221,County,2020/10/15,26.0,MI,26003.0,Alger County,2718.0,6379.0,18985.0,2629.0,2777.0,2312.0,3253.0,3624.0,2208.0,1568.0,584.0,24.0,6.0
924923,County,2020/10/16,26.0,MI,26003.0,Alger County,2615.0,6482.0,24130.0,5901.0,3978.0,1893.0,3873.0,3782.0,2573.0,1633.0,461.0,32.0,4.0
928072,County,2020/10/17,26.0,MI,26003.0,Alger County,2795.0,6302.0,20219.0,4166.0,3074.0,1207.0,3484.0,3360.0,3664.0,653.0,553.0,55.0,3.0
931778,County,2020/10/18,26.0,MI,26003.0,Alger County,2954.0,6143.0,14984.0,1670.0,2440.0,1694.0,2786.0,2217.0,2545.0,1119.0,473.0,35.0,5.0
934174,County,2020/10/19,26.0,MI,26003.0,Alger County,2867.0,6230.0,23084.0,4765.0,1811.0,2120.0,3678.0,4913.0,3601.0,1551.0,578.0,62.0,5.0
937428,County,2020/10/20,26.0,MI,26003.0,Alger County,2898.0,6199.0,22186.0,3375.0,3033.0,2232.0,4214.0,3658.0,3850.0,1435.0,322.0,60.0,7.0
940818,County,2020/10/21,26.0,MI,26003.0,Alger County,2845.0,6252.0,17203.0,3312.0,2170.0,2070.0,2710.0,3136.0,2588.0,762.0,387.0,64.0,4.0
944296,County,2020/10/22,26.0,MI,26003.0,Alger County,2571.0,6526.0,24118.0,7346.0,2662.0,2179.0,3822.0,3040.0,2962.0,1692.0,388.0,24.0,3.0
946196,County,2020/10/23,26.0,MI,26003.0,Alger County,2648.0,6449.0,24439.0,5567.0,3298.0,2480.0,4427.0,3816.0,2808.0,1589.0,412.0,38.0,4.0
950477,County,2020/10/24,26.0,MI,26003.0,Alger County,3002.0,6095.0,20517.0,3345.0,4883.0,1529.0,3187.0,2535.0,3326.0,1279.0,413.0,16.0,4.0
