,Level,Date,State FIPS,State Postal Code,County FIPS,County Name,Population Staying at Home,Population Not Staying at Home,Number of Trips,Number of Trips <1,Number of Trips 1-3,Number of Trips 3-5,Number of Trips 5-10,Number of Trips 10-25,Number of Trips 25-50,Number of Trips 50-100,Number of Trips 100-250,Number of Trips 250-500,Number of Trips >=500
1994,County,2020/01/01,38.0,ND,38011.0,Bowman County,759.0,2317.0,7812.0,1444.0,1924.0,1854.0,69.0,1469.0,180.0,639.0,185.0,48.0,0.0
5031,County,2020/01/02,38.0,ND,38011.0,Bowman County,749.0,2327.0,8548.0,2409.0,2149.0,750.0,533.0,1427.0,233.0,896.0,128.0,23.0,0.0
6392,County,2020/01/03,38.0,ND,38011.0,Bowman County,630.0,2446.0,9682.0,2100.0,2191.0,1577.0,431.0,2307.0,329.0,502.0,207.0,38.0,0.0
10788,County,2020/01/04,38.0,ND,38011.0,Bowman County,732.0,2344.0,8701.0,2084.0,2095.0,1755.0,454.0,759.0,340.0,941.0,250.0,23.0,0.0
14770,County,2020/01/05,38.0,ND,38011.0,Bowman County,941.0,2135.0,6346.0,1417.0,1672.0,619.0,642.0,1607.0,80.0,190.0,71.0,48.0,0.0
18599,County,2020/01/06,38.0,ND,38011.0,Bowman County,706.0,2370.0,11770.0,2517.0,2061.0,2418.0,282.0,3192.0,543.0,585.0,152.0,20.0,0.0
21745,County,2020/01/07,38.0,ND,38011.0,Bowman County,693.0,2383.0,8292.0,1493.0,1674.0,1280.0,341.0,1993.0,546.0,824.0,131.0,10.0,0.0
23421,County,2020/01/08,38.0,ND,38011.0,Bowman County,645.0,2431.0,9775.0,2929.0,2049.0,1293.0,574.0,1626.0,547.0,648.0,100.0,9.0,0.0
28120,County,2020/01/09,38.0,ND,38011.0,Bowman County,711.0,2365.0,9286.0,2954.0,1847.0,742.0,494.0,2244.0,383.0,511.0,63.0,48.0,0.0
31327,County,2020/01/10,38.0,ND,38011.0,Bowman County,622.0,2454.0,8674.0,1923.0,2586.0,1187.0,737.0,1642.0,46.0,382.0,162.0,9.0,0.0
33004,County,2020/01/11,38.0,ND,38011.0,Bowman County,602.0,2474.0,8204.0,1893.0,1873.0,2051.0,607.0,828.0,477.0,314.0,140.0,21.0,0.0
36160,County,2020/01/12,38.0,ND,38011.0,Bowman County,630.0,2446.0,5893.0,1489.0,1052.0,225.0,450.0,1656.0,437.0,414.0,135.0,35.0,0.0
39354,County,2020/01/13,38.0,ND,38011.0,Bowman County,645.0,2431.0,8495.0,1562.0,2196.0,823.0,730.0,2134.0,319.0,594.0,100.0,37.0,0.0
44087,County,2020/01/14,38.0,ND,38011.0,Bowman County,651.0,2425.0,8191.0,1594.0,2038.0,1091.0,726.0,2075.0,169.0,351.0,130.0,17.0,0.0
47292,County,2020/01/15,38.0,ND,38011.0,Bowman County,660.0,2416.0,7226.0,1277.0,2183.0,1168.0,363.0,1717.0,91.0,322.0,60.0,45.0,0.0
48821,County,2020/01/16,38.0,ND,38011.0,Bowman County,701.0,2375.0,8739.0,1485.0,2451.0,1312.0,873.0,1588.0,305.0,482.0,202.0,41.0,0.0
53736,County,2020/01/17,38.0,ND,38011.0,Bowman County,679.0,2397.0,7363.0,1227.0,2253.0,791.0,552.0,1662.0,175.0,571.0,97.0,35.0,0.0
56858,County,2020/01/18,38.0,ND,38011.0,Bowman County,720.0,2356.0,8449.0,1697.0,1892.0,1013.0,506.0,2627.0,196.0,349.0,130.0,39.0,0.0
58457,County,2020/01/19,38.0,ND,38011.0,Bowman County,671.0,2405.0,6724.0,1475.0,2012.0,1034.0,229.0,1117.0,200.0,356.0,221.0,80.0,0.0
61689,County,2020/01/20,38.0,ND,38011.0,Bowman County,708.0,2368.0,7991.0,1291.0,1609.0,1174.0,313.0,2539.0,364.0,594.0,80.0,27.0,0.0
64895,County,2020/01/21,38.0,ND,38011.0,Bowman County,660.0,2416.0,8157.0,1707.0,1939.0,838.0,532.0,2175.0,279.0,495.0,164.0,28.0,0.0
69655,County,2020/01/22,38.0,ND,38011.0,Bowman County,696.0,2380.0,8963.0,1859.0,1885.0,1211.0,699.0,2199.0,188.0,779.0,124.0,19.0,0.0
72839,County,2020/01/23,38.0,ND,38011.0,Bowman County,711.0,2365.0,8541.0,1674.0,2078.0,989.0,439.0,2244.0,431.0,511.0,127.0,48.0,0.0
75995,County,2020/01/24,38.0,ND,38011.0,Bowman County,630.0,2446.0,9851.0,2536.0,2799.0,473.0,525.0,1943.0,229.0,1087.0,222.0,37.0,0.0
79230,County,2020/01/25,38.0,ND,38011.0,Bowman County,722.0,2354.0,7573.0,1559.0,1683.0,1423.0,442.0,1107.0,386.0,719.0,243.0,11.0,0.0
81844,County,2020/01/26,38.0,ND,38011.0,Bowman County,773.0,2303.0,7109.0,1058.0,2040.0,1310.0,640.0,1359.0,152.0,361.0,179.0,10.0,0.0
85594,County,2020/01/27,38.0,ND,38011.0,Bowman County,698.0,2378.0,8170.0,2528.0,1471.0,497.0,276.0,2042.0,482.0,800.0,64.0,10.0,0.0
87267,County,2020/01/28,38.0,ND,38011.0,Bowman County,659.0,2417.0,10537.0,1947.0,3408.0,1140.0,506.0,2169.0,398.0,786.0,156.0,27.0,0.0
90422,County,2020/01/29,38.0,ND,38011.0,Bowman County,674.0,2402.0,9793.0,1880.0,2532.0,1161.0,258.0,2511.0,631.0,694.0,99.0,27.0,0.0
95206,County,2020/01/30,38.0,ND,38011.0,Bowman County,775.0,2301.0,8244.0,2069.0,1425.0,763.0,734.0,1759.0,444.0,876.0,174.0,0.0,0.0
98400,County,2020/01/31,38.0,ND,38011.0,Bowman County,709.0,2367.0,8800.0,1767.0,2175.0,1084.0,588.0,1979.0,280.0,609.0,309.0,9.0,0.0
100079,County,2020/02/01,38.0,ND,38011.0,Bowman County,745.0,2331.0,9557.0,2540.0,2175.0,2028.0,650.0,1656.0,131.0,207.0,135.0,35.0,0.0
104741,County,2020/02/02,38.0,ND,38011.0,Bowman County,795.0,2281.0,7266.0,1361.0,1883.0,1134.0,224.0,1634.0,440.0,290.0,280.0,20.0,0.0
107993,County,2020/02/03,38.0,ND,38011.0,Bowman County,664.0,2412.0,7209.0,1544.0,1387.0,954.0,376.0,1742.0,370.0,633.0,145.0,58.0,0.0
111129,County,2020/02/04,38.0,ND,38011.0,Bowman County,722.0,2354.0,8802.0,2337.0,1383.0,1888.0,493.0,1632.0,474.0,459.0,76.0,60.0,0.0
112756,County,2020/02/05,38.0,ND,38011.0,Bowman County,584.0,2492.0,11144.0,2988.0,1962.0,1946.0,576.0,2003.0,611.0,809.0,206.0,43.0,0.0
115900,County,2020/02/06,38.0,ND,38011.0,Bowman County,595.0,2481.0,8650.0,1857.0,1887.0,1431.0,710.0,1601.0,359.0,580.0,173.0,52.0,0.0
120793,County,2020/02/07,38.0,ND,38011.0,Bowman County,709.0,2367.0,9169.0,2328.0,1837.0,1627.0,451.0,1583.0,394.0,608.0,278.0,63.0,0.0
123953,County,2020/02/08,38.0,ND,38011.0,Bowman County,700.0,2376.0,8589.0,1914.0,1669.0,1149.0,425.0,1656.0,594.0,924.0,213.0,45.0,0.0
126008,County,2020/02/09,38.0,ND,38011.0,Bowman County,716.0,2360.0,7197.0,1817.0,1133.0,1323.0,111.0,1573.0,321.0,684.0,183.0,52.0,0.0
130303,County,2020/02/10,38.0,ND,38011.0,Bowman County,787.0,2289.0,7317.0,1945.0,1373.0,736.0,280.0,1544.0,448.0,821.0,72.0,98.0,0.0
133062,County,2020/02/11,38.0,ND,38011.0,Bowman County,598.0,2478.0,8560.0,2340.0,2077.0,1141.0,350.0,1517.0,306.0,645.0,150.0,34.0,0.0
135588,County,2020/02/12,38.0,ND,38011.0,Bowman County,742.0,2334.0,9796.0,3197.0,1564.0,1704.0,438.0,1550.0,557.0,536.0,229.0,21.0,0.0
139922,County,2020/02/13,38.0,ND,38011.0,Bowman County,679.0,2397.0,8543.0,2664.0,1083.0,915.0,365.0,2374.0,355.0,589.0,141.0,57.0,0.0
141453,County,2020/02/14,38.0,ND,38011.0,Bowman County,605.0,2471.0,8301.0,1796.0,2003.0,1814.0,293.0,1354.0,224.0,568.0,211.0,38.0,0.0
144749,County,2020/02/15,38.0,ND,38011.0,Bowman County,761.0,2315.0,8989.0,2027.0,1714.0,2524.0,509.0,1091.0,445.0,528.0,97.0,54.0,0.0
149484,County,2020/02/16,38.0,ND,38011.0,Bowman County,788.0,2288.0,9418.0,1963.0,1757.0,3147.0,337.0,1313.0,337.0,399.0,148.0,17.0,0.0
151112,County,2020/02/17,38.0,ND,38011.0,Bowman County,844.0,2232.0,7361.0,1795.0,828.0,2161.0,480.0,1078.0,386.0,458.0,142.0,33.0,0.0
155844,County,2020/02/18,38.0,ND,38011.0,Bowman County,679.0,2397.0,10951.0,1966.0,1210.0,4423.0,287.0,1679.0,377.0,744.0,239.0,26.0,0.0
157521,County,2020/02/19,38.0,ND,38011.0,Bowman County,645.0,2431.0,10536.0,2597.0,1752.0,2163.0,816.0,1403.0,923.0,646.0,203.0,33.0,0.0
160582,County,2020/02/20,38.0,ND,38011.0,Bowman County,592.0,2484.0,7993.0,2179.0,1361.0,1530.0,242.0,945.0,721.0,804.0,186.0,25.0,0.0
163860,County,2020/02/21,38.0,ND,38011.0,Bowman County,639.0,2437.0,10269.0,2248.0,2259.0,2198.0,293.0,1616.0,597.0,808.0,225.0,25.0,0.0
168620,County,2020/02/22,38.0,ND,38011.0,Bowman County,758.0,2318.0,7425.0,1719.0,1687.0,1753.0,566.0,689.0,248.0,439.0,300.0,24.0,0.0
170282,County,2020/02/23,38.0,ND,38011.0,Bowman County,779.0,2297.0,7178.0,1539.0,2025.0,1084.0,180.0,1406.0,420.0,248.0,255.0,21.0,0.0
175063,County,2020/02/24,38.0,ND,38011.0,Bowman County,675.0,2401.0,8222.0,1922.0,1192.0,2114.0,403.0,1306.0,664.0,417.0,172.0,32.0,0.0
177665,County,2020/02/25,38.0,ND,38011.0,Bowman County,637.0,2439.0,8475.0,1636.0,1697.0,1362.0,120.0,2002.0,952.0,627.0,47.0,32.0,0.0
180858,County,2020/02/26,38.0,ND,38011.0,Bowman County,573.0,2503.0,9516.0,1436.0,1380.0,633.0,562.0,3833.0,615.0,874.0,108.0,75.0,0.0
184634,County,2020/02/27,38.0,ND,38011.0,Bowman County,662.0,2414.0,9788.0,1932.0,2583.0,1097.0,379.0,2531.0,284.0,672.0,291.0,19.0,0.0
186360,County,2020/02/28,38.0,ND,38011.0,Bowman County,667.0,2409.0,11225.0,2082.0,3296.0,1629.0,904.0,2346.0,158.0,562.0,185.0,63.0,0.0
189413,County,2020/02/29,38.0,ND,38011.0,Bowman County,597.0,2479.0,8693.0,1362.0,1895.0,1058.0,411.0,2172.0,615.0,790.0,339.0,51.0,0.0
194197,County,2020/03/01,38.0,ND,38011.0,Bowman County,678.0,2398.0,6144.0,950.0,1474.0,739.0,460.0,1663.0,401.0,271.0,152.0,34.0,0.0
197402,County,2020/03/02,38.0,ND,38011.0,Bowman County,739.0,2337.0,8645.0,2761.0,2638.0,192.0,341.0,1998.0,447.0,89.0,164.0,15.0,0.0
200627,County,2020/03/03,38.0,ND,38011.0,Bowman County,608.0,2468.0,7673.0,1671.0,2273.0,576.0,512.0,1660.0,447.0,354.0,164.0,16.0,0.0
203813,County,2020/03/04,38.0,ND,38011.0,Bowman County,671.0,2405.0,7870.0,1742.0,1832.0,421.0,280.0,1818.0,652.0,966.0,143.0,16.0,0.0
205380,County,2020/03/05,38.0,ND,38011.0,Bowman County,641.0,2435.0,7361.0,1876.0,2074.0,222.0,98.0,1536.0,774.0,613.0,151.0,17.0,0.0
208499,County,2020/03/06,38.0,ND,38011.0,Bowman County,616.0,2460.0,7645.0,1995.0,2381.0,637.0,377.0,1285.0,247.0,488.0,218.0,17.0,0.0
213414,County,2020/03/07,38.0,ND,38011.0,Bowman County,590.0,2486.0,12969.0,2233.0,2579.0,2070.0,715.0,3780.0,804.0,634.0,118.0,36.0,0.0
215015,County,2020/03/08,38.0,ND,38011.0,Bowman County,723.0,2353.0,9927.0,1556.0,1586.0,2293.0,0.0,3084.0,395.0,819.0,174.0,20.0,0.0
219773,County,2020/03/09,38.0,ND,38011.0,Bowman County,628.0,2448.0,7976.0,1401.0,2204.0,1181.0,174.0,1530.0,382.0,903.0,201.0,0.0,0.0
221402,County,2020/03/10,38.0,ND,38011.0,Bowman County,632.0,2444.0,6565.0,1946.0,1613.0,863.0,459.0,597.0,737.0,238.0,59.0,53.0,0.0
224591,County,2020/03/11,38.0,ND,38011.0,Bowman County,547.0,2529.0,4818.0,400.0,548.0,0.0,390.0,1901.0,511.0,809.0,226.0,33.0,0.0
229288,County,2020/03/12,38.0,ND,38011.0,Bowman County,521.0,2555.0,6156.0,446.0,219.0,703.0,468.0,2736.0,272.0,1132.0,180.0,0.0,0.0
232556,County,2020/03/13,38.0,ND,38011.0,Bowman County,486.0,2590.0,6126.0,921.0,414.0,665.0,0.0,2586.0,516.0,916.0,56.0,52.0,0.0
234134,County,2020/03/14,38.0,ND,38011.0,Bowman County,656.0,2420.0,3855.0,93.0,629.0,0.0,672.0,1747.0,196.0,0.0,518.0,0.0,0.0
238888,County,2020/03/15,38.0,ND,38011.0,Bowman County,669.0,2407.0,6679.0,2054.0,888.0,1070.0,633.0,1387.0,138.0,328.0,153.0,28.0,0.0
240564,County,2020/03/16,38.0,ND,38011.0,Bowman County,801.0,2275.0,9998.0,2850.0,2132.0,1711.0,380.0,1665.0,498.0,689.0,73.0,0.0,0.0
243698,County,2020/03/17,38.0,ND,38011.0,Bowman County,798.0,2278.0,6976.0,925.0,1751.0,879.0,1013.0,1216.0,408.0,565.0,151.0,68.0,0.0
248478,County,2020/03/18,38.0,ND,38011.0,Bowman County,769.0,2307.0,8742.0,2523.0,1830.0,1393.0,549.0,1338.0,540.0,426.0,132.0,11.0,0.0
251684,County,2020/03/19,38.0,ND,38011.0,Bowman County,913.0,2163.0,6815.0,1202.0,2430.0,1301.0,412.0,804.0,504.0,85.0,63.0,14.0,0.0
253342,County,2020/03/20,38.0,ND,38011.0,Bowman County,775.0,2301.0,8143.0,1570.0,1201.0,2411.0,428.0,1529.0,374.0,590.0,28.0,12.0,0.0
258100,County,2020/03/21,38.0,ND,38011.0,Bowman County,901.0,2175.0,5777.0,1654.0,1299.0,834.0,462.0,540.0,728.0,192.0,35.0,33.0,0.0
259721,County,2020/03/22,38.0,ND,38011.0,Bowman County,955.0,2121.0,4468.0,1012.0,1533.0,273.0,364.0,709.0,212.0,251.0,93.0,21.0,0.0
262925,County,2020/03/23,38.0,ND,38011.0,Bowman County,902.0,2174.0,7752.0,2442.0,1653.0,664.0,687.0,1148.0,257.0,712.0,189.0,0.0,0.0
267680,County,2020/03/24,38.0,ND,38011.0,Bowman County,828.0,2248.0,6647.0,1748.0,1241.0,1449.0,80.0,1253.0,422.0,333.0,93.0,28.0,0.0
269310,County,2020/03/25,38.0,ND,38011.0,Bowman County,903.0,2173.0,9721.0,3304.0,2310.0,1978.0,549.0,1069.0,96.0,227.0,169.0,19.0,0.0
274051,County,2020/03/26,38.0,ND,38011.0,Bowman County,908.0,2168.0,9081.0,3612.0,2457.0,1726.0,219.0,426.0,383.0,113.0,126.0,19.0,0.0
275691,County,2020/03/27,38.0,ND,38011.0,Bowman County,851.0,2225.0,7598.0,1831.0,1117.0,1972.0,716.0,620.0,556.0,741.0,31.0,14.0,0.0
280452,County,2020/03/28,38.0,ND,38011.0,Bowman County,857.0,2219.0,8145.0,2161.0,1046.0,2239.0,248.0,1774.0,506.0,171.0,0.0,0.0,0.0
282087,County,2020/03/29,38.0,ND,38011.0,Bowman County,851.0,2225.0,9063.0,1700.0,1228.0,3407.0,716.0,1395.0,556.0,0.0,61.0,0.0,0.0
285232,County,2020/03/30,38.0,ND,38011.0,Bowman County,729.0,2347.0,7705.0,2827.0,1502.0,1276.0,189.0,981.0,550.0,261.0,97.0,22.0,0.0
290035,County,2020/03/31,38.0,ND,38011.0,Bowman County,797.0,2279.0,5974.0,1659.0,946.0,1216.0,405.0,788.0,413.0,419.0,104.0,24.0,0.0
293234,County,2020/04/01,38.0,ND,38011.0,Bowman County,725.0,2351.0,7445.0,2106.0,1553.0,1320.0,260.0,1522.0,341.0,270.0,50.0,23.0,0.0
294863,County,2020/04/02,38.0,ND,38011.0,Bowman County,815.0,2261.0,6098.0,1990.0,1362.0,1312.0,129.0,882.0,283.0,67.0,50.0,23.0,0.0
298057,County,2020/04/03,38.0,ND,38011.0,Bowman County,877.0,2199.0,6540.0,1928.0,1324.0,1063.0,157.0,1226.0,344.0,407.0,91.0,0.0,0.0
302803,County,2020/04/04,38.0,ND,38011.0,Bowman County,856.0,2220.0,6931.0,1803.0,856.0,1717.0,229.0,1485.0,266.0,474.0,88.0,13.0,0.0
306005,County,2020/04/05,38.0,ND,38011.0,Bowman County,870.0,2206.0,8498.0,3092.0,885.0,2437.0,361.0,1405.0,158.0,93.0,35.0,32.0,0.0
307640,County,2020/04/06,38.0,ND,38011.0,Bowman County,796.0,2280.0,7860.0,3022.0,2196.0,176.0,157.0,1830.0,68.0,324.0,60.0,27.0,0.0
310833,County,2020/04/07,38.0,ND,38011.0,Bowman County,866.0,2210.0,10338.0,4047.0,2529.0,1710.0,95.0,1293.0,332.0,295.0,37.0,0.0,0.0
315569,County,2020/04/08,38.0,ND,38011.0,Bowman County,846.0,2230.0,6436.0,2221.0,1407.0,205.0,365.0,1243.0,637.0,189.0,105.0,64.0,0.0
318737,County,2020/04/09,38.0,ND,38011.0,Bowman County,865.0,2211.0,7548.0,1935.0,1775.0,1018.0,633.0,1409.0,395.0,281.0,70.0,32.0,0.0
320423,County,2020/04/10,38.0,ND,38011.0,Bowman County,840.0,2236.0,8967.0,3186.0,1411.0,824.0,640.0,2315.0,319.0,189.0,35.0,48.0,0.0
325176,County,2020/04/11,38.0,ND,38011.0,Bowman County,820.0,2256.0,5573.0,1284.0,1235.0,992.0,352.0,1200.0,154.0,273.0,68.0,15.0,0.0
328342,County,2020/04/12,38.0,ND,38011.0,Bowman County,937.0,2139.0,4814.0,567.0,1114.0,1192.0,88.0,1375.0,155.0,274.0,34.0,15.0,0.0
330018,County,2020/04/13,38.0,ND,38011.0,Bowman County,851.0,2225.0,9244.0,3753.0,1856.0,745.0,578.0,1449.0,217.0,599.0,32.0,15.0,0.0
334690,County,2020/04/14,38.0,ND,38011.0,Bowman County,779.0,2297.0,5477.0,1378.0,649.0,0.0,0.0,1801.0,1212.0,319.0,118.0,0.0,0.0
336367,County,2020/04/15,38.0,ND,38011.0,Bowman County,781.0,2295.0,4786.0,466.0,1236.0,0.0,352.0,1374.0,1078.0,182.0,68.0,30.0,0.0
341086,County,2020/04/16,38.0,ND,38011.0,Bowman County,742.0,2334.0,5532.0,833.0,781.0,627.0,140.0,2170.0,730.0,144.0,107.0,0.0,0.0
344349,County,2020/04/17,38.0,ND,38011.0,Bowman County,720.0,2356.0,5601.0,1183.0,1723.0,692.0,461.0,897.0,268.0,318.0,59.0,0.0,0.0
347496,County,2020/04/18,38.0,ND,38011.0,Bowman County,632.0,2444.0,14455.0,4040.0,3018.0,2664.0,787.0,2707.0,636.0,503.0,100.0,0.0,0.0
350679,County,2020/04/19,38.0,ND,38011.0,Bowman County,581.0,2495.0,11896.0,2922.0,2289.0,2210.0,635.0,2469.0,582.0,564.0,166.0,59.0,0.0
353928,County,2020/04/20,38.0,ND,38011.0,Bowman County,526.0,2550.0,16464.0,4128.0,3146.0,2814.0,1070.0,3594.0,715.0,751.0,195.0,51.0,0.0
357065,County,2020/04/21,38.0,ND,38011.0,Bowman County,934.0,2142.0,9097.0,3670.0,2418.0,777.0,345.0,1119.0,402.0,238.0,88.0,40.0,0.0
358742,County,2020/04/22,38.0,ND,38011.0,Bowman County,801.0,2275.0,11830.0,4204.0,3561.0,1540.0,488.0,1331.0,597.0,0.0,75.0,34.0,0.0
361848,County,2020/04/23,38.0,ND,38011.0,Bowman County,808.0,2268.0,9006.0,2604.0,1725.0,1154.0,615.0,1597.0,627.0,530.0,118.0,36.0,0.0
365102,County,2020/04/24,38.0,ND,38011.0,Bowman County,779.0,2297.0,9627.0,3014.0,2635.0,635.0,376.0,2012.0,492.0,194.0,253.0,16.0,0.0
368269,County,2020/04/25,38.0,ND,38011.0,Bowman County,864.0,2212.0,6723.0,1787.0,499.0,535.0,712.0,1618.0,933.0,369.0,228.0,42.0,0.0
373038,County,2020/04/26,38.0,ND,38011.0,Bowman County,681.0,2395.0,12151.0,4174.0,2468.0,1683.0,584.0,2200.0,375.0,501.0,138.0,28.0,0.0
374712,County,2020/04/27,38.0,ND,38011.0,Bowman County,729.0,2347.0,7781.0,2611.0,1884.0,946.0,504.0,818.0,440.0,434.0,129.0,15.0,0.0
379391,County,2020/04/28,38.0,ND,38011.0,Bowman County,723.0,2353.0,8493.0,2275.0,2464.0,594.0,351.0,2224.0,153.0,364.0,68.0,0.0,0.0
382643,County,2020/04/29,38.0,ND,38011.0,Bowman County,784.0,2292.0,10414.0,3277.0,2346.0,1330.0,787.0,1916.0,516.0,204.0,38.0,0.0,0.0
384263,County,2020/04/30,38.0,ND,38011.0,Bowman County,832.0,2244.0,7644.0,2353.0,2560.0,685.0,507.0,1185.0,354.0,0.0,0.0,0.0,0.0
389049,County,2020/05/01,38.0,ND,38011.0,Bowman County,730.0,2346.0,9676.0,2265.0,1211.0,1512.0,863.0,2801.0,503.0,397.0,74.0,50.0,0.0
392248,County,2020/05/02,38.0,ND,38011.0,Bowman County,801.0,2275.0,8897.0,1227.0,2191.0,1759.0,390.0,2662.0,512.0,101.0,38.0,17.0,0.0
393883,County,2020/05/03,38.0,ND,38011.0,Bowman County,782.0,2294.0,5160.0,942.0,2261.0,202.0,269.0,698.0,391.0,278.0,103.0,16.0,0.0
397045,County,2020/05/04,38.0,ND,38011.0,Bowman County,825.0,2251.0,6965.0,3046.0,1220.0,0.0,483.0,1317.0,422.0,200.0,260.0,17.0,0.0
400264,County,2020/05/05,38.0,ND,38011.0,Bowman County,813.0,2263.0,10435.0,2083.0,2602.0,995.0,442.0,3613.0,617.0,0.0,68.0,15.0,0.0
405019,County,2020/05/06,38.0,ND,38011.0,Bowman County,751.0,2325.0,8494.0,1812.0,2556.0,782.0,607.0,1690.0,531.0,449.0,67.0,0.0,0.0
406646,County,2020/05/07,38.0,ND,38011.0,Bowman County,774.0,2302.0,7632.0,1354.0,2157.0,495.0,366.0,1996.0,640.0,530.0,56.0,38.0,0.0
409951,County,2020/05/08,38.0,ND,38011.0,Bowman County,796.0,2280.0,9551.0,1945.0,2745.0,882.0,313.0,2135.0,615.0,648.0,241.0,27.0,0.0
414573,County,2020/05/09,38.0,ND,38011.0,Bowman County,859.0,2217.0,6395.0,2031.0,1526.0,817.0,272.0,1236.0,317.0,94.0,70.0,32.0,0.0
417753,County,2020/05/10,38.0,ND,38011.0,Bowman County,873.0,2203.0,8446.0,3158.0,838.0,673.0,199.0,2714.0,435.0,412.0,0.0,17.0,0.0
420983,County,2020/05/11,38.0,ND,38011.0,Bowman County,730.0,2346.0,8296.0,1940.0,1985.0,490.0,435.0,2439.0,428.0,282.0,230.0,67.0,0.0
422661,County,2020/05/12,38.0,ND,38011.0,Bowman County,775.0,2301.0,9223.0,2349.0,1821.0,1399.0,395.0,2638.0,247.0,117.0,217.0,40.0,0.0
427383,County,2020/05/13,38.0,ND,38011.0,Bowman County,684.0,2392.0,8843.0,2678.0,1989.0,440.0,293.0,1999.0,512.0,708.0,207.0,17.0,0.0
430577,County,2020/05/14,38.0,ND,38011.0,Bowman County,630.0,2446.0,7869.0,2070.0,2055.0,440.0,439.0,1712.0,427.0,506.0,169.0,51.0,0.0
433751,County,2020/05/15,38.0,ND,38011.0,Bowman County,643.0,2433.0,7455.0,2165.0,2076.0,980.0,87.0,678.0,722.0,541.0,168.0,38.0,0.0
435429,County,2020/05/16,38.0,ND,38011.0,Bowman County,819.0,2257.0,6201.0,1673.0,2039.0,468.0,208.0,1078.0,121.0,430.0,160.0,24.0,0.0
440114,County,2020/05/17,38.0,ND,38011.0,Bowman County,598.0,2478.0,15304.0,3581.0,2896.0,2742.0,942.0,3691.0,568.0,642.0,197.0,45.0,0.0
441827,County,2020/05/18,38.0,ND,38011.0,Bowman County,587.0,2489.0,21566.0,4902.0,4580.0,4265.0,1268.0,4486.0,893.0,920.0,216.0,36.0,0.0
446517,County,2020/05/19,38.0,ND,38011.0,Bowman County,560.0,2516.0,22387.0,5682.0,4612.0,4569.0,1350.0,4244.0,939.0,820.0,171.0,0.0,0.0
448148,County,2020/05/20,38.0,ND,38011.0,Bowman County,524.0,2552.0,20636.0,5757.0,4088.0,3851.0,1240.0,3900.0,834.0,793.0,162.0,11.0,0.0
452583,County,2020/05/21,38.0,ND,38011.0,Bowman County,520.0,2556.0,19931.0,5970.0,4043.0,3485.0,1003.0,3504.0,757.0,991.0,153.0,25.0,0.0
456128,County,2020/05/22,38.0,ND,38011.0,Bowman County,535.0,2541.0,18211.0,5252.0,4173.0,3340.0,844.0,3115.0,486.0,767.0,220.0,14.0,0.0
459339,County,2020/05/23,38.0,ND,38011.0,Bowman County,587.0,2489.0,15783.0,3595.0,3081.0,3060.0,708.0,3782.0,434.0,700.0,355.0,68.0,0.0
462494,County,2020/05/24,38.0,ND,38011.0,Bowman County,783.0,2293.0,7555.0,1918.0,1874.0,158.0,211.0,2328.0,430.0,437.0,162.0,37.0,0.0
464122,County,2020/05/25,38.0,ND,38011.0,Bowman County,579.0,2497.0,9309.0,2557.0,2030.0,966.0,589.0,1879.0,656.0,388.0,206.0,38.0,0.0
468904,County,2020/05/26,38.0,ND,38011.0,Bowman County,717.0,2359.0,11830.0,2719.0,3299.0,1324.0,196.0,2926.0,457.0,811.0,75.0,23.0,0.0
470532,County,2020/05/27,38.0,ND,38011.0,Bowman County,528.0,2548.0,10295.0,2489.0,2712.0,1261.0,509.0,2477.0,311.0,263.0,255.0,18.0,0.0
475293,County,2020/05/28,38.0,ND,38011.0,Bowman County,588.0,2488.0,11267.0,2865.0,1798.0,1203.0,748.0,2808.0,1026.0,553.0,247.0,19.0,0.0
476873,County,2020/05/29,38.0,ND,38011.0,Bowman County,694.0,2382.0,8505.0,1643.0,1759.0,1486.0,198.0,2442.0,403.0,410.0,152.0,12.0,0.0
480060,County,2020/05/30,38.0,ND,38011.0,Bowman County,677.0,2399.0,8854.0,1538.0,2330.0,898.0,598.0,2071.0,755.0,550.0,102.0,12.0,0.0
484827,County,2020/05/31,38.0,ND,38011.0,Bowman County,567.0,2509.0,7594.0,1731.0,1511.0,331.0,489.0,2384.0,513.0,456.0,170.0,9.0,0.0
486455,County,2020/06/01,38.0,ND,38011.0,Bowman County,660.0,2416.0,7130.0,1625.0,1091.0,935.0,518.0,1717.0,498.0,537.0,200.0,9.0,0.0
491235,County,2020/06/02,38.0,ND,38011.0,Bowman County,622.0,2454.0,8372.0,2036.0,1404.0,1424.0,158.0,2257.0,322.0,600.0,162.0,9.0,0.0
492864,County,2020/06/03,38.0,ND,38011.0,Bowman County,526.0,2550.0,10457.0,2400.0,2270.0,1286.0,666.0,2503.0,208.0,887.0,220.0,17.0,0.0
497639,County,2020/06/04,38.0,ND,38011.0,Bowman County,414.0,2662.0,9540.0,2246.0,1446.0,707.0,403.0,3403.0,509.0,603.0,207.0,16.0,0.0
499279,County,2020/06/05,38.0,ND,38011.0,Bowman County,621.0,2455.0,8984.0,2176.0,1643.0,923.0,468.0,2281.0,460.0,788.0,225.0,20.0,0.0
502426,County,2020/06/06,38.0,ND,38011.0,Bowman County,708.0,2368.0,7398.0,654.0,1629.0,981.0,944.0,2404.0,444.0,301.0,28.0,13.0,0.0
505618,County,2020/06/07,38.0,ND,38011.0,Bowman County,723.0,2353.0,13082.0,4649.0,1413.0,1238.0,825.0,3391.0,561.0,758.0,247.0,0.0,0.0
510414,County,2020/06/08,38.0,ND,38011.0,Bowman County,577.0,2499.0,9862.0,3260.0,1620.0,991.0,275.0,2571.0,384.0,512.0,191.0,58.0,0.0
513570,County,2020/06/09,38.0,ND,38011.0,Bowman County,564.0,2512.0,11515.0,4273.0,2208.0,788.0,641.0,2498.0,509.0,422.0,135.0,41.0,0.0
516824,County,2020/06/10,38.0,ND,38011.0,Bowman County,620.0,2456.0,12527.0,3529.0,3236.0,1188.0,264.0,2952.0,748.0,273.0,279.0,58.0,0.0
519981,County,2020/06/11,38.0,ND,38011.0,Bowman County,621.0,2455.0,8710.0,2388.0,1690.0,407.0,903.0,1877.0,579.0,623.0,232.0,11.0,0.0
523204,County,2020/06/12,38.0,ND,38011.0,Bowman County,543.0,2533.0,9196.0,2195.0,1154.0,1589.0,588.0,2519.0,668.0,304.0,158.0,21.0,0.0
526391,County,2020/06/13,38.0,ND,38011.0,Bowman County,711.0,2365.0,6810.0,1316.0,1582.0,678.0,451.0,879.0,394.0,1168.0,289.0,53.0,0.0
528026,County,2020/06/14,38.0,ND,38011.0,Bowman County,716.0,2360.0,8913.0,1816.0,2002.0,933.0,322.0,2242.0,724.0,715.0,159.0,0.0,0.0
532785,County,2020/06/15,38.0,ND,38011.0,Bowman County,700.0,2376.0,7909.0,1682.0,1073.0,1379.0,459.0,1987.0,624.0,528.0,177.0,0.0,0.0
534364,County,2020/06/16,38.0,ND,38011.0,Bowman County,749.0,2327.0,7350.0,1286.0,1173.0,1675.0,279.0,1539.0,609.0,577.0,179.0,33.0,0.0
539124,County,2020/06/17,38.0,ND,38011.0,Bowman County,660.0,2416.0,9082.0,1798.0,1571.0,1308.0,581.0,2586.0,507.0,429.0,287.0,15.0,0.0
542319,County,2020/06/18,38.0,ND,38011.0,Bowman County,611.0,2465.0,8038.0,2331.0,1599.0,367.0,529.0,2061.0,427.0,421.0,282.0,21.0,0.0
545520,County,2020/06/19,38.0,ND,38011.0,Bowman County,701.0,2375.0,7156.0,1350.0,1643.0,880.0,173.0,2028.0,341.0,494.0,217.0,30.0,0.0
548755,County,2020/06/20,38.0,ND,38011.0,Bowman County,650.0,2426.0,9038.0,1659.0,2223.0,1020.0,815.0,2293.0,593.0,375.0,52.0,8.0,0.0
550355,County,2020/06/21,38.0,ND,38011.0,Bowman County,605.0,2471.0,6679.0,1399.0,595.0,1195.0,212.0,2272.0,463.0,384.0,122.0,37.0,0.0
555135,County,2020/06/22,38.0,ND,38011.0,Bowman County,674.0,2402.0,8053.0,2271.0,1881.0,813.0,155.0,1908.0,270.0,587.0,159.0,9.0,0.0
556763,County,2020/06/23,38.0,ND,38011.0,Bowman County,612.0,2464.0,9673.0,2312.0,2226.0,1191.0,470.0,2518.0,513.0,365.0,68.0,10.0,0.0
561531,County,2020/06/24,38.0,ND,38011.0,Bowman County,706.0,2370.0,6693.0,1453.0,1499.0,115.0,305.0,2378.0,444.0,421.0,78.0,0.0,0.0
563111,County,2020/06/25,38.0,ND,38011.0,Bowman County,630.0,2446.0,7051.0,1607.0,1702.0,421.0,233.0,2182.0,530.0,145.0,198.0,33.0,0.0
567955,County,2020/06/26,38.0,ND,38011.0,Bowman County,759.0,2317.0,6970.0,1417.0,1353.0,951.0,542.0,1761.0,421.0,437.0,46.0,42.0,0.0
571105,County,2020/06/27,38.0,ND,38011.0,Bowman County,736.0,2340.0,8586.0,1836.0,1497.0,1697.0,816.0,1712.0,603.0,390.0,24.0,11.0,0.0
574288,County,2020/06/28,38.0,ND,38011.0,Bowman County,737.0,2339.0,6065.0,981.0,1077.0,798.0,236.0,1840.0,258.0,672.0,182.0,21.0,0.0
575893,County,2020/06/29,38.0,ND,38011.0,Bowman County,648.0,2428.0,7750.0,2453.0,1806.0,276.0,245.0,1194.0,643.0,889.0,212.0,32.0,0.0
580705,County,2020/06/30,38.0,ND,38011.0,Bowman County,656.0,2420.0,6599.0,1301.0,771.0,688.0,672.0,1785.0,640.0,569.0,141.0,32.0,0.0
582306,County,2020/07/01,38.0,ND,38011.0,Bowman County,535.0,2541.0,8288.0,2029.0,947.0,819.0,104.0,3339.0,408.0,484.0,140.0,18.0,0.0
585498,County,2020/07/02,38.0,ND,38011.0,Bowman County,782.0,2294.0,7485.0,1706.0,1807.0,447.0,247.0,2316.0,563.0,154.0,210.0,35.0,0.0
590289,County,2020/07/03,38.0,ND,38011.0,Bowman County,745.0,2331.0,6932.0,1409.0,1345.0,946.0,539.0,1751.0,419.0,435.0,46.0,42.0,0.0
593475,County,2020/07/04,38.0,ND,38011.0,Bowman County,747.0,2329.0,5929.0,1205.0,1151.0,809.0,461.0,1498.0,358.0,372.0,39.0,36.0,0.0
596635,County,2020/07/05,38.0,ND,38011.0,Bowman County,671.0,2405.0,4213.0,681.0,741.0,541.0,384.0,1029.0,294.0,398.0,111.0,34.0,0.0
599811,County,2020/07/06,38.0,ND,38011.0,Bowman County,657.0,2419.0,6527.0,1246.0,1810.0,851.0,472.0,1348.0,302.0,391.0,85.0,22.0,0.0
601388,County,2020/07/07,38.0,ND,38011.0,Bowman County,674.0,2402.0,6564.0,1280.0,1446.0,774.0,544.0,1952.0,225.0,207.0,121.0,15.0,0.0
606148,County,2020/07/08,38.0,ND,38011.0,Bowman County,683.0,2393.0,6946.0,1219.0,1882.0,1417.0,293.0,980.0,586.0,434.0,113.0,22.0,0.0
607874,County,2020/07/09,38.0,ND,38011.0,Bowman County,569.0,2507.0,8170.0,2043.0,1801.0,936.0,528.0,2059.0,297.0,391.0,102.0,13.0,0.0
611074,County,2020/07/10,38.0,ND,38011.0,Bowman County,645.0,2431.0,7007.0,1111.0,1795.0,910.0,438.0,1705.0,559.0,348.0,117.0,24.0,0.0
615822,County,2020/07/11,38.0,ND,38011.0,Bowman County,756.0,2320.0,7782.0,2093.0,1863.0,748.0,111.0,2048.0,387.0,344.0,149.0,39.0,0.0
619009,County,2020/07/12,38.0,ND,38011.0,Bowman County,720.0,2356.0,5474.0,895.0,1081.0,759.0,289.0,1782.0,168.0,299.0,167.0,34.0,0.0
622216,County,2020/07/13,38.0,ND,38011.0,Bowman County,653.0,2423.0,7281.0,1280.0,1545.0,827.0,408.0,2065.0,321.0,633.0,173.0,29.0,0.0
625410,County,2020/07/14,38.0,ND,38011.0,Bowman County,649.0,2427.0,8140.0,1624.0,1888.0,489.0,347.0,2706.0,303.0,494.0,251.0,38.0,0.0
626919,County,2020/07/15,38.0,ND,38011.0,Bowman County,669.0,2407.0,7591.0,1438.0,1288.0,1241.0,505.0,1968.0,481.0,428.0,194.0,48.0,0.0
631849,County,2020/07/16,38.0,ND,38011.0,Bowman County,665.0,2411.0,6361.0,1212.0,1383.0,555.0,99.0,1920.0,387.0,561.0,209.0,35.0,0.0
634944,County,2020/07/17,38.0,ND,38011.0,Bowman County,564.0,2512.0,6618.0,1118.0,1370.0,917.0,529.0,1347.0,569.0,505.0,235.0,28.0,0.0
636621,County,2020/07/18,38.0,ND,38011.0,Bowman County,646.0,2430.0,6146.0,1190.0,1540.0,618.0,55.0,1390.0,240.0,852.0,232.0,29.0,0.0
639776,County,2020/07/19,38.0,ND,38011.0,Bowman County,827.0,2249.0,3952.0,415.0,118.0,1135.0,168.0,490.0,293.0,869.0,420.0,44.0,0.0
644558,County,2020/07/20,38.0,ND,38011.0,Bowman County,787.0,2289.0,8314.0,1354.0,1838.0,328.0,364.0,2835.0,699.0,603.0,280.0,13.0,0.0
646186,County,2020/07/21,38.0,ND,38011.0,Bowman County,621.0,2455.0,7642.0,1025.0,1199.0,1540.0,513.0,1553.0,348.0,1061.0,373.0,30.0,0.0
648868,County,2020/07/22,38.0,ND,38011.0,Bowman County,776.0,2300.0,8915.0,2457.0,3264.0,476.0,634.0,1236.0,308.0,365.0,163.0,12.0,0.0
652505,County,2020/07/23,38.0,ND,38011.0,Bowman County,727.0,2349.0,8537.0,2383.0,2658.0,413.0,672.0,1309.0,534.0,380.0,188.0,0.0,0.0
657383,County,2020/07/24,38.0,ND,38011.0,Bowman County,596.0,2480.0,7568.0,2058.0,2068.0,123.0,382.0,2021.0,286.0,452.0,168.0,10.0,0.0
660600,County,2020/07/25,38.0,ND,38011.0,Bowman County,659.0,2417.0,7634.0,1026.0,1315.0,1056.0,602.0,2477.0,351.0,554.0,206.0,47.0,0.0
663680,County,2020/07/26,38.0,ND,38011.0,Bowman County,680.0,2396.0,7297.0,1576.0,1053.0,153.0,545.0,1861.0,536.0,1272.0,289.0,12.0,0.0
666953,County,2020/07/27,38.0,ND,38011.0,Bowman County,704.0,2372.0,7722.0,1129.0,1915.0,324.0,288.0,1960.0,816.0,966.0,249.0,75.0,0.0
670107,County,2020/07/28,38.0,ND,38011.0,Bowman County,641.0,2435.0,7613.0,1103.0,1564.0,559.0,247.0,2776.0,433.0,705.0,215.0,11.0,0.0
671738,County,2020/07/29,38.0,ND,38011.0,Bowman County,707.0,2369.0,9297.0,2859.0,1561.0,470.0,973.0,2573.0,303.0,359.0,187.0,12.0,0.0
676499,County,2020/07/30,38.0,ND,38011.0,Bowman County,688.0,2388.0,7646.0,1406.0,2069.0,722.0,449.0,1999.0,280.0,465.0,222.0,34.0,0.0
679727,County,2020/07/31,38.0,ND,38011.0,Bowman County,814.0,2262.0,6964.0,1832.0,866.0,992.0,440.0,1544.0,231.0,729.0,237.0,93.0,0.0
682848,County,2020/08/01,38.0,ND,38011.0,Bowman County,755.0,2321.0,6053.0,1551.0,1327.0,852.0,189.0,1289.0,83.0,587.0,109.0,66.0,0.0
686088,County,2020/08/02,38.0,ND,38011.0,Bowman County,760.0,2316.0,8182.0,1626.0,1137.0,1015.0,631.0,3334.0,157.0,93.0,173.0,16.0,0.0
689291,County,2020/08/03,38.0,ND,38011.0,Bowman County,811.0,2265.0,13600.0,2677.0,2544.0,2496.0,1209.0,3924.0,264.0,313.0,156.0,17.0,0.0
690919,County,2020/08/04,38.0,ND,38011.0,Bowman County,527.0,2549.0,12436.0,2843.0,2173.0,2220.0,1337.0,2879.0,184.0,583.0,217.0,0.0,0.0
694082,County,2020/08/05,38.0,ND,38011.0,Bowman County,680.0,2396.0,11884.0,3479.0,3380.0,329.0,584.0,2702.0,383.0,832.0,169.0,26.0,0.0
697288,County,2020/08/06,38.0,ND,38011.0,Bowman County,562.0,2514.0,13329.0,3485.0,4414.0,834.0,678.0,2403.0,485.0,831.0,167.0,32.0,0.0
700500,County,2020/08/07,38.0,ND,38011.0,Bowman County,630.0,2446.0,8787.0,1939.0,2348.0,628.0,418.0,1223.0,914.0,1011.0,269.0,37.0,0.0
705261,County,2020/08/08,38.0,ND,38011.0,Bowman County,618.0,2458.0,10761.0,2771.0,3385.0,725.0,965.0,1880.0,351.0,499.0,185.0,0.0,0.0
706840,County,2020/08/09,38.0,ND,38011.0,Bowman County,759.0,2317.0,7807.0,2466.0,1562.0,1004.0,668.0,1301.0,325.0,154.0,314.0,13.0,0.0
711649,County,2020/08/10,38.0,ND,38011.0,Bowman County,730.0,2346.0,9362.0,2237.0,3586.0,339.0,376.0,1465.0,197.0,778.0,318.0,66.0,0.0
714842,County,2020/08/11,38.0,ND,38011.0,Bowman County,630.0,2446.0,10657.0,3425.0,2658.0,711.0,631.0,1476.0,552.0,915.0,267.0,22.0,0.0
717939,County,2020/08/12,38.0,ND,38011.0,Bowman County,671.0,2405.0,9410.0,2435.0,2265.0,699.0,372.0,1572.0,1031.0,836.0,168.0,32.0,0.0
721183,County,2020/08/13,38.0,ND,38011.0,Bowman County,546.0,2530.0,9175.0,1816.0,2527.0,563.0,550.0,2046.0,437.0,776.0,443.0,17.0,0.0
724409,County,2020/08/14,38.0,ND,38011.0,Bowman County,547.0,2529.0,7893.0,1727.0,2684.0,0.0,710.0,1810.0,239.0,453.0,232.0,38.0,0.0
727620,County,2020/08/15,38.0,ND,38011.0,Bowman County,763.0,2313.0,7125.0,1484.0,2046.0,692.0,460.0,897.0,537.0,795.0,147.0,67.0,0.0
730812,County,2020/08/16,38.0,ND,38011.0,Bowman County,734.0,2342.0,7219.0,2498.0,1596.0,603.0,468.0,782.0,351.0,692.0,206.0,23.0,0.0
732442,County,2020/08/17,38.0,ND,38011.0,Bowman County,693.0,2383.0,7976.0,1630.0,1498.0,1140.0,450.0,1752.0,540.0,872.0,65.0,29.0,0.0
735608,County,2020/08/18,38.0,ND,38011.0,Bowman County,732.0,2344.0,5793.0,538.0,1148.0,1384.0,341.0,1462.0,596.0,141.0,183.0,0.0,0.0
738813,County,2020/08/19,38.0,ND,38011.0,Bowman County,696.0,2380.0,6237.0,1591.0,1247.0,573.0,127.0,1609.0,555.0,329.0,195.0,11.0,0.0
743594,County,2020/08/20,38.0,ND,38011.0,Bowman County,652.0,2424.0,9123.0,2261.0,1794.0,823.0,426.0,2491.0,532.0,567.0,187.0,42.0,0.0
745224,County,2020/08/21,38.0,ND,38011.0,Bowman County,607.0,2469.0,9871.0,3156.0,1550.0,830.0,982.0,1673.0,643.0,826.0,189.0,22.0,0.0
749956,County,2020/08/22,38.0,ND,38011.0,Bowman County,704.0,2372.0,8030.0,1416.0,552.0,2130.0,473.0,2303.0,413.0,490.0,212.0,41.0,0.0
753125,County,2020/08/23,38.0,ND,38011.0,Bowman County,749.0,2327.0,6831.0,2335.0,884.0,631.0,210.0,1636.0,489.0,579.0,54.0,13.0,0.0
754795,County,2020/08/24,38.0,ND,38011.0,Bowman County,647.0,2429.0,10905.0,3232.0,2136.0,1097.0,426.0,2965.0,266.0,631.0,141.0,11.0,0.0
757946,County,2020/08/25,38.0,ND,38011.0,Bowman County,720.0,2356.0,10805.0,3998.0,1739.0,1463.0,295.0,2185.0,722.0,245.0,137.0,21.0,0.0
762716,County,2020/08/26,38.0,ND,38011.0,Bowman County,621.0,2455.0,9975.0,2905.0,1880.0,1707.0,874.0,1476.0,458.0,543.0,112.0,20.0,0.0
765912,County,2020/08/27,38.0,ND,38011.0,Bowman County,614.0,2462.0,10875.0,2272.0,2883.0,1502.0,555.0,2489.0,534.0,460.0,171.0,9.0,0.0
767552,County,2020/08/28,38.0,ND,38011.0,Bowman County,696.0,2380.0,11887.0,3141.0,2924.0,569.0,947.0,3198.0,221.0,719.0,146.0,22.0,0.0
770755,County,2020/08/29,38.0,ND,38011.0,Bowman County,698.0,2378.0,9254.0,1895.0,2180.0,833.0,962.0,2450.0,388.0,307.0,200.0,39.0,0.0
773958,County,2020/08/30,38.0,ND,38011.0,Bowman County,796.0,2280.0,9236.0,1769.0,1829.0,783.0,434.0,2540.0,987.0,630.0,234.0,30.0,0.0
777143,County,2020/08/31,38.0,ND,38011.0,Bowman County,806.0,2270.0,9680.0,2395.0,2811.0,722.0,160.0,2497.0,560.0,415.0,92.0,28.0,0.0
780292,County,2020/09/01,38.0,ND,38011.0,Bowman County,816.0,2260.0,10574.0,3140.0,2417.0,194.0,431.0,3693.0,301.0,268.0,100.0,30.0,0.0
785065,County,2020/09/02,38.0,ND,38011.0,Bowman County,621.0,2455.0,8582.0,1572.0,1814.0,416.0,370.0,2878.0,807.0,574.0,119.0,32.0,0.0
788276,County,2020/09/03,38.0,ND,38011.0,Bowman County,663.0,2413.0,12663.0,2746.0,2868.0,1871.0,383.0,3111.0,726.0,859.0,99.0,0.0,0.0
789891,County,2020/09/04,38.0,ND,38011.0,Bowman County,682.0,2394.0,7966.0,2655.0,1455.0,623.0,208.0,1347.0,725.0,716.0,213.0,24.0,0.0
793015,County,2020/09/05,38.0,ND,38011.0,Bowman County,787.0,2289.0,10293.0,2039.0,3316.0,1024.0,818.0,1948.0,398.0,282.0,420.0,48.0,0.0
797858,County,2020/09/06,38.0,ND,38011.0,Bowman County,846.0,2230.0,5680.0,535.0,448.0,240.0,0.0,2276.0,650.0,1430.0,82.0,19.0,0.0
801069,County,2020/09/07,38.0,ND,38011.0,Bowman County,949.0,2127.0,3986.0,678.0,178.0,571.0,127.0,1728.0,0.0,393.0,244.0,67.0,0.0
802688,County,2020/09/08,38.0,ND,38011.0,Bowman County,701.0,2375.0,7329.0,2749.0,1509.0,151.0,134.0,1309.0,529.0,487.0,414.0,47.0,0.0
807468,County,2020/09/09,38.0,ND,38011.0,Bowman County,660.0,2416.0,10831.0,1811.0,1636.0,1245.0,368.0,3467.0,1287.0,762.0,212.0,43.0,0.0
809096,County,2020/09/10,38.0,ND,38011.0,Bowman County,630.0,2446.0,8530.0,1440.0,2506.0,718.0,447.0,1740.0,780.0,660.0,172.0,67.0,0.0
813857,County,2020/09/11,38.0,ND,38011.0,Bowman County,563.0,2513.0,10761.0,2378.0,2079.0,935.0,533.0,3349.0,414.0,737.0,274.0,62.0,0.0
815438,County,2020/09/12,38.0,ND,38011.0,Bowman County,749.0,2327.0,9028.0,1056.0,2912.0,1212.0,769.0,1647.0,403.0,795.0,207.0,27.0,0.0
820235,County,2020/09/13,38.0,ND,38011.0,Bowman County,758.0,2318.0,5468.0,1400.0,511.0,410.0,0.0,1773.0,637.0,471.0,254.0,12.0,0.0
821864,County,2020/09/14,38.0,ND,38011.0,Bowman County,680.0,2396.0,9225.0,1077.0,2581.0,1203.0,712.0,1965.0,882.0,614.0,160.0,31.0,0.0
826633,County,2020/09/15,38.0,ND,38011.0,Bowman County,644.0,2432.0,9755.0,2124.0,1771.0,1552.0,459.0,2235.0,702.0,653.0,199.0,60.0,0.0
828261,County,2020/09/16,38.0,ND,38011.0,Bowman County,740.0,2336.0,6143.0,1643.0,1083.0,633.0,210.0,1093.0,491.0,581.0,324.0,85.0,0.0
833004,County,2020/09/17,38.0,ND,38011.0,Bowman County,726.0,2350.0,7112.0,1134.0,1089.0,583.0,388.0,1512.0,791.0,1339.0,174.0,102.0,0.0
834633,County,2020/09/18,38.0,ND,38011.0,Bowman County,696.0,2380.0,8181.0,1654.0,1168.0,782.0,416.0,2703.0,606.0,575.0,240.0,37.0,0.0
839408,County,2020/09/19,38.0,ND,38011.0,Bowman County,772.0,2304.0,8775.0,1202.0,2099.0,1241.0,551.0,2607.0,756.0,245.0,60.0,14.0,0.0
841037,County,2020/09/20,38.0,ND,38011.0,Bowman County,668.0,2408.0,10519.0,2298.0,2378.0,1810.0,478.0,2236.0,538.0,554.0,158.0,69.0,0.0
844199,County,2020/09/21,38.0,ND,38011.0,Bowman County,814.0,2262.0,7912.0,978.0,900.0,1239.0,550.0,1786.0,1362.0,664.0,353.0,80.0,0.0
847403,County,2020/09/22,38.0,ND,38011.0,Bowman County,498.0,2578.0,14649.0,3372.0,2646.0,2283.0,730.0,3475.0,865.0,989.0,238.0,51.0,0.0
852181,County,2020/09/23,38.0,ND,38011.0,Bowman County,493.0,2583.0,14931.0,3469.0,3037.0,2064.0,763.0,3384.0,824.0,1120.0,212.0,58.0,0.0
853809,County,2020/09/24,38.0,ND,38011.0,Bowman County,460.0,2616.0,12414.0,2935.0,2600.0,1683.0,511.0,2700.0,621.0,1063.0,234.0,67.0,0.0
858573,County,2020/09/25,38.0,ND,38011.0,Bowman County,500.0,2576.0,10994.0,2795.0,2042.0,1561.0,534.0,2427.0,547.0,809.0,229.0,50.0,0.0
860152,County,2020/09/26,38.0,ND,38011.0,Bowman County,624.0,2452.0,10569.0,2390.0,2093.0,1443.0,662.0,2455.0,545.0,739.0,225.0,17.0,0.0
864948,County,2020/09/27,38.0,ND,38011.0,Bowman County,861.0,2215.0,5570.0,407.0,1455.0,701.0,415.0,1414.0,362.0,537.0,279.0,0.0,0.0
866577,County,2020/09/28,38.0,ND,38011.0,Bowman County,647.0,2429.0,13183.0,3291.0,2864.0,1980.0,710.0,2924.0,518.0,709.0,163.0,24.0,0.0
871348,County,2020/09/29,38.0,ND,38011.0,Bowman County,797.0,2279.0,10189.0,2696.0,2554.0,1822.0,304.0,1575.0,88.0,942.0,175.0,33.0,0.0
872977,County,2020/09/30,38.0,ND,38011.0,Bowman County,819.0,2257.0,5973.0,1288.0,673.0,270.0,359.0,1634.0,419.0,993.0,314.0,23.0,0.0
876142,County,2020/10/01,38.0,ND,38011.0,Bowman County,651.0,2425.0,8289.0,1673.0,1539.0,380.0,253.0,3289.0,443.0,525.0,177.0,10.0,0.0
879345,County,2020/10/02,38.0,ND,38011.0,Bowman County,599.0,2477.0,5980.0,978.0,577.0,530.0,353.0,1946.0,462.0,791.0,320.0,23.0,0.0
882561,County,2020/10/03,38.0,ND,38011.0,Bowman County,845.0,2231.0,8131.0,1372.0,1678.0,449.0,499.0,2524.0,522.0,929.0,158.0,0.0,0.0
886669,County,2020/10/04,38.0,ND,38011.0,Bowman County,794.0,2282.0,8897.0,1440.0,1682.0,1349.0,774.0,2009.0,227.0,1116.0,277.0,23.0,0.0
889921,County,2020/10/05,38.0,ND,38011.0,Bowman County,905.0,2171.0,7309.0,1516.0,1924.0,762.0,668.0,1487.0,572.0,341.0,30.0,9.0,0.0
893077,County,2020/10/06,38.0,ND,38011.0,Bowman County,875.0,2201.0,7123.0,1201.0,444.0,936.0,923.0,2154.0,263.0,839.0,354.0,9.0,0.0
896282,County,2020/10/07,38.0,ND,38011.0,Bowman County,821.0,2255.0,7712.0,2064.0,1737.0,458.0,503.0,1535.0,602.0,617.0,187.0,9.0,0.0
899453,County,2020/10/08,38.0,ND,38011.0,Bowman County,833.0,2243.0,5728.0,1345.0,1151.0,229.0,199.0,1525.0,428.0,613.0,212.0,26.0,0.0
902705,County,2020/10/09,38.0,ND,38011.0,Bowman County,900.0,2176.0,6026.0,1160.0,1428.0,848.0,371.0,1183.0,212.0,507.0,296.0,21.0,0.0
905823,County,2020/10/10,38.0,ND,38011.0,Bowman County,743.0,2333.0,6302.0,1728.0,413.0,437.0,574.0,1277.0,409.0,1076.0,380.0,8.0,0.0
908303,County,2020/10/11,38.0,ND,38011.0,Bowman County,772.0,2304.0,4461.0,458.0,685.0,217.0,475.0,910.0,414.0,1011.0,282.0,9.0,0.0
911498,County,2020/10/12,38.0,ND,38011.0,Bowman County,728.0,2348.0,5238.0,1623.0,497.0,196.0,430.0,1154.0,149.0,916.0,256.0,17.0,0.0
914668,County,2020/10/13,38.0,ND,38011.0,Bowman County,775.0,2301.0,8962.0,2574.0,2103.0,415.0,364.0,1570.0,634.0,969.0,298.0,35.0,0.0
917797,County,2020/10/14,38.0,ND,38011.0,Bowman County,733.0,2343.0,7123.0,1789.0,1553.0,189.0,414.0,1585.0,722.0,617.0,246.0,8.0,0.0
921351,County,2020/10/15,38.0,ND,38011.0,Bowman County,805.0,2271.0,5466.0,1931.0,589.0,0.0,204.0,1174.0,801.0,544.0,213.0,10.0,0.0
924204,County,2020/10/16,38.0,ND,38011.0,Bowman County,826.0,2250.0,7916.0,2563.0,1376.0,482.0,212.0,1624.0,554.0,791.0,252.0,62.0,0.0
927809,County,2020/10/17,38.0,ND,38011.0,Bowman County,738.0,2338.0,8533.0,1772.0,1529.0,877.0,578.0,2953.0,252.0,410.0,143.0,19.0,0.0
930599,County,2020/10/18,38.0,ND,38011.0,Bowman County,780.0,2296.0,5709.0,1044.0,1578.0,574.0,505.0,1288.0,293.0,269.0,125.0,33.0,0.0
933624,County,2020/10/19,38.0,ND,38011.0,Bowman County,647.0,2429.0,8478.0,1920.0,2119.0,1063.0,267.0,2174.0,407.0,356.0,159.0,13.0,0.0
936886,County,2020/10/20,38.0,ND,38011.0,Bowman County,791.0,2285.0,7954.0,2125.0,1574.0,177.0,468.0,2538.0,611.0,415.0,46.0,0.0,0.0
940559,County,2020/10/21,38.0,ND,38011.0,Bowman County,798.0,2278.0,6496.0,1833.0,2251.0,197.0,173.0,996.0,302.0,461.0,283.0,0.0,0.0
943278,County,2020/10/22,38.0,ND,38011.0,Bowman County,752.0,2324.0,9092.0,3487.0,1967.0,388.0,0.0,2283.0,371.0,453.0,126.0,17.0,0.0
946563,County,2020/10/23,38.0,ND,38011.0,Bowman County,688.0,2388.0,8801.0,1220.0,2706.0,1423.0,209.0,2262.0,424.0,370.0,166.0,21.0,0.0
949837,County,2020/10/24,38.0,ND,38011.0,Bowman County,672.0,2404.0,7946.0,1939.0,2575.0,967.0,169.0,1627.0,222.0,271.0,151.0,25.0,0.0
