,Level,Date,State FIPS,State Postal Code,County FIPS,County Name,Population Staying at Home,Population Not Staying at Home,Number of Trips,Number of Trips <1,Number of Trips 1-3,Number of Trips 3-5,Number of Trips 5-10,Number of Trips 10-25,Number of Trips 25-50,Number of Trips 50-100,Number of Trips 100-250,Number of Trips 250-500,Number of Trips >=500
195,County,2020/01/01,6.0,CA,6019.0,Fresno County,233192.0,761208.0,3072456.0,882008.0,849026.0,360355.0,479715.0,305377.0,112197.0,50567.0,26255.0,5927.0,1029.0
5577,County,2020/01/02,6.0,CA,6019.0,Fresno County,189750.0,804650.0,3809397.0,1064029.0,996810.0,430875.0,644810.0,418123.0,157224.0,64071.0,26962.0,5652.0,841.0
8424,County,2020/01/03,6.0,CA,6019.0,Fresno County,188259.0,806141.0,3912611.0,1056818.0,1036304.0,470029.0,666765.0,423898.0,161627.0,60830.0,30269.0,5286.0,785.0
12645,County,2020/01/04,6.0,CA,6019.0,Fresno County,211777.0,782623.0,3542770.0,952417.0,962479.0,427102.0,582023.0,378039.0,137744.0,64233.0,31525.0,6383.0,825.0
12971,County,2020/01/05,6.0,CA,6019.0,Fresno County,228624.0,765776.0,3200620.0,872071.0,897601.0,390888.0,521764.0,305917.0,117192.0,56246.0,31418.0,6257.0,1266.0
17681,County,2020/01/06,6.0,CA,6019.0,Fresno County,200698.0,793702.0,3648901.0,1001038.0,930746.0,453928.0,639076.0,385027.0,146869.0,61441.0,25353.0,4621.0,802.0
20828,County,2020/01/07,6.0,CA,6019.0,Fresno County,192612.0,801788.0,3716375.0,1013265.0,957824.0,451794.0,641803.0,418467.0,150648.0,53840.0,23326.0,4364.0,1044.0
22455,County,2020/01/08,6.0,CA,6019.0,Fresno County,187100.0,807300.0,3791204.0,1028431.0,979830.0,469378.0,654735.0,416405.0,146818.0,63578.0,25506.0,5554.0,969.0
25649,County,2020/01/09,6.0,CA,6019.0,Fresno County,190143.0,804257.0,3706671.0,1013519.0,953398.0,454920.0,643915.0,410013.0,142480.0,59301.0,23227.0,4718.0,1180.0
28844,County,2020/01/10,6.0,CA,6019.0,Fresno County,180622.0,813778.0,3979594.0,1070709.0,1037121.0,488924.0,698719.0,427402.0,159152.0,63240.0,28056.0,5453.0,818.0
32086,County,2020/01/11,6.0,CA,6019.0,Fresno County,205474.0,788926.0,3623928.0,986101.0,995590.0,442271.0,596441.0,366805.0,143043.0,59649.0,27273.0,6040.0,715.0
36773,County,2020/01/12,6.0,CA,6019.0,Fresno County,222558.0,771842.0,3308908.0,881215.0,951238.0,404894.0,543902.0,331201.0,112852.0,50213.0,27273.0,5281.0,839.0
40021,County,2020/01/13,6.0,CA,6019.0,Fresno County,193455.0,800945.0,3786372.0,1049724.0,983919.0,444383.0,663826.0,408427.0,145761.0,62772.0,23039.0,3918.0,603.0
41646,County,2020/01/14,6.0,CA,6019.0,Fresno County,187120.0,807280.0,3890322.0,1061053.0,1008124.0,450894.0,698120.0,427507.0,158883.0,59086.0,22077.0,3976.0,602.0
46375,County,2020/01/15,6.0,CA,6019.0,Fresno County,187466.0,806934.0,3829869.0,1047479.0,977625.0,457789.0,660433.0,434307.0,162166.0,63991.0,21253.0,4043.0,783.0
47951,County,2020/01/16,6.0,CA,6019.0,Fresno County,189405.0,804995.0,3746052.0,1035729.0,969775.0,437395.0,666162.0,399484.0,147239.0,58852.0,25247.0,5332.0,837.0
52819,County,2020/01/17,6.0,CA,6019.0,Fresno County,181647.0,812753.0,3988762.0,1080925.0,1054126.0,480619.0,689389.0,428904.0,150670.0,65970.0,30873.0,6469.0,817.0
54391,County,2020/01/18,6.0,CA,6019.0,Fresno County,205548.0,788852.0,3667609.0,1006023.0,996078.0,446248.0,612532.0,380715.0,135553.0,55949.0,27748.0,5893.0,870.0
57588,County,2020/01/19,6.0,CA,6019.0,Fresno County,230286.0,764114.0,3220980.0,901036.0,911722.0,395422.0,511929.0,300746.0,111068.0,53188.0,28304.0,6776.0,789.0
62350,County,2020/01/20,6.0,CA,6019.0,Fresno County,209976.0,784424.0,3450481.0,910041.0,915070.0,411836.0,595152.0,379831.0,138781.0,64366.0,29417.0,5012.0,975.0
63977,County,2020/01/21,6.0,CA,6019.0,Fresno County,190996.0,803404.0,3829015.0,1070045.0,990001.0,444423.0,674460.0,410562.0,147551.0,61871.0,24390.0,4940.0,772.0
68740,County,2020/01/22,6.0,CA,6019.0,Fresno County,186226.0,808174.0,3843176.0,1084331.0,977936.0,444817.0,678018.0,418944.0,151320.0,58677.0,23773.0,4658.0,702.0
70364,County,2020/01/23,6.0,CA,6019.0,Fresno County,189262.0,805138.0,3924684.0,1092802.0,1001175.0,474870.0,678743.0,434059.0,149226.0,61560.0,26107.0,5317.0,825.0
73561,County,2020/01/24,6.0,CA,6019.0,Fresno County,184789.0,809611.0,4068823.0,1111162.0,1041620.0,503861.0,718979.0,433181.0,158742.0,66689.0,28885.0,4918.0,786.0
76753,County,2020/01/25,6.0,CA,6019.0,Fresno County,204464.0,789936.0,3700972.0,1015856.0,1003105.0,446510.0,622467.0,374995.0,138477.0,62602.0,31364.0,4694.0,902.0
80045,County,2020/01/26,6.0,CA,6019.0,Fresno County,222418.0,771982.0,3411387.0,966032.0,938777.0,421181.0,551786.0,330434.0,116865.0,51658.0,28000.0,5701.0,953.0
84235,County,2020/01/27,6.0,CA,6019.0,Fresno County,192763.0,801637.0,3854688.0,1089434.0,992928.0,441640.0,673137.0,420741.0,149312.0,58003.0,23307.0,5166.0,1020.0
86350,County,2020/01/28,6.0,CA,6019.0,Fresno County,188808.0,805592.0,3856833.0,1077094.0,972986.0,462804.0,672476.0,429642.0,151775.0,60620.0,24018.0,4670.0,748.0
91083,County,2020/01/29,6.0,CA,6019.0,Fresno County,190775.0,803625.0,3839624.0,1066461.0,987089.0,448216.0,678328.0,421550.0,151402.0,57042.0,24260.0,4453.0,823.0
92760,County,2020/01/30,6.0,CA,6019.0,Fresno County,187982.0,806418.0,3795497.0,1038500.0,965795.0,456045.0,666716.0,412108.0,146144.0,63562.0,38721.0,6606.0,1300.0
97483,County,2020/01/31,6.0,CA,6019.0,Fresno County,179976.0,814424.0,4063177.0,1121727.0,1050261.0,488394.0,697748.0,432916.0,149124.0,68586.0,45583.0,7767.0,1071.0
100671,County,2020/02/01,6.0,CA,6019.0,Fresno County,198746.0,795654.0,3822768.0,1047214.0,1023788.0,475145.0,638131.0,392067.0,128274.0,67397.0,42281.0,7147.0,1324.0
102289,County,2020/02/02,6.0,CA,6019.0,Fresno County,221932.0,772468.0,3202232.0,892544.0,875251.0,384969.0,524133.0,323217.0,104955.0,50552.0,37916.0,7420.0,1275.0
105499,County,2020/02/03,6.0,CA,6019.0,Fresno County,192772.0,801628.0,3716247.0,1041218.0,939736.0,443885.0,636297.0,399697.0,144047.0,62604.0,39918.0,7531.0,1314.0
110259,County,2020/02/04,6.0,CA,6019.0,Fresno County,191731.0,802669.0,3730753.0,1032531.0,930429.0,451060.0,647700.0,410217.0,145176.0,64741.0,40070.0,7325.0,1504.0
113416,County,2020/02/05,6.0,CA,6019.0,Fresno County,191583.0,802817.0,3784540.0,1051681.0,978597.0,444405.0,635472.0,413031.0,145525.0,64900.0,41738.0,7530.0,1661.0
116622,County,2020/02/06,6.0,CA,6019.0,Fresno County,190780.0,803620.0,3848787.0,1078670.0,959873.0,457736.0,660841.0,426774.0,150457.0,62984.0,41622.0,8373.0,1457.0
119876,County,2020/02/07,6.0,CA,6019.0,Fresno County,187124.0,807276.0,3986673.0,1124773.0,1026163.0,475370.0,677603.0,416914.0,145737.0,67456.0,43684.0,7624.0,1349.0
123084,County,2020/02/08,6.0,CA,6019.0,Fresno County,208717.0,785683.0,3509422.0,942782.0,939954.0,434923.0,589910.0,365645.0,128916.0,58061.0,39295.0,8453.0,1483.0
124663,County,2020/02/09,6.0,CA,6019.0,Fresno County,249542.0,744858.0,3038215.0,804087.0,820025.0,381263.0,494715.0,328060.0,107468.0,51284.0,39785.0,8074.0,3454.0
128504,County,2020/02/10,6.0,CA,6019.0,Fresno County,195924.0,798476.0,3743240.0,1003898.0,929806.0,455476.0,639158.0,438939.0,146658.0,70280.0,46531.0,8901.0,3593.0
131150,County,2020/02/11,6.0,CA,6019.0,Fresno County,184022.0,810378.0,3868413.0,1054709.0,960500.0,467726.0,669317.0,440203.0,148701.0,69822.0,45197.0,9110.0,3128.0
134720,County,2020/02/12,6.0,CA,6019.0,Fresno County,186106.0,808294.0,3960309.0,1080133.0,984756.0,467671.0,681794.0,457711.0,155828.0,72652.0,47280.0,8402.0,4082.0
139053,County,2020/02/13,6.0,CA,6019.0,Fresno County,183425.0,810975.0,3961279.0,1072361.0,996664.0,467552.0,667151.0,465849.0,153750.0,74388.0,49235.0,9336.0,4993.0
142207,County,2020/02/14,6.0,CA,6019.0,Fresno County,175489.0,818911.0,4181379.0,1109552.0,1061197.0,501148.0,719602.0,487640.0,155171.0,77431.0,52460.0,10139.0,7039.0
145414,County,2020/02/15,6.0,CA,6019.0,Fresno County,202354.0,792046.0,3806548.0,992606.0,975034.0,466852.0,627543.0,456575.0,143734.0,75960.0,53938.0,9493.0,4813.0
147021,County,2020/02/16,6.0,CA,6019.0,Fresno County,217794.0,776606.0,3493057.0,930619.0,915417.0,414157.0,592051.0,384136.0,129295.0,63917.0,47274.0,10483.0,5708.0
151783,County,2020/02/17,6.0,CA,6019.0,Fresno County,266719.0,727681.0,3088880.0,819761.0,784173.0,366086.0,503567.0,365399.0,126068.0,65410.0,44422.0,10520.0,3474.0
153409,County,2020/02/18,6.0,CA,6019.0,Fresno County,188415.0,805985.0,3917760.0,1057818.0,959122.0,450005.0,698210.0,463057.0,158102.0,69547.0,46786.0,10774.0,4339.0
156604,County,2020/02/19,6.0,CA,6019.0,Fresno County,179835.0,814565.0,4123927.0,1134209.0,1022532.0,488061.0,716704.0,472449.0,162599.0,69218.0,44198.0,11019.0,2938.0
161268,County,2020/02/20,6.0,CA,6019.0,Fresno County,187435.0,806965.0,4037555.0,1096130.0,1018464.0,477668.0,709601.0,447764.0,155053.0,73849.0,46709.0,10187.0,2130.0
162991,County,2020/02/21,6.0,CA,6019.0,Fresno County,183330.0,811070.0,4235243.0,1175480.0,1051767.0,492644.0,716490.0,473523.0,163238.0,81207.0,64283.0,14202.0,2409.0
166185,County,2020/02/22,6.0,CA,6019.0,Fresno County,185489.0,808911.0,3912999.0,1039993.0,1022479.0,481196.0,655158.0,426902.0,147219.0,69896.0,55601.0,12446.0,2109.0
170949,County,2020/02/23,6.0,CA,6019.0,Fresno County,220244.0,774156.0,3606024.0,1008630.0,974159.0,442975.0,595243.0,353247.0,122512.0,57737.0,40450.0,8622.0,2449.0
174146,County,2020/02/24,6.0,CA,6019.0,Fresno County,195777.0,798623.0,3925017.0,1087303.0,987108.0,447458.0,693952.0,459884.0,150224.0,60129.0,29455.0,5019.0,4485.0
176503,County,2020/02/25,6.0,CA,6019.0,Fresno County,187581.0,806819.0,3719272.0,1032072.0,929222.0,428203.0,625245.0,456517.0,146520.0,67999.0,25708.0,4705.0,3081.0
179059,County,2020/02/26,6.0,CA,6019.0,Fresno County,155946.0,838454.0,4380583.0,1202343.0,1218363.0,514248.0,767862.0,452093.0,143393.0,55640.0,22122.0,2924.0,1595.0
183226,County,2020/02/27,6.0,CA,6019.0,Fresno County,186395.0,808005.0,4203802.0,1203614.0,1044816.0,488366.0,736987.0,458400.0,164785.0,69469.0,29715.0,5103.0,2547.0
185393,County,2020/02/28,6.0,CA,6019.0,Fresno County,177648.0,816752.0,4429331.0,1243867.0,1126989.0,521115.0,760110.0,487328.0,174876.0,72017.0,33520.0,6570.0,2939.0
190062,County,2020/02/29,6.0,CA,6019.0,Fresno County,197307.0,797093.0,4198447.0,1167900.0,1100196.0,518981.0,693767.0,446346.0,156877.0,71632.0,35668.0,5170.0,1910.0
191734,County,2020/03/01,6.0,CA,6019.0,Fresno County,210013.0,784387.0,3503783.0,997761.0,959735.0,425655.0,547224.0,351291.0,125266.0,60945.0,28734.0,5416.0,1756.0
196534,County,2020/03/02,6.0,CA,6019.0,Fresno County,194121.0,800279.0,3603455.0,1041691.0,921447.0,412148.0,594247.0,399275.0,139460.0,60941.0,26101.0,5024.0,3121.0
199594,County,2020/03/03,6.0,CA,6019.0,Fresno County,182800.0,811600.0,3598386.0,1053273.0,892112.0,407327.0,584704.0,394420.0,138715.0,66530.0,51051.0,7691.0,2563.0
202019,County,2020/03/04,6.0,CA,6019.0,Fresno County,187092.0,807308.0,3492395.0,968431.0,855360.0,388487.0,595369.0,405928.0,146334.0,69508.0,54638.0,6615.0,1725.0
206101,County,2020/03/05,6.0,CA,6019.0,Fresno County,174020.0,820380.0,3476990.0,960430.0,849035.0,405633.0,593322.0,401298.0,140021.0,67219.0,52279.0,5871.0,1882.0
209264,County,2020/03/06,6.0,CA,6019.0,Fresno County,176163.0,818237.0,3655459.0,1009535.0,900593.0,409315.0,609120.0,427294.0,151412.0,83916.0,56100.0,6602.0,1572.0
212546,County,2020/03/07,6.0,CA,6019.0,Fresno County,191954.0,802446.0,3517498.0,989912.0,891645.0,393024.0,571127.0,399449.0,136789.0,69606.0,55404.0,8784.0,1758.0
214095,County,2020/03/08,6.0,CA,6019.0,Fresno County,220396.0,774004.0,3027859.0,858757.0,789048.0,347766.0,479053.0,318554.0,108360.0,65961.0,51619.0,7045.0,1696.0
218856,County,2020/03/09,6.0,CA,6019.0,Fresno County,190182.0,804218.0,3558960.0,1017879.0,885513.0,393797.0,602455.0,405631.0,138858.0,59505.0,48099.0,5791.0,1432.0
222050,County,2020/03/10,6.0,CA,6019.0,Fresno County,188379.0,806021.0,3506105.0,1034631.0,809242.0,385388.0,592044.0,422230.0,141812.0,63597.0,50479.0,5142.0,1540.0
223674,County,2020/03/11,6.0,CA,6019.0,Fresno County,177215.0,817185.0,3965356.0,1165960.0,931480.0,444586.0,656360.0,419307.0,149695.0,72082.0,111109.0,10239.0,4538.0
228419,County,2020/03/12,6.0,CA,6019.0,Fresno County,185532.0,808868.0,3886607.0,1173014.0,940576.0,427725.0,586950.0,416209.0,148243.0,73962.0,103193.0,12373.0,4362.0
230066,County,2020/03/13,6.0,CA,6019.0,Fresno County,182733.0,811667.0,4192678.0,1298622.0,1052478.0,462084.0,636574.0,436354.0,134352.0,74892.0,80805.0,13022.0,3495.0
234694,County,2020/03/14,6.0,CA,6019.0,Fresno County,224648.0,769752.0,3653976.0,1031944.0,975872.0,399481.0,551103.0,380586.0,126093.0,80079.0,87434.0,16823.0,4561.0
236453,County,2020/03/15,6.0,CA,6019.0,Fresno County,264240.0,730160.0,2954886.0,911262.0,787701.0,325912.0,449528.0,290350.0,96125.0,47918.0,36805.0,7474.0,1811.0
239647,County,2020/03/16,6.0,CA,6019.0,Fresno County,234577.0,759823.0,3162171.0,892991.0,770022.0,369144.0,516589.0,365179.0,129877.0,64943.0,46238.0,5411.0,1777.0
244453,County,2020/03/17,6.0,CA,6019.0,Fresno County,255705.0,738695.0,2948693.0,840637.0,726540.0,322026.0,483425.0,333257.0,131931.0,58961.0,43266.0,6946.0,1704.0
247560,County,2020/03/18,6.0,CA,6019.0,Fresno County,270442.0,723958.0,2860280.0,824542.0,692863.0,306230.0,459637.0,327865.0,131503.0,62866.0,45047.0,7873.0,1854.0
250816,County,2020/03/19,6.0,CA,6019.0,Fresno County,285911.0,708489.0,2662065.0,768425.0,603901.0,287681.0,439411.0,326612.0,119589.0,66630.0,41549.0,6095.0,2172.0
252425,County,2020/03/20,6.0,CA,6019.0,Fresno County,285901.0,708499.0,2758115.0,807906.0,665280.0,292322.0,420112.0,325405.0,130875.0,64686.0,42259.0,6802.0,2468.0
255617,County,2020/03/21,6.0,CA,6019.0,Fresno County,318252.0,676148.0,2459965.0,736580.0,647069.0,261857.0,360469.0,257133.0,95798.0,51250.0,38557.0,8181.0,3071.0
258802,County,2020/03/22,6.0,CA,6019.0,Fresno County,307281.0,687119.0,2108550.0,659517.0,568287.0,228698.0,296462.0,201410.0,66812.0,42170.0,34822.0,7963.0,2409.0
262008,County,2020/03/23,6.0,CA,6019.0,Fresno County,272152.0,722248.0,2283512.0,674279.0,555031.0,242095.0,354288.0,261999.0,104426.0,45426.0,36256.0,7242.0,2470.0
265160,County,2020/03/24,6.0,CA,6019.0,Fresno County,277139.0,717261.0,2287884.0,680477.0,527181.0,238620.0,366972.0,268097.0,111521.0,48101.0,38614.0,6045.0,2256.0
269960,County,2020/03/25,6.0,CA,6019.0,Fresno County,278641.0,715759.0,2203360.0,617738.0,521735.0,228816.0,348628.0,274933.0,111201.0,57609.0,36048.0,5284.0,1368.0
271587,County,2020/03/26,6.0,CA,6019.0,Fresno County,279968.0,714432.0,2327307.0,697369.0,530912.0,248894.0,368192.0,275977.0,108248.0,53536.0,36946.0,5971.0,1262.0
276349,County,2020/03/27,6.0,CA,6019.0,Fresno County,276507.0,717893.0,2354584.0,659298.0,575705.0,246626.0,374780.0,288086.0,114714.0,49952.0,37465.0,6319.0,1639.0
279535,County,2020/03/28,6.0,CA,6019.0,Fresno County,300020.0,694380.0,2169004.0,633300.0,567265.0,228157.0,333896.0,236038.0,87327.0,42142.0,32475.0,6636.0,1768.0
281170,County,2020/03/29,6.0,CA,6019.0,Fresno County,325368.0,669032.0,1952614.0,593230.0,528619.0,221820.0,275253.0,202607.0,69254.0,25879.0,28142.0,5833.0,1977.0
285962,County,2020/03/30,6.0,CA,6019.0,Fresno County,275883.0,718517.0,2276101.0,641278.0,545977.0,256712.0,349811.0,290671.0,104240.0,47148.0,33578.0,5316.0,1370.0
289166,County,2020/03/31,6.0,CA,6019.0,Fresno County,279925.0,714475.0,2300003.0,653561.0,547042.0,250312.0,361215.0,284094.0,110155.0,51955.0,34324.0,5857.0,1488.0
290794,County,2020/04/01,6.0,CA,6019.0,Fresno County,279690.0,714710.0,2343012.0,658146.0,576799.0,261941.0,374816.0,283653.0,106491.0,46927.0,27978.0,4894.0,1367.0
293946,County,2020/04/02,6.0,CA,6019.0,Fresno County,278923.0,715477.0,2297589.0,635886.0,582619.0,239121.0,357483.0,282614.0,105186.0,52430.0,36009.0,4533.0,1708.0
297140,County,2020/04/03,6.0,CA,6019.0,Fresno County,264930.0,729470.0,2464762.0,724749.0,614292.0,258025.0,384803.0,285850.0,110965.0,48141.0,32225.0,3992.0,1720.0
300333,County,2020/04/04,6.0,CA,6019.0,Fresno County,304273.0,690127.0,2123270.0,627147.0,565447.0,227554.0,322168.0,229628.0,80751.0,36473.0,28843.0,3212.0,2047.0
305087,County,2020/04/05,6.0,CA,6019.0,Fresno County,326159.0,668241.0,1906870.0,570304.0,531709.0,210110.0,270411.0,201361.0,53987.0,31319.0,30439.0,5210.0,2020.0
308287,County,2020/04/06,6.0,CA,6019.0,Fresno County,288825.0,705575.0,2321970.0,673202.0,581351.0,250936.0,367667.0,283373.0,93684.0,47610.0,19763.0,3439.0,945.0
309916,County,2020/04/07,6.0,CA,6019.0,Fresno County,278696.0,715704.0,2476218.0,742291.0,616911.0,252972.0,376434.0,294097.0,119034.0,49728.0,20238.0,3285.0,1228.0
313110,County,2020/04/08,6.0,CA,6019.0,Fresno County,281941.0,712459.0,2358028.0,662875.0,584875.0,256485.0,375889.0,292838.0,112120.0,49591.0,17708.0,3742.0,1905.0
317869,County,2020/04/09,6.0,CA,6019.0,Fresno County,283136.0,711264.0,2331413.0,646863.0,580172.0,250511.0,389542.0,276873.0,109620.0,52603.0,21499.0,2857.0,873.0
321064,County,2020/04/10,6.0,CA,6019.0,Fresno County,269713.0,724687.0,2610264.0,754881.0,658839.0,281779.0,415627.0,310051.0,102722.0,51928.0,28084.0,5053.0,1300.0
322691,County,2020/04/11,6.0,CA,6019.0,Fresno County,295949.0,698451.0,2369772.0,714081.0,639572.0,263360.0,349746.0,240464.0,94680.0,36959.0,24773.0,4481.0,1656.0
325884,County,2020/04/12,6.0,CA,6019.0,Fresno County,337763.0,656637.0,1803564.0,560006.0,509984.0,198220.0,245347.0,176476.0,59516.0,32336.0,16848.0,3439.0,1392.0
329101,County,2020/04/13,6.0,CA,6019.0,Fresno County,285335.0,709065.0,2330424.0,672723.0,558616.0,237096.0,380909.0,293132.0,110937.0,51296.0,22549.0,2392.0,774.0
333822,County,2020/04/14,6.0,CA,6019.0,Fresno County,291282.0,703118.0,2176719.0,658718.0,530705.0,224296.0,305059.0,258372.0,102145.0,47976.0,41693.0,5685.0,2070.0
337075,County,2020/04/15,6.0,CA,6019.0,Fresno County,281496.0,712904.0,2157869.0,613719.0,520364.0,206946.0,332346.0,282972.0,115210.0,45434.0,34267.0,4667.0,1944.0
340169,County,2020/04/16,6.0,CA,6019.0,Fresno County,297602.0,696798.0,2131944.0,600677.0,563246.0,215315.0,299578.0,261404.0,105986.0,50060.0,26263.0,7577.0,1838.0
343480,County,2020/04/17,6.0,CA,6019.0,Fresno County,272728.0,721672.0,2184435.0,602860.0,537005.0,232941.0,356550.0,250038.0,101646.0,53762.0,39277.0,6659.0,3697.0
346579,County,2020/04/18,6.0,CA,6019.0,Fresno County,300841.0,693559.0,2205092.0,643396.0,601012.0,220801.0,303795.0,242698.0,109746.0,40374.0,36210.0,4519.0,2541.0
348230,County,2020/04/19,6.0,CA,6019.0,Fresno County,305520.0,688880.0,1827412.0,507557.0,551175.0,180071.0,254215.0,186427.0,67309.0,34708.0,33078.0,9301.0,3571.0
351437,County,2020/04/20,6.0,CA,6019.0,Fresno County,269409.0,724991.0,2303820.0,688979.0,571298.0,257209.0,319388.0,266767.0,112115.0,43640.0,32673.0,10024.0,1727.0
354629,County,2020/04/21,6.0,CA,6019.0,Fresno County,266091.0,728309.0,2501550.0,679961.0,608412.0,269302.0,405718.0,319563.0,132361.0,56760.0,22716.0,5862.0,895.0
359401,County,2020/04/22,6.0,CA,6019.0,Fresno County,265882.0,728518.0,2426840.0,657754.0,565611.0,264329.0,414558.0,298954.0,137433.0,57132.0,25354.0,4948.0,767.0
362557,County,2020/04/23,6.0,CA,6019.0,Fresno County,265655.0,728745.0,2440203.0,659018.0,587366.0,251697.0,414776.0,308977.0,134023.0,49249.0,28294.0,5587.0,1216.0
365819,County,2020/04/24,6.0,CA,6019.0,Fresno County,268223.0,726177.0,2556886.0,682674.0,618800.0,298527.0,423586.0,318490.0,120740.0,56954.0,30641.0,5486.0,988.0
368975,County,2020/04/25,6.0,CA,6019.0,Fresno County,281507.0,712893.0,2354677.0,597796.0,656028.0,274588.0,396244.0,260368.0,96020.0,42480.0,24279.0,5900.0,974.0
370565,County,2020/04/26,6.0,CA,6019.0,Fresno County,303244.0,691156.0,2164754.0,621228.0,602909.0,246969.0,322867.0,219900.0,81253.0,39349.0,22322.0,6725.0,1232.0
373795,County,2020/04/27,6.0,CA,6019.0,Fresno County,263307.0,731093.0,2507696.0,664991.0,630116.0,277833.0,413167.0,308175.0,121620.0,56629.0,29648.0,4692.0,825.0
378523,County,2020/04/28,6.0,CA,6019.0,Fresno County,264980.0,729420.0,2523916.0,670218.0,625141.0,264022.0,427699.0,322301.0,124556.0,54012.0,28479.0,6432.0,1056.0
380198,County,2020/04/29,6.0,CA,6019.0,Fresno County,263889.0,730511.0,2499999.0,649056.0,624334.0,279414.0,407760.0,317666.0,134362.0,54444.0,26453.0,5409.0,1101.0
384944,County,2020/04/30,6.0,CA,6019.0,Fresno County,255041.0,739359.0,2584499.0,656633.0,633848.0,291954.0,452738.0,326256.0,134679.0,56590.0,25736.0,5086.0,979.0
388179,County,2020/05/01,6.0,CA,6019.0,Fresno County,252694.0,741706.0,2677862.0,715468.0,662827.0,311255.0,448942.0,319495.0,126077.0,61675.0,26455.0,5113.0,555.0
391329,County,2020/05/02,6.0,CA,6019.0,Fresno County,271412.0,722988.0,2503573.0,661742.0,696030.0,282681.0,392618.0,282607.0,110219.0,45957.0,25323.0,5508.0,888.0
394526,County,2020/05/03,6.0,CA,6019.0,Fresno County,298582.0,695818.0,2117977.0,562333.0,596736.0,253014.0,335101.0,218729.0,80220.0,38350.0,26763.0,5625.0,1106.0
397720,County,2020/05/04,6.0,CA,6019.0,Fresno County,257211.0,737189.0,2539410.0,651427.0,659324.0,279528.0,416449.0,314085.0,133144.0,52424.0,26849.0,5380.0,800.0
399347,County,2020/05/05,6.0,CA,6019.0,Fresno County,263783.0,730617.0,2532452.0,658657.0,637244.0,272094.0,444603.0,310710.0,122243.0,55362.0,25471.0,5107.0,961.0
402526,County,2020/05/06,6.0,CA,6019.0,Fresno County,264097.0,730303.0,2467343.0,654302.0,601020.0,281242.0,409589.0,296227.0,131600.0,59051.0,27604.0,5353.0,1355.0
407244,County,2020/05/07,6.0,CA,6019.0,Fresno County,260254.0,734146.0,2501907.0,645934.0,610804.0,276749.0,412386.0,313936.0,138224.0,66976.0,29025.0,5683.0,2190.0
408985,County,2020/05/08,6.0,CA,6019.0,Fresno County,262385.0,732015.0,2580880.0,669457.0,637994.0,287606.0,436356.0,332644.0,124058.0,59679.0,27635.0,4467.0,984.0
413656,County,2020/05/09,6.0,CA,6019.0,Fresno County,276198.0,718202.0,2467014.0,610265.0,704771.0,300087.0,385940.0,281055.0,98330.0,48880.0,30536.0,6367.0,783.0
415317,County,2020/05/10,6.0,CA,6019.0,Fresno County,283957.0,710443.0,2327868.0,609200.0,666976.0,283681.0,354407.0,235550.0,99450.0,45283.0,26156.0,5918.0,1247.0
418511,County,2020/05/11,6.0,CA,6019.0,Fresno County,241697.0,752703.0,2564828.0,666262.0,625696.0,286944.0,446338.0,315189.0,127099.0,58599.0,32676.0,5249.0,776.0
423368,County,2020/05/12,6.0,CA,6019.0,Fresno County,240266.0,754134.0,2633818.0,716074.0,630104.0,299894.0,432233.0,329193.0,129788.0,58040.0,30534.0,7099.0,859.0
424900,County,2020/05/13,6.0,CA,6019.0,Fresno County,246629.0,747771.0,2579773.0,704489.0,606444.0,295886.0,436849.0,310984.0,128457.0,59673.0,29161.0,6707.0,1123.0
428094,County,2020/05/14,6.0,CA,6019.0,Fresno County,247220.0,747180.0,2563866.0,681032.0,623414.0,291990.0,418746.0,316636.0,136074.0,56385.0,32413.0,5699.0,1477.0
431288,County,2020/05/15,6.0,CA,6019.0,Fresno County,240572.0,753828.0,2583277.0,686099.0,621787.0,283425.0,429565.0,321886.0,134287.0,63365.0,34627.0,6811.0,1425.0
434511,County,2020/05/16,6.0,CA,6019.0,Fresno County,257523.0,736877.0,2491754.0,668639.0,648049.0,278023.0,393419.0,283935.0,116817.0,60509.0,31325.0,8755.0,2283.0
439194,County,2020/05/17,6.0,CA,6019.0,Fresno County,253876.0,740524.0,2522119.0,732489.0,649572.0,301934.0,355863.0,266182.0,121455.0,52815.0,32567.0,8159.0,1083.0
440910,County,2020/05/18,6.0,CA,6019.0,Fresno County,208276.0,786124.0,2793733.0,720622.0,689193.0,311985.0,465174.0,358627.0,143629.0,66291.0,33605.0,4121.0,486.0
444064,County,2020/05/19,6.0,CA,6019.0,Fresno County,203474.0,790926.0,2903530.0,810923.0,674811.0,327762.0,471090.0,344442.0,156886.0,76427.0,33854.0,6461.0,874.0
448825,County,2020/05/20,6.0,CA,6019.0,Fresno County,203932.0,790468.0,2846225.0,771769.0,676448.0,306980.0,456570.0,357259.0,157936.0,74904.0,36593.0,6436.0,1330.0
450451,County,2020/05/21,6.0,CA,6019.0,Fresno County,200125.0,794275.0,2863362.0,800483.0,670549.0,305478.0,462770.0,369288.0,139322.0,74506.0,33319.0,6177.0,1470.0
455209,County,2020/05/22,6.0,CA,6019.0,Fresno County,189672.0,804728.0,2981718.0,803379.0,743661.0,328618.0,460705.0,368104.0,152115.0,78542.0,36663.0,7319.0,2612.0
456834,County,2020/05/23,6.0,CA,6019.0,Fresno County,219278.0,775122.0,2817863.0,819191.0,698439.0,292242.0,420690.0,327561.0,136005.0,75854.0,37049.0,7207.0,3625.0
461577,County,2020/05/24,6.0,CA,6019.0,Fresno County,269509.0,724891.0,2286911.0,635474.0,617685.0,256794.0,333502.0,249806.0,98486.0,51223.0,32358.0,7191.0,4392.0
464879,County,2020/05/25,6.0,CA,6019.0,Fresno County,261390.0,733010.0,2303598.0,625931.0,601172.0,262996.0,373531.0,241816.0,104264.0,51701.0,32146.0,6251.0,3790.0
468035,County,2020/05/26,6.0,CA,6019.0,Fresno County,235001.0,759399.0,2438112.0,606460.0,591224.0,265978.0,422938.0,311729.0,128429.0,56338.0,42528.0,6486.0,6002.0
471227,County,2020/05/27,6.0,CA,6019.0,Fresno County,238779.0,755621.0,2565185.0,644137.0,625081.0,296937.0,427670.0,323848.0,133967.0,62019.0,40996.0,8362.0,2168.0
472811,County,2020/05/28,6.0,CA,6019.0,Fresno County,235843.0,758557.0,2519716.0,648107.0,609446.0,274832.0,421484.0,312033.0,134816.0,62412.0,46435.0,9352.0,799.0
476004,County,2020/05/29,6.0,CA,6019.0,Fresno County,246260.0,748140.0,2453708.0,622319.0,577458.0,272407.0,419968.0,310714.0,135010.0,60637.0,46734.0,7437.0,1024.0
480765,County,2020/05/30,6.0,CA,6019.0,Fresno County,263186.0,731214.0,2390715.0,646489.0,599854.0,274960.0,376663.0,269320.0,108928.0,56542.0,48995.0,7678.0,1286.0
483909,County,2020/05/31,6.0,CA,6019.0,Fresno County,280207.0,714193.0,2156505.0,566493.0,559745.0,258944.0,346426.0,227167.0,94936.0,46262.0,49137.0,6220.0,1175.0
485537,County,2020/06/01,6.0,CA,6019.0,Fresno County,244948.0,749452.0,2386817.0,635110.0,564740.0,273372.0,394947.0,287824.0,121260.0,53120.0,46765.0,8658.0,1021.0
490318,County,2020/06/02,6.0,CA,6019.0,Fresno County,248849.0,745551.0,2447785.0,663674.0,580715.0,269663.0,403397.0,295909.0,122245.0,53041.0,50086.0,6769.0,2286.0
491948,County,2020/06/03,6.0,CA,6019.0,Fresno County,238276.0,756124.0,2563623.0,670599.0,614149.0,280564.0,429683.0,326924.0,131047.0,57733.0,43698.0,6898.0,2328.0
495158,County,2020/06/04,6.0,CA,6019.0,Fresno County,236647.0,757753.0,2470394.0,653326.0,569940.0,273481.0,420388.0,310299.0,128551.0,56627.0,47262.0,7588.0,2932.0
499934,County,2020/06/05,6.0,CA,6019.0,Fresno County,238604.0,755796.0,2512409.0,638281.0,597805.0,281138.0,419897.0,316686.0,131689.0,63682.0,53680.0,7138.0,2413.0
503087,County,2020/06/06,6.0,CA,6019.0,Fresno County,257630.0,736770.0,2279314.0,555185.0,614386.0,276427.0,367765.0,261566.0,108084.0,45181.0,41118.0,7037.0,2565.0
504750,County,2020/06/07,6.0,CA,6019.0,Fresno County,239490.0,754910.0,2682224.0,722593.0,722672.0,306442.0,416786.0,280717.0,116337.0,55347.0,51678.0,7692.0,1960.0
509497,County,2020/06/08,6.0,CA,6019.0,Fresno County,229759.0,764641.0,2710019.0,713753.0,664022.0,308202.0,456360.0,323837.0,134608.0,57302.0,44327.0,5703.0,1905.0
512700,County,2020/06/09,6.0,CA,6019.0,Fresno County,251406.0,742994.0,2395566.0,613984.0,553744.0,255118.0,419560.0,310415.0,135030.0,55839.0,41998.0,6661.0,3217.0
514332,County,2020/06/10,6.0,CA,6019.0,Fresno County,241056.0,753344.0,2376191.0,623924.0,545037.0,270245.0,391399.0,296074.0,130407.0,61740.0,43498.0,7931.0,5936.0
519064,County,2020/06/11,6.0,CA,6019.0,Fresno County,239835.0,754565.0,2510520.0,664912.0,578469.0,281411.0,416479.0,317067.0,130308.0,63915.0,46857.0,7406.0,3696.0
520738,County,2020/06/12,6.0,CA,6019.0,Fresno County,245514.0,748886.0,2483253.0,664737.0,578972.0,275185.0,400915.0,302415.0,134078.0,61594.0,54882.0,8410.0,2065.0
523913,County,2020/06/13,6.0,CA,6019.0,Fresno County,253241.0,741159.0,2470857.0,662093.0,608102.0,279654.0,397785.0,294614.0,116712.0,53763.0,47637.0,8093.0,2404.0
527108,County,2020/06/14,6.0,CA,6019.0,Fresno County,271065.0,723335.0,2186795.0,608720.0,543433.0,263829.0,329583.0,238069.0,94615.0,49904.0,45840.0,9877.0,2925.0
531868,County,2020/06/15,6.0,CA,6019.0,Fresno County,250668.0,743732.0,2362365.0,591322.0,562184.0,272000.0,398687.0,294523.0,121647.0,64411.0,46205.0,9306.0,2080.0
533496,County,2020/06/16,6.0,CA,6019.0,Fresno County,253034.0,741366.0,2466729.0,636961.0,570144.0,285965.0,422854.0,307303.0,133801.0,61742.0,36865.0,9672.0,1422.0
536690,County,2020/06/17,6.0,CA,6019.0,Fresno County,243801.0,750599.0,2603276.0,708080.0,606171.0,282428.0,437782.0,319666.0,134541.0,66174.0,38554.0,8577.0,1303.0
539883,County,2020/06/18,6.0,CA,6019.0,Fresno County,244522.0,749878.0,2567904.0,688495.0,605738.0,277144.0,422215.0,324238.0,134374.0,64973.0,40171.0,8928.0,1628.0
543077,County,2020/06/19,6.0,CA,6019.0,Fresno County,239702.0,754698.0,2552990.0,649836.0,619953.0,289273.0,436304.0,308482.0,134269.0,68344.0,36858.0,8180.0,1491.0
547838,County,2020/06/20,6.0,CA,6019.0,Fresno County,262283.0,732117.0,2451970.0,648883.0,619744.0,279805.0,383302.0,290250.0,119838.0,60456.0,39962.0,8270.0,1460.0
551025,County,2020/06/21,6.0,CA,6019.0,Fresno County,284368.0,710032.0,2134308.0,538131.0,582408.0,245020.0,332935.0,240402.0,104846.0,52101.0,28553.0,8266.0,1646.0
552661,County,2020/06/22,6.0,CA,6019.0,Fresno County,259158.0,735242.0,2297739.0,586265.0,544974.0,266765.0,379378.0,290258.0,114072.0,64414.0,41156.0,8428.0,2029.0
557420,County,2020/06/23,6.0,CA,6019.0,Fresno County,245458.0,748942.0,2423233.0,596546.0,582360.0,271631.0,426605.0,305673.0,120384.0,65041.0,45121.0,8530.0,1342.0
560614,County,2020/06/24,6.0,CA,6019.0,Fresno County,259901.0,734499.0,2353946.0,605926.0,562002.0,255698.0,403246.0,290849.0,122593.0,60089.0,43832.0,8287.0,1424.0
562242,County,2020/06/25,6.0,CA,6019.0,Fresno County,240967.0,753433.0,2473804.0,621895.0,601631.0,281836.0,421320.0,307534.0,119902.0,58642.0,49582.0,10161.0,1301.0
567085,County,2020/06/26,6.0,CA,6019.0,Fresno County,245589.0,748811.0,2382128.0,596666.0,581749.0,269490.0,401535.0,285906.0,117795.0,58148.0,58271.0,11518.0,1050.0
570186,County,2020/06/27,6.0,CA,6019.0,Fresno County,263805.0,730595.0,2417713.0,628536.0,628192.0,286214.0,375713.0,271304.0,105741.0,59943.0,50489.0,10441.0,1140.0
571826,County,2020/06/28,6.0,CA,6019.0,Fresno County,277828.0,716572.0,2169448.0,597152.0,553568.0,249899.0,327506.0,230531.0,99073.0,47714.0,52711.0,10106.0,1188.0
576553,County,2020/06/29,6.0,CA,6019.0,Fresno County,262845.0,731555.0,2296548.0,564569.0,565442.0,245638.0,399697.0,278745.0,121574.0,56478.0,52869.0,10036.0,1500.0
579800,County,2020/06/30,6.0,CA,6019.0,Fresno County,260755.0,733645.0,2180066.0,547087.0,500358.0,248750.0,385641.0,272677.0,108612.0,51947.0,53002.0,8891.0,3101.0
582993,County,2020/07/01,6.0,CA,6019.0,Fresno County,255690.0,738710.0,2204954.0,581429.0,496445.0,263333.0,360391.0,271205.0,109953.0,54367.0,55067.0,9778.0,2986.0
584596,County,2020/07/02,6.0,CA,6019.0,Fresno County,267376.0,727024.0,2625706.0,660082.0,638573.0,299142.0,447191.0,326418.0,127264.0,62243.0,52627.0,10785.0,1381.0
589388,County,2020/07/03,6.0,CA,6019.0,Fresno County,283122.0,711278.0,2368708.0,593305.0,578472.0,267972.0,399273.0,284295.0,117131.0,57820.0,57943.0,11453.0,1044.0
592570,County,2020/07/04,6.0,CA,6019.0,Fresno County,299740.0,694660.0,2026485.0,507586.0,494896.0,229256.0,341588.0,243221.0,100209.0,49467.0,49571.0,9798.0,893.0
595775,County,2020/07/05,6.0,CA,6019.0,Fresno County,290792.0,703608.0,2084649.0,550789.0,579609.0,229050.0,300570.0,224327.0,91253.0,46174.0,47559.0,11879.0,3439.0
598894,County,2020/07/06,6.0,CA,6019.0,Fresno County,262526.0,731874.0,2259577.0,588539.0,531162.0,264107.0,389938.0,273428.0,104860.0,49749.0,46812.0,7801.0,3181.0
600569,County,2020/07/07,6.0,CA,6019.0,Fresno County,256306.0,738094.0,2206451.0,550097.0,528709.0,245910.0,381704.0,276566.0,103429.0,54020.0,53726.0,9415.0,2875.0
603760,County,2020/07/08,6.0,CA,6019.0,Fresno County,259656.0,734744.0,2193131.0,560548.0,529478.0,239892.0,366151.0,272534.0,106524.0,51124.0,53863.0,9726.0,3291.0
608533,County,2020/07/09,6.0,CA,6019.0,Fresno County,255405.0,738995.0,2219154.0,578825.0,524226.0,247851.0,368051.0,274358.0,108975.0,50313.0,54775.0,8930.0,2850.0
611739,County,2020/07/10,6.0,CA,6019.0,Fresno County,251435.0,742965.0,2279258.0,563614.0,559136.0,251930.0,382336.0,286279.0,115233.0,54566.0,55113.0,7928.0,3123.0
614955,County,2020/07/11,6.0,CA,6019.0,Fresno County,267745.0,726655.0,2186710.0,578447.0,556828.0,251879.0,341885.0,244425.0,96010.0,51625.0,52522.0,9630.0,3459.0
616539,County,2020/07/12,6.0,CA,6019.0,Fresno County,283414.0,710986.0,1887916.0,463861.0,496052.0,224175.0,287721.0,225794.0,76541.0,45698.0,54433.0,9656.0,3985.0
621298,County,2020/07/13,6.0,CA,6019.0,Fresno County,256230.0,738170.0,2201900.0,559445.0,515753.0,244784.0,364418.0,288198.0,107876.0,55895.0,53739.0,8671.0,3121.0
622929,County,2020/07/14,6.0,CA,6019.0,Fresno County,270547.0,723853.0,2191531.0,573613.0,519880.0,244308.0,366601.0,275048.0,111384.0,51100.0,40113.0,7140.0,2344.0
626051,County,2020/07/15,6.0,CA,6019.0,Fresno County,269874.0,724526.0,2222215.0,544227.0,533914.0,241068.0,388261.0,290739.0,124877.0,57786.0,32948.0,6512.0,1883.0
629292,County,2020/07/16,6.0,CA,6019.0,Fresno County,269529.0,724871.0,2234980.0,552630.0,530376.0,259102.0,376217.0,296546.0,122513.0,55065.0,33895.0,6688.0,1948.0
634025,County,2020/07/17,6.0,CA,6019.0,Fresno County,265815.0,728585.0,2285345.0,593622.0,528002.0,247993.0,385958.0,305998.0,123935.0,55988.0,35678.0,6422.0,1749.0
635703,County,2020/07/18,6.0,CA,6019.0,Fresno County,287330.0,707070.0,2103553.0,530367.0,523915.0,245038.0,329708.0,263881.0,110454.0,50397.0,39782.0,7553.0,2458.0
640432,County,2020/07/19,6.0,CA,6019.0,Fresno County,315094.0,679306.0,1823258.0,425874.0,482093.0,221663.0,284211.0,227081.0,89601.0,42897.0,39793.0,7094.0,2951.0
642093,County,2020/07/20,6.0,CA,6019.0,Fresno County,291607.0,702793.0,2060955.0,495629.0,505173.0,236469.0,347025.0,264701.0,109087.0,55375.0,39787.0,6264.0,1445.0
647333,County,2020/07/21,6.0,CA,6019.0,Fresno County,283089.0,711311.0,2016344.0,474732.0,459379.0,228181.0,349311.0,282391.0,113581.0,59222.0,40789.0,7121.0,1637.0
649522,County,2020/07/22,6.0,CA,6019.0,Fresno County,282629.0,711771.0,1963172.0,473166.0,444522.0,216172.0,336694.0,274007.0,112187.0,55100.0,40912.0,8061.0,2351.0
651588,County,2020/07/23,6.0,CA,6019.0,Fresno County,283448.0,710952.0,1968338.0,483894.0,452209.0,211030.0,334967.0,271963.0,102079.0,58921.0,42250.0,8769.0,2256.0
656258,County,2020/07/24,6.0,CA,6019.0,Fresno County,272451.0,721949.0,2138555.0,524928.0,491261.0,236628.0,368033.0,289590.0,115867.0,56088.0,45869.0,7957.0,2334.0
658057,County,2020/07/25,6.0,CA,6019.0,Fresno County,295739.0,698661.0,1916874.0,460822.0,454238.0,225527.0,320355.0,245449.0,98773.0,57134.0,43276.0,8478.0,2822.0
661255,County,2020/07/26,6.0,CA,6019.0,Fresno County,295570.0,698830.0,1859863.0,433220.0,452275.0,230065.0,293801.0,235945.0,90138.0,62528.0,49762.0,9490.0,2639.0
664503,County,2020/07/27,6.0,CA,6019.0,Fresno County,285398.0,709002.0,1933668.0,431938.0,453038.0,220917.0,338986.0,262025.0,105747.0,58693.0,49404.0,9576.0,3344.0
669287,County,2020/07/28,6.0,CA,6019.0,Fresno County,276948.0,717452.0,2032406.0,464243.0,463627.0,237758.0,354935.0,283366.0,109390.0,54195.0,53068.0,8867.0,2957.0
672499,County,2020/07/29,6.0,CA,6019.0,Fresno County,279748.0,714652.0,1965656.0,436600.0,428065.0,229463.0,355002.0,279780.0,110030.0,60769.0,54685.0,7935.0,3327.0
674031,County,2020/07/30,6.0,CA,6019.0,Fresno County,272735.0,721665.0,2074534.0,481416.0,462313.0,239703.0,366300.0,288494.0,110690.0,53636.0,58834.0,9747.0,3401.0
677232,County,2020/07/31,6.0,CA,6019.0,Fresno County,273815.0,720585.0,2007014.0,444313.0,459259.0,236321.0,351238.0,273944.0,111485.0,58866.0,58322.0,10419.0,2847.0
681931,County,2020/08/01,6.0,CA,6019.0,Fresno County,293028.0,701372.0,1874338.0,408386.0,461422.0,214920.0,313485.0,246060.0,100641.0,55546.0,58976.0,11048.0,3854.0
683613,County,2020/08/02,6.0,CA,6019.0,Fresno County,299787.0,694613.0,1968714.0,472625.0,492209.0,242753.0,314991.0,227321.0,97760.0,55964.0,51471.0,11376.0,2244.0
686808,County,2020/08/03,6.0,CA,6019.0,Fresno County,277623.0,716777.0,2149609.0,483830.0,526292.0,247591.0,378267.0,275876.0,116040.0,62869.0,47203.0,8992.0,2649.0
690002,County,2020/08/04,6.0,CA,6019.0,Fresno County,269556.0,724844.0,2250745.0,544293.0,535688.0,254063.0,391689.0,294329.0,125624.0,59634.0,37042.0,6293.0,2090.0
694761,County,2020/08/05,6.0,CA,6019.0,Fresno County,272556.0,721844.0,2284006.0,578826.0,543240.0,258196.0,388152.0,283463.0,125163.0,61037.0,36578.0,7123.0,2228.0
697956,County,2020/08/06,6.0,CA,6019.0,Fresno County,269959.0,724441.0,2286433.0,533275.0,548942.0,273295.0,400108.0,297955.0,120232.0,65995.0,38056.0,6649.0,1926.0
699583,County,2020/08/07,6.0,CA,6019.0,Fresno County,263740.0,730660.0,2287091.0,548768.0,553532.0,260897.0,387765.0,294829.0,126776.0,61909.0,43337.0,7488.0,1790.0
704344,County,2020/08/08,6.0,CA,6019.0,Fresno County,284013.0,710387.0,2244609.0,580853.0,577602.0,251375.0,349540.0,255303.0,119528.0,60371.0,39933.0,7147.0,2957.0
705971,County,2020/08/09,6.0,CA,6019.0,Fresno County,279088.0,715312.0,2400944.0,600316.0,653871.0,277046.0,371964.0,256472.0,116811.0,69916.0,44171.0,8106.0,2271.0
710779,County,2020/08/10,6.0,CA,6019.0,Fresno County,263090.0,731310.0,2710835.0,665351.0,679241.0,307728.0,456017.0,346240.0,140701.0,67725.0,38931.0,6866.0,2035.0
712359,County,2020/08/11,6.0,CA,6019.0,Fresno County,267609.0,726791.0,2652303.0,632853.0,640831.0,312532.0,467779.0,342282.0,149804.0,63263.0,33394.0,8254.0,1311.0
717022,County,2020/08/12,6.0,CA,6019.0,Fresno County,257874.0,736526.0,2484590.0,588900.0,610015.0,299035.0,425354.0,319830.0,130528.0,57572.0,39749.0,9425.0,4182.0
718748,County,2020/08/13,6.0,CA,6019.0,Fresno County,246755.0,747645.0,2510596.0,601664.0,601455.0,284011.0,432084.0,329496.0,136246.0,63321.0,46851.0,10144.0,5324.0
721941,County,2020/08/14,6.0,CA,6019.0,Fresno County,240771.0,753629.0,2678547.0,647059.0,650209.0,310356.0,461940.0,336218.0,140517.0,65393.0,49201.0,12742.0,4912.0
726751,County,2020/08/15,6.0,CA,6019.0,Fresno County,259465.0,734935.0,2381416.0,542794.0,608307.0,294180.0,401876.0,290939.0,113506.0,62731.0,49532.0,11747.0,5804.0
728330,County,2020/08/16,6.0,CA,6019.0,Fresno County,286795.0,707605.0,2184463.0,513973.0,546960.0,258455.0,355521.0,257412.0,107589.0,63773.0,60343.0,12561.0,7876.0
731524,County,2020/08/17,6.0,CA,6019.0,Fresno County,276191.0,718209.0,2386864.0,551167.0,585875.0,272634.0,406627.0,305815.0,124588.0,63085.0,56596.0,12719.0,7758.0
736284,County,2020/08/18,6.0,CA,6019.0,Fresno County,259505.0,734895.0,2319879.0,523423.0,540992.0,271189.0,414995.0,305651.0,126069.0,62664.0,55476.0,11751.0,7669.0
739478,County,2020/08/19,6.0,CA,6019.0,Fresno County,257983.0,736417.0,2375352.0,558682.0,559988.0,265662.0,411465.0,310398.0,136085.0,59414.0,53164.0,11851.0,8643.0
741105,County,2020/08/20,6.0,CA,6019.0,Fresno County,248864.0,745536.0,2412948.0,578293.0,570729.0,260218.0,416810.0,316248.0,131653.0,63324.0,55554.0,12140.0,7979.0
745883,County,2020/08/21,6.0,CA,6019.0,Fresno County,240170.0,754230.0,2625769.0,651672.0,608619.0,304897.0,442837.0,336728.0,139247.0,67374.0,55811.0,11017.0,7567.0
747511,County,2020/08/22,6.0,CA,6019.0,Fresno County,256683.0,737717.0,2416475.0,580847.0,605189.0,297850.0,391670.0,295857.0,119558.0,57522.0,48617.0,11495.0,7870.0
752256,County,2020/08/23,6.0,CA,6019.0,Fresno County,294531.0,699869.0,1922756.0,432219.0,506458.0,232953.0,322631.0,225041.0,97250.0,48612.0,39815.0,11313.0,6464.0
755447,County,2020/08/24,6.0,CA,6019.0,Fresno County,282854.0,711546.0,2193767.0,501126.0,549844.0,243064.0,393419.0,283730.0,117376.0,51992.0,41057.0,6335.0,5824.0
757075,County,2020/08/25,6.0,CA,6019.0,Fresno County,279034.0,715366.0,2302252.0,521965.0,581392.0,261331.0,398234.0,305948.0,128852.0,53078.0,37370.0,8434.0,5648.0
760271,County,2020/08/26,6.0,CA,6019.0,Fresno County,279790.0,714610.0,2256849.0,527136.0,550120.0,262117.0,391069.0,298091.0,124917.0,49740.0,39822.0,9095.0,4742.0
764994,County,2020/08/27,6.0,CA,6019.0,Fresno County,281638.0,712762.0,2284026.0,533278.0,562375.0,256284.0,391746.0,302296.0,125748.0,55122.0,44841.0,8173.0,4163.0
768210,County,2020/08/28,6.0,CA,6019.0,Fresno County,277568.0,716832.0,2364600.0,557044.0,576612.0,273147.0,413878.0,306881.0,120774.0,56051.0,47113.0,9197.0,3903.0
771410,County,2020/08/29,6.0,CA,6019.0,Fresno County,289736.0,704664.0,2292471.0,538098.0,588245.0,270059.0,391552.0,283823.0,113532.0,50253.0,43281.0,10067.0,3561.0
773045,County,2020/08/30,6.0,CA,6019.0,Fresno County,299154.0,695246.0,2042026.0,479902.0,544730.0,232631.0,336337.0,239585.0,95857.0,51873.0,44216.0,11815.0,5080.0
776238,County,2020/08/31,6.0,CA,6019.0,Fresno County,279669.0,714731.0,2253168.0,543114.0,549545.0,261912.0,387060.0,283560.0,111703.0,54186.0,47852.0,10519.0,3717.0
781018,County,2020/09/01,6.0,CA,6019.0,Fresno County,271516.0,722884.0,2469857.0,609162.0,609486.0,288921.0,413320.0,306432.0,127386.0,60470.0,42274.0,9595.0,2811.0
782625,County,2020/09/02,6.0,CA,6019.0,Fresno County,270907.0,723493.0,2452441.0,575599.0,626852.0,287261.0,417753.0,311411.0,124178.0,56698.0,41364.0,8533.0,2792.0
787363,County,2020/09/03,6.0,CA,6019.0,Fresno County,256229.0,738171.0,2674423.0,665726.0,667980.0,311837.0,456035.0,327923.0,127967.0,60636.0,43687.0,9615.0,3017.0
790556,County,2020/09/04,6.0,CA,6019.0,Fresno County,267619.0,726781.0,2562595.0,613094.0,640223.0,285250.0,444834.0,319081.0,133983.0,66009.0,46809.0,10616.0,2696.0
793695,County,2020/09/05,6.0,CA,6019.0,Fresno County,276642.0,717758.0,2492529.0,628851.0,653119.0,280052.0,388256.0,294953.0,124325.0,67072.0,44560.0,9051.0,2290.0
795398,County,2020/09/06,6.0,CA,6019.0,Fresno County,291691.0,702709.0,2235092.0,541849.0,587432.0,259071.0,340352.0,263481.0,116852.0,61617.0,50233.0,11129.0,3076.0
800164,County,2020/09/07,6.0,CA,6019.0,Fresno County,298307.0,696093.0,2156455.0,509074.0,569060.0,250954.0,348115.0,250761.0,107517.0,54888.0,51700.0,11882.0,2504.0
803358,County,2020/09/08,6.0,CA,6019.0,Fresno County,279851.0,714549.0,2469325.0,593025.0,600980.0,281326.0,430638.0,327357.0,120702.0,57185.0,47225.0,8407.0,2480.0
804985,County,2020/09/09,6.0,CA,6019.0,Fresno County,277971.0,716429.0,2405471.0,554658.0,580495.0,278709.0,427631.0,320639.0,123274.0,59610.0,47712.0,9538.0,3205.0
809754,County,2020/09/10,6.0,CA,6019.0,Fresno County,275827.0,718573.0,2416302.0,570931.0,580828.0,284719.0,415254.0,326153.0,126682.0,56066.0,42287.0,10715.0,2667.0
812939,County,2020/09/11,6.0,CA,6019.0,Fresno County,270289.0,724111.0,2503045.0,585808.0,602223.0,301752.0,431320.0,334642.0,127411.0,59131.0,47484.0,10226.0,3048.0
814567,County,2020/09/12,6.0,CA,6019.0,Fresno County,294311.0,700089.0,2210969.0,514442.0,559260.0,256827.0,372840.0,276170.0,121243.0,49978.0,46707.0,10587.0,2915.0
819316,County,2020/09/13,6.0,CA,6019.0,Fresno County,287005.0,707395.0,2131383.0,459660.0,578194.0,253031.0,357136.0,272587.0,100588.0,54499.0,42584.0,10086.0,3018.0
822522,County,2020/09/14,6.0,CA,6019.0,Fresno County,287848.0,706552.0,2402717.0,548051.0,597702.0,289636.0,415215.0,310219.0,133282.0,53670.0,43199.0,9040.0,2703.0
825715,County,2020/09/15,6.0,CA,6019.0,Fresno County,283424.0,710976.0,2359042.0,533422.0,567130.0,284786.0,420538.0,318818.0,122402.0,54450.0,44865.0,9245.0,3386.0
827343,County,2020/09/16,6.0,CA,6019.0,Fresno County,284630.0,709770.0,2370993.0,530821.0,583051.0,273458.0,429089.0,313971.0,128286.0,52331.0,45455.0,11036.0,3495.0
830537,County,2020/09/17,6.0,CA,6019.0,Fresno County,279253.0,715147.0,2423501.0,541423.0,605463.0,291043.0,427406.0,314727.0,127332.0,58710.0,44203.0,9728.0,3466.0
835298,County,2020/09/18,6.0,CA,6019.0,Fresno County,275787.0,718613.0,2538436.0,577343.0,642483.0,301714.0,431869.0,327999.0,129635.0,62298.0,51404.0,10514.0,3177.0
836925,County,2020/09/19,6.0,CA,6019.0,Fresno County,286198.0,708202.0,2552412.0,605116.0,681521.0,302913.0,418445.0,304001.0,120708.0,57614.0,50330.0,9218.0,2546.0
840118,County,2020/09/20,6.0,CA,6019.0,Fresno County,296469.0,697931.0,2169834.0,526785.0,600441.0,265986.0,347127.0,230926.0,98192.0,48730.0,42130.0,7463.0,2054.0
844906,County,2020/09/21,6.0,CA,6019.0,Fresno County,298018.0,696382.0,2418327.0,572113.0,609409.0,280791.0,419702.0,308464.0,135056.0,56028.0,29888.0,5611.0,1265.0
848074,County,2020/09/22,6.0,CA,6019.0,Fresno County,275749.0,718651.0,2509284.0,611098.0,635753.0,281961.0,435340.0,316367.0,139149.0,55982.0,26963.0,5842.0,829.0
849701,County,2020/09/23,6.0,CA,6019.0,Fresno County,266868.0,727532.0,2563841.0,607057.0,646201.0,290640.0,448094.0,334284.0,144224.0,59141.0,27707.0,5395.0,1098.0
854467,County,2020/09/24,6.0,CA,6019.0,Fresno County,264682.0,729718.0,2525807.0,589646.0,637003.0,284495.0,448023.0,324666.0,146999.0,60417.0,26806.0,6138.0,1614.0
857655,County,2020/09/25,6.0,CA,6019.0,Fresno County,257610.0,736790.0,2703576.0,633879.0,658899.0,331371.0,484721.0,346489.0,146535.0,63025.0,31400.0,6219.0,1038.0
859283,County,2020/09/26,6.0,CA,6019.0,Fresno County,282180.0,712220.0,2557288.0,584790.0,672815.0,317140.0,445485.0,305703.0,132548.0,60429.0,30763.0,6554.0,1061.0
864030,County,2020/09/27,6.0,CA,6019.0,Fresno County,285696.0,708704.0,2294985.0,553412.0,614703.0,285401.0,387489.0,255223.0,105587.0,51116.0,31952.0,8829.0,1273.0
867238,County,2020/09/28,6.0,CA,6019.0,Fresno County,275278.0,719122.0,2548619.0,606866.0,674505.0,287290.0,440758.0,318852.0,137595.0,50349.0,26395.0,5219.0,790.0
868865,County,2020/09/29,6.0,CA,6019.0,Fresno County,273269.0,721131.0,2345067.0,535282.0,554829.0,270997.0,426547.0,327152.0,134600.0,52396.0,37028.0,5420.0,816.0
872059,County,2020/09/30,6.0,CA,6019.0,Fresno County,276159.0,718241.0,2323157.0,504986.0,574363.0,270216.0,421408.0,323179.0,141137.0,46219.0,36033.0,4687.0,929.0
876799,County,2020/10/01,6.0,CA,6019.0,Fresno County,267293.0,727107.0,2398804.0,560571.0,612303.0,276682.0,411483.0,317738.0,124854.0,49667.0,38503.0,5844.0,1159.0
880014,County,2020/10/02,6.0,CA,6019.0,Fresno County,291030.0,703370.0,2257887.0,497196.0,584257.0,273827.0,401310.0,295277.0,111405.0,48226.0,39505.0,6075.0,809.0
881641,County,2020/10/03,6.0,CA,6019.0,Fresno County,298490.0,695910.0,2237123.0,516913.0,586316.0,276951.0,385400.0,271065.0,111913.0,44298.0,38406.0,5125.0,736.0
885209,County,2020/10/04,6.0,CA,6019.0,Fresno County,307983.0,686417.0,2023006.0,482472.0,533919.0,257347.0,318287.0,244071.0,94428.0,45994.0,38675.0,6593.0,1220.0
888128,County,2020/10/05,6.0,CA,6019.0,Fresno County,296839.0,697561.0,2153538.0,468020.0,561082.0,269448.0,369040.0,281274.0,107817.0,53041.0,38529.0,4491.0,796.0
891511,County,2020/10/06,6.0,CA,6019.0,Fresno County,285416.0,708984.0,2206815.0,494262.0,554126.0,270831.0,388568.0,293398.0,112337.0,51712.0,36209.0,4485.0,887.0
894909,County,2020/10/07,6.0,CA,6019.0,Fresno County,280236.0,714164.0,2329683.0,517360.0,574117.0,298323.0,411739.0,318174.0,121103.0,49526.0,34635.0,3839.0,867.0
897675,County,2020/10/08,6.0,CA,6019.0,Fresno County,278389.0,716011.0,2176472.0,469264.0,527558.0,270572.0,395146.0,300520.0,115829.0,54819.0,37590.0,4421.0,753.0
900904,County,2020/10/09,6.0,CA,6019.0,Fresno County,282967.0,711433.0,2292137.0,502462.0,557512.0,284728.0,406649.0,315632.0,124665.0,53696.0,40785.0,5308.0,700.0
904045,County,2020/10/10,6.0,CA,6019.0,Fresno County,293417.0,700983.0,2214341.0,475521.0,564619.0,278092.0,382542.0,297652.0,119944.0,50615.0,39337.0,5358.0,661.0
907214,County,2020/10/11,6.0,CA,6019.0,Fresno County,303223.0,691177.0,2096930.0,486051.0,550116.0,266194.0,346268.0,245596.0,101807.0,50974.0,43484.0,5948.0,492.0
913220,County,2020/10/12,6.0,CA,6019.0,Fresno County,288539.0,705861.0,2164885.0,492973.0,541860.0,263040.0,367809.0,281875.0,114967.0,55149.0,42110.0,4634.0,468.0
916494,County,2020/10/13,6.0,CA,6019.0,Fresno County,282875.0,711525.0,2151369.0,477358.0,531898.0,261666.0,392183.0,275465.0,114354.0,54090.0,38480.0,5094.0,781.0
919569,County,2020/10/14,6.0,CA,6019.0,Fresno County,279956.0,714444.0,2109686.0,474578.0,505590.0,261385.0,370005.0,284430.0,113247.0,53731.0,39679.0,5963.0,1078.0
922920,County,2020/10/15,6.0,CA,6019.0,Fresno County,280214.0,714186.0,2061699.0,419340.0,509538.0,262274.0,374472.0,286907.0,111159.0,52388.0,38284.0,6359.0,978.0
925999,County,2020/10/16,6.0,CA,6019.0,Fresno County,272178.0,722222.0,2214598.0,471097.0,548200.0,272962.0,394520.0,303948.0,121451.0,49757.0,45168.0,6273.0,1222.0
929136,County,2020/10/17,6.0,CA,6019.0,Fresno County,289705.0,704695.0,2142186.0,498116.0,544992.0,267051.0,358942.0,270825.0,108339.0,46939.0,40348.0,5642.0,992.0
932434,County,2020/10/18,6.0,CA,6019.0,Fresno County,296340.0,698060.0,2006303.0,443708.0,536793.0,252972.0,345482.0,232119.0,97589.0,47417.0,42573.0,6661.0,989.0
935606,County,2020/10/19,6.0,CA,6019.0,Fresno County,284233.0,710167.0,2171003.0,494462.0,549955.0,261638.0,376860.0,280792.0,112625.0,46549.0,40858.0,6175.0,1089.0
938601,County,2020/10/20,6.0,CA,6019.0,Fresno County,292019.0,702381.0,2132797.0,484971.0,528877.0,261472.0,368396.0,270540.0,117928.0,53555.0,40904.0,5194.0,960.0
942107,County,2020/10/21,6.0,CA,6019.0,Fresno County,292611.0,701789.0,2127461.0,472733.0,553977.0,254028.0,362455.0,273670.0,112395.0,47812.0,42283.0,7007.0,1101.0
944182,County,2020/10/22,6.0,CA,6019.0,Fresno County,287607.0,706793.0,2197125.0,500814.0,555945.0,271094.0,378085.0,274929.0,113049.0,54669.0,40678.0,6763.0,1099.0
947820,County,2020/10/23,6.0,CA,6019.0,Fresno County,278059.0,716341.0,2349822.0,537730.0,606035.0,290258.0,400331.0,277884.0,119600.0,60744.0,48666.0,7584.0,990.0
951539,County,2020/10/24,6.0,CA,6019.0,Fresno County,291360.0,703040.0,2411464.0,570636.0,634877.0,297803.0,422379.0,271166.0,116521.0,59906.0,32431.0,4874.0,871.0
