,Level,Date,State FIPS,State Postal Code,County FIPS,County Name,Population Staying at Home,Population Not Staying at Home,Number of Trips,Number of Trips <1,Number of Trips 1-3,Number of Trips 3-5,Number of Trips 5-10,Number of Trips 10-25,Number of Trips 25-50,Number of Trips 50-100,Number of Trips 100-250,Number of Trips 250-500,Number of Trips >=500
3044,County,2020/01/01,54.0,WV,54107.0,Wood County,24225.0,59978.0,226560.0,53031.0,71233.0,24602.0,37372.0,27131.0,7848.0,3610.0,1463.0,125.0,145.0
3981,County,2020/01/02,54.0,WV,54107.0,Wood County,20138.0,64065.0,305049.0,73411.0,91935.0,30671.0,49991.0,41928.0,9133.0,5162.0,2654.0,125.0,39.0
6904,County,2020/01/03,54.0,WV,54107.0,Wood County,20119.0,64084.0,304764.0,72809.0,95859.0,33616.0,48049.0,37469.0,8907.0,5506.0,2372.0,130.0,47.0
11166,County,2020/01/04,54.0,WV,54107.0,Wood County,21997.0,62206.0,275811.0,70190.0,82699.0,30767.0,43713.0,33440.0,7562.0,4928.0,2289.0,125.0,98.0
15820,County,2020/01/05,54.0,WV,54107.0,Wood County,23087.0,61116.0,248649.0,59721.0,77775.0,28506.0,44177.0,26146.0,6969.0,3486.0,1689.0,94.0,86.0
19063,County,2020/01/06,54.0,WV,54107.0,Wood County,20275.0,63928.0,307159.0,77142.0,97348.0,33113.0,46145.0,36694.0,8816.0,5918.0,1782.0,119.0,82.0
22258,County,2020/01/07,54.0,WV,54107.0,Wood County,20206.0,63997.0,310555.0,80575.0,98904.0,31519.0,47744.0,34585.0,10368.0,4949.0,1810.0,60.0,41.0
25452,County,2020/01/08,54.0,WV,54107.0,Wood County,19363.0,64840.0,317576.0,86221.0,94144.0,35938.0,48686.0,36937.0,9350.0,4139.0,1947.0,141.0,73.0
27079,County,2020/01/09,54.0,WV,54107.0,Wood County,20086.0,64117.0,325506.0,88154.0,98950.0,34610.0,48865.0,38232.0,9084.0,5205.0,2222.0,117.0,67.0
31840,County,2020/01/10,54.0,WV,54107.0,Wood County,18895.0,65308.0,345173.0,92449.0,106967.0,36186.0,51991.0,39141.0,10966.0,4878.0,2476.0,61.0,58.0
33518,County,2020/01/11,54.0,WV,54107.0,Wood County,20682.0,63521.0,305113.0,83623.0,98620.0,33006.0,43414.0,33614.0,7275.0,4038.0,1407.0,103.0,13.0
36673,County,2020/01/12,54.0,WV,54107.0,Wood County,23010.0,61193.0,274634.0,76615.0,83931.0,29843.0,38499.0,32047.0,7156.0,4391.0,2045.0,77.0,30.0
41449,County,2020/01/13,54.0,WV,54107.0,Wood County,19904.0,64299.0,302732.0,75593.0,94871.0,33402.0,47771.0,36864.0,8053.0,4194.0,1816.0,115.0,53.0
43078,County,2020/01/14,54.0,WV,54107.0,Wood County,19677.0,64526.0,322635.0,84376.0,101234.0,33623.0,47906.0,39255.0,9572.0,4586.0,1927.0,110.0,46.0
46229,County,2020/01/15,54.0,WV,54107.0,Wood County,20464.0,63739.0,326919.0,86570.0,99835.0,33750.0,50308.0,38726.0,10986.0,4957.0,1630.0,91.0,66.0
49334,County,2020/01/16,54.0,WV,54107.0,Wood County,19393.0,64810.0,324269.0,90248.0,97873.0,34317.0,51134.0,34900.0,8624.0,5131.0,1854.0,117.0,71.0
52672,County,2020/01/17,54.0,WV,54107.0,Wood County,18251.0,65952.0,343834.0,88792.0,109193.0,33079.0,52727.0,39527.0,11272.0,5932.0,3148.0,114.0,50.0
55822,County,2020/01/18,54.0,WV,54107.0,Wood County,21789.0,62414.0,284329.0,78147.0,83745.0,30431.0,45952.0,28942.0,8047.0,6727.0,2188.0,72.0,78.0
59019,County,2020/01/19,54.0,WV,54107.0,Wood County,22682.0,61521.0,293272.0,82711.0,94713.0,29501.0,42883.0,30201.0,7397.0,3286.0,2376.0,153.0,51.0
63780,County,2020/01/20,54.0,WV,54107.0,Wood County,21292.0,62911.0,297505.0,86105.0,89551.0,31652.0,42656.0,33218.0,7230.0,4521.0,2371.0,121.0,80.0
65408,County,2020/01/21,54.0,WV,54107.0,Wood County,19793.0,64410.0,326722.0,88605.0,103108.0,33436.0,46782.0,37249.0,9511.0,5739.0,2130.0,111.0,51.0
70168,County,2020/01/22,54.0,WV,54107.0,Wood County,18838.0,65365.0,333882.0,91583.0,99438.0,37465.0,51264.0,37822.0,9306.0,4886.0,1962.0,71.0,85.0
71794,County,2020/01/23,54.0,WV,54107.0,Wood County,19427.0,64776.0,331868.0,95196.0,102028.0,34230.0,49662.0,34926.0,8327.0,4925.0,2346.0,166.0,62.0
76556,County,2020/01/24,54.0,WV,54107.0,Wood County,19657.0,64546.0,334048.0,91927.0,107197.0,31697.0,49278.0,36736.0,9147.0,5483.0,2434.0,81.0,68.0
79743,County,2020/01/25,54.0,WV,54107.0,Wood County,21513.0,62690.0,298379.0,84311.0,92598.0,29802.0,44494.0,30219.0,9164.0,5205.0,2389.0,123.0,74.0
82894,County,2020/01/26,54.0,WV,54107.0,Wood County,21815.0,62388.0,268179.0,72594.0,83412.0,28389.0,43624.0,28794.0,5826.0,3370.0,1984.0,129.0,57.0
83476,County,2020/01/27,54.0,WV,54107.0,Wood County,19561.0,64642.0,312040.0,89876.0,90898.0,32483.0,47676.0,35307.0,8605.0,5136.0,1929.0,77.0,53.0
87828,County,2020/01/28,54.0,WV,54107.0,Wood County,19052.0,65151.0,320179.0,92590.0,95653.0,32904.0,47370.0,33596.0,10124.0,5591.0,2147.0,135.0,69.0
90934,County,2020/01/29,54.0,WV,54107.0,Wood County,19810.0,64393.0,333155.0,92353.0,104346.0,33947.0,47818.0,39126.0,7958.0,4942.0,2462.0,104.0,99.0
95718,County,2020/01/30,54.0,WV,54107.0,Wood County,19118.0,65085.0,308711.0,80373.0,88171.0,36189.0,47745.0,37452.0,9875.0,5992.0,2565.0,266.0,83.0
98914,County,2020/01/31,54.0,WV,54107.0,Wood County,18259.0,65944.0,319555.0,81635.0,95434.0,37210.0,50909.0,36634.0,9066.0,5423.0,2812.0,238.0,194.0
102101,County,2020/02/01,54.0,WV,54107.0,Wood County,19728.0,64475.0,301295.0,77774.0,91907.0,32984.0,47659.0,32309.0,9229.0,6216.0,2861.0,218.0,138.0
105302,County,2020/02/02,54.0,WV,54107.0,Wood County,22483.0,61720.0,271014.0,70936.0,82974.0,33238.0,43447.0,26448.0,7075.0,4579.0,1964.0,197.0,156.0
106928,County,2020/02/03,54.0,WV,54107.0,Wood County,18669.0,65534.0,319991.0,81257.0,96863.0,38479.0,50679.0,36235.0,8663.0,5159.0,2368.0,130.0,158.0
110123,County,2020/02/04,54.0,WV,54107.0,Wood County,19259.0,64944.0,324241.0,93391.0,94781.0,35885.0,49075.0,33284.0,9587.0,5150.0,2742.0,191.0,155.0
113269,County,2020/02/05,54.0,WV,54107.0,Wood County,19270.0,64933.0,316571.0,83166.0,91872.0,35822.0,48873.0,38245.0,8850.0,6216.0,3103.0,335.0,89.0
116415,County,2020/02/06,54.0,WV,54107.0,Wood County,18620.0,65583.0,304375.0,82521.0,93663.0,32925.0,46102.0,32246.0,8348.0,5224.0,2925.0,304.0,117.0
119678,County,2020/02/07,54.0,WV,54107.0,Wood County,20017.0,64186.0,291663.0,77636.0,90462.0,33457.0,43308.0,30726.0,8848.0,4844.0,2007.0,256.0,119.0
124466,County,2020/02/08,54.0,WV,54107.0,Wood County,21346.0,62857.0,287970.0,78846.0,86399.0,32336.0,44489.0,30701.0,7783.0,5077.0,2047.0,217.0,75.0
127061,County,2020/02/09,54.0,WV,54107.0,Wood County,22005.0,62198.0,218389.0,49820.0,64393.0,36870.0,35685.0,21118.0,4358.0,3939.0,1755.0,356.0,95.0
128210,County,2020/02/10,54.0,WV,54107.0,Wood County,18180.0,66023.0,278829.0,66364.0,81869.0,42405.0,44877.0,28183.0,7096.0,5122.0,2373.0,360.0,180.0
132972,County,2020/02/11,54.0,WV,54107.0,Wood County,16983.0,67220.0,280649.0,68355.0,80599.0,42596.0,43937.0,29706.0,6584.0,5745.0,2605.0,350.0,172.0
134575,County,2020/02/12,54.0,WV,54107.0,Wood County,16543.0,67660.0,286253.0,68161.0,80871.0,44045.0,45645.0,31063.0,6812.0,6401.0,2668.0,404.0,183.0
140436,County,2020/02/13,54.0,WV,54107.0,Wood County,16633.0,67570.0,273796.0,61927.0,80823.0,42856.0,44982.0,27256.0,7164.0,5434.0,2722.0,400.0,232.0
141965,County,2020/02/14,54.0,WV,54107.0,Wood County,15499.0,68704.0,296745.0,66196.0,83430.0,50909.0,45978.0,32506.0,7599.0,6297.0,3133.0,449.0,248.0
145262,County,2020/02/15,54.0,WV,54107.0,Wood County,17439.0,66764.0,270682.0,57714.0,74095.0,46581.0,44988.0,30987.0,7945.0,4829.0,2840.0,468.0,235.0
148450,County,2020/02/16,54.0,WV,54107.0,Wood County,19768.0,64435.0,239784.0,48472.0,65390.0,44888.0,39143.0,26488.0,6790.0,5070.0,2951.0,378.0,214.0
153212,County,2020/02/17,54.0,WV,54107.0,Wood County,20904.0,63299.0,236014.0,51051.0,66522.0,39311.0,40530.0,25968.0,5707.0,4152.0,2275.0,357.0,141.0
156406,County,2020/02/18,54.0,WV,54107.0,Wood County,17169.0,67034.0,275387.0,58395.0,80884.0,40256.0,44821.0,35387.0,6966.0,5104.0,2937.0,458.0,179.0
158034,County,2020/02/19,54.0,WV,54107.0,Wood County,17727.0,66476.0,280514.0,60079.0,85677.0,36636.0,46057.0,37075.0,7257.0,5002.0,2290.0,296.0,145.0
161095,County,2020/02/20,54.0,WV,54107.0,Wood County,18637.0,65566.0,268330.0,63571.0,74999.0,32617.0,47455.0,34578.0,6906.0,5321.0,2526.0,265.0,92.0
165988,County,2020/02/21,54.0,WV,54107.0,Wood County,17716.0,66487.0,282454.0,64347.0,86723.0,31775.0,47989.0,34114.0,8212.0,5688.0,3086.0,403.0,117.0
167566,County,2020/02/22,54.0,WV,54107.0,Wood County,19392.0,64811.0,277129.0,64303.0,83231.0,31046.0,48008.0,30724.0,9433.0,6751.0,3155.0,308.0,170.0
172332,County,2020/02/23,54.0,WV,54107.0,Wood County,20667.0,63536.0,243028.0,53685.0,75175.0,28992.0,40394.0,30037.0,6689.0,5556.0,2256.0,149.0,95.0
175576,County,2020/02/24,54.0,WV,54107.0,Wood County,16073.0,68130.0,275083.0,59305.0,76190.0,42658.0,52615.0,30570.0,5840.0,5521.0,2006.0,267.0,111.0
178715,County,2020/02/25,54.0,WV,54107.0,Wood County,16037.0,68166.0,285231.0,66311.0,82366.0,35638.0,50648.0,34297.0,7525.0,5285.0,2666.0,340.0,155.0
181908,County,2020/02/26,54.0,WV,54107.0,Wood County,18562.0,65641.0,277066.0,62739.0,98531.0,30463.0,40802.0,31091.0,5859.0,4284.0,2936.0,168.0,193.0
182983,County,2020/02/27,54.0,WV,54107.0,Wood County,16924.0,67279.0,284510.0,68430.0,90544.0,30658.0,46190.0,33447.0,7078.0,5861.0,2106.0,99.0,97.0
188346,County,2020/02/28,54.0,WV,54107.0,Wood County,16796.0,67407.0,301316.0,74637.0,96263.0,31809.0,49402.0,34167.0,7451.0,4798.0,2493.0,152.0,144.0
191540,County,2020/02/29,54.0,WV,54107.0,Wood County,17808.0,66395.0,278717.0,66563.0,85621.0,32806.0,41974.0,32602.0,8859.0,6573.0,3340.0,215.0,164.0
193165,County,2020/03/01,54.0,WV,54107.0,Wood County,21146.0,63057.0,280337.0,68429.0,89520.0,30227.0,43302.0,33171.0,8014.0,4642.0,2615.0,273.0,144.0
196387,County,2020/03/02,54.0,WV,54107.0,Wood County,18743.0,65460.0,305341.0,75395.0,95741.0,33905.0,46747.0,36689.0,7989.0,5533.0,2838.0,263.0,241.0
200413,County,2020/03/03,54.0,WV,54107.0,Wood County,17729.0,66474.0,314360.0,77155.0,99673.0,33391.0,48318.0,35809.0,9559.0,6821.0,3261.0,272.0,101.0
201873,County,2020/03/04,54.0,WV,54107.0,Wood County,18039.0,66164.0,319185.0,75476.0,97595.0,34572.0,48790.0,41161.0,10087.0,6865.0,4207.0,275.0,157.0
205894,County,2020/03/05,54.0,WV,54107.0,Wood County,16802.0,67401.0,329176.0,84975.0,95847.0,33264.0,53087.0,39225.0,11776.0,6829.0,3733.0,275.0,165.0
209012,County,2020/03/06,54.0,WV,54107.0,Wood County,17911.0,66292.0,327742.0,81385.0,96300.0,34239.0,52956.0,39419.0,10353.0,8302.0,4336.0,268.0,184.0
212439,County,2020/03/07,54.0,WV,54107.0,Wood County,19343.0,64860.0,301823.0,79449.0,89785.0,31441.0,45356.0,34059.0,8918.0,8548.0,3870.0,207.0,190.0
215529,County,2020/03/08,54.0,WV,54107.0,Wood County,20727.0,63476.0,265183.0,61898.0,79229.0,30167.0,40597.0,34848.0,8197.0,6227.0,3587.0,299.0,134.0
220286,County,2020/03/09,54.0,WV,54107.0,Wood County,19111.0,65092.0,300102.0,76582.0,87225.0,34244.0,47348.0,34497.0,10379.0,6079.0,3355.0,272.0,121.0
223479,County,2020/03/10,54.0,WV,54107.0,Wood County,18730.0,65473.0,284317.0,64953.0,85914.0,31857.0,45646.0,35964.0,10093.0,6024.0,3442.0,301.0,123.0
225153,County,2020/03/11,54.0,WV,54107.0,Wood County,17965.0,66238.0,241365.0,56383.0,72109.0,26272.0,38177.0,25417.0,7997.0,7266.0,6870.0,611.0,263.0
228338,County,2020/03/12,54.0,WV,54107.0,Wood County,18562.0,65641.0,266340.0,64662.0,81552.0,27122.0,39609.0,33227.0,8179.0,4768.0,6161.0,799.0,261.0
231497,County,2020/03/13,54.0,WV,54107.0,Wood County,17833.0,66370.0,280145.0,68900.0,78027.0,31671.0,43473.0,33733.0,10952.0,6455.0,5958.0,676.0,300.0
234550,County,2020/03/14,54.0,WV,54107.0,Wood County,21585.0,62618.0,221379.0,52743.0,64445.0,19893.0,36598.0,25862.0,9528.0,6218.0,4664.0,865.0,563.0
239450,County,2020/03/15,54.0,WV,54107.0,Wood County,25979.0,58224.0,233441.0,55722.0,76301.0,27346.0,36033.0,24654.0,5953.0,5013.0,1911.0,398.0,110.0
242643,County,2020/03/16,54.0,WV,54107.0,Wood County,21978.0,62225.0,276820.0,62499.0,80663.0,33697.0,46944.0,34657.0,9092.0,5904.0,2850.0,321.0,193.0
244308,County,2020/03/17,54.0,WV,54107.0,Wood County,24883.0,59320.0,264409.0,63384.0,78838.0,29356.0,41453.0,32758.0,9363.0,5878.0,2948.0,268.0,163.0
248992,County,2020/03/18,54.0,WV,54107.0,Wood County,26018.0,58185.0,248654.0,58621.0,71660.0,28647.0,38874.0,33457.0,8015.0,5659.0,3347.0,243.0,131.0
250670,County,2020/03/19,54.0,WV,54107.0,Wood County,26026.0,58177.0,253969.0,61980.0,77437.0,28081.0,43153.0,27781.0,7339.0,5085.0,2703.0,257.0,153.0
255420,County,2020/03/20,54.0,WV,54107.0,Wood County,25768.0,58435.0,262292.0,63953.0,80296.0,30028.0,40664.0,29369.0,9829.0,4817.0,2980.0,256.0,100.0
258613,County,2020/03/21,54.0,WV,54107.0,Wood County,29380.0,54823.0,226889.0,56239.0,73688.0,27488.0,34636.0,20952.0,6532.0,4843.0,2174.0,239.0,98.0
261801,County,2020/03/22,54.0,WV,54107.0,Wood County,28492.0,55711.0,185212.0,50094.0,57222.0,18253.0,27273.0,20699.0,5133.0,4322.0,1954.0,224.0,38.0
263437,County,2020/03/23,54.0,WV,54107.0,Wood County,25542.0,58661.0,222038.0,52128.0,72195.0,24258.0,35309.0,24214.0,6849.0,4536.0,2302.0,189.0,58.0
268193,County,2020/03/24,54.0,WV,54107.0,Wood County,26505.0,57698.0,209221.0,51978.0,60285.0,23981.0,33505.0,24654.0,7006.0,4996.0,2511.0,202.0,103.0
271390,County,2020/03/25,54.0,WV,54107.0,Wood County,27516.0,56687.0,190591.0,47329.0,55794.0,19112.0,29319.0,25071.0,7094.0,4234.0,2296.0,196.0,146.0
273016,County,2020/03/26,54.0,WV,54107.0,Wood County,26848.0,57355.0,206353.0,52089.0,62705.0,21546.0,32779.0,24067.0,6079.0,4573.0,2205.0,199.0,111.0
276203,County,2020/03/27,54.0,WV,54107.0,Wood County,26285.0,57918.0,197280.0,47451.0,61744.0,21911.0,28722.0,22410.0,6297.0,6362.0,1969.0,286.0,128.0
280965,County,2020/03/28,54.0,WV,54107.0,Wood County,26734.0,57469.0,199255.0,49283.0,64183.0,20801.0,34892.0,19269.0,5530.0,2632.0,2354.0,211.0,100.0
284166,County,2020/03/29,54.0,WV,54107.0,Wood County,28034.0,56169.0,169362.0,43381.0,50283.0,18900.0,31570.0,15512.0,4227.0,3114.0,2060.0,216.0,99.0
285794,County,2020/03/30,54.0,WV,54107.0,Wood County,25098.0,59105.0,215493.0,57152.0,62018.0,24407.0,33232.0,23845.0,8300.0,4144.0,2078.0,207.0,110.0
288989,County,2020/03/31,54.0,WV,54107.0,Wood County,26741.0,57462.0,193133.0,40909.0,59289.0,21421.0,31399.0,22704.0,8771.0,5798.0,2497.0,253.0,92.0
293748,County,2020/04/01,54.0,WV,54107.0,Wood County,26109.0,58094.0,200251.0,46017.0,56541.0,24297.0,34265.0,24015.0,7627.0,5205.0,1965.0,189.0,130.0
295376,County,2020/04/02,54.0,WV,54107.0,Wood County,26686.0,57517.0,211368.0,46939.0,66886.0,23557.0,36186.0,22997.0,7273.0,4610.0,2534.0,274.0,112.0
300136,County,2020/04/03,54.0,WV,54107.0,Wood County,24870.0,59333.0,231116.0,50776.0,76458.0,27664.0,36019.0,23563.0,8099.0,5672.0,2553.0,199.0,113.0
301762,County,2020/04/04,54.0,WV,54107.0,Wood County,26611.0,57592.0,194351.0,46769.0,63590.0,22366.0,33511.0,18520.0,5319.0,2488.0,1424.0,238.0,126.0
306518,County,2020/04/05,54.0,WV,54107.0,Wood County,27703.0,56500.0,171996.0,36441.0,57109.0,22957.0,27175.0,16635.0,5512.0,4001.0,1861.0,198.0,107.0
309718,County,2020/04/06,54.0,WV,54107.0,Wood County,25506.0,58697.0,215853.0,49324.0,68743.0,27101.0,35778.0,23756.0,6530.0,2823.0,1536.0,152.0,110.0
312909,County,2020/04/07,54.0,WV,54107.0,Wood County,25992.0,58211.0,208215.0,51483.0,60048.0,23079.0,33506.0,26399.0,7404.0,4872.0,1250.0,100.0,74.0
314539,County,2020/04/08,54.0,WV,54107.0,Wood County,26796.0,57407.0,227881.0,61378.0,71141.0,22699.0,31796.0,25645.0,8337.0,4555.0,2074.0,145.0,111.0
317757,County,2020/04/09,54.0,WV,54107.0,Wood County,27704.0,56499.0,210465.0,49050.0,63003.0,22472.0,36194.0,26491.0,7322.0,4292.0,1311.0,168.0,162.0
322494,County,2020/04/10,54.0,WV,54107.0,Wood County,25193.0,59010.0,218718.0,54873.0,69200.0,25934.0,31584.0,24596.0,6407.0,3723.0,2160.0,106.0,135.0
325688,County,2020/04/11,54.0,WV,54107.0,Wood County,25940.0,58263.0,219817.0,54992.0,67185.0,26371.0,36256.0,24081.0,6299.0,3436.0,917.0,169.0,111.0
328856,County,2020/04/12,54.0,WV,54107.0,Wood County,29221.0,54982.0,164811.0,40078.0,48590.0,18577.0,26802.0,21793.0,4617.0,3110.0,1105.0,93.0,46.0
330578,County,2020/04/13,54.0,WV,54107.0,Wood County,27151.0,57052.0,213437.0,53530.0,67100.0,21583.0,32821.0,23339.0,7616.0,5496.0,1829.0,62.0,61.0
333656,County,2020/04/14,54.0,WV,54107.0,Wood County,24698.0,59505.0,241492.0,59114.0,73416.0,26996.0,40392.0,25903.0,6866.0,5625.0,2826.0,169.0,185.0
336928,County,2020/04/15,54.0,WV,54107.0,Wood County,23832.0,60371.0,242521.0,68151.0,73202.0,26224.0,41091.0,24669.0,4015.0,2613.0,2383.0,82.0,91.0
341600,County,2020/04/16,54.0,WV,54107.0,Wood County,24544.0,59659.0,256405.0,62694.0,76431.0,25073.0,43880.0,32186.0,9244.0,4288.0,2360.0,154.0,95.0
341758,County,2020/04/17,54.0,WV,54107.0,Wood County,22756.0,61447.0,248601.0,61139.0,80255.0,27909.0,38717.0,23851.0,9028.0,4824.0,2550.0,220.0,108.0
348009,County,2020/04/18,54.0,WV,54107.0,Wood County,25109.0,59094.0,227747.0,54654.0,71101.0,23662.0,46787.0,19610.0,6235.0,4572.0,985.0,91.0,50.0
351240,County,2020/04/19,54.0,WV,54107.0,Wood County,25868.0,58335.0,189509.0,48109.0,57006.0,23909.0,29975.0,20671.0,5660.0,2648.0,1255.0,171.0,105.0
354440,County,2020/04/20,54.0,WV,54107.0,Wood County,23454.0,60749.0,234487.0,68303.0,83337.0,21431.0,28413.0,19203.0,8290.0,3173.0,1913.0,205.0,219.0
357627,County,2020/04/21,54.0,WV,54107.0,Wood County,25747.0,58456.0,234036.0,56981.0,73997.0,22797.0,36621.0,29024.0,7819.0,4018.0,2541.0,111.0,127.0
359255,County,2020/04/22,54.0,WV,54107.0,Wood County,25003.0,59200.0,233080.0,52587.0,78283.0,22497.0,33736.0,28202.0,10000.0,4848.0,2692.0,147.0,88.0
362362,County,2020/04/23,54.0,WV,54107.0,Wood County,25580.0,58623.0,224954.0,54653.0,66434.0,22845.0,35964.0,28888.0,9009.0,4998.0,2076.0,87.0,0.0
367247,County,2020/04/24,54.0,WV,54107.0,Wood County,25358.0,58845.0,234738.0,56641.0,77812.0,20258.0,37331.0,27307.0,7415.0,4749.0,3011.0,123.0,91.0
370406,County,2020/04/25,54.0,WV,54107.0,Wood County,26342.0,57861.0,252655.0,70134.0,84970.0,25085.0,34212.0,25288.0,7065.0,3935.0,1833.0,79.0,54.0
373598,County,2020/04/26,54.0,WV,54107.0,Wood County,27882.0,56321.0,193155.0,38062.0,72917.0,21380.0,29637.0,20563.0,5504.0,2694.0,2089.0,197.0,112.0
375226,County,2020/04/27,54.0,WV,54107.0,Wood County,23691.0,60512.0,262096.0,66058.0,79881.0,25492.0,41156.0,32494.0,9242.0,5558.0,1949.0,137.0,129.0
380001,County,2020/04/28,54.0,WV,54107.0,Wood County,24661.0,59542.0,246972.0,62543.0,74964.0,24496.0,36977.0,31081.0,9319.0,4741.0,2587.0,167.0,97.0
381628,County,2020/04/29,54.0,WV,54107.0,Wood County,23867.0,60336.0,265986.0,70573.0,78613.0,25878.0,42202.0,31613.0,9888.0,4995.0,1998.0,120.0,106.0
386374,County,2020/04/30,54.0,WV,54107.0,Wood County,24773.0,59430.0,242548.0,62615.0,75362.0,25295.0,36710.0,27195.0,7847.0,5336.0,2025.0,100.0,63.0
388049,County,2020/05/01,54.0,WV,54107.0,Wood County,23780.0,60423.0,260835.0,67400.0,81137.0,26456.0,40025.0,32219.0,7010.0,5105.0,1288.0,112.0,83.0
392762,County,2020/05/02,54.0,WV,54107.0,Wood County,23772.0,60431.0,253795.0,66531.0,83671.0,25820.0,35705.0,29616.0,6539.0,3967.0,1831.0,79.0,36.0
395910,County,2020/05/03,54.0,WV,54107.0,Wood County,27814.0,56389.0,203994.0,52883.0,67533.0,22484.0,29143.0,21805.0,5222.0,3269.0,1529.0,109.0,17.0
399150,County,2020/05/04,54.0,WV,54107.0,Wood County,23371.0,60832.0,272357.0,75817.0,86192.0,28117.0,39943.0,28008.0,7487.0,4585.0,2010.0,150.0,48.0
400777,County,2020/05/05,54.0,WV,54107.0,Wood County,23095.0,61108.0,258563.0,62649.0,82719.0,26025.0,40888.0,31237.0,8380.0,4483.0,2089.0,71.0,22.0
403955,County,2020/05/06,54.0,WV,54107.0,Wood County,23270.0,60933.0,255073.0,57978.0,80449.0,26569.0,40136.0,34035.0,8727.0,5070.0,1946.0,87.0,76.0
407159,County,2020/05/07,54.0,WV,54107.0,Wood County,22494.0,61709.0,275038.0,71764.0,82440.0,27377.0,40392.0,34332.0,9799.0,6135.0,2597.0,129.0,73.0
411889,County,2020/05/08,54.0,WV,54107.0,Wood County,24464.0,59739.0,251642.0,56220.0,81420.0,25780.0,41382.0,32963.0,7034.0,4802.0,1913.0,69.0,59.0
413468,County,2020/05/09,54.0,WV,54107.0,Wood County,24999.0,59204.0,267836.0,66095.0,85704.0,30918.0,40806.0,29581.0,7829.0,5409.0,1365.0,91.0,38.0
418314,County,2020/05/10,54.0,WV,54107.0,Wood County,25495.0,58708.0,237227.0,59780.0,76068.0,25613.0,35098.0,28185.0,6360.0,4518.0,1460.0,108.0,37.0
419989,County,2020/05/11,54.0,WV,54107.0,Wood County,20877.0,63326.0,270946.0,71271.0,82376.0,30515.0,41988.0,28373.0,8308.0,5259.0,2616.0,170.0,70.0
424700,County,2020/05/12,54.0,WV,54107.0,Wood County,20527.0,63676.0,308126.0,86997.0,93162.0,30993.0,43453.0,33161.0,12048.0,5706.0,2423.0,97.0,86.0
427896,County,2020/05/13,54.0,WV,54107.0,Wood County,20807.0,63396.0,301876.0,88958.0,84648.0,27756.0,46279.0,35299.0,10938.0,5890.0,1903.0,150.0,55.0
431090,County,2020/05/14,54.0,WV,54107.0,Wood County,20718.0,63485.0,279424.0,79570.0,81977.0,26604.0,41138.0,32753.0,8807.0,6223.0,2010.0,235.0,107.0
432718,County,2020/05/15,54.0,WV,54107.0,Wood County,21255.0,62948.0,288658.0,79511.0,84969.0,28342.0,44678.0,31019.0,10124.0,6578.0,3026.0,216.0,195.0
435942,County,2020/05/16,54.0,WV,54107.0,Wood County,21888.0,62315.0,296675.0,87756.0,90769.0,27920.0,42801.0,31139.0,9091.0,4558.0,2303.0,208.0,130.0
439094,County,2020/05/17,54.0,WV,54107.0,Wood County,20231.0,63972.0,277803.0,67083.0,86749.0,32078.0,41896.0,36402.0,6953.0,4936.0,1632.0,74.0,0.0
443866,County,2020/05/18,54.0,WV,54107.0,Wood County,17196.0,67007.0,332530.0,94093.0,98791.0,34175.0,47585.0,37682.0,11773.0,6208.0,1941.0,119.0,163.0
445494,County,2020/05/19,54.0,WV,54107.0,Wood County,17873.0,66330.0,286639.0,66481.0,88156.0,28615.0,46914.0,38039.0,9633.0,6031.0,2620.0,135.0,15.0
450254,County,2020/05/20,54.0,WV,54107.0,Wood County,18888.0,65315.0,295941.0,77015.0,89070.0,26338.0,46466.0,36572.0,11173.0,6521.0,2555.0,184.0,47.0
453145,County,2020/05/21,54.0,WV,54107.0,Wood County,17497.0,66706.0,277183.0,66615.0,80450.0,31215.0,46764.0,32456.0,9998.0,6852.0,2529.0,232.0,72.0
456641,County,2020/05/22,54.0,WV,54107.0,Wood County,16327.0,67876.0,313971.0,68015.0,96428.0,36252.0,55925.0,37188.0,9702.0,6573.0,3640.0,192.0,56.0
458264,County,2020/05/23,54.0,WV,54107.0,Wood County,17893.0,66310.0,308188.0,82257.0,90167.0,37693.0,49250.0,34701.0,6467.0,4911.0,2483.0,69.0,190.0
461432,County,2020/05/24,54.0,WV,54107.0,Wood County,21441.0,62762.0,271405.0,81415.0,77813.0,25158.0,40220.0,31571.0,7034.0,4556.0,3270.0,218.0,150.0
464684,County,2020/05/25,54.0,WV,54107.0,Wood County,21353.0,62850.0,266949.0,74140.0,83952.0,28852.0,37416.0,26306.0,8262.0,4998.0,2730.0,133.0,160.0
467839,County,2020/05/26,54.0,WV,54107.0,Wood County,18585.0,65618.0,305097.0,84114.0,93102.0,31121.0,44254.0,33848.0,9537.0,5462.0,3348.0,131.0,180.0
472608,County,2020/05/27,54.0,WV,54107.0,Wood County,19471.0,64732.0,334900.0,110147.0,96162.0,34357.0,44836.0,32126.0,8856.0,5263.0,2896.0,163.0,94.0
475806,County,2020/05/28,54.0,WV,54107.0,Wood County,19466.0,64737.0,297001.0,86906.0,86529.0,31078.0,43351.0,29738.0,9679.0,5449.0,4010.0,184.0,77.0
478994,County,2020/05/29,54.0,WV,54107.0,Wood County,22287.0,61916.0,310205.0,87883.0,98917.0,27809.0,46188.0,31346.0,8931.0,5654.0,3227.0,177.0,73.0
482194,County,2020/05/30,54.0,WV,54107.0,Wood County,21860.0,62343.0,287689.0,86173.0,86851.0,27040.0,41075.0,29306.0,8080.0,5327.0,3649.0,131.0,57.0
483702,County,2020/05/31,54.0,WV,54107.0,Wood County,21912.0,62291.0,277299.0,84257.0,88236.0,25055.0,36242.0,28475.0,7885.0,4086.0,2887.0,110.0,66.0
487063,County,2020/06/01,54.0,WV,54107.0,Wood County,19431.0,64772.0,285277.0,82260.0,85516.0,29569.0,40977.0,30410.0,8370.0,5027.0,2879.0,162.0,107.0
491749,County,2020/06/02,54.0,WV,54107.0,Wood County,20020.0,64183.0,293147.0,88427.0,83666.0,28234.0,41047.0,31080.0,10799.0,5703.0,3893.0,139.0,159.0
494969,County,2020/06/03,54.0,WV,54107.0,Wood County,18318.0,65885.0,327943.0,96134.0,93831.0,32908.0,47309.0,36747.0,10942.0,6238.0,3596.0,124.0,114.0
496589,County,2020/06/04,54.0,WV,54107.0,Wood County,19000.0,65203.0,298376.0,80516.0,91762.0,29126.0,44447.0,33158.0,9223.0,6171.0,3721.0,161.0,91.0
499791,County,2020/06/05,54.0,WV,54107.0,Wood County,18900.0,65303.0,322209.0,93798.0,93812.0,34934.0,46368.0,34643.0,8740.0,6167.0,3482.0,173.0,92.0
502939,County,2020/06/06,54.0,WV,54107.0,Wood County,21750.0,62453.0,272818.0,79921.0,78562.0,27942.0,38025.0,31102.0,8500.0,4596.0,3860.0,184.0,126.0
506130,County,2020/06/07,54.0,WV,54107.0,Wood County,20776.0,63427.0,256837.0,69612.0,81685.0,27469.0,36311.0,25308.0,6493.0,5730.0,3830.0,156.0,243.0
509352,County,2020/06/08,54.0,WV,54107.0,Wood County,17362.0,66841.0,336981.0,99815.0,98722.0,34604.0,50841.0,34613.0,9013.0,6182.0,2920.0,138.0,133.0
512556,County,2020/06/09,54.0,WV,54107.0,Wood County,19734.0,64469.0,307827.0,91982.0,91194.0,29486.0,45106.0,32544.0,8853.0,5727.0,2711.0,144.0,80.0
517337,County,2020/06/10,54.0,WV,54107.0,Wood County,20340.0,63863.0,291785.0,90211.0,79688.0,31571.0,41293.0,31782.0,8437.0,5494.0,2846.0,281.0,182.0
520495,County,2020/06/11,54.0,WV,54107.0,Wood County,19481.0,64722.0,301618.0,93661.0,78323.0,29667.0,47834.0,34483.0,9174.0,4736.0,3356.0,282.0,102.0
522167,County,2020/06/12,54.0,WV,54107.0,Wood County,20050.0,64153.0,307961.0,90925.0,86017.0,32412.0,46290.0,34446.0,8978.0,5733.0,2917.0,153.0,90.0
526903,County,2020/06/13,54.0,WV,54107.0,Wood County,20119.0,64084.0,306231.0,93847.0,82724.0,30344.0,44301.0,34465.0,10349.0,6141.0,3832.0,119.0,109.0
528539,County,2020/06/14,54.0,WV,54107.0,Wood County,22824.0,61379.0,238232.0,63491.0,72210.0,27014.0,32442.0,27235.0,5822.0,6427.0,3273.0,205.0,113.0
533298,County,2020/06/15,54.0,WV,54107.0,Wood County,20012.0,64191.0,281877.0,84682.0,81893.0,30354.0,39311.0,26564.0,9415.0,6007.0,3340.0,202.0,109.0
536517,County,2020/06/16,54.0,WV,54107.0,Wood County,20790.0,63413.0,309710.0,92356.0,86484.0,31296.0,40779.0,37175.0,12567.0,6600.0,2255.0,141.0,57.0
538119,County,2020/06/17,54.0,WV,54107.0,Wood County,19200.0,65003.0,314229.0,94158.0,85908.0,32227.0,45811.0,35232.0,9949.0,7330.0,3350.0,161.0,103.0
541267,County,2020/06/18,54.0,WV,54107.0,Wood County,19673.0,64530.0,298177.0,86762.0,83590.0,29310.0,46102.0,33314.0,9809.0,6489.0,2573.0,148.0,80.0
546033,County,2020/06/19,54.0,WV,54107.0,Wood County,19907.0,64296.0,292731.0,86549.0,80581.0,28680.0,44543.0,31937.0,10167.0,7100.0,2895.0,190.0,89.0
549268,County,2020/06/20,54.0,WV,54107.0,Wood County,20693.0,63510.0,283312.0,84969.0,76795.0,29243.0,44040.0,30064.0,9380.0,5754.0,2806.0,152.0,109.0
552456,County,2020/06/21,54.0,WV,54107.0,Wood County,22837.0,61366.0,251379.0,77450.0,66093.0,25519.0,42933.0,25845.0,6732.0,4482.0,2172.0,85.0,68.0
554090,County,2020/06/22,54.0,WV,54107.0,Wood County,20532.0,63671.0,285105.0,87889.0,78077.0,27731.0,41929.0,30029.0,8478.0,7764.0,2962.0,146.0,100.0
557277,County,2020/06/23,54.0,WV,54107.0,Wood County,20354.0,63849.0,276993.0,71947.0,83482.0,30285.0,42908.0,31370.0,7763.0,5840.0,3184.0,127.0,87.0
562044,County,2020/06/24,54.0,WV,54107.0,Wood County,21886.0,62317.0,274397.0,81436.0,78994.0,28994.0,38084.0,27997.0,8991.0,6481.0,3075.0,192.0,153.0
563672,County,2020/06/25,54.0,WV,54107.0,Wood County,20098.0,64105.0,301754.0,89564.0,84124.0,29551.0,45279.0,33642.0,8703.0,6793.0,3767.0,196.0,135.0
566924,County,2020/06/26,54.0,WV,54107.0,Wood County,20203.0,64000.0,285756.0,75905.0,90266.0,27258.0,41455.0,32212.0,8882.0,5488.0,3997.0,197.0,96.0
571618,County,2020/06/27,54.0,WV,54107.0,Wood County,20557.0,63646.0,294474.0,91799.0,86664.0,27720.0,41207.0,28831.0,8651.0,6585.0,2786.0,188.0,43.0
573240,County,2020/06/28,54.0,WV,54107.0,Wood County,21799.0,62404.0,263753.0,84223.0,74914.0,25765.0,38064.0,26808.0,5946.0,4715.0,2971.0,226.0,121.0
578013,County,2020/06/29,54.0,WV,54107.0,Wood County,21048.0,63155.0,269923.0,76162.0,79900.0,24427.0,40776.0,28499.0,9403.0,6899.0,3471.0,219.0,167.0
581212,County,2020/06/30,54.0,WV,54107.0,Wood County,20251.0,63952.0,267735.0,70762.0,79953.0,26585.0,40836.0,31099.0,9468.0,5670.0,2974.0,230.0,158.0
582859,County,2020/07/01,54.0,WV,54107.0,Wood County,20028.0,64175.0,291690.0,85171.0,86898.0,31830.0,42159.0,27252.0,9620.0,5164.0,3266.0,258.0,72.0
587595,County,2020/07/02,54.0,WV,54107.0,Wood County,21306.0,62897.0,320283.0,95064.0,89290.0,31366.0,48059.0,35708.0,9237.0,7210.0,3998.0,208.0,143.0
589233,County,2020/07/03,54.0,WV,54107.0,Wood County,23336.0,60867.0,284144.0,75477.0,89757.0,27104.0,41221.0,32031.0,8832.0,5457.0,3974.0,196.0,95.0
592437,County,2020/07/04,54.0,WV,54107.0,Wood County,24093.0,60110.0,243095.0,64573.0,76790.0,23188.0,35266.0,27403.0,7556.0,4669.0,3400.0,168.0,82.0
595629,County,2020/07/05,54.0,WV,54107.0,Wood County,22393.0,61810.0,237847.0,63169.0,71971.0,23633.0,36495.0,24955.0,7660.0,5683.0,3837.0,227.0,217.0
600372,County,2020/07/06,54.0,WV,54107.0,Wood County,22234.0,61969.0,249718.0,65599.0,70908.0,29705.0,36459.0,29887.0,9056.0,4705.0,3040.0,175.0,184.0
602390,County,2020/07/07,54.0,WV,54107.0,Wood County,21653.0,62550.0,251378.0,72908.0,69545.0,27528.0,36234.0,28945.0,7954.0,5049.0,2862.0,200.0,153.0
606759,County,2020/07/08,54.0,WV,54107.0,Wood County,21329.0,62874.0,263782.0,73838.0,74063.0,27569.0,42433.0,28377.0,8517.0,5314.0,3333.0,200.0,138.0
608387,County,2020/07/09,54.0,WV,54107.0,Wood County,22176.0,62027.0,261362.0,70920.0,78856.0,26643.0,37159.0,29413.0,8659.0,6111.0,3290.0,208.0,103.0
611587,County,2020/07/10,54.0,WV,54107.0,Wood County,20072.0,64131.0,263939.0,74141.0,73834.0,26921.0,37417.0,30486.0,9116.0,7158.0,4411.0,274.0,181.0
616335,County,2020/07/11,54.0,WV,54107.0,Wood County,22137.0,62066.0,253246.0,71240.0,72438.0,28832.0,36768.0,26525.0,6366.0,6933.0,3651.0,251.0,242.0
617968,County,2020/07/12,54.0,WV,54107.0,Wood County,22121.0,62082.0,215012.0,57270.0,62481.0,22287.0,33047.0,25272.0,4482.0,5858.0,3893.0,255.0,167.0
622730,County,2020/07/13,54.0,WV,54107.0,Wood County,20931.0,63272.0,239276.0,58423.0,71508.0,27411.0,35764.0,27379.0,8394.0,6870.0,3097.0,298.0,132.0
625923,County,2020/07/14,54.0,WV,54107.0,Wood County,21228.0,62975.0,252451.0,63107.0,72120.0,27854.0,38688.0,33464.0,8175.0,6043.0,2682.0,232.0,86.0
627431,County,2020/07/15,54.0,WV,54107.0,Wood County,22411.0,61792.0,257082.0,69981.0,72828.0,28995.0,39823.0,28855.0,8391.0,4917.0,2958.0,225.0,109.0
630721,County,2020/07/16,54.0,WV,54107.0,Wood County,21836.0,62367.0,259993.0,71919.0,76017.0,25314.0,38003.0,30127.0,9949.0,5808.0,2598.0,175.0,83.0
635457,County,2020/07/17,54.0,WV,54107.0,Wood County,22084.0,62119.0,264041.0,70297.0,78791.0,24919.0,39211.0,32933.0,9068.0,5626.0,3004.0,124.0,68.0
637134,County,2020/07/18,54.0,WV,54107.0,Wood County,23415.0,60788.0,247218.0,68521.0,73262.0,24997.0,39485.0,26073.0,6817.0,4578.0,3178.0,206.0,101.0
640289,County,2020/07/19,54.0,WV,54107.0,Wood County,24580.0,59623.0,204277.0,51860.0,62429.0,21906.0,32612.0,21621.0,5955.0,4410.0,3083.0,267.0,134.0
643522,County,2020/07/20,54.0,WV,54107.0,Wood County,23777.0,60426.0,254408.0,69193.0,72144.0,25597.0,38681.0,32192.0,8440.0,5767.0,2107.0,132.0,155.0
647091,County,2020/07/21,54.0,WV,54107.0,Wood County,22738.0,61465.0,249838.0,71388.0,67020.0,25878.0,37289.0,31042.0,8584.0,5059.0,3268.0,234.0,76.0
651475,County,2020/07/22,54.0,WV,54107.0,Wood County,21334.0,62869.0,253393.0,65884.0,74652.0,27591.0,36536.0,30447.0,8959.0,5229.0,3797.0,229.0,69.0
654670,County,2020/07/23,54.0,WV,54107.0,Wood County,22390.0,61813.0,236573.0,65910.0,63854.0,25695.0,33997.0,27785.0,8949.0,6095.0,3969.0,212.0,107.0
656302,County,2020/07/24,54.0,WV,54107.0,Wood County,20980.0,63223.0,263404.0,67610.0,72640.0,29192.0,41540.0,33338.0,9280.0,4670.0,4779.0,204.0,151.0
659486,County,2020/07/25,54.0,WV,54107.0,Wood County,23041.0,61162.0,243117.0,66467.0,67144.0,23661.0,39453.0,27216.0,9228.0,6055.0,3566.0,248.0,79.0
664195,County,2020/07/26,54.0,WV,54107.0,Wood County,23360.0,60843.0,227911.0,59654.0,65442.0,24862.0,35246.0,24677.0,6040.0,6941.0,4449.0,286.0,314.0
664355,County,2020/07/27,54.0,WV,54107.0,Wood County,22912.0,61291.0,255809.0,71724.0,73213.0,26689.0,37164.0,27460.0,8677.0,5605.0,4752.0,302.0,223.0
669143,County,2020/07/28,54.0,WV,54107.0,Wood County,21835.0,62368.0,268954.0,76278.0,77245.0,27420.0,40473.0,29485.0,8227.0,5858.0,3574.0,291.0,103.0
673834,County,2020/07/29,54.0,WV,54107.0,Wood County,22404.0,61799.0,254464.0,64693.0,74138.0,27322.0,41015.0,30661.0,7665.0,4975.0,3533.0,302.0,160.0
677013,County,2020/07/30,54.0,WV,54107.0,Wood County,21867.0,62336.0,260926.0,67738.0,73670.0,29602.0,38966.0,31926.0,9210.0,5987.0,3428.0,244.0,155.0
678662,County,2020/07/31,54.0,WV,54107.0,Wood County,22091.0,62112.0,257010.0,67147.0,74169.0,28173.0,36769.0,31525.0,8980.0,5624.0,4121.0,362.0,140.0
683409,County,2020/08/01,54.0,WV,54107.0,Wood County,23960.0,60243.0,219814.0,54588.0,64068.0,22740.0,34323.0,26582.0,7045.0,5820.0,4085.0,314.0,249.0
685043,County,2020/08/02,54.0,WV,54107.0,Wood County,24648.0,59555.0,212464.0,53652.0,61059.0,22635.0,30035.0,27997.0,7357.0,5709.0,3689.0,203.0,128.0
689804,County,2020/08/03,54.0,WV,54107.0,Wood County,22707.0,61496.0,263402.0,74120.0,77357.0,27719.0,35055.0,31261.0,8611.0,5466.0,3458.0,198.0,157.0
691432,County,2020/08/04,54.0,WV,54107.0,Wood County,20735.0,63468.0,278470.0,75006.0,81435.0,29835.0,43013.0,32614.0,8951.0,4552.0,2843.0,131.0,90.0
696191,County,2020/08/05,54.0,WV,54107.0,Wood County,21626.0,62577.0,283334.0,77165.0,83987.0,27453.0,42276.0,33588.0,10380.0,4956.0,3305.0,161.0,63.0
699386,County,2020/08/06,54.0,WV,54107.0,Wood County,21215.0,62988.0,289536.0,83472.0,79117.0,29703.0,44773.0,32953.0,10120.0,5768.0,3289.0,241.0,100.0
701013,County,2020/08/07,54.0,WV,54107.0,Wood County,21782.0,62421.0,305413.0,92759.0,86262.0,30144.0,41785.0,34490.0,10268.0,6484.0,2971.0,168.0,82.0
705774,County,2020/08/08,54.0,WV,54107.0,Wood County,22900.0,61303.0,266758.0,68806.0,83924.0,27750.0,39518.0,29428.0,8455.0,5543.0,3012.0,238.0,84.0
708993,County,2020/08/09,54.0,WV,54107.0,Wood County,23650.0,60553.0,250321.0,64708.0,75656.0,24295.0,36689.0,30622.0,8505.0,6728.0,2831.0,213.0,74.0
712162,County,2020/08/10,54.0,WV,54107.0,Wood County,21755.0,62448.0,274668.0,76071.0,82019.0,26849.0,36367.0,35552.0,8571.0,5426.0,3541.0,181.0,91.0
715355,County,2020/08/11,54.0,WV,54107.0,Wood County,21692.0,62511.0,268723.0,70239.0,78829.0,30009.0,39420.0,30975.0,9519.0,6782.0,2788.0,121.0,41.0
718550,County,2020/08/12,54.0,WV,54107.0,Wood County,21383.0,62820.0,262410.0,74384.0,71588.0,26669.0,37392.0,34448.0,8253.0,5676.0,3382.0,306.0,312.0
721744,County,2020/08/13,54.0,WV,54107.0,Wood County,20291.0,63912.0,267092.0,68512.0,75066.0,27389.0,42295.0,34689.0,8112.0,5965.0,4266.0,319.0,479.0
723371,County,2020/08/14,54.0,WV,54107.0,Wood County,19802.0,64401.0,284890.0,69649.0,83331.0,31893.0,43784.0,34905.0,9425.0,6402.0,4759.0,378.0,364.0
726603,County,2020/08/15,54.0,WV,54107.0,Wood County,21298.0,62905.0,239763.0,55032.0,70701.0,25974.0,38242.0,29204.0,9184.0,6477.0,4184.0,401.0,364.0
731326,County,2020/08/16,54.0,WV,54107.0,Wood County,23082.0,61121.0,241297.0,65071.0,66199.0,26996.0,37367.0,27943.0,7076.0,4990.0,4737.0,450.0,468.0
732955,County,2020/08/17,54.0,WV,54107.0,Wood County,22745.0,61458.0,257589.0,66656.0,73504.0,28807.0,41160.0,27313.0,7889.0,6252.0,4890.0,510.0,608.0
736170,County,2020/08/18,54.0,WV,54107.0,Wood County,21997.0,62206.0,244307.0,58605.0,68550.0,25302.0,41074.0,27793.0,9515.0,6816.0,5613.0,415.0,624.0
740908,County,2020/08/19,54.0,WV,54107.0,Wood County,21135.0,63068.0,259292.0,63759.0,78568.0,26903.0,38333.0,30768.0,8981.0,6019.0,4886.0,537.0,538.0
742537,County,2020/08/20,54.0,WV,54107.0,Wood County,20613.0,63590.0,259767.0,61465.0,78047.0,30295.0,37019.0,31999.0,8209.0,6559.0,5215.0,473.0,486.0
745737,County,2020/08/21,54.0,WV,54107.0,Wood County,19691.0,64512.0,283504.0,72348.0,85116.0,31346.0,40922.0,33673.0,7269.0,7492.0,4466.0,427.0,445.0
748941,County,2020/08/22,54.0,WV,54107.0,Wood County,21061.0,63142.0,273896.0,72107.0,83132.0,29095.0,40271.0,28850.0,7238.0,7974.0,4231.0,467.0,531.0
752135,County,2020/08/23,54.0,WV,54107.0,Wood County,24357.0,59846.0,207501.0,49597.0,61424.0,22575.0,33718.0,24238.0,6048.0,5592.0,3580.0,366.0,363.0
756878,County,2020/08/24,54.0,WV,54107.0,Wood County,23683.0,60520.0,224896.0,53592.0,68059.0,24341.0,34790.0,27233.0,8305.0,4394.0,3358.0,342.0,482.0
760069,County,2020/08/25,54.0,WV,54107.0,Wood County,22315.0,61888.0,243341.0,61324.0,71694.0,25547.0,36939.0,29683.0,9132.0,5238.0,3084.0,318.0,382.0
761651,County,2020/08/26,54.0,WV,54107.0,Wood County,22417.0,61786.0,238500.0,55938.0,71215.0,26331.0,37423.0,30002.0,7941.0,5272.0,3793.0,351.0,234.0
764858,County,2020/08/27,54.0,WV,54107.0,Wood County,22256.0,61947.0,240937.0,61861.0,70465.0,23497.0,37832.0,28988.0,8337.0,6343.0,3114.0,406.0,94.0
768064,County,2020/08/28,54.0,WV,54107.0,Wood County,22568.0,61635.0,257283.0,62222.0,80409.0,25670.0,39191.0,30099.0,8955.0,6603.0,3632.0,395.0,107.0
772841,County,2020/08/29,54.0,WV,54107.0,Wood County,23546.0,60657.0,235942.0,57308.0,72957.0,24842.0,39805.0,25243.0,6830.0,5460.0,2935.0,391.0,171.0
776042,County,2020/08/30,54.0,WV,54107.0,Wood County,25393.0,58810.0,218665.0,51553.0,67827.0,20825.0,35349.0,25908.0,6301.0,6071.0,4311.0,301.0,219.0
779236,County,2020/08/31,54.0,WV,54107.0,Wood County,23893.0,60310.0,234068.0,58046.0,70260.0,23282.0,36760.0,28595.0,7497.0,5782.0,3206.0,390.0,250.0
782430,County,2020/09/01,54.0,WV,54107.0,Wood County,22933.0,61270.0,270683.0,71373.0,78773.0,27374.0,44706.0,32064.0,7136.0,5191.0,3664.0,274.0,128.0
785624,County,2020/09/02,54.0,WV,54107.0,Wood County,23319.0,60884.0,249979.0,58700.0,78186.0,28839.0,37515.0,29660.0,7699.0,5030.0,3907.0,329.0,114.0
787185,County,2020/09/03,54.0,WV,54107.0,Wood County,21941.0,62262.0,274604.0,68449.0,83983.0,31823.0,41739.0,30536.0,7466.0,5899.0,4089.0,390.0,230.0
792012,County,2020/09/04,54.0,WV,54107.0,Wood County,23367.0,60836.0,266183.0,73879.0,78082.0,27247.0,35971.0,32614.0,6984.0,6083.0,4552.0,426.0,345.0
793522,County,2020/09/05,54.0,WV,54107.0,Wood County,23575.0,60628.0,260429.0,66037.0,76454.0,27774.0,37632.0,33453.0,8007.0,6896.0,3757.0,267.0,152.0
796805,County,2020/09/06,54.0,WV,54107.0,Wood County,25797.0,58406.0,219492.0,55310.0,67461.0,21437.0,36123.0,24118.0,6155.0,4994.0,3430.0,286.0,178.0
800022,County,2020/09/07,54.0,WV,54107.0,Wood County,26662.0,57541.0,214876.0,52389.0,67744.0,24017.0,30829.0,24339.0,6925.0,4290.0,3810.0,354.0,179.0
804788,County,2020/09/08,54.0,WV,54107.0,Wood County,23399.0,60804.0,262151.0,63205.0,77157.0,29519.0,42039.0,32229.0,7330.0,5159.0,4953.0,353.0,207.0
807981,County,2020/09/09,54.0,WV,54107.0,Wood County,22995.0,61208.0,278218.0,68586.0,83174.0,30214.0,43654.0,34102.0,8425.0,5981.0,3505.0,365.0,212.0
809609,County,2020/09/10,54.0,WV,54107.0,Wood County,23822.0,60381.0,267381.0,67668.0,83706.0,27131.0,38586.0,32965.0,6923.0,5830.0,3859.0,399.0,314.0
812814,County,2020/09/11,54.0,WV,54107.0,Wood County,22233.0,61970.0,278648.0,72988.0,84587.0,26113.0,43378.0,31304.0,8229.0,7252.0,4268.0,344.0,185.0
817564,County,2020/09/12,54.0,WV,54107.0,Wood County,24875.0,59328.0,250804.0,63283.0,79901.0,23038.0,34979.0,30193.0,8729.0,6059.0,4059.0,363.0,200.0
819171,County,2020/09/13,54.0,WV,54107.0,Wood County,25652.0,58551.0,182317.0,35709.0,60246.0,18344.0,28391.0,25766.0,5867.0,4146.0,3095.0,441.0,312.0
822377,County,2020/09/14,54.0,WV,54107.0,Wood County,23626.0,60577.0,250524.0,56992.0,78300.0,27680.0,41858.0,30912.0,6320.0,4970.0,2919.0,357.0,216.0
827146,County,2020/09/15,54.0,WV,54107.0,Wood County,23669.0,60534.0,267992.0,66029.0,82507.0,28294.0,43677.0,30674.0,7877.0,5477.0,3019.0,304.0,134.0
830340,County,2020/09/16,54.0,WV,54107.0,Wood County,23402.0,60801.0,260122.0,61760.0,78211.0,26219.0,43145.0,33310.0,7415.0,6243.0,3309.0,373.0,137.0
831967,County,2020/09/17,54.0,WV,54107.0,Wood County,23360.0,60843.0,268263.0,66049.0,76796.0,28865.0,44937.0,33272.0,8094.0,6322.0,3510.0,293.0,125.0
836728,County,2020/09/18,54.0,WV,54107.0,Wood County,22545.0,61658.0,272485.0,67941.0,80544.0,28331.0,41319.0,35281.0,7294.0,6941.0,4322.0,334.0,178.0
839922,County,2020/09/19,54.0,WV,54107.0,Wood County,24082.0,60121.0,265740.0,62521.0,78189.0,29495.0,43273.0,31157.0,10039.0,7054.0,3617.0,205.0,190.0
841551,County,2020/09/20,54.0,WV,54107.0,Wood County,24200.0,60003.0,216538.0,48320.0,66224.0,24449.0,34912.0,24828.0,6667.0,6705.0,4097.0,190.0,146.0
844760,County,2020/09/21,54.0,WV,54107.0,Wood County,24777.0,59426.0,232046.0,56212.0,73465.0,23329.0,35258.0,27783.0,6443.0,5716.0,3504.0,258.0,78.0
849504,County,2020/09/22,54.0,WV,54107.0,Wood County,23560.0,60643.0,266832.0,64556.0,85352.0,29176.0,42764.0,30100.0,7803.0,4898.0,2006.0,142.0,35.0
851132,County,2020/09/23,54.0,WV,54107.0,Wood County,21747.0,62456.0,287153.0,75216.0,88809.0,32354.0,42103.0,33650.0,7180.0,5725.0,1866.0,179.0,71.0
854322,County,2020/09/24,54.0,WV,54107.0,Wood County,20954.0,63249.0,271402.0,69586.0,80378.0,28090.0,44388.0,33525.0,8282.0,4559.0,2322.0,185.0,87.0
859086,County,2020/09/25,54.0,WV,54107.0,Wood County,21983.0,62220.0,293217.0,74148.0,87197.0,28524.0,46223.0,38111.0,8718.0,7056.0,3014.0,184.0,42.0
862280,County,2020/09/26,54.0,WV,54107.0,Wood County,23716.0,60487.0,269103.0,64799.0,78721.0,28895.0,42362.0,35732.0,9292.0,6854.0,2256.0,125.0,67.0
863885,County,2020/09/27,54.0,WV,54107.0,Wood County,23924.0,60279.0,234202.0,56013.0,74408.0,26614.0,35776.0,27161.0,6201.0,4857.0,2902.0,216.0,54.0
868668,County,2020/09/28,54.0,WV,54107.0,Wood County,21997.0,62206.0,271769.0,71658.0,82811.0,29846.0,42668.0,29046.0,7216.0,5407.0,2917.0,192.0,8.0
871862,County,2020/09/29,54.0,WV,54107.0,Wood County,22722.0,61481.0,242063.0,60024.0,67086.0,26110.0,39798.0,32284.0,8483.0,5125.0,2867.0,203.0,83.0
873490,County,2020/09/30,54.0,WV,54107.0,Wood County,22181.0,62022.0,234651.0,50523.0,73499.0,26151.0,35534.0,30360.0,6944.0,7293.0,4122.0,178.0,47.0
878229,County,2020/10/01,54.0,WV,54107.0,Wood County,21805.0,62398.0,280016.0,75579.0,82918.0,29825.0,44137.0,30259.0,7822.0,5749.0,3416.0,213.0,98.0
881444,County,2020/10/02,54.0,WV,54107.0,Wood County,21754.0,62449.0,256066.0,61348.0,77562.0,28886.0,39370.0,30041.0,7496.0,6939.0,4173.0,190.0,61.0
883074,County,2020/10/03,54.0,WV,54107.0,Wood County,24334.0,59869.0,224940.0,51012.0,67421.0,24208.0,35322.0,29266.0,7702.0,6030.0,3770.0,164.0,45.0
887875,County,2020/10/04,54.0,WV,54107.0,Wood County,24863.0,59340.0,200993.0,47337.0,61169.0,19175.0,32808.0,24934.0,6458.0,5476.0,3417.0,147.0,72.0
890956,County,2020/10/05,54.0,WV,54107.0,Wood County,26100.0,58103.0,220421.0,48689.0,67624.0,24290.0,35492.0,26797.0,7892.0,5627.0,3749.0,201.0,60.0
894138,County,2020/10/06,54.0,WV,54107.0,Wood County,23061.0,61142.0,243955.0,57300.0,75326.0,26606.0,40120.0,27899.0,7800.0,5849.0,2752.0,231.0,72.0
897335,County,2020/10/07,54.0,WV,54107.0,Wood County,22739.0,61464.0,250672.0,58336.0,73225.0,28207.0,40274.0,32280.0,7946.0,6851.0,3222.0,261.0,70.0
900597,County,2020/10/08,54.0,WV,54107.0,Wood County,23080.0,61123.0,236315.0,56652.0,65290.0,25884.0,41540.0,29572.0,8183.0,5625.0,3323.0,201.0,45.0
903736,County,2020/10/09,54.0,WV,54107.0,Wood County,23345.0,60858.0,245130.0,59262.0,72701.0,27078.0,37323.0,28821.0,9514.0,6773.0,3333.0,267.0,58.0
906937,County,2020/10/10,54.0,WV,54107.0,Wood County,25124.0,59079.0,219185.0,46037.0,65176.0,23310.0,38921.0,29581.0,7884.0,5087.0,2988.0,158.0,43.0
907679,County,2020/10/11,54.0,WV,54107.0,Wood County,24889.0,59314.0,194256.0,42401.0,55519.0,22132.0,33031.0,23711.0,6162.0,7678.0,3332.0,237.0,53.0
910379,County,2020/10/12,54.0,WV,54107.0,Wood County,23761.0,60442.0,232231.0,51448.0,68507.0,25938.0,38304.0,30576.0,7123.0,5745.0,4371.0,190.0,29.0
913898,County,2020/10/13,54.0,WV,54107.0,Wood County,23233.0,60970.0,243406.0,58632.0,67862.0,27167.0,41742.0,29333.0,8303.0,6126.0,3923.0,275.0,43.0
916845,County,2020/10/14,54.0,WV,54107.0,Wood County,22911.0,61292.0,235029.0,59593.0,65589.0,24247.0,38405.0,27559.0,9388.0,6875.0,3054.0,258.0,61.0
920067,County,2020/10/15,54.0,WV,54107.0,Wood County,24135.0,60068.0,217997.0,49484.0,61552.0,22581.0,36815.0,28368.0,8585.0,6747.0,3535.0,255.0,75.0
923239,County,2020/10/16,54.0,WV,54107.0,Wood County,22195.0,62008.0,238573.0,54259.0,69438.0,26138.0,38994.0,29259.0,9308.0,7455.0,3364.0,300.0,58.0
926461,County,2020/10/17,54.0,WV,54107.0,Wood County,23914.0,60289.0,223250.0,48888.0,64037.0,24609.0,38137.0,30221.0,8894.0,5250.0,2872.0,264.0,78.0
929551,County,2020/10/18,54.0,WV,54107.0,Wood County,24623.0,59580.0,217528.0,53585.0,63646.0,20590.0,35841.0,26104.0,7987.0,6138.0,3368.0,219.0,50.0
932795,County,2020/10/19,54.0,WV,54107.0,Wood County,22924.0,61279.0,235264.0,54950.0,66943.0,26724.0,37770.0,30504.0,8956.0,5906.0,3170.0,278.0,63.0
935958,County,2020/10/20,54.0,WV,54107.0,Wood County,23651.0,60552.0,232735.0,53387.0,70272.0,24912.0,38243.0,27188.0,8584.0,6349.0,3507.0,238.0,55.0
939195,County,2020/10/21,54.0,WV,54107.0,Wood County,23773.0,60430.0,232287.0,51638.0,70692.0,24087.0,37612.0,28832.0,8771.0,6681.0,3698.0,197.0,79.0
942730,County,2020/10/22,54.0,WV,54107.0,Wood County,23171.0,61032.0,241186.0,53398.0,74134.0,24834.0,40619.0,30237.0,7935.0,5809.0,3926.0,229.0,65.0
945497,County,2020/10/23,54.0,WV,54107.0,Wood County,21497.0,62706.0,283689.0,72724.0,81398.0,31598.0,42228.0,35289.0,9403.0,7200.0,3522.0,232.0,95.0
948784,County,2020/10/24,54.0,WV,54107.0,Wood County,23848.0,60355.0,252239.0,61803.0,77100.0,28463.0,38620.0,29904.0,7719.0,6027.0,2433.0,110.0,60.0
