,Level,Date,State FIPS,State Postal Code,County FIPS,County Name,Population Staying at Home,Population Not Staying at Home,Number of Trips,Number of Trips <1,Number of Trips 1-3,Number of Trips 3-5,Number of Trips 5-10,Number of Trips 10-25,Number of Trips 25-50,Number of Trips 50-100,Number of Trips 100-250,Number of Trips 250-500,Number of Trips >=500
2600,County,2020/01/01,48.0,TX,48157.0,Fort Bend County,160267.0,627591.0,1901221.0,394410.0,452399.0,250936.0,325938.0,312756.0,109531.0,31500.0,16020.0,4586.0,3145.0
4425,County,2020/01/02,48.0,TX,48157.0,Fort Bend County,128272.0,659586.0,2376191.0,482425.0,525662.0,298767.0,388715.0,464892.0,157625.0,37327.0,13321.0,5410.0,2047.0
9039,County,2020/01/03,48.0,TX,48157.0,Fort Bend County,120556.0,667302.0,2619547.0,563576.0,563693.0,330012.0,435251.0,494701.0,164797.0,42487.0,16505.0,6547.0,1978.0
10475,County,2020/01/04,48.0,TX,48157.0,Fort Bend County,134335.0,653523.0,2502178.0,526424.0,583305.0,336779.0,418204.0,432964.0,140488.0,40964.0,15791.0,4594.0,2665.0
15376,County,2020/01/05,48.0,TX,48157.0,Fort Bend County,144628.0,643230.0,2192401.0,440138.0,519741.0,312488.0,388161.0,360283.0,115029.0,32712.0,15060.0,5544.0,3245.0
17296,County,2020/01/06,48.0,TX,48157.0,Fort Bend County,124199.0,663659.0,2483677.0,525899.0,538950.0,308061.0,400464.0,481016.0,177918.0,36576.0,9212.0,3424.0,2157.0
20454,County,2020/01/07,48.0,TX,48157.0,Fort Bend County,116831.0,671027.0,2539765.0,552627.0,560321.0,303075.0,407323.0,493982.0,173193.0,35553.0,8817.0,2422.0,2452.0
23733,County,2020/01/08,48.0,TX,48157.0,Fort Bend County,116292.0,671566.0,2612248.0,575572.0,552525.0,316484.0,418171.0,516671.0,182832.0,36552.0,8623.0,2784.0,2034.0
28433,County,2020/01/09,48.0,TX,48157.0,Fort Bend County,116757.0,671101.0,2570213.0,549133.0,561748.0,311237.0,412378.0,501018.0,180742.0,39195.0,10379.0,2573.0,1810.0
31640,County,2020/01/10,48.0,TX,48157.0,Fort Bend County,115301.0,672557.0,2631368.0,574424.0,583678.0,336130.0,419680.0,492505.0,170964.0,36906.0,11928.0,3374.0,1779.0
34834,County,2020/01/11,48.0,TX,48157.0,Fort Bend County,130955.0,656903.0,2547442.0,523320.0,592210.0,359326.0,444674.0,435727.0,139180.0,34799.0,13361.0,3229.0,1616.0
37954,County,2020/01/12,48.0,TX,48157.0,Fort Bend County,142417.0,645441.0,2226855.0,431731.0,541829.0,322850.0,405520.0,370886.0,107155.0,28440.0,12118.0,4172.0,2154.0
39666,County,2020/01/13,48.0,TX,48157.0,Fort Bend County,118654.0,669204.0,2469286.0,517620.0,539580.0,304776.0,396932.0,489048.0,174419.0,33928.0,8379.0,2415.0,2189.0
44399,County,2020/01/14,48.0,TX,48157.0,Fort Bend County,114534.0,673324.0,2580146.0,548194.0,566943.0,313385.0,409210.0,517298.0,177795.0,34832.0,8019.0,2835.0,1635.0
47605,County,2020/01/15,48.0,TX,48157.0,Fort Bend County,112856.0,675002.0,2642919.0,589158.0,574086.0,311976.0,414192.0,518769.0,184383.0,36281.0,9900.0,2450.0,1724.0
50761,County,2020/01/16,48.0,TX,48157.0,Fort Bend County,112252.0,675606.0,2654677.0,582849.0,564308.0,326654.0,427328.0,511695.0,184890.0,38985.0,11651.0,3721.0,2596.0
54049,County,2020/01/17,48.0,TX,48157.0,Fort Bend County,108614.0,679244.0,2792619.0,593284.0,619014.0,352463.0,459769.0,526479.0,181766.0,38053.0,15426.0,4021.0,2344.0
55622,County,2020/01/18,48.0,TX,48157.0,Fort Bend County,128413.0,659445.0,2579033.0,536268.0,609768.0,355439.0,442206.0,443442.0,139406.0,33854.0,13363.0,3657.0,1630.0
58770,County,2020/01/19,48.0,TX,48157.0,Fort Bend County,137885.0,649973.0,2323934.0,478712.0,555393.0,325608.0,405280.0,385374.0,116684.0,35462.0,14780.0,4443.0,2198.0
62002,County,2020/01/20,48.0,TX,48157.0,Fort Bend County,126332.0,661526.0,2456002.0,514854.0,541435.0,313180.0,403083.0,461764.0,164651.0,38586.0,12927.0,3450.0,2072.0
66729,County,2020/01/21,48.0,TX,48157.0,Fort Bend County,117458.0,670400.0,2548594.0,541105.0,537087.0,318818.0,410922.0,501986.0,184400.0,38948.0,10216.0,3067.0,2045.0
68360,County,2020/01/22,48.0,TX,48157.0,Fort Bend County,115065.0,672793.0,2453897.0,503521.0,546302.0,298935.0,391999.0,490286.0,175048.0,34031.0,9416.0,2707.0,1652.0
73151,County,2020/01/23,48.0,TX,48157.0,Fort Bend County,113140.0,674718.0,2632394.0,555234.0,578257.0,318593.0,417357.0,521474.0,187607.0,38602.0,10254.0,3051.0,1965.0
74741,County,2020/01/24,48.0,TX,48157.0,Fort Bend County,111134.0,676724.0,2906851.0,665736.0,642808.0,361163.0,461082.0,538229.0,180914.0,38118.0,13210.0,3680.0,1911.0
79543,County,2020/01/25,48.0,TX,48157.0,Fort Bend County,125025.0,662833.0,2667074.0,567101.0,604679.0,362185.0,461708.0,465475.0,147749.0,40918.0,12709.0,3112.0,1438.0
82450,County,2020/01/26,48.0,TX,48157.0,Fort Bend County,138561.0,649297.0,2340769.0,497198.0,558557.0,322549.0,413519.0,379162.0,117497.0,32776.0,13583.0,3814.0,2114.0
85906,County,2020/01/27,48.0,TX,48157.0,Fort Bend County,116225.0,671633.0,2585149.0,581041.0,562625.0,307384.0,414351.0,490958.0,179075.0,35302.0,9142.0,2885.0,2386.0
88111,County,2020/01/28,48.0,TX,48157.0,Fort Bend County,115769.0,672089.0,2498184.0,522468.0,548682.0,304260.0,406343.0,492260.0,176400.0,33673.0,9761.0,2376.0,1961.0
90734,County,2020/01/29,48.0,TX,48157.0,Fort Bend County,114816.0,673042.0,2617645.0,560701.0,574290.0,315827.0,412700.0,522151.0,181090.0,36951.0,9441.0,2882.0,1612.0
95519,County,2020/01/30,48.0,TX,48157.0,Fort Bend County,113877.0,673981.0,2557968.0,535066.0,534353.0,316540.0,399340.0,514685.0,192287.0,41489.0,16395.0,4704.0,3109.0
97093,County,2020/01/31,48.0,TX,48157.0,Fort Bend County,108268.0,679590.0,2744223.0,555555.0,604448.0,348497.0,451196.0,527209.0,187997.0,38741.0,20291.0,6590.0,3699.0
100342,County,2020/02/01,48.0,TX,48157.0,Fort Bend County,120583.0,667275.0,2688043.0,559543.0,600411.0,373237.0,463443.0,470861.0,155146.0,37979.0,19439.0,5133.0,2851.0
103470,County,2020/02/02,48.0,TX,48157.0,Fort Bend County,137530.0,650328.0,2282569.0,456424.0,544770.0,325898.0,394118.0,378045.0,122652.0,32719.0,20034.0,5116.0,2793.0
108306,County,2020/02/03,48.0,TX,48157.0,Fort Bend County,112501.0,675357.0,2566051.0,564777.0,558894.0,313877.0,399167.0,483956.0,186174.0,33957.0,17226.0,4470.0,3553.0
109923,County,2020/02/04,48.0,TX,48157.0,Fort Bend County,109198.0,678660.0,2640135.0,588101.0,563305.0,315557.0,416044.0,505169.0,189783.0,37138.0,16592.0,4890.0,3556.0
114644,County,2020/02/05,48.0,TX,48157.0,Fort Bend County,113046.0,674812.0,2545819.0,553206.0,543088.0,306654.0,403895.0,491402.0,185625.0,36112.0,17534.0,4563.0,3740.0
116213,County,2020/02/06,48.0,TX,48157.0,Fort Bend County,110208.0,677650.0,2655276.0,586012.0,568923.0,319989.0,415686.0,506328.0,194130.0,38396.0,17609.0,4480.0,3723.0
121106,County,2020/02/07,48.0,TX,48157.0,Fort Bend County,106019.0,681839.0,2827380.0,622204.0,619283.0,350687.0,458867.0,527128.0,185664.0,37262.0,18570.0,4034.0,3681.0
124266,County,2020/02/08,48.0,TX,48157.0,Fort Bend County,122353.0,665505.0,2636271.0,545642.0,603364.0,356715.0,458421.0,451993.0,158881.0,39111.0,16034.0,3883.0,2227.0
126614,County,2020/02/09,48.0,TX,48157.0,Fort Bend County,149112.0,638746.0,2133877.0,408205.0,506172.0,305444.0,374385.0,350049.0,133474.0,32299.0,15626.0,4274.0,3949.0
127766,County,2020/02/10,48.0,TX,48157.0,Fort Bend County,108778.0,679080.0,2669046.0,571347.0,563754.0,329269.0,422452.0,515510.0,203659.0,38615.0,15446.0,4520.0,4474.0
133374,County,2020/02/11,48.0,TX,48157.0,Fort Bend County,104164.0,683694.0,2675428.0,556508.0,564225.0,324256.0,435092.0,525871.0,208157.0,36419.0,16079.0,4299.0,4522.0
134375,County,2020/02/12,48.0,TX,48157.0,Fort Bend County,106507.0,681351.0,2731109.0,560752.0,567926.0,341229.0,442516.0,544950.0,208994.0,38318.0,16235.0,4692.0,5497.0
140235,County,2020/02/13,48.0,TX,48157.0,Fort Bend County,104637.0,683221.0,2826670.0,595869.0,593884.0,355098.0,455384.0,548305.0,213125.0,37299.0,17074.0,5105.0,5527.0
141716,County,2020/02/14,48.0,TX,48157.0,Fort Bend County,104449.0,683409.0,3067071.0,636177.0,667456.0,405439.0,509698.0,567215.0,203926.0,43032.0,21780.0,6608.0,5740.0
146594,County,2020/02/15,48.0,TX,48157.0,Fort Bend County,120423.0,667435.0,2847094.0,581948.0,610771.0,378300.0,514165.0,508088.0,174503.0,47120.0,21585.0,5776.0,4838.0
149796,County,2020/02/16,48.0,TX,48157.0,Fort Bend County,135362.0,652496.0,2426099.0,488805.0,540785.0,342108.0,438869.0,400848.0,140794.0,38846.0,22889.0,6462.0,5693.0
151427,County,2020/02/17,48.0,TX,48157.0,Fort Bend County,151610.0,636248.0,2243370.0,474873.0,462352.0,278023.0,373102.0,431470.0,162122.0,35934.0,15540.0,4948.0,5006.0
156206,County,2020/02/18,48.0,TX,48157.0,Fort Bend County,110982.0,676876.0,2707900.0,572718.0,572291.0,334962.0,432192.0,527910.0,200119.0,39574.0,16796.0,4449.0,6889.0
159350,County,2020/02/19,48.0,TX,48157.0,Fort Bend County,106855.0,681003.0,2779333.0,598053.0,579416.0,349772.0,447477.0,534931.0,200962.0,43513.0,16019.0,4586.0,4604.0
160846,County,2020/02/20,48.0,TX,48157.0,Fort Bend County,111689.0,676169.0,2651848.0,540958.0,566820.0,319862.0,427908.0,537603.0,192777.0,38575.0,17873.0,5355.0,4117.0
164173,County,2020/02/21,48.0,TX,48157.0,Fort Bend County,109911.0,677947.0,2965511.0,623499.0,640715.0,370850.0,475738.0,573714.0,199503.0,45816.0,23034.0,7659.0,4983.0
168933,County,2020/02/22,48.0,TX,48157.0,Fort Bend County,111726.0,676132.0,2845045.0,576079.0,620446.0,394340.0,489800.0,509339.0,177783.0,44719.0,21731.0,6591.0,4217.0
172132,County,2020/02/23,48.0,TX,48157.0,Fort Bend County,138959.0,648899.0,2404022.0,478666.0,569759.0,349172.0,414097.0,399146.0,128609.0,37974.0,18109.0,5705.0,2785.0
173758,County,2020/02/24,48.0,TX,48157.0,Fort Bend County,119808.0,668050.0,2607983.0,542178.0,580344.0,321902.0,428060.0,502826.0,177792.0,37399.0,10024.0,3344.0,4114.0
178271,County,2020/02/25,48.0,TX,48157.0,Fort Bend County,107070.0,680788.0,2833814.0,643475.0,606984.0,335889.0,461881.0,547083.0,182421.0,38978.0,9958.0,3202.0,3943.0
181464,County,2020/02/26,48.0,TX,48157.0,Fort Bend County,108713.0,679145.0,2750128.0,552894.0,628996.0,367648.0,474740.0,519749.0,163737.0,28206.0,8796.0,2978.0,2384.0
184947,County,2020/02/27,48.0,TX,48157.0,Fort Bend County,108806.0,679052.0,2832711.0,608157.0,629937.0,354491.0,446912.0,547090.0,190643.0,38325.0,10310.0,3106.0,3740.0
186673,County,2020/02/28,48.0,TX,48157.0,Fort Bend County,109455.0,678403.0,3033252.0,669370.0,691431.0,392308.0,494018.0,539363.0,184544.0,41391.0,14212.0,3170.0,3445.0
191291,County,2020/02/29,48.0,TX,48157.0,Fort Bend County,116849.0,671009.0,2936859.0,618241.0,677672.0,390860.0,515344.0,501236.0,169785.0,42864.0,13539.0,3566.0,3752.0
192915,County,2020/03/01,48.0,TX,48157.0,Fort Bend County,130457.0,657401.0,2309763.0,460371.0,549554.0,334917.0,409364.0,390219.0,110282.0,33651.0,14201.0,4081.0,3123.0
197715,County,2020/03/02,48.0,TX,48157.0,Fort Bend County,115514.0,672344.0,2672218.0,599060.0,599166.0,322334.0,420377.0,503754.0,176400.0,33798.0,10617.0,3112.0,3600.0
199246,County,2020/03/03,48.0,TX,48157.0,Fort Bend County,105899.0,681959.0,2771243.0,646416.0,595921.0,330296.0,427214.0,525279.0,187044.0,39919.0,13163.0,2963.0,3028.0
201624,County,2020/03/04,48.0,TX,48157.0,Fort Bend County,108826.0,679032.0,2740068.0,608955.0,597201.0,325595.0,431636.0,521171.0,197060.0,38464.0,14547.0,2965.0,2474.0
207280,County,2020/03/05,48.0,TX,48157.0,Fort Bend County,101183.0,686675.0,2780402.0,643643.0,588815.0,327380.0,436923.0,535675.0,189234.0,40874.0,12702.0,2609.0,2547.0
210544,County,2020/03/06,48.0,TX,48157.0,Fort Bend County,102560.0,685298.0,2936013.0,655545.0,649337.0,353920.0,460435.0,549681.0,195960.0,46454.0,16917.0,4252.0,3512.0
213726,County,2020/03/07,48.0,TX,48157.0,Fort Bend County,116400.0,671458.0,2796006.0,618511.0,621300.0,359796.0,466782.0,484761.0,163481.0,47083.0,22850.0,7467.0,3975.0
215328,County,2020/03/08,48.0,TX,48157.0,Fort Bend County,134077.0,653781.0,2385832.0,485102.0,565567.0,330961.0,419583.0,381684.0,126319.0,45231.0,21745.0,5565.0,4075.0
218479,County,2020/03/09,48.0,TX,48157.0,Fort Bend County,117556.0,670302.0,2581561.0,559779.0,535102.0,301855.0,411879.0,520448.0,181742.0,45758.0,16942.0,4576.0,3480.0
221714,County,2020/03/10,48.0,TX,48157.0,Fort Bend County,114520.0,673338.0,2621784.0,582736.0,541284.0,305722.0,414333.0,518735.0,188988.0,47443.0,15647.0,3505.0,3391.0
226459,County,2020/03/11,48.0,TX,48157.0,Fort Bend County,113567.0,674291.0,2879562.0,653355.0,613887.0,331926.0,469584.0,540652.0,191327.0,46335.0,21463.0,5573.0,5460.0
228137,County,2020/03/12,48.0,TX,48157.0,Fort Bend County,118002.0,669856.0,2890683.0,678150.0,611726.0,330856.0,450765.0,539993.0,197345.0,42597.0,26019.0,6853.0,6379.0
232819,County,2020/03/13,48.0,TX,48157.0,Fort Bend County,119114.0,668744.0,2950169.0,683117.0,631320.0,358200.0,475323.0,540522.0,183864.0,45024.0,20498.0,7015.0,5286.0
236021,County,2020/03/14,48.0,TX,48157.0,Fort Bend County,143917.0,643941.0,2605317.0,609791.0,581155.0,338641.0,413164.0,435982.0,148430.0,42191.0,22114.0,6565.0,7284.0
237633,County,2020/03/15,48.0,TX,48157.0,Fort Bend County,169317.0,618541.0,2140094.0,486487.0,523445.0,281998.0,352310.0,312927.0,109320.0,45265.0,19285.0,5704.0,3353.0
240877,County,2020/03/16,48.0,TX,48157.0,Fort Bend County,145545.0,642313.0,2433986.0,531461.0,529494.0,296647.0,380774.0,469952.0,168891.0,39708.0,11030.0,3822.0,2207.0
245636,County,2020/03/17,48.0,TX,48157.0,Fort Bend County,161311.0,626547.0,2304797.0,524928.0,490899.0,265351.0,361323.0,440765.0,165047.0,39513.0,11463.0,3366.0,2142.0
247214,County,2020/03/18,48.0,TX,48157.0,Fort Bend County,173697.0,614161.0,2347023.0,549746.0,507278.0,266733.0,360005.0,441876.0,165179.0,39258.0,11562.0,3152.0,2234.0
251996,County,2020/03/19,48.0,TX,48157.0,Fort Bend County,178480.0,609378.0,2282626.0,540443.0,497748.0,261316.0,347245.0,425982.0,154853.0,37405.0,12669.0,3348.0,1617.0
253655,County,2020/03/20,48.0,TX,48157.0,Fort Bend County,180991.0,606867.0,2169151.0,474938.0,488368.0,257302.0,347566.0,401579.0,145255.0,34899.0,13268.0,3449.0,2527.0
256798,County,2020/03/21,48.0,TX,48157.0,Fort Bend County,202433.0,585425.0,1975331.0,445557.0,495663.0,277121.0,310980.0,292413.0,100644.0,32197.0,14384.0,3828.0,2544.0
261600,County,2020/03/22,48.0,TX,48157.0,Fort Bend County,199475.0,588383.0,1672821.0,387530.0,440965.0,231398.0,252895.0,234509.0,80747.0,27148.0,11624.0,3562.0,2443.0
264763,County,2020/03/23,48.0,TX,48157.0,Fort Bend County,173394.0,614464.0,1936855.0,456625.0,430625.0,229264.0,287601.0,356150.0,128780.0,31499.0,11282.0,2983.0,2046.0
266389,County,2020/03/24,48.0,TX,48157.0,Fort Bend County,172585.0,615273.0,2015611.0,480803.0,466284.0,230084.0,299402.0,360591.0,128953.0,31872.0,12975.0,2799.0,1848.0
269623,County,2020/03/25,48.0,TX,48157.0,Fort Bend County,188959.0,598899.0,1890413.0,477726.0,425403.0,214073.0,270886.0,327840.0,122770.0,33250.0,13733.0,3129.0,1603.0
274364,County,2020/03/26,48.0,TX,48157.0,Fort Bend County,187460.0,600398.0,1913824.0,483238.0,425383.0,221957.0,272861.0,335413.0,127536.0,33098.0,10936.0,2463.0,939.0
276004,County,2020/03/27,48.0,TX,48157.0,Fort Bend County,184805.0,603053.0,1906698.0,459318.0,438878.0,229031.0,284112.0,326387.0,119580.0,32396.0,12779.0,3093.0,1124.0
279157,County,2020/03/28,48.0,TX,48157.0,Fort Bend County,193260.0,594598.0,1770317.0,432840.0,444366.0,246562.0,278697.0,242207.0,82660.0,28504.0,10033.0,2732.0,1716.0
283917,County,2020/03/29,48.0,TX,48157.0,Fort Bend County,204961.0,582897.0,1603691.0,378609.0,421140.0,217074.0,252918.0,214968.0,73506.0,28234.0,12767.0,2455.0,2020.0
285545,County,2020/03/30,48.0,TX,48157.0,Fort Bend County,182370.0,605488.0,1830087.0,422336.0,429005.0,205298.0,275827.0,320438.0,128016.0,35674.0,9814.0,2138.0,1541.0
290348,County,2020/03/31,48.0,TX,48157.0,Fort Bend County,184893.0,602965.0,1888359.0,453209.0,425119.0,221802.0,285156.0,332671.0,121978.0,32302.0,11280.0,2659.0,2183.0
291975,County,2020/04/01,48.0,TX,48157.0,Fort Bend County,183931.0,603927.0,1924286.0,475192.0,435666.0,220458.0,293281.0,335612.0,116629.0,33027.0,10576.0,2621.0,1224.0
296708,County,2020/04/02,48.0,TX,48157.0,Fort Bend County,183716.0,604142.0,1834115.0,433435.0,420811.0,213199.0,274733.0,319356.0,123275.0,33435.0,11766.0,2435.0,1670.0
298369,County,2020/04/03,48.0,TX,48157.0,Fort Bend County,178588.0,609270.0,1873400.0,444958.0,423683.0,234033.0,295334.0,307541.0,117849.0,33058.0,12351.0,2768.0,1825.0
303116,County,2020/04/04,48.0,TX,48157.0,Fort Bend County,198964.0,588894.0,1560153.0,307771.0,406954.0,222696.0,262970.0,236481.0,81764.0,24730.0,11639.0,2710.0,2438.0
304744,County,2020/04/05,48.0,TX,48157.0,Fort Bend County,208111.0,579747.0,1554664.0,357705.0,419897.0,216673.0,252986.0,202563.0,64426.0,26464.0,9283.0,2462.0,2205.0
309518,County,2020/04/06,48.0,TX,48157.0,Fort Bend County,187264.0,600594.0,1806467.0,399173.0,414794.0,211830.0,278434.0,324868.0,129427.0,35347.0,9889.0,1693.0,1012.0
312708,County,2020/04/07,48.0,TX,48157.0,Fort Bend County,182761.0,605097.0,1901390.0,463509.0,428374.0,219257.0,278166.0,330228.0,133663.0,35649.0,9779.0,1766.0,999.0
315881,County,2020/04/08,48.0,TX,48157.0,Fort Bend County,183960.0,603898.0,1884204.0,442234.0,426366.0,217519.0,286881.0,334052.0,129209.0,35928.0,8624.0,2390.0,1001.0
317508,County,2020/04/09,48.0,TX,48157.0,Fort Bend County,184105.0,603753.0,1864754.0,428988.0,417576.0,230008.0,278066.0,332215.0,126881.0,36351.0,11071.0,2806.0,792.0
320735,County,2020/04/10,48.0,TX,48157.0,Fort Bend County,180647.0,607211.0,1896511.0,426574.0,454801.0,242651.0,316993.0,300652.0,112209.0,27777.0,11200.0,2398.0,1256.0
323969,County,2020/04/11,48.0,TX,48157.0,Fort Bend County,187367.0,600491.0,1812524.0,407943.0,474507.0,263810.0,294919.0,252089.0,81277.0,25849.0,8443.0,2060.0,1627.0
327065,County,2020/04/12,48.0,TX,48157.0,Fort Bend County,224993.0,562865.0,1370170.0,312776.0,376736.0,187440.0,211628.0,189533.0,64081.0,17660.0,7542.0,1449.0,1325.0
330330,County,2020/04/13,48.0,TX,48157.0,Fort Bend County,186725.0,601133.0,1901501.0,428267.0,437999.0,224143.0,301783.0,333602.0,131227.0,32734.0,8773.0,1745.0,1228.0
333455,County,2020/04/14,48.0,TX,48157.0,Fort Bend County,183614.0,604244.0,1822521.0,435309.0,433832.0,202747.0,272547.0,312067.0,114449.0,36974.0,10243.0,2811.0,1542.0
338255,County,2020/04/15,48.0,TX,48157.0,Fort Bend County,177776.0,610082.0,1921992.0,486290.0,454287.0,212781.0,278891.0,314578.0,128712.0,33568.0,9721.0,1207.0,1957.0
341399,County,2020/04/16,48.0,TX,48157.0,Fort Bend County,185156.0,602702.0,1810097.0,402523.0,457322.0,215653.0,262705.0,313940.0,116757.0,28897.0,7950.0,2580.0,1770.0
344612,County,2020/04/17,48.0,TX,48157.0,Fort Bend County,172682.0,615176.0,1846166.0,419134.0,448045.0,229230.0,263096.0,314426.0,115215.0,39091.0,13872.0,2815.0,1242.0
346239,County,2020/04/18,48.0,TX,48157.0,Fort Bend County,189969.0,597889.0,1761390.0,395771.0,451347.0,240944.0,273529.0,275289.0,83729.0,28439.0,8103.0,2649.0,1590.0
349411,County,2020/04/19,48.0,TX,48157.0,Fort Bend County,198554.0,589304.0,1498606.0,373888.0,400371.0,180018.0,231563.0,201858.0,70153.0,27842.0,8342.0,2517.0,2054.0
352666,County,2020/04/20,48.0,TX,48157.0,Fort Bend County,169100.0,618758.0,1972314.0,495903.0,482517.0,221170.0,280349.0,319385.0,129054.0,30700.0,7949.0,3403.0,1884.0
357427,County,2020/04/21,48.0,TX,48157.0,Fort Bend County,175414.0,612444.0,2004439.0,472559.0,456859.0,231938.0,303162.0,358756.0,134066.0,33874.0,10301.0,2117.0,807.0
360581,County,2020/04/22,48.0,TX,48157.0,Fort Bend County,175652.0,612206.0,1952922.0,437676.0,462670.0,241708.0,279836.0,351138.0,133444.0,33901.0,9065.0,2571.0,913.0
363787,County,2020/04/23,48.0,TX,48157.0,Fort Bend County,169897.0,617961.0,2069756.0,497810.0,466723.0,250069.0,309724.0,356434.0,138343.0,36067.0,11536.0,2078.0,972.0
366999,County,2020/04/24,48.0,TX,48157.0,Fort Bend County,169337.0,618521.0,2113857.0,491106.0,494559.0,269614.0,322501.0,352826.0,130608.0,37744.0,11182.0,2975.0,742.0
368582,County,2020/04/25,48.0,TX,48157.0,Fort Bend County,180278.0,607580.0,1928120.0,443456.0,484387.0,268469.0,304537.0,281046.0,94944.0,37974.0,9581.0,2600.0,1126.0
371748,County,2020/04/26,48.0,TX,48157.0,Fort Bend County,188036.0,599822.0,1817928.0,406036.0,488783.0,255080.0,293132.0,244961.0,78143.0,38563.0,9555.0,2609.0,1066.0
376581,County,2020/04/27,48.0,TX,48157.0,Fort Bend County,171906.0,615952.0,2061719.0,476912.0,468367.0,252924.0,309506.0,363175.0,139693.0,36678.0,10389.0,2878.0,1197.0
379752,County,2020/04/28,48.0,TX,48157.0,Fort Bend County,176255.0,611603.0,1927444.0,428292.0,446178.0,229065.0,284187.0,351228.0,139331.0,36398.0,9053.0,2731.0,981.0
382955,County,2020/04/29,48.0,TX,48157.0,Fort Bend County,176908.0,610950.0,1911188.0,420519.0,441845.0,219928.0,311128.0,337387.0,133387.0,32145.0,11061.0,2662.0,1126.0
386174,County,2020/04/30,48.0,TX,48157.0,Fort Bend County,164058.0,623800.0,2148229.0,499347.0,499752.0,266513.0,320572.0,366769.0,144756.0,36210.0,10986.0,2429.0,895.0
387800,County,2020/05/01,48.0,TX,48157.0,Fort Bend County,157565.0,630293.0,2206563.0,504492.0,515514.0,264048.0,348989.0,379506.0,137029.0,42707.0,11016.0,2144.0,1118.0
390933,County,2020/05/02,48.0,TX,48157.0,Fort Bend County,166931.0,620927.0,2116197.0,471227.0,520502.0,297570.0,357100.0,305979.0,108278.0,41347.0,10862.0,2384.0,948.0
395708,County,2020/05/03,48.0,TX,48157.0,Fort Bend County,182828.0,605030.0,1886924.0,446709.0,493855.0,263941.0,302281.0,249326.0,79270.0,38944.0,9672.0,1999.0,927.0
397357,County,2020/05/04,48.0,TX,48157.0,Fort Bend County,165609.0,622249.0,2115490.0,479255.0,492992.0,261956.0,330096.0,364200.0,138278.0,36903.0,8350.0,2516.0,944.0
400577,County,2020/05/05,48.0,TX,48157.0,Fort Bend County,167518.0,620340.0,2110717.0,492738.0,489707.0,255994.0,324840.0,366626.0,135321.0,33259.0,9042.0,2169.0,1021.0
405332,County,2020/05/06,48.0,TX,48157.0,Fort Bend County,162196.0,625662.0,2155672.0,504135.0,494596.0,260483.0,330383.0,380330.0,136449.0,35342.0,9351.0,2645.0,1958.0
406958,County,2020/05/07,48.0,TX,48157.0,Fort Bend County,161604.0,626254.0,2121510.0,484511.0,483573.0,249764.0,327335.0,382249.0,141154.0,36945.0,10793.0,3312.0,1874.0
411688,County,2020/05/08,48.0,TX,48157.0,Fort Bend County,158703.0,629155.0,2212186.0,507488.0,521737.0,268799.0,340105.0,380468.0,137398.0,40453.0,11367.0,3426.0,945.0
413268,County,2020/05/09,48.0,TX,48157.0,Fort Bend County,163390.0,624468.0,2193896.0,489358.0,556914.0,303551.0,356970.0,329109.0,104394.0,36877.0,13332.0,2726.0,665.0
418065,County,2020/05/10,48.0,TX,48157.0,Fort Bend County,171303.0,616555.0,1963643.0,424075.0,514326.0,269399.0,322646.0,278085.0,93528.0,44454.0,12897.0,3062.0,1171.0
421296,County,2020/05/11,48.0,TX,48157.0,Fort Bend County,145289.0,642569.0,2222578.0,511883.0,516005.0,260891.0,341420.0,389017.0,150257.0,38582.0,9940.0,2892.0,1691.0
422974,County,2020/05/12,48.0,TX,48157.0,Fort Bend County,143385.0,644473.0,2278922.0,546644.0,517496.0,275928.0,341878.0,386685.0,156943.0,40276.0,9461.0,2558.0,1053.0
425982,County,2020/05/13,48.0,TX,48157.0,Fort Bend County,147229.0,640629.0,2172569.0,502432.0,486590.0,260071.0,336667.0,381597.0,151060.0,40369.0,9673.0,2558.0,1552.0
429323,County,2020/05/14,48.0,TX,48157.0,Fort Bend County,142892.0,644966.0,2224359.0,527614.0,485051.0,275663.0,340027.0,389399.0,149461.0,40659.0,11640.0,3248.0,1597.0
434064,County,2020/05/15,48.0,TX,48157.0,Fort Bend County,144681.0,643177.0,2182250.0,497638.0,490336.0,262688.0,339219.0,390907.0,144345.0,40254.0,12065.0,2846.0,1952.0
435742,County,2020/05/16,48.0,TX,48157.0,Fort Bend County,157804.0,630054.0,2120242.0,490716.0,528350.0,293010.0,354046.0,316884.0,94640.0,28065.0,9766.0,3001.0,1764.0
440426,County,2020/05/17,48.0,TX,48157.0,Fort Bend County,142826.0,645032.0,2193695.0,519749.0,565975.0,296353.0,354921.0,294617.0,99721.0,45484.0,12645.0,3469.0,761.0
442140,County,2020/05/18,48.0,TX,48157.0,Fort Bend County,116653.0,671205.0,2502135.0,582765.0,558985.0,299690.0,388380.0,447413.0,163395.0,44916.0,13318.0,2631.0,642.0
446829,County,2020/05/19,48.0,TX,48157.0,Fort Bend County,113879.0,673979.0,2523794.0,594777.0,576364.0,295282.0,381996.0,453634.0,159070.0,49561.0,10272.0,2277.0,561.0
448461,County,2020/05/20,48.0,TX,48157.0,Fort Bend County,114850.0,673008.0,2571496.0,620417.0,580433.0,307881.0,382079.0,453638.0,160056.0,50655.0,12587.0,3019.0,731.0
452895,County,2020/05/21,48.0,TX,48157.0,Fort Bend County,112929.0,674929.0,2525652.0,592108.0,562448.0,309995.0,380785.0,446016.0,166779.0,48477.0,14963.0,3141.0,940.0
456441,County,2020/05/22,48.0,TX,48157.0,Fort Bend County,107230.0,680628.0,2593718.0,583667.0,588454.0,313979.0,415245.0,454038.0,161670.0,52265.0,17310.0,5350.0,1740.0
459602,County,2020/05/23,48.0,TX,48157.0,Fort Bend County,122805.0,665053.0,2514183.0,591032.0,595972.0,335237.0,409807.0,378908.0,118480.0,61414.0,17253.0,3581.0,2499.0
462806,County,2020/05/24,48.0,TX,48157.0,Fort Bend County,159904.0,627954.0,1931004.0,462700.0,467668.0,249501.0,300703.0,281483.0,97021.0,49054.0,12950.0,3104.0,6820.0
464435,County,2020/05/25,48.0,TX,48157.0,Fort Bend County,162624.0,625234.0,1823983.0,411509.0,447521.0,245273.0,287045.0,276037.0,93725.0,37764.0,15369.0,4363.0,5377.0
469216,County,2020/05/26,48.0,TX,48157.0,Fort Bend County,145334.0,642524.0,2098608.0,466615.0,484248.0,250003.0,322862.0,375765.0,143376.0,34585.0,11172.0,3065.0,6917.0
470845,County,2020/05/27,48.0,TX,48157.0,Fort Bend County,139567.0,648291.0,2259710.0,534399.0,502753.0,266022.0,343201.0,404351.0,147613.0,41580.0,11473.0,2810.0,5508.0
473941,County,2020/05/28,48.0,TX,48157.0,Fort Bend County,137349.0,650509.0,2248005.0,510934.0,504856.0,275130.0,340836.0,404262.0,149281.0,43396.0,13982.0,3736.0,1592.0
477186,County,2020/05/29,48.0,TX,48157.0,Fort Bend County,151393.0,636465.0,2351776.0,539076.0,520489.0,303967.0,367565.0,416656.0,146463.0,39915.0,12893.0,3427.0,1325.0
480373,County,2020/05/30,48.0,TX,48157.0,Fort Bend County,152170.0,635688.0,2275645.0,529310.0,541503.0,299389.0,366707.0,351642.0,121916.0,46691.0,13837.0,3526.0,1124.0
485140,County,2020/05/31,48.0,TX,48157.0,Fort Bend County,163479.0,624379.0,1945095.0,427787.0,493267.0,263246.0,312077.0,288127.0,99283.0,42211.0,14605.0,3065.0,1427.0
486767,County,2020/06/01,48.0,TX,48157.0,Fort Bend County,140751.0,647107.0,2188693.0,500260.0,494986.0,262970.0,343578.0,392123.0,145115.0,35027.0,9819.0,3173.0,1642.0
490008,County,2020/06/02,48.0,TX,48157.0,Fort Bend County,145020.0,642838.0,2250269.0,525400.0,505935.0,267697.0,354682.0,392619.0,151130.0,37916.0,9756.0,3528.0,1606.0
493177,County,2020/06/03,48.0,TX,48157.0,Fort Bend County,135578.0,652280.0,2304618.0,523672.0,504941.0,268769.0,364694.0,422381.0,158925.0,43435.0,12720.0,2935.0,2146.0
497952,County,2020/06/04,48.0,TX,48157.0,Fort Bend County,132197.0,655661.0,2294254.0,539253.0,521284.0,267144.0,353073.0,400362.0,155823.0,40737.0,11667.0,3129.0,1782.0
501115,County,2020/06/05,48.0,TX,48157.0,Fort Bend County,129517.0,658341.0,2370325.0,528117.0,534538.0,282015.0,383815.0,415556.0,160905.0,44755.0,15242.0,3181.0,2201.0
502739,County,2020/06/06,48.0,TX,48157.0,Fort Bend County,152499.0,635359.0,2126292.0,478142.0,501995.0,282395.0,349343.0,338619.0,113832.0,45682.0,11791.0,2239.0,2254.0
505930,County,2020/06/07,48.0,TX,48157.0,Fort Bend County,157344.0,630514.0,2051059.0,452846.0,520383.0,289318.0,329027.0,295586.0,107112.0,39591.0,11370.0,3618.0,2208.0
510727,County,2020/06/08,48.0,TX,48157.0,Fort Bend County,129052.0,658806.0,2375208.0,529824.0,527704.0,303803.0,380747.0,421698.0,156821.0,38508.0,10532.0,3255.0,2316.0
512356,County,2020/06/09,48.0,TX,48157.0,Fort Bend County,145999.0,641859.0,2171766.0,495164.0,487643.0,263280.0,335037.0,391132.0,148412.0,36860.0,9206.0,2815.0,2217.0
515512,County,2020/06/10,48.0,TX,48157.0,Fort Bend County,138176.0,649682.0,2264094.0,546212.0,492829.0,269270.0,348292.0,394583.0,153719.0,40956.0,11066.0,3156.0,4011.0
518716,County,2020/06/11,48.0,TX,48157.0,Fort Bend County,133788.0,654070.0,2324459.0,538428.0,525864.0,287414.0,367439.0,401140.0,144128.0,41130.0,11264.0,3446.0,4206.0
521968,County,2020/06/12,48.0,TX,48157.0,Fort Bend County,136354.0,651504.0,2315965.0,537752.0,514857.0,285147.0,363688.0,392913.0,158904.0,43777.0,13446.0,3052.0,2429.0
525144,County,2020/06/13,48.0,TX,48157.0,Fort Bend County,140884.0,646974.0,2300414.0,521137.0,536114.0,313688.0,375127.0,359026.0,127049.0,50489.0,12631.0,3368.0,1785.0
529908,County,2020/06/14,48.0,TX,48157.0,Fort Bend County,159455.0,628403.0,1956126.0,452567.0,468342.0,250327.0,313106.0,292323.0,108331.0,50106.0,14145.0,4531.0,2348.0
531487,County,2020/06/15,48.0,TX,48157.0,Fort Bend County,148538.0,639320.0,2140567.0,496617.0,480860.0,255729.0,334121.0,373170.0,146275.0,37816.0,10384.0,3331.0,2264.0
536268,County,2020/06/16,48.0,TX,48157.0,Fort Bend County,141852.0,646006.0,2295433.0,578500.0,505197.0,267581.0,349218.0,394105.0,145567.0,39118.0,10583.0,3710.0,1854.0
539437,County,2020/06/17,48.0,TX,48157.0,Fort Bend County,141801.0,646057.0,2326780.0,550530.0,520966.0,271500.0,360911.0,410093.0,154437.0,40946.0,12082.0,3781.0,1534.0
541067,County,2020/06/18,48.0,TX,48157.0,Fort Bend County,139479.0,648379.0,2296938.0,541149.0,500385.0,280103.0,358791.0,403165.0,155326.0,38983.0,14247.0,3495.0,1294.0
544258,County,2020/06/19,48.0,TX,48157.0,Fort Bend County,136507.0,651351.0,2176477.0,492758.0,469918.0,263005.0,354218.0,381449.0,149802.0,45815.0,13291.0,3726.0,2495.0
547463,County,2020/06/20,48.0,TX,48157.0,Fort Bend County,148162.0,639696.0,2109370.0,461248.0,496946.0,274907.0,346585.0,334212.0,124810.0,51042.0,13853.0,3947.0,1820.0
550668,County,2020/06/21,48.0,TX,48157.0,Fort Bend County,170102.0,617756.0,1724735.0,352769.0,412992.0,220658.0,291644.0,267143.0,108031.0,51946.0,13422.0,3968.0,2162.0
555448,County,2020/06/22,48.0,TX,48157.0,Fort Bend County,156876.0,630982.0,1857976.0,410462.0,403485.0,211167.0,291620.0,348489.0,134053.0,39547.0,12372.0,3508.0,3273.0
557076,County,2020/06/23,48.0,TX,48157.0,Fort Bend County,146690.0,641168.0,2185236.0,537100.0,480960.0,259918.0,326730.0,385758.0,142067.0,35782.0,11378.0,3697.0,1846.0
560233,County,2020/06/24,48.0,TX,48157.0,Fort Bend County,159097.0,628761.0,1942252.0,432373.0,427348.0,222357.0,307764.0,363296.0,139563.0,30850.0,12996.0,3485.0,2220.0
564970,County,2020/06/25,48.0,TX,48157.0,Fort Bend County,156018.0,631840.0,1974912.0,443828.0,436345.0,231506.0,306705.0,359542.0,143598.0,33716.0,13999.0,3476.0,2197.0
568268,County,2020/06/26,48.0,TX,48157.0,Fort Bend County,152627.0,635231.0,2093199.0,475654.0,472387.0,242162.0,334089.0,363540.0,143210.0,36880.0,18498.0,3906.0,2873.0
571418,County,2020/06/27,48.0,TX,48157.0,Fort Bend County,154592.0,633266.0,2152154.0,506775.0,515678.0,287724.0,336028.0,327381.0,115575.0,39873.0,16077.0,4492.0,2551.0
574599,County,2020/06/28,48.0,TX,48157.0,Fort Bend County,167054.0,620804.0,1856224.0,418765.0,445467.0,246899.0,298519.0,278885.0,99261.0,42722.0,18497.0,3920.0,3289.0
576202,County,2020/06/29,48.0,TX,48157.0,Fort Bend County,160167.0,627691.0,2015689.0,470706.0,428122.0,239143.0,317058.0,363411.0,140206.0,37985.0,12444.0,3670.0,2944.0
579412,County,2020/06/30,48.0,TX,48157.0,Fort Bend County,155151.0,632707.0,1970950.0,466776.0,404146.0,227904.0,308554.0,363427.0,146052.0,36161.0,11345.0,3144.0,3441.0
582616,County,2020/07/01,48.0,TX,48157.0,Fort Bend County,149473.0,638385.0,1995411.0,468948.0,421609.0,234640.0,307693.0,353884.0,148938.0,39305.0,12275.0,4101.0,4018.0
585805,County,2020/07/02,48.0,TX,48157.0,Fort Bend County,164710.0,623148.0,2096178.0,471081.0,463138.0,245721.0,325538.0,381619.0,152415.0,35786.0,14859.0,3689.0,2332.0
590597,County,2020/07/03,48.0,TX,48157.0,Fort Bend County,170954.0,616904.0,2081407.0,472974.0,469726.0,240798.0,332207.0,361492.0,142403.0,36672.0,18394.0,3884.0,2857.0
592194,County,2020/07/04,48.0,TX,48157.0,Fort Bend County,177537.0,610321.0,1780693.0,404641.0,401862.0,206008.0,284211.0,309265.0,121829.0,31374.0,15736.0,3323.0,2444.0
595435,County,2020/07/05,48.0,TX,48157.0,Fort Bend County,169237.0,618621.0,1748753.0,380358.0,406114.0,235945.0,293798.0,267557.0,98213.0,37761.0,19006.0,5966.0,4035.0
600123,County,2020/07/06,48.0,TX,48157.0,Fort Bend County,162286.0,625572.0,1883333.0,414119.0,404209.0,223099.0,307941.0,347281.0,133453.0,33673.0,12130.0,4366.0,3062.0
601701,County,2020/07/07,48.0,TX,48157.0,Fort Bend County,155966.0,631892.0,1972151.0,440975.0,404480.0,236717.0,320146.0,371980.0,144120.0,36023.0,10547.0,3302.0,3861.0
604942,County,2020/07/08,48.0,TX,48157.0,Fort Bend County,153526.0,634332.0,1956560.0,433032.0,405217.0,235891.0,317493.0,364935.0,143593.0,37029.0,12734.0,3207.0,3429.0
609714,County,2020/07/09,48.0,TX,48157.0,Fort Bend County,155960.0,631898.0,2024874.0,456468.0,430374.0,233094.0,326453.0,376995.0,146608.0,36304.0,12369.0,3606.0,2603.0
612919,County,2020/07/10,48.0,TX,48157.0,Fort Bend County,150281.0,637577.0,2054017.0,457852.0,441148.0,253550.0,325828.0,370400.0,143628.0,39168.0,14446.0,4125.0,3872.0
616135,County,2020/07/11,48.0,TX,48157.0,Fort Bend County,161335.0,626523.0,1950327.0,435798.0,430778.0,255547.0,327654.0,320311.0,118320.0,41496.0,12363.0,4172.0,3888.0
619323,County,2020/07/12,48.0,TX,48157.0,Fort Bend County,169563.0,618295.0,1752360.0,412606.0,402211.0,231654.0,275947.0,263330.0,104461.0,38458.0,13412.0,4511.0,5770.0
622529,County,2020/07/13,48.0,TX,48157.0,Fort Bend County,151669.0,636189.0,1871973.0,398494.0,393070.0,232074.0,311093.0,339649.0,141419.0,37449.0,11309.0,3152.0,4264.0
624109,County,2020/07/14,48.0,TX,48157.0,Fort Bend County,155557.0,632301.0,1931891.0,424356.0,412878.0,247110.0,304976.0,347734.0,139700.0,38691.0,9376.0,3613.0,3457.0
627231,County,2020/07/15,48.0,TX,48157.0,Fort Bend County,157767.0,630091.0,1997876.0,440377.0,426962.0,236336.0,334865.0,360516.0,141682.0,40573.0,10694.0,3117.0,2754.0
632162,County,2020/07/16,48.0,TX,48157.0,Fort Bend County,161444.0,626414.0,2011608.0,438700.0,432160.0,238710.0,337503.0,365970.0,146080.0,38107.0,9862.0,2541.0,1975.0
635257,County,2020/07/17,48.0,TX,48157.0,Fort Bend County,159778.0,628080.0,1999868.0,435683.0,424205.0,236283.0,339320.0,365082.0,143131.0,39172.0,11570.0,3498.0,1924.0
638459,County,2020/07/18,48.0,TX,48157.0,Fort Bend County,168938.0,618920.0,2030106.0,446256.0,476247.0,271815.0,334306.0,320338.0,116618.0,46521.0,11841.0,3543.0,2621.0
641662,County,2020/07/19,48.0,TX,48157.0,Fort Bend County,185553.0,602305.0,1682847.0,384575.0,389833.0,215259.0,278139.0,257277.0,101456.0,36144.0,12568.0,4693.0,2903.0
644871,County,2020/07/20,48.0,TX,48157.0,Fort Bend County,174876.0,612982.0,1953730.0,442339.0,422205.0,235731.0,308414.0,365265.0,134256.0,30821.0,9747.0,3095.0,1857.0
646499,County,2020/07/21,48.0,TX,48157.0,Fort Bend County,169770.0,618088.0,1881804.0,413051.0,387853.0,229470.0,312206.0,355023.0,137803.0,30578.0,9032.0,3821.0,2967.0
651226,County,2020/07/22,48.0,TX,48157.0,Fort Bend County,165355.0,622503.0,1949969.0,420945.0,405664.0,244875.0,327194.0,361937.0,138490.0,35322.0,9154.0,3054.0,3334.0
654421,County,2020/07/23,48.0,TX,48157.0,Fort Bend County,166368.0,621490.0,1896287.0,418419.0,383073.0,232149.0,315169.0,347134.0,146408.0,36392.0,10659.0,3790.0,3094.0
655892,County,2020/07/24,48.0,TX,48157.0,Fort Bend County,158474.0,629384.0,2040312.0,449835.0,429056.0,247532.0,337124.0,369931.0,150789.0,35718.0,13150.0,4003.0,3174.0
660912,County,2020/07/25,48.0,TX,48157.0,Fort Bend County,181374.0,606484.0,1770284.0,364266.0,401309.0,246819.0,314121.0,298409.0,101693.0,25715.0,10544.0,3916.0,3492.0
662437,County,2020/07/26,48.0,TX,48157.0,Fort Bend County,184526.0,603332.0,1745794.0,375304.0,394081.0,245219.0,297282.0,273986.0,101849.0,34202.0,14656.0,4754.0,4461.0
665732,County,2020/07/27,48.0,TX,48157.0,Fort Bend County,171395.0,616463.0,1944198.0,423051.0,403132.0,229422.0,319652.0,362079.0,147924.0,37752.0,12138.0,4634.0,4414.0
670420,County,2020/07/28,48.0,TX,48157.0,Fort Bend County,165683.0,622175.0,2003745.0,426101.0,400284.0,250436.0,331773.0,389160.0,148668.0,37499.0,11185.0,4359.0,4280.0
672051,County,2020/07/29,48.0,TX,48157.0,Fort Bend County,169500.0,618358.0,1969096.0,436913.0,394513.0,232652.0,318807.0,379451.0,149690.0,37901.0,10246.0,4699.0,4224.0
675213,County,2020/07/30,48.0,TX,48157.0,Fort Bend County,160116.0,627742.0,2033589.0,429602.0,424948.0,257399.0,337545.0,375669.0,147896.0,39688.0,12120.0,4116.0,4606.0
679991,County,2020/07/31,48.0,TX,48157.0,Fort Bend County,163928.0,623930.0,2023580.0,434475.0,419964.0,246468.0,337789.0,370279.0,146241.0,44515.0,14133.0,5417.0,4299.0
681572,County,2020/08/01,48.0,TX,48157.0,Fort Bend County,176686.0,611172.0,1786722.0,363767.0,390695.0,242517.0,316006.0,302785.0,112846.0,35321.0,13106.0,5107.0,4572.0
686401,County,2020/08/02,48.0,TX,48157.0,Fort Bend County,179044.0,608814.0,1851523.0,407729.0,397415.0,247416.0,305916.0,304074.0,114243.0,48604.0,17387.0,5341.0,3398.0
687991,County,2020/08/03,48.0,TX,48157.0,Fort Bend County,165909.0,621949.0,2038173.0,452739.0,416491.0,248084.0,330145.0,378592.0,152502.0,41273.0,12246.0,4042.0,2059.0
692766,County,2020/08/04,48.0,TX,48157.0,Fort Bend County,151561.0,636297.0,2140495.0,483783.0,447022.0,265114.0,345418.0,397129.0,151798.0,36235.0,9236.0,3150.0,1610.0
694394,County,2020/08/05,48.0,TX,48157.0,Fort Bend County,156812.0,631046.0,2141923.0,489803.0,454690.0,257328.0,352785.0,380399.0,153170.0,39420.0,9235.0,3280.0,1813.0
697601,County,2020/08/06,48.0,TX,48157.0,Fort Bend County,152408.0,635450.0,2151583.0,475856.0,449917.0,272768.0,344940.0,398327.0,152493.0,39209.0,11899.0,4099.0,2075.0
700813,County,2020/08/07,48.0,TX,48157.0,Fort Bend County,152692.0,635166.0,2106605.0,453737.0,444072.0,261228.0,349509.0,392599.0,145657.0,39775.0,14247.0,3968.0,1813.0
703962,County,2020/08/08,48.0,TX,48157.0,Fort Bend County,157179.0,630679.0,2033790.0,428375.0,463120.0,283704.0,338418.0,332424.0,119251.0,48461.0,14578.0,3828.0,1631.0
707152,County,2020/08/09,48.0,TX,48157.0,Fort Bend County,170528.0,617330.0,1927705.0,374789.0,466186.0,266732.0,323148.0,311760.0,111338.0,47267.0,17856.0,5789.0,2840.0
710422,County,2020/08/10,48.0,TX,48157.0,Fort Bend County,159031.0,628827.0,2099071.0,442059.0,443770.0,248040.0,342112.0,404176.0,161272.0,39826.0,12446.0,3828.0,1542.0
715155,County,2020/08/11,48.0,TX,48157.0,Fort Bend County,157280.0,630578.0,2142188.0,447253.0,452449.0,268390.0,340446.0,411103.0,167652.0,37207.0,13326.0,3222.0,1140.0
718301,County,2020/08/12,48.0,TX,48157.0,Fort Bend County,154694.0,633164.0,2030166.0,408029.0,428781.0,250347.0,340640.0,385616.0,155063.0,38150.0,12690.0,4384.0,6466.0
721495,County,2020/08/13,48.0,TX,48157.0,Fort Bend County,144593.0,643265.0,2097985.0,420357.0,443838.0,264592.0,350132.0,386980.0,161878.0,41883.0,14531.0,5592.0,8202.0
724722,County,2020/08/14,48.0,TX,48157.0,Fort Bend County,136235.0,651623.0,2198884.0,444964.0,455084.0,282632.0,377370.0,405004.0,156980.0,46563.0,16168.0,5219.0,8900.0
727933,County,2020/08/15,48.0,TX,48157.0,Fort Bend County,149716.0,638142.0,2134850.0,430760.0,467877.0,288055.0,368931.0,370298.0,129838.0,49141.0,16323.0,4332.0,9295.0
729512,County,2020/08/16,48.0,TX,48157.0,Fort Bend County,171060.0,616798.0,1920705.0,355416.0,432107.0,269861.0,342623.0,304337.0,118428.0,53929.0,22750.0,7004.0,14250.0
734292,County,2020/08/17,48.0,TX,48157.0,Fort Bend County,167134.0,620724.0,2038702.0,403996.0,416017.0,257713.0,341166.0,380797.0,161715.0,42001.0,15239.0,5883.0,14175.0
737464,County,2020/08/18,48.0,TX,48157.0,Fort Bend County,161549.0,626309.0,2018437.0,403429.0,408725.0,254930.0,335424.0,384997.0,153787.0,38311.0,18146.0,5563.0,15125.0
739126,County,2020/08/19,48.0,TX,48157.0,Fort Bend County,154468.0,633390.0,2124927.0,431998.0,444567.0,249536.0,347270.0,411772.0,163423.0,38619.0,17349.0,5062.0,15331.0
742288,County,2020/08/20,48.0,TX,48157.0,Fort Bend County,148148.0,639710.0,2129568.0,436910.0,436423.0,265014.0,349388.0,403017.0,160334.0,39367.0,18504.0,5923.0,14688.0
745488,County,2020/08/21,48.0,TX,48157.0,Fort Bend County,138739.0,649119.0,2315918.0,474173.0,493467.0,296086.0,379501.0,428108.0,161622.0,45079.0,18571.0,6179.0,13132.0
750268,County,2020/08/22,48.0,TX,48157.0,Fort Bend County,148365.0,639493.0,2228734.0,454971.0,495314.0,303455.0,382292.0,367952.0,131831.0,53778.0,20077.0,5334.0,13730.0
753437,County,2020/08/23,48.0,TX,48157.0,Fort Bend County,173668.0,614190.0,1751516.0,332067.0,405696.0,247862.0,310573.0,275909.0,99880.0,45194.0,17846.0,4876.0,11613.0
755108,County,2020/08/24,48.0,TX,48157.0,Fort Bend County,169194.0,618664.0,1902772.0,399294.0,401297.0,244210.0,308290.0,351670.0,137456.0,36016.0,11217.0,2713.0,10609.0
759869,County,2020/08/25,48.0,TX,48157.0,Fort Bend County,154541.0,633317.0,2053096.0,420221.0,457378.0,265561.0,337184.0,368326.0,143238.0,35468.0,12847.0,3988.0,8885.0
763029,County,2020/08/26,48.0,TX,48157.0,Fort Bend County,165689.0,622169.0,1929008.0,417379.0,432095.0,245685.0,310901.0,337821.0,134534.0,29125.0,11068.0,3033.0,7367.0
766224,County,2020/08/27,48.0,TX,48157.0,Fort Bend County,176113.0,611745.0,1772460.0,361766.0,381834.0,232950.0,298675.0,325819.0,121225.0,27428.0,13622.0,3003.0,6138.0
767864,County,2020/08/28,48.0,TX,48157.0,Fort Bend County,159331.0,628527.0,1992639.0,390249.0,417540.0,249236.0,333094.0,386978.0,150211.0,40974.0,15658.0,3574.0,5125.0
771068,County,2020/08/29,48.0,TX,48157.0,Fort Bend County,162861.0,624997.0,2092992.0,425335.0,457578.0,276643.0,371765.0,365019.0,120621.0,52673.0,14209.0,3445.0,5704.0
774268,County,2020/08/30,48.0,TX,48157.0,Fort Bend County,179738.0,608120.0,1805850.0,349638.0,411127.0,259428.0,318089.0,293449.0,105197.0,40223.0,15572.0,4689.0,8438.0
777452,County,2020/08/31,48.0,TX,48157.0,Fort Bend County,165027.0,622831.0,1977015.0,409292.0,413612.0,243134.0,326952.0,372985.0,148630.0,38405.0,13177.0,3408.0,7420.0
780602,County,2020/09/01,48.0,TX,48157.0,Fort Bend County,157653.0,630205.0,2069608.0,423170.0,451501.0,257211.0,346559.0,380629.0,154383.0,36535.0,11133.0,3543.0,4944.0
784627,County,2020/09/02,48.0,TX,48157.0,Fort Bend County,160693.0,627165.0,2099276.0,433721.0,438344.0,256811.0,348974.0,397154.0,161711.0,41632.0,12932.0,3147.0,4850.0
788586,County,2020/09/03,48.0,TX,48157.0,Fort Bend County,149909.0,637949.0,2156025.0,442339.0,457865.0,275719.0,363138.0,390296.0,161102.0,42584.0,12446.0,4622.0,5914.0
791766,County,2020/09/04,48.0,TX,48157.0,Fort Bend County,158083.0,629775.0,2151298.0,435892.0,471152.0,271201.0,350983.0,398244.0,145016.0,46001.0,21098.0,5568.0,6143.0
794962,County,2020/09/05,48.0,TX,48157.0,Fort Bend County,156150.0,631708.0,2181231.0,459975.0,491032.0,296242.0,372164.0,357533.0,121815.0,50675.0,21402.0,5342.0,5051.0
798167,County,2020/09/06,48.0,TX,48157.0,Fort Bend County,174754.0,613104.0,1856173.0,374715.0,409912.0,248429.0,319134.0,305121.0,111573.0,54350.0,20714.0,5496.0,6729.0
801375,County,2020/09/07,48.0,TX,48157.0,Fort Bend County,182488.0,605370.0,1783328.0,377498.0,399992.0,245709.0,295228.0,278496.0,103513.0,47366.0,21928.0,6413.0,7185.0
803001,County,2020/09/08,48.0,TX,48157.0,Fort Bend County,166261.0,621597.0,2057290.0,419801.0,444982.0,249750.0,337813.0,391219.0,152223.0,37111.0,13483.0,3979.0,6929.0
807781,County,2020/09/09,48.0,TX,48157.0,Fort Bend County,159775.0,628083.0,2185147.0,441957.0,477575.0,274272.0,360895.0,403711.0,161717.0,41588.0,12778.0,4314.0,6340.0
810936,County,2020/09/10,48.0,TX,48157.0,Fort Bend County,161813.0,626045.0,2085242.0,433861.0,453777.0,252944.0,335459.0,386524.0,159487.0,38183.0,12606.0,4606.0,7795.0
812565,County,2020/09/11,48.0,TX,48157.0,Fort Bend County,153800.0,634058.0,2260615.0,452958.0,495814.0,285978.0,377159.0,415931.0,160646.0,45280.0,16171.0,4091.0,6587.0
815751,County,2020/09/12,48.0,TX,48157.0,Fort Bend County,166628.0,621230.0,2123327.0,416348.0,473676.0,288678.0,358489.0,376369.0,137172.0,47452.0,15028.0,4183.0,5932.0
820548,County,2020/09/13,48.0,TX,48157.0,Fort Bend County,181607.0,606251.0,1781726.0,304656.0,414156.0,243249.0,320518.0,313279.0,117210.0,43985.0,12848.0,3929.0,7896.0
822177,County,2020/09/14,48.0,TX,48157.0,Fort Bend County,163938.0,623920.0,2110282.0,432250.0,458489.0,263534.0,350123.0,394139.0,153270.0,36118.0,11853.0,4019.0,6487.0
825332,County,2020/09/15,48.0,TX,48157.0,Fort Bend County,161930.0,625928.0,2216111.0,456333.0,481299.0,282013.0,364161.0,414089.0,156995.0,39296.0,11951.0,3945.0,6029.0
828573,County,2020/09/16,48.0,TX,48157.0,Fort Bend County,161541.0,626317.0,2157883.0,430811.0,456251.0,267498.0,366198.0,409484.0,165344.0,38618.0,12872.0,4706.0,6101.0
833317,County,2020/09/17,48.0,TX,48157.0,Fort Bend County,159511.0,628347.0,2176690.0,439967.0,458813.0,273376.0,354561.0,413137.0,171426.0,40490.0,15458.0,3713.0,5749.0
834946,County,2020/09/18,48.0,TX,48157.0,Fort Bend County,153223.0,634635.0,2336448.0,470869.0,509140.0,296566.0,390189.0,425210.0,170269.0,45732.0,18011.0,5530.0,4932.0
838108,County,2020/09/19,48.0,TX,48157.0,Fort Bend County,161955.0,625903.0,2354761.0,486549.0,524974.0,324965.0,397717.0,397781.0,143145.0,53916.0,17337.0,4364.0,4013.0
842883,County,2020/09/20,48.0,TX,48157.0,Fort Bend County,177415.0,610443.0,1725512.0,338918.0,407843.0,238728.0,298416.0,275966.0,102965.0,39628.0,14983.0,4112.0,3953.0
844511,County,2020/09/21,48.0,TX,48157.0,Fort Bend County,182943.0,604915.0,1691366.0,321881.0,379188.0,208013.0,274529.0,326444.0,132915.0,32805.0,10127.0,3214.0,2250.0
847716,County,2020/09/22,48.0,TX,48157.0,Fort Bend County,176005.0,611853.0,1794368.0,353273.0,432796.0,225551.0,301961.0,318054.0,121305.0,28292.0,8024.0,3329.0,1783.0
852494,County,2020/09/23,48.0,TX,48157.0,Fort Bend County,156351.0,631507.0,1996921.0,385332.0,440891.0,256124.0,334746.0,387171.0,147079.0,32737.0,8264.0,3009.0,1568.0
855649,County,2020/09/24,48.0,TX,48157.0,Fort Bend County,142938.0,644920.0,2111801.0,427330.0,460287.0,258408.0,340542.0,416630.0,154828.0,37284.0,10938.0,3107.0,2447.0
857278,County,2020/09/25,48.0,TX,48157.0,Fort Bend County,136205.0,651653.0,2257792.0,434260.0,494796.0,277293.0,377699.0,438979.0,167644.0,44779.0,16412.0,4684.0,1246.0
860464,County,2020/09/26,48.0,TX,48157.0,Fort Bend County,148764.0,639094.0,2250810.0,465184.0,501022.0,289238.0,391264.0,400448.0,135413.0,50455.0,13145.0,3196.0,1445.0
865261,County,2020/09/27,48.0,TX,48157.0,Fort Bend County,160018.0,627840.0,1911735.0,376966.0,447036.0,261883.0,337454.0,307827.0,112968.0,44370.0,17230.0,4118.0,1883.0
866890,County,2020/09/28,48.0,TX,48157.0,Fort Bend County,144974.0,642884.0,2067549.0,417881.0,457980.0,268887.0,342635.0,381071.0,150472.0,35233.0,9290.0,2514.0,1586.0
870047,County,2020/09/29,48.0,TX,48157.0,Fort Bend County,147318.0,640540.0,2171065.0,444174.0,473184.0,268553.0,354732.0,417975.0,164027.0,36606.0,7996.0,2159.0,1659.0
874826,County,2020/09/30,48.0,TX,48157.0,Fort Bend County,156034.0,631824.0,2356675.0,535202.0,513598.0,283579.0,362409.0,441772.0,164989.0,42095.0,8532.0,3031.0,1468.0
876454,County,2020/10/01,48.0,TX,48157.0,Fort Bend County,140273.0,647585.0,2220917.0,432708.0,493235.0,294575.0,373757.0,411922.0,161368.0,38836.0,9872.0,2553.0,2091.0
879658,County,2020/10/02,48.0,TX,48157.0,Fort Bend County,144605.0,643253.0,2190679.0,437836.0,487369.0,287632.0,366800.0,409928.0,143923.0,39978.0,12546.0,3236.0,1431.0
882874,County,2020/10/03,48.0,TX,48157.0,Fort Bend County,158912.0,628946.0,2210587.0,436739.0,503167.0,303364.0,383933.0,389140.0,131213.0,46678.0,12562.0,2313.0,1478.0
887276,County,2020/10/04,48.0,TX,48157.0,Fort Bend County,168726.0,619132.0,1910142.0,388421.0,450400.0,258836.0,333885.0,303743.0,108959.0,45498.0,15424.0,3479.0,1497.0
890527,County,2020/10/05,48.0,TX,48157.0,Fort Bend County,172027.0,615831.0,2009285.0,404624.0,443254.0,242525.0,337677.0,376081.0,154732.0,37647.0,8739.0,2448.0,1558.0
893707,County,2020/10/06,48.0,TX,48157.0,Fort Bend County,153535.0,634323.0,2151403.0,434763.0,468889.0,269210.0,362472.0,398190.0,168773.0,37272.0,8503.0,1999.0,1332.0
896883,County,2020/10/07,48.0,TX,48157.0,Fort Bend County,148415.0,639443.0,2205345.0,423261.0,472799.0,269903.0,387279.0,430119.0,168708.0,40982.0,8574.0,2003.0,1717.0
900074,County,2020/10/08,48.0,TX,48157.0,Fort Bend County,147327.0,640531.0,2075621.0,407842.0,437342.0,258596.0,350318.0,396653.0,172098.0,38855.0,9545.0,2487.0,1885.0
903270,County,2020/10/09,48.0,TX,48157.0,Fort Bend County,154267.0,633591.0,2180570.0,417541.0,462017.0,287754.0,385957.0,414418.0,158622.0,39104.0,10988.0,2842.0,1327.0
906087,County,2020/10/10,48.0,TX,48157.0,Fort Bend County,165078.0,622780.0,2151323.0,399141.0,487752.0,291635.0,386432.0,382266.0,142777.0,47442.0,10801.0,1984.0,1093.0
907761,County,2020/10/11,48.0,TX,48157.0,Fort Bend County,171916.0,615942.0,1848910.0,358536.0,422296.0,259225.0,320075.0,306652.0,116674.0,48889.0,12591.0,3025.0,947.0
910923,County,2020/10/12,48.0,TX,48157.0,Fort Bend County,159459.0,628399.0,2089949.0,444054.0,463521.0,256457.0,347073.0,369695.0,155445.0,40736.0,9333.0,2460.0,1175.0
913791,County,2020/10/13,48.0,TX,48157.0,Fort Bend County,149782.0,638076.0,2107732.0,429856.0,471897.0,270018.0,348703.0,386558.0,148818.0,38944.0,9193.0,2294.0,1451.0
917211,County,2020/10/14,48.0,TX,48157.0,Fort Bend County,145922.0,641936.0,2142291.0,432271.0,470960.0,278073.0,358250.0,392517.0,157817.0,38016.0,9952.0,2587.0,1848.0
920561,County,2020/10/15,48.0,TX,48157.0,Fort Bend County,158348.0,629510.0,1997695.0,384681.0,432878.0,252738.0,335391.0,378216.0,156303.0,41895.0,11101.0,2478.0,2014.0
923561,County,2020/10/16,48.0,TX,48157.0,Fort Bend County,141920.0,645938.0,2188111.0,413187.0,492524.0,281475.0,387715.0,405335.0,149164.0,39639.0,13921.0,2989.0,2162.0
927609,County,2020/10/17,48.0,TX,48157.0,Fort Bend County,157991.0,629867.0,2142474.0,426134.0,483857.0,292442.0,378699.0,361740.0,136319.0,46032.0,12905.0,2488.0,1858.0
930408,County,2020/10/18,48.0,TX,48157.0,Fort Bend County,169227.0,618631.0,1888934.0,383120.0,437562.0,254446.0,323052.0,315030.0,115782.0,41459.0,13555.0,3401.0,1527.0
932934,County,2020/10/19,48.0,TX,48157.0,Fort Bend County,151263.0,636595.0,2144181.0,440183.0,471484.0,280518.0,359843.0,385237.0,152927.0,39607.0,10461.0,2436.0,1485.0
936372,County,2020/10/20,48.0,TX,48157.0,Fort Bend County,153189.0,634669.0,2140136.0,447562.0,461419.0,277466.0,348089.0,398039.0,159759.0,36812.0,7429.0,2377.0,1184.0
939382,County,2020/10/21,48.0,TX,48157.0,Fort Bend County,165454.0,622404.0,2104399.0,427662.0,462512.0,265207.0,355724.0,393110.0,150119.0,37667.0,8425.0,2428.0,1545.0
943196,County,2020/10/22,48.0,TX,48157.0,Fort Bend County,150977.0,636881.0,2259112.0,483318.0,503382.0,291609.0,369827.0,402115.0,154456.0,41286.0,9495.0,2364.0,1260.0
946391,County,2020/10/23,48.0,TX,48157.0,Fort Bend County,140634.0,647224.0,2466217.0,492181.0,557093.0,325888.0,425794.0,442012.0,161834.0,45621.0,12232.0,2250.0,1312.0
949990,County,2020/10/24,48.0,TX,48157.0,Fort Bend County,151284.0,636574.0,2448832.0,503102.0,573829.0,330499.0,428906.0,405563.0,140844.0,50203.0,12779.0,2103.0,1004.0
