,Level,Date,State FIPS,State Postal Code,County FIPS,County Name,Population Staying at Home,Population Not Staying at Home,Number of Trips,Number of Trips <1,Number of Trips 1-3,Number of Trips 3-5,Number of Trips 5-10,Number of Trips 10-25,Number of Trips 25-50,Number of Trips 50-100,Number of Trips 100-250,Number of Trips 250-500,Number of Trips >=500
2182,County,2020/01/01,40.0,OK,40105.0,Nowata County,2322.0,7896.0,30157.0,9064.0,6294.0,3013.0,3039.0,5057.0,2244.0,966.0,447.0,30.0,3.0
4843,County,2020/01/02,40.0,OK,40105.0,Nowata County,1762.0,8456.0,40153.0,12030.0,9124.0,3352.0,4301.0,6384.0,2643.0,1883.0,386.0,49.0,1.0
9262,County,2020/01/03,40.0,OK,40105.0,Nowata County,1927.0,8291.0,37761.0,9622.0,7344.0,3860.0,4415.0,6072.0,3632.0,2366.0,410.0,39.0,1.0
10698,County,2020/01/04,40.0,OK,40105.0,Nowata County,2104.0,8114.0,33964.0,8725.0,8424.0,3797.0,2699.0,5455.0,2945.0,1765.0,99.0,54.0,1.0
14958,County,2020/01/05,40.0,OK,40105.0,Nowata County,2189.0,8029.0,29810.0,6984.0,7018.0,3269.0,3588.0,4438.0,3570.0,501.0,382.0,57.0,3.0
18640,County,2020/01/06,40.0,OK,40105.0,Nowata County,1825.0,8393.0,37279.0,9741.0,7674.0,3686.0,3664.0,7260.0,3344.0,1564.0,271.0,74.0,1.0
21835,County,2020/01/07,40.0,OK,40105.0,Nowata County,1768.0,8450.0,38398.0,12498.0,7203.0,4378.0,3776.0,5402.0,3514.0,1333.0,269.0,24.0,1.0
25030,County,2020/01/08,40.0,OK,40105.0,Nowata County,1894.0,8324.0,37449.0,12712.0,6635.0,3992.0,3388.0,5873.0,3264.0,1257.0,291.0,36.0,1.0
28210,County,2020/01/09,40.0,OK,40105.0,Nowata County,1745.0,8473.0,37458.0,10776.0,8297.0,4000.0,3322.0,6535.0,2804.0,1287.0,394.0,43.0,0.0
31417,County,2020/01/10,40.0,OK,40105.0,Nowata County,2111.0,8107.0,38183.0,11052.0,8780.0,4124.0,4243.0,4917.0,3227.0,1540.0,274.0,22.0,4.0
33094,County,2020/01/11,40.0,OK,40105.0,Nowata County,2699.0,7519.0,40053.0,11110.0,11251.0,5280.0,3801.0,5081.0,2204.0,1025.0,225.0,76.0,0.0
36250,County,2020/01/12,40.0,OK,40105.0,Nowata County,2618.0,7600.0,30210.0,8659.0,6192.0,4160.0,2920.0,4930.0,2141.0,989.0,152.0,62.0,5.0
41028,County,2020/01/13,40.0,OK,40105.0,Nowata County,1949.0,8269.0,37987.0,12983.0,6792.0,3845.0,3743.0,5522.0,3359.0,1515.0,204.0,24.0,0.0
44177,County,2020/01/14,40.0,OK,40105.0,Nowata County,1907.0,8311.0,41028.0,16072.0,6812.0,3930.0,3727.0,5017.0,3597.0,1592.0,269.0,12.0,0.0
47382,County,2020/01/15,40.0,OK,40105.0,Nowata County,1996.0,8222.0,35645.0,11016.0,6186.0,3701.0,3569.0,6170.0,3016.0,1481.0,470.0,36.0,0.0
48911,County,2020/01/16,40.0,OK,40105.0,Nowata County,1809.0,8409.0,38756.0,13639.0,6750.0,3350.0,4088.0,6236.0,3399.0,1089.0,189.0,11.0,5.0
53826,County,2020/01/17,40.0,OK,40105.0,Nowata County,1938.0,8280.0,35648.0,10849.0,6705.0,3619.0,4051.0,6219.0,2557.0,1346.0,255.0,46.0,1.0
55399,County,2020/01/18,40.0,OK,40105.0,Nowata County,2059.0,8159.0,34916.0,8950.0,7479.0,4198.0,3314.0,5118.0,3428.0,2173.0,241.0,12.0,3.0
58547,County,2020/01/19,40.0,OK,40105.0,Nowata County,2414.0,7804.0,31348.0,7929.0,7022.0,2821.0,3940.0,5549.0,2784.0,1009.0,267.0,27.0,0.0
61779,County,2020/01/20,40.0,OK,40105.0,Nowata County,2109.0,8109.0,35587.0,9297.0,7979.0,3364.0,3324.0,6165.0,3306.0,1804.0,298.0,49.0,1.0
64985,County,2020/01/21,40.0,OK,40105.0,Nowata County,1998.0,8220.0,38539.0,13181.0,7073.0,3972.0,3839.0,4760.0,3805.0,1602.0,278.0,23.0,6.0
69745,County,2020/01/22,40.0,OK,40105.0,Nowata County,1897.0,8321.0,35225.0,9208.0,8489.0,4293.0,3104.0,5982.0,2401.0,1364.0,334.0,45.0,5.0
71371,County,2020/01/23,40.0,OK,40105.0,Nowata County,1932.0,8286.0,35660.0,10271.0,7702.0,3251.0,4249.0,5200.0,3313.0,1188.0,425.0,54.0,7.0
74519,County,2020/01/24,40.0,OK,40105.0,Nowata County,2050.0,8168.0,38398.0,9791.0,9550.0,3509.0,4185.0,5811.0,3776.0,1441.0,297.0,33.0,5.0
79320,County,2020/01/25,40.0,OK,40105.0,Nowata County,2054.0,8164.0,33576.0,8007.0,7266.0,2693.0,3228.0,6315.0,3880.0,1892.0,268.0,24.0,3.0
82032,County,2020/01/26,40.0,OK,40105.0,Nowata County,2446.0,7772.0,33785.0,10753.0,6712.0,3489.0,3521.0,5416.0,2762.0,938.0,163.0,27.0,4.0
83051,County,2020/01/27,40.0,OK,40105.0,Nowata County,2090.0,8128.0,38788.0,11801.0,9296.0,3239.0,3048.0,6095.0,3218.0,1851.0,191.0,45.0,4.0
87937,County,2020/01/28,40.0,OK,40105.0,Nowata County,1840.0,8378.0,33604.0,9320.0,7557.0,3038.0,3084.0,5834.0,2959.0,1438.0,285.0,87.0,2.0
92090,County,2020/01/29,40.0,OK,40105.0,Nowata County,1880.0,8338.0,37580.0,10964.0,9028.0,3918.0,2825.0,5859.0,2922.0,1556.0,463.0,42.0,3.0
95296,County,2020/01/30,40.0,OK,40105.0,Nowata County,1615.0,8603.0,37449.0,12227.0,8697.0,2904.0,3261.0,5586.0,2777.0,1627.0,300.0,56.0,14.0
98490,County,2020/01/31,40.0,OK,40105.0,Nowata County,1741.0,8477.0,39499.0,10670.0,9496.0,3928.0,3057.0,6099.0,3617.0,2175.0,428.0,21.0,8.0
101678,County,2020/02/01,40.0,OK,40105.0,Nowata County,1928.0,8290.0,34995.0,7387.0,7917.0,3121.0,4428.0,6894.0,2704.0,1898.0,606.0,32.0,8.0
104880,County,2020/02/02,40.0,OK,40105.0,Nowata County,2009.0,8209.0,34986.0,10626.0,8799.0,3599.0,3970.0,4617.0,1866.0,944.0,445.0,107.0,13.0
108083,County,2020/02/03,40.0,OK,40105.0,Nowata County,1609.0,8609.0,39004.0,12459.0,8176.0,3908.0,3308.0,5948.0,3463.0,1334.0,384.0,18.0,6.0
109700,County,2020/02/04,40.0,OK,40105.0,Nowata County,1765.0,8453.0,38803.0,11376.0,7268.0,5067.0,4227.0,6138.0,2782.0,1496.0,375.0,63.0,11.0
112846,County,2020/02/05,40.0,OK,40105.0,Nowata County,2514.0,7704.0,32741.0,9095.0,8280.0,4279.0,3430.0,4065.0,2235.0,887.0,375.0,87.0,8.0
115990,County,2020/02/06,40.0,OK,40105.0,Nowata County,1939.0,8279.0,36960.0,10893.0,7237.0,3911.0,4137.0,5948.0,3436.0,999.0,358.0,29.0,12.0
120883,County,2020/02/07,40.0,OK,40105.0,Nowata County,1847.0,8371.0,43394.0,13760.0,9510.0,3390.0,4329.0,7410.0,2967.0,1545.0,388.0,84.0,11.0
124043,County,2020/02/08,40.0,OK,40105.0,Nowata County,2126.0,8092.0,34786.0,7732.0,7056.0,3895.0,4014.0,6771.0,3235.0,1615.0,390.0,70.0,8.0
126196,County,2020/02/09,40.0,OK,40105.0,Nowata County,2572.0,7646.0,31424.0,8712.0,7613.0,3308.0,3369.0,4866.0,2111.0,972.0,410.0,59.0,4.0
130491,County,2020/02/10,40.0,OK,40105.0,Nowata County,1946.0,8272.0,41902.0,12787.0,9880.0,3143.0,4172.0,6601.0,3210.0,1639.0,418.0,48.0,4.0
132549,County,2020/02/11,40.0,OK,40105.0,Nowata County,1676.0,8542.0,43447.0,12318.0,9947.0,4089.0,4697.0,6354.0,3547.0,1933.0,462.0,94.0,6.0
134152,County,2020/02/12,40.0,OK,40105.0,Nowata County,1943.0,8275.0,41838.0,12664.0,9236.0,4149.0,4197.0,6766.0,2897.0,1330.0,517.0,74.0,8.0
140012,County,2020/02/13,40.0,OK,40105.0,Nowata County,1739.0,8479.0,43567.0,10529.0,11638.0,4429.0,5366.0,6096.0,3694.0,1449.0,274.0,84.0,8.0
143215,County,2020/02/14,40.0,OK,40105.0,Nowata County,1606.0,8612.0,43436.0,11173.0,9610.0,3769.0,4538.0,7417.0,4625.0,1847.0,372.0,76.0,9.0
144839,County,2020/02/15,40.0,OK,40105.0,Nowata County,1984.0,8234.0,40734.0,11168.0,8167.0,3923.0,4527.0,6569.0,3470.0,2206.0,607.0,86.0,11.0
148028,County,2020/02/16,40.0,OK,40105.0,Nowata County,2174.0,8044.0,32441.0,7789.0,6445.0,3683.0,3446.0,6284.0,2451.0,1814.0,448.0,68.0,13.0
151204,County,2020/02/17,40.0,OK,40105.0,Nowata County,2518.0,7700.0,32624.0,8996.0,6837.0,2438.0,2764.0,6579.0,3519.0,1180.0,273.0,28.0,10.0
155983,County,2020/02/18,40.0,OK,40105.0,Nowata County,1897.0,8321.0,39053.0,12021.0,8371.0,3564.0,3153.0,5656.0,3495.0,2123.0,605.0,53.0,12.0
157611,County,2020/02/19,40.0,OK,40105.0,Nowata County,1800.0,8418.0,44573.0,12794.0,9406.0,5563.0,4562.0,7234.0,3232.0,1330.0,352.0,89.0,11.0
160672,County,2020/02/20,40.0,OK,40105.0,Nowata County,1866.0,8352.0,42346.0,11072.0,8907.0,3768.0,4935.0,7035.0,4315.0,1693.0,480.0,131.0,10.0
163950,County,2020/02/21,40.0,OK,40105.0,Nowata County,1868.0,8350.0,46607.0,12789.0,10413.0,3642.0,4313.0,8595.0,4332.0,1887.0,518.0,111.0,7.0
168710,County,2020/02/22,40.0,OK,40105.0,Nowata County,1847.0,8371.0,41581.0,10787.0,9258.0,3597.0,4589.0,6955.0,4352.0,1297.0,675.0,57.0,14.0
170372,County,2020/02/23,40.0,OK,40105.0,Nowata County,2427.0,7791.0,33840.0,9245.0,7074.0,3664.0,3746.0,6295.0,2575.0,920.0,268.0,41.0,12.0
175153,County,2020/02/24,40.0,OK,40105.0,Nowata County,1845.0,8373.0,38140.0,11404.0,8082.0,3338.0,4296.0,5606.0,3645.0,1356.0,322.0,88.0,3.0
177853,County,2020/02/25,40.0,OK,40105.0,Nowata County,1900.0,8318.0,40725.0,11013.0,6751.0,4603.0,5295.0,6949.0,3925.0,1763.0,350.0,72.0,4.0
181046,County,2020/02/26,40.0,OK,40105.0,Nowata County,1862.0,8356.0,37648.0,8840.0,8510.0,3579.0,4142.0,7096.0,3207.0,1688.0,586.0,0.0,0.0
184724,County,2020/02/27,40.0,OK,40105.0,Nowata County,1720.0,8498.0,40925.0,11706.0,8763.0,3861.0,3933.0,6681.0,3581.0,1823.0,506.0,69.0,2.0
186450,County,2020/02/28,40.0,OK,40105.0,Nowata County,1670.0,8548.0,47975.0,12650.0,9916.0,4606.0,4806.0,8765.0,4431.0,1891.0,845.0,60.0,5.0
189503,County,2020/02/29,40.0,OK,40105.0,Nowata County,1852.0,8366.0,41038.0,11534.0,8850.0,3216.0,4511.0,6883.0,3844.0,1488.0,613.0,93.0,6.0
194336,County,2020/03/01,40.0,OK,40105.0,Nowata County,1926.0,8292.0,31508.0,7640.0,6723.0,2733.0,4733.0,5360.0,2466.0,1411.0,411.0,26.0,5.0
197492,County,2020/03/02,40.0,OK,40105.0,Nowata County,1661.0,8557.0,45515.0,12634.0,10517.0,4474.0,4491.0,7459.0,4229.0,1484.0,177.0,44.0,6.0
200767,County,2020/03/03,40.0,OK,40105.0,Nowata County,1629.0,8589.0,39734.0,11569.0,7357.0,4827.0,4478.0,5686.0,3797.0,1312.0,620.0,84.0,4.0
201450,County,2020/03/04,40.0,OK,40105.0,Nowata County,1735.0,8483.0,41151.0,10693.0,8754.0,4404.0,4404.0,6097.0,3978.0,1813.0,954.0,53.0,1.0
205470,County,2020/03/05,40.0,OK,40105.0,Nowata County,1471.0,8747.0,45858.0,14496.0,10523.0,3976.0,5075.0,6830.0,3562.0,878.0,447.0,66.0,5.0
210321,County,2020/03/06,40.0,OK,40105.0,Nowata County,1470.0,8748.0,45788.0,15087.0,9224.0,3469.0,4428.0,7764.0,3465.0,1669.0,643.0,35.0,4.0
213504,County,2020/03/07,40.0,OK,40105.0,Nowata County,1680.0,8538.0,39929.0,9416.0,7779.0,3247.0,4426.0,8443.0,4279.0,1613.0,700.0,19.0,7.0
215105,County,2020/03/08,40.0,OK,40105.0,Nowata County,2061.0,8157.0,36866.0,9752.0,7411.0,2984.0,3408.0,7443.0,3293.0,1770.0,716.0,83.0,6.0
219863,County,2020/03/09,40.0,OK,40105.0,Nowata County,1684.0,8534.0,41331.0,10915.0,8349.0,5033.0,4802.0,6081.0,3549.0,2108.0,460.0,34.0,0.0
223056,County,2020/03/10,40.0,OK,40105.0,Nowata County,1758.0,8460.0,45981.0,11708.0,10761.0,4052.0,5036.0,7926.0,4707.0,1321.0,412.0,56.0,2.0
224681,County,2020/03/11,40.0,OK,40105.0,Nowata County,1726.0,8492.0,50019.0,11050.0,14935.0,8696.0,4917.0,4981.0,3518.0,1666.0,256.0,0.0,0.0
227866,County,2020/03/12,40.0,OK,40105.0,Nowata County,1763.0,8455.0,52853.0,14940.0,11627.0,3577.0,6334.0,9222.0,5210.0,1567.0,135.0,222.0,19.0
231074,County,2020/03/13,40.0,OK,40105.0,Nowata County,1632.0,8586.0,46805.0,13660.0,12245.0,4198.0,5574.0,6213.0,3227.0,1429.0,248.0,0.0,11.0
234224,County,2020/03/14,40.0,OK,40105.0,Nowata County,2048.0,8170.0,51783.0,5282.0,13907.0,13775.0,2813.0,10698.0,2121.0,2841.0,282.0,58.0,6.0
239027,County,2020/03/15,40.0,OK,40105.0,Nowata County,2362.0,7856.0,36075.0,6348.0,7982.0,5548.0,4092.0,7388.0,3433.0,920.0,295.0,60.0,9.0
240654,County,2020/03/16,40.0,OK,40105.0,Nowata County,2003.0,8215.0,41918.0,11747.0,10694.0,3996.0,3120.0,6126.0,4677.0,1201.0,333.0,17.0,7.0
245413,County,2020/03/17,40.0,OK,40105.0,Nowata County,2443.0,7775.0,40366.0,8883.0,9479.0,4447.0,4087.0,6099.0,5231.0,1835.0,228.0,75.0,2.0
248568,County,2020/03/18,40.0,OK,40105.0,Nowata County,2138.0,8080.0,40844.0,11095.0,8100.0,5092.0,4096.0,6894.0,3819.0,1064.0,615.0,66.0,3.0
251774,County,2020/03/19,40.0,OK,40105.0,Nowata County,2344.0,7874.0,43201.0,13730.0,9327.0,4116.0,4554.0,6801.0,2824.0,1213.0,547.0,86.0,3.0
254998,County,2020/03/20,40.0,OK,40105.0,Nowata County,2391.0,7827.0,43152.0,13890.0,9020.0,2986.0,4946.0,6709.0,3288.0,1583.0,691.0,33.0,6.0
256575,County,2020/03/21,40.0,OK,40105.0,Nowata County,2489.0,7729.0,37313.0,10578.0,8668.0,4390.0,3810.0,5586.0,2458.0,1099.0,628.0,92.0,4.0
259811,County,2020/03/22,40.0,OK,40105.0,Nowata County,2637.0,7581.0,28635.0,7187.0,6859.0,4213.0,3642.0,4125.0,1783.0,450.0,312.0,64.0,0.0
263015,County,2020/03/23,40.0,OK,40105.0,Nowata County,2025.0,8193.0,35456.0,11706.0,8545.0,2987.0,3336.0,4460.0,2485.0,1253.0,643.0,31.0,10.0
267770,County,2020/03/24,40.0,OK,40105.0,Nowata County,1966.0,8252.0,35855.0,9149.0,8071.0,3318.0,3874.0,6490.0,3238.0,1298.0,300.0,107.0,10.0
270968,County,2020/03/25,40.0,OK,40105.0,Nowata County,2149.0,8069.0,41172.0,15602.0,7583.0,3018.0,2876.0,7180.0,3154.0,1126.0,576.0,50.0,7.0
274141,County,2020/03/26,40.0,OK,40105.0,Nowata County,2183.0,8035.0,38241.0,13712.0,6934.0,4213.0,4062.0,5559.0,2300.0,1095.0,280.0,82.0,4.0
275781,County,2020/03/27,40.0,OK,40105.0,Nowata County,2247.0,7971.0,36982.0,11201.0,8410.0,3404.0,4549.0,5850.0,2187.0,921.0,426.0,29.0,5.0
280542,County,2020/03/28,40.0,OK,40105.0,Nowata County,2454.0,7764.0,27507.0,6751.0,6679.0,3435.0,3230.0,3874.0,2396.0,822.0,266.0,47.0,7.0
282177,County,2020/03/29,40.0,OK,40105.0,Nowata County,2708.0,7510.0,28323.0,5502.0,6979.0,2948.0,4297.0,4022.0,2903.0,1328.0,323.0,19.0,2.0
285322,County,2020/03/30,40.0,OK,40105.0,Nowata County,2174.0,8044.0,30645.0,9051.0,6954.0,3119.0,2270.0,5122.0,2523.0,903.0,700.0,0.0,3.0
290125,County,2020/03/31,40.0,OK,40105.0,Nowata County,2470.0,7748.0,31410.0,10617.0,7227.0,2939.0,3093.0,4504.0,2081.0,608.0,253.0,86.0,2.0
293324,County,2020/04/01,40.0,OK,40105.0,Nowata County,2278.0,7940.0,35840.0,11508.0,9441.0,3297.0,3183.0,4635.0,2345.0,804.0,558.0,65.0,4.0
294953,County,2020/04/02,40.0,OK,40105.0,Nowata County,2250.0,7968.0,37113.0,12589.0,7571.0,3581.0,4622.0,4999.0,2715.0,572.0,397.0,65.0,2.0
299713,County,2020/04/03,40.0,OK,40105.0,Nowata County,2527.0,7691.0,28067.0,7753.0,6877.0,2343.0,2943.0,4870.0,1981.0,926.0,321.0,49.0,4.0
302893,County,2020/04/04,40.0,OK,40105.0,Nowata County,2797.0,7421.0,33140.0,11300.0,7370.0,3309.0,3284.0,3791.0,3285.0,384.0,373.0,44.0,0.0
304521,County,2020/04/05,40.0,OK,40105.0,Nowata County,2988.0,7230.0,30398.0,9332.0,7020.0,5265.0,3329.0,2954.0,1408.0,576.0,457.0,47.0,10.0
307729,County,2020/04/06,40.0,OK,40105.0,Nowata County,2384.0,7834.0,32997.0,10129.0,8008.0,2860.0,3616.0,3651.0,2974.0,1190.0,478.0,89.0,2.0
310922,County,2020/04/07,40.0,OK,40105.0,Nowata County,2278.0,7940.0,36122.0,10352.0,9029.0,3483.0,3082.0,5785.0,2761.0,1067.0,494.0,67.0,2.0
314117,County,2020/04/08,40.0,OK,40105.0,Nowata County,2407.0,7811.0,33112.0,10340.0,6283.0,3356.0,3661.0,5097.0,2784.0,1136.0,415.0,34.0,6.0
317286,County,2020/04/09,40.0,OK,40105.0,Nowata County,2469.0,7749.0,34809.0,9577.0,8232.0,3487.0,3233.0,6277.0,2538.0,954.0,485.0,18.0,8.0
320513,County,2020/04/10,40.0,OK,40105.0,Nowata County,2316.0,7902.0,35594.0,10544.0,8198.0,2764.0,4542.0,5224.0,2184.0,1391.0,713.0,34.0,0.0
325265,County,2020/04/11,40.0,OK,40105.0,Nowata County,2653.0,7565.0,29766.0,6075.0,6435.0,4582.0,3980.0,5395.0,2286.0,650.0,271.0,92.0,0.0
328432,County,2020/04/12,40.0,OK,40105.0,Nowata County,3128.0,7090.0,24116.0,7484.0,5347.0,2108.0,2272.0,4568.0,1668.0,492.0,146.0,20.0,11.0
331654,County,2020/04/13,40.0,OK,40105.0,Nowata County,2356.0,7862.0,30622.0,9769.0,6076.0,3526.0,2836.0,4750.0,2392.0,982.0,256.0,35.0,0.0
333232,County,2020/04/14,40.0,OK,40105.0,Nowata County,2321.0,7897.0,28593.0,8667.0,8328.0,964.0,2902.0,4973.0,1685.0,739.0,205.0,126.0,4.0
338032,County,2020/04/15,40.0,OK,40105.0,Nowata County,2532.0,7686.0,41056.0,12233.0,8591.0,3325.0,4625.0,8571.0,3113.0,364.0,126.0,103.0,5.0
341176,County,2020/04/16,40.0,OK,40105.0,Nowata County,2458.0,7760.0,39776.0,14642.0,6906.0,2654.0,4336.0,7190.0,2675.0,782.0,542.0,44.0,5.0
342960,County,2020/04/17,40.0,OK,40105.0,Nowata County,2316.0,7902.0,31913.0,7884.0,7169.0,2979.0,4285.0,6720.0,1356.0,999.0,396.0,121.0,4.0
347586,County,2020/04/18,40.0,OK,40105.0,Nowata County,2627.0,7591.0,31284.0,4863.0,9806.0,3602.0,2338.0,6603.0,2273.0,1288.0,511.0,0.0,0.0
350818,County,2020/04/19,40.0,OK,40105.0,Nowata County,2730.0,7488.0,27970.0,8914.0,10257.0,1388.0,2047.0,3976.0,842.0,177.0,369.0,0.0,0.0
354018,County,2020/04/20,40.0,OK,40105.0,Nowata County,2142.0,8076.0,40500.0,12636.0,10357.0,3171.0,2994.0,6719.0,3385.0,972.0,112.0,138.0,16.0
357204,County,2020/04/21,40.0,OK,40105.0,Nowata County,2139.0,8079.0,36557.0,10775.0,8517.0,4073.0,2993.0,6141.0,2629.0,1060.0,286.0,83.0,0.0
358832,County,2020/04/22,40.0,OK,40105.0,Nowata County,2260.0,7958.0,28187.0,7114.0,7389.0,2757.0,2638.0,4353.0,2658.0,799.0,396.0,81.0,2.0
361938,County,2020/04/23,40.0,OK,40105.0,Nowata County,2286.0,7932.0,31399.0,10135.0,5698.0,3789.0,3354.0,5209.0,2329.0,710.0,134.0,37.0,4.0
366826,County,2020/04/24,40.0,OK,40105.0,Nowata County,2029.0,8189.0,32080.0,7925.0,7884.0,4651.0,3023.0,4308.0,3386.0,724.0,116.0,63.0,0.0
368359,County,2020/04/25,40.0,OK,40105.0,Nowata County,2286.0,7932.0,32600.0,6798.0,9271.0,3319.0,3324.0,5253.0,3115.0,1071.0,371.0,76.0,2.0
371525,County,2020/04/26,40.0,OK,40105.0,Nowata County,2720.0,7498.0,36136.0,9933.0,7182.0,5307.0,3288.0,5654.0,3245.0,1301.0,226.0,0.0,0.0
374802,County,2020/04/27,40.0,OK,40105.0,Nowata County,2483.0,7735.0,31366.0,9031.0,6647.0,2605.0,3890.0,4196.0,3673.0,561.0,692.0,71.0,0.0
377953,County,2020/04/28,40.0,OK,40105.0,Nowata County,2118.0,8100.0,32245.0,8736.0,6466.0,4088.0,2759.0,6370.0,2522.0,956.0,258.0,90.0,0.0
381205,County,2020/04/29,40.0,OK,40105.0,Nowata County,2041.0,8177.0,36600.0,11223.0,9173.0,3805.0,3891.0,4940.0,2216.0,907.0,404.0,37.0,4.0
385951,County,2020/04/30,40.0,OK,40105.0,Nowata County,1949.0,8269.0,34589.0,10274.0,9040.0,3083.0,2286.0,5584.0,2244.0,1404.0,620.0,54.0,0.0
389139,County,2020/05/01,40.0,OK,40105.0,Nowata County,1930.0,8288.0,39052.0,13188.0,9197.0,2546.0,4870.0,5433.0,2869.0,755.0,87.0,107.0,0.0
392338,County,2020/05/02,40.0,OK,40105.0,Nowata County,2252.0,7966.0,39093.0,11818.0,9577.0,4601.0,4311.0,5658.0,2167.0,691.0,192.0,78.0,0.0
393973,County,2020/05/03,40.0,OK,40105.0,Nowata County,2197.0,8021.0,27951.0,8135.0,7212.0,3179.0,2423.0,3718.0,2250.0,609.0,329.0,96.0,0.0
398727,County,2020/05/04,40.0,OK,40105.0,Nowata County,2164.0,8054.0,36012.0,11201.0,8205.0,3816.0,3576.0,4757.0,2996.0,975.0,437.0,49.0,0.0
400354,County,2020/05/05,40.0,OK,40105.0,Nowata County,2156.0,8062.0,35208.0,10129.0,8115.0,2969.0,3754.0,5466.0,3088.0,1170.0,406.0,111.0,0.0
405109,County,2020/05/06,40.0,OK,40105.0,Nowata County,2032.0,8186.0,39645.0,12574.0,9985.0,4112.0,2599.0,5696.0,3115.0,1286.0,223.0,55.0,0.0
406735,County,2020/05/07,40.0,OK,40105.0,Nowata County,2104.0,8114.0,32563.0,10347.0,7283.0,3050.0,3014.0,5242.0,2324.0,870.0,339.0,92.0,2.0
410040,County,2020/05/08,40.0,OK,40105.0,Nowata County,2121.0,8097.0,41082.0,12911.0,7782.0,4700.0,5501.0,6188.0,2538.0,929.0,484.0,49.0,0.0
414662,County,2020/05/09,40.0,OK,40105.0,Nowata County,2066.0,8152.0,33479.0,8569.0,9047.0,3625.0,4252.0,3911.0,2823.0,969.0,224.0,55.0,4.0
416324,County,2020/05/10,40.0,OK,40105.0,Nowata County,2113.0,8105.0,30297.0,7265.0,7234.0,3687.0,3782.0,5472.0,1769.0,770.0,312.0,0.0,6.0
421073,County,2020/05/11,40.0,OK,40105.0,Nowata County,1961.0,8257.0,33990.0,9008.0,6779.0,3206.0,3414.0,5724.0,3428.0,1458.0,852.0,120.0,1.0
422751,County,2020/05/12,40.0,OK,40105.0,Nowata County,1930.0,8288.0,38338.0,11853.0,8682.0,3369.0,3738.0,4882.0,3697.0,1618.0,401.0,98.0,0.0
427473,County,2020/05/13,40.0,OK,40105.0,Nowata County,1936.0,8282.0,35792.0,9770.0,8250.0,3772.0,3384.0,5041.0,3241.0,1525.0,724.0,80.0,5.0
430667,County,2020/05/14,40.0,OK,40105.0,Nowata County,1652.0,8566.0,35533.0,10913.0,6903.0,4171.0,3606.0,5292.0,2366.0,1449.0,748.0,84.0,1.0
432296,County,2020/05/15,40.0,OK,40105.0,Nowata County,2085.0,8133.0,36112.0,9218.0,9253.0,4835.0,2981.0,4948.0,2848.0,1415.0,520.0,94.0,0.0
435519,County,2020/05/16,40.0,OK,40105.0,Nowata County,2202.0,8016.0,37434.0,13056.0,8925.0,4201.0,3552.0,4472.0,2009.0,577.0,533.0,109.0,0.0
440204,County,2020/05/17,40.0,OK,40105.0,Nowata County,2180.0,8038.0,42129.0,11244.0,11687.0,5873.0,3669.0,5639.0,3102.0,706.0,184.0,25.0,0.0
441917,County,2020/05/18,40.0,OK,40105.0,Nowata County,1762.0,8456.0,47315.0,17593.0,10054.0,4617.0,4359.0,5994.0,3062.0,1100.0,491.0,45.0,0.0
445071,County,2020/05/19,40.0,OK,40105.0,Nowata County,1740.0,8478.0,40919.0,11760.0,10937.0,3932.0,4015.0,6063.0,2789.0,1004.0,375.0,44.0,0.0
448238,County,2020/05/20,40.0,OK,40105.0,Nowata County,1909.0,8309.0,40425.0,13153.0,7486.0,5093.0,3966.0,5951.0,2818.0,858.0,1029.0,66.0,5.0
451409,County,2020/05/21,40.0,OK,40105.0,Nowata County,1477.0,8741.0,41495.0,14542.0,9303.0,3315.0,3727.0,5466.0,3392.0,1030.0,619.0,97.0,4.0
456218,County,2020/05/22,40.0,OK,40105.0,Nowata County,1758.0,8460.0,39220.0,12102.0,8910.0,3726.0,4204.0,4721.0,3593.0,1356.0,545.0,61.0,2.0
457841,County,2020/05/23,40.0,OK,40105.0,Nowata County,2006.0,8212.0,36494.0,8943.0,10112.0,3511.0,3204.0,5468.0,2955.0,1681.0,525.0,95.0,0.0
461009,County,2020/05/24,40.0,OK,40105.0,Nowata County,2237.0,7981.0,40733.0,13834.0,8338.0,3003.0,5210.0,4799.0,3104.0,1565.0,798.0,78.0,4.0
464212,County,2020/05/25,40.0,OK,40105.0,Nowata County,2435.0,7783.0,36117.0,11373.0,6784.0,4627.0,4317.0,5211.0,2276.0,958.0,499.0,68.0,4.0
467415,County,2020/05/26,40.0,OK,40105.0,Nowata County,1817.0,8401.0,39424.0,12326.0,9371.0,3810.0,3418.0,5751.0,2511.0,1420.0,739.0,78.0,0.0
470622,County,2020/05/27,40.0,OK,40105.0,Nowata County,1697.0,8521.0,40213.0,12963.0,7343.0,4299.0,4348.0,4880.0,3464.0,2235.0,598.0,78.0,5.0
475383,County,2020/05/28,40.0,OK,40105.0,Nowata County,1693.0,8525.0,43094.0,14527.0,9365.0,4168.0,3416.0,5350.0,3671.0,1932.0,547.0,112.0,6.0
478572,County,2020/05/29,40.0,OK,40105.0,Nowata County,1902.0,8316.0,41700.0,12042.0,8704.0,4500.0,5241.0,6054.0,3147.0,1361.0,535.0,116.0,0.0
480150,County,2020/05/30,40.0,OK,40105.0,Nowata County,2159.0,8059.0,40220.0,12558.0,8024.0,4869.0,4377.0,6308.0,1856.0,1835.0,288.0,101.0,4.0
484917,County,2020/05/31,40.0,OK,40105.0,Nowata County,2059.0,8159.0,37210.0,11334.0,9815.0,3108.0,4360.0,5601.0,1600.0,1045.0,161.0,181.0,5.0
488218,County,2020/06/01,40.0,OK,40105.0,Nowata County,1917.0,8301.0,44374.0,15134.0,8544.0,5222.0,4509.0,6402.0,2828.0,1122.0,542.0,69.0,2.0
491325,County,2020/06/02,40.0,OK,40105.0,Nowata County,1891.0,8327.0,42833.0,13533.0,9168.0,4951.0,4710.0,5157.0,2838.0,1754.0,625.0,94.0,3.0
492954,County,2020/06/03,40.0,OK,40105.0,Nowata County,1614.0,8604.0,47338.0,15975.0,8601.0,5601.0,4451.0,6384.0,3703.0,1971.0,608.0,37.0,7.0
497729,County,2020/06/04,40.0,OK,40105.0,Nowata County,1625.0,8593.0,41170.0,13201.0,7392.0,4452.0,4648.0,5983.0,2493.0,2143.0,759.0,99.0,0.0
499369,County,2020/06/05,40.0,OK,40105.0,Nowata County,1597.0,8621.0,44601.0,15005.0,6803.0,4911.0,4509.0,6487.0,3485.0,2540.0,750.0,107.0,4.0
502516,County,2020/06/06,40.0,OK,40105.0,Nowata County,2208.0,8010.0,33985.0,10369.0,5555.0,5115.0,3668.0,4167.0,2760.0,1689.0,562.0,96.0,4.0
507293,County,2020/06/07,40.0,OK,40105.0,Nowata County,2070.0,8148.0,35941.0,10527.0,7451.0,5335.0,3935.0,4515.0,2942.0,682.0,430.0,122.0,2.0
510504,County,2020/06/08,40.0,OK,40105.0,Nowata County,1677.0,8541.0,47076.0,16460.0,10620.0,4210.0,4284.0,6420.0,2911.0,1774.0,280.0,114.0,3.0
512133,County,2020/06/09,40.0,OK,40105.0,Nowata County,1883.0,8335.0,39368.0,13176.0,7616.0,4451.0,4044.0,5405.0,2722.0,1319.0,568.0,64.0,3.0
516914,County,2020/06/10,40.0,OK,40105.0,Nowata County,1686.0,8532.0,44965.0,12655.0,10995.0,4743.0,4357.0,6602.0,3365.0,1748.0,447.0,52.0,1.0
520071,County,2020/06/11,40.0,OK,40105.0,Nowata County,1667.0,8551.0,47556.0,14122.0,10867.0,5283.0,4977.0,6540.0,3432.0,1567.0,694.0,74.0,0.0
521745,County,2020/06/12,40.0,OK,40105.0,Nowata County,1851.0,8367.0,40157.0,10024.0,9755.0,4883.0,5024.0,5349.0,2933.0,1590.0,519.0,80.0,0.0
524921,County,2020/06/13,40.0,OK,40105.0,Nowata County,1815.0,8403.0,41746.0,12114.0,8685.0,4832.0,4450.0,6284.0,3185.0,1751.0,417.0,28.0,0.0
529685,County,2020/06/14,40.0,OK,40105.0,Nowata County,2073.0,8145.0,37611.0,10525.0,8223.0,4475.0,4557.0,5372.0,2677.0,1268.0,391.0,120.0,3.0
532875,County,2020/06/15,40.0,OK,40105.0,Nowata County,1885.0,8333.0,44586.0,11141.0,12236.0,4578.0,5744.0,5676.0,2784.0,1820.0,554.0,50.0,3.0
536095,County,2020/06/16,40.0,OK,40105.0,Nowata County,1782.0,8436.0,42421.0,11704.0,10750.0,4491.0,4129.0,5662.0,3142.0,1832.0,589.0,114.0,8.0
539214,County,2020/06/17,40.0,OK,40105.0,Nowata County,1765.0,8453.0,41719.0,10688.0,10106.0,4276.0,5209.0,6632.0,2830.0,1234.0,620.0,121.0,3.0
540844,County,2020/06/18,40.0,OK,40105.0,Nowata County,1717.0,8501.0,41874.0,12659.0,10081.0,3424.0,4714.0,6211.0,2611.0,1499.0,549.0,118.0,8.0
545610,County,2020/06/19,40.0,OK,40105.0,Nowata County,1895.0,8323.0,39993.0,11542.0,9405.0,3503.0,4232.0,5828.0,3400.0,1448.0,502.0,121.0,12.0
548845,County,2020/06/20,40.0,OK,40105.0,Nowata County,2141.0,8077.0,34820.0,9411.0,6872.0,4290.0,4306.0,5281.0,2936.0,1324.0,238.0,153.0,9.0
550445,County,2020/06/21,40.0,OK,40105.0,Nowata County,2181.0,8037.0,33734.0,9624.0,6949.0,2487.0,5851.0,4612.0,2001.0,1354.0,765.0,85.0,6.0
555225,County,2020/06/22,40.0,OK,40105.0,Nowata County,1652.0,8566.0,36893.0,8999.0,8697.0,3623.0,5297.0,5639.0,2637.0,1649.0,251.0,91.0,10.0
556853,County,2020/06/23,40.0,OK,40105.0,Nowata County,1787.0,8431.0,39171.0,12247.0,8771.0,3401.0,3750.0,5076.0,3345.0,1874.0,603.0,104.0,0.0
561621,County,2020/06/24,40.0,OK,40105.0,Nowata County,1763.0,8455.0,36760.0,11505.0,7936.0,3311.0,3890.0,5224.0,2367.0,1845.0,640.0,39.0,3.0
564797,County,2020/06/25,40.0,OK,40105.0,Nowata County,1891.0,8327.0,38787.0,9764.0,7436.0,4084.0,6189.0,6965.0,2478.0,1375.0,362.0,134.0,0.0
568045,County,2020/06/26,40.0,OK,40105.0,Nowata County,1771.0,8447.0,41520.0,10555.0,8807.0,4305.0,5301.0,7451.0,2952.0,1577.0,531.0,41.0,0.0
571195,County,2020/06/27,40.0,OK,40105.0,Nowata County,2118.0,8100.0,38892.0,9922.0,9193.0,3575.0,6070.0,5767.0,2231.0,1621.0,465.0,48.0,0.0
574378,County,2020/06/28,40.0,OK,40105.0,Nowata County,2198.0,8020.0,34511.0,10699.0,7057.0,3558.0,4220.0,5748.0,2020.0,927.0,189.0,93.0,0.0
575981,County,2020/06/29,40.0,OK,40105.0,Nowata County,2034.0,8184.0,38093.0,10044.0,9487.0,4066.0,4719.0,5670.0,1941.0,1787.0,319.0,58.0,2.0
580792,County,2020/06/30,40.0,OK,40105.0,Nowata County,1865.0,8353.0,37163.0,10648.0,7554.0,3583.0,4507.0,5941.0,2975.0,1493.0,368.0,82.0,12.0
582396,County,2020/07/01,40.0,OK,40105.0,Nowata County,2032.0,8186.0,41723.0,14997.0,7619.0,4082.0,4891.0,5557.0,2423.0,1491.0,567.0,95.0,1.0
585585,County,2020/07/02,40.0,OK,40105.0,Nowata County,2248.0,7970.0,41169.0,10364.0,7893.0,4335.0,6569.0,7393.0,2630.0,1459.0,384.0,142.0,0.0
590377,County,2020/07/03,40.0,OK,40105.0,Nowata County,2161.0,8057.0,41286.0,10496.0,8757.0,4281.0,5271.0,7409.0,2935.0,1568.0,528.0,41.0,0.0
593562,County,2020/07/04,40.0,OK,40105.0,Nowata County,2701.0,7517.0,35322.0,8979.0,7492.0,3662.0,4510.0,6339.0,2511.0,1342.0,452.0,35.0,0.0
595213,County,2020/07/05,40.0,OK,40105.0,Nowata County,2487.0,7731.0,31539.0,10856.0,6286.0,3408.0,3156.0,4358.0,2250.0,850.0,253.0,120.0,2.0
597864,County,2020/07/06,40.0,OK,40105.0,Nowata County,2227.0,7991.0,35524.0,11168.0,7701.0,2838.0,3658.0,5725.0,2560.0,1371.0,459.0,40.0,4.0
601478,County,2020/07/07,40.0,OK,40105.0,Nowata County,1821.0,8397.0,33934.0,11985.0,6686.0,2954.0,2719.0,5229.0,3054.0,770.0,377.0,154.0,6.0
606238,County,2020/07/08,40.0,OK,40105.0,Nowata County,2098.0,8120.0,31940.0,9306.0,6490.0,2813.0,3678.0,5274.0,2839.0,1274.0,204.0,56.0,6.0
607964,County,2020/07/09,40.0,OK,40105.0,Nowata County,2345.0,7873.0,32102.0,10832.0,6037.0,3024.0,3345.0,4246.0,2455.0,1604.0,464.0,88.0,7.0
611164,County,2020/07/10,40.0,OK,40105.0,Nowata County,1852.0,8366.0,38440.0,12903.0,7141.0,3115.0,3338.0,6058.0,3382.0,1884.0,436.0,178.0,5.0
615912,County,2020/07/11,40.0,OK,40105.0,Nowata County,2199.0,8019.0,32281.0,9023.0,7643.0,3633.0,3502.0,5016.0,1794.0,1193.0,345.0,127.0,5.0
619099,County,2020/07/12,40.0,OK,40105.0,Nowata County,2371.0,7847.0,31818.0,9251.0,6935.0,2004.0,4404.0,5107.0,2466.0,1112.0,367.0,165.0,7.0
622306,County,2020/07/13,40.0,OK,40105.0,Nowata County,1934.0,8284.0,37223.0,11614.0,8031.0,3638.0,3864.0,5097.0,2852.0,1415.0,565.0,146.0,1.0
625500,County,2020/07/14,40.0,OK,40105.0,Nowata County,1993.0,8225.0,31559.0,9583.0,5671.0,2870.0,3680.0,4780.0,2942.0,1077.0,809.0,140.0,7.0
628673,County,2020/07/15,40.0,OK,40105.0,Nowata County,1901.0,8317.0,35359.0,10349.0,6787.0,2676.0,3913.0,6848.0,2710.0,1114.0,804.0,152.0,6.0
631939,County,2020/07/16,40.0,OK,40105.0,Nowata County,2019.0,8199.0,36675.0,10650.0,7561.0,3712.0,4363.0,5759.0,2420.0,1528.0,530.0,144.0,8.0
635034,County,2020/07/17,40.0,OK,40105.0,Nowata County,2136.0,8082.0,33555.0,9355.0,7987.0,3832.0,2891.0,4911.0,2606.0,1299.0,534.0,136.0,4.0
636711,County,2020/07/18,40.0,OK,40105.0,Nowata County,2183.0,8035.0,34044.0,8708.0,8075.0,4138.0,3129.0,5882.0,2026.0,1441.0,400.0,229.0,16.0
639866,County,2020/07/19,40.0,OK,40105.0,Nowata County,2404.0,7814.0,32594.0,9266.0,7907.0,3046.0,3842.0,5104.0,1830.0,1342.0,202.0,50.0,5.0
644648,County,2020/07/20,40.0,OK,40105.0,Nowata County,2229.0,7989.0,38105.0,10754.0,7781.0,3907.0,4233.0,5788.0,3678.0,1600.0,358.0,0.0,6.0
647145,County,2020/07/21,40.0,OK,40105.0,Nowata County,2025.0,8193.0,35324.0,11281.0,6353.0,2904.0,4177.0,5043.0,3171.0,1715.0,611.0,66.0,3.0
648958,County,2020/07/22,40.0,OK,40105.0,Nowata County,1959.0,8259.0,37240.0,11553.0,8728.0,3156.0,3880.0,4369.0,3149.0,1791.0,497.0,114.0,3.0
652595,County,2020/07/23,40.0,OK,40105.0,Nowata County,2138.0,8080.0,36565.0,11009.0,8388.0,2789.0,3291.0,5965.0,3113.0,1330.0,593.0,81.0,6.0
655718,County,2020/07/24,40.0,OK,40105.0,Nowata County,2034.0,8184.0,37652.0,9202.0,8442.0,3057.0,5742.0,6164.0,2815.0,1673.0,530.0,27.0,0.0
660690,County,2020/07/25,40.0,OK,40105.0,Nowata County,2487.0,7731.0,35994.0,8733.0,8875.0,4200.0,5050.0,5311.0,2308.0,850.0,590.0,69.0,8.0
663770,County,2020/07/26,40.0,OK,40105.0,Nowata County,2461.0,7757.0,30731.0,9692.0,6366.0,2434.0,3344.0,4689.0,2872.0,965.0,312.0,55.0,2.0
667043,County,2020/07/27,40.0,OK,40105.0,Nowata County,2102.0,8116.0,39380.0,10421.0,10268.0,4866.0,3990.0,4672.0,2969.0,1590.0,570.0,31.0,3.0
670197,County,2020/07/28,40.0,OK,40105.0,Nowata County,2152.0,8066.0,37143.0,11072.0,9816.0,3461.0,3303.0,4840.0,2816.0,1352.0,325.0,148.0,10.0
671828,County,2020/07/29,40.0,OK,40105.0,Nowata County,2138.0,8080.0,34779.0,10898.0,8645.0,2448.0,3489.0,5082.0,2524.0,886.0,686.0,118.0,3.0
675040,County,2020/07/30,40.0,OK,40105.0,Nowata County,1919.0,8299.0,34236.0,10031.0,7700.0,3427.0,3707.0,4471.0,2680.0,1264.0,843.0,110.0,3.0
679817,County,2020/07/31,40.0,OK,40105.0,Nowata County,1978.0,8240.0,35591.0,9396.0,7920.0,2744.0,4066.0,5656.0,2996.0,1577.0,1020.0,208.0,8.0
681398,County,2020/08/01,40.0,OK,40105.0,Nowata County,2353.0,7865.0,35516.0,10367.0,7259.0,3580.0,4752.0,5199.0,2358.0,1110.0,815.0,74.0,2.0
686178,County,2020/08/02,40.0,OK,40105.0,Nowata County,2780.0,7438.0,31685.0,9538.0,7099.0,2809.0,3646.0,4745.0,2521.0,789.0,447.0,82.0,9.0
689381,County,2020/08/03,40.0,OK,40105.0,Nowata County,2219.0,7999.0,35951.0,11615.0,7667.0,3852.0,2740.0,4997.0,2805.0,1447.0,642.0,181.0,5.0
691009,County,2020/08/04,40.0,OK,40105.0,Nowata County,2041.0,8177.0,37444.0,11580.0,8887.0,2712.0,4057.0,5824.0,3055.0,742.0,412.0,168.0,7.0
695769,County,2020/08/05,40.0,OK,40105.0,Nowata County,1983.0,8235.0,37627.0,14065.0,9009.0,1964.0,2896.0,5116.0,2715.0,1404.0,313.0,142.0,3.0
697378,County,2020/08/06,40.0,OK,40105.0,Nowata County,2098.0,8120.0,37224.0,12972.0,7974.0,2975.0,3137.0,4405.0,3088.0,2037.0,538.0,97.0,1.0
700590,County,2020/08/07,40.0,OK,40105.0,Nowata County,2001.0,8217.0,37602.0,11892.0,9206.0,3119.0,2873.0,5742.0,2595.0,1609.0,507.0,56.0,3.0
705351,County,2020/08/08,40.0,OK,40105.0,Nowata County,2330.0,7888.0,32907.0,10948.0,7370.0,2556.0,3267.0,4452.0,2583.0,1196.0,453.0,77.0,5.0
708570,County,2020/08/09,40.0,OK,40105.0,Nowata County,2448.0,7770.0,31139.0,8880.0,7442.0,2047.0,4112.0,4534.0,2580.0,785.0,670.0,86.0,3.0
711739,County,2020/08/10,40.0,OK,40105.0,Nowata County,1984.0,8234.0,37396.0,11240.0,8041.0,4162.0,4259.0,5029.0,2556.0,1495.0,484.0,127.0,3.0
714932,County,2020/08/11,40.0,OK,40105.0,Nowata County,2056.0,8162.0,38606.0,11757.0,9053.0,2884.0,5106.0,4366.0,2649.0,2158.0,584.0,44.0,5.0
718029,County,2020/08/12,40.0,OK,40105.0,Nowata County,2009.0,8209.0,34146.0,10610.0,7229.0,2479.0,3290.0,5212.0,3134.0,1499.0,520.0,170.0,3.0
719756,County,2020/08/13,40.0,OK,40105.0,Nowata County,1909.0,8309.0,33754.0,8825.0,7647.0,3154.0,4049.0,5791.0,2566.0,1374.0,197.0,134.0,17.0
724499,County,2020/08/14,40.0,OK,40105.0,Nowata County,1789.0,8429.0,36705.0,10176.0,7275.0,3866.0,3698.0,5948.0,3314.0,1673.0,530.0,204.0,21.0
727710,County,2020/08/15,40.0,OK,40105.0,Nowata County,2168.0,8050.0,42824.0,13496.0,10386.0,3357.0,5490.0,5957.0,2443.0,1230.0,311.0,143.0,11.0
730902,County,2020/08/16,40.0,OK,40105.0,Nowata County,2200.0,8018.0,35488.0,9547.0,9566.0,3784.0,3699.0,3658.0,3673.0,1147.0,335.0,69.0,10.0
732532,County,2020/08/17,40.0,OK,40105.0,Nowata County,2034.0,8184.0,38977.0,9456.0,8669.0,4473.0,3894.0,6447.0,4253.0,1271.0,460.0,47.0,7.0
735698,County,2020/08/18,40.0,OK,40105.0,Nowata County,1818.0,8400.0,40386.0,11367.0,8121.0,5492.0,3970.0,6845.0,3265.0,1125.0,123.0,68.0,10.0
738903,County,2020/08/19,40.0,OK,40105.0,Nowata County,2152.0,8066.0,39721.0,11881.0,9175.0,4541.0,4234.0,5643.0,2656.0,1118.0,302.0,158.0,13.0
743684,County,2020/08/20,40.0,OK,40105.0,Nowata County,1889.0,8329.0,41517.0,12301.0,10946.0,2876.0,3549.0,6046.0,3801.0,1739.0,121.0,131.0,7.0
745314,County,2020/08/21,40.0,OK,40105.0,Nowata County,1735.0,8483.0,40773.0,13215.0,9022.0,2841.0,3142.0,6713.0,3619.0,1935.0,210.0,69.0,7.0
748519,County,2020/08/22,40.0,OK,40105.0,Nowata County,2016.0,8202.0,40269.0,10842.0,10356.0,3742.0,3004.0,7403.0,2661.0,1601.0,555.0,94.0,11.0
751712,County,2020/08/23,40.0,OK,40105.0,Nowata County,2468.0,7750.0,28461.0,9375.0,6744.0,2890.0,2004.0,3759.0,2502.0,778.0,332.0,68.0,9.0
754885,County,2020/08/24,40.0,OK,40105.0,Nowata County,2092.0,8126.0,30896.0,8366.0,6689.0,2833.0,2691.0,4511.0,2917.0,2382.0,330.0,165.0,12.0
759646,County,2020/08/25,40.0,OK,40105.0,Nowata County,2020.0,8198.0,35525.0,10641.0,8700.0,3243.0,2869.0,4959.0,2596.0,1689.0,655.0,169.0,4.0
762806,County,2020/08/26,40.0,OK,40105.0,Nowata County,2097.0,8121.0,31802.0,8465.0,6828.0,2428.0,3857.0,4708.0,2811.0,1622.0,927.0,149.0,7.0
764435,County,2020/08/27,40.0,OK,40105.0,Nowata County,1793.0,8425.0,33411.0,7785.0,7453.0,3017.0,2670.0,5997.0,3789.0,1813.0,755.0,128.0,4.0
767642,County,2020/08/28,40.0,OK,40105.0,Nowata County,1891.0,8327.0,38204.0,9930.0,9333.0,3447.0,3856.0,5588.0,3599.0,1694.0,588.0,169.0,0.0
770845,County,2020/08/29,40.0,OK,40105.0,Nowata County,2030.0,8188.0,33824.0,6789.0,9214.0,3984.0,3100.0,5606.0,3350.0,1368.0,255.0,149.0,9.0
775621,County,2020/08/30,40.0,OK,40105.0,Nowata County,2555.0,7663.0,31244.0,9097.0,7663.0,2265.0,2940.0,4606.0,2474.0,1388.0,723.0,82.0,6.0
777231,County,2020/08/31,40.0,OK,40105.0,Nowata County,2150.0,8068.0,34302.0,9551.0,6399.0,3445.0,3500.0,6029.0,2739.0,1906.0,712.0,13.0,8.0
782009,County,2020/09/01,40.0,OK,40105.0,Nowata County,2236.0,7982.0,43149.0,11235.0,9694.0,3851.0,4065.0,8824.0,3541.0,1294.0,539.0,103.0,3.0
785153,County,2020/09/02,40.0,OK,40105.0,Nowata County,2235.0,7983.0,39347.0,10887.0,7394.0,2963.0,4146.0,7399.0,4363.0,1373.0,770.0,44.0,8.0
786765,County,2020/09/03,40.0,OK,40105.0,Nowata County,1846.0,8372.0,40215.0,11354.0,7522.0,4114.0,4022.0,7281.0,3264.0,1834.0,685.0,133.0,6.0
789979,County,2020/09/04,40.0,OK,40105.0,Nowata County,2139.0,8079.0,41443.0,10946.0,8775.0,3829.0,3812.0,8636.0,2638.0,1781.0,873.0,149.0,4.0
793102,County,2020/09/05,40.0,OK,40105.0,Nowata County,2072.0,8146.0,38130.0,8972.0,7735.0,4273.0,3717.0,8355.0,2949.0,1468.0,626.0,32.0,3.0
796390,County,2020/09/06,40.0,OK,40105.0,Nowata County,2702.0,7516.0,34914.0,10980.0,6616.0,3342.0,4212.0,4959.0,2285.0,1862.0,592.0,66.0,0.0
801157,County,2020/09/07,40.0,OK,40105.0,Nowata County,2806.0,7412.0,26565.0,7505.0,5024.0,2055.0,2425.0,4373.0,2922.0,1950.0,260.0,42.0,9.0
802778,County,2020/09/08,40.0,OK,40105.0,Nowata County,2115.0,8103.0,37995.0,12889.0,9030.0,3122.0,3051.0,5756.0,2131.0,1445.0,484.0,84.0,3.0
807558,County,2020/09/09,40.0,OK,40105.0,Nowata County,2058.0,8160.0,37037.0,10934.0,8302.0,3094.0,3670.0,5849.0,3244.0,1517.0,395.0,27.0,5.0
809186,County,2020/09/10,40.0,OK,40105.0,Nowata County,2212.0,8006.0,32268.0,8410.0,7284.0,3577.0,2820.0,5700.0,2840.0,1096.0,380.0,156.0,5.0
813947,County,2020/09/11,40.0,OK,40105.0,Nowata County,2134.0,8084.0,42381.0,12564.0,9300.0,4783.0,3839.0,6630.0,3157.0,1661.0,373.0,69.0,5.0
817142,County,2020/09/12,40.0,OK,40105.0,Nowata County,2366.0,7852.0,38638.0,11370.0,8819.0,4117.0,3578.0,6302.0,2943.0,974.0,478.0,48.0,9.0
820325,County,2020/09/13,40.0,OK,40105.0,Nowata County,2587.0,7631.0,28741.0,4080.0,5782.0,4585.0,2961.0,6706.0,3157.0,855.0,477.0,136.0,2.0
821954,County,2020/09/14,40.0,OK,40105.0,Nowata County,2068.0,8150.0,40617.0,12419.0,7940.0,4987.0,3221.0,5849.0,3679.0,1911.0,537.0,73.0,1.0
825110,County,2020/09/15,40.0,OK,40105.0,Nowata County,2092.0,8126.0,38056.0,12539.0,7256.0,4665.0,3530.0,5635.0,2707.0,1088.0,503.0,132.0,1.0
829917,County,2020/09/16,40.0,OK,40105.0,Nowata County,2109.0,8109.0,33519.0,8238.0,7433.0,3221.0,3717.0,5595.0,3160.0,1609.0,447.0,91.0,8.0
833094,County,2020/09/17,40.0,OK,40105.0,Nowata County,2119.0,8099.0,37878.0,9612.0,8675.0,3405.0,4059.0,6568.0,3137.0,1704.0,628.0,90.0,0.0
834723,County,2020/09/18,40.0,OK,40105.0,Nowata County,1962.0,8256.0,40573.0,11564.0,9154.0,2817.0,3443.0,7145.0,3710.0,2107.0,570.0,58.0,5.0
839498,County,2020/09/19,40.0,OK,40105.0,Nowata County,2280.0,7938.0,37222.0,10194.0,7517.0,4296.0,3309.0,6629.0,3474.0,1463.0,338.0,0.0,2.0
841127,County,2020/09/20,40.0,OK,40105.0,Nowata County,2433.0,7785.0,28602.0,8515.0,6191.0,2933.0,2410.0,4200.0,2186.0,1658.0,445.0,61.0,3.0
845914,County,2020/09/21,40.0,OK,40105.0,Nowata County,2418.0,7800.0,31487.0,11617.0,6878.0,2546.0,2313.0,4202.0,2390.0,1129.0,249.0,160.0,3.0
847493,County,2020/09/22,40.0,OK,40105.0,Nowata County,2244.0,7974.0,28604.0,6885.0,5541.0,2810.0,3138.0,4828.0,2922.0,1896.0,569.0,15.0,0.0
852271,County,2020/09/23,40.0,OK,40105.0,Nowata County,2243.0,7975.0,32360.0,8778.0,6989.0,2344.0,2882.0,5763.0,2892.0,2195.0,415.0,99.0,3.0
853899,County,2020/09/24,40.0,OK,40105.0,Nowata County,2080.0,8138.0,31198.0,7650.0,6393.0,2485.0,3214.0,5256.0,2969.0,2392.0,779.0,55.0,5.0
858663,County,2020/09/25,40.0,OK,40105.0,Nowata County,2113.0,8105.0,38156.0,9902.0,8211.0,3259.0,3057.0,6663.0,4270.0,1897.0,727.0,170.0,0.0
861858,County,2020/09/26,40.0,OK,40105.0,Nowata County,2539.0,7679.0,31746.0,6343.0,6492.0,3049.0,3778.0,5633.0,3663.0,2219.0,486.0,83.0,0.0
865038,County,2020/09/27,40.0,OK,40105.0,Nowata County,2613.0,7605.0,32378.0,10569.0,6028.0,3085.0,3208.0,4373.0,2976.0,1477.0,492.0,168.0,2.0
866667,County,2020/09/28,40.0,OK,40105.0,Nowata County,2362.0,7856.0,36275.0,9245.0,8733.0,3403.0,3480.0,4937.0,3137.0,2317.0,924.0,99.0,0.0
871438,County,2020/09/29,40.0,OK,40105.0,Nowata County,2038.0,8180.0,35876.0,10976.0,6582.0,2779.0,3546.0,5901.0,3154.0,2317.0,519.0,101.0,1.0
873067,County,2020/09/30,40.0,OK,40105.0,Nowata County,2277.0,7941.0,36558.0,9496.0,8190.0,3608.0,3538.0,6787.0,2911.0,1345.0,565.0,116.0,2.0
877807,County,2020/10/01,40.0,OK,40105.0,Nowata County,1605.0,8613.0,34398.0,11289.0,6589.0,2902.0,3541.0,5392.0,2455.0,1804.0,357.0,68.0,1.0
879435,County,2020/10/02,40.0,OK,40105.0,Nowata County,2043.0,8175.0,35390.0,11256.0,7110.0,2592.0,3038.0,5597.0,2754.0,2361.0,626.0,55.0,1.0
882651,County,2020/10/03,40.0,OK,40105.0,Nowata County,2111.0,8107.0,31218.0,7828.0,7881.0,2764.0,2310.0,5475.0,2682.0,1764.0,469.0,43.0,2.0
886876,County,2020/10/04,40.0,OK,40105.0,Nowata County,2479.0,7739.0,29685.0,9062.0,6216.0,2495.0,2665.0,5169.0,2875.0,802.0,371.0,27.0,3.0
890068,County,2020/10/05,40.0,OK,40105.0,Nowata County,2332.0,7886.0,37061.0,9730.0,10060.0,3898.0,3717.0,5228.0,2494.0,1324.0,544.0,65.0,1.0
893267,County,2020/10/06,40.0,OK,40105.0,Nowata County,2233.0,7985.0,37293.0,11627.0,8396.0,4032.0,3907.0,5027.0,2591.0,1572.0,95.0,46.0,0.0
896487,County,2020/10/07,40.0,OK,40105.0,Nowata County,1880.0,8338.0,36790.0,10778.0,10011.0,2194.0,3767.0,5341.0,2758.0,1523.0,340.0,74.0,4.0
899669,County,2020/10/08,40.0,OK,40105.0,Nowata County,2057.0,8161.0,32773.0,9090.0,8735.0,1723.0,2511.0,6412.0,2310.0,1656.0,297.0,34.0,5.0
902854,County,2020/10/09,40.0,OK,40105.0,Nowata County,2229.0,7989.0,35545.0,9208.0,7017.0,3108.0,4527.0,5870.0,3645.0,1900.0,239.0,30.0,1.0
905962,County,2020/10/10,40.0,OK,40105.0,Nowata County,2387.0,7831.0,32010.0,7461.0,6176.0,3174.0,3669.0,6722.0,3818.0,612.0,333.0,43.0,2.0
908226,County,2020/10/11,40.0,OK,40105.0,Nowata County,2480.0,7738.0,28436.0,7558.0,5974.0,2702.0,2529.0,5220.0,2810.0,1235.0,341.0,67.0,0.0
911242,County,2020/10/12,40.0,OK,40105.0,Nowata County,2243.0,7975.0,34444.0,10517.0,5522.0,3073.0,3707.0,5345.0,3161.0,2848.0,270.0,0.0,1.0
914505,County,2020/10/13,40.0,OK,40105.0,Nowata County,2243.0,7975.0,35903.0,10415.0,7649.0,2426.0,3736.0,6225.0,3425.0,1631.0,374.0,20.0,2.0
917543,County,2020/10/14,40.0,OK,40105.0,Nowata County,2074.0,8144.0,31175.0,7911.0,5648.0,3300.0,3358.0,5901.0,2755.0,1794.0,405.0,101.0,2.0
920906,County,2020/10/15,40.0,OK,40105.0,Nowata County,2334.0,7884.0,28436.0,6036.0,5447.0,3762.0,2490.0,4832.0,3294.0,1932.0,597.0,44.0,2.0
924065,County,2020/10/16,40.0,OK,40105.0,Nowata County,2211.0,8007.0,34184.0,9074.0,7899.0,4702.0,3261.0,5191.0,2166.0,1453.0,361.0,74.0,3.0
926843,County,2020/10/17,40.0,OK,40105.0,Nowata County,2393.0,7825.0,34074.0,9636.0,8691.0,2757.0,2995.0,5007.0,2936.0,1556.0,425.0,68.0,3.0
930060,County,2020/10/18,40.0,OK,40105.0,Nowata County,2405.0,7813.0,26352.0,6090.0,5308.0,2057.0,2818.0,5607.0,2697.0,1394.0,327.0,53.0,1.0
933998,County,2020/10/19,40.0,OK,40105.0,Nowata County,2287.0,7931.0,34375.0,7773.0,9299.0,3512.0,2995.0,5721.0,3168.0,1614.0,293.0,0.0,0.0
936773,County,2020/10/20,40.0,OK,40105.0,Nowata County,2306.0,7912.0,36614.0,7325.0,9520.0,4366.0,3432.0,5288.0,3263.0,2848.0,507.0,64.0,1.0
940057,County,2020/10/21,40.0,OK,40105.0,Nowata County,2296.0,7922.0,33301.0,6938.0,8428.0,3134.0,4116.0,5241.0,3178.0,1724.0,487.0,55.0,0.0
943614,County,2020/10/22,40.0,OK,40105.0,Nowata County,2062.0,8156.0,41316.0,14288.0,7749.0,3766.0,4468.0,5596.0,3364.0,1761.0,272.0,50.0,2.0
946475,County,2020/10/23,40.0,OK,40105.0,Nowata County,1790.0,8428.0,39198.0,11373.0,7600.0,3840.0,3560.0,6106.0,3623.0,2642.0,398.0,54.0,2.0
949314,County,2020/10/24,40.0,OK,40105.0,Nowata County,2055.0,8163.0,38688.0,8495.0,8319.0,3924.0,5479.0,5623.0,3824.0,2913.0,76.0,33.0,2.0
