,Level,Date,State FIPS,State Postal Code,County FIPS,County Name,Population Staying at Home,Population Not Staying at Home,Number of Trips,Number of Trips <1,Number of Trips 1-3,Number of Trips 3-5,Number of Trips 5-10,Number of Trips 10-25,Number of Trips 25-50,Number of Trips 50-100,Number of Trips 100-250,Number of Trips 250-500,Number of Trips >=500
1815,County,2020/01/01,35.0,NM,35039.0,Rio Arriba County,9234.0,29772.0,134768.0,29986.0,41043.0,12975.0,17857.0,21054.0,7443.0,3280.0,978.0,121.0,31.0
5210,County,2020/01/02,35.0,NM,35039.0,Rio Arriba County,7906.0,31100.0,156632.0,38366.0,42642.0,13766.0,16751.0,23062.0,15685.0,5464.0,799.0,79.0,18.0
7049,County,2020/01/03,35.0,NM,35039.0,Rio Arriba County,7125.0,31881.0,164505.0,38438.0,44739.0,14054.0,18228.0,26224.0,16519.0,5367.0,812.0,101.0,23.0
10869,County,2020/01/04,35.0,NM,35039.0,Rio Arriba County,8408.0,30598.0,154015.0,38829.0,39060.0,12112.0,18049.0,20744.0,17685.0,6753.0,742.0,28.0,13.0
14591,County,2020/01/05,35.0,NM,35039.0,Rio Arriba County,8550.0,30456.0,132281.0,29134.0,36104.0,12787.0,17113.0,18050.0,12530.0,5582.0,707.0,234.0,40.0
18469,County,2020/01/06,35.0,NM,35039.0,Rio Arriba County,7519.0,31487.0,168366.0,37704.0,50635.0,14650.0,15176.0,24597.0,19851.0,4717.0,962.0,63.0,11.0
20061,County,2020/01/07,35.0,NM,35039.0,Rio Arriba County,6612.0,32394.0,173251.0,41613.0,51270.0,13289.0,14945.0,27476.0,19022.0,5011.0,514.0,93.0,18.0
23291,County,2020/01/08,35.0,NM,35039.0,Rio Arriba County,6865.0,32141.0,164084.0,38735.0,46246.0,12940.0,16076.0,28496.0,16812.0,3947.0,728.0,79.0,25.0
28039,County,2020/01/09,35.0,NM,35039.0,Rio Arriba County,7141.0,31865.0,165625.0,37954.0,47745.0,15476.0,16488.0,26052.0,16553.0,4807.0,462.0,80.0,8.0
31246,County,2020/01/10,35.0,NM,35039.0,Rio Arriba County,6815.0,32191.0,173367.0,38193.0,49841.0,12911.0,18220.0,31085.0,17383.0,4985.0,677.0,67.0,5.0
34441,County,2020/01/11,35.0,NM,35039.0,Rio Arriba County,7979.0,31027.0,151291.0,31459.0,40252.0,11736.0,19760.0,24291.0,17576.0,5451.0,722.0,38.0,6.0
36030,County,2020/01/12,35.0,NM,35039.0,Rio Arriba County,8485.0,30521.0,147442.0,37546.0,34259.0,14776.0,18889.0,23628.0,13050.0,4134.0,1037.0,108.0,15.0
39273,County,2020/01/13,35.0,NM,35039.0,Rio Arriba County,6870.0,32136.0,166048.0,38944.0,46718.0,14357.0,18490.0,25212.0,17888.0,3884.0,511.0,23.0,21.0
44006,County,2020/01/14,35.0,NM,35039.0,Rio Arriba County,6500.0,32506.0,176245.0,44001.0,48406.0,13672.0,16622.0,27000.0,21744.0,3857.0,889.0,44.0,10.0
47211,County,2020/01/15,35.0,NM,35039.0,Rio Arriba County,6648.0,32358.0,172088.0,39763.0,47929.0,14682.0,16884.0,28665.0,19709.0,3647.0,728.0,74.0,7.0
50368,County,2020/01/16,35.0,NM,35039.0,Rio Arriba County,7149.0,31857.0,156522.0,36354.0,44707.0,11952.0,15526.0,27456.0,16323.0,3275.0,751.0,143.0,35.0
51996,County,2020/01/17,35.0,NM,35039.0,Rio Arriba County,7737.0,31269.0,161520.0,36190.0,43560.0,12196.0,18618.0,26303.0,18808.0,4692.0,1038.0,94.0,21.0
56777,County,2020/01/18,35.0,NM,35039.0,Rio Arriba County,7130.0,31876.0,156349.0,33969.0,36634.0,13436.0,20897.0,25714.0,16575.0,7725.0,1296.0,60.0,43.0
58376,County,2020/01/19,35.0,NM,35039.0,Rio Arriba County,8784.0,30222.0,142218.0,38685.0,35117.0,11967.0,17351.0,21907.0,11360.0,4354.0,1324.0,110.0,43.0
63138,County,2020/01/20,35.0,NM,35039.0,Rio Arriba County,8543.0,30463.0,141825.0,35088.0,34258.0,9267.0,17936.0,20774.0,18784.0,4516.0,1104.0,75.0,23.0
66336,County,2020/01/21,35.0,NM,35039.0,Rio Arriba County,7304.0,31702.0,158032.0,38297.0,44418.0,12031.0,16786.0,23810.0,18300.0,3436.0,800.0,132.0,22.0
67967,County,2020/01/22,35.0,NM,35039.0,Rio Arriba County,6851.0,32155.0,172120.0,41472.0,44198.0,15222.0,18070.0,28648.0,19349.0,4306.0,740.0,92.0,23.0
72758,County,2020/01/23,35.0,NM,35039.0,Rio Arriba County,6678.0,32328.0,170204.0,39205.0,46590.0,14732.0,17821.0,27941.0,17970.0,4947.0,859.0,117.0,22.0
75914,County,2020/01/24,35.0,NM,35039.0,Rio Arriba County,6692.0,32314.0,177288.0,39785.0,49334.0,13560.0,19780.0,26873.0,21047.0,5592.0,1253.0,54.0,10.0
79149,County,2020/01/25,35.0,NM,35039.0,Rio Arriba County,7686.0,31320.0,193495.0,54905.0,51676.0,13719.0,20679.0,27587.0,16747.0,6927.0,1167.0,70.0,18.0
81665,County,2020/01/26,35.0,NM,35039.0,Rio Arriba County,8702.0,30304.0,133798.0,31274.0,34289.0,10810.0,17101.0,23745.0,10880.0,4576.0,983.0,110.0,30.0
85513,County,2020/01/27,35.0,NM,35039.0,Rio Arriba County,6502.0,32504.0,156304.0,39013.0,46292.0,11417.0,14342.0,22533.0,17425.0,4762.0,408.0,101.0,11.0
87186,County,2020/01/28,35.0,NM,35039.0,Rio Arriba County,7199.0,31807.0,170726.0,41502.0,47567.0,13475.0,17761.0,25645.0,20070.0,3989.0,610.0,97.0,10.0
90341,County,2020/01/29,35.0,NM,35039.0,Rio Arriba County,7050.0,31956.0,163211.0,38393.0,41969.0,13126.0,15799.0,28026.0,21241.0,3685.0,934.0,21.0,17.0
93645,County,2020/01/30,35.0,NM,35039.0,Rio Arriba County,7089.0,31917.0,165354.0,36171.0,48022.0,14088.0,15597.0,27677.0,16746.0,6001.0,899.0,112.0,41.0
96700,County,2020/01/31,35.0,NM,35039.0,Rio Arriba County,6720.0,32286.0,168645.0,38832.0,45012.0,15231.0,17269.0,25170.0,18569.0,7170.0,1204.0,116.0,72.0
101458,County,2020/02/01,35.0,NM,35039.0,Rio Arriba County,7658.0,31348.0,157103.0,33772.0,42925.0,14014.0,16081.0,24744.0,17908.0,5912.0,1618.0,53.0,76.0
103077,County,2020/02/02,35.0,NM,35039.0,Rio Arriba County,7964.0,31042.0,134124.0,31477.0,32728.0,13444.0,15469.0,24167.0,10665.0,4911.0,1108.0,74.0,81.0
107912,County,2020/02/03,35.0,NM,35039.0,Rio Arriba County,6863.0,32143.0,158585.0,35751.0,45395.0,15934.0,13867.0,24777.0,17737.0,3940.0,1006.0,130.0,48.0
109529,County,2020/02/04,35.0,NM,35039.0,Rio Arriba County,7385.0,31621.0,151260.0,34344.0,41755.0,13950.0,16166.0,25065.0,15101.0,4089.0,495.0,227.0,68.0
114251,County,2020/02/05,35.0,NM,35039.0,Rio Arriba County,6792.0,32214.0,165444.0,39476.0,45713.0,13941.0,16727.0,26368.0,18181.0,4203.0,592.0,156.0,87.0
117458,County,2020/02/06,35.0,NM,35039.0,Rio Arriba County,6903.0,32103.0,164545.0,37348.0,44854.0,14913.0,15888.0,27915.0,17831.0,5002.0,634.0,83.0,77.0
120712,County,2020/02/07,35.0,NM,35039.0,Rio Arriba County,6780.0,32226.0,164326.0,35669.0,43292.0,14179.0,19080.0,27347.0,17877.0,5920.0,750.0,142.0,70.0
123872,County,2020/02/08,35.0,NM,35039.0,Rio Arriba County,7699.0,31307.0,158959.0,36288.0,39975.0,13402.0,17869.0,26767.0,17574.0,6050.0,929.0,38.0,67.0
125828,County,2020/02/09,35.0,NM,35039.0,Rio Arriba County,9927.0,29079.0,124404.0,25722.0,31631.0,13005.0,15595.0,20223.0,11822.0,5267.0,890.0,147.0,102.0
130124,County,2020/02/10,35.0,NM,35039.0,Rio Arriba County,7230.0,31776.0,158816.0,34992.0,43139.0,14455.0,15308.0,27088.0,18443.0,3802.0,1308.0,171.0,110.0
134032,County,2020/02/11,35.0,NM,35039.0,Rio Arriba County,8335.0,30671.0,146023.0,35713.0,38404.0,15243.0,15120.0,24080.0,11934.0,4441.0,793.0,197.0,98.0
135507,County,2020/02/12,35.0,NM,35039.0,Rio Arriba County,6951.0,32055.0,176160.0,41570.0,46347.0,17540.0,15330.0,29875.0,20429.0,4005.0,726.0,205.0,133.0
139841,County,2020/02/13,35.0,NM,35039.0,Rio Arriba County,6476.0,32530.0,180064.0,38927.0,46751.0,16227.0,15884.0,33532.0,21895.0,5585.0,972.0,137.0,154.0
142995,County,2020/02/14,35.0,NM,35039.0,Rio Arriba County,6358.0,32648.0,191488.0,43604.0,47062.0,16415.0,20052.0,34117.0,22004.0,6824.0,1046.0,225.0,139.0
146201,County,2020/02/15,35.0,NM,35039.0,Rio Arriba County,7680.0,31326.0,167701.0,34568.0,42177.0,16169.0,19333.0,27656.0,17722.0,7911.0,1860.0,160.0,145.0
147808,County,2020/02/16,35.0,NM,35039.0,Rio Arriba County,8214.0,30792.0,147963.0,36104.0,36651.0,12322.0,17806.0,23717.0,14380.0,5945.0,692.0,193.0,153.0
151031,County,2020/02/17,35.0,NM,35039.0,Rio Arriba County,9738.0,29268.0,132799.0,28613.0,31806.0,10797.0,15540.0,22644.0,15779.0,5907.0,1440.0,134.0,139.0
154245,County,2020/02/18,35.0,NM,35039.0,Rio Arriba County,7084.0,31922.0,172706.0,39767.0,46481.0,16345.0,15138.0,27700.0,20676.0,5175.0,1162.0,134.0,128.0
158957,County,2020/02/19,35.0,NM,35039.0,Rio Arriba County,6567.0,32439.0,181185.0,44879.0,44904.0,17343.0,16816.0,31585.0,19619.0,5123.0,746.0,11.0,159.0
162201,County,2020/02/20,35.0,NM,35039.0,Rio Arriba County,6949.0,32057.0,176063.0,42799.0,45957.0,12447.0,18780.0,27783.0,21863.0,5492.0,696.0,87.0,159.0
163779,County,2020/02/21,35.0,NM,35039.0,Rio Arriba County,7089.0,31917.0,178443.0,41224.0,45393.0,16761.0,19390.0,29165.0,19720.0,5322.0,1254.0,97.0,117.0
166973,County,2020/02/22,35.0,NM,35039.0,Rio Arriba County,7059.0,31947.0,154817.0,32194.0,40353.0,11850.0,19819.0,26274.0,14949.0,7579.0,1522.0,130.0,147.0
170201,County,2020/02/23,35.0,NM,35039.0,Rio Arriba County,8347.0,30659.0,137287.0,33180.0,37169.0,12307.0,20328.0,16101.0,11605.0,5486.0,938.0,96.0,77.0
174982,County,2020/02/24,35.0,NM,35039.0,Rio Arriba County,7390.0,31616.0,167042.0,32927.0,46710.0,15867.0,17502.0,28041.0,19114.0,5594.0,1182.0,57.0,48.0
177486,County,2020/02/25,35.0,NM,35039.0,Rio Arriba County,7252.0,31754.0,164705.0,41447.0,46459.0,13904.0,17240.0,24729.0,15634.0,4547.0,565.0,127.0,53.0
180679,County,2020/02/26,35.0,NM,35039.0,Rio Arriba County,6436.0,32570.0,174127.0,37994.0,46496.0,17054.0,20417.0,29525.0,16700.0,4870.0,1028.0,29.0,14.0
184553,County,2020/02/27,35.0,NM,35039.0,Rio Arriba County,6320.0,32686.0,184660.0,44307.0,50438.0,16198.0,17997.0,32024.0,16983.0,5865.0,714.0,83.0,51.0
186279,County,2020/02/28,35.0,NM,35039.0,Rio Arriba County,6361.0,32645.0,195520.0,42146.0,51254.0,15996.0,22711.0,33865.0,21401.0,7088.0,928.0,84.0,47.0
190898,County,2020/02/29,35.0,NM,35039.0,Rio Arriba County,6826.0,32180.0,182526.0,37384.0,48366.0,16841.0,20676.0,31397.0,19535.0,6705.0,1525.0,55.0,42.0
194116,County,2020/03/01,35.0,NM,35039.0,Rio Arriba County,7932.0,31074.0,141866.0,29133.0,36830.0,12569.0,18287.0,27468.0,10390.0,5663.0,1380.0,82.0,64.0
197321,County,2020/03/02,35.0,NM,35039.0,Rio Arriba County,7016.0,31990.0,150704.0,34832.0,45473.0,11595.0,15195.0,22686.0,16131.0,4362.0,314.0,63.0,53.0
200546,County,2020/03/03,35.0,NM,35039.0,Rio Arriba County,6707.0,32299.0,160881.0,36525.0,45614.0,10294.0,18680.0,29037.0,16367.0,3315.0,856.0,154.0,39.0
201230,County,2020/03/04,35.0,NM,35039.0,Rio Arriba County,6895.0,32111.0,169703.0,42804.0,46471.0,12054.0,16836.0,27246.0,18422.0,4589.0,1211.0,20.0,50.0
206887,County,2020/03/05,35.0,NM,35039.0,Rio Arriba County,6083.0,32923.0,159339.0,39827.0,46917.0,11816.0,16856.0,22708.0,16044.0,4461.0,579.0,91.0,40.0
210150,County,2020/03/06,35.0,NM,35039.0,Rio Arriba County,6434.0,32572.0,172713.0,44687.0,50316.0,11162.0,16950.0,25851.0,17604.0,5117.0,850.0,116.0,60.0
211719,County,2020/03/07,35.0,NM,35039.0,Rio Arriba County,7444.0,31562.0,173531.0,42428.0,48492.0,13931.0,16678.0,26178.0,17336.0,7444.0,944.0,47.0,53.0
216494,County,2020/03/08,35.0,NM,35039.0,Rio Arriba County,8314.0,30692.0,131185.0,31219.0,37356.0,10256.0,15466.0,19661.0,11324.0,4612.0,1188.0,68.0,35.0
218087,County,2020/03/09,35.0,NM,35039.0,Rio Arriba County,7696.0,31310.0,153517.0,36885.0,44683.0,9967.0,12199.0,27897.0,16371.0,4451.0,914.0,133.0,17.0
221321,County,2020/03/10,35.0,NM,35039.0,Rio Arriba County,7290.0,31716.0,154820.0,38582.0,44380.0,11393.0,16222.0,23437.0,17080.0,2922.0,695.0,57.0,52.0
224510,County,2020/03/11,35.0,NM,35039.0,Rio Arriba County,6636.0,32370.0,162474.0,32078.0,44877.0,13572.0,12981.0,31410.0,18625.0,7448.0,1231.0,102.0,150.0
229206,County,2020/03/12,35.0,NM,35039.0,Rio Arriba County,7487.0,31519.0,206230.0,40376.0,56518.0,15436.0,21474.0,35405.0,27216.0,8314.0,1255.0,124.0,112.0
232475,County,2020/03/13,35.0,NM,35039.0,Rio Arriba County,7376.0,31630.0,159408.0,31284.0,38896.0,16717.0,11950.0,31904.0,21326.0,5457.0,1729.0,61.0,84.0
235530,County,2020/03/14,35.0,NM,35039.0,Rio Arriba County,8711.0,30295.0,178980.0,36830.0,59827.0,14025.0,18097.0,34895.0,10093.0,3838.0,912.0,378.0,85.0
237240,County,2020/03/15,35.0,NM,35039.0,Rio Arriba County,9719.0,29287.0,129521.0,31786.0,29063.0,11924.0,17343.0,22735.0,11441.0,3786.0,1292.0,115.0,36.0
240483,County,2020/03/16,35.0,NM,35039.0,Rio Arriba County,8910.0,30096.0,159184.0,43828.0,42161.0,12196.0,12728.0,28632.0,15144.0,4048.0,389.0,19.0,39.0
243666,County,2020/03/17,35.0,NM,35039.0,Rio Arriba County,9242.0,29764.0,138000.0,32242.0,37742.0,11000.0,13306.0,25471.0,12907.0,4293.0,855.0,136.0,48.0
246821,County,2020/03/18,35.0,NM,35039.0,Rio Arriba County,9780.0,29226.0,135095.0,31727.0,33073.0,11433.0,15102.0,23296.0,16266.0,3236.0,854.0,64.0,44.0
251603,County,2020/03/19,35.0,NM,35039.0,Rio Arriba County,10109.0,28897.0,143757.0,39790.0,39995.0,12214.0,13133.0,20910.0,12963.0,4050.0,642.0,20.0,40.0
253261,County,2020/03/20,35.0,NM,35039.0,Rio Arriba County,10950.0,28056.0,146343.0,34873.0,36622.0,13092.0,15492.0,25668.0,15156.0,4818.0,555.0,46.0,21.0
256404,County,2020/03/21,35.0,NM,35039.0,Rio Arriba County,11591.0,27415.0,136846.0,35324.0,39170.0,12478.0,15094.0,22175.0,7697.0,4489.0,316.0,79.0,24.0
259640,County,2020/03/22,35.0,NM,35039.0,Rio Arriba County,11153.0,27853.0,105013.0,26407.0,33790.0,8184.0,11803.0,11991.0,7701.0,3875.0,1228.0,0.0,34.0
264370,County,2020/03/23,35.0,NM,35039.0,Rio Arriba County,8904.0,30102.0,129151.0,33355.0,39511.0,8482.0,13095.0,15965.0,14456.0,3435.0,725.0,90.0,37.0
265996,County,2020/03/24,35.0,NM,35039.0,Rio Arriba County,10021.0,28985.0,132755.0,35215.0,44759.0,9366.0,11329.0,17597.0,8986.0,4004.0,1438.0,42.0,19.0
269229,County,2020/03/25,35.0,NM,35039.0,Rio Arriba County,10052.0,28954.0,129869.0,35696.0,36041.0,8923.0,11264.0,19707.0,14332.0,2255.0,1597.0,21.0,33.0
273970,County,2020/03/26,35.0,NM,35039.0,Rio Arriba County,10385.0,28621.0,142009.0,45223.0,40270.0,8322.0,12340.0,20037.0,11978.0,3030.0,698.0,43.0,68.0
275610,County,2020/03/27,35.0,NM,35039.0,Rio Arriba County,9994.0,29012.0,124529.0,32612.0,37443.0,8778.0,12591.0,17939.0,11370.0,3345.0,408.0,20.0,23.0
278764,County,2020/03/28,35.0,NM,35039.0,Rio Arriba County,10991.0,28015.0,123255.0,35882.0,35227.0,10361.0,8537.0,17511.0,11022.0,4005.0,683.0,0.0,27.0
283524,County,2020/03/29,35.0,NM,35039.0,Rio Arriba County,11459.0,27547.0,109442.0,34944.0,29246.0,8159.0,10898.0,14538.0,6361.0,4360.0,774.0,137.0,25.0
285151,County,2020/03/30,35.0,NM,35039.0,Rio Arriba County,9536.0,29470.0,128356.0,37377.0,36227.0,9494.0,14538.0,18314.0,8303.0,3576.0,391.0,97.0,39.0
289954,County,2020/03/31,35.0,NM,35039.0,Rio Arriba County,9714.0,29292.0,119830.0,34315.0,40858.0,7688.0,8995.0,15090.0,10340.0,1939.0,492.0,81.0,32.0
293153,County,2020/04/01,35.0,NM,35039.0,Rio Arriba County,10162.0,28844.0,142740.0,38096.0,41804.0,8834.0,16030.0,23181.0,11324.0,3115.0,269.0,67.0,20.0
296315,County,2020/04/02,35.0,NM,35039.0,Rio Arriba County,9966.0,29040.0,128493.0,33425.0,36045.0,8900.0,12560.0,23694.0,10674.0,2628.0,438.0,109.0,20.0
297976,County,2020/04/03,35.0,NM,35039.0,Rio Arriba County,9946.0,29060.0,123798.0,33327.0,33742.0,10984.0,10170.0,19188.0,12491.0,3200.0,617.0,44.0,35.0
302722,County,2020/04/04,35.0,NM,35039.0,Rio Arriba County,11103.0,27903.0,115758.0,38573.0,29819.0,8389.0,9539.0,16435.0,9176.0,3442.0,327.0,27.0,31.0
304350,County,2020/04/05,35.0,NM,35039.0,Rio Arriba County,11234.0,27772.0,99158.0,30761.0,26174.0,8683.0,9663.0,12152.0,7998.0,3385.0,226.0,84.0,32.0
307559,County,2020/04/06,35.0,NM,35039.0,Rio Arriba County,10098.0,28908.0,125425.0,38009.0,36197.0,8134.0,11298.0,18505.0,10190.0,2627.0,392.0,73.0,0.0
312315,County,2020/04/07,35.0,NM,35039.0,Rio Arriba County,9797.0,29209.0,128273.0,31523.0,36699.0,7065.0,12733.0,21525.0,15772.0,2219.0,656.0,70.0,11.0
315488,County,2020/04/08,35.0,NM,35039.0,Rio Arriba County,10307.0,28699.0,115296.0,21761.0,34149.0,10477.0,13844.0,20302.0,11600.0,2811.0,314.0,26.0,12.0
317115,County,2020/04/09,35.0,NM,35039.0,Rio Arriba County,10447.0,28559.0,126421.0,32373.0,33907.0,9800.0,11262.0,21080.0,13870.0,3686.0,425.0,0.0,18.0
320342,County,2020/04/10,35.0,NM,35039.0,Rio Arriba County,9565.0,29441.0,123676.0,30763.0,37977.0,9205.0,12778.0,16660.0,12162.0,3870.0,196.0,49.0,16.0
325095,County,2020/04/11,35.0,NM,35039.0,Rio Arriba County,10447.0,28559.0,113144.0,34529.0,26940.0,9147.0,11262.0,18033.0,9168.0,3351.0,637.0,53.0,24.0
326672,County,2020/04/12,35.0,NM,35039.0,Rio Arriba County,12213.0,26793.0,89454.0,22997.0,27705.0,7133.0,10523.0,13526.0,5259.0,2141.0,113.0,0.0,57.0
329937,County,2020/04/13,35.0,NM,35039.0,Rio Arriba County,10662.0,28344.0,108202.0,28849.0,32770.0,5356.0,13547.0,13881.0,11680.0,1665.0,422.0,26.0,6.0
333061,County,2020/04/14,35.0,NM,35039.0,Rio Arriba County,9925.0,29081.0,135997.0,44872.0,46247.0,8791.0,9571.0,13670.0,7591.0,4509.0,572.0,142.0,32.0
336286,County,2020/04/15,35.0,NM,35039.0,Rio Arriba County,9539.0,29467.0,112783.0,18604.0,39499.0,10417.0,9451.0,16874.0,16243.0,890.0,564.0,210.0,31.0
341005,County,2020/04/16,35.0,NM,35039.0,Rio Arriba County,10329.0,28677.0,110953.0,29591.0,30906.0,7862.0,13986.0,17978.0,7987.0,1423.0,1203.0,0.0,17.0
342740,County,2020/04/17,35.0,NM,35039.0,Rio Arriba County,9423.0,29583.0,143712.0,28294.0,58169.0,7918.0,16496.0,12312.0,16461.0,4062.0,0.0,0.0,0.0
345846,County,2020/04/18,35.0,NM,35039.0,Rio Arriba County,10928.0,28078.0,136053.0,16892.0,56040.0,8133.0,16649.0,27239.0,8104.0,2567.0,407.0,0.0,22.0
350598,County,2020/04/19,35.0,NM,35039.0,Rio Arriba County,10061.0,28945.0,99263.0,20210.0,30990.0,7420.0,12342.0,14422.0,7342.0,6185.0,301.0,0.0,51.0
353847,County,2020/04/20,35.0,NM,35039.0,Rio Arriba County,8509.0,30497.0,139708.0,37511.0,38249.0,11327.0,15414.0,19814.0,13585.0,3390.0,306.0,77.0,35.0
357033,County,2020/04/21,35.0,NM,35039.0,Rio Arriba County,9643.0,29363.0,119358.0,30591.0,37062.0,8689.0,11502.0,18864.0,10146.0,1682.0,639.0,159.0,24.0
358661,County,2020/04/22,35.0,NM,35039.0,Rio Arriba County,9732.0,29274.0,121877.0,34756.0,31134.0,8863.0,10511.0,24591.0,11005.0,891.0,113.0,0.0,13.0
363394,County,2020/04/23,35.0,NM,35039.0,Rio Arriba County,9154.0,29852.0,140612.0,36747.0,36934.0,12651.0,14079.0,24392.0,13595.0,1730.0,439.0,27.0,18.0
365021,County,2020/04/24,35.0,NM,35039.0,Rio Arriba County,8305.0,30701.0,136636.0,39788.0,35247.0,10391.0,12749.0,21004.0,13032.0,3959.0,386.0,48.0,32.0
368188,County,2020/04/25,35.0,NM,35039.0,Rio Arriba County,9528.0,29478.0,128442.0,39391.0,33162.0,7147.0,14789.0,21058.0,7580.0,4438.0,856.0,0.0,21.0
371354,County,2020/04/26,35.0,NM,35039.0,Rio Arriba County,10234.0,28772.0,113434.0,31238.0,30309.0,10169.0,15850.0,13988.0,7881.0,3611.0,381.0,0.0,7.0
374631,County,2020/04/27,35.0,NM,35039.0,Rio Arriba County,8867.0,30139.0,125866.0,29226.0,39066.0,9847.0,13256.0,19015.0,11429.0,3422.0,516.0,77.0,12.0
377782,County,2020/04/28,35.0,NM,35039.0,Rio Arriba County,8155.0,30851.0,138098.0,35450.0,42398.0,9401.0,12971.0,22612.0,12262.0,2110.0,764.0,119.0,11.0
382562,County,2020/04/29,35.0,NM,35039.0,Rio Arriba County,9667.0,29339.0,128573.0,37414.0,35505.0,9003.0,12124.0,20075.0,11491.0,2266.0,552.0,137.0,6.0
385780,County,2020/04/30,35.0,NM,35039.0,Rio Arriba County,9293.0,29713.0,150563.0,42171.0,38893.0,8258.0,13735.0,27286.0,14608.0,4942.0,559.0,111.0,0.0
388968,County,2020/05/01,35.0,NM,35039.0,Rio Arriba County,8728.0,30278.0,147070.0,39053.0,40380.0,9978.0,14856.0,25780.0,12594.0,3780.0,599.0,50.0,0.0
390589,County,2020/05/02,35.0,NM,35039.0,Rio Arriba County,9293.0,29713.0,128236.0,32474.0,35957.0,10150.0,16232.0,18458.0,11390.0,2824.0,559.0,167.0,25.0
395314,County,2020/05/03,35.0,NM,35039.0,Rio Arriba County,10138.0,28868.0,131472.0,31623.0,37316.0,8748.0,15370.0,23643.0,9593.0,4487.0,542.0,135.0,15.0
396964,County,2020/05/04,35.0,NM,35039.0,Rio Arriba County,8765.0,30241.0,143453.0,32691.0,47808.0,10517.0,13301.0,20566.0,14220.0,3924.0,311.0,103.0,12.0
400183,County,2020/05/05,35.0,NM,35039.0,Rio Arriba County,9204.0,29802.0,137047.0,35642.0,41166.0,9484.0,15096.0,19146.0,12932.0,2731.0,757.0,81.0,12.0
404938,County,2020/05/06,35.0,NM,35039.0,Rio Arriba County,9004.0,30002.0,133772.0,36126.0,35386.0,11224.0,12200.0,21499.0,14047.0,2670.0,529.0,79.0,12.0
406565,County,2020/05/07,35.0,NM,35039.0,Rio Arriba County,8937.0,30069.0,141425.0,39922.0,38551.0,11063.0,12629.0,23745.0,11438.0,2877.0,1114.0,75.0,11.0
411295,County,2020/05/08,35.0,NM,35039.0,Rio Arriba County,8856.0,30150.0,135320.0,29212.0,40899.0,9696.0,15638.0,23118.0,11862.0,3979.0,840.0,52.0,24.0
412875,County,2020/05/09,35.0,NM,35039.0,Rio Arriba County,9352.0,29654.0,133112.0,32722.0,35398.0,10645.0,17446.0,19489.0,11861.0,4932.0,558.0,55.0,6.0
417672,County,2020/05/10,35.0,NM,35039.0,Rio Arriba County,10036.0,28970.0,124511.0,33382.0,33190.0,10760.0,15663.0,20417.0,7087.0,3555.0,356.0,88.0,13.0
419347,County,2020/05/11,35.0,NM,35039.0,Rio Arriba County,8412.0,30594.0,144621.0,38156.0,38948.0,11338.0,16022.0,21843.0,13430.0,4117.0,718.0,49.0,0.0
422531,County,2020/05/12,35.0,NM,35039.0,Rio Arriba County,8686.0,30320.0,144792.0,34283.0,39699.0,11313.0,16573.0,25177.0,13295.0,3727.0,675.0,50.0,0.0
425589,County,2020/05/13,35.0,NM,35039.0,Rio Arriba County,8490.0,30516.0,144682.0,39758.0,38909.0,10380.0,13697.0,24128.0,14486.0,2904.0,409.0,0.0,11.0
428930,County,2020/05/14,35.0,NM,35039.0,Rio Arriba County,8326.0,30680.0,159216.0,43058.0,40631.0,10829.0,17587.0,29311.0,14431.0,2160.0,1108.0,97.0,4.0
433670,County,2020/05/15,35.0,NM,35039.0,Rio Arriba County,7870.0,31136.0,148887.0,35349.0,36896.0,11299.0,16679.0,29034.0,14884.0,3635.0,1058.0,46.0,7.0
435348,County,2020/05/16,35.0,NM,35039.0,Rio Arriba County,8840.0,30166.0,133049.0,33440.0,39569.0,11877.0,14508.0,19373.0,10390.0,2986.0,833.0,56.0,17.0
438501,County,2020/05/17,35.0,NM,35039.0,Rio Arriba County,8134.0,30872.0,127001.0,33925.0,33886.0,8713.0,20769.0,16337.0,11065.0,1840.0,333.0,124.0,9.0
443273,County,2020/05/18,35.0,NM,35039.0,Rio Arriba County,7028.0,31978.0,149138.0,41815.0,43609.0,10825.0,13367.0,21742.0,14282.0,2545.0,880.0,73.0,0.0
446436,County,2020/05/19,35.0,NM,35039.0,Rio Arriba County,7731.0,31275.0,156142.0,50379.0,41058.0,13292.0,13584.0,19956.0,15173.0,1881.0,745.0,74.0,0.0
448067,County,2020/05/20,35.0,NM,35039.0,Rio Arriba County,6063.0,32943.0,153504.0,42909.0,38628.0,12235.0,17059.0,26120.0,11939.0,4042.0,539.0,33.0,0.0
452502,County,2020/05/21,35.0,NM,35039.0,Rio Arriba County,6995.0,32011.0,181012.0,48720.0,52544.0,12010.0,17602.0,26936.0,20610.0,2133.0,300.0,149.0,8.0
456047,County,2020/05/22,35.0,NM,35039.0,Rio Arriba County,5922.0,33084.0,153888.0,42195.0,41201.0,13564.0,17153.0,20452.0,14493.0,3795.0,935.0,100.0,0.0
457621,County,2020/05/23,35.0,NM,35039.0,Rio Arriba County,7652.0,31354.0,164105.0,39957.0,46626.0,16656.0,17315.0,21853.0,13485.0,6141.0,2030.0,42.0,0.0
460838,County,2020/05/24,35.0,NM,35039.0,Rio Arriba County,9543.0,29463.0,121303.0,25730.0,29945.0,8134.0,17658.0,22005.0,12028.0,4916.0,869.0,18.0,0.0
465715,County,2020/05/25,35.0,NM,35039.0,Rio Arriba County,8448.0,30558.0,121505.0,30063.0,32050.0,10105.0,13163.0,18281.0,11187.0,5084.0,1453.0,94.0,25.0
468872,County,2020/05/26,35.0,NM,35039.0,Rio Arriba County,7664.0,31342.0,149176.0,39674.0,39449.0,8089.0,16834.0,25155.0,14270.0,4372.0,1131.0,183.0,19.0
472014,County,2020/05/27,35.0,NM,35039.0,Rio Arriba County,7601.0,31405.0,149202.0,37473.0,37133.0,11255.0,17019.0,27073.0,13542.0,4691.0,972.0,28.0,16.0
475114,County,2020/05/28,35.0,NM,35039.0,Rio Arriba County,8322.0,30684.0,147226.0,36026.0,39109.0,10838.0,14653.0,27191.0,13502.0,4672.0,1184.0,44.0,7.0
476792,County,2020/05/29,35.0,NM,35039.0,Rio Arriba County,8283.0,30723.0,147741.0,35216.0,39466.0,10987.0,17255.0,26076.0,12484.0,5141.0,1065.0,47.0,4.0
479979,County,2020/05/30,35.0,NM,35039.0,Rio Arriba County,8846.0,30160.0,132656.0,31458.0,33889.0,10135.0,14820.0,24246.0,12664.0,4570.0,652.0,198.0,24.0
484746,County,2020/05/31,35.0,NM,35039.0,Rio Arriba County,9531.0,29475.0,115408.0,29909.0,27721.0,7710.0,9593.0,22266.0,11573.0,5650.0,788.0,178.0,20.0
488047,County,2020/06/01,35.0,NM,35039.0,Rio Arriba County,8216.0,30790.0,125625.0,28771.0,35930.0,9719.0,12989.0,21878.0,10658.0,4368.0,1143.0,149.0,20.0
489615,County,2020/06/02,35.0,NM,35039.0,Rio Arriba County,8257.0,30749.0,148143.0,39428.0,39209.0,10126.0,14655.0,22916.0,16006.0,5101.0,647.0,29.0,26.0
492783,County,2020/06/03,35.0,NM,35039.0,Rio Arriba County,7834.0,31172.0,149027.0,40391.0,36560.0,11265.0,16228.0,21261.0,16214.0,5999.0,1062.0,28.0,19.0
497558,County,2020/06/04,35.0,NM,35039.0,Rio Arriba County,7817.0,31189.0,145327.0,32168.0,34044.0,9695.0,19071.0,27005.0,15167.0,6573.0,1535.0,54.0,15.0
499198,County,2020/06/05,35.0,NM,35039.0,Rio Arriba County,7945.0,31061.0,131596.0,30472.0,32665.0,10474.0,16929.0,22309.0,11655.0,5779.0,1087.0,213.0,13.0
503923,County,2020/06/06,35.0,NM,35039.0,Rio Arriba County,9437.0,29569.0,100756.0,17352.0,26508.0,7826.0,12668.0,16642.0,13416.0,4723.0,1571.0,37.0,13.0
505537,County,2020/06/07,35.0,NM,35039.0,Rio Arriba County,8576.0,30430.0,120985.0,22522.0,32087.0,8981.0,13928.0,20948.0,12926.0,7324.0,2170.0,74.0,25.0
510333,County,2020/06/08,35.0,NM,35039.0,Rio Arriba County,7321.0,31685.0,135986.0,32711.0,34213.0,10108.0,15055.0,22989.0,15307.0,4256.0,1226.0,85.0,36.0
511962,County,2020/06/09,35.0,NM,35039.0,Rio Arriba County,8579.0,30427.0,133536.0,35524.0,34578.0,8259.0,13876.0,20691.0,14925.0,4331.0,1253.0,89.0,10.0
515119,County,2020/06/10,35.0,NM,35039.0,Rio Arriba County,8154.0,30852.0,133447.0,35487.0,34183.0,8993.0,13571.0,20076.0,15507.0,4293.0,1158.0,173.0,6.0
519851,County,2020/06/11,35.0,NM,35039.0,Rio Arriba County,8410.0,30596.0,128681.0,31321.0,33582.0,8021.0,15094.0,22312.0,13340.0,4115.0,753.0,130.0,13.0
523123,County,2020/06/12,35.0,NM,35039.0,Rio Arriba County,8270.0,30736.0,133807.0,31370.0,34603.0,10577.0,16192.0,20813.0,13472.0,5474.0,1156.0,136.0,14.0
526310,County,2020/06/13,35.0,NM,35039.0,Rio Arriba County,8692.0,30314.0,132665.0,28958.0,34342.0,10497.0,17259.0,23770.0,12174.0,4182.0,1325.0,132.0,26.0
527945,County,2020/06/14,35.0,NM,35039.0,Rio Arriba County,9285.0,29721.0,111021.0,22370.0,29618.0,7669.0,13664.0,19338.0,12231.0,4891.0,1078.0,151.0,11.0
531094,County,2020/06/15,35.0,NM,35039.0,Rio Arriba County,8471.0,30535.0,122959.0,26499.0,33158.0,9133.0,12335.0,21096.0,13911.0,5458.0,1268.0,72.0,29.0
535875,County,2020/06/16,35.0,NM,35039.0,Rio Arriba County,8297.0,30709.0,132228.0,28309.0,38011.0,11390.0,13550.0,22102.0,12329.0,4925.0,1469.0,122.0,21.0
537477,County,2020/06/17,35.0,NM,35039.0,Rio Arriba County,8145.0,30861.0,138038.0,31054.0,39404.0,9016.0,14351.0,21841.0,16801.0,4771.0,740.0,46.0,14.0
542238,County,2020/06/18,35.0,NM,35039.0,Rio Arriba County,7893.0,31113.0,127595.0,26335.0,33089.0,9477.0,14416.0,25535.0,12965.0,4910.0,793.0,61.0,14.0
543865,County,2020/06/19,35.0,NM,35039.0,Rio Arriba County,7987.0,31019.0,129984.0,30680.0,35792.0,9759.0,13791.0,25102.0,10895.0,2807.0,1067.0,44.0,47.0
547070,County,2020/06/20,35.0,NM,35039.0,Rio Arriba County,8616.0,30390.0,124491.0,30474.0,32719.0,12231.0,14545.0,17407.0,11487.0,4360.0,1146.0,84.0,38.0
550274,County,2020/06/21,35.0,NM,35039.0,Rio Arriba County,9098.0,29908.0,105895.0,21343.0,28864.0,8161.0,11353.0,19352.0,11305.0,4395.0,995.0,82.0,45.0
555054,County,2020/06/22,35.0,NM,35039.0,Rio Arriba County,8962.0,30044.0,114849.0,23932.0,29950.0,8824.0,13773.0,19180.0,11881.0,4964.0,2159.0,138.0,48.0
556682,County,2020/06/23,35.0,NM,35039.0,Rio Arriba County,8645.0,30361.0,130333.0,28103.0,35020.0,10583.0,14897.0,25133.0,13016.0,2665.0,751.0,140.0,25.0
559840,County,2020/06/24,35.0,NM,35039.0,Rio Arriba County,8684.0,30322.0,127490.0,31542.0,33486.0,10977.0,13399.0,22655.0,10054.0,4402.0,908.0,16.0,51.0
563030,County,2020/06/25,35.0,NM,35039.0,Rio Arriba County,8441.0,30565.0,126612.0,28702.0,31793.0,8814.0,14927.0,24381.0,12152.0,4474.0,1267.0,75.0,27.0
567874,County,2020/06/26,35.0,NM,35039.0,Rio Arriba County,8981.0,30025.0,125630.0,31460.0,31080.0,7523.0,13528.0,22607.0,13755.0,4798.0,727.0,82.0,70.0
571024,County,2020/06/27,35.0,NM,35039.0,Rio Arriba County,9296.0,29710.0,123224.0,24700.0,31598.0,10818.0,11521.0,25780.0,12862.0,4705.0,1070.0,114.0,56.0
574207,County,2020/06/28,35.0,NM,35039.0,Rio Arriba County,10008.0,28998.0,105612.0,17382.0,29275.0,8777.0,14288.0,18367.0,9046.0,7115.0,1268.0,70.0,24.0
575811,County,2020/06/29,35.0,NM,35039.0,Rio Arriba County,8383.0,30623.0,118343.0,27923.0,30381.0,8407.0,12606.0,18655.0,12856.0,5750.0,1594.0,85.0,86.0
579023,County,2020/06/30,35.0,NM,35039.0,Rio Arriba County,8961.0,30045.0,106416.0,24001.0,27548.0,7750.0,11505.0,18350.0,10520.0,5421.0,1088.0,185.0,48.0
582225,County,2020/07/01,35.0,NM,35039.0,Rio Arriba County,8793.0,30213.0,123084.0,31529.0,33746.0,10096.0,12641.0,19416.0,8667.0,6087.0,691.0,143.0,68.0
585417,County,2020/07/02,35.0,NM,35039.0,Rio Arriba County,9400.0,29606.0,134387.0,30464.0,33745.0,9355.0,15844.0,25878.0,12898.0,4749.0,1345.0,80.0,29.0
590159,County,2020/07/03,35.0,NM,35039.0,Rio Arriba County,9371.0,29635.0,124925.0,31283.0,30905.0,7481.0,13452.0,22480.0,13678.0,4771.0,723.0,82.0,70.0
591809,County,2020/07/04,35.0,NM,35039.0,Rio Arriba County,10559.0,28447.0,106874.0,26763.0,26440.0,6400.0,11508.0,19232.0,11701.0,4082.0,618.0,70.0,60.0
596554,County,2020/07/05,35.0,NM,35039.0,Rio Arriba County,9861.0,29145.0,97350.0,22553.0,26784.0,7351.0,9865.0,14824.0,8927.0,5303.0,1493.0,204.0,46.0
597693,County,2020/07/06,35.0,NM,35039.0,Rio Arriba County,8859.0,30147.0,121230.0,28220.0,31939.0,9514.0,11189.0,19998.0,12044.0,6416.0,1718.0,128.0,64.0
603352,County,2020/07/07,35.0,NM,35039.0,Rio Arriba County,8901.0,30105.0,123677.0,26838.0,32719.0,7418.0,16620.0,20971.0,13830.0,3978.0,1151.0,109.0,43.0
606067,County,2020/07/08,35.0,NM,35039.0,Rio Arriba County,9058.0,29948.0,119083.0,28881.0,30304.0,9542.0,12190.0,21077.0,10781.0,4300.0,1913.0,72.0,23.0
609321,County,2020/07/09,35.0,NM,35039.0,Rio Arriba County,9076.0,29930.0,121374.0,28461.0,32369.0,8368.0,14150.0,22107.0,10619.0,3416.0,1579.0,262.0,43.0
610944,County,2020/07/10,35.0,NM,35039.0,Rio Arriba County,8587.0,30419.0,121774.0,25650.0,29537.0,9427.0,14835.0,23610.0,11407.0,6419.0,651.0,202.0,36.0
615741,County,2020/07/11,35.0,NM,35039.0,Rio Arriba County,9542.0,29464.0,111331.0,25988.0,27729.0,7509.0,13877.0,20108.0,9006.0,5242.0,1695.0,135.0,42.0
618928,County,2020/07/12,35.0,NM,35039.0,Rio Arriba County,10426.0,28580.0,94042.0,17934.0,22150.0,6171.0,14806.0,15572.0,10774.0,4878.0,1578.0,131.0,48.0
622135,County,2020/07/13,35.0,NM,35039.0,Rio Arriba County,9227.0,29779.0,105793.0,24694.0,29147.0,6207.0,10176.0,17652.0,10226.0,5865.0,1646.0,132.0,48.0
623716,County,2020/07/14,35.0,NM,35039.0,Rio Arriba County,9548.0,29458.0,108519.0,21217.0,26602.0,9788.0,10897.0,21011.0,13713.0,4265.0,901.0,56.0,69.0
626838,County,2020/07/15,35.0,NM,35039.0,Rio Arriba County,9393.0,29613.0,110594.0,22334.0,27275.0,10329.0,13335.0,17546.0,15116.0,3473.0,1072.0,70.0,44.0
631768,County,2020/07/16,35.0,NM,35039.0,Rio Arriba County,9625.0,29381.0,111406.0,23918.0,25731.0,8543.0,11779.0,22712.0,14014.0,3770.0,836.0,59.0,44.0
634863,County,2020/07/17,35.0,NM,35039.0,Rio Arriba County,8618.0,30388.0,122746.0,26642.0,34165.0,8286.0,12428.0,19841.0,14310.0,5525.0,1400.0,134.0,15.0
638066,County,2020/07/18,35.0,NM,35039.0,Rio Arriba County,9930.0,29076.0,102963.0,22472.0,27205.0,9408.0,11764.0,18245.0,7759.0,4989.0,962.0,120.0,39.0
641269,County,2020/07/19,35.0,NM,35039.0,Rio Arriba County,11036.0,27970.0,82841.0,15465.0,19133.0,7463.0,12448.0,13012.0,9602.0,4060.0,1323.0,310.0,25.0
644477,County,2020/07/20,35.0,NM,35039.0,Rio Arriba County,10306.0,28700.0,115923.0,24263.0,29709.0,8844.0,13519.0,22516.0,11889.0,4387.0,695.0,94.0,7.0
646105,County,2020/07/21,35.0,NM,35039.0,Rio Arriba County,10203.0,28803.0,111688.0,25247.0,30080.0,7052.0,10635.0,23069.0,11599.0,3382.0,476.0,118.0,30.0
648787,County,2020/07/22,35.0,NM,35039.0,Rio Arriba County,10044.0,28962.0,108849.0,25613.0,25174.0,8939.0,14383.0,18219.0,11492.0,3473.0,1467.0,70.0,19.0
654028,County,2020/07/23,35.0,NM,35039.0,Rio Arriba County,10003.0,29003.0,105481.0,27591.0,23727.0,7040.0,13563.0,18110.0,11258.0,3121.0,904.0,126.0,41.0
657302,County,2020/07/24,35.0,NM,35039.0,Rio Arriba County,9876.0,29130.0,109398.0,25479.0,24420.0,7286.0,11437.0,19962.0,12983.0,6852.0,846.0,70.0,63.0
660519,County,2020/07/25,35.0,NM,35039.0,Rio Arriba County,10648.0,28358.0,91236.0,18961.0,26284.0,6470.0,9193.0,14532.0,7538.0,6005.0,1936.0,265.0,52.0
662044,County,2020/07/26,35.0,NM,35039.0,Rio Arriba County,10505.0,28501.0,91384.0,15063.0,19929.0,6800.0,12020.0,16752.0,12195.0,6439.0,1768.0,372.0,46.0
665339,County,2020/07/27,35.0,NM,35039.0,Rio Arriba County,10077.0,28929.0,105261.0,21797.0,24301.0,7021.0,11847.0,19250.0,13163.0,6255.0,1321.0,269.0,37.0
668452,County,2020/07/28,35.0,NM,35039.0,Rio Arriba County,9361.0,29645.0,107338.0,18743.0,24859.0,10232.0,12962.0,20546.0,13568.0,5373.0,890.0,118.0,47.0
671657,County,2020/07/29,35.0,NM,35039.0,Rio Arriba County,9985.0,29021.0,112086.0,20465.0,29428.0,9770.0,14399.0,22928.0,9588.0,4101.0,1155.0,200.0,52.0
674820,County,2020/07/30,35.0,NM,35039.0,Rio Arriba County,9342.0,29664.0,123186.0,26862.0,27599.0,9911.0,14988.0,24018.0,13909.0,4237.0,1450.0,160.0,52.0
678021,County,2020/07/31,35.0,NM,35039.0,Rio Arriba County,9755.0,29251.0,120785.0,24009.0,31448.0,9830.0,12422.0,22655.0,13138.0,5673.0,1427.0,128.0,55.0
682767,County,2020/08/01,35.0,NM,35039.0,Rio Arriba County,10193.0,28813.0,103931.0,23201.0,23429.0,9638.0,11658.0,17243.0,10142.0,7230.0,1146.0,184.0,60.0
686007,County,2020/08/02,35.0,NM,35039.0,Rio Arriba County,10723.0,28283.0,103259.0,22509.0,25599.0,5627.0,12660.0,20647.0,8260.0,6696.0,1097.0,127.0,37.0
689210,County,2020/08/03,35.0,NM,35039.0,Rio Arriba County,8931.0,30075.0,118181.0,24203.0,30841.0,8998.0,13061.0,21357.0,13769.0,5150.0,678.0,76.0,48.0
692373,County,2020/08/04,35.0,NM,35039.0,Rio Arriba County,9340.0,29666.0,124701.0,28707.0,35745.0,8656.0,12364.0,22194.0,12060.0,4157.0,718.0,90.0,10.0
694001,County,2020/08/05,35.0,NM,35039.0,Rio Arriba County,9882.0,29124.0,118392.0,27550.0,32445.0,8455.0,12569.0,20117.0,11729.0,4494.0,927.0,99.0,7.0
697207,County,2020/08/06,35.0,NM,35039.0,Rio Arriba County,8924.0,30082.0,132344.0,30580.0,40092.0,8712.0,13145.0,21122.0,13078.0,4229.0,1157.0,136.0,93.0
700419,County,2020/08/07,35.0,NM,35039.0,Rio Arriba County,9620.0,29386.0,121251.0,27292.0,34533.0,7653.0,11233.0,21104.0,12778.0,5235.0,1327.0,66.0,30.0
703569,County,2020/08/08,35.0,NM,35039.0,Rio Arriba County,9630.0,29376.0,100514.0,16500.0,24494.0,6562.0,11766.0,19133.0,13156.0,7213.0,1599.0,57.0,34.0
706759,County,2020/08/09,35.0,NM,35039.0,Rio Arriba County,10365.0,28641.0,98098.0,20856.0,26399.0,7834.0,10126.0,15353.0,10812.0,5616.0,907.0,156.0,39.0
711568,County,2020/08/10,35.0,NM,35039.0,Rio Arriba County,9549.0,29457.0,123734.0,30979.0,32352.0,8336.0,11982.0,19215.0,15386.0,4527.0,829.0,110.0,18.0
713148,County,2020/08/11,35.0,NM,35039.0,Rio Arriba County,10553.0,28453.0,134714.0,37801.0,34571.0,8613.0,13453.0,22379.0,13182.0,3803.0,851.0,53.0,8.0
716343,County,2020/08/12,35.0,NM,35039.0,Rio Arriba County,9850.0,29156.0,117806.0,28230.0,27302.0,7567.0,11327.0,21915.0,15792.0,4755.0,799.0,61.0,58.0
721102,County,2020/08/13,35.0,NM,35039.0,Rio Arriba County,9243.0,29763.0,113113.0,22337.0,27669.0,7749.0,15104.0,18477.0,14128.0,6006.0,1511.0,69.0,63.0
724328,County,2020/08/14,35.0,NM,35039.0,Rio Arriba County,9102.0,29904.0,120181.0,24041.0,29144.0,9362.0,15713.0,18756.0,15661.0,6230.0,1041.0,163.0,70.0
727539,County,2020/08/15,35.0,NM,35039.0,Rio Arriba County,9613.0,29393.0,109496.0,20846.0,27599.0,9754.0,14514.0,17139.0,11933.0,6104.0,1395.0,126.0,86.0
729119,County,2020/08/16,35.0,NM,35039.0,Rio Arriba County,10164.0,28842.0,102441.0,19519.0,22687.0,5725.0,12489.0,19849.0,10942.0,9147.0,1770.0,227.0,86.0
733899,County,2020/08/17,35.0,NM,35039.0,Rio Arriba County,9715.0,29291.0,119701.0,20945.0,32550.0,9381.0,16241.0,17397.0,15979.0,5386.0,1510.0,222.0,90.0
737071,County,2020/08/18,35.0,NM,35039.0,Rio Arriba County,9658.0,29348.0,119772.0,30152.0,26513.0,6947.0,12827.0,20893.0,14998.0,6001.0,1247.0,88.0,106.0
738732,County,2020/08/19,35.0,NM,35039.0,Rio Arriba County,9033.0,29973.0,118819.0,26702.0,29862.0,6481.0,14010.0,20562.0,15051.0,4788.0,1180.0,70.0,113.0
743513,County,2020/08/20,35.0,NM,35039.0,Rio Arriba County,9195.0,29811.0,119486.0,24581.0,30773.0,5202.0,14607.0,20366.0,16711.0,5337.0,1631.0,210.0,68.0
745094,County,2020/08/21,35.0,NM,35039.0,Rio Arriba County,8123.0,30883.0,138103.0,30957.0,34069.0,9748.0,15759.0,23517.0,15604.0,6730.0,1480.0,176.0,63.0
749875,County,2020/08/22,35.0,NM,35039.0,Rio Arriba County,9308.0,29698.0,113965.0,22636.0,28265.0,6947.0,13834.0,22270.0,11075.0,7017.0,1667.0,156.0,98.0
753044,County,2020/08/23,35.0,NM,35039.0,Rio Arriba County,10745.0,28261.0,89785.0,19913.0,22673.0,6809.0,9536.0,14209.0,7608.0,7169.0,1630.0,173.0,65.0
754714,County,2020/08/24,35.0,NM,35039.0,Rio Arriba County,10300.0,28706.0,107801.0,22780.0,30600.0,7456.0,12504.0,15415.0,14146.0,3912.0,826.0,109.0,53.0
759475,County,2020/08/25,35.0,NM,35039.0,Rio Arriba County,9846.0,29160.0,115830.0,26900.0,30274.0,10837.0,11344.0,19721.0,12612.0,2760.0,1250.0,62.0,70.0
761058,County,2020/08/26,35.0,NM,35039.0,Rio Arriba County,9721.0,29285.0,100571.0,19905.0,26506.0,8487.0,8983.0,17910.0,13633.0,3965.0,1084.0,49.0,49.0
765831,County,2020/08/27,35.0,NM,35039.0,Rio Arriba County,10047.0,28959.0,114306.0,22212.0,30244.0,7764.0,12719.0,21002.0,13735.0,5227.0,1262.0,79.0,62.0
767471,County,2020/08/28,35.0,NM,35039.0,Rio Arriba County,9852.0,29154.0,115353.0,22580.0,33066.0,7534.0,13471.0,19609.0,12256.0,5797.0,851.0,132.0,57.0
770674,County,2020/08/29,35.0,NM,35039.0,Rio Arriba County,10559.0,28447.0,112855.0,20952.0,34568.0,7944.0,13084.0,16371.0,11710.0,6579.0,1494.0,108.0,45.0
773877,County,2020/08/30,35.0,NM,35039.0,Rio Arriba County,10479.0,28527.0,92392.0,16532.0,21886.0,7307.0,13670.0,14391.0,11918.0,4797.0,1583.0,237.0,71.0
777062,County,2020/08/31,35.0,NM,35039.0,Rio Arriba County,10371.0,28635.0,114950.0,25071.0,30708.0,8695.0,13120.0,16719.0,13053.0,6043.0,1398.0,105.0,38.0
780211,County,2020/09/01,35.0,NM,35039.0,Rio Arriba County,10118.0,28888.0,108561.0,20185.0,28981.0,9353.0,13342.0,16602.0,13334.0,5341.0,1205.0,157.0,61.0
784984,County,2020/09/02,35.0,NM,35039.0,Rio Arriba County,9217.0,29789.0,113244.0,23447.0,27662.0,9560.0,14303.0,19559.0,14484.0,3097.0,927.0,149.0,56.0
788195,County,2020/09/03,35.0,NM,35039.0,Rio Arriba County,9043.0,29963.0,119558.0,24042.0,29767.0,7316.0,15345.0,21419.0,14226.0,5829.0,1417.0,151.0,46.0
791379,County,2020/09/04,35.0,NM,35039.0,Rio Arriba County,9539.0,29467.0,108478.0,20228.0,28645.0,9344.0,12548.0,20529.0,9994.0,5277.0,1616.0,263.0,34.0
794572,County,2020/09/05,35.0,NM,35039.0,Rio Arriba County,9624.0,29382.0,102898.0,18777.0,27098.0,8796.0,10973.0,17667.0,10814.0,6956.0,1489.0,281.0,47.0
797777,County,2020/09/06,35.0,NM,35039.0,Rio Arriba County,10164.0,28842.0,95250.0,20377.0,25540.0,7432.0,11739.0,14126.0,8469.0,5296.0,1947.0,283.0,41.0
800988,County,2020/09/07,35.0,NM,35039.0,Rio Arriba County,10435.0,28571.0,92044.0,18755.0,24200.0,8458.0,11873.0,14612.0,6613.0,5463.0,1629.0,388.0,53.0
802607,County,2020/09/08,35.0,NM,35039.0,Rio Arriba County,9793.0,29213.0,116811.0,22642.0,32403.0,9880.0,14169.0,19825.0,12501.0,4169.0,1036.0,142.0,44.0
807387,County,2020/09/09,35.0,NM,35039.0,Rio Arriba County,9873.0,29133.0,110350.0,20007.0,27785.0,9108.0,13422.0,18412.0,15254.0,5351.0,861.0,107.0,43.0
810543,County,2020/09/10,35.0,NM,35039.0,Rio Arriba County,10030.0,28976.0,108771.0,18720.0,24195.0,7387.0,12853.0,21039.0,17443.0,5876.0,971.0,227.0,60.0
812172,County,2020/09/11,35.0,NM,35039.0,Rio Arriba County,9352.0,29654.0,116605.0,19994.0,30213.0,9594.0,13332.0,22685.0,13922.0,5043.0,1598.0,166.0,58.0
815357,County,2020/09/12,35.0,NM,35039.0,Rio Arriba County,10176.0,28830.0,96307.0,12906.0,22336.0,8351.0,10103.0,20408.0,14023.0,6324.0,1681.0,128.0,47.0
820154,County,2020/09/13,35.0,NM,35039.0,Rio Arriba County,10036.0,28970.0,92194.0,14604.0,26616.0,6404.0,12663.0,15894.0,7445.0,6697.0,1681.0,115.0,75.0
821783,County,2020/09/14,35.0,NM,35039.0,Rio Arriba County,10135.0,28871.0,112821.0,15524.0,30737.0,7493.0,14482.0,20891.0,16362.0,5655.0,1568.0,69.0,40.0
824939,County,2020/09/15,35.0,NM,35039.0,Rio Arriba County,10069.0,28937.0,104550.0,16563.0,28309.0,6889.0,10671.0,22468.0,12937.0,5688.0,710.0,245.0,70.0
829746,County,2020/09/16,35.0,NM,35039.0,Rio Arriba County,9878.0,29128.0,109659.0,19260.0,27510.0,8780.0,11702.0,19972.0,15327.0,5337.0,1532.0,171.0,68.0
832923,County,2020/09/17,35.0,NM,35039.0,Rio Arriba County,9922.0,29084.0,115627.0,22805.0,33192.0,7555.0,10884.0,18612.0,14417.0,6358.0,1490.0,233.0,81.0
834552,County,2020/09/18,35.0,NM,35039.0,Rio Arriba County,9524.0,29482.0,114979.0,21691.0,29164.0,9429.0,12706.0,20706.0,13809.0,5600.0,1667.0,134.0,73.0
839327,County,2020/09/19,35.0,NM,35039.0,Rio Arriba County,10120.0,28886.0,121597.0,29600.0,28572.0,10142.0,14677.0,19455.0,12688.0,4765.0,1355.0,260.0,83.0
842490,County,2020/09/20,35.0,NM,35039.0,Rio Arriba County,10530.0,28476.0,97398.0,19689.0,23395.0,8227.0,12100.0,17589.0,8477.0,5563.0,2188.0,136.0,34.0
844118,County,2020/09/21,35.0,NM,35039.0,Rio Arriba County,10591.0,28415.0,101883.0,17256.0,28242.0,9742.0,10984.0,17796.0,11844.0,4658.0,1291.0,46.0,24.0
847322,County,2020/09/22,35.0,NM,35039.0,Rio Arriba County,9954.0,29052.0,109260.0,24641.0,28101.0,6246.0,14322.0,15945.0,13417.0,5164.0,1333.0,60.0,31.0
852100,County,2020/09/23,35.0,NM,35039.0,Rio Arriba County,10017.0,28989.0,114848.0,25456.0,27545.0,8185.0,10562.0,22062.0,14792.0,4945.0,1123.0,118.0,60.0
855256,County,2020/09/24,35.0,NM,35039.0,Rio Arriba County,9654.0,29352.0,111372.0,25193.0,25646.0,9109.0,10800.0,18651.0,13889.0,6199.0,1642.0,204.0,39.0
856885,County,2020/09/25,35.0,NM,35039.0,Rio Arriba County,9042.0,29964.0,122330.0,22552.0,33704.0,9287.0,14658.0,20218.0,16676.0,3902.0,1207.0,100.0,26.0
860071,County,2020/09/26,35.0,NM,35039.0,Rio Arriba County,9725.0,29281.0,113786.0,22597.0,32025.0,8407.0,11802.0,19529.0,12100.0,5963.0,1147.0,201.0,15.0
864867,County,2020/09/27,35.0,NM,35039.0,Rio Arriba County,10641.0,28365.0,95172.0,23634.0,22490.0,6796.0,8504.0,17490.0,9949.0,4568.0,1599.0,95.0,47.0
866496,County,2020/09/28,35.0,NM,35039.0,Rio Arriba County,9691.0,29315.0,109244.0,25541.0,24704.0,8796.0,12348.0,19587.0,12972.0,4011.0,1129.0,140.0,16.0
869654,County,2020/09/29,35.0,NM,35039.0,Rio Arriba County,9884.0,29122.0,110832.0,24656.0,29634.0,7305.0,12345.0,21382.0,11132.0,3527.0,782.0,43.0,26.0
874433,County,2020/09/30,35.0,NM,35039.0,Rio Arriba County,9511.0,29495.0,127167.0,28100.0,29861.0,10039.0,12283.0,24043.0,15943.0,6274.0,511.0,102.0,11.0
876061,County,2020/10/01,35.0,NM,35039.0,Rio Arriba County,8955.0,30051.0,127786.0,27891.0,33705.0,7269.0,15930.0,22115.0,14860.0,4755.0,1170.0,68.0,23.0
879264,County,2020/10/02,35.0,NM,35039.0,Rio Arriba County,9759.0,29247.0,109933.0,21338.0,26681.0,8249.0,12501.0,19171.0,15396.0,5580.0,939.0,53.0,25.0
882480,County,2020/10/03,35.0,NM,35039.0,Rio Arriba County,10600.0,28406.0,100148.0,16914.0,27643.0,6254.0,12103.0,17502.0,13254.0,5248.0,1091.0,117.0,22.0
886487,County,2020/10/04,35.0,NM,35039.0,Rio Arriba County,10719.0,28287.0,97609.0,18910.0,23940.0,5714.0,15606.0,13809.0,13168.0,4877.0,1507.0,67.0,11.0
889732,County,2020/10/05,35.0,NM,35039.0,Rio Arriba County,10377.0,28629.0,100003.0,16800.0,28633.0,7988.0,13058.0,16125.0,10674.0,6099.0,465.0,139.0,22.0
892888,County,2020/10/06,35.0,NM,35039.0,Rio Arriba County,9764.0,29242.0,118385.0,21480.0,30003.0,9125.0,14193.0,20013.0,17321.0,5040.0,1176.0,22.0,12.0
896137,County,2020/10/07,35.0,NM,35039.0,Rio Arriba County,9248.0,29758.0,123234.0,21071.0,34378.0,10550.0,13917.0,18488.0,18250.0,5599.0,892.0,79.0,10.0
899319,County,2020/10/08,35.0,NM,35039.0,Rio Arriba County,9268.0,29738.0,111858.0,19647.0,27956.0,8089.0,12848.0,20323.0,15857.0,6161.0,854.0,114.0,9.0
902503,County,2020/10/09,35.0,NM,35039.0,Rio Arriba County,9326.0,29680.0,117817.0,19341.0,30708.0,10176.0,12838.0,19883.0,17731.0,5899.0,1135.0,96.0,10.0
905693,County,2020/10/10,35.0,NM,35039.0,Rio Arriba County,9554.0,29452.0,114954.0,20628.0,28364.0,9839.0,11625.0,23580.0,13237.0,6382.0,1195.0,93.0,11.0
908498,County,2020/10/11,35.0,NM,35039.0,Rio Arriba County,10879.0,28127.0,94541.0,21598.0,20300.0,6346.0,13987.0,15665.0,9484.0,4998.0,2048.0,99.0,16.0
911928,County,2020/10/12,35.0,NM,35039.0,Rio Arriba County,9627.0,29379.0,102615.0,17185.0,23571.0,8193.0,11532.0,18957.0,14643.0,6943.0,1533.0,43.0,15.0
914804,County,2020/10/13,35.0,NM,35039.0,Rio Arriba County,9730.0,29276.0,112844.0,20219.0,28619.0,8044.0,11209.0,20042.0,18272.0,4840.0,1505.0,84.0,10.0
918038,County,2020/10/14,35.0,NM,35039.0,Rio Arriba County,9461.0,29545.0,105729.0,18335.0,24094.0,6791.0,13467.0,22376.0,14660.0,4661.0,1249.0,83.0,13.0
921090,County,2020/10/15,35.0,NM,35039.0,Rio Arriba County,9375.0,29631.0,102656.0,14285.0,25859.0,8420.0,13993.0,20949.0,11822.0,5958.0,1256.0,100.0,14.0
924411,County,2020/10/16,35.0,NM,35039.0,Rio Arriba County,9168.0,29838.0,104007.0,16301.0,26681.0,10170.0,14100.0,15241.0,12549.0,7342.0,1464.0,135.0,24.0
926350,County,2020/10/17,35.0,NM,35039.0,Rio Arriba County,9848.0,29158.0,104326.0,15983.0,30259.0,7694.0,13093.0,19671.0,11383.0,4411.0,1670.0,144.0,18.0
931207,County,2020/10/18,35.0,NM,35039.0,Rio Arriba County,10360.0,28646.0,91081.0,15394.0,21368.0,6282.0,13580.0,16005.0,9701.0,7132.0,1480.0,128.0,11.0
934745,County,2020/10/19,35.0,NM,35039.0,Rio Arriba County,9362.0,29644.0,104246.0,16389.0,25256.0,7175.0,12761.0,20538.0,14318.0,6478.0,1157.0,163.0,11.0
937524,County,2020/10/20,35.0,NM,35039.0,Rio Arriba County,9906.0,29100.0,93398.0,15525.0,25361.0,6217.0,12070.0,14337.0,13889.0,4787.0,1064.0,127.0,21.0
940236,County,2020/10/21,35.0,NM,35039.0,Rio Arriba County,9664.0,29342.0,102995.0,20203.0,20469.0,5903.0,13394.0,20476.0,15749.0,5631.0,961.0,190.0,19.0
943394,County,2020/10/22,35.0,NM,35039.0,Rio Arriba County,9140.0,29866.0,107129.0,17430.0,25144.0,7819.0,14091.0,20008.0,14116.0,7256.0,1104.0,137.0,24.0
947198,County,2020/10/23,35.0,NM,35039.0,Rio Arriba County,9174.0,29832.0,108021.0,15067.0,29055.0,8246.0,13811.0,19811.0,15424.0,5670.0,723.0,198.0,16.0
950304,County,2020/10/24,35.0,NM,35039.0,Rio Arriba County,9889.0,29117.0,123568.0,24596.0,24236.0,10001.0,16579.0,24974.0,15910.0,6163.0,1018.0,86.0,5.0
