,Level,Date,State FIPS,State Postal Code,County FIPS,County Name,Population Staying at Home,Population Not Staying at Home,Number of Trips,Number of Trips <1,Number of Trips 1-3,Number of Trips 3-5,Number of Trips 5-10,Number of Trips 10-25,Number of Trips 25-50,Number of Trips 50-100,Number of Trips 100-250,Number of Trips 250-500,Number of Trips >=500
1922,County,2020/01/01,37.0,NC,37067.0,Forsyth County,93970.0,285129.0,1050771.0,239205.0,264892.0,143307.0,187357.0,138432.0,42888.0,17863.0,13962.0,1979.0,886.0
5103,County,2020/01/02,37.0,NC,37067.0,Forsyth County,78174.0,300925.0,1264696.0,273705.0,306085.0,168524.0,227541.0,199173.0,57939.0,17481.0,11011.0,2645.0,592.0
6991,County,2020/01/03,37.0,NC,37067.0,Forsyth County,77230.0,301869.0,1286772.0,274682.0,316569.0,177045.0,231553.0,197844.0,56309.0,18249.0,11562.0,2280.0,679.0
10811,County,2020/01/04,37.0,NC,37067.0,Forsyth County,84638.0,294461.0,1222091.0,269796.0,320019.0,166499.0,220848.0,169528.0,42283.0,18008.0,11383.0,2874.0,853.0
14698,County,2020/01/05,37.0,NC,37067.0,Forsyth County,90823.0,288276.0,1092982.0,228252.0,283424.0,155365.0,202929.0,151607.0,35910.0,18291.0,13288.0,3047.0,869.0
18527,County,2020/01/06,37.0,NC,37067.0,Forsyth County,77395.0,301704.0,1282684.0,280454.0,306482.0,172981.0,242092.0,194540.0,54889.0,18866.0,9842.0,1888.0,650.0
20119,County,2020/01/07,37.0,NC,37067.0,Forsyth County,75977.0,303122.0,1307059.0,291798.0,315101.0,178476.0,237474.0,196573.0,56661.0,17862.0,10890.0,1708.0,516.0
23398,County,2020/01/08,37.0,NC,37067.0,Forsyth County,71416.0,307683.0,1359130.0,298324.0,336667.0,180073.0,248600.0,209830.0,54874.0,18417.0,9931.0,1729.0,685.0
28097,County,2020/01/09,37.0,NC,37067.0,Forsyth County,73069.0,306030.0,1387869.0,312780.0,336427.0,186904.0,253109.0,210278.0,56374.0,19130.0,10461.0,1836.0,570.0
29691,County,2020/01/10,37.0,NC,37067.0,Forsyth County,70106.0,308993.0,1446330.0,311288.0,349848.0,197270.0,273551.0,221616.0,56907.0,20746.0,12500.0,2101.0,503.0
34499,County,2020/01/11,37.0,NC,37067.0,Forsyth County,81958.0,297141.0,1279975.0,277760.0,330220.0,180983.0,235138.0,172449.0,48984.0,19134.0,12874.0,1785.0,648.0
36088,County,2020/01/12,37.0,NC,37067.0,Forsyth County,86840.0,292259.0,1220959.0,269207.0,327266.0,171953.0,219240.0,156008.0,43924.0,18288.0,11828.0,2394.0,851.0
39331,County,2020/01/13,37.0,NC,37067.0,Forsyth County,75839.0,303260.0,1277199.0,283709.0,312150.0,176062.0,234921.0,190055.0,52419.0,15792.0,9556.0,1822.0,713.0
44064,County,2020/01/14,37.0,NC,37067.0,Forsyth County,74976.0,304123.0,1328642.0,294500.0,326944.0,181184.0,238830.0,204614.0,52944.0,17643.0,9297.0,2052.0,634.0
45694,County,2020/01/15,37.0,NC,37067.0,Forsyth County,73460.0,305639.0,1364728.0,308318.0,336817.0,186401.0,249240.0,198196.0,55666.0,17081.0,10561.0,1926.0,522.0
50426,County,2020/01/16,37.0,NC,37067.0,Forsyth County,72548.0,306551.0,1402399.0,333428.0,335274.0,185388.0,246661.0,206662.0,60868.0,19913.0,10890.0,2577.0,738.0
52054,County,2020/01/17,37.0,NC,37067.0,Forsyth County,69245.0,309854.0,1481128.0,321403.0,371182.0,201279.0,273138.0,214276.0,62154.0,21697.0,12560.0,2635.0,804.0
56835,County,2020/01/18,37.0,NC,37067.0,Forsyth County,83912.0,295187.0,1298298.0,285403.0,330848.0,180227.0,239975.0,179239.0,47829.0,19875.0,12255.0,2028.0,619.0
58434,County,2020/01/19,37.0,NC,37067.0,Forsyth County,87372.0,291727.0,1196871.0,260331.0,316140.0,164300.0,223544.0,159307.0,41314.0,16973.0,12152.0,2104.0,706.0
63196,County,2020/01/20,37.0,NC,37067.0,Forsyth County,82761.0,296338.0,1232358.0,272861.0,309244.0,163452.0,214255.0,182585.0,54188.0,20697.0,12283.0,2106.0,687.0
64823,County,2020/01/21,37.0,NC,37067.0,Forsyth County,75349.0,303750.0,1303307.0,297528.0,307999.0,175052.0,235463.0,199980.0,56034.0,18797.0,9447.0,2199.0,808.0
68025,County,2020/01/22,37.0,NC,37067.0,Forsyth County,71580.0,307519.0,1367105.0,304514.0,334212.0,184044.0,248355.0,206082.0,58561.0,18029.0,10618.0,2189.0,501.0
72816,County,2020/01/23,37.0,NC,37067.0,Forsyth County,75970.0,303129.0,1337505.0,293353.0,315974.0,176322.0,243343.0,210453.0,62884.0,20679.0,10950.0,2730.0,817.0
75972,County,2020/01/24,37.0,NC,37067.0,Forsyth County,75405.0,303694.0,1348698.0,294090.0,330943.0,178892.0,248488.0,205605.0,54769.0,19931.0,12630.0,2737.0,613.0
79207,County,2020/01/25,37.0,NC,37067.0,Forsyth County,80245.0,298854.0,1348097.0,288899.0,355431.0,194112.0,244438.0,177953.0,51485.0,20100.0,12774.0,2301.0,604.0
81772,County,2020/01/26,37.0,NC,37067.0,Forsyth County,85722.0,293377.0,1150621.0,241412.0,301246.0,163610.0,212407.0,157490.0,41607.0,17174.0,12761.0,2323.0,591.0
83929,County,2020/01/27,37.0,NC,37067.0,Forsyth County,74534.0,304565.0,1290597.0,284861.0,317809.0,180357.0,230133.0,195202.0,52044.0,17726.0,9591.0,2128.0,746.0
87244,County,2020/01/28,37.0,NC,37067.0,Forsyth County,72959.0,306140.0,1338494.0,304201.0,322560.0,183350.0,243262.0,199716.0,54424.0,19336.0,8955.0,1947.0,743.0
90399,County,2020/01/29,37.0,NC,37067.0,Forsyth County,74496.0,304603.0,1345782.0,305876.0,327490.0,180798.0,244615.0,202672.0,54792.0,17231.0,9497.0,2071.0,740.0
93703,County,2020/01/30,37.0,NC,37067.0,Forsyth County,73790.0,305309.0,1341987.0,304025.0,324340.0,182269.0,242563.0,197444.0,54424.0,19810.0,12590.0,3384.0,1138.0
96758,County,2020/01/31,37.0,NC,37067.0,Forsyth County,71759.0,307340.0,1342528.0,291392.0,332628.0,187651.0,244809.0,189639.0,54588.0,22760.0,13864.0,4117.0,1080.0
101516,County,2020/02/01,37.0,NC,37067.0,Forsyth County,78318.0,300781.0,1364404.0,306615.0,346529.0,197321.0,250439.0,171805.0,51389.0,22804.0,12166.0,4253.0,1083.0
103135,County,2020/02/02,37.0,NC,37067.0,Forsyth County,85494.0,293605.0,1214437.0,282939.0,310533.0,176080.0,214531.0,149180.0,45193.0,18592.0,12618.0,3588.0,1183.0
107970,County,2020/02/03,37.0,NC,37067.0,Forsyth County,71988.0,307111.0,1360681.0,320782.0,327663.0,183817.0,236895.0,197441.0,55387.0,21735.0,12222.0,3399.0,1340.0
109587,County,2020/02/04,37.0,NC,37067.0,Forsyth County,71180.0,307919.0,1361607.0,316174.0,330967.0,179178.0,239784.0,200116.0,56115.0,21804.0,12630.0,3536.0,1303.0
114309,County,2020/02/05,37.0,NC,37067.0,Forsyth County,71757.0,307342.0,1341619.0,314419.0,318541.0,177519.0,242873.0,193101.0,55813.0,21054.0,13575.0,3357.0,1367.0
117516,County,2020/02/06,37.0,NC,37067.0,Forsyth County,76012.0,303087.0,1209979.0,287155.0,294183.0,158482.0,211183.0,174484.0,49132.0,18530.0,12224.0,3129.0,1477.0
120770,County,2020/02/07,37.0,NC,37067.0,Forsyth County,66934.0,312165.0,1429684.0,316547.0,362414.0,192807.0,260233.0,200460.0,55684.0,23590.0,13185.0,3334.0,1430.0
123930,County,2020/02/08,37.0,NC,37067.0,Forsyth County,80180.0,298919.0,1282098.0,288765.0,324968.0,180261.0,228730.0,170167.0,50869.0,22154.0,12284.0,2586.0,1314.0
125935,County,2020/02/09,37.0,NC,37067.0,Forsyth County,93378.0,285721.0,1049304.0,223882.0,277006.0,155026.0,188672.0,135689.0,36273.0,17230.0,11920.0,2346.0,1260.0
130231,County,2020/02/10,37.0,NC,37067.0,Forsyth County,73002.0,306097.0,1225403.0,262524.0,299050.0,168724.0,226414.0,184984.0,50072.0,19283.0,10022.0,2930.0,1400.0
134090,County,2020/02/11,37.0,NC,37067.0,Forsyth County,67679.0,311420.0,1248852.0,268447.0,302830.0,175524.0,229200.0,185554.0,52023.0,19609.0,11237.0,3014.0,1414.0
135565,County,2020/02/12,37.0,NC,37067.0,Forsyth County,65987.0,313112.0,1307507.0,284816.0,311935.0,178255.0,243417.0,199012.0,52337.0,21077.0,12332.0,2779.0,1547.0
138323,County,2020/02/13,37.0,NC,37067.0,Forsyth County,65222.0,313877.0,1271853.0,269611.0,313779.0,176448.0,231159.0,193443.0,50821.0,20248.0,11988.0,2819.0,1537.0
143053,County,2020/02/14,37.0,NC,37067.0,Forsyth County,62817.0,316282.0,1415863.0,299754.0,347093.0,200498.0,264702.0,204694.0,53926.0,24245.0,15846.0,3303.0,1802.0
146259,County,2020/02/15,37.0,NC,37067.0,Forsyth County,75331.0,303768.0,1272094.0,267123.0,315028.0,177346.0,238966.0,178626.0,54066.0,23341.0,13486.0,2688.0,1424.0
149461,County,2020/02/16,37.0,NC,37067.0,Forsyth County,87037.0,292062.0,1077896.0,223595.0,281213.0,156741.0,192328.0,142618.0,40620.0,20623.0,14818.0,3698.0,1642.0
151089,County,2020/02/17,37.0,NC,37067.0,Forsyth County,88563.0,290536.0,1058860.0,220492.0,262117.0,153743.0,191472.0,156336.0,43801.0,16974.0,10316.0,2082.0,1527.0
155772,County,2020/02/18,37.0,NC,37067.0,Forsyth County,68114.0,310985.0,1216008.0,254930.0,294056.0,166685.0,227979.0,187276.0,48120.0,20022.0,12197.0,2959.0,1784.0
159015,County,2020/02/19,37.0,NC,37067.0,Forsyth County,69207.0,309892.0,1256009.0,270143.0,297822.0,174533.0,231583.0,193026.0,52225.0,21374.0,11016.0,2834.0,1453.0
162259,County,2020/02/20,37.0,NC,37067.0,Forsyth County,80644.0,298455.0,1176218.0,262328.0,294272.0,155924.0,203704.0,174414.0,47982.0,20797.0,12371.0,2927.0,1499.0
163837,County,2020/02/21,37.0,NC,37067.0,Forsyth County,73701.0,305398.0,1226930.0,259984.0,292136.0,166863.0,229066.0,183573.0,48971.0,25000.0,15837.0,3987.0,1513.0
167031,County,2020/02/22,37.0,NC,37067.0,Forsyth County,77535.0,301564.0,1286367.0,273532.0,319817.0,184721.0,237007.0,176953.0,50074.0,25671.0,13591.0,3433.0,1568.0
171797,County,2020/02/23,37.0,NC,37067.0,Forsyth County,83339.0,295760.0,1099608.0,228321.0,287292.0,155738.0,200278.0,148903.0,43097.0,19370.0,13069.0,2769.0,771.0
173423,County,2020/02/24,37.0,NC,37067.0,Forsyth County,69551.0,309548.0,1211778.0,242473.0,301546.0,172085.0,226831.0,191174.0,49700.0,16591.0,8593.0,1499.0,1286.0
177593,County,2020/02/25,37.0,NC,37067.0,Forsyth County,63346.0,315753.0,1284211.0,260152.0,322075.0,176084.0,239188.0,199353.0,55303.0,19418.0,9490.0,1682.0,1466.0
180786,County,2020/02/26,37.0,NC,37067.0,Forsyth County,74457.0,304642.0,1305028.0,293879.0,340781.0,180808.0,231416.0,181743.0,48023.0,16487.0,8815.0,1964.0,1112.0
184611,County,2020/02/27,37.0,NC,37067.0,Forsyth County,61988.0,317111.0,1257895.0,247389.0,307291.0,180152.0,240188.0,197936.0,53715.0,17437.0,9981.0,2452.0,1354.0
187810,County,2020/02/28,37.0,NC,37067.0,Forsyth County,61427.0,317672.0,1328311.0,266212.0,325135.0,195632.0,247235.0,203077.0,55642.0,19916.0,11557.0,2417.0,1488.0
190956,County,2020/02/29,37.0,NC,37067.0,Forsyth County,69044.0,310055.0,1294086.0,260933.0,323726.0,185376.0,243931.0,188403.0,54549.0,21451.0,11881.0,2529.0,1307.0
192580,County,2020/03/01,37.0,NC,37067.0,Forsyth County,83650.0,295449.0,1194121.0,246908.0,317644.0,172425.0,210641.0,162498.0,44193.0,20536.0,13914.0,3768.0,1594.0
197379,County,2020/03/02,37.0,NC,37067.0,Forsyth County,71644.0,307455.0,1397935.0,314743.0,351708.0,187004.0,247436.0,201415.0,61037.0,20071.0,10005.0,2531.0,1985.0
198959,County,2020/03/03,37.0,NC,37067.0,Forsyth County,68255.0,310844.0,1469355.0,335757.0,375012.0,199272.0,245337.0,210067.0,61409.0,25837.0,13255.0,2676.0,733.0
201288,County,2020/03/04,37.0,NC,37067.0,Forsyth County,69434.0,309665.0,1459484.0,332545.0,352245.0,193223.0,255191.0,217736.0,63632.0,25923.0,15421.0,2833.0,735.0
206945,County,2020/03/05,37.0,NC,37067.0,Forsyth County,64692.0,314407.0,1430648.0,318380.0,347702.0,186744.0,254540.0,215676.0,66369.0,23648.0,14296.0,2639.0,654.0
208476,County,2020/03/06,37.0,NC,37067.0,Forsyth County,67794.0,311305.0,1488367.0,334380.0,367434.0,200019.0,258023.0,209736.0,65170.0,28270.0,20600.0,3629.0,1106.0
211777,County,2020/03/07,37.0,NC,37067.0,Forsyth County,74180.0,304919.0,1443015.0,318729.0,372487.0,197842.0,254660.0,189900.0,57772.0,28663.0,18877.0,3116.0,969.0
214943,County,2020/03/08,37.0,NC,37067.0,Forsyth County,84157.0,294942.0,1252307.0,279098.0,331693.0,169682.0,217451.0,161080.0,47993.0,23669.0,17475.0,3243.0,923.0
218145,County,2020/03/09,37.0,NC,37067.0,Forsyth County,74062.0,305037.0,1402375.0,316594.0,342217.0,192252.0,244304.0,208547.0,58817.0,23446.0,13320.0,2094.0,784.0
222943,County,2020/03/10,37.0,NC,37067.0,Forsyth County,73969.0,305130.0,1369677.0,294901.0,337851.0,182964.0,246189.0,204211.0,61453.0,24675.0,14462.0,2347.0,624.0
224568,County,2020/03/11,37.0,NC,37067.0,Forsyth County,72221.0,306878.0,1363280.0,344736.0,335436.0,167277.0,228486.0,174041.0,54082.0,30716.0,22424.0,3994.0,2088.0
229265,County,2020/03/12,37.0,NC,37067.0,Forsyth County,75282.0,303817.0,1325716.0,337022.0,322032.0,171718.0,206870.0,178680.0,50416.0,31432.0,19868.0,6108.0,1570.0
230912,County,2020/03/13,37.0,NC,37067.0,Forsyth County,70198.0,308901.0,1370267.0,324992.0,342247.0,174335.0,226944.0,177008.0,59687.0,33552.0,24351.0,5755.0,1396.0
235588,County,2020/03/14,37.0,NC,37067.0,Forsyth County,89782.0,289317.0,1304148.0,327773.0,356465.0,172848.0,214102.0,136448.0,44822.0,27158.0,19976.0,3261.0,1295.0
237298,County,2020/03/15,37.0,NC,37067.0,Forsyth County,105003.0,274096.0,1117372.0,254455.0,311662.0,153482.0,190907.0,136906.0,33489.0,17974.0,14202.0,3515.0,780.0
242108,County,2020/03/16,37.0,NC,37067.0,Forsyth County,90366.0,288733.0,1268443.0,281152.0,312185.0,168595.0,219130.0,192864.0,53378.0,22283.0,14510.0,3522.0,824.0
245349,County,2020/03/17,37.0,NC,37067.0,Forsyth County,97803.0,281296.0,1196474.0,261043.0,291674.0,158718.0,207859.0,184784.0,52776.0,21285.0,14599.0,3027.0,709.0
246879,County,2020/03/18,37.0,NC,37067.0,Forsyth County,103782.0,275317.0,1213013.0,273465.0,295869.0,159560.0,214776.0,185284.0,48887.0,19299.0,12006.0,3011.0,856.0
250134,County,2020/03/19,37.0,NC,37067.0,Forsyth County,107864.0,271235.0,1190144.0,280981.0,285927.0,152983.0,205340.0,180261.0,47511.0,21034.0,12616.0,2602.0,889.0
253319,County,2020/03/20,37.0,NC,37067.0,Forsyth County,101005.0,278094.0,1325387.0,363047.0,327306.0,160545.0,210928.0,175395.0,47291.0,22829.0,14604.0,2500.0,942.0
258077,County,2020/03/21,37.0,NC,37067.0,Forsyth County,113420.0,265679.0,1225879.0,338661.0,318534.0,163120.0,192695.0,139363.0,39484.0,18919.0,10901.0,3450.0,752.0
259649,County,2020/03/22,37.0,NC,37067.0,Forsyth County,115567.0,263532.0,963091.0,272926.0,264082.0,117948.0,141327.0,103882.0,30761.0,17301.0,11954.0,2383.0,527.0
264428,County,2020/03/23,37.0,NC,37067.0,Forsyth County,103040.0,276059.0,1003354.0,261427.0,237509.0,122113.0,171205.0,140848.0,40956.0,17341.0,9224.0,2276.0,455.0
266054,County,2020/03/24,37.0,NC,37067.0,Forsyth County,105514.0,273585.0,1039606.0,274591.0,255628.0,123463.0,171072.0,145465.0,39029.0,16855.0,10184.0,2597.0,722.0
269287,County,2020/03/25,37.0,NC,37067.0,Forsyth County,103153.0,275946.0,1075205.0,289412.0,251421.0,127222.0,179953.0,150618.0,43600.0,18862.0,11453.0,2148.0,516.0
274028,County,2020/03/26,37.0,NC,37067.0,Forsyth County,103308.0,275791.0,1097842.0,300199.0,253571.0,134462.0,182937.0,152832.0,44642.0,15950.0,10586.0,2292.0,371.0
277195,County,2020/03/27,37.0,NC,37067.0,Forsyth County,101692.0,277407.0,1119437.0,308039.0,263178.0,142959.0,181138.0,148330.0,43858.0,16984.0,12203.0,2234.0,514.0
278822,County,2020/03/28,37.0,NC,37067.0,Forsyth County,115058.0,264041.0,1022769.0,283168.0,272819.0,135116.0,155986.0,115336.0,31331.0,15612.0,10582.0,2185.0,634.0
283582,County,2020/03/29,37.0,NC,37067.0,Forsyth County,120731.0,258368.0,912003.0,279909.0,238256.0,110823.0,135467.0,92833.0,27779.0,14148.0,9403.0,2606.0,779.0
285209,County,2020/03/30,37.0,NC,37067.0,Forsyth County,105009.0,274090.0,1046407.0,284577.0,251434.0,125115.0,171775.0,143476.0,39914.0,17308.0,10043.0,2499.0,266.0
290012,County,2020/03/31,37.0,NC,37067.0,Forsyth County,111823.0,267276.0,975084.0,260879.0,242010.0,118029.0,147395.0,137990.0,39328.0,16206.0,9982.0,2667.0,598.0
291640,County,2020/04/01,37.0,NC,37067.0,Forsyth County,108514.0,270585.0,1036316.0,283789.0,247582.0,129387.0,162156.0,145317.0,40280.0,17535.0,7904.0,2043.0,323.0
296373,County,2020/04/02,37.0,NC,37067.0,Forsyth County,108696.0,270403.0,1043564.0,293475.0,252959.0,127145.0,157807.0,141840.0,40530.0,16273.0,10566.0,2417.0,552.0
298034,County,2020/04/03,37.0,NC,37067.0,Forsyth County,104623.0,274476.0,1136690.0,307665.0,285801.0,143570.0,177901.0,150017.0,42312.0,17278.0,8755.0,2903.0,488.0
302780,County,2020/04/04,37.0,NC,37067.0,Forsyth County,113645.0,265454.0,1020188.0,282922.0,255457.0,136037.0,173017.0,116941.0,29797.0,14226.0,8438.0,2574.0,779.0
304408,County,2020/04/05,37.0,NC,37067.0,Forsyth County,116557.0,262542.0,953714.0,286440.0,245863.0,127799.0,147765.0,95814.0,26888.0,13243.0,6799.0,2500.0,603.0
307568,County,2020/04/06,37.0,NC,37067.0,Forsyth County,104219.0,274880.0,1036817.0,279540.0,247551.0,134351.0,166804.0,145674.0,39311.0,14034.0,6683.0,2197.0,672.0
312373,County,2020/04/07,37.0,NC,37067.0,Forsyth County,108565.0,270534.0,1081070.0,292303.0,269530.0,130327.0,172528.0,149236.0,41900.0,15785.0,7424.0,1755.0,282.0
315546,County,2020/04/08,37.0,NC,37067.0,Forsyth County,107085.0,272014.0,1098745.0,302084.0,264910.0,133465.0,174187.0,154949.0,43260.0,16486.0,7111.0,1736.0,557.0
317173,County,2020/04/09,37.0,NC,37067.0,Forsyth County,108306.0,270793.0,1085282.0,296070.0,267733.0,131656.0,170810.0,152144.0,40657.0,14971.0,8671.0,2054.0,516.0
320400,County,2020/04/10,37.0,NC,37067.0,Forsyth County,102660.0,276439.0,1130653.0,320209.0,285889.0,150076.0,176393.0,133239.0,38244.0,15533.0,8469.0,1946.0,655.0
323585,County,2020/04/11,37.0,NC,37067.0,Forsyth County,103061.0,276038.0,1173163.0,342410.0,305576.0,159157.0,183438.0,126206.0,35427.0,12026.0,6714.0,1752.0,457.0
326730,County,2020/04/12,37.0,NC,37067.0,Forsyth County,124604.0,254495.0,815901.0,231487.0,225107.0,104581.0,120945.0,89714.0,26194.0,9337.0,6878.0,1331.0,327.0
329995,County,2020/04/13,37.0,NC,37067.0,Forsyth County,107479.0,271620.0,1071295.0,315064.0,272204.0,128367.0,162678.0,135579.0,36803.0,12066.0,6674.0,1460.0,400.0
333168,County,2020/04/14,37.0,NC,37067.0,Forsyth County,99814.0,279285.0,1147778.0,323477.0,311930.0,135433.0,169763.0,143963.0,35123.0,17544.0,7715.0,2258.0,572.0
336344,County,2020/04/15,37.0,NC,37067.0,Forsyth County,96272.0,282827.0,1186178.0,328716.0,297051.0,157193.0,183647.0,156792.0,38244.0,13116.0,8369.0,2178.0,872.0
339498,County,2020/04/16,37.0,NC,37067.0,Forsyth County,101327.0,277772.0,1138415.0,275250.0,292500.0,154269.0,185612.0,165635.0,40914.0,13856.0,8350.0,1592.0,437.0
342798,County,2020/04/17,37.0,NC,37067.0,Forsyth County,92996.0,286103.0,1227455.0,291023.0,331878.0,171692.0,199731.0,162810.0,41956.0,16927.0,8025.0,2807.0,606.0
345904,County,2020/04/18,37.0,NC,37067.0,Forsyth County,102450.0,276649.0,1120422.0,289601.0,310356.0,154571.0,182877.0,129076.0,31059.0,14684.0,4936.0,2462.0,800.0
350656,County,2020/04/19,37.0,NC,37067.0,Forsyth County,108410.0,270689.0,916897.0,240440.0,263669.0,117816.0,153801.0,94250.0,20917.0,13161.0,9535.0,3031.0,277.0
353905,County,2020/04/20,37.0,NC,37067.0,Forsyth County,101951.0,277148.0,989649.0,279829.0,266775.0,117272.0,145933.0,121124.0,30748.0,15571.0,8932.0,2889.0,576.0
355525,County,2020/04/21,37.0,NC,37067.0,Forsyth County,99782.0,279317.0,1050368.0,235903.0,261716.0,140981.0,182584.0,156356.0,48052.0,13445.0,8392.0,2585.0,354.0
360246,County,2020/04/22,37.0,NC,37067.0,Forsyth County,97836.0,281263.0,1115703.0,263094.0,275282.0,143637.0,186089.0,169891.0,48145.0,17825.0,9346.0,2054.0,340.0
363452,County,2020/04/23,37.0,NC,37067.0,Forsyth County,101263.0,277836.0,1005280.0,227713.0,242839.0,130665.0,173685.0,157983.0,46139.0,15720.0,8205.0,1872.0,459.0
365079,County,2020/04/24,37.0,NC,37067.0,Forsyth County,94098.0,285001.0,1165844.0,277560.0,293111.0,150447.0,204404.0,167031.0,45964.0,16174.0,8506.0,2058.0,589.0
368246,County,2020/04/25,37.0,NC,37067.0,Forsyth County,104320.0,274779.0,1049816.0,251002.0,282342.0,138381.0,176440.0,140774.0,38570.0,13162.0,7627.0,1299.0,219.0
371412,County,2020/04/26,37.0,NC,37067.0,Forsyth County,109738.0,269361.0,983731.0,251203.0,266983.0,136541.0,155970.0,114429.0,36075.0,12280.0,8219.0,1700.0,331.0
376246,County,2020/04/27,37.0,NC,37067.0,Forsyth County,95642.0,283457.0,1134003.0,263240.0,288977.0,147623.0,188593.0,169238.0,50203.0,15502.0,8473.0,1850.0,304.0
377889,County,2020/04/28,37.0,NC,37067.0,Forsyth County,95279.0,283820.0,1134958.0,267590.0,282473.0,149215.0,194405.0,167594.0,48069.0,16978.0,7035.0,1324.0,275.0
382620,County,2020/04/29,37.0,NC,37067.0,Forsyth County,96671.0,282428.0,1117390.0,268786.0,274924.0,146120.0,182688.0,170813.0,47950.0,16355.0,8004.0,1577.0,173.0
384240,County,2020/04/30,37.0,NC,37067.0,Forsyth County,95513.0,283586.0,1103090.0,260706.0,284070.0,136536.0,190201.0,158461.0,47364.0,15260.0,8430.0,1813.0,249.0
389026,County,2020/05/01,37.0,NC,37067.0,Forsyth County,88723.0,290376.0,1193038.0,275638.0,309073.0,159738.0,201822.0,171326.0,47666.0,15601.0,9612.0,2198.0,364.0
390598,County,2020/05/02,37.0,NC,37067.0,Forsyth County,96385.0,282714.0,1194491.0,291152.0,332167.0,159950.0,195747.0,145146.0,43660.0,16205.0,7813.0,2111.0,540.0
395372,County,2020/05/03,37.0,NC,37067.0,Forsyth County,104099.0,275000.0,1063736.0,273430.0,299613.0,144228.0,161443.0,124840.0,35244.0,14318.0,8738.0,1574.0,308.0
397022,County,2020/05/04,37.0,NC,37067.0,Forsyth County,93595.0,285504.0,1175105.0,279583.0,303148.0,152134.0,188358.0,169686.0,51411.0,18483.0,10033.0,1831.0,438.0
401790,County,2020/05/05,37.0,NC,37067.0,Forsyth County,93527.0,285572.0,1135531.0,259771.0,285009.0,153109.0,191869.0,172818.0,47321.0,14404.0,9008.0,1717.0,505.0
404996,County,2020/05/06,37.0,NC,37067.0,Forsyth County,92349.0,286750.0,1139538.0,265557.0,273222.0,151836.0,197729.0,174030.0,50551.0,15635.0,8447.0,2236.0,295.0
408091,County,2020/05/07,37.0,NC,37067.0,Forsyth County,89381.0,289718.0,1164020.0,269550.0,293667.0,149319.0,195693.0,176341.0,47156.0,18490.0,10654.0,2437.0,713.0
411353,County,2020/05/08,37.0,NC,37067.0,Forsyth County,91122.0,287977.0,1172554.0,256286.0,294728.0,161480.0,201527.0,179784.0,50973.0,15077.0,9960.0,2322.0,417.0
412933,County,2020/05/09,37.0,NC,37067.0,Forsyth County,93584.0,285515.0,1208910.0,274679.0,326432.0,169659.0,208218.0,154037.0,45367.0,17028.0,10929.0,2193.0,368.0
417730,County,2020/05/10,37.0,NC,37067.0,Forsyth County,99911.0,279188.0,1090498.0,246453.0,292610.0,145422.0,190427.0,141583.0,42475.0,18431.0,10780.0,2026.0,291.0
419405,County,2020/05/11,37.0,NC,37067.0,Forsyth County,82695.0,296404.0,1207294.0,290050.0,297672.0,156230.0,208561.0,174939.0,50787.0,16425.0,9673.0,2238.0,719.0
424165,County,2020/05/12,37.0,NC,37067.0,Forsyth County,82499.0,296600.0,1271203.0,314823.0,304683.0,170645.0,212209.0,186307.0,50645.0,18988.0,10748.0,1797.0,358.0
425647,County,2020/05/13,37.0,NC,37067.0,Forsyth County,85997.0,293102.0,1183110.0,288649.0,280562.0,154430.0,199895.0,176430.0,50838.0,18163.0,10792.0,2879.0,472.0
428988,County,2020/05/14,37.0,NC,37067.0,Forsyth County,83130.0,295969.0,1235527.0,310729.0,299436.0,153862.0,204579.0,182739.0,50864.0,17881.0,12693.0,2463.0,281.0
433728,County,2020/05/15,37.0,NC,37067.0,Forsyth County,83200.0,295899.0,1262967.0,307212.0,311500.0,166637.0,214925.0,174406.0,52334.0,19867.0,13020.0,2628.0,438.0
435406,County,2020/05/16,37.0,NC,37067.0,Forsyth County,87720.0,291379.0,1246905.0,319699.0,308816.0,161882.0,210159.0,167548.0,47099.0,18055.0,10922.0,2123.0,602.0
438510,County,2020/05/17,37.0,NC,37067.0,Forsyth County,81036.0,298063.0,1208894.0,293916.0,317114.0,171161.0,196669.0,147710.0,43551.0,21608.0,13046.0,3575.0,544.0
443331,County,2020/05/18,37.0,NC,37067.0,Forsyth County,71089.0,308010.0,1311395.0,317797.0,328381.0,169154.0,208874.0,197747.0,57664.0,19655.0,10054.0,1649.0,420.0
444958,County,2020/05/19,37.0,NC,37067.0,Forsyth County,74811.0,304288.0,1226772.0,291059.0,300617.0,150261.0,203743.0,189912.0,57017.0,20193.0,10749.0,2723.0,498.0
448125,County,2020/05/20,37.0,NC,37067.0,Forsyth County,75236.0,303863.0,1197408.0,274367.0,300668.0,148852.0,200627.0,183386.0,55621.0,20771.0,10352.0,2365.0,399.0
452560,County,2020/05/21,37.0,NC,37067.0,Forsyth County,72847.0,306252.0,1209235.0,274685.0,281863.0,155147.0,211802.0,185253.0,58197.0,21410.0,16795.0,3407.0,676.0
454483,County,2020/05/22,37.0,NC,37067.0,Forsyth County,64056.0,315043.0,1405360.0,334397.0,340625.0,179979.0,231775.0,210082.0,62840.0,23446.0,18946.0,2697.0,573.0
457679,County,2020/05/23,37.0,NC,37067.0,Forsyth County,72039.0,307060.0,1343867.0,337757.0,343679.0,178989.0,224088.0,174938.0,45993.0,21312.0,13731.0,2800.0,580.0
460896,County,2020/05/24,37.0,NC,37067.0,Forsyth County,94053.0,285046.0,1044923.0,245972.0,270399.0,143083.0,178276.0,131990.0,38351.0,20511.0,12396.0,2872.0,1073.0
465773,County,2020/05/25,37.0,NC,37067.0,Forsyth County,90256.0,288843.0,1014333.0,235212.0,261191.0,133729.0,179633.0,133059.0,36311.0,17821.0,12832.0,3357.0,1188.0
467253,County,2020/05/26,37.0,NC,37067.0,Forsyth County,84218.0,294881.0,1185726.0,280784.0,284254.0,158053.0,202956.0,176684.0,45447.0,19995.0,12519.0,3833.0,1201.0
472072,County,2020/05/27,37.0,NC,37067.0,Forsyth County,86579.0,292520.0,1162253.0,274417.0,269489.0,147792.0,201448.0,182931.0,52627.0,18208.0,11537.0,3193.0,611.0
475221,County,2020/05/28,37.0,NC,37067.0,Forsyth County,87412.0,291687.0,1205849.0,302898.0,293057.0,155315.0,197469.0,175480.0,45979.0,20966.0,11835.0,2367.0,483.0
476850,County,2020/05/29,37.0,NC,37067.0,Forsyth County,93996.0,285103.0,1184946.0,290728.0,295463.0,152453.0,198859.0,161401.0,48158.0,21230.0,13496.0,2670.0,488.0
480037,County,2020/05/30,37.0,NC,37067.0,Forsyth County,96608.0,282491.0,1179587.0,296409.0,303388.0,154142.0,194170.0,153433.0,41756.0,21114.0,11371.0,3424.0,380.0
483166,County,2020/05/31,37.0,NC,37067.0,Forsyth County,94762.0,284337.0,1123160.0,286814.0,295607.0,149293.0,184033.0,129262.0,40696.0,20992.0,13234.0,2807.0,422.0
488105,County,2020/06/01,37.0,NC,37067.0,Forsyth County,82793.0,296306.0,1215399.0,289610.0,311482.0,153893.0,204208.0,169487.0,50127.0,21484.0,11578.0,2980.0,550.0
489673,County,2020/06/02,37.0,NC,37067.0,Forsyth County,83778.0,295321.0,1197558.0,287158.0,297155.0,148118.0,203259.0,177263.0,47268.0,20600.0,12591.0,3302.0,844.0
492841,County,2020/06/03,37.0,NC,37067.0,Forsyth County,75935.0,303164.0,1307366.0,315683.0,317383.0,166578.0,228794.0,188825.0,52505.0,21119.0,12732.0,3177.0,570.0
497616,County,2020/06/04,37.0,NC,37067.0,Forsyth County,80020.0,299079.0,1234848.0,298085.0,290168.0,159106.0,220204.0,179210.0,48387.0,22431.0,13780.0,3207.0,270.0
500780,County,2020/06/05,37.0,NC,37067.0,Forsyth County,78375.0,300724.0,1287706.0,317759.0,306953.0,165438.0,223675.0,181167.0,52328.0,21483.0,14302.0,4122.0,479.0
503981,County,2020/06/06,37.0,NC,37067.0,Forsyth County,89392.0,289707.0,1176610.0,275501.0,296342.0,158241.0,207090.0,154581.0,47184.0,21999.0,12463.0,2818.0,391.0
505595,County,2020/06/07,37.0,NC,37067.0,Forsyth County,90284.0,288815.0,1058477.0,246291.0,286832.0,145911.0,182327.0,122823.0,37226.0,18992.0,13830.0,3620.0,625.0
510391,County,2020/06/08,37.0,NC,37067.0,Forsyth County,76845.0,302254.0,1241120.0,280178.0,306965.0,166172.0,218460.0,181572.0,50645.0,22047.0,11925.0,2705.0,451.0
512020,County,2020/06/09,37.0,NC,37067.0,Forsyth County,80429.0,298670.0,1186559.0,275947.0,284698.0,157898.0,207988.0,178195.0,46239.0,20590.0,12002.0,2623.0,379.0
515177,County,2020/06/10,37.0,NC,37067.0,Forsyth County,84105.0,294994.0,1199899.0,287488.0,295583.0,150711.0,209451.0,174870.0,47222.0,18803.0,11659.0,3557.0,555.0
518381,County,2020/06/11,37.0,NC,37067.0,Forsyth County,78873.0,300226.0,1246234.0,299320.0,294667.0,168610.0,222523.0,177018.0,48511.0,19853.0,11997.0,3141.0,594.0
523181,County,2020/06/12,37.0,NC,37067.0,Forsyth County,78476.0,300623.0,1261043.0,293465.0,308783.0,169503.0,221180.0,173325.0,49368.0,24599.0,16557.0,3658.0,605.0
526368,County,2020/06/13,37.0,NC,37067.0,Forsyth County,83906.0,295193.0,1264211.0,302382.0,324707.0,163825.0,216437.0,163484.0,49825.0,24848.0,15001.0,3179.0,523.0
529523,County,2020/06/14,37.0,NC,37067.0,Forsyth County,92138.0,286961.0,1060633.0,254441.0,277699.0,140930.0,176592.0,131576.0,36012.0,21891.0,16928.0,3689.0,875.0
531152,County,2020/06/15,37.0,NC,37067.0,Forsyth County,87506.0,291593.0,1116926.0,267602.0,271453.0,138000.0,194489.0,159221.0,46819.0,21059.0,13398.0,4236.0,649.0
534341,County,2020/06/16,37.0,NC,37067.0,Forsyth County,91610.0,287489.0,1074251.0,244147.0,264139.0,139225.0,189534.0,159906.0,44903.0,19562.0,9777.0,2452.0,606.0
539101,County,2020/06/17,37.0,NC,37067.0,Forsyth County,85736.0,293363.0,1200625.0,306694.0,286681.0,151445.0,206633.0,161132.0,51040.0,20976.0,11805.0,3475.0,744.0
540731,County,2020/06/18,37.0,NC,37067.0,Forsyth County,85100.0,293999.0,1188610.0,286406.0,294120.0,152365.0,199059.0,167883.0,50749.0,19847.0,14269.0,3406.0,506.0
543923,County,2020/06/19,37.0,NC,37067.0,Forsyth County,84048.0,295051.0,1187982.0,286886.0,288355.0,146064.0,202904.0,172847.0,50327.0,22257.0,13910.0,3747.0,685.0
547128,County,2020/06/20,37.0,NC,37067.0,Forsyth County,90012.0,289087.0,1172858.0,297675.0,296673.0,144001.0,200622.0,150172.0,45057.0,19565.0,15329.0,3166.0,598.0
550332,County,2020/06/21,37.0,NC,37067.0,Forsyth County,96913.0,282186.0,1050014.0,243533.0,258097.0,143795.0,180885.0,137652.0,45350.0,22121.0,14918.0,2910.0,753.0
555112,County,2020/06/22,37.0,NC,37067.0,Forsyth County,87205.0,291894.0,1111245.0,265005.0,257245.0,140627.0,197079.0,164620.0,50477.0,20536.0,11347.0,3786.0,523.0
558267,County,2020/06/23,37.0,NC,37067.0,Forsyth County,83979.0,295120.0,1212137.0,282835.0,299196.0,159686.0,208667.0,175129.0,50340.0,20378.0,11531.0,3689.0,686.0
559898,County,2020/06/24,37.0,NC,37067.0,Forsyth County,88432.0,290667.0,1152964.0,270198.0,272186.0,150166.0,200561.0,170447.0,51366.0,20407.0,13271.0,3812.0,550.0
563088,County,2020/06/25,37.0,NC,37067.0,Forsyth County,85418.0,293681.0,1199885.0,288302.0,291579.0,148569.0,201661.0,178677.0,52590.0,20410.0,13140.0,4251.0,706.0
567932,County,2020/06/26,37.0,NC,37067.0,Forsyth County,84186.0,294913.0,1279541.0,336521.0,307303.0,158320.0,212774.0,165754.0,52307.0,25478.0,15922.0,4385.0,777.0
569463,County,2020/06/27,37.0,NC,37067.0,Forsyth County,87146.0,291953.0,1197681.0,294771.0,296960.0,154507.0,195199.0,155510.0,54114.0,26608.0,15426.0,4016.0,570.0
574265,County,2020/06/28,37.0,NC,37067.0,Forsyth County,93208.0,285891.0,997023.0,225556.0,255599.0,130008.0,169421.0,127509.0,42434.0,23680.0,16964.0,4926.0,926.0
577438,County,2020/06/29,37.0,NC,37067.0,Forsyth County,91173.0,287926.0,1141392.0,272329.0,271765.0,147447.0,194391.0,163973.0,48114.0,25498.0,13941.0,3337.0,597.0
579081,County,2020/06/30,37.0,NC,37067.0,Forsyth County,88813.0,290286.0,1122705.0,263289.0,267360.0,145980.0,193628.0,162747.0,46864.0,24574.0,13523.0,3856.0,884.0
582283,County,2020/07/01,37.0,NC,37067.0,Forsyth County,85401.0,293698.0,1177810.0,289973.0,278334.0,152479.0,202505.0,158375.0,50931.0,25144.0,15116.0,3866.0,1087.0
587020,County,2020/07/02,37.0,NC,37067.0,Forsyth County,90763.0,288336.0,1273562.0,306005.0,309483.0,157692.0,214044.0,189648.0,55819.0,21663.0,13947.0,4512.0,749.0
590217,County,2020/07/03,37.0,NC,37067.0,Forsyth County,96884.0,282215.0,1272331.0,334625.0,305572.0,157428.0,211575.0,164820.0,52012.0,25334.0,15832.0,4360.0,773.0
591867,County,2020/07/04,37.0,NC,37067.0,Forsyth County,102046.0,277053.0,1088511.0,286280.0,261424.0,134683.0,181008.0,141008.0,44498.0,21674.0,13545.0,3730.0,661.0
596612,County,2020/07/05,37.0,NC,37067.0,Forsyth County,95682.0,283417.0,1020608.0,256989.0,252656.0,128059.0,169564.0,124154.0,38154.0,24994.0,20313.0,4432.0,1293.0
597751,County,2020/07/06,37.0,NC,37067.0,Forsyth County,93074.0,286025.0,1109799.0,255158.0,276107.0,148616.0,187976.0,156057.0,45742.0,21408.0,13123.0,4456.0,1156.0
603459,County,2020/07/07,37.0,NC,37067.0,Forsyth County,93365.0,285734.0,1080801.0,245212.0,257475.0,140642.0,193253.0,160049.0,46117.0,23049.0,10813.0,3452.0,739.0
606076,County,2020/07/08,37.0,NC,37067.0,Forsyth County,90497.0,288602.0,1131862.0,272773.0,274029.0,144199.0,192299.0,161369.0,44086.0,26281.0,12010.0,4052.0,764.0
609379,County,2020/07/09,37.0,NC,37067.0,Forsyth County,89616.0,289483.0,1131040.0,267888.0,277398.0,145178.0,191903.0,157477.0,48195.0,23179.0,14712.0,4130.0,980.0
612584,County,2020/07/10,37.0,NC,37067.0,Forsyth County,87141.0,291958.0,1174206.0,272085.0,285641.0,158293.0,197469.0,168162.0,47930.0,23800.0,16131.0,3692.0,1003.0
615799,County,2020/07/11,37.0,NC,37067.0,Forsyth County,92299.0,286800.0,1152624.0,272007.0,289220.0,152214.0,192418.0,150505.0,45892.0,27185.0,18180.0,4343.0,660.0
618986,County,2020/07/12,37.0,NC,37067.0,Forsyth County,98635.0,280464.0,973397.0,218867.0,246322.0,128096.0,167331.0,122467.0,41605.0,24578.0,17926.0,5205.0,1000.0
620574,County,2020/07/13,37.0,NC,37067.0,Forsyth County,88628.0,290471.0,1091954.0,250018.0,266349.0,135108.0,195380.0,156492.0,44021.0,23759.0,14917.0,5171.0,739.0
623774,County,2020/07/14,37.0,NC,37067.0,Forsyth County,91630.0,287469.0,1118700.0,268214.0,267848.0,138831.0,192900.0,160764.0,51023.0,20330.0,12990.0,4899.0,901.0
626896,County,2020/07/15,37.0,NC,37067.0,Forsyth County,89545.0,289554.0,1135448.0,268710.0,277788.0,146933.0,187446.0,168696.0,48228.0,20482.0,12704.0,3721.0,740.0
631826,County,2020/07/16,37.0,NC,37067.0,Forsyth County,89080.0,290019.0,1107456.0,257829.0,264818.0,146206.0,188349.0,163185.0,47163.0,20938.0,13883.0,4335.0,750.0
633338,County,2020/07/17,37.0,NC,37067.0,Forsyth County,86539.0,292560.0,1142736.0,264633.0,279566.0,145404.0,204042.0,161376.0,49354.0,20060.0,14724.0,3064.0,513.0
638124,County,2020/07/18,37.0,NC,37067.0,Forsyth County,96167.0,282932.0,1117865.0,264725.0,281799.0,147992.0,191886.0,144502.0,46796.0,21607.0,14712.0,3416.0,430.0
641327,County,2020/07/19,37.0,NC,37067.0,Forsyth County,105654.0,273445.0,973710.0,231033.0,253341.0,124112.0,164162.0,121943.0,38590.0,21849.0,14264.0,3589.0,827.0
644535,County,2020/07/20,37.0,NC,37067.0,Forsyth County,99010.0,280089.0,1123300.0,275074.0,271711.0,146379.0,192223.0,162361.0,45388.0,19478.0,7880.0,2378.0,428.0
648227,County,2020/07/21,37.0,NC,37067.0,Forsyth County,96257.0,282842.0,1083265.0,251726.0,254321.0,145287.0,191223.0,155911.0,48553.0,19856.0,13745.0,2102.0,541.0
650891,County,2020/07/22,37.0,NC,37067.0,Forsyth County,92553.0,286546.0,1108164.0,251397.0,265802.0,144347.0,201706.0,157734.0,50704.0,20462.0,12014.0,3276.0,722.0
654086,County,2020/07/23,37.0,NC,37067.0,Forsyth County,98898.0,280201.0,1042638.0,228785.0,239878.0,135611.0,192833.0,160615.0,47902.0,20106.0,12498.0,3724.0,686.0
657360,County,2020/07/24,37.0,NC,37067.0,Forsyth County,89381.0,289718.0,1139407.0,249874.0,270929.0,152915.0,208085.0,167751.0,48335.0,20677.0,16849.0,3133.0,859.0
660577,County,2020/07/25,37.0,NC,37067.0,Forsyth County,98132.0,280967.0,1094108.0,269018.0,257948.0,144239.0,183367.0,151097.0,46711.0,22832.0,14692.0,3463.0,741.0
662102,County,2020/07/26,37.0,NC,37067.0,Forsyth County,102479.0,276620.0,1045924.0,233052.0,261836.0,144057.0,183932.0,128320.0,46076.0,24868.0,18844.0,4060.0,879.0
665397,County,2020/07/27,37.0,NC,37067.0,Forsyth County,99795.0,279304.0,1115663.0,254470.0,264084.0,148988.0,201801.0,156424.0,49021.0,20601.0,15088.0,4175.0,1011.0
668559,County,2020/07/28,37.0,NC,37067.0,Forsyth County,95273.0,283826.0,1142366.0,254425.0,276721.0,150934.0,201847.0,168831.0,49613.0,22310.0,13442.0,3477.0,766.0
671715,County,2020/07/29,37.0,NC,37067.0,Forsyth County,96102.0,282997.0,1126184.0,255336.0,266559.0,145429.0,199684.0,166711.0,50931.0,21439.0,15278.0,4003.0,814.0
674878,County,2020/07/30,37.0,NC,37067.0,Forsyth County,92586.0,286513.0,1160135.0,271835.0,266346.0,153621.0,206450.0,168522.0,50360.0,22916.0,13763.0,5371.0,951.0
678079,County,2020/07/31,37.0,NC,37067.0,Forsyth County,93100.0,285999.0,1162431.0,276176.0,271404.0,154118.0,198967.0,163344.0,49239.0,24973.0,18143.0,5125.0,942.0
682825,County,2020/08/01,37.0,NC,37067.0,Forsyth County,100118.0,278981.0,1110636.0,267349.0,270305.0,145412.0,194207.0,141144.0,44159.0,25116.0,17186.0,4879.0,879.0
686065,County,2020/08/02,37.0,NC,37067.0,Forsyth County,105266.0,273833.0,967050.0,232330.0,242446.0,129618.0,165477.0,112668.0,37932.0,20647.0,20031.0,5040.0,861.0
687656,County,2020/08/03,37.0,NC,37067.0,Forsyth County,96699.0,282400.0,1093454.0,268034.0,269158.0,145574.0,182711.0,145083.0,43181.0,22632.0,12031.0,4427.0,623.0
692431,County,2020/08/04,37.0,NC,37067.0,Forsyth County,91074.0,288025.0,1188722.0,296610.0,287982.0,150766.0,204869.0,166910.0,47131.0,19948.0,11074.0,2989.0,443.0
694059,County,2020/08/05,37.0,NC,37067.0,Forsyth County,91388.0,287711.0,1198581.0,288695.0,301922.0,153436.0,200048.0,168760.0,50100.0,20489.0,11597.0,3233.0,301.0
697265,County,2020/08/06,37.0,NC,37067.0,Forsyth County,89496.0,289603.0,1185133.0,292458.0,286720.0,150283.0,201598.0,166456.0,48955.0,22401.0,11874.0,3784.0,604.0
701998,County,2020/08/07,37.0,NC,37067.0,Forsyth County,89550.0,289549.0,1165402.0,257900.0,285812.0,157141.0,204454.0,170837.0,49862.0,21205.0,14272.0,3206.0,713.0
703627,County,2020/08/08,37.0,NC,37067.0,Forsyth County,94487.0,284612.0,1078466.0,238858.0,272228.0,153454.0,188121.0,140363.0,45172.0,21885.0,14438.0,3174.0,773.0
706817,County,2020/08/09,37.0,NC,37067.0,Forsyth County,98955.0,280144.0,994737.0,197377.0,250260.0,137498.0,187854.0,130594.0,43908.0,24557.0,18070.0,3906.0,713.0
711626,County,2020/08/10,37.0,NC,37067.0,Forsyth County,90698.0,288401.0,1120057.0,232126.0,273147.0,150241.0,205274.0,165022.0,54315.0,22044.0,13484.0,3832.0,572.0
713255,County,2020/08/11,37.0,NC,37067.0,Forsyth County,91944.0,287155.0,1131903.0,239836.0,262424.0,151182.0,207605.0,181456.0,53920.0,20913.0,11017.0,2939.0,611.0
716401,County,2020/08/12,37.0,NC,37067.0,Forsyth County,91078.0,288021.0,1037201.0,204554.0,237503.0,146943.0,197331.0,160157.0,47500.0,21465.0,14000.0,4520.0,3228.0
721160,County,2020/08/13,37.0,NC,37067.0,Forsyth County,87612.0,291487.0,1073995.0,216696.0,243675.0,148723.0,206183.0,164639.0,48392.0,22442.0,14095.0,5711.0,3439.0
724386,County,2020/08/14,37.0,NC,37067.0,Forsyth County,83426.0,295673.0,1143721.0,229588.0,265057.0,158904.0,214417.0,173747.0,48719.0,24834.0,18453.0,6335.0,3667.0
726018,County,2020/08/15,37.0,NC,37067.0,Forsyth County,93350.0,285749.0,1032621.0,210244.0,245368.0,152326.0,190498.0,140795.0,42854.0,23969.0,16457.0,6086.0,4024.0
729177,County,2020/08/16,37.0,NC,37067.0,Forsyth County,100430.0,278669.0,991877.0,202446.0,235701.0,147836.0,176093.0,131064.0,39759.0,25962.0,20492.0,7334.0,5190.0
733957,County,2020/08/17,37.0,NC,37067.0,Forsyth County,100117.0,278982.0,1062148.0,210465.0,247764.0,143583.0,205053.0,156281.0,48361.0,22837.0,15284.0,6516.0,6004.0
737129,County,2020/08/18,37.0,NC,37067.0,Forsyth County,94212.0,284887.0,1046575.0,207951.0,237552.0,137199.0,196574.0,166775.0,49663.0,24229.0,13900.0,6764.0,5968.0
738790,County,2020/08/19,37.0,NC,37067.0,Forsyth County,91214.0,287885.0,1096330.0,215367.0,256343.0,148889.0,203531.0,169130.0,50020.0,24973.0,16081.0,6144.0,5852.0
741953,County,2020/08/20,37.0,NC,37067.0,Forsyth County,86303.0,292796.0,1098539.0,224926.0,252987.0,147797.0,202817.0,164960.0,53203.0,22413.0,16951.0,6472.0,6013.0
746728,County,2020/08/21,37.0,NC,37067.0,Forsyth County,83399.0,295700.0,1160043.0,228008.0,266335.0,164168.0,218341.0,176529.0,53129.0,23901.0,17734.0,6057.0,5841.0
749933,County,2020/08/22,37.0,NC,37067.0,Forsyth County,90789.0,288310.0,1108108.0,221263.0,264267.0,158022.0,208188.0,148558.0,50607.0,28029.0,17245.0,6372.0,5557.0
753102,County,2020/08/23,37.0,NC,37067.0,Forsyth County,104685.0,274414.0,865359.0,166453.0,215878.0,127161.0,155420.0,115897.0,39195.0,21499.0,14745.0,5118.0,3993.0
754772,County,2020/08/24,37.0,NC,37067.0,Forsyth County,100794.0,278305.0,962224.0,193484.0,225802.0,131368.0,174615.0,151219.0,46999.0,18371.0,12481.0,3923.0,3962.0
759533,County,2020/08/25,37.0,NC,37067.0,Forsyth County,97247.0,281852.0,1007048.0,199963.0,235042.0,135722.0,189884.0,158885.0,49030.0,19693.0,11181.0,3989.0,3659.0
761116,County,2020/08/26,37.0,NC,37067.0,Forsyth County,97719.0,281380.0,1006935.0,192698.0,238096.0,142478.0,189376.0,160566.0,48289.0,17914.0,11496.0,3664.0,2358.0
765889,County,2020/08/27,37.0,NC,37067.0,Forsyth County,98848.0,280251.0,1028153.0,196854.0,241931.0,145179.0,198482.0,164010.0,48020.0,17340.0,12248.0,3209.0,880.0
767529,County,2020/08/28,37.0,NC,37067.0,Forsyth County,95527.0,283572.0,1063884.0,211033.0,252626.0,153146.0,193551.0,163071.0,50835.0,21501.0,14103.0,3238.0,780.0
772257,County,2020/08/29,37.0,NC,37067.0,Forsyth County,101231.0,277868.0,1024775.0,204911.0,262260.0,153126.0,185112.0,141375.0,41715.0,20980.0,11577.0,3026.0,693.0
773935,County,2020/08/30,37.0,NC,37067.0,Forsyth County,109300.0,269799.0,918749.0,184196.0,234651.0,125974.0,170151.0,121158.0,41872.0,19956.0,15249.0,4422.0,1120.0
778659,County,2020/08/31,37.0,NC,37067.0,Forsyth County,102268.0,276831.0,961986.0,201065.0,229764.0,129159.0,177810.0,145771.0,40835.0,21705.0,11667.0,2977.0,1233.0
780269,County,2020/09/01,37.0,NC,37067.0,Forsyth County,99108.0,279991.0,1060174.0,211295.0,260836.0,151461.0,201033.0,156167.0,45537.0,18065.0,11977.0,2769.0,1034.0
784298,County,2020/09/02,37.0,NC,37067.0,Forsyth County,99206.0,279893.0,1043332.0,207605.0,258194.0,139261.0,192439.0,158836.0,49286.0,21261.0,12253.0,3281.0,916.0
788253,County,2020/09/03,37.0,NC,37067.0,Forsyth County,91335.0,287764.0,1155641.0,248011.0,271692.0,160883.0,211131.0,175549.0,47399.0,21226.0,14607.0,3951.0,1192.0
791437,County,2020/09/04,37.0,NC,37067.0,Forsyth County,96100.0,282999.0,1104075.0,226587.0,269936.0,149702.0,203386.0,157951.0,49268.0,21670.0,19959.0,4603.0,1013.0
794630,County,2020/09/05,37.0,NC,37067.0,Forsyth County,98742.0,280357.0,1118295.0,241757.0,275658.0,155501.0,203100.0,151035.0,48130.0,22940.0,15778.0,3518.0,878.0
797835,County,2020/09/06,37.0,NC,37067.0,Forsyth County,106753.0,272346.0,955239.0,208522.0,234681.0,133122.0,170303.0,124727.0,39670.0,22658.0,17322.0,3186.0,1048.0
801046,County,2020/09/07,37.0,NC,37067.0,Forsyth County,109290.0,269809.0,924417.0,194613.0,244997.0,130528.0,154274.0,118071.0,35468.0,20639.0,19991.0,4687.0,1149.0
802665,County,2020/09/08,37.0,NC,37067.0,Forsyth County,102152.0,276947.0,1068596.0,211026.0,256936.0,145710.0,206005.0,161155.0,45640.0,24446.0,13874.0,2960.0,844.0
805833,County,2020/09/09,37.0,NC,37067.0,Forsyth County,100477.0,278622.0,1092035.0,211794.0,272176.0,143314.0,207082.0,173790.0,46386.0,19769.0,14247.0,2581.0,896.0
810601,County,2020/09/10,37.0,NC,37067.0,Forsyth County,99404.0,279695.0,1052199.0,209701.0,255625.0,141287.0,195054.0,167182.0,45800.0,21047.0,12736.0,2716.0,1051.0
812230,County,2020/09/11,37.0,NC,37067.0,Forsyth County,93149.0,285950.0,1165497.0,238564.0,279690.0,154969.0,223946.0,169233.0,52167.0,25499.0,17116.0,3540.0,773.0
815415,County,2020/09/12,37.0,NC,37067.0,Forsyth County,102711.0,276388.0,1048320.0,209097.0,270435.0,147332.0,194018.0,148095.0,39286.0,22360.0,13908.0,2840.0,949.0
820212,County,2020/09/13,37.0,NC,37067.0,Forsyth County,109881.0,269218.0,922970.0,178000.0,232564.0,131445.0,166888.0,124960.0,41638.0,29314.0,14078.0,3047.0,1036.0
823369,County,2020/09/14,37.0,NC,37067.0,Forsyth County,101853.0,277246.0,1066608.0,206697.0,259237.0,148591.0,197967.0,166149.0,48584.0,22229.0,13221.0,2648.0,1285.0
824997,County,2020/09/15,37.0,NC,37067.0,Forsyth County,101417.0,277682.0,1108340.0,218633.0,269288.0,152295.0,211670.0,168666.0,48431.0,22525.0,13670.0,2604.0,558.0
829804,County,2020/09/16,37.0,NC,37067.0,Forsyth County,99331.0,279768.0,1104626.0,208232.0,269306.0,154140.0,208626.0,172298.0,51318.0,23249.0,13469.0,2885.0,1103.0
832981,County,2020/09/17,37.0,NC,37067.0,Forsyth County,101838.0,277261.0,979896.0,167907.0,239475.0,140562.0,185776.0,157076.0,46365.0,22478.0,15881.0,3377.0,999.0
834610,County,2020/09/18,37.0,NC,37067.0,Forsyth County,96037.0,283062.0,1155400.0,225665.0,286687.0,162685.0,213495.0,173204.0,47239.0,22123.0,19133.0,4311.0,858.0
837773,County,2020/09/19,37.0,NC,37067.0,Forsyth County,102090.0,277009.0,1142541.0,226463.0,284976.0,166758.0,206577.0,160611.0,51228.0,25126.0,16851.0,3137.0,814.0
842548,County,2020/09/20,37.0,NC,37067.0,Forsyth County,103714.0,275385.0,971234.0,209670.0,248220.0,140444.0,173036.0,121440.0,34197.0,21765.0,18188.0,3497.0,777.0
844176,County,2020/09/21,37.0,NC,37067.0,Forsyth County,105379.0,273720.0,989994.0,203104.0,250333.0,131639.0,179389.0,149313.0,45496.0,16302.0,10543.0,3197.0,678.0
847380,County,2020/09/22,37.0,NC,37067.0,Forsyth County,96750.0,282349.0,1081086.0,219859.0,268996.0,153243.0,193597.0,164369.0,50148.0,16461.0,11834.0,2082.0,497.0
852158,County,2020/09/23,37.0,NC,37067.0,Forsyth County,93260.0,285839.0,1097501.0,214148.0,272727.0,148618.0,205558.0,173083.0,50846.0,18858.0,10622.0,2551.0,490.0
855314,County,2020/09/24,37.0,NC,37067.0,Forsyth County,93669.0,285430.0,1057760.0,205878.0,253118.0,145764.0,197491.0,168172.0,52611.0,20246.0,10782.0,3127.0,571.0
856943,County,2020/09/25,37.0,NC,37067.0,Forsyth County,92233.0,286866.0,1072448.0,204573.0,269082.0,153220.0,196467.0,168243.0,48128.0,17031.0,12767.0,2340.0,597.0
860129,County,2020/09/26,37.0,NC,37067.0,Forsyth County,95909.0,283190.0,1101521.0,221398.0,290471.0,148568.0,199442.0,157411.0,47495.0,23332.0,10684.0,2143.0,577.0
864925,County,2020/09/27,37.0,NC,37067.0,Forsyth County,98683.0,280416.0,986165.0,196901.0,260386.0,139166.0,171436.0,133361.0,43208.0,22285.0,15350.0,3535.0,537.0
868084,County,2020/09/28,37.0,NC,37067.0,Forsyth County,95144.0,283955.0,1067171.0,222468.0,268834.0,141184.0,195106.0,164017.0,46481.0,16535.0,10006.0,1994.0,546.0
869712,County,2020/09/29,37.0,NC,37067.0,Forsyth County,97639.0,281460.0,1037259.0,190134.0,257518.0,147248.0,190294.0,166550.0,52207.0,21551.0,9678.0,1832.0,247.0
874491,County,2020/09/30,37.0,NC,37067.0,Forsyth County,96346.0,282753.0,1073600.0,196296.0,266433.0,145445.0,203247.0,168679.0,55273.0,26806.0,9308.0,1816.0,297.0
876119,County,2020/10/01,37.0,NC,37067.0,Forsyth County,92727.0,286372.0,1095068.0,209686.0,257733.0,154496.0,208504.0,168203.0,59108.0,24603.0,9885.0,2579.0,271.0
879322,County,2020/10/02,37.0,NC,37067.0,Forsyth County,92341.0,286758.0,1095269.0,208757.0,268053.0,161234.0,203785.0,167019.0,47937.0,22508.0,13539.0,2222.0,215.0
884055,County,2020/10/03,37.0,NC,37067.0,Forsyth County,101044.0,278055.0,1073290.0,212689.0,275428.0,148660.0,194177.0,152336.0,50120.0,26436.0,11402.0,1803.0,239.0
886597,County,2020/10/04,37.0,NC,37067.0,Forsyth County,106007.0,273092.0,910148.0,173699.0,234729.0,129469.0,165429.0,125904.0,40507.0,22592.0,15076.0,2356.0,387.0
889840,County,2020/10/05,37.0,NC,37067.0,Forsyth County,108525.0,270574.0,1006247.0,187844.0,257886.0,139796.0,184688.0,152216.0,49010.0,23542.0,8885.0,2198.0,182.0
892997,County,2020/10/06,37.0,NC,37067.0,Forsyth County,99238.0,279861.0,1038107.0,184816.0,255096.0,147946.0,207472.0,159143.0,49992.0,22516.0,8716.0,2194.0,216.0
896195,County,2020/10/07,37.0,NC,37067.0,Forsyth County,97130.0,281969.0,1096766.0,201589.0,265320.0,155193.0,209573.0,175989.0,52553.0,24566.0,9995.0,1803.0,185.0
899377,County,2020/10/08,37.0,NC,37067.0,Forsyth County,97699.0,281400.0,1035477.0,191602.0,251950.0,147393.0,198816.0,158814.0,48044.0,26428.0,9887.0,2284.0,259.0
902622,County,2020/10/09,37.0,NC,37067.0,Forsyth County,96900.0,282199.0,1091757.0,203327.0,264422.0,154171.0,213881.0,165245.0,48402.0,26435.0,13200.0,2455.0,219.0
905800,County,2020/10/10,37.0,NC,37067.0,Forsyth County,106741.0,272358.0,951492.0,176962.0,240924.0,134597.0,184234.0,131140.0,45924.0,23346.0,12028.0,2133.0,204.0
908375,County,2020/10/11,37.0,NC,37067.0,Forsyth County,111411.0,267688.0,815738.0,145039.0,216828.0,126592.0,154464.0,101292.0,33668.0,22485.0,12732.0,2427.0,211.0
911570,County,2020/10/12,37.0,NC,37067.0,Forsyth County,102731.0,276368.0,988812.0,186575.0,238145.0,136608.0,189970.0,149909.0,49482.0,24391.0,11360.0,2226.0,146.0
914740,County,2020/10/13,37.0,NC,37067.0,Forsyth County,97881.0,281218.0,1033907.0,202743.0,246323.0,146494.0,198433.0,153953.0,49313.0,21650.0,12267.0,2441.0,290.0
917656,County,2020/10/14,37.0,NC,37067.0,Forsyth County,95986.0,283113.0,1043125.0,196269.0,250949.0,144512.0,197625.0,163336.0,50483.0,25296.0,11607.0,2536.0,512.0
921423,County,2020/10/15,37.0,NC,37067.0,Forsyth County,98365.0,280734.0,981297.0,179785.0,243075.0,136877.0,181051.0,151743.0,49470.0,23314.0,12606.0,2872.0,504.0
924293,County,2020/10/16,37.0,NC,37067.0,Forsyth County,92231.0,286868.0,1326601.0,409771.0,297703.0,153894.0,202246.0,168324.0,51052.0,25594.0,14329.0,3147.0,541.0
926858,County,2020/10/17,37.0,NC,37067.0,Forsyth County,100283.0,278816.0,1058822.0,203341.0,266255.0,151744.0,187159.0,156159.0,47306.0,30549.0,13523.0,2473.0,313.0
930711,County,2020/10/18,37.0,NC,37067.0,Forsyth County,105048.0,274051.0,940806.0,178663.0,242078.0,126590.0,182622.0,122609.0,41714.0,27689.0,15866.0,2652.0,323.0
933778,County,2020/10/19,37.0,NC,37067.0,Forsyth County,98288.0,280811.0,1059747.0,205535.0,272941.0,137553.0,194882.0,158711.0,51055.0,23069.0,13036.0,2460.0,505.0
937043,County,2020/10/20,37.0,NC,37067.0,Forsyth County,101002.0,278097.0,1038857.0,208562.0,253494.0,144732.0,184705.0,162244.0,47832.0,21967.0,12197.0,2641.0,483.0
939094,County,2020/10/21,37.0,NC,37067.0,Forsyth County,101335.0,277764.0,1007588.0,189396.0,253975.0,136379.0,181989.0,156329.0,49164.0,24545.0,12488.0,2761.0,562.0
943874,County,2020/10/22,37.0,NC,37067.0,Forsyth County,98307.0,280792.0,1097099.0,223860.0,269372.0,146369.0,197633.0,170612.0,49189.0,23892.0,13291.0,2355.0,526.0
946635,County,2020/10/23,37.0,NC,37067.0,Forsyth County,92421.0,286678.0,1204110.0,234289.0,300203.0,168660.0,218784.0,182246.0,54937.0,26704.0,15132.0,2591.0,564.0
950683,County,2020/10/24,37.0,NC,37067.0,Forsyth County,96164.0,282935.0,1175850.0,250962.0,303212.0,160450.0,201579.0,164207.0,53268.0,26021.0,13607.0,2130.0,414.0
