,Level,Date,State FIPS,State Postal Code,County FIPS,County Name,Population Staying at Home,Population Not Staying at Home,Number of Trips,Number of Trips <1,Number of Trips 1-3,Number of Trips 3-5,Number of Trips 5-10,Number of Trips 10-25,Number of Trips 25-50,Number of Trips 50-100,Number of Trips 100-250,Number of Trips 250-500,Number of Trips >=500
479,County,2020/01/01,13.0,GA,13187.0,Lumpkin County,6640.0,26315.0,87229.0,14748.0,17411.0,11968.0,13978.0,21521.0,4951.0,1832.0,541.0,222.0,57.0
5861,County,2020/01/02,13.0,GA,13187.0,Lumpkin County,5491.0,27464.0,100996.0,17151.0,20327.0,13927.0,16634.0,21668.0,7944.0,2525.0,451.0,298.0,71.0
8140,County,2020/01/03,13.0,GA,13187.0,Lumpkin County,5410.0,27545.0,115694.0,19348.0,24253.0,16651.0,19403.0,24851.0,8360.0,2103.0,495.0,188.0,42.0
9979,County,2020/01/04,13.0,GA,13187.0,Lumpkin County,5959.0,26996.0,109576.0,18593.0,22557.0,17078.0,17512.0,23441.0,7608.0,1993.0,478.0,203.0,113.0
13255,County,2020/01/05,13.0,GA,13187.0,Lumpkin County,6209.0,26746.0,91662.0,12788.0,20235.0,14640.0,15729.0,19580.0,6020.0,1722.0,618.0,259.0,71.0
16155,County,2020/01/06,13.0,GA,13187.0,Lumpkin County,5678.0,27277.0,121310.0,21536.0,24176.0,14934.0,20331.0,26538.0,11159.0,2092.0,416.0,107.0,21.0
19409,County,2020/01/07,13.0,GA,13187.0,Lumpkin County,5428.0,27527.0,117425.0,20466.0,25924.0,17593.0,18112.0,22890.0,9371.0,2555.0,354.0,140.0,20.0
22592,County,2020/01/08,13.0,GA,13187.0,Lumpkin County,5013.0,27942.0,120064.0,21326.0,23260.0,17853.0,19729.0,25749.0,9135.0,2388.0,342.0,231.0,51.0
27389,County,2020/01/09,13.0,GA,13187.0,Lumpkin County,5585.0,27370.0,118540.0,23205.0,24522.0,15236.0,17134.0,25184.0,10013.0,2625.0,441.0,140.0,40.0
28982,County,2020/01/10,13.0,GA,13187.0,Lumpkin County,5133.0,27822.0,128238.0,23521.0,24874.0,19033.0,21365.0,26273.0,9718.0,2729.0,511.0,151.0,63.0
32223,County,2020/01/11,13.0,GA,13187.0,Lumpkin County,5572.0,27383.0,109616.0,22552.0,25948.0,13766.0,17403.0,20416.0,6797.0,2125.0,451.0,114.0,44.0
35379,County,2020/01/12,13.0,GA,13187.0,Lumpkin County,6052.0,26903.0,105131.0,18410.0,20909.0,14417.0,17684.0,22984.0,7494.0,2227.0,737.0,170.0,99.0
40158,County,2020/01/13,13.0,GA,13187.0,Lumpkin County,5358.0,27597.0,119977.0,23615.0,25030.0,18130.0,18140.0,23933.0,8530.0,2030.0,280.0,258.0,31.0
43356,County,2020/01/14,13.0,GA,13187.0,Lumpkin County,5640.0,27315.0,114450.0,23259.0,21193.0,15144.0,19677.0,23292.0,8944.0,2421.0,359.0,116.0,45.0
44937,County,2020/01/15,13.0,GA,13187.0,Lumpkin County,5507.0,27448.0,117485.0,22216.0,23382.0,16710.0,19061.0,24738.0,8371.0,2446.0,310.0,212.0,39.0
48088,County,2020/01/16,13.0,GA,13187.0,Lumpkin County,5273.0,27682.0,124522.0,26121.0,25205.0,17683.0,19532.0,23244.0,9781.0,2318.0,512.0,57.0,69.0
51345,County,2020/01/17,13.0,GA,13187.0,Lumpkin County,5115.0,27840.0,128154.0,26632.0,26707.0,16204.0,19483.0,26073.0,9588.0,2441.0,749.0,203.0,74.0
56077,County,2020/01/18,13.0,GA,13187.0,Lumpkin County,5959.0,26996.0,104972.0,18970.0,22083.0,15222.0,17137.0,21898.0,6961.0,1979.0,458.0,167.0,97.0
57725,County,2020/01/19,13.0,GA,13187.0,Lumpkin County,6144.0,26811.0,96792.0,20382.0,19820.0,12413.0,14316.0,21459.0,6103.0,1483.0,500.0,274.0,42.0
62487,County,2020/01/20,13.0,GA,13187.0,Lumpkin County,6118.0,26837.0,106367.0,19166.0,25639.0,13156.0,15395.0,20525.0,8873.0,2892.0,527.0,145.0,49.0
64114,County,2020/01/21,13.0,GA,13187.0,Lumpkin County,5557.0,27398.0,121485.0,26507.0,25182.0,14636.0,18418.0,23815.0,9977.0,2455.0,328.0,77.0,90.0
67316,County,2020/01/22,13.0,GA,13187.0,Lumpkin County,5313.0,27642.0,117408.0,22607.0,22671.0,17879.0,19968.0,22375.0,8830.0,2585.0,297.0,137.0,59.0
70501,County,2020/01/23,13.0,GA,13187.0,Lumpkin County,5587.0,27368.0,119461.0,24494.0,26502.0,14658.0,17984.0,24014.0,8741.0,2421.0,522.0,56.0,69.0
73698,County,2020/01/24,13.0,GA,13187.0,Lumpkin County,5336.0,27619.0,119149.0,21368.0,24852.0,16253.0,20454.0,25590.0,7954.0,2072.0,465.0,110.0,31.0
76890,County,2020/01/25,13.0,GA,13187.0,Lumpkin County,6046.0,26909.0,118621.0,20049.0,24048.0,16053.0,21190.0,25810.0,8973.0,1977.0,369.0,83.0,69.0
80329,County,2020/01/26,13.0,GA,13187.0,Lumpkin County,5866.0,27089.0,102594.0,21161.0,19832.0,13014.0,17664.0,21715.0,6946.0,1772.0,347.0,93.0,50.0
84519,County,2020/01/27,13.0,GA,13187.0,Lumpkin County,5602.0,27353.0,120011.0,25645.0,24424.0,16911.0,17627.0,24925.0,7740.0,2019.0,604.0,37.0,79.0
86487,County,2020/01/28,13.0,GA,13187.0,Lumpkin County,5607.0,27348.0,120160.0,24935.0,25986.0,15507.0,19061.0,22957.0,8941.0,2073.0,515.0,125.0,60.0
89641,County,2020/01/29,13.0,GA,13187.0,Lumpkin County,5663.0,27292.0,120621.0,25971.0,25696.0,14134.0,19430.0,24054.0,8158.0,2643.0,366.0,94.0,75.0
92946,County,2020/01/30,13.0,GA,13187.0,Lumpkin County,5536.0,27419.0,127237.0,28782.0,28013.0,16094.0,20228.0,21512.0,8786.0,2715.0,695.0,223.0,189.0
96049,County,2020/01/31,13.0,GA,13187.0,Lumpkin County,5022.0,27933.0,115713.0,21103.0,25550.0,15405.0,16853.0,24846.0,8521.0,2484.0,628.0,197.0,126.0
99298,County,2020/02/01,13.0,GA,13187.0,Lumpkin County,5451.0,27504.0,116675.0,21768.0,21699.0,16163.0,20367.0,23929.0,8781.0,3175.0,476.0,141.0,176.0
102426,County,2020/02/02,13.0,GA,13187.0,Lumpkin County,5994.0,26961.0,101619.0,19389.0,21589.0,13642.0,16541.0,21249.0,6314.0,2113.0,447.0,153.0,182.0
105636,County,2020/02/03,13.0,GA,13187.0,Lumpkin County,5425.0,27530.0,118130.0,21336.0,26119.0,16319.0,18354.0,22766.0,8809.0,3471.0,678.0,64.0,214.0
110397,County,2020/02/04,13.0,GA,13187.0,Lumpkin County,5251.0,27704.0,119778.0,25591.0,25137.0,16011.0,18151.0,21856.0,9377.0,2754.0,624.0,169.0,108.0
112024,County,2020/02/05,13.0,GA,13187.0,Lumpkin County,5258.0,27697.0,117333.0,22674.0,24676.0,16737.0,18890.0,21350.0,8954.0,3173.0,594.0,105.0,180.0
116759,County,2020/02/06,13.0,GA,13187.0,Lumpkin County,5250.0,27705.0,106743.0,19324.0,25182.0,13860.0,16754.0,20070.0,8129.0,2435.0,639.0,166.0,184.0
118385,County,2020/02/07,13.0,GA,13187.0,Lumpkin County,4548.0,28407.0,115950.0,22513.0,22810.0,16898.0,18552.0,23001.0,8324.0,2766.0,694.0,245.0,147.0
121632,County,2020/02/08,13.0,GA,13187.0,Lumpkin County,7200.0,25755.0,95374.0,20991.0,24545.0,14212.0,14298.0,13012.0,5280.0,2123.0,688.0,69.0,156.0
124800,County,2020/02/09,13.0,GA,13187.0,Lumpkin County,6472.0,26483.0,80240.0,12747.0,16378.0,11399.0,13905.0,17315.0,5103.0,2310.0,688.0,221.0,174.0
128788,County,2020/02/10,13.0,GA,13187.0,Lumpkin County,5282.0,27673.0,101207.0,17469.0,20832.0,13495.0,17747.0,19770.0,8716.0,2449.0,442.0,116.0,171.0
131434,County,2020/02/11,13.0,GA,13187.0,Lumpkin County,4776.0,28179.0,101955.0,18352.0,22245.0,13940.0,17936.0,18441.0,7758.0,2052.0,814.0,227.0,190.0
134857,County,2020/02/12,13.0,GA,13187.0,Lumpkin County,4793.0,28162.0,104683.0,18753.0,21603.0,13779.0,18075.0,20900.0,8049.0,2363.0,761.0,198.0,202.0
139189,County,2020/02/13,13.0,GA,13187.0,Lumpkin County,4731.0,28224.0,105600.0,17587.0,21361.0,14254.0,18109.0,21739.0,8662.0,2683.0,781.0,207.0,217.0
142344,County,2020/02/14,13.0,GA,13187.0,Lumpkin County,4485.0,28470.0,109090.0,18302.0,19639.0,14057.0,17350.0,24950.0,10035.0,3432.0,761.0,311.0,253.0
143968,County,2020/02/15,13.0,GA,13187.0,Lumpkin County,4784.0,28171.0,95756.0,14221.0,15731.0,11978.0,18516.0,23217.0,8257.0,2577.0,682.0,329.0,248.0
147158,County,2020/02/16,13.0,GA,13187.0,Lumpkin County,5777.0,27178.0,91111.0,15228.0,16447.0,12019.0,16043.0,20500.0,7173.0,2532.0,738.0,186.0,245.0
151920,County,2020/02/17,13.0,GA,13187.0,Lumpkin County,6114.0,26841.0,87165.0,16225.0,16756.0,11896.0,14197.0,17709.0,7418.0,2007.0,535.0,226.0,196.0
153546,County,2020/02/18,13.0,GA,13187.0,Lumpkin County,5150.0,27805.0,92740.0,15337.0,17849.0,12576.0,15586.0,19237.0,8413.0,2511.0,630.0,312.0,289.0
158306,County,2020/02/19,13.0,GA,13187.0,Lumpkin County,4931.0,28024.0,96586.0,17700.0,18048.0,13769.0,16835.0,19002.0,8035.0,2091.0,677.0,221.0,208.0
161405,County,2020/02/20,13.0,GA,13187.0,Lumpkin County,5911.0,27044.0,91600.0,15490.0,17779.0,13606.0,13222.0,19903.0,8408.0,2330.0,429.0,260.0,173.0
164696,County,2020/02/21,13.0,GA,13187.0,Lumpkin County,4632.0,28323.0,100743.0,15159.0,19142.0,13777.0,17766.0,22007.0,9169.0,2438.0,776.0,276.0,233.0
167840,County,2020/02/22,13.0,GA,13187.0,Lumpkin County,5603.0,27352.0,104844.0,18256.0,19157.0,15097.0,17139.0,22334.0,8900.0,2892.0,643.0,228.0,198.0
171087,County,2020/02/23,13.0,GA,13187.0,Lumpkin County,5691.0,27264.0,86546.0,13399.0,15335.0,14244.0,14905.0,19202.0,6441.0,2047.0,584.0,265.0,124.0
172715,County,2020/02/24,13.0,GA,13187.0,Lumpkin County,5107.0,27848.0,98670.0,17041.0,17568.0,15605.0,18534.0,19530.0,8135.0,1612.0,402.0,139.0,104.0
176640,County,2020/02/25,13.0,GA,13187.0,Lumpkin County,4527.0,28428.0,110404.0,19988.0,21645.0,16742.0,20310.0,21292.0,7973.0,1914.0,294.0,83.0,163.0
179343,County,2020/02/26,13.0,GA,13187.0,Lumpkin County,5396.0,27559.0,113935.0,23070.0,22943.0,18079.0,17527.0,20537.0,9137.0,1807.0,508.0,273.0,54.0
183510,County,2020/02/27,13.0,GA,13187.0,Lumpkin County,4504.0,28451.0,106426.0,18904.0,22868.0,14446.0,18572.0,21413.0,8225.0,1572.0,254.0,115.0,57.0
185579,County,2020/02/28,13.0,GA,13187.0,Lumpkin County,4131.0,28824.0,101165.0,16461.0,20402.0,14051.0,18006.0,21346.0,8301.0,1923.0,444.0,123.0,108.0
188681,County,2020/02/29,13.0,GA,13187.0,Lumpkin County,4346.0,28609.0,99392.0,15682.0,20103.0,13655.0,18322.0,21960.0,7442.0,1591.0,431.0,85.0,121.0
191871,County,2020/03/01,13.0,GA,13187.0,Lumpkin County,5734.0,27221.0,102432.0,16975.0,19357.0,15605.0,17374.0,23369.0,6914.0,2094.0,357.0,211.0,176.0
196671,County,2020/03/02,13.0,GA,13187.0,Lumpkin County,5432.0,27523.0,116612.0,23960.0,24565.0,15242.0,16862.0,23807.0,9109.0,2275.0,471.0,150.0,171.0
199731,County,2020/03/03,13.0,GA,13187.0,Lumpkin County,4836.0,28119.0,118660.0,22813.0,24158.0,15789.0,20104.0,23542.0,8451.0,2646.0,907.0,150.0,100.0
203035,County,2020/03/04,13.0,GA,13187.0,Lumpkin County,5010.0,27945.0,123220.0,27618.0,24636.0,14579.0,19587.0,22801.0,10214.0,2697.0,850.0,159.0,79.0
206238,County,2020/03/05,13.0,GA,13187.0,Lumpkin County,4520.0,28435.0,117688.0,22205.0,24422.0,17611.0,16317.0,23875.0,9229.0,3093.0,768.0,101.0,67.0
209450,County,2020/03/06,13.0,GA,13187.0,Lumpkin County,4614.0,28341.0,131408.0,24493.0,29466.0,17199.0,18350.0,26630.0,10913.0,3242.0,817.0,223.0,75.0
212683,County,2020/03/07,13.0,GA,13187.0,Lumpkin County,5141.0,27814.0,131176.0,24158.0,27940.0,21788.0,23971.0,21930.0,7699.0,2613.0,751.0,178.0,148.0
214233,County,2020/03/08,13.0,GA,13187.0,Lumpkin County,6019.0,26936.0,100512.0,15306.0,19666.0,16665.0,17881.0,21239.0,5897.0,2645.0,862.0,211.0,140.0
217436,County,2020/03/09,13.0,GA,13187.0,Lumpkin County,5550.0,27405.0,126956.0,24398.0,25503.0,19059.0,19867.0,26249.0,8524.0,2668.0,482.0,148.0,58.0
222187,County,2020/03/10,13.0,GA,13187.0,Lumpkin County,5331.0,27624.0,115961.0,23317.0,23719.0,14050.0,17727.0,23383.0,9370.0,3395.0,619.0,292.0,89.0
223811,County,2020/03/11,13.0,GA,13187.0,Lumpkin County,4895.0,28060.0,107110.0,17947.0,24112.0,13739.0,19095.0,18900.0,8277.0,3642.0,1118.0,119.0,161.0
228556,County,2020/03/12,13.0,GA,13187.0,Lumpkin County,4947.0,28008.0,102699.0,23651.0,20605.0,9998.0,15550.0,18169.0,8558.0,4498.0,1281.0,174.0,215.0
230203,County,2020/03/13,13.0,GA,13187.0,Lumpkin County,4670.0,28285.0,115952.0,20788.0,24569.0,15535.0,18935.0,21979.0,8592.0,3779.0,1213.0,437.0,125.0
233402,County,2020/03/14,13.0,GA,13187.0,Lumpkin County,5840.0,27115.0,102186.0,20330.0,18558.0,17599.0,15754.0,18936.0,5610.0,3925.0,865.0,292.0,317.0
236590,County,2020/03/15,13.0,GA,13187.0,Lumpkin County,6923.0,26032.0,85966.0,13335.0,15840.0,16381.0,17900.0,14817.0,4399.0,2083.0,737.0,348.0,126.0
239784,County,2020/03/16,13.0,GA,13187.0,Lumpkin County,6285.0,26670.0,104668.0,18036.0,20105.0,13316.0,18433.0,22312.0,8827.0,2603.0,657.0,285.0,94.0
244590,County,2020/03/17,13.0,GA,13187.0,Lumpkin County,6794.0,26161.0,104422.0,19116.0,19289.0,14660.0,16753.0,22309.0,8709.0,2492.0,855.0,186.0,53.0
247697,County,2020/03/18,13.0,GA,13187.0,Lumpkin County,6992.0,25963.0,104138.0,20476.0,19513.0,15396.0,17432.0,19353.0,8516.0,2579.0,557.0,237.0,79.0
250953,County,2020/03/19,13.0,GA,13187.0,Lumpkin County,7067.0,25888.0,102203.0,17359.0,21183.0,15015.0,16040.0,20035.0,8757.0,2688.0,676.0,275.0,175.0
252562,County,2020/03/20,13.0,GA,13187.0,Lumpkin County,6573.0,26382.0,96685.0,16372.0,17899.0,12586.0,16780.0,20728.0,8037.0,3383.0,615.0,176.0,109.0
255754,County,2020/03/21,13.0,GA,13187.0,Lumpkin County,7643.0,25312.0,91166.0,15519.0,16987.0,16318.0,16760.0,17974.0,4778.0,2024.0,571.0,147.0,88.0
260507,County,2020/03/22,13.0,GA,13187.0,Lumpkin County,7684.0,25271.0,70713.0,12653.0,15883.0,9133.0,12784.0,13402.0,3969.0,1717.0,810.0,224.0,138.0
263719,County,2020/03/23,13.0,GA,13187.0,Lumpkin County,7100.0,25855.0,71818.0,9371.0,13313.0,12042.0,12225.0,15461.0,6255.0,1978.0,780.0,282.0,111.0
265297,County,2020/03/24,13.0,GA,13187.0,Lumpkin County,7114.0,25841.0,75248.0,12137.0,17167.0,10476.0,12110.0,14299.0,6352.0,1903.0,459.0,222.0,123.0
270097,County,2020/03/25,13.0,GA,13187.0,Lumpkin County,6998.0,25957.0,85604.0,15288.0,16974.0,12655.0,14390.0,17307.0,5958.0,2223.0,433.0,256.0,120.0
271724,County,2020/03/26,13.0,GA,13187.0,Lumpkin County,7274.0,25681.0,88961.0,15168.0,18636.0,12272.0,14437.0,19657.0,5835.0,2397.0,357.0,79.0,123.0
276486,County,2020/03/27,13.0,GA,13187.0,Lumpkin County,6985.0,25970.0,88831.0,14170.0,18625.0,11760.0,16770.0,18892.0,6448.0,1656.0,318.0,75.0,117.0
278113,County,2020/03/28,13.0,GA,13187.0,Lumpkin County,7718.0,25237.0,79525.0,12903.0,16054.0,12588.0,14973.0,16259.0,4015.0,1722.0,798.0,167.0,46.0
281307,County,2020/03/29,13.0,GA,13187.0,Lumpkin County,8140.0,24815.0,71016.0,10145.0,14210.0,12813.0,12376.0,13343.0,4890.0,2161.0,743.0,251.0,84.0
284500,County,2020/03/30,13.0,GA,13187.0,Lumpkin County,6927.0,26028.0,83727.0,17809.0,16369.0,11121.0,13738.0,14983.0,6204.0,2629.0,610.0,186.0,78.0
287696,County,2020/03/31,13.0,GA,13187.0,Lumpkin County,7304.0,25651.0,78027.0,14343.0,17069.0,11195.0,10609.0,15754.0,6361.0,1820.0,569.0,174.0,133.0
290931,County,2020/04/01,13.0,GA,13187.0,Lumpkin County,7070.0,25885.0,85874.0,15988.0,17249.0,10406.0,14608.0,16869.0,7674.0,2198.0,479.0,309.0,94.0
295664,County,2020/04/02,13.0,GA,13187.0,Lumpkin County,7053.0,25902.0,89658.0,16686.0,17637.0,11207.0,16458.0,18025.0,6082.0,2675.0,569.0,207.0,112.0
297277,County,2020/04/03,13.0,GA,13187.0,Lumpkin County,7122.0,25833.0,88155.0,14717.0,16663.0,12615.0,15226.0,18471.0,7468.0,2389.0,389.0,81.0,136.0
300470,County,2020/04/04,13.0,GA,13187.0,Lumpkin County,8062.0,24893.0,75578.0,15972.0,14603.0,12046.0,12091.0,13939.0,4220.0,2167.0,333.0,98.0,109.0
305224,County,2020/04/05,13.0,GA,13187.0,Lumpkin County,8048.0,24907.0,63643.0,10813.0,15906.0,10821.0,9580.0,9410.0,4100.0,2000.0,675.0,181.0,157.0
308424,County,2020/04/06,13.0,GA,13187.0,Lumpkin County,7257.0,25698.0,83647.0,16787.0,16990.0,11682.0,13879.0,16666.0,5489.0,1610.0,338.0,62.0,144.0
311664,County,2020/04/07,13.0,GA,13187.0,Lumpkin County,7496.0,25459.0,86623.0,16413.0,16102.0,13152.0,15009.0,17042.0,6541.0,1588.0,550.0,118.0,108.0
313247,County,2020/04/08,13.0,GA,13187.0,Lumpkin County,7833.0,25122.0,92146.0,17923.0,20585.0,13749.0,13611.0,17487.0,6098.0,1794.0,645.0,222.0,32.0
318006,County,2020/04/09,13.0,GA,13187.0,Lumpkin County,7604.0,25351.0,89512.0,17602.0,17929.0,13812.0,14562.0,17920.0,5532.0,1486.0,320.0,262.0,87.0
321201,County,2020/04/10,13.0,GA,13187.0,Lumpkin County,7068.0,25887.0,92072.0,16172.0,19132.0,14749.0,16093.0,18088.0,5296.0,1877.0,348.0,222.0,95.0
324437,County,2020/04/11,13.0,GA,13187.0,Lumpkin County,7087.0,25868.0,98898.0,19095.0,23461.0,14771.0,18160.0,16452.0,4902.0,1533.0,376.0,83.0,65.0
327560,County,2020/04/12,13.0,GA,13187.0,Lumpkin County,8525.0,24430.0,65035.0,8505.0,14929.0,13438.0,11005.0,11810.0,3451.0,1579.0,248.0,30.0,40.0
329238,County,2020/04/13,13.0,GA,13187.0,Lumpkin County,7511.0,25444.0,89216.0,15870.0,20855.0,11686.0,13873.0,17713.0,6464.0,2053.0,454.0,179.0,69.0
333959,County,2020/04/14,13.0,GA,13187.0,Lumpkin County,6697.0,26258.0,108295.0,20050.0,25535.0,14408.0,19162.0,18782.0,7145.0,2178.0,669.0,305.0,61.0
337212,County,2020/04/15,13.0,GA,13187.0,Lumpkin County,6484.0,26471.0,116776.0,22078.0,28320.0,15827.0,20794.0,19228.0,7934.0,1919.0,615.0,0.0,61.0
338788,County,2020/04/16,13.0,GA,13187.0,Lumpkin County,6916.0,26039.0,121005.0,25941.0,29407.0,16800.0,18543.0,20972.0,7379.0,1667.0,256.0,0.0,40.0
343617,County,2020/04/17,13.0,GA,13187.0,Lumpkin County,5939.0,27016.0,116045.0,20006.0,27549.0,16879.0,18559.0,22099.0,8273.0,2018.0,575.0,52.0,35.0
345195,County,2020/04/18,13.0,GA,13187.0,Lumpkin County,6778.0,26177.0,105220.0,17754.0,25717.0,17623.0,19981.0,17863.0,4617.0,939.0,576.0,113.0,37.0
348367,County,2020/04/19,13.0,GA,13187.0,Lumpkin County,7184.0,25771.0,73444.0,9052.0,15937.0,13130.0,17196.0,12788.0,3492.0,1277.0,366.0,123.0,83.0
351574,County,2020/04/20,13.0,GA,13187.0,Lumpkin County,6833.0,26122.0,69996.0,7878.0,16242.0,7622.0,15165.0,14085.0,7089.0,1402.0,287.0,170.0,56.0
354767,County,2020/04/21,13.0,GA,13187.0,Lumpkin County,7054.0,25901.0,102525.0,18601.0,23894.0,15021.0,15264.0,20014.0,7682.0,1434.0,557.0,35.0,23.0
359538,County,2020/04/22,13.0,GA,13187.0,Lumpkin County,6740.0,26215.0,96853.0,17247.0,18122.0,16432.0,16986.0,17436.0,8488.0,1603.0,394.0,67.0,78.0
362743,County,2020/04/23,13.0,GA,13187.0,Lumpkin County,6630.0,26325.0,85490.0,12358.0,18742.0,14249.0,13627.0,17531.0,6291.0,1852.0,541.0,160.0,139.0
365956,County,2020/04/24,13.0,GA,13187.0,Lumpkin County,6130.0,26825.0,101952.0,15929.0,25564.0,14621.0,14666.0,20858.0,7524.0,2187.0,395.0,187.0,21.0
369112,County,2020/04/25,13.0,GA,13187.0,Lumpkin County,6524.0,26431.0,96672.0,13655.0,23496.0,15422.0,19309.0,18113.0,4559.0,1749.0,303.0,33.0,33.0
370702,County,2020/04/26,13.0,GA,13187.0,Lumpkin County,7287.0,25668.0,85855.0,10803.0,20392.0,13830.0,16394.0,18801.0,4500.0,604.0,371.0,120.0,40.0
373932,County,2020/04/27,13.0,GA,13187.0,Lumpkin County,6632.0,26323.0,112537.0,19085.0,26231.0,17570.0,18615.0,20751.0,7727.0,1798.0,537.0,141.0,82.0
377131,County,2020/04/28,13.0,GA,13187.0,Lumpkin County,6240.0,26715.0,102725.0,16794.0,21480.0,15491.0,18273.0,21171.0,7416.0,1493.0,458.0,64.0,85.0
380335,County,2020/04/29,13.0,GA,13187.0,Lumpkin County,6517.0,26438.0,100600.0,16271.0,21273.0,15521.0,17430.0,19751.0,7692.0,2011.0,540.0,91.0,20.0
385081,County,2020/04/30,13.0,GA,13187.0,Lumpkin County,6470.0,26485.0,112064.0,20937.0,22961.0,17021.0,19163.0,22117.0,7298.0,1869.0,601.0,65.0,32.0
388316,County,2020/05/01,13.0,GA,13187.0,Lumpkin County,5985.0,26970.0,109523.0,19303.0,21280.0,16068.0,20413.0,22028.0,7082.0,2499.0,676.0,92.0,82.0
391466,County,2020/05/02,13.0,GA,13187.0,Lumpkin County,6152.0,26803.0,101175.0,12359.0,21943.0,19045.0,20771.0,19528.0,5852.0,1115.0,411.0,32.0,119.0
393102,County,2020/05/03,13.0,GA,13187.0,Lumpkin County,7039.0,25916.0,89333.0,14985.0,16912.0,14152.0,16588.0,19946.0,4810.0,1208.0,565.0,83.0,84.0
397857,County,2020/05/04,13.0,GA,13187.0,Lumpkin County,6068.0,26887.0,101609.0,17328.0,24800.0,14153.0,16886.0,19333.0,6573.0,1802.0,581.0,131.0,22.0
399484,County,2020/05/05,13.0,GA,13187.0,Lumpkin County,6327.0,26628.0,105265.0,20237.0,22994.0,16129.0,17267.0,18967.0,7113.0,2243.0,226.0,53.0,36.0
402663,County,2020/05/06,13.0,GA,13187.0,Lumpkin County,6185.0,26770.0,102957.0,18773.0,23267.0,13769.0,16726.0,20185.0,7556.0,2012.0,404.0,212.0,53.0
407381,County,2020/05/07,13.0,GA,13187.0,Lumpkin County,5807.0,27148.0,111944.0,20145.0,25186.0,16131.0,19486.0,21546.0,6827.0,1863.0,583.0,106.0,71.0
410693,County,2020/05/08,13.0,GA,13187.0,Lumpkin County,6056.0,26899.0,100852.0,14030.0,20816.0,14629.0,17313.0,23722.0,8155.0,1504.0,450.0,168.0,65.0
413793,County,2020/05/09,13.0,GA,13187.0,Lumpkin County,5988.0,26967.0,108258.0,17584.0,22360.0,17251.0,20396.0,23243.0,5632.0,1334.0,174.0,235.0,49.0
415454,County,2020/05/10,13.0,GA,13187.0,Lumpkin County,6301.0,26654.0,89526.0,12421.0,20067.0,15954.0,15745.0,17883.0,5191.0,1447.0,555.0,197.0,66.0
418648,County,2020/05/11,13.0,GA,13187.0,Lumpkin County,4951.0,28004.0,117873.0,19359.0,25699.0,17814.0,21457.0,21438.0,9196.0,2280.0,473.0,112.0,45.0
423505,County,2020/05/12,13.0,GA,13187.0,Lumpkin County,5056.0,27899.0,123658.0,22729.0,26817.0,18658.0,18870.0,25036.0,8838.0,2181.0,363.0,158.0,8.0
426553,County,2020/05/13,13.0,GA,13187.0,Lumpkin County,5305.0,27650.0,114160.0,22975.0,24566.0,14035.0,18423.0,21593.0,9336.0,2661.0,399.0,157.0,15.0
428231,County,2020/05/14,13.0,GA,13187.0,Lumpkin County,4861.0,28094.0,115348.0,22280.0,23606.0,14835.0,19709.0,22845.0,8640.0,2443.0,705.0,214.0,71.0
431425,County,2020/05/15,13.0,GA,13187.0,Lumpkin County,5279.0,27676.0,105795.0,17358.0,25770.0,12397.0,17428.0,21939.0,7904.0,2203.0,588.0,162.0,46.0
436224,County,2020/05/16,13.0,GA,13187.0,Lumpkin County,5509.0,27446.0,119040.0,20751.0,27716.0,18087.0,21429.0,21432.0,7599.0,1434.0,512.0,48.0,32.0
439332,County,2020/05/17,13.0,GA,13187.0,Lumpkin County,5331.0,27624.0,104373.0,14862.0,26090.0,16933.0,19307.0,18880.0,6547.0,1165.0,374.0,161.0,54.0
442622,County,2020/05/18,13.0,GA,13187.0,Lumpkin County,4163.0,28792.0,114906.0,21074.0,21040.0,17194.0,21241.0,24042.0,8152.0,1657.0,339.0,167.0,0.0
444201,County,2020/05/19,13.0,GA,13187.0,Lumpkin County,4876.0,28079.0,108841.0,20506.0,23902.0,15786.0,16869.0,21883.0,7496.0,2110.0,216.0,73.0,0.0
448962,County,2020/05/20,13.0,GA,13187.0,Lumpkin County,4656.0,28299.0,108389.0,18673.0,21310.0,15557.0,16943.0,23687.0,8853.0,2725.0,434.0,183.0,24.0
450588,County,2020/05/21,13.0,GA,13187.0,Lumpkin County,4142.0,28813.0,125385.0,23186.0,23275.0,19116.0,23173.0,24085.0,9493.0,2448.0,347.0,205.0,57.0
455346,County,2020/05/22,13.0,GA,13187.0,Lumpkin County,4262.0,28693.0,119902.0,21989.0,21288.0,18392.0,20123.0,26238.0,8730.0,2112.0,594.0,383.0,53.0
458558,County,2020/05/23,13.0,GA,13187.0,Lumpkin County,4768.0,28187.0,108657.0,15925.0,24123.0,15140.0,21860.0,20970.0,7562.0,2380.0,457.0,180.0,60.0
461714,County,2020/05/24,13.0,GA,13187.0,Lumpkin County,5710.0,27245.0,103882.0,16981.0,24960.0,13361.0,18124.0,21857.0,6151.0,1808.0,398.0,118.0,124.0
465016,County,2020/05/25,13.0,GA,13187.0,Lumpkin County,6085.0,26870.0,95039.0,16279.0,22132.0,13992.0,15699.0,18177.0,5448.0,1899.0,615.0,651.0,147.0
466495,County,2020/05/26,13.0,GA,13187.0,Lumpkin County,6189.0,26766.0,92640.0,17955.0,16774.0,12684.0,15823.0,18655.0,6982.0,2160.0,1050.0,414.0,143.0
471364,County,2020/05/27,13.0,GA,13187.0,Lumpkin County,6212.0,26743.0,103663.0,19205.0,20704.0,14591.0,16213.0,21503.0,8276.0,1974.0,828.0,290.0,79.0
472948,County,2020/05/28,13.0,GA,13187.0,Lumpkin County,5513.0,27442.0,116028.0,18560.0,26893.0,16014.0,19961.0,22967.0,8717.0,2144.0,509.0,228.0,35.0
477702,County,2020/05/29,13.0,GA,13187.0,Lumpkin County,6232.0,26723.0,105850.0,17369.0,24286.0,16199.0,16547.0,20465.0,7773.0,2272.0,748.0,167.0,24.0
480902,County,2020/05/30,13.0,GA,13187.0,Lumpkin County,6107.0,26848.0,103808.0,15450.0,22354.0,14267.0,18528.0,21020.0,8150.0,2406.0,1356.0,258.0,19.0
484046,County,2020/05/31,13.0,GA,13187.0,Lumpkin County,6390.0,26565.0,93661.0,18365.0,22454.0,13726.0,13337.0,18802.0,4569.0,1516.0,704.0,178.0,10.0
485723,County,2020/06/01,13.0,GA,13187.0,Lumpkin County,5163.0,27792.0,105197.0,19434.0,21542.0,13166.0,17572.0,21644.0,9260.0,1735.0,560.0,256.0,28.0
490455,County,2020/06/02,13.0,GA,13187.0,Lumpkin County,6082.0,26873.0,107349.0,19984.0,23757.0,15167.0,16215.0,20874.0,7959.0,2624.0,523.0,167.0,79.0
493677,County,2020/06/03,13.0,GA,13187.0,Lumpkin County,5016.0,27939.0,122848.0,22001.0,25258.0,16891.0,22371.0,24752.0,7724.0,2934.0,658.0,143.0,116.0
495295,County,2020/06/04,13.0,GA,13187.0,Lumpkin County,5372.0,27583.0,111416.0,22151.0,20944.0,16604.0,17798.0,23057.0,7767.0,2264.0,658.0,108.0,65.0
500071,County,2020/06/05,13.0,GA,13187.0,Lumpkin County,4868.0,28087.0,114256.0,22741.0,22074.0,13638.0,21074.0,22780.0,8528.0,2486.0,631.0,249.0,55.0
503273,County,2020/06/06,13.0,GA,13187.0,Lumpkin County,5787.0,27168.0,107092.0,19331.0,23263.0,15076.0,17707.0,20750.0,8222.0,1683.0,791.0,234.0,35.0
504887,County,2020/06/07,13.0,GA,13187.0,Lumpkin County,6181.0,26774.0,93490.0,15574.0,20090.0,13188.0,16985.0,19949.0,4967.0,1687.0,753.0,223.0,74.0
508060,County,2020/06/08,13.0,GA,13187.0,Lumpkin County,5127.0,27828.0,120993.0,21005.0,26582.0,16362.0,20286.0,24627.0,9050.0,2310.0,612.0,124.0,35.0
512838,County,2020/06/09,13.0,GA,13187.0,Lumpkin County,5457.0,27498.0,105436.0,17054.0,20896.0,15551.0,18727.0,20354.0,9771.0,2343.0,469.0,166.0,105.0
514469,County,2020/06/10,13.0,GA,13187.0,Lumpkin County,5614.0,27341.0,96921.0,13510.0,19619.0,13890.0,15789.0,21476.0,9148.0,2573.0,549.0,197.0,170.0
519201,County,2020/06/11,13.0,GA,13187.0,Lumpkin County,5036.0,27919.0,116660.0,20724.0,24227.0,16077.0,19284.0,23564.0,9299.0,2551.0,532.0,270.0,132.0
520875,County,2020/06/12,13.0,GA,13187.0,Lumpkin County,4945.0,28010.0,117711.0,20486.0,23238.0,18306.0,18579.0,25198.0,8704.0,2465.0,499.0,197.0,39.0
525611,County,2020/06/13,13.0,GA,13187.0,Lumpkin County,5265.0,27690.0,120586.0,21250.0,26146.0,17271.0,22361.0,22758.0,7994.0,1963.0,621.0,200.0,22.0
528814,County,2020/06/14,13.0,GA,13187.0,Lumpkin County,5557.0,27398.0,99498.0,14936.0,25816.0,14722.0,16068.0,18490.0,6794.0,1981.0,411.0,221.0,59.0
530443,County,2020/06/15,13.0,GA,13187.0,Lumpkin County,5521.0,27434.0,99098.0,18785.0,18464.0,12929.0,16702.0,21167.0,8015.0,2137.0,467.0,319.0,113.0
533633,County,2020/06/16,13.0,GA,13187.0,Lumpkin County,5324.0,27631.0,118934.0,20206.0,26832.0,17070.0,21884.0,22398.0,8331.0,1724.0,340.0,112.0,37.0
536827,County,2020/06/17,13.0,GA,13187.0,Lumpkin County,5298.0,27657.0,128676.0,24279.0,29270.0,21704.0,17378.0,24636.0,8978.0,1751.0,449.0,162.0,69.0
541588,County,2020/06/18,13.0,GA,13187.0,Lumpkin County,4976.0,27979.0,111875.0,18307.0,21777.0,13850.0,20573.0,25254.0,8619.0,2628.0,556.0,191.0,120.0
543214,County,2020/06/19,13.0,GA,13187.0,Lumpkin County,5259.0,27696.0,105646.0,16559.0,20370.0,17420.0,17716.0,22327.0,8130.0,2173.0,470.0,422.0,59.0
547975,County,2020/06/20,13.0,GA,13187.0,Lumpkin County,5799.0,27156.0,104421.0,17072.0,21683.0,15683.0,18163.0,20509.0,7691.0,2363.0,779.0,410.0,68.0
551162,County,2020/06/21,13.0,GA,13187.0,Lumpkin County,6196.0,26759.0,94220.0,14265.0,19145.0,13456.0,17242.0,21221.0,6623.0,1374.0,562.0,181.0,151.0
554404,County,2020/06/22,13.0,GA,13187.0,Lumpkin County,5101.0,27854.0,103205.0,17778.0,18879.0,14621.0,16894.0,22710.0,8901.0,2598.0,591.0,169.0,64.0
557557,County,2020/06/23,13.0,GA,13187.0,Lumpkin County,4988.0,27967.0,112682.0,19653.0,22128.0,15197.0,20727.0,23767.0,8354.0,2261.0,410.0,116.0,69.0
559190,County,2020/06/24,13.0,GA,13187.0,Lumpkin County,5251.0,27704.0,106790.0,21627.0,19999.0,15885.0,17769.0,19759.0,8947.0,2189.0,441.0,119.0,55.0
562379,County,2020/06/25,13.0,GA,13187.0,Lumpkin County,5098.0,27857.0,117176.0,23831.0,24263.0,16433.0,19100.0,20839.0,8346.0,3761.0,438.0,94.0,71.0
565634,County,2020/06/26,13.0,GA,13187.0,Lumpkin County,5228.0,27727.0,111018.0,20776.0,21120.0,14054.0,17633.0,24853.0,9123.0,2469.0,687.0,239.0,64.0
570324,County,2020/06/27,13.0,GA,13187.0,Lumpkin County,5299.0,27656.0,117621.0,21904.0,26046.0,15262.0,20785.0,23381.0,7536.0,1866.0,573.0,176.0,92.0
571963,County,2020/06/28,13.0,GA,13187.0,Lumpkin County,5690.0,27265.0,98980.0,18576.0,18599.0,16076.0,16353.0,20585.0,5624.0,2189.0,702.0,213.0,63.0
576689,County,2020/06/29,13.0,GA,13187.0,Lumpkin County,5532.0,27423.0,111113.0,20654.0,27986.0,13741.0,18897.0,18095.0,7760.0,2853.0,836.0,165.0,126.0
579937,County,2020/06/30,13.0,GA,13187.0,Lumpkin County,5528.0,27427.0,95160.0,17896.0,19367.0,11455.0,15258.0,18862.0,8343.0,2673.0,870.0,280.0,156.0
583130,County,2020/07/01,13.0,GA,13187.0,Lumpkin County,5297.0,27658.0,97810.0,15949.0,20303.0,12529.0,16530.0,20594.0,8035.0,2389.0,977.0,245.0,259.0
586319,County,2020/07/02,13.0,GA,13187.0,Lumpkin County,5520.0,27435.0,124371.0,25294.0,25753.0,17442.0,20273.0,22119.0,8858.0,3992.0,465.0,100.0,75.0
589523,County,2020/07/03,13.0,GA,13187.0,Lumpkin County,5887.0,27068.0,110394.0,20659.0,21001.0,13975.0,17534.0,24713.0,9072.0,2455.0,683.0,238.0,64.0
592707,County,2020/07/04,13.0,GA,13187.0,Lumpkin County,6767.0,26188.0,94442.0,17674.0,17967.0,11956.0,15000.0,21143.0,7761.0,2100.0,584.0,203.0,54.0
594356,County,2020/07/05,13.0,GA,13187.0,Lumpkin County,6212.0,26743.0,87821.0,15998.0,20959.0,11914.0,13231.0,17163.0,5298.0,1655.0,1088.0,343.0,172.0
599031,County,2020/07/06,13.0,GA,13187.0,Lumpkin County,5639.0,27316.0,91701.0,17191.0,18884.0,12283.0,13633.0,16893.0,8945.0,2683.0,951.0,130.0,108.0
600706,County,2020/07/07,13.0,GA,13187.0,Lumpkin County,5449.0,27506.0,98410.0,17937.0,21714.0,11338.0,14536.0,20876.0,7535.0,3439.0,619.0,280.0,136.0
603898,County,2020/07/08,13.0,GA,13187.0,Lumpkin County,5291.0,27664.0,98401.0,16150.0,20815.0,13565.0,14754.0,19471.0,8948.0,3212.0,1204.0,144.0,138.0
608670,County,2020/07/09,13.0,GA,13187.0,Lumpkin County,5255.0,27700.0,99773.0,18226.0,21118.0,13407.0,15803.0,19127.0,7932.0,2920.0,914.0,229.0,97.0
611876,County,2020/07/10,13.0,GA,13187.0,Lumpkin County,5541.0,27414.0,101306.0,16893.0,20186.0,13838.0,18435.0,19992.0,7313.0,3241.0,1113.0,151.0,144.0
615092,County,2020/07/11,13.0,GA,13187.0,Lumpkin County,6048.0,26907.0,99346.0,15659.0,21687.0,14453.0,17539.0,19080.0,7398.0,1965.0,1072.0,317.0,176.0
616676,County,2020/07/12,13.0,GA,13187.0,Lumpkin County,5865.0,27090.0,79628.0,10699.0,15468.0,12296.0,15435.0,15773.0,5211.0,2776.0,1314.0,486.0,170.0
621435,County,2020/07/13,13.0,GA,13187.0,Lumpkin County,5440.0,27515.0,102707.0,18004.0,22187.0,13881.0,15784.0,19802.0,8077.0,3770.0,952.0,154.0,96.0
624629,County,2020/07/14,13.0,GA,13187.0,Lumpkin County,5804.0,27151.0,106096.0,20388.0,20348.0,15719.0,18429.0,19330.0,9015.0,2050.0,439.0,260.0,118.0
626188,County,2020/07/15,13.0,GA,13187.0,Lumpkin County,5259.0,27696.0,104079.0,18793.0,18184.0,15125.0,18972.0,20492.0,8734.0,2984.0,492.0,210.0,93.0
629429,County,2020/07/16,13.0,GA,13187.0,Lumpkin County,5726.0,27229.0,110878.0,18409.0,25553.0,15449.0,18271.0,21309.0,8375.0,2761.0,551.0,175.0,25.0
634163,County,2020/07/17,13.0,GA,13187.0,Lumpkin County,5803.0,27152.0,106260.0,16377.0,23559.0,15144.0,18009.0,20691.0,9025.0,2590.0,552.0,287.0,26.0
635840,County,2020/07/18,13.0,GA,13187.0,Lumpkin County,6411.0,26544.0,95533.0,16593.0,20463.0,11863.0,17741.0,18763.0,7203.0,1827.0,828.0,189.0,63.0
638995,County,2020/07/19,13.0,GA,13187.0,Lumpkin County,6796.0,26159.0,79148.0,14408.0,16274.0,13236.0,12291.0,15621.0,3727.0,2070.0,922.0,471.0,128.0
642230,County,2020/07/20,13.0,GA,13187.0,Lumpkin County,6780.0,26175.0,95115.0,15868.0,20181.0,13385.0,16773.0,18156.0,7282.0,2406.0,750.0,269.0,45.0
647470,County,2020/07/21,13.0,GA,13187.0,Lumpkin County,5710.0,27245.0,98316.0,17621.0,19602.0,11699.0,17009.0,19590.0,9363.0,2491.0,704.0,183.0,54.0
649659,County,2020/07/22,13.0,GA,13187.0,Lumpkin County,5403.0,27552.0,100516.0,16359.0,20275.0,13328.0,17747.0,20235.0,8113.0,3215.0,940.0,255.0,49.0
653378,County,2020/07/23,13.0,GA,13187.0,Lumpkin County,5846.0,27109.0,91960.0,16482.0,16250.0,13517.0,15313.0,18465.0,8020.0,2708.0,1018.0,80.0,107.0
654897,County,2020/07/24,13.0,GA,13187.0,Lumpkin County,5471.0,27484.0,99929.0,17169.0,19151.0,14386.0,16644.0,20147.0,8624.0,2541.0,904.0,295.0,68.0
658194,County,2020/07/25,13.0,GA,13187.0,Lumpkin County,5936.0,27019.0,93999.0,14914.0,20677.0,13066.0,15256.0,19971.0,6735.0,2429.0,791.0,87.0,73.0
661392,County,2020/07/26,13.0,GA,13187.0,Lumpkin County,6398.0,26557.0,92282.0,14896.0,18033.0,14324.0,15355.0,19624.0,5894.0,2917.0,976.0,106.0,157.0
666220,County,2020/07/27,13.0,GA,13187.0,Lumpkin County,6008.0,26947.0,94208.0,12110.0,19982.0,15246.0,15631.0,19076.0,7466.0,3204.0,1139.0,245.0,109.0
669424,County,2020/07/28,13.0,GA,13187.0,Lumpkin County,5640.0,27315.0,94038.0,13664.0,17813.0,14231.0,16095.0,18465.0,8541.0,3779.0,1191.0,148.0,111.0
672636,County,2020/07/29,13.0,GA,13187.0,Lumpkin County,6002.0,26953.0,99675.0,14775.0,21646.0,14018.0,17032.0,19459.0,8171.0,3171.0,1095.0,185.0,123.0
675719,County,2020/07/30,13.0,GA,13187.0,Lumpkin County,5680.0,27275.0,103139.0,15253.0,18807.0,18289.0,17330.0,20322.0,8862.0,2779.0,1158.0,130.0,209.0
678947,County,2020/07/31,13.0,GA,13187.0,Lumpkin County,6214.0,26741.0,90845.0,12924.0,16737.0,15140.0,14028.0,18853.0,8516.0,2943.0,1222.0,335.0,147.0
682068,County,2020/08/01,13.0,GA,13187.0,Lumpkin County,6502.0,26453.0,89345.0,14514.0,19596.0,14068.0,14428.0,16748.0,5366.0,3142.0,1245.0,119.0,119.0
683750,County,2020/08/02,13.0,GA,13187.0,Lumpkin County,6528.0,26427.0,75614.0,11372.0,16656.0,10352.0,11161.0,15786.0,5627.0,3341.0,998.0,219.0,102.0
686945,County,2020/08/03,13.0,GA,13187.0,Lumpkin County,5773.0,27182.0,96395.0,14911.0,20668.0,14868.0,15498.0,18055.0,8469.0,2508.0,1100.0,282.0,36.0
691721,County,2020/08/04,13.0,GA,13187.0,Lumpkin County,5392.0,27563.0,109626.0,17342.0,22283.0,16887.0,19061.0,22621.0,8657.0,2140.0,460.0,121.0,54.0
694898,County,2020/08/05,13.0,GA,13187.0,Lumpkin County,5483.0,27472.0,110514.0,17700.0,22300.0,15951.0,19304.0,23075.0,9219.0,2237.0,501.0,198.0,29.0
698093,County,2020/08/06,13.0,GA,13187.0,Lumpkin County,5327.0,27628.0,114692.0,19643.0,23690.0,17570.0,20330.0,22465.0,8023.0,2069.0,841.0,21.0,40.0
699720,County,2020/08/07,13.0,GA,13187.0,Lumpkin County,5533.0,27422.0,103420.0,17706.0,20943.0,15892.0,19053.0,18498.0,8452.0,2062.0,578.0,129.0,107.0
702917,County,2020/08/08,13.0,GA,13187.0,Lumpkin County,6040.0,26915.0,100065.0,19986.0,19703.0,14127.0,18363.0,19139.0,5622.0,2228.0,631.0,174.0,92.0
706108,County,2020/08/09,13.0,GA,13187.0,Lumpkin County,6415.0,26540.0,94952.0,14763.0,21538.0,14058.0,17314.0,18913.0,5373.0,2044.0,734.0,168.0,47.0
710918,County,2020/08/10,13.0,GA,13187.0,Lumpkin County,5841.0,27114.0,102911.0,14839.0,23260.0,15558.0,20367.0,17398.0,8939.0,1829.0,581.0,74.0,66.0
712497,County,2020/08/11,13.0,GA,13187.0,Lumpkin County,5978.0,26977.0,115574.0,20776.0,24730.0,14224.0,22828.0,23067.0,7585.0,1692.0,529.0,101.0,42.0
715691,County,2020/08/12,13.0,GA,13187.0,Lumpkin County,5729.0,27226.0,94404.0,17568.0,18965.0,11511.0,16180.0,18275.0,8091.0,2512.0,771.0,361.0,170.0
718885,County,2020/08/13,13.0,GA,13187.0,Lumpkin County,5248.0,27707.0,98354.0,14037.0,18937.0,13232.0,19352.0,20523.0,8255.0,2699.0,956.0,150.0,213.0
722078,County,2020/08/14,13.0,GA,13187.0,Lumpkin County,5076.0,27879.0,100841.0,16896.0,19483.0,13985.0,18358.0,20374.0,7491.0,2521.0,1057.0,435.0,241.0
725308,County,2020/08/15,13.0,GA,13187.0,Lumpkin County,5603.0,27352.0,94758.0,17238.0,16918.0,11500.0,16103.0,22142.0,6457.0,2713.0,1200.0,275.0,212.0
728467,County,2020/08/16,13.0,GA,13187.0,Lumpkin County,6387.0,26568.0,96051.0,15542.0,21833.0,12828.0,17049.0,18186.0,5632.0,3354.0,1012.0,353.0,262.0
731661,County,2020/08/17,13.0,GA,13187.0,Lumpkin County,6149.0,26806.0,98752.0,15478.0,19373.0,12183.0,19190.0,19803.0,8372.0,3013.0,749.0,253.0,338.0
736421,County,2020/08/18,13.0,GA,13187.0,Lumpkin County,6296.0,26659.0,88014.0,13309.0,17560.0,10944.0,14371.0,18390.0,8566.0,3004.0,1113.0,227.0,530.0
739615,County,2020/08/19,13.0,GA,13187.0,Lumpkin County,5774.0,27181.0,94954.0,15922.0,19865.0,13664.0,14082.0,18781.0,7940.0,2823.0,1351.0,206.0,320.0
741242,County,2020/08/20,13.0,GA,13187.0,Lumpkin County,5552.0,27403.0,100115.0,15935.0,21025.0,12945.0,17265.0,19729.0,8005.0,3526.0,1048.0,315.0,322.0
744442,County,2020/08/21,13.0,GA,13187.0,Lumpkin County,5328.0,27627.0,107328.0,18914.0,24018.0,12476.0,17865.0,20382.0,9138.0,2701.0,1187.0,351.0,296.0
747648,County,2020/08/22,13.0,GA,13187.0,Lumpkin County,5708.0,27247.0,97069.0,14307.0,16338.0,14660.0,16894.0,22668.0,7354.0,3133.0,1150.0,312.0,253.0
752393,County,2020/08/23,13.0,GA,13187.0,Lumpkin County,6577.0,26378.0,82762.0,12913.0,16153.0,11385.0,14108.0,18513.0,6166.0,2256.0,956.0,117.0,195.0
755584,County,2020/08/24,13.0,GA,13187.0,Lumpkin County,6508.0,26447.0,96383.0,19057.0,20397.0,11159.0,15825.0,18951.0,7809.0,2125.0,739.0,148.0,173.0
757213,County,2020/08/25,13.0,GA,13187.0,Lumpkin County,6105.0,26850.0,91980.0,14407.0,17387.0,13498.0,16031.0,20238.0,7503.0,2021.0,513.0,118.0,264.0
761935,County,2020/08/26,13.0,GA,13187.0,Lumpkin County,6108.0,26847.0,93813.0,16137.0,18017.0,12917.0,16783.0,18956.0,8112.0,1975.0,515.0,165.0,236.0
763564,County,2020/08/27,13.0,GA,13187.0,Lumpkin County,5919.0,27036.0,95065.0,16070.0,22083.0,11745.0,16601.0,18278.0,7234.0,2139.0,636.0,115.0,164.0
768347,County,2020/08/28,13.0,GA,13187.0,Lumpkin County,5729.0,27226.0,99718.0,16551.0,19400.0,14366.0,17666.0,19928.0,7983.0,2792.0,767.0,114.0,151.0
771547,County,2020/08/29,13.0,GA,13187.0,Lumpkin County,6256.0,26699.0,94387.0,15052.0,19594.0,12935.0,17515.0,19455.0,6255.0,2569.0,704.0,127.0,181.0
773182,County,2020/08/30,13.0,GA,13187.0,Lumpkin County,6898.0,26057.0,80758.0,12580.0,16338.0,10600.0,15551.0,17190.0,4711.0,2721.0,601.0,222.0,244.0
776374,County,2020/08/31,13.0,GA,13187.0,Lumpkin County,6278.0,26677.0,94125.0,16592.0,19437.0,13108.0,15528.0,17910.0,8080.0,2291.0,637.0,271.0,271.0
781155,County,2020/09/01,13.0,GA,13187.0,Lumpkin County,6166.0,26789.0,99452.0,14904.0,22283.0,14448.0,17068.0,18659.0,8454.0,2591.0,772.0,168.0,105.0
782761,County,2020/09/02,13.0,GA,13187.0,Lumpkin County,5954.0,27001.0,104573.0,15988.0,23674.0,16275.0,17124.0,19987.0,7983.0,2590.0,683.0,131.0,138.0
787500,County,2020/09/03,13.0,GA,13187.0,Lumpkin County,5595.0,27360.0,105318.0,16938.0,20690.0,16521.0,18055.0,21101.0,8123.0,2858.0,629.0,224.0,179.0
789164,County,2020/09/04,13.0,GA,13187.0,Lumpkin County,6400.0,26555.0,91236.0,16027.0,17018.0,13138.0,13758.0,18148.0,8546.0,3308.0,824.0,340.0,129.0
793832,County,2020/09/05,13.0,GA,13187.0,Lumpkin County,6093.0,26862.0,101454.0,16460.0,20857.0,16084.0,15555.0,21172.0,7429.0,2880.0,773.0,122.0,122.0
795535,County,2020/09/06,13.0,GA,13187.0,Lumpkin County,7171.0,25784.0,78236.0,12456.0,18337.0,10402.0,13644.0,14006.0,5948.0,2326.0,726.0,258.0,133.0
798744,County,2020/09/07,13.0,GA,13187.0,Lumpkin County,7339.0,25616.0,76704.0,11132.0,16829.0,10945.0,12649.0,15450.0,5352.0,2915.0,811.0,480.0,141.0
803495,County,2020/09/08,13.0,GA,13187.0,Lumpkin County,6494.0,26461.0,110388.0,18953.0,22765.0,16327.0,18597.0,20651.0,9636.0,2243.0,941.0,165.0,110.0
805122,County,2020/09/09,13.0,GA,13187.0,Lumpkin County,6016.0,26939.0,110260.0,17475.0,23981.0,17201.0,17271.0,21241.0,9221.0,2633.0,910.0,167.0,160.0
809891,County,2020/09/10,13.0,GA,13187.0,Lumpkin County,6403.0,26552.0,101255.0,15841.0,21731.0,15233.0,15572.0,20697.0,8604.0,2638.0,701.0,119.0,119.0
811520,County,2020/09/11,13.0,GA,13187.0,Lumpkin County,5489.0,27466.0,116066.0,19819.0,22736.0,16105.0,20762.0,24133.0,8517.0,2883.0,805.0,139.0,167.0
816272,County,2020/09/12,13.0,GA,13187.0,Lumpkin County,6309.0,26646.0,98082.0,13630.0,21428.0,16135.0,16941.0,19766.0,6306.0,2810.0,708.0,193.0,165.0
817878,County,2020/09/13,13.0,GA,13187.0,Lumpkin County,7180.0,25775.0,72956.0,7281.0,14675.0,10463.0,11541.0,18598.0,6155.0,3361.0,647.0,88.0,147.0
822659,County,2020/09/14,13.0,GA,13187.0,Lumpkin County,6251.0,26704.0,107810.0,17018.0,23796.0,14941.0,17887.0,22473.0,8040.0,2931.0,320.0,259.0,145.0
824287,County,2020/09/15,13.0,GA,13187.0,Lumpkin County,6049.0,26906.0,107952.0,16958.0,23384.0,14264.0,19347.0,22525.0,7805.0,2882.0,426.0,205.0,156.0
827480,County,2020/09/16,13.0,GA,13187.0,Lumpkin County,6049.0,26906.0,107319.0,15651.0,21836.0,15021.0,18853.0,23451.0,9156.0,2378.0,635.0,169.0,169.0
830674,County,2020/09/17,13.0,GA,13187.0,Lumpkin County,6049.0,26906.0,102976.0,15217.0,24030.0,14445.0,18413.0,20001.0,7563.0,2528.0,464.0,189.0,126.0
835435,County,2020/09/18,13.0,GA,13187.0,Lumpkin County,5684.0,27271.0,116728.0,17770.0,24977.0,16082.0,20640.0,24534.0,9236.0,2622.0,558.0,170.0,139.0
837062,County,2020/09/19,13.0,GA,13187.0,Lumpkin County,6148.0,26807.0,107307.0,17356.0,21795.0,15350.0,20107.0,20703.0,7954.0,2559.0,986.0,324.0,173.0
841838,County,2020/09/20,13.0,GA,13187.0,Lumpkin County,6265.0,26690.0,90326.0,13899.0,20453.0,12301.0,16490.0,17549.0,6708.0,2178.0,470.0,235.0,43.0
845043,County,2020/09/21,13.0,GA,13187.0,Lumpkin County,7621.0,25334.0,89913.0,15964.0,16634.0,12455.0,15105.0,18942.0,8189.0,2101.0,341.0,144.0,38.0
848211,County,2020/09/22,13.0,GA,13187.0,Lumpkin County,6060.0,26895.0,111045.0,17697.0,23867.0,16583.0,17507.0,24871.0,8761.0,1470.0,176.0,104.0,9.0
849838,County,2020/09/23,13.0,GA,13187.0,Lumpkin County,5464.0,27491.0,112123.0,17458.0,26178.0,13463.0,18902.0,25086.0,8612.0,2039.0,228.0,135.0,22.0
854604,County,2020/09/24,13.0,GA,13187.0,Lumpkin County,6044.0,26911.0,112039.0,18178.0,23520.0,16125.0,16017.0,26049.0,8972.0,2592.0,432.0,139.0,15.0
856233,County,2020/09/25,13.0,GA,13187.0,Lumpkin County,5635.0,27320.0,107509.0,16692.0,23900.0,14449.0,17688.0,23616.0,7992.0,2518.0,396.0,258.0,0.0
859420,County,2020/09/26,13.0,GA,13187.0,Lumpkin County,6499.0,26456.0,108463.0,17697.0,24087.0,14036.0,18249.0,24707.0,7639.0,1642.0,305.0,83.0,18.0
864167,County,2020/09/27,13.0,GA,13187.0,Lumpkin County,5850.0,27105.0,86725.0,11799.0,20571.0,10958.0,16103.0,17939.0,6309.0,2182.0,651.0,198.0,15.0
867375,County,2020/09/28,13.0,GA,13187.0,Lumpkin County,5573.0,27382.0,104225.0,17171.0,24721.0,14271.0,16167.0,21161.0,8707.0,1371.0,466.0,169.0,21.0
869002,County,2020/09/29,13.0,GA,13187.0,Lumpkin County,5862.0,27093.0,97095.0,15380.0,22071.0,11190.0,15005.0,21140.0,8994.0,2743.0,379.0,148.0,45.0
873781,County,2020/09/30,13.0,GA,13187.0,Lumpkin County,6006.0,26949.0,95120.0,13909.0,18524.0,10949.0,16237.0,21176.0,10677.0,3161.0,318.0,136.0,33.0
876936,County,2020/10/01,13.0,GA,13187.0,Lumpkin County,5754.0,27201.0,101830.0,16554.0,22086.0,12654.0,17712.0,20437.0,8699.0,3140.0,436.0,74.0,38.0
880151,County,2020/10/02,13.0,GA,13187.0,Lumpkin County,5510.0,27445.0,102760.0,15852.0,18996.0,16038.0,17882.0,21372.0,8710.0,3000.0,655.0,221.0,34.0
881779,County,2020/10/03,13.0,GA,13187.0,Lumpkin County,5740.0,27215.0,94729.0,14982.0,18321.0,14449.0,16818.0,19905.0,7043.0,2376.0,691.0,126.0,18.0
884934,County,2020/10/04,13.0,GA,13187.0,Lumpkin County,6475.0,26480.0,80083.0,12508.0,15630.0,9396.0,14353.0,18479.0,6228.0,2773.0,464.0,225.0,27.0
888364,County,2020/10/05,13.0,GA,13187.0,Lumpkin County,7063.0,25892.0,93397.0,12749.0,19414.0,12809.0,15702.0,19715.0,9365.0,3062.0,432.0,129.0,20.0
891577,County,2020/10/06,13.0,GA,13187.0,Lumpkin County,6256.0,26699.0,96673.0,13885.0,17917.0,11818.0,18794.0,20750.0,9863.0,3098.0,419.0,91.0,38.0
894764,County,2020/10/07,13.0,GA,13187.0,Lumpkin County,5984.0,26971.0,102828.0,14906.0,21340.0,13619.0,18120.0,21157.0,9609.0,3413.0,574.0,55.0,35.0
897965,County,2020/10/08,13.0,GA,13187.0,Lumpkin County,6084.0,26871.0,97766.0,13898.0,20954.0,12436.0,18599.0,20171.0,7741.0,3328.0,444.0,164.0,31.0
901143,County,2020/10/09,13.0,GA,13187.0,Lumpkin County,6070.0,26885.0,92902.0,13625.0,16300.0,11301.0,16863.0,21318.0,9535.0,3274.0,526.0,135.0,25.0
904372,County,2020/10/10,13.0,GA,13187.0,Lumpkin County,7285.0,25670.0,80119.0,8999.0,16175.0,10618.0,17782.0,15959.0,6623.0,3118.0,534.0,283.0,28.0
910025,County,2020/10/11,13.0,GA,13187.0,Lumpkin County,6826.0,26129.0,72730.0,9948.0,13747.0,10536.0,12954.0,14757.0,6697.0,3350.0,535.0,182.0,24.0
910580,County,2020/10/12,13.0,GA,13187.0,Lumpkin County,6299.0,26656.0,96687.0,16450.0,20386.0,12312.0,18704.0,16766.0,8232.0,3019.0,454.0,337.0,27.0
916178,County,2020/10/13,13.0,GA,13187.0,Lumpkin County,6154.0,26801.0,102741.0,17011.0,23647.0,14675.0,16482.0,19063.0,8496.0,2764.0,468.0,108.0,27.0
919332,County,2020/10/14,13.0,GA,13187.0,Lumpkin County,5935.0,27020.0,103569.0,17270.0,22477.0,12414.0,18382.0,20989.0,8411.0,3117.0,382.0,101.0,26.0
922598,County,2020/10/15,13.0,GA,13187.0,Lumpkin County,6176.0,26779.0,87891.0,11502.0,18433.0,11522.0,16749.0,17903.0,7789.0,3185.0,581.0,151.0,76.0
925673,County,2020/10/16,13.0,GA,13187.0,Lumpkin County,5791.0,27164.0,107820.0,16714.0,23814.0,16032.0,18567.0,19977.0,9037.0,2828.0,561.0,251.0,39.0
929321,County,2020/10/17,13.0,GA,13187.0,Lumpkin County,6157.0,26798.0,96674.0,14561.0,19923.0,15955.0,17490.0,17800.0,7328.0,2912.0,511.0,163.0,31.0
932574,County,2020/10/18,13.0,GA,13187.0,Lumpkin County,6227.0,26728.0,88348.0,13558.0,18084.0,13070.0,15612.0,18140.0,6283.0,2777.0,559.0,224.0,41.0
935268,County,2020/10/19,13.0,GA,13187.0,Lumpkin County,5926.0,27029.0,100414.0,17334.0,17722.0,12843.0,19290.0,20664.0,9084.0,2677.0,573.0,192.0,35.0
938857,County,2020/10/20,13.0,GA,13187.0,Lumpkin County,5978.0,26977.0,110450.0,20133.0,21838.0,14700.0,19107.0,22137.0,8893.0,2987.0,428.0,202.0,25.0
942062,County,2020/10/21,13.0,GA,13187.0,Lumpkin County,6488.0,26467.0,100322.0,15189.0,22055.0,12251.0,18685.0,18866.0,9168.0,3284.0,535.0,251.0,38.0
945355,County,2020/10/22,13.0,GA,13187.0,Lumpkin County,5799.0,27156.0,104879.0,15032.0,19769.0,13795.0,20196.0,23998.0,8558.0,3016.0,419.0,63.0,33.0
948476,County,2020/10/23,13.0,GA,13187.0,Lumpkin County,4990.0,27965.0,116764.0,19976.0,21234.0,18378.0,20726.0,24001.0,8569.0,3125.0,582.0,146.0,27.0
951732,County,2020/10/24,13.0,GA,13187.0,Lumpkin County,5732.0,27223.0,113328.0,18639.0,21537.0,15543.0,24018.0,21355.0,9107.0,2542.0,413.0,155.0,19.0
