,Level,Date,State FIPS,State Postal Code,County FIPS,County Name,Population Staying at Home,Population Not Staying at Home,Number of Trips,Number of Trips <1,Number of Trips 1-3,Number of Trips 3-5,Number of Trips 5-10,Number of Trips 10-25,Number of Trips 25-50,Number of Trips 50-100,Number of Trips 100-250,Number of Trips 250-500,Number of Trips >=500
1910,County,2020/01/01,37.0,NC,37043.0,Clay County,2319.0,8820.0,26486.0,4938.0,4877.0,4128.0,4110.0,5845.0,1026.0,1120.0,336.0,106.0,0.0
5115,County,2020/01/02,37.0,NC,37043.0,Clay County,1961.0,9178.0,32892.0,5741.0,6575.0,5336.0,5616.0,6343.0,1347.0,981.0,707.0,231.0,15.0
7003,County,2020/01/03,37.0,NC,37043.0,Clay County,1775.0,9364.0,33881.0,5928.0,7504.0,5668.0,5204.0,6398.0,1179.0,1287.0,506.0,177.0,30.0
10823,County,2020/01/04,37.0,NC,37043.0,Clay County,1955.0,9184.0,35534.0,6711.0,6623.0,5776.0,5274.0,7755.0,1441.0,1150.0,698.0,91.0,15.0
14686,County,2020/01/05,37.0,NC,37043.0,Clay County,2185.0,8954.0,27673.0,3850.0,5054.0,4907.0,4783.0,6245.0,1231.0,605.0,710.0,254.0,34.0
18515,County,2020/01/06,37.0,NC,37043.0,Clay County,1927.0,9212.0,34233.0,6047.0,7046.0,5282.0,5289.0,8278.0,889.0,425.0,641.0,321.0,15.0
20107,County,2020/01/07,37.0,NC,37043.0,Clay County,1949.0,9190.0,35669.0,6696.0,6646.0,4381.0,6322.0,9174.0,1217.0,462.0,611.0,131.0,29.0
23386,County,2020/01/08,37.0,NC,37043.0,Clay County,2001.0,9138.0,36172.0,7035.0,6281.0,4617.0,6222.0,8789.0,1314.0,1017.0,747.0,135.0,15.0
28085,County,2020/01/09,37.0,NC,37043.0,Clay County,1738.0,9401.0,33534.0,6933.0,7332.0,4576.0,5348.0,6873.0,1132.0,1068.0,216.0,42.0,14.0
31292,County,2020/01/10,37.0,NC,37043.0,Clay County,1823.0,9316.0,36810.0,6376.0,7208.0,6782.0,5591.0,8145.0,1173.0,873.0,559.0,88.0,15.0
34487,County,2020/01/11,37.0,NC,37043.0,Clay County,2089.0,9050.0,30683.0,5108.0,6985.0,4075.0,5568.0,6023.0,1355.0,911.0,601.0,43.0,14.0
36076,County,2020/01/12,37.0,NC,37043.0,Clay County,1833.0,9306.0,31384.0,5052.0,6243.0,4116.0,5697.0,7469.0,1143.0,923.0,522.0,164.0,55.0
39319,County,2020/01/13,37.0,NC,37043.0,Clay County,1982.0,9157.0,32444.0,5547.0,6921.0,4638.0,5000.0,7361.0,1062.0,1159.0,668.0,88.0,0.0
44052,County,2020/01/14,37.0,NC,37043.0,Clay County,1853.0,9286.0,34164.0,6331.0,7564.0,5809.0,5299.0,6617.0,909.0,883.0,530.0,208.0,14.0
45682,County,2020/01/15,37.0,NC,37043.0,Clay County,1852.0,9287.0,36607.0,7300.0,6260.0,6536.0,5647.0,8026.0,1357.0,741.0,407.0,320.0,13.0
48786,County,2020/01/16,37.0,NC,37043.0,Clay County,1860.0,9279.0,38539.0,7290.0,7422.0,5852.0,6211.0,8339.0,1388.0,1245.0,520.0,245.0,27.0
52042,County,2020/01/17,37.0,NC,37043.0,Clay County,1923.0,9216.0,37358.0,6419.0,7262.0,4965.0,5591.0,9901.0,1696.0,954.0,485.0,42.0,43.0
56823,County,2020/01/18,37.0,NC,37043.0,Clay County,2068.0,9071.0,30597.0,4208.0,5940.0,5656.0,5424.0,6975.0,820.0,895.0,538.0,127.0,14.0
58422,County,2020/01/19,37.0,NC,37043.0,Clay County,2247.0,8892.0,31585.0,5458.0,7211.0,4800.0,4730.0,6999.0,870.0,950.0,487.0,48.0,32.0
63184,County,2020/01/20,37.0,NC,37043.0,Clay County,2060.0,9079.0,34899.0,7412.0,6569.0,4337.0,5284.0,8383.0,762.0,1188.0,799.0,135.0,30.0
66431,County,2020/01/21,37.0,NC,37043.0,Clay County,1985.0,9154.0,35918.0,6831.0,6575.0,5025.0,6170.0,8612.0,1462.0,881.0,265.0,83.0,14.0
68013,County,2020/01/22,37.0,NC,37043.0,Clay County,1957.0,9182.0,35429.0,6453.0,6740.0,4397.0,5770.0,8549.0,1690.0,1175.0,430.0,169.0,56.0
72804,County,2020/01/23,37.0,NC,37043.0,Clay County,1879.0,9260.0,35537.0,7072.0,7876.0,5468.0,4239.0,7472.0,1267.0,1076.0,886.0,155.0,26.0
75960,County,2020/01/24,37.0,NC,37043.0,Clay County,2075.0,9064.0,33143.0,5130.0,6742.0,5830.0,5236.0,6799.0,1588.0,894.0,606.0,318.0,0.0
79195,County,2020/01/25,37.0,NC,37043.0,Clay County,2163.0,8976.0,34435.0,5137.0,6811.0,5577.0,5120.0,8733.0,1476.0,633.0,774.0,174.0,0.0
81760,County,2020/01/26,37.0,NC,37043.0,Clay County,2163.0,8976.0,28822.0,4167.0,5804.0,4675.0,4518.0,7235.0,827.0,677.0,705.0,128.0,86.0
83917,County,2020/01/27,37.0,NC,37043.0,Clay County,2018.0,9121.0,34305.0,6066.0,7108.0,5650.0,5346.0,7375.0,1244.0,993.0,352.0,79.0,92.0
87232,County,2020/01/28,37.0,NC,37043.0,Clay County,1925.0,9214.0,36448.0,6517.0,6634.0,5976.0,6112.0,8623.0,986.0,974.0,394.0,232.0,0.0
90387,County,2020/01/29,37.0,NC,37043.0,Clay County,2006.0,9133.0,33890.0,5543.0,6224.0,4817.0,6007.0,8195.0,1816.0,751.0,361.0,162.0,14.0
93691,County,2020/01/30,37.0,NC,37043.0,Clay County,1901.0,9238.0,38174.0,8007.0,7892.0,5645.0,6527.0,7270.0,1473.0,855.0,290.0,190.0,25.0
96746,County,2020/01/31,37.0,NC,37043.0,Clay County,1907.0,9232.0,38625.0,8291.0,7820.0,6241.0,6200.0,7366.0,1110.0,1212.0,194.0,153.0,38.0
101504,County,2020/02/01,37.0,NC,37043.0,Clay County,2006.0,9133.0,30478.0,5575.0,5629.0,3898.0,4802.0,7075.0,1648.0,926.0,692.0,233.0,0.0
103123,County,2020/02/02,37.0,NC,37043.0,Clay County,2035.0,9104.0,30676.0,6376.0,5815.0,4199.0,4861.0,5639.0,1605.0,877.0,941.0,350.0,13.0
107958,County,2020/02/03,37.0,NC,37043.0,Clay County,1660.0,9479.0,36039.0,6902.0,7065.0,5622.0,5963.0,7514.0,1195.0,1035.0,346.0,374.0,23.0
109575,County,2020/02/04,37.0,NC,37043.0,Clay County,1850.0,9289.0,36495.0,7384.0,7822.0,4473.0,7417.0,6777.0,1244.0,890.0,405.0,71.0,12.0
114297,County,2020/02/05,37.0,NC,37043.0,Clay County,1875.0,9264.0,37994.0,7106.0,7805.0,6522.0,5914.0,7712.0,1585.0,774.0,438.0,103.0,35.0
117504,County,2020/02/06,37.0,NC,37043.0,Clay County,1934.0,9205.0,33017.0,5558.0,7827.0,5031.0,5324.0,5858.0,1841.0,918.0,462.0,132.0,66.0
120758,County,2020/02/07,37.0,NC,37043.0,Clay County,1807.0,9332.0,34072.0,6364.0,8328.0,4048.0,6584.0,6731.0,1025.0,517.0,248.0,162.0,65.0
123918,County,2020/02/08,37.0,NC,37043.0,Clay County,2703.0,8436.0,27485.0,6041.0,6582.0,3195.0,3737.0,5627.0,962.0,409.0,785.0,88.0,59.0
125923,County,2020/02/09,37.0,NC,37043.0,Clay County,2478.0,8661.0,25404.0,4002.0,5137.0,4438.0,3963.0,5195.0,976.0,723.0,586.0,345.0,39.0
130219,County,2020/02/10,37.0,NC,37043.0,Clay County,1982.0,9157.0,34292.0,5690.0,7497.0,5502.0,6553.0,6544.0,718.0,901.0,640.0,178.0,69.0
134078,County,2020/02/11,37.0,NC,37043.0,Clay County,1739.0,9400.0,36050.0,6584.0,7977.0,4851.0,6349.0,7368.0,1251.0,1025.0,511.0,86.0,48.0
135553,County,2020/02/12,37.0,NC,37043.0,Clay County,1763.0,9376.0,37865.0,5922.0,7379.0,6758.0,7232.0,7548.0,1470.0,766.0,560.0,221.0,9.0
139887,County,2020/02/13,37.0,NC,37043.0,Clay County,1639.0,9500.0,35331.0,5905.0,6694.0,5840.0,6111.0,7774.0,1531.0,855.0,499.0,84.0,38.0
141418,County,2020/02/14,37.0,NC,37043.0,Clay County,1500.0,9639.0,39483.0,5391.0,7248.0,6693.0,6989.0,9810.0,1876.0,931.0,358.0,140.0,47.0
146247,County,2020/02/15,37.0,NC,37043.0,Clay County,1754.0,9385.0,35870.0,5355.0,6546.0,4931.0,6108.0,8214.0,2783.0,1145.0,531.0,208.0,49.0
149449,County,2020/02/16,37.0,NC,37043.0,Clay County,2063.0,9076.0,28861.0,4884.0,4547.0,4558.0,5082.0,6515.0,1110.0,1169.0,832.0,65.0,99.0
151077,County,2020/02/17,37.0,NC,37043.0,Clay County,1962.0,9177.0,28996.0,5045.0,4815.0,4938.0,5184.0,5948.0,1288.0,1206.0,386.0,152.0,34.0
154291,County,2020/02/18,37.0,NC,37043.0,Clay County,1668.0,9471.0,33287.0,5522.0,6769.0,5692.0,5733.0,6579.0,1410.0,973.0,507.0,61.0,41.0
159003,County,2020/02/19,37.0,NC,37043.0,Clay County,1588.0,9551.0,33551.0,5921.0,5553.0,5432.0,5235.0,8084.0,1621.0,1194.0,396.0,94.0,21.0
162247,County,2020/02/20,37.0,NC,37043.0,Clay County,2113.0,9026.0,30437.0,5127.0,5584.0,5221.0,5186.0,6640.0,1051.0,827.0,617.0,138.0,46.0
163825,County,2020/02/21,37.0,NC,37043.0,Clay County,1781.0,9358.0,37345.0,6433.0,7802.0,5583.0,5591.0,7945.0,2271.0,1283.0,329.0,97.0,11.0
167019,County,2020/02/22,37.0,NC,37043.0,Clay County,1721.0,9418.0,34856.0,5841.0,5546.0,5646.0,5874.0,8292.0,1864.0,1191.0,477.0,113.0,12.0
170247,County,2020/02/23,37.0,NC,37043.0,Clay County,2062.0,9077.0,32731.0,8052.0,5421.0,3548.0,4899.0,7429.0,1713.0,1264.0,291.0,114.0,0.0
173411,County,2020/02/24,37.0,NC,37043.0,Clay County,1916.0,9223.0,32108.0,5174.0,7649.0,4541.0,6273.0,6498.0,1234.0,494.0,86.0,136.0,23.0
177581,County,2020/02/25,37.0,NC,37043.0,Clay County,1534.0,9605.0,39066.0,6968.0,7742.0,5728.0,7884.0,8293.0,1015.0,806.0,339.0,228.0,63.0
180774,County,2020/02/26,37.0,NC,37043.0,Clay County,1814.0,9325.0,39188.0,6041.0,9154.0,8874.0,6025.0,7611.0,552.0,452.0,290.0,113.0,76.0
184599,County,2020/02/27,37.0,NC,37043.0,Clay County,1767.0,9372.0,35421.0,5943.0,6301.0,5434.0,6654.0,8133.0,1274.0,957.0,418.0,296.0,11.0
186325,County,2020/02/28,37.0,NC,37043.0,Clay County,1794.0,9345.0,37392.0,7068.0,6819.0,6761.0,6005.0,7728.0,1443.0,855.0,475.0,170.0,68.0
190944,County,2020/02/29,37.0,NC,37043.0,Clay County,1883.0,9256.0,35043.0,5737.0,6164.0,6290.0,5667.0,8078.0,1367.0,896.0,718.0,38.0,88.0
192567,County,2020/03/01,37.0,NC,37043.0,Clay County,1935.0,9204.0,33384.0,4382.0,6353.0,6158.0,5000.0,7773.0,1358.0,1050.0,890.0,233.0,187.0
197367,County,2020/03/02,37.0,NC,37043.0,Clay County,2024.0,9115.0,40756.0,8465.0,10447.0,6582.0,5876.0,6265.0,1301.0,782.0,751.0,215.0,72.0
200592,County,2020/03/03,37.0,NC,37043.0,Clay County,1668.0,9471.0,40786.0,7305.0,8086.0,7817.0,6282.0,7818.0,1751.0,914.0,479.0,313.0,21.0
203778,County,2020/03/04,37.0,NC,37043.0,Clay County,1646.0,9493.0,42327.0,9307.0,6693.0,5143.0,5950.0,11519.0,1677.0,1275.0,383.0,360.0,20.0
206933,County,2020/03/05,37.0,NC,37043.0,Clay County,1488.0,9651.0,38507.0,6587.0,7655.0,5028.0,6724.0,8704.0,1531.0,1193.0,764.0,300.0,21.0
208464,County,2020/03/06,37.0,NC,37043.0,Clay County,1731.0,9408.0,48499.0,7174.0,10733.0,8745.0,8705.0,9608.0,1408.0,1375.0,466.0,244.0,41.0
211765,County,2020/03/07,37.0,NC,37043.0,Clay County,1725.0,9414.0,46802.0,9064.0,8159.0,6490.0,8777.0,9827.0,2198.0,1512.0,171.0,537.0,67.0
216540,County,2020/03/08,37.0,NC,37043.0,Clay County,1758.0,9381.0,39992.0,8380.0,7544.0,6425.0,6291.0,7926.0,1144.0,1415.0,720.0,126.0,21.0
218133,County,2020/03/09,37.0,NC,37043.0,Clay County,1709.0,9430.0,44493.0,10825.0,8487.0,8418.0,6471.0,7146.0,1244.0,1199.0,461.0,242.0,0.0
222931,County,2020/03/10,37.0,NC,37043.0,Clay County,1627.0,9512.0,40177.0,6896.0,8519.0,6854.0,6648.0,8253.0,1397.0,534.0,806.0,173.0,97.0
224556,County,2020/03/11,37.0,NC,37043.0,Clay County,1593.0,9546.0,42739.0,6019.0,9499.0,7011.0,7996.0,7988.0,1463.0,1199.0,960.0,604.0,0.0
229253,County,2020/03/12,37.0,NC,37043.0,Clay County,1853.0,9286.0,40486.0,5553.0,11329.0,5480.0,5207.0,9754.0,1116.0,976.0,703.0,368.0,0.0
232521,County,2020/03/13,37.0,NC,37043.0,Clay County,1774.0,9365.0,40833.0,4941.0,7480.0,7738.0,5571.0,10901.0,918.0,2256.0,964.0,0.0,64.0
235576,County,2020/03/14,37.0,NC,37043.0,Clay County,1997.0,9142.0,42838.0,5083.0,7131.0,9367.0,6329.0,9152.0,2036.0,2224.0,1068.0,168.0,280.0
237286,County,2020/03/15,37.0,NC,37043.0,Clay County,2242.0,8897.0,28979.0,5197.0,5234.0,4061.0,5458.0,5257.0,1284.0,1315.0,842.0,265.0,66.0
242096,County,2020/03/16,37.0,NC,37043.0,Clay County,2113.0,9026.0,35639.0,6774.0,5574.0,5861.0,5885.0,7503.0,1587.0,1182.0,757.0,417.0,99.0
245337,County,2020/03/17,37.0,NC,37043.0,Clay County,2275.0,8864.0,33804.0,6050.0,6367.0,5053.0,5975.0,6865.0,1538.0,1200.0,614.0,121.0,21.0
248443,County,2020/03/18,37.0,NC,37043.0,Clay County,2203.0,8936.0,38758.0,8447.0,6377.0,6747.0,6510.0,7999.0,1490.0,591.0,355.0,224.0,18.0
250122,County,2020/03/19,37.0,NC,37043.0,Clay County,2294.0,8845.0,38151.0,7567.0,7236.0,6838.0,6158.0,7516.0,1254.0,1066.0,439.0,58.0,19.0
253307,County,2020/03/20,37.0,NC,37043.0,Clay County,2476.0,8663.0,39843.0,8403.0,7928.0,8501.0,6306.0,7214.0,803.0,398.0,230.0,60.0,0.0
258065,County,2020/03/21,37.0,NC,37043.0,Clay County,2749.0,8390.0,33178.0,6786.0,6838.0,4596.0,6067.0,6203.0,1249.0,910.0,437.0,69.0,23.0
261253,County,2020/03/22,37.0,NC,37043.0,Clay County,2508.0,8631.0,27965.0,5955.0,6421.0,2841.0,5712.0,5070.0,403.0,1056.0,507.0,0.0,0.0
264416,County,2020/03/23,37.0,NC,37043.0,Clay County,2618.0,8521.0,33465.0,5995.0,7337.0,6091.0,6809.0,5202.0,1091.0,510.0,409.0,0.0,21.0
266042,County,2020/03/24,37.0,NC,37043.0,Clay County,2601.0,8538.0,33279.0,5715.0,8175.0,6250.0,5798.0,4955.0,1092.0,716.0,458.0,120.0,0.0
269275,County,2020/03/25,37.0,NC,37043.0,Clay County,2371.0,8768.0,36790.0,6763.0,8560.0,3974.0,6441.0,9691.0,534.0,416.0,160.0,251.0,0.0
274016,County,2020/03/26,37.0,NC,37043.0,Clay County,2155.0,8984.0,31690.0,6105.0,7521.0,2776.0,6472.0,5953.0,1593.0,870.0,380.0,0.0,20.0
275656,County,2020/03/27,37.0,NC,37043.0,Clay County,2239.0,8900.0,31542.0,6259.0,6138.0,3179.0,5977.0,7301.0,936.0,1169.0,491.0,55.0,37.0
278810,County,2020/03/28,37.0,NC,37043.0,Clay County,2435.0,8704.0,30175.0,4703.0,6407.0,4649.0,4551.0,8230.0,896.0,301.0,362.0,57.0,19.0
283570,County,2020/03/29,37.0,NC,37043.0,Clay County,2707.0,8432.0,29084.0,5588.0,5379.0,4757.0,5331.0,6027.0,1034.0,608.0,250.0,66.0,44.0
285197,County,2020/03/30,37.0,NC,37043.0,Clay County,2309.0,8830.0,32624.0,8690.0,7338.0,4226.0,5719.0,4586.0,1253.0,411.0,263.0,103.0,35.0
290000,County,2020/03/31,37.0,NC,37043.0,Clay County,2326.0,8813.0,30290.0,5520.0,7289.0,3702.0,5863.0,5059.0,1144.0,833.0,600.0,262.0,18.0
293199,County,2020/04/01,37.0,NC,37043.0,Clay County,2444.0,8695.0,33544.0,9392.0,5829.0,3906.0,5926.0,5941.0,939.0,732.0,492.0,332.0,55.0
296361,County,2020/04/02,37.0,NC,37043.0,Clay County,2539.0,8600.0,34860.0,7173.0,6950.0,5736.0,6918.0,5821.0,1367.0,471.0,226.0,178.0,20.0
298022,County,2020/04/03,37.0,NC,37043.0,Clay County,2343.0,8796.0,34821.0,8106.0,7259.0,5047.0,5074.0,7536.0,1002.0,313.0,150.0,295.0,39.0
302768,County,2020/04/04,37.0,NC,37043.0,Clay County,2460.0,8679.0,30849.0,7742.0,5630.0,5106.0,4816.0,5702.0,962.0,242.0,466.0,183.0,0.0
304396,County,2020/04/05,37.0,NC,37043.0,Clay County,2729.0,8410.0,28428.0,6110.0,5291.0,3716.0,4618.0,6345.0,932.0,305.0,880.0,231.0,0.0
309170,County,2020/04/06,37.0,NC,37043.0,Clay County,2273.0,8866.0,32728.0,6104.0,6388.0,4506.0,5923.0,7643.0,1102.0,401.0,540.0,121.0,0.0
312361,County,2020/04/07,37.0,NC,37043.0,Clay County,2397.0,8742.0,29856.0,6854.0,7436.0,3777.0,4363.0,5303.0,1304.0,396.0,304.0,119.0,0.0
315534,County,2020/04/08,37.0,NC,37043.0,Clay County,2552.0,8587.0,33242.0,7614.0,6409.0,4363.0,5528.0,6815.0,1538.0,504.0,323.0,127.0,21.0
317161,County,2020/04/09,37.0,NC,37043.0,Clay County,2300.0,8839.0,31042.0,6378.0,6661.0,4451.0,4793.0,7177.0,798.0,317.0,228.0,239.0,0.0
320388,County,2020/04/10,37.0,NC,37043.0,Clay County,2529.0,8610.0,31578.0,7743.0,5572.0,5017.0,5786.0,4849.0,1594.0,550.0,352.0,69.0,46.0
325141,County,2020/04/11,37.0,NC,37043.0,Clay County,2167.0,8972.0,32626.0,6718.0,6005.0,5591.0,6182.0,6471.0,1127.0,145.0,278.0,109.0,0.0
326718,County,2020/04/12,37.0,NC,37043.0,Clay County,3083.0,8056.0,24515.0,3815.0,5555.0,4259.0,5143.0,4347.0,695.0,285.0,273.0,143.0,0.0
329983,County,2020/04/13,37.0,NC,37043.0,Clay County,2581.0,8558.0,35437.0,8377.0,9762.0,4958.0,4188.0,6031.0,1077.0,757.0,161.0,63.0,63.0
333156,County,2020/04/14,37.0,NC,37043.0,Clay County,2289.0,8850.0,27168.0,5218.0,6117.0,4236.0,4920.0,4533.0,1688.0,168.0,161.0,127.0,0.0
336332,County,2020/04/15,37.0,NC,37043.0,Clay County,2255.0,8884.0,30896.0,4521.0,7614.0,3913.0,5978.0,6362.0,1051.0,984.0,473.0,0.0,0.0
341051,County,2020/04/16,37.0,NC,37043.0,Clay County,2407.0,8732.0,31843.0,5839.0,7239.0,3726.0,6137.0,7074.0,1134.0,176.0,340.0,133.0,45.0
342786,County,2020/04/17,37.0,NC,37043.0,Clay County,2194.0,8945.0,32203.0,5934.0,7537.0,4228.0,6062.0,6150.0,1742.0,158.0,152.0,240.0,0.0
345892,County,2020/04/18,37.0,NC,37043.0,Clay County,2329.0,8810.0,33002.0,5218.0,7193.0,6460.0,4798.0,7090.0,872.0,794.0,457.0,120.0,0.0
350644,County,2020/04/19,37.0,NC,37043.0,Clay County,2661.0,8478.0,20302.0,2430.0,4649.0,2066.0,2991.0,5685.0,578.0,841.0,1009.0,0.0,53.0
353893,County,2020/04/20,37.0,NC,37043.0,Clay County,2475.0,8664.0,27691.0,4020.0,9621.0,3435.0,4836.0,4476.0,498.0,544.0,261.0,0.0,0.0
355513,County,2020/04/21,37.0,NC,37043.0,Clay County,2252.0,8887.0,34024.0,7523.0,8305.0,4613.0,6054.0,5980.0,716.0,548.0,226.0,59.0,0.0
360234,County,2020/04/22,37.0,NC,37043.0,Clay County,2035.0,9104.0,37286.0,8290.0,6499.0,6559.0,5294.0,8329.0,1173.0,754.0,217.0,171.0,0.0
363440,County,2020/04/23,37.0,NC,37043.0,Clay County,2395.0,8744.0,32777.0,5206.0,5578.0,6956.0,5849.0,6038.0,1072.0,1441.0,433.0,204.0,0.0
365067,County,2020/04/24,37.0,NC,37043.0,Clay County,2116.0,9023.0,32554.0,5923.0,6553.0,5334.0,5947.0,6790.0,765.0,912.0,292.0,0.0,38.0
368234,County,2020/04/25,37.0,NC,37043.0,Clay County,2462.0,8677.0,34623.0,7473.0,6394.0,5201.0,5625.0,7650.0,1572.0,361.0,347.0,0.0,0.0
371400,County,2020/04/26,37.0,NC,37043.0,Clay County,2487.0,8652.0,27005.0,4224.0,4412.0,3781.0,5500.0,6803.0,1187.0,200.0,671.0,151.0,76.0
374677,County,2020/04/27,37.0,NC,37043.0,Clay County,2281.0,8858.0,42426.0,11505.0,7646.0,6268.0,5761.0,8029.0,1764.0,1051.0,336.0,66.0,0.0
377877,County,2020/04/28,37.0,NC,37043.0,Clay County,1974.0,9165.0,34640.0,7404.0,7724.0,5884.0,5628.0,6088.0,903.0,411.0,474.0,124.0,0.0
382608,County,2020/04/29,37.0,NC,37043.0,Clay County,2205.0,8934.0,29157.0,4937.0,6348.0,3406.0,5753.0,6275.0,1629.0,728.0,0.0,61.0,20.0
384228,County,2020/04/30,37.0,NC,37043.0,Clay County,2152.0,8987.0,29656.0,4494.0,6510.0,4792.0,5236.0,6321.0,1719.0,256.0,328.0,0.0,0.0
389014,County,2020/05/01,37.0,NC,37043.0,Clay County,1952.0,9187.0,36296.0,5773.0,9061.0,6465.0,5900.0,6975.0,1286.0,702.0,75.0,59.0,0.0
392213,County,2020/05/02,37.0,NC,37043.0,Clay County,2077.0,9062.0,37993.0,7008.0,8086.0,5775.0,7967.0,7524.0,1088.0,457.0,88.0,0.0,0.0
395360,County,2020/05/03,37.0,NC,37043.0,Clay County,2332.0,8807.0,33181.0,6046.0,5908.0,5049.0,7311.0,8096.0,565.0,206.0,0.0,0.0,0.0
397010,County,2020/05/04,37.0,NC,37043.0,Clay County,2381.0,8758.0,37504.0,9555.0,8505.0,3877.0,6490.0,6842.0,1264.0,592.0,379.0,0.0,0.0
401778,County,2020/05/05,37.0,NC,37043.0,Clay County,1813.0,9326.0,32645.0,4793.0,6260.0,6719.0,5395.0,7133.0,1234.0,607.0,453.0,51.0,0.0
404984,County,2020/05/06,37.0,NC,37043.0,Clay County,2105.0,9034.0,31145.0,6667.0,5940.0,3771.0,5460.0,7129.0,1195.0,537.0,369.0,58.0,19.0
406611,County,2020/05/07,37.0,NC,37043.0,Clay County,1979.0,9160.0,32225.0,6275.0,6432.0,5512.0,6273.0,5643.0,666.0,873.0,349.0,165.0,37.0
411341,County,2020/05/08,37.0,NC,37043.0,Clay County,2145.0,8994.0,34766.0,7276.0,6191.0,6005.0,6156.0,7041.0,1139.0,467.0,374.0,117.0,0.0
412921,County,2020/05/09,37.0,NC,37043.0,Clay County,2054.0,9085.0,32845.0,5353.0,6333.0,5360.0,4577.0,8784.0,1140.0,996.0,239.0,63.0,0.0
417718,County,2020/05/10,37.0,NC,37043.0,Clay County,2208.0,8931.0,30298.0,5343.0,7450.0,3835.0,4535.0,6745.0,1334.0,546.0,350.0,137.0,23.0
419393,County,2020/05/11,37.0,NC,37043.0,Clay County,1882.0,9257.0,35033.0,6288.0,8388.0,6374.0,5469.0,5879.0,1105.0,402.0,939.0,174.0,15.0
422626,County,2020/05/12,37.0,NC,37043.0,Clay County,2049.0,9090.0,38162.0,7821.0,6826.0,6500.0,6609.0,7192.0,1099.0,1029.0,1043.0,43.0,0.0
425635,County,2020/05/13,37.0,NC,37043.0,Clay County,2114.0,9025.0,36067.0,7821.0,6912.0,6305.0,5398.0,6923.0,1278.0,486.0,700.0,229.0,15.0
428976,County,2020/05/14,37.0,NC,37043.0,Clay County,1971.0,9168.0,31368.0,5736.0,6065.0,5240.0,5633.0,6583.0,932.0,679.0,272.0,214.0,14.0
433716,County,2020/05/15,37.0,NC,37043.0,Clay County,2243.0,8896.0,35914.0,8323.0,7889.0,6142.0,4071.0,7202.0,863.0,740.0,582.0,51.0,51.0
435394,County,2020/05/16,37.0,NC,37043.0,Clay County,2137.0,9002.0,36496.0,7184.0,8461.0,5547.0,5076.0,7375.0,1838.0,815.0,121.0,47.0,32.0
440079,County,2020/05/17,37.0,NC,37043.0,Clay County,1755.0,9384.0,32674.0,3005.0,6745.0,4894.0,8525.0,6002.0,1026.0,1370.0,1076.0,0.0,31.0
443319,County,2020/05/18,37.0,NC,37043.0,Clay County,1868.0,9271.0,42597.0,8305.0,8796.0,9414.0,6974.0,6147.0,1249.0,909.0,546.0,257.0,0.0
444946,County,2020/05/19,37.0,NC,37043.0,Clay County,1509.0,9630.0,40787.0,5790.0,8952.0,9352.0,6198.0,6990.0,1689.0,1127.0,689.0,0.0,0.0
448113,County,2020/05/20,37.0,NC,37043.0,Clay County,1542.0,9597.0,37011.0,7812.0,6423.0,6079.0,6105.0,7451.0,1161.0,951.0,710.0,319.0,0.0
452548,County,2020/05/21,37.0,NC,37043.0,Clay County,1674.0,9465.0,43433.0,6386.0,10835.0,5917.0,7403.0,9045.0,2026.0,948.0,607.0,239.0,27.0
456093,County,2020/05/22,37.0,NC,37043.0,Clay County,1592.0,9547.0,41177.0,8876.0,11602.0,5688.0,6745.0,6230.0,761.0,519.0,599.0,157.0,0.0
457667,County,2020/05/23,37.0,NC,37043.0,Clay County,1714.0,9425.0,38171.0,5327.0,10092.0,6326.0,6371.0,8423.0,423.0,924.0,111.0,174.0,0.0
460884,County,2020/05/24,37.0,NC,37043.0,Clay County,2082.0,9057.0,33118.0,6302.0,7846.0,5604.0,5127.0,5968.0,1263.0,542.0,379.0,37.0,50.0
465761,County,2020/05/25,37.0,NC,37043.0,Clay County,2106.0,9033.0,32220.0,7858.0,7086.0,4855.0,5338.0,4366.0,1211.0,763.0,538.0,192.0,13.0
467241,County,2020/05/26,37.0,NC,37043.0,Clay County,1748.0,9391.0,35900.0,6524.0,7942.0,6810.0,5932.0,6307.0,1025.0,606.0,672.0,35.0,47.0
470497,County,2020/05/27,37.0,NC,37043.0,Clay County,1925.0,9214.0,38533.0,7756.0,7825.0,6408.0,5519.0,6633.0,1503.0,1333.0,1182.0,348.0,26.0
475209,County,2020/05/28,37.0,NC,37043.0,Clay County,1745.0,9394.0,32912.0,5379.0,6927.0,5603.0,5992.0,5904.0,1061.0,901.0,907.0,162.0,76.0
476838,County,2020/05/29,37.0,NC,37043.0,Clay County,2077.0,9062.0,36217.0,7373.0,8972.0,5347.0,5694.0,6101.0,1415.0,994.0,265.0,42.0,14.0
480025,County,2020/05/30,37.0,NC,37043.0,Clay County,2110.0,9029.0,36505.0,7425.0,7950.0,6638.0,4954.0,6855.0,1364.0,583.0,622.0,98.0,16.0
484792,County,2020/05/31,37.0,NC,37043.0,Clay County,2108.0,9031.0,32347.0,5783.0,6544.0,4431.0,5029.0,7268.0,1325.0,1249.0,569.0,99.0,50.0
488093,County,2020/06/01,37.0,NC,37043.0,Clay County,1667.0,9472.0,32973.0,5588.0,7253.0,4604.0,5200.0,6539.0,827.0,1331.0,1416.0,179.0,36.0
489661,County,2020/06/02,37.0,NC,37043.0,Clay County,1980.0,9159.0,39284.0,8190.0,7582.0,6570.0,6485.0,6783.0,1246.0,1034.0,1203.0,164.0,27.0
492829,County,2020/06/03,37.0,NC,37043.0,Clay County,1931.0,9208.0,35219.0,6399.0,7422.0,5134.0,5703.0,7717.0,826.0,902.0,914.0,189.0,13.0
497604,County,2020/06/04,37.0,NC,37043.0,Clay County,1759.0,9380.0,34474.0,6210.0,6284.0,5660.0,5530.0,7026.0,1557.0,1166.0,747.0,257.0,37.0
499244,County,2020/06/05,37.0,NC,37043.0,Clay County,2034.0,9105.0,37343.0,6165.0,7925.0,7348.0,6021.0,6957.0,1146.0,910.0,656.0,172.0,43.0
503969,County,2020/06/06,37.0,NC,37043.0,Clay County,2193.0,8946.0,32331.0,4750.0,6535.0,6034.0,4719.0,7581.0,1476.0,604.0,581.0,0.0,51.0
505583,County,2020/06/07,37.0,NC,37043.0,Clay County,2140.0,8999.0,30499.0,4762.0,5245.0,5131.0,6915.0,5759.0,641.0,1321.0,373.0,352.0,0.0
510379,County,2020/06/08,37.0,NC,37043.0,Clay County,1661.0,9478.0,37938.0,6531.0,7803.0,5958.0,6523.0,7431.0,1605.0,1015.0,886.0,174.0,12.0
512008,County,2020/06/09,37.0,NC,37043.0,Clay County,1769.0,9370.0,35026.0,5480.0,7683.0,6334.0,6041.0,7012.0,1330.0,415.0,548.0,157.0,26.0
515165,County,2020/06/10,37.0,NC,37043.0,Clay County,1810.0,9329.0,33871.0,6063.0,6091.0,5104.0,6271.0,6283.0,1513.0,1322.0,1058.0,166.0,0.0
518369,County,2020/06/11,37.0,NC,37043.0,Clay County,1725.0,9414.0,38327.0,7937.0,7519.0,6789.0,5958.0,6693.0,1153.0,1259.0,968.0,0.0,51.0
523169,County,2020/06/12,37.0,NC,37043.0,Clay County,1856.0,9283.0,40615.0,7499.0,8166.0,5860.0,8139.0,8055.0,1274.0,749.0,617.0,242.0,14.0
526356,County,2020/06/13,37.0,NC,37043.0,Clay County,1792.0,9347.0,38429.0,6260.0,7995.0,6062.0,6338.0,7769.0,1667.0,1353.0,750.0,196.0,39.0
527991,County,2020/06/14,37.0,NC,37043.0,Clay County,2203.0,8936.0,28646.0,5210.0,5647.0,4116.0,5257.0,5005.0,1386.0,1182.0,545.0,286.0,12.0
531140,County,2020/06/15,37.0,NC,37043.0,Clay County,2226.0,8913.0,31772.0,5663.0,7625.0,4479.0,5674.0,5075.0,1160.0,891.0,721.0,460.0,24.0
534329,County,2020/06/16,37.0,NC,37043.0,Clay County,2024.0,9115.0,31568.0,6130.0,6472.0,4892.0,5495.0,6501.0,1106.0,418.0,402.0,140.0,12.0
539089,County,2020/06/17,37.0,NC,37043.0,Clay County,2272.0,8867.0,32159.0,6009.0,6742.0,5422.0,4790.0,6334.0,1070.0,1016.0,635.0,77.0,64.0
542284,County,2020/06/18,37.0,NC,37043.0,Clay County,2030.0,9109.0,34204.0,7028.0,7614.0,5308.0,5364.0,5716.0,1401.0,1035.0,432.0,238.0,68.0
543911,County,2020/06/19,37.0,NC,37043.0,Clay County,2036.0,9103.0,31390.0,5400.0,5444.0,5728.0,4588.0,6893.0,1460.0,1032.0,586.0,212.0,47.0
547116,County,2020/06/20,37.0,NC,37043.0,Clay County,2336.0,8803.0,32703.0,6726.0,6114.0,5742.0,5225.0,5080.0,2163.0,1152.0,443.0,0.0,58.0
550320,County,2020/06/21,37.0,NC,37043.0,Clay County,2355.0,8784.0,30546.0,5090.0,6558.0,4457.0,5594.0,4508.0,2304.0,1018.0,806.0,90.0,121.0
555100,County,2020/06/22,37.0,NC,37043.0,Clay County,2148.0,8991.0,31658.0,6059.0,5532.0,5268.0,5305.0,6222.0,1718.0,866.0,555.0,109.0,24.0
556728,County,2020/06/23,37.0,NC,37043.0,Clay County,2064.0,9075.0,34315.0,5458.0,6592.0,5484.0,6125.0,7313.0,1647.0,720.0,691.0,272.0,13.0
559886,County,2020/06/24,37.0,NC,37043.0,Clay County,2266.0,8873.0,31600.0,7144.0,5455.0,4203.0,5522.0,6062.0,1371.0,832.0,746.0,209.0,56.0
563076,County,2020/06/25,37.0,NC,37043.0,Clay County,2004.0,9135.0,36906.0,8112.0,7710.0,6137.0,5230.0,5507.0,1954.0,1457.0,550.0,236.0,13.0
567920,County,2020/06/26,37.0,NC,37043.0,Clay County,2238.0,8901.0,32526.0,6607.0,7755.0,4360.0,5619.0,4974.0,1226.0,803.0,926.0,202.0,54.0
571070,County,2020/06/27,37.0,NC,37043.0,Clay County,2213.0,8926.0,33219.0,6481.0,6980.0,4631.0,5007.0,6152.0,2083.0,1024.0,546.0,301.0,14.0
574253,County,2020/06/28,37.0,NC,37043.0,Clay County,2067.0,9072.0,28760.0,4875.0,6406.0,4001.0,5533.0,4133.0,1479.0,1282.0,776.0,215.0,60.0
575857,County,2020/06/29,37.0,NC,37043.0,Clay County,2098.0,9041.0,33032.0,5649.0,5980.0,5568.0,5084.0,6904.0,1556.0,1030.0,742.0,428.0,91.0
579069,County,2020/06/30,37.0,NC,37043.0,Clay County,2094.0,9045.0,32413.0,4487.0,7713.0,6073.0,4424.0,6231.0,1337.0,1298.0,727.0,82.0,41.0
582271,County,2020/07/01,37.0,NC,37043.0,Clay County,2107.0,9032.0,32902.0,5143.0,7792.0,4842.0,4445.0,6935.0,1831.0,1250.0,576.0,38.0,50.0
585463,County,2020/07/02,37.0,NC,37043.0,Clay County,2199.0,8940.0,39171.0,8610.0,8183.0,6514.0,5551.0,5845.0,2074.0,1546.0,584.0,250.0,14.0
590205,County,2020/07/03,37.0,NC,37043.0,Clay County,2281.0,8858.0,32342.0,6570.0,7711.0,4335.0,5587.0,4946.0,1219.0,798.0,921.0,201.0,54.0
591855,County,2020/07/04,37.0,NC,37043.0,Clay County,2515.0,8624.0,27670.0,5621.0,6597.0,3709.0,4780.0,4231.0,1043.0,683.0,788.0,172.0,46.0
596600,County,2020/07/05,37.0,NC,37043.0,Clay County,2067.0,9072.0,28822.0,5354.0,5735.0,5127.0,4425.0,4543.0,1163.0,1376.0,712.0,320.0,67.0
597739,County,2020/07/06,37.0,NC,37043.0,Clay County,2118.0,9021.0,28699.0,4606.0,6161.0,5702.0,4074.0,4442.0,1254.0,1370.0,590.0,464.0,36.0
603447,County,2020/07/07,37.0,NC,37043.0,Clay County,2113.0,9026.0,31675.0,6008.0,5419.0,5533.0,5168.0,5882.0,1157.0,1415.0,825.0,191.0,77.0
604644,County,2020/07/08,37.0,NC,37043.0,Clay County,2275.0,8864.0,29667.0,5572.0,5156.0,4389.0,4006.0,7477.0,1116.0,1166.0,611.0,120.0,54.0
609367,County,2020/07/09,37.0,NC,37043.0,Clay County,1894.0,9245.0,31568.0,4736.0,5859.0,5387.0,5444.0,6392.0,1757.0,1188.0,483.0,276.0,46.0
612572,County,2020/07/10,37.0,NC,37043.0,Clay County,1919.0,9220.0,31724.0,5152.0,6739.0,6235.0,4916.0,5000.0,1168.0,1228.0,953.0,321.0,12.0
615787,County,2020/07/11,37.0,NC,37043.0,Clay County,2107.0,9032.0,33640.0,6910.0,6347.0,6447.0,5008.0,5528.0,1702.0,1039.0,315.0,330.0,14.0
618974,County,2020/07/12,37.0,NC,37043.0,Clay County,2131.0,9008.0,28095.0,5436.0,5437.0,4305.0,4843.0,4103.0,1307.0,1058.0,914.0,639.0,53.0
622181,County,2020/07/13,37.0,NC,37043.0,Clay County,1921.0,9218.0,34827.0,6430.0,7273.0,5871.0,5140.0,7238.0,1248.0,611.0,767.0,213.0,36.0
623762,County,2020/07/14,37.0,NC,37043.0,Clay County,2016.0,9123.0,34150.0,5928.0,6423.0,6510.0,5383.0,6601.0,1207.0,683.0,985.0,405.0,25.0
626884,County,2020/07/15,37.0,NC,37043.0,Clay County,1962.0,9177.0,34350.0,7842.0,6625.0,5888.0,5551.0,5871.0,823.0,799.0,624.0,264.0,63.0
631814,County,2020/07/16,37.0,NC,37043.0,Clay County,2086.0,9053.0,32259.0,6140.0,6388.0,5478.0,5769.0,5781.0,928.0,963.0,633.0,153.0,26.0
634909,County,2020/07/17,37.0,NC,37043.0,Clay County,2198.0,8941.0,31142.0,5444.0,5528.0,5789.0,5317.0,5394.0,1133.0,1134.0,1040.0,350.0,13.0
638112,County,2020/07/18,37.0,NC,37043.0,Clay County,2267.0,8872.0,31385.0,6647.0,6536.0,5903.0,4769.0,4944.0,1172.0,548.0,820.0,46.0,0.0
641315,County,2020/07/19,37.0,NC,37043.0,Clay County,2627.0,8512.0,23699.0,3657.0,4838.0,4629.0,3327.0,4548.0,1103.0,698.0,548.0,287.0,64.0
644523,County,2020/07/20,37.0,NC,37043.0,Clay County,2262.0,8877.0,32848.0,6366.0,5934.0,6072.0,5283.0,6372.0,1050.0,782.0,701.0,275.0,13.0
648215,County,2020/07/21,37.0,NC,37043.0,Clay County,2272.0,8867.0,31065.0,4113.0,6854.0,7134.0,4835.0,5437.0,1024.0,813.0,586.0,269.0,0.0
648833,County,2020/07/22,37.0,NC,37043.0,Clay County,2298.0,8841.0,28808.0,4434.0,5604.0,5112.0,4114.0,6423.0,856.0,1181.0,898.0,149.0,37.0
654074,County,2020/07/23,37.0,NC,37043.0,Clay County,2106.0,9033.0,28980.0,4597.0,5172.0,4794.0,5076.0,5281.0,1071.0,1450.0,1079.0,389.0,71.0
657348,County,2020/07/24,37.0,NC,37043.0,Clay County,2143.0,8996.0,31894.0,5321.0,6439.0,4709.0,6008.0,6190.0,1280.0,1072.0,582.0,211.0,82.0
660565,County,2020/07/25,37.0,NC,37043.0,Clay County,2074.0,9065.0,30934.0,5817.0,5845.0,4639.0,5121.0,5828.0,1426.0,1133.0,816.0,249.0,60.0
663645,County,2020/07/26,37.0,NC,37043.0,Clay County,2277.0,8862.0,28555.0,4365.0,5786.0,5181.0,4997.0,4339.0,1362.0,1487.0,899.0,83.0,56.0
665385,County,2020/07/27,37.0,NC,37043.0,Clay County,2244.0,8895.0,32633.0,6300.0,6384.0,4324.0,5917.0,6143.0,1309.0,1265.0,686.0,249.0,56.0
668547,County,2020/07/28,37.0,NC,37043.0,Clay County,2243.0,8896.0,30975.0,5321.0,6027.0,5402.0,5324.0,5279.0,1321.0,1230.0,667.0,323.0,81.0
671703,County,2020/07/29,37.0,NC,37043.0,Clay County,2400.0,8739.0,30312.0,4764.0,5704.0,4395.0,4744.0,6749.0,1168.0,1681.0,947.0,131.0,29.0
676464,County,2020/07/30,37.0,NC,37043.0,Clay County,2192.0,8947.0,29503.0,4103.0,5780.0,4847.0,4913.0,6206.0,904.0,1381.0,996.0,298.0,75.0
678067,County,2020/07/31,37.0,NC,37043.0,Clay County,2323.0,8816.0,28883.0,4511.0,5843.0,4922.0,5026.0,4922.0,862.0,1361.0,1106.0,237.0,93.0
682813,County,2020/08/01,37.0,NC,37043.0,Clay County,2343.0,8796.0,26263.0,3943.0,4390.0,5246.0,5088.0,5081.0,642.0,876.0,673.0,309.0,15.0
686053,County,2020/08/02,37.0,NC,37043.0,Clay County,2360.0,8779.0,28390.0,4010.0,4641.0,4922.0,4699.0,5110.0,1718.0,1728.0,617.0,895.0,50.0
689256,County,2020/08/03,37.0,NC,37043.0,Clay County,2388.0,8751.0,29412.0,4217.0,7009.0,5369.0,4100.0,4928.0,768.0,1310.0,906.0,752.0,53.0
692419,County,2020/08/04,37.0,NC,37043.0,Clay County,2030.0,9109.0,29783.0,4540.0,4727.0,5395.0,5597.0,6213.0,1232.0,913.0,646.0,435.0,85.0
694047,County,2020/08/05,37.0,NC,37043.0,Clay County,2240.0,8899.0,32490.0,6450.0,6009.0,6262.0,4696.0,5004.0,1596.0,1487.0,444.0,503.0,39.0
697253,County,2020/08/06,37.0,NC,37043.0,Clay County,2138.0,9001.0,32950.0,5514.0,6803.0,5276.0,4888.0,6849.0,1548.0,846.0,1037.0,106.0,83.0
700465,County,2020/08/07,37.0,NC,37043.0,Clay County,2261.0,8878.0,32228.0,4465.0,7460.0,6452.0,5740.0,5404.0,1119.0,880.0,376.0,295.0,37.0
703615,County,2020/08/08,37.0,NC,37043.0,Clay County,2274.0,8865.0,24142.0,3459.0,5448.0,3308.0,4096.0,4849.0,1422.0,696.0,566.0,243.0,55.0
706805,County,2020/08/09,37.0,NC,37043.0,Clay County,2364.0,8775.0,26629.0,3486.0,5275.0,5422.0,4243.0,5208.0,1352.0,682.0,546.0,300.0,115.0
711614,County,2020/08/10,37.0,NC,37043.0,Clay County,2409.0,8730.0,32309.0,5762.0,6889.0,5961.0,4806.0,6484.0,959.0,496.0,689.0,208.0,55.0
713243,County,2020/08/11,37.0,NC,37043.0,Clay County,2452.0,8687.0,33964.0,5478.0,6437.0,5422.0,6408.0,7321.0,1373.0,634.0,775.0,87.0,29.0
716389,County,2020/08/12,37.0,NC,37043.0,Clay County,2339.0,8800.0,30130.0,5283.0,6563.0,4832.0,4036.0,6393.0,914.0,997.0,910.0,76.0,126.0
721148,County,2020/08/13,37.0,NC,37043.0,Clay County,2142.0,8997.0,31929.0,5147.0,6407.0,5927.0,5473.0,5862.0,905.0,1213.0,734.0,170.0,91.0
724374,County,2020/08/14,37.0,NC,37043.0,Clay County,2109.0,9030.0,33684.0,5266.0,6342.0,5559.0,6599.0,6476.0,834.0,1138.0,1137.0,206.0,127.0
727585,County,2020/08/15,37.0,NC,37043.0,Clay County,2278.0,8861.0,29095.0,4155.0,5251.0,5000.0,4912.0,6251.0,1560.0,1033.0,595.0,273.0,65.0
730777,County,2020/08/16,37.0,NC,37043.0,Clay County,2284.0,8855.0,30001.0,3730.0,6361.0,5548.0,4548.0,5603.0,1277.0,1512.0,1173.0,175.0,74.0
733945,County,2020/08/17,37.0,NC,37043.0,Clay County,2379.0,8760.0,32866.0,4174.0,6869.0,6351.0,5794.0,5887.0,1215.0,1448.0,870.0,182.0,76.0
737117,County,2020/08/18,37.0,NC,37043.0,Clay County,2249.0,8890.0,29657.0,4791.0,5665.0,4654.0,4878.0,6450.0,883.0,1386.0,463.0,273.0,214.0
738778,County,2020/08/19,37.0,NC,37043.0,Clay County,2110.0,9029.0,31160.0,4718.0,6144.0,5981.0,4448.0,5808.0,905.0,1544.0,1068.0,420.0,124.0
743559,County,2020/08/20,37.0,NC,37043.0,Clay County,2087.0,9052.0,30655.0,5730.0,5700.0,4825.0,4585.0,5556.0,1573.0,1781.0,472.0,324.0,109.0
746716,County,2020/08/21,37.0,NC,37043.0,Clay County,2093.0,9046.0,34730.0,6256.0,8050.0,5904.0,5471.0,6421.0,1495.0,565.0,362.0,95.0,111.0
749921,County,2020/08/22,37.0,NC,37043.0,Clay County,2222.0,8917.0,34318.0,6215.0,7134.0,6167.0,5066.0,5730.0,1257.0,1510.0,858.0,259.0,122.0
753090,County,2020/08/23,37.0,NC,37043.0,Clay County,2468.0,8671.0,24049.0,3198.0,4789.0,4541.0,4876.0,3996.0,1004.0,603.0,684.0,248.0,110.0
754760,County,2020/08/24,37.0,NC,37043.0,Clay County,2131.0,9008.0,27740.0,3541.0,5123.0,4725.0,4771.0,6710.0,1161.0,439.0,890.0,294.0,86.0
759521,County,2020/08/25,37.0,NC,37043.0,Clay County,2142.0,8997.0,27250.0,3867.0,5341.0,3461.0,4699.0,7219.0,1290.0,755.0,338.0,38.0,242.0
761104,County,2020/08/26,37.0,NC,37043.0,Clay County,2333.0,8806.0,29780.0,3614.0,5359.0,5853.0,5237.0,6312.0,1432.0,1094.0,551.0,197.0,131.0
765877,County,2020/08/27,37.0,NC,37043.0,Clay County,2404.0,8735.0,27573.0,4138.0,5330.0,4887.0,5049.0,5542.0,785.0,1017.0,515.0,243.0,67.0
767517,County,2020/08/28,37.0,NC,37043.0,Clay County,2394.0,8745.0,29327.0,5624.0,6749.0,3856.0,4705.0,4785.0,1676.0,1119.0,635.0,153.0,25.0
770720,County,2020/08/29,37.0,NC,37043.0,Clay County,2490.0,8649.0,28008.0,5124.0,5518.0,4015.0,5187.0,5670.0,924.0,1066.0,377.0,85.0,42.0
773923,County,2020/08/30,37.0,NC,37043.0,Clay County,2550.0,8589.0,25909.0,4009.0,4487.0,3634.0,4667.0,5678.0,1281.0,1329.0,403.0,316.0,105.0
777108,County,2020/08/31,37.0,NC,37043.0,Clay County,2204.0,8935.0,27783.0,4746.0,5930.0,3922.0,4522.0,5124.0,1586.0,838.0,805.0,211.0,99.0
780257,County,2020/09/01,37.0,NC,37043.0,Clay County,2306.0,8833.0,33359.0,6131.0,7775.0,5369.0,4554.0,7253.0,1243.0,432.0,415.0,140.0,47.0
785030,County,2020/09/02,37.0,NC,37043.0,Clay County,2422.0,8717.0,31200.0,5275.0,5903.0,5392.0,4979.0,6277.0,1371.0,1042.0,813.0,99.0,49.0
788241,County,2020/09/03,37.0,NC,37043.0,Clay County,2236.0,8903.0,36308.0,6742.0,6931.0,5681.0,4257.0,8980.0,1514.0,1140.0,876.0,129.0,58.0
791425,County,2020/09/04,37.0,NC,37043.0,Clay County,2257.0,8882.0,30578.0,5309.0,4814.0,4378.0,4970.0,7488.0,893.0,1169.0,1311.0,197.0,49.0
794618,County,2020/09/05,37.0,NC,37043.0,Clay County,2248.0,8891.0,31951.0,7532.0,6301.0,4356.0,4787.0,5510.0,1102.0,1394.0,730.0,239.0,0.0
797823,County,2020/09/06,37.0,NC,37043.0,Clay County,2643.0,8496.0,22575.0,2768.0,4291.0,4767.0,2804.0,4564.0,814.0,1294.0,1009.0,244.0,20.0
801034,County,2020/09/07,37.0,NC,37043.0,Clay County,2535.0,8604.0,27386.0,4976.0,4768.0,5175.0,4743.0,3596.0,1508.0,1255.0,1206.0,119.0,40.0
802653,County,2020/09/08,37.0,NC,37043.0,Clay County,2363.0,8776.0,32982.0,7422.0,5891.0,3704.0,5865.0,6203.0,1546.0,1425.0,659.0,200.0,67.0
807433,County,2020/09/09,37.0,NC,37043.0,Clay County,2417.0,8722.0,33518.0,6981.0,6104.0,5143.0,5782.0,6007.0,1370.0,773.0,1189.0,117.0,52.0
810589,County,2020/09/10,37.0,NC,37043.0,Clay County,2053.0,9086.0,32780.0,6213.0,5795.0,5471.0,5899.0,5237.0,1487.0,1253.0,980.0,386.0,59.0
812218,County,2020/09/11,37.0,NC,37043.0,Clay County,2308.0,8831.0,35493.0,6953.0,5571.0,5197.0,6631.0,7196.0,1837.0,874.0,988.0,233.0,13.0
815403,County,2020/09/12,37.0,NC,37043.0,Clay County,2509.0,8630.0,26089.0,3263.0,5301.0,3365.0,4584.0,4651.0,2305.0,1378.0,864.0,363.0,15.0
820200,County,2020/09/13,37.0,NC,37043.0,Clay County,2649.0,8490.0,23575.0,2960.0,4383.0,3459.0,4193.0,4284.0,1766.0,1929.0,522.0,59.0,20.0
821829,County,2020/09/14,37.0,NC,37043.0,Clay County,2358.0,8781.0,29828.0,5000.0,5075.0,4894.0,5529.0,5807.0,1383.0,697.0,1004.0,395.0,44.0
824985,County,2020/09/15,37.0,NC,37043.0,Clay County,2368.0,8771.0,30669.0,5079.0,5576.0,5113.0,4236.0,6919.0,1232.0,1457.0,647.0,297.0,113.0
829792,County,2020/09/16,37.0,NC,37043.0,Clay County,2283.0,8856.0,30782.0,3999.0,5778.0,4479.0,5136.0,6275.0,1612.0,1650.0,1216.0,540.0,97.0
832969,County,2020/09/17,37.0,NC,37043.0,Clay County,2477.0,8662.0,27856.0,4545.0,5253.0,4532.0,4875.0,6089.0,1172.0,853.0,292.0,230.0,15.0
834598,County,2020/09/18,37.0,NC,37043.0,Clay County,2185.0,8954.0,31500.0,5249.0,5748.0,4581.0,4526.0,8260.0,1114.0,1051.0,372.0,501.0,98.0
839373,County,2020/09/19,37.0,NC,37043.0,Clay County,2557.0,8582.0,33753.0,6385.0,6182.0,5039.0,5403.0,7306.0,1075.0,1105.0,597.0,626.0,35.0
842536,County,2020/09/20,37.0,NC,37043.0,Clay County,2659.0,8480.0,26170.0,4159.0,4759.0,5203.0,4200.0,4850.0,657.0,1255.0,861.0,181.0,45.0
844164,County,2020/09/21,37.0,NC,37043.0,Clay County,2743.0,8396.0,29703.0,6246.0,5275.0,4930.0,4302.0,5766.0,1092.0,1259.0,700.0,100.0,33.0
847368,County,2020/09/22,37.0,NC,37043.0,Clay County,2405.0,8734.0,29602.0,5131.0,6268.0,5169.0,4470.0,6322.0,1284.0,526.0,225.0,177.0,30.0
852146,County,2020/09/23,37.0,NC,37043.0,Clay County,2338.0,8801.0,29347.0,5162.0,5321.0,4343.0,5146.0,5592.0,1521.0,1318.0,771.0,130.0,43.0
853774,County,2020/09/24,37.0,NC,37043.0,Clay County,2371.0,8768.0,28742.0,3846.0,5719.0,5003.0,4396.0,6218.0,1316.0,977.0,1049.0,174.0,44.0
856931,County,2020/09/25,37.0,NC,37043.0,Clay County,2463.0,8676.0,28491.0,3660.0,6274.0,5420.0,4474.0,6053.0,1178.0,936.0,393.0,88.0,15.0
860117,County,2020/09/26,37.0,NC,37043.0,Clay County,2657.0,8482.0,29390.0,4293.0,6771.0,5080.0,4456.0,5155.0,1784.0,1044.0,334.0,473.0,0.0
864913,County,2020/09/27,37.0,NC,37043.0,Clay County,2453.0,8686.0,25846.0,3880.0,4844.0,5517.0,3667.0,4924.0,1239.0,1353.0,309.0,97.0,16.0
866542,County,2020/09/28,37.0,NC,37043.0,Clay County,2348.0,8791.0,29621.0,5598.0,6658.0,5521.0,4317.0,5202.0,1013.0,614.0,590.0,46.0,62.0
871313,County,2020/09/29,37.0,NC,37043.0,Clay County,2522.0,8617.0,28883.0,2887.0,6391.0,4812.0,4364.0,7429.0,862.0,1546.0,337.0,255.0,0.0
874479,County,2020/09/30,37.0,NC,37043.0,Clay County,2353.0,8786.0,31226.0,4632.0,6702.0,4880.0,4457.0,7699.0,814.0,1455.0,370.0,200.0,17.0
876107,County,2020/10/01,37.0,NC,37043.0,Clay County,2317.0,8822.0,27970.0,3722.0,5211.0,4184.0,4869.0,6765.0,1079.0,1317.0,620.0,175.0,28.0
879310,County,2020/10/02,37.0,NC,37043.0,Clay County,2386.0,8753.0,29349.0,4647.0,5203.0,5518.0,4973.0,5924.0,1572.0,775.0,518.0,214.0,5.0
882526,County,2020/10/03,37.0,NC,37043.0,Clay County,2600.0,8539.0,31797.0,5637.0,4930.0,5394.0,5736.0,6292.0,1382.0,1372.0,811.0,231.0,12.0
886585,County,2020/10/04,37.0,NC,37043.0,Clay County,2480.0,8659.0,24107.0,4019.0,4190.0,3343.0,3603.0,5553.0,847.0,1795.0,658.0,71.0,28.0
889828,County,2020/10/05,37.0,NC,37043.0,Clay County,2556.0,8583.0,28564.0,5096.0,6659.0,3483.0,4242.0,5717.0,925.0,1274.0,981.0,166.0,21.0
892985,County,2020/10/06,37.0,NC,37043.0,Clay County,2283.0,8856.0,32026.0,6639.0,5848.0,4343.0,4689.0,5795.0,1880.0,1657.0,991.0,155.0,29.0
896183,County,2020/10/07,37.0,NC,37043.0,Clay County,2338.0,8801.0,32966.0,6085.0,6113.0,5216.0,5526.0,6339.0,1326.0,1578.0,705.0,65.0,13.0
899365,County,2020/10/08,37.0,NC,37043.0,Clay County,2232.0,8907.0,26729.0,3798.0,5426.0,4532.0,4404.0,5506.0,867.0,955.0,866.0,357.0,18.0
902610,County,2020/10/09,37.0,NC,37043.0,Clay County,2246.0,8893.0,28776.0,4465.0,6478.0,3465.0,5076.0,6437.0,800.0,1175.0,708.0,153.0,19.0
905788,County,2020/10/10,37.0,NC,37043.0,Clay County,2622.0,8517.0,29847.0,5526.0,6150.0,3801.0,4381.0,6322.0,2081.0,764.0,651.0,156.0,15.0
908387,County,2020/10/11,37.0,NC,37043.0,Clay County,2525.0,8614.0,20896.0,1837.0,3325.0,3192.0,3549.0,4485.0,1283.0,1388.0,1545.0,283.0,9.0
911582,County,2020/10/12,37.0,NC,37043.0,Clay County,2420.0,8719.0,27060.0,3004.0,6233.0,3730.0,4674.0,5756.0,1583.0,978.0,830.0,258.0,14.0
914752,County,2020/10/13,37.0,NC,37043.0,Clay County,2454.0,8685.0,27054.0,4922.0,4621.0,3706.0,5830.0,5234.0,1007.0,896.0,689.0,122.0,27.0
917782,County,2020/10/14,37.0,NC,37043.0,Clay County,2524.0,8615.0,25704.0,2634.0,3818.0,2906.0,5059.0,7171.0,1247.0,2048.0,591.0,215.0,15.0
921435,County,2020/10/15,37.0,NC,37043.0,Clay County,2333.0,8806.0,25276.0,4703.0,3934.0,2338.0,4686.0,5904.0,853.0,1694.0,979.0,162.0,23.0
924305,County,2020/10/16,37.0,NC,37043.0,Clay County,2254.0,8885.0,29005.0,3810.0,5183.0,3879.0,5004.0,6570.0,1860.0,1544.0,956.0,180.0,19.0
926870,County,2020/10/17,37.0,NC,37043.0,Clay County,2547.0,8592.0,27819.0,2563.0,5492.0,4632.0,5260.0,6685.0,1428.0,1049.0,454.0,228.0,28.0
930725,County,2020/10/18,37.0,NC,37043.0,Clay County,2478.0,8661.0,22705.0,2709.0,3174.0,2995.0,2299.0,5667.0,2611.0,1471.0,1415.0,343.0,21.0
933790,County,2020/10/19,37.0,NC,37043.0,Clay County,2443.0,8696.0,33162.0,6014.0,6445.0,4529.0,4458.0,8058.0,1189.0,1273.0,967.0,219.0,10.0
937055,County,2020/10/20,37.0,NC,37043.0,Clay County,2504.0,8635.0,30477.0,5719.0,6230.0,3653.0,4930.0,6640.0,1748.0,814.0,539.0,194.0,10.0
939689,County,2020/10/21,37.0,NC,37043.0,Clay County,2451.0,8688.0,27721.0,4365.0,4595.0,4013.0,4489.0,7397.0,1291.0,692.0,650.0,198.0,31.0
943886,County,2020/10/22,37.0,NC,37043.0,Clay County,2217.0,8922.0,33207.0,6089.0,6171.0,5076.0,5036.0,6206.0,2014.0,1410.0,1018.0,150.0,37.0
946647,County,2020/10/23,37.0,NC,37043.0,Clay County,2325.0,8814.0,34638.0,6138.0,6581.0,4652.0,5259.0,8475.0,1643.0,859.0,907.0,81.0,43.0
950695,County,2020/10/24,37.0,NC,37043.0,Clay County,2464.0,8675.0,30987.0,6094.0,4405.0,4650.0,5894.0,5857.0,2108.0,1225.0,387.0,344.0,23.0
