,Level,Date,State FIPS,State Postal Code,County FIPS,County Name,Population Staying at Home,Population Not Staying at Home,Number of Trips,Number of Trips <1,Number of Trips 1-3,Number of Trips 3-5,Number of Trips 5-10,Number of Trips 10-25,Number of Trips 25-50,Number of Trips 50-100,Number of Trips 100-250,Number of Trips 250-500,Number of Trips >=500
2280,County,2020/01/01,42.0,PA,42075.0,Lebanon County,34225.0,107089.0,395079.0,96136.0,98512.0,49654.0,63688.0,60278.0,16792.0,5788.0,3678.0,312.0,241.0
4745,County,2020/01/02,42.0,PA,42075.0,Lebanon County,26850.0,114464.0,552765.0,137868.0,137159.0,62102.0,86698.0,88500.0,30532.0,6680.0,2906.0,245.0,75.0
9212,County,2020/01/03,42.0,PA,42075.0,Lebanon County,26258.0,115056.0,556394.0,129616.0,139353.0,63136.0,88525.0,95096.0,30267.0,6722.0,3282.0,272.0,125.0
10649,County,2020/01/04,42.0,PA,42075.0,Lebanon County,29393.0,111921.0,510244.0,114789.0,129554.0,66090.0,82802.0,83152.0,25106.0,5450.0,2834.0,234.0,233.0
15056,County,2020/01/05,42.0,PA,42075.0,Lebanon County,33108.0,108206.0,422274.0,85197.0,113376.0,50723.0,73301.0,69983.0,21401.0,5204.0,2654.0,245.0,190.0
18689,County,2020/01/06,42.0,PA,42075.0,Lebanon County,27795.0,113519.0,526380.0,132200.0,119851.0,61459.0,84192.0,88298.0,31457.0,5968.0,2553.0,211.0,191.0
21884,County,2020/01/07,42.0,PA,42075.0,Lebanon County,26986.0,114328.0,514394.0,133261.0,124513.0,57869.0,73847.0,84959.0,29804.0,6663.0,3148.0,209.0,121.0
25079,County,2020/01/08,42.0,PA,42075.0,Lebanon County,26428.0,114886.0,539588.0,134718.0,137548.0,60109.0,77924.0,90057.0,29821.0,5884.0,3201.0,193.0,133.0
28259,County,2020/01/09,42.0,PA,42075.0,Lebanon County,25687.0,115627.0,554852.0,135604.0,140246.0,63699.0,83654.0,92760.0,29284.0,6228.0,3014.0,214.0,149.0
31466,County,2020/01/10,42.0,PA,42075.0,Lebanon County,25047.0,116267.0,601386.0,149386.0,152201.0,67858.0,90915.0,99735.0,31462.0,6012.0,3456.0,213.0,148.0
33143,County,2020/01/11,42.0,PA,42075.0,Lebanon County,27990.0,113324.0,559815.0,137459.0,148096.0,66734.0,80968.0,86097.0,30464.0,6669.0,2954.0,221.0,153.0
36299,County,2020/01/12,42.0,PA,42075.0,Lebanon County,31126.0,110188.0,488075.0,124018.0,124859.0,64504.0,73865.0,70733.0,21336.0,5722.0,2771.0,149.0,118.0
41077,County,2020/01/13,42.0,PA,42075.0,Lebanon County,26774.0,114540.0,602006.0,185003.0,147527.0,59920.0,82842.0,87387.0,30458.0,5696.0,2897.0,161.0,115.0
44226,County,2020/01/14,42.0,PA,42075.0,Lebanon County,25640.0,115674.0,612285.0,186632.0,152839.0,60439.0,80584.0,90858.0,31589.0,5937.0,3055.0,250.0,102.0
47431,County,2020/01/15,42.0,PA,42075.0,Lebanon County,26206.0,115108.0,566504.0,143534.0,143922.0,58855.0,83428.0,96032.0,31675.0,5779.0,2961.0,179.0,139.0
48960,County,2020/01/16,42.0,PA,42075.0,Lebanon County,25883.0,115431.0,552137.0,141319.0,137810.0,62149.0,81279.0,90754.0,28311.0,6593.0,3577.0,223.0,122.0
53875,County,2020/01/17,42.0,PA,42075.0,Lebanon County,24659.0,116655.0,595955.0,142741.0,151075.0,68101.0,95170.0,98030.0,30736.0,6689.0,3139.0,178.0,96.0
55448,County,2020/01/18,42.0,PA,42075.0,Lebanon County,35625.0,105689.0,482889.0,136776.0,136183.0,58379.0,68154.0,60001.0,15304.0,4964.0,2517.0,411.0,200.0
58596,County,2020/01/19,42.0,PA,42075.0,Lebanon County,32865.0,108449.0,480232.0,125406.0,128939.0,59665.0,70120.0,67261.0,19629.0,5162.0,3401.0,470.0,179.0
61828,County,2020/01/20,42.0,PA,42075.0,Lebanon County,28050.0,113264.0,494888.0,117087.0,123803.0,52206.0,78368.0,84648.0,27915.0,6635.0,3742.0,327.0,157.0
65034,County,2020/01/21,42.0,PA,42075.0,Lebanon County,26513.0,114801.0,556024.0,137290.0,137725.0,62249.0,82107.0,94600.0,30603.0,7170.0,3877.0,320.0,83.0
69794,County,2020/01/22,42.0,PA,42075.0,Lebanon County,25345.0,115969.0,580683.0,147060.0,142441.0,63362.0,86860.0,99359.0,31357.0,6881.0,3052.0,231.0,80.0
71420,County,2020/01/23,42.0,PA,42075.0,Lebanon County,26126.0,115188.0,548927.0,136762.0,134888.0,58989.0,82304.0,94441.0,31238.0,7065.0,2847.0,296.0,97.0
74568,County,2020/01/24,42.0,PA,42075.0,Lebanon County,25857.0,115457.0,597230.0,143010.0,150064.0,68897.0,91587.0,101677.0,31334.0,7263.0,3113.0,182.0,103.0
79369,County,2020/01/25,42.0,PA,42075.0,Lebanon County,29329.0,111985.0,530332.0,122454.0,139792.0,65204.0,80032.0,83911.0,27781.0,7708.0,3201.0,190.0,59.0
82130,County,2020/01/26,42.0,PA,42075.0,Lebanon County,30302.0,111012.0,468805.0,102762.0,128333.0,58750.0,72412.0,72785.0,23737.0,6235.0,3327.0,306.0,158.0
83101,County,2020/01/27,42.0,PA,42075.0,Lebanon County,26300.0,115014.0,546012.0,142086.0,135410.0,63486.0,77957.0,88257.0,28565.0,7009.0,2939.0,192.0,111.0
87986,County,2020/01/28,42.0,PA,42075.0,Lebanon County,25940.0,115374.0,552684.0,139432.0,136691.0,59883.0,86292.0,91096.0,29886.0,5947.0,3133.0,219.0,105.0
92139,County,2020/01/29,42.0,PA,42075.0,Lebanon County,25718.0,115596.0,568928.0,144721.0,143180.0,59865.0,88049.0,92859.0,30372.0,6745.0,2920.0,121.0,96.0
95345,County,2020/01/30,42.0,PA,42075.0,Lebanon County,25890.0,115424.0,541464.0,135462.0,132446.0,61476.0,82806.0,86034.0,30902.0,7764.0,3809.0,438.0,327.0
98539,County,2020/01/31,42.0,PA,42075.0,Lebanon County,24399.0,116915.0,579038.0,138316.0,142491.0,68552.0,92420.0,92328.0,32220.0,8024.0,3904.0,440.0,343.0
101727,County,2020/02/01,42.0,PA,42075.0,Lebanon County,27580.0,113734.0,554018.0,132814.0,144971.0,72821.0,86023.0,76977.0,28096.0,8202.0,3443.0,346.0,325.0
104929,County,2020/02/02,42.0,PA,42075.0,Lebanon County,30497.0,110817.0,473604.0,112679.0,126193.0,65227.0,73357.0,64005.0,22292.0,6074.0,2964.0,465.0,348.0
108132,County,2020/02/03,42.0,PA,42075.0,Lebanon County,25638.0,115676.0,557752.0,145239.0,137729.0,63403.0,84400.0,85827.0,28357.0,8198.0,3915.0,467.0,217.0
109749,County,2020/02/04,42.0,PA,42075.0,Lebanon County,24825.0,116489.0,532820.0,132414.0,125057.0,58021.0,86145.0,85488.0,32884.0,7970.0,4051.0,478.0,312.0
112895,County,2020/02/05,42.0,PA,42075.0,Lebanon County,25767.0,115547.0,546497.0,134367.0,132073.0,62967.0,83343.0,89205.0,31291.0,8474.0,4045.0,445.0,287.0
116039,County,2020/02/06,42.0,PA,42075.0,Lebanon County,25089.0,116225.0,535224.0,129905.0,133424.0,58030.0,82486.0,87072.0,31687.0,7607.0,4273.0,473.0,267.0
120932,County,2020/02/07,42.0,PA,42075.0,Lebanon County,23907.0,117407.0,561005.0,137373.0,145688.0,64764.0,81528.0,87900.0,30671.0,8276.0,3905.0,560.0,340.0
124092,County,2020/02/08,42.0,PA,42075.0,Lebanon County,27825.0,113489.0,531034.0,119419.0,135094.0,66458.0,82771.0,84176.0,30785.0,7775.0,3812.0,418.0,326.0
126294,County,2020/02/09,42.0,PA,42075.0,Lebanon County,32833.0,108481.0,407743.0,91344.0,110151.0,51358.0,64657.0,60694.0,17400.0,6136.0,4237.0,1249.0,517.0
130589,County,2020/02/10,42.0,PA,42075.0,Lebanon County,25530.0,115784.0,510336.0,117706.0,126493.0,61475.0,79497.0,82083.0,28216.0,8575.0,4236.0,1525.0,530.0
132598,County,2020/02/11,42.0,PA,42075.0,Lebanon County,23371.0,117943.0,505883.0,116355.0,126549.0,60944.0,78570.0,78724.0,29588.0,8721.0,4743.0,1156.0,533.0
134201,County,2020/02/12,42.0,PA,42075.0,Lebanon County,23543.0,117771.0,523643.0,121925.0,128613.0,59734.0,81769.0,86235.0,29962.0,8406.0,5400.0,993.0,606.0
140061,County,2020/02/13,42.0,PA,42075.0,Lebanon County,22904.0,118410.0,509245.0,115516.0,125586.0,60241.0,78320.0,82163.0,30708.0,9108.0,5743.0,1166.0,694.0
143264,County,2020/02/14,42.0,PA,42075.0,Lebanon County,22951.0,118363.0,557400.0,126167.0,128604.0,68106.0,91704.0,91383.0,34192.0,9388.0,5541.0,1519.0,796.0
144888,County,2020/02/15,42.0,PA,42075.0,Lebanon County,25559.0,115755.0,517602.0,107984.0,124155.0,68491.0,89883.0,81526.0,30193.0,8122.0,5332.0,1235.0,681.0
148077,County,2020/02/16,42.0,PA,42075.0,Lebanon County,29458.0,111856.0,439932.0,98634.0,106470.0,59528.0,72685.0,64510.0,23040.0,7564.0,5459.0,1301.0,741.0
151253,County,2020/02/17,42.0,PA,42075.0,Lebanon County,32658.0,108656.0,426228.0,99200.0,95887.0,50445.0,70041.0,72355.0,25058.0,7500.0,4361.0,902.0,479.0
156032,County,2020/02/18,42.0,PA,42075.0,Lebanon County,24804.0,116510.0,495115.0,112048.0,112333.0,61949.0,77093.0,85837.0,30265.0,7701.0,6004.0,1244.0,641.0
157660,County,2020/02/19,42.0,PA,42075.0,Lebanon County,24448.0,116866.0,523175.0,119011.0,125830.0,63274.0,83040.0,86766.0,31377.0,8420.0,4055.0,846.0,556.0
160721,County,2020/02/20,42.0,PA,42075.0,Lebanon County,25808.0,115506.0,524137.0,122859.0,121217.0,64493.0,84022.0,86766.0,31276.0,8648.0,3961.0,616.0,279.0
163999,County,2020/02/21,42.0,PA,42075.0,Lebanon County,24533.0,116781.0,561939.0,125203.0,136445.0,72392.0,88966.0,89277.0,33467.0,9388.0,5636.0,711.0,454.0
168759,County,2020/02/22,42.0,PA,42075.0,Lebanon County,26457.0,114857.0,547265.0,118552.0,134824.0,74093.0,94093.0,83512.0,28223.0,8006.0,4909.0,517.0,536.0
170421,County,2020/02/23,42.0,PA,42075.0,Lebanon County,30307.0,111007.0,454423.0,97926.0,120739.0,55755.0,78830.0,68828.0,21332.0,7482.0,2895.0,332.0,304.0
173585,County,2020/02/24,42.0,PA,42075.0,Lebanon County,24489.0,116825.0,517852.0,127718.0,130410.0,60416.0,80127.0,80276.0,27885.0,6719.0,2655.0,1099.0,547.0
177951,County,2020/02/25,42.0,PA,42075.0,Lebanon County,22580.0,118734.0,552720.0,129980.0,128953.0,64308.0,88480.0,93404.0,35765.0,7388.0,3068.0,1056.0,318.0
181144,County,2020/02/26,42.0,PA,42075.0,Lebanon County,26644.0,114670.0,516898.0,117592.0,133142.0,59007.0,81465.0,90004.0,26289.0,5310.0,3068.0,574.0,447.0
184773,County,2020/02/27,42.0,PA,42075.0,Lebanon County,23636.0,117678.0,542561.0,127358.0,135020.0,62362.0,80534.0,93390.0,33294.0,6941.0,3163.0,297.0,202.0
186499,County,2020/02/28,42.0,PA,42075.0,Lebanon County,23511.0,117803.0,558902.0,124351.0,141547.0,69071.0,88972.0,92213.0,31881.0,7128.0,3190.0,357.0,192.0
189552,County,2020/02/29,42.0,PA,42075.0,Lebanon County,25505.0,115809.0,543017.0,118090.0,145444.0,66660.0,89702.0,84357.0,28321.0,6427.0,3218.0,438.0,360.0
194385,County,2020/03/01,42.0,PA,42075.0,Lebanon County,29147.0,112167.0,471547.0,114192.0,125361.0,53807.0,75139.0,71901.0,19781.0,7015.0,3337.0,629.0,385.0
197541,County,2020/03/02,42.0,PA,42075.0,Lebanon County,25689.0,115625.0,558668.0,138611.0,137071.0,65612.0,84843.0,90902.0,30135.0,7391.0,3363.0,403.0,337.0
199072,County,2020/03/03,42.0,PA,42075.0,Lebanon County,24093.0,117221.0,565350.0,136081.0,137104.0,65472.0,85586.0,91810.0,33954.0,9638.0,4845.0,562.0,298.0
201499,County,2020/03/04,42.0,PA,42075.0,Lebanon County,24269.0,117045.0,583682.0,144725.0,137295.0,65009.0,89938.0,98167.0,33006.0,10194.0,4712.0,364.0,272.0
205519,County,2020/03/05,42.0,PA,42075.0,Lebanon County,22492.0,118822.0,580656.0,135958.0,142985.0,66054.0,89606.0,94573.0,35527.0,10347.0,4869.0,407.0,330.0
208638,County,2020/03/06,42.0,PA,42075.0,Lebanon County,23826.0,117488.0,582151.0,133842.0,142345.0,63166.0,94652.0,94249.0,36835.0,11149.0,5021.0,435.0,457.0
213553,County,2020/03/07,42.0,PA,42075.0,Lebanon County,25439.0,115875.0,557849.0,118908.0,146129.0,65023.0,94168.0,88672.0,29621.0,9368.0,4803.0,600.0,557.0
215154,County,2020/03/08,42.0,PA,42075.0,Lebanon County,29149.0,112165.0,496557.0,120339.0,125392.0,55373.0,83066.0,74819.0,21845.0,9621.0,5158.0,546.0,398.0
219912,County,2020/03/09,42.0,PA,42075.0,Lebanon County,25147.0,116167.0,569483.0,143066.0,134080.0,62290.0,90929.0,95305.0,30379.0,7553.0,4943.0,593.0,345.0
221541,County,2020/03/10,42.0,PA,42075.0,Lebanon County,25321.0,115993.0,559912.0,142649.0,130956.0,58490.0,88647.0,88033.0,35918.0,10031.0,4411.0,459.0,318.0
224730,County,2020/03/11,42.0,PA,42075.0,Lebanon County,24947.0,116367.0,512008.0,132769.0,131006.0,43358.0,76554.0,78358.0,28985.0,11048.0,8884.0,521.0,525.0
229427,County,2020/03/12,42.0,PA,42075.0,Lebanon County,25571.0,115743.0,503667.0,130433.0,126833.0,50880.0,74245.0,66522.0,30743.0,13246.0,9385.0,673.0,707.0
231123,County,2020/03/13,42.0,PA,42075.0,Lebanon County,24920.0,116394.0,551485.0,160013.0,137932.0,54889.0,72738.0,70736.0,30336.0,13969.0,9157.0,820.0,895.0
235799,County,2020/03/14,42.0,PA,42075.0,Lebanon County,31180.0,110134.0,474754.0,116997.0,124106.0,56494.0,68145.0,65862.0,20677.0,11657.0,9344.0,341.0,1131.0
239076,County,2020/03/15,42.0,PA,42075.0,Lebanon County,34712.0,106602.0,460854.0,116484.0,112463.0,56493.0,78722.0,66786.0,18305.0,6414.0,4307.0,361.0,519.0
240703,County,2020/03/16,42.0,PA,42075.0,Lebanon County,29817.0,111497.0,541408.0,141249.0,131019.0,59533.0,83046.0,82657.0,27254.0,9542.0,6503.0,337.0,268.0
245462,County,2020/03/17,42.0,PA,42075.0,Lebanon County,33774.0,107540.0,462037.0,111596.0,105670.0,48886.0,72180.0,80080.0,28225.0,9352.0,5316.0,326.0,406.0
248617,County,2020/03/18,42.0,PA,42075.0,Lebanon County,35317.0,105997.0,482559.0,120101.0,117792.0,52041.0,67752.0,83491.0,26402.0,9259.0,5135.0,298.0,288.0
250296,County,2020/03/19,42.0,PA,42075.0,Lebanon County,36539.0,104775.0,471908.0,115586.0,111615.0,54900.0,75291.0,77215.0,24545.0,7344.0,4644.0,476.0,292.0
255047,County,2020/03/20,42.0,PA,42075.0,Lebanon County,36238.0,105076.0,468295.0,113255.0,120072.0,56579.0,69964.0,71847.0,23067.0,7530.0,5138.0,456.0,387.0
256624,County,2020/03/21,42.0,PA,42075.0,Lebanon County,41555.0,99759.0,431369.0,102056.0,117569.0,61089.0,64736.0,61240.0,14336.0,5094.0,4178.0,492.0,579.0
259860,County,2020/03/22,42.0,PA,42075.0,Lebanon County,41332.0,99982.0,357066.0,92521.0,101148.0,39734.0,53954.0,48009.0,11592.0,5647.0,3539.0,466.0,456.0
263064,County,2020/03/23,42.0,PA,42075.0,Lebanon County,38259.0,103055.0,364050.0,79823.0,93236.0,38890.0,58727.0,61311.0,20771.0,6412.0,4178.0,413.0,289.0
267819,County,2020/03/24,42.0,PA,42075.0,Lebanon County,37364.0,103950.0,385212.0,105859.0,90626.0,43232.0,55089.0,60628.0,20237.0,4793.0,4022.0,393.0,333.0
271017,County,2020/03/25,42.0,PA,42075.0,Lebanon County,38004.0,103310.0,364826.0,89892.0,87850.0,44164.0,54395.0,57672.0,19337.0,7235.0,3524.0,474.0,283.0
274190,County,2020/03/26,42.0,PA,42075.0,Lebanon County,37155.0,104159.0,389632.0,101514.0,96393.0,46366.0,55148.0,60671.0,18503.0,6112.0,4364.0,267.0,294.0
275830,County,2020/03/27,42.0,PA,42075.0,Lebanon County,36710.0,104604.0,412908.0,105095.0,112020.0,47077.0,59429.0,59109.0,19179.0,6917.0,3546.0,229.0,307.0
280591,County,2020/03/28,42.0,PA,42075.0,Lebanon County,40849.0,100465.0,332165.0,74406.0,99990.0,44903.0,53009.0,41782.0,11641.0,3296.0,2333.0,357.0,448.0
282226,County,2020/03/29,42.0,PA,42075.0,Lebanon County,42658.0,98656.0,302196.0,70433.0,87984.0,38112.0,49184.0,37848.0,10086.0,4184.0,3545.0,483.0,337.0
285371,County,2020/03/30,42.0,PA,42075.0,Lebanon County,35399.0,105915.0,368277.0,84247.0,93309.0,49010.0,58576.0,56085.0,17047.0,6311.0,2866.0,362.0,464.0
290174,County,2020/03/31,42.0,PA,42075.0,Lebanon County,36847.0,104467.0,377095.0,93756.0,88614.0,43295.0,62103.0,61083.0,17939.0,5658.0,3922.0,346.0,379.0
293373,County,2020/04/01,42.0,PA,42075.0,Lebanon County,37341.0,103973.0,384107.0,94711.0,97471.0,43790.0,58922.0,59022.0,20982.0,5190.0,3259.0,381.0,379.0
295002,County,2020/04/02,42.0,PA,42075.0,Lebanon County,38175.0,103139.0,361513.0,90161.0,89661.0,38057.0,58614.0,56075.0,17534.0,6592.0,4082.0,439.0,298.0
299762,County,2020/04/03,42.0,PA,42075.0,Lebanon County,37534.0,103780.0,378351.0,90083.0,95711.0,46395.0,59476.0,56940.0,19338.0,5950.0,3734.0,442.0,282.0
302942,County,2020/04/04,42.0,PA,42075.0,Lebanon County,41222.0,100092.0,336212.0,77332.0,95208.0,46763.0,53343.0,42198.0,12666.0,4674.0,3083.0,360.0,585.0
304570,County,2020/04/05,42.0,PA,42075.0,Lebanon County,42396.0,98918.0,326583.0,85498.0,92277.0,40622.0,50707.0,38843.0,10048.0,4291.0,3255.0,690.0,352.0
309344,County,2020/04/06,42.0,PA,42075.0,Lebanon County,38172.0,103142.0,408942.0,110328.0,102696.0,44640.0,63012.0,62177.0,19200.0,3812.0,2595.0,245.0,237.0
310971,County,2020/04/07,42.0,PA,42075.0,Lebanon County,37631.0,103683.0,418552.0,115414.0,99174.0,49620.0,66305.0,59909.0,20063.0,5368.0,2159.0,427.0,113.0
314166,County,2020/04/08,42.0,PA,42075.0,Lebanon County,36962.0,104352.0,405540.0,100085.0,105532.0,49302.0,64032.0,58750.0,18789.0,5784.0,2703.0,392.0,171.0
318876,County,2020/04/09,42.0,PA,42075.0,Lebanon County,39516.0,101798.0,408852.0,102939.0,101312.0,49304.0,61584.0,64345.0,20383.0,5711.0,2835.0,308.0,131.0
320562,County,2020/04/10,42.0,PA,42075.0,Lebanon County,38209.0,103105.0,406699.0,101344.0,108943.0,49899.0,63020.0,57313.0,17560.0,5360.0,2647.0,305.0,308.0
325314,County,2020/04/11,42.0,PA,42075.0,Lebanon County,37902.0,103412.0,437033.0,102761.0,129938.0,59404.0,72772.0,53646.0,12384.0,3301.0,2239.0,388.0,200.0
328481,County,2020/04/12,42.0,PA,42075.0,Lebanon County,44768.0,96546.0,300610.0,68980.0,90393.0,37740.0,49049.0,40683.0,9398.0,2388.0,1600.0,132.0,247.0
331703,County,2020/04/13,42.0,PA,42075.0,Lebanon County,40455.0,100859.0,370561.0,92435.0,89936.0,44561.0,54569.0,60144.0,20417.0,5410.0,2535.0,317.0,237.0
333281,County,2020/04/14,42.0,PA,42075.0,Lebanon County,37057.0,104257.0,415985.0,104503.0,132938.0,42906.0,52726.0,60292.0,15036.0,4041.0,2801.0,559.0,183.0
338081,County,2020/04/15,42.0,PA,42075.0,Lebanon County,35434.0,105880.0,415776.0,107824.0,114970.0,52569.0,58108.0,56934.0,15491.0,6141.0,2947.0,425.0,367.0
341225,County,2020/04/16,42.0,PA,42075.0,Lebanon County,38277.0,103037.0,434566.0,110993.0,135038.0,47862.0,62848.0,55753.0,14247.0,4183.0,2900.0,471.0,271.0
343009,County,2020/04/17,42.0,PA,42075.0,Lebanon County,34058.0,107256.0,421536.0,107312.0,122749.0,47427.0,62879.0,55385.0,15769.0,5133.0,4082.0,471.0,329.0
347635,County,2020/04/18,42.0,PA,42075.0,Lebanon County,38521.0,102793.0,411911.0,96031.0,136173.0,48110.0,59069.0,49286.0,14580.0,5452.0,2268.0,491.0,451.0
350867,County,2020/04/19,42.0,PA,42075.0,Lebanon County,39240.0,102074.0,339785.0,90016.0,101595.0,38343.0,51359.0,38655.0,11980.0,4711.0,2482.0,352.0,292.0
354067,County,2020/04/20,42.0,PA,42075.0,Lebanon County,35479.0,105835.0,408013.0,114348.0,115098.0,45288.0,54480.0,53647.0,16015.0,5069.0,2903.0,549.0,616.0
357253,County,2020/04/21,42.0,PA,42075.0,Lebanon County,37508.0,103806.0,397304.0,94584.0,100334.0,49854.0,56917.0,66932.0,18580.0,6557.0,2960.0,444.0,142.0
358881,County,2020/04/22,42.0,PA,42075.0,Lebanon County,36503.0,104811.0,426001.0,103878.0,112737.0,46787.0,65330.0,67359.0,20451.0,5746.0,3391.0,226.0,96.0
361987,County,2020/04/23,42.0,PA,42075.0,Lebanon County,35810.0,105504.0,443332.0,111885.0,109279.0,51158.0,67061.0,71278.0,22282.0,6628.0,3473.0,192.0,96.0
366875,County,2020/04/24,42.0,PA,42075.0,Lebanon County,35072.0,106242.0,432580.0,94881.0,113729.0,57097.0,69376.0,66219.0,21201.0,6818.0,2928.0,216.0,115.0
368408,County,2020/04/25,42.0,PA,42075.0,Lebanon County,36216.0,105098.0,443580.0,106660.0,120006.0,64622.0,71215.0,58506.0,14878.0,4482.0,2725.0,327.0,159.0
371574,County,2020/04/26,42.0,PA,42075.0,Lebanon County,42388.0,98926.0,333996.0,74373.0,95978.0,39701.0,62679.0,40252.0,12068.0,5898.0,2650.0,227.0,170.0
374851,County,2020/04/27,42.0,PA,42075.0,Lebanon County,35040.0,106274.0,438275.0,104110.0,111748.0,52590.0,67975.0,69029.0,22623.0,7139.0,2784.0,139.0,138.0
378002,County,2020/04/28,42.0,PA,42075.0,Lebanon County,34523.0,106791.0,459402.0,116493.0,109962.0,60631.0,69766.0,71770.0,22185.0,5950.0,2314.0,241.0,90.0
381254,County,2020/04/29,42.0,PA,42075.0,Lebanon County,34077.0,107237.0,473136.0,118990.0,119222.0,58028.0,71798.0,76844.0,20170.0,4800.0,2930.0,298.0,56.0
386000,County,2020/04/30,42.0,PA,42075.0,Lebanon County,35956.0,105358.0,400845.0,91835.0,98293.0,47870.0,60524.0,68743.0,21602.0,7953.0,3658.0,263.0,104.0
387626,County,2020/05/01,42.0,PA,42075.0,Lebanon County,31535.0,109779.0,480392.0,123981.0,116961.0,63799.0,70620.0,72747.0,22228.0,7213.0,2522.0,230.0,91.0
392387,County,2020/05/02,42.0,PA,42075.0,Lebanon County,34785.0,106529.0,478002.0,120836.0,127106.0,63787.0,72146.0,69567.0,16182.0,5562.0,2554.0,150.0,112.0
394022,County,2020/05/03,42.0,PA,42075.0,Lebanon County,37929.0,103385.0,410371.0,112368.0,102226.0,50494.0,65435.0,55815.0,15883.0,4843.0,2860.0,224.0,223.0
398776,County,2020/05/04,42.0,PA,42075.0,Lebanon County,33818.0,107496.0,467324.0,111098.0,112648.0,52063.0,75707.0,81657.0,23956.0,7042.0,2818.0,166.0,169.0
400403,County,2020/05/05,42.0,PA,42075.0,Lebanon County,33912.0,107402.0,461881.0,108147.0,119389.0,55898.0,76919.0,70014.0,21467.0,6334.0,3484.0,186.0,43.0
405158,County,2020/05/06,42.0,PA,42075.0,Lebanon County,34127.0,107187.0,436192.0,99488.0,113217.0,48004.0,68709.0,70211.0,25565.0,7343.0,3378.0,111.0,166.0
406784,County,2020/05/07,42.0,PA,42075.0,Lebanon County,32747.0,108567.0,461740.0,109828.0,109978.0,51682.0,76182.0,78675.0,23605.0,7002.0,4280.0,251.0,257.0
410089,County,2020/05/08,42.0,PA,42075.0,Lebanon County,33841.0,107473.0,453567.0,95684.0,116287.0,52828.0,77305.0,78075.0,22210.0,6514.0,4230.0,328.0,106.0
414711,County,2020/05/09,42.0,PA,42075.0,Lebanon County,35232.0,106082.0,446776.0,102860.0,123109.0,57362.0,74985.0,60006.0,19957.0,5407.0,2875.0,169.0,46.0
416373,County,2020/05/10,42.0,PA,42075.0,Lebanon County,37456.0,103858.0,398332.0,99630.0,104796.0,48369.0,64354.0,57405.0,16946.0,4269.0,2233.0,167.0,163.0
421122,County,2020/05/11,42.0,PA,42075.0,Lebanon County,32003.0,109311.0,467851.0,127351.0,107300.0,48539.0,68938.0,75784.0,26659.0,8417.0,4384.0,313.0,166.0
422800,County,2020/05/12,42.0,PA,42075.0,Lebanon County,30251.0,111063.0,499041.0,132310.0,119210.0,58142.0,72054.0,75856.0,27773.0,8615.0,4455.0,474.0,152.0
427522,County,2020/05/13,42.0,PA,42075.0,Lebanon County,30383.0,110931.0,482247.0,137388.0,112737.0,53229.0,69656.0,74151.0,22604.0,6896.0,4875.0,399.0,312.0
430716,County,2020/05/14,42.0,PA,42075.0,Lebanon County,30759.0,110555.0,486512.0,142180.0,114123.0,52926.0,63913.0,74167.0,24928.0,8670.0,4706.0,372.0,527.0
432345,County,2020/05/15,42.0,PA,42075.0,Lebanon County,30518.0,110796.0,487493.0,134147.0,113947.0,54131.0,71018.0,72852.0,24939.0,9581.0,5928.0,484.0,466.0
435568,County,2020/05/16,42.0,PA,42075.0,Lebanon County,32293.0,109021.0,495362.0,149892.0,116052.0,62862.0,68874.0,66541.0,19778.0,5688.0,4831.0,351.0,493.0
438721,County,2020/05/17,42.0,PA,42075.0,Lebanon County,31029.0,110285.0,456866.0,113790.0,125394.0,54601.0,65182.0,65837.0,21557.0,6013.0,4022.0,241.0,229.0
441966,County,2020/05/18,42.0,PA,42075.0,Lebanon County,25824.0,115490.0,556430.0,147362.0,124230.0,69692.0,81906.0,90821.0,30028.0,8348.0,3796.0,205.0,42.0
445120,County,2020/05/19,42.0,PA,42075.0,Lebanon County,24120.0,117194.0,540745.0,134940.0,129067.0,64988.0,82052.0,88672.0,28208.0,8749.0,3760.0,255.0,54.0
448287,County,2020/05/20,42.0,PA,42075.0,Lebanon County,26307.0,115007.0,536829.0,135561.0,124273.0,62461.0,84642.0,88039.0,28242.0,9099.0,4078.0,306.0,128.0
452722,County,2020/05/21,42.0,PA,42075.0,Lebanon County,24390.0,116924.0,549748.0,149800.0,122886.0,66827.0,75356.0,90843.0,29805.0,7657.0,5950.0,350.0,274.0
456267,County,2020/05/22,42.0,PA,42075.0,Lebanon County,23491.0,117823.0,531354.0,122410.0,130343.0,61059.0,82359.0,92394.0,29580.0,7931.0,4194.0,272.0,812.0
457890,County,2020/05/23,42.0,PA,42075.0,Lebanon County,25898.0,115416.0,497568.0,115953.0,122094.0,64197.0,94783.0,68854.0,21392.0,6571.0,2746.0,224.0,754.0
461058,County,2020/05/24,42.0,PA,42075.0,Lebanon County,32258.0,109056.0,416168.0,112758.0,98696.0,49059.0,66622.0,56574.0,20048.0,6717.0,3935.0,305.0,1454.0
464261,County,2020/05/25,42.0,PA,42075.0,Lebanon County,30779.0,110535.0,386161.0,100787.0,95630.0,44629.0,59951.0,53336.0,17781.0,5852.0,5876.0,402.0,1917.0
467464,County,2020/05/26,42.0,PA,42075.0,Lebanon County,28075.0,113239.0,468874.0,126744.0,104373.0,51787.0,73318.0,72815.0,26063.0,7449.0,4740.0,296.0,1289.0
470671,County,2020/05/27,42.0,PA,42075.0,Lebanon County,29013.0,112301.0,514632.0,139241.0,121932.0,53489.0,77151.0,79604.0,28131.0,8231.0,5706.0,414.0,733.0
475432,County,2020/05/28,42.0,PA,42075.0,Lebanon County,30785.0,110529.0,474584.0,121005.0,105993.0,52501.0,72209.0,81296.0,25894.0,9335.0,6038.0,278.0,35.0
478621,County,2020/05/29,42.0,PA,42075.0,Lebanon County,31254.0,110060.0,475926.0,121229.0,107157.0,51955.0,72852.0,82087.0,27142.0,8276.0,5004.0,210.0,14.0
480199,County,2020/05/30,42.0,PA,42075.0,Lebanon County,33152.0,108162.0,487199.0,133099.0,121272.0,62360.0,71756.0,66962.0,20453.0,6168.0,4858.0,210.0,61.0
484966,County,2020/05/31,42.0,PA,42075.0,Lebanon County,34503.0,106811.0,423532.0,108869.0,104869.0,52267.0,68058.0,58092.0,20720.0,6039.0,4266.0,263.0,89.0
488267,County,2020/06/01,42.0,PA,42075.0,Lebanon County,30136.0,111178.0,452296.0,115521.0,104825.0,53775.0,69006.0,70157.0,27400.0,6500.0,4506.0,263.0,343.0
491374,County,2020/06/02,42.0,PA,42075.0,Lebanon County,29175.0,112139.0,469847.0,125211.0,109401.0,51657.0,67226.0,71355.0,29348.0,8805.0,6104.0,333.0,407.0
493003,County,2020/06/03,42.0,PA,42075.0,Lebanon County,26921.0,114393.0,493956.0,130052.0,112961.0,61061.0,70039.0,77284.0,28304.0,8153.0,5427.0,278.0,397.0
497778,County,2020/06/04,42.0,PA,42075.0,Lebanon County,27759.0,113555.0,500322.0,131724.0,116975.0,62414.0,73674.0,74407.0,27336.0,7824.0,5512.0,246.0,210.0
499418,County,2020/06/05,42.0,PA,42075.0,Lebanon County,27090.0,114224.0,493664.0,127488.0,110700.0,55987.0,78493.0,76306.0,27096.0,9852.0,6829.0,314.0,599.0
502565,County,2020/06/06,42.0,PA,42075.0,Lebanon County,32720.0,108594.0,441017.0,106136.0,118397.0,51263.0,68520.0,61496.0,22324.0,7097.0,5112.0,242.0,430.0
505757,County,2020/06/07,42.0,PA,42075.0,Lebanon County,32872.0,108442.0,399663.0,106203.0,99629.0,51450.0,56612.0,54843.0,17560.0,7695.0,4800.0,356.0,515.0
510553,County,2020/06/08,42.0,PA,42075.0,Lebanon County,27613.0,113701.0,497572.0,131769.0,117907.0,59502.0,73236.0,75661.0,25754.0,8265.0,4852.0,302.0,324.0
512182,County,2020/06/09,42.0,PA,42075.0,Lebanon County,28128.0,113186.0,625736.0,252961.0,130123.0,53825.0,72797.0,74257.0,27204.0,8125.0,5461.0,384.0,599.0
516963,County,2020/06/10,42.0,PA,42075.0,Lebanon County,29915.0,111399.0,421310.0,100863.0,103602.0,48851.0,66731.0,64869.0,22115.0,7811.0,5359.0,286.0,823.0
520120,County,2020/06/11,42.0,PA,42075.0,Lebanon County,28535.0,112779.0,440248.0,102853.0,103655.0,53180.0,73554.0,68482.0,24448.0,7621.0,5178.0,418.0,859.0
521794,County,2020/06/12,42.0,PA,42075.0,Lebanon County,28666.0,112648.0,479226.0,126055.0,114383.0,52049.0,72896.0,71709.0,26608.0,8769.0,5964.0,359.0,434.0
524970,County,2020/06/13,42.0,PA,42075.0,Lebanon County,31299.0,110015.0,493363.0,132461.0,122243.0,59088.0,71390.0,70163.0,24746.0,7245.0,5441.0,290.0,296.0
529734,County,2020/06/14,42.0,PA,42075.0,Lebanon County,34231.0,107083.0,394960.0,94569.0,96258.0,52196.0,64083.0,54283.0,21087.0,6822.0,4995.0,279.0,388.0
532924,County,2020/06/15,42.0,PA,42075.0,Lebanon County,30773.0,110541.0,448845.0,116831.0,98332.0,57752.0,68324.0,65383.0,27856.0,8546.0,5220.0,299.0,302.0
536144,County,2020/06/16,42.0,PA,42075.0,Lebanon County,30578.0,110736.0,468750.0,118449.0,110994.0,52956.0,70415.0,75371.0,27450.0,8011.0,4485.0,476.0,143.0
539263,County,2020/06/17,42.0,PA,42075.0,Lebanon County,30503.0,110811.0,482861.0,126460.0,107332.0,60605.0,69412.0,72531.0,31384.0,9055.0,5691.0,325.0,66.0
540893,County,2020/06/18,42.0,PA,42075.0,Lebanon County,30318.0,110996.0,464859.0,125538.0,93887.0,52003.0,74247.0,75669.0,28676.0,9203.0,5115.0,431.0,90.0
545659,County,2020/06/19,42.0,PA,42075.0,Lebanon County,29114.0,112200.0,459804.0,112281.0,102632.0,57044.0,72848.0,71333.0,28512.0,9079.0,5517.0,440.0,118.0
548894,County,2020/06/20,42.0,PA,42075.0,Lebanon County,31160.0,110154.0,440707.0,98289.0,116442.0,55693.0,76515.0,60899.0,20916.0,6886.0,4453.0,384.0,230.0
550494,County,2020/06/21,42.0,PA,42075.0,Lebanon County,32865.0,108449.0,414165.0,99275.0,99096.0,48778.0,67128.0,64983.0,22729.0,7296.0,4178.0,374.0,328.0
555274,County,2020/06/22,42.0,PA,42075.0,Lebanon County,30750.0,110564.0,446762.0,107869.0,103186.0,53017.0,69047.0,71423.0,27360.0,9059.0,5218.0,398.0,185.0
556902,County,2020/06/23,42.0,PA,42075.0,Lebanon County,28729.0,112585.0,483379.0,122432.0,107909.0,54092.0,72321.0,81478.0,29903.0,9097.0,5626.0,334.0,187.0
561670,County,2020/06/24,42.0,PA,42075.0,Lebanon County,30568.0,110746.0,453598.0,116085.0,99748.0,49020.0,70948.0,75428.0,26788.0,9242.0,5702.0,336.0,301.0
563299,County,2020/06/25,42.0,PA,42075.0,Lebanon County,29345.0,111969.0,470160.0,114206.0,102657.0,56877.0,70261.0,80203.0,30684.0,8782.0,5724.0,427.0,339.0
568094,County,2020/06/26,42.0,PA,42075.0,Lebanon County,29918.0,111396.0,485010.0,126532.0,109244.0,54140.0,73208.0,77520.0,29319.0,8686.0,5732.0,261.0,368.0
571244,County,2020/06/27,42.0,PA,42075.0,Lebanon County,31870.0,109444.0,475103.0,116546.0,114732.0,58282.0,75708.0,73487.0,24143.0,7610.0,4011.0,357.0,227.0
574427,County,2020/06/28,42.0,PA,42075.0,Lebanon County,33659.0,107655.0,410003.0,101458.0,99899.0,48315.0,62538.0,59398.0,24031.0,7861.0,5770.0,406.0,327.0
576030,County,2020/06/29,42.0,PA,42075.0,Lebanon County,30815.0,110499.0,434940.0,102343.0,97531.0,51631.0,69798.0,71349.0,28063.0,7973.0,5494.0,363.0,395.0
580841,County,2020/06/30,42.0,PA,42075.0,Lebanon County,29887.0,111427.0,430489.0,107650.0,96731.0,46213.0,67898.0,72567.0,24454.0,8078.0,5923.0,475.0,500.0
582445,County,2020/07/01,42.0,PA,42075.0,Lebanon County,29488.0,111826.0,419283.0,100128.0,87750.0,54063.0,69453.0,68987.0,24339.0,8017.0,5402.0,428.0,716.0
585634,County,2020/07/02,42.0,PA,42075.0,Lebanon County,32048.0,109266.0,499029.0,121219.0,108961.0,60369.0,74575.0,85128.0,32568.0,9321.0,6075.0,453.0,360.0
590426,County,2020/07/03,42.0,PA,42075.0,Lebanon County,32878.0,108436.0,482279.0,125819.0,108629.0,53835.0,72796.0,77083.0,29154.0,8637.0,5700.0,260.0,366.0
593611,County,2020/07/04,42.0,PA,42075.0,Lebanon County,36005.0,105309.0,412599.0,107641.0,92934.0,46057.0,62278.0,65947.0,24942.0,7389.0,4876.0,222.0,313.0
595262,County,2020/07/05,42.0,PA,42075.0,Lebanon County,32657.0,108657.0,374800.0,100678.0,80305.0,47004.0,60327.0,50865.0,20035.0,8306.0,6166.0,557.0,557.0
597913,County,2020/07/06,42.0,PA,42075.0,Lebanon County,31486.0,109828.0,384287.0,91828.0,80974.0,47181.0,64919.0,60536.0,24444.0,7934.0,5611.0,300.0,560.0
601527,County,2020/07/07,42.0,PA,42075.0,Lebanon County,31398.0,109916.0,420617.0,103649.0,88995.0,51059.0,71961.0,66819.0,23838.0,8061.0,5214.0,544.0,477.0
606287,County,2020/07/08,42.0,PA,42075.0,Lebanon County,31117.0,110197.0,421567.0,110842.0,91816.0,48400.0,64319.0,66888.0,23406.0,8715.0,6376.0,325.0,480.0
608013,County,2020/07/09,42.0,PA,42075.0,Lebanon County,31130.0,110184.0,411230.0,103421.0,87479.0,46784.0,65588.0,67717.0,24699.0,9414.0,5337.0,304.0,487.0
611213,County,2020/07/10,42.0,PA,42075.0,Lebanon County,30537.0,110777.0,400763.0,92089.0,88439.0,48067.0,66226.0,65244.0,23710.0,8667.0,7221.0,545.0,555.0
615961,County,2020/07/11,42.0,PA,42075.0,Lebanon County,32985.0,108329.0,418315.0,104243.0,98295.0,48638.0,66733.0,63109.0,21205.0,9029.0,6065.0,377.0,621.0
619148,County,2020/07/12,42.0,PA,42075.0,Lebanon County,33391.0,107923.0,362144.0,87984.0,82732.0,45458.0,61053.0,53308.0,16846.0,7373.0,6218.0,429.0,743.0
622355,County,2020/07/13,42.0,PA,42075.0,Lebanon County,31711.0,109603.0,405077.0,103998.0,91847.0,46140.0,61747.0,60866.0,25652.0,8000.0,5844.0,429.0,554.0
625549,County,2020/07/14,42.0,PA,42075.0,Lebanon County,31213.0,110101.0,438194.0,116759.0,97054.0,44826.0,69794.0,67803.0,28514.0,7364.0,5372.0,409.0,299.0
628722,County,2020/07/15,42.0,PA,42075.0,Lebanon County,31373.0,109941.0,449815.0,112239.0,101460.0,55304.0,69165.0,69401.0,29237.0,8278.0,4042.0,351.0,338.0
631988,County,2020/07/16,42.0,PA,42075.0,Lebanon County,31054.0,110260.0,442518.0,103245.0,99133.0,53279.0,72232.0,73414.0,27016.0,8464.0,5259.0,292.0,184.0
635083,County,2020/07/17,42.0,PA,42075.0,Lebanon County,32143.0,109171.0,462920.0,110813.0,111709.0,51306.0,72266.0,74768.0,28634.0,8657.0,4382.0,257.0,128.0
636760,County,2020/07/18,42.0,PA,42075.0,Lebanon County,33903.0,107411.0,446743.0,113499.0,105283.0,54651.0,72167.0,66126.0,22573.0,7510.0,4382.0,393.0,159.0
639915,County,2020/07/19,42.0,PA,42075.0,Lebanon County,36571.0,104743.0,348849.0,81772.0,77803.0,45581.0,53740.0,57083.0,19815.0,8291.0,4159.0,351.0,254.0
644697,County,2020/07/20,42.0,PA,42075.0,Lebanon County,35464.0,105850.0,421328.0,99635.0,94025.0,47855.0,65894.0,74884.0,25948.0,8889.0,3724.0,315.0,159.0
646325,County,2020/07/21,42.0,PA,42075.0,Lebanon County,33562.0,107752.0,431942.0,97978.0,96185.0,51275.0,71853.0,76765.0,24376.0,8652.0,4305.0,294.0,259.0
649007,County,2020/07/22,42.0,PA,42075.0,Lebanon County,33195.0,108119.0,416075.0,96701.0,90737.0,48955.0,69963.0,72128.0,24372.0,7949.0,4583.0,303.0,384.0
652644,County,2020/07/23,42.0,PA,42075.0,Lebanon County,33458.0,107856.0,407062.0,94378.0,92024.0,43946.0,65008.0,72192.0,24701.0,8931.0,5234.0,295.0,353.0
655767,County,2020/07/24,42.0,PA,42075.0,Lebanon County,31332.0,109982.0,434115.0,104390.0,94381.0,52720.0,68642.0,69755.0,28596.0,9331.0,5457.0,479.0,364.0
660739,County,2020/07/25,42.0,PA,42075.0,Lebanon County,34490.0,106824.0,422583.0,104569.0,96037.0,50013.0,70459.0,65087.0,23133.0,8129.0,4540.0,241.0,375.0
663819,County,2020/07/26,42.0,PA,42075.0,Lebanon County,34778.0,106536.0,384811.0,94010.0,88755.0,42631.0,66936.0,55748.0,21496.0,9142.0,5244.0,337.0,512.0
667092,County,2020/07/27,42.0,PA,42075.0,Lebanon County,33557.0,107757.0,416583.0,95291.0,93417.0,50461.0,73919.0,65257.0,23969.0,8154.0,5114.0,385.0,616.0
670246,County,2020/07/28,42.0,PA,42075.0,Lebanon County,32064.0,109250.0,431628.0,93245.0,100071.0,48797.0,70094.0,74458.0,29060.0,9658.0,5269.0,288.0,688.0
671877,County,2020/07/29,42.0,PA,42075.0,Lebanon County,32968.0,108346.0,420346.0,92922.0,91628.0,48005.0,73005.0,71383.0,27157.0,9349.0,5984.0,358.0,555.0
676638,County,2020/07/30,42.0,PA,42075.0,Lebanon County,31258.0,110056.0,421383.0,97057.0,97083.0,45706.0,69283.0,66901.0,27796.0,10843.0,5664.0,357.0,693.0
679866,County,2020/07/31,42.0,PA,42075.0,Lebanon County,32203.0,109111.0,416681.0,90174.0,93562.0,49861.0,64533.0,73058.0,28211.0,9822.0,6446.0,326.0,688.0
683036,County,2020/08/01,42.0,PA,42075.0,Lebanon County,34376.0,106938.0,406935.0,98057.0,99115.0,45936.0,64639.0,60096.0,22169.0,10081.0,5834.0,336.0,672.0
686227,County,2020/08/02,42.0,PA,42075.0,Lebanon County,36593.0,104721.0,357860.0,82081.0,83435.0,40343.0,61896.0,54181.0,21898.0,8746.0,4483.0,386.0,411.0
689430,County,2020/08/03,42.0,PA,42075.0,Lebanon County,32866.0,108448.0,437426.0,102545.0,97419.0,48842.0,66737.0,76348.0,30210.0,10249.0,4643.0,224.0,209.0
691058,County,2020/08/04,42.0,PA,42075.0,Lebanon County,33669.0,107645.0,424697.0,93237.0,92889.0,56502.0,68642.0,70805.0,29523.0,8553.0,4203.0,273.0,70.0
695818,County,2020/08/05,42.0,PA,42075.0,Lebanon County,32331.0,108983.0,460393.0,106608.0,106088.0,48741.0,74475.0,79081.0,30481.0,9615.0,4779.0,349.0,176.0
697427,County,2020/08/06,42.0,PA,42075.0,Lebanon County,31851.0,109463.0,458148.0,110059.0,105618.0,51365.0,70001.0,77806.0,29631.0,8408.0,4902.0,224.0,134.0
700639,County,2020/08/07,42.0,PA,42075.0,Lebanon County,30443.0,110871.0,448663.0,101953.0,105395.0,47911.0,72315.0,77073.0,28917.0,10041.0,4572.0,327.0,159.0
705400,County,2020/08/08,42.0,PA,42075.0,Lebanon County,33527.0,107787.0,437010.0,104045.0,105138.0,46449.0,70053.0,72029.0,24992.0,9458.0,4456.0,260.0,130.0
708619,County,2020/08/09,42.0,PA,42075.0,Lebanon County,34052.0,107262.0,410349.0,90659.0,98316.0,46279.0,66486.0,67812.0,24474.0,9499.0,6289.0,410.0,125.0
711788,County,2020/08/10,42.0,PA,42075.0,Lebanon County,32197.0,109117.0,470896.0,107879.0,108398.0,53456.0,75291.0,81251.0,29863.0,9003.0,5388.0,306.0,61.0
714981,County,2020/08/11,42.0,PA,42075.0,Lebanon County,31150.0,110164.0,445738.0,102590.0,94683.0,53041.0,68815.0,78610.0,33011.0,9798.0,4800.0,332.0,58.0
718078,County,2020/08/12,42.0,PA,42075.0,Lebanon County,31381.0,109933.0,428499.0,102389.0,93359.0,45906.0,64156.0,75042.0,29857.0,10618.0,6002.0,517.0,653.0
719805,County,2020/08/13,42.0,PA,42075.0,Lebanon County,30554.0,110760.0,428743.0,97887.0,92792.0,50191.0,69492.0,67887.0,30741.0,11684.0,6496.0,684.0,889.0
724548,County,2020/08/14,42.0,PA,42075.0,Lebanon County,28517.0,112797.0,436377.0,97261.0,89393.0,49258.0,70393.0,76715.0,31298.0,13532.0,6930.0,624.0,973.0
727759,County,2020/08/15,42.0,PA,42075.0,Lebanon County,31455.0,109859.0,421647.0,92933.0,100495.0,46075.0,66987.0,70537.0,26708.0,10177.0,6085.0,654.0,996.0
730951,County,2020/08/16,42.0,PA,42075.0,Lebanon County,34001.0,107313.0,353880.0,71188.0,77253.0,43843.0,56980.0,60779.0,23141.0,10728.0,7737.0,668.0,1563.0
732581,County,2020/08/17,42.0,PA,42075.0,Lebanon County,33455.0,107859.0,406223.0,86854.0,90585.0,48365.0,67381.0,66300.0,25020.0,12449.0,7273.0,606.0,1390.0
735747,County,2020/08/18,42.0,PA,42075.0,Lebanon County,32568.0,108746.0,404613.0,92893.0,87266.0,42843.0,66068.0,64763.0,30276.0,10156.0,7993.0,737.0,1618.0
738952,County,2020/08/19,42.0,PA,42075.0,Lebanon County,31555.0,109759.0,406346.0,85484.0,86346.0,49596.0,69944.0,66872.0,28726.0,9659.0,7374.0,680.0,1665.0
743733,County,2020/08/20,42.0,PA,42075.0,Lebanon County,29433.0,111881.0,417023.0,87204.0,93579.0,47664.0,67507.0,71281.0,31411.0,9876.0,6297.0,659.0,1545.0
745363,County,2020/08/21,42.0,PA,42075.0,Lebanon County,29038.0,112276.0,457085.0,104030.0,102027.0,51883.0,70160.0,79879.0,29048.0,11082.0,6839.0,627.0,1510.0
748568,County,2020/08/22,42.0,PA,42075.0,Lebanon County,31582.0,109732.0,411666.0,90077.0,94594.0,50237.0,72884.0,65392.0,23248.0,7654.0,5270.0,638.0,1672.0
751761,County,2020/08/23,42.0,PA,42075.0,Lebanon County,35701.0,105613.0,344158.0,75512.0,76651.0,40667.0,58400.0,56788.0,22182.0,7065.0,5291.0,390.0,1212.0
754934,County,2020/08/24,42.0,PA,42075.0,Lebanon County,34316.0,106998.0,386227.0,81185.0,91229.0,47796.0,61607.0,68354.0,22896.0,6628.0,4904.0,473.0,1155.0
759695,County,2020/08/25,42.0,PA,42075.0,Lebanon County,33240.0,108074.0,406042.0,88369.0,88517.0,49430.0,65065.0,73965.0,27343.0,7379.0,4397.0,623.0,954.0
762855,County,2020/08/26,42.0,PA,42075.0,Lebanon County,33664.0,107650.0,409267.0,91447.0,89048.0,49276.0,68292.0,69448.0,28064.0,7267.0,5310.0,457.0,658.0
764484,County,2020/08/27,42.0,PA,42075.0,Lebanon County,33115.0,108199.0,413938.0,96780.0,94442.0,47123.0,64505.0,69199.0,26779.0,8204.0,5739.0,581.0,586.0
769267,County,2020/08/28,42.0,PA,42075.0,Lebanon County,32157.0,109157.0,414624.0,85785.0,96613.0,47349.0,66685.0,76367.0,26265.0,8847.0,5582.0,574.0,557.0
770894,County,2020/08/29,42.0,PA,42075.0,Lebanon County,34609.0,106705.0,407344.0,87872.0,101325.0,52270.0,65856.0,65561.0,21729.0,6541.0,5035.0,450.0,705.0
775670,County,2020/08/30,42.0,PA,42075.0,Lebanon County,36610.0,104704.0,365203.0,81821.0,86360.0,42603.0,62087.0,59423.0,19542.0,6602.0,5322.0,509.0,934.0
777280,County,2020/08/31,42.0,PA,42075.0,Lebanon County,33512.0,107802.0,401817.0,92446.0,93643.0,45368.0,64746.0,66338.0,24111.0,7943.0,5775.0,314.0,1133.0
782058,County,2020/09/01,42.0,PA,42075.0,Lebanon County,33552.0,107762.0,437198.0,104857.0,100645.0,51579.0,68220.0,70663.0,26964.0,7990.0,5176.0,399.0,705.0
785202,County,2020/09/02,42.0,PA,42075.0,Lebanon County,33629.0,107685.0,429162.0,97895.0,95680.0,48780.0,69016.0,76138.0,26724.0,8103.0,5912.0,319.0,595.0
786814,County,2020/09/03,42.0,PA,42075.0,Lebanon County,30401.0,110913.0,456781.0,102422.0,105251.0,55432.0,70004.0,80423.0,27895.0,7893.0,6231.0,463.0,767.0
790028,County,2020/09/04,42.0,PA,42075.0,Lebanon County,32130.0,109184.0,431666.0,91705.0,97319.0,47754.0,69979.0,77878.0,31419.0,8014.0,6223.0,573.0,802.0
793151,County,2020/09/05,42.0,PA,42075.0,Lebanon County,33692.0,107622.0,440742.0,103881.0,106756.0,52225.0,70700.0,71380.0,22066.0,6937.0,5653.0,409.0,735.0
796439,County,2020/09/06,42.0,PA,42075.0,Lebanon County,36985.0,104329.0,365785.0,78813.0,83922.0,45432.0,65396.0,58589.0,20406.0,7307.0,4437.0,718.0,765.0
801205,County,2020/09/07,42.0,PA,42075.0,Lebanon County,38010.0,103304.0,345417.0,79323.0,79648.0,41295.0,55014.0,53614.0,19970.0,8738.0,6057.0,605.0,1153.0
802827,County,2020/09/08,42.0,PA,42075.0,Lebanon County,33859.0,107455.0,434141.0,100877.0,94644.0,52112.0,67271.0,75147.0,29044.0,8552.0,5249.0,459.0,786.0
807607,County,2020/09/09,42.0,PA,42075.0,Lebanon County,33946.0,107368.0,423931.0,90724.0,96947.0,51828.0,68617.0,71474.0,29109.0,9657.0,4194.0,448.0,933.0
809235,County,2020/09/10,42.0,PA,42075.0,Lebanon County,33494.0,107820.0,421548.0,91237.0,98896.0,50132.0,69825.0,70215.0,25999.0,8487.0,5429.0,492.0,836.0
813996,County,2020/09/11,42.0,PA,42075.0,Lebanon County,32788.0,108526.0,457929.0,99958.0,100618.0,54033.0,76220.0,78699.0,31531.0,10046.0,5600.0,434.0,790.0
817191,County,2020/09/12,42.0,PA,42075.0,Lebanon County,35958.0,105356.0,415639.0,83682.0,100394.0,55576.0,72395.0,67405.0,21254.0,7785.0,5670.0,583.0,895.0
820374,County,2020/09/13,42.0,PA,42075.0,Lebanon County,37182.0,104132.0,326551.0,62215.0,78289.0,38872.0,60740.0,51643.0,20907.0,7408.0,4880.0,522.0,1075.0
822003,County,2020/09/14,42.0,PA,42075.0,Lebanon County,34479.0,106835.0,418990.0,86180.0,103429.0,50285.0,67271.0,73260.0,24451.0,8099.0,4688.0,443.0,884.0
826772,County,2020/09/15,42.0,PA,42075.0,Lebanon County,33658.0,107656.0,436967.0,91807.0,103493.0,53361.0,71801.0,74559.0,26059.0,9320.0,5384.0,547.0,636.0
828400,County,2020/09/16,42.0,PA,42075.0,Lebanon County,33784.0,107530.0,436300.0,91593.0,104914.0,51176.0,72306.0,73047.0,28785.0,7580.0,5525.0,621.0,753.0
833143,County,2020/09/17,42.0,PA,42075.0,Lebanon County,33828.0,107486.0,437727.0,99665.0,102230.0,49487.0,71023.0,70869.0,27788.0,8893.0,6561.0,548.0,663.0
834772,County,2020/09/18,42.0,PA,42075.0,Lebanon County,33043.0,108271.0,465062.0,97984.0,113369.0,58629.0,74148.0,74980.0,28955.0,8715.0,7127.0,510.0,645.0
839547,County,2020/09/19,42.0,PA,42075.0,Lebanon County,35768.0,105546.0,469787.0,100802.0,114680.0,58527.0,84207.0,71486.0,26021.0,8047.0,4999.0,434.0,584.0
841176,County,2020/09/20,42.0,PA,42075.0,Lebanon County,36715.0,104599.0,380573.0,83110.0,95881.0,51727.0,64630.0,54658.0,18156.0,6278.0,5307.0,477.0,349.0
845963,County,2020/09/21,42.0,PA,42075.0,Lebanon County,35599.0,105715.0,404257.0,87013.0,98899.0,46347.0,61193.0,71967.0,27399.0,7219.0,3715.0,420.0,85.0
847542,County,2020/09/22,42.0,PA,42075.0,Lebanon County,32326.0,108988.0,487785.0,135137.0,111518.0,52613.0,70044.0,76352.0,28918.0,8878.0,3923.0,313.0,89.0
852320,County,2020/09/23,42.0,PA,42075.0,Lebanon County,31215.0,110099.0,448296.0,102411.0,108573.0,48621.0,67097.0,80673.0,28576.0,8550.0,3392.0,288.0,115.0
853948,County,2020/09/24,42.0,PA,42075.0,Lebanon County,31479.0,109835.0,451807.0,105400.0,104554.0,50957.0,71377.0,79076.0,26880.0,9226.0,3714.0,423.0,200.0
858712,County,2020/09/25,42.0,PA,42075.0,Lebanon County,30845.0,110469.0,483050.0,109736.0,115790.0,55937.0,75000.0,84075.0,29896.0,8019.0,4186.0,319.0,92.0
861907,County,2020/09/26,42.0,PA,42075.0,Lebanon County,34664.0,106650.0,431859.0,90827.0,109454.0,51615.0,70184.0,73171.0,25380.0,6546.0,4259.0,298.0,125.0
865087,County,2020/09/27,42.0,PA,42075.0,Lebanon County,36469.0,104845.0,390891.0,88861.0,89215.0,50316.0,63708.0,63834.0,22820.0,7938.0,3840.0,332.0,27.0
866716,County,2020/09/28,42.0,PA,42075.0,Lebanon County,32742.0,108572.0,445867.0,103425.0,105098.0,54882.0,70456.0,73333.0,25991.0,8816.0,3589.0,245.0,32.0
871487,County,2020/09/29,42.0,PA,42075.0,Lebanon County,32554.0,108760.0,439055.0,94728.0,105524.0,53304.0,66257.0,77318.0,28126.0,9439.0,3862.0,316.0,181.0
873116,County,2020/09/30,42.0,PA,42075.0,Lebanon County,31957.0,109357.0,545683.0,183961.0,116832.0,49860.0,72004.0,77468.0,29846.0,10647.0,4602.0,275.0,188.0
877856,County,2020/10/01,42.0,PA,42075.0,Lebanon County,31145.0,110169.0,449954.0,96212.0,109822.0,55194.0,69807.0,76723.0,27724.0,9002.0,4930.0,302.0,238.0
879484,County,2020/10/02,42.0,PA,42075.0,Lebanon County,31592.0,109722.0,461053.0,120461.0,105550.0,52722.0,67871.0,74402.0,26310.0,7789.0,5484.0,249.0,215.0
882700,County,2020/10/03,42.0,PA,42075.0,Lebanon County,34572.0,106742.0,444243.0,102570.0,110211.0,51441.0,75618.0,70305.0,21959.0,6940.0,4720.0,283.0,196.0
886986,County,2020/10/04,42.0,PA,42075.0,Lebanon County,36369.0,104945.0,372620.0,78107.0,91927.0,44135.0,63289.0,57323.0,24136.0,8258.0,4791.0,400.0,254.0
890171,County,2020/10/05,42.0,PA,42075.0,Lebanon County,35925.0,105389.0,395870.0,84449.0,96593.0,43098.0,62948.0,68251.0,26011.0,9052.0,4994.0,257.0,217.0
893378,County,2020/10/06,42.0,PA,42075.0,Lebanon County,33314.0,108000.0,435412.0,91856.0,100571.0,52445.0,73234.0,75878.0,27253.0,9821.0,3964.0,216.0,174.0
896596,County,2020/10/07,42.0,PA,42075.0,Lebanon County,31855.0,109459.0,440379.0,95643.0,105431.0,50445.0,69390.0,75813.0,28123.0,10107.0,4953.0,269.0,205.0
899782,County,2020/10/08,42.0,PA,42075.0,Lebanon County,32037.0,109277.0,421503.0,96568.0,94071.0,47496.0,69157.0,73915.0,24996.0,10202.0,4547.0,298.0,253.0
902956,County,2020/10/09,42.0,PA,42075.0,Lebanon County,33008.0,108306.0,428988.0,84300.0,99809.0,51249.0,74336.0,75203.0,26570.0,12042.0,4990.0,291.0,198.0
906011,County,2020/10/10,42.0,PA,42075.0,Lebanon County,36317.0,104997.0,425184.0,96374.0,104092.0,46650.0,68354.0,69461.0,25448.0,10189.0,4270.0,188.0,158.0
908127,County,2020/10/11,42.0,PA,42075.0,Lebanon County,36630.0,104684.0,335744.0,62884.0,82343.0,43841.0,56090.0,56570.0,19501.0,9345.0,4757.0,255.0,158.0
911144,County,2020/10/12,42.0,PA,42075.0,Lebanon County,35027.0,106287.0,360716.0,70294.0,76865.0,44555.0,66208.0,63828.0,25369.0,8415.0,4809.0,235.0,138.0
914407,County,2020/10/13,42.0,PA,42075.0,Lebanon County,33227.0,108087.0,456920.0,113235.0,103267.0,52873.0,72005.0,71506.0,28233.0,11249.0,4189.0,228.0,135.0
917935,County,2020/10/14,42.0,PA,42075.0,Lebanon County,32353.0,108961.0,434600.0,100371.0,95695.0,49840.0,69332.0,79186.0,26319.0,9158.0,4228.0,283.0,188.0
920808,County,2020/10/15,42.0,PA,42075.0,Lebanon County,33364.0,107950.0,383935.0,77095.0,86314.0,40666.0,66226.0,74578.0,24407.0,8675.0,5322.0,444.0,208.0
924011,County,2020/10/16,42.0,PA,42075.0,Lebanon County,31229.0,110085.0,418473.0,82022.0,95254.0,51767.0,69742.0,74104.0,28819.0,11181.0,5004.0,360.0,220.0
926745,County,2020/10/17,42.0,PA,42075.0,Lebanon County,33783.0,107531.0,404174.0,81094.0,97956.0,50725.0,64023.0,69333.0,25668.0,10428.0,4410.0,315.0,222.0
930344,County,2020/10/18,42.0,PA,42075.0,Lebanon County,35268.0,106046.0,366191.0,74299.0,88082.0,42207.0,65658.0,61041.0,19822.0,9308.0,5263.0,326.0,185.0
933483,County,2020/10/19,42.0,PA,42075.0,Lebanon County,32340.0,108974.0,432608.0,98292.0,103005.0,53300.0,63705.0,72627.0,27816.0,8749.0,4636.0,311.0,167.0
936668,County,2020/10/20,42.0,PA,42075.0,Lebanon County,33563.0,107751.0,410328.0,86924.0,91916.0,47253.0,69869.0,73876.0,26364.0,8670.0,5007.0,264.0,185.0
940260,County,2020/10/21,42.0,PA,42075.0,Lebanon County,33481.0,107833.0,406077.0,86478.0,97608.0,46865.0,63587.0,71966.0,24176.0,10181.0,4762.0,301.0,153.0
943516,County,2020/10/22,42.0,PA,42075.0,Lebanon County,32171.0,109143.0,422071.0,82352.0,102285.0,49832.0,68826.0,72060.0,30950.0,10825.0,4581.0,240.0,120.0
946315,County,2020/10/23,42.0,PA,42075.0,Lebanon County,29924.0,111390.0,480400.0,116303.0,111017.0,55398.0,74513.0,79963.0,26651.0,11686.0,4414.0,296.0,159.0
949216,County,2020/10/24,42.0,PA,42075.0,Lebanon County,32623.0,108691.0,453982.0,103517.0,108112.0,56699.0,72478.0,73214.0,26297.0,9654.0,3678.0,210.0,123.0
