,Level,Date,State FIPS,State Postal Code,County FIPS,County Name,Population Staying at Home,Population Not Staying at Home,Number of Trips,Number of Trips <1,Number of Trips 1-3,Number of Trips 3-5,Number of Trips 5-10,Number of Trips 10-25,Number of Trips 25-50,Number of Trips 50-100,Number of Trips 100-250,Number of Trips 250-500,Number of Trips >=500
1965,County,2020/01/01,37.0,NC,37153.0,Richmond County,10574.0,34313.0,121918.0,22387.0,32524.0,18040.0,19869.0,15238.0,8757.0,3494.0,1490.0,101.0,18.0
5060,County,2020/01/02,37.0,NC,37153.0,Richmond County,8986.0,35901.0,149525.0,29982.0,38024.0,22831.0,22631.0,18715.0,12016.0,3690.0,1433.0,188.0,15.0
9382,County,2020/01/03,37.0,NC,37153.0,Richmond County,8580.0,36307.0,166989.0,34207.0,43404.0,25768.0,23867.0,19334.0,13893.0,3593.0,2684.0,212.0,27.0
11707,County,2020/01/04,37.0,NC,37153.0,Richmond County,9823.0,35064.0,152357.0,33513.0,39852.0,23215.0,19976.0,17629.0,11211.0,4854.0,1923.0,153.0,31.0
14741,County,2020/01/05,37.0,NC,37153.0,Richmond County,10323.0,34564.0,137440.0,29419.0,33028.0,20014.0,22996.0,18210.0,9586.0,2792.0,1176.0,162.0,57.0
18570,County,2020/01/06,37.0,NC,37153.0,Richmond County,8945.0,35942.0,157395.0,32390.0,37756.0,24023.0,24056.0,20857.0,13020.0,3975.0,1113.0,162.0,43.0
21716,County,2020/01/07,37.0,NC,37153.0,Richmond County,8837.0,36050.0,159632.0,33411.0,41826.0,24532.0,25662.0,18259.0,11177.0,2654.0,1833.0,234.0,44.0
24911,County,2020/01/08,37.0,NC,37153.0,Richmond County,8563.0,36324.0,163434.0,35897.0,40310.0,26324.0,22506.0,19854.0,12473.0,3881.0,2062.0,121.0,6.0
26538,County,2020/01/09,37.0,NC,37153.0,Richmond County,8701.0,36186.0,166004.0,34725.0,41596.0,26030.0,24284.0,20776.0,12341.0,4187.0,1880.0,137.0,48.0
29734,County,2020/01/10,37.0,NC,37153.0,Richmond County,8618.0,36269.0,178862.0,41054.0,48113.0,25926.0,26658.0,18797.0,12817.0,3473.0,1910.0,89.0,25.0
32975,County,2020/01/11,37.0,NC,37153.0,Richmond County,9414.0,35473.0,162434.0,32615.0,42269.0,25576.0,27088.0,17952.0,10537.0,4610.0,1616.0,165.0,6.0
36131,County,2020/01/12,37.0,NC,37153.0,Richmond County,9613.0,35274.0,138259.0,28710.0,38032.0,21741.0,20938.0,16463.0,7314.0,3400.0,1502.0,146.0,13.0
40909,County,2020/01/13,37.0,NC,37153.0,Richmond County,8986.0,35901.0,151073.0,27636.0,39480.0,23239.0,23884.0,20627.0,11413.0,3421.0,1224.0,132.0,17.0
42535,County,2020/01/14,37.0,NC,37153.0,Richmond County,8551.0,36336.0,161768.0,32596.0,40716.0,23815.0,26673.0,20586.0,11557.0,4047.0,1560.0,195.0,23.0
47263,County,2020/01/15,37.0,NC,37153.0,Richmond County,8983.0,35904.0,176790.0,38475.0,46721.0,25777.0,26931.0,21512.0,11259.0,4096.0,1825.0,152.0,42.0
48792,County,2020/01/16,37.0,NC,37153.0,Richmond County,8593.0,36294.0,168254.0,31840.0,43953.0,25581.0,25963.0,21980.0,13257.0,3814.0,1641.0,213.0,12.0
53707,County,2020/01/17,37.0,NC,37153.0,Richmond County,8305.0,36582.0,185888.0,40411.0,51412.0,26937.0,26099.0,20120.0,13998.0,4512.0,2232.0,132.0,35.0
55280,County,2020/01/18,37.0,NC,37153.0,Richmond County,9393.0,35494.0,151057.0,28276.0,40315.0,23122.0,24069.0,17558.0,10743.0,5070.0,1750.0,109.0,45.0
60076,County,2020/01/19,37.0,NC,37153.0,Richmond County,10123.0,34764.0,137733.0,27037.0,35386.0,24328.0,21273.0,16402.0,8654.0,2966.0,1478.0,189.0,20.0
63239,County,2020/01/20,37.0,NC,37153.0,Richmond County,9185.0,35702.0,149641.0,30755.0,36959.0,24812.0,21400.0,20468.0,10498.0,2845.0,1695.0,173.0,36.0
64866,County,2020/01/21,37.0,NC,37153.0,Richmond County,8712.0,36175.0,167519.0,36098.0,43277.0,26701.0,25627.0,19015.0,11338.0,3456.0,1791.0,199.0,17.0
69626,County,2020/01/22,37.0,NC,37153.0,Richmond County,8517.0,36370.0,169337.0,34914.0,41642.0,25375.0,27369.0,21011.0,12913.0,4137.0,1843.0,103.0,30.0
71252,County,2020/01/23,37.0,NC,37153.0,Richmond County,8862.0,36025.0,167856.0,34332.0,44245.0,28513.0,24010.0,19999.0,10920.0,3623.0,1978.0,179.0,57.0
74449,County,2020/01/24,37.0,NC,37153.0,Richmond County,8721.0,36166.0,169785.0,32064.0,45656.0,26633.0,26848.0,19525.0,12177.0,4655.0,2085.0,109.0,33.0
77642,County,2020/01/25,37.0,NC,37153.0,Richmond County,9376.0,35511.0,158612.0,31278.0,40278.0,26708.0,24068.0,17704.0,12157.0,4914.0,1350.0,124.0,31.0
81815,County,2020/01/26,37.0,NC,37153.0,Richmond County,9581.0,35306.0,133691.0,23702.0,36407.0,22836.0,22275.0,15319.0,8023.0,3362.0,1542.0,184.0,41.0
85565,County,2020/01/27,37.0,NC,37153.0,Richmond County,8485.0,36402.0,151110.0,26053.0,40229.0,25109.0,23618.0,20361.0,10868.0,3345.0,1325.0,165.0,37.0
89321,County,2020/01/28,37.0,NC,37153.0,Richmond County,8398.0,36489.0,164380.0,33513.0,44907.0,23454.0,25682.0,19975.0,11649.0,3569.0,1415.0,200.0,16.0
91971,County,2020/01/29,37.0,NC,37153.0,Richmond County,8735.0,36152.0,162839.0,32269.0,43846.0,25821.0,24662.0,19082.0,10937.0,4134.0,1922.0,127.0,39.0
93746,County,2020/01/30,37.0,NC,37153.0,Richmond County,8557.0,36330.0,169506.0,33191.0,45927.0,25716.0,26444.0,20432.0,11476.0,4439.0,1682.0,178.0,21.0
98371,County,2020/01/31,37.0,NC,37153.0,Richmond County,8349.0,36538.0,171331.0,34613.0,46979.0,25376.0,26170.0,19780.0,11120.0,4900.0,2066.0,264.0,63.0
100050,County,2020/02/01,37.0,NC,37153.0,Richmond County,8926.0,35961.0,155989.0,32416.0,39900.0,25261.0,23643.0,17137.0,10890.0,4823.0,1674.0,206.0,39.0
103178,County,2020/02/02,37.0,NC,37153.0,Richmond County,9804.0,35083.0,147188.0,27786.0,41371.0,23899.0,22565.0,16936.0,8773.0,4315.0,1354.0,161.0,28.0
106387,County,2020/02/03,37.0,NC,37153.0,Richmond County,8459.0,36428.0,170132.0,37685.0,47373.0,25302.0,25837.0,17974.0,10424.0,3777.0,1515.0,219.0,26.0
109630,County,2020/02/04,37.0,NC,37153.0,Richmond County,8613.0,36274.0,171744.0,37429.0,43393.0,25757.0,26769.0,21197.0,11209.0,4119.0,1585.0,241.0,45.0
112727,County,2020/02/05,37.0,NC,37153.0,Richmond County,8335.0,36552.0,166179.0,32065.0,43958.0,24968.0,26167.0,19130.0,12966.0,4629.0,1968.0,271.0,57.0
115871,County,2020/02/06,37.0,NC,37153.0,Richmond County,8198.0,36689.0,149154.0,29776.0,39950.0,22395.0,23280.0,17627.0,10447.0,3798.0,1575.0,284.0,22.0
119137,County,2020/02/07,37.0,NC,37153.0,Richmond County,7806.0,37081.0,166325.0,31133.0,47256.0,23802.0,25509.0,19900.0,12484.0,4106.0,1986.0,98.0,51.0
122383,County,2020/02/08,37.0,NC,37153.0,Richmond County,9031.0,35856.0,155624.0,31684.0,41480.0,24758.0,21935.0,18512.0,10200.0,5290.0,1610.0,132.0,23.0
125978,County,2020/02/09,37.0,NC,37153.0,Richmond County,10600.0,34287.0,127477.0,22293.0,35591.0,21292.0,21619.0,13640.0,7939.0,3782.0,1124.0,157.0,40.0
130274,County,2020/02/10,37.0,NC,37153.0,Richmond County,7889.0,36998.0,156244.0,27811.0,43787.0,24676.0,25262.0,19499.0,10214.0,3334.0,1448.0,143.0,70.0
132430,County,2020/02/11,37.0,NC,37153.0,Richmond County,7731.0,37156.0,157571.0,29650.0,41775.0,25639.0,24402.0,19987.0,10381.0,3994.0,1472.0,239.0,32.0
136671,County,2020/02/12,37.0,NC,37153.0,Richmond County,7489.0,37398.0,164001.0,32005.0,43838.0,24446.0,27143.0,19227.0,11160.0,4182.0,1734.0,197.0,69.0
138366,County,2020/02/13,37.0,NC,37153.0,Richmond County,7228.0,37659.0,159435.0,31166.0,44195.0,22743.0,25501.0,17480.0,11617.0,4720.0,1730.0,229.0,54.0
141424,County,2020/02/14,37.0,NC,37153.0,Richmond County,7501.0,37386.0,173871.0,34122.0,43467.0,26629.0,28689.0,21472.0,12683.0,4540.0,2027.0,132.0,110.0
144720,County,2020/02/15,37.0,NC,37153.0,Richmond County,8461.0,36426.0,153491.0,28669.0,37864.0,25923.0,25226.0,17770.0,11922.0,4303.0,1625.0,81.0,108.0
147909,County,2020/02/16,37.0,NC,37153.0,Richmond County,9640.0,35247.0,128199.0,24150.0,32311.0,20464.0,20088.0,17289.0,8619.0,3469.0,1601.0,143.0,65.0
152671,County,2020/02/17,37.0,NC,37153.0,Richmond County,9979.0,34908.0,128636.0,24935.0,31783.0,19831.0,21588.0,15148.0,9444.0,4037.0,1656.0,214.0,0.0
155815,County,2020/02/18,37.0,NC,37153.0,Richmond County,8017.0,36870.0,149575.0,29286.0,38220.0,22086.0,23988.0,18175.0,11049.0,4395.0,2193.0,119.0,64.0
157492,County,2020/02/19,37.0,NC,37153.0,Richmond County,8167.0,36720.0,147548.0,27086.0,36752.0,22743.0,24044.0,18615.0,11066.0,4912.0,2044.0,208.0,78.0
160553,County,2020/02/20,37.0,NC,37153.0,Richmond County,8345.0,36542.0,151081.0,30360.0,40516.0,20998.0,22468.0,18690.0,10706.0,4640.0,2398.0,272.0,33.0
165447,County,2020/02/21,37.0,NC,37153.0,Richmond County,8305.0,36582.0,147868.0,27772.0,38063.0,22377.0,23731.0,18369.0,10762.0,3890.0,2643.0,204.0,57.0
168591,County,2020/02/22,37.0,NC,37153.0,Richmond County,9110.0,35777.0,153677.0,33341.0,38570.0,22197.0,22656.0,17817.0,11634.0,5036.0,2194.0,140.0,92.0
170253,County,2020/02/23,37.0,NC,37153.0,Richmond County,9536.0,35351.0,131875.0,26278.0,32525.0,20893.0,22872.0,16481.0,7378.0,2955.0,2234.0,196.0,63.0
175034,County,2020/02/24,37.0,NC,37153.0,Richmond County,8139.0,36748.0,148232.0,27512.0,38154.0,23568.0,24812.0,18456.0,10250.0,3702.0,1513.0,207.0,58.0
177636,County,2020/02/25,37.0,NC,37153.0,Richmond County,7527.0,37360.0,161266.0,31063.0,40323.0,23606.0,28027.0,20719.0,11381.0,4662.0,1321.0,97.0,67.0
180829,County,2020/02/26,37.0,NC,37153.0,Richmond County,8260.0,36627.0,172834.0,28152.0,43115.0,29118.0,31235.0,25612.0,12137.0,2586.0,667.0,195.0,17.0
182442,County,2020/02/27,37.0,NC,37153.0,Richmond County,7305.0,37582.0,159626.0,28155.0,42582.0,24787.0,25599.0,19240.0,12412.0,4776.0,1829.0,189.0,57.0
186331,County,2020/02/28,37.0,NC,37153.0,Richmond County,7196.0,37691.0,170456.0,32387.0,43214.0,25974.0,27533.0,20798.0,14441.0,3999.0,1836.0,221.0,53.0
189384,County,2020/02/29,37.0,NC,37153.0,Richmond County,7764.0,37123.0,164899.0,32653.0,43448.0,25366.0,24186.0,18909.0,13889.0,4779.0,1383.0,220.0,66.0
192623,County,2020/03/01,37.0,NC,37153.0,Richmond County,9844.0,35043.0,147944.0,31949.0,38540.0,21573.0,22039.0,18129.0,9017.0,4053.0,2276.0,313.0,55.0
195846,County,2020/03/02,37.0,NC,37153.0,Richmond County,8102.0,36785.0,171900.0,34269.0,46235.0,24904.0,27446.0,22182.0,10766.0,4261.0,1485.0,266.0,86.0
199002,County,2020/03/03,37.0,NC,37153.0,Richmond County,7747.0,37140.0,180517.0,34751.0,45999.0,25547.0,28470.0,24275.0,14636.0,4337.0,2189.0,286.0,27.0
203784,County,2020/03/04,37.0,NC,37153.0,Richmond County,7776.0,37111.0,181400.0,35698.0,48018.0,26135.0,26891.0,23559.0,14132.0,4547.0,2119.0,283.0,18.0
205351,County,2020/03/05,37.0,NC,37153.0,Richmond County,7096.0,37791.0,178300.0,36641.0,46817.0,25555.0,25711.0,21421.0,15103.0,5080.0,1813.0,150.0,9.0
210202,County,2020/03/06,37.0,NC,37153.0,Richmond County,7501.0,37386.0,191909.0,43367.0,48397.0,28170.0,26447.0,22685.0,13636.0,6125.0,2843.0,211.0,28.0
211820,County,2020/03/07,37.0,NC,37153.0,Richmond County,8232.0,36655.0,180065.0,36519.0,47941.0,27825.0,22715.0,23448.0,14218.0,5255.0,1918.0,183.0,43.0
214986,County,2020/03/08,37.0,NC,37153.0,Richmond County,9444.0,35443.0,156196.0,32086.0,40159.0,25265.0,20171.0,23071.0,9497.0,3676.0,2071.0,165.0,35.0
219744,County,2020/03/09,37.0,NC,37153.0,Richmond County,8167.0,36720.0,174979.0,35510.0,43068.0,27427.0,23902.0,26615.0,12145.0,4354.0,1763.0,158.0,37.0
221373,County,2020/03/10,37.0,NC,37153.0,Richmond County,8158.0,36729.0,176474.0,37422.0,44833.0,24246.0,26731.0,24187.0,11546.0,5315.0,1947.0,183.0,64.0
226167,County,2020/03/11,37.0,NC,37153.0,Richmond County,7664.0,37223.0,183824.0,36333.0,43299.0,29926.0,28917.0,25200.0,12330.0,5672.0,1491.0,634.0,22.0
227796,County,2020/03/12,37.0,NC,37153.0,Richmond County,7746.0,37141.0,187755.0,35925.0,48289.0,28543.0,26647.0,27847.0,14186.0,4821.0,1259.0,193.0,45.0
232527,County,2020/03/13,37.0,NC,37153.0,Richmond County,7556.0,37331.0,179743.0,34813.0,47743.0,27800.0,28281.0,21709.0,13252.0,4101.0,2044.0,0.0,0.0
234105,County,2020/03/14,37.0,NC,37153.0,Richmond County,9237.0,35650.0,167106.0,38527.0,40127.0,23934.0,25618.0,20284.0,10932.0,5893.0,1591.0,148.0,52.0
237341,County,2020/03/15,37.0,NC,37153.0,Richmond County,10988.0,33899.0,132868.0,28950.0,35928.0,18469.0,19937.0,14605.0,7259.0,5027.0,2361.0,301.0,31.0
240535,County,2020/03/16,37.0,NC,37153.0,Richmond County,10068.0,34819.0,166658.0,35240.0,43896.0,25935.0,23466.0,20159.0,11093.0,3941.0,2421.0,477.0,30.0
245392,County,2020/03/17,37.0,NC,37153.0,Richmond County,10314.0,34573.0,155866.0,29416.0,42683.0,24230.0,21661.0,18059.0,13336.0,4873.0,1527.0,81.0,0.0
248449,County,2020/03/18,37.0,NC,37153.0,Richmond County,10988.0,33899.0,154263.0,32030.0,40904.0,21737.0,23927.0,18773.0,10165.0,4907.0,1524.0,277.0,19.0
251655,County,2020/03/19,37.0,NC,37153.0,Richmond County,11123.0,33764.0,151958.0,28762.0,43039.0,22644.0,20735.0,20595.0,9766.0,4233.0,1928.0,246.0,10.0
254879,County,2020/03/20,37.0,NC,37153.0,Richmond County,11193.0,33694.0,165924.0,42366.0,41474.0,21499.0,24504.0,17531.0,10498.0,5466.0,2435.0,141.0,10.0
256456,County,2020/03/21,37.0,NC,37153.0,Richmond County,11810.0,33077.0,148480.0,31983.0,42974.0,23150.0,20821.0,18065.0,6215.0,3667.0,1456.0,118.0,31.0
259692,County,2020/03/22,37.0,NC,37153.0,Richmond County,11864.0,33023.0,127629.0,30545.0,37544.0,17809.0,18410.0,14776.0,4486.0,2803.0,1072.0,161.0,23.0
262896,County,2020/03/23,37.0,NC,37153.0,Richmond County,10625.0,34262.0,142671.0,30907.0,39968.0,20896.0,21094.0,16430.0,8763.0,3201.0,1297.0,106.0,9.0
267651,County,2020/03/24,37.0,NC,37153.0,Richmond County,10898.0,33989.0,135350.0,26699.0,40063.0,19510.0,18917.0,17199.0,8077.0,3136.0,1587.0,162.0,0.0
270849,County,2020/03/25,37.0,NC,37153.0,Richmond County,10865.0,34022.0,137380.0,29136.0,39559.0,20582.0,19643.0,14557.0,9827.0,2508.0,1230.0,300.0,38.0
272475,County,2020/03/26,37.0,NC,37153.0,Richmond County,10341.0,34546.0,139986.0,29002.0,36846.0,22107.0,21663.0,16830.0,8617.0,2833.0,1836.0,234.0,18.0
277238,County,2020/03/27,37.0,NC,37153.0,Richmond County,10370.0,34517.0,144703.0,31278.0,39226.0,24038.0,21285.0,16319.0,8652.0,2204.0,1544.0,148.0,9.0
280423,County,2020/03/28,37.0,NC,37153.0,Richmond County,11404.0,33483.0,143970.0,31391.0,43774.0,23038.0,22649.0,13507.0,4869.0,2887.0,1504.0,341.0,10.0
282058,County,2020/03/29,37.0,NC,37153.0,Richmond County,11725.0,33162.0,111679.0,25204.0,28390.0,18501.0,16680.0,12014.0,6766.0,2212.0,1734.0,147.0,31.0
286850,County,2020/03/30,37.0,NC,37153.0,Richmond County,10637.0,34250.0,142801.0,30640.0,38036.0,21672.0,23490.0,14611.0,8893.0,3883.0,1403.0,173.0,0.0
288448,County,2020/03/31,37.0,NC,37153.0,Richmond County,10882.0,34005.0,125003.0,26514.0,37223.0,17285.0,16668.0,14362.0,8202.0,2982.0,1509.0,231.0,27.0
293205,County,2020/04/01,37.0,NC,37153.0,Richmond County,10789.0,34098.0,139551.0,31929.0,39341.0,17999.0,20160.0,18439.0,7679.0,2634.0,1067.0,285.0,18.0
294834,County,2020/04/02,37.0,NC,37153.0,Richmond County,10801.0,34086.0,143760.0,36467.0,36979.0,20231.0,19547.0,17282.0,7953.0,3376.0,1651.0,237.0,37.0
299594,County,2020/04/03,37.0,NC,37153.0,Richmond County,10966.0,33921.0,160589.0,43968.0,45520.0,22408.0,20079.0,16923.0,6605.0,3381.0,1557.0,110.0,38.0
301221,County,2020/04/04,37.0,NC,37153.0,Richmond County,11690.0,33197.0,131494.0,32522.0,37349.0,19505.0,18778.0,15094.0,3950.0,2917.0,1151.0,185.0,43.0
305976,County,2020/04/05,37.0,NC,37153.0,Richmond County,12243.0,32644.0,120391.0,26198.0,32284.0,19721.0,17868.0,14677.0,5519.0,2980.0,896.0,211.0,37.0
307611,County,2020/04/06,37.0,NC,37153.0,Richmond County,10477.0,34410.0,134672.0,31044.0,36187.0,17838.0,21353.0,16364.0,6651.0,3557.0,1385.0,283.0,10.0
310804,County,2020/04/07,37.0,NC,37153.0,Richmond County,10630.0,34257.0,137083.0,33051.0,33409.0,19848.0,19257.0,17311.0,9829.0,3087.0,1142.0,139.0,10.0
313998,County,2020/04/08,37.0,NC,37153.0,Richmond County,11239.0,33648.0,138216.0,33362.0,32458.0,21964.0,21232.0,16790.0,7960.0,2931.0,1470.0,29.0,20.0
317216,County,2020/04/09,37.0,NC,37153.0,Richmond County,10883.0,34004.0,143404.0,32620.0,35917.0,20524.0,23897.0,17413.0,8813.0,2778.0,1339.0,55.0,48.0
321953,County,2020/04/10,37.0,NC,37153.0,Richmond County,10650.0,34237.0,143305.0,35894.0,36413.0,20576.0,23655.0,15319.0,7453.0,2934.0,995.0,56.0,10.0
325147,County,2020/04/11,37.0,NC,37153.0,Richmond County,10911.0,33976.0,140818.0,36159.0,31979.0,22926.0,22576.0,17853.0,5541.0,2798.0,850.0,116.0,20.0
328313,County,2020/04/12,37.0,NC,37153.0,Richmond County,12249.0,32638.0,103283.0,26278.0,26592.0,16805.0,17412.0,10773.0,3226.0,1638.0,478.0,81.0,0.0
331535,County,2020/04/13,37.0,NC,37153.0,Richmond County,10491.0,34396.0,135916.0,33004.0,38154.0,18097.0,20604.0,16162.0,5601.0,2957.0,1172.0,136.0,29.0
334661,County,2020/04/14,37.0,NC,37153.0,Richmond County,9985.0,34902.0,164176.0,37468.0,49067.0,24207.0,28693.0,14861.0,6290.0,2429.0,931.0,211.0,19.0
337962,County,2020/04/15,37.0,NC,37153.0,Richmond County,9817.0,35070.0,157487.0,32805.0,49390.0,23406.0,25354.0,13723.0,7250.0,4349.0,1175.0,0.0,35.0
339541,County,2020/04/16,37.0,NC,37153.0,Richmond County,10233.0,34654.0,150591.0,24743.0,44338.0,24950.0,25334.0,19766.0,7476.0,2335.0,1576.0,54.0,19.0
344320,County,2020/04/17,37.0,NC,37153.0,Richmond County,9221.0,35666.0,146929.0,33422.0,39373.0,24278.0,23695.0,14115.0,7466.0,3403.0,1046.0,97.0,34.0
347467,County,2020/04/18,37.0,NC,37153.0,Richmond County,10094.0,34793.0,148793.0,32599.0,44715.0,18454.0,23361.0,17750.0,8267.0,2582.0,996.0,51.0,18.0
349119,County,2020/04/19,37.0,NC,37153.0,Richmond County,10809.0,34078.0,117678.0,23643.0,36171.0,16601.0,20125.0,14364.0,4663.0,1165.0,839.0,107.0,0.0
352325,County,2020/04/20,37.0,NC,37153.0,Richmond County,10120.0,34767.0,138383.0,29505.0,44855.0,17387.0,21435.0,14377.0,6457.0,3362.0,817.0,139.0,49.0
355568,County,2020/04/21,37.0,NC,37153.0,Richmond County,10417.0,34470.0,146360.0,32964.0,41746.0,21847.0,21822.0,14905.0,9136.0,2261.0,1648.0,31.0,0.0
358713,County,2020/04/22,37.0,NC,37153.0,Richmond County,10517.0,34370.0,135887.0,29944.0,36354.0,20594.0,22029.0,12876.0,9954.0,2843.0,1151.0,131.0,11.0
361819,County,2020/04/23,37.0,NC,37153.0,Richmond County,9991.0,34896.0,135837.0,28747.0,38465.0,21818.0,19322.0,14939.0,8516.0,2293.0,1509.0,207.0,21.0
366707,County,2020/04/24,37.0,NC,37153.0,Richmond County,10184.0,34703.0,148698.0,30685.0,42579.0,22804.0,23368.0,15450.0,9395.0,2369.0,1919.0,119.0,10.0
369863,County,2020/04/25,37.0,NC,37153.0,Richmond County,10729.0,34158.0,133378.0,28714.0,38133.0,23355.0,18091.0,14457.0,6820.0,2101.0,1450.0,257.0,0.0
371455,County,2020/04/26,37.0,NC,37153.0,Richmond County,11482.0,33405.0,131383.0,27493.0,37391.0,22153.0,19220.0,14903.0,6416.0,2304.0,1120.0,343.0,40.0
374683,County,2020/04/27,37.0,NC,37153.0,Richmond County,10210.0,34677.0,150004.0,31742.0,43391.0,24562.0,23456.0,15484.0,7098.0,1997.0,1942.0,297.0,35.0
379362,County,2020/04/28,37.0,NC,37153.0,Richmond County,9778.0,35109.0,144375.0,30232.0,39671.0,21132.0,23933.0,16630.0,8156.0,3130.0,1237.0,221.0,33.0
381086,County,2020/04/29,37.0,NC,37153.0,Richmond County,10493.0,34394.0,152864.0,30809.0,41758.0,26394.0,24973.0,14588.0,8918.0,3638.0,1535.0,251.0,0.0
385832,County,2020/04/30,37.0,NC,37153.0,Richmond County,10395.0,34492.0,147726.0,31534.0,42599.0,24980.0,20579.0,14372.0,8215.0,2933.0,2254.0,249.0,11.0
387507,County,2020/05/01,37.0,NC,37153.0,Richmond County,9513.0,35374.0,152249.0,33449.0,43522.0,24188.0,22442.0,17031.0,7692.0,2476.0,1357.0,60.0,32.0
392219,County,2020/05/02,37.0,NC,37153.0,Richmond County,10544.0,34343.0,148067.0,28733.0,37681.0,25933.0,24084.0,19494.0,7222.0,3214.0,1602.0,68.0,36.0
393854,County,2020/05/03,37.0,NC,37153.0,Richmond County,11334.0,33553.0,131223.0,27185.0,38096.0,20552.0,20866.0,14307.0,6846.0,2301.0,891.0,165.0,14.0
398608,County,2020/05/04,37.0,NC,37153.0,Richmond County,8976.0,35911.0,166500.0,32733.0,48112.0,26561.0,25597.0,17829.0,10142.0,3261.0,2101.0,153.0,11.0
400235,County,2020/05/05,37.0,NC,37153.0,Richmond County,9102.0,35785.0,156236.0,35867.0,44422.0,23582.0,24962.0,14173.0,8264.0,3721.0,1005.0,231.0,9.0
403414,County,2020/05/06,37.0,NC,37153.0,Richmond County,9406.0,35481.0,158613.0,34692.0,44213.0,23560.0,23089.0,17273.0,10012.0,3947.0,1599.0,210.0,18.0
406617,County,2020/05/07,37.0,NC,37153.0,Richmond County,9033.0,35854.0,169847.0,36497.0,43313.0,24995.0,26046.0,22398.0,11451.0,3113.0,1878.0,137.0,19.0
409922,County,2020/05/08,37.0,NC,37153.0,Richmond County,9184.0,35703.0,168992.0,34324.0,46253.0,25611.0,27063.0,19669.0,9161.0,4156.0,2594.0,141.0,20.0
414544,County,2020/05/09,37.0,NC,37153.0,Richmond County,10180.0,34707.0,162364.0,34593.0,43097.0,25382.0,29308.0,17387.0,8128.0,2891.0,1356.0,189.0,33.0
416205,County,2020/05/10,37.0,NC,37153.0,Richmond County,10114.0,34773.0,132029.0,23104.0,32379.0,23175.0,23990.0,18076.0,6642.0,1998.0,2428.0,159.0,78.0
419448,County,2020/05/11,37.0,NC,37153.0,Richmond County,9272.0,35615.0,170319.0,36807.0,42671.0,26626.0,27506.0,20677.0,10156.0,3739.0,1779.0,290.0,68.0
424208,County,2020/05/12,37.0,NC,37153.0,Richmond County,8437.0,36450.0,175974.0,43927.0,45300.0,21958.0,28313.0,20202.0,10813.0,3433.0,1806.0,203.0,19.0
427354,County,2020/05/13,37.0,NC,37153.0,Richmond County,8779.0,36108.0,166241.0,36800.0,44329.0,23447.0,26111.0,20040.0,10716.0,2946.0,1638.0,182.0,32.0
430548,County,2020/05/14,37.0,NC,37153.0,Richmond County,8914.0,35973.0,161288.0,36513.0,41416.0,23426.0,23771.0,21605.0,8354.0,4452.0,1611.0,71.0,69.0
432177,County,2020/05/15,37.0,NC,37153.0,Richmond County,8870.0,36017.0,159994.0,34441.0,42634.0,21215.0,24954.0,19403.0,9876.0,4927.0,2316.0,164.0,64.0
436926,County,2020/05/16,37.0,NC,37153.0,Richmond County,9221.0,35666.0,158495.0,36799.0,39402.0,23752.0,23346.0,20696.0,8341.0,3905.0,1986.0,169.0,99.0
438553,County,2020/05/17,37.0,NC,37153.0,Richmond County,8520.0,36367.0,144958.0,31735.0,36947.0,19690.0,25554.0,17008.0,9119.0,2565.0,1918.0,408.0,14.0
441798,County,2020/05/18,37.0,NC,37153.0,Richmond County,7101.0,37786.0,176787.0,38433.0,50059.0,30788.0,23599.0,18341.0,10511.0,3452.0,1500.0,104.0,0.0
446488,County,2020/05/19,37.0,NC,37153.0,Richmond County,7604.0,37283.0,165334.0,36307.0,46113.0,26483.0,24605.0,17270.0,9101.0,3704.0,1465.0,249.0,37.0
449713,County,2020/05/20,37.0,NC,37153.0,Richmond County,7416.0,37471.0,170092.0,36985.0,44540.0,24128.0,27265.0,20838.0,9200.0,4669.0,2212.0,255.0,0.0
451339,County,2020/05/21,37.0,NC,37153.0,Richmond County,7559.0,37328.0,157033.0,33199.0,39548.0,20691.0,25870.0,18299.0,11944.0,4762.0,2273.0,422.0,25.0
456099,County,2020/05/22,37.0,NC,37153.0,Richmond County,6869.0,38018.0,188105.0,36773.0,53809.0,26099.0,29062.0,24154.0,11324.0,3805.0,2761.0,295.0,23.0
459310,County,2020/05/23,37.0,NC,37153.0,Richmond County,7607.0,37280.0,180926.0,40065.0,49032.0,28261.0,25890.0,21787.0,9730.0,3643.0,2066.0,452.0,0.0
462465,County,2020/05/24,37.0,NC,37153.0,Richmond County,9740.0,35147.0,143325.0,32908.0,40125.0,21650.0,19956.0,16505.0,6708.0,3523.0,1673.0,218.0,59.0
464093,County,2020/05/25,37.0,NC,37153.0,Richmond County,10026.0,34861.0,134102.0,31381.0,34595.0,19760.0,21229.0,14074.0,6542.0,4302.0,1859.0,271.0,89.0
467296,County,2020/05/26,37.0,NC,37153.0,Richmond County,9063.0,35824.0,141245.0,31206.0,36102.0,19360.0,22545.0,15505.0,8885.0,5164.0,1813.0,441.0,224.0
470503,County,2020/05/27,37.0,NC,37153.0,Richmond County,9320.0,35567.0,143832.0,28868.0,38240.0,22000.0,20801.0,19330.0,8657.0,3705.0,1840.0,362.0,29.0
475264,County,2020/05/28,37.0,NC,37153.0,Richmond County,8813.0,36074.0,150877.0,34025.0,39708.0,21313.0,21604.0,19759.0,8967.0,3813.0,1355.0,305.0,28.0
478453,County,2020/05/29,37.0,NC,37153.0,Richmond County,9690.0,35197.0,151350.0,32345.0,38283.0,22679.0,24471.0,17407.0,10120.0,3836.0,1987.0,203.0,19.0
481653,County,2020/05/30,37.0,NC,37153.0,Richmond County,10034.0,34853.0,156282.0,38406.0,41874.0,22140.0,23787.0,16759.0,7909.0,3879.0,1248.0,242.0,38.0
483209,County,2020/05/31,37.0,NC,37153.0,Richmond County,9696.0,35191.0,146999.0,37961.0,39316.0,21111.0,20343.0,15625.0,6984.0,3293.0,2267.0,91.0,8.0
486426,County,2020/06/01,37.0,NC,37153.0,Richmond County,8386.0,36501.0,164361.0,38643.0,47421.0,22770.0,21166.0,18444.0,9512.0,4005.0,2081.0,306.0,13.0
491206,County,2020/06/02,37.0,NC,37153.0,Richmond County,9379.0,35508.0,160576.0,38382.0,40705.0,22815.0,23443.0,18920.0,9138.0,5139.0,1846.0,160.0,28.0
494428,County,2020/06/03,37.0,NC,37153.0,Richmond County,8206.0,36681.0,176703.0,41876.0,45345.0,24542.0,23931.0,22977.0,11489.0,4374.0,1999.0,107.0,63.0
496047,County,2020/06/04,37.0,NC,37153.0,Richmond County,8116.0,36771.0,171901.0,40905.0,44113.0,22016.0,26038.0,20672.0,10564.0,5156.0,2124.0,294.0,19.0
499250,County,2020/06/05,37.0,NC,37153.0,Richmond County,8093.0,36794.0,172073.0,40818.0,44996.0,24443.0,24540.0,19788.0,10015.0,4721.0,2339.0,360.0,53.0
502397,County,2020/06/06,37.0,NC,37153.0,Richmond County,9235.0,35652.0,154788.0,36109.0,40522.0,21716.0,25328.0,17669.0,7145.0,4056.0,1835.0,370.0,38.0
507174,County,2020/06/07,37.0,NC,37153.0,Richmond County,9503.0,35384.0,140130.0,30685.0,37562.0,20311.0,21527.0,15606.0,7867.0,4111.0,2220.0,197.0,44.0
508812,County,2020/06/08,37.0,NC,37153.0,Richmond County,8488.0,36399.0,168571.0,34915.0,45567.0,26698.0,24503.0,20454.0,10443.0,3907.0,1860.0,166.0,58.0
512063,County,2020/06/09,37.0,NC,37153.0,Richmond County,9070.0,35817.0,154518.0,30868.0,40866.0,23900.0,23664.0,19012.0,10513.0,3973.0,1419.0,247.0,56.0
516795,County,2020/06/10,37.0,NC,37153.0,Richmond County,9029.0,35858.0,157576.0,31409.0,41006.0,24159.0,23497.0,20571.0,10719.0,3742.0,2135.0,264.0,74.0
519952,County,2020/06/11,37.0,NC,37153.0,Richmond County,8363.0,36524.0,162092.0,31467.0,48087.0,23477.0,24570.0,19298.0,9248.0,3535.0,1839.0,415.0,156.0
521626,County,2020/06/12,37.0,NC,37153.0,Richmond County,8781.0,36106.0,170018.0,34520.0,47919.0,27207.0,24177.0,19021.0,10147.0,4442.0,2375.0,160.0,50.0
524802,County,2020/06/13,37.0,NC,37153.0,Richmond County,8651.0,36236.0,167441.0,38365.0,42189.0,25532.0,26288.0,18398.0,9187.0,4528.0,2678.0,243.0,33.0
527997,County,2020/06/14,37.0,NC,37153.0,Richmond County,9814.0,35073.0,125762.0,25443.0,34754.0,19222.0,20261.0,14819.0,6178.0,2573.0,2084.0,387.0,41.0
532756,County,2020/06/15,37.0,NC,37153.0,Richmond County,9501.0,35386.0,139658.0,28072.0,36715.0,25036.0,20318.0,15090.0,7938.0,4588.0,1676.0,186.0,39.0
535976,County,2020/06/16,37.0,NC,37153.0,Richmond County,9526.0,35361.0,148707.0,31789.0,39355.0,22860.0,22922.0,17169.0,9788.0,3129.0,1344.0,255.0,96.0
537578,County,2020/06/17,37.0,NC,37153.0,Richmond County,9371.0,35516.0,159807.0,37483.0,42401.0,23470.0,23828.0,16132.0,11142.0,3847.0,1246.0,258.0,0.0
540774,County,2020/06/18,37.0,NC,37153.0,Richmond County,9063.0,35824.0,159877.0,36592.0,42002.0,22625.0,23170.0,18686.0,10715.0,4417.0,1328.0,263.0,79.0
545491,County,2020/06/19,37.0,NC,37153.0,Richmond County,8846.0,36041.0,146404.0,37764.0,36493.0,21076.0,20577.0,14429.0,8965.0,4011.0,2558.0,494.0,37.0
548726,County,2020/06/20,37.0,NC,37153.0,Richmond County,9864.0,35023.0,146914.0,33182.0,41394.0,21544.0,20926.0,15484.0,7198.0,4065.0,2881.0,189.0,51.0
551914,County,2020/06/21,37.0,NC,37153.0,Richmond County,10577.0,34310.0,133000.0,31556.0,35479.0,20050.0,17637.0,13531.0,7278.0,3152.0,4174.0,125.0,18.0
553550,County,2020/06/22,37.0,NC,37153.0,Richmond County,9380.0,35507.0,145306.0,37344.0,37578.0,20168.0,20813.0,14158.0,8763.0,3917.0,2163.0,331.0,71.0
556734,County,2020/06/23,37.0,NC,37153.0,Richmond County,8843.0,36044.0,144202.0,30173.0,36671.0,21533.0,22606.0,16700.0,10634.0,3963.0,1624.0,231.0,67.0
561502,County,2020/06/24,37.0,NC,37153.0,Richmond County,9143.0,35744.0,152298.0,39365.0,38691.0,20123.0,18542.0,18068.0,10136.0,5173.0,1977.0,202.0,21.0
564678,County,2020/06/25,37.0,NC,37153.0,Richmond County,9254.0,35633.0,153711.0,36586.0,42247.0,23679.0,21722.0,16176.0,7472.0,3952.0,1481.0,367.0,29.0
566384,County,2020/06/26,37.0,NC,37153.0,Richmond County,8974.0,35913.0,158445.0,36442.0,43247.0,23202.0,21016.0,17714.0,9748.0,5081.0,1612.0,368.0,15.0
569506,County,2020/06/27,37.0,NC,37153.0,Richmond County,9372.0,35515.0,155313.0,36329.0,43436.0,22004.0,22643.0,15716.0,8418.0,5016.0,1573.0,178.0,0.0
572705,County,2020/06/28,37.0,NC,37153.0,Richmond County,9724.0,35163.0,137258.0,34014.0,33628.0,20077.0,18589.0,14862.0,9134.0,4469.0,2241.0,198.0,46.0
575864,County,2020/06/29,37.0,NC,37153.0,Richmond County,9395.0,35492.0,142617.0,28541.0,43526.0,17787.0,19155.0,16669.0,10108.0,5052.0,1449.0,261.0,69.0
580676,County,2020/06/30,37.0,NC,37153.0,Richmond County,9618.0,35269.0,149095.0,32558.0,40913.0,22617.0,19252.0,17265.0,10100.0,4831.0,1319.0,224.0,16.0
583872,County,2020/07/01,37.0,NC,37153.0,Richmond County,9319.0,35568.0,147272.0,33749.0,40355.0,21089.0,20461.0,15766.0,8596.0,4739.0,2295.0,192.0,30.0
587063,County,2020/07/02,37.0,NC,37153.0,Richmond County,9700.0,35187.0,163151.0,38833.0,44841.0,25133.0,23056.0,17169.0,7931.0,4195.0,1572.0,390.0,31.0
590260,County,2020/07/03,37.0,NC,37153.0,Richmond County,10483.0,34404.0,157552.0,36237.0,43003.0,23071.0,20898.0,17614.0,9693.0,5052.0,1603.0,366.0,15.0
593446,County,2020/07/04,37.0,NC,37153.0,Richmond County,11106.0,33781.0,134788.0,31001.0,36790.0,19738.0,17878.0,15069.0,8293.0,4322.0,1371.0,313.0,13.0
595096,County,2020/07/05,37.0,NC,37153.0,Richmond County,10103.0,34784.0,131950.0,26904.0,36030.0,19814.0,19242.0,13695.0,7442.0,6072.0,2408.0,261.0,82.0
599782,County,2020/07/06,37.0,NC,37153.0,Richmond County,10357.0,34530.0,131704.0,26703.0,35599.0,19816.0,18281.0,13812.0,10350.0,4873.0,1995.0,221.0,54.0
603502,County,2020/07/07,37.0,NC,37153.0,Richmond County,9870.0,35017.0,152322.0,49588.0,36072.0,14983.0,21002.0,14322.0,8769.0,5094.0,2219.0,238.0,35.0
606119,County,2020/07/08,37.0,NC,37153.0,Richmond County,9680.0,35207.0,130314.0,27274.0,34923.0,20074.0,16094.0,14795.0,8498.0,6177.0,2117.0,314.0,48.0
607845,County,2020/07/09,37.0,NC,37153.0,Richmond County,9808.0,35079.0,136603.0,29443.0,37011.0,17945.0,20982.0,14912.0,7828.0,4879.0,3326.0,200.0,77.0
611045,County,2020/07/10,37.0,NC,37153.0,Richmond County,9801.0,35086.0,140674.0,25905.0,39358.0,20937.0,19912.0,16663.0,9711.0,5282.0,2583.0,295.0,28.0
614256,County,2020/07/11,37.0,NC,37153.0,Richmond County,9745.0,35142.0,125196.0,27028.0,32558.0,20347.0,18477.0,12875.0,6980.0,4389.0,2170.0,306.0,66.0
617427,County,2020/07/12,37.0,NC,37153.0,Richmond County,11479.0,33408.0,108696.0,22144.0,30512.0,16089.0,15311.0,11291.0,5940.0,5009.0,1906.0,424.0,70.0
622187,County,2020/07/13,37.0,NC,37153.0,Richmond County,10150.0,34737.0,126090.0,26691.0,34765.0,15540.0,20207.0,12992.0,8050.0,4951.0,2588.0,260.0,46.0
625381,County,2020/07/14,37.0,NC,37153.0,Richmond County,10072.0,34815.0,133298.0,26905.0,35354.0,17836.0,21746.0,15358.0,8390.0,5159.0,2280.0,155.0,115.0
628554,County,2020/07/15,37.0,NC,37153.0,Richmond County,10142.0,34745.0,136061.0,25226.0,38696.0,18451.0,21382.0,16732.0,9168.0,4302.0,1762.0,300.0,42.0
630180,County,2020/07/16,37.0,NC,37153.0,Richmond County,10188.0,34699.0,137394.0,29577.0,33538.0,18637.0,18761.0,19695.0,11364.0,3121.0,2362.0,317.0,22.0
633381,County,2020/07/17,37.0,NC,37153.0,Richmond County,10265.0,34622.0,137644.0,31373.0,35572.0,19219.0,18232.0,16528.0,9199.0,4316.0,2828.0,321.0,56.0
636592,County,2020/07/18,37.0,NC,37153.0,Richmond County,10779.0,34108.0,129649.0,26892.0,35008.0,19305.0,19609.0,15146.0,8302.0,3545.0,1601.0,216.0,25.0
639747,County,2020/07/19,37.0,NC,37153.0,Richmond County,11876.0,33011.0,117482.0,20711.0,33546.0,16690.0,18980.0,14451.0,6181.0,3990.0,2711.0,213.0,9.0
642981,County,2020/07/20,37.0,NC,37153.0,Richmond County,10965.0,33922.0,134744.0,27738.0,37137.0,17963.0,20455.0,17126.0,9113.0,3500.0,1526.0,178.0,8.0
646157,County,2020/07/21,37.0,NC,37153.0,Richmond County,10109.0,34778.0,131472.0,27733.0,33090.0,17817.0,20307.0,16937.0,9827.0,3748.0,1877.0,122.0,14.0
648839,County,2020/07/22,37.0,NC,37153.0,Richmond County,10202.0,34685.0,136821.0,30964.0,33034.0,17604.0,21136.0,17135.0,10685.0,4104.0,1980.0,152.0,27.0
652476,County,2020/07/23,37.0,NC,37153.0,Richmond County,10352.0,34535.0,135649.0,30796.0,36475.0,16751.0,19233.0,17453.0,8520.0,4589.0,1610.0,215.0,7.0
655599,County,2020/07/24,37.0,NC,37153.0,Richmond County,9931.0,34956.0,144982.0,31987.0,38368.0,20884.0,21693.0,16308.0,8931.0,4536.0,2131.0,131.0,13.0
658945,County,2020/07/25,37.0,NC,37153.0,Richmond County,10500.0,34387.0,127626.0,28030.0,33094.0,17863.0,18524.0,16035.0,7517.0,4368.0,1961.0,196.0,38.0
663651,County,2020/07/26,37.0,NC,37153.0,Richmond County,10592.0,34295.0,130487.0,26745.0,33082.0,19312.0,19647.0,16692.0,8614.0,4054.0,1952.0,317.0,72.0
666924,County,2020/07/27,37.0,NC,37153.0,Richmond County,10490.0,34397.0,132549.0,25430.0,35781.0,18541.0,19212.0,18204.0,8018.0,4995.0,2045.0,239.0,84.0
668602,County,2020/07/28,37.0,NC,37153.0,Richmond County,9767.0,35120.0,150080.0,28786.0,40983.0,20680.0,23954.0,18167.0,10656.0,4439.0,2172.0,230.0,13.0
673390,County,2020/07/29,37.0,NC,37153.0,Richmond County,9928.0,34959.0,140422.0,26299.0,38565.0,19541.0,19971.0,19765.0,9908.0,4078.0,2029.0,223.0,43.0
676470,County,2020/07/30,37.0,NC,37153.0,Richmond County,9329.0,35558.0,141562.0,27929.0,33952.0,22013.0,22662.0,17292.0,10213.0,5273.0,1938.0,219.0,71.0
679698,County,2020/07/31,37.0,NC,37153.0,Richmond County,9897.0,34990.0,137319.0,24315.0,38008.0,20786.0,20038.0,16693.0,10207.0,4468.0,2451.0,318.0,35.0
681279,County,2020/08/01,37.0,NC,37153.0,Richmond County,10591.0,34296.0,133875.0,25253.0,37867.0,21112.0,20834.0,14201.0,8118.0,4205.0,1979.0,306.0,0.0
684502,County,2020/08/02,37.0,NC,37153.0,Richmond County,11345.0,33542.0,123608.0,25481.0,35156.0,16009.0,18557.0,14168.0,7026.0,4803.0,2102.0,251.0,55.0
689262,County,2020/08/03,37.0,NC,37153.0,Richmond County,10005.0,34882.0,142894.0,31198.0,39776.0,19338.0,19357.0,17804.0,9929.0,3847.0,1286.0,318.0,41.0
690890,County,2020/08/04,37.0,NC,37153.0,Richmond County,9762.0,35125.0,140224.0,27713.0,39240.0,19804.0,21447.0,17237.0,9301.0,4222.0,977.0,249.0,34.0
695650,County,2020/08/05,37.0,NC,37153.0,Richmond County,9853.0,35034.0,142208.0,27722.0,38706.0,20503.0,22540.0,17475.0,9706.0,3943.0,1294.0,247.0,72.0
698845,County,2020/08/06,37.0,NC,37153.0,Richmond County,9280.0,35607.0,150501.0,32755.0,39848.0,21035.0,21725.0,19772.0,9897.0,3387.0,1805.0,257.0,20.0
702041,County,2020/08/07,37.0,NC,37153.0,Richmond County,9366.0,35521.0,155719.0,41349.0,41355.0,18292.0,19141.0,18452.0,10734.0,4494.0,1651.0,230.0,21.0
705232,County,2020/08/08,37.0,NC,37153.0,Richmond County,9810.0,35077.0,130005.0,24307.0,32225.0,20442.0,20468.0,16488.0,8581.0,4818.0,2187.0,482.0,7.0
708451,County,2020/08/09,37.0,NC,37153.0,Richmond County,10707.0,34180.0,119146.0,22182.0,32306.0,16429.0,18974.0,14452.0,7428.0,4221.0,2905.0,215.0,34.0
710081,County,2020/08/10,37.0,NC,37153.0,Richmond County,9829.0,35058.0,124755.0,22396.0,32975.0,18852.0,17604.0,15620.0,10335.0,4748.0,1987.0,215.0,23.0
713298,County,2020/08/11,37.0,NC,37153.0,Richmond County,10310.0,34577.0,135905.0,25581.0,37300.0,20428.0,21045.0,17116.0,9344.0,3698.0,1163.0,206.0,24.0
717910,County,2020/08/12,37.0,NC,37153.0,Richmond County,9560.0,35327.0,129201.0,22308.0,32831.0,18842.0,20665.0,19288.0,8438.0,4732.0,1708.0,233.0,156.0
719637,County,2020/08/13,37.0,NC,37153.0,Richmond County,9924.0,34963.0,127148.0,21398.0,31180.0,19383.0,22607.0,16147.0,8860.0,5501.0,1638.0,291.0,143.0
722830,County,2020/08/14,37.0,NC,37153.0,Richmond County,9222.0,35665.0,143603.0,25255.0,34202.0,23484.0,24447.0,18666.0,9859.0,5139.0,1992.0,381.0,178.0
726061,County,2020/08/15,37.0,NC,37153.0,Richmond County,10237.0,34650.0,131732.0,23413.0,30250.0,19346.0,23453.0,17884.0,9283.0,5494.0,2185.0,232.0,192.0
730783,County,2020/08/16,37.0,NC,37153.0,Richmond County,11175.0,33712.0,127144.0,20669.0,32424.0,17857.0,21942.0,16536.0,8758.0,4845.0,3451.0,434.0,228.0
732413,County,2020/08/17,37.0,NC,37153.0,Richmond County,10969.0,33918.0,133260.0,23172.0,33586.0,20647.0,21986.0,18374.0,7301.0,4759.0,2741.0,525.0,169.0
737172,County,2020/08/18,37.0,NC,37153.0,Richmond County,10437.0,34450.0,118054.0,17868.0,30731.0,17010.0,17748.0,15993.0,9763.0,5750.0,2352.0,528.0,311.0
740367,County,2020/08/19,37.0,NC,37153.0,Richmond County,9931.0,34956.0,124581.0,19920.0,31658.0,17177.0,21587.0,17744.0,8989.0,4992.0,1849.0,373.0,292.0
743565,County,2020/08/20,37.0,NC,37153.0,Richmond County,9327.0,35560.0,134395.0,21964.0,36854.0,20989.0,21598.0,16297.0,8338.0,5299.0,2292.0,489.0,275.0
745195,County,2020/08/21,37.0,NC,37153.0,Richmond County,8637.0,36250.0,136815.0,24183.0,36022.0,20555.0,20051.0,17886.0,8468.0,5083.0,3824.0,450.0,293.0
748400,County,2020/08/22,37.0,NC,37153.0,Richmond County,9698.0,35189.0,125177.0,22379.0,32438.0,19279.0,18703.0,15021.0,9285.0,5015.0,2545.0,224.0,288.0
751593,County,2020/08/23,37.0,NC,37153.0,Richmond County,10983.0,33904.0,102844.0,18029.0,25929.0,14568.0,15331.0,14427.0,7643.0,3979.0,2458.0,308.0,172.0
756337,County,2020/08/24,37.0,NC,37153.0,Richmond County,11006.0,33881.0,120164.0,22423.0,32981.0,16717.0,18109.0,14680.0,8653.0,4756.0,1351.0,324.0,170.0
759576,County,2020/08/25,37.0,NC,37153.0,Richmond County,10266.0,34621.0,119367.0,20433.0,31491.0,16384.0,19484.0,14970.0,10031.0,4578.0,1512.0,368.0,116.0
762687,County,2020/08/26,37.0,NC,37153.0,Richmond County,10485.0,34402.0,123181.0,21677.0,33748.0,18340.0,18070.0,15776.0,8524.0,4841.0,1793.0,305.0,107.0
764316,County,2020/08/27,37.0,NC,37153.0,Richmond County,10283.0,34604.0,129987.0,24270.0,38519.0,18012.0,19765.0,14378.0,8905.0,4425.0,1441.0,215.0,57.0
769099,County,2020/08/28,37.0,NC,37153.0,Richmond County,10077.0,34810.0,130369.0,26334.0,34696.0,21103.0,17721.0,15181.0,8087.0,5019.0,1926.0,219.0,83.0
772300,County,2020/08/29,37.0,NC,37153.0,Richmond County,10473.0,34414.0,130937.0,28113.0,35810.0,19607.0,18457.0,14622.0,7845.0,4502.0,1726.0,220.0,35.0
775504,County,2020/08/30,37.0,NC,37153.0,Richmond County,11692.0,33195.0,110650.0,21655.0,29159.0,15908.0,17763.0,11627.0,8202.0,4145.0,1939.0,193.0,59.0
777114,County,2020/08/31,37.0,NC,37153.0,Richmond County,9793.0,35094.0,126680.0,25388.0,33924.0,18447.0,18180.0,14807.0,8326.0,5027.0,2262.0,231.0,88.0
781893,County,2020/09/01,37.0,NC,37153.0,Richmond County,10386.0,34501.0,129705.0,24059.0,35196.0,17793.0,18447.0,14873.0,11113.0,5909.0,1954.0,325.0,36.0
784341,County,2020/09/02,37.0,NC,37153.0,Richmond County,10435.0,34452.0,127222.0,23808.0,37530.0,17628.0,17474.0,12817.0,10306.0,5472.0,1993.0,165.0,29.0
786649,County,2020/09/03,37.0,NC,37153.0,Richmond County,9821.0,35066.0,139855.0,28843.0,35234.0,19776.0,19125.0,17164.0,11248.0,5713.0,2332.0,321.0,99.0
791480,County,2020/09/04,37.0,NC,37153.0,Richmond County,10188.0,34699.0,132221.0,21302.0,39620.0,19372.0,18428.0,15322.0,10243.0,4920.0,2672.0,281.0,61.0
792986,County,2020/09/05,37.0,NC,37153.0,Richmond County,10586.0,34301.0,131579.0,29854.0,32306.0,17800.0,19845.0,15545.0,9223.0,4322.0,2377.0,221.0,86.0
796276,County,2020/09/06,37.0,NC,37153.0,Richmond County,11798.0,33089.0,110969.0,19156.0,30473.0,14571.0,17896.0,14095.0,9230.0,3266.0,2150.0,112.0,20.0
799487,County,2020/09/07,37.0,NC,37153.0,Richmond County,11516.0,33371.0,110513.0,18973.0,30300.0,14724.0,16252.0,13152.0,8700.0,5652.0,2640.0,110.0,10.0
804247,County,2020/09/08,37.0,NC,37153.0,Richmond County,10448.0,34439.0,148021.0,31791.0,43870.0,17928.0,20029.0,16836.0,10509.0,4961.0,1773.0,261.0,63.0
805876,County,2020/09/09,37.0,NC,37153.0,Richmond County,10762.0,34125.0,138408.0,23001.0,38140.0,20089.0,20465.0,19700.0,9875.0,4850.0,1964.0,255.0,69.0
809067,County,2020/09/10,37.0,NC,37153.0,Richmond County,10258.0,34629.0,134354.0,25551.0,35756.0,19123.0,19440.0,18825.0,9169.0,4162.0,1927.0,341.0,60.0
813828,County,2020/09/11,37.0,NC,37153.0,Richmond County,9751.0,35136.0,135010.0,24351.0,37953.0,18940.0,19560.0,18320.0,8334.0,5085.0,2148.0,256.0,63.0
817023,County,2020/09/12,37.0,NC,37153.0,Richmond County,11153.0,33734.0,131773.0,27934.0,37445.0,17923.0,18256.0,13701.0,9113.0,5209.0,1840.0,344.0,8.0
818630,County,2020/09/13,37.0,NC,37153.0,Richmond County,11780.0,33107.0,113021.0,14992.0,31417.0,18210.0,15590.0,15940.0,8018.0,5915.0,2518.0,371.0,50.0
823412,County,2020/09/14,37.0,NC,37153.0,Richmond County,10569.0,34318.0,135408.0,25689.0,34370.0,21417.0,19116.0,18612.0,8916.0,4849.0,2173.0,214.0,52.0
826604,County,2020/09/15,37.0,NC,37153.0,Richmond County,10282.0,34605.0,137983.0,27787.0,34040.0,21755.0,20484.0,16761.0,9900.0,4782.0,2095.0,343.0,36.0
828232,County,2020/09/16,37.0,NC,37153.0,Richmond County,10809.0,34078.0,141891.0,26178.0,36285.0,22950.0,20591.0,17690.0,10331.0,5587.0,1916.0,312.0,51.0
831426,County,2020/09/17,37.0,NC,37153.0,Richmond County,10646.0,34241.0,125710.0,20517.0,33457.0,18684.0,20483.0,14850.0,10577.0,4845.0,1863.0,384.0,50.0
836187,County,2020/09/18,37.0,NC,37153.0,Richmond County,10481.0,34406.0,145640.0,24992.0,37052.0,22100.0,24936.0,19189.0,9989.0,5022.0,2178.0,167.0,15.0
839379,County,2020/09/19,37.0,NC,37153.0,Richmond County,10848.0,34039.0,144438.0,24115.0,37705.0,23550.0,22004.0,19848.0,9942.0,4969.0,1989.0,283.0,33.0
841008,County,2020/09/20,37.0,NC,37153.0,Richmond County,11732.0,33155.0,110222.0,21367.0,25865.0,19364.0,18008.0,13022.0,6484.0,4077.0,1844.0,153.0,38.0
845795,County,2020/09/21,37.0,NC,37153.0,Richmond County,11231.0,33656.0,109410.0,17764.0,32061.0,17290.0,15839.0,12794.0,8669.0,3527.0,1134.0,324.0,8.0
848963,County,2020/09/22,37.0,NC,37153.0,Richmond County,10542.0,34345.0,123615.0,23921.0,33693.0,19016.0,17844.0,14028.0,9597.0,4079.0,1233.0,180.0,24.0
850591,County,2020/09/23,37.0,NC,37153.0,Richmond County,9906.0,34981.0,131686.0,25916.0,33856.0,17756.0,20489.0,16491.0,11292.0,3894.0,1802.0,146.0,44.0
853780,County,2020/09/24,37.0,NC,37153.0,Richmond County,9654.0,35233.0,135460.0,26658.0,34062.0,22245.0,19958.0,16679.0,10634.0,3328.0,1625.0,243.0,28.0
858544,County,2020/09/25,37.0,NC,37153.0,Richmond County,9752.0,35135.0,132730.0,24975.0,36841.0,17338.0,19456.0,16613.0,11163.0,3951.0,2185.0,159.0,49.0
861739,County,2020/09/26,37.0,NC,37153.0,Richmond County,10501.0,34386.0,126761.0,24224.0,34120.0,18667.0,19441.0,14610.0,9313.0,4349.0,1809.0,194.0,34.0
863344,County,2020/09/27,37.0,NC,37153.0,Richmond County,10921.0,33966.0,118146.0,22526.0,33089.0,16186.0,19598.0,14449.0,6883.0,3046.0,2080.0,272.0,17.0
868127,County,2020/09/28,37.0,NC,37153.0,Richmond County,10509.0,34378.0,131698.0,26062.0,32995.0,19203.0,21297.0,16825.0,10398.0,3282.0,1394.0,156.0,86.0
871319,County,2020/09/29,37.0,NC,37153.0,Richmond County,10280.0,34607.0,128003.0,23625.0,34084.0,19857.0,18256.0,15471.0,10268.0,4847.0,1414.0,148.0,33.0
872948,County,2020/09/30,37.0,NC,37153.0,Richmond County,10371.0,34516.0,127515.0,19927.0,36573.0,18902.0,19943.0,14799.0,10519.0,4891.0,1687.0,230.0,44.0
877688,County,2020/10/01,37.0,NC,37153.0,Richmond County,10077.0,34810.0,139356.0,25712.0,40895.0,21141.0,19439.0,14647.0,11320.0,4347.0,1579.0,237.0,39.0
880903,County,2020/10/02,37.0,NC,37153.0,Richmond County,10718.0,34169.0,135151.0,25113.0,36076.0,21873.0,20496.0,15622.0,9292.0,4260.0,2161.0,235.0,23.0
884098,County,2020/10/03,37.0,NC,37153.0,Richmond County,11413.0,33474.0,123284.0,19227.0,32739.0,19583.0,18774.0,15950.0,9501.0,5653.0,1670.0,132.0,55.0
886640,County,2020/10/04,37.0,NC,37153.0,Richmond County,11066.0,33821.0,111208.0,20657.0,27620.0,17564.0,17329.0,13409.0,8215.0,3796.0,2304.0,200.0,114.0
889892,County,2020/10/05,37.0,NC,37153.0,Richmond County,11399.0,33488.0,126768.0,22728.0,33691.0,17394.0,18710.0,16685.0,10858.0,4846.0,1670.0,167.0,19.0
893048,County,2020/10/06,37.0,NC,37153.0,Richmond County,10534.0,34353.0,130889.0,23110.0,35137.0,18869.0,19759.0,16666.0,10064.0,5314.0,1711.0,245.0,14.0
896243,County,2020/10/07,37.0,NC,37153.0,Richmond County,10285.0,34602.0,141522.0,29336.0,37523.0,21670.0,20568.0,17447.0,8997.0,4088.0,1740.0,137.0,16.0
899424,County,2020/10/08,37.0,NC,37153.0,Richmond County,10362.0,34525.0,130963.0,23494.0,33276.0,17414.0,20369.0,19163.0,10742.0,4285.0,1969.0,233.0,18.0
902676,County,2020/10/09,37.0,NC,37153.0,Richmond County,10022.0,34865.0,124184.0,20232.0,33501.0,17948.0,18085.0,17821.0,8577.0,5663.0,2133.0,210.0,14.0
906153,County,2020/10/10,37.0,NC,37153.0,Richmond County,11392.0,33495.0,118959.0,19185.0,32071.0,17110.0,19442.0,17712.0,8030.0,4159.0,1040.0,195.0,15.0
908332,County,2020/10/11,37.0,NC,37153.0,Richmond County,11691.0,33196.0,102045.0,14717.0,26885.0,16944.0,15761.0,12748.0,6923.0,5638.0,2150.0,263.0,16.0
911527,County,2020/10/12,37.0,NC,37153.0,Richmond County,10212.0,34675.0,130680.0,23495.0,38895.0,18106.0,19128.0,16024.0,8374.0,4603.0,1836.0,201.0,18.0
914697,County,2020/10/13,37.0,NC,37153.0,Richmond County,10441.0,34446.0,125684.0,21587.0,31317.0,20016.0,19891.0,16112.0,10335.0,4057.0,2102.0,245.0,22.0
917826,County,2020/10/14,37.0,NC,37153.0,Richmond County,9823.0,35064.0,127040.0,21494.0,34296.0,18788.0,19668.0,15914.0,8983.0,5557.0,2067.0,242.0,31.0
921380,County,2020/10/15,37.0,NC,37153.0,Richmond County,10471.0,34416.0,115359.0,19943.0,27014.0,16413.0,18831.0,14938.0,9444.0,5732.0,2729.0,279.0,36.0
924237,County,2020/10/16,37.0,NC,37153.0,Richmond County,9956.0,34931.0,126913.0,20798.0,36099.0,18001.0,18973.0,15794.0,10001.0,4986.0,2034.0,190.0,37.0
927838,County,2020/10/17,37.0,NC,37153.0,Richmond County,10770.0,34117.0,131007.0,27356.0,35703.0,17190.0,16399.0,18410.0,8751.0,4992.0,2001.0,183.0,22.0
930628,County,2020/10/18,37.0,NC,37153.0,Richmond County,11141.0,33746.0,119606.0,29706.0,29735.0,17233.0,14543.0,13570.0,7116.0,5214.0,2312.0,144.0,33.0
933735,County,2020/10/19,37.0,NC,37153.0,Richmond County,10131.0,34756.0,128885.0,25129.0,32354.0,18235.0,19078.0,16697.0,9560.0,5182.0,2248.0,370.0,32.0
937000,County,2020/10/20,37.0,NC,37153.0,Richmond County,10374.0,34513.0,125746.0,20054.0,33057.0,18080.0,18973.0,18189.0,9753.0,5108.0,2271.0,231.0,30.0
940588,County,2020/10/21,37.0,NC,37153.0,Richmond County,10767.0,34120.0,128658.0,23535.0,32503.0,18146.0,17927.0,17660.0,11266.0,5350.0,2016.0,228.0,27.0
943307,County,2020/10/22,37.0,NC,37153.0,Richmond County,10137.0,34750.0,129118.0,24272.0,30217.0,21231.0,19002.0,17089.0,8986.0,5875.0,2146.0,263.0,37.0
946592,County,2020/10/23,37.0,NC,37153.0,Richmond County,9432.0,35455.0,139756.0,22242.0,35378.0,21999.0,21236.0,19771.0,10262.0,6276.0,2338.0,218.0,36.0
950640,County,2020/10/24,37.0,NC,37153.0,Richmond County,10298.0,34589.0,138482.0,24339.0,32234.0,21514.0,21135.0,20917.0,10641.0,5946.0,1635.0,86.0,35.0
