,Level,Date,State FIPS,State Postal Code,County FIPS,County Name,Population Staying at Home,Population Not Staying at Home,Number of Trips,Number of Trips <1,Number of Trips 1-3,Number of Trips 3-5,Number of Trips 5-10,Number of Trips 10-25,Number of Trips 25-50,Number of Trips 50-100,Number of Trips 100-250,Number of Trips 250-500,Number of Trips >=500
3010,County,2020/01/01,54.0,WV,54039.0,Kanawha County,54101.0,126353.0,495227.0,130411.0,128313.0,60007.0,80571.0,65326.0,16734.0,9350.0,3874.0,469.0,172.0
4015,County,2020/01/02,54.0,WV,54039.0,Kanawha County,45831.0,134623.0,641148.0,167595.0,167149.0,86207.0,108386.0,76413.0,18794.0,12040.0,4068.0,409.0,87.0
9527,County,2020/01/03,54.0,WV,54039.0,Kanawha County,44484.0,135970.0,639530.0,160264.0,168470.0,86368.0,111922.0,78141.0,17890.0,10791.0,5042.0,463.0,179.0
11200,County,2020/01/04,54.0,WV,54039.0,Kanawha County,50122.0,130332.0,591683.0,148194.0,163065.0,75990.0,97712.0,71611.0,19875.0,11009.0,3734.0,401.0,92.0
15786,County,2020/01/05,54.0,WV,54039.0,Kanawha County,53548.0,126906.0,533131.0,133734.0,139928.0,74241.0,88087.0,67899.0,16864.0,7342.0,4438.0,449.0,149.0
17511,County,2020/01/06,54.0,WV,54039.0,Kanawha County,46852.0,133602.0,631918.0,167020.0,157467.0,82279.0,107977.0,85431.0,19674.0,8085.0,3455.0,388.0,142.0
20669,County,2020/01/07,54.0,WV,54039.0,Kanawha County,48030.0,132424.0,640106.0,183900.0,169766.0,78106.0,105501.0,76046.0,15850.0,7157.0,3207.0,487.0,86.0
23948,County,2020/01/08,54.0,WV,54039.0,Kanawha County,44015.0,136439.0,700136.0,201088.0,180544.0,88030.0,112975.0,85147.0,18651.0,9830.0,3379.0,401.0,91.0
27045,County,2020/01/09,54.0,WV,54039.0,Kanawha County,44126.0,136328.0,705895.0,200467.0,181649.0,92856.0,112287.0,85043.0,18103.0,10831.0,4081.0,465.0,113.0
30241,County,2020/01/10,54.0,WV,54039.0,Kanawha County,42970.0,137484.0,764386.0,222031.0,193432.0,105561.0,118227.0,90612.0,19740.0,10417.0,3860.0,421.0,85.0
35048,County,2020/01/11,54.0,WV,54039.0,Kanawha County,46706.0,133748.0,664076.0,182409.0,182490.0,84317.0,107761.0,75565.0,19211.0,8322.0,3480.0,417.0,104.0
38170,County,2020/01/12,54.0,WV,54039.0,Kanawha County,50186.0,130268.0,629419.0,179897.0,167032.0,85364.0,97760.0,71727.0,15495.0,7765.0,3888.0,378.0,113.0
39880,County,2020/01/13,54.0,WV,54039.0,Kanawha County,45052.0,135402.0,685940.0,190284.0,180195.0,90700.0,112532.0,83922.0,16394.0,8909.0,2635.0,295.0,74.0
43044,County,2020/01/14,54.0,WV,54039.0,Kanawha County,44296.0,136158.0,700994.0,192679.0,183398.0,89255.0,113822.0,90955.0,16646.0,10351.0,3459.0,355.0,74.0
46195,County,2020/01/15,54.0,WV,54039.0,Kanawha County,43810.0,136644.0,739931.0,214435.0,193690.0,95687.0,116028.0,87549.0,19121.0,9473.0,3545.0,336.0,67.0
50977,County,2020/01/16,54.0,WV,54039.0,Kanawha County,43970.0,136484.0,729699.0,214324.0,185135.0,93305.0,114390.0,87283.0,19351.0,10727.0,4532.0,545.0,107.0
52603,County,2020/01/17,54.0,WV,54039.0,Kanawha County,42252.0,138202.0,770893.0,226580.0,200778.0,91677.0,127781.0,89435.0,18594.0,11264.0,4225.0,450.0,109.0
57386,County,2020/01/18,54.0,WV,54039.0,Kanawha County,47909.0,132545.0,659076.0,180180.0,170833.0,88004.0,111869.0,76798.0,18865.0,8583.0,3502.0,347.0,95.0
58985,County,2020/01/19,54.0,WV,54039.0,Kanawha County,51702.0,128752.0,577566.0,166060.0,151080.0,72000.0,92407.0,68467.0,15947.0,7073.0,3913.0,485.0,134.0
63746,County,2020/01/20,54.0,WV,54039.0,Kanawha County,48012.0,132442.0,608400.0,167700.0,154667.0,77026.0,104039.0,77589.0,16618.0,7042.0,3178.0,432.0,109.0
66944,County,2020/01/21,54.0,WV,54039.0,Kanawha County,46307.0,134147.0,652322.0,181233.0,172985.0,77801.0,103325.0,83892.0,18653.0,10391.0,3459.0,477.0,106.0
68575,County,2020/01/22,54.0,WV,54039.0,Kanawha County,42778.0,137676.0,708385.0,204496.0,181484.0,95532.0,111568.0,85159.0,17971.0,8154.0,3567.0,393.0,61.0
73367,County,2020/01/23,54.0,WV,54039.0,Kanawha County,45024.0,135430.0,716321.0,199828.0,199562.0,87756.0,111449.0,84457.0,18515.0,10940.0,3304.0,426.0,84.0
76522,County,2020/01/24,54.0,WV,54039.0,Kanawha County,43510.0,136944.0,717749.0,199932.0,189733.0,90807.0,116515.0,86020.0,19575.0,10594.0,4082.0,372.0,119.0
79709,County,2020/01/25,54.0,WV,54039.0,Kanawha County,47824.0,132630.0,659603.0,187156.0,176429.0,82350.0,105044.0,76723.0,18081.0,9132.0,4149.0,421.0,118.0
82860,County,2020/01/26,54.0,WV,54039.0,Kanawha County,49339.0,131115.0,592461.0,166866.0,161862.0,77172.0,93508.0,67269.0,15188.0,7122.0,2952.0,431.0,91.0
86120,County,2020/01/27,54.0,WV,54039.0,Kanawha County,44437.0,136017.0,690335.0,203380.0,174922.0,89236.0,113764.0,83332.0,15885.0,6545.0,2778.0,405.0,88.0
88326,County,2020/01/28,54.0,WV,54039.0,Kanawha County,44002.0,136452.0,695076.0,214748.0,174157.0,84754.0,107433.0,82295.0,18863.0,9236.0,2981.0,482.0,127.0
90900,County,2020/01/29,54.0,WV,54039.0,Kanawha County,44695.0,135759.0,712227.0,204933.0,187354.0,87710.0,117098.0,85252.0,16610.0,9597.0,3207.0,391.0,75.0
94253,County,2020/01/30,54.0,WV,54039.0,Kanawha County,42839.0,137615.0,670295.0,189275.0,168511.0,79432.0,114207.0,84184.0,20658.0,8706.0,4214.0,912.0,196.0
97307,County,2020/01/31,54.0,WV,54039.0,Kanawha County,40878.0,139576.0,711086.0,197047.0,182498.0,89114.0,117056.0,90188.0,18812.0,10442.0,4713.0,998.0,218.0
100557,County,2020/02/01,54.0,WV,54039.0,Kanawha County,45605.0,134849.0,645445.0,181357.0,167217.0,75061.0,107045.0,80010.0,18735.0,9596.0,5283.0,933.0,208.0
103686,County,2020/02/02,54.0,WV,54039.0,Kanawha County,48265.0,132189.0,616687.0,173477.0,159066.0,74301.0,105214.0,71273.0,19010.0,9070.0,4287.0,796.0,193.0
106894,County,2020/02/03,54.0,WV,54039.0,Kanawha County,41957.0,138497.0,670384.0,192209.0,170938.0,79659.0,110082.0,83065.0,18613.0,9572.0,4988.0,1057.0,201.0
111656,County,2020/02/04,54.0,WV,54039.0,Kanawha County,41523.0,138931.0,666581.0,177978.0,179198.0,82111.0,108034.0,83169.0,18426.0,11481.0,4921.0,1062.0,201.0
114859,County,2020/02/05,54.0,WV,54039.0,Kanawha County,42360.0,138094.0,681695.0,190348.0,177254.0,83521.0,112781.0,82728.0,18895.0,9753.0,5129.0,1140.0,146.0
118065,County,2020/02/06,54.0,WV,54039.0,Kanawha County,40685.0,139769.0,665548.0,177876.0,177044.0,83428.0,108598.0,84769.0,18059.0,9922.0,4490.0,1187.0,175.0
119727,County,2020/02/07,54.0,WV,54039.0,Kanawha County,43872.0,136582.0,633282.0,171341.0,162025.0,79613.0,109418.0,80978.0,15592.0,8657.0,4471.0,1006.0,181.0
124432,County,2020/02/08,54.0,WV,54039.0,Kanawha County,47537.0,132917.0,619257.0,168950.0,157670.0,79399.0,106360.0,74943.0,18100.0,9366.0,3476.0,782.0,211.0
127027,County,2020/02/09,54.0,WV,54039.0,Kanawha County,47119.0,133335.0,475618.0,112711.0,119845.0,62154.0,86095.0,67113.0,15053.0,7472.0,3724.0,875.0,576.0
128176,County,2020/02/10,54.0,WV,54039.0,Kanawha County,39090.0,141364.0,569456.0,132520.0,138650.0,76182.0,104152.0,85492.0,17661.0,8941.0,4218.0,1049.0,591.0
133589,County,2020/02/11,54.0,WV,54039.0,Kanawha County,35489.0,144965.0,587179.0,144953.0,144812.0,72901.0,107222.0,85745.0,16638.0,9041.0,4155.0,1173.0,539.0
134541,County,2020/02/12,54.0,WV,54039.0,Kanawha County,35672.0,144782.0,595916.0,137579.0,147296.0,77979.0,109226.0,89997.0,18140.0,9207.0,4693.0,1121.0,678.0
140402,County,2020/02/13,54.0,WV,54039.0,Kanawha County,35365.0,145089.0,571907.0,133316.0,136042.0,76018.0,105867.0,86097.0,18662.0,9364.0,4743.0,1209.0,589.0
143605,County,2020/02/14,54.0,WV,54039.0,Kanawha County,34925.0,145529.0,587360.0,129444.0,134580.0,76818.0,115914.0,93432.0,19528.0,9307.0,6262.0,1285.0,790.0
146809,County,2020/02/15,54.0,WV,54039.0,Kanawha County,38008.0,142446.0,514569.0,105053.0,112250.0,66038.0,105390.0,86494.0,21537.0,10903.0,4978.0,1081.0,845.0
150011,County,2020/02/16,54.0,WV,54039.0,Kanawha County,43674.0,136780.0,484605.0,101879.0,114868.0,65692.0,87586.0,78095.0,18402.0,10127.0,6148.0,1097.0,711.0
153178,County,2020/02/17,54.0,WV,54039.0,Kanawha County,47782.0,132672.0,477433.0,105204.0,118772.0,63655.0,87948.0,71402.0,15284.0,9489.0,4211.0,940.0,528.0
154755,County,2020/02/18,54.0,WV,54039.0,Kanawha County,37267.0,143187.0,547895.0,119428.0,135123.0,72425.0,100860.0,84476.0,18228.0,10084.0,5406.0,1221.0,644.0
159565,County,2020/02/19,54.0,WV,54039.0,Kanawha County,38350.0,142104.0,550911.0,121970.0,133462.0,73908.0,101121.0,83329.0,19508.0,11344.0,4689.0,1229.0,351.0
162809,County,2020/02/20,54.0,WV,54039.0,Kanawha County,41492.0,138962.0,565479.0,120955.0,150609.0,77342.0,96918.0,82923.0,19390.0,11484.0,4590.0,1039.0,229.0
165954,County,2020/02/21,54.0,WV,54039.0,Kanawha County,39821.0,140633.0,597149.0,128059.0,151323.0,77320.0,114439.0,87553.0,20580.0,10350.0,5997.0,1233.0,295.0
167532,County,2020/02/22,54.0,WV,54039.0,Kanawha County,42584.0,137870.0,574169.0,133406.0,141299.0,74931.0,105736.0,77997.0,21767.0,12692.0,4871.0,1200.0,270.0
170811,County,2020/02/23,54.0,WV,54039.0,Kanawha County,46050.0,134404.0,515840.0,116449.0,131332.0,69622.0,94354.0,68880.0,17912.0,11458.0,4965.0,665.0,203.0
173973,County,2020/02/24,54.0,WV,54039.0,Kanawha County,35644.0,144810.0,574663.0,132909.0,139498.0,76778.0,105105.0,89332.0,17466.0,8962.0,3395.0,654.0,564.0
178681,County,2020/02/25,54.0,WV,54039.0,Kanawha County,34918.0,145536.0,597577.0,135417.0,149801.0,77409.0,115963.0,86255.0,18149.0,9721.0,3713.0,695.0,454.0
181874,County,2020/02/26,54.0,WV,54039.0,Kanawha County,38984.0,141470.0,601385.0,140799.0,173116.0,80566.0,104306.0,73730.0,16712.0,7745.0,3424.0,638.0,349.0
182949,County,2020/02/27,54.0,WV,54039.0,Kanawha County,37582.0,142872.0,593017.0,144918.0,147807.0,81501.0,106354.0,79853.0,18485.0,9913.0,3444.0,534.0,208.0
186888,County,2020/02/28,54.0,WV,54039.0,Kanawha County,36857.0,143597.0,627028.0,147418.0,160705.0,89939.0,111826.0,84768.0,17858.0,9371.0,4463.0,448.0,232.0
189892,County,2020/02/29,54.0,WV,54039.0,Kanawha County,40674.0,139780.0,584596.0,139034.0,146898.0,79566.0,105588.0,76530.0,21986.0,10352.0,3942.0,466.0,234.0
194725,County,2020/03/01,54.0,WV,54039.0,Kanawha County,46574.0,133880.0,544793.0,138551.0,145080.0,72302.0,91014.0,64828.0,16936.0,10919.0,4196.0,681.0,286.0
196353,County,2020/03/02,54.0,WV,54039.0,Kanawha County,41210.0,139244.0,649961.0,165307.0,165461.0,88263.0,113336.0,82937.0,17681.0,12095.0,3936.0,618.0,327.0
200379,County,2020/03/03,54.0,WV,54039.0,Kanawha County,38531.0,141923.0,644187.0,162783.0,164819.0,84239.0,106590.0,82010.0,22063.0,14595.0,5850.0,998.0,240.0
204291,County,2020/03/04,54.0,WV,54039.0,Kanawha County,39716.0,140738.0,668825.0,172050.0,171305.0,85285.0,112348.0,85127.0,22450.0,13482.0,5605.0,885.0,288.0
207495,County,2020/03/05,54.0,WV,54039.0,Kanawha County,36934.0,143520.0,641977.0,161086.0,156410.0,86786.0,109195.0,85246.0,24178.0,11582.0,6434.0,803.0,257.0
209114,County,2020/03/06,54.0,WV,54039.0,Kanawha County,39254.0,141200.0,615520.0,146338.0,155309.0,81369.0,108823.0,81067.0,22135.0,13059.0,6425.0,743.0,252.0
213941,County,2020/03/07,54.0,WV,54039.0,Kanawha County,40893.0,139561.0,578314.0,139743.0,144751.0,70216.0,103425.0,75937.0,22027.0,12871.0,8124.0,883.0,337.0
217054,County,2020/03/08,54.0,WV,54039.0,Kanawha County,44781.0,135673.0,524574.0,132344.0,133985.0,62217.0,83677.0,73833.0,17168.0,12373.0,7594.0,977.0,406.0
218694,County,2020/03/09,54.0,WV,54039.0,Kanawha County,42024.0,138430.0,592718.0,142268.0,147751.0,75522.0,103445.0,83419.0,21974.0,11391.0,5925.0,726.0,297.0
221929,County,2020/03/10,54.0,WV,54039.0,Kanawha County,41856.0,138598.0,577146.0,136315.0,142181.0,72442.0,99862.0,82214.0,22377.0,14706.0,5774.0,993.0,282.0
225119,County,2020/03/11,54.0,WV,54039.0,Kanawha County,36657.0,143797.0,547870.0,131154.0,142316.0,68616.0,92569.0,71302.0,20329.0,11784.0,7964.0,1255.0,581.0
228304,County,2020/03/12,54.0,WV,54039.0,Kanawha County,37998.0,142456.0,546938.0,130396.0,146863.0,65163.0,90252.0,67484.0,21714.0,13602.0,9009.0,1735.0,720.0
233033,County,2020/03/13,54.0,WV,54039.0,Kanawha County,37164.0,143290.0,606602.0,164175.0,157482.0,73701.0,93305.0,74459.0,17588.0,15271.0,8465.0,1515.0,641.0
236236,County,2020/03/14,54.0,WV,54039.0,Kanawha County,44350.0,136104.0,488244.0,139713.0,118027.0,58604.0,68867.0,63801.0,16728.0,12898.0,7508.0,1343.0,755.0
237848,County,2020/03/15,54.0,WV,54039.0,Kanawha County,55524.0,124930.0,448341.0,105447.0,117688.0,59070.0,73515.0,59299.0,15845.0,10354.0,5693.0,968.0,462.0
242609,County,2020/03/16,54.0,WV,54039.0,Kanawha County,49568.0,130886.0,563565.0,146433.0,135299.0,70026.0,92254.0,80597.0,21926.0,10061.0,5698.0,918.0,353.0
244274,County,2020/03/17,54.0,WV,54039.0,Kanawha County,53624.0,126830.0,533404.0,133006.0,130590.0,67326.0,91048.0,76098.0,18243.0,10835.0,4990.0,941.0,327.0
247429,County,2020/03/18,54.0,WV,54039.0,Kanawha County,55852.0,124602.0,543024.0,141723.0,132859.0,66030.0,86824.0,76672.0,20168.0,12588.0,5161.0,746.0,253.0
252211,County,2020/03/19,54.0,WV,54039.0,Kanawha County,56995.0,123459.0,513863.0,128228.0,125619.0,69619.0,83929.0,68567.0,20650.0,11240.0,4978.0,776.0,257.0
253870,County,2020/03/20,54.0,WV,54039.0,Kanawha County,55582.0,124872.0,529477.0,135426.0,131377.0,71639.0,88578.0,68968.0,18809.0,8828.0,4583.0,954.0,315.0
258579,County,2020/03/21,54.0,WV,54039.0,Kanawha County,63873.0,116581.0,483542.0,124527.0,129025.0,61567.0,79614.0,57949.0,15802.0,9312.0,4480.0,918.0,348.0
260200,County,2020/03/22,54.0,WV,54039.0,Kanawha County,61661.0,118793.0,390976.0,111258.0,101891.0,50774.0,56244.0,46462.0,12208.0,7159.0,3838.0,869.0,273.0
264978,County,2020/03/23,54.0,WV,54039.0,Kanawha County,56049.0,124405.0,428057.0,107692.0,113329.0,52035.0,67927.0,55316.0,16289.0,9983.0,4359.0,793.0,334.0
266604,County,2020/03/24,54.0,WV,54039.0,Kanawha County,56783.0,123671.0,440980.0,121913.0,113620.0,52662.0,71665.0,51967.0,16032.0,7250.0,4839.0,816.0,216.0
269838,County,2020/03/25,54.0,WV,54039.0,Kanawha County,59005.0,121449.0,403192.0,110105.0,98930.0,49721.0,61652.0,52121.0,15670.0,9298.0,4559.0,793.0,343.0
272982,County,2020/03/26,54.0,WV,54039.0,Kanawha County,58711.0,121743.0,434230.0,123174.0,109359.0,59341.0,63115.0,51740.0,14436.0,8328.0,3798.0,687.0,252.0
277745,County,2020/03/27,54.0,WV,54039.0,Kanawha County,57808.0,122646.0,426596.0,111039.0,105741.0,53661.0,74573.0,51647.0,16396.0,8213.0,4403.0,653.0,270.0
279372,County,2020/03/28,54.0,WV,54039.0,Kanawha County,58610.0,121844.0,455309.0,117831.0,124013.0,62970.0,74123.0,50678.0,13314.0,7279.0,4108.0,683.0,310.0
284132,County,2020/03/29,54.0,WV,54039.0,Kanawha County,59915.0,120539.0,366363.0,95995.0,95886.0,47820.0,55757.0,45860.0,13473.0,6098.0,4345.0,793.0,336.0
285760,County,2020/03/30,54.0,WV,54039.0,Kanawha County,54397.0,126057.0,421829.0,104104.0,103253.0,56586.0,70218.0,58053.0,13438.0,10677.0,4429.0,766.0,305.0
288955,County,2020/03/31,54.0,WV,54039.0,Kanawha County,57909.0,122545.0,396359.0,102398.0,92585.0,48345.0,71548.0,53986.0,12978.0,8689.0,4619.0,890.0,321.0
292190,County,2020/04/01,54.0,WV,54039.0,Kanawha County,58027.0,122427.0,410506.0,107342.0,102362.0,51784.0,67117.0,53848.0,14844.0,8940.0,3237.0,740.0,292.0
296923,County,2020/04/02,54.0,WV,54039.0,Kanawha County,56799.0,123655.0,406642.0,105590.0,101270.0,51187.0,67934.0,55067.0,13250.0,6859.0,4304.0,882.0,299.0
298584,County,2020/04/03,54.0,WV,54039.0,Kanawha County,54807.0,125647.0,431335.0,103931.0,108094.0,58684.0,75517.0,59647.0,13502.0,7381.0,3573.0,722.0,284.0
301728,County,2020/04/04,54.0,WV,54039.0,Kanawha County,58007.0,122447.0,396611.0,97814.0,112297.0,51797.0,61402.0,49170.0,13296.0,5769.0,4124.0,553.0,389.0
306483,County,2020/04/05,54.0,WV,54039.0,Kanawha County,59470.0,120984.0,369655.0,87548.0,106836.0,46748.0,59698.0,45170.0,11304.0,8210.0,3104.0,613.0,424.0
309684,County,2020/04/06,54.0,WV,54039.0,Kanawha County,57484.0,122970.0,447295.0,118668.0,114506.0,59714.0,70793.0,57648.0,14975.0,7321.0,2757.0,635.0,278.0
311359,County,2020/04/07,54.0,WV,54039.0,Kanawha County,57769.0,122685.0,454885.0,114138.0,118046.0,60263.0,77723.0,58454.0,15262.0,7274.0,3093.0,433.0,199.0
316096,County,2020/04/08,54.0,WV,54039.0,Kanawha County,58288.0,122166.0,436668.0,120152.0,106646.0,52065.0,74295.0,55248.0,15954.0,8297.0,3191.0,643.0,177.0
317723,County,2020/04/09,54.0,WV,54039.0,Kanawha County,58939.0,121515.0,470274.0,133128.0,120306.0,56098.0,75073.0,57682.0,15222.0,8947.0,3152.0,474.0,192.0
322460,County,2020/04/10,54.0,WV,54039.0,Kanawha County,55717.0,124737.0,483123.0,125523.0,133702.0,66542.0,70282.0,60546.0,14799.0,7844.0,3261.0,406.0,218.0
324135,County,2020/04/11,54.0,WV,54039.0,Kanawha County,55588.0,124866.0,510643.0,130228.0,144667.0,70906.0,78742.0,61323.0,15389.0,6624.0,2203.0,354.0,207.0
327281,County,2020/04/12,54.0,WV,54039.0,Kanawha County,62984.0,117470.0,371079.0,95758.0,108290.0,46930.0,55542.0,45586.0,11420.0,5189.0,1839.0,363.0,162.0
330544,County,2020/04/13,54.0,WV,54039.0,Kanawha County,58848.0,121606.0,453823.0,125589.0,118189.0,54575.0,74700.0,57888.0,11765.0,7533.0,2979.0,461.0,144.0
335265,County,2020/04/14,54.0,WV,54039.0,Kanawha County,51790.0,128664.0,471468.0,125797.0,113241.0,69021.0,72545.0,66413.0,13540.0,7013.0,3175.0,583.0,140.0
336894,County,2020/04/15,54.0,WV,54039.0,Kanawha County,49216.0,131238.0,561963.0,164240.0,156648.0,70022.0,76535.0,65874.0,16643.0,8215.0,3075.0,565.0,146.0
340048,County,2020/04/16,54.0,WV,54039.0,Kanawha County,52256.0,128198.0,554851.0,154845.0,145463.0,72273.0,79499.0,74598.0,15717.0,10291.0,1691.0,318.0,156.0
344827,County,2020/04/17,54.0,WV,54039.0,Kanawha County,47361.0,133093.0,532012.0,135942.0,145060.0,78555.0,84702.0,63753.0,12141.0,8144.0,2937.0,625.0,153.0
346454,County,2020/04/18,54.0,WV,54039.0,Kanawha County,52993.0,127461.0,474963.0,111584.0,127301.0,67090.0,76768.0,62386.0,19291.0,7155.0,2740.0,457.0,191.0
349627,County,2020/04/19,54.0,WV,54039.0,Kanawha County,53821.0,126633.0,424405.0,110877.0,131528.0,50713.0,57959.0,51517.0,10653.0,8141.0,2136.0,648.0,233.0
354406,County,2020/04/20,54.0,WV,54039.0,Kanawha County,51047.0,129407.0,455111.0,125435.0,131544.0,46794.0,67511.0,53361.0,17155.0,8787.0,3665.0,585.0,274.0
356026,County,2020/04/21,54.0,WV,54039.0,Kanawha County,56242.0,124212.0,515274.0,148078.0,139301.0,59666.0,82140.0,60491.0,14314.0,6978.0,3741.0,456.0,109.0
360796,County,2020/04/22,54.0,WV,54039.0,Kanawha County,54316.0,126138.0,549883.0,166291.0,134213.0,69628.0,87109.0,62734.0,17993.0,8032.0,3368.0,385.0,130.0
364002,County,2020/04/23,54.0,WV,54039.0,Kanawha County,56828.0,123626.0,495782.0,137769.0,129649.0,59786.0,75733.0,63460.0,16757.0,8635.0,3557.0,303.0,133.0
365628,County,2020/04/24,54.0,WV,54039.0,Kanawha County,55490.0,124964.0,512825.0,133596.0,131324.0,68586.0,84584.0,66171.0,15648.0,9495.0,2847.0,441.0,133.0
370372,County,2020/04/25,54.0,WV,54039.0,Kanawha County,57807.0,122647.0,488223.0,126368.0,138857.0,67510.0,74456.0,56759.0,12920.0,8749.0,1985.0,463.0,156.0
373564,County,2020/04/26,54.0,WV,54039.0,Kanawha County,62138.0,118316.0,410088.0,108409.0,115268.0,56208.0,65431.0,44751.0,12221.0,4349.0,2897.0,329.0,225.0
376795,County,2020/04/27,54.0,WV,54039.0,Kanawha County,54628.0,125826.0,520232.0,140848.0,137169.0,73375.0,80681.0,61012.0,14401.0,8753.0,3375.0,415.0,203.0
379967,County,2020/04/28,54.0,WV,54039.0,Kanawha County,54713.0,125741.0,556650.0,149839.0,155495.0,70372.0,88284.0,62748.0,17163.0,9390.0,2839.0,354.0,166.0
383170,County,2020/04/29,54.0,WV,54039.0,Kanawha County,54946.0,125508.0,543091.0,153050.0,137482.0,73459.0,84106.0,64292.0,17582.0,9105.0,3433.0,393.0,189.0
386340,County,2020/04/30,54.0,WV,54039.0,Kanawha County,56129.0,124325.0,550652.0,151938.0,142491.0,70343.0,92815.0,60959.0,18743.0,9343.0,3413.0,482.0,125.0
388015,County,2020/05/01,54.0,WV,54039.0,Kanawha County,52503.0,127951.0,554208.0,150706.0,139188.0,74760.0,89835.0,70216.0,15890.0,9380.0,3599.0,485.0,149.0
391148,County,2020/05/02,54.0,WV,54039.0,Kanawha County,54471.0,125983.0,564531.0,152552.0,150098.0,78693.0,88907.0,65836.0,16847.0,8237.0,2997.0,254.0,110.0
394410,County,2020/05/03,54.0,WV,54039.0,Kanawha County,59702.0,120752.0,465623.0,123971.0,130401.0,64797.0,71237.0,51170.0,13876.0,7048.0,2562.0,378.0,183.0
397571,County,2020/05/04,54.0,WV,54039.0,Kanawha County,53932.0,126522.0,564618.0,156366.0,146332.0,77420.0,90085.0,65899.0,17977.0,7780.0,2270.0,321.0,168.0
400743,County,2020/05/05,54.0,WV,54039.0,Kanawha County,52276.0,128178.0,535123.0,135842.0,139317.0,74433.0,85571.0,70873.0,16038.0,9098.0,3410.0,390.0,151.0
403921,County,2020/05/06,54.0,WV,54039.0,Kanawha County,52195.0,128259.0,530925.0,133225.0,137099.0,70095.0,90096.0,69414.0,18235.0,8114.0,4079.0,405.0,163.0
408642,County,2020/05/07,54.0,WV,54039.0,Kanawha County,50111.0,130343.0,561388.0,139847.0,142424.0,72997.0,97572.0,79366.0,16712.0,8320.0,3560.0,407.0,183.0
408851,County,2020/05/08,54.0,WV,54039.0,Kanawha County,52808.0,127646.0,539910.0,137465.0,131906.0,75810.0,91602.0,71678.0,18718.0,8716.0,3542.0,370.0,103.0
415100,County,2020/05/09,54.0,WV,54039.0,Kanawha County,54186.0,126268.0,569017.0,152708.0,152068.0,77108.0,87504.0,71867.0,17038.0,6867.0,3324.0,421.0,112.0
416713,County,2020/05/10,54.0,WV,54039.0,Kanawha County,54936.0,125518.0,505300.0,119027.0,144032.0,69732.0,84323.0,62314.0,14079.0,8557.0,2835.0,323.0,78.0
419955,County,2020/05/11,54.0,WV,54039.0,Kanawha County,48710.0,131744.0,605183.0,170422.0,160623.0,71912.0,98971.0,71349.0,16772.0,10268.0,4210.0,502.0,154.0
423189,County,2020/05/12,54.0,WV,54039.0,Kanawha County,46785.0,133669.0,653623.0,184906.0,175515.0,79630.0,101916.0,78678.0,16967.0,11696.0,3749.0,495.0,71.0
426197,County,2020/05/13,54.0,WV,54039.0,Kanawha County,46831.0,133623.0,593660.0,172239.0,149383.0,69937.0,90742.0,77010.0,16766.0,13149.0,3845.0,465.0,124.0
429538,County,2020/05/14,54.0,WV,54039.0,Kanawha County,46270.0,134184.0,614663.0,178302.0,154333.0,74665.0,97795.0,75931.0,17334.0,11575.0,4094.0,500.0,134.0
434279,County,2020/05/15,54.0,WV,54039.0,Kanawha County,46469.0,133985.0,615972.0,183466.0,158663.0,78713.0,91511.0,70476.0,17234.0,10733.0,4358.0,658.0,160.0
435908,County,2020/05/16,54.0,WV,54039.0,Kanawha County,48114.0,132340.0,611908.0,190166.0,157200.0,78878.0,91007.0,65100.0,15763.0,8857.0,4164.0,614.0,159.0
440594,County,2020/05/17,54.0,WV,54039.0,Kanawha County,44716.0,135738.0,603578.0,165773.0,159187.0,82644.0,99605.0,66766.0,16568.0,9107.0,3255.0,543.0,130.0
442354,County,2020/05/18,54.0,WV,54039.0,Kanawha County,41419.0,139035.0,676656.0,206881.0,160724.0,79562.0,110116.0,84755.0,20953.0,9359.0,3814.0,419.0,73.0
447044,County,2020/05/19,54.0,WV,54039.0,Kanawha County,40343.0,140111.0,653924.0,191442.0,170045.0,81538.0,103126.0,77543.0,15883.0,9964.0,3719.0,641.0,23.0
448676,County,2020/05/20,54.0,WV,54039.0,Kanawha County,42697.0,137757.0,614556.0,155194.0,158966.0,80530.0,100657.0,80226.0,21058.0,11300.0,5990.0,566.0,69.0
453111,County,2020/05/21,54.0,WV,54039.0,Kanawha County,38570.0,141884.0,636687.0,172422.0,158373.0,78039.0,110364.0,82142.0,18650.0,10525.0,5336.0,713.0,123.0
455033,County,2020/05/22,54.0,WV,54039.0,Kanawha County,36778.0,143676.0,658446.0,162519.0,171080.0,92434.0,110639.0,85198.0,20528.0,11015.0,4176.0,672.0,185.0
459817,County,2020/05/23,54.0,WV,54039.0,Kanawha County,41728.0,138726.0,642592.0,167319.0,167346.0,88528.0,99054.0,79298.0,22826.0,13716.0,3992.0,413.0,100.0
463021,County,2020/05/24,54.0,WV,54039.0,Kanawha County,47079.0,133375.0,550333.0,145932.0,140037.0,74401.0,91471.0,66446.0,16444.0,11644.0,3137.0,646.0,175.0
464650,County,2020/05/25,54.0,WV,54039.0,Kanawha County,47969.0,132485.0,503443.0,129244.0,129645.0,68981.0,79032.0,60528.0,18318.0,12042.0,4701.0,768.0,184.0
467805,County,2020/05/26,54.0,WV,54039.0,Kanawha County,43013.0,137441.0,585199.0,143233.0,150444.0,80479.0,101088.0,75045.0,17918.0,11271.0,4662.0,808.0,251.0
471060,County,2020/05/27,54.0,WV,54039.0,Kanawha County,44274.0,136180.0,634546.0,181397.0,153973.0,80115.0,103461.0,76972.0,20993.0,12108.0,4575.0,796.0,156.0
474156,County,2020/05/28,54.0,WV,54039.0,Kanawha County,46849.0,133605.0,634455.0,187624.0,160857.0,79618.0,94779.0,71744.0,20684.0,13664.0,4647.0,797.0,41.0
477401,County,2020/05/29,54.0,WV,54039.0,Kanawha County,50289.0,130165.0,621793.0,181195.0,159106.0,76214.0,98544.0,68566.0,20903.0,11798.0,4644.0,765.0,58.0
482160,County,2020/05/30,54.0,WV,54039.0,Kanawha County,51481.0,128973.0,601297.0,173274.0,155976.0,71265.0,97822.0,66293.0,20610.0,10392.0,4826.0,769.0,70.0
485355,County,2020/05/31,54.0,WV,54039.0,Kanawha County,53447.0,127007.0,567624.0,163684.0,143056.0,75563.0,85048.0,63634.0,18319.0,11709.0,5934.0,608.0,69.0
486983,County,2020/06/01,54.0,WV,54039.0,Kanawha County,48077.0,132377.0,602516.0,173872.0,157704.0,74390.0,95092.0,68411.0,17491.0,10149.0,4803.0,505.0,99.0
490222,County,2020/06/02,54.0,WV,54039.0,Kanawha County,47392.0,133062.0,587010.0,182381.0,144973.0,65911.0,90982.0,64281.0,18136.0,13199.0,6070.0,990.0,87.0
494935,County,2020/06/03,54.0,WV,54039.0,Kanawha County,43257.0,137197.0,645967.0,185413.0,157442.0,80932.0,100401.0,77951.0,21958.0,14883.0,5894.0,941.0,152.0
496555,County,2020/06/04,54.0,WV,54039.0,Kanawha County,44842.0,135612.0,581791.0,154708.0,145131.0,72948.0,97523.0,73193.0,18755.0,12125.0,6218.0,1050.0,140.0
501329,County,2020/06/05,54.0,WV,54039.0,Kanawha County,44684.0,135770.0,613349.0,175903.0,152695.0,72266.0,98084.0,74131.0,19759.0,13311.0,5899.0,1189.0,112.0
504531,County,2020/06/06,54.0,WV,54039.0,Kanawha County,50328.0,130126.0,541488.0,151248.0,134043.0,67867.0,83928.0,64402.0,18544.0,15346.0,5153.0,836.0,121.0
507734,County,2020/06/07,54.0,WV,54039.0,Kanawha County,48545.0,131909.0,531882.0,146471.0,142146.0,67408.0,82691.0,58783.0,17159.0,10594.0,5301.0,1220.0,109.0
509318,County,2020/06/08,54.0,WV,54039.0,Kanawha County,43821.0,136633.0,640951.0,177206.0,163858.0,75841.0,107798.0,79544.0,18025.0,12682.0,4950.0,910.0,137.0
514097,County,2020/06/09,54.0,WV,54039.0,Kanawha County,47434.0,133020.0,617969.0,184253.0,153989.0,75802.0,94353.0,72931.0,17348.0,13559.0,4826.0,719.0,189.0
515727,County,2020/06/10,54.0,WV,54039.0,Kanawha County,47708.0,132746.0,581043.0,166618.0,138536.0,72531.0,90153.0,73321.0,19720.0,13295.0,5832.0,729.0,308.0
518931,County,2020/06/11,54.0,WV,54039.0,Kanawha County,45220.0,135234.0,615978.0,171971.0,147307.0,75558.0,104727.0,78754.0,19333.0,11286.0,6194.0,628.0,220.0
523731,County,2020/06/12,54.0,WV,54039.0,Kanawha County,45988.0,134466.0,640031.0,187193.0,162864.0,78143.0,97917.0,72458.0,20983.0,13174.0,6413.0,759.0,127.0
526869,County,2020/06/13,54.0,WV,54039.0,Kanawha County,47224.0,133230.0,627248.0,183039.0,156779.0,75968.0,100884.0,69410.0,21052.0,13332.0,5831.0,848.0,105.0
530074,County,2020/06/14,54.0,WV,54039.0,Kanawha County,50974.0,129480.0,500759.0,146114.0,122628.0,61867.0,77454.0,58925.0,15030.0,11659.0,6081.0,790.0,211.0
531702,County,2020/06/15,54.0,WV,54039.0,Kanawha County,49186.0,131268.0,573009.0,168668.0,144466.0,66259.0,84701.0,70730.0,18519.0,12388.0,6417.0,729.0,132.0
536483,County,2020/06/16,54.0,WV,54039.0,Kanawha County,47707.0,132747.0,618611.0,177864.0,153722.0,72304.0,94099.0,80642.0,20346.0,13376.0,5504.0,656.0,98.0
538085,County,2020/06/17,54.0,WV,54039.0,Kanawha County,46873.0,133581.0,595955.0,172750.0,146415.0,68310.0,92209.0,74634.0,20959.0,13547.0,6356.0,702.0,73.0
542846,County,2020/06/18,54.0,WV,54039.0,Kanawha County,46698.0,133756.0,601209.0,168419.0,152648.0,69247.0,93387.0,74393.0,22599.0,13607.0,6254.0,576.0,79.0
544473,County,2020/06/19,54.0,WV,54039.0,Kanawha County,47447.0,133007.0,590490.0,169419.0,145421.0,71850.0,91857.0,72158.0,21021.0,12836.0,5210.0,610.0,108.0
547678,County,2020/06/20,54.0,WV,54039.0,Kanawha County,49608.0,130846.0,561680.0,157863.0,137783.0,62656.0,89068.0,68641.0,26332.0,12898.0,5837.0,452.0,150.0
550883,County,2020/06/21,54.0,WV,54039.0,Kanawha County,52745.0,127709.0,521293.0,150545.0,129014.0,58128.0,83505.0,63151.0,18941.0,13344.0,4071.0,449.0,145.0
554056,County,2020/06/22,54.0,WV,54039.0,Kanawha County,46311.0,134143.0,543891.0,147133.0,130338.0,68167.0,91079.0,70815.0,17460.0,12231.0,5754.0,725.0,189.0
558817,County,2020/06/23,54.0,WV,54039.0,Kanawha County,46447.0,134007.0,583334.0,164720.0,141767.0,71233.0,93588.0,72384.0,19958.0,12724.0,5895.0,859.0,206.0
560448,County,2020/06/24,54.0,WV,54039.0,Kanawha County,49204.0,131250.0,580552.0,177932.0,142127.0,64933.0,90646.0,65748.0,20727.0,11939.0,5502.0,786.0,212.0
563638,County,2020/06/25,54.0,WV,54039.0,Kanawha County,45873.0,134581.0,598637.0,174314.0,148825.0,67688.0,90341.0,73433.0,23146.0,13065.0,6843.0,789.0,193.0
566890,County,2020/06/26,54.0,WV,54039.0,Kanawha County,47477.0,132977.0,604850.0,176279.0,153688.0,68180.0,94445.0,72995.0,19488.0,11261.0,7650.0,657.0,207.0
570013,County,2020/06/27,54.0,WV,54039.0,Kanawha County,48298.0,132156.0,601273.0,167152.0,147492.0,77128.0,95340.0,72999.0,21313.0,12695.0,6283.0,689.0,182.0
574807,County,2020/06/28,54.0,WV,54039.0,Kanawha County,50844.0,129610.0,499904.0,133990.0,130633.0,60242.0,79212.0,61628.0,16553.0,10877.0,5904.0,628.0,237.0
577979,County,2020/06/29,54.0,WV,54039.0,Kanawha County,50886.0,129568.0,518361.0,152323.0,127074.0,65440.0,78922.0,64263.0,15134.0,9771.0,4435.0,712.0,287.0
579622,County,2020/06/30,54.0,WV,54039.0,Kanawha County,46035.0,134419.0,516227.0,142686.0,127944.0,60082.0,84270.0,67463.0,17204.0,10836.0,4214.0,1199.0,329.0
582825,County,2020/07/01,54.0,WV,54039.0,Kanawha County,46317.0,134137.0,518824.0,142070.0,123001.0,66539.0,81898.0,65987.0,19291.0,13626.0,5313.0,781.0,318.0
586017,County,2020/07/02,54.0,WV,54039.0,Kanawha County,48338.0,132116.0,635393.0,185017.0,157963.0,71844.0,95888.0,77942.0,24567.0,13867.0,7263.0,837.0,205.0
589199,County,2020/07/03,54.0,WV,54039.0,Kanawha County,51028.0,129426.0,601443.0,175286.0,152822.0,67796.0,93913.0,72584.0,19378.0,11198.0,7607.0,653.0,206.0
592403,County,2020/07/04,54.0,WV,54039.0,Kanawha County,52491.0,127963.0,514549.0,149961.0,130743.0,58001.0,80345.0,62097.0,16579.0,9580.0,6508.0,559.0,176.0
597159,County,2020/07/05,54.0,WV,54039.0,Kanawha County,48740.0,131714.0,453815.0,121786.0,117356.0,55980.0,68179.0,55683.0,18247.0,10447.0,4878.0,879.0,380.0
598253,County,2020/07/06,54.0,WV,54039.0,Kanawha County,49086.0,131368.0,476490.0,123887.0,112850.0,59119.0,85119.0,61389.0,17221.0,10514.0,5042.0,958.0,391.0
602356,County,2020/07/07,54.0,WV,54039.0,Kanawha County,48238.0,132216.0,508963.0,138643.0,124951.0,56314.0,85480.0,66617.0,17990.0,11777.0,5876.0,999.0,316.0
605059,County,2020/07/08,54.0,WV,54039.0,Kanawha County,46041.0,134413.0,501008.0,138580.0,117658.0,52994.0,86587.0,67019.0,19096.0,11673.0,5916.0,1104.0,381.0
609928,County,2020/07/09,54.0,WV,54039.0,Kanawha County,47149.0,133305.0,525288.0,141772.0,123048.0,64961.0,86932.0,70361.0,18906.0,11469.0,6236.0,1214.0,389.0
613134,County,2020/07/10,54.0,WV,54039.0,Kanawha County,46343.0,134111.0,519619.0,140690.0,119200.0,61122.0,90571.0,67442.0,21074.0,11608.0,6280.0,1108.0,524.0
614812,County,2020/07/11,54.0,WV,54039.0,Kanawha County,49153.0,131301.0,515843.0,146745.0,124516.0,62777.0,83007.0,59757.0,18821.0,12479.0,6323.0,963.0,455.0
617934,County,2020/07/12,54.0,WV,54039.0,Kanawha County,49879.0,130575.0,426194.0,112443.0,100956.0,50173.0,70981.0,55933.0,16886.0,11273.0,6012.0,995.0,542.0
621123,County,2020/07/13,54.0,WV,54039.0,Kanawha County,47630.0,132824.0,490064.0,133010.0,112204.0,57769.0,85363.0,69369.0,15401.0,10572.0,5087.0,884.0,405.0
624324,County,2020/07/14,54.0,WV,54039.0,Kanawha County,49316.0,131138.0,502492.0,138531.0,113759.0,64633.0,84646.0,67581.0,18395.0,10054.0,3820.0,755.0,318.0
629110,County,2020/07/15,54.0,WV,54039.0,Kanawha County,50689.0,129765.0,539494.0,144646.0,130014.0,63245.0,85280.0,75089.0,23345.0,13244.0,3836.0,572.0,223.0
630687,County,2020/07/16,54.0,WV,54039.0,Kanawha County,51704.0,128750.0,562693.0,159142.0,135705.0,66390.0,90895.0,73673.0,20687.0,11708.0,3857.0,533.0,103.0
633894,County,2020/07/17,54.0,WV,54039.0,Kanawha County,49986.0,130468.0,544124.0,147733.0,135966.0,64978.0,86139.0,72676.0,19642.0,12022.0,4173.0,661.0,134.0
638674,County,2020/07/18,54.0,WV,54039.0,Kanawha County,54410.0,126044.0,501865.0,130335.0,128092.0,62603.0,80963.0,63858.0,19241.0,10571.0,5327.0,739.0,136.0
641878,County,2020/07/19,54.0,WV,54039.0,Kanawha County,56953.0,123501.0,436436.0,116877.0,105926.0,55212.0,69893.0,53339.0,18388.0,10614.0,5050.0,882.0,255.0
643488,County,2020/07/20,54.0,WV,54039.0,Kanawha County,54958.0,125496.0,515335.0,143557.0,126162.0,60185.0,80822.0,66981.0,20337.0,10773.0,5776.0,579.0,163.0
647057,County,2020/07/21,54.0,WV,54039.0,Kanawha County,50321.0,130133.0,505839.0,133386.0,118729.0,59617.0,85113.0,71621.0,19681.0,10912.0,5795.0,723.0,262.0
651441,County,2020/07/22,54.0,WV,54039.0,Kanawha County,49281.0,131173.0,485557.0,128884.0,110357.0,56994.0,85502.0,67122.0,18789.0,11885.0,4928.0,808.0,288.0
652985,County,2020/07/23,54.0,WV,54039.0,Kanawha County,49987.0,130467.0,466277.0,110057.0,116195.0,58747.0,78997.0,64709.0,18520.0,12200.0,5743.0,783.0,326.0
656107,County,2020/07/24,54.0,WV,54039.0,Kanawha County,47525.0,132929.0,508613.0,129053.0,119654.0,60422.0,89132.0,72746.0,19369.0,11404.0,5841.0,694.0,298.0
659452,County,2020/07/25,54.0,WV,54039.0,Kanawha County,52046.0,128408.0,469929.0,118181.0,113566.0,57316.0,84362.0,60238.0,19931.0,9960.0,5399.0,685.0,291.0
662652,County,2020/07/26,54.0,WV,54039.0,Kanawha County,51006.0,129448.0,447412.0,111559.0,106845.0,54525.0,79229.0,59935.0,17307.0,11990.0,4918.0,673.0,431.0
667432,County,2020/07/27,54.0,WV,54039.0,Kanawha County,49612.0,130842.0,460715.0,112257.0,105812.0,60006.0,82656.0,63829.0,17904.0,11330.0,5689.0,709.0,523.0
670635,County,2020/07/28,54.0,WV,54039.0,Kanawha County,48039.0,132415.0,469522.0,114491.0,109439.0,57480.0,81567.0,72308.0,17275.0,10512.0,5137.0,825.0,488.0
673800,County,2020/07/29,54.0,WV,54039.0,Kanawha County,50062.0,130392.0,461784.0,107969.0,106323.0,54533.0,86170.0,69168.0,18966.0,11831.0,5621.0,779.0,424.0
676979,County,2020/07/30,54.0,WV,54039.0,Kanawha County,47682.0,132772.0,480560.0,120277.0,109445.0,58351.0,83113.0,68651.0,19718.0,13480.0,5918.0,1138.0,469.0
678628,County,2020/07/31,54.0,WV,54039.0,Kanawha County,48669.0,131785.0,442769.0,107457.0,96521.0,55996.0,78555.0,65533.0,20189.0,11654.0,5286.0,1100.0,478.0
681787,County,2020/08/01,54.0,WV,54039.0,Kanawha County,50990.0,129464.0,419732.0,95703.0,100662.0,47922.0,75978.0,62609.0,19705.0,12007.0,3626.0,1096.0,424.0
685009,County,2020/08/02,54.0,WV,54039.0,Kanawha County,53727.0,126727.0,418997.0,93871.0,103389.0,48196.0,73996.0,60801.0,20151.0,11511.0,5786.0,972.0,324.0
688206,County,2020/08/03,54.0,WV,54039.0,Kanawha County,49660.0,130794.0,519175.0,135594.0,130430.0,63140.0,81825.0,71006.0,18335.0,12559.0,5187.0,977.0,122.0
692981,County,2020/08/04,54.0,WV,54039.0,Kanawha County,48344.0,132110.0,579028.0,159630.0,142436.0,70632.0,91725.0,76066.0,20352.0,12667.0,4778.0,667.0,75.0
694609,County,2020/08/05,54.0,WV,54039.0,Kanawha County,50501.0,129953.0,578241.0,166202.0,139103.0,61927.0,93864.0,77336.0,19991.0,13059.0,5983.0,661.0,115.0
699352,County,2020/08/06,54.0,WV,54039.0,Kanawha County,50558.0,129896.0,588514.0,175247.0,144774.0,68350.0,89817.0,71651.0,19800.0,12264.0,5785.0,730.0,96.0
702548,County,2020/08/07,54.0,WV,54039.0,Kanawha County,49853.0,130601.0,559926.0,153906.0,141284.0,62387.0,93155.0,69810.0,19590.0,13317.0,5726.0,654.0,97.0
704177,County,2020/08/08,54.0,WV,54039.0,Kanawha County,51934.0,128520.0,556602.0,144173.0,146264.0,71945.0,85509.0,69864.0,20508.0,13490.0,4107.0,606.0,136.0
707367,County,2020/08/09,54.0,WV,54039.0,Kanawha County,54632.0,125822.0,484293.0,111168.0,137519.0,59240.0,77195.0,60029.0,18074.0,13359.0,6657.0,940.0,112.0
712128,County,2020/08/10,54.0,WV,54039.0,Kanawha County,52384.0,128070.0,533337.0,125717.0,136763.0,67711.0,89382.0,74342.0,18741.0,14331.0,5509.0,720.0,121.0
713805,County,2020/08/11,54.0,WV,54039.0,Kanawha County,52099.0,128355.0,561218.0,137990.0,142884.0,74831.0,91318.0,70973.0,22661.0,14256.0,5610.0,633.0,62.0
716853,County,2020/08/12,54.0,WV,54039.0,Kanawha County,48331.0,132123.0,468302.0,116406.0,110519.0,60942.0,75173.0,64022.0,19939.0,13513.0,6298.0,957.0,533.0
720145,County,2020/08/13,54.0,WV,54039.0,Kanawha County,45399.0,135055.0,484340.0,111050.0,106415.0,59776.0,87866.0,76007.0,21391.0,14704.0,5290.0,1146.0,695.0
723337,County,2020/08/14,54.0,WV,54039.0,Kanawha County,42091.0,138363.0,504334.0,113394.0,119264.0,61536.0,93759.0,71523.0,22275.0,14312.0,6322.0,1204.0,745.0
726569,County,2020/08/15,54.0,WV,54039.0,Kanawha County,46772.0,133682.0,461367.0,105803.0,107918.0,55888.0,85915.0,64704.0,21646.0,12324.0,5394.0,965.0,810.0
729727,County,2020/08/16,54.0,WV,54039.0,Kanawha County,50816.0,129638.0,407924.0,87123.0,92585.0,52219.0,75426.0,59618.0,19980.0,12786.0,5872.0,1326.0,989.0
734507,County,2020/08/17,54.0,WV,54039.0,Kanawha County,50315.0,130139.0,456553.0,105493.0,103955.0,57149.0,80701.0,67989.0,20942.0,11523.0,6579.0,1321.0,901.0
737679,County,2020/08/18,54.0,WV,54039.0,Kanawha County,47650.0,132804.0,412209.0,87770.0,93729.0,50426.0,71996.0,64798.0,21160.0,12790.0,6963.0,1508.0,1069.0
740874,County,2020/08/19,54.0,WV,54039.0,Kanawha County,46857.0,133597.0,472365.0,116827.0,110509.0,56459.0,79799.0,65049.0,21165.0,13766.0,6455.0,1370.0,966.0
744073,County,2020/08/20,54.0,WV,54039.0,Kanawha County,46099.0,134355.0,460149.0,107050.0,110884.0,54804.0,79051.0,65183.0,20763.0,12752.0,7260.0,1463.0,939.0
745703,County,2020/08/21,54.0,WV,54039.0,Kanawha County,45004.0,135450.0,484111.0,112655.0,116278.0,58512.0,85740.0,68811.0,21007.0,12220.0,6865.0,1173.0,850.0
750483,County,2020/08/22,54.0,WV,54039.0,Kanawha County,46768.0,133686.0,451657.0,108349.0,108899.0,51887.0,77508.0,62079.0,21669.0,13274.0,5921.0,1171.0,900.0
753653,County,2020/08/23,54.0,WV,54039.0,Kanawha County,52145.0,128309.0,399942.0,96342.0,96751.0,48469.0,67199.0,53745.0,16974.0,12623.0,6215.0,970.0,654.0
756844,County,2020/08/24,54.0,WV,54039.0,Kanawha County,53496.0,126958.0,441681.0,103937.0,113834.0,59115.0,70729.0,60771.0,16961.0,9160.0,5605.0,960.0,609.0
758473,County,2020/08/25,54.0,WV,54039.0,Kanawha County,51268.0,129186.0,478444.0,112151.0,119109.0,58727.0,82633.0,69747.0,18974.0,10636.0,5162.0,761.0,544.0
763244,County,2020/08/26,54.0,WV,54039.0,Kanawha County,50165.0,130289.0,474711.0,118393.0,120011.0,55413.0,80649.0,61968.0,19334.0,11177.0,6304.0,841.0,621.0
766440,County,2020/08/27,54.0,WV,54039.0,Kanawha County,49603.0,130851.0,464115.0,107912.0,118474.0,55460.0,77224.0,66850.0,18625.0,12057.0,5896.0,1050.0,567.0
768030,County,2020/08/28,54.0,WV,54039.0,Kanawha County,48684.0,131770.0,480359.0,112246.0,120976.0,61713.0,79517.0,67867.0,19553.0,11148.0,5763.0,975.0,601.0
772807,County,2020/08/29,54.0,WV,54039.0,Kanawha County,51667.0,128787.0,438863.0,101233.0,112715.0,56993.0,72896.0,59791.0,18425.0,9537.0,5622.0,948.0,703.0
774481,County,2020/08/30,54.0,WV,54039.0,Kanawha County,54950.0,125504.0,403604.0,90004.0,105497.0,51311.0,67586.0,52019.0,17423.0,11704.0,6338.0,1022.0,700.0
779202,County,2020/08/31,54.0,WV,54039.0,Kanawha County,52390.0,128064.0,434390.0,99962.0,107096.0,53720.0,73404.0,65019.0,15320.0,11927.0,6283.0,1038.0,621.0
780815,County,2020/09/01,54.0,WV,54039.0,Kanawha County,49900.0,130554.0,622016.0,241515.0,142086.0,54488.0,79449.0,68206.0,18980.0,10555.0,5199.0,997.0,541.0
785590,County,2020/09/02,54.0,WV,54039.0,Kanawha County,51579.0,128875.0,810896.0,398756.0,165779.0,58597.0,82457.0,67053.0,18360.0,12788.0,5799.0,827.0,480.0
788799,County,2020/09/03,54.0,WV,54039.0,Kanawha County,47973.0,132481.0,615766.0,225326.0,136674.0,63090.0,83409.0,68965.0,18725.0,11612.0,6225.0,1176.0,564.0
791978,County,2020/09/04,54.0,WV,54039.0,Kanawha County,51350.0,129104.0,475494.0,114979.0,118276.0,58554.0,79702.0,66098.0,18514.0,10923.0,6789.0,1089.0,570.0
795174,County,2020/09/05,54.0,WV,54039.0,Kanawha County,52065.0,128389.0,494810.0,118309.0,127598.0,62837.0,81814.0,65022.0,20249.0,11764.0,5820.0,965.0,432.0
798377,County,2020/09/06,54.0,WV,54039.0,Kanawha County,55552.0,124902.0,426668.0,103942.0,114216.0,53106.0,67332.0,55306.0,15436.0,9721.0,6130.0,906.0,573.0
801587,County,2020/09/07,54.0,WV,54039.0,Kanawha County,56287.0,124167.0,396079.0,89547.0,101919.0,50633.0,66212.0,50412.0,17402.0,12114.0,6311.0,997.0,532.0
804754,County,2020/09/08,54.0,WV,54039.0,Kanawha County,53592.0,126862.0,471966.0,106272.0,122261.0,59221.0,84299.0,67091.0,14994.0,10714.0,5627.0,875.0,612.0
806383,County,2020/09/09,54.0,WV,54039.0,Kanawha County,52467.0,127987.0,485311.0,111936.0,128478.0,60134.0,82383.0,66256.0,18070.0,11680.0,4920.0,915.0,539.0
811151,County,2020/09/10,54.0,WV,54039.0,Kanawha County,51062.0,129392.0,473896.0,108892.0,125868.0,54814.0,78696.0,68144.0,19029.0,11183.0,5748.0,979.0,543.0
814336,County,2020/09/11,54.0,WV,54039.0,Kanawha County,49373.0,131081.0,510257.0,123447.0,126564.0,69218.0,85550.0,67132.0,19030.0,11505.0,6196.0,1122.0,493.0
815966,County,2020/09/12,54.0,WV,54039.0,Kanawha County,54117.0,126337.0,471664.0,114366.0,126664.0,59047.0,72045.0,63066.0,19686.0,10354.0,4713.0,1206.0,517.0
819137,County,2020/09/13,54.0,WV,54039.0,Kanawha County,55046.0,125408.0,361719.0,74876.0,102488.0,43632.0,58572.0,50857.0,12495.0,12262.0,4830.0,1019.0,688.0
823919,County,2020/09/14,54.0,WV,54039.0,Kanawha County,52943.0,127511.0,479615.0,109511.0,127364.0,62289.0,78322.0,66644.0,17815.0,11100.0,4849.0,1205.0,516.0
825547,County,2020/09/15,54.0,WV,54039.0,Kanawha County,51614.0,128840.0,504177.0,120699.0,121929.0,61969.0,88950.0,71777.0,19744.0,12218.0,5185.0,1182.0,524.0
828788,County,2020/09/16,54.0,WV,54039.0,Kanawha County,51992.0,128462.0,484021.0,108356.0,121174.0,66022.0,80527.0,71993.0,18188.0,11054.0,5148.0,1109.0,450.0
833532,County,2020/09/17,54.0,WV,54039.0,Kanawha County,52291.0,128163.0,488894.0,118920.0,121872.0,60400.0,84318.0,66306.0,17518.0,11454.0,6423.0,1114.0,569.0
836694,County,2020/09/18,54.0,WV,54039.0,Kanawha County,52065.0,128389.0,513450.0,126211.0,126294.0,63176.0,89789.0,67376.0,18814.0,13491.0,6717.0,1196.0,386.0
838323,County,2020/09/19,54.0,WV,54039.0,Kanawha County,53990.0,126464.0,518704.0,127205.0,129923.0,64619.0,86120.0,68146.0,23469.0,12596.0,5292.0,941.0,393.0
843098,County,2020/09/20,54.0,WV,54039.0,Kanawha County,54038.0,126416.0,456185.0,109578.0,125060.0,58788.0,72971.0,54823.0,16641.0,10384.0,6759.0,938.0,243.0
846302,County,2020/09/21,54.0,WV,54039.0,Kanawha County,57477.0,122977.0,470783.0,114840.0,123365.0,60952.0,80525.0,57913.0,15761.0,11244.0,5333.0,691.0,159.0
849470,County,2020/09/22,54.0,WV,54039.0,Kanawha County,51411.0,129043.0,546640.0,137155.0,143957.0,68370.0,90224.0,70021.0,19396.0,11750.0,4926.0,758.0,83.0
851098,County,2020/09/23,54.0,WV,54039.0,Kanawha County,49743.0,130711.0,592892.0,139593.0,166509.0,76419.0,97811.0,75001.0,18108.0,13503.0,5156.0,752.0,40.0
855864,County,2020/09/24,54.0,WV,54039.0,Kanawha County,50701.0,129753.0,564796.0,138295.0,147745.0,73142.0,94094.0,74546.0,18651.0,11949.0,5647.0,654.0,73.0
857493,County,2020/09/25,54.0,WV,54039.0,Kanawha County,49684.0,130770.0,589176.0,139894.0,154442.0,77395.0,100311.0,76575.0,19398.0,13841.0,6466.0,795.0,59.0
860679,County,2020/09/26,54.0,WV,54039.0,Kanawha County,53443.0,127011.0,567317.0,142236.0,153452.0,74294.0,91261.0,68948.0,21282.0,10861.0,4367.0,551.0,65.0
863851,County,2020/09/27,54.0,WV,54039.0,Kanawha County,53102.0,127352.0,522731.0,132774.0,142453.0,70037.0,81852.0,59355.0,17233.0,13165.0,5214.0,624.0,24.0
868634,County,2020/09/28,54.0,WV,54039.0,Kanawha County,52025.0,128429.0,559272.0,136687.0,153732.0,70711.0,94554.0,70137.0,18467.0,10820.0,3765.0,357.0,42.0
870262,County,2020/09/29,54.0,WV,54039.0,Kanawha County,51218.0,129236.0,483073.0,106909.0,129568.0,62109.0,84664.0,65643.0,16577.0,12500.0,4321.0,635.0,147.0
875041,County,2020/09/30,54.0,WV,54039.0,Kanawha County,50320.0,130134.0,458337.0,98361.0,123195.0,54179.0,77169.0,66817.0,19335.0,13779.0,4561.0,797.0,144.0
876669,County,2020/10/01,54.0,WV,54039.0,Kanawha County,49369.0,131085.0,496114.0,115575.0,133735.0,63291.0,83767.0,64130.0,16717.0,13533.0,4433.0,753.0,180.0
881410,County,2020/10/02,54.0,WV,54039.0,Kanawha County,50096.0,130358.0,503740.0,114660.0,135749.0,60643.0,87605.0,66701.0,18088.0,13756.0,5627.0,793.0,118.0
884605,County,2020/10/03,54.0,WV,54039.0,Kanawha County,54559.0,125895.0,484393.0,111749.0,125182.0,60518.0,82712.0,65361.0,19721.0,14186.0,4236.0,594.0,134.0
887732,County,2020/10/04,54.0,WV,54039.0,Kanawha County,57635.0,122819.0,430338.0,96569.0,116818.0,55540.0,73215.0,53202.0,17261.0,12018.0,5069.0,533.0,113.0
890917,County,2020/10/05,54.0,WV,54039.0,Kanawha County,56679.0,123775.0,406393.0,85637.0,104572.0,49624.0,69306.0,60620.0,17801.0,13400.0,4681.0,613.0,139.0
894104,County,2020/10/06,54.0,WV,54039.0,Kanawha County,51946.0,128508.0,452496.0,102605.0,112541.0,58659.0,78244.0,60665.0,21006.0,13477.0,4529.0,651.0,119.0
897301,County,2020/10/07,54.0,WV,54039.0,Kanawha County,50678.0,129776.0,468300.0,97867.0,123917.0,55402.0,84045.0,68719.0,19344.0,13754.0,4492.0,609.0,151.0
900515,County,2020/10/08,54.0,WV,54039.0,Kanawha County,51668.0,128786.0,433747.0,101826.0,105770.0,53887.0,75010.0,60719.0,17929.0,13008.0,4824.0,632.0,142.0
903702,County,2020/10/09,54.0,WV,54039.0,Kanawha County,52401.0,128053.0,455019.0,99080.0,114704.0,57877.0,80554.0,61594.0,20018.0,15099.0,5301.0,683.0,109.0
906884,County,2020/10/10,54.0,WV,54039.0,Kanawha County,56652.0,123802.0,408001.0,80336.0,103147.0,51630.0,73705.0,60897.0,18331.0,14735.0,4551.0,577.0,92.0
907713,County,2020/10/11,54.0,WV,54039.0,Kanawha County,56193.0,124261.0,384824.0,82044.0,99072.0,48942.0,66994.0,53300.0,15136.0,13257.0,5440.0,558.0,81.0
910413,County,2020/10/12,54.0,WV,54039.0,Kanawha County,54714.0,125740.0,437007.0,94186.0,105584.0,56244.0,79644.0,63142.0,18386.0,14484.0,4711.0,546.0,80.0
913932,County,2020/10/13,54.0,WV,54039.0,Kanawha County,52057.0,128397.0,451376.0,95950.0,116582.0,57692.0,75113.0,66244.0,19209.0,14427.0,5394.0,669.0,96.0
916742,County,2020/10/14,54.0,WV,54039.0,Kanawha County,49930.0,130524.0,459613.0,108571.0,113265.0,52502.0,79395.0,66679.0,19312.0,14389.0,4681.0,695.0,124.0
920101,County,2020/10/15,54.0,WV,54039.0,Kanawha County,50810.0,129644.0,401000.0,87383.0,95003.0,47897.0,68468.0,59442.0,19288.0,17250.0,5369.0,750.0,150.0
923273,County,2020/10/16,54.0,WV,54039.0,Kanawha County,49120.0,131334.0,445597.0,94233.0,107767.0,53742.0,84325.0,62754.0,19774.0,16652.0,5411.0,803.0,136.0
926495,County,2020/10/17,54.0,WV,54039.0,Kanawha County,51730.0,128724.0,409749.0,90661.0,97762.0,48047.0,72279.0,58219.0,21838.0,15465.0,4600.0,732.0,146.0
929592,County,2020/10/18,54.0,WV,54039.0,Kanawha County,54013.0,126441.0,392000.0,86756.0,99457.0,48307.0,65392.0,53306.0,17902.0,15158.0,4998.0,621.0,103.0
933148,County,2020/10/19,54.0,WV,54039.0,Kanawha County,51896.0,128558.0,458009.0,106816.0,114264.0,55523.0,81394.0,62534.0,18535.0,13965.0,4179.0,703.0,96.0
935993,County,2020/10/20,54.0,WV,54039.0,Kanawha County,52777.0,127677.0,461409.0,115489.0,115391.0,59070.0,76657.0,55991.0,19817.0,14239.0,3905.0,760.0,90.0
939912,County,2020/10/21,54.0,WV,54039.0,Kanawha County,53448.0,127006.0,445400.0,105464.0,111592.0,58678.0,73498.0,56030.0,18920.0,15550.0,4732.0,846.0,90.0
942764,County,2020/10/22,54.0,WV,54039.0,Kanawha County,52306.0,128148.0,493211.0,120024.0,125217.0,60117.0,80893.0,60918.0,22058.0,16962.0,6238.0,698.0,86.0
945531,County,2020/10/23,54.0,WV,54039.0,Kanawha County,50140.0,130314.0,535032.0,126751.0,136421.0,66432.0,88485.0,69616.0,21356.0,20007.0,5180.0,715.0,69.0
948750,County,2020/10/24,54.0,WV,54039.0,Kanawha County,52965.0,127489.0,487906.0,116185.0,125809.0,57696.0,80014.0,60477.0,23950.0,18496.0,4536.0,677.0,66.0
