,Level,Date,State FIPS,State Postal Code,County FIPS,County Name,Population Staying at Home,Population Not Staying at Home,Number of Trips,Number of Trips <1,Number of Trips 1-3,Number of Trips 3-5,Number of Trips 5-10,Number of Trips 10-25,Number of Trips 25-50,Number of Trips 50-100,Number of Trips 100-250,Number of Trips 250-500,Number of Trips >=500
191,County,2020/01/01,6.0,CA,6011.0,Colusa County,6138.0,15489.0,58749.0,13802.0,10285.0,9578.0,6647.0,8861.0,7125.0,1857.0,505.0,77.0,12.0
5573,County,2020/01/02,6.0,CA,6011.0,Colusa County,4812.0,16815.0,71032.0,16431.0,14234.0,9337.0,6022.0,11450.0,9369.0,3425.0,701.0,63.0,0.0
8428,County,2020/01/03,6.0,CA,6011.0,Colusa County,4465.0,17162.0,84447.0,28293.0,14731.0,8010.0,7217.0,10606.0,10247.0,4328.0,925.0,61.0,29.0
12649,County,2020/01/04,6.0,CA,6011.0,Colusa County,4926.0,16701.0,66228.0,18059.0,11337.0,6372.0,7424.0,9306.0,9827.0,3251.0,561.0,81.0,10.0
12967,County,2020/01/05,6.0,CA,6011.0,Colusa County,5500.0,16127.0,65597.0,19001.0,9915.0,7540.0,6739.0,9737.0,7950.0,3708.0,804.0,180.0,23.0
17677,County,2020/01/06,6.0,CA,6011.0,Colusa County,4369.0,17258.0,86761.0,25355.0,15036.0,9030.0,7766.0,15598.0,8826.0,4325.0,709.0,106.0,10.0
20824,County,2020/01/07,6.0,CA,6011.0,Colusa County,4926.0,16701.0,89092.0,27182.0,15573.0,9994.0,7024.0,14380.0,9972.0,4391.0,390.0,148.0,38.0
22451,County,2020/01/08,6.0,CA,6011.0,Colusa County,4343.0,17284.0,83734.0,24168.0,15428.0,8466.0,6086.0,14944.0,10432.0,3554.0,514.0,133.0,9.0
25645,County,2020/01/09,6.0,CA,6011.0,Colusa County,4884.0,16743.0,81354.0,24249.0,13466.0,7719.0,7824.0,15461.0,8536.0,3379.0,580.0,123.0,17.0
28840,County,2020/01/10,6.0,CA,6011.0,Colusa County,4229.0,17398.0,83312.0,28055.0,14288.0,9352.0,6320.0,10852.0,10095.0,3453.0,799.0,81.0,17.0
32082,County,2020/01/11,6.0,CA,6011.0,Colusa County,5087.0,16540.0,71635.0,23614.0,12476.0,6705.0,5218.0,10964.0,8622.0,3280.0,671.0,75.0,10.0
36769,County,2020/01/12,6.0,CA,6011.0,Colusa County,5790.0,15837.0,55758.0,13462.0,11257.0,5832.0,3795.0,8898.0,8175.0,3390.0,779.0,160.0,10.0
40017,County,2020/01/13,6.0,CA,6011.0,Colusa County,5024.0,16603.0,77506.0,26453.0,13527.0,6967.0,6318.0,12658.0,8200.0,2877.0,358.0,122.0,26.0
41642,County,2020/01/14,6.0,CA,6011.0,Colusa County,4936.0,16691.0,73642.0,21170.0,12623.0,7836.0,6458.0,10867.0,9863.0,4028.0,689.0,99.0,9.0
46371,County,2020/01/15,6.0,CA,6011.0,Colusa County,4783.0,16844.0,83334.0,26323.0,13806.0,8620.0,5825.0,13961.0,9989.0,4187.0,539.0,67.0,17.0
47947,County,2020/01/16,6.0,CA,6011.0,Colusa County,5554.0,16073.0,77248.0,24612.0,11461.0,6804.0,7708.0,12655.0,8835.0,4396.0,661.0,59.0,57.0
52815,County,2020/01/17,6.0,CA,6011.0,Colusa County,4520.0,17107.0,79679.0,22551.0,12516.0,5289.0,8134.0,15132.0,10981.0,4416.0,575.0,68.0,17.0
54387,County,2020/01/18,6.0,CA,6011.0,Colusa County,5063.0,16564.0,72580.0,19790.0,9787.0,8535.0,6537.0,13756.0,10659.0,2977.0,456.0,56.0,27.0
57584,County,2020/01/19,6.0,CA,6011.0,Colusa County,5554.0,16073.0,58887.0,16507.0,9315.0,4665.0,5757.0,12003.0,6746.0,3183.0,518.0,135.0,58.0
62346,County,2020/01/20,6.0,CA,6011.0,Colusa County,5150.0,16477.0,67231.0,18696.0,10866.0,6337.0,4156.0,11353.0,10901.0,4178.0,616.0,110.0,18.0
63973,County,2020/01/21,6.0,CA,6011.0,Colusa County,5235.0,16392.0,79006.0,25485.0,11835.0,8514.0,6693.0,13811.0,8569.0,3350.0,600.0,116.0,33.0
68736,County,2020/01/22,6.0,CA,6011.0,Colusa County,4772.0,16855.0,75597.0,20868.0,12374.0,6218.0,8523.0,11853.0,11002.0,3903.0,747.0,92.0,17.0
70360,County,2020/01/23,6.0,CA,6011.0,Colusa County,4629.0,16998.0,81777.0,26966.0,12160.0,8777.0,7908.0,12165.0,9320.0,3644.0,757.0,72.0,8.0
73557,County,2020/01/24,6.0,CA,6011.0,Colusa County,4242.0,17385.0,84084.0,23527.0,11345.0,8632.0,9135.0,17104.0,9340.0,4236.0,660.0,97.0,8.0
76749,County,2020/01/25,6.0,CA,6011.0,Colusa County,4975.0,16652.0,73858.0,17264.0,10906.0,9032.0,8545.0,13625.0,9530.0,4293.0,543.0,94.0,26.0
80041,County,2020/01/26,6.0,CA,6011.0,Colusa County,5558.0,16069.0,63081.0,18213.0,8347.0,7452.0,6510.0,9913.0,8442.0,3667.0,464.0,13.0,60.0
84231,County,2020/01/27,6.0,CA,6011.0,Colusa County,4514.0,17113.0,85362.0,25974.0,14146.0,8978.0,7476.0,13767.0,10205.0,4170.0,602.0,36.0,8.0
86346,County,2020/01/28,6.0,CA,6011.0,Colusa County,4714.0,16913.0,77789.0,22758.0,11883.0,9679.0,6766.0,11328.0,9665.0,4789.0,802.0,87.0,32.0
91079,County,2020/01/29,6.0,CA,6011.0,Colusa County,4784.0,16843.0,75766.0,20996.0,12702.0,7732.0,7678.0,11353.0,10677.0,3962.0,569.0,82.0,15.0
92756,County,2020/01/30,6.0,CA,6011.0,Colusa County,5038.0,16589.0,87365.0,29863.0,13449.0,8240.0,7500.0,13854.0,10125.0,3695.0,556.0,75.0,8.0
97479,County,2020/01/31,6.0,CA,6011.0,Colusa County,4540.0,17087.0,83070.0,23898.0,16108.0,8282.0,8718.0,12753.0,8951.0,3785.0,454.0,83.0,38.0
100667,County,2020/02/01,6.0,CA,6011.0,Colusa County,4887.0,16740.0,75652.0,21330.0,13659.0,9163.0,6651.0,11125.0,9633.0,3576.0,433.0,50.0,32.0
102285,County,2020/02/02,6.0,CA,6011.0,Colusa County,5509.0,16118.0,58053.0,18233.0,10255.0,5980.0,4160.0,9592.0,6959.0,2129.0,634.0,78.0,33.0
105495,County,2020/02/03,6.0,CA,6011.0,Colusa County,4349.0,17278.0,79073.0,25709.0,12898.0,6287.0,6321.0,12812.0,10464.0,3644.0,806.0,125.0,7.0
110255,County,2020/02/04,6.0,CA,6011.0,Colusa County,4349.0,17278.0,77166.0,22824.0,13681.0,6410.0,6399.0,12763.0,11027.0,3266.0,613.0,162.0,21.0
111883,County,2020/02/05,6.0,CA,6011.0,Colusa County,4474.0,17153.0,84346.0,26137.0,16028.0,6970.0,7475.0,13363.0,9905.0,3465.0,774.0,157.0,72.0
116618,County,2020/02/06,6.0,CA,6011.0,Colusa County,4704.0,16923.0,83718.0,26310.0,13472.0,9206.0,7853.0,14098.0,8308.0,3587.0,725.0,123.0,36.0
119872,County,2020/02/07,6.0,CA,6011.0,Colusa County,4370.0,17257.0,77817.0,23913.0,13629.0,6747.0,6209.0,11494.0,10372.0,4506.0,755.0,117.0,75.0
123080,County,2020/02/08,6.0,CA,6011.0,Colusa County,4974.0,16653.0,71488.0,20348.0,11364.0,8867.0,7538.0,10621.0,9021.0,3014.0,537.0,117.0,61.0
124659,County,2020/02/09,6.0,CA,6011.0,Colusa County,6195.0,15432.0,58545.0,17709.0,7179.0,6217.0,3401.0,11422.0,8149.0,3517.0,756.0,110.0,85.0
128500,County,2020/02/10,6.0,CA,6011.0,Colusa County,4713.0,16914.0,87026.0,25048.0,15390.0,7641.0,6553.0,16112.0,10447.0,4743.0,927.0,109.0,56.0
131146,County,2020/02/11,6.0,CA,6011.0,Colusa County,4414.0,17213.0,85601.0,22374.0,15335.0,7606.0,8662.0,14792.0,11470.0,4105.0,994.0,177.0,86.0
134716,County,2020/02/12,6.0,CA,6011.0,Colusa County,4541.0,17086.0,91072.0,28237.0,13458.0,9129.0,8020.0,15359.0,12414.0,3098.0,1057.0,213.0,87.0
139049,County,2020/02/13,6.0,CA,6011.0,Colusa County,4444.0,17183.0,86135.0,22985.0,14023.0,7961.0,8163.0,15927.0,11334.0,4739.0,742.0,183.0,78.0
142203,County,2020/02/14,6.0,CA,6011.0,Colusa County,4082.0,17545.0,95411.0,26549.0,14867.0,10715.0,9198.0,16214.0,11291.0,5648.0,588.0,204.0,137.0
145410,County,2020/02/15,6.0,CA,6011.0,Colusa County,5241.0,16386.0,77357.0,22260.0,10474.0,7321.0,9557.0,14287.0,8396.0,4028.0,849.0,99.0,86.0
147017,County,2020/02/16,6.0,CA,6011.0,Colusa County,5028.0,16599.0,68519.0,19997.0,9991.0,7196.0,6252.0,11233.0,8843.0,3919.0,849.0,101.0,138.0
151779,County,2020/02/17,6.0,CA,6011.0,Colusa County,6155.0,15472.0,68700.0,19237.0,9576.0,7393.0,5506.0,12869.0,8999.0,3924.0,1088.0,79.0,29.0
153405,County,2020/02/18,6.0,CA,6011.0,Colusa County,4732.0,16895.0,83645.0,22033.0,15037.0,9063.0,7205.0,14743.0,10087.0,4382.0,880.0,105.0,110.0
158165,County,2020/02/19,6.0,CA,6011.0,Colusa County,4713.0,16914.0,84015.0,25967.0,11398.0,8050.0,7211.0,15966.0,11378.0,2770.0,1069.0,153.0,53.0
161264,County,2020/02/20,6.0,CA,6011.0,Colusa County,4687.0,16940.0,84863.0,25879.0,11706.0,7563.0,7478.0,14232.0,12057.0,5045.0,748.0,137.0,18.0
162987,County,2020/02/21,6.0,CA,6011.0,Colusa County,5003.0,16624.0,92692.0,30967.0,13779.0,7876.0,8049.0,14936.0,11126.0,5255.0,606.0,71.0,27.0
166181,County,2020/02/22,6.0,CA,6011.0,Colusa County,4261.0,17366.0,85374.0,23565.0,13055.0,12950.0,7000.0,13177.0,11196.0,3484.0,778.0,103.0,66.0
170945,County,2020/02/23,6.0,CA,6011.0,Colusa County,5455.0,16172.0,72607.0,21782.0,10081.0,7025.0,6082.0,14138.0,9567.0,3347.0,462.0,81.0,42.0
174142,County,2020/02/24,6.0,CA,6011.0,Colusa County,4917.0,16710.0,84320.0,25456.0,11450.0,7273.0,6426.0,17311.0,11227.0,4097.0,896.0,69.0,115.0
176499,County,2020/02/25,6.0,CA,6011.0,Colusa County,4830.0,16797.0,90052.0,22873.0,19583.0,10608.0,7487.0,14497.0,8381.0,5814.0,638.0,104.0,67.0
179055,County,2020/02/26,6.0,CA,6011.0,Colusa County,3904.0,17723.0,81564.0,22000.0,12628.0,8031.0,8786.0,16419.0,10088.0,2572.0,862.0,142.0,36.0
183222,County,2020/02/27,6.0,CA,6011.0,Colusa County,4820.0,16807.0,83654.0,24417.0,13464.0,6331.0,8298.0,13804.0,12432.0,3613.0,1009.0,214.0,72.0
185389,County,2020/02/28,6.0,CA,6011.0,Colusa County,4679.0,16948.0,90564.0,26992.0,13316.0,12017.0,7588.0,13945.0,12314.0,3445.0,770.0,102.0,75.0
190058,County,2020/02/29,6.0,CA,6011.0,Colusa County,4542.0,17085.0,85590.0,27086.0,14008.0,8901.0,6916.0,12523.0,11357.0,4190.0,468.0,99.0,42.0
191730,County,2020/03/01,6.0,CA,6011.0,Colusa County,5438.0,16189.0,64715.0,21811.0,8055.0,4684.0,4822.0,12422.0,6906.0,4900.0,870.0,149.0,96.0
196530,County,2020/03/02,6.0,CA,6011.0,Colusa County,4911.0,16716.0,72022.0,22804.0,13658.0,7195.0,4689.0,11481.0,8106.0,3341.0,618.0,57.0,73.0
199590,County,2020/03/03,6.0,CA,6011.0,Colusa County,4180.0,17447.0,77254.0,21962.0,10262.0,7892.0,6400.0,15018.0,8146.0,6369.0,1090.0,70.0,45.0
202015,County,2020/03/04,6.0,CA,6011.0,Colusa County,4231.0,17396.0,73870.0,18775.0,11855.0,5596.0,6171.0,13671.0,10640.0,6471.0,531.0,132.0,28.0
206097,County,2020/03/05,6.0,CA,6011.0,Colusa County,3997.0,17630.0,76920.0,23252.0,10595.0,7415.0,7323.0,13733.0,8341.0,5499.0,643.0,106.0,13.0
209260,County,2020/03/06,6.0,CA,6011.0,Colusa County,4110.0,17517.0,77634.0,21877.0,11220.0,8193.0,5963.0,15724.0,9035.0,4663.0,805.0,140.0,14.0
212542,County,2020/03/07,6.0,CA,6011.0,Colusa County,4601.0,17026.0,64739.0,14918.0,9734.0,10565.0,4589.0,13572.0,7572.0,3045.0,680.0,28.0,36.0
214091,County,2020/03/08,6.0,CA,6011.0,Colusa County,5512.0,16115.0,53781.0,13319.0,8692.0,3917.0,3970.0,12727.0,7188.0,3512.0,353.0,29.0,74.0
218852,County,2020/03/09,6.0,CA,6011.0,Colusa County,4963.0,16664.0,72407.0,23892.0,10373.0,6397.0,5352.0,16083.0,6288.0,3278.0,641.0,45.0,58.0
222046,County,2020/03/10,6.0,CA,6011.0,Colusa County,4379.0,17248.0,66152.0,16357.0,11529.0,5035.0,6380.0,14607.0,6858.0,4374.0,898.0,69.0,45.0
223670,County,2020/03/11,6.0,CA,6011.0,Colusa County,4584.0,17043.0,82509.0,25439.0,18036.0,7491.0,5062.0,14002.0,9067.0,2239.0,874.0,62.0,237.0
228415,County,2020/03/12,6.0,CA,6011.0,Colusa County,4367.0,17260.0,90072.0,27898.0,16360.0,8344.0,6201.0,16459.0,8134.0,5238.0,1253.0,185.0,0.0
230062,County,2020/03/13,6.0,CA,6011.0,Colusa County,4437.0,17190.0,101843.0,25864.0,15915.0,8337.0,9576.0,27085.0,9083.0,4859.0,877.0,247.0,0.0
234690,County,2020/03/14,6.0,CA,6011.0,Colusa County,5284.0,16343.0,80536.0,34132.0,18650.0,4016.0,3393.0,11068.0,6909.0,1351.0,753.0,74.0,190.0
236449,County,2020/03/15,6.0,CA,6011.0,Colusa County,6601.0,15026.0,59836.0,17598.0,12386.0,4875.0,4309.0,10228.0,7312.0,2691.0,338.0,28.0,71.0
239643,County,2020/03/16,6.0,CA,6011.0,Colusa County,4734.0,16893.0,87277.0,29872.0,17207.0,7511.0,7512.0,13247.0,8959.0,2425.0,451.0,22.0,71.0
244449,County,2020/03/17,6.0,CA,6011.0,Colusa County,5954.0,15673.0,65913.0,18687.0,11630.0,6912.0,7108.0,12380.0,6376.0,2021.0,632.0,67.0,100.0
247556,County,2020/03/18,6.0,CA,6011.0,Colusa County,5849.0,15778.0,58426.0,14239.0,7920.0,6859.0,7063.0,10801.0,7304.0,3369.0,785.0,24.0,62.0
250812,County,2020/03/19,6.0,CA,6011.0,Colusa County,6827.0,14800.0,57315.0,12902.0,8909.0,7449.0,3432.0,11982.0,7960.0,3491.0,1068.0,26.0,96.0
252421,County,2020/03/20,6.0,CA,6011.0,Colusa County,6510.0,15117.0,58203.0,14495.0,7105.0,9676.0,5533.0,10580.0,6829.0,3004.0,783.0,110.0,88.0
255613,County,2020/03/21,6.0,CA,6011.0,Colusa County,7785.0,13842.0,51633.0,12482.0,8079.0,8241.0,5848.0,6455.0,6853.0,2956.0,619.0,61.0,39.0
258798,County,2020/03/22,6.0,CA,6011.0,Colusa County,6878.0,14749.0,51198.0,18562.0,4400.0,7462.0,3362.0,9895.0,3667.0,2868.0,747.0,184.0,51.0
263578,County,2020/03/23,6.0,CA,6011.0,Colusa County,6067.0,15560.0,55031.0,17634.0,7524.0,5356.0,3821.0,7079.0,8532.0,4003.0,938.0,88.0,56.0
265156,County,2020/03/24,6.0,CA,6011.0,Colusa County,7256.0,14371.0,45473.0,13803.0,7833.0,2592.0,4003.0,6445.0,6582.0,3320.0,723.0,137.0,35.0
269956,County,2020/03/25,6.0,CA,6011.0,Colusa County,6250.0,15377.0,50815.0,14779.0,6869.0,5388.0,5354.0,8827.0,5816.0,3126.0,524.0,117.0,15.0
271583,County,2020/03/26,6.0,CA,6011.0,Colusa County,6601.0,15026.0,49812.0,16305.0,8218.0,1991.0,5606.0,7123.0,5518.0,4166.0,648.0,221.0,16.0
276345,County,2020/03/27,6.0,CA,6011.0,Colusa County,5853.0,15774.0,57509.0,19503.0,6236.0,7315.0,4514.0,9596.0,6931.0,2567.0,669.0,118.0,60.0
277972,County,2020/03/28,6.0,CA,6011.0,Colusa County,6699.0,14928.0,45037.0,12705.0,7054.0,7361.0,3316.0,8135.0,3216.0,2515.0,579.0,156.0,0.0
281166,County,2020/03/29,6.0,CA,6011.0,Colusa County,7829.0,13798.0,41607.0,12929.0,5625.0,4266.0,4805.0,7700.0,3805.0,2125.0,285.0,0.0,67.0
285958,County,2020/03/30,6.0,CA,6011.0,Colusa County,6569.0,15058.0,56428.0,12325.0,8308.0,4601.0,7772.0,12012.0,7349.0,3389.0,592.0,49.0,31.0
289162,County,2020/03/31,6.0,CA,6011.0,Colusa County,6548.0,15079.0,46996.0,10936.0,7216.0,5245.0,5907.0,8520.0,4210.0,3919.0,840.0,104.0,99.0
290790,County,2020/04/01,6.0,CA,6011.0,Colusa County,6835.0,14792.0,50223.0,12305.0,8826.0,7484.0,4335.0,7237.0,6335.0,3036.0,535.0,79.0,51.0
293942,County,2020/04/02,6.0,CA,6011.0,Colusa County,6291.0,15336.0,51152.0,12855.0,9437.0,4403.0,5722.0,8842.0,6603.0,2582.0,610.0,50.0,48.0
297136,County,2020/04/03,6.0,CA,6011.0,Colusa County,5977.0,15650.0,52929.0,15143.0,6639.0,6928.0,5128.0,10910.0,4919.0,2515.0,545.0,171.0,31.0
300329,County,2020/04/04,6.0,CA,6011.0,Colusa County,7106.0,14521.0,36745.0,8196.0,4633.0,4081.0,3310.0,7341.0,6085.0,2745.0,184.0,151.0,19.0
305083,County,2020/04/05,6.0,CA,6011.0,Colusa County,7620.0,14007.0,39015.0,11226.0,3699.0,5376.0,3027.0,6758.0,4881.0,3214.0,538.0,232.0,64.0
308283,County,2020/04/06,6.0,CA,6011.0,Colusa County,6443.0,15184.0,56326.0,19577.0,8385.0,3611.0,2928.0,9847.0,7455.0,3886.0,488.0,80.0,69.0
309912,County,2020/04/07,6.0,CA,6011.0,Colusa County,6990.0,14637.0,50514.0,16921.0,8951.0,3394.0,4842.0,8095.0,5839.0,1522.0,736.0,196.0,18.0
313106,County,2020/04/08,6.0,CA,6011.0,Colusa County,6324.0,15303.0,55536.0,18735.0,6353.0,6156.0,3929.0,11311.0,5491.0,3067.0,411.0,51.0,32.0
317865,County,2020/04/09,6.0,CA,6011.0,Colusa County,7031.0,14596.0,47909.0,12893.0,7265.0,5054.0,5855.0,9006.0,4554.0,2590.0,488.0,187.0,17.0
321060,County,2020/04/10,6.0,CA,6011.0,Colusa County,6710.0,14917.0,52907.0,11834.0,7525.0,8974.0,5559.0,9546.0,5575.0,3186.0,562.0,111.0,35.0
322687,County,2020/04/11,6.0,CA,6011.0,Colusa County,6835.0,14792.0,50628.0,11343.0,9304.0,5488.0,2649.0,9552.0,8542.0,3340.0,294.0,116.0,0.0
327418,County,2020/04/12,6.0,CA,6011.0,Colusa County,8116.0,13511.0,30870.0,7504.0,4276.0,2763.0,4356.0,5878.0,4224.0,1445.0,346.0,34.0,44.0
329097,County,2020/04/13,6.0,CA,6011.0,Colusa County,5847.0,15780.0,44215.0,7190.0,5678.0,3883.0,6123.0,11830.0,4454.0,4208.0,777.0,72.0,0.0
333818,County,2020/04/14,6.0,CA,6011.0,Colusa County,6643.0,14984.0,64626.0,33710.0,7090.0,1963.0,5306.0,7404.0,5628.0,2641.0,884.0,0.0,0.0
337071,County,2020/04/15,6.0,CA,6011.0,Colusa County,6640.0,14987.0,46237.0,17255.0,4211.0,2041.0,4826.0,8288.0,4681.0,3660.0,1226.0,0.0,49.0
340165,County,2020/04/16,6.0,CA,6011.0,Colusa County,7027.0,14600.0,56841.0,18094.0,11414.0,6320.0,4270.0,6112.0,6644.0,2834.0,791.0,312.0,50.0
343476,County,2020/04/17,6.0,CA,6011.0,Colusa County,5312.0,16315.0,56861.0,22863.0,7292.0,2826.0,5252.0,8200.0,7294.0,2218.0,849.0,0.0,67.0
346575,County,2020/04/18,6.0,CA,6011.0,Colusa County,6450.0,15177.0,56233.0,24372.0,5881.0,1753.0,7701.0,9155.0,4022.0,2359.0,658.0,0.0,332.0
348226,County,2020/04/19,6.0,CA,6011.0,Colusa County,6545.0,15082.0,45193.0,10662.0,6905.0,5147.0,1391.0,11348.0,5313.0,3692.0,463.0,76.0,196.0
351433,County,2020/04/20,6.0,CA,6011.0,Colusa County,6171.0,15456.0,69051.0,16861.0,8695.0,7864.0,9110.0,16947.0,5153.0,4030.0,337.0,0.0,54.0
354625,County,2020/04/21,6.0,CA,6011.0,Colusa County,6502.0,15125.0,52879.0,12301.0,8847.0,6625.0,6846.0,8365.0,6033.0,3320.0,351.0,173.0,18.0
359397,County,2020/04/22,6.0,CA,6011.0,Colusa County,6468.0,15159.0,55748.0,11770.0,8913.0,7231.0,5429.0,10488.0,8293.0,3062.0,483.0,60.0,19.0
362553,County,2020/04/23,6.0,CA,6011.0,Colusa County,6077.0,15550.0,52166.0,12659.0,7913.0,6207.0,5428.0,10592.0,5653.0,2783.0,877.0,54.0,0.0
365815,County,2020/04/24,6.0,CA,6011.0,Colusa County,6391.0,15236.0,54269.0,13731.0,6482.0,5103.0,7693.0,11388.0,7428.0,1936.0,413.0,58.0,37.0
368971,County,2020/04/25,6.0,CA,6011.0,Colusa County,6237.0,15390.0,52909.0,14102.0,6405.0,6620.0,5592.0,8162.0,8778.0,2412.0,746.0,92.0,0.0
370561,County,2020/04/26,6.0,CA,6011.0,Colusa County,6766.0,14861.0,41905.0,8782.0,8224.0,5169.0,4657.0,7997.0,4940.0,1352.0,647.0,96.0,41.0
373791,County,2020/04/27,6.0,CA,6011.0,Colusa County,5846.0,15781.0,56851.0,12114.0,6833.0,7667.0,4945.0,13749.0,7394.0,3594.0,419.0,103.0,33.0
378519,County,2020/04/28,6.0,CA,6011.0,Colusa County,6373.0,15254.0,54659.0,12210.0,9481.0,6982.0,5960.0,10234.0,6322.0,2801.0,607.0,27.0,35.0
380194,County,2020/04/29,6.0,CA,6011.0,Colusa County,6242.0,15385.0,48793.0,10401.0,7557.0,5633.0,5583.0,10240.0,5168.0,3367.0,733.0,111.0,0.0
384940,County,2020/04/30,6.0,CA,6011.0,Colusa County,6138.0,15489.0,49987.0,11439.0,8014.0,4271.0,4461.0,12390.0,5344.0,2960.0,1050.0,58.0,0.0
388175,County,2020/05/01,6.0,CA,6011.0,Colusa County,5849.0,15778.0,62558.0,14762.0,7460.0,10226.0,10247.0,8797.0,6875.0,3795.0,318.0,78.0,0.0
391325,County,2020/05/02,6.0,CA,6011.0,Colusa County,6049.0,15578.0,50122.0,12636.0,6332.0,8313.0,3745.0,11254.0,4313.0,3017.0,357.0,117.0,38.0
392911,County,2020/05/03,6.0,CA,6011.0,Colusa County,6471.0,15156.0,43597.0,13692.0,7376.0,3812.0,3542.0,5806.0,4372.0,4060.0,716.0,176.0,45.0
397716,County,2020/05/04,6.0,CA,6011.0,Colusa County,6094.0,15533.0,49498.0,11882.0,6456.0,3791.0,4612.0,10558.0,7174.0,4080.0,797.0,112.0,36.0
399343,County,2020/05/05,6.0,CA,6011.0,Colusa County,6342.0,15285.0,52279.0,13087.0,6800.0,6390.0,4318.0,10426.0,6412.0,3760.0,900.0,148.0,38.0
402522,County,2020/05/06,6.0,CA,6011.0,Colusa County,6310.0,15317.0,54560.0,8417.0,12593.0,7650.0,4185.0,12680.0,5222.0,3103.0,602.0,108.0,0.0
407240,County,2020/05/07,6.0,CA,6011.0,Colusa County,6303.0,15324.0,56376.0,13532.0,9841.0,6117.0,5593.0,10647.0,7428.0,2582.0,486.0,133.0,17.0
408981,County,2020/05/08,6.0,CA,6011.0,Colusa County,6138.0,15489.0,62844.0,15889.0,9416.0,6989.0,6297.0,13066.0,7348.0,3308.0,408.0,86.0,37.0
413652,County,2020/05/09,6.0,CA,6011.0,Colusa County,6069.0,15558.0,52649.0,18178.0,5956.0,5002.0,7021.0,7591.0,4854.0,3106.0,809.0,114.0,18.0
415313,County,2020/05/10,6.0,CA,6011.0,Colusa County,6872.0,14755.0,54977.0,16512.0,7723.0,5132.0,5202.0,11166.0,6376.0,2109.0,642.0,95.0,20.0
418507,County,2020/05/11,6.0,CA,6011.0,Colusa County,4335.0,17292.0,60480.0,15322.0,9860.0,6825.0,5650.0,10592.0,7240.0,4131.0,769.0,51.0,40.0
423364,County,2020/05/12,6.0,CA,6011.0,Colusa County,4762.0,16865.0,60010.0,17326.0,8434.0,7733.0,3919.0,10809.0,7357.0,3625.0,581.0,143.0,83.0
424896,County,2020/05/13,6.0,CA,6011.0,Colusa County,5911.0,15716.0,53109.0,12390.0,9198.0,5199.0,4894.0,9804.0,6921.0,3830.0,669.0,151.0,53.0
428090,County,2020/05/14,6.0,CA,6011.0,Colusa County,5460.0,16167.0,54268.0,11043.0,9693.0,5688.0,5008.0,11800.0,6523.0,3478.0,854.0,140.0,41.0
431284,County,2020/05/15,6.0,CA,6011.0,Colusa County,5131.0,16496.0,47574.0,8895.0,7465.0,6652.0,3933.0,10035.0,5626.0,3803.0,924.0,209.0,32.0
434507,County,2020/05/16,6.0,CA,6011.0,Colusa County,5574.0,16053.0,51258.0,13143.0,9470.0,5057.0,3164.0,11083.0,5262.0,3023.0,731.0,236.0,89.0
439190,County,2020/05/17,6.0,CA,6011.0,Colusa County,6448.0,15179.0,39490.0,10433.0,4946.0,2396.0,4453.0,8689.0,5840.0,2149.0,540.0,44.0,0.0
442481,County,2020/05/18,6.0,CA,6011.0,Colusa County,5252.0,16375.0,52813.0,9610.0,8222.0,6972.0,5721.0,10112.0,7424.0,4019.0,598.0,111.0,24.0
444060,County,2020/05/19,6.0,CA,6011.0,Colusa County,4940.0,16687.0,59837.0,16382.0,7152.0,2310.0,5932.0,14207.0,7683.0,5179.0,833.0,137.0,22.0
448821,County,2020/05/20,6.0,CA,6011.0,Colusa County,5064.0,16563.0,64748.0,14748.0,13393.0,6886.0,6085.0,10142.0,6986.0,4988.0,1352.0,118.0,50.0
450447,County,2020/05/21,6.0,CA,6011.0,Colusa County,5308.0,16319.0,65115.0,14108.0,8566.0,7324.0,7919.0,11048.0,8960.0,6130.0,807.0,253.0,0.0
455205,County,2020/05/22,6.0,CA,6011.0,Colusa County,4207.0,17420.0,62014.0,14964.0,10299.0,7128.0,4817.0,12959.0,7630.0,2770.0,1213.0,211.0,23.0
456830,County,2020/05/23,6.0,CA,6011.0,Colusa County,5435.0,16192.0,58451.0,17076.0,7890.0,5461.0,5905.0,10139.0,7829.0,2938.0,1066.0,121.0,26.0
461573,County,2020/05/24,6.0,CA,6011.0,Colusa County,5571.0,16056.0,49854.0,15079.0,6537.0,4445.0,4206.0,9285.0,6118.0,3488.0,567.0,66.0,63.0
464875,County,2020/05/25,6.0,CA,6011.0,Colusa County,5206.0,16421.0,57456.0,14505.0,7912.0,9118.0,5321.0,9739.0,6892.0,2973.0,778.0,169.0,49.0
468031,County,2020/05/26,6.0,CA,6011.0,Colusa County,5128.0,16499.0,53402.0,13057.0,8429.0,4319.0,4822.0,9914.0,7968.0,4125.0,451.0,264.0,53.0
471223,County,2020/05/27,6.0,CA,6011.0,Colusa County,4945.0,16682.0,60020.0,14325.0,9541.0,9434.0,5865.0,9196.0,6492.0,3976.0,1020.0,126.0,45.0
472807,County,2020/05/28,6.0,CA,6011.0,Colusa County,4829.0,16798.0,54627.0,13861.0,8636.0,5520.0,4332.0,10021.0,7147.0,3992.0,909.0,158.0,51.0
476000,County,2020/05/29,6.0,CA,6011.0,Colusa County,5080.0,16547.0,53104.0,14359.0,7122.0,4120.0,5429.0,12550.0,5670.0,3325.0,402.0,107.0,20.0
480761,County,2020/05/30,6.0,CA,6011.0,Colusa County,5592.0,16035.0,52768.0,14619.0,7035.0,5949.0,4690.0,8917.0,7107.0,3890.0,372.0,165.0,24.0
483905,County,2020/05/31,6.0,CA,6011.0,Colusa County,6079.0,15548.0,41288.0,11448.0,5276.0,4982.0,4075.0,6998.0,4962.0,2822.0,591.0,97.0,37.0
487256,County,2020/06/01,6.0,CA,6011.0,Colusa County,5554.0,16073.0,43988.0,9025.0,5885.0,6003.0,4598.0,8707.0,5508.0,3589.0,541.0,104.0,28.0
490314,County,2020/06/02,6.0,CA,6011.0,Colusa County,5259.0,16368.0,56345.0,14280.0,5679.0,5314.0,5899.0,12332.0,7400.0,4425.0,855.0,98.0,63.0
491944,County,2020/06/03,6.0,CA,6011.0,Colusa County,5465.0,16162.0,55321.0,15450.0,6266.0,3985.0,5770.0,11890.0,7290.0,3573.0,883.0,169.0,45.0
495154,County,2020/06/04,6.0,CA,6011.0,Colusa County,4647.0,16980.0,50387.0,11173.0,7328.0,4916.0,5413.0,9718.0,7099.0,3592.0,957.0,148.0,43.0
499930,County,2020/06/05,6.0,CA,6011.0,Colusa County,4820.0,16807.0,60239.0,17497.0,7901.0,6088.0,6109.0,11131.0,6982.0,3391.0,970.0,109.0,61.0
503083,County,2020/06/06,6.0,CA,6011.0,Colusa County,6097.0,15530.0,51090.0,12659.0,6634.0,5714.0,5470.0,9532.0,8055.0,2242.0,644.0,106.0,34.0
504746,County,2020/06/07,6.0,CA,6011.0,Colusa County,5929.0,15698.0,46559.0,11792.0,8538.0,2327.0,4368.0,6750.0,7117.0,4521.0,931.0,191.0,24.0
509493,County,2020/06/08,6.0,CA,6011.0,Colusa County,5196.0,16431.0,56921.0,17264.0,7231.0,4905.0,3433.0,11484.0,7333.0,4320.0,684.0,259.0,8.0
512696,County,2020/06/09,6.0,CA,6011.0,Colusa County,5856.0,15771.0,54913.0,14483.0,8243.0,3735.0,7010.0,9871.0,6068.0,4372.0,841.0,231.0,59.0
514328,County,2020/06/10,6.0,CA,6011.0,Colusa County,5611.0,16016.0,52407.0,14018.0,5762.0,5783.0,5929.0,9602.0,6746.0,3397.0,868.0,236.0,66.0
519060,County,2020/06/11,6.0,CA,6011.0,Colusa County,5178.0,16449.0,57970.0,14362.0,6882.0,6578.0,6420.0,11131.0,7753.0,3687.0,933.0,189.0,35.0
520734,County,2020/06/12,6.0,CA,6011.0,Colusa County,5049.0,16578.0,42513.0,11088.0,5259.0,3163.0,3681.0,8463.0,5845.0,3782.0,1056.0,143.0,33.0
523909,County,2020/06/13,6.0,CA,6011.0,Colusa County,5469.0,16158.0,57916.0,20128.0,7121.0,6469.0,6995.0,8383.0,5564.0,2514.0,551.0,160.0,31.0
527104,County,2020/06/14,6.0,CA,6011.0,Colusa County,6374.0,15253.0,40457.0,10103.0,5697.0,4141.0,3264.0,7074.0,5540.0,3507.0,933.0,187.0,11.0
531864,County,2020/06/15,6.0,CA,6011.0,Colusa County,5628.0,15999.0,60238.0,20375.0,6165.0,7131.0,4298.0,9951.0,7183.0,3716.0,1273.0,128.0,18.0
533492,County,2020/06/16,6.0,CA,6011.0,Colusa County,5840.0,15787.0,58041.0,16378.0,6476.0,6485.0,6644.0,10437.0,7437.0,3189.0,785.0,170.0,40.0
536686,County,2020/06/17,6.0,CA,6011.0,Colusa County,5466.0,16161.0,53799.0,15364.0,6713.0,6033.0,4332.0,10064.0,6703.0,3128.0,1133.0,293.0,36.0
539879,County,2020/06/18,6.0,CA,6011.0,Colusa County,5052.0,16575.0,54725.0,15884.0,6286.0,6575.0,5358.0,9200.0,6764.0,3468.0,929.0,243.0,18.0
543073,County,2020/06/19,6.0,CA,6011.0,Colusa County,5445.0,16182.0,54354.0,14362.0,6454.0,4618.0,5461.0,11164.0,7283.0,3969.0,925.0,100.0,18.0
547834,County,2020/06/20,6.0,CA,6011.0,Colusa County,6022.0,15605.0,55414.0,17189.0,7113.0,6433.0,6210.0,6931.0,6982.0,3605.0,725.0,204.0,22.0
551021,County,2020/06/21,6.0,CA,6011.0,Colusa County,6866.0,14761.0,49611.0,18385.0,5617.0,3629.0,3344.0,9379.0,4729.0,3550.0,793.0,122.0,63.0
552657,County,2020/06/22,6.0,CA,6011.0,Colusa County,5895.0,15732.0,51946.0,10060.0,7931.0,5569.0,5570.0,10599.0,7665.0,3696.0,736.0,99.0,21.0
557416,County,2020/06/23,6.0,CA,6011.0,Colusa County,5740.0,15887.0,54953.0,15450.0,6719.0,5483.0,6175.0,10074.0,7336.0,2766.0,789.0,118.0,43.0
560610,County,2020/06/24,6.0,CA,6011.0,Colusa County,5501.0,16126.0,48404.0,15477.0,6421.0,3829.0,5013.0,9164.0,4940.0,2897.0,611.0,18.0,34.0
562238,County,2020/06/25,6.0,CA,6011.0,Colusa County,5129.0,16498.0,54444.0,15684.0,8882.0,4463.0,6606.0,8385.0,6459.0,3145.0,670.0,110.0,40.0
567081,County,2020/06/26,6.0,CA,6011.0,Colusa County,5175.0,16452.0,56412.0,15296.0,7816.0,4901.0,7527.0,9305.0,6642.0,3995.0,870.0,49.0,11.0
570182,County,2020/06/27,6.0,CA,6011.0,Colusa County,5691.0,15936.0,56510.0,17581.0,6871.0,5060.0,5039.0,9580.0,7483.0,4179.0,600.0,79.0,38.0
571822,County,2020/06/28,6.0,CA,6011.0,Colusa County,6497.0,15130.0,44824.0,16049.0,6352.0,3939.0,1996.0,7999.0,4377.0,2981.0,850.0,164.0,117.0
576549,County,2020/06/29,6.0,CA,6011.0,Colusa County,5775.0,15852.0,60805.0,19909.0,7529.0,6191.0,6126.0,9493.0,6719.0,3965.0,830.0,33.0,10.0
579796,County,2020/06/30,6.0,CA,6011.0,Colusa County,5832.0,15795.0,45974.0,8444.0,6657.0,5904.0,5024.0,10530.0,5517.0,2843.0,854.0,97.0,104.0
582989,County,2020/07/01,6.0,CA,6011.0,Colusa County,5798.0,15829.0,45163.0,11518.0,5261.0,4894.0,5374.0,7099.0,6314.0,3657.0,827.0,151.0,68.0
584592,County,2020/07/02,6.0,CA,6011.0,Colusa County,6542.0,15085.0,57787.0,16647.0,9427.0,4737.0,7012.0,8900.0,6856.0,3338.0,711.0,117.0,42.0
589384,County,2020/07/03,6.0,CA,6011.0,Colusa County,7160.0,14467.0,56095.0,15210.0,7772.0,4873.0,7485.0,9253.0,6605.0,3972.0,865.0,49.0,11.0
592566,County,2020/07/04,6.0,CA,6011.0,Colusa County,7086.0,14541.0,47989.0,13012.0,6649.0,4169.0,6403.0,7916.0,5650.0,3399.0,740.0,42.0,9.0
595771,County,2020/07/05,6.0,CA,6011.0,Colusa County,6812.0,14815.0,40592.0,10235.0,4627.0,5497.0,4692.0,6378.0,6470.0,2075.0,434.0,129.0,55.0
598890,County,2020/07/06,6.0,CA,6011.0,Colusa County,6019.0,15608.0,52353.0,11955.0,7176.0,5244.0,5546.0,10582.0,7452.0,3476.0,890.0,0.0,32.0
600565,County,2020/07/07,6.0,CA,6011.0,Colusa County,5669.0,15958.0,48539.0,14150.0,5661.0,4761.0,3917.0,10809.0,5817.0,2413.0,870.0,92.0,49.0
603756,County,2020/07/08,6.0,CA,6011.0,Colusa County,5452.0,16175.0,53373.0,13463.0,5846.0,6715.0,5814.0,10470.0,5414.0,4798.0,693.0,140.0,20.0
608529,County,2020/07/09,6.0,CA,6011.0,Colusa County,5375.0,16252.0,46410.0,10667.0,6244.0,5538.0,4574.0,10709.0,4704.0,3127.0,647.0,122.0,78.0
611735,County,2020/07/10,6.0,CA,6011.0,Colusa County,5354.0,16273.0,54389.0,10975.0,7038.0,6708.0,6497.0,11676.0,7308.0,3008.0,1075.0,83.0,21.0
614951,County,2020/07/11,6.0,CA,6011.0,Colusa County,6084.0,15543.0,46784.0,12335.0,6264.0,6070.0,4273.0,6897.0,6816.0,3289.0,722.0,94.0,24.0
616535,County,2020/07/12,6.0,CA,6011.0,Colusa County,6676.0,14951.0,41390.0,10892.0,6750.0,3925.0,4066.0,6679.0,5251.0,2816.0,864.0,97.0,50.0
621294,County,2020/07/13,6.0,CA,6011.0,Colusa County,5219.0,16408.0,46915.0,9830.0,8039.0,5616.0,4530.0,8514.0,6545.0,3087.0,599.0,121.0,34.0
622925,County,2020/07/14,6.0,CA,6011.0,Colusa County,5408.0,16219.0,53645.0,16224.0,6229.0,6707.0,4532.0,10896.0,5934.0,2492.0,547.0,57.0,27.0
626047,County,2020/07/15,6.0,CA,6011.0,Colusa County,5361.0,16266.0,49100.0,12408.0,7321.0,5595.0,5942.0,8811.0,5156.0,3046.0,660.0,104.0,57.0
629288,County,2020/07/16,6.0,CA,6011.0,Colusa County,5806.0,15821.0,42880.0,8983.0,5267.0,4041.0,5174.0,9131.0,6341.0,2861.0,926.0,126.0,30.0
634021,County,2020/07/17,6.0,CA,6011.0,Colusa County,5936.0,15691.0,51169.0,13722.0,9322.0,4617.0,4341.0,7920.0,6676.0,3600.0,784.0,149.0,38.0
635699,County,2020/07/18,6.0,CA,6011.0,Colusa County,6470.0,15157.0,47245.0,11442.0,4880.0,4090.0,5009.0,12160.0,5570.0,3324.0,576.0,133.0,61.0
640428,County,2020/07/19,6.0,CA,6011.0,Colusa County,7402.0,14225.0,44800.0,10837.0,6149.0,4540.0,4027.0,10371.0,5532.0,2799.0,469.0,63.0,13.0
642089,County,2020/07/20,6.0,CA,6011.0,Colusa County,6857.0,14770.0,46038.0,11317.0,8027.0,4412.0,4707.0,8487.0,5459.0,2915.0,628.0,86.0,0.0
647329,County,2020/07/21,6.0,CA,6011.0,Colusa County,5847.0,15780.0,41914.0,8570.0,4714.0,3915.0,5040.0,9952.0,6415.0,2759.0,448.0,83.0,18.0
649518,County,2020/07/22,6.0,CA,6011.0,Colusa County,6478.0,15149.0,40060.0,8692.0,4966.0,4234.0,3382.0,9269.0,5850.0,3107.0,405.0,100.0,55.0
651584,County,2020/07/23,6.0,CA,6011.0,Colusa County,5803.0,15824.0,44259.0,9059.0,6113.0,6012.0,4780.0,8926.0,5577.0,3013.0,584.0,170.0,25.0
656254,County,2020/07/24,6.0,CA,6011.0,Colusa County,6259.0,15368.0,47879.0,9889.0,5979.0,4782.0,5220.0,10457.0,6011.0,4618.0,856.0,41.0,26.0
658053,County,2020/07/25,6.0,CA,6011.0,Colusa County,6275.0,15352.0,44501.0,9079.0,5193.0,3854.0,6945.0,8821.0,6753.0,3264.0,514.0,48.0,30.0
661251,County,2020/07/26,6.0,CA,6011.0,Colusa County,6373.0,15254.0,46483.0,11970.0,5427.0,5371.0,4234.0,9868.0,5646.0,3211.0,571.0,132.0,53.0
664499,County,2020/07/27,6.0,CA,6011.0,Colusa County,6006.0,15621.0,53094.0,10953.0,8122.0,6775.0,5251.0,10751.0,7769.0,2769.0,539.0,118.0,47.0
669283,County,2020/07/28,6.0,CA,6011.0,Colusa County,5713.0,15914.0,50082.0,10515.0,7653.0,4184.0,4112.0,12577.0,6433.0,4007.0,429.0,127.0,45.0
672495,County,2020/07/29,6.0,CA,6011.0,Colusa County,5577.0,16050.0,45406.0,9598.0,6315.0,5245.0,3544.0,8340.0,7352.0,4268.0,583.0,115.0,46.0
674027,County,2020/07/30,6.0,CA,6011.0,Colusa County,5688.0,15939.0,49575.0,10742.0,5701.0,5334.0,4376.0,10720.0,6226.0,5637.0,686.0,99.0,54.0
677228,County,2020/07/31,6.0,CA,6011.0,Colusa County,6138.0,15489.0,47557.0,9925.0,6373.0,4455.0,5474.0,10103.0,6153.0,4268.0,638.0,120.0,48.0
681927,County,2020/08/01,6.0,CA,6011.0,Colusa County,7003.0,14624.0,47444.0,11816.0,6122.0,4966.0,2983.0,11366.0,7120.0,2475.0,414.0,143.0,39.0
683609,County,2020/08/02,6.0,CA,6011.0,Colusa County,6465.0,15162.0,41832.0,9388.0,5565.0,5268.0,3898.0,6257.0,7623.0,3149.0,452.0,148.0,84.0
686804,County,2020/08/03,6.0,CA,6011.0,Colusa County,5738.0,15889.0,48498.0,10985.0,7328.0,5811.0,3782.0,8865.0,6910.0,3957.0,679.0,79.0,102.0
689998,County,2020/08/04,6.0,CA,6011.0,Colusa County,5627.0,16000.0,51120.0,10956.0,6600.0,4010.0,5419.0,12074.0,7992.0,2996.0,803.0,170.0,100.0
694757,County,2020/08/05,6.0,CA,6011.0,Colusa County,5402.0,16225.0,54121.0,11144.0,6605.0,5750.0,5390.0,12054.0,8829.0,3161.0,1002.0,124.0,62.0
697952,County,2020/08/06,6.0,CA,6011.0,Colusa County,5217.0,16410.0,51479.0,10542.0,7668.0,7520.0,4476.0,9141.0,7700.0,3452.0,699.0,239.0,42.0
699579,County,2020/08/07,6.0,CA,6011.0,Colusa County,5200.0,16427.0,53461.0,15085.0,6647.0,7467.0,6307.0,6824.0,7280.0,2679.0,897.0,221.0,54.0
702775,County,2020/08/08,6.0,CA,6011.0,Colusa County,5930.0,15697.0,47373.0,11706.0,7069.0,5138.0,2748.0,9936.0,6261.0,3455.0,836.0,143.0,81.0
705967,County,2020/08/09,6.0,CA,6011.0,Colusa County,7052.0,14575.0,46886.0,13166.0,6901.0,4037.0,3921.0,8345.0,5208.0,4299.0,796.0,93.0,120.0
710775,County,2020/08/10,6.0,CA,6011.0,Colusa County,6349.0,15278.0,57748.0,14727.0,6121.0,9000.0,4700.0,10681.0,7389.0,4127.0,829.0,106.0,68.0
712355,County,2020/08/11,6.0,CA,6011.0,Colusa County,5848.0,15779.0,52570.0,12835.0,7735.0,6451.0,4103.0,8257.0,8052.0,4169.0,712.0,211.0,45.0
715550,County,2020/08/12,6.0,CA,6011.0,Colusa County,5841.0,15786.0,56307.0,15262.0,7100.0,6271.0,4119.0,10308.0,8490.0,3671.0,837.0,142.0,107.0
718744,County,2020/08/13,6.0,CA,6011.0,Colusa County,5474.0,16153.0,54644.0,14431.0,7198.0,5378.0,4884.0,10239.0,6940.0,4598.0,606.0,211.0,159.0
721937,County,2020/08/14,6.0,CA,6011.0,Colusa County,5577.0,16050.0,51869.0,12788.0,7412.0,7008.0,3788.0,7724.0,7735.0,4085.0,999.0,156.0,174.0
726747,County,2020/08/15,6.0,CA,6011.0,Colusa County,6356.0,15271.0,47486.0,11608.0,6830.0,6177.0,4324.0,8192.0,6326.0,2572.0,1027.0,262.0,168.0
728326,County,2020/08/16,6.0,CA,6011.0,Colusa County,6858.0,14769.0,48183.0,8697.0,6530.0,4059.0,4518.0,13576.0,6434.0,2998.0,1076.0,194.0,101.0
731520,County,2020/08/17,6.0,CA,6011.0,Colusa County,5738.0,15889.0,54406.0,11553.0,8241.0,7012.0,3422.0,11754.0,6702.0,4542.0,907.0,116.0,157.0
736280,County,2020/08/18,6.0,CA,6011.0,Colusa County,5613.0,16014.0,53952.0,11929.0,7571.0,4623.0,5705.0,8630.0,9912.0,4146.0,1057.0,179.0,200.0
739474,County,2020/08/19,6.0,CA,6011.0,Colusa County,5474.0,16153.0,59037.0,15177.0,8021.0,5779.0,5521.0,11332.0,8115.0,3753.0,988.0,265.0,86.0
741101,County,2020/08/20,6.0,CA,6011.0,Colusa County,5315.0,16312.0,55049.0,12084.0,6467.0,6366.0,4437.0,11312.0,8328.0,4817.0,866.0,221.0,151.0
745879,County,2020/08/21,6.0,CA,6011.0,Colusa County,4944.0,16683.0,65488.0,13275.0,10097.0,9145.0,6036.0,11105.0,9757.0,5245.0,575.0,142.0,111.0
747507,County,2020/08/22,6.0,CA,6011.0,Colusa County,5676.0,15951.0,56643.0,15557.0,8257.0,7190.0,5173.0,8343.0,7580.0,3432.0,836.0,121.0,154.0
752252,County,2020/08/23,6.0,CA,6011.0,Colusa County,6476.0,15151.0,42132.0,8815.0,6407.0,6773.0,4196.0,6332.0,5611.0,3038.0,706.0,111.0,143.0
755443,County,2020/08/24,6.0,CA,6011.0,Colusa County,5796.0,15831.0,48721.0,11470.0,6198.0,7007.0,2819.0,8906.0,7367.0,4040.0,677.0,111.0,126.0
757071,County,2020/08/25,6.0,CA,6011.0,Colusa County,5892.0,15735.0,50385.0,12974.0,7017.0,4478.0,3586.0,9814.0,8369.0,3420.0,473.0,136.0,118.0
761794,County,2020/08/26,6.0,CA,6011.0,Colusa County,5946.0,15681.0,48542.0,13056.0,5969.0,5784.0,4132.0,7671.0,6065.0,4817.0,795.0,135.0,118.0
764990,County,2020/08/27,6.0,CA,6011.0,Colusa County,6301.0,15326.0,54280.0,13733.0,7494.0,5843.0,5189.0,8523.0,7849.0,4865.0,601.0,136.0,47.0
768206,County,2020/08/28,6.0,CA,6011.0,Colusa County,5855.0,15772.0,61452.0,18153.0,7011.0,6794.0,5437.0,10788.0,7996.0,4248.0,832.0,159.0,34.0
771406,County,2020/08/29,6.0,CA,6011.0,Colusa County,6119.0,15508.0,48896.0,11505.0,8377.0,5885.0,2195.0,10597.0,6168.0,3276.0,671.0,136.0,86.0
773041,County,2020/08/30,6.0,CA,6011.0,Colusa County,6315.0,15312.0,46797.0,10193.0,6720.0,5901.0,3988.0,8265.0,6418.0,4106.0,947.0,181.0,78.0
776234,County,2020/08/31,6.0,CA,6011.0,Colusa County,5810.0,15817.0,52320.0,12302.0,8178.0,5812.0,4046.0,9503.0,8080.0,3079.0,1058.0,195.0,67.0
781014,County,2020/09/01,6.0,CA,6011.0,Colusa County,5390.0,16237.0,63492.0,14938.0,9359.0,8486.0,5622.0,10716.0,9160.0,4253.0,750.0,160.0,48.0
782621,County,2020/09/02,6.0,CA,6011.0,Colusa County,5197.0,16430.0,57789.0,13723.0,9309.0,6066.0,4423.0,11208.0,7781.0,4223.0,815.0,165.0,76.0
787359,County,2020/09/03,6.0,CA,6011.0,Colusa County,4785.0,16842.0,58051.0,12085.0,7316.0,6938.0,5810.0,10765.0,9514.0,4599.0,793.0,145.0,86.0
790552,County,2020/09/04,6.0,CA,6011.0,Colusa County,5305.0,16322.0,61443.0,12210.0,8970.0,5904.0,7426.0,10182.0,11568.0,4339.0,641.0,133.0,70.0
793691,County,2020/09/05,6.0,CA,6011.0,Colusa County,5870.0,15757.0,60356.0,13225.0,10322.0,7360.0,6758.0,8978.0,9198.0,3638.0,680.0,153.0,44.0
795394,County,2020/09/06,6.0,CA,6011.0,Colusa County,6371.0,15256.0,47427.0,10080.0,10015.0,5315.0,2655.0,9519.0,6493.0,2486.0,694.0,137.0,33.0
800160,County,2020/09/07,6.0,CA,6011.0,Colusa County,6567.0,15060.0,44007.0,9586.0,6764.0,5025.0,3543.0,7605.0,7391.0,2841.0,1017.0,194.0,41.0
803354,County,2020/09/08,6.0,CA,6011.0,Colusa County,5781.0,15846.0,69360.0,19576.0,9246.0,7294.0,6001.0,11040.0,9820.0,5261.0,905.0,164.0,53.0
804981,County,2020/09/09,6.0,CA,6011.0,Colusa County,5896.0,15731.0,65463.0,17988.0,8734.0,9511.0,5337.0,10101.0,8134.0,4626.0,775.0,143.0,114.0
809750,County,2020/09/10,6.0,CA,6011.0,Colusa County,6193.0,15434.0,59616.0,13512.0,10058.0,5593.0,4238.0,9834.0,10886.0,4028.0,1171.0,239.0,57.0
812935,County,2020/09/11,6.0,CA,6011.0,Colusa County,5527.0,16100.0,64094.0,16981.0,10119.0,8224.0,4061.0,10920.0,8253.0,4610.0,760.0,129.0,37.0
814563,County,2020/09/12,6.0,CA,6011.0,Colusa County,6304.0,15323.0,56851.0,12254.0,9172.0,8790.0,5675.0,10200.0,6384.0,3590.0,558.0,173.0,55.0
819312,County,2020/09/13,6.0,CA,6011.0,Colusa County,6820.0,14807.0,48132.0,11725.0,7703.0,5972.0,4483.0,6351.0,7228.0,3867.0,721.0,36.0,46.0
822518,County,2020/09/14,6.0,CA,6011.0,Colusa County,6181.0,15446.0,57942.0,11687.0,8534.0,7394.0,4997.0,11063.0,8257.0,5060.0,789.0,115.0,46.0
824146,County,2020/09/15,6.0,CA,6011.0,Colusa County,5531.0,16096.0,58451.0,14120.0,7307.0,5776.0,7177.0,10270.0,8548.0,4512.0,560.0,111.0,70.0
827339,County,2020/09/16,6.0,CA,6011.0,Colusa County,6057.0,15570.0,55347.0,12461.0,8049.0,6630.0,5271.0,9504.0,8498.0,4022.0,703.0,144.0,65.0
830533,County,2020/09/17,6.0,CA,6011.0,Colusa County,5376.0,16251.0,56864.0,13791.0,8215.0,5924.0,6380.0,10633.0,6688.0,4400.0,612.0,124.0,97.0
835294,County,2020/09/18,6.0,CA,6011.0,Colusa County,5184.0,16443.0,60284.0,14212.0,8657.0,6822.0,5606.0,10162.0,9833.0,4216.0,582.0,150.0,44.0
836921,County,2020/09/19,6.0,CA,6011.0,Colusa County,6533.0,15094.0,58692.0,13720.0,8708.0,5942.0,5140.0,11171.0,8723.0,4476.0,643.0,124.0,45.0
840114,County,2020/09/20,6.0,CA,6011.0,Colusa County,7426.0,14201.0,49549.0,12217.0,6898.0,5606.0,2914.0,10758.0,7295.0,2997.0,615.0,208.0,41.0
844902,County,2020/09/21,6.0,CA,6011.0,Colusa County,6704.0,14923.0,61822.0,16064.0,8922.0,8261.0,5323.0,10590.0,7822.0,3704.0,981.0,128.0,27.0
848070,County,2020/09/22,6.0,CA,6011.0,Colusa County,6001.0,15626.0,66352.0,20355.0,9643.0,7201.0,7878.0,8853.0,8357.0,3459.0,438.0,152.0,16.0
849697,County,2020/09/23,6.0,CA,6011.0,Colusa County,6131.0,15496.0,60767.0,15687.0,9258.0,6968.0,8240.0,9702.0,6792.0,3671.0,314.0,77.0,58.0
854463,County,2020/09/24,6.0,CA,6011.0,Colusa County,5829.0,15798.0,55379.0,14416.0,8212.0,6161.0,6360.0,7645.0,7752.0,3990.0,642.0,152.0,49.0
857651,County,2020/09/25,6.0,CA,6011.0,Colusa County,5566.0,16061.0,64379.0,15399.0,11691.0,6695.0,5220.0,11154.0,10335.0,3002.0,670.0,140.0,73.0
859279,County,2020/09/26,6.0,CA,6011.0,Colusa County,6480.0,15147.0,62084.0,15245.0,8333.0,7978.0,6048.0,11289.0,8703.0,3751.0,614.0,86.0,37.0
864026,County,2020/09/27,6.0,CA,6011.0,Colusa County,6736.0,14891.0,51470.0,12475.0,5439.0,5068.0,3424.0,10820.0,9880.0,3363.0,822.0,150.0,29.0
867234,County,2020/09/28,6.0,CA,6011.0,Colusa County,5649.0,15978.0,61211.0,16286.0,9360.0,6803.0,6385.0,9429.0,7260.0,4660.0,908.0,84.0,36.0
868861,County,2020/09/29,6.0,CA,6011.0,Colusa County,5683.0,15944.0,57155.0,13357.0,8262.0,6806.0,6357.0,9639.0,8609.0,3679.0,381.0,56.0,9.0
872055,County,2020/09/30,6.0,CA,6011.0,Colusa County,5575.0,16052.0,58698.0,13713.0,7893.0,5331.0,6736.0,11431.0,8241.0,4885.0,403.0,56.0,9.0
876795,County,2020/10/01,6.0,CA,6011.0,Colusa County,5417.0,16210.0,56849.0,16160.0,9656.0,5686.0,4962.0,7697.0,8423.0,3505.0,663.0,70.0,27.0
880010,County,2020/10/02,6.0,CA,6011.0,Colusa County,5762.0,15865.0,55759.0,12823.0,8446.0,6405.0,6252.0,9394.0,8060.0,3829.0,450.0,87.0,13.0
881637,County,2020/10/03,6.0,CA,6011.0,Colusa County,6169.0,15458.0,59739.0,14240.0,9096.0,7738.0,6101.0,10976.0,7520.0,3470.0,503.0,81.0,14.0
884776,County,2020/10/04,6.0,CA,6011.0,Colusa County,6769.0,14858.0,42648.0,11123.0,6343.0,3131.0,4909.0,7017.0,6138.0,3288.0,574.0,109.0,16.0
888124,County,2020/10/05,6.0,CA,6011.0,Colusa County,6489.0,15138.0,50974.0,13981.0,6400.0,3996.0,3334.0,11351.0,6921.0,4477.0,433.0,71.0,10.0
891458,County,2020/10/06,6.0,CA,6011.0,Colusa County,6535.0,15092.0,49190.0,10051.0,7802.0,4499.0,6478.0,9036.0,6956.0,3831.0,435.0,76.0,26.0
894905,County,2020/10/07,6.0,CA,6011.0,Colusa County,5743.0,15884.0,61195.0,14459.0,8284.0,5719.0,7927.0,11727.0,9388.0,3174.0,427.0,79.0,11.0
897671,County,2020/10/08,6.0,CA,6011.0,Colusa County,5976.0,15651.0,47980.0,11119.0,7535.0,4501.0,3605.0,9600.0,7236.0,3838.0,460.0,64.0,22.0
900900,County,2020/10/09,6.0,CA,6011.0,Colusa County,5775.0,15852.0,58575.0,12643.0,8673.0,6969.0,6415.0,12407.0,6926.0,3992.0,392.0,146.0,12.0
904041,County,2020/10/10,6.0,CA,6011.0,Colusa County,6391.0,15236.0,51287.0,12280.0,8286.0,6392.0,4451.0,9513.0,6162.0,3403.0,710.0,79.0,11.0
907248,County,2020/10/11,6.0,CA,6011.0,Colusa County,6717.0,14910.0,42133.0,7986.0,4778.0,6886.0,2794.0,6663.0,7790.0,4600.0,565.0,50.0,21.0
913224,County,2020/10/12,6.0,CA,6011.0,Colusa County,6315.0,15312.0,53671.0,10555.0,7733.0,7045.0,5706.0,9639.0,7727.0,4674.0,539.0,35.0,18.0
916498,County,2020/10/13,6.0,CA,6011.0,Colusa County,6123.0,15504.0,44929.0,9763.0,5646.0,3515.0,6082.0,9921.0,6550.0,2925.0,404.0,93.0,30.0
919573,County,2020/10/14,6.0,CA,6011.0,Colusa County,6121.0,15506.0,51406.0,12232.0,6013.0,6150.0,5102.0,10654.0,7077.0,3289.0,730.0,121.0,38.0
922924,County,2020/10/15,6.0,CA,6011.0,Colusa County,6624.0,15003.0,49207.0,8474.0,5467.0,5442.0,3954.0,13757.0,8030.0,3239.0,788.0,38.0,18.0
926003,County,2020/10/16,6.0,CA,6011.0,Colusa County,6228.0,15399.0,44141.0,7680.0,3103.0,5910.0,5121.0,9515.0,8049.0,3894.0,729.0,98.0,42.0
929140,County,2020/10/17,6.0,CA,6011.0,Colusa County,7022.0,14605.0,48376.0,12416.0,6953.0,6480.0,3202.0,6521.0,7331.0,4628.0,712.0,103.0,30.0
932445,County,2020/10/18,6.0,CA,6011.0,Colusa County,6281.0,15346.0,47634.0,11590.0,6937.0,4404.0,3809.0,9066.0,6740.0,4136.0,803.0,127.0,22.0
935610,County,2020/10/19,6.0,CA,6011.0,Colusa County,5721.0,15906.0,46525.0,9432.0,6341.0,4644.0,2638.0,10617.0,8538.0,3496.0,720.0,57.0,42.0
938605,County,2020/10/20,6.0,CA,6011.0,Colusa County,6358.0,15269.0,51861.0,13311.0,6738.0,6022.0,4725.0,9608.0,7109.0,3704.0,511.0,106.0,27.0
942111,County,2020/10/21,6.0,CA,6011.0,Colusa County,6369.0,15258.0,42748.0,11676.0,6134.0,1557.0,4511.0,8060.0,6608.0,3553.0,507.0,127.0,15.0
944178,County,2020/10/22,6.0,CA,6011.0,Colusa County,6192.0,15435.0,48371.0,12171.0,7769.0,3511.0,3519.0,9341.0,7943.0,3317.0,633.0,143.0,24.0
947824,County,2020/10/23,6.0,CA,6011.0,Colusa County,6013.0,15614.0,58097.0,17727.0,7691.0,4185.0,4720.0,9596.0,10059.0,3579.0,481.0,21.0,38.0
951543,County,2020/10/24,6.0,CA,6011.0,Colusa County,6391.0,15236.0,49930.0,12648.0,7042.0,5182.0,4279.0,9808.0,8104.0,2225.0,490.0,137.0,15.0
