,Level,Date,State FIPS,State Postal Code,County FIPS,County Name,Population Staying at Home,Population Not Staying at Home,Number of Trips,Number of Trips <1,Number of Trips 1-3,Number of Trips 3-5,Number of Trips 5-10,Number of Trips 10-25,Number of Trips 25-50,Number of Trips 50-100,Number of Trips 100-250,Number of Trips 250-500,Number of Trips >=500
2443,County,2020/01/01,47.0,TN,47033.0,Crockett County,2788.0,11540.0,39668.0,6076.0,10505.0,3537.0,5562.0,10961.0,2007.0,440.0,497.0,74.0,9.0
4582,County,2020/01/02,47.0,TN,47033.0,Crockett County,2389.0,11939.0,42752.0,8385.0,8714.0,5326.0,5914.0,10486.0,2568.0,838.0,455.0,63.0,3.0
9147,County,2020/01/03,47.0,TN,47033.0,Crockett County,2378.0,11950.0,55278.0,11534.0,12829.0,4954.0,8246.0,13190.0,3237.0,814.0,379.0,87.0,8.0
11474,County,2020/01/04,47.0,TN,47033.0,Crockett County,2464.0,11864.0,50371.0,7665.0,12374.0,6211.0,7513.0,11937.0,3311.0,878.0,409.0,71.0,2.0
15219,County,2020/01/05,47.0,TN,47033.0,Crockett County,2627.0,11701.0,43935.0,8384.0,10904.0,4679.0,5600.0,10602.0,2622.0,760.0,254.0,125.0,5.0
17237,County,2020/01/06,47.0,TN,47033.0,Crockett County,2345.0,11983.0,47581.0,9314.0,11089.0,4766.0,7067.0,11188.0,2924.0,685.0,438.0,108.0,2.0
21950,County,2020/01/07,47.0,TN,47033.0,Crockett County,2270.0,12058.0,50490.0,9224.0,13157.0,4524.0,8886.0,10443.0,3195.0,877.0,119.0,61.0,4.0
25144,County,2020/01/08,47.0,TN,47033.0,Crockett County,2421.0,11907.0,49993.0,8473.0,12078.0,4892.0,8745.0,11703.0,3184.0,513.0,380.0,22.0,3.0
26771,County,2020/01/09,47.0,TN,47033.0,Crockett County,2322.0,12006.0,47328.0,7754.0,11141.0,5303.0,7398.0,11385.0,3303.0,521.0,403.0,119.0,1.0
31532,County,2020/01/10,47.0,TN,47033.0,Crockett County,2325.0,12003.0,53009.0,10039.0,11259.0,4929.0,8995.0,13591.0,3238.0,522.0,356.0,76.0,4.0
34775,County,2020/01/11,47.0,TN,47033.0,Crockett County,2475.0,11853.0,46035.0,8019.0,12384.0,3767.0,7495.0,10727.0,2214.0,806.0,496.0,121.0,6.0
36365,County,2020/01/12,47.0,TN,47033.0,Crockett County,2769.0,11559.0,45623.0,6697.0,10905.0,5577.0,7084.0,12669.0,1696.0,577.0,320.0,98.0,0.0
41142,County,2020/01/13,47.0,TN,47033.0,Crockett County,2302.0,12026.0,54192.0,13225.0,13008.0,4224.0,8446.0,11369.0,2952.0,671.0,176.0,121.0,0.0
42769,County,2020/01/14,47.0,TN,47033.0,Crockett County,2292.0,12036.0,51343.0,9345.0,12100.0,5310.0,8480.0,12228.0,3068.0,516.0,256.0,39.0,1.0
45921,County,2020/01/15,47.0,TN,47033.0,Crockett County,2291.0,12037.0,47547.0,8237.0,11910.0,4234.0,7780.0,11702.0,2671.0,567.0,297.0,149.0,0.0
50702,County,2020/01/16,47.0,TN,47033.0,Crockett County,2282.0,12046.0,49764.0,8522.0,12445.0,3776.0,8726.0,12342.0,2843.0,713.0,374.0,20.0,3.0
53941,County,2020/01/17,47.0,TN,47033.0,Crockett County,2314.0,12014.0,51809.0,8998.0,13762.0,4166.0,9056.0,12357.0,2553.0,607.0,289.0,20.0,1.0
55514,County,2020/01/18,47.0,TN,47033.0,Crockett County,2384.0,11944.0,45321.0,7345.0,10416.0,4581.0,7721.0,11704.0,2334.0,687.0,361.0,166.0,6.0
60309,County,2020/01/19,47.0,TN,47033.0,Crockett County,2558.0,11770.0,43100.0,8316.0,8954.0,4377.0,7928.0,10431.0,1851.0,559.0,555.0,128.0,1.0
63472,County,2020/01/20,47.0,TN,47033.0,Crockett County,2555.0,11773.0,45247.0,7982.0,10210.0,4703.0,7341.0,10980.0,3095.0,585.0,263.0,81.0,7.0
65100,County,2020/01/21,47.0,TN,47033.0,Crockett County,2203.0,12125.0,49554.0,11643.0,11120.0,3747.0,8048.0,11357.0,2547.0,675.0,299.0,113.0,5.0
69860,County,2020/01/22,47.0,TN,47033.0,Crockett County,2274.0,12054.0,50831.0,11359.0,11104.0,5274.0,8203.0,11472.0,2398.0,621.0,340.0,59.0,1.0
71486,County,2020/01/23,47.0,TN,47033.0,Crockett County,2460.0,11868.0,48948.0,8876.0,11094.0,4138.0,8455.0,12081.0,2963.0,787.0,440.0,114.0,0.0
74682,County,2020/01/24,47.0,TN,47033.0,Crockett County,2273.0,12055.0,47610.0,7074.0,11446.0,3881.0,8230.0,12046.0,3711.0,617.0,377.0,223.0,5.0
77875,County,2020/01/25,47.0,TN,47033.0,Crockett County,2577.0,11751.0,46247.0,7500.0,9270.0,4369.0,6963.0,13093.0,3425.0,763.0,647.0,213.0,4.0
82293,County,2020/01/26,47.0,TN,47033.0,Crockett County,2673.0,11655.0,41418.0,7345.0,9760.0,4678.0,6667.0,9395.0,2083.0,866.0,454.0,167.0,3.0
83167,County,2020/01/27,47.0,TN,47033.0,Crockett County,2305.0,12023.0,49689.0,10158.0,11451.0,4539.0,8386.0,12193.0,2009.0,580.0,291.0,73.0,9.0
87520,County,2020/01/28,47.0,TN,47033.0,Crockett County,2399.0,11929.0,46979.0,7937.0,11949.0,4209.0,7985.0,11326.0,2539.0,723.0,235.0,72.0,4.0
90626,County,2020/01/29,47.0,TN,47033.0,Crockett County,2254.0,12074.0,47902.0,6944.0,11769.0,4802.0,9016.0,11288.0,3083.0,646.0,209.0,144.0,1.0
93979,County,2020/01/30,47.0,TN,47033.0,Crockett County,2156.0,12172.0,44086.0,8180.0,10333.0,3970.0,8255.0,9339.0,2891.0,611.0,451.0,33.0,23.0
98654,County,2020/01/31,47.0,TN,47033.0,Crockett County,2271.0,12057.0,50910.0,8399.0,11275.0,4997.0,9120.0,12161.0,3745.0,795.0,262.0,132.0,24.0
101793,County,2020/02/01,47.0,TN,47033.0,Crockett County,2141.0,12187.0,45456.0,8018.0,10701.0,3787.0,6588.0,11363.0,3283.0,1227.0,358.0,99.0,32.0
104994,County,2020/02/02,47.0,TN,47033.0,Crockett County,2381.0,11947.0,43024.0,7560.0,8668.0,5203.0,8161.0,9870.0,2485.0,634.0,282.0,106.0,55.0
106620,County,2020/02/03,47.0,TN,47033.0,Crockett County,2090.0,12238.0,50923.0,9232.0,11096.0,5813.0,8926.0,11606.0,3033.0,787.0,223.0,169.0,38.0
111382,County,2020/02/04,47.0,TN,47033.0,Crockett County,2131.0,12197.0,45597.0,5894.0,10530.0,4851.0,8274.0,11812.0,2872.0,776.0,407.0,148.0,33.0
114585,County,2020/02/05,47.0,TN,47033.0,Crockett County,2206.0,12122.0,48121.0,9542.0,11026.0,4414.0,8656.0,10744.0,2779.0,507.0,310.0,107.0,36.0
116105,County,2020/02/06,47.0,TN,47033.0,Crockett County,2111.0,12217.0,48831.0,8064.0,10086.0,5883.0,7973.0,11480.0,4209.0,553.0,332.0,215.0,36.0
119370,County,2020/02/07,47.0,TN,47033.0,Crockett County,2166.0,12162.0,56339.0,10994.0,12139.0,5136.0,9717.0,13155.0,3692.0,848.0,512.0,123.0,23.0
122616,County,2020/02/08,47.0,TN,47033.0,Crockett County,2349.0,11979.0,58763.0,11777.0,13373.0,5756.0,9482.0,12938.0,3945.0,791.0,530.0,159.0,12.0
126457,County,2020/02/09,47.0,TN,47033.0,Crockett County,2705.0,11623.0,48860.0,9823.0,10725.0,5395.0,7835.0,10536.0,2922.0,728.0,637.0,234.0,25.0
130751,County,2020/02/10,47.0,TN,47033.0,Crockett County,2062.0,12266.0,52629.0,9732.0,12257.0,5370.0,8813.0,11926.0,2897.0,812.0,511.0,264.0,47.0
132664,County,2020/02/11,47.0,TN,47033.0,Crockett County,1972.0,12356.0,56476.0,10043.0,13808.0,5603.0,8863.0,13169.0,3854.0,462.0,508.0,122.0,44.0
136905,County,2020/02/12,47.0,TN,47033.0,Crockett County,2164.0,12164.0,51539.0,8640.0,11229.0,5899.0,9336.0,12136.0,3073.0,539.0,456.0,165.0,66.0
138598,County,2020/02/13,47.0,TN,47033.0,Crockett County,1795.0,12533.0,53375.0,10106.0,11795.0,5265.0,8690.0,13040.0,2747.0,949.0,497.0,223.0,63.0
141657,County,2020/02/14,47.0,TN,47033.0,Crockett County,2010.0,12318.0,58092.0,8223.0,15533.0,5059.0,9453.0,14578.0,3334.0,954.0,660.0,235.0,63.0
144954,County,2020/02/15,47.0,TN,47033.0,Crockett County,2275.0,12053.0,57379.0,9976.0,15143.0,5886.0,7452.0,12876.0,3846.0,908.0,1101.0,138.0,53.0
148142,County,2020/02/16,47.0,TN,47033.0,Crockett County,2598.0,11730.0,50789.0,8758.0,12807.0,6135.0,8633.0,10225.0,2533.0,852.0,514.0,299.0,33.0
152904,County,2020/02/17,47.0,TN,47033.0,Crockett County,2659.0,11669.0,45867.0,7923.0,11149.0,5001.0,7461.0,9340.0,3009.0,822.0,945.0,170.0,47.0
154481,County,2020/02/18,47.0,TN,47033.0,Crockett County,2204.0,12124.0,51367.0,9350.0,11760.0,5036.0,7353.0,12745.0,3274.0,771.0,904.0,131.0,43.0
159291,County,2020/02/19,47.0,TN,47033.0,Crockett County,2084.0,12244.0,56654.0,11552.0,12419.0,6507.0,9219.0,12595.0,2955.0,834.0,499.0,51.0,23.0
162535,County,2020/02/20,47.0,TN,47033.0,Crockett County,2043.0,12285.0,57472.0,11145.0,12892.0,5925.0,8979.0,13043.0,3793.0,1000.0,575.0,87.0,33.0
165680,County,2020/02/21,47.0,TN,47033.0,Crockett County,2103.0,12225.0,60276.0,11844.0,13208.0,6593.0,10194.0,13026.0,3498.0,907.0,823.0,142.0,41.0
167258,County,2020/02/22,47.0,TN,47033.0,Crockett County,2043.0,12285.0,57942.0,11831.0,13461.0,6316.0,7993.0,13132.0,3527.0,966.0,506.0,175.0,35.0
172073,County,2020/02/23,47.0,TN,47033.0,Crockett County,2580.0,11748.0,48482.0,7256.0,10758.0,6917.0,7673.0,10892.0,3505.0,824.0,544.0,88.0,25.0
175268,County,2020/02/24,47.0,TN,47033.0,Crockett County,2256.0,12072.0,57835.0,10274.0,13779.0,6580.0,9557.0,12699.0,4022.0,617.0,207.0,89.0,11.0
178114,County,2020/02/25,47.0,TN,47033.0,Crockett County,2062.0,12266.0,69923.0,12866.0,15678.0,8143.0,12233.0,15928.0,3979.0,727.0,266.0,92.0,11.0
181307,County,2020/02/26,47.0,TN,47033.0,Crockett County,2224.0,12104.0,75932.0,9863.0,19584.0,9863.0,17710.0,15449.0,2122.0,931.0,300.0,103.0,7.0
182675,County,2020/02/27,47.0,TN,47033.0,Crockett County,2033.0,12295.0,64411.0,14534.0,13382.0,5157.0,12236.0,14395.0,3725.0,516.0,352.0,112.0,2.0
188086,County,2020/02/28,47.0,TN,47033.0,Crockett County,1972.0,12356.0,66119.0,12592.0,16846.0,6075.0,10522.0,15075.0,3611.0,785.0,478.0,129.0,6.0
189618,County,2020/02/29,47.0,TN,47033.0,Crockett County,2058.0,12270.0,65030.0,12912.0,13491.0,6805.0,9640.0,16765.0,3836.0,1196.0,245.0,127.0,13.0
194451,County,2020/03/01,47.0,TN,47033.0,Crockett County,2211.0,12117.0,49558.0,8784.0,12751.0,6515.0,6890.0,11031.0,2437.0,630.0,288.0,218.0,14.0
196079,County,2020/03/02,47.0,TN,47033.0,Crockett County,2293.0,12035.0,66396.0,15137.0,14331.0,6833.0,10304.0,14373.0,3958.0,842.0,476.0,141.0,1.0
200931,County,2020/03/03,47.0,TN,47033.0,Crockett County,1844.0,12484.0,68693.0,14192.0,16856.0,8059.0,10281.0,12542.0,5225.0,1142.0,246.0,146.0,4.0
204017,County,2020/03/04,47.0,TN,47033.0,Crockett County,1950.0,12378.0,62381.0,11053.0,12795.0,6452.0,12144.0,14385.0,4034.0,1126.0,229.0,158.0,5.0
205585,County,2020/03/05,47.0,TN,47033.0,Crockett County,1768.0,12560.0,57181.0,9822.0,11428.0,5826.0,11255.0,12859.0,4415.0,988.0,464.0,123.0,1.0
208703,County,2020/03/06,47.0,TN,47033.0,Crockett County,1816.0,12512.0,65990.0,12914.0,14304.0,7234.0,12511.0,12802.0,4347.0,1212.0,516.0,137.0,13.0
212053,County,2020/03/07,47.0,TN,47033.0,Crockett County,1963.0,12365.0,65710.0,11495.0,16228.0,6439.0,12172.0,13658.0,4141.0,1035.0,347.0,180.0,15.0
216780,County,2020/03/08,47.0,TN,47033.0,Crockett County,2364.0,11964.0,59317.0,9777.0,16357.0,7150.0,8637.0,13446.0,2770.0,680.0,333.0,164.0,3.0
219978,County,2020/03/09,47.0,TN,47033.0,Crockett County,2059.0,12269.0,58192.0,11356.0,12260.0,6583.0,11311.0,11894.0,3563.0,616.0,404.0,195.0,10.0
223171,County,2020/03/10,47.0,TN,47033.0,Crockett County,1907.0,12421.0,62066.0,10574.0,15152.0,7196.0,10073.0,13973.0,3749.0,810.0,348.0,187.0,4.0
224845,County,2020/03/11,47.0,TN,47033.0,Crockett County,1687.0,12641.0,61408.0,6468.0,14741.0,9324.0,11644.0,13137.0,4091.0,1105.0,618.0,266.0,14.0
229493,County,2020/03/12,47.0,TN,47033.0,Crockett County,1779.0,12549.0,61623.0,8516.0,16080.0,8807.0,9729.0,12408.0,3478.0,1251.0,948.0,403.0,3.0
232760,County,2020/03/13,47.0,TN,47033.0,Crockett County,1884.0,12444.0,70323.0,9761.0,15850.0,11583.0,11892.0,14028.0,5432.0,897.0,513.0,355.0,12.0
235913,County,2020/03/14,47.0,TN,47033.0,Crockett County,2267.0,12061.0,54579.0,7041.0,9880.0,5840.0,10834.0,13813.0,4380.0,2015.0,368.0,381.0,27.0
239142,County,2020/03/15,47.0,TN,47033.0,Crockett County,2663.0,11665.0,49824.0,7168.0,12478.0,7117.0,7947.0,11280.0,2654.0,675.0,309.0,183.0,13.0
242335,County,2020/03/16,47.0,TN,47033.0,Crockett County,2416.0,11912.0,55834.0,8095.0,11303.0,6374.0,11110.0,13506.0,4086.0,1066.0,155.0,133.0,6.0
244000,County,2020/03/17,47.0,TN,47033.0,Crockett County,2383.0,11945.0,48773.0,7977.0,11688.0,5037.0,8332.0,11760.0,2822.0,567.0,372.0,205.0,13.0
247155,County,2020/03/18,47.0,TN,47033.0,Crockett County,2733.0,11595.0,48494.0,8225.0,10884.0,4288.0,8859.0,11710.0,3237.0,838.0,306.0,132.0,15.0
250362,County,2020/03/19,47.0,TN,47033.0,Crockett County,2808.0,11520.0,56143.0,11559.0,12505.0,6227.0,8703.0,12881.0,3088.0,710.0,335.0,129.0,6.0
255112,County,2020/03/20,47.0,TN,47033.0,Crockett County,2734.0,11594.0,49494.0,8772.0,11353.0,5218.0,8503.0,10442.0,3977.0,771.0,281.0,170.0,7.0
258304,County,2020/03/21,47.0,TN,47033.0,Crockett County,2796.0,11532.0,52895.0,10467.0,11887.0,5531.0,9199.0,11663.0,2974.0,642.0,379.0,146.0,7.0
259926,County,2020/03/22,47.0,TN,47033.0,Crockett County,3165.0,11163.0,38273.0,7496.0,10216.0,5079.0,4722.0,7874.0,1917.0,431.0,317.0,219.0,2.0
264704,County,2020/03/23,47.0,TN,47033.0,Crockett County,2526.0,11802.0,45256.0,8767.0,11469.0,5196.0,7284.0,9494.0,1883.0,576.0,356.0,221.0,10.0
266281,County,2020/03/24,47.0,TN,47033.0,Crockett County,2591.0,11737.0,46886.0,10458.0,11302.0,6013.0,6459.0,9168.0,2411.0,651.0,216.0,198.0,10.0
271082,County,2020/03/25,47.0,TN,47033.0,Crockett County,2787.0,11541.0,48892.0,10639.0,11867.0,6545.0,6749.0,9526.0,2693.0,612.0,120.0,139.0,2.0
272708,County,2020/03/26,47.0,TN,47033.0,Crockett County,2756.0,11572.0,47528.0,10170.0,11258.0,4101.0,8553.0,9925.0,2790.0,452.0,158.0,109.0,12.0
277471,County,2020/03/27,47.0,TN,47033.0,Crockett County,2727.0,11601.0,50030.0,13236.0,11216.0,4223.0,9064.0,8691.0,2608.0,599.0,259.0,127.0,7.0
279098,County,2020/03/28,47.0,TN,47033.0,Crockett County,2476.0,11852.0,42615.0,9101.0,8240.0,4885.0,7274.0,9785.0,2411.0,434.0,273.0,209.0,3.0
282292,County,2020/03/29,47.0,TN,47033.0,Crockett County,2959.0,11369.0,42359.0,7433.0,8390.0,4636.0,7364.0,10984.0,2720.0,580.0,162.0,84.0,6.0
287083,County,2020/03/30,47.0,TN,47033.0,Crockett County,2837.0,11491.0,46035.0,11310.0,12077.0,4495.0,6564.0,8186.0,2686.0,506.0,177.0,24.0,10.0
288681,County,2020/03/31,47.0,TN,47033.0,Crockett County,2985.0,11343.0,46561.0,9102.0,9929.0,6650.0,7210.0,10009.0,2609.0,528.0,333.0,178.0,13.0
291916,County,2020/04/01,47.0,TN,47033.0,Crockett County,2835.0,11493.0,53301.0,11954.0,12172.0,6658.0,9403.0,9178.0,2907.0,607.0,262.0,155.0,5.0
295068,County,2020/04/02,47.0,TN,47033.0,Crockett County,2627.0,11701.0,49063.0,9452.0,13609.0,5254.0,9128.0,8199.0,2160.0,713.0,374.0,164.0,10.0
299828,County,2020/04/03,47.0,TN,47033.0,Crockett County,2490.0,11838.0,49303.0,9920.0,14537.0,4427.0,9234.0,7087.0,2870.0,854.0,232.0,137.0,5.0
301454,County,2020/04/04,47.0,TN,47033.0,Crockett County,2996.0,11332.0,49399.0,11969.0,11947.0,6161.0,8043.0,7512.0,2853.0,462.0,283.0,167.0,2.0
306208,County,2020/04/05,47.0,TN,47033.0,Crockett County,3355.0,10973.0,47104.0,11311.0,9456.0,6919.0,8159.0,8548.0,1952.0,527.0,151.0,69.0,12.0
309410,County,2020/04/06,47.0,TN,47033.0,Crockett County,2857.0,11471.0,51852.0,14169.0,10690.0,5878.0,9207.0,8849.0,2121.0,632.0,249.0,57.0,0.0
311037,County,2020/04/07,47.0,TN,47033.0,Crockett County,2848.0,11480.0,50472.0,12015.0,12479.0,4202.0,8129.0,9731.0,3153.0,530.0,119.0,110.0,4.0
314232,County,2020/04/08,47.0,TN,47033.0,Crockett County,2444.0,11884.0,49209.0,11151.0,11575.0,5273.0,7737.0,9182.0,3207.0,834.0,202.0,46.0,2.0
318992,County,2020/04/09,47.0,TN,47033.0,Crockett County,2892.0,11436.0,48934.0,8937.0,11932.0,6739.0,8807.0,9168.0,2566.0,599.0,157.0,27.0,2.0
322186,County,2020/04/10,47.0,TN,47033.0,Crockett County,2789.0,11539.0,52200.0,11204.0,13917.0,5689.0,7147.0,10778.0,2543.0,557.0,273.0,81.0,11.0
323861,County,2020/04/11,47.0,TN,47033.0,Crockett County,3026.0,11302.0,54084.0,12510.0,12565.0,8193.0,8489.0,9006.0,2775.0,423.0,121.0,0.0,2.0
327006,County,2020/04/12,47.0,TN,47033.0,Crockett County,3623.0,10705.0,36247.0,5984.0,10468.0,5530.0,6158.0,6389.0,1015.0,465.0,177.0,61.0,0.0
331769,County,2020/04/13,47.0,TN,47033.0,Crockett County,3027.0,11301.0,51267.0,9298.0,11658.0,5562.0,10075.0,11411.0,2389.0,493.0,239.0,138.0,4.0
334943,County,2020/04/14,47.0,TN,47033.0,Crockett County,2840.0,11488.0,53240.0,10032.0,14299.0,7953.0,8164.0,8509.0,3729.0,149.0,235.0,162.0,8.0
336620,County,2020/04/15,47.0,TN,47033.0,Crockett County,2515.0,11813.0,61093.0,11821.0,17739.0,9984.0,6768.0,11054.0,2973.0,321.0,337.0,93.0,3.0
339774,County,2020/04/16,47.0,TN,47033.0,Crockett County,2773.0,11555.0,54696.0,8779.0,15292.0,5210.0,10104.0,11556.0,2986.0,586.0,77.0,106.0,0.0
344553,County,2020/04/17,47.0,TN,47033.0,Crockett County,2349.0,11979.0,53097.0,10672.0,12726.0,7304.0,8020.0,10751.0,2683.0,613.0,117.0,202.0,9.0
347701,County,2020/04/18,47.0,TN,47033.0,Crockett County,2847.0,11481.0,61055.0,12689.0,14497.0,7501.0,13536.0,10189.0,1848.0,460.0,161.0,167.0,7.0
350932,County,2020/04/19,47.0,TN,47033.0,Crockett County,2813.0,11515.0,39977.0,5073.0,9624.0,7906.0,7509.0,7081.0,2152.0,218.0,305.0,105.0,4.0
352558,County,2020/04/20,47.0,TN,47033.0,Crockett County,2419.0,11909.0,61624.0,9166.0,18397.0,9307.0,10164.0,10972.0,2925.0,481.0,144.0,50.0,18.0
355752,County,2020/04/21,47.0,TN,47033.0,Crockett County,2715.0,11613.0,52432.0,13206.0,11171.0,6187.0,8906.0,9358.0,2615.0,628.0,247.0,114.0,0.0
360522,County,2020/04/22,47.0,TN,47033.0,Crockett County,2824.0,11504.0,47855.0,10661.0,9299.0,4823.0,8125.0,10999.0,3402.0,376.0,131.0,30.0,9.0
362053,County,2020/04/23,47.0,TN,47033.0,Crockett County,2876.0,11452.0,50190.0,9823.0,12370.0,6593.0,8283.0,9637.0,2549.0,645.0,226.0,62.0,2.0
365355,County,2020/04/24,47.0,TN,47033.0,Crockett County,2487.0,11841.0,53807.0,11300.0,13178.0,4936.0,9087.0,10570.0,3831.0,575.0,241.0,83.0,6.0
370096,County,2020/04/25,47.0,TN,47033.0,Crockett County,2645.0,11683.0,46595.0,8198.0,11350.0,4822.0,8161.0,10152.0,2924.0,553.0,290.0,143.0,2.0
373290,County,2020/04/26,47.0,TN,47033.0,Crockett County,2860.0,11468.0,51355.0,11305.0,10653.0,6669.0,11647.0,8053.0,2205.0,673.0,0.0,150.0,0.0
376522,County,2020/04/27,47.0,TN,47033.0,Crockett County,2675.0,11653.0,62279.0,13151.0,14018.0,8579.0,11608.0,10038.0,4028.0,666.0,186.0,0.0,5.0
378068,County,2020/04/28,47.0,TN,47033.0,Crockett County,2588.0,11740.0,57410.0,14086.0,12637.0,6413.0,10934.0,9929.0,2884.0,456.0,40.0,27.0,4.0
381320,County,2020/04/29,47.0,TN,47033.0,Crockett County,2740.0,11588.0,54255.0,10551.0,12936.0,6027.0,11646.0,9683.0,2438.0,479.0,293.0,202.0,0.0
384467,County,2020/04/30,47.0,TN,47033.0,Crockett County,2511.0,11817.0,60968.0,13075.0,13242.0,6016.0,10808.0,14045.0,2899.0,719.0,133.0,31.0,0.0
389302,County,2020/05/01,47.0,TN,47033.0,Crockett County,2327.0,12001.0,63186.0,13551.0,14987.0,7346.0,11455.0,10680.0,4186.0,712.0,176.0,91.0,2.0
390874,County,2020/05/02,47.0,TN,47033.0,Crockett County,2488.0,11840.0,64681.0,14942.0,14245.0,7934.0,11390.0,11746.0,3549.0,566.0,183.0,126.0,0.0
394088,County,2020/05/03,47.0,TN,47033.0,Crockett County,2820.0,11508.0,45930.0,8682.0,10617.0,5729.0,7966.0,9850.0,2350.0,532.0,172.0,30.0,2.0
398842,County,2020/05/04,47.0,TN,47033.0,Crockett County,2285.0,12043.0,52148.0,11183.0,12091.0,6351.0,7534.0,10082.0,4103.0,572.0,150.0,78.0,4.0
402017,County,2020/05/05,47.0,TN,47033.0,Crockett County,2171.0,12157.0,57492.0,11069.0,13349.0,6447.0,10140.0,11882.0,3536.0,878.0,80.0,111.0,0.0
403647,County,2020/05/06,47.0,TN,47033.0,Crockett County,2294.0,12034.0,52537.0,11370.0,12529.0,5956.0,7743.0,10361.0,3469.0,698.0,347.0,53.0,11.0
408367,County,2020/05/07,47.0,TN,47033.0,Crockett County,2556.0,11772.0,55846.0,11099.0,13344.0,6561.0,10131.0,9661.0,4207.0,606.0,119.0,110.0,8.0
411629,County,2020/05/08,47.0,TN,47033.0,Crockett County,2689.0,11639.0,52371.0,8606.0,11909.0,7601.0,9676.0,10778.0,2738.0,718.0,310.0,31.0,4.0
414777,County,2020/05/09,47.0,TN,47033.0,Crockett County,2611.0,11717.0,54874.0,10571.0,12532.0,7137.0,9546.0,10682.0,3423.0,748.0,231.0,0.0,4.0
416438,County,2020/05/10,47.0,TN,47033.0,Crockett County,2827.0,11501.0,46969.0,7566.0,11308.0,6964.0,8878.0,9181.0,2305.0,553.0,145.0,67.0,2.0
419681,County,2020/05/11,47.0,TN,47033.0,Crockett County,2098.0,12230.0,55337.0,13685.0,12707.0,5752.0,9671.0,9648.0,2797.0,599.0,302.0,174.0,2.0
424441,County,2020/05/12,47.0,TN,47033.0,Crockett County,2085.0,12243.0,53121.0,11259.0,13472.0,5004.0,7887.0,10904.0,3413.0,774.0,358.0,49.0,1.0
425923,County,2020/05/13,47.0,TN,47033.0,Crockett County,2324.0,12004.0,50914.0,10214.0,11226.0,4965.0,9009.0,11031.0,3330.0,514.0,566.0,56.0,3.0
430782,County,2020/05/14,47.0,TN,47033.0,Crockett County,2071.0,12257.0,56064.0,12799.0,12993.0,5745.0,9294.0,11169.0,3309.0,400.0,197.0,153.0,5.0
432410,County,2020/05/15,47.0,TN,47033.0,Crockett County,1999.0,12329.0,54867.0,14550.0,12946.0,4408.0,7343.0,11296.0,2906.0,854.0,412.0,150.0,2.0
437159,County,2020/05/16,47.0,TN,47033.0,Crockett County,2120.0,12208.0,56938.0,12654.0,12767.0,5717.0,9129.0,12474.0,3345.0,520.0,234.0,90.0,8.0
438787,County,2020/05/17,47.0,TN,47033.0,Crockett County,2002.0,12326.0,55275.0,10044.0,13964.0,6512.0,8913.0,12790.0,2340.0,455.0,106.0,146.0,5.0
443607,County,2020/05/18,47.0,TN,47033.0,Crockett County,1885.0,12443.0,61082.0,10819.0,11278.0,8886.0,11669.0,13459.0,3433.0,976.0,409.0,141.0,12.0
445186,County,2020/05/19,47.0,TN,47033.0,Crockett County,1840.0,12488.0,57894.0,10707.0,13730.0,7144.0,10151.0,10865.0,3914.0,873.0,337.0,166.0,7.0
449946,County,2020/05/20,47.0,TN,47033.0,Crockett County,1983.0,12345.0,66477.0,12804.0,16304.0,9524.0,10207.0,12100.0,4062.0,897.0,471.0,108.0,0.0
451573,County,2020/05/21,47.0,TN,47033.0,Crockett County,1755.0,12573.0,58577.0,12351.0,12953.0,6838.0,10803.0,11055.0,3318.0,781.0,145.0,333.0,0.0
454759,County,2020/05/22,47.0,TN,47033.0,Crockett County,1714.0,12614.0,61680.0,11098.0,14784.0,7422.0,10253.0,13380.0,3179.0,1067.0,389.0,101.0,7.0
457956,County,2020/05/23,47.0,TN,47033.0,Crockett County,2067.0,12261.0,60181.0,11165.0,14682.0,7825.0,9832.0,12603.0,2364.0,1021.0,536.0,148.0,5.0
461124,County,2020/05/24,47.0,TN,47033.0,Crockett County,2494.0,11834.0,43761.0,8172.0,7782.0,5288.0,7187.0,10611.0,3376.0,785.0,345.0,202.0,13.0
466000,County,2020/05/25,47.0,TN,47033.0,Crockett County,2206.0,12122.0,44936.0,9406.0,9412.0,4891.0,7295.0,10265.0,2411.0,663.0,373.0,206.0,14.0
467530,County,2020/05/26,47.0,TN,47033.0,Crockett County,1883.0,12445.0,55854.0,12277.0,12806.0,5806.0,8947.0,11378.0,3372.0,879.0,292.0,93.0,4.0
472348,County,2020/05/27,47.0,TN,47033.0,Crockett County,2062.0,12266.0,55306.0,10819.0,13515.0,5036.0,7946.0,12100.0,4460.0,850.0,322.0,256.0,2.0
475498,County,2020/05/28,47.0,TN,47033.0,Crockett County,1889.0,12439.0,55110.0,12360.0,12478.0,5625.0,7850.0,11918.0,3586.0,724.0,379.0,185.0,5.0
478686,County,2020/05/29,47.0,TN,47033.0,Crockett County,2408.0,11920.0,57506.0,12540.0,12882.0,5227.0,8597.0,13565.0,3243.0,821.0,344.0,277.0,10.0
481886,County,2020/05/30,47.0,TN,47033.0,Crockett County,2081.0,12247.0,61737.0,15103.0,14266.0,5129.0,8655.0,13843.0,3573.0,696.0,332.0,137.0,3.0
483442,County,2020/05/31,47.0,TN,47033.0,Crockett County,2410.0,11918.0,51331.0,9512.0,12479.0,5688.0,8750.0,10396.0,2845.0,988.0,461.0,212.0,0.0
486708,County,2020/06/01,47.0,TN,47033.0,Crockett County,1989.0,12339.0,57257.0,11443.0,14362.0,5476.0,8938.0,11533.0,4057.0,740.0,546.0,159.0,3.0
491440,County,2020/06/02,47.0,TN,47033.0,Crockett County,2156.0,12172.0,54673.0,12718.0,12071.0,4306.0,9148.0,11402.0,3375.0,926.0,455.0,272.0,0.0
494661,County,2020/06/03,47.0,TN,47033.0,Crockett County,1978.0,12350.0,63054.0,15846.0,14646.0,5740.0,7938.0,12987.0,4144.0,1066.0,307.0,366.0,14.0
496280,County,2020/06/04,47.0,TN,47033.0,Crockett County,1845.0,12483.0,57762.0,11618.0,11982.0,6216.0,8508.0,13635.0,4204.0,1162.0,222.0,210.0,5.0
501056,County,2020/06/05,47.0,TN,47033.0,Crockett County,1664.0,12664.0,62380.0,13175.0,14867.0,6033.0,8551.0,13673.0,4052.0,1266.0,470.0,286.0,7.0
502631,County,2020/06/06,47.0,TN,47033.0,Crockett County,1996.0,12332.0,57587.0,10203.0,10630.0,6565.0,9709.0,14868.0,4089.0,645.0,499.0,369.0,10.0
505822,County,2020/06/07,47.0,TN,47033.0,Crockett County,2211.0,12117.0,49071.0,8446.0,11714.0,4423.0,10580.0,9900.0,2671.0,790.0,288.0,248.0,11.0
509045,County,2020/06/08,47.0,TN,47033.0,Crockett County,1908.0,12420.0,59491.0,12899.0,15242.0,4804.0,7601.0,13982.0,3664.0,621.0,507.0,167.0,4.0
513823,County,2020/06/09,47.0,TN,47033.0,Crockett County,2388.0,11940.0,50439.0,8973.0,12054.0,5046.0,8558.0,11142.0,3117.0,962.0,196.0,387.0,4.0
515453,County,2020/06/10,47.0,TN,47033.0,Crockett County,2113.0,12215.0,60937.0,14959.0,12136.0,5703.0,11144.0,11996.0,3698.0,674.0,435.0,188.0,4.0
520186,County,2020/06/11,47.0,TN,47033.0,Crockett County,1962.0,12366.0,96422.0,41347.0,19980.0,5809.0,9966.0,13887.0,3777.0,1072.0,439.0,133.0,12.0
521860,County,2020/06/12,47.0,TN,47033.0,Crockett County,2049.0,12279.0,73861.0,20153.0,18216.0,6372.0,11250.0,12569.0,3674.0,1019.0,450.0,155.0,3.0
526595,County,2020/06/13,47.0,TN,47033.0,Crockett County,2004.0,12324.0,63165.0,12731.0,14280.0,6489.0,10267.0,14565.0,3523.0,938.0,253.0,116.0,3.0
528230,County,2020/06/14,47.0,TN,47033.0,Crockett County,2410.0,11918.0,48896.0,9687.0,9917.0,4858.0,7837.0,11307.0,3815.0,919.0,366.0,184.0,6.0
532990,County,2020/06/15,47.0,TN,47033.0,Crockett County,2288.0,12040.0,52066.0,11681.0,11909.0,5371.0,7559.0,10817.0,3668.0,728.0,275.0,42.0,16.0
534617,County,2020/06/16,47.0,TN,47033.0,Crockett County,2497.0,11831.0,58381.0,12838.0,13578.0,5646.0,9153.0,12766.0,3406.0,636.0,351.0,0.0,7.0
537811,County,2020/06/17,47.0,TN,47033.0,Crockett County,2022.0,12306.0,55563.0,11951.0,11967.0,5456.0,7744.0,12894.0,4155.0,728.0,509.0,154.0,5.0
542572,County,2020/06/18,47.0,TN,47033.0,Crockett County,1849.0,12479.0,56679.0,12439.0,10307.0,6399.0,9039.0,13502.0,3641.0,637.0,552.0,160.0,3.0
544199,County,2020/06/19,47.0,TN,47033.0,Crockett County,2099.0,12229.0,53684.0,12076.0,11163.0,4909.0,8338.0,12225.0,3581.0,767.0,386.0,222.0,17.0
548960,County,2020/06/20,47.0,TN,47033.0,Crockett County,2367.0,11961.0,57507.0,12216.0,13139.0,5990.0,8097.0,12222.0,4192.0,999.0,454.0,193.0,5.0
552147,County,2020/06/21,47.0,TN,47033.0,Crockett County,2711.0,11617.0,42921.0,7814.0,12505.0,4592.0,6172.0,8733.0,2227.0,489.0,276.0,109.0,4.0
553783,County,2020/06/22,47.0,TN,47033.0,Crockett County,2044.0,12284.0,49554.0,10070.0,11549.0,5013.0,7309.0,11347.0,2952.0,736.0,412.0,160.0,6.0
558543,County,2020/06/23,47.0,TN,47033.0,Crockett County,1976.0,12352.0,53728.0,11107.0,13861.0,5637.0,8626.0,9760.0,3475.0,555.0,527.0,172.0,8.0
561736,County,2020/06/24,47.0,TN,47033.0,Crockett County,2159.0,12169.0,52327.0,11643.0,12600.0,5957.0,7531.0,10604.0,2845.0,670.0,264.0,202.0,11.0
563364,County,2020/06/25,47.0,TN,47033.0,Crockett County,1944.0,12384.0,55660.0,12003.0,14047.0,6005.0,8058.0,10940.0,2994.0,610.0,751.0,249.0,3.0
566617,County,2020/06/26,47.0,TN,47033.0,Crockett County,2046.0,12282.0,55542.0,10420.0,13705.0,5335.0,8212.0,12485.0,3697.0,839.0,698.0,147.0,4.0
569739,County,2020/06/27,47.0,TN,47033.0,Crockett County,2363.0,11965.0,54095.0,10912.0,13525.0,5362.0,8134.0,11391.0,3241.0,664.0,601.0,262.0,3.0
572934,County,2020/06/28,47.0,TN,47033.0,Crockett County,2304.0,12024.0,45756.0,10255.0,9286.0,4160.0,7397.0,10249.0,3109.0,678.0,542.0,70.0,10.0
577710,County,2020/06/29,47.0,TN,47033.0,Crockett County,2332.0,11996.0,49950.0,11240.0,12950.0,4251.0,7501.0,10190.0,2776.0,798.0,167.0,69.0,8.0
579353,County,2020/06/30,47.0,TN,47033.0,Crockett County,2233.0,12095.0,49709.0,9424.0,12694.0,4287.0,7693.0,10674.0,3335.0,965.0,371.0,256.0,10.0
584095,County,2020/07/01,47.0,TN,47033.0,Crockett County,2072.0,12256.0,52048.0,11828.0,11171.0,4020.0,7905.0,12426.0,3409.0,655.0,425.0,203.0,6.0
587291,County,2020/07/02,47.0,TN,47033.0,Crockett County,2050.0,12278.0,59078.0,12740.0,14910.0,6374.0,8553.0,11612.0,3178.0,647.0,797.0,264.0,3.0
588931,County,2020/07/03,47.0,TN,47033.0,Crockett County,2468.0,11860.0,55229.0,10361.0,13628.0,5305.0,8166.0,12415.0,3676.0,834.0,694.0,146.0,4.0
592138,County,2020/07/04,47.0,TN,47033.0,Crockett County,2815.0,11513.0,47250.0,8864.0,11659.0,4539.0,6986.0,10621.0,3145.0,714.0,594.0,125.0,3.0
595327,County,2020/07/05,47.0,TN,47033.0,Crockett County,2612.0,11716.0,47729.0,10461.0,10926.0,6223.0,7078.0,7801.0,3198.0,1113.0,564.0,361.0,4.0
597979,County,2020/07/06,47.0,TN,47033.0,Crockett County,2287.0,12041.0,51456.0,10849.0,10100.0,5071.0,7969.0,12758.0,3699.0,634.0,166.0,207.0,3.0
602083,County,2020/07/07,47.0,TN,47033.0,Crockett County,2240.0,12088.0,47730.0,8995.0,12854.0,4103.0,7663.0,9877.0,3153.0,519.0,333.0,230.0,3.0
604883,County,2020/07/08,47.0,TN,47033.0,Crockett County,2231.0,12097.0,45280.0,7210.0,12060.0,4029.0,7683.0,10165.0,2457.0,677.0,540.0,451.0,8.0
609655,County,2020/07/09,47.0,TN,47033.0,Crockett County,2121.0,12207.0,47274.0,9195.0,10325.0,5052.0,6526.0,10783.0,3391.0,1388.0,248.0,363.0,3.0
611279,County,2020/07/10,47.0,TN,47033.0,Crockett County,2214.0,12114.0,54924.0,11203.0,12655.0,5621.0,8549.0,12248.0,2901.0,783.0,632.0,327.0,5.0
614489,County,2020/07/11,47.0,TN,47033.0,Crockett County,2334.0,11994.0,48836.0,10236.0,11011.0,4227.0,7105.0,11633.0,2967.0,1002.0,350.0,290.0,15.0
617660,County,2020/07/12,47.0,TN,47033.0,Crockett County,2620.0,11708.0,36037.0,5543.0,9488.0,3172.0,6408.0,7475.0,2518.0,714.0,464.0,246.0,9.0
620849,County,2020/07/13,47.0,TN,47033.0,Crockett County,2464.0,11864.0,48874.0,10157.0,11366.0,4117.0,9688.0,10791.0,2167.0,228.0,68.0,282.0,10.0
625615,County,2020/07/14,47.0,TN,47033.0,Crockett County,2225.0,12103.0,45929.0,9671.0,11869.0,3163.0,6526.0,10210.0,2866.0,898.0,227.0,493.0,6.0
628787,County,2020/07/15,47.0,TN,47033.0,Crockett County,2362.0,11966.0,51392.0,11497.0,10687.0,6517.0,8486.0,9778.0,3052.0,956.0,173.0,239.0,7.0
630413,County,2020/07/16,47.0,TN,47033.0,Crockett County,2099.0,12229.0,44097.0,9122.0,7959.0,4160.0,7819.0,10785.0,2847.0,839.0,381.0,182.0,3.0
633620,County,2020/07/17,47.0,TN,47033.0,Crockett County,2208.0,12120.0,45991.0,7741.0,10707.0,4377.0,7582.0,11846.0,2274.0,942.0,270.0,248.0,4.0
638400,County,2020/07/18,47.0,TN,47033.0,Crockett County,2620.0,11708.0,50531.0,9650.0,11699.0,5702.0,8499.0,11182.0,2535.0,599.0,404.0,248.0,13.0
639981,County,2020/07/19,47.0,TN,47033.0,Crockett County,2775.0,11553.0,44768.0,8346.0,9331.0,4084.0,8572.0,10584.0,2383.0,873.0,386.0,200.0,9.0
643214,County,2020/07/20,47.0,TN,47033.0,Crockett County,2516.0,11812.0,53185.0,7596.0,12760.0,5925.0,9502.0,12742.0,3218.0,808.0,339.0,293.0,2.0
646782,County,2020/07/21,47.0,TN,47033.0,Crockett County,2171.0,12157.0,53372.0,11436.0,11359.0,5092.0,8167.0,12537.0,3216.0,903.0,328.0,327.0,7.0
651167,County,2020/07/22,47.0,TN,47033.0,Crockett County,2075.0,12253.0,52461.0,11002.0,13549.0,5372.0,6329.0,11303.0,3401.0,643.0,546.0,310.0,6.0
652710,County,2020/07/23,47.0,TN,47033.0,Crockett County,1945.0,12383.0,49744.0,10402.0,10981.0,4393.0,8381.0,11125.0,2774.0,869.0,503.0,304.0,12.0
655832,County,2020/07/24,47.0,TN,47033.0,Crockett County,1948.0,12380.0,59918.0,13781.0,16393.0,4438.0,8220.0,11752.0,4196.0,626.0,313.0,194.0,5.0
659178,County,2020/07/25,47.0,TN,47033.0,Crockett County,2474.0,11854.0,51995.0,12115.0,12072.0,4384.0,7095.0,11508.0,2896.0,1043.0,586.0,296.0,0.0
662378,County,2020/07/26,47.0,TN,47033.0,Crockett County,2383.0,11945.0,50257.0,10711.0,12339.0,4081.0,7764.0,11998.0,1810.0,899.0,451.0,198.0,6.0
667158,County,2020/07/27,47.0,TN,47033.0,Crockett County,2136.0,12192.0,56519.0,10763.0,14412.0,3708.0,9657.0,12336.0,4315.0,869.0,218.0,226.0,15.0
668835,County,2020/07/28,47.0,TN,47033.0,Crockett County,2032.0,12296.0,60142.0,13618.0,15053.0,5215.0,9975.0,12142.0,2740.0,579.0,371.0,442.0,7.0
673623,County,2020/07/29,47.0,TN,47033.0,Crockett County,2125.0,12203.0,52115.0,11844.0,11782.0,4161.0,8909.0,10910.0,3135.0,720.0,340.0,312.0,2.0
675154,County,2020/07/30,47.0,TN,47033.0,Crockett County,1816.0,12512.0,56224.0,9812.0,13343.0,6017.0,7723.0,13399.0,4465.0,804.0,312.0,345.0,4.0
678355,County,2020/07/31,47.0,TN,47033.0,Crockett County,2250.0,12078.0,58171.0,13027.0,13190.0,4961.0,9915.0,12646.0,2888.0,1064.0,112.0,359.0,9.0
683101,County,2020/08/01,47.0,TN,47033.0,Crockett County,2388.0,11940.0,49763.0,9766.0,9791.0,3904.0,9159.0,12324.0,3564.0,544.0,219.0,485.0,7.0
684735,County,2020/08/02,47.0,TN,47033.0,Crockett County,2605.0,11723.0,46354.0,6785.0,11456.0,4974.0,7564.0,10838.0,3149.0,829.0,217.0,540.0,2.0
687932,County,2020/08/03,47.0,TN,47033.0,Crockett County,2155.0,12173.0,49350.0,10408.0,11991.0,5434.0,7400.0,10618.0,2300.0,791.0,158.0,245.0,5.0
691124,County,2020/08/04,47.0,TN,47033.0,Crockett County,2014.0,12314.0,55570.0,14108.0,13156.0,4331.0,8357.0,11204.0,3019.0,862.0,368.0,162.0,3.0
695883,County,2020/08/05,47.0,TN,47033.0,Crockett County,2093.0,12235.0,55747.0,12862.0,14684.0,3757.0,6924.0,12558.0,3945.0,642.0,142.0,220.0,13.0
699078,County,2020/08/06,47.0,TN,47033.0,Crockett County,2026.0,12302.0,62390.0,12970.0,17851.0,6252.0,7470.0,12787.0,3846.0,502.0,492.0,218.0,2.0
702274,County,2020/08/07,47.0,TN,47033.0,Crockett County,1917.0,12411.0,50824.0,10003.0,11904.0,4030.0,8091.0,12111.0,2993.0,990.0,485.0,215.0,2.0
705466,County,2020/08/08,47.0,TN,47033.0,Crockett County,2007.0,12321.0,44379.0,7863.0,8863.0,4822.0,6828.0,11723.0,2980.0,711.0,314.0,271.0,4.0
707093,County,2020/08/09,47.0,TN,47033.0,Crockett County,2685.0,11643.0,44696.0,9504.0,10148.0,4379.0,7644.0,8889.0,2698.0,643.0,539.0,248.0,4.0
710314,County,2020/08/10,47.0,TN,47033.0,Crockett County,2597.0,11731.0,46205.0,9865.0,10926.0,4035.0,6137.0,10216.0,2990.0,969.0,804.0,263.0,0.0
715047,County,2020/08/11,47.0,TN,47033.0,Crockett County,2329.0,11999.0,49232.0,10284.0,12491.0,3875.0,7992.0,10855.0,2519.0,593.0,366.0,252.0,5.0
718193,County,2020/08/12,47.0,TN,47033.0,Crockett County,2292.0,12036.0,46655.0,9203.0,11503.0,4348.0,8002.0,9496.0,3010.0,829.0,35.0,217.0,12.0
719871,County,2020/08/13,47.0,TN,47033.0,Crockett County,2064.0,12264.0,53399.0,10533.0,13617.0,4104.0,8017.0,12575.0,3121.0,843.0,272.0,305.0,12.0
723063,County,2020/08/14,47.0,TN,47033.0,Crockett County,2052.0,12276.0,55343.0,11704.0,12314.0,4345.0,7995.0,13658.0,3802.0,619.0,581.0,306.0,19.0
726294,County,2020/08/15,47.0,TN,47033.0,Crockett County,2062.0,12266.0,49970.0,8986.0,10594.0,4328.0,9169.0,11404.0,4253.0,556.0,438.0,226.0,16.0
729453,County,2020/08/16,47.0,TN,47033.0,Crockett County,2403.0,11925.0,49346.0,9804.0,10010.0,4644.0,8237.0,11211.0,3433.0,1025.0,621.0,343.0,18.0
732647,County,2020/08/17,47.0,TN,47033.0,Crockett County,2317.0,12011.0,54076.0,9926.0,12228.0,4654.0,9166.0,11361.0,4629.0,1176.0,463.0,452.0,21.0
737405,County,2020/08/18,47.0,TN,47033.0,Crockett County,2396.0,11932.0,48881.0,9489.0,9889.0,4507.0,6853.0,12536.0,4147.0,761.0,310.0,367.0,22.0
740600,County,2020/08/19,47.0,TN,47033.0,Crockett County,2125.0,12203.0,56186.0,12384.0,11486.0,4777.0,9023.0,13382.0,3492.0,830.0,435.0,355.0,22.0
742229,County,2020/08/20,47.0,TN,47033.0,Crockett County,2006.0,12322.0,47999.0,8416.0,10581.0,3334.0,7911.0,11443.0,4378.0,1051.0,275.0,597.0,13.0
747004,County,2020/08/21,47.0,TN,47033.0,Crockett County,1907.0,12421.0,52453.0,10398.0,9541.0,3759.0,9277.0,14678.0,2990.0,1230.0,282.0,279.0,19.0
748633,County,2020/08/22,47.0,TN,47033.0,Crockett County,2245.0,12083.0,51982.0,11552.0,9620.0,5758.0,8406.0,12635.0,2320.0,1167.0,227.0,281.0,16.0
751827,County,2020/08/23,47.0,TN,47033.0,Crockett County,2443.0,11885.0,42281.0,9250.0,8028.0,3781.0,6038.0,10864.0,3030.0,687.0,344.0,236.0,23.0
756570,County,2020/08/24,47.0,TN,47033.0,Crockett County,2481.0,11847.0,44608.0,10072.0,7525.0,2857.0,8865.0,11940.0,2263.0,579.0,304.0,186.0,17.0
758199,County,2020/08/25,47.0,TN,47033.0,Crockett County,2497.0,11831.0,51200.0,11598.0,11245.0,4289.0,7829.0,12083.0,3048.0,697.0,132.0,252.0,27.0
762970,County,2020/08/26,47.0,TN,47033.0,Crockett County,2163.0,12165.0,46022.0,10391.0,8865.0,3615.0,7212.0,10757.0,3371.0,827.0,608.0,359.0,17.0
764550,County,2020/08/27,47.0,TN,47033.0,Crockett County,2171.0,12157.0,49631.0,9187.0,10325.0,5002.0,7478.0,11761.0,3868.0,1004.0,683.0,314.0,9.0
767756,County,2020/08/28,47.0,TN,47033.0,Crockett County,2220.0,12108.0,46877.0,9162.0,9564.0,3796.0,6823.0,13106.0,2829.0,803.0,489.0,300.0,5.0
772533,County,2020/08/29,47.0,TN,47033.0,Crockett County,2551.0,11777.0,44723.0,8989.0,9709.0,3333.0,6082.0,11104.0,3725.0,989.0,609.0,172.0,11.0
775734,County,2020/08/30,47.0,TN,47033.0,Crockett County,2479.0,11849.0,38905.0,7215.0,9429.0,3064.0,6639.0,9369.0,1788.0,517.0,398.0,474.0,12.0
778931,County,2020/08/31,47.0,TN,47033.0,Crockett County,2381.0,11947.0,43858.0,7111.0,10933.0,3387.0,7121.0,11069.0,2577.0,962.0,209.0,480.0,9.0
782122,County,2020/09/01,47.0,TN,47033.0,Crockett County,2418.0,11910.0,54609.0,9298.0,14877.0,3531.0,9326.0,11508.0,4510.0,812.0,425.0,319.0,3.0
785317,County,2020/09/02,47.0,TN,47033.0,Crockett County,2256.0,12072.0,49122.0,9964.0,10852.0,3244.0,7467.0,12253.0,3502.0,896.0,626.0,312.0,6.0
786877,County,2020/09/03,47.0,TN,47033.0,Crockett County,2051.0,12277.0,53351.0,9520.0,14824.0,3583.0,7912.0,12246.0,3465.0,1001.0,440.0,350.0,10.0
791708,County,2020/09/04,47.0,TN,47033.0,Crockett County,2463.0,11865.0,51675.0,11466.0,12062.0,3641.0,7619.0,11031.0,3998.0,1079.0,335.0,434.0,10.0
794903,County,2020/09/05,47.0,TN,47033.0,Crockett County,2412.0,11916.0,56487.0,16626.0,12656.0,3075.0,8190.0,11562.0,2978.0,861.0,314.0,217.0,8.0
796500,County,2020/09/06,47.0,TN,47033.0,Crockett County,2845.0,11483.0,49393.0,14590.0,9655.0,3090.0,8460.0,9546.0,2576.0,642.0,281.0,542.0,11.0
799715,County,2020/09/07,47.0,TN,47033.0,Crockett County,2952.0,11376.0,44050.0,9797.0,8616.0,2876.0,6300.0,11282.0,3069.0,1088.0,706.0,300.0,16.0
804480,County,2020/09/08,47.0,TN,47033.0,Crockett County,2291.0,12037.0,58361.0,13525.0,12498.0,5471.0,9064.0,13833.0,2667.0,606.0,278.0,411.0,8.0
806109,County,2020/09/09,47.0,TN,47033.0,Crockett County,2140.0,12188.0,59195.0,13205.0,13205.0,5202.0,9566.0,12954.0,3614.0,746.0,410.0,283.0,10.0
810877,County,2020/09/10,47.0,TN,47033.0,Crockett County,2078.0,12250.0,57193.0,14394.0,12668.0,4515.0,8386.0,11763.0,3896.0,1034.0,299.0,232.0,6.0
814062,County,2020/09/11,47.0,TN,47033.0,Crockett County,1974.0,12354.0,58782.0,12211.0,11486.0,5182.0,9035.0,15096.0,3998.0,801.0,658.0,302.0,13.0
817256,County,2020/09/12,47.0,TN,47033.0,Crockett County,2452.0,11876.0,54244.0,11303.0,14634.0,5125.0,7285.0,10675.0,3451.0,1109.0,559.0,96.0,7.0
818863,County,2020/09/13,47.0,TN,47033.0,Crockett County,2747.0,11581.0,44206.0,11135.0,7177.0,4556.0,6451.0,9829.0,3406.0,990.0,430.0,222.0,10.0
823645,County,2020/09/14,47.0,TN,47033.0,Crockett County,2371.0,11957.0,56112.0,9952.0,12102.0,5028.0,8701.0,13761.0,4336.0,1249.0,778.0,197.0,8.0
825273,County,2020/09/15,47.0,TN,47033.0,Crockett County,1919.0,12409.0,52793.0,11992.0,10648.0,4233.0,8514.0,12227.0,3465.0,1059.0,481.0,154.0,20.0
830032,County,2020/09/16,47.0,TN,47033.0,Crockett County,2108.0,12220.0,60789.0,15090.0,11948.0,5266.0,9464.0,12740.0,4522.0,898.0,566.0,286.0,9.0
831659,County,2020/09/17,47.0,TN,47033.0,Crockett County,2026.0,12302.0,64371.0,17363.0,12538.0,4015.0,10553.0,13199.0,4820.0,760.0,493.0,628.0,2.0
836420,County,2020/09/18,47.0,TN,47033.0,Crockett County,1949.0,12379.0,97092.0,38966.0,22461.0,4687.0,9661.0,14489.0,4312.0,1273.0,763.0,474.0,6.0
838049,County,2020/09/19,47.0,TN,47033.0,Crockett County,2388.0,11940.0,60104.0,15037.0,11651.0,5928.0,8377.0,12144.0,5022.0,991.0,633.0,312.0,9.0
841242,County,2020/09/20,47.0,TN,47033.0,Crockett County,2979.0,11349.0,50800.0,13085.0,10419.0,4283.0,6677.0,12333.0,1934.0,1085.0,716.0,262.0,6.0
846029,County,2020/09/21,47.0,TN,47033.0,Crockett County,2914.0,11414.0,43623.0,11835.0,9112.0,4878.0,6131.0,7650.0,2685.0,787.0,391.0,150.0,4.0
849196,County,2020/09/22,47.0,TN,47033.0,Crockett County,2434.0,11894.0,48069.0,13548.0,9738.0,4527.0,6722.0,8813.0,3134.0,898.0,507.0,175.0,7.0
850824,County,2020/09/23,47.0,TN,47033.0,Crockett County,2180.0,12148.0,51566.0,12580.0,11545.0,4221.0,7039.0,11213.0,3397.0,688.0,619.0,261.0,3.0
855590,County,2020/09/24,47.0,TN,47033.0,Crockett County,2254.0,12074.0,50816.0,9398.0,12209.0,4317.0,7188.0,12236.0,4167.0,648.0,429.0,222.0,2.0
858778,County,2020/09/25,47.0,TN,47033.0,Crockett County,2184.0,12144.0,54831.0,11989.0,12150.0,5269.0,9346.0,11920.0,3279.0,468.0,210.0,193.0,7.0
861972,County,2020/09/26,47.0,TN,47033.0,Crockett County,2384.0,11944.0,55628.0,13439.0,10263.0,6384.0,8544.0,11844.0,3903.0,881.0,281.0,83.0,6.0
863577,County,2020/09/27,47.0,TN,47033.0,Crockett County,2621.0,11707.0,47316.0,11345.0,9713.0,6123.0,6910.0,9404.0,2418.0,725.0,380.0,289.0,9.0
868360,County,2020/09/28,47.0,TN,47033.0,Crockett County,2169.0,12159.0,54710.0,12608.0,15028.0,3739.0,7709.0,11380.0,3059.0,717.0,262.0,203.0,5.0
869988,County,2020/09/29,47.0,TN,47033.0,Crockett County,2150.0,12178.0,56036.0,12866.0,14177.0,4385.0,8684.0,10895.0,3656.0,932.0,234.0,204.0,3.0
873182,County,2020/09/30,47.0,TN,47033.0,Crockett County,2520.0,11808.0,57117.0,16471.0,11028.0,3367.0,9019.0,10853.0,4617.0,1271.0,314.0,174.0,3.0
877921,County,2020/10/01,47.0,TN,47033.0,Crockett County,1891.0,12437.0,67406.0,18388.0,18364.0,5002.0,7091.0,13011.0,3872.0,1166.0,294.0,214.0,4.0
881136,County,2020/10/02,47.0,TN,47033.0,Crockett County,1871.0,12457.0,57724.0,12594.0,11495.0,4316.0,9104.0,14140.0,4306.0,1051.0,532.0,185.0,1.0
884331,County,2020/10/03,47.0,TN,47033.0,Crockett County,2289.0,12039.0,55851.0,12427.0,10779.0,4205.0,7904.0,13664.0,5118.0,1287.0,359.0,105.0,3.0
887164,County,2020/10/04,47.0,TN,47033.0,Crockett County,2579.0,11749.0,46810.0,11657.0,9678.0,3585.0,6990.0,9751.0,3622.0,1059.0,396.0,67.0,5.0
890350,County,2020/10/05,47.0,TN,47033.0,Crockett County,2812.0,11516.0,49522.0,12948.0,10420.0,3787.0,7203.0,10070.0,3305.0,1063.0,439.0,281.0,6.0
893531,County,2020/10/06,47.0,TN,47033.0,Crockett County,2256.0,12072.0,52181.0,11321.0,10593.0,5286.0,9997.0,10333.0,3352.0,990.0,223.0,82.0,4.0
896716,County,2020/10/07,47.0,TN,47033.0,Crockett County,2040.0,12288.0,54092.0,11003.0,13336.0,4797.0,7179.0,12147.0,4142.0,978.0,330.0,175.0,5.0
900290,County,2020/10/08,47.0,TN,47033.0,Crockett County,2248.0,12080.0,51353.0,13395.0,9409.0,4337.0,8353.0,12136.0,2536.0,709.0,300.0,174.0,4.0
903154,County,2020/10/09,47.0,TN,47033.0,Crockett County,2580.0,11748.0,54446.0,11052.0,12539.0,4974.0,7685.0,13295.0,3518.0,491.0,554.0,335.0,3.0
906435,County,2020/10/10,47.0,TN,47033.0,Crockett County,2655.0,11673.0,45593.0,10409.0,8092.0,4829.0,6275.0,10347.0,3710.0,1282.0,505.0,141.0,3.0
907928,County,2020/10/11,47.0,TN,47033.0,Crockett County,2440.0,11888.0,41267.0,8405.0,7391.0,3599.0,6915.0,9560.0,3795.0,1100.0,300.0,199.0,3.0
911080,County,2020/10/12,47.0,TN,47033.0,Crockett County,2447.0,11881.0,49426.0,9365.0,10549.0,5060.0,8653.0,10969.0,3211.0,1057.0,321.0,239.0,2.0
914138,County,2020/10/13,47.0,TN,47033.0,Crockett County,2160.0,12168.0,52803.0,10921.0,10866.0,3871.0,8808.0,12842.0,3735.0,1195.0,426.0,136.0,3.0
917232,County,2020/10/14,47.0,TN,47033.0,Crockett County,2340.0,11988.0,55348.0,15377.0,12452.0,4228.0,8244.0,10295.0,3130.0,1084.0,306.0,228.0,4.0
920977,County,2020/10/15,47.0,TN,47033.0,Crockett County,2278.0,12050.0,51336.0,11754.0,11409.0,3405.0,8471.0,11202.0,3330.0,1180.0,332.0,247.0,6.0
923842,County,2020/10/16,47.0,TN,47033.0,Crockett County,1971.0,12357.0,49329.0,9823.0,9127.0,4355.0,8826.0,11796.0,3716.0,1280.0,267.0,133.0,6.0
927072,County,2020/10/17,47.0,TN,47033.0,Crockett County,2587.0,11741.0,54708.0,14472.0,10473.0,4967.0,10428.0,10129.0,2917.0,882.0,183.0,255.0,2.0
930205,County,2020/10/18,47.0,TN,47033.0,Crockett County,2906.0,11422.0,42726.0,9074.0,8253.0,3694.0,7749.0,9161.0,2955.0,1189.0,505.0,143.0,3.0
933055,County,2020/10/19,47.0,TN,47033.0,Crockett County,2361.0,11967.0,47103.0,11388.0,9775.0,3520.0,7783.0,10314.0,2894.0,806.0,444.0,174.0,5.0
936590,County,2020/10/20,47.0,TN,47033.0,Crockett County,2322.0,12006.0,50541.0,11438.0,12094.0,3576.0,8068.0,10905.0,3010.0,819.0,430.0,199.0,2.0
939467,County,2020/10/21,47.0,TN,47033.0,Crockett County,2652.0,11676.0,45907.0,11930.0,9634.0,3327.0,6913.0,8790.0,3398.0,1293.0,401.0,217.0,4.0
942701,County,2020/10/22,47.0,TN,47033.0,Crockett County,2209.0,12119.0,52119.0,11932.0,9752.0,3485.0,9435.0,11909.0,3957.0,913.0,599.0,134.0,3.0
946147,County,2020/10/23,47.0,TN,47033.0,Crockett County,1940.0,12388.0,58940.0,13407.0,12094.0,4002.0,9337.0,14270.0,4471.0,865.0,300.0,190.0,4.0
949162,County,2020/10/24,47.0,TN,47033.0,Crockett County,2119.0,12209.0,56358.0,13969.0,10497.0,4822.0,8382.0,13063.0,4039.0,941.0,452.0,192.0,1.0
