,Level,Date,State FIPS,State Postal Code,County FIPS,County Name,Population Staying at Home,Population Not Staying at Home,Number of Trips,Number of Trips <1,Number of Trips 1-3,Number of Trips 3-5,Number of Trips 5-10,Number of Trips 10-25,Number of Trips 25-50,Number of Trips 50-100,Number of Trips 100-250,Number of Trips 250-500,Number of Trips >=500
2571,County,2020/01/01,48.0,TX,48099.0,Coryell County,17774.0,57034.0,184049.0,42270.0,51286.0,23156.0,18596.0,30078.0,11747.0,4794.0,1631.0,378.0,113.0
4454,County,2020/01/02,48.0,TX,48099.0,Coryell County,14384.0,60424.0,236495.0,56336.0,65048.0,30682.0,23315.0,34327.0,18507.0,6237.0,1520.0,414.0,109.0
9068,County,2020/01/03,48.0,TX,48099.0,Coryell County,14375.0,60433.0,249412.0,63665.0,64562.0,31986.0,24627.0,36645.0,19129.0,6620.0,1553.0,467.0,158.0
10504,County,2020/01/04,48.0,TX,48099.0,Coryell County,15793.0,59015.0,227837.0,53160.0,62363.0,29268.0,24554.0,32832.0,17271.0,5943.0,1729.0,525.0,192.0
15347,County,2020/01/05,48.0,TX,48099.0,Coryell County,17031.0,57777.0,195354.0,48552.0,56104.0,25229.0,19716.0,26145.0,11808.0,5430.0,1913.0,233.0,224.0
18834,County,2020/01/06,48.0,TX,48099.0,Coryell County,15467.0,59341.0,245997.0,64658.0,67096.0,30567.0,24838.0,33309.0,18448.0,5423.0,1301.0,272.0,85.0
22029,County,2020/01/07,48.0,TX,48099.0,Coryell County,14628.0,60180.0,261021.0,69246.0,73780.0,33908.0,24735.0,34496.0,18322.0,5284.0,993.0,153.0,104.0
25223,County,2020/01/08,48.0,TX,48099.0,Coryell County,14488.0,60320.0,259064.0,71096.0,73379.0,32184.0,23861.0,33827.0,17946.0,5421.0,983.0,250.0,117.0
28404,County,2020/01/09,48.0,TX,48099.0,Coryell County,14258.0,60550.0,259746.0,71275.0,70131.0,31697.0,26189.0,34121.0,18831.0,5995.0,1227.0,219.0,61.0
31611,County,2020/01/10,48.0,TX,48099.0,Coryell County,13666.0,61142.0,255063.0,67826.0,70643.0,33048.0,22908.0,34869.0,18892.0,5161.0,1412.0,214.0,90.0
33288,County,2020/01/11,48.0,TX,48099.0,Coryell County,15617.0,59191.0,231188.0,53410.0,65212.0,31662.0,22715.0,32981.0,16564.0,6772.0,1564.0,236.0,72.0
36444,County,2020/01/12,48.0,TX,48099.0,Coryell County,17372.0,57436.0,207495.0,55572.0,57765.0,27136.0,21386.0,27808.0,11913.0,4193.0,1388.0,240.0,94.0
41221,County,2020/01/13,48.0,TX,48099.0,Coryell County,14274.0,60534.0,250646.0,70269.0,66299.0,33240.0,25269.0,32518.0,16867.0,4990.0,921.0,189.0,84.0
44370,County,2020/01/14,48.0,TX,48099.0,Coryell County,13725.0,61083.0,261428.0,69423.0,73224.0,32881.0,25104.0,35526.0,18430.0,5725.0,941.0,129.0,45.0
47576,County,2020/01/15,48.0,TX,48099.0,Coryell County,14107.0,60701.0,266321.0,73594.0,72220.0,34499.0,26090.0,35120.0,18243.0,5529.0,825.0,127.0,74.0
49105,County,2020/01/16,48.0,TX,48099.0,Coryell County,14131.0,60677.0,244982.0,59022.0,69841.0,34015.0,25667.0,32424.0,16818.0,5765.0,1151.0,180.0,99.0
54020,County,2020/01/17,48.0,TX,48099.0,Coryell County,13823.0,60985.0,261667.0,65422.0,72576.0,35048.0,24465.0,37744.0,18949.0,5647.0,1480.0,262.0,74.0
57141,County,2020/01/18,48.0,TX,48099.0,Coryell County,15396.0,59412.0,238743.0,54906.0,66175.0,33017.0,24051.0,35000.0,17048.0,6927.0,1262.0,287.0,70.0
58741,County,2020/01/19,48.0,TX,48099.0,Coryell County,17380.0,57428.0,208050.0,48665.0,60838.0,28383.0,21664.0,31476.0,11751.0,3736.0,1139.0,279.0,119.0
61973,County,2020/01/20,48.0,TX,48099.0,Coryell County,15692.0,59116.0,219079.0,54539.0,59271.0,27241.0,21334.0,31675.0,17449.0,6053.0,1157.0,242.0,118.0
65179,County,2020/01/21,48.0,TX,48099.0,Coryell County,14201.0,60607.0,248390.0,67545.0,66652.0,31209.0,24055.0,33721.0,17929.0,5856.0,1121.0,189.0,113.0
69939,County,2020/01/22,48.0,TX,48099.0,Coryell County,14195.0,60613.0,252089.0,69497.0,70070.0,32435.0,25962.0,31831.0,16111.0,4913.0,1005.0,184.0,81.0
71565,County,2020/01/23,48.0,TX,48099.0,Coryell County,13871.0,60937.0,264748.0,74300.0,71091.0,32588.0,27854.0,34370.0,17678.0,5482.0,1070.0,188.0,127.0
74712,County,2020/01/24,48.0,TX,48099.0,Coryell County,13439.0,61369.0,272793.0,73181.0,74819.0,36680.0,26924.0,34913.0,18720.0,5981.0,1231.0,201.0,143.0
79514,County,2020/01/25,48.0,TX,48099.0,Coryell County,15791.0,59017.0,238069.0,63274.0,64678.0,31604.0,24056.0,31379.0,15844.0,5648.0,1238.0,230.0,118.0
82421,County,2020/01/26,48.0,TX,48099.0,Coryell County,16795.0,58013.0,221244.0,59762.0,64455.0,28299.0,20494.0,28873.0,12392.0,4961.0,1450.0,311.0,247.0
83246,County,2020/01/27,48.0,TX,48099.0,Coryell County,14318.0,60490.0,254635.0,71019.0,68227.0,32167.0,25994.0,34256.0,16777.0,4814.0,1046.0,222.0,113.0
87599,County,2020/01/28,48.0,TX,48099.0,Coryell County,14176.0,60632.0,255229.0,71370.0,71573.0,28455.0,24322.0,35157.0,17774.0,5184.0,1075.0,179.0,140.0
90705,County,2020/01/29,48.0,TX,48099.0,Coryell County,14097.0,60711.0,263229.0,72580.0,74141.0,32931.0,26029.0,33752.0,17718.0,4952.0,917.0,123.0,86.0
95490,County,2020/01/30,48.0,TX,48099.0,Coryell County,13705.0,61103.0,259399.0,72545.0,68194.0,31238.0,27629.0,34442.0,16865.0,5900.0,2112.0,256.0,218.0
98684,County,2020/01/31,48.0,TX,48099.0,Coryell County,12868.0,61940.0,288012.0,79919.0,76375.0,35551.0,30444.0,38188.0,17903.0,6839.0,2224.0,374.0,195.0
101872,County,2020/02/01,48.0,TX,48099.0,Coryell County,14370.0,60438.0,249781.0,62392.0,67546.0,31129.0,27836.0,34806.0,16570.0,6766.0,2013.0,490.0,233.0
105073,County,2020/02/02,48.0,TX,48099.0,Coryell County,15325.0,59483.0,215302.0,50616.0,57960.0,27785.0,27128.0,30645.0,12890.0,5318.0,2208.0,442.0,310.0
108277,County,2020/02/03,48.0,TX,48099.0,Coryell County,13309.0,61499.0,257264.0,69373.0,66091.0,29383.0,30467.0,35857.0,17821.0,5466.0,2119.0,460.0,227.0
109894,County,2020/02/04,48.0,TX,48099.0,Coryell County,13055.0,61753.0,254271.0,66600.0,67980.0,30408.0,29633.0,33756.0,17717.0,5466.0,2073.0,419.0,219.0
113040,County,2020/02/05,48.0,TX,48099.0,Coryell County,13969.0,60839.0,247954.0,67850.0,67313.0,29659.0,28365.0,30822.0,16514.0,4783.0,2122.0,364.0,162.0
116184,County,2020/02/06,48.0,TX,48099.0,Coryell County,13311.0,61497.0,264642.0,71794.0,71069.0,32296.0,29777.0,33637.0,18206.0,5443.0,1743.0,464.0,213.0
119449,County,2020/02/07,48.0,TX,48099.0,Coryell County,12659.0,62149.0,275041.0,72272.0,75205.0,32755.0,29195.0,38326.0,18002.0,6647.0,2105.0,361.0,173.0
124237,County,2020/02/08,48.0,TX,48099.0,Coryell County,15329.0,59479.0,233575.0,55300.0,61998.0,30790.0,25371.0,34558.0,17451.0,5827.0,1719.0,374.0,187.0
126585,County,2020/02/09,48.0,TX,48099.0,Coryell County,18138.0,56670.0,190049.0,44545.0,51146.0,23594.0,24696.0,27087.0,11673.0,4604.0,2097.0,340.0,267.0
130879,County,2020/02/10,48.0,TX,48099.0,Coryell County,13521.0,61287.0,263162.0,69104.0,69618.0,30509.0,32182.0,35462.0,17390.0,6111.0,2250.0,376.0,160.0
132743,County,2020/02/11,48.0,TX,48099.0,Coryell County,13087.0,61721.0,259711.0,70819.0,71245.0,29685.0,29923.0,33235.0,16362.0,5448.0,2151.0,524.0,319.0
134346,County,2020/02/12,48.0,TX,48099.0,Coryell County,13809.0,60999.0,272773.0,73121.0,73661.0,32952.0,32457.0,34424.0,17996.0,5679.0,1952.0,339.0,192.0
140206,County,2020/02/13,48.0,TX,48099.0,Coryell County,13265.0,61543.0,279360.0,72135.0,77016.0,35290.0,32029.0,34628.0,18794.0,6535.0,2297.0,417.0,219.0
143409,County,2020/02/14,48.0,TX,48099.0,Coryell County,13210.0,61598.0,290731.0,68651.0,78534.0,35922.0,36395.0,39769.0,20793.0,7515.0,2248.0,674.0,230.0
145033,County,2020/02/15,48.0,TX,48099.0,Coryell County,14902.0,59906.0,250637.0,60868.0,62324.0,30679.0,31563.0,35944.0,17511.0,8196.0,2580.0,685.0,287.0
148221,County,2020/02/16,48.0,TX,48099.0,Coryell County,16730.0,58078.0,220595.0,55537.0,56807.0,27601.0,27989.0,31066.0,12275.0,5780.0,2709.0,495.0,336.0
151398,County,2020/02/17,48.0,TX,48099.0,Coryell County,19248.0,55560.0,202096.0,50957.0,48378.0,25440.0,22869.0,30157.0,14790.0,6530.0,2234.0,508.0,233.0
156177,County,2020/02/18,48.0,TX,48099.0,Coryell County,13614.0,61194.0,264937.0,68130.0,72765.0,30455.0,30508.0,35177.0,18527.0,6363.0,2203.0,456.0,353.0
157805,County,2020/02/19,48.0,TX,48099.0,Coryell County,13409.0,61399.0,258924.0,69556.0,67761.0,30277.0,30899.0,33115.0,18321.0,6399.0,1996.0,422.0,178.0
162614,County,2020/02/20,48.0,TX,48099.0,Coryell County,13777.0,61031.0,265155.0,70339.0,67634.0,31317.0,30070.0,37294.0,18617.0,6968.0,2126.0,571.0,219.0
165759,County,2020/02/21,48.0,TX,48099.0,Coryell County,12910.0,61898.0,287151.0,83126.0,72540.0,31051.0,33012.0,39490.0,17651.0,6680.0,2569.0,792.0,240.0
168904,County,2020/02/22,48.0,TX,48099.0,Coryell County,12954.0,61854.0,255561.0,62952.0,63213.0,29760.0,29535.0,40059.0,17752.0,7891.0,3464.0,697.0,238.0
170566,County,2020/02/23,48.0,TX,48099.0,Coryell County,16568.0,58240.0,211524.0,50930.0,56091.0,28357.0,23372.0,31230.0,13322.0,5364.0,2164.0,513.0,181.0
175347,County,2020/02/24,48.0,TX,48099.0,Coryell County,14905.0,59903.0,269152.0,73108.0,71488.0,32545.0,29199.0,37661.0,18056.0,5641.0,1182.0,168.0,104.0
178242,County,2020/02/25,48.0,TX,48099.0,Coryell County,13176.0,61632.0,290307.0,83614.0,77010.0,36126.0,29834.0,36962.0,19207.0,5898.0,1213.0,248.0,195.0
181435,County,2020/02/26,48.0,TX,48099.0,Coryell County,13920.0,60888.0,257358.0,60743.0,70047.0,34244.0,32808.0,36779.0,16694.0,4316.0,1233.0,345.0,149.0
184918,County,2020/02/27,48.0,TX,48099.0,Coryell County,13090.0,61718.0,292991.0,77933.0,79276.0,36416.0,28934.0,42438.0,20182.0,6035.0,1234.0,270.0,273.0
188116,County,2020/02/28,48.0,TX,48099.0,Coryell County,12779.0,62029.0,313278.0,86489.0,87693.0,38435.0,30031.0,41193.0,20973.0,6302.0,1613.0,310.0,239.0
189697,County,2020/02/29,48.0,TX,48099.0,Coryell County,13821.0,60987.0,275048.0,66458.0,71679.0,36738.0,31337.0,41041.0,17847.0,7880.0,1502.0,255.0,311.0
194530,County,2020/03/01,48.0,TX,48099.0,Coryell County,15533.0,59275.0,217831.0,55992.0,59034.0,30115.0,22405.0,29688.0,12213.0,6051.0,1778.0,341.0,214.0
197686,County,2020/03/02,48.0,TX,48099.0,Coryell County,13785.0,61023.0,269273.0,73108.0,75181.0,35635.0,26285.0,34876.0,16976.0,5495.0,1230.0,205.0,282.0
199217,County,2020/03/03,48.0,TX,48099.0,Coryell County,12384.0,62424.0,259488.0,70377.0,66588.0,35253.0,25737.0,34518.0,18364.0,6271.0,1946.0,325.0,109.0
204096,County,2020/03/04,48.0,TX,48099.0,Coryell County,13501.0,61307.0,251901.0,66868.0,68333.0,32130.0,25814.0,31803.0,18759.0,5901.0,2011.0,237.0,45.0
205664,County,2020/03/05,48.0,TX,48099.0,Coryell County,12026.0,62782.0,285779.0,80114.0,76732.0,33647.0,27908.0,38679.0,18849.0,7642.0,1754.0,387.0,67.0
208783,County,2020/03/06,48.0,TX,48099.0,Coryell County,11943.0,62865.0,279623.0,73428.0,71331.0,36214.0,29361.0,38388.0,20374.0,8015.0,2073.0,362.0,77.0
213697,County,2020/03/07,48.0,TX,48099.0,Coryell County,13500.0,61308.0,243558.0,59467.0,62570.0,29826.0,24584.0,38099.0,17340.0,8574.0,2333.0,617.0,148.0
215299,County,2020/03/08,48.0,TX,48099.0,Coryell County,15641.0,59167.0,215827.0,54531.0,56695.0,29034.0,23297.0,28035.0,14289.0,6545.0,2713.0,543.0,145.0
220057,County,2020/03/09,48.0,TX,48099.0,Coryell County,13910.0,60898.0,247859.0,64917.0,63239.0,30780.0,25614.0,35492.0,17768.0,7612.0,1828.0,472.0,137.0
223250,County,2020/03/10,48.0,TX,48099.0,Coryell County,13602.0,61206.0,241885.0,62748.0,65017.0,27127.0,24628.0,33257.0,19236.0,7396.0,2011.0,333.0,132.0
226430,County,2020/03/11,48.0,TX,48099.0,Coryell County,12916.0,61892.0,235055.0,56282.0,60321.0,28175.0,25504.0,33885.0,17754.0,9027.0,2639.0,1213.0,255.0
228108,County,2020/03/12,48.0,TX,48099.0,Coryell County,13284.0,61524.0,250791.0,66113.0,63689.0,26017.0,23427.0,37173.0,18740.0,10878.0,3591.0,967.0,196.0
231268,County,2020/03/13,48.0,TX,48099.0,Coryell County,13741.0,61067.0,246924.0,55798.0,70333.0,24518.0,26482.0,41435.0,14752.0,9238.0,2833.0,1304.0,231.0
234320,County,2020/03/14,48.0,TX,48099.0,Coryell County,16300.0,58508.0,213920.0,60801.0,55322.0,19702.0,20731.0,30027.0,15618.0,6769.0,3575.0,1262.0,113.0
239221,County,2020/03/15,48.0,TX,48099.0,Coryell County,18802.0,56006.0,186466.0,42399.0,52956.0,27023.0,19234.0,24217.0,12444.0,5439.0,2106.0,478.0,170.0
240848,County,2020/03/16,48.0,TX,48099.0,Coryell County,15969.0,58839.0,233916.0,60229.0,60763.0,27538.0,25672.0,35933.0,16907.0,4742.0,1580.0,423.0,129.0
245607,County,2020/03/17,48.0,TX,48099.0,Coryell County,17457.0,57351.0,237888.0,67555.0,61985.0,27596.0,24578.0,31906.0,16907.0,5326.0,1646.0,312.0,77.0
248762,County,2020/03/18,48.0,TX,48099.0,Coryell County,18428.0,56380.0,241152.0,67206.0,67350.0,28660.0,25347.0,30205.0,15362.0,5122.0,1444.0,360.0,96.0
250441,County,2020/03/19,48.0,TX,48099.0,Coryell County,18769.0,56039.0,222375.0,58895.0,59360.0,29463.0,22317.0,30042.0,15308.0,5115.0,1521.0,256.0,98.0
255191,County,2020/03/20,48.0,TX,48099.0,Coryell County,19507.0,55301.0,209906.0,53058.0,57661.0,25018.0,24331.0,28043.0,14826.0,4885.0,1705.0,263.0,116.0
256769,County,2020/03/21,48.0,TX,48099.0,Coryell County,21158.0,53650.0,187880.0,46869.0,55429.0,26257.0,18080.0,24045.0,9779.0,5438.0,1486.0,357.0,140.0
261571,County,2020/03/22,48.0,TX,48099.0,Coryell County,21076.0,53732.0,159200.0,42459.0,48426.0,20482.0,16632.0,18696.0,7383.0,3538.0,1187.0,303.0,94.0
263209,County,2020/03/23,48.0,TX,48099.0,Coryell County,17745.0,57063.0,198278.0,53964.0,56367.0,23128.0,21682.0,24477.0,12952.0,4079.0,1284.0,250.0,95.0
266360,County,2020/03/24,48.0,TX,48099.0,Coryell County,18786.0,56022.0,199790.0,53868.0,56332.0,21905.0,22547.0,26378.0,12794.0,4373.0,1277.0,193.0,123.0
271161,County,2020/03/25,48.0,TX,48099.0,Coryell County,18840.0,55968.0,186511.0,51838.0,52536.0,20924.0,17021.0,25591.0,12774.0,4047.0,1407.0,243.0,130.0
274335,County,2020/03/26,48.0,TX,48099.0,Coryell County,18956.0,55852.0,182861.0,48370.0,47468.0,21802.0,18006.0,25054.0,15539.0,4694.0,1500.0,308.0,120.0
275975,County,2020/03/27,48.0,TX,48099.0,Coryell County,19330.0,55478.0,185392.0,48159.0,49977.0,25078.0,16181.0,26272.0,12490.0,4812.0,1842.0,500.0,81.0
280736,County,2020/03/28,48.0,TX,48099.0,Coryell County,20192.0,54616.0,162802.0,41963.0,45720.0,20973.0,15657.0,22401.0,10598.0,3439.0,1615.0,330.0,106.0
282371,County,2020/03/29,48.0,TX,48099.0,Coryell County,22166.0,52642.0,144912.0,37582.0,43265.0,20324.0,13679.0,17941.0,7685.0,2781.0,1193.0,414.0,48.0
287162,County,2020/03/30,48.0,TX,48099.0,Coryell County,18856.0,55952.0,176406.0,47192.0,45932.0,22374.0,17572.0,24739.0,12608.0,4463.0,1168.0,269.0,89.0
290319,County,2020/03/31,48.0,TX,48099.0,Coryell County,19626.0,55182.0,179013.0,49355.0,48265.0,19701.0,18695.0,24251.0,12614.0,4468.0,1346.0,173.0,145.0
293518,County,2020/04/01,48.0,TX,48099.0,Coryell County,19352.0,55456.0,193966.0,55769.0,50038.0,24622.0,18633.0,26110.0,13859.0,3505.0,1270.0,70.0,90.0
295147,County,2020/04/02,48.0,TX,48099.0,Coryell County,19049.0,55759.0,183078.0,51693.0,46368.0,22505.0,18630.0,24983.0,13282.0,3793.0,1545.0,211.0,68.0
299907,County,2020/04/03,48.0,TX,48099.0,Coryell County,18747.0,56061.0,184096.0,49015.0,50877.0,22549.0,16505.0,26013.0,13020.0,4408.0,1474.0,114.0,121.0
303087,County,2020/04/04,48.0,TX,48099.0,Coryell County,21751.0,53057.0,140655.0,34104.0,41493.0,20771.0,14522.0,16559.0,7567.0,3812.0,1434.0,281.0,112.0
304715,County,2020/04/05,48.0,TX,48099.0,Coryell County,22326.0,52482.0,149042.0,40581.0,41238.0,20709.0,16554.0,15933.0,8287.0,3905.0,1501.0,178.0,156.0
309489,County,2020/04/06,48.0,TX,48099.0,Coryell County,19440.0,55368.0,187738.0,54505.0,50900.0,20949.0,18173.0,23565.0,14049.0,4264.0,1097.0,149.0,87.0
311116,County,2020/04/07,48.0,TX,48099.0,Coryell County,19015.0,55793.0,193823.0,51806.0,54878.0,21427.0,18883.0,26756.0,15779.0,3221.0,760.0,250.0,63.0
314311,County,2020/04/08,48.0,TX,48099.0,Coryell County,18898.0,55910.0,191391.0,52712.0,49655.0,26350.0,19563.0,27030.0,11869.0,3022.0,1073.0,56.0,61.0
317479,County,2020/04/09,48.0,TX,48099.0,Coryell County,19242.0,55566.0,187357.0,55465.0,50424.0,22882.0,15462.0,24734.0,13385.0,3763.0,1082.0,109.0,51.0
320706,County,2020/04/10,48.0,TX,48099.0,Coryell County,18752.0,56056.0,192564.0,52119.0,51735.0,25578.0,19421.0,24925.0,14055.0,3202.0,1308.0,151.0,70.0
323940,County,2020/04/11,48.0,TX,48099.0,Coryell County,20741.0,54067.0,174067.0,51779.0,50388.0,23551.0,15450.0,20638.0,8187.0,2757.0,1117.0,123.0,77.0
328626,County,2020/04/12,48.0,TX,48099.0,Coryell County,24187.0,50621.0,136704.0,38604.0,43218.0,17811.0,12855.0,14697.0,6080.0,2215.0,979.0,153.0,92.0
331848,County,2020/04/13,48.0,TX,48099.0,Coryell County,19604.0,55204.0,188849.0,50288.0,49732.0,23129.0,18888.0,28117.0,13666.0,3970.0,900.0,121.0,38.0
335022,County,2020/04/14,48.0,TX,48099.0,Coryell County,20135.0,54673.0,181746.0,45424.0,53660.0,21154.0,17267.0,27639.0,9968.0,4668.0,1584.0,358.0,24.0
338226,County,2020/04/15,48.0,TX,48099.0,Coryell County,18994.0,55814.0,193049.0,52483.0,56564.0,26480.0,15269.0,28101.0,9062.0,3114.0,1563.0,236.0,177.0
341370,County,2020/04/16,48.0,TX,48099.0,Coryell County,20176.0,54632.0,201523.0,60372.0,56219.0,19681.0,16492.0,31961.0,10929.0,4610.0,720.0,467.0,72.0
343154,County,2020/04/17,48.0,TX,48099.0,Coryell County,18128.0,56680.0,187550.0,46953.0,49678.0,25815.0,17229.0,29162.0,11493.0,4934.0,1983.0,221.0,82.0
347780,County,2020/04/18,48.0,TX,48099.0,Coryell County,21277.0,53531.0,226477.0,86382.0,66533.0,20984.0,12037.0,23500.0,10607.0,4636.0,1524.0,114.0,160.0
351011,County,2020/04/19,48.0,TX,48099.0,Coryell County,20952.0,53856.0,155581.0,45057.0,56007.0,15927.0,11739.0,17372.0,4033.0,3174.0,1837.0,313.0,122.0
352637,County,2020/04/20,48.0,TX,48099.0,Coryell County,18584.0,56224.0,221528.0,64497.0,61122.0,22970.0,18755.0,34083.0,11490.0,4865.0,3238.0,248.0,260.0
357398,County,2020/04/21,48.0,TX,48099.0,Coryell County,18437.0,56371.0,197260.0,51665.0,54506.0,25566.0,18154.0,28579.0,13412.0,3885.0,1334.0,121.0,38.0
359026,County,2020/04/22,48.0,TX,48099.0,Coryell County,18511.0,56297.0,197142.0,51713.0,54241.0,24706.0,18963.0,27920.0,13760.0,4419.0,1155.0,200.0,65.0
362132,County,2020/04/23,48.0,TX,48099.0,Coryell County,17611.0,57197.0,211306.0,59598.0,56057.0,26374.0,20536.0,27971.0,15392.0,4258.0,874.0,168.0,78.0
365434,County,2020/04/24,48.0,TX,48099.0,Coryell County,17722.0,57086.0,216635.0,59455.0,59530.0,27385.0,21020.0,29044.0,14425.0,4516.0,940.0,180.0,140.0
368553,County,2020/04/25,48.0,TX,48099.0,Coryell County,18919.0,55889.0,194318.0,48776.0,56055.0,28615.0,17298.0,26781.0,12153.0,3742.0,679.0,113.0,106.0
371719,County,2020/04/26,48.0,TX,48099.0,Coryell County,20984.0,53824.0,180323.0,50039.0,56384.0,21578.0,17635.0,21850.0,9167.0,2683.0,791.0,159.0,37.0
374996,County,2020/04/27,48.0,TX,48099.0,Coryell County,18154.0,56654.0,210104.0,61728.0,55560.0,26059.0,23258.0,24214.0,14605.0,3451.0,976.0,213.0,40.0
378147,County,2020/04/28,48.0,TX,48099.0,Coryell County,17576.0,57232.0,204634.0,56667.0,56621.0,24760.0,21116.0,26389.0,13871.0,3691.0,1243.0,213.0,63.0
381399,County,2020/04/29,48.0,TX,48099.0,Coryell County,17930.0,56878.0,208658.0,60968.0,52946.0,24218.0,19456.0,31232.0,14521.0,4236.0,764.0,298.0,19.0
386145,County,2020/04/30,48.0,TX,48099.0,Coryell County,16636.0,58172.0,218863.0,58151.0,57547.0,27855.0,22721.0,31097.0,16970.0,3644.0,778.0,81.0,19.0
387771,County,2020/05/01,48.0,TX,48099.0,Coryell County,17189.0,57619.0,229121.0,55244.0,66070.0,30881.0,23460.0,32021.0,16227.0,3938.0,1141.0,101.0,38.0
392532,County,2020/05/02,48.0,TX,48099.0,Coryell County,18305.0,56503.0,206750.0,52996.0,59232.0,28697.0,18753.0,28991.0,13124.0,3604.0,1060.0,135.0,158.0
394167,County,2020/05/03,48.0,TX,48099.0,Coryell County,19073.0,55735.0,187938.0,49461.0,58820.0,23010.0,16883.0,25419.0,9208.0,3418.0,1385.0,203.0,131.0
398921,County,2020/05/04,48.0,TX,48099.0,Coryell County,17238.0,57570.0,222673.0,61151.0,59243.0,27870.0,21465.0,31497.0,16070.0,4267.0,843.0,228.0,39.0
400548,County,2020/05/05,48.0,TX,48099.0,Coryell County,16672.0,58136.0,216899.0,62904.0,53474.0,28646.0,22090.0,30302.0,15536.0,2909.0,883.0,94.0,61.0
405303,County,2020/05/06,48.0,TX,48099.0,Coryell County,17495.0,57313.0,226890.0,63710.0,60647.0,27420.0,20587.0,32262.0,17061.0,4106.0,897.0,123.0,77.0
406929,County,2020/05/07,48.0,TX,48099.0,Coryell County,17798.0,57010.0,219479.0,59336.0,61440.0,25630.0,22017.0,30701.0,14924.0,4142.0,1026.0,173.0,90.0
410234,County,2020/05/08,48.0,TX,48099.0,Coryell County,16608.0,58200.0,227308.0,64909.0,64206.0,26794.0,21313.0,30961.0,14120.0,3793.0,990.0,151.0,71.0
414856,County,2020/05/09,48.0,TX,48099.0,Coryell County,18290.0,56518.0,225796.0,63133.0,66910.0,29907.0,20302.0,27637.0,12883.0,3723.0,1029.0,241.0,31.0
416517,County,2020/05/10,48.0,TX,48099.0,Coryell County,19111.0,55697.0,186901.0,51468.0,55060.0,25506.0,16560.0,22505.0,10638.0,3652.0,1190.0,279.0,43.0
421267,County,2020/05/11,48.0,TX,48099.0,Coryell County,15427.0,59381.0,240538.0,72243.0,63761.0,31135.0,21256.0,31837.0,15258.0,3845.0,1034.0,115.0,54.0
422945,County,2020/05/12,48.0,TX,48099.0,Coryell County,15465.0,59343.0,228395.0,62759.0,61883.0,29407.0,23102.0,30089.0,15562.0,4104.0,1289.0,124.0,76.0
427667,County,2020/05/13,48.0,TX,48099.0,Coryell County,15477.0,59331.0,227244.0,67439.0,61432.0,29248.0,21179.0,28113.0,13826.0,4405.0,1263.0,239.0,100.0
430861,County,2020/05/14,48.0,TX,48099.0,Coryell County,15908.0,58900.0,242503.0,70259.0,64927.0,29019.0,25036.0,33461.0,13822.0,4445.0,1331.0,130.0,73.0
432489,County,2020/05/15,48.0,TX,48099.0,Coryell County,15199.0,59609.0,232450.0,64066.0,60468.0,28909.0,24693.0,31059.0,16500.0,4928.0,1430.0,320.0,77.0
435713,County,2020/05/16,48.0,TX,48099.0,Coryell County,17184.0,57624.0,201399.0,50755.0,55836.0,30448.0,19600.0,27509.0,11534.0,3987.0,1505.0,149.0,76.0
440397,County,2020/05/17,48.0,TX,48099.0,Coryell County,16075.0,58733.0,212587.0,58246.0,56001.0,30412.0,20285.0,28774.0,12956.0,4171.0,1341.0,359.0,42.0
442111,County,2020/05/18,48.0,TX,48099.0,Coryell County,13780.0,61028.0,263003.0,75747.0,68216.0,33213.0,26917.0,33847.0,19184.0,4597.0,982.0,263.0,37.0
445265,County,2020/05/19,48.0,TX,48099.0,Coryell County,13478.0,61330.0,249931.0,76392.0,64350.0,27881.0,26408.0,32774.0,17675.0,3343.0,800.0,284.0,24.0
450025,County,2020/05/20,48.0,TX,48099.0,Coryell County,13464.0,61344.0,267520.0,82283.0,66115.0,31665.0,27112.0,35225.0,19594.0,4048.0,1257.0,209.0,12.0
452866,County,2020/05/21,48.0,TX,48099.0,Coryell County,13869.0,60939.0,261379.0,80984.0,63703.0,27472.0,27393.0,36837.0,17589.0,5599.0,1328.0,355.0,119.0
456412,County,2020/05/22,48.0,TX,48099.0,Coryell County,12996.0,61812.0,258982.0,79686.0,65210.0,27959.0,27665.0,33328.0,18622.0,4738.0,1347.0,291.0,136.0
458035,County,2020/05/23,48.0,TX,48099.0,Coryell County,13874.0,60934.0,236732.0,66694.0,64816.0,29038.0,22067.0,31594.0,14462.0,5960.0,1557.0,405.0,139.0
461203,County,2020/05/24,48.0,TX,48099.0,Coryell County,16881.0,57927.0,188340.0,49677.0,51624.0,22389.0,20334.0,27483.0,11253.0,3695.0,1434.0,291.0,160.0
464406,County,2020/05/25,48.0,TX,48099.0,Coryell County,17596.0,57212.0,183535.0,49667.0,50208.0,25302.0,16555.0,25624.0,10125.0,4098.0,1626.0,212.0,118.0
469187,County,2020/05/26,48.0,TX,48099.0,Coryell County,15455.0,59353.0,237858.0,68185.0,66212.0,27107.0,23562.0,30782.0,15884.0,4460.0,1434.0,154.0,78.0
470816,County,2020/05/27,48.0,TX,48099.0,Coryell County,14034.0,60774.0,242010.0,68612.0,65279.0,28307.0,24287.0,33342.0,16065.0,4525.0,1290.0,276.0,27.0
475577,County,2020/05/28,48.0,TX,48099.0,Coryell County,14611.0,60197.0,232456.0,62178.0,61329.0,30641.0,25574.0,29931.0,15767.0,5260.0,1420.0,293.0,63.0
478765,County,2020/05/29,48.0,TX,48099.0,Coryell County,15567.0,59241.0,246686.0,68766.0,66076.0,32141.0,24741.0,34379.0,13983.0,4827.0,1451.0,298.0,24.0
480344,County,2020/05/30,48.0,TX,48099.0,Coryell County,16323.0,58485.0,226245.0,59872.0,60698.0,29746.0,22590.0,32555.0,14082.0,5187.0,1250.0,237.0,28.0
485111,County,2020/05/31,48.0,TX,48099.0,Coryell County,18041.0,56767.0,198335.0,50327.0,57298.0,28326.0,20966.0,23746.0,11287.0,4802.0,1425.0,93.0,65.0
488412,County,2020/06/01,48.0,TX,48099.0,Coryell County,14681.0,60127.0,238667.0,65337.0,62312.0,29612.0,27284.0,31579.0,15715.0,5116.0,1440.0,223.0,49.0
491519,County,2020/06/02,48.0,TX,48099.0,Coryell County,15324.0,59484.0,236758.0,69461.0,59442.0,28181.0,25964.0,32434.0,14461.0,4974.0,1577.0,230.0,34.0
493148,County,2020/06/03,48.0,TX,48099.0,Coryell County,13609.0,61199.0,251266.0,71755.0,62578.0,30780.0,26707.0,34516.0,16565.0,6320.0,1589.0,381.0,75.0
497923,County,2020/06/04,48.0,TX,48099.0,Coryell County,14352.0,60456.0,250004.0,76707.0,61167.0,30137.0,26378.0,32405.0,15687.0,5613.0,1499.0,333.0,78.0
499563,County,2020/06/05,48.0,TX,48099.0,Coryell County,14388.0,60420.0,251414.0,70793.0,62452.0,33332.0,26053.0,33948.0,18000.0,4771.0,1536.0,443.0,86.0
502710,County,2020/06/06,48.0,TX,48099.0,Coryell County,16646.0,58162.0,203019.0,50236.0,53211.0,27787.0,21927.0,28771.0,14387.0,5009.0,1314.0,228.0,149.0
505901,County,2020/06/07,48.0,TX,48099.0,Coryell County,17108.0,57700.0,195653.0,51464.0,53232.0,25007.0,20504.0,27133.0,11230.0,4013.0,2424.0,413.0,233.0
510698,County,2020/06/08,48.0,TX,48099.0,Coryell County,13803.0,61005.0,243335.0,63558.0,65038.0,31936.0,26034.0,34408.0,15779.0,4580.0,1564.0,330.0,108.0
512327,County,2020/06/09,48.0,TX,48099.0,Coryell County,15537.0,59271.0,230130.0,63710.0,56972.0,29425.0,26987.0,31787.0,15609.0,4285.0,1082.0,150.0,123.0
517108,County,2020/06/10,48.0,TX,48099.0,Coryell County,15601.0,59207.0,228753.0,63448.0,60248.0,30661.0,24113.0,29844.0,14608.0,4203.0,1345.0,159.0,124.0
520265,County,2020/06/11,48.0,TX,48099.0,Coryell County,14998.0,59810.0,235551.0,62175.0,60282.0,29760.0,25949.0,33819.0,15968.0,5676.0,1447.0,336.0,139.0
521939,County,2020/06/12,48.0,TX,48099.0,Coryell County,14892.0,59916.0,238667.0,69491.0,58131.0,29141.0,24230.0,34282.0,16165.0,5108.0,1665.0,351.0,103.0
525115,County,2020/06/13,48.0,TX,48099.0,Coryell County,15706.0,59102.0,218712.0,57058.0,56962.0,26191.0,23025.0,32782.0,14551.0,6246.0,1599.0,252.0,46.0
529879,County,2020/06/14,48.0,TX,48099.0,Coryell County,17741.0,57067.0,180805.0,42993.0,48698.0,24514.0,20450.0,25627.0,11392.0,4631.0,1934.0,423.0,143.0
533069,County,2020/06/15,48.0,TX,48099.0,Coryell County,16055.0,58753.0,215073.0,55194.0,55161.0,32471.0,25163.0,27941.0,13390.0,4123.0,1380.0,154.0,96.0
534696,County,2020/06/16,48.0,TX,48099.0,Coryell County,16077.0,58731.0,224807.0,61009.0,57131.0,33216.0,23043.0,30506.0,14251.0,4216.0,1085.0,264.0,86.0
539408,County,2020/06/17,48.0,TX,48099.0,Coryell County,15892.0,58916.0,239619.0,67839.0,59377.0,31711.0,26504.0,32685.0,15098.0,4744.0,1299.0,301.0,61.0
541038,County,2020/06/18,48.0,TX,48099.0,Coryell County,15983.0,58825.0,226694.0,61678.0,54917.0,32843.0,24929.0,31302.0,14808.0,4538.0,1288.0,324.0,67.0
545804,County,2020/06/19,48.0,TX,48099.0,Coryell County,15088.0,59720.0,219001.0,58185.0,52636.0,28964.0,24623.0,33005.0,15583.0,4034.0,1658.0,225.0,88.0
549039,County,2020/06/20,48.0,TX,48099.0,Coryell County,17219.0,57589.0,202420.0,51593.0,51262.0,28235.0,21328.0,30798.0,12938.0,4455.0,1395.0,247.0,169.0
552226,County,2020/06/21,48.0,TX,48099.0,Coryell County,18436.0,56372.0,171808.0,44865.0,42770.0,23305.0,17890.0,25350.0,11489.0,4412.0,1327.0,248.0,152.0
555419,County,2020/06/22,48.0,TX,48099.0,Coryell County,16634.0,58174.0,206014.0,58501.0,49410.0,26416.0,20879.0,29588.0,15001.0,4300.0,1435.0,326.0,158.0
557047,County,2020/06/23,48.0,TX,48099.0,Coryell County,16413.0,58395.0,209726.0,55898.0,53536.0,25945.0,23832.0,28452.0,15670.0,4523.0,1531.0,199.0,140.0
561815,County,2020/06/24,48.0,TX,48099.0,Coryell County,16411.0,58397.0,219509.0,65219.0,58170.0,21780.0,23594.0,30952.0,13742.0,4751.0,1091.0,118.0,92.0
563443,County,2020/06/25,48.0,TX,48099.0,Coryell County,15602.0,59206.0,227359.0,65037.0,56313.0,27549.0,23435.0,31198.0,16750.0,5555.0,1210.0,189.0,123.0
568239,County,2020/06/26,48.0,TX,48099.0,Coryell County,15603.0,59205.0,216253.0,58444.0,58130.0,23811.0,22264.0,31684.0,15691.0,4169.0,1539.0,379.0,142.0
571389,County,2020/06/27,48.0,TX,48099.0,Coryell County,17126.0,57682.0,203719.0,55443.0,53898.0,26130.0,22144.0,25675.0,13772.0,4826.0,1488.0,210.0,133.0
573013,County,2020/06/28,48.0,TX,48099.0,Coryell County,18315.0,56493.0,196695.0,55930.0,54404.0,23305.0,19487.0,25200.0,11201.0,5108.0,1579.0,393.0,88.0
576173,County,2020/06/29,48.0,TX,48099.0,Coryell County,17224.0,57584.0,224180.0,66950.0,57922.0,28042.0,23794.0,28905.0,12488.0,4079.0,1595.0,345.0,60.0
580983,County,2020/06/30,48.0,TX,48099.0,Coryell County,16574.0,58234.0,208461.0,63669.0,51158.0,24685.0,22202.0,28732.0,11575.0,4279.0,1696.0,281.0,184.0
584174,County,2020/07/01,48.0,TX,48099.0,Coryell County,16275.0,58533.0,210352.0,61526.0,53248.0,26120.0,21071.0,29124.0,13023.0,4490.0,1221.0,300.0,229.0
585777,County,2020/07/02,48.0,TX,48099.0,Coryell County,17378.0,57430.0,241322.0,69031.0,59771.0,29241.0,24874.0,33114.0,17779.0,5896.0,1284.0,201.0,131.0
590568,County,2020/07/03,48.0,TX,48099.0,Coryell County,18448.0,56360.0,215036.0,58115.0,57803.0,23677.0,22139.0,31505.0,15603.0,4146.0,1530.0,377.0,141.0
593753,County,2020/07/04,48.0,TX,48099.0,Coryell County,19388.0,55420.0,183967.0,49719.0,49451.0,20256.0,18940.0,26954.0,13348.0,3547.0,1309.0,322.0,121.0
595406,County,2020/07/05,48.0,TX,48099.0,Coryell County,18171.0,56637.0,174360.0,51258.0,42235.0,23357.0,18014.0,22919.0,8623.0,5120.0,2191.0,417.0,226.0
598058,County,2020/07/06,48.0,TX,48099.0,Coryell County,17643.0,57165.0,188846.0,54959.0,46733.0,19514.0,18655.0,28407.0,13586.0,4767.0,1759.0,219.0,247.0
601672,County,2020/07/07,48.0,TX,48099.0,Coryell County,16799.0,58009.0,211787.0,64567.0,51151.0,23034.0,23445.0,29160.0,13771.0,4490.0,1762.0,251.0,156.0
604913,County,2020/07/08,48.0,TX,48099.0,Coryell County,16615.0,58193.0,209925.0,65233.0,48574.0,24079.0,22025.0,28411.0,14244.0,4994.0,1866.0,246.0,253.0
608158,County,2020/07/09,48.0,TX,48099.0,Coryell County,16922.0,57886.0,212825.0,68643.0,51564.0,21553.0,21452.0,28981.0,13791.0,4521.0,1863.0,264.0,193.0
611358,County,2020/07/10,48.0,TX,48099.0,Coryell County,16690.0,58118.0,218079.0,66604.0,48741.0,26055.0,24128.0,31196.0,13427.0,5470.0,2017.0,268.0,173.0
614568,County,2020/07/11,48.0,TX,48099.0,Coryell County,18255.0,56553.0,194358.0,55606.0,49395.0,22128.0,20110.0,26125.0,12546.0,6162.0,1797.0,263.0,226.0
619294,County,2020/07/12,48.0,TX,48099.0,Coryell County,18573.0,56235.0,171531.0,47941.0,43428.0,21118.0,18164.0,22656.0,10655.0,5081.0,1901.0,386.0,201.0
622500,County,2020/07/13,48.0,TX,48099.0,Coryell County,16220.0,58588.0,202075.0,57809.0,52023.0,26635.0,21056.0,25330.0,12546.0,4458.0,1698.0,347.0,173.0
625694,County,2020/07/14,48.0,TX,48099.0,Coryell County,17735.0,57073.0,212729.0,62353.0,53567.0,28240.0,22399.0,27047.0,12794.0,4763.0,1253.0,209.0,104.0
628866,County,2020/07/15,48.0,TX,48099.0,Coryell County,16845.0,57963.0,216566.0,59951.0,57836.0,27117.0,22851.0,28887.0,14190.0,4344.0,1037.0,189.0,164.0
632133,County,2020/07/16,48.0,TX,48099.0,Coryell County,17565.0,57243.0,212012.0,58114.0,54282.0,25841.0,22052.0,30378.0,15716.0,4181.0,1116.0,250.0,82.0
635228,County,2020/07/17,48.0,TX,48099.0,Coryell County,18425.0,56383.0,210210.0,59915.0,57333.0,25444.0,21957.0,27247.0,12704.0,4019.0,1257.0,256.0,78.0
636905,County,2020/07/18,48.0,TX,48099.0,Coryell County,19260.0,55548.0,196013.0,55215.0,51640.0,22734.0,20230.0,26083.0,12980.0,4819.0,1952.0,251.0,109.0
640060,County,2020/07/19,48.0,TX,48099.0,Coryell County,20255.0,54553.0,172739.0,45750.0,46603.0,23324.0,18402.0,22350.0,9892.0,4168.0,1755.0,343.0,152.0
643293,County,2020/07/20,48.0,TX,48099.0,Coryell County,18439.0,56369.0,211510.0,60221.0,54562.0,28447.0,23166.0,28095.0,12188.0,3279.0,1269.0,193.0,90.0
646470,County,2020/07/21,48.0,TX,48099.0,Coryell County,17466.0,57342.0,214281.0,63743.0,54969.0,24958.0,21856.0,29588.0,13954.0,3601.0,1193.0,302.0,117.0
649152,County,2020/07/22,48.0,TX,48099.0,Coryell County,17457.0,57351.0,217837.0,64564.0,55108.0,27033.0,22261.0,28759.0,14662.0,3722.0,1333.0,257.0,138.0
652789,County,2020/07/23,48.0,TX,48099.0,Coryell County,17918.0,56890.0,214036.0,64369.0,54555.0,25136.0,21975.0,28480.0,13397.0,4317.0,1488.0,188.0,131.0
657715,County,2020/07/24,48.0,TX,48099.0,Coryell County,17483.0,57325.0,217335.0,61810.0,56308.0,24203.0,24253.0,31188.0,12657.0,4772.0,1660.0,405.0,79.0
660883,County,2020/07/25,48.0,TX,48099.0,Coryell County,19303.0,55505.0,185215.0,47870.0,48417.0,22542.0,19250.0,26342.0,13727.0,5397.0,1392.0,180.0,98.0
663964,County,2020/07/26,48.0,TX,48099.0,Coryell County,19364.0,55444.0,184535.0,50884.0,45080.0,22458.0,20233.0,26974.0,11346.0,5001.0,2105.0,246.0,208.0
667237,County,2020/07/27,48.0,TX,48099.0,Coryell County,18120.0,56688.0,214322.0,63656.0,54466.0,23862.0,22919.0,29223.0,13751.0,4099.0,1875.0,348.0,123.0
668914,County,2020/07/28,48.0,TX,48099.0,Coryell County,17404.0,57404.0,225524.0,67093.0,56545.0,26663.0,23284.0,29549.0,15340.0,4884.0,1806.0,195.0,165.0
672022,County,2020/07/29,48.0,TX,48099.0,Coryell County,17852.0,56956.0,221140.0,61611.0,57609.0,25072.0,24580.0,30228.0,14726.0,5116.0,1797.0,180.0,221.0
676783,County,2020/07/30,48.0,TX,48099.0,Coryell County,17155.0,57653.0,212706.0,56498.0,55859.0,22881.0,23831.0,30157.0,15806.0,4770.0,2273.0,405.0,226.0
678434,County,2020/07/31,48.0,TX,48099.0,Coryell County,17342.0,57466.0,214501.0,63710.0,49594.0,23586.0,24009.0,31635.0,14732.0,4836.0,1834.0,338.0,227.0
683180,County,2020/08/01,48.0,TX,48099.0,Coryell County,18777.0,56031.0,185780.0,47188.0,46266.0,22766.0,21346.0,26369.0,14041.0,5296.0,1861.0,361.0,286.0
686372,County,2020/08/02,48.0,TX,48099.0,Coryell County,19480.0,55328.0,184266.0,45507.0,48759.0,22701.0,21577.0,27332.0,11621.0,3935.0,2240.0,264.0,330.0
689575,County,2020/08/03,48.0,TX,48099.0,Coryell County,17075.0,57733.0,217843.0,62947.0,53169.0,24049.0,25232.0,32877.0,12976.0,4473.0,1800.0,154.0,166.0
691203,County,2020/08/04,48.0,TX,48099.0,Coryell County,16904.0,57904.0,230750.0,68749.0,59341.0,25239.0,25234.0,31217.0,15206.0,4427.0,1002.0,205.0,130.0
695962,County,2020/08/05,48.0,TX,48099.0,Coryell County,16772.0,58036.0,230161.0,68087.0,59907.0,25668.0,22770.0,33448.0,14140.0,4530.0,1414.0,134.0,63.0
697572,County,2020/08/06,48.0,TX,48099.0,Coryell County,16406.0,58402.0,229234.0,66286.0,60252.0,25926.0,25861.0,30859.0,13591.0,5012.0,1203.0,176.0,68.0
700784,County,2020/08/07,48.0,TX,48099.0,Coryell County,16108.0,58700.0,223567.0,62580.0,55996.0,26919.0,22716.0,32314.0,16111.0,4836.0,1777.0,212.0,106.0
705545,County,2020/08/08,48.0,TX,48099.0,Coryell County,17604.0,57204.0,191337.0,44704.0,55572.0,23010.0,21196.0,26799.0,12761.0,5560.0,1449.0,156.0,130.0
708764,County,2020/08/09,48.0,TX,48099.0,Coryell County,18563.0,56245.0,187015.0,46080.0,50920.0,25697.0,20982.0,24045.0,12085.0,5202.0,1576.0,344.0,84.0
710393,County,2020/08/10,48.0,TX,48099.0,Coryell County,17136.0,57672.0,216592.0,59430.0,57962.0,25310.0,22613.0,29706.0,14711.0,5182.0,1407.0,222.0,49.0
715126,County,2020/08/11,48.0,TX,48099.0,Coryell County,17237.0,57571.0,226974.0,61719.0,60481.0,26506.0,22373.0,33613.0,15713.0,5189.0,1132.0,165.0,83.0
716658,County,2020/08/12,48.0,TX,48099.0,Coryell County,16446.0,58362.0,214701.0,59741.0,56599.0,23657.0,22739.0,31201.0,14074.0,4325.0,1792.0,244.0,329.0
719950,County,2020/08/13,48.0,TX,48099.0,Coryell County,15635.0,59173.0,224203.0,59879.0,58516.0,30965.0,23373.0,29567.0,14837.0,4786.0,1552.0,204.0,524.0
724693,County,2020/08/14,48.0,TX,48099.0,Coryell County,14858.0,59950.0,223974.0,57330.0,59097.0,27542.0,22853.0,32061.0,16697.0,5531.0,1979.0,302.0,582.0
727904,County,2020/08/15,48.0,TX,48099.0,Coryell County,16283.0,58525.0,201671.0,49918.0,53500.0,24995.0,21639.0,28517.0,14095.0,5847.0,2325.0,339.0,496.0
731096,County,2020/08/16,48.0,TX,48099.0,Coryell County,18612.0,56196.0,182865.0,41737.0,47150.0,25603.0,19072.0,28200.0,11496.0,5682.0,2771.0,425.0,729.0
732726,County,2020/08/17,48.0,TX,48099.0,Coryell County,17258.0,57550.0,209468.0,53333.0,54132.0,26012.0,23983.0,30253.0,13167.0,5538.0,2305.0,188.0,557.0
735941,County,2020/08/18,48.0,TX,48099.0,Coryell County,17365.0,57443.0,205812.0,56020.0,51476.0,24899.0,23671.0,26431.0,13881.0,5758.0,2542.0,331.0,803.0
739097,County,2020/08/19,48.0,TX,48099.0,Coryell County,16139.0,58669.0,214320.0,55845.0,56348.0,25640.0,22744.0,29750.0,15411.0,5539.0,2193.0,273.0,577.0
743878,County,2020/08/20,48.0,TX,48099.0,Coryell County,15396.0,59412.0,221496.0,58290.0,56709.0,29399.0,23968.0,30350.0,14535.0,5396.0,2036.0,207.0,606.0
747083,County,2020/08/21,48.0,TX,48099.0,Coryell County,14751.0,60057.0,234270.0,60617.0,58347.0,29839.0,24772.0,34369.0,16897.0,6307.0,2338.0,229.0,555.0
748712,County,2020/08/22,48.0,TX,48099.0,Coryell County,16287.0,58521.0,196608.0,44422.0,51030.0,24986.0,21379.0,28647.0,16750.0,6007.0,2449.0,329.0,609.0
751906,County,2020/08/23,48.0,TX,48099.0,Coryell County,19339.0,55469.0,154720.0,36420.0,40369.0,21203.0,16275.0,22145.0,10397.0,4864.0,2130.0,412.0,505.0
755079,County,2020/08/24,48.0,TX,48099.0,Coryell County,17968.0,56840.0,190183.0,52598.0,49348.0,22321.0,21293.0,25638.0,12393.0,4246.0,1588.0,316.0,442.0
759840,County,2020/08/25,48.0,TX,48099.0,Coryell County,17270.0,57538.0,207008.0,53055.0,53903.0,27482.0,21580.0,29370.0,15009.0,4563.0,1300.0,391.0,355.0
763000,County,2020/08/26,48.0,TX,48099.0,Coryell County,17528.0,57280.0,198007.0,54319.0,50394.0,22918.0,22102.0,28348.0,13541.0,4360.0,1489.0,212.0,324.0
764629,County,2020/08/27,48.0,TX,48099.0,Coryell County,17196.0,57612.0,212651.0,59488.0,57528.0,23946.0,23074.0,27961.0,13898.0,4567.0,1700.0,274.0,215.0
767835,County,2020/08/28,48.0,TX,48099.0,Coryell County,16826.0,57982.0,212563.0,55150.0,57973.0,24838.0,21468.0,30612.0,14752.0,5544.0,1865.0,146.0,215.0
771039,County,2020/08/29,48.0,TX,48099.0,Coryell County,18073.0,56735.0,181501.0,40455.0,48858.0,23461.0,19539.0,26808.0,13772.0,6295.0,1914.0,176.0,223.0
775813,County,2020/08/30,48.0,TX,48099.0,Coryell County,20075.0,54733.0,163034.0,38239.0,45922.0,20237.0,17611.0,22542.0,10327.0,5331.0,2229.0,294.0,302.0
777423,County,2020/08/31,48.0,TX,48099.0,Coryell County,17723.0,57085.0,211182.0,58313.0,55218.0,24066.0,23781.0,30179.0,12550.0,4625.0,1879.0,332.0,239.0
782201,County,2020/09/01,48.0,TX,48099.0,Coryell County,17212.0,57596.0,213701.0,57658.0,54985.0,27057.0,23441.0,29271.0,14626.0,4243.0,2060.0,183.0,177.0
784598,County,2020/09/02,48.0,TX,48099.0,Coryell County,17534.0,57274.0,208961.0,55176.0,55115.0,27732.0,22685.0,28154.0,12831.0,5014.0,1738.0,313.0,203.0
786956,County,2020/09/03,48.0,TX,48099.0,Coryell County,15842.0,58966.0,222241.0,62099.0,55299.0,27557.0,23252.0,31190.0,14783.0,5703.0,1911.0,269.0,178.0
791737,County,2020/09/04,48.0,TX,48099.0,Coryell County,17953.0,56855.0,204086.0,50712.0,53173.0,26394.0,22761.0,29387.0,13881.0,4908.0,2136.0,496.0,238.0
793294,County,2020/09/05,48.0,TX,48099.0,Coryell County,18084.0,56724.0,198727.0,51328.0,47042.0,25196.0,22851.0,28974.0,13541.0,7034.0,2300.0,310.0,151.0
796579,County,2020/09/06,48.0,TX,48099.0,Coryell County,19673.0,55135.0,170529.0,42094.0,43194.0,19499.0,20369.0,23937.0,12667.0,6104.0,2115.0,229.0,321.0
799794,County,2020/09/07,48.0,TX,48099.0,Coryell County,20286.0,54522.0,171155.0,42335.0,46132.0,20570.0,18174.0,24448.0,11731.0,4704.0,2293.0,472.0,296.0
802972,County,2020/09/08,48.0,TX,48099.0,Coryell County,17800.0,57008.0,217542.0,55912.0,57642.0,27151.0,22847.0,30633.0,16472.0,4596.0,1787.0,314.0,188.0
807752,County,2020/09/09,48.0,TX,48099.0,Coryell County,17758.0,57050.0,212942.0,53814.0,55341.0,26163.0,24369.0,29701.0,16471.0,5058.0,1620.0,159.0,246.0
809380,County,2020/09/10,48.0,TX,48099.0,Coryell County,17672.0,57136.0,206225.0,54817.0,53876.0,24470.0,23594.0,28253.0,13913.0,4680.0,2116.0,223.0,283.0
814141,County,2020/09/11,48.0,TX,48099.0,Coryell County,17323.0,57485.0,231175.0,60296.0,60120.0,26150.0,27665.0,31883.0,16942.0,5554.0,1967.0,399.0,199.0
817335,County,2020/09/12,48.0,TX,48099.0,Coryell County,18753.0,56055.0,190901.0,48035.0,44566.0,22956.0,24349.0,28526.0,14716.0,5224.0,2086.0,287.0,156.0
820519,County,2020/09/13,48.0,TX,48099.0,Coryell County,20149.0,54659.0,158048.0,30411.0,42635.0,21429.0,18225.0,26952.0,10783.0,4863.0,2079.0,457.0,214.0
822148,County,2020/09/14,48.0,TX,48099.0,Coryell County,17448.0,57360.0,222704.0,57570.0,58292.0,27616.0,25682.0,29750.0,16628.0,5335.0,1502.0,241.0,88.0
826917,County,2020/09/15,48.0,TX,48099.0,Coryell County,17119.0,57689.0,225926.0,61509.0,57377.0,27610.0,26150.0,30845.0,16764.0,3873.0,1505.0,196.0,97.0
830111,County,2020/09/16,48.0,TX,48099.0,Coryell County,16743.0,58065.0,216248.0,52985.0,55087.0,28131.0,25991.0,30788.0,16449.0,5067.0,1368.0,269.0,113.0
831738,County,2020/09/17,48.0,TX,48099.0,Coryell County,16847.0,57961.0,225651.0,59832.0,56012.0,28668.0,24655.0,31420.0,17609.0,5292.0,1688.0,324.0,151.0
834917,County,2020/09/18,48.0,TX,48099.0,Coryell County,15890.0,58918.0,233380.0,57842.0,61198.0,31142.0,26369.0,31635.0,16615.0,5883.0,2184.0,274.0,238.0
839692,County,2020/09/19,48.0,TX,48099.0,Coryell County,17953.0,56855.0,210920.0,49294.0,52068.0,26269.0,25667.0,31412.0,16959.0,6892.0,1903.0,301.0,155.0
841321,County,2020/09/20,48.0,TX,48099.0,Coryell County,19461.0,55347.0,170363.0,38699.0,45007.0,22930.0,18390.0,24706.0,13554.0,4400.0,2384.0,213.0,80.0
846108,County,2020/09/21,48.0,TX,48099.0,Coryell County,19126.0,55682.0,191322.0,50934.0,49845.0,23636.0,20283.0,26949.0,13613.0,4419.0,1372.0,171.0,100.0
847687,County,2020/09/22,48.0,TX,48099.0,Coryell County,18087.0,56721.0,202248.0,52531.0,54322.0,25828.0,19975.0,28524.0,15172.0,4133.0,1469.0,200.0,94.0
852465,County,2020/09/23,48.0,TX,48099.0,Coryell County,16876.0,57932.0,213179.0,55256.0,55075.0,25086.0,24931.0,32841.0,15169.0,3557.0,1064.0,157.0,43.0
854093,County,2020/09/24,48.0,TX,48099.0,Coryell County,16637.0,58171.0,215538.0,55473.0,53831.0,28997.0,24103.0,32617.0,15053.0,4112.0,1140.0,162.0,50.0
858857,County,2020/09/25,48.0,TX,48099.0,Coryell County,16089.0,58719.0,222880.0,55521.0,57905.0,28994.0,23415.0,34717.0,16327.0,4426.0,1252.0,259.0,64.0
862051,County,2020/09/26,48.0,TX,48099.0,Coryell County,18842.0,55966.0,197833.0,46319.0,51291.0,25861.0,19305.0,31945.0,15245.0,5585.0,1881.0,310.0,91.0
865232,County,2020/09/27,48.0,TX,48099.0,Coryell County,20057.0,54751.0,169793.0,40009.0,47716.0,22479.0,17776.0,24399.0,10723.0,4664.0,1771.0,164.0,92.0
866861,County,2020/09/28,48.0,TX,48099.0,Coryell County,17736.0,57072.0,205512.0,54701.0,54000.0,25836.0,21059.0,27960.0,16568.0,4164.0,1037.0,114.0,73.0
871632,County,2020/09/29,48.0,TX,48099.0,Coryell County,16528.0,58280.0,214542.0,54082.0,56252.0,26740.0,24877.0,32171.0,14206.0,4732.0,1275.0,177.0,30.0
873261,County,2020/09/30,48.0,TX,48099.0,Coryell County,16637.0,58171.0,219520.0,57379.0,58335.0,27562.0,25268.0,29931.0,14993.0,4706.0,1123.0,189.0,34.0
878000,County,2020/10/01,48.0,TX,48099.0,Coryell County,15389.0,59419.0,226105.0,59046.0,59479.0,29070.0,24186.0,31119.0,16534.0,4924.0,1489.0,215.0,43.0
879629,County,2020/10/02,48.0,TX,48099.0,Coryell County,15848.0,58960.0,222992.0,56353.0,57041.0,29708.0,26163.0,30432.0,16161.0,4967.0,1792.0,330.0,45.0
882845,County,2020/10/03,48.0,TX,48099.0,Coryell County,18496.0,56312.0,193190.0,45472.0,50444.0,24266.0,22632.0,27079.0,15872.0,5463.0,1575.0,325.0,62.0
887243,County,2020/10/04,48.0,TX,48099.0,Coryell County,19591.0,55217.0,165792.0,38305.0,39892.0,23454.0,20956.0,23762.0,12705.0,4345.0,2013.0,294.0,66.0
890488,County,2020/10/05,48.0,TX,48099.0,Coryell County,18831.0,55977.0,203733.0,53254.0,53828.0,23567.0,24233.0,29465.0,13022.0,4738.0,1368.0,213.0,45.0
893678,County,2020/10/06,48.0,TX,48099.0,Coryell County,16950.0,57858.0,216026.0,53624.0,57066.0,27803.0,23878.0,29713.0,17172.0,5215.0,1361.0,155.0,39.0
896854,County,2020/10/07,48.0,TX,48099.0,Coryell County,16110.0,58698.0,224401.0,57680.0,60034.0,27488.0,25973.0,30574.0,15958.0,5023.0,1434.0,186.0,51.0
900033,County,2020/10/08,48.0,TX,48099.0,Coryell County,16618.0,58190.0,211814.0,53908.0,52929.0,26657.0,24871.0,31749.0,14332.0,5731.0,1464.0,131.0,42.0
903233,County,2020/10/09,48.0,TX,48099.0,Coryell County,17395.0,57413.0,206113.0,45186.0,55309.0,26328.0,24418.0,30697.0,16565.0,5781.0,1652.0,128.0,49.0
906058,County,2020/10/10,48.0,TX,48099.0,Coryell County,19336.0,55472.0,198228.0,47119.0,47911.0,25374.0,22868.0,30116.0,14722.0,8382.0,1545.0,156.0,35.0
907790,County,2020/10/11,48.0,TX,48099.0,Coryell County,19954.0,54854.0,169611.0,39847.0,44307.0,22056.0,19087.0,23515.0,13072.0,5197.0,2280.0,205.0,45.0
910952,County,2020/10/12,48.0,TX,48099.0,Coryell County,18330.0,56478.0,190673.0,45887.0,48262.0,23100.0,21870.0,29667.0,14628.0,5329.0,1660.0,243.0,27.0
913820,County,2020/10/13,48.0,TX,48099.0,Coryell County,16800.0,58008.0,218052.0,55344.0,55822.0,27813.0,24210.0,32070.0,15496.0,5720.0,1413.0,118.0,46.0
917246,County,2020/10/14,48.0,TX,48099.0,Coryell County,15576.0,59232.0,224976.0,60039.0,58977.0,27537.0,24961.0,31557.0,14685.0,5510.0,1556.0,74.0,80.0
920590,County,2020/10/15,48.0,TX,48099.0,Coryell County,16994.0,57814.0,209154.0,52329.0,51817.0,28855.0,23718.0,31878.0,13695.0,5301.0,1308.0,183.0,70.0
923590,County,2020/10/16,48.0,TX,48099.0,Coryell County,15525.0,59283.0,236053.0,58885.0,63166.0,30630.0,26960.0,35385.0,13553.0,5638.0,1542.0,240.0,54.0
927638,County,2020/10/17,48.0,TX,48099.0,Coryell County,17547.0,57261.0,209316.0,55028.0,52070.0,24353.0,23817.0,30355.0,14231.0,7134.0,2070.0,207.0,51.0
929971,County,2020/10/18,48.0,TX,48099.0,Coryell County,18592.0,56216.0,174041.0,39631.0,47406.0,22193.0,20824.0,24022.0,12430.0,5337.0,1924.0,221.0,53.0
932964,County,2020/10/19,48.0,TX,48099.0,Coryell County,16786.0,58022.0,218936.0,56107.0,57130.0,26142.0,27705.0,30144.0,14948.0,5039.0,1497.0,171.0,53.0
936401,County,2020/10/20,48.0,TX,48099.0,Coryell County,17027.0,57781.0,214133.0,54490.0,53520.0,28071.0,24896.0,31579.0,14593.0,5369.0,1374.0,187.0,54.0
939411,County,2020/10/21,48.0,TX,48099.0,Coryell County,17758.0,57050.0,212231.0,54695.0,55295.0,24876.0,24610.0,30890.0,14716.0,5273.0,1551.0,264.0,61.0
943225,County,2020/10/22,48.0,TX,48099.0,Coryell County,16422.0,58386.0,225159.0,59720.0,59332.0,27192.0,25075.0,30871.0,15769.0,5563.0,1418.0,119.0,100.0
945956,County,2020/10/23,48.0,TX,48099.0,Coryell County,15582.0,59226.0,243577.0,59684.0,63210.0,31602.0,28160.0,35377.0,15787.0,7708.0,1806.0,178.0,65.0
949542,County,2020/10/24,48.0,TX,48099.0,Coryell County,17561.0,57247.0,203361.0,46946.0,53199.0,24824.0,21284.0,31967.0,16699.0,6279.0,1903.0,190.0,70.0
