,Level,Date,State FIPS,State Postal Code,County FIPS,County Name,Population Staying at Home,Population Not Staying at Home,Number of Trips,Number of Trips <1,Number of Trips 1-3,Number of Trips 3-5,Number of Trips 5-10,Number of Trips 10-25,Number of Trips 25-50,Number of Trips 50-100,Number of Trips 100-250,Number of Trips 250-500,Number of Trips >=500
2722,County,2020/01/01,48.0,TX,48401.0,Rusk County,9675.0,44775.0,153808.0,31666.0,37525.0,17317.0,22762.0,28292.0,11341.0,3234.0,1290.0,268.0,113.0
4303,County,2020/01/02,48.0,TX,48401.0,Rusk County,7765.0,46685.0,192444.0,39281.0,45401.0,20860.0,29412.0,34131.0,17063.0,3910.0,1883.0,457.0,46.0
8966,County,2020/01/03,48.0,TX,48401.0,Rusk County,7413.0,47037.0,207883.0,41313.0,52286.0,22435.0,28706.0,35585.0,19407.0,5860.0,1985.0,237.0,69.0
11342,County,2020/01/04,48.0,TX,48401.0,Rusk County,8305.0,46145.0,182757.0,36448.0,43299.0,17696.0,26524.0,36102.0,16513.0,4472.0,1437.0,220.0,46.0
15498,County,2020/01/05,48.0,TX,48401.0,Rusk County,8934.0,45516.0,171811.0,35114.0,45188.0,18095.0,25122.0,30090.0,11882.0,4520.0,1376.0,359.0,65.0
17369,County,2020/01/06,48.0,TX,48401.0,Rusk County,7677.0,46773.0,200093.0,41434.0,46637.0,24078.0,26238.0,39111.0,16107.0,4502.0,1811.0,140.0,35.0
20527,County,2020/01/07,48.0,TX,48401.0,Rusk County,7678.0,46772.0,204982.0,44040.0,49054.0,20062.0,30388.0,36849.0,17625.0,4888.0,1681.0,331.0,64.0
23806,County,2020/01/08,48.0,TX,48401.0,Rusk County,7391.0,47059.0,196951.0,45026.0,45758.0,23197.0,27242.0,35022.0,14794.0,4091.0,1408.0,367.0,46.0
26903,County,2020/01/09,48.0,TX,48401.0,Rusk County,7397.0,47053.0,193845.0,39892.0,48803.0,22273.0,26421.0,33480.0,15321.0,5350.0,1993.0,259.0,53.0
30099,County,2020/01/10,48.0,TX,48401.0,Rusk County,7193.0,47257.0,196088.0,44605.0,45830.0,20683.0,27735.0,34707.0,15518.0,4773.0,1825.0,377.0,35.0
34907,County,2020/01/11,48.0,TX,48401.0,Rusk County,8010.0,46440.0,189477.0,40911.0,43092.0,23008.0,27215.0,34081.0,14825.0,4360.0,1726.0,182.0,77.0
38027,County,2020/01/12,48.0,TX,48401.0,Rusk County,8916.0,45534.0,171966.0,31674.0,42353.0,21767.0,28318.0,29462.0,12777.0,3621.0,1345.0,583.0,66.0
39739,County,2020/01/13,48.0,TX,48401.0,Rusk County,7685.0,46765.0,189842.0,38127.0,43415.0,21880.0,26638.0,36596.0,16077.0,5023.0,1646.0,400.0,40.0
42901,County,2020/01/14,48.0,TX,48401.0,Rusk County,7533.0,46917.0,195872.0,41367.0,46712.0,19667.0,27796.0,35843.0,17440.0,5079.0,1493.0,432.0,43.0
46053,County,2020/01/15,48.0,TX,48401.0,Rusk County,7014.0,47436.0,202401.0,41217.0,49732.0,22441.0,30374.0,35086.0,16615.0,4762.0,1689.0,415.0,70.0
50834,County,2020/01/16,48.0,TX,48401.0,Rusk County,7462.0,46988.0,191671.0,37903.0,46238.0,21232.0,26613.0,35409.0,17617.0,4422.0,1733.0,404.0,100.0
52461,County,2020/01/17,48.0,TX,48401.0,Rusk County,7218.0,47232.0,213646.0,45053.0,51793.0,22668.0,29637.0,39784.0,17433.0,4681.0,2179.0,329.0,89.0
57244,County,2020/01/18,48.0,TX,48401.0,Rusk County,8053.0,46397.0,190325.0,37416.0,47632.0,22739.0,27079.0,33040.0,15516.0,4325.0,2286.0,203.0,89.0
58843,County,2020/01/19,48.0,TX,48401.0,Rusk County,8538.0,45912.0,164990.0,31941.0,38922.0,20846.0,26777.0,30735.0,10412.0,2966.0,1986.0,327.0,78.0
63604,County,2020/01/20,48.0,TX,48401.0,Rusk County,8197.0,46253.0,183365.0,37855.0,39490.0,20488.0,26408.0,35433.0,16535.0,4759.0,1823.0,461.0,113.0
66802,County,2020/01/21,48.0,TX,48401.0,Rusk County,7398.0,47052.0,193854.0,41539.0,45024.0,20962.0,27886.0,35304.0,16525.0,4524.0,1765.0,253.0,72.0
68433,County,2020/01/22,48.0,TX,48401.0,Rusk County,7896.0,46554.0,189739.0,38540.0,45406.0,22878.0,25972.0,35037.0,15824.0,4146.0,1592.0,286.0,58.0
73224,County,2020/01/23,48.0,TX,48401.0,Rusk County,7624.0,46826.0,196815.0,40974.0,45504.0,21407.0,29117.0,36635.0,17248.0,4121.0,1497.0,273.0,39.0
76381,County,2020/01/24,48.0,TX,48401.0,Rusk County,7163.0,47287.0,212590.0,44226.0,51976.0,24788.0,27388.0,39488.0,17061.0,5023.0,2434.0,170.0,36.0
79567,County,2020/01/25,48.0,TX,48401.0,Rusk County,8051.0,46399.0,194472.0,40651.0,42033.0,23538.0,27893.0,37255.0,15596.0,5107.0,2145.0,181.0,73.0
82572,County,2020/01/26,48.0,TX,48401.0,Rusk County,8964.0,45486.0,170913.0,34152.0,41611.0,20484.0,26085.0,31904.0,11045.0,3160.0,2044.0,362.0,66.0
85979,County,2020/01/27,48.0,TX,48401.0,Rusk County,7249.0,47201.0,191900.0,38101.0,47590.0,22863.0,24913.0,35631.0,16401.0,4188.0,1988.0,178.0,47.0
88184,County,2020/01/28,48.0,TX,48401.0,Rusk County,7194.0,47256.0,186521.0,35827.0,45217.0,23184.0,25760.0,33670.0,16013.0,4514.0,2040.0,220.0,76.0
92337,County,2020/01/29,48.0,TX,48401.0,Rusk County,7503.0,46947.0,196067.0,36616.0,48368.0,23405.0,28419.0,36189.0,16497.0,4383.0,1828.0,320.0,42.0
94111,County,2020/01/30,48.0,TX,48401.0,Rusk County,6966.0,47484.0,200609.0,43044.0,45683.0,24154.0,27055.0,37457.0,16806.0,3951.0,2106.0,281.0,72.0
97166,County,2020/01/31,48.0,TX,48401.0,Rusk County,6738.0,47712.0,213521.0,44725.0,53011.0,22928.0,30165.0,38530.0,17227.0,4314.0,2046.0,490.0,85.0
100415,County,2020/02/01,48.0,TX,48401.0,Rusk County,7495.0,46955.0,199598.0,37977.0,46159.0,25933.0,29521.0,36197.0,17008.0,4065.0,2459.0,181.0,98.0
103543,County,2020/02/02,48.0,TX,48401.0,Rusk County,8409.0,46041.0,173643.0,34720.0,40976.0,20885.0,28864.0,31144.0,11545.0,2729.0,2323.0,361.0,96.0
106752,County,2020/02/03,48.0,TX,48401.0,Rusk County,6831.0,47619.0,199093.0,42767.0,46424.0,20724.0,27579.0,37948.0,15726.0,4275.0,3217.0,361.0,72.0
111514,County,2020/02/04,48.0,TX,48401.0,Rusk County,6933.0,47517.0,206015.0,41267.0,49572.0,22370.0,31512.0,37620.0,16736.0,3975.0,2573.0,338.0,52.0
114717,County,2020/02/05,48.0,TX,48401.0,Rusk County,7249.0,47201.0,193709.0,38528.0,46518.0,21686.0,28466.0,37698.0,14769.0,3498.0,2194.0,309.0,43.0
116286,County,2020/02/06,48.0,TX,48401.0,Rusk County,6714.0,47736.0,203517.0,39742.0,48216.0,23543.0,31457.0,37851.0,16302.0,3771.0,2140.0,433.0,62.0
119502,County,2020/02/07,48.0,TX,48401.0,Rusk County,6254.0,48196.0,220523.0,46255.0,54095.0,23531.0,29993.0,40826.0,18227.0,4341.0,2741.0,475.0,39.0
124290,County,2020/02/08,48.0,TX,48401.0,Rusk County,7272.0,47178.0,194605.0,38650.0,47237.0,20602.0,26798.0,37561.0,17040.0,4386.0,1993.0,281.0,57.0
126738,County,2020/02/09,48.0,TX,48401.0,Rusk County,8865.0,45585.0,169968.0,34744.0,40414.0,18196.0,25950.0,32281.0,12463.0,3278.0,2095.0,456.0,91.0
127888,County,2020/02/10,48.0,TX,48401.0,Rusk County,6824.0,47626.0,214282.0,43784.0,50937.0,24201.0,30449.0,39148.0,17670.0,4858.0,2703.0,438.0,94.0
133447,County,2020/02/11,48.0,TX,48401.0,Rusk County,6358.0,48092.0,211686.0,43620.0,50646.0,22903.0,29735.0,38451.0,19162.0,4064.0,2371.0,600.0,134.0
134399,County,2020/02/12,48.0,TX,48401.0,Rusk County,6794.0,47656.0,211709.0,42570.0,51690.0,23375.0,29603.0,39763.0,16416.0,4855.0,2874.0,431.0,132.0
138730,County,2020/02/13,48.0,TX,48401.0,Rusk County,6255.0,48195.0,227147.0,48289.0,52126.0,23326.0,30816.0,44853.0,19827.0,4598.0,2785.0,397.0,130.0
141789,County,2020/02/14,48.0,TX,48401.0,Rusk County,6450.0,48000.0,245737.0,54274.0,58244.0,25232.0,32844.0,45316.0,20354.0,6339.0,2617.0,361.0,156.0
146667,County,2020/02/15,48.0,TX,48401.0,Rusk County,7390.0,47060.0,212622.0,43122.0,49444.0,23947.0,27873.0,40964.0,18358.0,5952.0,2434.0,383.0,145.0
149869,County,2020/02/16,48.0,TX,48401.0,Rusk County,8657.0,45793.0,190200.0,43761.0,44460.0,19633.0,26527.0,35804.0,13083.0,4240.0,2148.0,408.0,136.0
153036,County,2020/02/17,48.0,TX,48401.0,Rusk County,9454.0,44996.0,177518.0,38967.0,39708.0,18587.0,23397.0,33799.0,16804.0,3988.0,1758.0,407.0,103.0
154613,County,2020/02/18,48.0,TX,48401.0,Rusk County,6631.0,47819.0,211786.0,42642.0,51950.0,23890.0,27410.0,38309.0,19974.0,4340.0,2573.0,537.0,161.0
159423,County,2020/02/19,48.0,TX,48401.0,Rusk County,6907.0,47543.0,207504.0,38490.0,49020.0,22872.0,29448.0,41524.0,17312.0,5257.0,2996.0,513.0,72.0
160919,County,2020/02/20,48.0,TX,48401.0,Rusk County,6563.0,47887.0,214180.0,45161.0,51462.0,21886.0,29197.0,41255.0,17348.0,4695.0,2553.0,512.0,111.0
164246,County,2020/02/21,48.0,TX,48401.0,Rusk County,6669.0,47781.0,233362.0,50469.0,52409.0,25151.0,30958.0,46142.0,18899.0,5840.0,2904.0,447.0,143.0
167390,County,2020/02/22,48.0,TX,48401.0,Rusk County,6759.0,47691.0,209812.0,43948.0,47488.0,22692.0,27993.0,40605.0,18077.0,5493.0,3004.0,450.0,62.0
172205,County,2020/02/23,48.0,TX,48401.0,Rusk County,8330.0,46120.0,176889.0,34930.0,44474.0,21529.0,25773.0,29863.0,13561.0,4129.0,2176.0,380.0,74.0
173831,County,2020/02/24,48.0,TX,48401.0,Rusk County,7731.0,46719.0,219564.0,46343.0,54144.0,24024.0,30721.0,41866.0,15416.0,4412.0,2248.0,284.0,106.0
178393,County,2020/02/25,48.0,TX,48401.0,Rusk County,6631.0,47819.0,232936.0,48517.0,60501.0,25157.0,29975.0,44690.0,18528.0,3635.0,1567.0,205.0,161.0
181586,County,2020/02/26,48.0,TX,48401.0,Rusk County,6985.0,47465.0,224091.0,42043.0,64766.0,25398.0,29154.0,38844.0,18969.0,3573.0,1146.0,137.0,61.0
182807,County,2020/02/27,48.0,TX,48401.0,Rusk County,6769.0,47681.0,232297.0,52814.0,57048.0,23572.0,30070.0,44405.0,17040.0,4900.0,2029.0,305.0,114.0
186746,County,2020/02/28,48.0,TX,48401.0,Rusk County,6619.0,47831.0,253826.0,58034.0,64688.0,26285.0,30821.0,44385.0,21087.0,5551.0,2512.0,334.0,129.0
189750,County,2020/02/29,48.0,TX,48401.0,Rusk County,6978.0,47472.0,223577.0,46658.0,49212.0,26707.0,30111.0,44000.0,18830.0,5933.0,1744.0,259.0,123.0
194583,County,2020/03/01,48.0,TX,48401.0,Rusk County,8105.0,46345.0,175770.0,35559.0,44529.0,17852.0,26550.0,30711.0,13228.0,4702.0,2251.0,266.0,122.0
196211,County,2020/03/02,48.0,TX,48401.0,Rusk County,6859.0,47591.0,218705.0,56715.0,47886.0,23344.0,28465.0,38189.0,16955.0,4604.0,2201.0,235.0,111.0
201063,County,2020/03/03,48.0,TX,48401.0,Rusk County,6399.0,48051.0,225894.0,50864.0,55596.0,24914.0,28418.0,38978.0,18857.0,5405.0,2464.0,333.0,65.0
201696,County,2020/03/04,48.0,TX,48401.0,Rusk County,6246.0,48204.0,211481.0,41813.0,55207.0,24387.0,29644.0,35529.0,16599.0,5138.0,2556.0,525.0,83.0
207353,County,2020/03/05,48.0,TX,48401.0,Rusk County,5825.0,48625.0,250018.0,63855.0,58299.0,26273.0,32891.0,40922.0,18750.0,5435.0,3054.0,485.0,54.0
208836,County,2020/03/06,48.0,TX,48401.0,Rusk County,6016.0,48434.0,252867.0,53409.0,62183.0,28778.0,36671.0,45709.0,17471.0,5273.0,2836.0,407.0,130.0
212185,County,2020/03/07,48.0,TX,48401.0,Rusk County,6494.0,47956.0,231696.0,47226.0,52989.0,26021.0,34631.0,42391.0,18774.0,6556.0,2556.0,482.0,70.0
216912,County,2020/03/08,48.0,TX,48401.0,Rusk County,7525.0,46925.0,185457.0,32500.0,49129.0,20800.0,28478.0,35857.0,11088.0,4462.0,2708.0,364.0,71.0
218552,County,2020/03/09,48.0,TX,48401.0,Rusk County,6939.0,47511.0,219573.0,45870.0,52270.0,25853.0,33255.0,37454.0,16174.0,5035.0,3213.0,389.0,60.0
221787,County,2020/03/10,48.0,TX,48401.0,Rusk County,6777.0,47673.0,236783.0,55726.0,58807.0,25832.0,32202.0,39210.0,16931.0,5096.0,2547.0,349.0,83.0
224977,County,2020/03/11,48.0,TX,48401.0,Rusk County,6676.0,47774.0,260143.0,56763.0,79234.0,26698.0,29581.0,39677.0,18459.0,5121.0,3788.0,768.0,54.0
229625,County,2020/03/12,48.0,TX,48401.0,Rusk County,6758.0,47692.0,295746.0,87545.0,74077.0,31615.0,37032.0,40310.0,15052.0,3938.0,5210.0,900.0,67.0
232891,County,2020/03/13,48.0,TX,48401.0,Rusk County,6755.0,47695.0,265564.0,60223.0,66359.0,32366.0,36029.0,43009.0,17168.0,4265.0,5207.0,831.0,107.0
236094,County,2020/03/14,48.0,TX,48401.0,Rusk County,8238.0,46212.0,243451.0,49272.0,71254.0,35285.0,30601.0,34612.0,15560.0,3554.0,2902.0,251.0,160.0
237706,County,2020/03/15,48.0,TX,48401.0,Rusk County,9260.0,45190.0,174559.0,34873.0,52390.0,18782.0,25395.0,27976.0,9535.0,2875.0,2210.0,404.0,119.0
242467,County,2020/03/16,48.0,TX,48401.0,Rusk County,8416.0,46034.0,213913.0,47964.0,50041.0,25939.0,31323.0,36651.0,15692.0,4125.0,1894.0,190.0,94.0
244132,County,2020/03/17,48.0,TX,48401.0,Rusk County,8781.0,45669.0,202108.0,43316.0,49633.0,23824.0,26774.0,37138.0,14412.0,4371.0,2244.0,286.0,110.0
247287,County,2020/03/18,48.0,TX,48401.0,Rusk County,8729.0,45721.0,203444.0,42568.0,52103.0,19782.0,29210.0,35228.0,16021.0,5920.0,2058.0,430.0,124.0
252069,County,2020/03/19,48.0,TX,48401.0,Rusk County,8631.0,45819.0,202589.0,43721.0,50847.0,22344.0,31231.0,33963.0,14152.0,4211.0,1768.0,254.0,98.0
255244,County,2020/03/20,48.0,TX,48401.0,Rusk County,9104.0,45346.0,191344.0,48081.0,44569.0,21356.0,25295.0,31757.0,13205.0,3682.0,2670.0,570.0,159.0
258436,County,2020/03/21,48.0,TX,48401.0,Rusk County,9932.0,44518.0,177329.0,41105.0,43339.0,21232.0,26685.0,28384.0,10714.0,3589.0,1947.0,233.0,101.0
260058,County,2020/03/22,48.0,TX,48401.0,Rusk County,10329.0,44121.0,159799.0,44507.0,40976.0,18686.0,21486.0,20747.0,7602.0,3006.0,2563.0,159.0,67.0
264836,County,2020/03/23,48.0,TX,48401.0,Rusk County,8622.0,45828.0,162930.0,35565.0,39811.0,18571.0,24329.0,26279.0,12196.0,4335.0,1343.0,396.0,105.0
268066,County,2020/03/24,48.0,TX,48401.0,Rusk County,8731.0,45719.0,176332.0,41448.0,45300.0,19838.0,23746.0,26653.0,12827.0,4748.0,1547.0,162.0,63.0
271214,County,2020/03/25,48.0,TX,48401.0,Rusk County,8486.0,45964.0,185778.0,44494.0,45508.0,20845.0,27407.0,29588.0,12297.0,3551.0,1779.0,250.0,59.0
272840,County,2020/03/26,48.0,TX,48401.0,Rusk County,8752.0,45698.0,186602.0,39865.0,44792.0,21868.0,29289.0,30951.0,13458.0,4209.0,1701.0,416.0,53.0
277603,County,2020/03/27,48.0,TX,48401.0,Rusk County,8870.0,45580.0,180032.0,40642.0,46677.0,20538.0,25542.0,28358.0,11493.0,4322.0,2247.0,132.0,81.0
279230,County,2020/03/28,48.0,TX,48401.0,Rusk County,10208.0,44242.0,154758.0,38480.0,40165.0,16022.0,23070.0,23011.0,8505.0,3549.0,1811.0,85.0,60.0
283990,County,2020/03/29,48.0,TX,48401.0,Rusk County,10527.0,43923.0,161330.0,43615.0,46412.0,14615.0,23025.0,22049.0,6936.0,2165.0,2326.0,126.0,61.0
287215,County,2020/03/30,48.0,TX,48401.0,Rusk County,8798.0,45652.0,163043.0,36814.0,41826.0,18016.0,22755.0,26594.0,10738.0,3921.0,2009.0,284.0,86.0
288813,County,2020/03/31,48.0,TX,48401.0,Rusk County,9185.0,45265.0,156872.0,34210.0,38773.0,18195.0,23651.0,25560.0,11003.0,3437.0,1534.0,457.0,52.0
292048,County,2020/04/01,48.0,TX,48401.0,Rusk County,9033.0,45417.0,189226.0,50581.0,45677.0,20698.0,24441.0,30312.0,12227.0,3314.0,1566.0,357.0,53.0
296781,County,2020/04/02,48.0,TX,48401.0,Rusk County,9196.0,45254.0,162656.0,35631.0,38863.0,19780.0,24597.0,27558.0,10716.0,3683.0,1444.0,300.0,84.0
298442,County,2020/04/03,48.0,TX,48401.0,Rusk County,8285.0,46165.0,176872.0,36739.0,40011.0,24484.0,26638.0,29730.0,12980.0,4249.0,1839.0,149.0,53.0
301586,County,2020/04/04,48.0,TX,48401.0,Rusk County,10142.0,44308.0,150865.0,33055.0,38640.0,20550.0,20867.0,25456.0,7399.0,3074.0,1471.0,272.0,81.0
304768,County,2020/04/05,48.0,TX,48401.0,Rusk County,11117.0,43333.0,143721.0,30289.0,39829.0,20739.0,22785.0,19602.0,6239.0,2738.0,1157.0,253.0,90.0
306624,County,2020/04/06,48.0,TX,48401.0,Rusk County,9276.0,45174.0,170445.0,42239.0,42013.0,17504.0,24999.0,26722.0,12089.0,3661.0,911.0,238.0,69.0
311218,County,2020/04/07,48.0,TX,48401.0,Rusk County,9110.0,45340.0,175709.0,39710.0,46847.0,18944.0,24774.0,28335.0,12196.0,3083.0,1360.0,414.0,46.0
315954,County,2020/04/08,48.0,TX,48401.0,Rusk County,8809.0,45641.0,189586.0,52509.0,44521.0,19161.0,29274.0,27894.0,10555.0,3768.0,1652.0,202.0,50.0
317581,County,2020/04/09,48.0,TX,48401.0,Rusk County,9344.0,45106.0,176129.0,44860.0,42342.0,21315.0,27089.0,25577.0,10393.0,2902.0,1280.0,334.0,37.0
322318,County,2020/04/10,48.0,TX,48401.0,Rusk County,9345.0,45105.0,172577.0,39563.0,37090.0,23669.0,23565.0,30302.0,12701.0,3790.0,1640.0,181.0,76.0
323993,County,2020/04/11,48.0,TX,48401.0,Rusk County,9581.0,44869.0,167881.0,41531.0,41402.0,20102.0,24831.0,27217.0,9376.0,2308.0,987.0,59.0,68.0
327139,County,2020/04/12,48.0,TX,48401.0,Rusk County,11750.0,42700.0,123197.0,29720.0,29646.0,18373.0,18450.0,18738.0,5580.0,1606.0,815.0,246.0,23.0
330403,County,2020/04/13,48.0,TX,48401.0,Rusk County,9493.0,44957.0,175983.0,41956.0,38617.0,23047.0,23698.0,31779.0,11298.0,3673.0,1619.0,239.0,57.0
335075,County,2020/04/14,48.0,TX,48401.0,Rusk County,9700.0,44750.0,241813.0,83444.0,57715.0,28704.0,26952.0,30132.0,10095.0,3173.0,1317.0,236.0,45.0
336752,County,2020/04/15,48.0,TX,48401.0,Rusk County,9489.0,44961.0,188498.0,40664.0,47543.0,27702.0,25469.0,33554.0,9954.0,2342.0,1165.0,76.0,29.0
339906,County,2020/04/16,48.0,TX,48401.0,Rusk County,10356.0,44094.0,199718.0,49716.0,53229.0,26008.0,26383.0,29977.0,12187.0,797.0,1289.0,84.0,48.0
344685,County,2020/04/17,48.0,TX,48401.0,Rusk County,8526.0,45924.0,176001.0,36393.0,46214.0,26579.0,23205.0,29994.0,9729.0,2664.0,1072.0,60.0,91.0
346312,County,2020/04/18,48.0,TX,48401.0,Rusk County,10245.0,44205.0,194699.0,51199.0,48200.0,28983.0,24392.0,29833.0,8201.0,2266.0,1537.0,74.0,14.0
349484,County,2020/04/19,48.0,TX,48401.0,Rusk County,10568.0,43882.0,152609.0,36915.0,46051.0,25621.0,19045.0,15401.0,5288.0,2665.0,1469.0,141.0,13.0
354265,County,2020/04/20,48.0,TX,48401.0,Rusk County,8918.0,45532.0,203346.0,49857.0,52224.0,32977.0,21759.0,29291.0,13916.0,2066.0,1104.0,0.0,152.0
355884,County,2020/04/21,48.0,TX,48401.0,Rusk County,8792.0,45658.0,183607.0,42978.0,43740.0,20765.0,25958.0,32009.0,13139.0,3748.0,1039.0,179.0,52.0
359128,County,2020/04/22,48.0,TX,48401.0,Rusk County,8711.0,45739.0,163789.0,40618.0,37587.0,19498.0,23162.0,25174.0,10802.0,4851.0,1826.0,218.0,53.0
363860,County,2020/04/23,48.0,TX,48401.0,Rusk County,8076.0,46374.0,190038.0,41148.0,50059.0,23804.0,26947.0,29826.0,12708.0,3774.0,1392.0,344.0,36.0
365487,County,2020/04/24,48.0,TX,48401.0,Rusk County,8503.0,45947.0,178134.0,41780.0,45818.0,20167.0,22783.0,32226.0,9802.0,3817.0,1571.0,134.0,36.0
370228,County,2020/04/25,48.0,TX,48401.0,Rusk County,9296.0,45154.0,178948.0,39019.0,43798.0,25634.0,25433.0,30957.0,11661.0,1300.0,860.0,240.0,46.0
373422,County,2020/04/26,48.0,TX,48401.0,Rusk County,9894.0,44556.0,172821.0,43704.0,43844.0,21592.0,21458.0,28643.0,10215.0,2468.0,753.0,77.0,67.0
376654,County,2020/04/27,48.0,TX,48401.0,Rusk County,8176.0,46274.0,185069.0,43257.0,45751.0,22292.0,23598.0,32009.0,12764.0,4014.0,1136.0,157.0,91.0
379825,County,2020/04/28,48.0,TX,48401.0,Rusk County,8854.0,45596.0,170087.0,35609.0,41862.0,17367.0,26945.0,29949.0,13222.0,3333.0,1499.0,221.0,80.0
383028,County,2020/04/29,48.0,TX,48401.0,Rusk County,8922.0,45528.0,177378.0,44165.0,38342.0,19608.0,26706.0,31005.0,12232.0,3952.0,1060.0,263.0,45.0
386198,County,2020/04/30,48.0,TX,48401.0,Rusk County,8115.0,46335.0,181714.0,41074.0,41198.0,23400.0,26453.0,31546.0,12677.0,3593.0,1303.0,420.0,50.0
387873,County,2020/05/01,48.0,TX,48401.0,Rusk County,7624.0,46826.0,194303.0,48942.0,42776.0,21496.0,28432.0,33561.0,13083.0,3851.0,1887.0,211.0,64.0
391006,County,2020/05/02,48.0,TX,48401.0,Rusk County,8883.0,45567.0,182017.0,42746.0,45190.0,23563.0,24428.0,31167.0,10565.0,2802.0,1357.0,139.0,60.0
395781,County,2020/05/03,48.0,TX,48401.0,Rusk County,9240.0,45210.0,161531.0,39279.0,39884.0,21705.0,25470.0,24258.0,7289.0,2498.0,816.0,234.0,98.0
397430,County,2020/05/04,48.0,TX,48401.0,Rusk County,8230.0,46220.0,201040.0,50103.0,42737.0,28174.0,29695.0,32112.0,12455.0,4011.0,1321.0,406.0,26.0
402149,County,2020/05/05,48.0,TX,48401.0,Rusk County,8578.0,45872.0,182362.0,41305.0,43288.0,21020.0,23090.0,33929.0,14114.0,4364.0,898.0,307.0,47.0
403779,County,2020/05/06,48.0,TX,48401.0,Rusk County,8329.0,46121.0,192039.0,46401.0,45731.0,21940.0,26361.0,33772.0,13042.0,3549.0,1043.0,62.0,138.0
408499,County,2020/05/07,48.0,TX,48401.0,Rusk County,8587.0,45863.0,197915.0,47363.0,43013.0,24880.0,29833.0,34182.0,12584.0,4265.0,1364.0,316.0,115.0
411761,County,2020/05/08,48.0,TX,48401.0,Rusk County,8527.0,45923.0,180117.0,37000.0,41061.0,23807.0,26126.0,34022.0,12654.0,4086.0,1081.0,230.0,50.0
414958,County,2020/05/09,48.0,TX,48401.0,Rusk County,8713.0,45737.0,194447.0,40655.0,48782.0,29138.0,26680.0,33137.0,11535.0,3217.0,1107.0,132.0,64.0
418138,County,2020/05/10,48.0,TX,48401.0,Rusk County,8894.0,45556.0,180399.0,39867.0,38323.0,24771.0,27341.0,33517.0,11560.0,3552.0,1214.0,174.0,80.0
419813,County,2020/05/11,48.0,TX,48401.0,Rusk County,6986.0,47464.0,205110.0,49385.0,45921.0,25750.0,31073.0,31837.0,15132.0,4205.0,1371.0,422.0,14.0
424573,County,2020/05/12,48.0,TX,48401.0,Rusk County,7203.0,47247.0,200437.0,49766.0,42904.0,25902.0,28126.0,32483.0,15544.0,3890.0,1564.0,235.0,23.0
426055,County,2020/05/13,48.0,TX,48401.0,Rusk County,7289.0,47161.0,194459.0,46672.0,43504.0,22144.0,27463.0,33590.0,15848.0,3430.0,1393.0,379.0,36.0
429396,County,2020/05/14,48.0,TX,48401.0,Rusk County,7063.0,47387.0,190064.0,42611.0,41600.0,22416.0,27177.0,35136.0,14876.0,4001.0,1996.0,205.0,46.0
432542,County,2020/05/15,48.0,TX,48401.0,Rusk County,6985.0,47465.0,189207.0,41006.0,45511.0,20368.0,28020.0,34694.0,13678.0,3956.0,1668.0,270.0,36.0
437291,County,2020/05/16,48.0,TX,48401.0,Rusk County,8222.0,46228.0,177701.0,44169.0,42038.0,19374.0,26655.0,28537.0,12765.0,2826.0,1108.0,189.0,40.0
438919,County,2020/05/17,48.0,TX,48401.0,Rusk County,7711.0,46739.0,170073.0,32768.0,43849.0,22304.0,25916.0,31698.0,8253.0,3402.0,1688.0,135.0,60.0
442212,County,2020/05/18,48.0,TX,48401.0,Rusk County,6545.0,47905.0,215079.0,49209.0,51391.0,26818.0,30703.0,37772.0,13458.0,3814.0,1570.0,282.0,62.0
446902,County,2020/05/19,48.0,TX,48401.0,Rusk County,6823.0,47627.0,209969.0,46011.0,50068.0,26149.0,30726.0,35884.0,14344.0,4255.0,2112.0,359.0,61.0
450078,County,2020/05/20,48.0,TX,48401.0,Rusk County,6500.0,47950.0,201433.0,39160.0,51329.0,28169.0,28128.0,35446.0,12215.0,5099.0,1610.0,239.0,38.0
452969,County,2020/05/21,48.0,TX,48401.0,Rusk County,6404.0,48046.0,208811.0,42666.0,58663.0,25511.0,29070.0,33426.0,13442.0,3719.0,1813.0,383.0,118.0
454891,County,2020/05/22,48.0,TX,48401.0,Rusk County,6556.0,47894.0,208583.0,46268.0,51415.0,26835.0,28977.0,36191.0,12868.0,3526.0,2180.0,191.0,132.0
459675,County,2020/05/23,48.0,TX,48401.0,Rusk County,6881.0,47569.0,183013.0,43887.0,46656.0,25733.0,23189.0,29595.0,9007.0,2585.0,1914.0,323.0,124.0
462879,County,2020/05/24,48.0,TX,48401.0,Rusk County,7872.0,46578.0,171270.0,45757.0,37157.0,21494.0,22336.0,28231.0,11259.0,3247.0,1513.0,142.0,134.0
466132,County,2020/05/25,48.0,TX,48401.0,Rusk County,8054.0,46396.0,167401.0,41927.0,40509.0,19047.0,22771.0,26202.0,11138.0,3629.0,1795.0,243.0,140.0
467662,County,2020/05/26,48.0,TX,48401.0,Rusk County,6573.0,47877.0,196580.0,42705.0,45187.0,22380.0,28634.0,36234.0,14687.0,4668.0,1783.0,185.0,117.0
472480,County,2020/05/27,48.0,TX,48401.0,Rusk County,6575.0,47875.0,207611.0,47188.0,51204.0,22586.0,28011.0,37422.0,15185.0,4165.0,1616.0,193.0,41.0
474014,County,2020/05/28,48.0,TX,48401.0,Rusk County,6947.0,47503.0,199798.0,42518.0,46353.0,23754.0,26763.0,36712.0,15810.0,5533.0,1976.0,346.0,33.0
478818,County,2020/05/29,48.0,TX,48401.0,Rusk County,8180.0,46270.0,203185.0,49464.0,43887.0,23614.0,24445.0,39810.0,14698.0,4999.0,2058.0,190.0,20.0
482018,County,2020/05/30,48.0,TX,48401.0,Rusk County,8254.0,46196.0,214077.0,52455.0,58672.0,26290.0,25186.0,32461.0,12490.0,4140.0,2187.0,177.0,19.0
485213,County,2020/05/31,48.0,TX,48401.0,Rusk County,8725.0,45725.0,197180.0,52410.0,51360.0,20091.0,24549.0,32376.0,10934.0,3510.0,1702.0,208.0,40.0
486840,County,2020/06/01,48.0,TX,48401.0,Rusk County,6864.0,47586.0,195218.0,47192.0,43673.0,24784.0,26492.0,33392.0,14069.0,3629.0,1739.0,208.0,40.0
491621,County,2020/06/02,48.0,TX,48401.0,Rusk County,7469.0,46981.0,187613.0,48745.0,39857.0,20227.0,24643.0,33646.0,13974.0,3645.0,2561.0,280.0,35.0
494793,County,2020/06/03,48.0,TX,48401.0,Rusk County,6605.0,47845.0,212332.0,50460.0,45623.0,26489.0,28644.0,37084.0,15622.0,5798.0,2341.0,201.0,70.0
496412,County,2020/06/04,48.0,TX,48401.0,Rusk County,6916.0,47534.0,211280.0,47765.0,45741.0,26311.0,28960.0,38846.0,16284.0,4948.0,2055.0,326.0,44.0
501188,County,2020/06/05,48.0,TX,48401.0,Rusk County,6692.0,47758.0,208307.0,40052.0,46462.0,27362.0,30331.0,40073.0,16602.0,4674.0,2415.0,259.0,77.0
504389,County,2020/06/06,48.0,TX,48401.0,Rusk County,8351.0,46099.0,182067.0,33840.0,46156.0,25017.0,27853.0,32374.0,11418.0,3799.0,1312.0,229.0,69.0
506003,County,2020/06/07,48.0,TX,48401.0,Rusk County,8115.0,46335.0,170461.0,32631.0,41298.0,22677.0,28798.0,28811.0,9989.0,3410.0,2250.0,505.0,92.0
509177,County,2020/06/08,48.0,TX,48401.0,Rusk County,6336.0,48114.0,203813.0,44343.0,44598.0,25289.0,29466.0,36057.0,16924.0,4656.0,2127.0,309.0,44.0
513955,County,2020/06/09,48.0,TX,48401.0,Rusk County,6910.0,47540.0,189372.0,40936.0,44228.0,21298.0,30289.0,33224.0,12745.0,4369.0,1813.0,380.0,90.0
515585,County,2020/06/10,48.0,TX,48401.0,Rusk County,6848.0,47602.0,199933.0,43167.0,46102.0,22462.0,32312.0,34230.0,13905.0,5219.0,2145.0,312.0,79.0
518789,County,2020/06/11,48.0,TX,48401.0,Rusk County,7062.0,47388.0,214829.0,47987.0,50038.0,25476.0,31726.0,36194.0,15973.0,4959.0,2233.0,189.0,54.0
521992,County,2020/06/12,48.0,TX,48401.0,Rusk County,6670.0,47780.0,203519.0,44870.0,50210.0,22956.0,25933.0,35622.0,16548.0,4177.0,2792.0,390.0,21.0
525168,County,2020/06/13,48.0,TX,48401.0,Rusk County,7432.0,47018.0,201692.0,49800.0,49137.0,24515.0,25086.0,31118.0,14634.0,4927.0,2078.0,357.0,40.0
529932,County,2020/06/14,48.0,TX,48401.0,Rusk County,8251.0,46199.0,164660.0,39036.0,33568.0,18711.0,25146.0,31449.0,11171.0,3218.0,2106.0,175.0,80.0
531560,County,2020/06/15,48.0,TX,48401.0,Rusk County,7693.0,46757.0,191479.0,47151.0,44725.0,21980.0,24053.0,34300.0,13446.0,3682.0,1766.0,348.0,28.0
536341,County,2020/06/16,48.0,TX,48401.0,Rusk County,7032.0,47418.0,196608.0,45048.0,46424.0,22059.0,27056.0,35334.0,14137.0,4354.0,1809.0,360.0,27.0
537943,County,2020/06/17,48.0,TX,48401.0,Rusk County,7061.0,47389.0,202349.0,47876.0,44184.0,23306.0,28299.0,37657.0,14281.0,4762.0,1680.0,281.0,23.0
542704,County,2020/06/18,48.0,TX,48401.0,Rusk County,7034.0,47416.0,198955.0,45804.0,41405.0,23244.0,30103.0,36776.0,14734.0,4347.0,2034.0,493.0,15.0
544331,County,2020/06/19,48.0,TX,48401.0,Rusk County,7193.0,47257.0,183902.0,39144.0,42346.0,20606.0,23694.0,36539.0,14909.0,4583.0,1921.0,144.0,16.0
547536,County,2020/06/20,48.0,TX,48401.0,Rusk County,7938.0,46512.0,173209.0,38734.0,41084.0,20939.0,22974.0,31874.0,11887.0,3586.0,1853.0,229.0,49.0
552279,County,2020/06/21,48.0,TX,48401.0,Rusk County,9223.0,45227.0,164024.0,36118.0,39050.0,19374.0,22295.0,32506.0,9847.0,3012.0,1488.0,305.0,29.0
553915,County,2020/06/22,48.0,TX,48401.0,Rusk County,7318.0,47132.0,169467.0,36152.0,43607.0,18972.0,23882.0,27428.0,12924.0,4084.0,2203.0,160.0,55.0
558675,County,2020/06/23,48.0,TX,48401.0,Rusk County,7027.0,47423.0,191198.0,42564.0,44048.0,23017.0,25351.0,34015.0,14977.0,4981.0,1859.0,347.0,39.0
560306,County,2020/06/24,48.0,TX,48401.0,Rusk County,7471.0,46979.0,170144.0,37374.0,35907.0,20001.0,23056.0,33476.0,13594.0,3940.0,2446.0,314.0,36.0
565043,County,2020/06/25,48.0,TX,48401.0,Rusk County,7674.0,46776.0,188106.0,42296.0,41530.0,20206.0,28648.0,33507.0,14250.0,4971.0,2375.0,262.0,61.0
566749,County,2020/06/26,48.0,TX,48401.0,Rusk County,7566.0,46884.0,191037.0,42725.0,47618.0,22810.0,24249.0,34078.0,13464.0,3816.0,1980.0,246.0,51.0
569871,County,2020/06/27,48.0,TX,48401.0,Rusk County,7791.0,46659.0,189032.0,40308.0,46074.0,24474.0,26177.0,32680.0,13440.0,3449.0,2058.0,326.0,46.0
574667,County,2020/06/28,48.0,TX,48401.0,Rusk County,8635.0,45815.0,176237.0,36032.0,46966.0,20686.0,25706.0,29169.0,11548.0,3883.0,1957.0,258.0,32.0
577840,County,2020/06/29,48.0,TX,48401.0,Rusk County,8256.0,46194.0,184345.0,40334.0,40993.0,23359.0,26934.0,32478.0,14557.0,4197.0,1312.0,112.0,69.0
579483,County,2020/06/30,48.0,TX,48401.0,Rusk County,7828.0,46622.0,177931.0,39789.0,41494.0,20964.0,24423.0,34405.0,11343.0,3742.0,1487.0,156.0,128.0
582686,County,2020/07/01,48.0,TX,48401.0,Rusk County,7425.0,47025.0,174439.0,35899.0,39662.0,20841.0,23605.0,33881.0,14086.0,4256.0,1950.0,146.0,113.0
587419,County,2020/07/02,48.0,TX,48401.0,Rusk County,7967.0,46483.0,199656.0,44893.0,44080.0,21447.0,30407.0,35564.0,15125.0,5276.0,2521.0,278.0,65.0
589059,County,2020/07/03,48.0,TX,48401.0,Rusk County,9140.0,45310.0,189961.0,42484.0,47350.0,22681.0,24112.0,33886.0,13388.0,3795.0,1969.0,245.0,51.0
592264,County,2020/07/04,48.0,TX,48401.0,Rusk County,9546.0,44904.0,162515.0,36346.0,40509.0,19405.0,20629.0,28990.0,11454.0,3246.0,1684.0,209.0,43.0
595504,County,2020/07/05,48.0,TX,48401.0,Rusk County,8957.0,45493.0,148476.0,31911.0,38947.0,19849.0,20799.0,22060.0,9653.0,2839.0,1923.0,365.0,130.0
600196,County,2020/07/06,48.0,TX,48401.0,Rusk County,8303.0,46147.0,153025.0,28955.0,34830.0,17879.0,25280.0,27696.0,11707.0,3902.0,2341.0,319.0,116.0
602215,County,2020/07/07,48.0,TX,48401.0,Rusk County,8458.0,45992.0,159388.0,32879.0,40398.0,17018.0,22180.0,27129.0,12244.0,4373.0,2767.0,299.0,101.0
606583,County,2020/07/08,48.0,TX,48401.0,Rusk County,7968.0,46482.0,172269.0,39415.0,41984.0,18195.0,25159.0,28387.0,12451.0,4278.0,1956.0,328.0,116.0
609786,County,2020/07/09,48.0,TX,48401.0,Rusk County,7811.0,46639.0,175051.0,37150.0,43119.0,18000.0,24305.0,32788.0,12613.0,3937.0,2740.0,267.0,132.0
612992,County,2020/07/10,48.0,TX,48401.0,Rusk County,7785.0,46665.0,170541.0,34254.0,41421.0,19289.0,20737.0,34770.0,12936.0,4199.0,2522.0,250.0,163.0
614621,County,2020/07/11,48.0,TX,48401.0,Rusk County,8601.0,45849.0,160943.0,31378.0,36297.0,20022.0,23514.0,30497.0,12416.0,3778.0,2647.0,306.0,88.0
617792,County,2020/07/12,48.0,TX,48401.0,Rusk County,9084.0,45366.0,147139.0,32495.0,39046.0,16377.0,20537.0,22416.0,10363.0,2937.0,2472.0,267.0,229.0
620981,County,2020/07/13,48.0,TX,48401.0,Rusk County,7668.0,46782.0,171650.0,37564.0,38670.0,18012.0,25641.0,31488.0,13253.0,3926.0,2634.0,331.0,131.0
624182,County,2020/07/14,48.0,TX,48401.0,Rusk County,7835.0,46615.0,188512.0,40846.0,45925.0,23176.0,26410.0,32765.0,13199.0,3837.0,2171.0,101.0,82.0
627304,County,2020/07/15,48.0,TX,48401.0,Rusk County,7729.0,46721.0,187897.0,41211.0,44145.0,21499.0,26850.0,34684.0,12938.0,4400.0,1725.0,413.0,32.0
630545,County,2020/07/16,48.0,TX,48401.0,Rusk County,8198.0,46252.0,181887.0,33301.0,46341.0,20141.0,25686.0,35271.0,14377.0,4584.0,1952.0,200.0,34.0
633752,County,2020/07/17,48.0,TX,48401.0,Rusk County,8512.0,45938.0,188450.0,39924.0,45933.0,21690.0,23957.0,38165.0,13296.0,3768.0,1560.0,157.0,0.0
638532,County,2020/07/18,48.0,TX,48401.0,Rusk County,8937.0,45513.0,171854.0,39947.0,39460.0,21717.0,22862.0,31059.0,10934.0,4232.0,1433.0,189.0,21.0
641736,County,2020/07/19,48.0,TX,48401.0,Rusk County,10118.0,44332.0,150511.0,30013.0,41176.0,18349.0,21997.0,25417.0,8763.0,1898.0,2397.0,415.0,86.0
644943,County,2020/07/20,48.0,TX,48401.0,Rusk County,8947.0,45503.0,178192.0,37091.0,39842.0,19305.0,26598.0,34974.0,14033.0,4652.0,1416.0,277.0,4.0
646914,County,2020/07/21,48.0,TX,48401.0,Rusk County,8117.0,46333.0,179412.0,40704.0,42505.0,16956.0,25099.0,33042.0,14983.0,3846.0,1866.0,325.0,86.0
651299,County,2020/07/22,48.0,TX,48401.0,Rusk County,8045.0,46405.0,177268.0,37090.0,42781.0,21954.0,23191.0,31910.0,13650.0,4404.0,1969.0,252.0,67.0
654494,County,2020/07/23,48.0,TX,48401.0,Rusk County,8396.0,46054.0,180723.0,44092.0,37814.0,20863.0,24473.0,32413.0,14603.0,4283.0,1783.0,325.0,74.0
655965,County,2020/07/24,48.0,TX,48401.0,Rusk County,7203.0,47247.0,195649.0,41963.0,44040.0,23794.0,28034.0,34512.0,16761.0,4160.0,2056.0,243.0,86.0
659310,County,2020/07/25,48.0,TX,48401.0,Rusk County,8401.0,46049.0,178481.0,44121.0,41876.0,20378.0,25968.0,26355.0,14067.0,3620.0,1851.0,177.0,68.0
662510,County,2020/07/26,48.0,TX,48401.0,Rusk County,8734.0,45716.0,179236.0,40995.0,42889.0,24860.0,26198.0,28002.0,10031.0,3281.0,2464.0,319.0,197.0
665804,County,2020/07/27,48.0,TX,48401.0,Rusk County,8162.0,46288.0,199471.0,46891.0,45211.0,21195.0,27952.0,37719.0,14432.0,3373.0,2242.0,269.0,187.0
668967,County,2020/07/28,48.0,TX,48401.0,Rusk County,7683.0,46767.0,198555.0,44200.0,45946.0,22000.0,29019.0,34484.0,16394.0,4121.0,2010.0,278.0,103.0
672173,County,2020/07/29,48.0,TX,48401.0,Rusk County,8045.0,46405.0,200166.0,44905.0,45593.0,26368.0,28179.0,34246.0,14983.0,2852.0,2655.0,281.0,104.0
675286,County,2020/07/30,48.0,TX,48401.0,Rusk County,7509.0,46941.0,200825.0,44863.0,49142.0,22218.0,28506.0,34968.0,14189.0,4290.0,2286.0,207.0,156.0
680064,County,2020/07/31,48.0,TX,48401.0,Rusk County,7991.0,46459.0,175027.0,36364.0,37833.0,21085.0,26018.0,32971.0,13244.0,4100.0,2853.0,398.0,161.0
683233,County,2020/08/01,48.0,TX,48401.0,Rusk County,8964.0,45486.0,165512.0,30450.0,38407.0,19145.0,26087.0,31856.0,12589.0,3624.0,2917.0,306.0,131.0
684867,County,2020/08/02,48.0,TX,48401.0,Rusk County,9292.0,45158.0,165538.0,36225.0,39826.0,18412.0,26202.0,27588.0,10980.0,3890.0,2216.0,127.0,72.0
688064,County,2020/08/03,48.0,TX,48401.0,Rusk County,8136.0,46314.0,184226.0,39296.0,43983.0,19682.0,24430.0,33138.0,17132.0,4722.0,1456.0,364.0,23.0
692839,County,2020/08/04,48.0,TX,48401.0,Rusk County,7347.0,47103.0,197525.0,40792.0,49218.0,24741.0,27731.0,33895.0,15435.0,3378.0,1986.0,306.0,43.0
694467,County,2020/08/05,48.0,TX,48401.0,Rusk County,7636.0,46814.0,183187.0,39216.0,41636.0,23135.0,27103.0,31936.0,14468.0,3661.0,1837.0,144.0,51.0
699210,County,2020/08/06,48.0,TX,48401.0,Rusk County,7379.0,47071.0,203875.0,48514.0,44427.0,23502.0,30932.0,35739.0,14737.0,4259.0,1468.0,289.0,8.0
702406,County,2020/08/07,48.0,TX,48401.0,Rusk County,7740.0,46710.0,187681.0,40106.0,41848.0,22874.0,27393.0,34533.0,14438.0,4474.0,1652.0,351.0,12.0
704035,County,2020/08/08,48.0,TX,48401.0,Rusk County,8521.0,45929.0,165562.0,34483.0,34488.0,21305.0,23340.0,32957.0,12162.0,4299.0,2357.0,147.0,24.0
707225,County,2020/08/09,48.0,TX,48401.0,Rusk County,9620.0,44830.0,153061.0,27889.0,35044.0,18512.0,23646.0,30524.0,10584.0,4182.0,2347.0,322.0,11.0
711986,County,2020/08/10,48.0,TX,48401.0,Rusk County,8509.0,45941.0,163566.0,28789.0,34027.0,17095.0,26118.0,32810.0,16970.0,5639.0,1885.0,210.0,23.0
713663,County,2020/08/11,48.0,TX,48401.0,Rusk County,7990.0,46460.0,178443.0,34448.0,40540.0,17507.0,24102.0,38986.0,16830.0,3844.0,1790.0,383.0,13.0
718374,County,2020/08/12,48.0,TX,48401.0,Rusk County,7977.0,46473.0,169469.0,30994.0,37898.0,17294.0,23722.0,36179.0,16650.0,3954.0,2124.0,515.0,139.0
721568,County,2020/08/13,48.0,TX,48401.0,Rusk County,7277.0,47173.0,168678.0,31032.0,36001.0,18659.0,27448.0,33592.0,15752.0,3510.0,2119.0,370.0,195.0
723195,County,2020/08/14,48.0,TX,48401.0,Rusk County,6688.0,47762.0,186300.0,31595.0,42153.0,23541.0,27449.0,36067.0,17345.0,4706.0,2899.0,341.0,204.0
726426,County,2020/08/15,48.0,TX,48401.0,Rusk County,8097.0,46353.0,162771.0,33052.0,34355.0,20470.0,24297.0,30280.0,12995.0,4302.0,2530.0,270.0,220.0
729585,County,2020/08/16,48.0,TX,48401.0,Rusk County,8924.0,45526.0,162962.0,31806.0,38661.0,19143.0,21885.0,31611.0,11362.0,4613.0,3031.0,573.0,277.0
734365,County,2020/08/17,48.0,TX,48401.0,Rusk County,8179.0,46271.0,174111.0,33110.0,37855.0,17884.0,26815.0,35322.0,15535.0,4322.0,2655.0,349.0,264.0
735994,County,2020/08/18,48.0,TX,48401.0,Rusk County,8629.0,45821.0,164107.0,28850.0,33977.0,17202.0,25574.0,36655.0,14599.0,3635.0,2893.0,449.0,273.0
740732,County,2020/08/19,48.0,TX,48401.0,Rusk County,7585.0,46865.0,178512.0,34829.0,40327.0,20095.0,25819.0,33089.0,15443.0,5919.0,2281.0,483.0,227.0
742361,County,2020/08/20,48.0,TX,48401.0,Rusk County,7311.0,47139.0,174913.0,35350.0,34455.0,18693.0,24209.0,38121.0,15210.0,5314.0,3036.0,297.0,228.0
747136,County,2020/08/21,48.0,TX,48401.0,Rusk County,7053.0,47397.0,193738.0,36784.0,43083.0,20714.0,27049.0,37924.0,17840.0,6640.0,3003.0,431.0,270.0
750341,County,2020/08/22,48.0,TX,48401.0,Rusk County,7767.0,46683.0,182502.0,38741.0,40613.0,21062.0,24406.0,32509.0,16399.0,5333.0,2842.0,398.0,199.0
753510,County,2020/08/23,48.0,TX,48401.0,Rusk County,9573.0,44877.0,136826.0,25620.0,28353.0,17480.0,22401.0,25572.0,10785.0,3640.0,2390.0,320.0,265.0
756702,County,2020/08/24,48.0,TX,48401.0,Rusk County,9001.0,45449.0,155815.0,29646.0,32650.0,16637.0,23198.0,32452.0,13449.0,4754.0,2493.0,379.0,157.0
758331,County,2020/08/25,48.0,TX,48401.0,Rusk County,8193.0,46257.0,158798.0,31211.0,33192.0,16830.0,21332.0,34361.0,14198.0,4626.0,2520.0,317.0,211.0
763102,County,2020/08/26,48.0,TX,48401.0,Rusk County,8027.0,46423.0,158296.0,31339.0,35515.0,13802.0,23600.0,31330.0,15339.0,4794.0,2073.0,343.0,161.0
766298,County,2020/08/27,48.0,TX,48401.0,Rusk County,8810.0,45640.0,129441.0,24767.0,28002.0,14043.0,18958.0,26552.0,11555.0,3112.0,1918.0,364.0,170.0
769465,County,2020/08/28,48.0,TX,48401.0,Rusk County,8119.0,46331.0,151711.0,29375.0,31767.0,17599.0,20748.0,30554.0,14186.0,4559.0,2487.0,295.0,141.0
772665,County,2020/08/29,48.0,TX,48401.0,Rusk County,8281.0,46169.0,160661.0,29237.0,34420.0,17634.0,24847.0,33458.0,14852.0,3400.0,2232.0,373.0,208.0
774339,County,2020/08/30,48.0,TX,48401.0,Rusk County,9533.0,44917.0,140486.0,22799.0,31962.0,15974.0,24870.0,25457.0,12091.0,4485.0,2074.0,553.0,221.0
779062,County,2020/08/31,48.0,TX,48401.0,Rusk County,8361.0,46089.0,158889.0,30044.0,37466.0,16212.0,21339.0,31980.0,15086.0,3342.0,2708.0,495.0,217.0
780673,County,2020/09/01,48.0,TX,48401.0,Rusk County,8026.0,46424.0,169375.0,30465.0,39326.0,17843.0,24255.0,33100.0,15895.0,5300.0,2648.0,429.0,114.0
784698,County,2020/09/02,48.0,TX,48401.0,Rusk County,8062.0,46388.0,166551.0,33495.0,35173.0,16428.0,24492.0,34678.0,15295.0,4070.0,2366.0,411.0,143.0
788657,County,2020/09/03,48.0,TX,48401.0,Rusk County,7561.0,46889.0,177650.0,35542.0,41494.0,17160.0,24214.0,36037.0,15403.0,4763.0,2365.0,485.0,187.0
790272,County,2020/09/04,48.0,TX,48401.0,Rusk County,8292.0,46158.0,165359.0,33386.0,37093.0,14567.0,23556.0,33890.0,13432.0,5472.0,3274.0,522.0,167.0
795033,County,2020/09/05,48.0,TX,48401.0,Rusk County,8578.0,45872.0,181216.0,40537.0,38628.0,19173.0,24705.0,35622.0,15668.0,4622.0,1850.0,291.0,120.0
798237,County,2020/09/06,48.0,TX,48401.0,Rusk County,9691.0,44759.0,146184.0,25944.0,35128.0,17226.0,21134.0,29385.0,11112.0,3149.0,2371.0,612.0,123.0
801446,County,2020/09/07,48.0,TX,48401.0,Rusk County,10234.0,44216.0,143427.0,25769.0,31379.0,15755.0,20820.0,30189.0,12375.0,3571.0,2812.0,592.0,165.0
804612,County,2020/09/08,48.0,TX,48401.0,Rusk County,8467.0,45983.0,169036.0,32662.0,35738.0,15782.0,24670.0,37916.0,14221.0,4837.0,2531.0,510.0,169.0
806241,County,2020/09/09,48.0,TX,48401.0,Rusk County,8183.0,46267.0,172742.0,32145.0,34154.0,16703.0,28510.0,37467.0,16017.0,4601.0,2571.0,404.0,170.0
811009,County,2020/09/10,48.0,TX,48401.0,Rusk County,8038.0,46412.0,168640.0,29872.0,36078.0,16921.0,23690.0,37199.0,16757.0,5399.0,2241.0,306.0,177.0
812638,County,2020/09/11,48.0,TX,48401.0,Rusk County,7378.0,47072.0,179457.0,31316.0,41687.0,16613.0,25527.0,41038.0,14133.0,5567.0,2988.0,466.0,122.0
817388,County,2020/09/12,48.0,TX,48401.0,Rusk County,8837.0,45613.0,166280.0,31770.0,35021.0,16820.0,23397.0,34355.0,16414.0,5880.0,2197.0,301.0,125.0
818995,County,2020/09/13,48.0,TX,48401.0,Rusk County,9760.0,44690.0,145299.0,24477.0,36242.0,17408.0,20308.0,28855.0,11827.0,3705.0,1878.0,324.0,275.0
823777,County,2020/09/14,48.0,TX,48401.0,Rusk County,8207.0,46243.0,161551.0,27091.0,37628.0,18341.0,21298.0,35165.0,14560.0,4655.0,2314.0,324.0,175.0
825405,County,2020/09/15,48.0,TX,48401.0,Rusk County,8094.0,46356.0,174923.0,34874.0,38256.0,17478.0,25349.0,37402.0,14122.0,4699.0,2205.0,360.0,178.0
828646,County,2020/09/16,48.0,TX,48401.0,Rusk County,7935.0,46515.0,172363.0,31823.0,38102.0,20447.0,23688.0,36129.0,14979.0,4089.0,2514.0,417.0,175.0
831791,County,2020/09/17,48.0,TX,48401.0,Rusk County,7829.0,46621.0,180289.0,30961.0,43177.0,18313.0,23644.0,38471.0,17326.0,4957.0,2695.0,612.0,133.0
836552,County,2020/09/18,48.0,TX,48401.0,Rusk County,7787.0,46663.0,191356.0,35597.0,42594.0,21449.0,27008.0,39720.0,15834.0,4926.0,3413.0,700.0,115.0
838181,County,2020/09/19,48.0,TX,48401.0,Rusk County,8154.0,46296.0,170828.0,29411.0,41406.0,18743.0,22209.0,34393.0,17112.0,4339.0,2737.0,358.0,120.0
842956,County,2020/09/20,48.0,TX,48401.0,Rusk County,9468.0,44982.0,144356.0,28731.0,32680.0,18608.0,20635.0,26404.0,10461.0,3528.0,2863.0,357.0,89.0
846161,County,2020/09/21,48.0,TX,48401.0,Rusk County,10116.0,44334.0,140240.0,24887.0,30442.0,13502.0,21893.0,31083.0,12336.0,3599.0,2147.0,326.0,25.0
849328,County,2020/09/22,48.0,TX,48401.0,Rusk County,9024.0,45426.0,152105.0,27850.0,34205.0,15175.0,22209.0,34160.0,12797.0,3880.0,1390.0,414.0,25.0
850956,County,2020/09/23,48.0,TX,48401.0,Rusk County,8131.0,46319.0,159225.0,28794.0,37084.0,17160.0,23354.0,34925.0,12426.0,4087.0,1048.0,312.0,35.0
855722,County,2020/09/24,48.0,TX,48401.0,Rusk County,8030.0,46420.0,170037.0,31692.0,40400.0,19397.0,24639.0,33965.0,13577.0,3893.0,2289.0,170.0,15.0
857351,County,2020/09/25,48.0,TX,48401.0,Rusk County,7791.0,46659.0,175758.0,32606.0,38633.0,18752.0,22697.0,38171.0,17097.0,5166.0,2177.0,444.0,15.0
860537,County,2020/09/26,48.0,TX,48401.0,Rusk County,8845.0,45605.0,159436.0,28570.0,37161.0,15603.0,25854.0,31053.0,14210.0,4350.0,2305.0,295.0,35.0
863709,County,2020/09/27,48.0,TX,48401.0,Rusk County,9546.0,44904.0,146854.0,25789.0,31031.0,19225.0,21946.0,32038.0,11681.0,2668.0,2203.0,264.0,9.0
868492,County,2020/09/28,48.0,TX,48401.0,Rusk County,7935.0,46515.0,163682.0,30313.0,33155.0,19994.0,24361.0,35322.0,13514.0,4701.0,1926.0,381.0,15.0
870120,County,2020/09/29,48.0,TX,48401.0,Rusk County,7906.0,46544.0,173054.0,29608.0,38603.0,20145.0,26911.0,35932.0,14189.0,5239.0,2114.0,267.0,46.0
874899,County,2020/09/30,48.0,TX,48401.0,Rusk County,9132.0,45318.0,173633.0,30830.0,44403.0,16377.0,24759.0,34820.0,13996.0,6120.0,2097.0,172.0,59.0
876527,County,2020/10/01,48.0,TX,48401.0,Rusk County,7743.0,46707.0,166943.0,26780.0,35327.0,18193.0,28556.0,35122.0,15845.0,4491.0,2295.0,272.0,62.0
881268,County,2020/10/02,48.0,TX,48401.0,Rusk County,7841.0,46609.0,183713.0,37943.0,41543.0,18451.0,27920.0,35084.0,15453.0,4560.0,2515.0,195.0,49.0
884463,County,2020/10/03,48.0,TX,48401.0,Rusk County,8734.0,45716.0,160795.0,29205.0,31441.0,18628.0,25235.0,33471.0,14682.0,5224.0,2680.0,177.0,52.0
887411,County,2020/10/04,48.0,TX,48401.0,Rusk County,9810.0,44640.0,140105.0,24044.0,30306.0,15863.0,23209.0,27170.0,12583.0,4413.0,2100.0,370.0,47.0
890655,County,2020/10/05,48.0,TX,48401.0,Rusk County,9806.0,44644.0,148307.0,26002.0,31820.0,17456.0,19962.0,32700.0,13693.0,4517.0,1945.0,153.0,59.0
893844,County,2020/10/06,48.0,TX,48401.0,Rusk County,8906.0,45544.0,163643.0,31962.0,35691.0,17551.0,24511.0,32543.0,14573.0,4970.0,1554.0,235.0,53.0
897041,County,2020/10/07,48.0,TX,48401.0,Rusk County,8313.0,46137.0,158297.0,26870.0,36303.0,18407.0,20955.0,33273.0,15625.0,5201.0,1435.0,167.0,61.0
900208,County,2020/10/08,48.0,TX,48401.0,Rusk County,8253.0,46197.0,152811.0,26582.0,33173.0,16552.0,20675.0,33272.0,15934.0,4324.0,2078.0,176.0,45.0
903401,County,2020/10/09,48.0,TX,48401.0,Rusk County,8772.0,45678.0,154178.0,31079.0,33228.0,16302.0,22516.0,31494.0,11800.0,5142.0,2353.0,215.0,49.0
906595,County,2020/10/10,48.0,TX,48401.0,Rusk County,9901.0,44549.0,153585.0,28926.0,31519.0,14988.0,25536.0,31286.0,14672.0,4637.0,1847.0,138.0,36.0
907523,County,2020/10/11,48.0,TX,48401.0,Rusk County,9557.0,44893.0,138019.0,25962.0,30588.0,16610.0,20237.0,27830.0,9853.0,3988.0,2617.0,290.0,44.0
910749,County,2020/10/12,48.0,TX,48401.0,Rusk County,8892.0,45558.0,159103.0,25903.0,37269.0,17536.0,21662.0,32943.0,15560.0,5714.0,2353.0,139.0,24.0
913686,County,2020/10/13,48.0,TX,48401.0,Rusk County,8262.0,46188.0,167799.0,32122.0,35942.0,18623.0,24377.0,34224.0,15665.0,4633.0,1906.0,280.0,27.0
917147,County,2020/10/14,48.0,TX,48401.0,Rusk County,8020.0,46430.0,164091.0,29565.0,36486.0,15886.0,22896.0,33838.0,18146.0,5253.0,1793.0,190.0,38.0
920421,County,2020/10/15,48.0,TX,48401.0,Rusk County,8229.0,46221.0,148764.0,23764.0,30167.0,17179.0,21691.0,33088.0,14995.0,5652.0,1879.0,294.0,55.0
923831,County,2020/10/16,48.0,TX,48401.0,Rusk County,7732.0,46718.0,170386.0,29748.0,36235.0,22074.0,24935.0,33260.0,15817.0,5877.0,2129.0,278.0,33.0
927487,County,2020/10/17,48.0,TX,48401.0,Rusk County,8662.0,45788.0,160927.0,27773.0,36540.0,17530.0,25451.0,32797.0,13089.0,5007.0,2483.0,209.0,48.0
929570,County,2020/10/18,48.0,TX,48401.0,Rusk County,9557.0,44893.0,142822.0,26061.0,30496.0,15101.0,19438.0,29995.0,14642.0,4945.0,1958.0,147.0,39.0
933421,County,2020/10/19,48.0,TX,48401.0,Rusk County,8249.0,46201.0,172028.0,33518.0,37816.0,18393.0,23852.0,36277.0,14324.0,5764.0,1961.0,92.0,31.0
936254,County,2020/10/20,48.0,TX,48401.0,Rusk County,7875.0,46575.0,166731.0,34060.0,35692.0,16496.0,22187.0,35289.0,15817.0,5076.0,1879.0,202.0,33.0
939309,County,2020/10/21,48.0,TX,48401.0,Rusk County,9330.0,45120.0,155811.0,27159.0,33531.0,16121.0,25699.0,31346.0,14729.0,5070.0,1872.0,254.0,30.0
942511,County,2020/10/22,48.0,TX,48401.0,Rusk County,7489.0,46961.0,178016.0,34237.0,40250.0,18986.0,25144.0,35696.0,15516.0,5768.0,2203.0,192.0,24.0
945772,County,2020/10/23,48.0,TX,48401.0,Rusk County,6939.0,47511.0,191265.0,36831.0,41781.0,22231.0,25688.0,37936.0,18403.0,6066.0,2075.0,229.0,25.0
949004,County,2020/10/24,48.0,TX,48401.0,Rusk County,8363.0,46087.0,180112.0,32459.0,36008.0,20849.0,26787.0,42901.0,14642.0,4799.0,1553.0,92.0,22.0
