,Level,Date,State FIPS,State Postal Code,County FIPS,County Name,Population Staying at Home,Population Not Staying at Home,Number of Trips,Number of Trips <1,Number of Trips 1-3,Number of Trips 3-5,Number of Trips 5-10,Number of Trips 10-25,Number of Trips 25-50,Number of Trips 50-100,Number of Trips 100-250,Number of Trips 250-500,Number of Trips >=500
1164,County,2020/01/01,22.0,LA,22103.0,St. Tammany Parish,63893.0,194218.0,669200.0,141129.0,171129.0,90862.0,106236.0,69925.0,65507.0,16577.0,5548.0,1393.0,894.0
3404,County,2020/01/02,22.0,LA,22103.0,St. Tammany Parish,51098.0,207013.0,845795.0,172335.0,218792.0,113656.0,138586.0,82751.0,92326.0,19397.0,6122.0,1293.0,537.0
7455,County,2020/01/03,22.0,LA,22103.0,St. Tammany Parish,49379.0,208732.0,850071.0,161464.0,216489.0,116888.0,136733.0,91118.0,96032.0,22255.0,6747.0,1627.0,718.0
9638,County,2020/01/04,22.0,LA,22103.0,St. Tammany Parish,52984.0,205127.0,867381.0,172908.0,228651.0,124611.0,148107.0,87158.0,79988.0,18292.0,5713.0,1239.0,714.0
13940,County,2020/01/05,22.0,LA,22103.0,St. Tammany Parish,62162.0,195949.0,709101.0,149216.0,187651.0,100784.0,112529.0,65819.0,66596.0,16090.0,7200.0,2273.0,943.0
16497,County,2020/01/06,22.0,LA,22103.0,St. Tammany Parish,48247.0,209864.0,897087.0,185134.0,227472.0,119730.0,144925.0,87804.0,104979.0,19331.0,5604.0,1214.0,894.0
19751,County,2020/01/07,22.0,LA,22103.0,St. Tammany Parish,47352.0,210759.0,906759.0,193914.0,223956.0,114965.0,149413.0,92561.0,105700.0,19602.0,4980.0,918.0,750.0
22934,County,2020/01/08,22.0,LA,22103.0,St. Tammany Parish,46511.0,211600.0,941038.0,204785.0,234887.0,122404.0,150355.0,92777.0,106441.0,22276.0,5687.0,753.0,673.0
26129,County,2020/01/09,22.0,LA,22103.0,St. Tammany Parish,47068.0,211043.0,913023.0,190177.0,236786.0,116963.0,142792.0,93880.0,103371.0,21418.0,6160.0,892.0,584.0
29324,County,2020/01/10,22.0,LA,22103.0,St. Tammany Parish,45491.0,212620.0,972886.0,201671.0,248868.0,135296.0,155008.0,98867.0,104047.0,21650.0,5433.0,1383.0,663.0
32565,County,2020/01/11,22.0,LA,22103.0,St. Tammany Parish,57830.0,200281.0,802204.0,169630.0,220343.0,118379.0,130698.0,76484.0,63941.0,16795.0,4514.0,864.0,556.0
35721,County,2020/01/12,22.0,LA,22103.0,St. Tammany Parish,58112.0,199999.0,760850.0,156189.0,202277.0,106302.0,124635.0,73345.0,72536.0,17660.0,6140.0,1188.0,578.0
40500,County,2020/01/13,22.0,LA,22103.0,St. Tammany Parish,50203.0,207908.0,871755.0,187615.0,223141.0,118822.0,133384.0,83392.0,99626.0,18620.0,5565.0,888.0,702.0
42126,County,2020/01/14,22.0,LA,22103.0,St. Tammany Parish,47252.0,210859.0,922660.0,197616.0,229486.0,122393.0,147586.0,89961.0,109297.0,19475.0,5359.0,886.0,601.0
45279,County,2020/01/15,22.0,LA,22103.0,St. Tammany Parish,46602.0,211509.0,951885.0,210770.0,241395.0,125058.0,150688.0,91310.0,105974.0,19785.0,5258.0,1018.0,629.0
48430,County,2020/01/16,22.0,LA,22103.0,St. Tammany Parish,45779.0,212332.0,955826.0,224975.0,233963.0,124143.0,149549.0,90432.0,104330.0,20013.0,6482.0,1032.0,907.0
51687,County,2020/01/17,22.0,LA,22103.0,St. Tammany Parish,44651.0,213460.0,1013440.0,220313.0,257955.0,132182.0,159118.0,102301.0,111668.0,20812.0,6939.0,1376.0,776.0
54871,County,2020/01/18,22.0,LA,22103.0,St. Tammany Parish,51391.0,206720.0,917729.0,198366.0,239760.0,129724.0,146784.0,86979.0,86561.0,20893.0,6772.0,1198.0,692.0
59666,County,2020/01/19,22.0,LA,22103.0,St. Tammany Parish,58157.0,199954.0,793942.0,173942.0,215286.0,111561.0,128327.0,72387.0,67790.0,15466.0,7044.0,1446.0,693.0
62829,County,2020/01/20,22.0,LA,22103.0,St. Tammany Parish,52351.0,205760.0,861339.0,183817.0,224268.0,112007.0,137363.0,84687.0,90382.0,20686.0,6058.0,1238.0,833.0
64456,County,2020/01/21,22.0,LA,22103.0,St. Tammany Parish,48302.0,209809.0,925014.0,207915.0,230206.0,115775.0,143274.0,91639.0,106862.0,22374.0,5323.0,848.0,798.0
69218,County,2020/01/22,22.0,LA,22103.0,St. Tammany Parish,45642.0,212469.0,929215.0,197220.0,227140.0,123523.0,150290.0,93387.0,108555.0,21654.0,5470.0,1260.0,716.0
70844,County,2020/01/23,22.0,LA,22103.0,St. Tammany Parish,49172.0,208939.0,919021.0,216421.0,223545.0,119536.0,138518.0,91032.0,102017.0,21188.0,4725.0,1253.0,786.0
74040,County,2020/01/24,22.0,LA,22103.0,St. Tammany Parish,44333.0,213778.0,1039113.0,232801.0,263316.0,137830.0,161270.0,101830.0,110490.0,21760.0,7602.0,1273.0,941.0
77232,County,2020/01/25,22.0,LA,22103.0,St. Tammany Parish,51835.0,206276.0,894861.0,185071.0,234814.0,125915.0,148342.0,87798.0,85571.0,19241.0,6658.0,776.0,675.0
81014,County,2020/01/26,22.0,LA,22103.0,St. Tammany Parish,61083.0,197028.0,712059.0,145175.0,199462.0,101426.0,115683.0,67237.0,61146.0,13692.0,6096.0,1331.0,811.0
85155,County,2020/01/27,22.0,LA,22103.0,St. Tammany Parish,48032.0,210079.0,945513.0,220194.0,238694.0,120309.0,141278.0,88882.0,110124.0,19360.0,4914.0,1010.0,748.0
86829,County,2020/01/28,22.0,LA,22103.0,St. Tammany Parish,46931.0,211180.0,949238.0,213059.0,236218.0,123683.0,147377.0,94140.0,108502.0,19891.0,4655.0,939.0,774.0
89984,County,2020/01/29,22.0,LA,22103.0,St. Tammany Parish,47261.0,210850.0,911466.0,201955.0,224894.0,119322.0,142855.0,88948.0,106544.0,20138.0,4945.0,1064.0,801.0
94816,County,2020/01/30,22.0,LA,22103.0,St. Tammany Parish,47604.0,210507.0,940006.0,207661.0,232420.0,125636.0,147378.0,92448.0,104455.0,21131.0,5793.0,1683.0,1401.0
96391,County,2020/01/31,22.0,LA,22103.0,St. Tammany Parish,45118.0,212993.0,1001961.0,214163.0,258111.0,134493.0,161112.0,96916.0,104605.0,22339.0,7151.0,1594.0,1477.0
99640,County,2020/02/01,22.0,LA,22103.0,St. Tammany Parish,49788.0,208323.0,936020.0,201919.0,240490.0,132679.0,156895.0,92158.0,82561.0,20305.0,6090.0,1657.0,1266.0
102768,County,2020/02/02,22.0,LA,22103.0,St. Tammany Parish,55355.0,202756.0,807128.0,181108.0,215873.0,117491.0,127030.0,77788.0,64946.0,15302.0,4946.0,1416.0,1228.0
105978,County,2020/02/03,22.0,LA,22103.0,St. Tammany Parish,45515.0,212596.0,952178.0,210252.0,240804.0,126503.0,149613.0,93391.0,102190.0,21177.0,5503.0,1426.0,1319.0
110739,County,2020/02/04,22.0,LA,22103.0,St. Tammany Parish,44119.0,213992.0,928236.0,197280.0,233300.0,119147.0,146276.0,92861.0,109205.0,21983.0,5294.0,1389.0,1501.0
112366,County,2020/02/05,22.0,LA,22103.0,St. Tammany Parish,45175.0,212936.0,923172.0,197579.0,232912.0,122406.0,146598.0,92491.0,101920.0,20955.0,5308.0,1397.0,1606.0
115462,County,2020/02/06,22.0,LA,22103.0,St. Tammany Parish,45441.0,212670.0,936512.0,202756.0,235365.0,122126.0,145776.0,94312.0,107501.0,20294.0,5744.0,1394.0,1244.0
118728,County,2020/02/07,22.0,LA,22103.0,St. Tammany Parish,41225.0,216886.0,1046866.0,221522.0,266403.0,148259.0,165433.0,103390.0,112133.0,20671.0,6769.0,1211.0,1075.0
121974,County,2020/02/08,22.0,LA,22103.0,St. Tammany Parish,47468.0,210643.0,938093.0,208810.0,242330.0,132751.0,148639.0,89086.0,89268.0,19587.0,5491.0,1156.0,975.0
125177,County,2020/02/09,22.0,LA,22103.0,St. Tammany Parish,59766.0,198345.0,783541.0,174520.0,206681.0,110877.0,125905.0,75486.0,63668.0,16833.0,6544.0,1627.0,1400.0
129473,County,2020/02/10,22.0,LA,22103.0,St. Tammany Parish,44986.0,213125.0,995858.0,221954.0,251430.0,132799.0,148189.0,98018.0,110980.0,22972.0,5985.0,1607.0,1924.0
133723,County,2020/02/11,22.0,LA,22103.0,St. Tammany Parish,41021.0,217090.0,1007328.0,219125.0,248125.0,137225.0,151286.0,99257.0,120414.0,22439.0,6226.0,1373.0,1858.0
135199,County,2020/02/12,22.0,LA,22103.0,St. Tammany Parish,43153.0,214958.0,1016843.0,221362.0,252675.0,139391.0,151218.0,98851.0,118711.0,24248.0,6216.0,1849.0,2322.0
139531,County,2020/02/13,22.0,LA,22103.0,St. Tammany Parish,42537.0,215574.0,1015111.0,210041.0,257206.0,142978.0,157519.0,97164.0,116470.0,23115.0,6622.0,1651.0,2345.0
142686,County,2020/02/14,22.0,LA,22103.0,St. Tammany Parish,39973.0,218138.0,1138732.0,240042.0,287281.0,164151.0,186434.0,109573.0,116907.0,22761.0,7339.0,1911.0,2333.0
144310,County,2020/02/15,22.0,LA,22103.0,St. Tammany Parish,47683.0,210428.0,1012430.0,216150.0,250258.0,155098.0,169235.0,95179.0,93931.0,21502.0,7269.0,1527.0,2281.0
147500,County,2020/02/16,22.0,LA,22103.0,St. Tammany Parish,57804.0,200307.0,783330.0,159599.0,198114.0,120920.0,128271.0,75447.0,69297.0,17847.0,9788.0,1948.0,2099.0
152262,County,2020/02/17,22.0,LA,22103.0,St. Tammany Parish,59483.0,198628.0,815905.0,165463.0,202349.0,116816.0,131663.0,79662.0,91580.0,18999.0,5870.0,1573.0,1930.0
155405,County,2020/02/18,22.0,LA,22103.0,St. Tammany Parish,43931.0,214180.0,971605.0,202140.0,233866.0,134599.0,155180.0,96464.0,114257.0,24453.0,6779.0,1651.0,2216.0
158648,County,2020/02/19,22.0,LA,22103.0,St. Tammany Parish,42451.0,215660.0,1012172.0,206102.0,248750.0,137632.0,161757.0,102822.0,120019.0,25213.0,6645.0,1543.0,1689.0
161844,County,2020/02/20,22.0,LA,22103.0,St. Tammany Parish,45463.0,212648.0,941093.0,186092.0,236419.0,130934.0,152353.0,93668.0,108981.0,22133.0,6878.0,2053.0,1582.0
165038,County,2020/02/21,22.0,LA,22103.0,St. Tammany Parish,43461.0,214650.0,1087250.0,231855.0,279702.0,152305.0,169435.0,105026.0,112467.0,23981.0,8292.0,2379.0,1808.0
168182,County,2020/02/22,22.0,LA,22103.0,St. Tammany Parish,46307.0,211804.0,970148.0,213567.0,234980.0,132367.0,152658.0,94578.0,105874.0,23347.0,8836.0,2281.0,1660.0
171430,County,2020/02/23,22.0,LA,22103.0,St. Tammany Parish,56264.0,201847.0,860268.0,191262.0,219899.0,112787.0,139582.0,75243.0,90514.0,21620.0,6839.0,1615.0,907.0
173056,County,2020/02/24,22.0,LA,22103.0,St. Tammany Parish,49285.0,208826.0,940184.0,197815.0,237866.0,128265.0,150765.0,90210.0,100979.0,25026.0,6418.0,1341.0,1499.0
176246,County,2020/02/25,22.0,LA,22103.0,St. Tammany Parish,50689.0,207422.0,878955.0,199510.0,211803.0,114220.0,138031.0,86105.0,96997.0,22480.0,6751.0,1362.0,1696.0
180028,County,2020/02/26,22.0,LA,22103.0,St. Tammany Parish,50229.0,207882.0,829307.0,160332.0,219025.0,112097.0,135281.0,90559.0,82807.0,19464.0,6808.0,1952.0,982.0
184195,County,2020/02/27,22.0,LA,22103.0,St. Tammany Parish,45404.0,212707.0,983307.0,200503.0,247301.0,133034.0,159331.0,101051.0,108883.0,22660.0,7379.0,1770.0,1395.0
185922,County,2020/02/28,22.0,LA,22103.0,St. Tammany Parish,43900.0,214211.0,1056267.0,209837.0,273255.0,142383.0,168251.0,107963.0,115042.0,27551.0,8628.0,1981.0,1376.0
189023,County,2020/02/29,22.0,LA,22103.0,St. Tammany Parish,47637.0,210474.0,1012196.0,215342.0,257406.0,142500.0,170362.0,102469.0,88876.0,24125.0,7752.0,1839.0,1525.0
192213,County,2020/03/01,22.0,LA,22103.0,St. Tammany Parish,53269.0,204842.0,811760.0,167028.0,211466.0,119092.0,131940.0,78988.0,68656.0,22486.0,8394.0,2388.0,1322.0
197013,County,2020/03/02,22.0,LA,22103.0,St. Tammany Parish,45529.0,212582.0,966488.0,201968.0,252097.0,129950.0,149324.0,93591.0,109119.0,21335.0,6101.0,1420.0,1583.0
198591,County,2020/03/03,22.0,LA,22103.0,St. Tammany Parish,42756.0,215355.0,970500.0,202249.0,240593.0,127273.0,148596.0,105882.0,111919.0,25300.0,6320.0,1493.0,875.0
203376,County,2020/03/04,22.0,LA,22103.0,St. Tammany Parish,42502.0,215609.0,959907.0,199259.0,243909.0,123298.0,146505.0,103194.0,111240.0,23923.0,6606.0,1273.0,700.0
204941,County,2020/03/05,22.0,LA,22103.0,St. Tammany Parish,39890.0,218221.0,994666.0,203131.0,252881.0,131222.0,155818.0,104043.0,112286.0,25902.0,7110.0,1461.0,812.0
209793,County,2020/03/06,22.0,LA,22103.0,St. Tammany Parish,40484.0,217627.0,1074272.0,221549.0,276972.0,146534.0,164364.0,109282.0,118546.0,25788.0,8967.0,1271.0,999.0
213025,County,2020/03/07,22.0,LA,22103.0,St. Tammany Parish,44945.0,213166.0,994986.0,200748.0,265927.0,143171.0,158918.0,102322.0,91250.0,22591.0,7646.0,1580.0,833.0
214576,County,2020/03/08,22.0,LA,22103.0,St. Tammany Parish,53720.0,204391.0,850840.0,181852.0,232461.0,120174.0,136321.0,77541.0,71133.0,19748.0,8932.0,1658.0,1020.0
217778,County,2020/03/09,22.0,LA,22103.0,St. Tammany Parish,45859.0,212252.0,953434.0,207512.0,229247.0,125653.0,154167.0,97227.0,105148.0,25066.0,7336.0,1134.0,944.0
220964,County,2020/03/10,22.0,LA,22103.0,St. Tammany Parish,44117.0,213994.0,952619.0,198066.0,228746.0,121849.0,154025.0,102660.0,112965.0,26318.0,6151.0,1086.0,753.0
224154,County,2020/03/11,22.0,LA,22103.0,St. Tammany Parish,48846.0,209265.0,932797.0,203009.0,227147.0,120793.0,140621.0,99117.0,102690.0,22835.0,10674.0,3034.0,2877.0
227386,County,2020/03/12,22.0,LA,22103.0,St. Tammany Parish,50872.0,207239.0,953928.0,215940.0,245581.0,117914.0,137244.0,98204.0,101308.0,23836.0,7787.0,3745.0,2369.0
230545,County,2020/03/13,22.0,LA,22103.0,St. Tammany Parish,50670.0,207441.0,1032599.0,242642.0,272203.0,124530.0,157884.0,104386.0,94326.0,22798.0,8136.0,3769.0,1925.0
233744,County,2020/03/14,22.0,LA,22103.0,St. Tammany Parish,61359.0,196752.0,882878.0,209802.0,241877.0,103750.0,135328.0,82855.0,69364.0,25369.0,8200.0,3664.0,2669.0
236932,County,2020/03/15,22.0,LA,22103.0,St. Tammany Parish,65941.0,192170.0,784409.0,177489.0,215948.0,104882.0,128275.0,75779.0,56441.0,16263.0,6845.0,1748.0,739.0
240126,County,2020/03/16,22.0,LA,22103.0,St. Tammany Parish,55260.0,202851.0,917691.0,195669.0,231251.0,121755.0,145696.0,96371.0,94376.0,23027.0,7347.0,1389.0,810.0
244932,County,2020/03/17,22.0,LA,22103.0,St. Tammany Parish,61006.0,197105.0,845940.0,190627.0,213038.0,107460.0,127369.0,87906.0,89813.0,20687.0,6990.0,1260.0,790.0
246512,County,2020/03/18,22.0,LA,22103.0,St. Tammany Parish,63689.0,194422.0,851964.0,192077.0,213652.0,106877.0,135397.0,89355.0,85939.0,19386.0,6923.0,1433.0,925.0
249718,County,2020/03/19,22.0,LA,22103.0,St. Tammany Parish,66602.0,191509.0,833792.0,189200.0,207865.0,110320.0,128840.0,85929.0,85293.0,17648.0,6687.0,1334.0,676.0
254470,County,2020/03/20,22.0,LA,22103.0,St. Tammany Parish,66527.0,191584.0,843948.0,184472.0,221189.0,113934.0,128291.0,87906.0,80246.0,17852.0,7707.0,1386.0,965.0
257662,County,2020/03/21,22.0,LA,22103.0,St. Tammany Parish,76808.0,181303.0,731983.0,170848.0,204245.0,99688.0,115325.0,79396.0,40050.0,13943.0,5828.0,1745.0,915.0
259282,County,2020/03/22,22.0,LA,22103.0,St. Tammany Parish,75692.0,182419.0,592559.0,136015.0,161818.0,82607.0,95079.0,58841.0,39177.0,11824.0,4786.0,1582.0,830.0
264061,County,2020/03/23,22.0,LA,22103.0,St. Tammany Parish,64039.0,194072.0,704936.0,155986.0,173574.0,94735.0,109934.0,74838.0,73777.0,14546.0,5190.0,1373.0,983.0
267242,County,2020/03/24,22.0,LA,22103.0,St. Tammany Parish,69568.0,188543.0,657038.0,145512.0,165886.0,82160.0,100801.0,74210.0,66643.0,14414.0,5124.0,1464.0,824.0
270440,County,2020/03/25,22.0,LA,22103.0,St. Tammany Parish,69220.0,188891.0,689457.0,158684.0,172838.0,87839.0,105111.0,76589.0,66601.0,15224.0,4406.0,1314.0,851.0
272066,County,2020/03/26,22.0,LA,22103.0,St. Tammany Parish,68420.0,189691.0,701369.0,154379.0,185094.0,90769.0,108667.0,76490.0,64512.0,15149.0,4549.0,1097.0,663.0
276828,County,2020/03/27,22.0,LA,22103.0,St. Tammany Parish,67432.0,190679.0,707687.0,152935.0,191795.0,97508.0,110594.0,73582.0,60871.0,13616.0,4861.0,1212.0,713.0
278455,County,2020/03/28,22.0,LA,22103.0,St. Tammany Parish,74910.0,183201.0,627860.0,140986.0,168510.0,86889.0,108703.0,67164.0,38047.0,11643.0,4088.0,1098.0,732.0
281649,County,2020/03/29,22.0,LA,22103.0,St. Tammany Parish,78351.0,179760.0,583671.0,129756.0,169091.0,77920.0,103482.0,55500.0,33307.0,9035.0,3995.0,786.0,799.0
286441,County,2020/03/30,22.0,LA,22103.0,St. Tammany Parish,69538.0,188573.0,668494.0,142426.0,167070.0,90636.0,111457.0,71933.0,63550.0,14440.0,5326.0,816.0,840.0
288038,County,2020/03/31,22.0,LA,22103.0,St. Tammany Parish,70292.0,187819.0,649770.0,140362.0,170742.0,87423.0,99665.0,67872.0,61324.0,15489.0,5278.0,1044.0,571.0
291274,County,2020/04/01,22.0,LA,22103.0,St. Tammany Parish,67980.0,190131.0,715550.0,157267.0,190374.0,100101.0,112389.0,72142.0,63892.0,13360.0,4716.0,955.0,354.0
296006,County,2020/04/02,22.0,LA,22103.0,St. Tammany Parish,68977.0,189134.0,695186.0,155704.0,182411.0,93400.0,105266.0,74759.0,63476.0,13827.0,4505.0,908.0,930.0
299185,County,2020/04/03,22.0,LA,22103.0,St. Tammany Parish,66095.0,192016.0,714066.0,156228.0,188502.0,98592.0,115972.0,73690.0,60373.0,14510.0,4722.0,856.0,621.0
300812,County,2020/04/04,22.0,LA,22103.0,St. Tammany Parish,73998.0,184113.0,638474.0,138662.0,176505.0,99067.0,108869.0,62354.0,37694.0,10277.0,3290.0,755.0,1001.0
305566,County,2020/04/05,22.0,LA,22103.0,St. Tammany Parish,78226.0,179885.0,577470.0,135562.0,154695.0,88446.0,96849.0,57726.0,30330.0,9237.0,2943.0,763.0,919.0
308767,County,2020/04/06,22.0,LA,22103.0,St. Tammany Parish,69564.0,188547.0,712733.0,168025.0,177297.0,96492.0,114788.0,75548.0,62287.0,13928.0,3122.0,607.0,639.0
312006,County,2020/04/07,22.0,LA,22103.0,St. Tammany Parish,68326.0,189785.0,678087.0,157239.0,170502.0,87208.0,107055.0,75439.0,62464.0,12767.0,4589.0,423.0,401.0
313589,County,2020/04/08,22.0,LA,22103.0,St. Tammany Parish,68981.0,189130.0,715075.0,165874.0,183589.0,98270.0,110179.0,73271.0,65504.0,13615.0,3274.0,933.0,566.0
318348,County,2020/04/09,22.0,LA,22103.0,St. Tammany Parish,70945.0,187166.0,691214.0,152321.0,179904.0,94478.0,107007.0,74322.0,63165.0,13376.0,5416.0,719.0,506.0
321543,County,2020/04/10,22.0,LA,22103.0,St. Tammany Parish,68755.0,189356.0,716594.0,168035.0,202018.0,91917.0,111991.0,67850.0,55488.0,13846.0,3939.0,920.0,590.0
324788,County,2020/04/11,22.0,LA,22103.0,St. Tammany Parish,72836.0,185275.0,686738.0,156199.0,204821.0,95703.0,108880.0,65324.0,43238.0,8936.0,2769.0,452.0,416.0
326362,County,2020/04/12,22.0,LA,22103.0,St. Tammany Parish,90064.0,168047.0,468035.0,112736.0,144088.0,63678.0,68620.0,42716.0,25219.0,6393.0,3289.0,834.0,462.0
331126,County,2020/04/13,22.0,LA,22103.0,St. Tammany Parish,70973.0,187138.0,710855.0,164884.0,183659.0,96606.0,107226.0,74034.0,66876.0,12410.0,4218.0,605.0,337.0
334301,County,2020/04/14,22.0,LA,22103.0,St. Tammany Parish,73842.0,184269.0,664854.0,169281.0,168925.0,76923.0,90629.0,76610.0,59132.0,16500.0,4650.0,703.0,1501.0
337554,County,2020/04/15,22.0,LA,22103.0,St. Tammany Parish,71940.0,186171.0,681592.0,172887.0,193038.0,75400.0,96685.0,61284.0,60919.0,13091.0,5497.0,1630.0,1161.0
339131,County,2020/04/16,22.0,LA,22103.0,St. Tammany Parish,76232.0,181879.0,662452.0,154801.0,178287.0,84350.0,98227.0,72128.0,57094.0,11226.0,4571.0,1022.0,746.0
342431,County,2020/04/17,22.0,LA,22103.0,St. Tammany Parish,69710.0,188401.0,654819.0,161753.0,183907.0,73540.0,95679.0,62868.0,55731.0,13180.0,5804.0,1310.0,1047.0
345537,County,2020/04/18,22.0,LA,22103.0,St. Tammany Parish,77354.0,180757.0,668771.0,176064.0,199780.0,77187.0,89333.0,61037.0,40530.0,17314.0,5240.0,1306.0,980.0
348709,County,2020/04/19,22.0,LA,22103.0,St. Tammany Parish,80088.0,178023.0,539977.0,148030.0,169162.0,59500.0,81979.0,40291.0,24465.0,9334.0,5297.0,1072.0,847.0
351916,County,2020/04/20,22.0,LA,22103.0,St. Tammany Parish,69414.0,188697.0,753886.0,180822.0,237269.0,86093.0,95298.0,76203.0,53377.0,14555.0,6298.0,1884.0,2087.0
355109,County,2020/04/21,22.0,LA,22103.0,St. Tammany Parish,63782.0,194329.0,777787.0,182964.0,193958.0,106751.0,118929.0,84506.0,68035.0,16756.0,4446.0,865.0,577.0
358353,County,2020/04/22,22.0,LA,22103.0,St. Tammany Parish,64506.0,193605.0,738012.0,172550.0,178912.0,99290.0,114233.0,81679.0,69601.0,15143.0,5602.0,544.0,458.0
363085,County,2020/04/23,22.0,LA,22103.0,St. Tammany Parish,66859.0,191252.0,708834.0,157294.0,188487.0,93419.0,106942.0,72191.0,67215.0,16496.0,5176.0,1136.0,478.0
366298,County,2020/04/24,22.0,LA,22103.0,St. Tammany Parish,59214.0,198897.0,841443.0,196245.0,217394.0,108836.0,132409.0,89948.0,73909.0,15418.0,5757.0,1044.0,483.0
369455,County,2020/04/25,22.0,LA,22103.0,St. Tammany Parish,66767.0,191344.0,756037.0,176516.0,202530.0,105341.0,129076.0,73203.0,50897.0,13184.0,3961.0,847.0,482.0
371044,County,2020/04/26,22.0,LA,22103.0,St. Tammany Parish,71641.0,186470.0,701252.0,172769.0,203852.0,90393.0,108219.0,67450.0,39883.0,13228.0,4225.0,593.0,640.0
375879,County,2020/04/27,22.0,LA,22103.0,St. Tammany Parish,61449.0,196662.0,797341.0,176485.0,212480.0,102208.0,128358.0,82217.0,74188.0,15145.0,5029.0,799.0,432.0
379050,County,2020/04/28,22.0,LA,22103.0,St. Tammany Parish,63627.0,194484.0,752033.0,169104.0,194648.0,98353.0,118659.0,78266.0,70335.0,15717.0,5265.0,1074.0,612.0
380677,County,2020/04/29,22.0,LA,22103.0,St. Tammany Parish,65760.0,192351.0,702300.0,153971.0,184469.0,93778.0,107710.0,73232.0,68696.0,13854.0,5135.0,810.0,645.0
385423,County,2020/04/30,22.0,LA,22103.0,St. Tammany Parish,59055.0,199056.0,823130.0,188980.0,211673.0,105744.0,126599.0,91002.0,76806.0,17279.0,3884.0,584.0,579.0
388659,County,2020/05/01,22.0,LA,22103.0,St. Tammany Parish,55550.0,202561.0,868285.0,200237.0,220406.0,114524.0,139967.0,90007.0,78612.0,17781.0,5308.0,1012.0,431.0
391809,County,2020/05/02,22.0,LA,22103.0,St. Tammany Parish,63462.0,194649.0,800198.0,180105.0,219350.0,105536.0,133058.0,87045.0,54419.0,14396.0,4806.0,1006.0,477.0
395004,County,2020/05/03,22.0,LA,22103.0,St. Tammany Parish,68701.0,189410.0,697465.0,157010.0,197288.0,99644.0,108448.0,68275.0,46680.0,14270.0,4493.0,621.0,736.0
398199,County,2020/05/04,22.0,LA,22103.0,St. Tammany Parish,59670.0,198441.0,826889.0,174977.0,212096.0,114197.0,137213.0,85726.0,79063.0,17456.0,4858.0,627.0,676.0
399826,County,2020/05/05,22.0,LA,22103.0,St. Tammany Parish,59505.0,198606.0,821464.0,182522.0,209063.0,112590.0,134512.0,82752.0,78715.0,14915.0,5279.0,652.0,464.0
403005,County,2020/05/06,22.0,LA,22103.0,St. Tammany Parish,58985.0,199126.0,826382.0,182464.0,210155.0,112179.0,135223.0,83349.0,78426.0,17331.0,5489.0,1079.0,687.0
407724,County,2020/05/07,22.0,LA,22103.0,St. Tammany Parish,60305.0,197806.0,811722.0,190076.0,201283.0,110179.0,122985.0,81066.0,81978.0,16236.0,6175.0,914.0,830.0
409512,County,2020/05/08,22.0,LA,22103.0,St. Tammany Parish,60527.0,197584.0,737145.0,164916.0,184739.0,101265.0,112406.0,80194.0,71388.0,14676.0,6244.0,802.0,515.0
414135,County,2020/05/09,22.0,LA,22103.0,St. Tammany Parish,63183.0,194928.0,774375.0,167750.0,222224.0,109442.0,124634.0,78390.0,52952.0,12595.0,5383.0,664.0,341.0
415797,County,2020/05/10,22.0,LA,22103.0,St. Tammany Parish,64770.0,193341.0,706620.0,149044.0,202748.0,93687.0,109399.0,69233.0,60008.0,16593.0,4602.0,876.0,430.0
418990,County,2020/05/11,22.0,LA,22103.0,St. Tammany Parish,51810.0,206301.0,845589.0,196371.0,209724.0,113122.0,128881.0,84948.0,85904.0,18288.0,7013.0,715.0,623.0
423847,County,2020/05/12,22.0,LA,22103.0,St. Tammany Parish,51171.0,206940.0,880522.0,209398.0,214033.0,115201.0,133818.0,90278.0,89387.0,19257.0,6991.0,1638.0,521.0
426895,County,2020/05/13,22.0,LA,22103.0,St. Tammany Parish,53137.0,204974.0,803670.0,182275.0,191413.0,109151.0,120880.0,88382.0,83217.0,19447.0,6444.0,1663.0,798.0
428621,County,2020/05/14,22.0,LA,22103.0,St. Tammany Parish,54925.0,203186.0,752613.0,173838.0,179395.0,94300.0,116088.0,76785.0,81558.0,19978.0,7842.0,1913.0,916.0
433313,County,2020/05/15,22.0,LA,22103.0,St. Tammany Parish,54786.0,203325.0,780969.0,178207.0,195034.0,103520.0,118215.0,79930.0,77206.0,18305.0,7690.0,1918.0,944.0
436517,County,2020/05/16,22.0,LA,22103.0,St. Tammany Parish,57064.0,201047.0,762313.0,179125.0,195442.0,106658.0,126439.0,72769.0,56594.0,16803.0,6309.0,1455.0,719.0
439674,County,2020/05/17,22.0,LA,22103.0,St. Tammany Parish,56231.0,201880.0,772887.0,172767.0,220729.0,103885.0,133281.0,70807.0,46989.0,15667.0,7338.0,1040.0,384.0
442964,County,2020/05/18,22.0,LA,22103.0,St. Tammany Parish,44159.0,213952.0,941065.0,212329.0,231039.0,127930.0,147804.0,99278.0,91622.0,21851.0,7621.0,1188.0,403.0
444543,County,2020/05/19,22.0,LA,22103.0,St. Tammany Parish,42019.0,216092.0,947399.0,220760.0,226667.0,123959.0,149027.0,105038.0,93134.0,20018.0,6887.0,1434.0,475.0
449304,County,2020/05/20,22.0,LA,22103.0,St. Tammany Parish,41956.0,216155.0,922496.0,202477.0,231423.0,122549.0,145814.0,98254.0,89792.0,21805.0,8511.0,1394.0,477.0
450930,County,2020/05/21,22.0,LA,22103.0,St. Tammany Parish,41775.0,216336.0,952001.0,211896.0,229544.0,128697.0,155202.0,99092.0,92409.0,23839.0,8689.0,1839.0,794.0
454117,County,2020/05/22,22.0,LA,22103.0,St. Tammany Parish,37816.0,220295.0,987522.0,220721.0,253129.0,127889.0,158160.0,106425.0,84057.0,24084.0,10606.0,1764.0,687.0
458900,County,2020/05/23,22.0,LA,22103.0,St. Tammany Parish,44128.0,213983.0,906814.0,198758.0,247522.0,128054.0,139578.0,97021.0,66935.0,19258.0,7213.0,1868.0,607.0
462056,County,2020/05/24,22.0,LA,22103.0,St. Tammany Parish,57929.0,200182.0,755322.0,178968.0,195600.0,101400.0,124783.0,70024.0,54920.0,18895.0,7189.0,2914.0,629.0
465358,County,2020/05/25,22.0,LA,22103.0,St. Tammany Parish,58362.0,199749.0,702397.0,161081.0,179585.0,95314.0,111622.0,67966.0,57015.0,18096.0,8079.0,2616.0,1023.0
466837,County,2020/05/26,22.0,LA,22103.0,St. Tammany Parish,49094.0,209017.0,789695.0,176767.0,192469.0,100504.0,124816.0,81072.0,81824.0,21621.0,7055.0,2532.0,1035.0
471705,County,2020/05/27,22.0,LA,22103.0,St. Tammany Parish,48905.0,209206.0,865709.0,194823.0,211536.0,118787.0,140271.0,84955.0,84693.0,21399.0,6693.0,1752.0,800.0
474805,County,2020/05/28,22.0,LA,22103.0,St. Tammany Parish,49012.0,209099.0,853014.0,188094.0,210623.0,110867.0,135881.0,88634.0,87396.0,21094.0,8093.0,1723.0,609.0
478044,County,2020/05/29,22.0,LA,22103.0,St. Tammany Parish,57432.0,200679.0,834177.0,193944.0,214737.0,105496.0,128969.0,80325.0,79912.0,21209.0,7421.0,1492.0,672.0
481244,County,2020/05/30,22.0,LA,22103.0,St. Tammany Parish,60146.0,197965.0,821528.0,185560.0,214562.0,109321.0,134104.0,84440.0,66032.0,18959.0,6593.0,1599.0,358.0
482798,County,2020/05/31,22.0,LA,22103.0,St. Tammany Parish,60097.0,198014.0,760213.0,177937.0,202868.0,104127.0,119124.0,74874.0,52910.0,19498.0,6881.0,1406.0,588.0
487738,County,2020/06/01,22.0,LA,22103.0,St. Tammany Parish,50227.0,207884.0,828540.0,187450.0,208826.0,104715.0,131154.0,82411.0,84602.0,20094.0,7159.0,1450.0,679.0
490797,County,2020/06/02,22.0,LA,22103.0,St. Tammany Parish,54310.0,203801.0,803716.0,182122.0,198480.0,103858.0,122261.0,83187.0,83445.0,20978.0,6981.0,1648.0,756.0
492427,County,2020/06/03,22.0,LA,22103.0,St. Tammany Parish,47362.0,210749.0,859613.0,193047.0,206817.0,114672.0,136806.0,89715.0,86993.0,21099.0,7871.0,1930.0,663.0
495637,County,2020/06/04,22.0,LA,22103.0,St. Tammany Parish,48311.0,209800.0,851329.0,185037.0,212213.0,113690.0,135290.0,86462.0,85228.0,22090.0,8957.0,1675.0,687.0
500413,County,2020/06/05,22.0,LA,22103.0,St. Tammany Parish,47312.0,210799.0,889517.0,197413.0,223326.0,117683.0,141474.0,91246.0,84604.0,23376.0,8243.0,1471.0,681.0
503614,County,2020/06/06,22.0,LA,22103.0,St. Tammany Parish,58630.0,199481.0,753399.0,165928.0,194032.0,112045.0,127533.0,73847.0,54876.0,17385.0,5893.0,1105.0,755.0
506764,County,2020/06/07,22.0,LA,22103.0,St. Tammany Parish,76831.0,181280.0,565504.0,128659.0,170081.0,83106.0,84024.0,47218.0,30126.0,9960.0,8430.0,2133.0,1767.0
508403,County,2020/06/08,22.0,LA,22103.0,St. Tammany Parish,54101.0,204010.0,769081.0,169996.0,197075.0,104601.0,124116.0,74476.0,73829.0,16762.0,5796.0,1541.0,889.0
513180,County,2020/06/09,22.0,LA,22103.0,St. Tammany Parish,51745.0,206366.0,830179.0,183358.0,204999.0,113366.0,131565.0,80865.0,84093.0,21150.0,7897.0,1771.0,1115.0
516434,County,2020/06/10,22.0,LA,22103.0,St. Tammany Parish,50737.0,207374.0,818212.0,175396.0,205214.0,109343.0,134117.0,79268.0,85560.0,18764.0,7911.0,1930.0,709.0
519542,County,2020/06/11,22.0,LA,22103.0,St. Tammany Parish,47307.0,210804.0,907816.0,197561.0,224048.0,121561.0,149252.0,92241.0,88378.0,23250.0,9112.0,1615.0,798.0
521217,County,2020/06/12,22.0,LA,22103.0,St. Tammany Parish,48747.0,209364.0,885116.0,192992.0,218945.0,125339.0,139760.0,91782.0,84052.0,21666.0,8212.0,1430.0,938.0
524393,County,2020/06/13,22.0,LA,22103.0,St. Tammany Parish,52715.0,205396.0,863179.0,195924.0,226453.0,119787.0,137579.0,85536.0,65610.0,22140.0,7788.0,1799.0,563.0
529156,County,2020/06/14,22.0,LA,22103.0,St. Tammany Parish,56341.0,201770.0,716007.0,164887.0,183865.0,96401.0,114311.0,72094.0,54425.0,17942.0,9080.0,1955.0,1047.0
530785,County,2020/06/15,22.0,LA,22103.0,St. Tammany Parish,52912.0,205199.0,793135.0,175849.0,199508.0,107575.0,118909.0,82258.0,80928.0,18875.0,7049.0,1421.0,763.0
533975,County,2020/06/16,22.0,LA,22103.0,St. Tammany Parish,49560.0,208551.0,871496.0,196970.0,214527.0,117619.0,136892.0,88994.0,87058.0,19557.0,7371.0,1781.0,727.0
537169,County,2020/06/17,22.0,LA,22103.0,St. Tammany Parish,49606.0,208505.0,885396.0,200521.0,220411.0,120835.0,136356.0,90066.0,88744.0,19617.0,6531.0,1551.0,764.0
540364,County,2020/06/18,22.0,LA,22103.0,St. Tammany Parish,48845.0,209266.0,870675.0,192613.0,214329.0,117581.0,134641.0,90858.0,88077.0,22993.0,7709.0,1150.0,724.0
543556,County,2020/06/19,22.0,LA,22103.0,St. Tammany Parish,50560.0,207551.0,807647.0,172460.0,196817.0,114093.0,133866.0,82219.0,79972.0,17728.0,8067.0,1563.0,862.0
546761,County,2020/06/20,22.0,LA,22103.0,St. Tammany Parish,55359.0,202752.0,788740.0,179503.0,209249.0,109762.0,126219.0,78468.0,57484.0,17336.0,8500.0,1361.0,858.0
551504,County,2020/06/21,22.0,LA,22103.0,St. Tammany Parish,63650.0,194461.0,637182.0,135510.0,168111.0,90144.0,99064.0,64139.0,49825.0,18989.0,8459.0,1873.0,1068.0
553141,County,2020/06/22,22.0,LA,22103.0,St. Tammany Parish,55462.0,202649.0,699681.0,142485.0,175634.0,94745.0,109968.0,71517.0,76070.0,18922.0,7504.0,1749.0,1087.0
557900,County,2020/06/23,22.0,LA,22103.0,St. Tammany Parish,50018.0,208093.0,786559.0,172379.0,188225.0,103024.0,130055.0,80861.0,82475.0,19796.0,7023.0,1657.0,1064.0
559532,County,2020/06/24,22.0,LA,22103.0,St. Tammany Parish,56654.0,201457.0,685303.0,143560.0,165898.0,90081.0,101898.0,76053.0,79174.0,18757.0,7450.0,1457.0,975.0
564269,County,2020/06/25,22.0,LA,22103.0,St. Tammany Parish,52396.0,205715.0,764994.0,157023.0,187007.0,108890.0,119588.0,80271.0,80128.0,20900.0,8261.0,1863.0,1063.0
565975,County,2020/06/26,22.0,LA,22103.0,St. Tammany Parish,52094.0,206017.0,773089.0,166787.0,197128.0,103871.0,118147.0,79100.0,79101.0,19102.0,7271.0,1503.0,1079.0
570666,County,2020/06/27,22.0,LA,22103.0,St. Tammany Parish,55068.0,203043.0,788018.0,179189.0,198640.0,112321.0,123021.0,79134.0,64737.0,21732.0,6730.0,1586.0,928.0
572304,County,2020/06/28,22.0,LA,22103.0,St. Tammany Parish,61407.0,196704.0,690132.0,146896.0,179979.0,98774.0,112108.0,63211.0,55397.0,20708.0,10292.0,1904.0,863.0
575466,County,2020/06/29,22.0,LA,22103.0,St. Tammany Parish,56690.0,201421.0,730491.0,152252.0,178918.0,102038.0,116968.0,73681.0,76191.0,20947.0,6711.0,1613.0,1172.0
580278,County,2020/06/30,22.0,LA,22103.0,St. Tammany Parish,56362.0,201749.0,718424.0,154833.0,167465.0,102488.0,112659.0,77557.0,74881.0,19962.0,5580.0,1707.0,1292.0
583471,County,2020/07/01,22.0,LA,22103.0,St. Tammany Parish,53392.0,204719.0,746501.0,164022.0,179364.0,103925.0,111297.0,78007.0,78694.0,21168.0,6866.0,1974.0,1184.0
586660,County,2020/07/02,22.0,LA,22103.0,St. Tammany Parish,57464.0,200647.0,811966.0,166665.0,198490.0,115576.0,126931.0,85200.0,85048.0,22183.0,8768.0,1977.0,1128.0
589862,County,2020/07/03,22.0,LA,22103.0,St. Tammany Parish,65454.0,192657.0,768732.0,165847.0,196017.0,103286.0,117481.0,78654.0,78655.0,18994.0,7230.0,1495.0,1073.0
593048,County,2020/07/04,22.0,LA,22103.0,St. Tammany Parish,70481.0,187630.0,657670.0,141886.0,167698.0,88363.0,100508.0,67291.0,67292.0,16250.0,6185.0,1279.0,918.0
594697,County,2020/07/05,22.0,LA,22103.0,St. Tammany Parish,61513.0,196598.0,620585.0,133157.0,153088.0,88280.0,105373.0,65038.0,46695.0,16686.0,8703.0,2298.0,1267.0
599373,County,2020/07/06,22.0,LA,22103.0,St. Tammany Parish,57386.0,200725.0,687402.0,146953.0,168941.0,91014.0,106801.0,74046.0,69671.0,20465.0,7024.0,1486.0,1001.0
601048,County,2020/07/07,22.0,LA,22103.0,St. Tammany Parish,55218.0,202893.0,716622.0,151748.0,170035.0,95570.0,112219.0,78344.0,76541.0,21119.0,7895.0,1735.0,1416.0
604240,County,2020/07/08,22.0,LA,22103.0,St. Tammany Parish,54233.0,203878.0,733148.0,153319.0,172654.0,99689.0,118180.0,77327.0,82364.0,19426.0,6615.0,1873.0,1701.0
609012,County,2020/07/09,22.0,LA,22103.0,St. Tammany Parish,53552.0,204559.0,738235.0,163027.0,171539.0,99374.0,115611.0,78129.0,79121.0,21133.0,6850.0,1916.0,1535.0
610635,County,2020/07/10,22.0,LA,22103.0,St. Tammany Parish,54561.0,203550.0,747474.0,148094.0,191630.0,105688.0,117776.0,74418.0,79852.0,18434.0,8104.0,1684.0,1794.0
615433,County,2020/07/11,22.0,LA,22103.0,St. Tammany Parish,59528.0,198583.0,705277.0,148892.0,178976.0,100920.0,116924.0,71267.0,59111.0,17130.0,8589.0,1764.0,1704.0
617018,County,2020/07/12,22.0,LA,22103.0,St. Tammany Parish,63636.0,194475.0,599779.0,127573.0,147459.0,85596.0,103967.0,56693.0,49866.0,16934.0,7844.0,2236.0,1611.0
621777,County,2020/07/13,22.0,LA,22103.0,St. Tammany Parish,59227.0,198884.0,691324.0,153819.0,159809.0,88581.0,108607.0,72125.0,79884.0,18676.0,6812.0,1575.0,1436.0
623407,County,2020/07/14,22.0,LA,22103.0,St. Tammany Parish,59228.0,198883.0,721835.0,150862.0,178551.0,97894.0,112850.0,76501.0,78262.0,18612.0,5593.0,1395.0,1315.0
628145,County,2020/07/15,22.0,LA,22103.0,St. Tammany Parish,57603.0,200508.0,726042.0,156618.0,171825.0,98931.0,113980.0,76619.0,78944.0,21758.0,5063.0,1148.0,1156.0
629771,County,2020/07/16,22.0,LA,22103.0,St. Tammany Parish,58955.0,199156.0,707488.0,145505.0,166905.0,95574.0,113140.0,76192.0,80438.0,19522.0,7786.0,1363.0,1063.0
634505,County,2020/07/17,22.0,LA,22103.0,St. Tammany Parish,61447.0,196664.0,739086.0,162087.0,182145.0,95357.0,113431.0,77868.0,79370.0,18915.0,7793.0,1425.0,695.0
637757,County,2020/07/18,22.0,LA,22103.0,St. Tammany Parish,66645.0,191466.0,677794.0,142222.0,174300.0,93560.0,106168.0,75242.0,58941.0,16536.0,7813.0,1973.0,1039.0
640959,County,2020/07/19,22.0,LA,22103.0,St. Tammany Parish,71282.0,186829.0,593690.0,132879.0,152185.0,76897.0,99924.0,58900.0,47841.0,14880.0,7376.0,1531.0,1277.0
642572,County,2020/07/20,22.0,LA,22103.0,St. Tammany Parish,66592.0,191519.0,704757.0,152073.0,170676.0,96806.0,107230.0,73561.0,77741.0,17524.0,6555.0,1614.0,977.0
647812,County,2020/07/21,22.0,LA,22103.0,St. Tammany Parish,61921.0,196190.0,717350.0,149928.0,168530.0,91308.0,121168.0,75516.0,81952.0,20052.0,6451.0,1313.0,1132.0
650525,County,2020/07/22,22.0,LA,22103.0,St. Tammany Parish,59141.0,198970.0,728818.0,155711.0,175954.0,94070.0,116445.0,76068.0,80995.0,19094.0,7925.0,1557.0,999.0
653719,County,2020/07/23,22.0,LA,22103.0,St. Tammany Parish,60700.0,197411.0,684668.0,140189.0,159907.0,92935.0,113250.0,73344.0,74810.0,18865.0,8124.0,2156.0,1088.0
655190,County,2020/07/24,22.0,LA,22103.0,St. Tammany Parish,59307.0,198804.0,690980.0,138008.0,161182.0,97941.0,114495.0,71402.0,75437.0,20883.0,8819.0,1810.0,1003.0
658536,County,2020/07/25,22.0,LA,22103.0,St. Tammany Parish,68468.0,189643.0,617716.0,130687.0,158111.0,85803.0,103147.0,59204.0,55772.0,14374.0,7952.0,1641.0,1025.0
661734,County,2020/07/26,22.0,LA,22103.0,St. Tammany Parish,69756.0,188355.0,576739.0,112801.0,141494.0,85680.0,96124.0,60174.0,49492.0,17415.0,9550.0,2615.0,1394.0
665030,County,2020/07/27,22.0,LA,22103.0,St. Tammany Parish,65239.0,192872.0,627618.0,119860.0,150072.0,85132.0,102148.0,63028.0,76913.0,19608.0,7390.0,1833.0,1634.0
669766,County,2020/07/28,22.0,LA,22103.0,St. Tammany Parish,60021.0,198090.0,713140.0,141877.0,165215.0,94848.0,122689.0,75819.0,83257.0,19167.0,6959.0,2006.0,1303.0
672979,County,2020/07/29,22.0,LA,22103.0,St. Tammany Parish,63718.0,194393.0,691695.0,134279.0,166035.0,93786.0,111045.0,73332.0,82438.0,19441.0,7886.0,2086.0,1367.0
676060,County,2020/07/30,22.0,LA,22103.0,St. Tammany Parish,58762.0,199349.0,722289.0,140879.0,174410.0,94686.0,119114.0,77440.0,83161.0,20844.0,7789.0,2187.0,1779.0
677711,County,2020/07/31,22.0,LA,22103.0,St. Tammany Parish,62887.0,195224.0,678442.0,134662.0,159232.0,96459.0,106924.0,72627.0,75378.0,19817.0,9029.0,2177.0,2137.0
680869,County,2020/08/01,22.0,LA,22103.0,St. Tammany Parish,69462.0,188649.0,652185.0,136312.0,152161.0,88961.0,106255.0,78407.0,60729.0,16830.0,8338.0,2376.0,1816.0
684092,County,2020/08/02,22.0,LA,22103.0,St. Tammany Parish,67823.0,190288.0,633486.0,127076.0,152153.0,87535.0,108195.0,68598.0,59386.0,18826.0,8584.0,1903.0,1230.0
687288,County,2020/08/03,22.0,LA,22103.0,St. Tammany Parish,62211.0,195900.0,740132.0,147019.0,178654.0,100622.0,120102.0,75691.0,86208.0,20952.0,8353.0,1389.0,1142.0
692063,County,2020/08/04,22.0,LA,22103.0,St. Tammany Parish,55085.0,203026.0,790864.0,168449.0,189665.0,106908.0,132343.0,78936.0,85611.0,19579.0,7168.0,1399.0,806.0
695240,County,2020/08/05,22.0,LA,22103.0,St. Tammany Parish,56178.0,201933.0,783566.0,168682.0,186555.0,104297.0,127846.0,84702.0,82933.0,19847.0,6301.0,1623.0,780.0
698435,County,2020/08/06,22.0,LA,22103.0,St. Tammany Parish,55096.0,203015.0,797308.0,170823.0,187449.0,108220.0,129513.0,86013.0,85296.0,20420.0,7284.0,1534.0,756.0
701630,County,2020/08/07,22.0,LA,22103.0,St. Tammany Parish,55567.0,202544.0,792522.0,168976.0,196816.0,99789.0,129590.0,82840.0,84526.0,19858.0,7585.0,1594.0,948.0
703259,County,2020/08/08,22.0,LA,22103.0,St. Tammany Parish,60938.0,197173.0,719016.0,147849.0,178973.0,106112.0,115877.0,74822.0,64785.0,22041.0,6764.0,1132.0,661.0
708041,County,2020/08/09,22.0,LA,22103.0,St. Tammany Parish,67590.0,190521.0,679833.0,139001.0,173478.0,96239.0,116041.0,68072.0,55344.0,19198.0,9437.0,1906.0,1117.0
709671,County,2020/08/10,22.0,LA,22103.0,St. Tammany Parish,61700.0,196411.0,744091.0,149700.0,181117.0,98353.0,117757.0,77299.0,88332.0,21874.0,7117.0,1416.0,1126.0
712839,County,2020/08/11,22.0,LA,22103.0,St. Tammany Parish,58935.0,199176.0,784826.0,155569.0,192742.0,105056.0,124776.0,83477.0,93253.0,20964.0,6657.0,1588.0,744.0
716033,County,2020/08/12,22.0,LA,22103.0,St. Tammany Parish,56847.0,201264.0,736933.0,145279.0,176177.0,97741.0,114205.0,78605.0,91213.0,21998.0,7930.0,1804.0,1981.0
719227,County,2020/08/13,22.0,LA,22103.0,St. Tammany Parish,53261.0,204850.0,747527.0,135016.0,177214.0,101603.0,123906.0,76747.0,96661.0,21768.0,9829.0,2223.0,2560.0
722420,County,2020/08/14,22.0,LA,22103.0,St. Tammany Parish,49276.0,208835.0,795893.0,144975.0,192784.0,107568.0,137127.0,84546.0,91145.0,23244.0,9817.0,2076.0,2611.0
725650,County,2020/08/15,22.0,LA,22103.0,St. Tammany Parish,56629.0,201482.0,750212.0,147284.0,182642.0,109311.0,131162.0,75344.0,69101.0,22274.0,8654.0,1982.0,2458.0
728809,County,2020/08/16,22.0,LA,22103.0,St. Tammany Parish,65392.0,192719.0,678698.0,125886.0,158685.0,100400.0,118184.0,71065.0,65363.0,21818.0,11442.0,2627.0,3228.0
733590,County,2020/08/17,22.0,LA,22103.0,St. Tammany Parish,61934.0,196177.0,764432.0,138385.0,186015.0,103843.0,125253.0,79139.0,93395.0,22940.0,8789.0,2876.0,3797.0
736763,County,2020/08/18,22.0,LA,22103.0,St. Tammany Parish,61233.0,196878.0,701857.0,124781.0,162486.0,92372.0,116813.0,77596.0,90360.0,21662.0,8413.0,3292.0,4082.0
739957,County,2020/08/19,22.0,LA,22103.0,St. Tammany Parish,58806.0,199305.0,729257.0,131644.0,172938.0,97386.0,114304.0,80130.0,92950.0,24110.0,9303.0,2795.0,3697.0
741585,County,2020/08/20,22.0,LA,22103.0,St. Tammany Parish,55719.0,202392.0,748594.0,142383.0,170486.0,98391.0,123872.0,81100.0,93921.0,23199.0,8875.0,2624.0,3743.0
744784,County,2020/08/21,22.0,LA,22103.0,St. Tammany Parish,53158.0,204953.0,833762.0,163023.0,200333.0,113280.0,136458.0,88847.0,94994.0,21919.0,9324.0,2297.0,3287.0
747990,County,2020/08/22,22.0,LA,22103.0,St. Tammany Parish,58599.0,199512.0,791187.0,156375.0,201677.0,108080.0,139610.0,79539.0,69776.0,20723.0,8954.0,2820.0,3633.0
752735,County,2020/08/23,22.0,LA,22103.0,St. Tammany Parish,67911.0,190200.0,648652.0,126380.0,172001.0,102721.0,106413.0,58437.0,53621.0,16851.0,6979.0,2285.0,2964.0
754406,County,2020/08/24,22.0,LA,22103.0,St. Tammany Parish,71137.0,186974.0,597596.0,119857.0,151538.0,82289.0,98868.0,61844.0,58956.0,14757.0,4890.0,1611.0,2986.0
757555,County,2020/08/25,22.0,LA,22103.0,St. Tammany Parish,65807.0,192304.0,621016.0,118493.0,143145.0,84946.0,106422.0,64917.0,74196.0,18269.0,6589.0,1323.0,2716.0
760749,County,2020/08/26,22.0,LA,22103.0,St. Tammany Parish,63448.0,194663.0,643631.0,126540.0,150531.0,87745.0,108893.0,66536.0,75482.0,16947.0,7606.0,1412.0,1939.0
763906,County,2020/08/27,22.0,LA,22103.0,St. Tammany Parish,66451.0,191660.0,607395.0,121194.0,144259.0,80318.0,100036.0,62400.0,74749.0,14648.0,6203.0,1711.0,1877.0
767114,County,2020/08/28,22.0,LA,22103.0,St. Tammany Parish,61544.0,196567.0,678567.0,127568.0,159257.0,94149.0,112339.0,71806.0,78988.0,21706.0,9291.0,1645.0,1818.0
771889,County,2020/08/29,22.0,LA,22103.0,St. Tammany Parish,66289.0,191822.0,664838.0,125031.0,160824.0,96370.0,114438.0,71913.0,61636.0,22776.0,8076.0,1631.0,2143.0
773524,County,2020/08/30,22.0,LA,22103.0,St. Tammany Parish,70124.0,187987.0,607251.0,114694.0,149360.0,85519.0,107316.0,59866.0,57666.0,19532.0,9228.0,2132.0,1938.0
776715,County,2020/08/31,22.0,LA,22103.0,St. Tammany Parish,62226.0,195885.0,690355.0,137697.0,165389.0,88440.0,111607.0,71678.0,81011.0,21899.0,8419.0,2145.0,2070.0
781496,County,2020/09/01,22.0,LA,22103.0,St. Tammany Parish,59571.0,198540.0,759842.0,149488.0,183353.0,102174.0,123527.0,75006.0,89681.0,23828.0,8969.0,2254.0,1562.0
783102,County,2020/09/02,22.0,LA,22103.0,St. Tammany Parish,60029.0,198082.0,758072.0,145519.0,184169.0,102632.0,125026.0,73567.0,92130.0,23415.0,8416.0,1873.0,1325.0
786251,County,2020/09/03,22.0,LA,22103.0,St. Tammany Parish,55856.0,202255.0,809647.0,159531.0,198429.0,105790.0,130743.0,83832.0,93980.0,22876.0,10216.0,2607.0,1643.0
791081,County,2020/09/04,22.0,LA,22103.0,St. Tammany Parish,63139.0,194972.0,746220.0,144321.0,177315.0,100457.0,123139.0,76605.0,86163.0,22003.0,11431.0,2950.0,1836.0
792586,County,2020/09/05,22.0,LA,22103.0,St. Tammany Parish,62564.0,195547.0,768105.0,154683.0,197165.0,103662.0,129194.0,84226.0,65324.0,21669.0,8757.0,2075.0,1350.0
795874,County,2020/09/06,22.0,LA,22103.0,St. Tammany Parish,72759.0,185352.0,632695.0,129228.0,153181.0,84357.0,105379.0,68683.0,59337.0,20949.0,7785.0,1929.0,1867.0
799084,County,2020/09/07,22.0,LA,22103.0,St. Tammany Parish,73796.0,184315.0,607647.0,117793.0,151372.0,85610.0,96392.0,61424.0,59666.0,20113.0,10815.0,2479.0,1983.0
803837,County,2020/09/08,22.0,LA,22103.0,St. Tammany Parish,63325.0,194786.0,763016.0,156961.0,181886.0,103412.0,117732.0,81965.0,87351.0,21828.0,8093.0,1873.0,1915.0
805464,County,2020/09/09,22.0,LA,22103.0,St. Tammany Parish,60644.0,197467.0,771192.0,144839.0,187344.0,105185.0,122851.0,81449.0,95095.0,21908.0,7787.0,2792.0,1942.0
810233,County,2020/09/10,22.0,LA,22103.0,St. Tammany Parish,62370.0,195741.0,731534.0,140002.0,171167.0,95056.0,120915.0,79265.0,88884.0,22502.0,9534.0,2316.0,1893.0
811862,County,2020/09/11,22.0,LA,22103.0,St. Tammany Parish,57085.0,201026.0,808601.0,148290.0,194502.0,110163.0,136237.0,88291.0,95076.0,21964.0,9773.0,2402.0,1903.0
816613,County,2020/09/12,22.0,LA,22103.0,St. Tammany Parish,67869.0,190242.0,705650.0,135217.0,177174.0,102980.0,125047.0,73862.0,61430.0,18744.0,7448.0,1826.0,1922.0
818220,County,2020/09/13,22.0,LA,22103.0,St. Tammany Parish,72867.0,185244.0,592922.0,93873.0,159366.0,84241.0,100081.0,61712.0,61600.0,21276.0,6219.0,2337.0,2217.0
823001,County,2020/09/14,22.0,LA,22103.0,St. Tammany Parish,65426.0,192685.0,723175.0,137722.0,183720.0,100787.0,118349.0,70952.0,80760.0,19038.0,7637.0,2325.0,1885.0
824629,County,2020/09/15,22.0,LA,22103.0,St. Tammany Parish,71464.0,186647.0,631025.0,119890.0,161157.0,88219.0,107680.0,62229.0,64364.0,15964.0,7556.0,2152.0,1814.0
827822,County,2020/09/16,22.0,LA,22103.0,St. Tammany Parish,62651.0,195460.0,725301.0,130739.0,174536.0,100145.0,118525.0,78548.0,88778.0,22413.0,7741.0,1866.0,2010.0
831016,County,2020/09/17,22.0,LA,22103.0,St. Tammany Parish,63051.0,195060.0,773263.0,141577.0,181547.0,104368.0,130515.0,83225.0,95816.0,22726.0,9309.0,2459.0,1721.0
835777,County,2020/09/18,22.0,LA,22103.0,St. Tammany Parish,60787.0,197324.0,796368.0,144218.0,187367.0,112277.0,134724.0,85011.0,94050.0,24050.0,10234.0,2801.0,1636.0
837405,County,2020/09/19,22.0,LA,22103.0,St. Tammany Parish,68023.0,190088.0,728585.0,134204.0,181815.0,106563.0,125880.0,76312.0,69837.0,20171.0,10240.0,2151.0,1412.0
842180,County,2020/09/20,22.0,LA,22103.0,St. Tammany Parish,70960.0,187151.0,589661.0,114677.0,148110.0,83933.0,105167.0,57473.0,52942.0,15645.0,8243.0,2241.0,1230.0
845385,County,2020/09/21,22.0,LA,22103.0,St. Tammany Parish,67400.0,190711.0,828707.0,273316.0,193519.0,89783.0,100228.0,66477.0,78777.0,17393.0,6629.0,1778.0,807.0
848553,County,2020/09/22,22.0,LA,22103.0,St. Tammany Parish,59444.0,198667.0,939508.0,329678.0,208130.0,94495.0,115330.0,75651.0,87224.0,20227.0,6596.0,1601.0,576.0
850180,County,2020/09/23,22.0,LA,22103.0,St. Tammany Parish,55628.0,202483.0,873623.0,257494.0,200793.0,103510.0,117827.0,76577.0,89002.0,19671.0,6764.0,1346.0,639.0
854946,County,2020/09/24,22.0,LA,22103.0,St. Tammany Parish,56789.0,201322.0,741918.0,144954.0,183386.0,99647.0,118861.0,77624.0,86597.0,19954.0,8158.0,1822.0,915.0
856575,County,2020/09/25,22.0,LA,22103.0,St. Tammany Parish,53113.0,204998.0,1026861.0,329037.0,248071.0,113127.0,130430.0,82749.0,92077.0,20631.0,8081.0,1868.0,790.0
859762,County,2020/09/26,22.0,LA,22103.0,St. Tammany Parish,62009.0,196102.0,752837.0,151846.0,188804.0,110877.0,123699.0,78100.0,68309.0,21653.0,7373.0,1635.0,541.0
864509,County,2020/09/27,22.0,LA,22103.0,St. Tammany Parish,65879.0,192232.0,683980.0,138779.0,175474.0,98375.0,112671.0,68809.0,59313.0,19107.0,8936.0,1885.0,631.0
867717,County,2020/09/28,22.0,LA,22103.0,St. Tammany Parish,53021.0,205090.0,770721.0,147108.0,191105.0,109998.0,122339.0,80547.0,90343.0,20752.0,6708.0,1388.0,433.0
869344,County,2020/09/29,22.0,LA,22103.0,St. Tammany Parish,57049.0,201062.0,755522.0,137230.0,179695.0,105352.0,129824.0,76336.0,96816.0,22891.0,5622.0,1258.0,498.0
874123,County,2020/09/30,22.0,LA,22103.0,St. Tammany Parish,61755.0,196356.0,753395.0,128531.0,192545.0,101681.0,120580.0,80686.0,99711.0,22452.0,5284.0,1376.0,549.0
877278,County,2020/10/01,22.0,LA,22103.0,St. Tammany Parish,56327.0,201784.0,756829.0,140278.0,191648.0,99729.0,124943.0,78106.0,93888.0,20185.0,5947.0,1365.0,740.0
880493,County,2020/10/02,22.0,LA,22103.0,St. Tammany Parish,58124.0,199987.0,763289.0,147747.0,182434.0,107621.0,128889.0,84164.0,83048.0,19867.0,7192.0,1721.0,606.0
882121,County,2020/10/03,22.0,LA,22103.0,St. Tammany Parish,65399.0,192712.0,731640.0,144893.0,184709.0,104022.0,119181.0,75966.0,70503.0,23061.0,7455.0,1400.0,450.0
885834,County,2020/10/04,22.0,LA,22103.0,St. Tammany Parish,70530.0,187581.0,633630.0,122266.0,160076.0,88475.0,103184.0,66768.0,61877.0,21052.0,7612.0,1793.0,527.0
889080,County,2020/10/05,22.0,LA,22103.0,St. Tammany Parish,71246.0,186865.0,679496.0,120858.0,169779.0,95208.0,105885.0,74469.0,86587.0,20325.0,4657.0,1227.0,501.0
892285,County,2020/10/06,22.0,LA,22103.0,St. Tammany Parish,60717.0,197394.0,747078.0,141526.0,182219.0,100958.0,124468.0,75074.0,94520.0,21106.0,5495.0,1241.0,471.0
895474,County,2020/10/07,22.0,LA,22103.0,St. Tammany Parish,58056.0,200055.0,779439.0,148594.0,192346.0,105643.0,126406.0,82575.0,93642.0,23220.0,5216.0,1224.0,573.0
898653,County,2020/10/08,22.0,LA,22103.0,St. Tammany Parish,59329.0,198782.0,712425.0,134600.0,167652.0,95186.0,120087.0,75837.0,91031.0,20560.0,5464.0,1503.0,505.0
901825,County,2020/10/09,22.0,LA,22103.0,St. Tammany Parish,64743.0,193368.0,703587.0,128431.0,180491.0,103526.0,118494.0,69961.0,79291.0,18038.0,3880.0,950.0,525.0
905020,County,2020/10/10,22.0,LA,22103.0,St. Tammany Parish,72905.0,185206.0,680800.0,127047.0,174002.0,99082.0,118482.0,69211.0,66451.0,21031.0,3962.0,1051.0,481.0
909611,County,2020/10/11,22.0,LA,22103.0,St. Tammany Parish,71194.0,186917.0,618721.0,115968.0,152710.0,84871.0,106754.0,66563.0,61774.0,21990.0,6466.0,1267.0,358.0
913392,County,2020/10/12,22.0,LA,22103.0,St. Tammany Parish,64255.0,193856.0,703172.0,130456.0,171087.0,99505.0,114994.0,72128.0,85427.0,21641.0,6285.0,1242.0,407.0
915336,County,2020/10/13,22.0,LA,22103.0,St. Tammany Parish,60359.0,197752.0,745639.0,142875.0,174907.0,99010.0,125852.0,79821.0,92218.0,23118.0,5850.0,1497.0,491.0
918665,County,2020/10/14,22.0,LA,22103.0,St. Tammany Parish,56744.0,201367.0,760482.0,143493.0,186513.0,103792.0,122883.0,78741.0,91803.0,23621.0,7533.0,1531.0,572.0
921920,County,2020/10/15,22.0,LA,22103.0,St. Tammany Parish,63404.0,194707.0,680598.0,123836.0,160859.0,91621.0,109907.0,74399.0,87960.0,22217.0,7364.0,1816.0,619.0
924991,County,2020/10/16,22.0,LA,22103.0,St. Tammany Parish,55719.0,202392.0,768094.0,145877.0,187610.0,105591.0,127905.0,82963.0,81888.0,25697.0,8230.0,1725.0,608.0
928193,County,2020/10/17,22.0,LA,22103.0,St. Tammany Parish,63354.0,194757.0,726338.0,140236.0,179789.0,104079.0,125485.0,78577.0,67171.0,21914.0,7250.0,1254.0,583.0
931846,County,2020/10/18,22.0,LA,22103.0,St. Tammany Parish,68508.0,189603.0,635565.0,121061.0,154813.0,88548.0,109775.0,64928.0,62143.0,24628.0,7770.0,1432.0,467.0
935436,County,2020/10/19,22.0,LA,22103.0,St. Tammany Parish,57648.0,200463.0,735452.0,136739.0,181400.0,102750.0,120547.0,78837.0,87202.0,21058.0,5140.0,1282.0,497.0
937488,County,2020/10/20,22.0,LA,22103.0,St. Tammany Parish,59203.0,198908.0,747712.0,136767.0,189018.0,101349.0,124010.0,78084.0,92584.0,18997.0,5231.0,1241.0,431.0
940928,County,2020/10/21,22.0,LA,22103.0,St. Tammany Parish,63878.0,194233.0,719356.0,136159.0,171380.0,95926.0,120182.0,78688.0,89179.0,20453.0,5584.0,1315.0,490.0
944364,County,2020/10/22,22.0,LA,22103.0,St. Tammany Parish,57995.0,200116.0,787856.0,151928.0,188041.0,112693.0,132096.0,82048.0,93197.0,20203.0,5736.0,1465.0,449.0
947385,County,2020/10/23,22.0,LA,22103.0,St. Tammany Parish,54630.0,203481.0,881654.0,173244.0,215308.0,126109.0,150859.0,87612.0,97126.0,23318.0,6504.0,1189.0,385.0
950521,County,2020/10/24,22.0,LA,22103.0,St. Tammany Parish,59344.0,198767.0,849323.0,171020.0,219307.0,121995.0,149001.0,83066.0,72559.0,25001.0,6148.0,867.0,359.0
