,Level,Date,State FIPS,State Postal Code,County FIPS,County Name,Population Staying at Home,Population Not Staying at Home,Number of Trips,Number of Trips <1,Number of Trips 1-3,Number of Trips 3-5,Number of Trips 5-10,Number of Trips 10-25,Number of Trips 25-50,Number of Trips 50-100,Number of Trips 100-250,Number of Trips 250-500,Number of Trips >=500
2529,County,2020/01/01,48.0,TX,48015.0,Austin County,5842.0,24147.0,67422.0,12573.0,12636.0,6502.0,13782.0,11034.0,6701.0,2741.0,1130.0,239.0,84.0
4496,County,2020/01/02,48.0,TX,48015.0,Austin County,4587.0,25402.0,92585.0,19389.0,16501.0,9078.0,14528.0,17019.0,9846.0,4761.0,1187.0,247.0,29.0
9110,County,2020/01/03,48.0,TX,48015.0,Austin County,4377.0,25612.0,101605.0,20811.0,17971.0,9135.0,17894.0,20007.0,10018.0,4278.0,1146.0,293.0,52.0
11437,County,2020/01/04,48.0,TX,48015.0,Austin County,4752.0,25237.0,91141.0,18819.0,15204.0,7608.0,17594.0,16935.0,9287.0,3818.0,1590.0,246.0,40.0
15305,County,2020/01/05,48.0,TX,48015.0,Austin County,5221.0,24768.0,80747.0,14791.0,13345.0,7898.0,16923.0,15814.0,6983.0,3280.0,1419.0,211.0,83.0
17274,County,2020/01/06,48.0,TX,48015.0,Austin County,4695.0,25294.0,98115.0,20041.0,17603.0,10032.0,15016.0,20200.0,10003.0,3932.0,1036.0,165.0,87.0
20432,County,2020/01/07,48.0,TX,48015.0,Austin County,4280.0,25709.0,101763.0,22680.0,17988.0,9016.0,16518.0,19445.0,10867.0,3977.0,1025.0,198.0,49.0
25181,County,2020/01/08,48.0,TX,48015.0,Austin County,4227.0,25762.0,98370.0,20666.0,16502.0,9600.0,15790.0,20314.0,10499.0,3998.0,896.0,92.0,13.0
26808,County,2020/01/09,48.0,TX,48015.0,Austin County,4415.0,25574.0,101673.0,20337.0,19073.0,10241.0,16429.0,19166.0,10590.0,4401.0,1268.0,143.0,25.0
30004,County,2020/01/10,48.0,TX,48015.0,Austin County,4054.0,25935.0,99611.0,17954.0,20186.0,10836.0,17025.0,18503.0,9496.0,4094.0,1306.0,177.0,34.0
34812,County,2020/01/11,48.0,TX,48015.0,Austin County,4528.0,25461.0,105085.0,21416.0,20091.0,10290.0,21827.0,18346.0,8642.0,3511.0,817.0,74.0,71.0
37932,County,2020/01/12,48.0,TX,48015.0,Austin County,5111.0,24878.0,89976.0,17714.0,18435.0,9683.0,17673.0,15878.0,7058.0,2660.0,670.0,177.0,28.0
41179,County,2020/01/13,48.0,TX,48015.0,Austin County,4380.0,25609.0,97769.0,19925.0,18312.0,9554.0,16450.0,19073.0,9827.0,3434.0,1096.0,86.0,12.0
42806,County,2020/01/14,48.0,TX,48015.0,Austin County,4043.0,25946.0,95421.0,19110.0,17736.0,9011.0,15460.0,19317.0,9763.0,3869.0,968.0,138.0,49.0
45958,County,2020/01/15,48.0,TX,48015.0,Austin County,3958.0,26031.0,103508.0,21608.0,18016.0,9415.0,17261.0,22147.0,9842.0,4039.0,942.0,189.0,49.0
50739,County,2020/01/16,48.0,TX,48015.0,Austin County,3921.0,26068.0,103577.0,19868.0,19569.0,9711.0,18615.0,18892.0,11528.0,4082.0,1117.0,118.0,77.0
52367,County,2020/01/17,48.0,TX,48015.0,Austin County,4111.0,25878.0,105473.0,21051.0,19094.0,11366.0,17591.0,19238.0,11509.0,3772.0,1689.0,99.0,64.0
57099,County,2020/01/18,48.0,TX,48015.0,Austin County,4267.0,25722.0,95115.0,18298.0,18413.0,10043.0,17366.0,17739.0,8980.0,2932.0,1027.0,243.0,74.0
60346,County,2020/01/19,48.0,TX,48015.0,Austin County,5038.0,24951.0,91893.0,18255.0,17111.0,9216.0,19249.0,15769.0,7538.0,3245.0,1062.0,427.0,21.0
63509,County,2020/01/20,48.0,TX,48015.0,Austin County,4626.0,25363.0,99093.0,21197.0,17052.0,9391.0,16935.0,19389.0,9637.0,3608.0,1594.0,233.0,57.0
66707,County,2020/01/21,48.0,TX,48015.0,Austin County,4476.0,25513.0,102756.0,22825.0,17423.0,10539.0,17802.0,17261.0,10997.0,4102.0,1643.0,121.0,43.0
68338,County,2020/01/22,48.0,TX,48015.0,Austin County,4202.0,25787.0,99578.0,21209.0,17663.0,9832.0,17584.0,18740.0,8942.0,4133.0,1182.0,221.0,72.0
73129,County,2020/01/23,48.0,TX,48015.0,Austin County,4001.0,25988.0,104206.0,20693.0,18710.0,9134.0,19318.0,20028.0,10890.0,4017.0,1116.0,213.0,87.0
76286,County,2020/01/24,48.0,TX,48015.0,Austin County,4007.0,25982.0,106570.0,19678.0,20093.0,10811.0,17511.0,22697.0,10010.0,4116.0,1477.0,135.0,42.0
77912,County,2020/01/25,48.0,TX,48015.0,Austin County,4539.0,25450.0,104932.0,22457.0,17764.0,10393.0,21963.0,17477.0,9976.0,3846.0,926.0,87.0,43.0
82379,County,2020/01/26,48.0,TX,48015.0,Austin County,5061.0,24928.0,88337.0,16734.0,15842.0,9547.0,18571.0,15737.0,7089.0,3298.0,1296.0,146.0,77.0
85884,County,2020/01/27,48.0,TX,48015.0,Austin County,3991.0,25998.0,96720.0,19680.0,17390.0,8438.0,17772.0,18984.0,9143.0,3860.0,1301.0,96.0,56.0
87557,County,2020/01/28,48.0,TX,48015.0,Austin County,4161.0,25828.0,95428.0,20504.0,17493.0,8016.0,15781.0,18565.0,9305.0,4159.0,1392.0,141.0,72.0
90663,County,2020/01/29,48.0,TX,48015.0,Austin County,4265.0,25724.0,97766.0,17604.0,17695.0,9854.0,17387.0,20371.0,9845.0,3921.0,847.0,196.0,46.0
94016,County,2020/01/30,48.0,TX,48015.0,Austin County,3934.0,26055.0,98061.0,18989.0,17160.0,9633.0,16978.0,19307.0,10405.0,4175.0,1127.0,249.0,38.0
97071,County,2020/01/31,48.0,TX,48015.0,Austin County,3708.0,26281.0,112024.0,23086.0,20159.0,10086.0,19858.0,21437.0,10845.0,4640.0,1612.0,268.0,33.0
100320,County,2020/02/01,48.0,TX,48015.0,Austin County,4251.0,25738.0,106755.0,22857.0,17886.0,10564.0,21509.0,18591.0,9777.0,4045.0,1181.0,255.0,90.0
105031,County,2020/02/02,48.0,TX,48015.0,Austin County,5051.0,24938.0,92670.0,17588.0,16625.0,9238.0,19399.0,18894.0,6861.0,2540.0,1139.0,215.0,171.0
106657,County,2020/02/03,48.0,TX,48015.0,Austin County,3978.0,26011.0,103085.0,20114.0,19712.0,11001.0,17757.0,18003.0,10605.0,4649.0,1045.0,74.0,125.0
111419,County,2020/02/04,48.0,TX,48015.0,Austin County,4247.0,25742.0,105339.0,21386.0,19384.0,10136.0,18851.0,19543.0,10186.0,4186.0,1353.0,236.0,78.0
114622,County,2020/02/05,48.0,TX,48015.0,Austin County,4187.0,25802.0,98882.0,19608.0,18539.0,9455.0,17165.0,18225.0,10147.0,4246.0,1169.0,201.0,127.0
117829,County,2020/02/06,48.0,TX,48015.0,Austin County,3615.0,26374.0,106708.0,21630.0,19430.0,11203.0,18582.0,20140.0,10338.0,4078.0,976.0,267.0,64.0
119407,County,2020/02/07,48.0,TX,48015.0,Austin County,3532.0,26457.0,117245.0,24266.0,21161.0,11415.0,20977.0,22418.0,11543.0,3721.0,1376.0,272.0,96.0
122653,County,2020/02/08,48.0,TX,48015.0,Austin County,4217.0,25772.0,104235.0,19267.0,19655.0,10792.0,20936.0,18894.0,9459.0,3768.0,1173.0,250.0,41.0
126543,County,2020/02/09,48.0,TX,48015.0,Austin County,5470.0,24519.0,89905.0,17236.0,17635.0,8874.0,17660.0,16297.0,7559.0,2915.0,1414.0,214.0,101.0
130837,County,2020/02/10,48.0,TX,48015.0,Austin County,3895.0,26094.0,108091.0,23056.0,20597.0,11508.0,17413.0,18118.0,11256.0,4641.0,1258.0,184.0,60.0
132701,County,2020/02/11,48.0,TX,48015.0,Austin County,3768.0,26221.0,110667.0,21575.0,19388.0,10605.0,19851.0,21503.0,11197.0,4945.0,1328.0,176.0,99.0
136942,County,2020/02/12,48.0,TX,48015.0,Austin County,3941.0,26048.0,110979.0,21532.0,20806.0,10519.0,19882.0,20550.0,11841.0,4179.0,1343.0,219.0,108.0
138635,County,2020/02/13,48.0,TX,48015.0,Austin County,3616.0,26373.0,114782.0,22216.0,21959.0,11597.0,19463.0,21028.0,12267.0,4153.0,1728.0,246.0,125.0
141694,County,2020/02/14,48.0,TX,48015.0,Austin County,3650.0,26339.0,130836.0,25989.0,24668.0,12911.0,21838.0,23137.0,13915.0,6193.0,1666.0,354.0,165.0
146572,County,2020/02/15,48.0,TX,48015.0,Austin County,4316.0,25673.0,113026.0,22501.0,19985.0,10464.0,22722.0,20093.0,11574.0,3857.0,1367.0,401.0,62.0
148179,County,2020/02/16,48.0,TX,48015.0,Austin County,5098.0,24891.0,97181.0,19030.0,18843.0,9193.0,20106.0,15885.0,8269.0,4158.0,1397.0,222.0,78.0
152941,County,2020/02/17,48.0,TX,48015.0,Austin County,5707.0,24282.0,86316.0,16757.0,15295.0,8372.0,15480.0,15954.0,8990.0,3852.0,1219.0,309.0,88.0
154518,County,2020/02/18,48.0,TX,48015.0,Austin County,3762.0,26227.0,103132.0,20294.0,17104.0,9056.0,18442.0,21364.0,10959.0,4607.0,1015.0,147.0,144.0
159328,County,2020/02/19,48.0,TX,48015.0,Austin County,3502.0,26487.0,108001.0,19866.0,19523.0,9083.0,19309.0,22657.0,11628.0,4557.0,954.0,340.0,84.0
160824,County,2020/02/20,48.0,TX,48015.0,Austin County,3884.0,26105.0,104897.0,19537.0,18609.0,9449.0,18220.0,21586.0,11285.0,4548.0,1412.0,154.0,97.0
165717,County,2020/02/21,48.0,TX,48015.0,Austin County,3949.0,26040.0,120313.0,25429.0,20918.0,10642.0,21267.0,22277.0,12671.0,4783.0,1951.0,264.0,111.0
167295,County,2020/02/22,48.0,TX,48015.0,Austin County,3710.0,26279.0,111167.0,22725.0,19914.0,10525.0,20462.0,21519.0,10853.0,3860.0,998.0,225.0,86.0
172110,County,2020/02/23,48.0,TX,48015.0,Austin County,4824.0,25165.0,93777.0,19637.0,17327.0,10015.0,17586.0,16567.0,7440.0,3542.0,1229.0,336.0,98.0
173736,County,2020/02/24,48.0,TX,48015.0,Austin County,4353.0,25636.0,105288.0,23652.0,20503.0,10559.0,16779.0,17424.0,11053.0,3834.0,1207.0,177.0,100.0
178200,County,2020/02/25,48.0,TX,48015.0,Austin County,3767.0,26222.0,117137.0,25203.0,19811.0,10486.0,20039.0,23287.0,12080.0,4743.0,1313.0,63.0,112.0
181393,County,2020/02/26,48.0,TX,48015.0,Austin County,4613.0,25376.0,98758.0,16194.0,18981.0,12320.0,21040.0,19631.0,7284.0,2455.0,694.0,93.0,66.0
182712,County,2020/02/27,48.0,TX,48015.0,Austin County,3892.0,26097.0,113296.0,24858.0,19077.0,10337.0,19740.0,20126.0,12619.0,4953.0,1345.0,149.0,92.0
186651,County,2020/02/28,48.0,TX,48015.0,Austin County,3821.0,26168.0,123373.0,27728.0,21678.0,12005.0,23284.0,20646.0,11963.0,4532.0,1371.0,77.0,89.0
191269,County,2020/02/29,48.0,TX,48015.0,Austin County,4186.0,25803.0,106776.0,23633.0,16443.0,10586.0,17753.0,19940.0,11520.0,5650.0,960.0,210.0,81.0
192893,County,2020/03/01,48.0,TX,48015.0,Austin County,4722.0,25267.0,89932.0,19468.0,14151.0,9819.0,18105.0,15789.0,7407.0,3646.0,1235.0,204.0,108.0
196116,County,2020/03/02,48.0,TX,48015.0,Austin County,3872.0,26117.0,102557.0,21670.0,17248.0,9506.0,16908.0,20205.0,10796.0,4863.0,1148.0,111.0,102.0
200968,County,2020/03/03,48.0,TX,48015.0,Austin County,3602.0,26387.0,112136.0,24000.0,21372.0,10698.0,18411.0,19029.0,12178.0,5181.0,1163.0,51.0,53.0
204054,County,2020/03/04,48.0,TX,48015.0,Austin County,3783.0,26206.0,106785.0,21211.0,18816.0,13134.0,17082.0,19883.0,9754.0,5725.0,1002.0,125.0,53.0
207258,County,2020/03/05,48.0,TX,48015.0,Austin County,3582.0,26407.0,114397.0,23788.0,21027.0,12310.0,16796.0,21117.0,13003.0,4854.0,1329.0,128.0,45.0
208741,County,2020/03/06,48.0,TX,48015.0,Austin County,3413.0,26576.0,118161.0,24136.0,21443.0,12744.0,19622.0,20599.0,13147.0,4769.0,1475.0,138.0,88.0
213655,County,2020/03/07,48.0,TX,48015.0,Austin County,3936.0,26053.0,106652.0,22597.0,19148.0,9924.0,20678.0,17944.0,9193.0,5316.0,1434.0,333.0,85.0
216817,County,2020/03/08,48.0,TX,48015.0,Austin County,4695.0,25294.0,93617.0,20066.0,16134.0,9757.0,16845.0,16244.0,8176.0,4321.0,1677.0,260.0,137.0
218457,County,2020/03/09,48.0,TX,48015.0,Austin County,4026.0,25963.0,105166.0,20558.0,19613.0,10619.0,19151.0,19084.0,9781.0,4588.0,1522.0,185.0,65.0
221692,County,2020/03/10,48.0,TX,48015.0,Austin County,3852.0,26137.0,102795.0,21457.0,18177.0,9985.0,17194.0,19305.0,10249.0,4768.0,1523.0,26.0,111.0
224882,County,2020/03/11,48.0,TX,48015.0,Austin County,4183.0,25806.0,110380.0,24087.0,21622.0,10757.0,17098.0,21060.0,8886.0,4811.0,1405.0,285.0,369.0
229530,County,2020/03/12,48.0,TX,48015.0,Austin County,4383.0,25606.0,122741.0,31220.0,21087.0,14824.0,17577.0,21042.0,9824.0,5110.0,1155.0,488.0,414.0
232797,County,2020/03/13,48.0,TX,48015.0,Austin County,4299.0,25690.0,120432.0,22101.0,19498.0,16100.0,25091.0,19975.0,10781.0,4512.0,1694.0,478.0,202.0
235999,County,2020/03/14,48.0,TX,48015.0,Austin County,5296.0,24693.0,122697.0,28609.0,27497.0,11879.0,20347.0,17934.0,11022.0,3144.0,1782.0,329.0,154.0
237611,County,2020/03/15,48.0,TX,48015.0,Austin County,5717.0,24272.0,89179.0,20630.0,16420.0,10017.0,17097.0,13247.0,7392.0,2445.0,1536.0,284.0,111.0
242372,County,2020/03/16,48.0,TX,48015.0,Austin County,4674.0,25315.0,105222.0,24979.0,19607.0,9999.0,15167.0,17698.0,10462.0,5822.0,1116.0,296.0,76.0
244037,County,2020/03/17,48.0,TX,48015.0,Austin County,4928.0,25061.0,99167.0,21151.0,18962.0,10474.0,16739.0,16950.0,9673.0,3965.0,1078.0,108.0,67.0
247192,County,2020/03/18,48.0,TX,48015.0,Austin County,5374.0,24615.0,103045.0,21976.0,19467.0,11619.0,15928.0,18828.0,8904.0,4611.0,1484.0,140.0,88.0
251974,County,2020/03/19,48.0,TX,48015.0,Austin County,5315.0,24674.0,100015.0,20828.0,17730.0,10177.0,17188.0,18617.0,9488.0,4192.0,1515.0,180.0,100.0
255149,County,2020/03/20,48.0,TX,48015.0,Austin County,5554.0,24435.0,92061.0,15470.0,16288.0,10530.0,17888.0,18363.0,7973.0,4434.0,907.0,147.0,61.0
258341,County,2020/03/21,48.0,TX,48015.0,Austin County,6871.0,23118.0,84285.0,17311.0,16985.0,9109.0,16287.0,14608.0,6937.0,2026.0,799.0,180.0,43.0
259963,County,2020/03/22,48.0,TX,48015.0,Austin County,6876.0,23113.0,71362.0,14994.0,15278.0,9311.0,13622.0,12397.0,3355.0,1683.0,553.0,125.0,44.0
264741,County,2020/03/23,48.0,TX,48015.0,Austin County,5518.0,24471.0,83220.0,16190.0,16283.0,9803.0,14215.0,15087.0,7546.0,2800.0,1111.0,130.0,55.0
267971,County,2020/03/24,48.0,TX,48015.0,Austin County,5360.0,24629.0,84955.0,16763.0,14342.0,10582.0,14938.0,15220.0,8720.0,3045.0,1044.0,209.0,92.0
271119,County,2020/03/25,48.0,TX,48015.0,Austin County,5411.0,24578.0,80550.0,15824.0,16758.0,8488.0,13209.0,14141.0,7237.0,3670.0,1058.0,165.0,0.0
272745,County,2020/03/26,48.0,TX,48015.0,Austin County,5354.0,24635.0,84403.0,19659.0,13896.0,8734.0,17057.0,13143.0,6632.0,3464.0,1655.0,107.0,56.0
277508,County,2020/03/27,48.0,TX,48015.0,Austin County,5496.0,24493.0,82728.0,16889.0,13660.0,10014.0,16595.0,13960.0,6242.0,4401.0,725.0,206.0,36.0
279135,County,2020/03/28,48.0,TX,48015.0,Austin County,6301.0,23688.0,76981.0,16708.0,14321.0,7694.0,16082.0,12224.0,6066.0,2467.0,1201.0,189.0,29.0
283895,County,2020/03/29,48.0,TX,48015.0,Austin County,6716.0,23273.0,71462.0,16486.0,12797.0,8039.0,14388.0,11673.0,4499.0,1966.0,1350.0,220.0,44.0
287120,County,2020/03/30,48.0,TX,48015.0,Austin County,5471.0,24518.0,78360.0,15221.0,14340.0,8419.0,13675.0,13338.0,8701.0,3515.0,1062.0,72.0,17.0
288718,County,2020/03/31,48.0,TX,48015.0,Austin County,5849.0,24140.0,79137.0,18186.0,14951.0,7471.0,11130.0,14660.0,7951.0,3534.0,941.0,238.0,75.0
291953,County,2020/04/01,48.0,TX,48015.0,Austin County,5526.0,24463.0,81074.0,15576.0,15054.0,7946.0,14912.0,15387.0,7057.0,3945.0,1075.0,104.0,18.0
296686,County,2020/04/02,48.0,TX,48015.0,Austin County,5500.0,24489.0,82300.0,18358.0,13732.0,7462.0,14336.0,16067.0,7033.0,4134.0,959.0,168.0,51.0
299865,County,2020/04/03,48.0,TX,48015.0,Austin County,5030.0,24959.0,83833.0,17716.0,15363.0,9074.0,16563.0,12389.0,7693.0,4045.0,844.0,114.0,32.0
301491,County,2020/04/04,48.0,TX,48015.0,Austin County,6784.0,23205.0,63955.0,13040.0,12016.0,7441.0,13279.0,10341.0,4900.0,2580.0,231.0,94.0,33.0
306245,County,2020/04/05,48.0,TX,48015.0,Austin County,7351.0,22638.0,70197.0,15560.0,13786.0,7675.0,14929.0,11271.0,4106.0,1873.0,900.0,72.0,25.0
307880,County,2020/04/06,48.0,TX,48015.0,Austin County,5809.0,24180.0,76151.0,14989.0,15595.0,8698.0,12286.0,13474.0,6933.0,3361.0,707.0,80.0,28.0
312686,County,2020/04/07,48.0,TX,48015.0,Austin County,5641.0,24348.0,81240.0,17652.0,14251.0,9701.0,13580.0,14135.0,8092.0,2501.0,1158.0,140.0,30.0
315859,County,2020/04/08,48.0,TX,48015.0,Austin County,5423.0,24566.0,81555.0,17394.0,15006.0,8549.0,15646.0,13531.0,7532.0,2995.0,798.0,77.0,27.0
319029,County,2020/04/09,48.0,TX,48015.0,Austin County,5518.0,24471.0,87180.0,18493.0,14407.0,9213.0,18185.0,15594.0,6834.0,3309.0,966.0,145.0,34.0
322223,County,2020/04/10,48.0,TX,48015.0,Austin County,5762.0,24227.0,81564.0,16032.0,14520.0,9311.0,17014.0,14696.0,7006.0,2234.0,626.0,106.0,19.0
323898,County,2020/04/11,48.0,TX,48015.0,Austin County,6434.0,23555.0,79292.0,15708.0,14790.0,10207.0,18354.0,12613.0,5297.0,1563.0,664.0,56.0,40.0
327043,County,2020/04/12,48.0,TX,48015.0,Austin County,7370.0,22619.0,61204.0,15633.0,12646.0,7937.0,11681.0,8167.0,2959.0,1341.0,652.0,147.0,41.0
330308,County,2020/04/13,48.0,TX,48015.0,Austin County,6344.0,23645.0,84540.0,16970.0,16338.0,10441.0,16564.0,12942.0,7279.0,2926.0,928.0,120.0,32.0
334980,County,2020/04/14,48.0,TX,48015.0,Austin County,6302.0,23687.0,94267.0,23888.0,21097.0,11720.0,16175.0,11730.0,6755.0,2154.0,589.0,159.0,0.0
336657,County,2020/04/15,48.0,TX,48015.0,Austin County,6426.0,23563.0,84796.0,21921.0,18867.0,9956.0,12287.0,12755.0,5655.0,2563.0,624.0,168.0,0.0
339811,County,2020/04/16,48.0,TX,48015.0,Austin County,6345.0,23644.0,88727.0,22365.0,16782.0,9748.0,13958.0,17398.0,5254.0,2577.0,564.0,0.0,81.0
344590,County,2020/04/17,48.0,TX,48015.0,Austin County,5593.0,24396.0,93056.0,27270.0,15773.0,8500.0,13615.0,17825.0,6554.0,2612.0,823.0,62.0,22.0
346217,County,2020/04/18,48.0,TX,48015.0,Austin County,6784.0,23205.0,100631.0,24504.0,22690.0,9187.0,17729.0,15490.0,6993.0,2902.0,885.0,224.0,27.0
350969,County,2020/04/19,48.0,TX,48015.0,Austin County,6710.0,23279.0,73062.0,16256.0,15275.0,7182.0,18487.0,9942.0,2822.0,1718.0,1183.0,146.0,51.0
352595,County,2020/04/20,48.0,TX,48015.0,Austin County,6218.0,23771.0,103645.0,25541.0,24297.0,13117.0,16773.0,15703.0,5651.0,1983.0,474.0,106.0,0.0
355789,County,2020/04/21,48.0,TX,48015.0,Austin County,5532.0,24457.0,82006.0,16537.0,13308.0,9325.0,14058.0,15354.0,9054.0,3393.0,887.0,90.0,0.0
360559,County,2020/04/22,48.0,TX,48015.0,Austin County,5275.0,24714.0,78541.0,16893.0,13454.0,8954.0,14377.0,13099.0,7378.0,3311.0,954.0,103.0,18.0
363765,County,2020/04/23,48.0,TX,48015.0,Austin County,5203.0,24786.0,86019.0,15497.0,16096.0,11372.0,15482.0,15815.0,7815.0,2901.0,991.0,29.0,21.0
365392,County,2020/04/24,48.0,TX,48015.0,Austin County,4958.0,25031.0,90584.0,16154.0,17386.0,10114.0,19188.0,16608.0,7408.0,2834.0,801.0,81.0,10.0
370133,County,2020/04/25,48.0,TX,48015.0,Austin County,5784.0,24205.0,78653.0,15757.0,14416.0,8332.0,17250.0,13818.0,5667.0,2409.0,812.0,192.0,0.0
373327,County,2020/04/26,48.0,TX,48015.0,Austin County,6113.0,23876.0,79584.0,16154.0,14829.0,9812.0,17999.0,12332.0,5528.0,1998.0,721.0,174.0,37.0
376559,County,2020/04/27,48.0,TX,48015.0,Austin County,5180.0,24809.0,89412.0,18701.0,16873.0,9288.0,17006.0,14740.0,8254.0,3253.0,1174.0,113.0,10.0
379730,County,2020/04/28,48.0,TX,48015.0,Austin County,5120.0,24869.0,82408.0,17994.0,15143.0,8329.0,13500.0,14994.0,7812.0,3694.0,809.0,124.0,9.0
382933,County,2020/04/29,48.0,TX,48015.0,Austin County,5152.0,24837.0,81907.0,15714.0,14775.0,8956.0,13676.0,15902.0,8118.0,3611.0,1028.0,80.0,47.0
384504,County,2020/04/30,48.0,TX,48015.0,Austin County,5153.0,24836.0,99772.0,20742.0,19670.0,11607.0,16822.0,16820.0,9552.0,3664.0,836.0,59.0,0.0
389339,County,2020/05/01,48.0,TX,48015.0,Austin County,4687.0,25302.0,94793.0,19474.0,16684.0,9594.0,17899.0,17480.0,8600.0,3525.0,1359.0,139.0,39.0
392490,County,2020/05/02,48.0,TX,48015.0,Austin County,5742.0,24247.0,89029.0,16037.0,19643.0,11999.0,15994.0,15726.0,6122.0,2667.0,711.0,69.0,61.0
395686,County,2020/05/03,48.0,TX,48015.0,Austin County,6351.0,23638.0,77782.0,15688.0,15683.0,8882.0,14583.0,13933.0,6363.0,1710.0,899.0,41.0,0.0
397335,County,2020/05/04,48.0,TX,48015.0,Austin County,4794.0,25195.0,87887.0,17025.0,17274.0,9669.0,14535.0,16564.0,8923.0,2560.0,1168.0,158.0,11.0
402054,County,2020/05/05,48.0,TX,48015.0,Austin County,4897.0,25092.0,89320.0,18546.0,16130.0,10354.0,15346.0,16437.0,8410.0,2836.0,1141.0,110.0,10.0
403684,County,2020/05/06,48.0,TX,48015.0,Austin County,4837.0,25152.0,88291.0,16820.0,16505.0,9982.0,14836.0,16520.0,9264.0,2970.0,1259.0,85.0,50.0
408404,County,2020/05/07,48.0,TX,48015.0,Austin County,4673.0,25316.0,87849.0,15245.0,15448.0,9632.0,17015.0,17579.0,7439.0,4039.0,1086.0,299.0,67.0
411666,County,2020/05/08,48.0,TX,48015.0,Austin County,5048.0,24941.0,85948.0,15481.0,16105.0,8908.0,15155.0,16930.0,8700.0,3437.0,1070.0,134.0,28.0
413246,County,2020/05/09,48.0,TX,48015.0,Austin County,4613.0,25376.0,91660.0,18311.0,17827.0,10894.0,19290.0,14551.0,6703.0,3104.0,758.0,211.0,11.0
416475,County,2020/05/10,48.0,TX,48015.0,Austin County,5734.0,24255.0,83618.0,18306.0,14235.0,10496.0,14585.0,16147.0,6126.0,2355.0,1208.0,136.0,24.0
419718,County,2020/05/11,48.0,TX,48015.0,Austin County,4800.0,25189.0,91502.0,19189.0,16854.0,9257.0,15568.0,17503.0,8510.0,3408.0,1101.0,98.0,14.0
424478,County,2020/05/12,48.0,TX,48015.0,Austin County,4757.0,25232.0,84890.0,16531.0,14828.0,9809.0,15244.0,14967.0,8438.0,3421.0,1409.0,225.0,18.0
425960,County,2020/05/13,48.0,TX,48015.0,Austin County,4812.0,25177.0,87021.0,16038.0,15794.0,10149.0,15737.0,16261.0,7751.0,3920.0,1171.0,162.0,38.0
429301,County,2020/05/14,48.0,TX,48015.0,Austin County,4530.0,25459.0,89935.0,18390.0,15522.0,9039.0,15901.0,16604.0,8766.0,3657.0,1745.0,299.0,12.0
432447,County,2020/05/15,48.0,TX,48015.0,Austin County,4501.0,25488.0,87988.0,16695.0,15907.0,8559.0,16181.0,16942.0,7718.0,3875.0,1784.0,268.0,59.0
437196,County,2020/05/16,48.0,TX,48015.0,Austin County,5612.0,24377.0,80722.0,16397.0,14941.0,9253.0,16193.0,13998.0,5654.0,2600.0,1397.0,267.0,22.0
438824,County,2020/05/17,48.0,TX,48015.0,Austin County,4917.0,25072.0,90262.0,17509.0,16259.0,10993.0,18761.0,18023.0,5719.0,2159.0,568.0,256.0,15.0
443644,County,2020/05/18,48.0,TX,48015.0,Austin County,3428.0,26561.0,106448.0,23494.0,19392.0,10293.0,18511.0,20578.0,9487.0,3485.0,1053.0,142.0,13.0
446807,County,2020/05/19,48.0,TX,48015.0,Austin County,3740.0,26249.0,107806.0,24162.0,19166.0,12221.0,20433.0,18069.0,8436.0,3511.0,1673.0,109.0,26.0
449983,County,2020/05/20,48.0,TX,48015.0,Austin County,3484.0,26505.0,103594.0,19151.0,18308.0,15528.0,19040.0,17146.0,9823.0,3152.0,1300.0,146.0,0.0
453218,County,2020/05/21,48.0,TX,48015.0,Austin County,3576.0,26413.0,107393.0,21002.0,19564.0,12616.0,20409.0,18608.0,9792.0,3922.0,1179.0,277.0,24.0
454796,County,2020/05/22,48.0,TX,48015.0,Austin County,3807.0,26182.0,106597.0,19545.0,23216.0,10557.0,18727.0,18673.0,9304.0,4149.0,2212.0,214.0,0.0
459580,County,2020/05/23,48.0,TX,48015.0,Austin County,4439.0,25550.0,92033.0,16872.0,16642.0,13203.0,17120.0,16989.0,7305.0,2462.0,1108.0,276.0,56.0
462784,County,2020/05/24,48.0,TX,48015.0,Austin County,5315.0,24674.0,76476.0,14518.0,14184.0,8784.0,15750.0,12748.0,5680.0,3212.0,1420.0,142.0,38.0
466037,County,2020/05/25,48.0,TX,48015.0,Austin County,5307.0,24682.0,72531.0,14749.0,13599.0,8311.0,13000.0,12355.0,5764.0,2664.0,1872.0,165.0,52.0
467567,County,2020/05/26,48.0,TX,48015.0,Austin County,4612.0,25377.0,92278.0,18284.0,17192.0,9788.0,17202.0,15962.0,7941.0,4317.0,1412.0,146.0,34.0
472385,County,2020/05/27,48.0,TX,48015.0,Austin County,4555.0,25434.0,91910.0,19835.0,15695.0,9304.0,16431.0,16614.0,8323.0,3800.0,1604.0,263.0,41.0
473919,County,2020/05/28,48.0,TX,48015.0,Austin County,4380.0,25609.0,93660.0,19251.0,16218.0,9312.0,17064.0,17107.0,9188.0,3990.0,1252.0,255.0,23.0
478723,County,2020/05/29,48.0,TX,48015.0,Austin County,4701.0,25288.0,98481.0,19482.0,18831.0,9479.0,18084.0,18441.0,9280.0,3123.0,1526.0,214.0,21.0
481923,County,2020/05/30,48.0,TX,48015.0,Austin County,5216.0,24773.0,92028.0,17697.0,17238.0,11686.0,18920.0,15025.0,6996.0,3267.0,931.0,210.0,58.0
483479,County,2020/05/31,48.0,TX,48015.0,Austin County,5525.0,24464.0,79404.0,14420.0,15059.0,9473.0,15305.0,15529.0,5464.0,2821.0,1235.0,98.0,0.0
486745,County,2020/06/01,48.0,TX,48015.0,Austin County,4253.0,25736.0,90464.0,19766.0,15416.0,9752.0,16750.0,15164.0,8778.0,3607.0,1007.0,151.0,73.0
489986,County,2020/06/02,48.0,TX,48015.0,Austin County,4603.0,25386.0,94680.0,19545.0,16867.0,10567.0,17091.0,16037.0,9273.0,3718.0,1195.0,323.0,64.0
494698,County,2020/06/03,48.0,TX,48015.0,Austin County,3950.0,26039.0,99159.0,21077.0,16811.0,10569.0,16835.0,17241.0,10333.0,4131.0,1865.0,264.0,33.0
496317,County,2020/06/04,48.0,TX,48015.0,Austin County,3974.0,26015.0,100394.0,20827.0,17781.0,10631.0,16489.0,19385.0,9699.0,3957.0,1223.0,374.0,28.0
501093,County,2020/06/05,48.0,TX,48015.0,Austin County,4140.0,25849.0,100975.0,19395.0,16846.0,11137.0,18800.0,18025.0,10188.0,4566.0,1701.0,303.0,14.0
504294,County,2020/06/06,48.0,TX,48015.0,Austin County,5123.0,24866.0,86081.0,16632.0,12553.0,10322.0,15987.0,18916.0,6473.0,3977.0,950.0,214.0,57.0
505859,County,2020/06/07,48.0,TX,48015.0,Austin County,5467.0,24522.0,74167.0,12770.0,16305.0,8727.0,15650.0,11721.0,5230.0,2476.0,974.0,240.0,74.0
509082,County,2020/06/08,48.0,TX,48015.0,Austin County,3873.0,26116.0,99798.0,19596.0,16687.0,10595.0,18250.0,19534.0,8878.0,4368.0,1525.0,308.0,57.0
513860,County,2020/06/09,48.0,TX,48015.0,Austin County,4092.0,25897.0,90685.0,16021.0,16656.0,9246.0,16638.0,17340.0,8576.0,4687.0,1340.0,154.0,27.0
515490,County,2020/06/10,48.0,TX,48015.0,Austin County,4213.0,25776.0,99636.0,20811.0,17871.0,9655.0,17598.0,18017.0,9667.0,4174.0,1670.0,128.0,45.0
518694,County,2020/06/11,48.0,TX,48015.0,Austin County,4211.0,25778.0,99074.0,19821.0,16528.0,9296.0,17305.0,19466.0,10901.0,3982.0,1567.0,180.0,28.0
521897,County,2020/06/12,48.0,TX,48015.0,Austin County,4019.0,25970.0,98426.0,19142.0,16394.0,10225.0,16974.0,19511.0,9915.0,4196.0,1853.0,202.0,14.0
526632,County,2020/06/13,48.0,TX,48015.0,Austin County,4529.0,25460.0,92249.0,19836.0,16174.0,9515.0,16891.0,16890.0,8559.0,2924.0,1229.0,231.0,0.0
529837,County,2020/06/14,48.0,TX,48015.0,Austin County,4965.0,25024.0,80710.0,15133.0,13857.0,9245.0,15820.0,14615.0,6853.0,3452.0,1427.0,276.0,32.0
531465,County,2020/06/15,48.0,TX,48015.0,Austin County,4565.0,25424.0,90961.0,16987.0,16206.0,10209.0,15749.0,16449.0,9982.0,4166.0,1095.0,103.0,15.0
534654,County,2020/06/16,48.0,TX,48015.0,Austin County,4128.0,25861.0,92817.0,17739.0,15580.0,9326.0,17176.0,18171.0,8793.0,4275.0,1522.0,206.0,29.0
537848,County,2020/06/17,48.0,TX,48015.0,Austin County,4291.0,25698.0,98933.0,17485.0,17933.0,9333.0,19353.0,17811.0,10090.0,5105.0,1532.0,269.0,22.0
542609,County,2020/06/18,48.0,TX,48015.0,Austin County,4124.0,25865.0,93473.0,17804.0,16368.0,8708.0,17097.0,16655.0,10910.0,3834.0,1811.0,237.0,49.0
544236,County,2020/06/19,48.0,TX,48015.0,Austin County,4052.0,25937.0,89803.0,17616.0,15746.0,8044.0,16581.0,18016.0,8118.0,4063.0,1292.0,252.0,75.0
547441,County,2020/06/20,48.0,TX,48015.0,Austin County,4791.0,25198.0,85513.0,17492.0,16507.0,8928.0,15097.0,14809.0,7545.0,3590.0,1264.0,219.0,62.0
552184,County,2020/06/21,48.0,TX,48015.0,Austin County,5811.0,24178.0,66674.0,15364.0,12662.0,5775.0,12621.0,10711.0,4852.0,3094.0,1147.0,423.0,25.0
553820,County,2020/06/22,48.0,TX,48015.0,Austin County,4718.0,25271.0,79744.0,15504.0,13855.0,7603.0,13302.0,14613.0,8673.0,4308.0,1504.0,345.0,37.0
558580,County,2020/06/23,48.0,TX,48015.0,Austin County,4443.0,25546.0,81239.0,14047.0,15000.0,8052.0,14918.0,15398.0,8109.0,3702.0,1621.0,331.0,61.0
560211,County,2020/06/24,48.0,TX,48015.0,Austin County,4954.0,25035.0,76400.0,12951.0,14544.0,8726.0,13163.0,13446.0,8258.0,3692.0,1379.0,197.0,44.0
563401,County,2020/06/25,48.0,TX,48015.0,Austin County,4691.0,25298.0,78917.0,15213.0,13452.0,8866.0,13814.0,14585.0,7592.0,3391.0,1682.0,284.0,38.0
566654,County,2020/06/26,48.0,TX,48015.0,Austin County,4833.0,25156.0,80737.0,16574.0,14406.0,8802.0,14160.0,13951.0,7562.0,3533.0,1548.0,138.0,63.0
569776,County,2020/06/27,48.0,TX,48015.0,Austin County,5313.0,24676.0,91092.0,19895.0,16806.0,11070.0,15998.0,15717.0,7137.0,2828.0,1415.0,167.0,59.0
572971,County,2020/06/28,48.0,TX,48015.0,Austin County,5175.0,24814.0,76732.0,15292.0,15440.0,7784.0,14825.0,12543.0,5881.0,3349.0,1317.0,229.0,72.0
577747,County,2020/06/29,48.0,TX,48015.0,Austin County,4706.0,25283.0,87442.0,17415.0,16211.0,8264.0,14974.0,16314.0,8568.0,3955.0,1643.0,72.0,26.0
579390,County,2020/06/30,48.0,TX,48015.0,Austin County,4609.0,25380.0,91891.0,16641.0,18366.0,7927.0,15325.0,18473.0,9046.0,4266.0,1586.0,143.0,118.0
582595,County,2020/07/01,48.0,TX,48015.0,Austin County,4223.0,25766.0,88856.0,16600.0,16406.0,9124.0,14801.0,16750.0,9307.0,4431.0,1202.0,186.0,49.0
587328,County,2020/07/02,48.0,TX,48015.0,Austin County,5062.0,24927.0,83761.0,16147.0,14278.0,9410.0,14662.0,15481.0,8058.0,3599.0,1785.0,301.0,40.0
588968,County,2020/07/03,48.0,TX,48015.0,Austin County,6213.0,23776.0,80281.0,16481.0,14325.0,8752.0,14080.0,13872.0,7519.0,3513.0,1539.0,137.0,63.0
592175,County,2020/07/04,48.0,TX,48015.0,Austin County,7003.0,22986.0,68684.0,14100.0,12255.0,7488.0,12046.0,11868.0,6433.0,3006.0,1317.0,117.0,54.0
596925,County,2020/07/05,48.0,TX,48015.0,Austin County,5480.0,24509.0,72997.0,15013.0,14754.0,8098.0,13511.0,12509.0,4147.0,2761.0,1935.0,238.0,31.0
598016,County,2020/07/06,48.0,TX,48015.0,Austin County,5189.0,24800.0,84003.0,16579.0,16247.0,9187.0,14102.0,15364.0,8463.0,2883.0,1003.0,117.0,58.0
602120,County,2020/07/07,48.0,TX,48015.0,Austin County,4840.0,25149.0,86188.0,20061.0,16564.0,7890.0,15292.0,13289.0,8330.0,3202.0,1302.0,226.0,32.0
606439,County,2020/07/08,48.0,TX,48015.0,Austin County,5024.0,24965.0,85302.0,18056.0,17100.0,6752.0,13617.0,15632.0,8285.0,4447.0,1169.0,168.0,76.0
609692,County,2020/07/09,48.0,TX,48015.0,Austin County,4951.0,25038.0,86914.0,18511.0,14775.0,8176.0,14113.0,17266.0,8596.0,3819.0,1365.0,277.0,16.0
612897,County,2020/07/10,48.0,TX,48015.0,Austin County,4646.0,25343.0,90446.0,20016.0,16558.0,7407.0,15599.0,16921.0,7936.0,4066.0,1594.0,252.0,97.0
614526,County,2020/07/11,48.0,TX,48015.0,Austin County,5168.0,24821.0,86418.0,19018.0,16048.0,8622.0,16934.0,16808.0,5013.0,2351.0,1293.0,273.0,58.0
617697,County,2020/07/12,48.0,TX,48015.0,Austin County,6187.0,23802.0,75083.0,16920.0,14039.0,6239.0,14086.0,12955.0,6417.0,2697.0,1507.0,165.0,58.0
620886,County,2020/07/13,48.0,TX,48015.0,Austin County,5207.0,24782.0,81080.0,17621.0,14445.0,6586.0,15372.0,14760.0,7369.0,3451.0,1337.0,86.0,53.0
624087,County,2020/07/14,48.0,TX,48015.0,Austin County,4744.0,25245.0,81972.0,16908.0,15160.0,8214.0,13978.0,15045.0,7267.0,3700.0,1506.0,155.0,39.0
628824,County,2020/07/15,48.0,TX,48015.0,Austin County,5052.0,24937.0,86569.0,17852.0,15901.0,8741.0,13627.0,15728.0,9208.0,3931.0,1424.0,157.0,0.0
630450,County,2020/07/16,48.0,TX,48015.0,Austin County,5200.0,24789.0,86009.0,18419.0,15928.0,7834.0,14035.0,17062.0,7623.0,3565.0,1369.0,166.0,8.0
633657,County,2020/07/17,48.0,TX,48015.0,Austin County,5071.0,24918.0,77250.0,13266.0,14953.0,7270.0,12585.0,16108.0,8124.0,3309.0,1238.0,374.0,23.0
638437,County,2020/07/18,48.0,TX,48015.0,Austin County,5636.0,24353.0,78468.0,15541.0,13552.0,8760.0,15303.0,14375.0,6955.0,2670.0,1190.0,83.0,39.0
641640,County,2020/07/19,48.0,TX,48015.0,Austin County,6104.0,23885.0,71552.0,15908.0,11891.0,6136.0,14552.0,13836.0,5343.0,2341.0,1297.0,198.0,50.0
643251,County,2020/07/20,48.0,TX,48015.0,Austin County,5463.0,24526.0,87567.0,19540.0,16123.0,6897.0,16094.0,14828.0,8597.0,3975.0,1297.0,208.0,8.0
646819,County,2020/07/21,48.0,TX,48015.0,Austin County,5356.0,24633.0,85118.0,19452.0,14659.0,7485.0,14352.0,14014.0,8710.0,4426.0,1694.0,264.0,62.0
651204,County,2020/07/22,48.0,TX,48015.0,Austin County,4896.0,25093.0,86595.0,16049.0,14321.0,9558.0,14839.0,16438.0,9527.0,3728.0,1663.0,429.0,43.0
654399,County,2020/07/23,48.0,TX,48015.0,Austin County,4632.0,25357.0,85149.0,16814.0,12930.0,8403.0,15590.0,16746.0,8399.0,4640.0,1365.0,226.0,36.0
657673,County,2020/07/24,48.0,TX,48015.0,Austin County,4611.0,25378.0,90635.0,18551.0,15654.0,8161.0,15103.0,17199.0,8638.0,4891.0,1940.0,470.0,28.0
659215,County,2020/07/25,48.0,TX,48015.0,Austin County,5815.0,24174.0,74865.0,14491.0,13399.0,8069.0,13232.0,14369.0,6497.0,3127.0,1370.0,261.0,50.0
662415,County,2020/07/26,48.0,TX,48015.0,Austin County,5943.0,24046.0,72485.0,11721.0,13966.0,7624.0,12458.0,14322.0,6007.0,4174.0,1926.0,240.0,47.0
665710,County,2020/07/27,48.0,TX,48015.0,Austin County,5365.0,24624.0,89975.0,18648.0,15802.0,8847.0,14944.0,17559.0,8077.0,4160.0,1524.0,352.0,62.0
668872,County,2020/07/28,48.0,TX,48015.0,Austin County,5039.0,24950.0,89058.0,17521.0,16312.0,8832.0,14138.0,17846.0,8531.0,4409.0,1084.0,320.0,65.0
673660,County,2020/07/29,48.0,TX,48015.0,Austin County,5142.0,24847.0,87262.0,17985.0,14827.0,7783.0,15336.0,15936.0,8202.0,4785.0,2062.0,255.0,91.0
675191,County,2020/07/30,48.0,TX,48015.0,Austin County,4937.0,25052.0,93061.0,16750.0,17470.0,9373.0,17338.0,16764.0,8356.0,4540.0,1940.0,467.0,63.0
679969,County,2020/07/31,48.0,TX,48015.0,Austin County,4971.0,25018.0,88076.0,16796.0,17126.0,9298.0,15117.0,13404.0,9216.0,4992.0,1845.0,208.0,74.0
683138,County,2020/08/01,48.0,TX,48015.0,Austin County,5738.0,24251.0,73310.0,12973.0,12872.0,7582.0,13371.0,12984.0,6598.0,4449.0,1948.0,457.0,76.0
684772,County,2020/08/02,48.0,TX,48015.0,Austin County,6177.0,23812.0,69203.0,13907.0,12540.0,5978.0,12636.0,11902.0,5854.0,3733.0,2113.0,512.0,28.0
687969,County,2020/08/03,48.0,TX,48015.0,Austin County,5539.0,24450.0,74641.0,15516.0,12594.0,6494.0,11022.0,15329.0,7787.0,4104.0,1407.0,370.0,18.0
692744,County,2020/08/04,48.0,TX,48015.0,Austin County,4814.0,25175.0,84712.0,14754.0,15948.0,7630.0,14951.0,16333.0,8205.0,4625.0,1927.0,292.0,47.0
695920,County,2020/08/05,48.0,TX,48015.0,Austin County,4523.0,25466.0,83388.0,16857.0,14174.0,8193.0,14635.0,13998.0,9118.0,4062.0,1959.0,353.0,39.0
699115,County,2020/08/06,48.0,TX,48015.0,Austin County,4734.0,25255.0,85606.0,16441.0,14495.0,8302.0,15811.0,16151.0,8626.0,3780.0,1784.0,193.0,23.0
702311,County,2020/08/07,48.0,TX,48015.0,Austin County,5072.0,24917.0,81886.0,15447.0,14349.0,8022.0,12948.0,16240.0,8977.0,4059.0,1539.0,232.0,73.0
703940,County,2020/08/08,48.0,TX,48015.0,Austin County,5039.0,24950.0,76217.0,12413.0,11735.0,7666.0,15052.0,15082.0,10331.0,2191.0,1431.0,280.0,36.0
708722,County,2020/08/09,48.0,TX,48015.0,Austin County,5818.0,24171.0,75972.0,13988.0,12051.0,8432.0,13729.0,15136.0,7108.0,3470.0,1807.0,222.0,29.0
710351,County,2020/08/10,48.0,TX,48015.0,Austin County,5196.0,24793.0,84100.0,17232.0,14494.0,8683.0,15581.0,14275.0,9539.0,3247.0,756.0,267.0,26.0
713568,County,2020/08/11,48.0,TX,48015.0,Austin County,4952.0,25037.0,85602.0,17022.0,13827.0,6920.0,14603.0,18055.0,9365.0,4150.0,1332.0,267.0,61.0
718279,County,2020/08/12,48.0,TX,48015.0,Austin County,4979.0,25010.0,89101.0,20486.0,13610.0,7527.0,15006.0,16886.0,8710.0,4319.0,1875.0,498.0,184.0
721473,County,2020/08/13,48.0,TX,48015.0,Austin County,4508.0,25481.0,90337.0,17339.0,13330.0,9583.0,13463.0,18855.0,10109.0,4963.0,2110.0,432.0,153.0
723100,County,2020/08/14,48.0,TX,48015.0,Austin County,4329.0,25660.0,97001.0,20228.0,15802.0,9450.0,15613.0,19316.0,9721.0,4703.0,1616.0,385.0,167.0
726331,County,2020/08/15,48.0,TX,48015.0,Austin County,5162.0,24827.0,85598.0,13821.0,15831.0,7770.0,16411.0,17225.0,8893.0,3913.0,1192.0,302.0,240.0
729490,County,2020/08/16,48.0,TX,48015.0,Austin County,5434.0,24555.0,84107.0,17570.0,13909.0,8881.0,13429.0,14864.0,8076.0,5053.0,1793.0,322.0,210.0
734270,County,2020/08/17,48.0,TX,48015.0,Austin County,5149.0,24840.0,89333.0,17074.0,14471.0,7083.0,16606.0,16426.0,9825.0,5677.0,1580.0,356.0,235.0
735899,County,2020/08/18,48.0,TX,48015.0,Austin County,5401.0,24588.0,90737.0,16378.0,14263.0,7685.0,15370.0,19580.0,9957.0,4501.0,2464.0,262.0,277.0
740637,County,2020/08/19,48.0,TX,48015.0,Austin County,4640.0,25349.0,94513.0,17283.0,16303.0,7948.0,16811.0,18611.0,10385.0,4703.0,1945.0,312.0,212.0
742266,County,2020/08/20,48.0,TX,48015.0,Austin County,4528.0,25461.0,91154.0,17284.0,15841.0,8424.0,15247.0,16298.0,10271.0,4931.0,2279.0,230.0,349.0
745466,County,2020/08/21,48.0,TX,48015.0,Austin County,3936.0,26053.0,98252.0,18829.0,14525.0,10093.0,18294.0,20372.0,8848.0,4836.0,1894.0,239.0,322.0
748670,County,2020/08/22,48.0,TX,48015.0,Austin County,5019.0,24970.0,92147.0,16000.0,14038.0,8539.0,18358.0,17540.0,8775.0,5337.0,2978.0,204.0,378.0
751864,County,2020/08/23,48.0,TX,48015.0,Austin County,6093.0,23896.0,67805.0,12137.0,10886.0,7232.0,13537.0,12482.0,5941.0,3438.0,1712.0,258.0,182.0
756607,County,2020/08/24,48.0,TX,48015.0,Austin County,5465.0,24524.0,77676.0,15802.0,12443.0,7638.0,13987.0,14185.0,7647.0,4338.0,1359.0,131.0,146.0
758236,County,2020/08/25,48.0,TX,48015.0,Austin County,4951.0,25038.0,81575.0,15250.0,13642.0,7561.0,14575.0,15764.0,7827.0,4883.0,1607.0,299.0,167.0
761429,County,2020/08/26,48.0,TX,48015.0,Austin County,4925.0,25064.0,74165.0,13962.0,12990.0,7115.0,13920.0,13493.0,7267.0,3157.0,1916.0,229.0,116.0
766202,County,2020/08/27,48.0,TX,48015.0,Austin County,5278.0,24711.0,74859.0,13057.0,13308.0,7686.0,13621.0,13586.0,7600.0,4398.0,1337.0,160.0,106.0
769370,County,2020/08/28,48.0,TX,48015.0,Austin County,4971.0,25018.0,83146.0,14801.0,14167.0,8990.0,14368.0,15685.0,8525.0,4442.0,1839.0,252.0,77.0
772570,County,2020/08/29,48.0,TX,48015.0,Austin County,5600.0,24389.0,81011.0,15486.0,12556.0,7827.0,14137.0,15021.0,9454.0,4721.0,1400.0,280.0,129.0
774247,County,2020/08/30,48.0,TX,48015.0,Austin County,6488.0,23501.0,71021.0,13103.0,11347.0,6710.0,13736.0,12738.0,6723.0,3503.0,2642.0,342.0,177.0
778968,County,2020/08/31,48.0,TX,48015.0,Austin County,5556.0,24433.0,77839.0,15061.0,11594.0,7286.0,13459.0,16251.0,8121.0,3810.0,1847.0,263.0,147.0
780581,County,2020/09/01,48.0,TX,48015.0,Austin County,5189.0,24800.0,85399.0,17197.0,12297.0,7615.0,14399.0,17698.0,9535.0,4542.0,1769.0,257.0,90.0
785354,County,2020/09/02,48.0,TX,48015.0,Austin County,5095.0,24894.0,85129.0,17215.0,14488.0,8243.0,13112.0,18023.0,7768.0,4225.0,1666.0,271.0,118.0
788565,County,2020/09/03,48.0,TX,48015.0,Austin County,4691.0,25298.0,88610.0,17458.0,14552.0,7862.0,15429.0,16566.0,9732.0,4671.0,1947.0,305.0,88.0
790179,County,2020/09/04,48.0,TX,48015.0,Austin County,5010.0,24979.0,85948.0,14050.0,15304.0,8470.0,14024.0,16877.0,9495.0,5500.0,1807.0,300.0,121.0
794940,County,2020/09/05,48.0,TX,48015.0,Austin County,5488.0,24501.0,83243.0,16680.0,13169.0,7633.0,13869.0,15583.0,9331.0,5232.0,1416.0,273.0,57.0
798147,County,2020/09/06,48.0,TX,48015.0,Austin County,5838.0,24151.0,68670.0,12249.0,12827.0,6934.0,12691.0,12387.0,6952.0,2829.0,1487.0,195.0,119.0
799752,County,2020/09/07,48.0,TX,48015.0,Austin County,6541.0,23448.0,66858.0,11614.0,11541.0,8088.0,10996.0,11392.0,6793.0,4054.0,1969.0,319.0,92.0
804517,County,2020/09/08,48.0,TX,48015.0,Austin County,4957.0,25032.0,89464.0,17056.0,15994.0,8004.0,16253.0,16561.0,9160.0,4380.0,1780.0,166.0,110.0
806146,County,2020/09/09,48.0,TX,48015.0,Austin County,4788.0,25201.0,90703.0,17336.0,16426.0,7623.0,15140.0,17374.0,10037.0,4718.0,1607.0,271.0,171.0
810914,County,2020/09/10,48.0,TX,48015.0,Austin County,4878.0,25111.0,86125.0,17665.0,14492.0,7352.0,14321.0,16624.0,9476.0,4281.0,1465.0,337.0,112.0
812543,County,2020/09/11,48.0,TX,48015.0,Austin County,4798.0,25191.0,94139.0,17332.0,16343.0,8617.0,16337.0,18094.0,9724.0,5264.0,2122.0,166.0,140.0
817293,County,2020/09/12,48.0,TX,48015.0,Austin County,5513.0,24476.0,84063.0,17690.0,14423.0,7073.0,15139.0,14277.0,9527.0,4283.0,1324.0,274.0,53.0
818900,County,2020/09/13,48.0,TX,48015.0,Austin County,6255.0,23734.0,75508.0,14376.0,12356.0,6474.0,14657.0,13160.0,8623.0,4399.0,1133.0,236.0,94.0
823682,County,2020/09/14,48.0,TX,48015.0,Austin County,4924.0,25065.0,89750.0,17616.0,14770.0,7786.0,16397.0,16058.0,10887.0,4806.0,1236.0,90.0,104.0
825310,County,2020/09/15,48.0,TX,48015.0,Austin County,4625.0,25364.0,89690.0,16428.0,14096.0,7748.0,15542.0,18115.0,10532.0,5353.0,1465.0,286.0,125.0
828551,County,2020/09/16,48.0,TX,48015.0,Austin County,4849.0,25140.0,88619.0,16457.0,14138.0,8214.0,15187.0,18264.0,10212.0,4619.0,1094.0,292.0,142.0
831696,County,2020/09/17,48.0,TX,48015.0,Austin County,4668.0,25321.0,88605.0,16798.0,14332.0,8220.0,14962.0,17693.0,9357.0,5465.0,1447.0,239.0,92.0
836457,County,2020/09/18,48.0,TX,48015.0,Austin County,4746.0,25243.0,99530.0,19018.0,16322.0,8903.0,17331.0,19935.0,10460.0,5767.0,1580.0,140.0,74.0
838086,County,2020/09/19,48.0,TX,48015.0,Austin County,5361.0,24628.0,93939.0,18287.0,16659.0,8164.0,18686.0,16218.0,9272.0,5099.0,1360.0,157.0,37.0
842861,County,2020/09/20,48.0,TX,48015.0,Austin County,6529.0,23460.0,65121.0,11433.0,10571.0,6394.0,14080.0,10953.0,6356.0,3377.0,1588.0,295.0,74.0
846066,County,2020/09/21,48.0,TX,48015.0,Austin County,5960.0,24029.0,66970.0,11986.0,10792.0,7313.0,10681.0,13285.0,7236.0,4411.0,951.0,301.0,14.0
849233,County,2020/09/22,48.0,TX,48015.0,Austin County,5674.0,24315.0,67942.0,12715.0,11737.0,6803.0,11024.0,13081.0,7583.0,3612.0,1011.0,333.0,43.0
850861,County,2020/09/23,48.0,TX,48015.0,Austin County,5314.0,24675.0,76642.0,14291.0,13120.0,8441.0,13381.0,14361.0,7935.0,3637.0,1136.0,281.0,59.0
855627,County,2020/09/24,48.0,TX,48015.0,Austin County,4949.0,25040.0,81811.0,15118.0,13889.0,8378.0,12697.0,15815.0,8968.0,5314.0,1308.0,288.0,36.0
857256,County,2020/09/25,48.0,TX,48015.0,Austin County,4220.0,25769.0,85681.0,14712.0,15160.0,8728.0,14381.0,16232.0,10035.0,4977.0,1152.0,274.0,30.0
862009,County,2020/09/26,48.0,TX,48015.0,Austin County,5891.0,24098.0,89026.0,21044.0,12685.0,10312.0,15033.0,15439.0,8930.0,4420.0,968.0,151.0,44.0
863614,County,2020/09/27,48.0,TX,48015.0,Austin County,6037.0,23952.0,67973.0,14541.0,11362.0,6314.0,10981.0,13341.0,6959.0,2781.0,1402.0,274.0,18.0
868397,County,2020/09/28,48.0,TX,48015.0,Austin County,5009.0,24980.0,77257.0,14574.0,13764.0,9363.0,11947.0,14614.0,7976.0,3672.0,1093.0,232.0,22.0
870025,County,2020/09/29,48.0,TX,48015.0,Austin County,4911.0,25078.0,84888.0,15568.0,13215.0,8796.0,14918.0,16929.0,9514.0,4530.0,1201.0,197.0,20.0
874804,County,2020/09/30,48.0,TX,48015.0,Austin County,5254.0,24735.0,85682.0,16128.0,13834.0,8176.0,15680.0,17240.0,8696.0,4831.0,921.0,161.0,15.0
877958,County,2020/10/01,48.0,TX,48015.0,Austin County,4436.0,25553.0,90785.0,19463.0,14565.0,8635.0,16200.0,16071.0,9877.0,4351.0,1409.0,197.0,17.0
881173,County,2020/10/02,48.0,TX,48015.0,Austin County,5056.0,24933.0,81185.0,16032.0,13836.0,8489.0,13274.0,15100.0,8044.0,4943.0,1297.0,128.0,42.0
884368,County,2020/10/03,48.0,TX,48015.0,Austin County,5539.0,24450.0,84777.0,17640.0,15295.0,9566.0,13209.0,14991.0,8528.0,4100.0,1236.0,199.0,13.0
887201,County,2020/10/04,48.0,TX,48015.0,Austin County,6021.0,23968.0,75860.0,14422.0,13791.0,7067.0,14044.0,13089.0,8385.0,3934.0,876.0,222.0,30.0
890445,County,2020/10/05,48.0,TX,48015.0,Austin County,5808.0,24181.0,80788.0,16757.0,12867.0,7565.0,12093.0,14936.0,9360.0,5886.0,1126.0,184.0,14.0
893635,County,2020/10/06,48.0,TX,48015.0,Austin County,5035.0,24954.0,93844.0,17812.0,14671.0,8570.0,17244.0,19275.0,9913.0,5402.0,832.0,108.0,17.0
896807,County,2020/10/07,48.0,TX,48015.0,Austin County,4523.0,25466.0,91541.0,16317.0,13999.0,8728.0,16989.0,18688.0,10355.0,4876.0,1378.0,177.0,34.0
899984,County,2020/10/08,48.0,TX,48015.0,Austin County,4830.0,25159.0,85867.0,16022.0,14194.0,7363.0,14464.0,16347.0,9391.0,6527.0,1321.0,207.0,31.0
903532,County,2020/10/09,48.0,TX,48015.0,Austin County,5384.0,24605.0,87637.0,16319.0,14368.0,8413.0,14428.0,17961.0,9989.0,4661.0,1244.0,238.0,16.0
906016,County,2020/10/10,48.0,TX,48015.0,Austin County,6019.0,23970.0,83453.0,15475.0,15491.0,8883.0,14021.0,14648.0,9734.0,4275.0,806.0,108.0,12.0
907834,County,2020/10/11,48.0,TX,48015.0,Austin County,6156.0,23833.0,70596.0,12685.0,12163.0,6761.0,13437.0,12622.0,7404.0,4008.0,1436.0,65.0,15.0
910994,County,2020/10/12,48.0,TX,48015.0,Austin County,5303.0,24686.0,80329.0,15913.0,13799.0,7952.0,11861.0,15220.0,8732.0,5441.0,1195.0,203.0,13.0
914052,County,2020/10/13,48.0,TX,48015.0,Austin County,5138.0,24851.0,87229.0,16527.0,15531.0,7735.0,15510.0,16961.0,8969.0,4625.0,1201.0,128.0,42.0
917292,County,2020/10/14,48.0,TX,48015.0,Austin County,4457.0,25532.0,91195.0,15501.0,17260.0,9201.0,15948.0,16702.0,10620.0,4826.0,896.0,212.0,29.0
920632,County,2020/10/15,48.0,TX,48015.0,Austin County,5225.0,24764.0,82916.0,14982.0,14171.0,7315.0,15268.0,16113.0,7904.0,5836.0,1103.0,184.0,40.0
923641,County,2020/10/16,48.0,TX,48015.0,Austin County,4441.0,25548.0,87471.0,16281.0,15970.0,8942.0,14263.0,17008.0,8744.0,4377.0,1594.0,259.0,33.0
926324,County,2020/10/17,48.0,TX,48015.0,Austin County,5883.0,24106.0,85148.0,19002.0,13806.0,8291.0,14715.0,14854.0,8376.0,4446.0,1447.0,185.0,26.0
930018,County,2020/10/18,48.0,TX,48015.0,Austin County,6100.0,23889.0,72969.0,13060.0,15092.0,6268.0,13505.0,12683.0,6846.0,3897.0,1505.0,83.0,30.0
933007,County,2020/10/19,48.0,TX,48015.0,Austin County,4733.0,25256.0,86810.0,17832.0,13449.0,9154.0,16138.0,15215.0,9679.0,4019.0,1138.0,138.0,48.0
936504,County,2020/10/20,48.0,TX,48015.0,Austin County,5049.0,24940.0,87235.0,18607.0,14190.0,7682.0,14818.0,16041.0,9267.0,5522.0,953.0,131.0,24.0
939987,County,2020/10/21,48.0,TX,48015.0,Austin County,5453.0,24536.0,83527.0,16280.0,13212.0,8006.0,14083.0,15128.0,9973.0,5560.0,1069.0,189.0,27.0
942615,County,2020/10/22,48.0,TX,48015.0,Austin County,4676.0,25313.0,90886.0,18291.0,17142.0,7883.0,14722.0,15727.0,9771.0,5576.0,1565.0,180.0,29.0
946005,County,2020/10/23,48.0,TX,48015.0,Austin County,4136.0,25853.0,100034.0,20363.0,17611.0,8860.0,19707.0,17070.0,9373.0,5785.0,1019.0,222.0,24.0
948923,County,2020/10/24,48.0,TX,48015.0,Austin County,5104.0,24885.0,88919.0,17995.0,15965.0,8000.0,14828.0,16135.0,10012.0,4685.0,1106.0,180.0,13.0
