,Level,Date,State FIPS,State Postal Code,County FIPS,County Name,Population Staying at Home,Population Not Staying at Home,Number of Trips,Number of Trips <1,Number of Trips 1-3,Number of Trips 3-5,Number of Trips 5-10,Number of Trips 10-25,Number of Trips 25-50,Number of Trips 50-100,Number of Trips 100-250,Number of Trips 250-500,Number of Trips >=500
2777,County,2020/01/01,49.0,UT,49003.0,Box Elder County,15893.0,39057.0,144248.0,37114.0,35208.0,12997.0,12362.0,24691.0,10641.0,6380.0,3720.0,859.0,276.0
4248,County,2020/01/02,49.0,UT,49003.0,Box Elder County,11658.0,43292.0,201317.0,53557.0,49742.0,18406.0,16576.0,36350.0,15673.0,6915.0,3217.0,750.0,131.0
8960,County,2020/01/03,49.0,UT,49003.0,Box Elder County,11223.0,43727.0,217167.0,60249.0,55153.0,19556.0,17903.0,37048.0,16099.0,7308.0,3100.0,571.0,180.0
10396,County,2020/01/04,49.0,UT,49003.0,Box Elder County,12583.0,42367.0,216073.0,58250.0,49656.0,22798.0,18980.0,37208.0,18821.0,5681.0,3761.0,709.0,209.0
15553,County,2020/01/05,49.0,UT,49003.0,Box Elder County,15427.0,39523.0,168809.0,58020.0,41484.0,14201.0,13173.0,23482.0,8625.0,4659.0,4244.0,745.0,176.0
18942,County,2020/01/06,49.0,UT,49003.0,Box Elder County,11938.0,43012.0,208608.0,54652.0,52097.0,18662.0,17635.0,37943.0,15710.0,7554.0,3259.0,980.0,116.0
22137,County,2020/01/07,49.0,UT,49003.0,Box Elder County,10959.0,43991.0,200420.0,51588.0,45996.0,23762.0,15594.0,34788.0,15909.0,8521.0,3283.0,839.0,140.0
23812,County,2020/01/08,49.0,UT,49003.0,Box Elder County,10941.0,44009.0,213488.0,55813.0,55028.0,21307.0,16855.0,34941.0,16649.0,8214.0,3571.0,879.0,231.0
28512,County,2020/01/09,49.0,UT,49003.0,Box Elder County,10857.0,44093.0,212927.0,55672.0,53424.0,18821.0,16600.0,38257.0,18326.0,6906.0,3854.0,944.0,123.0
31719,County,2020/01/10,49.0,UT,49003.0,Box Elder County,10299.0,44651.0,217808.0,57529.0,52604.0,22456.0,18046.0,36684.0,17823.0,8467.0,2988.0,1049.0,162.0
33396,County,2020/01/11,49.0,UT,49003.0,Box Elder County,12545.0,42405.0,194202.0,50739.0,49345.0,18774.0,17768.0,33181.0,12520.0,7282.0,3583.0,827.0,183.0
36552,County,2020/01/12,49.0,UT,49003.0,Box Elder County,15675.0,39275.0,161147.0,44972.0,41197.0,19226.0,13762.0,23449.0,9223.0,4591.0,3479.0,1021.0,227.0
41280,County,2020/01/13,49.0,UT,49003.0,Box Elder County,11066.0,43884.0,212850.0,54176.0,53498.0,19773.0,18224.0,37713.0,16671.0,8129.0,3799.0,768.0,99.0
44478,County,2020/01/14,49.0,UT,49003.0,Box Elder County,11040.0,43910.0,210768.0,52778.0,54387.0,20285.0,18170.0,37407.0,15189.0,7680.0,3881.0,879.0,112.0
47684,County,2020/01/15,49.0,UT,49003.0,Box Elder County,10883.0,44067.0,214602.0,61679.0,50938.0,19244.0,17809.0,35852.0,16632.0,7601.0,3983.0,668.0,196.0
49213,County,2020/01/16,49.0,UT,49003.0,Box Elder County,10176.0,44774.0,205485.0,53559.0,46874.0,21299.0,17314.0,36872.0,16618.0,7955.0,3672.0,1057.0,265.0
54127,County,2020/01/17,49.0,UT,49003.0,Box Elder County,11235.0,43715.0,217877.0,59298.0,55609.0,18507.0,20281.0,36170.0,15819.0,8210.0,2997.0,789.0,197.0
57250,County,2020/01/18,49.0,UT,49003.0,Box Elder County,12652.0,42298.0,201625.0,52836.0,47482.0,19118.0,17626.0,38655.0,13880.0,6922.0,4299.0,629.0,178.0
60448,County,2020/01/19,49.0,UT,49003.0,Box Elder County,14916.0,40034.0,161758.0,49149.0,37589.0,17250.0,16822.0,21408.0,9728.0,4844.0,3564.0,1109.0,295.0
62080,County,2020/01/20,49.0,UT,49003.0,Box Elder County,12083.0,42867.0,196026.0,48487.0,49180.0,15839.0,16808.0,38018.0,14949.0,7024.0,4557.0,965.0,199.0
65287,County,2020/01/21,49.0,UT,49003.0,Box Elder County,11107.0,43843.0,213495.0,54619.0,53583.0,20884.0,18095.0,36885.0,17249.0,7951.0,3191.0,840.0,198.0
70047,County,2020/01/22,49.0,UT,49003.0,Box Elder County,10432.0,44518.0,216767.0,55094.0,55084.0,20118.0,18081.0,36460.0,18910.0,8244.0,3694.0,973.0,109.0
73231,County,2020/01/23,49.0,UT,49003.0,Box Elder County,10913.0,44037.0,207680.0,52824.0,50270.0,17010.0,18817.0,38919.0,17297.0,8203.0,3161.0,967.0,212.0
74820,County,2020/01/24,49.0,UT,49003.0,Box Elder County,10881.0,44069.0,218959.0,52068.0,54217.0,22364.0,19472.0,38869.0,18530.0,7955.0,4297.0,995.0,192.0
78063,County,2020/01/25,49.0,UT,49003.0,Box Elder County,11994.0,42956.0,197699.0,48464.0,45926.0,16901.0,19128.0,36824.0,17566.0,7394.0,4240.0,984.0,272.0
82627,County,2020/01/26,49.0,UT,49003.0,Box Elder County,15210.0,39740.0,164680.0,44416.0,41857.0,14078.0,15928.0,24249.0,12630.0,5671.0,4623.0,947.0,281.0
83354,County,2020/01/27,49.0,UT,49003.0,Box Elder County,10682.0,44268.0,211326.0,57878.0,49468.0,20553.0,19211.0,35857.0,15828.0,7897.0,3764.0,675.0,195.0
88190,County,2020/01/28,49.0,UT,49003.0,Box Elder County,10839.0,44111.0,211637.0,59421.0,53486.0,19950.0,16066.0,34929.0,16370.0,6991.0,3331.0,855.0,238.0
92392,County,2020/01/29,49.0,UT,49003.0,Box Elder County,10851.0,44099.0,217045.0,55954.0,53384.0,22256.0,18248.0,38009.0,16456.0,8043.0,3558.0,883.0,254.0
95598,County,2020/01/30,49.0,UT,49003.0,Box Elder County,10264.0,44686.0,213407.0,53143.0,50695.0,22125.0,17781.0,38012.0,17953.0,8664.0,3374.0,1260.0,400.0
98792,County,2020/01/31,49.0,UT,49003.0,Box Elder County,10334.0,44616.0,213719.0,48995.0,50816.0,19113.0,19348.0,40914.0,19614.0,9507.0,3833.0,1187.0,392.0
101980,County,2020/02/01,49.0,UT,49003.0,Box Elder County,10817.0,44133.0,205513.0,49867.0,51593.0,19709.0,17781.0,36445.0,17905.0,7921.0,2952.0,870.0,470.0
103549,County,2020/02/02,49.0,UT,49003.0,Box Elder County,14056.0,40894.0,164242.0,45658.0,37965.0,16669.0,14572.0,24565.0,13486.0,6367.0,3691.0,746.0,523.0
108384,County,2020/02/03,49.0,UT,49003.0,Box Elder County,12013.0,42937.0,193390.0,49480.0,50245.0,17532.0,17955.0,31923.0,13827.0,7870.0,3286.0,916.0,356.0
110002,County,2020/02/04,49.0,UT,49003.0,Box Elder County,10395.0,44555.0,210830.0,54218.0,49664.0,18683.0,18878.0,37003.0,18309.0,8776.0,3581.0,1295.0,423.0
113148,County,2020/02/05,49.0,UT,49003.0,Box Elder County,10455.0,44495.0,214608.0,55591.0,52477.0,19626.0,19342.0,36220.0,17938.0,8442.0,3473.0,1018.0,481.0
117930,County,2020/02/06,49.0,UT,49003.0,Box Elder County,11016.0,43934.0,207529.0,50894.0,54157.0,21028.0,18582.0,33517.0,16345.0,8204.0,3461.0,1078.0,263.0
121185,County,2020/02/07,49.0,UT,49003.0,Box Elder County,9696.0,45254.0,224623.0,53979.0,56542.0,21498.0,20787.0,39684.0,18023.0,8718.0,4015.0,1093.0,284.0
122803,County,2020/02/08,49.0,UT,49003.0,Box Elder County,11657.0,43293.0,199301.0,49231.0,48865.0,19021.0,17135.0,35599.0,16723.0,8103.0,3216.0,932.0,476.0
126793,County,2020/02/09,49.0,UT,49003.0,Box Elder County,15126.0,39824.0,160853.0,46705.0,38084.0,13513.0,14866.0,22119.0,11691.0,8222.0,4149.0,1053.0,451.0
127943,County,2020/02/10,49.0,UT,49003.0,Box Elder County,10554.0,44396.0,218693.0,59614.0,52110.0,18916.0,20339.0,34614.0,19614.0,8739.0,3467.0,792.0,488.0
133453,County,2020/02/11,49.0,UT,49003.0,Box Elder County,9700.0,45250.0,236956.0,67476.0,55327.0,19662.0,18092.0,38461.0,22110.0,10520.0,3783.0,1123.0,402.0
137092,County,2020/02/12,49.0,UT,49003.0,Box Elder County,10009.0,44941.0,229253.0,59843.0,55017.0,22129.0,16926.0,38414.0,21739.0,9352.0,4167.0,1115.0,551.0
140314,County,2020/02/13,49.0,UT,49003.0,Box Elder County,10034.0,44916.0,236898.0,62104.0,55682.0,20648.0,20684.0,40633.0,20680.0,9946.0,4707.0,1306.0,508.0
143517,County,2020/02/14,49.0,UT,49003.0,Box Elder County,9633.0,45317.0,249623.0,60277.0,59019.0,21976.0,23328.0,44888.0,23955.0,9028.0,5370.0,1248.0,534.0
145141,County,2020/02/15,49.0,UT,49003.0,Box Elder County,11839.0,43111.0,221266.0,53843.0,53557.0,19923.0,20271.0,39354.0,19711.0,9604.0,3299.0,1122.0,582.0
149875,County,2020/02/16,49.0,UT,49003.0,Box Elder County,14974.0,39976.0,160359.0,37144.0,39634.0,14960.0,13308.0,26642.0,14837.0,7551.0,4572.0,1203.0,508.0
151506,County,2020/02/17,49.0,UT,49003.0,Box Elder County,14484.0,40466.0,177424.0,42871.0,41502.0,16136.0,16317.0,29755.0,16802.0,7967.0,4558.0,1097.0,419.0
156285,County,2020/02/18,49.0,UT,49003.0,Box Elder County,10848.0,44102.0,224047.0,61809.0,53405.0,18689.0,18909.0,37419.0,18099.0,9147.0,4822.0,1215.0,533.0
157913,County,2020/02/19,49.0,UT,49003.0,Box Elder County,10365.0,44585.0,240984.0,64077.0,59701.0,20977.0,20463.0,40540.0,18535.0,9431.0,5586.0,1167.0,507.0
160974,County,2020/02/20,49.0,UT,49003.0,Box Elder County,10551.0,44399.0,242020.0,60541.0,60824.0,20136.0,23110.0,40316.0,20628.0,10096.0,4477.0,1373.0,519.0
165818,County,2020/02/21,49.0,UT,49003.0,Box Elder County,10288.0,44662.0,242047.0,61622.0,56555.0,22867.0,20432.0,40557.0,21915.0,11115.0,4940.0,1425.0,619.0
169012,County,2020/02/22,49.0,UT,49003.0,Box Elder County,10730.0,44220.0,211206.0,47581.0,57599.0,17729.0,19188.0,36130.0,18967.0,8026.0,4262.0,1258.0,466.0
170674,County,2020/02/23,49.0,UT,49003.0,Box Elder County,14351.0,40599.0,199216.0,66580.0,51914.0,17648.0,12715.0,25211.0,12357.0,7141.0,3971.0,1178.0,501.0
175455,County,2020/02/24,49.0,UT,49003.0,Box Elder County,10985.0,43965.0,210703.0,47416.0,54230.0,23004.0,17915.0,37441.0,16731.0,8608.0,4139.0,1044.0,175.0
178448,County,2020/02/25,49.0,UT,49003.0,Box Elder County,10186.0,44764.0,217833.0,55405.0,56282.0,19755.0,17476.0,38425.0,18125.0,7831.0,3432.0,758.0,344.0
181641,County,2020/02/26,49.0,UT,49003.0,Box Elder County,9979.0,44971.0,209346.0,51781.0,56456.0,16771.0,17682.0,37312.0,16294.0,7125.0,4936.0,884.0,105.0
185026,County,2020/02/27,49.0,UT,49003.0,Box Elder County,10202.0,44748.0,245933.0,71833.0,62802.0,19732.0,18633.0,40203.0,19233.0,7193.0,4763.0,1242.0,299.0
188224,County,2020/02/28,49.0,UT,49003.0,Box Elder County,10163.0,44787.0,256247.0,67036.0,60334.0,27338.0,20789.0,46356.0,19549.0,8520.0,4806.0,1133.0,386.0
191419,County,2020/02/29,49.0,UT,49003.0,Box Elder County,11414.0,43536.0,244640.0,68489.0,58449.0,20944.0,19924.0,41101.0,19974.0,8799.0,5614.0,1072.0,274.0
194589,County,2020/03/01,49.0,UT,49003.0,Box Elder County,14267.0,40683.0,163999.0,45414.0,43202.0,15682.0,12250.0,25672.0,10458.0,5364.0,4306.0,1323.0,328.0
197793,County,2020/03/02,49.0,UT,49003.0,Box Elder County,10943.0,44007.0,214588.0,58842.0,55565.0,20802.0,17048.0,34707.0,14496.0,8180.0,3735.0,874.0,339.0
199325,County,2020/03/03,49.0,UT,49003.0,Box Elder County,10489.0,44461.0,191275.0,45000.0,47648.0,17596.0,15450.0,32672.0,19778.0,7532.0,4030.0,1212.0,357.0
201751,County,2020/03/04,49.0,UT,49003.0,Box Elder County,10457.0,44493.0,201006.0,51804.0,47145.0,21018.0,16473.0,32580.0,17805.0,8283.0,4322.0,1289.0,287.0
205772,County,2020/03/05,49.0,UT,49003.0,Box Elder County,9742.0,45208.0,212752.0,59010.0,49325.0,19386.0,16340.0,33837.0,19713.0,9303.0,4463.0,1028.0,347.0
210622,County,2020/03/06,49.0,UT,49003.0,Box Elder County,10351.0,44599.0,210648.0,53710.0,51704.0,18878.0,18742.0,34927.0,17159.0,9235.0,4632.0,1545.0,116.0
213805,County,2020/03/07,49.0,UT,49003.0,Box Elder County,11014.0,43936.0,208005.0,51978.0,51424.0,18141.0,17931.0,38957.0,16243.0,7349.0,4515.0,1256.0,211.0
215407,County,2020/03/08,49.0,UT,49003.0,Box Elder County,13301.0,41649.0,164439.0,45698.0,38627.0,15012.0,12280.0,28502.0,9551.0,7548.0,5076.0,1797.0,348.0
220165,County,2020/03/09,49.0,UT,49003.0,Box Elder County,10921.0,44029.0,200512.0,48655.0,48431.0,17280.0,19789.0,35701.0,16115.0,8032.0,5136.0,1118.0,255.0
221793,County,2020/03/10,49.0,UT,49003.0,Box Elder County,11488.0,43462.0,196339.0,48514.0,47939.0,18455.0,15961.0,34106.0,17797.0,7948.0,4104.0,1175.0,340.0
226538,County,2020/03/11,49.0,UT,49003.0,Box Elder County,10652.0,44298.0,215476.0,55303.0,49097.0,19246.0,17993.0,40925.0,18120.0,9465.0,3444.0,1311.0,572.0
228216,County,2020/03/12,49.0,UT,49003.0,Box Elder County,10884.0,44066.0,196680.0,48297.0,46375.0,21544.0,15843.0,32352.0,14368.0,11520.0,4006.0,2013.0,362.0
231376,County,2020/03/13,49.0,UT,49003.0,Box Elder County,11195.0,43755.0,227053.0,70630.0,56328.0,21196.0,17039.0,31436.0,16230.0,8242.0,4778.0,629.0,545.0
234429,County,2020/03/14,49.0,UT,49003.0,Box Elder County,13104.0,41846.0,196689.0,69135.0,39449.0,19992.0,16598.0,25366.0,12778.0,8503.0,2746.0,1335.0,787.0
237712,County,2020/03/15,49.0,UT,49003.0,Box Elder County,16932.0,38018.0,160989.0,56173.0,35886.0,11615.0,11653.0,22398.0,10286.0,6997.0,4732.0,865.0,384.0
240956,County,2020/03/16,49.0,UT,49003.0,Box Elder County,12686.0,42264.0,195499.0,55227.0,45735.0,18344.0,17010.0,28868.0,15570.0,9160.0,4229.0,1076.0,280.0
245715,County,2020/03/17,49.0,UT,49003.0,Box Elder County,14096.0,40854.0,192066.0,54990.0,43827.0,19327.0,15994.0,29380.0,15275.0,7182.0,4502.0,1300.0,289.0
248870,County,2020/03/18,49.0,UT,49003.0,Box Elder County,14399.0,40551.0,190636.0,56439.0,45422.0,17733.0,12823.0,29707.0,13830.0,8675.0,4134.0,1566.0,307.0
250549,County,2020/03/19,49.0,UT,49003.0,Box Elder County,14858.0,40092.0,194705.0,57586.0,46135.0,17232.0,14735.0,31767.0,12883.0,8917.0,4371.0,816.0,263.0
253734,County,2020/03/20,49.0,UT,49003.0,Box Elder County,15540.0,39410.0,188659.0,54428.0,44579.0,17901.0,17086.0,28682.0,11369.0,8535.0,4900.0,910.0,269.0
258491,County,2020/03/21,49.0,UT,49003.0,Box Elder County,15993.0,38957.0,173554.0,52954.0,39833.0,16272.0,15780.0,26085.0,9043.0,7538.0,4612.0,1235.0,202.0
261680,County,2020/03/22,49.0,UT,49003.0,Box Elder County,18047.0,36903.0,135858.0,51448.0,26530.0,7765.0,9472.0,22055.0,7767.0,5607.0,3282.0,1629.0,303.0
263316,County,2020/03/23,49.0,UT,49003.0,Box Elder County,14109.0,40841.0,177785.0,58016.0,39465.0,16423.0,12700.0,28049.0,11556.0,6562.0,3870.0,932.0,212.0
266468,County,2020/03/24,49.0,UT,49003.0,Box Elder County,14450.0,40500.0,166747.0,50112.0,38633.0,13018.0,12951.0,28148.0,10365.0,8213.0,3975.0,1064.0,268.0
269702,County,2020/03/25,49.0,UT,49003.0,Box Elder County,14661.0,40289.0,174160.0,59767.0,36712.0,17377.0,12366.0,23557.0,11299.0,7433.0,4260.0,1005.0,384.0
274444,County,2020/03/26,49.0,UT,49003.0,Box Elder County,14753.0,40197.0,168567.0,52024.0,40689.0,15700.0,11579.0,24409.0,10565.0,7326.0,4561.0,1372.0,342.0
276082,County,2020/03/27,49.0,UT,49003.0,Box Elder County,14632.0,40318.0,160171.0,48762.0,35165.0,12439.0,12134.0,27167.0,11278.0,7255.0,4679.0,1045.0,247.0
280844,County,2020/03/28,49.0,UT,49003.0,Box Elder County,15827.0,39123.0,138980.0,39211.0,31565.0,14855.0,8902.0,23481.0,8447.0,6202.0,4997.0,1044.0,276.0
282479,County,2020/03/29,49.0,UT,49003.0,Box Elder County,18815.0,36135.0,116662.0,36755.0,24632.0,8387.0,10827.0,16923.0,9756.0,4096.0,3067.0,1875.0,344.0
285624,County,2020/03/30,49.0,UT,49003.0,Box Elder County,15383.0,39567.0,170341.0,54271.0,37908.0,13727.0,12891.0,27154.0,10665.0,7512.0,5312.0,794.0,107.0
290427,County,2020/03/31,49.0,UT,49003.0,Box Elder County,16819.0,38131.0,161424.0,51621.0,35476.0,13042.0,10846.0,26086.0,11631.0,6691.0,4702.0,1091.0,238.0
293626,County,2020/04/01,49.0,UT,49003.0,Box Elder County,15181.0,39769.0,163823.0,55926.0,32432.0,11635.0,13187.0,26364.0,11112.0,7708.0,4226.0,997.0,236.0
295255,County,2020/04/02,49.0,UT,49003.0,Box Elder County,15546.0,39404.0,149644.0,49388.0,31254.0,10890.0,10126.0,22893.0,12588.0,6182.0,4787.0,1280.0,256.0
298448,County,2020/04/03,49.0,UT,49003.0,Box Elder County,15127.0,39823.0,181393.0,61282.0,37480.0,15875.0,13370.0,29646.0,10587.0,8325.0,3841.0,895.0,92.0
303195,County,2020/04/04,49.0,UT,49003.0,Box Elder County,17517.0,37433.0,150966.0,51674.0,35577.0,14841.0,12261.0,22058.0,5574.0,4279.0,3374.0,1048.0,280.0
304823,County,2020/04/05,49.0,UT,49003.0,Box Elder County,18497.0,36453.0,133262.0,44766.0,33947.0,10507.0,9452.0,17199.0,7007.0,4856.0,3821.0,1482.0,225.0
308029,County,2020/04/06,49.0,UT,49003.0,Box Elder County,15428.0,39522.0,172276.0,60350.0,38245.0,13219.0,13374.0,25511.0,11790.0,5760.0,2908.0,978.0,141.0
312787,County,2020/04/07,49.0,UT,49003.0,Box Elder County,14862.0,40088.0,181502.0,66899.0,40510.0,13422.0,14782.0,25594.0,9910.0,6058.0,3566.0,640.0,121.0
315960,County,2020/04/08,49.0,UT,49003.0,Box Elder County,14761.0,40189.0,170320.0,56580.0,42983.0,15455.0,11338.0,22330.0,10944.0,5762.0,3556.0,1191.0,181.0
319130,County,2020/04/09,49.0,UT,49003.0,Box Elder County,15193.0,39757.0,177526.0,57929.0,37716.0,16943.0,13796.0,28404.0,12277.0,5226.0,4131.0,1001.0,103.0
320814,County,2020/04/10,49.0,UT,49003.0,Box Elder County,14382.0,40568.0,175203.0,47731.0,40553.0,17270.0,13295.0,32351.0,12983.0,6044.0,3981.0,797.0,198.0
325567,County,2020/04/11,49.0,UT,49003.0,Box Elder County,17407.0,37543.0,154660.0,48945.0,38493.0,16590.0,9499.0,24181.0,7503.0,5117.0,3095.0,1069.0,168.0
328734,County,2020/04/12,49.0,UT,49003.0,Box Elder County,20026.0,34924.0,115248.0,39688.0,26286.0,10903.0,8070.0,17646.0,4654.0,3434.0,3207.0,1223.0,137.0
330409,County,2020/04/13,49.0,UT,49003.0,Box Elder County,16032.0,38918.0,176961.0,57188.0,40538.0,14661.0,14123.0,28191.0,12520.0,5527.0,3265.0,812.0,136.0
333534,County,2020/04/14,49.0,UT,49003.0,Box Elder County,16001.0,38949.0,145350.0,35190.0,36831.0,10839.0,10639.0,27752.0,12962.0,5014.0,5498.0,200.0,425.0
338334,County,2020/04/15,49.0,UT,49003.0,Box Elder County,14861.0,40089.0,152688.0,38816.0,34208.0,15018.0,11196.0,30129.0,12639.0,6465.0,3083.0,954.0,180.0
341478,County,2020/04/16,49.0,UT,49003.0,Box Elder County,15816.0,39134.0,188932.0,47733.0,43093.0,26498.0,15085.0,27790.0,16409.0,6845.0,4224.0,1112.0,143.0
343261,County,2020/04/17,49.0,UT,49003.0,Box Elder County,14524.0,40426.0,178644.0,42783.0,48980.0,17708.0,13149.0,35005.0,8985.0,6961.0,3905.0,925.0,243.0
347888,County,2020/04/18,49.0,UT,49003.0,Box Elder County,16128.0,38822.0,165596.0,43180.0,40471.0,23987.0,9311.0,30198.0,10179.0,3562.0,3097.0,1281.0,330.0
349490,County,2020/04/19,49.0,UT,49003.0,Box Elder County,16977.0,37973.0,105900.0,21237.0,27900.0,8271.0,10222.0,19609.0,11031.0,5332.0,1325.0,698.0,275.0
352745,County,2020/04/20,49.0,UT,49003.0,Box Elder County,14648.0,40302.0,207153.0,73229.0,51304.0,14760.0,18907.0,28731.0,12468.0,5739.0,1497.0,394.0,124.0
357506,County,2020/04/21,49.0,UT,49003.0,Box Elder County,14024.0,40926.0,177024.0,45627.0,43496.0,15792.0,15560.0,29967.0,13193.0,7693.0,4665.0,834.0,197.0
360660,County,2020/04/22,49.0,UT,49003.0,Box Elder County,14421.0,40529.0,177072.0,53303.0,42451.0,13441.0,13365.0,29799.0,13752.0,6014.0,4016.0,885.0,46.0
362240,County,2020/04/23,49.0,UT,49003.0,Box Elder County,14994.0,39956.0,174095.0,51633.0,37874.0,17927.0,14219.0,30067.0,12578.0,5773.0,2936.0,947.0,141.0
364116,County,2020/04/24,49.0,UT,49003.0,Box Elder County,14003.0,40947.0,181681.0,56006.0,44296.0,17385.0,18496.0,24411.0,12282.0,4819.0,3056.0,735.0,195.0
368661,County,2020/04/25,49.0,UT,49003.0,Box Elder County,15408.0,39542.0,165348.0,49471.0,40606.0,16583.0,14049.0,25857.0,10006.0,5297.0,2303.0,1002.0,174.0
371827,County,2020/04/26,49.0,UT,49003.0,Box Elder County,17699.0,37251.0,131617.0,38366.0,31373.0,11589.0,14388.0,20570.0,7729.0,4027.0,2626.0,856.0,93.0
375104,County,2020/04/27,49.0,UT,49003.0,Box Elder County,15098.0,39852.0,170076.0,49340.0,40280.0,14035.0,13701.0,30472.0,11160.0,5982.0,4198.0,817.0,91.0
378255,County,2020/04/28,49.0,UT,49003.0,Box Elder County,13470.0,41480.0,180335.0,43963.0,47257.0,17776.0,17759.0,29945.0,13451.0,5583.0,3988.0,548.0,65.0
383034,County,2020/04/29,49.0,UT,49003.0,Box Elder County,13872.0,41078.0,183042.0,49541.0,48023.0,20153.0,14472.0,28886.0,11240.0,6519.0,2973.0,1027.0,208.0
384655,County,2020/04/30,49.0,UT,49003.0,Box Elder County,14427.0,40523.0,183464.0,51182.0,42614.0,20663.0,15066.0,27694.0,12199.0,8101.0,4639.0,1221.0,85.0
389440,County,2020/05/01,49.0,UT,49003.0,Box Elder County,13422.0,41528.0,199414.0,61018.0,44974.0,21188.0,17316.0,32176.0,11370.0,7048.0,3442.0,840.0,42.0
392640,County,2020/05/02,49.0,UT,49003.0,Box Elder County,14105.0,40845.0,172374.0,47775.0,43006.0,16296.0,18794.0,26251.0,11117.0,5026.0,3420.0,500.0,189.0
394275,County,2020/05/03,49.0,UT,49003.0,Box Elder County,18250.0,36700.0,148138.0,46656.0,40302.0,9761.0,11882.0,20572.0,9593.0,4495.0,3387.0,1166.0,324.0
397436,County,2020/05/04,49.0,UT,49003.0,Box Elder County,14006.0,40944.0,186479.0,53808.0,46442.0,16589.0,15657.0,29135.0,12577.0,7537.0,4251.0,373.0,110.0
400656,County,2020/05/05,49.0,UT,49003.0,Box Elder County,14025.0,40925.0,177040.0,50476.0,41124.0,16185.0,16596.0,26569.0,14392.0,6801.0,3884.0,837.0,176.0
405411,County,2020/05/06,49.0,UT,49003.0,Box Elder County,14495.0,40455.0,178038.0,45098.0,43184.0,17772.0,18464.0,25797.0,14815.0,7671.0,3966.0,1092.0,179.0
407037,County,2020/05/07,49.0,UT,49003.0,Box Elder County,13462.0,41488.0,183259.0,51839.0,40706.0,17811.0,18895.0,26141.0,14738.0,7407.0,4517.0,1101.0,104.0
410342,County,2020/05/08,49.0,UT,49003.0,Box Elder County,13367.0,41583.0,194990.0,55428.0,48007.0,15343.0,19653.0,30117.0,14445.0,7265.0,3845.0,819.0,68.0
413347,County,2020/05/09,49.0,UT,49003.0,Box Elder County,14555.0,40395.0,167057.0,43305.0,42308.0,15808.0,16070.0,27631.0,11044.0,5379.0,4391.0,955.0,166.0
418144,County,2020/05/10,49.0,UT,49003.0,Box Elder County,16685.0,38265.0,135701.0,35922.0,34272.0,13882.0,12109.0,17558.0,10452.0,7314.0,3066.0,957.0,169.0
421375,County,2020/05/11,49.0,UT,49003.0,Box Elder County,11898.0,43052.0,196138.0,60918.0,42514.0,15931.0,15713.0,32021.0,13420.0,7880.0,6048.0,1493.0,200.0
423053,County,2020/05/12,49.0,UT,49003.0,Box Elder County,11809.0,43141.0,189705.0,57936.0,41905.0,16483.0,14711.0,27274.0,14819.0,9561.0,4988.0,1775.0,253.0
427775,County,2020/05/13,49.0,UT,49003.0,Box Elder County,12287.0,42663.0,177560.0,48896.0,36437.0,15932.0,16302.0,28313.0,12386.0,8963.0,8177.0,1762.0,392.0
430969,County,2020/05/14,49.0,UT,49003.0,Box Elder County,11484.0,43466.0,203002.0,60581.0,42887.0,18206.0,17058.0,31750.0,14155.0,9125.0,6775.0,2223.0,242.0
434143,County,2020/05/15,49.0,UT,49003.0,Box Elder County,11527.0,43423.0,208429.0,58511.0,44348.0,18267.0,18748.0,33005.0,16039.0,10494.0,7170.0,1569.0,278.0
435821,County,2020/05/16,49.0,UT,49003.0,Box Elder County,12794.0,42156.0,200488.0,59275.0,42518.0,21158.0,18537.0,31134.0,11629.0,8682.0,5824.0,1476.0,255.0
440506,County,2020/05/17,49.0,UT,49003.0,Box Elder County,13820.0,41130.0,150034.0,35921.0,42568.0,15671.0,13542.0,18910.0,12317.0,4734.0,4968.0,1121.0,282.0
443745,County,2020/05/18,49.0,UT,49003.0,Box Elder County,11427.0,43523.0,188711.0,51406.0,43758.0,17468.0,15866.0,28379.0,16248.0,9653.0,4896.0,921.0,116.0
445373,County,2020/05/19,49.0,UT,49003.0,Box Elder County,10483.0,44467.0,219102.0,60352.0,51389.0,25385.0,18710.0,29686.0,18441.0,7800.0,6438.0,787.0,114.0
448540,County,2020/05/20,49.0,UT,49003.0,Box Elder County,10160.0,44790.0,194797.0,52601.0,43530.0,17518.0,18780.0,29798.0,13807.0,11943.0,5193.0,1397.0,230.0
453319,County,2020/05/21,49.0,UT,49003.0,Box Elder County,10737.0,44213.0,199832.0,56830.0,49802.0,19381.0,16518.0,28576.0,14127.0,8150.0,5258.0,963.0,227.0
456519,County,2020/05/22,49.0,UT,49003.0,Box Elder County,9673.0,45277.0,210920.0,61311.0,48693.0,18448.0,19613.0,29667.0,16156.0,9205.0,6200.0,1543.0,84.0
458143,County,2020/05/23,49.0,UT,49003.0,Box Elder County,12113.0,42837.0,198980.0,55552.0,46211.0,21932.0,17652.0,31366.0,13059.0,6853.0,4767.0,1325.0,263.0
462885,County,2020/05/24,49.0,UT,49003.0,Box Elder County,14443.0,40507.0,154000.0,37616.0,36712.0,13776.0,13927.0,24991.0,10499.0,8035.0,6211.0,1723.0,510.0
464514,County,2020/05/25,49.0,UT,49003.0,Box Elder County,12121.0,42829.0,175638.0,45069.0,43241.0,16737.0,14968.0,28971.0,11580.0,7570.0,5357.0,1840.0,305.0
469295,County,2020/05/26,49.0,UT,49003.0,Box Elder County,11852.0,43098.0,182403.0,46103.0,38568.0,13982.0,16237.0,35923.0,15159.0,9306.0,5482.0,1535.0,108.0
470924,County,2020/05/27,49.0,UT,49003.0,Box Elder County,11387.0,43563.0,203596.0,60109.0,45122.0,16040.0,17152.0,30668.0,14571.0,10519.0,7036.0,2084.0,295.0
475685,County,2020/05/28,49.0,UT,49003.0,Box Elder County,11095.0,43855.0,197265.0,53471.0,43896.0,19448.0,17614.0,31816.0,14093.0,9330.0,5508.0,1664.0,425.0
477265,County,2020/05/29,49.0,UT,49003.0,Box Elder County,12702.0,42248.0,181912.0,48817.0,45047.0,15794.0,13892.0,32408.0,11841.0,8125.0,4130.0,1598.0,260.0
480452,County,2020/05/30,49.0,UT,49003.0,Box Elder County,12847.0,42103.0,173418.0,42389.0,44373.0,17043.0,16734.0,27446.0,11725.0,6795.0,4814.0,1786.0,313.0
483580,County,2020/05/31,49.0,UT,49003.0,Box Elder County,15188.0,39762.0,148943.0,45402.0,31595.0,12799.0,13743.0,21831.0,8383.0,6999.0,5970.0,1861.0,360.0
488519,County,2020/06/01,49.0,UT,49003.0,Box Elder County,12209.0,42741.0,165878.0,49924.0,38183.0,13875.0,13714.0,23936.0,12623.0,8193.0,3692.0,1349.0,389.0
490087,County,2020/06/02,49.0,UT,49003.0,Box Elder County,12303.0,42647.0,182417.0,58364.0,35312.0,14470.0,15292.0,26673.0,13637.0,10260.0,6065.0,2082.0,262.0
493256,County,2020/06/03,49.0,UT,49003.0,Box Elder County,11229.0,43721.0,198849.0,54867.0,42184.0,17885.0,17478.0,33073.0,15720.0,9759.0,6187.0,1343.0,353.0
498031,County,2020/06/04,49.0,UT,49003.0,Box Elder County,11321.0,43629.0,191048.0,56411.0,39464.0,18247.0,16247.0,28281.0,15168.0,9584.0,5220.0,2055.0,371.0
499670,County,2020/06/05,49.0,UT,49003.0,Box Elder County,11374.0,43576.0,193869.0,56928.0,39128.0,17883.0,17597.0,29123.0,14494.0,9682.0,6857.0,1896.0,281.0
502818,County,2020/06/06,49.0,UT,49003.0,Box Elder County,13612.0,41338.0,165490.0,44410.0,37789.0,16492.0,14779.0,24714.0,11949.0,8373.0,4750.0,1849.0,385.0
507596,County,2020/06/07,49.0,UT,49003.0,Box Elder County,14431.0,40519.0,166993.0,42483.0,39878.0,16168.0,14562.0,25923.0,12973.0,8104.0,4869.0,1619.0,414.0
510806,County,2020/06/08,49.0,UT,49003.0,Box Elder County,11374.0,43576.0,205403.0,54677.0,49654.0,18281.0,17421.0,33685.0,17174.0,8067.0,4878.0,1295.0,271.0
512435,County,2020/06/09,49.0,UT,49003.0,Box Elder County,12428.0,42522.0,195120.0,60830.0,38137.0,13984.0,17771.0,31439.0,15988.0,10011.0,5481.0,1261.0,218.0
517216,County,2020/06/10,49.0,UT,49003.0,Box Elder County,12152.0,42798.0,188404.0,55328.0,42380.0,14608.0,13771.0,30230.0,14487.0,9683.0,6158.0,1520.0,239.0
520374,County,2020/06/11,49.0,UT,49003.0,Box Elder County,10973.0,43977.0,213969.0,62359.0,44963.0,17678.0,19270.0,36547.0,16275.0,9658.0,5336.0,1589.0,294.0
523595,County,2020/06/12,49.0,UT,49003.0,Box Elder County,11753.0,43197.0,197856.0,56207.0,43512.0,15387.0,17836.0,29628.0,16198.0,10894.0,6332.0,1654.0,208.0
526782,County,2020/06/13,49.0,UT,49003.0,Box Elder County,12497.0,42453.0,188216.0,48282.0,42711.0,20467.0,15850.0,31135.0,14452.0,6730.0,6971.0,1340.0,278.0
528417,County,2020/06/14,49.0,UT,49003.0,Box Elder County,14960.0,39990.0,167742.0,50420.0,37590.0,13390.0,13356.0,24173.0,10540.0,8451.0,7348.0,1934.0,540.0
533177,County,2020/06/15,49.0,UT,49003.0,Box Elder County,12112.0,42838.0,175410.0,50905.0,36390.0,14987.0,13846.0,26468.0,14495.0,10173.0,5957.0,1802.0,387.0
536347,County,2020/06/16,49.0,UT,49003.0,Box Elder County,12644.0,42306.0,178032.0,43709.0,37237.0,17910.0,15963.0,30845.0,15788.0,7809.0,6521.0,1870.0,380.0
539516,County,2020/06/17,49.0,UT,49003.0,Box Elder County,12417.0,42533.0,175306.0,48655.0,41633.0,15156.0,14128.0,25879.0,13240.0,7962.0,6294.0,2035.0,324.0
541146,County,2020/06/18,49.0,UT,49003.0,Box Elder County,11312.0,43638.0,174853.0,51770.0,34096.0,16375.0,14457.0,27029.0,13782.0,9296.0,6129.0,1356.0,563.0
545912,County,2020/06/19,49.0,UT,49003.0,Box Elder County,11988.0,42962.0,171658.0,48554.0,34381.0,12924.0,16252.0,30055.0,13990.0,8106.0,5432.0,1584.0,380.0
549147,County,2020/06/20,49.0,UT,49003.0,Box Elder County,12815.0,42135.0,170318.0,43754.0,35534.0,15962.0,15859.0,29730.0,12988.0,8549.0,6161.0,1528.0,253.0
550747,County,2020/06/21,49.0,UT,49003.0,Box Elder County,14550.0,40400.0,146746.0,41363.0,30001.0,11842.0,11782.0,19758.0,13966.0,9082.0,6229.0,2225.0,498.0
555527,County,2020/06/22,49.0,UT,49003.0,Box Elder County,13012.0,41938.0,177019.0,50072.0,35435.0,15912.0,14595.0,29868.0,14797.0,9333.0,5067.0,1605.0,335.0
557155,County,2020/06/23,49.0,UT,49003.0,Box Elder County,11490.0,43460.0,184524.0,53859.0,39260.0,12698.0,15679.0,31079.0,15086.0,9467.0,5630.0,1437.0,329.0
561923,County,2020/06/24,49.0,UT,49003.0,Box Elder County,12489.0,42461.0,167494.0,49834.0,31904.0,13394.0,13753.0,29771.0,12889.0,9228.0,4696.0,1560.0,465.0
565049,County,2020/06/25,49.0,UT,49003.0,Box Elder County,11784.0,43166.0,188866.0,53505.0,42676.0,15678.0,15533.0,29410.0,15885.0,8387.0,5931.0,1249.0,612.0
568347,County,2020/06/26,49.0,UT,49003.0,Box Elder County,11535.0,43415.0,183197.0,50421.0,37145.0,17287.0,15394.0,33934.0,14303.0,8412.0,4220.0,1580.0,501.0
571497,County,2020/06/27,49.0,UT,49003.0,Box Elder County,13667.0,41283.0,169663.0,44631.0,39121.0,17706.0,15675.0,26641.0,12511.0,6516.0,5185.0,1238.0,439.0
573119,County,2020/06/28,49.0,UT,49003.0,Box Elder County,14809.0,40141.0,125890.0,30973.0,26519.0,11993.0,12319.0,17839.0,9960.0,7919.0,5796.0,2115.0,457.0
576277,County,2020/06/29,49.0,UT,49003.0,Box Elder County,13067.0,41883.0,153489.0,36485.0,31092.0,15906.0,15092.0,26457.0,12507.0,8992.0,5129.0,1495.0,334.0
581090,County,2020/06/30,49.0,UT,49003.0,Box Elder County,12973.0,41977.0,157410.0,38760.0,30450.0,14005.0,14496.0,29822.0,13585.0,9426.0,4967.0,1491.0,408.0
584281,County,2020/07/01,49.0,UT,49003.0,Box Elder County,11761.0,43189.0,160329.0,40124.0,31988.0,13545.0,13886.0,28290.0,14466.0,10000.0,6005.0,1416.0,609.0
585881,County,2020/07/02,49.0,UT,49003.0,Box Elder County,13624.0,41326.0,200463.0,56790.0,45296.0,16641.0,16487.0,31216.0,16860.0,8902.0,6295.0,1326.0,650.0
589113,County,2020/07/03,49.0,UT,49003.0,Box Elder County,14488.0,40462.0,182165.0,50137.0,36936.0,17190.0,15307.0,33743.0,14222.0,8365.0,4196.0,1571.0,498.0
593856,County,2020/07/04,49.0,UT,49003.0,Box Elder County,15502.0,39448.0,155846.0,42893.0,31599.0,14706.0,13096.0,28868.0,12168.0,7156.0,3590.0,1344.0,426.0
597024,County,2020/07/05,49.0,UT,49003.0,Box Elder County,15891.0,39059.0,123754.0,33250.0,26024.0,7549.0,10929.0,20847.0,9635.0,8655.0,5017.0,1355.0,493.0
600202,County,2020/07/06,49.0,UT,49003.0,Box Elder County,12944.0,42006.0,153413.0,38087.0,31969.0,13760.0,12954.0,28662.0,13907.0,8923.0,3815.0,959.0,377.0
601780,County,2020/07/07,49.0,UT,49003.0,Box Elder County,12999.0,41951.0,155696.0,41961.0,32454.0,10058.0,14011.0,28300.0,13244.0,8651.0,5058.0,1411.0,548.0
606638,County,2020/07/08,49.0,UT,49003.0,Box Elder County,13171.0,41779.0,155902.0,43185.0,33327.0,12573.0,13980.0,24328.0,14032.0,8301.0,4561.0,1119.0,496.0
608266,County,2020/07/09,49.0,UT,49003.0,Box Elder County,13012.0,41938.0,165104.0,47479.0,34764.0,11503.0,15317.0,29079.0,12030.0,8743.0,4199.0,1396.0,594.0
611466,County,2020/07/10,49.0,UT,49003.0,Box Elder County,12289.0,42661.0,167074.0,42202.0,37100.0,14211.0,15413.0,31138.0,13074.0,8039.0,4299.0,1166.0,432.0
616214,County,2020/07/11,49.0,UT,49003.0,Box Elder County,13371.0,41579.0,149587.0,39887.0,29741.0,14772.0,13947.0,25290.0,11589.0,7715.0,4603.0,1495.0,548.0
619402,County,2020/07/12,49.0,UT,49003.0,Box Elder County,15911.0,39039.0,131124.0,34279.0,26515.0,14193.0,11373.0,21910.0,8869.0,7953.0,4421.0,1104.0,507.0
622608,County,2020/07/13,49.0,UT,49003.0,Box Elder County,12005.0,42945.0,156324.0,38930.0,33145.0,13535.0,14296.0,28193.0,13341.0,8937.0,4318.0,1114.0,515.0
625802,County,2020/07/14,49.0,UT,49003.0,Box Elder County,13046.0,41904.0,159686.0,40139.0,35272.0,15840.0,14456.0,26353.0,15875.0,6890.0,3631.0,812.0,418.0
627310,County,2020/07/15,49.0,UT,49003.0,Box Elder County,13498.0,41452.0,159415.0,39648.0,31952.0,16363.0,15137.0,29549.0,14699.0,6906.0,3661.0,1002.0,498.0
632241,County,2020/07/16,49.0,UT,49003.0,Box Elder County,13619.0,41331.0,150674.0,37335.0,33226.0,14284.0,14551.0,26689.0,12201.0,7190.0,3870.0,1019.0,309.0
635336,County,2020/07/17,49.0,UT,49003.0,Box Elder County,13834.0,41116.0,167842.0,46840.0,34141.0,14034.0,15694.0,32615.0,11967.0,6900.0,3813.0,1446.0,392.0
637013,County,2020/07/18,49.0,UT,49003.0,Box Elder County,14699.0,40251.0,171713.0,43381.0,35017.0,20933.0,15332.0,32169.0,12246.0,6998.0,3974.0,1308.0,355.0
640168,County,2020/07/19,49.0,UT,49003.0,Box Elder County,16834.0,38116.0,116558.0,26696.0,22028.0,10330.0,10097.0,20351.0,12782.0,7260.0,5240.0,1429.0,345.0
643352,County,2020/07/20,49.0,UT,49003.0,Box Elder County,14765.0,40185.0,161490.0,43622.0,31393.0,17716.0,15329.0,27292.0,12956.0,7515.0,4186.0,1075.0,406.0
646578,County,2020/07/21,49.0,UT,49003.0,Box Elder County,13830.0,41120.0,149237.0,35607.0,31007.0,15290.0,13943.0,24442.0,14043.0,8384.0,5015.0,1125.0,381.0
649259,County,2020/07/22,49.0,UT,49003.0,Box Elder County,13273.0,41677.0,155252.0,38879.0,32705.0,14381.0,14585.0,28161.0,12117.0,7785.0,4892.0,1150.0,597.0
654549,County,2020/07/23,49.0,UT,49003.0,Box Elder County,13929.0,41021.0,158437.0,38100.0,31912.0,14649.0,14821.0,31288.0,13300.0,8030.0,4431.0,1461.0,445.0
655971,County,2020/07/24,49.0,UT,49003.0,Box Elder County,13718.0,41232.0,150647.0,36873.0,32629.0,15274.0,12414.0,28164.0,13022.0,6125.0,4842.0,997.0,307.0
660991,County,2020/07/25,49.0,UT,49003.0,Box Elder County,14649.0,40301.0,137509.0,35216.0,30423.0,14455.0,11682.0,21361.0,12463.0,5420.0,4975.0,1241.0,273.0
664073,County,2020/07/26,49.0,UT,49003.0,Box Elder County,15289.0,39661.0,121737.0,25923.0,27123.0,11361.0,11880.0,20356.0,10475.0,8298.0,4509.0,1214.0,598.0
667345,County,2020/07/27,49.0,UT,49003.0,Box Elder County,14364.0,40586.0,141316.0,33565.0,30531.0,14020.0,11224.0,25854.0,12733.0,6941.0,4679.0,1281.0,488.0
670499,County,2020/07/28,49.0,UT,49003.0,Box Elder County,13685.0,41265.0,150497.0,35691.0,29466.0,14607.0,12711.0,28480.0,14862.0,8228.0,4446.0,1427.0,579.0
673712,County,2020/07/29,49.0,UT,49003.0,Box Elder County,14088.0,40862.0,150133.0,33488.0,32288.0,13082.0,14584.0,27719.0,14307.0,8189.0,4821.0,1072.0,583.0
675341,County,2020/07/30,49.0,UT,49003.0,Box Elder County,13240.0,41710.0,155076.0,36777.0,32442.0,12991.0,12486.0,30120.0,16145.0,7529.0,5177.0,1036.0,373.0
678542,County,2020/07/31,49.0,UT,49003.0,Box Elder County,13680.0,41270.0,156901.0,35971.0,33067.0,15343.0,15874.0,27879.0,14819.0,8178.0,4025.0,1177.0,568.0
681651,County,2020/08/01,49.0,UT,49003.0,Box Elder County,15413.0,39537.0,142242.0,32217.0,32369.0,12324.0,13385.0,23627.0,15139.0,8008.0,3564.0,1241.0,368.0
686480,County,2020/08/02,49.0,UT,49003.0,Box Elder County,15438.0,39512.0,130735.0,31798.0,25363.0,10465.0,10012.0,23377.0,12639.0,9156.0,5838.0,1676.0,411.0
689683,County,2020/08/03,49.0,UT,49003.0,Box Elder County,14388.0,40562.0,153749.0,38179.0,33269.0,15214.0,11523.0,27379.0,12828.0,7860.0,5622.0,1422.0,453.0
691311,County,2020/08/04,49.0,UT,49003.0,Box Elder County,12619.0,42331.0,160121.0,40330.0,34263.0,14758.0,13713.0,29016.0,14732.0,6964.0,4720.0,1305.0,320.0
694473,County,2020/08/05,49.0,UT,49003.0,Box Elder County,12861.0,42089.0,160075.0,39237.0,34922.0,14601.0,12746.0,27285.0,15126.0,8971.0,4888.0,1845.0,454.0
697680,County,2020/08/06,49.0,UT,49003.0,Box Elder County,12842.0,42108.0,167722.0,41100.0,38579.0,14250.0,12142.0,29760.0,14093.0,9725.0,5998.0,1709.0,366.0
700892,County,2020/08/07,49.0,UT,49003.0,Box Elder County,13049.0,41901.0,164810.0,45094.0,31280.0,14543.0,13347.0,31377.0,12976.0,9009.0,5240.0,1526.0,418.0
705653,County,2020/08/08,49.0,UT,49003.0,Box Elder County,13696.0,41254.0,149069.0,35517.0,33000.0,13750.0,13075.0,25909.0,12964.0,8090.0,4810.0,1551.0,403.0
707231,County,2020/08/09,49.0,UT,49003.0,Box Elder County,15151.0,39799.0,127902.0,34204.0,28306.0,10089.0,9358.0,18631.0,10055.0,8530.0,6325.0,1817.0,587.0
710501,County,2020/08/10,49.0,UT,49003.0,Box Elder County,13992.0,40958.0,160080.0,37318.0,34170.0,13548.0,13439.0,28512.0,16358.0,9818.0,4893.0,1507.0,517.0
715234,County,2020/08/11,49.0,UT,49003.0,Box Elder County,13411.0,41539.0,166900.0,40180.0,38412.0,14319.0,13253.0,29404.0,15960.0,7534.0,5739.0,1657.0,442.0
716766,County,2020/08/12,49.0,UT,49003.0,Box Elder County,12574.0,42376.0,174078.0,51057.0,37474.0,12784.0,13515.0,28108.0,15284.0,8521.0,4909.0,1609.0,817.0
720009,County,2020/08/13,49.0,UT,49003.0,Box Elder County,11266.0,43684.0,167340.0,40838.0,37902.0,14868.0,13883.0,29108.0,15590.0,8372.0,4229.0,1813.0,737.0
724801,County,2020/08/14,49.0,UT,49003.0,Box Elder County,11919.0,43031.0,181395.0,41320.0,38304.0,15726.0,14471.0,34157.0,19107.0,10860.0,5547.0,1231.0,672.0
726481,County,2020/08/15,49.0,UT,49003.0,Box Elder County,12814.0,42136.0,147671.0,33548.0,32394.0,11485.0,12824.0,28743.0,13800.0,7912.0,4720.0,1296.0,949.0
731204,County,2020/08/16,49.0,UT,49003.0,Box Elder County,14349.0,40601.0,133436.0,27955.0,26827.0,9941.0,10612.0,24332.0,14760.0,9683.0,6279.0,2053.0,994.0
732834,County,2020/08/17,49.0,UT,49003.0,Box Elder County,13946.0,41004.0,166387.0,37679.0,32843.0,14876.0,15472.0,29154.0,18432.0,9448.0,5536.0,1904.0,1043.0
737543,County,2020/08/18,49.0,UT,49003.0,Box Elder County,12956.0,41994.0,139221.0,28203.0,31007.0,10892.0,10251.0,27331.0,14702.0,8504.0,5257.0,1877.0,1197.0
739205,County,2020/08/19,49.0,UT,49003.0,Box Elder County,12890.0,42060.0,162553.0,37979.0,32828.0,13397.0,12733.0,29997.0,17985.0,8924.0,5963.0,1777.0,970.0
743986,County,2020/08/20,49.0,UT,49003.0,Box Elder County,12495.0,42455.0,164055.0,38262.0,35252.0,12641.0,15185.0,28796.0,15964.0,9413.0,5957.0,1748.0,837.0
745616,County,2020/08/21,49.0,UT,49003.0,Box Elder County,12127.0,42823.0,177490.0,46765.0,36511.0,12342.0,14458.0,31442.0,17475.0,9690.0,6068.0,1901.0,838.0
750347,County,2020/08/22,49.0,UT,49003.0,Box Elder County,13250.0,41700.0,164833.0,42119.0,33187.0,15874.0,14214.0,30518.0,13110.0,8952.0,4585.0,1320.0,954.0
753516,County,2020/08/23,49.0,UT,49003.0,Box Elder County,15342.0,39608.0,108790.0,22194.0,22783.0,10018.0,10819.0,17742.0,10197.0,8303.0,4546.0,1479.0,709.0
755186,County,2020/08/24,49.0,UT,49003.0,Box Elder County,14163.0,40787.0,142786.0,32476.0,32081.0,10115.0,13122.0,25574.0,14737.0,8305.0,4302.0,1289.0,785.0
759948,County,2020/08/25,49.0,UT,49003.0,Box Elder County,13731.0,41219.0,158615.0,36438.0,35230.0,13275.0,13397.0,29471.0,15706.0,8180.0,4793.0,1482.0,643.0
761530,County,2020/08/26,49.0,UT,49003.0,Box Elder County,13919.0,41031.0,153676.0,38497.0,34581.0,11697.0,13050.0,24804.0,15803.0,8539.0,4440.0,1713.0,552.0
766304,County,2020/08/27,49.0,UT,49003.0,Box Elder County,13269.0,41681.0,150409.0,33897.0,31291.0,12552.0,13503.0,25562.0,16544.0,8570.0,5992.0,1893.0,605.0
767942,County,2020/08/28,49.0,UT,49003.0,Box Elder County,13198.0,41752.0,160762.0,37097.0,36690.0,14316.0,13137.0,28223.0,15979.0,8614.0,4548.0,1408.0,750.0
771147,County,2020/08/29,49.0,UT,49003.0,Box Elder County,13917.0,41033.0,152383.0,32336.0,33033.0,15687.0,14925.0,25818.0,14897.0,9249.0,4627.0,1230.0,581.0
775921,County,2020/08/30,49.0,UT,49003.0,Box Elder County,15474.0,39476.0,123135.0,25118.0,28271.0,9658.0,11064.0,19175.0,13332.0,9069.0,5290.0,1573.0,585.0
777528,County,2020/08/31,49.0,UT,49003.0,Box Elder County,14180.0,40770.0,147028.0,32857.0,34077.0,10818.0,10453.0,28175.0,14722.0,7439.0,6112.0,1809.0,566.0
782309,County,2020/09/01,49.0,UT,49003.0,Box Elder County,13236.0,41714.0,165263.0,39393.0,38975.0,12795.0,12639.0,30476.0,14370.0,9035.0,5379.0,1596.0,605.0
785454,County,2020/09/02,49.0,UT,49003.0,Box Elder County,13592.0,41358.0,162079.0,35361.0,36809.0,15082.0,13660.0,29739.0,16002.0,8397.0,5041.0,1556.0,432.0
787064,County,2020/09/03,49.0,UT,49003.0,Box Elder County,12452.0,42498.0,173050.0,41616.0,38360.0,15146.0,13161.0,31789.0,16108.0,8509.0,6307.0,1511.0,543.0
791842,County,2020/09/04,49.0,UT,49003.0,Box Elder County,13798.0,41152.0,167296.0,34869.0,41971.0,16553.0,13325.0,29205.0,16047.0,7914.0,5230.0,1715.0,467.0
793401,County,2020/09/05,49.0,UT,49003.0,Box Elder County,14032.0,40918.0,167069.0,37665.0,42606.0,15995.0,15403.0,27566.0,13668.0,7598.0,5004.0,997.0,567.0
796684,County,2020/09/06,49.0,UT,49003.0,Box Elder County,16351.0,38599.0,132567.0,32767.0,32719.0,11273.0,11538.0,19549.0,11235.0,8127.0,3727.0,1184.0,448.0
800070,County,2020/09/07,49.0,UT,49003.0,Box Elder County,16062.0,38888.0,132139.0,29368.0,30432.0,10340.0,11038.0,23067.0,12594.0,8195.0,5188.0,1350.0,567.0
803081,County,2020/09/08,49.0,UT,49003.0,Box Elder County,14388.0,40562.0,171230.0,40641.0,42308.0,13990.0,13745.0,32451.0,13182.0,8476.0,4943.0,1084.0,410.0
807860,County,2020/09/09,49.0,UT,49003.0,Box Elder County,13931.0,41019.0,182674.0,47989.0,37944.0,13945.0,14242.0,35581.0,15641.0,9349.0,5649.0,1741.0,593.0
809488,County,2020/09/10,49.0,UT,49003.0,Box Elder County,13256.0,41694.0,172302.0,39982.0,39483.0,13961.0,12853.0,33630.0,15711.0,9873.0,5045.0,1235.0,529.0
814249,County,2020/09/11,49.0,UT,49003.0,Box Elder County,13709.0,41241.0,172722.0,37347.0,40569.0,14987.0,15183.0,31111.0,16227.0,10080.0,5276.0,1531.0,411.0
815830,County,2020/09/12,49.0,UT,49003.0,Box Elder County,14709.0,40241.0,155470.0,35041.0,34635.0,14999.0,13692.0,26751.0,13728.0,7965.0,6559.0,1408.0,692.0
820627,County,2020/09/13,49.0,UT,49003.0,Box Elder County,15810.0,39140.0,122809.0,26118.0,25349.0,10010.0,9428.0,24070.0,12860.0,8586.0,4758.0,1025.0,605.0
822256,County,2020/09/14,49.0,UT,49003.0,Box Elder County,13807.0,41143.0,167991.0,37907.0,40907.0,14376.0,12788.0,33058.0,14504.0,7579.0,5095.0,1231.0,546.0
827025,County,2020/09/15,49.0,UT,49003.0,Box Elder County,13564.0,41386.0,168597.0,39858.0,40956.0,13215.0,13974.0,30357.0,14834.0,8958.0,4484.0,1268.0,693.0
830219,County,2020/09/16,49.0,UT,49003.0,Box Elder County,13869.0,41081.0,169092.0,39898.0,36710.0,13458.0,15142.0,33150.0,14553.0,8540.0,5211.0,1845.0,585.0
833396,County,2020/09/17,49.0,UT,49003.0,Box Elder County,13076.0,41874.0,183799.0,52262.0,40984.0,13360.0,12803.0,32619.0,14849.0,9663.0,5105.0,1570.0,584.0
835025,County,2020/09/18,49.0,UT,49003.0,Box Elder County,13298.0,41652.0,166561.0,42457.0,33736.0,12157.0,13802.0,30812.0,16338.0,9527.0,5836.0,1288.0,608.0
839800,County,2020/09/19,49.0,UT,49003.0,Box Elder County,14219.0,40731.0,168988.0,41202.0,37646.0,14460.0,15802.0,31105.0,13983.0,8373.0,4348.0,1600.0,469.0
841430,County,2020/09/20,49.0,UT,49003.0,Box Elder County,15750.0,39200.0,123338.0,26582.0,31423.0,11465.0,10217.0,18612.0,10952.0,6928.0,5186.0,1517.0,456.0
846166,County,2020/09/21,49.0,UT,49003.0,Box Elder County,15134.0,39816.0,143480.0,32758.0,31716.0,12407.0,12520.0,26894.0,13632.0,6881.0,5158.0,1168.0,346.0
847795,County,2020/09/22,49.0,UT,49003.0,Box Elder County,14296.0,40654.0,165506.0,46517.0,36521.0,12692.0,13826.0,28019.0,14259.0,7973.0,4358.0,1095.0,246.0
852573,County,2020/09/23,49.0,UT,49003.0,Box Elder County,12949.0,42001.0,176418.0,46153.0,37154.0,16955.0,16043.0,32241.0,14276.0,6962.0,4756.0,1543.0,335.0
854201,County,2020/09/24,49.0,UT,49003.0,Box Elder County,12339.0,42611.0,160988.0,37125.0,37770.0,13097.0,12606.0,32308.0,14516.0,6980.0,4540.0,1761.0,285.0
858965,County,2020/09/25,49.0,UT,49003.0,Box Elder County,12332.0,42618.0,179252.0,47688.0,41465.0,15175.0,14116.0,31525.0,14816.0,7579.0,5181.0,1457.0,250.0
860543,County,2020/09/26,49.0,UT,49003.0,Box Elder County,13806.0,41144.0,169737.0,39710.0,36209.0,16552.0,16019.0,32311.0,14718.0,6951.0,5373.0,1532.0,362.0
865340,County,2020/09/27,49.0,UT,49003.0,Box Elder County,15491.0,39459.0,136792.0,30041.0,35522.0,11873.0,12259.0,23111.0,9781.0,6043.0,5727.0,2083.0,352.0
866969,County,2020/09/28,49.0,UT,49003.0,Box Elder County,13197.0,41753.0,174316.0,51149.0,37176.0,15145.0,12621.0,28761.0,14619.0,7439.0,5660.0,1570.0,176.0
871740,County,2020/09/29,49.0,UT,49003.0,Box Elder County,13306.0,41644.0,157644.0,35225.0,40250.0,13781.0,14710.0,25344.0,14621.0,8890.0,3676.0,998.0,149.0
873369,County,2020/09/30,49.0,UT,49003.0,Box Elder County,12877.0,42073.0,173150.0,42684.0,42191.0,15133.0,13692.0,29036.0,16652.0,9583.0,2951.0,1057.0,171.0
876533,County,2020/10/01,49.0,UT,49003.0,Box Elder County,13348.0,41602.0,169264.0,41641.0,40103.0,17193.0,12838.0,28419.0,14862.0,9285.0,3637.0,1100.0,186.0
879737,County,2020/10/02,49.0,UT,49003.0,Box Elder County,13198.0,41752.0,175017.0,44110.0,40703.0,15158.0,14955.0,32332.0,13440.0,8138.0,4949.0,1074.0,158.0
882953,County,2020/10/03,49.0,UT,49003.0,Box Elder County,15010.0,39940.0,152155.0,31873.0,39143.0,12104.0,16692.0,27879.0,11214.0,8559.0,3477.0,1036.0,178.0
887472,County,2020/10/04,49.0,UT,49003.0,Box Elder County,16157.0,38793.0,114290.0,22981.0,24903.0,10247.0,10644.0,20036.0,10763.0,7625.0,5746.0,1103.0,242.0
890709,County,2020/10/05,49.0,UT,49003.0,Box Elder County,14951.0,39999.0,154210.0,38915.0,31402.0,13542.0,12595.0,30483.0,14637.0,8224.0,3547.0,721.0,144.0
893994,County,2020/10/06,49.0,UT,49003.0,Box Elder County,14223.0,40727.0,163775.0,40598.0,34656.0,12888.0,14684.0,30174.0,16111.0,9663.0,4008.0,867.0,126.0
897099,County,2020/10/07,49.0,UT,49003.0,Box Elder County,13419.0,41531.0,169021.0,45471.0,35955.0,12646.0,15956.0,28988.0,16241.0,8610.0,4163.0,888.0,103.0
900264,County,2020/10/08,49.0,UT,49003.0,Box Elder County,13770.0,41180.0,158530.0,35779.0,35944.0,12972.0,13572.0,31165.0,15215.0,8987.0,3969.0,753.0,174.0
903464,County,2020/10/09,49.0,UT,49003.0,Box Elder County,13779.0,41171.0,163969.0,40438.0,35866.0,14303.0,14072.0,32150.0,14093.0,8310.0,3841.0,789.0,107.0
906650,County,2020/10/10,49.0,UT,49003.0,Box Elder County,14937.0,40013.0,148668.0,30343.0,34673.0,14301.0,13485.0,28561.0,13444.0,8677.0,4399.0,660.0,125.0
907969,County,2020/10/11,49.0,UT,49003.0,Box Elder County,16375.0,38575.0,119799.0,25195.0,27109.0,10498.0,9959.0,21210.0,11260.0,8805.0,4736.0,923.0,104.0
910694,County,2020/10/12,49.0,UT,49003.0,Box Elder County,14138.0,40812.0,155798.0,33459.0,35994.0,13009.0,13905.0,31594.0,14413.0,7836.0,4742.0,719.0,127.0
913631,County,2020/10/13,49.0,UT,49003.0,Box Elder County,13610.0,41340.0,158099.0,35552.0,33276.0,12403.0,14860.0,32044.0,15197.0,9946.0,3929.0,765.0,127.0
917057,County,2020/10/14,49.0,UT,49003.0,Box Elder County,13275.0,41675.0,158912.0,32235.0,35110.0,11310.0,16573.0,32580.0,16588.0,9464.0,3812.0,1117.0,123.0
920366,County,2020/10/15,49.0,UT,49003.0,Box Elder County,14104.0,40846.0,144648.0,27468.0,31666.0,11271.0,14194.0,31534.0,15023.0,7686.0,4640.0,1003.0,163.0
923284,County,2020/10/16,49.0,UT,49003.0,Box Elder County,13089.0,41861.0,151783.0,28165.0,33306.0,13956.0,12687.0,33351.0,16895.0,7937.0,4511.0,812.0,163.0
926968,County,2020/10/17,49.0,UT,49003.0,Box Elder County,14705.0,40245.0,138381.0,27441.0,31869.0,12872.0,13277.0,26298.0,13578.0,7047.0,4950.0,914.0,135.0
929766,County,2020/10/18,49.0,UT,49003.0,Box Elder County,15921.0,39029.0,121893.0,25636.0,26691.0,12332.0,10850.0,21091.0,10865.0,8299.0,4912.0,1052.0,165.0
933365,County,2020/10/19,49.0,UT,49003.0,Box Elder County,13827.0,41123.0,161527.0,42484.0,36969.0,14876.0,14740.0,25815.0,13456.0,8248.0,3758.0,1007.0,174.0
936122,County,2020/10/20,49.0,UT,49003.0,Box Elder County,13636.0,41314.0,155425.0,35119.0,32489.0,15098.0,13335.0,28334.0,13728.0,10958.0,5409.0,806.0,149.0
939526,County,2020/10/21,49.0,UT,49003.0,Box Elder County,14304.0,40646.0,139612.0,30723.0,28968.0,14218.0,10935.0,26458.0,14898.0,8015.0,4017.0,1194.0,186.0
942455,County,2020/10/22,49.0,UT,49003.0,Box Elder County,13142.0,41808.0,166574.0,36919.0,42674.0,13610.0,13609.0,29100.0,15992.0,9637.0,3895.0,1007.0,131.0
945718,County,2020/10/23,49.0,UT,49003.0,Box Elder County,12711.0,42239.0,185066.0,45099.0,44776.0,17543.0,17153.0,29092.0,17029.0,9005.0,4340.0,906.0,123.0
949427,County,2020/10/24,49.0,UT,49003.0,Box Elder County,13811.0,41139.0,174969.0,38175.0,46103.0,19828.0,15104.0,28872.0,13197.0,9206.0,3528.0,840.0,116.0
