,Level,Date,State FIPS,State Postal Code,County FIPS,County Name,Population Staying at Home,Population Not Staying at Home,Number of Trips,Number of Trips <1,Number of Trips 1-3,Number of Trips 3-5,Number of Trips 5-10,Number of Trips 10-25,Number of Trips 25-50,Number of Trips 50-100,Number of Trips 100-250,Number of Trips 250-500,Number of Trips >=500
2242,County,2020/01/01,41.0,OR,41071.0,Yamhill County,27105.0,79897.0,320182.0,93023.0,78274.0,32154.0,42648.0,47974.0,18967.0,4741.0,1417.0,792.0,192.0
4783,County,2020/01/02,41.0,OR,41071.0,Yamhill County,21935.0,85067.0,414870.0,118220.0,106033.0,34497.0,49489.0,70259.0,28403.0,5827.0,1476.0,516.0,150.0
9251,County,2020/01/03,41.0,OR,41071.0,Yamhill County,21003.0,85999.0,427436.0,117740.0,111599.0,34073.0,51795.0,73804.0,29359.0,6930.0,1500.0,451.0,185.0
11577,County,2020/01/04,41.0,OR,41071.0,Yamhill County,23994.0,83008.0,368162.0,91301.0,101546.0,34573.0,47827.0,57840.0,26878.0,6282.0,1584.0,217.0,114.0
15018,County,2020/01/05,41.0,OR,41071.0,Yamhill County,26277.0,80725.0,339583.0,91500.0,92299.0,33197.0,46147.0,48297.0,19322.0,6262.0,1443.0,800.0,316.0
17134,County,2020/01/06,41.0,OR,41071.0,Yamhill County,22480.0,84522.0,378608.0,102848.0,98223.0,31031.0,42694.0,65714.0,30710.0,5545.0,1285.0,471.0,87.0
20292,County,2020/01/07,41.0,OR,41071.0,Yamhill County,21839.0,85163.0,410048.0,113522.0,107300.0,35633.0,48569.0,69277.0,29681.0,4501.0,1072.0,218.0,275.0
25041,County,2020/01/08,41.0,OR,41071.0,Yamhill County,20568.0,86434.0,424371.0,120124.0,112815.0,35044.0,50295.0,70631.0,28503.0,5453.0,1002.0,251.0,253.0
26668,County,2020/01/09,41.0,OR,41071.0,Yamhill County,20965.0,86037.0,419527.0,124093.0,105619.0,35645.0,49361.0,70030.0,27704.0,5209.0,1434.0,290.0,142.0
29864,County,2020/01/10,41.0,OR,41071.0,Yamhill County,21095.0,85907.0,437979.0,122364.0,117241.0,36143.0,49969.0,74097.0,29802.0,6463.0,1436.0,297.0,167.0
34672,County,2020/01/11,41.0,OR,41071.0,Yamhill County,22306.0,84696.0,404483.0,108523.0,108572.0,37953.0,48172.0,66107.0,26692.0,6667.0,930.0,677.0,190.0
37792,County,2020/01/12,41.0,OR,41071.0,Yamhill County,26272.0,80730.0,339738.0,85137.0,98659.0,30335.0,41004.0,53564.0,22651.0,6687.0,1547.0,50.0,104.0
41039,County,2020/01/13,41.0,OR,41071.0,Yamhill County,21415.0,85587.0,439625.0,155250.0,108210.0,29555.0,45096.0,65943.0,28648.0,5080.0,1362.0,287.0,194.0
42665,County,2020/01/14,41.0,OR,41071.0,Yamhill County,22001.0,85001.0,419439.0,118441.0,113948.0,35215.0,45674.0,73332.0,27013.0,4277.0,755.0,673.0,111.0
45818,County,2020/01/15,41.0,OR,41071.0,Yamhill County,21576.0,85426.0,409122.0,125097.0,106559.0,32683.0,44481.0,69352.0,25767.0,3869.0,823.0,371.0,120.0
50599,County,2020/01/16,41.0,OR,41071.0,Yamhill County,20634.0,86368.0,427688.0,123060.0,113886.0,36809.0,50042.0,65845.0,29671.0,6561.0,1332.0,245.0,237.0
52227,County,2020/01/17,41.0,OR,41071.0,Yamhill County,20589.0,86413.0,448878.0,138963.0,116032.0,38222.0,50739.0,68490.0,28492.0,6076.0,1391.0,282.0,191.0
55410,County,2020/01/18,41.0,OR,41071.0,Yamhill County,22676.0,84326.0,411889.0,116859.0,106127.0,34883.0,51874.0,68863.0,25774.0,6091.0,1031.0,183.0,204.0
60206,County,2020/01/19,41.0,OR,41071.0,Yamhill County,24984.0,82018.0,373701.0,102151.0,100298.0,33930.0,51767.0,58642.0,19742.0,5713.0,975.0,284.0,199.0
63369,County,2020/01/20,41.0,OR,41071.0,Yamhill County,22798.0,84204.0,392905.0,109148.0,98845.0,32598.0,50380.0,65764.0,27614.0,6505.0,1235.0,549.0,267.0
66567,County,2020/01/21,41.0,OR,41071.0,Yamhill County,21360.0,85642.0,415971.0,113600.0,111455.0,36031.0,47401.0,73682.0,27741.0,4151.0,1085.0,449.0,376.0
68198,County,2020/01/22,41.0,OR,41071.0,Yamhill County,20898.0,86104.0,434347.0,120731.0,111985.0,39952.0,54515.0,71518.0,28587.0,5828.0,981.0,84.0,166.0
71382,County,2020/01/23,41.0,OR,41071.0,Yamhill County,20428.0,86574.0,424122.0,126463.0,111763.0,34410.0,51344.0,66041.0,27963.0,4500.0,1177.0,275.0,186.0
76145,County,2020/01/24,41.0,OR,41071.0,Yamhill County,19860.0,87142.0,433310.0,119147.0,110645.0,39844.0,51533.0,73731.0,30023.0,6414.0,1497.0,272.0,204.0
77772,County,2020/01/25,41.0,OR,41071.0,Yamhill County,22652.0,84350.0,421900.0,119006.0,116411.0,37797.0,50035.0,61834.0,27013.0,8142.0,1154.0,296.0,212.0
82092,County,2020/01/26,41.0,OR,41071.0,Yamhill County,25129.0,81873.0,368058.0,95529.0,96637.0,34726.0,44524.0,60637.0,27185.0,6914.0,1607.0,44.0,255.0
85744,County,2020/01/27,41.0,OR,41071.0,Yamhill County,21701.0,85301.0,406878.0,111532.0,102752.0,35830.0,52273.0,69029.0,28212.0,5356.0,1329.0,431.0,134.0
87948,County,2020/01/28,41.0,OR,41071.0,Yamhill County,21309.0,85693.0,440284.0,133571.0,113972.0,35821.0,51971.0,68285.0,31090.0,4012.0,1110.0,350.0,102.0
90523,County,2020/01/29,41.0,OR,41071.0,Yamhill County,21313.0,85689.0,423292.0,117635.0,109816.0,35781.0,51678.0,72860.0,29696.0,4301.0,1069.0,353.0,103.0
93876,County,2020/01/30,41.0,OR,41071.0,Yamhill County,19970.0,87032.0,418374.0,114340.0,109378.0,35403.0,47913.0,69783.0,33687.0,5552.0,1588.0,392.0,338.0
96931,County,2020/01/31,41.0,OR,41071.0,Yamhill County,18697.0,88305.0,445354.0,123002.0,118272.0,37705.0,54054.0,69233.0,32617.0,7261.0,2581.0,240.0,389.0
100180,County,2020/02/01,41.0,OR,41071.0,Yamhill County,22047.0,84955.0,404529.0,101578.0,104551.0,39871.0,53154.0,64177.0,31051.0,7014.0,2064.0,636.0,433.0
104891,County,2020/02/02,41.0,OR,41071.0,Yamhill County,23985.0,83017.0,354997.0,88058.0,103589.0,37024.0,42395.0,49486.0,25652.0,6148.0,1890.0,474.0,281.0
106517,County,2020/02/03,41.0,OR,41071.0,Yamhill County,19894.0,87108.0,412301.0,111671.0,103634.0,37967.0,46581.0,70120.0,33429.0,5622.0,2672.0,343.0,262.0
111279,County,2020/02/04,41.0,OR,41071.0,Yamhill County,19526.0,87476.0,423157.0,117597.0,110872.0,36087.0,46733.0,70016.0,32455.0,6355.0,2391.0,235.0,416.0
114482,County,2020/02/05,41.0,OR,41071.0,Yamhill County,19988.0,87014.0,424006.0,115140.0,109712.0,39750.0,49393.0,67886.0,32865.0,6071.0,2540.0,402.0,247.0
116001,County,2020/02/06,41.0,OR,41071.0,Yamhill County,19697.0,87305.0,426354.0,121954.0,113007.0,38897.0,46657.0,64942.0,33179.0,4890.0,2264.0,262.0,302.0
119267,County,2020/02/07,41.0,OR,41071.0,Yamhill County,19954.0,87048.0,449518.0,125612.0,117166.0,41342.0,53522.0,70274.0,32847.0,5752.0,2492.0,224.0,287.0
122513,County,2020/02/08,41.0,OR,41071.0,Yamhill County,22414.0,84588.0,392647.0,105132.0,102939.0,34112.0,49711.0,59778.0,31714.0,6357.0,2430.0,138.0,336.0
126256,County,2020/02/09,41.0,OR,41071.0,Yamhill County,25474.0,81528.0,360621.0,93701.0,94785.0,32891.0,46030.0,56102.0,27453.0,6454.0,1977.0,352.0,876.0
130551,County,2020/02/10,41.0,OR,41071.0,Yamhill County,19812.0,87190.0,447033.0,127177.0,113838.0,38395.0,49947.0,74454.0,34093.0,5023.0,2687.0,423.0,996.0
132560,County,2020/02/11,41.0,OR,41071.0,Yamhill County,19924.0,87078.0,431055.0,115899.0,108051.0,37028.0,49082.0,76908.0,34556.0,5878.0,2635.0,462.0,556.0
136801,County,2020/02/12,41.0,OR,41071.0,Yamhill County,19380.0,87622.0,454512.0,123822.0,117054.0,35553.0,54382.0,77622.0,36134.0,6060.0,2556.0,341.0,988.0
138496,County,2020/02/13,41.0,OR,41071.0,Yamhill County,20104.0,86898.0,454072.0,124535.0,116366.0,38603.0,48963.0,77771.0,36802.0,6764.0,2784.0,372.0,1112.0
141554,County,2020/02/14,41.0,OR,41071.0,Yamhill County,18938.0,88064.0,469516.0,125758.0,122384.0,39982.0,50855.0,81224.0,36501.0,7117.0,3676.0,665.0,1354.0
146432,County,2020/02/15,41.0,OR,41071.0,Yamhill County,22701.0,84301.0,397493.0,102023.0,101901.0,33105.0,47787.0,69066.0,32481.0,6707.0,2564.0,406.0,1453.0
148039,County,2020/02/16,41.0,OR,41071.0,Yamhill County,23368.0,83634.0,367906.0,87136.0,101271.0,33622.0,46907.0,57964.0,27682.0,8758.0,2388.0,694.0,1484.0
152801,County,2020/02/17,41.0,OR,41071.0,Yamhill County,27689.0,79313.0,347546.0,86077.0,88008.0,29051.0,42521.0,63027.0,28751.0,5693.0,3160.0,379.0,879.0
154378,County,2020/02/18,41.0,OR,41071.0,Yamhill County,19804.0,87198.0,454449.0,126011.0,112675.0,37895.0,53695.0,79633.0,34988.0,6301.0,2188.0,238.0,825.0
159188,County,2020/02/19,41.0,OR,41071.0,Yamhill County,19040.0,87962.0,449286.0,122714.0,113540.0,42195.0,51073.0,72877.0,37805.0,5088.0,3068.0,499.0,427.0
160683,County,2020/02/20,41.0,OR,41071.0,Yamhill County,19535.0,87467.0,453699.0,120625.0,118861.0,39810.0,52061.0,77408.0,34319.0,6565.0,3018.0,655.0,377.0
165577,County,2020/02/21,41.0,OR,41071.0,Yamhill County,19088.0,87914.0,496986.0,135251.0,129380.0,42858.0,53673.0,85072.0,38030.0,8657.0,3063.0,601.0,401.0
167155,County,2020/02/22,41.0,OR,41071.0,Yamhill County,19756.0,87246.0,445769.0,116810.0,110678.0,41713.0,51906.0,75639.0,36282.0,8717.0,3375.0,363.0,286.0
171970,County,2020/02/23,41.0,OR,41071.0,Yamhill County,24190.0,82812.0,375388.0,94158.0,100682.0,34697.0,47158.0,56920.0,31106.0,7813.0,1935.0,602.0,317.0
175213,County,2020/02/24,41.0,OR,41071.0,Yamhill County,21513.0,85489.0,426351.0,120478.0,108954.0,37005.0,49109.0,72204.0,30055.0,5089.0,2158.0,433.0,866.0
177913,County,2020/02/25,41.0,OR,41071.0,Yamhill County,20895.0,86107.0,397873.0,110292.0,102885.0,34813.0,46230.0,65808.0,29687.0,5494.0,1641.0,329.0,694.0
181106,County,2020/02/26,41.0,OR,41071.0,Yamhill County,17708.0,89294.0,461378.0,124632.0,119424.0,46279.0,60149.0,76104.0,29486.0,3717.0,842.0,488.0,257.0
182572,County,2020/02/27,41.0,OR,41071.0,Yamhill County,20837.0,86165.0,467452.0,130395.0,119351.0,41324.0,58369.0,78952.0,30431.0,6180.0,1539.0,509.0,402.0
187983,County,2020/02/28,41.0,OR,41071.0,Yamhill County,20162.0,86840.0,466476.0,130151.0,118466.0,41360.0,57801.0,74241.0,34561.0,7429.0,1586.0,327.0,554.0
191129,County,2020/02/29,41.0,OR,41071.0,Yamhill County,21272.0,85730.0,437876.0,115978.0,114021.0,40974.0,57798.0,67551.0,31921.0,7005.0,1620.0,311.0,697.0
194347,County,2020/03/01,41.0,OR,41071.0,Yamhill County,23519.0,83483.0,362540.0,97993.0,98717.0,36546.0,44832.0,54186.0,22779.0,5531.0,868.0,544.0,544.0
195976,County,2020/03/02,41.0,OR,41071.0,Yamhill County,21991.0,85011.0,375447.0,102445.0,96311.0,33359.0,50445.0,62164.0,23781.0,4742.0,1498.0,61.0,641.0
200827,County,2020/03/03,41.0,OR,41071.0,Yamhill County,19708.0,87294.0,361644.0,97092.0,90818.0,30292.0,38799.0,65934.0,29009.0,5939.0,2625.0,635.0,501.0
203914,County,2020/03/04,41.0,OR,41071.0,Yamhill County,21032.0,85970.0,373131.0,105270.0,88746.0,28918.0,49658.0,61538.0,29726.0,6459.0,2052.0,150.0,614.0
205481,County,2020/03/05,41.0,OR,41071.0,Yamhill County,18917.0,88085.0,362726.0,90446.0,91093.0,31592.0,41871.0,68262.0,30739.0,5880.0,2049.0,343.0,451.0
208600,County,2020/03/06,41.0,OR,41071.0,Yamhill County,19984.0,87018.0,388728.0,104111.0,106581.0,33636.0,42595.0,64647.0,27123.0,6573.0,2299.0,827.0,336.0
211950,County,2020/03/07,41.0,OR,41071.0,Yamhill County,21180.0,85822.0,357359.0,93491.0,90733.0,31800.0,46217.0,55622.0,29118.0,6884.0,2259.0,765.0,470.0
216676,County,2020/03/08,41.0,OR,41071.0,Yamhill County,24384.0,82618.0,330379.0,91895.0,81863.0,26162.0,41580.0,55763.0,20954.0,7723.0,2827.0,1041.0,571.0
218318,County,2020/03/09,41.0,OR,41071.0,Yamhill County,20547.0,86455.0,386529.0,113509.0,101201.0,29068.0,47045.0,59823.0,25203.0,7298.0,2360.0,417.0,605.0
221503,County,2020/03/10,41.0,OR,41071.0,Yamhill County,20443.0,86559.0,387025.0,117056.0,91492.0,32477.0,46460.0,63321.0,26799.0,6386.0,1540.0,885.0,609.0
226297,County,2020/03/11,41.0,OR,41071.0,Yamhill County,19043.0,87959.0,407651.0,121398.0,97991.0,32605.0,50736.0,62676.0,27431.0,9660.0,2132.0,844.0,2178.0
227926,County,2020/03/12,41.0,OR,41071.0,Yamhill County,20405.0,86597.0,431704.0,149827.0,90864.0,31482.0,50333.0,68167.0,29013.0,7296.0,2808.0,1286.0,628.0
232657,County,2020/03/13,41.0,OR,41071.0,Yamhill County,20286.0,86716.0,457348.0,146967.0,107986.0,32631.0,55154.0,71024.0,30785.0,7984.0,3093.0,744.0,980.0
235761,County,2020/03/14,41.0,OR,41071.0,Yamhill County,23717.0,83285.0,372413.0,123133.0,80590.0,26842.0,49211.0,51910.0,25378.0,8277.0,4128.0,1203.0,1741.0
239038,County,2020/03/15,41.0,OR,41071.0,Yamhill County,29886.0,77116.0,343213.0,122292.0,80762.0,30777.0,37860.0,43258.0,20881.0,3610.0,1700.0,852.0,1221.0
242232,County,2020/03/16,41.0,OR,41071.0,Yamhill County,25682.0,81320.0,365107.0,117148.0,83099.0,28778.0,42008.0,57162.0,26784.0,7054.0,2285.0,72.0,717.0
243897,County,2020/03/17,41.0,OR,41071.0,Yamhill County,27900.0,79102.0,375565.0,121326.0,90412.0,29855.0,39772.0,60427.0,25434.0,5229.0,2340.0,306.0,464.0
247052,County,2020/03/18,41.0,OR,41071.0,Yamhill County,28275.0,78727.0,376524.0,131755.0,82536.0,29845.0,36778.0,56238.0,27227.0,7983.0,3137.0,685.0,340.0
250258,County,2020/03/19,41.0,OR,41071.0,Yamhill County,29194.0,77808.0,382464.0,130677.0,84784.0,31567.0,39835.0,61760.0,23767.0,6657.0,2589.0,441.0,387.0
255009,County,2020/03/20,41.0,OR,41071.0,Yamhill County,30224.0,76778.0,368609.0,124832.0,86354.0,27144.0,40865.0,55076.0,24411.0,6932.0,2341.0,230.0,424.0
258201,County,2020/03/21,41.0,OR,41071.0,Yamhill County,33798.0,73204.0,354048.0,128519.0,79980.0,26639.0,37859.0,52241.0,19178.0,6964.0,1922.0,279.0,467.0
261389,County,2020/03/22,41.0,OR,41071.0,Yamhill County,31658.0,75344.0,301625.0,114823.0,77936.0,25156.0,30208.0,32002.0,14785.0,3649.0,1954.0,459.0,653.0
264601,County,2020/03/23,41.0,OR,41071.0,Yamhill County,28657.0,78345.0,297420.0,102779.0,69323.0,18837.0,32935.0,44762.0,20725.0,4949.0,2119.0,362.0,629.0
267781,County,2020/03/24,41.0,OR,41071.0,Yamhill County,29375.0,77627.0,258749.0,85232.0,53291.0,17705.0,28394.0,45691.0,20379.0,4842.0,1870.0,625.0,720.0
270979,County,2020/03/25,41.0,OR,41071.0,Yamhill County,30062.0,76940.0,288892.0,95595.0,64553.0,20671.0,31360.0,48451.0,18221.0,6826.0,2197.0,496.0,522.0
272605,County,2020/03/26,41.0,OR,41071.0,Yamhill County,30701.0,76301.0,291502.0,99267.0,65581.0,22715.0,28288.0,49953.0,19160.0,3690.0,2206.0,249.0,393.0
277368,County,2020/03/27,41.0,OR,41071.0,Yamhill County,29989.0,77013.0,288095.0,97768.0,69607.0,19411.0,26401.0,47330.0,19851.0,4634.0,1886.0,709.0,498.0
278995,County,2020/03/28,41.0,OR,41071.0,Yamhill County,32879.0,74123.0,267157.0,90237.0,70424.0,18651.0,32346.0,34459.0,13829.0,3425.0,2804.0,562.0,420.0
282188,County,2020/03/29,41.0,OR,41071.0,Yamhill County,34678.0,72324.0,254868.0,90478.0,68552.0,21379.0,25517.0,33668.0,10567.0,2219.0,1928.0,107.0,453.0
286980,County,2020/03/30,41.0,OR,41071.0,Yamhill County,29889.0,77113.0,277171.0,96165.0,59851.0,20162.0,28525.0,45858.0,20031.0,4126.0,1777.0,153.0,523.0
288578,County,2020/03/31,41.0,OR,41071.0,Yamhill County,30068.0,76934.0,277785.0,95698.0,63253.0,20215.0,26318.0,45811.0,18610.0,4929.0,2009.0,398.0,544.0
291813,County,2020/04/01,41.0,OR,41071.0,Yamhill County,30473.0,76529.0,301244.0,102916.0,65082.0,22990.0,30976.0,53713.0,19457.0,4019.0,1085.0,490.0,516.0
296546,County,2020/04/02,41.0,OR,41071.0,Yamhill County,28845.0,78157.0,296316.0,102817.0,65487.0,22088.0,30800.0,48938.0,18602.0,4869.0,1441.0,448.0,826.0
299724,County,2020/04/03,41.0,OR,41071.0,Yamhill County,28514.0,78488.0,316785.0,106962.0,72228.0,28169.0,37777.0,47147.0,17700.0,3726.0,1559.0,681.0,836.0
301351,County,2020/04/04,41.0,OR,41071.0,Yamhill County,32440.0,74562.0,267764.0,84450.0,71961.0,22335.0,33544.0,34143.0,14318.0,4580.0,1533.0,192.0,708.0
306105,County,2020/04/05,41.0,OR,41071.0,Yamhill County,33674.0,73328.0,240686.0,71081.0,61031.0,26406.0,27001.0,33952.0,15737.0,2743.0,1687.0,406.0,642.0
309306,County,2020/04/06,41.0,OR,41071.0,Yamhill County,30043.0,76959.0,312905.0,106156.0,73642.0,24675.0,34451.0,49094.0,19476.0,3749.0,1146.0,181.0,335.0
312546,County,2020/04/07,41.0,OR,41071.0,Yamhill County,30143.0,76859.0,303632.0,98213.0,68554.0,25212.0,36369.0,52532.0,18150.0,2664.0,1232.0,265.0,441.0
314128,County,2020/04/08,41.0,OR,41071.0,Yamhill County,30026.0,76976.0,310006.0,101206.0,72750.0,26520.0,31017.0,52385.0,18976.0,5492.0,1028.0,273.0,359.0
317346,County,2020/04/09,41.0,OR,41071.0,Yamhill County,30746.0,76256.0,305126.0,101596.0,67434.0,28178.0,36865.0,48595.0,16547.0,4037.0,1314.0,188.0,372.0
322083,County,2020/04/10,41.0,OR,41071.0,Yamhill County,29113.0,77889.0,306762.0,97168.0,67383.0,28802.0,37602.0,50868.0,17997.0,4617.0,1569.0,182.0,574.0
323758,County,2020/04/11,41.0,OR,41071.0,Yamhill County,31599.0,75403.0,312840.0,102003.0,83588.0,29428.0,39313.0,38593.0,14737.0,3274.0,1096.0,103.0,705.0
326903,County,2020/04/12,41.0,OR,41071.0,Yamhill County,35800.0,71202.0,253411.0,82419.0,65436.0,26268.0,30837.0,32717.0,11074.0,3125.0,1017.0,0.0,518.0
331665,County,2020/04/13,41.0,OR,41071.0,Yamhill County,31042.0,75960.0,301542.0,99305.0,68626.0,26720.0,31959.0,49811.0,19646.0,3617.0,1324.0,284.0,250.0
334840,County,2020/04/14,41.0,OR,41071.0,Yamhill County,29680.0,77322.0,335716.0,117263.0,78846.0,23742.0,46156.0,49756.0,13554.0,4336.0,1058.0,227.0,778.0
336517,County,2020/04/15,41.0,OR,41071.0,Yamhill County,28657.0,78345.0,346352.0,116884.0,84984.0,30471.0,38222.0,47875.0,22716.0,2849.0,1490.0,448.0,413.0
339671,County,2020/04/16,41.0,OR,41071.0,Yamhill County,30098.0,76904.0,334083.0,111287.0,84904.0,21488.0,37503.0,52606.0,19571.0,4244.0,1776.0,0.0,704.0
344450,County,2020/04/17,41.0,OR,41071.0,Yamhill County,27252.0,79750.0,331710.0,108320.0,92186.0,28142.0,24968.0,52444.0,20400.0,2522.0,1715.0,595.0,418.0
346077,County,2020/04/18,41.0,OR,41071.0,Yamhill County,31203.0,75799.0,349233.0,94638.0,91863.0,37864.0,54303.0,50014.0,15869.0,2476.0,1208.0,519.0,479.0
350829,County,2020/04/19,41.0,OR,41071.0,Yamhill County,31693.0,75309.0,300914.0,102953.0,63552.0,28613.0,43696.0,38592.0,14300.0,6593.0,1551.0,518.0,546.0
352455,County,2020/04/20,41.0,OR,41071.0,Yamhill County,27567.0,79435.0,320617.0,98497.0,71745.0,28220.0,43075.0,48759.0,24113.0,2951.0,2292.0,266.0,699.0
355649,County,2020/04/21,41.0,OR,41071.0,Yamhill County,29375.0,77627.0,295140.0,86859.0,69524.0,26827.0,36788.0,48019.0,20584.0,4358.0,1433.0,490.0,258.0
360419,County,2020/04/22,41.0,OR,41071.0,Yamhill County,29964.0,77038.0,267234.0,73946.0,62613.0,24927.0,30901.0,50876.0,19150.0,3298.0,1117.0,198.0,208.0
363625,County,2020/04/23,41.0,OR,41071.0,Yamhill County,28296.0,78706.0,305917.0,89484.0,69950.0,26881.0,35798.0,54271.0,21716.0,5457.0,1974.0,93.0,293.0
366837,County,2020/04/24,41.0,OR,41071.0,Yamhill County,28048.0,78954.0,292031.0,82891.0,66860.0,28401.0,35704.0,52218.0,19591.0,4322.0,1386.0,181.0,477.0
369993,County,2020/04/25,41.0,OR,41071.0,Yamhill County,31959.0,75043.0,282471.0,82523.0,71995.0,28912.0,33883.0,46871.0,13856.0,2670.0,1266.0,112.0,383.0
373187,County,2020/04/26,41.0,OR,41071.0,Yamhill County,32158.0,74844.0,280798.0,83607.0,61366.0,29389.0,41964.0,44004.0,13653.0,4479.0,1483.0,235.0,618.0
376419,County,2020/04/27,41.0,OR,41071.0,Yamhill County,28263.0,78739.0,306525.0,86471.0,72241.0,31339.0,35920.0,55036.0,20339.0,3141.0,1126.0,565.0,347.0
379590,County,2020/04/28,41.0,OR,41071.0,Yamhill County,28095.0,78907.0,305501.0,86805.0,71940.0,24196.0,38239.0,60298.0,18578.0,3962.0,982.0,185.0,316.0
381216,County,2020/04/29,41.0,OR,41071.0,Yamhill County,29187.0,77815.0,316639.0,93393.0,75038.0,29881.0,34318.0,54626.0,23034.0,4144.0,1605.0,193.0,407.0
384364,County,2020/04/30,41.0,OR,41071.0,Yamhill County,27712.0,79290.0,323893.0,94308.0,73869.0,35377.0,40002.0,54811.0,19212.0,4828.0,1224.0,92.0,170.0
389199,County,2020/05/01,41.0,OR,41071.0,Yamhill County,27440.0,79562.0,326708.0,92105.0,77519.0,28167.0,43444.0,57186.0,22855.0,3580.0,1382.0,173.0,297.0
390771,County,2020/05/02,41.0,OR,41071.0,Yamhill County,30901.0,76101.0,300693.0,89731.0,68365.0,31420.0,39020.0,47703.0,18730.0,4028.0,1474.0,0.0,222.0
395545,County,2020/05/03,41.0,OR,41071.0,Yamhill County,32659.0,74343.0,290761.0,93315.0,67413.0,25754.0,40058.0,42248.0,16671.0,2596.0,1588.0,754.0,364.0
398738,County,2020/05/04,41.0,OR,41071.0,Yamhill County,28489.0,78513.0,317755.0,97709.0,73424.0,31738.0,36417.0,51917.0,21142.0,2763.0,1643.0,641.0,361.0
401914,County,2020/05/05,41.0,OR,41071.0,Yamhill County,28246.0,78756.0,321788.0,103969.0,73727.0,29441.0,39028.0,52003.0,18875.0,3040.0,1211.0,182.0,312.0
403544,County,2020/05/06,41.0,OR,41071.0,Yamhill County,28865.0,78137.0,310500.0,93903.0,64051.0,30625.0,40279.0,56348.0,18532.0,4649.0,1641.0,183.0,289.0
408264,County,2020/05/07,41.0,OR,41071.0,Yamhill County,27307.0,79695.0,326866.0,95640.0,75174.0,31031.0,42287.0,58261.0,17794.0,4844.0,1295.0,339.0,201.0
411526,County,2020/05/08,41.0,OR,41071.0,Yamhill County,28042.0,78960.0,351524.0,99763.0,84830.0,33352.0,44923.0,58610.0,21423.0,7063.0,1132.0,378.0,50.0
414673,County,2020/05/09,41.0,OR,41071.0,Yamhill County,29844.0,77158.0,319495.0,86444.0,82979.0,33976.0,44980.0,49322.0,15988.0,4461.0,733.0,401.0,211.0
416335,County,2020/05/10,41.0,OR,41071.0,Yamhill County,30142.0,76860.0,284754.0,73882.0,79671.0,28610.0,35706.0,42788.0,16154.0,6012.0,1360.0,409.0,162.0
419578,County,2020/05/11,41.0,OR,41071.0,Yamhill County,25907.0,81095.0,340527.0,105228.0,76445.0,25707.0,42846.0,60017.0,22972.0,5488.0,1531.0,192.0,101.0
424338,County,2020/05/12,41.0,OR,41071.0,Yamhill County,25195.0,81807.0,366760.0,126099.0,81290.0,29242.0,40991.0,60555.0,22024.0,4555.0,1397.0,573.0,34.0
425820,County,2020/05/13,41.0,OR,41071.0,Yamhill County,24528.0,82474.0,341953.0,109049.0,76098.0,28810.0,40117.0,59662.0,20880.0,4861.0,1871.0,428.0,177.0
430678,County,2020/05/14,41.0,OR,41071.0,Yamhill County,25092.0,81910.0,337462.0,109566.0,72031.0,29506.0,38645.0,59657.0,21846.0,4134.0,1476.0,317.0,284.0
432307,County,2020/05/15,41.0,OR,41071.0,Yamhill County,24871.0,82131.0,361399.0,114133.0,85970.0,33854.0,42040.0,56572.0,23410.0,3158.0,1577.0,449.0,236.0
437056,County,2020/05/16,41.0,OR,41071.0,Yamhill County,27449.0,79553.0,348976.0,114036.0,88083.0,32906.0,43743.0,44642.0,18223.0,4857.0,1933.0,298.0,255.0
438683,County,2020/05/17,41.0,OR,41071.0,Yamhill County,28463.0,78539.0,371431.0,132736.0,90991.0,25738.0,52698.0,43102.0,20966.0,2661.0,1781.0,670.0,88.0
443504,County,2020/05/18,41.0,OR,41071.0,Yamhill County,21716.0,85286.0,383416.0,132067.0,85993.0,30996.0,46296.0,61490.0,20356.0,4263.0,973.0,854.0,128.0
445082,County,2020/05/19,41.0,OR,41071.0,Yamhill County,23337.0,83665.0,375598.0,119809.0,88482.0,28310.0,45609.0,64489.0,23945.0,3321.0,1042.0,522.0,69.0
449843,County,2020/05/20,41.0,OR,41071.0,Yamhill County,21849.0,85153.0,377613.0,127145.0,84859.0,29866.0,43488.0,63823.0,20911.0,5972.0,916.0,501.0,132.0
451469,County,2020/05/21,41.0,OR,41071.0,Yamhill County,20460.0,86542.0,368605.0,122445.0,83189.0,32523.0,43635.0,58838.0,21946.0,3585.0,1500.0,475.0,469.0
454656,County,2020/05/22,41.0,OR,41071.0,Yamhill County,21166.0,85836.0,376430.0,113143.0,83184.0,35918.0,42852.0,72442.0,20913.0,5527.0,1674.0,240.0,537.0
459440,County,2020/05/23,41.0,OR,41071.0,Yamhill County,23008.0,83994.0,374479.0,128499.0,88972.0,33395.0,48511.0,47431.0,19049.0,5961.0,1293.0,417.0,951.0
461020,County,2020/05/24,41.0,OR,41071.0,Yamhill County,26630.0,80372.0,336787.0,99066.0,82229.0,32432.0,45865.0,48030.0,18856.0,6770.0,2146.0,968.0,425.0
465897,County,2020/05/25,41.0,OR,41071.0,Yamhill County,26745.0,80257.0,327568.0,99794.0,80662.0,28886.0,43702.0,43646.0,20006.0,7667.0,1727.0,680.0,798.0
469005,County,2020/05/26,41.0,OR,41071.0,Yamhill County,24388.0,82614.0,366603.0,113468.0,86860.0,32544.0,43875.0,62640.0,20278.0,4360.0,1526.0,728.0,324.0
472245,County,2020/05/27,41.0,OR,41071.0,Yamhill County,23331.0,83671.0,373012.0,116513.0,85843.0,31993.0,46464.0,60835.0,23539.0,5636.0,1474.0,554.0,161.0
475394,County,2020/05/28,41.0,OR,41071.0,Yamhill County,24344.0,82658.0,351359.0,106973.0,89906.0,29869.0,39584.0,55390.0,21447.0,5848.0,1643.0,439.0,260.0
478583,County,2020/05/29,41.0,OR,41071.0,Yamhill County,25660.0,81342.0,358128.0,112783.0,83177.0,32253.0,42160.0,56036.0,23304.0,5921.0,1909.0,489.0,96.0
481783,County,2020/05/30,41.0,OR,41071.0,Yamhill County,27766.0,79236.0,343400.0,103431.0,86567.0,30235.0,44393.0,50241.0,21384.0,4511.0,1632.0,844.0,162.0
483339,County,2020/05/31,41.0,OR,41071.0,Yamhill County,28780.0,78222.0,331747.0,111731.0,80347.0,30080.0,34575.0,44324.0,21038.0,7680.0,1632.0,77.0,263.0
486605,County,2020/06/01,41.0,OR,41071.0,Yamhill County,24676.0,82326.0,358575.0,123507.0,76483.0,27760.0,45993.0,53478.0,23602.0,5105.0,2098.0,282.0,267.0
491336,County,2020/06/02,41.0,OR,41071.0,Yamhill County,25968.0,81034.0,369309.0,120370.0,88472.0,33471.0,41142.0,56979.0,22298.0,4073.0,2140.0,238.0,126.0
494558,County,2020/06/03,41.0,OR,41071.0,Yamhill County,23052.0,83950.0,390175.0,126638.0,96220.0,33050.0,46368.0,59566.0,23270.0,3520.0,982.0,422.0,139.0
496177,County,2020/06/04,41.0,OR,41071.0,Yamhill County,24419.0,82583.0,377315.0,118032.0,85303.0,31028.0,44665.0,65692.0,25080.0,5240.0,1814.0,341.0,120.0
500953,County,2020/06/05,41.0,OR,41071.0,Yamhill County,22786.0,84216.0,397861.0,131757.0,97787.0,33445.0,47311.0,56201.0,23295.0,5697.0,2123.0,112.0,133.0
504154,County,2020/06/06,41.0,OR,41071.0,Yamhill County,26805.0,80197.0,349023.0,109790.0,84429.0,30837.0,40134.0,55403.0,20461.0,5999.0,1688.0,137.0,145.0
505719,County,2020/06/07,41.0,OR,41071.0,Yamhill County,24563.0,82439.0,375933.0,121353.0,92893.0,30990.0,42387.0,51827.0,27229.0,6003.0,2192.0,824.0,235.0
508942,County,2020/06/08,41.0,OR,41071.0,Yamhill County,22497.0,84505.0,373493.0,112944.0,88689.0,32566.0,47687.0,58290.0,25551.0,5193.0,1795.0,616.0,162.0
513720,County,2020/06/09,41.0,OR,41071.0,Yamhill County,26142.0,80860.0,335489.0,101335.0,80206.0,28584.0,37600.0,56421.0,23843.0,5467.0,1182.0,745.0,106.0
515350,County,2020/06/10,41.0,OR,41071.0,Yamhill County,24657.0,82345.0,371860.0,134123.0,80599.0,32791.0,38172.0,57457.0,20713.0,5660.0,1359.0,817.0,169.0
520082,County,2020/06/11,41.0,OR,41071.0,Yamhill County,23805.0,83197.0,363309.0,115257.0,86079.0,35321.0,39408.0,56643.0,23714.0,4467.0,1904.0,265.0,251.0
523305,County,2020/06/12,41.0,OR,41071.0,Yamhill County,25080.0,81922.0,357071.0,106558.0,83122.0,34384.0,40404.0,58961.0,23051.0,7327.0,2561.0,642.0,61.0
526492,County,2020/06/13,41.0,OR,41071.0,Yamhill County,26520.0,80482.0,345745.0,98670.0,91883.0,33761.0,45102.0,45969.0,21265.0,6419.0,2209.0,261.0,206.0
528127,County,2020/06/14,41.0,OR,41071.0,Yamhill County,29325.0,77677.0,314414.0,89193.0,83875.0,28893.0,37389.0,46360.0,19473.0,5964.0,1987.0,1042.0,238.0
531325,County,2020/06/15,41.0,OR,41071.0,Yamhill County,26333.0,80669.0,330248.0,105130.0,76593.0,30601.0,38243.0,55314.0,18130.0,3847.0,1806.0,413.0,171.0
536106,County,2020/06/16,41.0,OR,41071.0,Yamhill County,26097.0,80905.0,327901.0,98351.0,75890.0,28651.0,43097.0,53173.0,22312.0,4095.0,1958.0,245.0,129.0
537708,County,2020/06/17,41.0,OR,41071.0,Yamhill County,24165.0,82837.0,338337.0,104496.0,81661.0,31981.0,37825.0,52734.0,22317.0,4450.0,2166.0,572.0,135.0
542469,County,2020/06/18,41.0,OR,41071.0,Yamhill County,24221.0,82781.0,367791.0,120693.0,87578.0,33843.0,37922.0,57005.0,22410.0,5422.0,2115.0,636.0,167.0
544096,County,2020/06/19,41.0,OR,41071.0,Yamhill County,24611.0,82391.0,320406.0,97205.0,76201.0,28027.0,36860.0,53858.0,20080.0,5697.0,1961.0,289.0,228.0
548856,County,2020/06/20,41.0,OR,41071.0,Yamhill County,27956.0,79046.0,313699.0,94092.0,77897.0,29349.0,37296.0,46446.0,20615.0,5410.0,2075.0,426.0,93.0
552044,County,2020/06/21,41.0,OR,41071.0,Yamhill County,28835.0,78167.0,294710.0,91812.0,77084.0,24278.0,34432.0,37816.0,20417.0,6795.0,1012.0,797.0,267.0
553680,County,2020/06/22,41.0,OR,41071.0,Yamhill County,25649.0,81353.0,318342.0,100992.0,71670.0,27110.0,35000.0,54661.0,21083.0,4742.0,2351.0,442.0,291.0
558440,County,2020/06/23,41.0,OR,41071.0,Yamhill County,24989.0,82013.0,338242.0,107885.0,81538.0,24117.0,36877.0,57148.0,22325.0,5418.0,2452.0,335.0,147.0
560071,County,2020/06/24,41.0,OR,41071.0,Yamhill County,26573.0,80429.0,349196.0,118055.0,77040.0,28687.0,44398.0,54181.0,19157.0,5808.0,1498.0,244.0,128.0
563261,County,2020/06/25,41.0,OR,41071.0,Yamhill County,24729.0,82273.0,341431.0,108929.0,80886.0,27116.0,40169.0,53221.0,22323.0,5445.0,2388.0,663.0,291.0
566514,County,2020/06/26,41.0,OR,41071.0,Yamhill County,25287.0,81715.0,340427.0,108556.0,75746.0,27958.0,41687.0,57360.0,18741.0,6966.0,2493.0,692.0,228.0
569636,County,2020/06/27,41.0,OR,41071.0,Yamhill County,26067.0,80935.0,343949.0,113633.0,80103.0,30436.0,42151.0,45987.0,20879.0,7056.0,2910.0,563.0,231.0
572833,County,2020/06/28,41.0,OR,41071.0,Yamhill County,28073.0,78929.0,304037.0,89764.0,77373.0,25757.0,35961.0,45890.0,18704.0,7478.0,2260.0,523.0,327.0
577611,County,2020/06/29,41.0,OR,41071.0,Yamhill County,26448.0,80554.0,312894.0,100138.0,72350.0,23047.0,37422.0,49428.0,22179.0,5060.0,2158.0,612.0,500.0
579253,County,2020/06/30,41.0,OR,41071.0,Yamhill County,26122.0,80880.0,305435.0,96055.0,71507.0,24006.0,34130.0,51073.0,20429.0,5492.0,1830.0,527.0,386.0
583997,County,2020/07/01,41.0,OR,41071.0,Yamhill County,24963.0,82039.0,310496.0,87942.0,71664.0,29253.0,35663.0,53376.0,24323.0,5313.0,2034.0,510.0,418.0
587191,County,2020/07/02,41.0,OR,41071.0,Yamhill County,26465.0,80537.0,362398.0,115618.0,85853.0,28781.0,42636.0,56489.0,23694.0,5779.0,2535.0,704.0,309.0
588831,County,2020/07/03,41.0,OR,41071.0,Yamhill County,28357.0,78645.0,338508.0,107944.0,75319.0,27800.0,41452.0,57037.0,18635.0,6927.0,2479.0,688.0,227.0
592039,County,2020/07/04,41.0,OR,41071.0,Yamhill County,30690.0,76312.0,289602.0,92349.0,64437.0,23784.0,35463.0,48796.0,15943.0,5926.0,2121.0,589.0,194.0
595224,County,2020/07/05,41.0,OR,41071.0,Yamhill County,28175.0,78827.0,270915.0,74227.0,66784.0,22968.0,35126.0,41204.0,19340.0,7107.0,2924.0,733.0,502.0
597875,County,2020/07/06,41.0,OR,41071.0,Yamhill County,26745.0,80257.0,291316.0,82796.0,71581.0,26577.0,34547.0,45836.0,21460.0,4884.0,2649.0,626.0,360.0
601980,County,2020/07/07,41.0,OR,41071.0,Yamhill County,25936.0,81066.0,306817.0,94041.0,68645.0,26095.0,33609.0,52078.0,23460.0,5865.0,1804.0,706.0,514.0
604780,County,2020/07/08,41.0,OR,41071.0,Yamhill County,25734.0,81268.0,311484.0,97177.0,70947.0,25202.0,35996.0,49016.0,24463.0,5757.0,2007.0,384.0,535.0
609552,County,2020/07/09,41.0,OR,41071.0,Yamhill County,24889.0,82113.0,296308.0,81019.0,72398.0,27013.0,32706.0,50996.0,21864.0,6527.0,2589.0,747.0,449.0
611175,County,2020/07/10,41.0,OR,41071.0,Yamhill County,25103.0,81899.0,320248.0,95012.0,76023.0,27677.0,33161.0,56732.0,22125.0,6933.0,1804.0,319.0,462.0
614386,County,2020/07/11,41.0,OR,41071.0,Yamhill County,27341.0,79661.0,295942.0,88670.0,69965.0,26472.0,36108.0,41557.0,20501.0,9252.0,2467.0,512.0,438.0
617557,County,2020/07/12,41.0,OR,41071.0,Yamhill County,28366.0,78636.0,249144.0,69326.0,57714.0,20916.0,30302.0,39875.0,22054.0,5725.0,1796.0,708.0,728.0
620747,County,2020/07/13,41.0,OR,41071.0,Yamhill County,25761.0,81241.0,290452.0,87867.0,66120.0,24283.0,33360.0,45921.0,23078.0,6193.0,2346.0,632.0,652.0
623947,County,2020/07/14,41.0,OR,41071.0,Yamhill County,27082.0,79920.0,292724.0,83007.0,63805.0,27244.0,37119.0,52419.0,21204.0,5085.0,1975.0,400.0,466.0
628684,County,2020/07/15,41.0,OR,41071.0,Yamhill County,26679.0,80323.0,304505.0,80447.0,68433.0,30253.0,39586.0,54173.0,23058.0,5474.0,2368.0,467.0,246.0
630310,County,2020/07/16,41.0,OR,41071.0,Yamhill County,26074.0,80928.0,311154.0,89338.0,74920.0,24679.0,35109.0,55126.0,22093.0,7213.0,1872.0,517.0,287.0
633517,County,2020/07/17,41.0,OR,41071.0,Yamhill County,26570.0,80432.0,322791.0,91290.0,75732.0,27544.0,43652.0,52268.0,21541.0,7060.0,2520.0,888.0,296.0
638297,County,2020/07/18,41.0,OR,41071.0,Yamhill County,28713.0,78289.0,309811.0,92755.0,74608.0,28724.0,38845.0,46927.0,19578.0,5912.0,1918.0,304.0,240.0
639877,County,2020/07/19,41.0,OR,41071.0,Yamhill County,30766.0,76236.0,264913.0,63791.0,63977.0,25032.0,35574.0,46275.0,19370.0,6961.0,2427.0,949.0,557.0
643111,County,2020/07/20,41.0,OR,41071.0,Yamhill County,29628.0,77374.0,303079.0,83527.0,73869.0,30227.0,32738.0,53084.0,20524.0,7102.0,1124.0,423.0,461.0
646287,County,2020/07/21,41.0,OR,41071.0,Yamhill County,27331.0,79671.0,295036.0,85704.0,63902.0,24986.0,35622.0,51926.0,24068.0,6333.0,1514.0,518.0,463.0
651064,County,2020/07/22,41.0,OR,41071.0,Yamhill County,27044.0,79958.0,299158.0,80175.0,70882.0,26465.0,35682.0,51054.0,25600.0,6744.0,1726.0,449.0,381.0
654259,County,2020/07/23,41.0,OR,41071.0,Yamhill County,26925.0,80077.0,284808.0,76809.0,65925.0,23258.0,33820.0,53770.0,22696.0,5928.0,1563.0,460.0,579.0
655729,County,2020/07/24,41.0,OR,41071.0,Yamhill County,26392.0,80610.0,305675.0,78092.0,74057.0,29414.0,39338.0,51321.0,24164.0,6677.0,1446.0,593.0,573.0
659075,County,2020/07/25,41.0,OR,41071.0,Yamhill County,29579.0,77423.0,288934.0,79790.0,71326.0,25670.0,36805.0,46159.0,20883.0,5469.0,1634.0,615.0,583.0
662275,County,2020/07/26,41.0,OR,41071.0,Yamhill County,28353.0,78649.0,289280.0,75033.0,61832.0,27087.0,39752.0,47632.0,24621.0,9363.0,2343.0,1039.0,578.0
667054,County,2020/07/27,41.0,OR,41071.0,Yamhill County,27304.0,79698.0,300603.0,81350.0,69637.0,27878.0,36122.0,50857.0,27078.0,4514.0,1604.0,858.0,705.0
668732,County,2020/07/28,41.0,OR,41071.0,Yamhill County,25911.0,81091.0,307020.0,83685.0,70935.0,26671.0,34603.0,56789.0,26151.0,5019.0,1633.0,451.0,1083.0
673520,County,2020/07/29,41.0,OR,41071.0,Yamhill County,26211.0,80791.0,291296.0,81352.0,64024.0,22759.0,34304.0,54401.0,26989.0,4328.0,1777.0,353.0,1009.0
676600,County,2020/07/30,41.0,OR,41071.0,Yamhill County,26065.0,80937.0,320728.0,97320.0,69799.0,24032.0,36733.0,55416.0,27944.0,5927.0,2044.0,504.0,1009.0
678252,County,2020/07/31,41.0,OR,41071.0,Yamhill County,27298.0,79704.0,293204.0,80824.0,66333.0,25008.0,32154.0,53220.0,26626.0,5763.0,1985.0,533.0,758.0
682998,County,2020/08/01,41.0,OR,41071.0,Yamhill County,29285.0,77717.0,280157.0,65833.0,72682.0,24955.0,34547.0,49126.0,22265.0,6812.0,2375.0,844.0,718.0
684632,County,2020/08/02,41.0,OR,41071.0,Yamhill County,30060.0,76942.0,271150.0,69238.0,64161.0,21129.0,36039.0,45797.0,24082.0,8175.0,1926.0,145.0,458.0
687829,County,2020/08/03,41.0,OR,41071.0,Yamhill County,25611.0,81391.0,314906.0,91548.0,75481.0,28255.0,38776.0,49146.0,24283.0,4460.0,2272.0,428.0,257.0
692604,County,2020/08/04,41.0,OR,41071.0,Yamhill County,25406.0,81596.0,331252.0,97749.0,78916.0,27867.0,37191.0,56349.0,25477.0,5928.0,1444.0,111.0,220.0
695780,County,2020/08/05,41.0,OR,41071.0,Yamhill County,26629.0,80373.0,309988.0,84880.0,73757.0,26818.0,38510.0,53267.0,24600.0,5774.0,1925.0,246.0,211.0
698975,County,2020/08/06,41.0,OR,41071.0,Yamhill County,26100.0,80902.0,312588.0,89852.0,70527.0,26332.0,38101.0,57071.0,21303.0,6648.0,2124.0,523.0,107.0
702171,County,2020/08/07,41.0,OR,41071.0,Yamhill County,25935.0,81067.0,295584.0,84694.0,62459.0,26205.0,35679.0,50001.0,25663.0,7642.0,2250.0,772.0,219.0
703800,County,2020/08/08,41.0,OR,41071.0,Yamhill County,27895.0,79107.0,271932.0,69319.0,76465.0,23436.0,33718.0,43302.0,17619.0,4725.0,2893.0,435.0,20.0
708581,County,2020/08/09,41.0,OR,41071.0,Yamhill County,29023.0,77979.0,304361.0,81812.0,72988.0,24479.0,40383.0,50160.0,22058.0,9817.0,1806.0,679.0,179.0
710211,County,2020/08/10,41.0,OR,41071.0,Yamhill County,26599.0,80403.0,319999.0,77913.0,80931.0,29611.0,37206.0,60752.0,25402.0,5533.0,2275.0,183.0,193.0
713428,County,2020/08/11,41.0,OR,41071.0,Yamhill County,26643.0,80359.0,344199.0,91747.0,86392.0,28992.0,41524.0,58688.0,27846.0,7567.0,852.0,366.0,225.0
716574,County,2020/08/12,41.0,OR,41071.0,Yamhill County,25587.0,81415.0,303519.0,79933.0,63132.0,26130.0,35443.0,60054.0,29272.0,6758.0,1712.0,392.0,693.0
719767,County,2020/08/13,41.0,OR,41071.0,Yamhill County,24019.0,82983.0,333865.0,89413.0,80675.0,23322.0,38801.0,60555.0,28104.0,9038.0,2419.0,769.0,769.0
722960,County,2020/08/14,41.0,OR,41071.0,Yamhill County,21237.0,85765.0,336444.0,91064.0,75845.0,27797.0,38254.0,61025.0,27648.0,10007.0,2499.0,1123.0,1182.0
726191,County,2020/08/15,41.0,OR,41071.0,Yamhill County,25612.0,81390.0,317547.0,86143.0,74096.0,26534.0,37008.0,53640.0,25066.0,11680.0,1837.0,646.0,897.0
729350,County,2020/08/16,41.0,OR,41071.0,Yamhill County,27164.0,79838.0,279761.0,65036.0,63800.0,22753.0,36211.0,49834.0,28119.0,8959.0,2343.0,922.0,1784.0
732543,County,2020/08/17,41.0,OR,41071.0,Yamhill County,26383.0,80619.0,293353.0,67973.0,64673.0,22521.0,33278.0,61262.0,31604.0,7807.0,2466.0,251.0,1518.0
737302,County,2020/08/18,41.0,OR,41071.0,Yamhill County,26364.0,80638.0,334314.0,104664.0,68263.0,24703.0,33827.0,59581.0,31305.0,7763.0,2417.0,434.0,1357.0
740497,County,2020/08/19,41.0,OR,41071.0,Yamhill County,24938.0,82064.0,313374.0,93085.0,63899.0,25158.0,34040.0,55751.0,29881.0,6437.0,2591.0,615.0,1917.0
742126,County,2020/08/20,41.0,OR,41071.0,Yamhill County,24744.0,82258.0,327493.0,105393.0,67425.0,23942.0,36252.0,52631.0,29055.0,7724.0,2247.0,793.0,2031.0
746901,County,2020/08/21,41.0,OR,41071.0,Yamhill County,23359.0,83643.0,316949.0,76225.0,72441.0,27125.0,40245.0,61703.0,28725.0,6562.0,1977.0,496.0,1450.0
748530,County,2020/08/22,41.0,OR,41071.0,Yamhill County,26029.0,80973.0,299467.0,74377.0,72255.0,27451.0,38093.0,49992.0,24412.0,8077.0,2462.0,878.0,1470.0
751723,County,2020/08/23,41.0,OR,41071.0,Yamhill County,29289.0,77713.0,254357.0,62201.0,65551.0,21470.0,32323.0,41027.0,19394.0,8237.0,2321.0,635.0,1198.0
756467,County,2020/08/24,41.0,OR,41071.0,Yamhill County,28120.0,78882.0,280873.0,71427.0,64162.0,24195.0,34502.0,53920.0,23206.0,6088.0,1764.0,393.0,1216.0
758096,County,2020/08/25,41.0,OR,41071.0,Yamhill County,26709.0,80293.0,296582.0,75399.0,70788.0,24368.0,32255.0,59202.0,24853.0,6551.0,1755.0,277.0,1134.0
761289,County,2020/08/26,41.0,OR,41071.0,Yamhill County,26873.0,80129.0,301900.0,80410.0,71391.0,24885.0,32993.0,56420.0,25467.0,6936.0,1697.0,882.0,819.0
764446,County,2020/08/27,41.0,OR,41071.0,Yamhill County,27010.0,79992.0,286465.0,71080.0,62805.0,27134.0,33989.0,55570.0,25515.0,7120.0,2226.0,330.0,696.0
769229,County,2020/08/28,41.0,OR,41071.0,Yamhill County,26932.0,80070.0,299656.0,78953.0,72849.0,26486.0,37657.0,47659.0,25850.0,6967.0,2210.0,289.0,736.0
772430,County,2020/08/29,41.0,OR,41071.0,Yamhill County,28852.0,78150.0,292778.0,73944.0,69446.0,26942.0,36975.0,52100.0,23136.0,7570.0,1602.0,281.0,782.0
775632,County,2020/08/30,41.0,OR,41071.0,Yamhill County,31063.0,75939.0,246891.0,68271.0,59442.0,18266.0,30866.0,38521.0,19896.0,7856.0,2136.0,433.0,1204.0
778831,County,2020/08/31,41.0,OR,41071.0,Yamhill County,28398.0,78604.0,270477.0,69861.0,64697.0,20297.0,31154.0,51504.0,23662.0,5991.0,1447.0,956.0,908.0
782020,County,2020/09/01,41.0,OR,41071.0,Yamhill County,27120.0,79882.0,328845.0,94689.0,76402.0,27223.0,37364.0,58489.0,25433.0,7046.0,1268.0,361.0,570.0
784470,County,2020/09/02,41.0,OR,41071.0,Yamhill County,27798.0,79204.0,298783.0,76025.0,65853.0,25688.0,39542.0,54544.0,28093.0,6656.0,1253.0,523.0,606.0
786776,County,2020/09/03,41.0,OR,41071.0,Yamhill County,25389.0,81613.0,321172.0,84346.0,76553.0,24294.0,38157.0,60720.0,27049.0,6971.0,1872.0,554.0,656.0
791609,County,2020/09/04,41.0,OR,41071.0,Yamhill County,27767.0,79235.0,310603.0,83060.0,72806.0,23611.0,37202.0,57863.0,24028.0,8539.0,2037.0,806.0,651.0
794803,County,2020/09/05,41.0,OR,41071.0,Yamhill County,27899.0,79103.0,295187.0,77043.0,70815.0,23674.0,36759.0,53528.0,21774.0,7977.0,2025.0,790.0,802.0
796401,County,2020/09/06,41.0,OR,41071.0,Yamhill County,29758.0,77244.0,248084.0,51075.0,64160.0,20554.0,30273.0,44607.0,28304.0,5738.0,1556.0,936.0,881.0
799615,County,2020/09/07,41.0,OR,41071.0,Yamhill County,31003.0,75999.0,248459.0,64193.0,62067.0,19365.0,27586.0,40304.0,22414.0,7861.0,2894.0,924.0,851.0
804377,County,2020/09/08,41.0,OR,41071.0,Yamhill County,27948.0,79054.0,292861.0,69157.0,68540.0,26054.0,34114.0,58590.0,27250.0,6448.0,1238.0,716.0,754.0
806006,County,2020/09/09,41.0,OR,41071.0,Yamhill County,28317.0,78685.0,308503.0,74823.0,76941.0,25740.0,34362.0,62773.0,25581.0,5834.0,1331.0,477.0,641.0
810774,County,2020/09/10,41.0,OR,41071.0,Yamhill County,27949.0,79053.0,289495.0,70531.0,70707.0,22632.0,33229.0,58236.0,25251.0,6236.0,1145.0,431.0,1097.0
813958,County,2020/09/11,41.0,OR,41071.0,Yamhill County,27543.0,79459.0,310100.0,79116.0,77532.0,26626.0,36814.0,54103.0,26805.0,5921.0,1585.0,695.0,903.0
817153,County,2020/09/12,41.0,OR,41071.0,Yamhill County,31002.0,76000.0,264245.0,61887.0,71405.0,21337.0,31480.0,48464.0,22442.0,4481.0,1576.0,448.0,725.0
818760,County,2020/09/13,41.0,OR,41071.0,Yamhill County,30467.0,76535.0,227106.0,41367.0,61399.0,24164.0,28300.0,40316.0,23143.0,5187.0,1784.0,319.0,1127.0
823542,County,2020/09/14,41.0,OR,41071.0,Yamhill County,28772.0,78230.0,310239.0,90083.0,75305.0,27143.0,36006.0,48727.0,26017.0,3900.0,1520.0,613.0,925.0
825170,County,2020/09/15,41.0,OR,41071.0,Yamhill County,28863.0,78139.0,323247.0,102949.0,73569.0,24388.0,34579.0,53122.0,26284.0,5396.0,1784.0,383.0,793.0
828362,County,2020/09/16,41.0,OR,41071.0,Yamhill County,28674.0,78328.0,311398.0,89132.0,74802.0,22062.0,37486.0,54948.0,24872.0,4962.0,1575.0,807.0,752.0
831556,County,2020/09/17,41.0,OR,41071.0,Yamhill County,28993.0,78009.0,286480.0,66129.0,72705.0,18675.0,37370.0,54482.0,27762.0,6269.0,1894.0,603.0,591.0
836317,County,2020/09/18,41.0,OR,41071.0,Yamhill County,27702.0,79300.0,304575.0,74157.0,76554.0,29204.0,35318.0,53555.0,27416.0,5428.0,1747.0,683.0,513.0
837946,County,2020/09/19,41.0,OR,41071.0,Yamhill County,29189.0,77813.0,297626.0,74511.0,75089.0,24668.0,35852.0,51038.0,26951.0,6535.0,1890.0,424.0,668.0
842721,County,2020/09/20,41.0,OR,41071.0,Yamhill County,30548.0,76454.0,268418.0,70104.0,63874.0,20726.0,33259.0,45195.0,25048.0,8165.0,1286.0,363.0,398.0
845925,County,2020/09/21,41.0,OR,41071.0,Yamhill County,31839.0,75163.0,275156.0,64088.0,78153.0,23967.0,30933.0,48310.0,20992.0,6206.0,1405.0,832.0,270.0
849093,County,2020/09/22,41.0,OR,41071.0,Yamhill County,28448.0,78554.0,290437.0,73436.0,66998.0,24538.0,40840.0,53461.0,24628.0,5043.0,1115.0,299.0,79.0
850721,County,2020/09/23,41.0,OR,41071.0,Yamhill County,27774.0,79228.0,308654.0,78176.0,84543.0,23940.0,36344.0,52821.0,25456.0,4664.0,1678.0,939.0,93.0
855487,County,2020/09/24,41.0,OR,41071.0,Yamhill County,27313.0,79689.0,301492.0,73999.0,73798.0,25346.0,37709.0,57253.0,24100.0,6878.0,1678.0,541.0,190.0
857116,County,2020/09/25,41.0,OR,41071.0,Yamhill County,26396.0,80606.0,305582.0,67292.0,83282.0,26423.0,39433.0,54855.0,23751.0,7358.0,2479.0,661.0,48.0
861869,County,2020/09/26,41.0,OR,41071.0,Yamhill County,29464.0,77538.0,314701.0,88688.0,75946.0,27049.0,41946.0,47334.0,23905.0,7346.0,1956.0,420.0,111.0
863474,County,2020/09/27,41.0,OR,41071.0,Yamhill County,29643.0,77359.0,285428.0,70279.0,79286.0,22345.0,36671.0,46250.0,20748.0,7446.0,1806.0,543.0,54.0
868257,County,2020/09/28,41.0,OR,41071.0,Yamhill County,27430.0,79572.0,311772.0,75663.0,86190.0,26323.0,36292.0,55914.0,23135.0,6571.0,1142.0,509.0,33.0
869885,County,2020/09/29,41.0,OR,41071.0,Yamhill County,26082.0,80920.0,305085.0,67485.0,70675.0,25613.0,39525.0,64120.0,28486.0,7452.0,1237.0,336.0,156.0
874664,County,2020/09/30,41.0,OR,41071.0,Yamhill County,26725.0,80277.0,301721.0,70584.0,75139.0,27182.0,34471.0,57946.0,27382.0,7377.0,1292.0,182.0,166.0
877818,County,2020/10/01,41.0,OR,41071.0,Yamhill County,25394.0,81608.0,336301.0,87644.0,84073.0,28378.0,39147.0,59811.0,28030.0,6998.0,1721.0,319.0,180.0
881033,County,2020/10/02,41.0,OR,41071.0,Yamhill County,26581.0,80421.0,311263.0,75891.0,81829.0,25413.0,39380.0,52276.0,27548.0,6697.0,1494.0,556.0,179.0
884228,County,2020/10/03,41.0,OR,41071.0,Yamhill County,27467.0,79535.0,303893.0,80295.0,74745.0,25179.0,38853.0,50829.0,24048.0,7112.0,2089.0,561.0,182.0
886948,County,2020/10/04,41.0,OR,41071.0,Yamhill County,30809.0,76193.0,258354.0,66012.0,65438.0,22825.0,31529.0,42824.0,20910.0,6753.0,1354.0,476.0,233.0
890133,County,2020/10/05,41.0,OR,41071.0,Yamhill County,29639.0,77363.0,271186.0,61453.0,70113.0,20251.0,29681.0,53871.0,28202.0,5783.0,1438.0,206.0,188.0
893339,County,2020/10/06,41.0,OR,41071.0,Yamhill County,27165.0,79837.0,305238.0,70182.0,76927.0,25283.0,38533.0,58662.0,27213.0,6997.0,971.0,292.0,178.0
896554,County,2020/10/07,41.0,OR,41071.0,Yamhill County,25506.0,81496.0,313344.0,76942.0,76038.0,24377.0,38855.0,59617.0,29603.0,5678.0,1680.0,359.0,195.0
899738,County,2020/10/08,41.0,OR,41071.0,Yamhill County,26753.0,80249.0,297197.0,72564.0,69737.0,27322.0,32303.0,58945.0,28226.0,5829.0,1650.0,433.0,188.0
902914,County,2020/10/09,41.0,OR,41071.0,Yamhill County,26819.0,80183.0,306963.0,69766.0,74676.0,25525.0,37088.0,59195.0,30853.0,6872.0,2243.0,563.0,182.0
905973,County,2020/10/10,41.0,OR,41071.0,Yamhill County,29435.0,77567.0,279444.0,62191.0,67689.0,26381.0,38789.0,46773.0,28579.0,6734.0,1775.0,372.0,161.0
908165,County,2020/10/11,41.0,OR,41071.0,Yamhill County,31125.0,75877.0,250929.0,58286.0,63397.0,20922.0,30915.0,45105.0,22148.0,7726.0,2025.0,292.0,113.0
911182,County,2020/10/12,41.0,OR,41071.0,Yamhill County,27165.0,79837.0,282486.0,65984.0,70675.0,23521.0,29543.0,55422.0,29468.0,5836.0,1666.0,244.0,127.0
914445,County,2020/10/13,41.0,OR,41071.0,Yamhill County,27387.0,79615.0,282148.0,62985.0,69753.0,23713.0,32701.0,57551.0,28082.0,5535.0,1431.0,274.0,123.0
917475,County,2020/10/14,41.0,OR,41071.0,Yamhill County,25880.0,81122.0,305392.0,69810.0,78836.0,26262.0,36998.0,58069.0,29353.0,4293.0,1242.0,321.0,208.0
920846,County,2020/10/15,41.0,OR,41071.0,Yamhill County,26115.0,80887.0,287948.0,65103.0,77813.0,20549.0,32443.0,57253.0,27965.0,4369.0,1566.0,684.0,203.0
923656,County,2020/10/16,41.0,OR,41071.0,Yamhill County,25348.0,81654.0,300625.0,67896.0,80036.0,23618.0,36536.0,55091.0,28101.0,6810.0,1757.0,505.0,275.0
926783,County,2020/10/17,41.0,OR,41071.0,Yamhill County,28913.0,78089.0,270301.0,60327.0,71609.0,24012.0,29893.0,51392.0,24987.0,5432.0,2043.0,435.0,171.0
930391,County,2020/10/18,41.0,OR,41071.0,Yamhill County,28620.0,78382.0,277836.0,70763.0,66940.0,20752.0,34301.0,50431.0,24738.0,7476.0,1861.0,424.0,150.0
933521,County,2020/10/19,41.0,OR,41071.0,Yamhill County,27597.0,79405.0,314815.0,77254.0,82629.0,25783.0,33485.0,57849.0,28544.0,7478.0,1485.0,134.0,174.0
936713,County,2020/10/20,41.0,OR,41071.0,Yamhill County,27155.0,79847.0,300837.0,71873.0,72798.0,22454.0,41212.0,55312.0,27653.0,7628.0,1121.0,640.0,146.0
939853,County,2020/10/21,41.0,OR,41071.0,Yamhill County,28484.0,78518.0,302970.0,74608.0,82474.0,23605.0,33600.0,53877.0,28143.0,5227.0,934.0,384.0,118.0
943554,County,2020/10/22,41.0,OR,41071.0,Yamhill County,27298.0,79704.0,309899.0,77605.0,78468.0,26284.0,34334.0,56394.0,29418.0,5588.0,1203.0,467.0,138.0
946415,County,2020/10/23,41.0,OR,41071.0,Yamhill County,25675.0,81327.0,343428.0,84119.0,86272.0,28295.0,41362.0,67671.0,27602.0,5996.0,1466.0,486.0,159.0
949254,County,2020/10/24,41.0,OR,41071.0,Yamhill County,28537.0,78465.0,313864.0,76853.0,82252.0,29626.0,39399.0,52376.0,24869.0,6808.0,1185.0,372.0,124.0
