,Level,Date,State FIPS,State Postal Code,County FIPS,County Name,Population Staying at Home,Population Not Staying at Home,Number of Trips,Number of Trips <1,Number of Trips 1-3,Number of Trips 3-5,Number of Trips 5-10,Number of Trips 10-25,Number of Trips 25-50,Number of Trips 50-100,Number of Trips 100-250,Number of Trips 250-500,Number of Trips >=500
1011,County,2020/01/01,21.0,KY,21037.0,Campbell County,21251.0,71901.0,300091.0,76014.0,75530.0,36199.0,47613.0,52073.0,7471.0,2764.0,1897.0,356.0,174.0
3251,County,2020/01/02,21.0,KY,21037.0,Campbell County,17593.0,75559.0,365904.0,92394.0,83290.0,41605.0,55155.0,75857.0,11741.0,3899.0,1559.0,324.0,80.0
7608,County,2020/01/03,21.0,KY,21037.0,Campbell County,17013.0,76139.0,386845.0,96944.0,92661.0,43711.0,57798.0,79074.0,11338.0,3659.0,1251.0,277.0,132.0
12221,County,2020/01/04,21.0,KY,21037.0,Campbell County,18028.0,75124.0,357300.0,86916.0,88897.0,41395.0,58059.0,65751.0,9826.0,4110.0,1874.0,363.0,109.0
13787,County,2020/01/05,21.0,KY,21037.0,Campbell County,19993.0,73159.0,327153.0,78705.0,89208.0,42039.0,50953.0,53118.0,8041.0,2843.0,1768.0,269.0,209.0
18105,County,2020/01/06,21.0,KY,21037.0,Campbell County,16859.0,76293.0,362864.0,92377.0,92616.0,39536.0,53397.0,69223.0,11509.0,2466.0,1283.0,280.0,177.0
21251,County,2020/01/07,21.0,KY,21037.0,Campbell County,16447.0,76705.0,382497.0,99548.0,94576.0,41722.0,56040.0,75066.0,10638.0,3388.0,1073.0,269.0,177.0
24495,County,2020/01/08,21.0,KY,21037.0,Campbell County,16228.0,76924.0,396191.0,109391.0,92572.0,44775.0,58087.0,75081.0,12076.0,2347.0,1306.0,352.0,204.0
27626,County,2020/01/09,21.0,KY,21037.0,Campbell County,16126.0,77026.0,394685.0,109360.0,94746.0,44106.0,57448.0,72963.0,11444.0,2845.0,1424.0,213.0,136.0
30833,County,2020/01/10,21.0,KY,21037.0,Campbell County,15459.0,77693.0,403529.0,107025.0,102400.0,45067.0,61893.0,72608.0,10618.0,2184.0,1384.0,223.0,127.0
34077,County,2020/01/11,21.0,KY,21037.0,Campbell County,18111.0,75041.0,364788.0,88511.0,95900.0,45161.0,58202.0,62288.0,8984.0,4353.0,1003.0,251.0,135.0
37196,County,2020/01/12,21.0,KY,21037.0,Campbell County,19133.0,74019.0,349475.0,95276.0,93116.0,41077.0,51670.0,55056.0,8851.0,2421.0,1643.0,192.0,173.0
38860,County,2020/01/13,21.0,KY,21037.0,Campbell County,16853.0,76299.0,379975.0,101068.0,94442.0,41216.0,55682.0,72331.0,10476.0,3249.0,1142.0,249.0,120.0
43593,County,2020/01/14,21.0,KY,21037.0,Campbell County,16194.0,76958.0,392731.0,106548.0,94024.0,45561.0,57518.0,73179.0,11372.0,2758.0,1429.0,218.0,124.0
46799,County,2020/01/15,21.0,KY,21037.0,Campbell County,16915.0,76237.0,380930.0,102979.0,90417.0,42158.0,56427.0,74439.0,9929.0,2819.0,1362.0,273.0,127.0
48326,County,2020/01/16,21.0,KY,21037.0,Campbell County,15887.0,77265.0,396665.0,103420.0,95376.0,45209.0,61496.0,76072.0,10354.0,2781.0,1514.0,281.0,162.0
53242,County,2020/01/17,21.0,KY,21037.0,Campbell County,16154.0,76998.0,416492.0,104739.0,102219.0,49352.0,64070.0,81746.0,10950.0,1522.0,1525.0,230.0,139.0
56363,County,2020/01/18,21.0,KY,21037.0,Campbell County,18309.0,74843.0,360524.0,84074.0,102570.0,42639.0,54048.0,62981.0,9413.0,2835.0,1589.0,199.0,176.0
57962,County,2020/01/19,21.0,KY,21037.0,Campbell County,20350.0,72802.0,336423.0,82957.0,86654.0,42122.0,53317.0,58476.0,8141.0,3187.0,1148.0,252.0,169.0
61195,County,2020/01/20,21.0,KY,21037.0,Campbell County,18217.0,74935.0,360468.0,88768.0,91118.0,40374.0,52134.0,72531.0,10656.0,2797.0,1491.0,374.0,225.0
65972,County,2020/01/21,21.0,KY,21037.0,Campbell County,16979.0,76173.0,386124.0,103767.0,92116.0,43302.0,55594.0,76447.0,11050.0,2480.0,989.0,260.0,119.0
69163,County,2020/01/22,21.0,KY,21037.0,Campbell County,15804.0,77348.0,401182.0,109641.0,96788.0,46150.0,57384.0,76142.0,11283.0,2228.0,1311.0,173.0,82.0
70787,County,2020/01/23,21.0,KY,21037.0,Campbell County,16567.0,76585.0,402128.0,107570.0,93511.0,45227.0,63786.0,75800.0,11713.0,2386.0,1784.0,215.0,136.0
75501,County,2020/01/24,21.0,KY,21037.0,Campbell County,16239.0,76913.0,413613.0,108596.0,99417.0,49471.0,61234.0,79268.0,10628.0,2936.0,1608.0,252.0,203.0
78736,County,2020/01/25,21.0,KY,21037.0,Campbell County,17940.0,75212.0,364121.0,87544.0,92348.0,43088.0,56938.0,70580.0,8456.0,3215.0,1611.0,218.0,123.0
80861,County,2020/01/26,21.0,KY,21037.0,Campbell County,19513.0,73639.0,329439.0,82929.0,86844.0,40479.0,47997.0,57436.0,7695.0,3330.0,2166.0,439.0,124.0
85051,County,2020/01/27,21.0,KY,21037.0,Campbell County,16886.0,76266.0,374193.0,99609.0,89779.0,45517.0,53041.0,71609.0,10714.0,2146.0,1356.0,281.0,141.0
86773,County,2020/01/28,21.0,KY,21037.0,Campbell County,16555.0,76597.0,382958.0,100333.0,95144.0,43786.0,56531.0,71993.0,11033.0,2426.0,1240.0,387.0,85.0
91506,County,2020/01/29,21.0,KY,21037.0,Campbell County,16369.0,76783.0,378626.0,98179.0,91230.0,43780.0,55748.0,73185.0,12196.0,3087.0,802.0,319.0,100.0
93232,County,2020/01/30,21.0,KY,21037.0,Campbell County,16229.0,76923.0,370970.0,94708.0,90282.0,43802.0,54972.0,71129.0,10747.0,3017.0,1687.0,395.0,231.0
97906,County,2020/01/31,21.0,KY,21037.0,Campbell County,15606.0,77546.0,381709.0,97273.0,93700.0,44985.0,58844.0,71173.0,9302.0,3313.0,2260.0,540.0,319.0
101094,County,2020/02/01,21.0,KY,21037.0,Campbell County,17367.0,75785.0,382607.0,93802.0,101853.0,41186.0,61356.0,67774.0,10057.0,3192.0,2794.0,448.0,145.0
104247,County,2020/02/02,21.0,KY,21037.0,Campbell County,19091.0,74061.0,349305.0,89130.0,95335.0,40644.0,52610.0,56801.0,8413.0,2932.0,2882.0,387.0,171.0
107499,County,2020/02/03,21.0,KY,21037.0,Campbell County,16457.0,76695.0,365264.0,99298.0,87765.0,41603.0,50880.0,69348.0,10031.0,3216.0,2334.0,485.0,304.0
109116,County,2020/02/04,21.0,KY,21037.0,Campbell County,16340.0,76812.0,363080.0,95597.0,85308.0,43307.0,52347.0,69692.0,10380.0,3187.0,2514.0,506.0,242.0
113839,County,2020/02/05,21.0,KY,21037.0,Campbell County,16577.0,76575.0,367715.0,91458.0,92070.0,40527.0,54745.0,72012.0,11116.0,2423.0,2521.0,538.0,305.0
115406,County,2020/02/06,21.0,KY,21037.0,Campbell County,16079.0,77073.0,349374.0,88170.0,84918.0,40040.0,53961.0,66027.0,9901.0,2908.0,2576.0,641.0,232.0
120299,County,2020/02/07,21.0,KY,21037.0,Campbell County,16404.0,76748.0,363286.0,89557.0,94246.0,42174.0,55119.0,65195.0,10594.0,3276.0,2329.0,583.0,213.0
123459,County,2020/02/08,21.0,KY,21037.0,Campbell County,18777.0,74375.0,345871.0,85292.0,87938.0,41107.0,52899.0,62432.0,9049.0,3726.0,2693.0,471.0,264.0
127666,County,2020/02/09,21.0,KY,21037.0,Campbell County,22521.0,70631.0,266123.0,61106.0,72475.0,32861.0,39428.0,46218.0,7581.0,2517.0,2800.0,563.0,574.0
129320,County,2020/02/10,21.0,KY,21037.0,Campbell County,17164.0,75988.0,327289.0,77793.0,81453.0,37618.0,50780.0,64328.0,9514.0,2650.0,1920.0,600.0,633.0
131917,County,2020/02/11,21.0,KY,21037.0,Campbell County,15808.0,77344.0,343643.0,84551.0,84234.0,41361.0,52154.0,65138.0,10075.0,2713.0,2283.0,600.0,534.0
136157,County,2020/02/12,21.0,KY,21037.0,Campbell County,15634.0,77518.0,340484.0,83423.0,82990.0,38635.0,51464.0,67579.0,10033.0,2797.0,2209.0,728.0,626.0
137852,County,2020/02/13,21.0,KY,21037.0,Campbell County,14656.0,78496.0,342199.0,82979.0,83884.0,39671.0,54677.0,64972.0,9558.0,2673.0,2490.0,670.0,625.0
140959,County,2020/02/14,21.0,KY,21037.0,Campbell County,13952.0,79200.0,365314.0,84033.0,90951.0,43260.0,58865.0,69048.0,10540.0,3709.0,3282.0,802.0,824.0
145837,County,2020/02/15,21.0,KY,21037.0,Campbell County,16433.0,76719.0,348163.0,79784.0,88053.0,41604.0,54272.0,64187.0,11783.0,3894.0,3285.0,712.0,589.0
148990,County,2020/02/16,21.0,KY,21037.0,Campbell County,19274.0,73878.0,299534.0,67347.0,80849.0,37769.0,47735.0,49583.0,7622.0,3615.0,3463.0,830.0,721.0
150618,County,2020/02/17,21.0,KY,21037.0,Campbell County,20931.0,72221.0,280799.0,71045.0,64651.0,33849.0,42364.0,55763.0,7049.0,2526.0,2492.0,639.0,421.0
153832,County,2020/02/18,21.0,KY,21037.0,Campbell County,16099.0,77053.0,329565.0,79412.0,80548.0,38325.0,49722.0,65266.0,10069.0,2372.0,2379.0,798.0,674.0
157027,County,2020/02/19,21.0,KY,21037.0,Campbell County,15860.0,77292.0,340615.0,81707.0,83440.0,38845.0,53042.0,68081.0,9624.0,2773.0,1987.0,658.0,458.0
160136,County,2020/02/20,21.0,KY,21037.0,Campbell County,15985.0,77167.0,324841.0,74383.0,80205.0,38256.0,49949.0,65450.0,10685.0,2985.0,2070.0,491.0,367.0
163366,County,2020/02/21,21.0,KY,21037.0,Campbell County,15296.0,77856.0,354028.0,82132.0,89348.0,41242.0,56624.0,66984.0,10667.0,2726.0,3154.0,732.0,419.0
166560,County,2020/02/22,21.0,KY,21037.0,Campbell County,17537.0,75615.0,348811.0,75595.0,89558.0,43480.0,58962.0,60478.0,11367.0,4171.0,3994.0,883.0,323.0
169787,County,2020/02/23,21.0,KY,21037.0,Campbell County,19458.0,73694.0,302290.0,68738.0,79080.0,38405.0,50285.0,51912.0,8199.0,2823.0,2329.0,324.0,195.0
174570,County,2020/02/24,21.0,KY,21037.0,Campbell County,15484.0,77668.0,330271.0,82590.0,80589.0,40634.0,48477.0,64224.0,8928.0,2011.0,1656.0,410.0,752.0
176926,County,2020/02/25,21.0,KY,21037.0,Campbell County,15019.0,78133.0,342588.0,81754.0,80442.0,43461.0,54926.0,67653.0,9671.0,2417.0,1444.0,311.0,509.0
179875,County,2020/02/26,21.0,KY,21037.0,Campbell County,17714.0,75438.0,293779.0,64297.0,79040.0,34351.0,44954.0,56869.0,8927.0,3060.0,1409.0,471.0,401.0
184042,County,2020/02/27,21.0,KY,21037.0,Campbell County,14435.0,78717.0,349236.0,86107.0,85334.0,42213.0,53690.0,68029.0,9217.0,2904.0,1263.0,233.0,246.0
187388,County,2020/02/28,21.0,KY,21037.0,Campbell County,14172.0,78980.0,359753.0,84852.0,92518.0,42774.0,57668.0,67487.0,9469.0,3167.0,1331.0,258.0,229.0
190485,County,2020/02/29,21.0,KY,21037.0,Campbell County,15260.0,77892.0,350408.0,78268.0,88594.0,42904.0,56669.0,67434.0,9902.0,4640.0,1459.0,230.0,308.0
192157,County,2020/03/01,21.0,KY,21037.0,Campbell County,18423.0,74729.0,351585.0,86218.0,94721.0,45803.0,57681.0,52632.0,8839.0,3246.0,1848.0,309.0,288.0
195332,County,2020/03/02,21.0,KY,21037.0,Campbell County,16609.0,76543.0,366804.0,90278.0,90459.0,44778.0,53230.0,71174.0,11273.0,3239.0,1567.0,370.0,436.0
200017,County,2020/03/03,21.0,KY,21037.0,Campbell County,15388.0,77764.0,389741.0,103817.0,93605.0,40769.0,53152.0,79438.0,10782.0,5370.0,2132.0,343.0,333.0
202394,County,2020/03/04,21.0,KY,21037.0,Campbell County,15811.0,77341.0,411706.0,112658.0,92933.0,48880.0,59112.0,77795.0,12966.0,4505.0,2027.0,430.0,400.0
206523,County,2020/03/05,21.0,KY,21037.0,Campbell County,14236.0,78916.0,397844.0,108670.0,87681.0,48331.0,57441.0,78761.0,10766.0,3125.0,2243.0,516.0,310.0
208005,County,2020/03/06,21.0,KY,21037.0,Campbell County,15020.0,78132.0,383362.0,91515.0,85610.0,52234.0,57512.0,76934.0,11372.0,4762.0,2689.0,494.0,240.0
212969,County,2020/03/07,21.0,KY,21037.0,Campbell County,17408.0,75744.0,389303.0,97088.0,101833.0,46494.0,57278.0,66790.0,12118.0,4227.0,2622.0,362.0,491.0
216080,County,2020/03/08,21.0,KY,21037.0,Campbell County,19234.0,73918.0,356297.0,93262.0,86645.0,46200.0,54487.0,56308.0,11027.0,5419.0,2082.0,466.0,401.0
219279,County,2020/03/09,21.0,KY,21037.0,Campbell County,17023.0,76129.0,392183.0,106103.0,84202.0,44016.0,59187.0,80070.0,11559.0,4704.0,1601.0,346.0,395.0
222473,County,2020/03/10,21.0,KY,21037.0,Campbell County,17216.0,75936.0,367368.0,88840.0,85871.0,45952.0,58390.0,71631.0,10527.0,3675.0,1858.0,362.0,262.0
225702,County,2020/03/11,21.0,KY,21037.0,Campbell County,17724.0,75428.0,311516.0,80989.0,73315.0,34727.0,43438.0,56566.0,10768.0,5349.0,4784.0,820.0,760.0
228793,County,2020/03/12,21.0,KY,21037.0,Campbell County,18230.0,74922.0,339193.0,86883.0,88066.0,31536.0,49815.0,58930.0,12185.0,5028.0,4314.0,1359.0,1077.0
232062,County,2020/03/13,21.0,KY,21037.0,Campbell County,17997.0,75155.0,341867.0,92964.0,86933.0,38517.0,41148.0,54897.0,13676.0,7525.0,3458.0,1455.0,1294.0
235117,County,2020/03/14,21.0,KY,21037.0,Campbell County,21121.0,72031.0,281905.0,71984.0,67909.0,34836.0,42151.0,46073.0,9700.0,3854.0,1842.0,1846.0,1710.0
236876,County,2020/03/15,21.0,KY,21037.0,Campbell County,24117.0,69035.0,304948.0,80477.0,76094.0,36050.0,44390.0,53330.0,6992.0,3784.0,2855.0,582.0,394.0
240070,County,2020/03/16,21.0,KY,21037.0,Campbell County,20240.0,72912.0,358199.0,93916.0,85805.0,39965.0,51817.0,70011.0,10682.0,3598.0,1385.0,637.0,383.0
243253,County,2020/03/17,21.0,KY,21037.0,Campbell County,23907.0,69245.0,335285.0,92393.0,81473.0,35240.0,44065.0,65254.0,10988.0,3371.0,1604.0,592.0,305.0
246457,County,2020/03/18,21.0,KY,21037.0,Campbell County,24263.0,68889.0,313983.0,80650.0,72926.0,35885.0,44489.0,63891.0,10988.0,3066.0,1516.0,350.0,222.0
251239,County,2020/03/19,21.0,KY,21037.0,Campbell County,24853.0,68299.0,310001.0,78283.0,77070.0,35313.0,40448.0,61575.0,10840.0,3743.0,1770.0,532.0,427.0
252848,County,2020/03/20,21.0,KY,21037.0,Campbell County,24008.0,69144.0,329256.0,84848.0,79703.0,41362.0,47074.0,61618.0,9054.0,3129.0,1681.0,401.0,386.0
255991,County,2020/03/21,21.0,KY,21037.0,Campbell County,27840.0,65312.0,286673.0,78840.0,70663.0,32556.0,38435.0,51555.0,8444.0,3607.0,1924.0,396.0,253.0
259226,County,2020/03/22,21.0,KY,21037.0,Campbell County,26891.0,66261.0,243431.0,68278.0,62533.0,26385.0,32911.0,39945.0,7463.0,3508.0,1812.0,429.0,167.0
262431,County,2020/03/23,21.0,KY,21037.0,Campbell County,24165.0,68987.0,263168.0,66194.0,61633.0,31898.0,38382.0,50976.0,8624.0,3295.0,1473.0,447.0,246.0
267186,County,2020/03/24,21.0,KY,21037.0,Campbell County,25523.0,67629.0,253953.0,64224.0,54389.0,30256.0,37951.0,52418.0,10073.0,2783.0,1120.0,518.0,221.0
268817,County,2020/03/25,21.0,KY,21037.0,Campbell County,24792.0,68360.0,280990.0,80298.0,65757.0,30790.0,37098.0,53080.0,8443.0,3205.0,1592.0,399.0,328.0
273557,County,2020/03/26,21.0,KY,21037.0,Campbell County,24490.0,68662.0,271708.0,78126.0,58982.0,31627.0,38111.0,51464.0,7939.0,3101.0,1622.0,528.0,208.0
276772,County,2020/03/27,21.0,KY,21037.0,Campbell County,24670.0,68482.0,278599.0,73458.0,66399.0,33383.0,39655.0,51114.0,8130.0,3533.0,2358.0,280.0,289.0
279958,County,2020/03/28,21.0,KY,21037.0,Campbell County,26520.0,66632.0,263019.0,74199.0,70856.0,30333.0,37538.0,39623.0,6190.0,2803.0,930.0,381.0,166.0
281593,County,2020/03/29,21.0,KY,21037.0,Campbell County,27942.0,65210.0,247518.0,72192.0,59930.0,32521.0,36540.0,34853.0,6234.0,3344.0,1514.0,253.0,137.0
284737,County,2020/03/30,21.0,KY,21037.0,Campbell County,24440.0,68712.0,261233.0,69077.0,59351.0,30281.0,38831.0,50696.0,8339.0,2531.0,1489.0,383.0,255.0
289541,County,2020/03/31,21.0,KY,21037.0,Campbell County,26248.0,66904.0,266726.0,72807.0,61034.0,25160.0,37823.0,52774.0,10471.0,4339.0,1702.0,292.0,324.0
292740,County,2020/04/01,21.0,KY,21037.0,Campbell County,25504.0,67648.0,270943.0,71166.0,66948.0,29588.0,37712.0,51939.0,9481.0,2506.0,911.0,391.0,301.0
294369,County,2020/04/02,21.0,KY,21037.0,Campbell County,25444.0,67708.0,275647.0,71150.0,63259.0,32302.0,41149.0,54536.0,8674.0,2609.0,1322.0,427.0,219.0
297563,County,2020/04/03,21.0,KY,21037.0,Campbell County,24538.0,68614.0,288664.0,75331.0,73031.0,35607.0,39765.0,51806.0,9102.0,2427.0,966.0,274.0,355.0
302309,County,2020/04/04,21.0,KY,21037.0,Campbell County,26428.0,66724.0,253303.0,66170.0,68773.0,30597.0,36568.0,41120.0,5888.0,2187.0,1001.0,525.0,474.0
303937,County,2020/04/05,21.0,KY,21037.0,Campbell County,27633.0,65519.0,237907.0,64627.0,59085.0,37334.0,35446.0,31701.0,5744.0,1522.0,1623.0,336.0,489.0
307146,County,2020/04/06,21.0,KY,21037.0,Campbell County,24304.0,68848.0,285120.0,79707.0,68431.0,34466.0,41246.0,46655.0,10095.0,3009.0,978.0,280.0,253.0
310339,County,2020/04/07,21.0,KY,21037.0,Campbell County,24546.0,68606.0,275648.0,67758.0,71247.0,28719.0,44347.0,51628.0,8024.0,2595.0,943.0,225.0,162.0
313533,County,2020/04/08,21.0,KY,21037.0,Campbell County,24709.0,68443.0,297256.0,87918.0,67338.0,35063.0,39145.0,53264.0,10308.0,2952.0,847.0,255.0,166.0
316702,County,2020/04/09,21.0,KY,21037.0,Campbell County,25772.0,67380.0,276583.0,71242.0,60917.0,34672.0,42418.0,52329.0,10404.0,3047.0,1038.0,260.0,256.0
319929,County,2020/04/10,21.0,KY,21037.0,Campbell County,23142.0,70010.0,295134.0,79549.0,69515.0,36907.0,42983.0,52312.0,9354.0,3027.0,1031.0,258.0,198.0
323114,County,2020/04/11,21.0,KY,21037.0,Campbell County,23259.0,69893.0,297072.0,71938.0,85614.0,35155.0,45586.0,46248.0,8419.0,2631.0,946.0,302.0,233.0
327847,County,2020/04/12,21.0,KY,21037.0,Campbell County,28316.0,64836.0,219624.0,59774.0,55598.0,24362.0,33583.0,37479.0,5623.0,1759.0,1085.0,123.0,238.0
329524,County,2020/04/13,21.0,KY,21037.0,Campbell County,24846.0,68306.0,258590.0,58154.0,56406.0,33691.0,38511.0,58827.0,9692.0,2083.0,980.0,98.0,148.0
332648,County,2020/04/14,21.0,KY,21037.0,Campbell County,24639.0,68513.0,282705.0,67554.0,74600.0,34701.0,37638.0,54453.0,9976.0,1622.0,1670.0,239.0,252.0
335874,County,2020/04/15,21.0,KY,21037.0,Campbell County,23571.0,69581.0,297216.0,86731.0,74822.0,33966.0,44213.0,45212.0,7872.0,2092.0,1679.0,393.0,236.0
340592,County,2020/04/16,21.0,KY,21037.0,Campbell County,24995.0,68157.0,318710.0,101188.0,77265.0,32408.0,47978.0,46473.0,9871.0,2052.0,845.0,302.0,328.0
342327,County,2020/04/17,21.0,KY,21037.0,Campbell County,22492.0,70660.0,293902.0,71331.0,82550.0,30622.0,45797.0,46948.0,10091.0,3969.0,1805.0,692.0,97.0
347002,County,2020/04/18,21.0,KY,21037.0,Campbell County,24513.0,68639.0,341666.0,104248.0,92865.0,38812.0,50151.0,42354.0,8533.0,2811.0,1063.0,651.0,178.0
348653,County,2020/04/19,21.0,KY,21037.0,Campbell County,25809.0,67343.0,224091.0,59315.0,56846.0,27892.0,36276.0,31471.0,7776.0,3693.0,256.0,257.0,309.0
353434,County,2020/04/20,21.0,KY,21037.0,Campbell County,24212.0,68940.0,266499.0,85275.0,69784.0,28291.0,33212.0,35809.0,10387.0,2397.0,353.0,619.0,372.0
356620,County,2020/04/21,21.0,KY,21037.0,Campbell County,23850.0,69302.0,304097.0,83698.0,67825.0,30411.0,44762.0,63203.0,9491.0,3117.0,1376.0,153.0,61.0
359776,County,2020/04/22,21.0,KY,21037.0,Campbell County,22867.0,70285.0,318629.0,96046.0,69139.0,32004.0,42452.0,62762.0,11475.0,3086.0,1325.0,148.0,192.0
361354,County,2020/04/23,21.0,KY,21037.0,Campbell County,22899.0,70253.0,289544.0,75958.0,67176.0,32065.0,44995.0,56087.0,9663.0,2007.0,1232.0,206.0,155.0
364608,County,2020/04/24,21.0,KY,21037.0,Campbell County,22205.0,70947.0,313770.0,82146.0,74528.0,34629.0,49516.0,57056.0,11210.0,3102.0,1357.0,141.0,85.0
367775,County,2020/04/25,21.0,KY,21037.0,Campbell County,23320.0,69832.0,287193.0,75930.0,73291.0,34798.0,41847.0,49446.0,8474.0,1958.0,952.0,301.0,196.0
372544,County,2020/04/26,21.0,KY,21037.0,Campbell County,26540.0,66612.0,242262.0,53358.0,65290.0,27170.0,41621.0,42748.0,8042.0,2615.0,897.0,289.0,232.0
374218,County,2020/04/27,21.0,KY,21037.0,Campbell County,22565.0,70587.0,320505.0,88551.0,75429.0,34417.0,45256.0,60768.0,12082.0,2782.0,867.0,193.0,160.0
377369,County,2020/04/28,21.0,KY,21037.0,Campbell County,21416.0,71736.0,340637.0,100845.0,77559.0,35989.0,47500.0,62291.0,12583.0,2360.0,1157.0,255.0,98.0
380621,County,2020/04/29,21.0,KY,21037.0,Campbell County,22302.0,70850.0,290207.0,69385.0,73932.0,34931.0,40543.0,56605.0,9778.0,3299.0,1262.0,267.0,205.0
385367,County,2020/04/30,21.0,KY,21037.0,Campbell County,23245.0,69907.0,298854.0,80267.0,69189.0,33684.0,40579.0,59431.0,10630.0,3225.0,1648.0,50.0,151.0
386993,County,2020/05/01,21.0,KY,21037.0,Campbell County,21043.0,72109.0,332241.0,92725.0,79066.0,37050.0,42167.0,66283.0,9935.0,2716.0,1814.0,303.0,182.0
390176,County,2020/05/02,21.0,KY,21037.0,Campbell County,22757.0,70395.0,327974.0,87446.0,82576.0,42518.0,46315.0,55860.0,8284.0,3418.0,1389.0,96.0,72.0
393389,County,2020/05/03,21.0,KY,21037.0,Campbell County,24941.0,68211.0,253052.0,58684.0,67311.0,30591.0,38025.0,47986.0,6545.0,2182.0,1342.0,175.0,211.0
398143,County,2020/05/04,21.0,KY,21037.0,Campbell County,21343.0,71809.0,334591.0,94241.0,83390.0,31745.0,46402.0,62301.0,12119.0,2789.0,1219.0,258.0,127.0
401319,County,2020/05/05,21.0,KY,21037.0,Campbell County,22054.0,71098.0,304055.0,85617.0,71526.0,33711.0,40928.0,58395.0,9668.0,3010.0,908.0,182.0,110.0
404525,County,2020/05/06,21.0,KY,21037.0,Campbell County,21996.0,71156.0,337729.0,100929.0,71018.0,40982.0,45496.0,63166.0,11051.0,3443.0,1233.0,199.0,212.0
406152,County,2020/05/07,21.0,KY,21037.0,Campbell County,21242.0,71910.0,344367.0,95690.0,77611.0,40978.0,51193.0,61370.0,12518.0,3542.0,875.0,188.0,402.0
409408,County,2020/05/08,21.0,KY,21037.0,Campbell County,21433.0,71719.0,321125.0,77612.0,79725.0,44247.0,46065.0,60089.0,9643.0,2289.0,1257.0,90.0,108.0
414079,County,2020/05/09,21.0,KY,21037.0,Campbell County,21657.0,71495.0,326032.0,87918.0,78098.0,37566.0,52534.0,54423.0,10137.0,3625.0,1484.0,163.0,84.0
417259,County,2020/05/10,21.0,KY,21037.0,Campbell County,22695.0,70457.0,281074.0,72096.0,70186.0,34448.0,43512.0,47636.0,7850.0,3738.0,1347.0,112.0,149.0
420538,County,2020/05/11,21.0,KY,21037.0,Campbell County,20175.0,72977.0,338644.0,98904.0,78024.0,34487.0,45590.0,66630.0,10417.0,3182.0,987.0,290.0,133.0
422118,County,2020/05/12,21.0,KY,21037.0,Campbell County,18806.0,74346.0,364233.0,113742.0,83354.0,35341.0,47949.0,68980.0,10359.0,3233.0,871.0,307.0,97.0
425274,County,2020/05/13,21.0,KY,21037.0,Campbell County,19273.0,73879.0,331298.0,94463.0,75105.0,34222.0,47841.0,64526.0,10201.0,2781.0,1538.0,443.0,178.0
430083,County,2020/05/14,21.0,KY,21037.0,Campbell County,17952.0,75200.0,350082.0,98109.0,78536.0,34672.0,50105.0,71730.0,11712.0,3178.0,1318.0,445.0,277.0
431712,County,2020/05/15,21.0,KY,21037.0,Campbell County,18734.0,74418.0,336620.0,97948.0,74721.0,37135.0,47568.0,62399.0,10385.0,3640.0,1862.0,560.0,402.0
436461,County,2020/05/16,21.0,KY,21037.0,Campbell County,20688.0,72464.0,315440.0,88912.0,77068.0,37614.0,49793.0,48470.0,8298.0,3052.0,1760.0,282.0,191.0
438088,County,2020/05/17,21.0,KY,21037.0,Campbell County,19078.0,74074.0,327370.0,89128.0,79405.0,38364.0,50766.0,53913.0,8871.0,4296.0,2139.0,390.0,98.0
441333,County,2020/05/18,21.0,KY,21037.0,Campbell County,17306.0,75846.0,362575.0,99809.0,88379.0,39078.0,47706.0,68207.0,13844.0,3551.0,1552.0,449.0,0.0
444487,County,2020/05/19,21.0,KY,21037.0,Campbell County,16543.0,76609.0,321412.0,78744.0,71870.0,37995.0,45225.0,69570.0,13605.0,2636.0,1372.0,359.0,36.0
447655,County,2020/05/20,21.0,KY,21037.0,Campbell County,16023.0,77129.0,359525.0,97404.0,84681.0,37767.0,54973.0,68244.0,10992.0,3583.0,1325.0,483.0,73.0
452089,County,2020/05/21,21.0,KY,21037.0,Campbell County,15510.0,77642.0,365642.0,93278.0,83846.0,40468.0,56356.0,72280.0,13405.0,4027.0,1467.0,396.0,119.0
454061,County,2020/05/22,21.0,KY,21037.0,Campbell County,14531.0,78621.0,415899.0,116431.0,90694.0,46780.0,59455.0,79834.0,15666.0,4239.0,2169.0,435.0,196.0
457257,County,2020/05/23,21.0,KY,21037.0,Campbell County,16110.0,77042.0,363108.0,91948.0,88556.0,44920.0,59230.0,61361.0,11349.0,4059.0,1194.0,239.0,252.0
462000,County,2020/05/24,21.0,KY,21037.0,Campbell County,20641.0,72511.0,269455.0,75416.0,66519.0,30760.0,42918.0,39284.0,7667.0,2891.0,1427.0,852.0,1721.0
463628,County,2020/05/25,21.0,KY,21037.0,Campbell County,20690.0,72462.0,261875.0,71293.0,68662.0,32183.0,38781.0,37984.0,6278.0,2945.0,1760.0,610.0,1379.0
468459,County,2020/05/26,21.0,KY,21037.0,Campbell County,17962.0,75190.0,266219.0,66943.0,58908.0,27815.0,43947.0,52370.0,8501.0,2764.0,1265.0,464.0,3242.0
470038,County,2020/05/27,21.0,KY,21037.0,Campbell County,18553.0,74599.0,297379.0,80742.0,72341.0,31709.0,42239.0,55632.0,8466.0,2076.0,1413.0,480.0,2281.0
474701,County,2020/05/28,21.0,KY,21037.0,Campbell County,19053.0,74099.0,342519.0,94365.0,81640.0,34325.0,50425.0,66788.0,10081.0,2375.0,2053.0,329.0,138.0
476379,County,2020/05/29,21.0,KY,21037.0,Campbell County,21490.0,71662.0,327248.0,88242.0,79652.0,34005.0,46171.0,61883.0,10984.0,3895.0,1872.0,340.0,204.0
479566,County,2020/05/30,21.0,KY,21037.0,Campbell County,21794.0,71358.0,334576.0,92445.0,84641.0,41001.0,44195.0,53178.0,11787.0,5238.0,1315.0,640.0,136.0
484332,County,2020/05/31,21.0,KY,21037.0,Campbell County,20916.0,72236.0,327353.0,96676.0,76460.0,36722.0,49597.0,50737.0,10529.0,4148.0,2014.0,388.0,82.0
485961,County,2020/06/01,21.0,KY,21037.0,Campbell County,19094.0,74058.0,341202.0,91608.0,83022.0,38674.0,47385.0,64694.0,10057.0,4057.0,1355.0,194.0,156.0
490741,County,2020/06/02,21.0,KY,21037.0,Campbell County,18953.0,74199.0,349519.0,96908.0,85121.0,33542.0,52814.0,64807.0,10283.0,3666.0,1692.0,416.0,270.0
492371,County,2020/06/03,21.0,KY,21037.0,Campbell County,17146.0,76006.0,362360.0,100602.0,83532.0,39754.0,53602.0,69375.0,10405.0,2914.0,1684.0,347.0,145.0
497145,County,2020/06/04,21.0,KY,21037.0,Campbell County,17058.0,76094.0,332546.0,81745.0,83489.0,34282.0,48341.0,69047.0,9700.0,3407.0,1944.0,335.0,256.0
498785,County,2020/06/05,21.0,KY,21037.0,Campbell County,16591.0,76561.0,354319.0,86447.0,89391.0,39552.0,55047.0,66520.0,11188.0,3479.0,1727.0,785.0,183.0
503510,County,2020/06/06,21.0,KY,21037.0,Campbell County,19416.0,73736.0,314702.0,79946.0,81591.0,34120.0,46589.0,56859.0,10154.0,2678.0,2190.0,424.0,151.0
506708,County,2020/06/07,21.0,KY,21037.0,Campbell County,20172.0,72980.0,299565.0,72918.0,79407.0,37345.0,46634.0,46929.0,9566.0,3716.0,2351.0,413.0,286.0
509920,County,2020/06/08,21.0,KY,21037.0,Campbell County,16952.0,76200.0,358857.0,94044.0,86348.0,39341.0,54624.0,70475.0,9299.0,2847.0,1303.0,320.0,256.0
511549,County,2020/06/09,21.0,KY,21037.0,Campbell County,19056.0,74096.0,314106.0,79985.0,71832.0,36395.0,47366.0,62895.0,11543.0,2382.0,1152.0,312.0,244.0
516330,County,2020/06/10,21.0,KY,21037.0,Campbell County,19047.0,74105.0,339518.0,93599.0,87517.0,36087.0,44135.0,61829.0,9725.0,4510.0,1407.0,304.0,405.0
517959,County,2020/06/11,21.0,KY,21037.0,Campbell County,17669.0,75483.0,335340.0,84595.0,81951.0,37967.0,50172.0,64510.0,9872.0,4132.0,1243.0,457.0,441.0
522710,County,2020/06/12,21.0,KY,21037.0,Campbell County,18169.0,74983.0,342446.0,87198.0,77608.0,38942.0,52598.0,67505.0,10400.0,5143.0,2384.0,521.0,147.0
525897,County,2020/06/13,21.0,KY,21037.0,Campbell County,18826.0,74326.0,359763.0,102159.0,87407.0,41876.0,51815.0,58336.0,10558.0,4978.0,1851.0,590.0,193.0
527532,County,2020/06/14,21.0,KY,21037.0,Campbell County,20131.0,73021.0,291298.0,81275.0,71288.0,33421.0,46325.0,41639.0,9235.0,4659.0,2603.0,435.0,418.0
532291,County,2020/06/15,21.0,KY,21037.0,Campbell County,18987.0,74165.0,331362.0,85973.0,82279.0,38710.0,48500.0,58997.0,10841.0,3560.0,1966.0,274.0,262.0
533919,County,2020/06/16,21.0,KY,21037.0,Campbell County,18865.0,74287.0,331766.0,84300.0,76858.0,35594.0,47559.0,70198.0,10326.0,3982.0,2377.0,357.0,215.0
538630,County,2020/06/17,21.0,KY,21037.0,Campbell County,18081.0,75071.0,350781.0,99255.0,84579.0,37463.0,46609.0,67946.0,8693.0,4082.0,1612.0,363.0,179.0
540259,County,2020/06/18,21.0,KY,21037.0,Campbell County,17620.0,75532.0,344628.0,86705.0,88590.0,39652.0,49379.0,64635.0,9939.0,3576.0,1733.0,186.0,233.0
545026,County,2020/06/19,21.0,KY,21037.0,Campbell County,18232.0,74920.0,340475.0,91403.0,85368.0,38199.0,47271.0,59216.0,10506.0,5461.0,2313.0,467.0,271.0
548261,County,2020/06/20,21.0,KY,21037.0,Campbell County,18730.0,74422.0,320322.0,81320.0,82845.0,36879.0,46882.0,53189.0,9678.0,5930.0,2706.0,571.0,322.0
549861,County,2020/06/21,21.0,KY,21037.0,Campbell County,20676.0,72476.0,309440.0,88825.0,78781.0,32766.0,39960.0,53665.0,7807.0,4255.0,2934.0,235.0,212.0
554641,County,2020/06/22,21.0,KY,21037.0,Campbell County,20068.0,73084.0,306135.0,74362.0,74333.0,33902.0,48514.0,60185.0,9447.0,3322.0,1358.0,432.0,280.0
556269,County,2020/06/23,21.0,KY,21037.0,Campbell County,19092.0,74060.0,340256.0,87896.0,85518.0,37674.0,49659.0,64710.0,9818.0,3213.0,1249.0,254.0,265.0
561037,County,2020/06/24,21.0,KY,21037.0,Campbell County,19272.0,73880.0,328884.0,85780.0,79360.0,38839.0,50112.0,60592.0,10227.0,2227.0,1207.0,311.0,229.0
564214,County,2020/06/25,21.0,KY,21037.0,Campbell County,18584.0,74568.0,343073.0,100366.0,78896.0,38325.0,48749.0,61830.0,8733.0,4527.0,1032.0,284.0,331.0
567460,County,2020/06/26,21.0,KY,21037.0,Campbell County,18866.0,74286.0,331870.0,87658.0,80362.0,35167.0,47367.0,64855.0,9803.0,3895.0,1887.0,439.0,437.0
569041,County,2020/06/27,21.0,KY,21037.0,Campbell County,19443.0,73709.0,324603.0,87314.0,84272.0,33029.0,43084.0,59862.0,10196.0,3898.0,2035.0,500.0,413.0
573802,County,2020/06/28,21.0,KY,21037.0,Campbell County,21767.0,71385.0,292348.0,76515.0,73526.0,35596.0,45324.0,46158.0,8004.0,4319.0,2069.0,509.0,328.0
575410,County,2020/06/29,21.0,KY,21037.0,Campbell County,20700.0,72452.0,296756.0,75640.0,69974.0,33129.0,42484.0,61502.0,8370.0,3683.0,1170.0,534.0,270.0
578616,County,2020/06/30,21.0,KY,21037.0,Campbell County,20532.0,72620.0,281918.0,68664.0,68337.0,30527.0,42561.0,55678.0,8976.0,4339.0,1889.0,578.0,369.0
581823,County,2020/07/01,21.0,KY,21037.0,Campbell County,19270.0,73882.0,310841.0,83660.0,74327.0,35271.0,41475.0,60796.0,8890.0,3831.0,1548.0,556.0,487.0
585015,County,2020/07/02,21.0,KY,21037.0,Campbell County,20069.0,73083.0,364137.0,106529.0,83740.0,40678.0,51742.0,65627.0,9269.0,4805.0,1095.0,301.0,351.0
589808,County,2020/07/03,21.0,KY,21037.0,Campbell County,21305.0,71847.0,330001.0,87164.0,79909.0,34969.0,47100.0,64490.0,9748.0,3873.0,1876.0,437.0,435.0
591402,County,2020/07/04,21.0,KY,21037.0,Campbell County,22777.0,70375.0,282321.0,74571.0,68364.0,29917.0,40295.0,55172.0,8339.0,3313.0,1605.0,373.0,372.0
596148,County,2020/07/05,21.0,KY,21037.0,Campbell County,21248.0,71904.0,294410.0,84511.0,71221.0,32055.0,43921.0,44663.0,8418.0,6008.0,2447.0,662.0,504.0
599317,County,2020/07/06,21.0,KY,21037.0,Campbell County,20775.0,72377.0,281957.0,71030.0,64473.0,32194.0,41451.0,57070.0,8816.0,3886.0,1894.0,818.0,325.0
602939,County,2020/07/07,21.0,KY,21037.0,Campbell County,19703.0,73449.0,306736.0,84179.0,74542.0,31185.0,44039.0,57313.0,8584.0,3891.0,1781.0,733.0,489.0
605654,County,2020/07/08,21.0,KY,21037.0,Campbell County,19225.0,73927.0,301685.0,78159.0,66453.0,33463.0,47134.0,60056.0,8829.0,4080.0,2026.0,968.0,517.0
607380,County,2020/07/09,21.0,KY,21037.0,Campbell County,19361.0,73791.0,310658.0,79837.0,76202.0,31709.0,46193.0,59771.0,9094.0,4382.0,2174.0,856.0,440.0
612162,County,2020/07/10,21.0,KY,21037.0,Campbell County,19319.0,73833.0,310214.0,82016.0,69121.0,38967.0,43627.0,59690.0,9446.0,3795.0,2107.0,961.0,484.0
613741,County,2020/07/11,21.0,KY,21037.0,Campbell County,20833.0,72319.0,297559.0,79637.0,72760.0,34235.0,45563.0,47296.0,9990.0,4496.0,2046.0,866.0,670.0
618515,County,2020/07/12,21.0,KY,21037.0,Campbell County,21717.0,71435.0,265244.0,77526.0,66102.0,27491.0,37089.0,39967.0,10153.0,3382.0,2164.0,665.0,705.0
620152,County,2020/07/13,21.0,KY,21037.0,Campbell County,19942.0,73210.0,290401.0,76744.0,69825.0,32101.0,42888.0,54274.0,8305.0,3660.0,1292.0,709.0,603.0
624916,County,2020/07/14,21.0,KY,21037.0,Campbell County,20423.0,72729.0,320094.0,87725.0,77195.0,32045.0,44643.0,63311.0,10278.0,2680.0,1191.0,677.0,349.0
628089,County,2020/07/15,21.0,KY,21037.0,Campbell County,20529.0,72623.0,312148.0,82059.0,71570.0,37230.0,40596.0,64683.0,9795.0,3886.0,1604.0,427.0,298.0
631355,County,2020/07/16,21.0,KY,21037.0,Campbell County,20424.0,72728.0,306950.0,87060.0,69745.0,33131.0,41971.0,61116.0,9125.0,2199.0,2009.0,358.0,236.0
632916,County,2020/07/17,21.0,KY,21037.0,Campbell County,20139.0,73013.0,318179.0,91432.0,78964.0,32741.0,43921.0,55893.0,9082.0,3260.0,2187.0,506.0,193.0
637702,County,2020/07/18,21.0,KY,21037.0,Campbell County,21681.0,71471.0,312047.0,89586.0,76081.0,34432.0,43969.0,52055.0,9320.0,3889.0,2002.0,430.0,283.0
639282,County,2020/07/19,21.0,KY,21037.0,Campbell County,23821.0,69331.0,246203.0,63302.0,62820.0,28957.0,39879.0,37256.0,7290.0,3294.0,2474.0,620.0,311.0
644064,County,2020/07/20,21.0,KY,21037.0,Campbell County,22775.0,70377.0,294274.0,77489.0,71789.0,31244.0,44432.0,55494.0,8813.0,3429.0,1062.0,319.0,203.0
645692,County,2020/07/21,21.0,KY,21037.0,Campbell County,21972.0,71180.0,297671.0,76031.0,73847.0,33243.0,45173.0,56306.0,8175.0,2945.0,1059.0,515.0,377.0
650421,County,2020/07/22,21.0,KY,21037.0,Campbell County,21553.0,71599.0,294230.0,74013.0,74070.0,34663.0,41768.0,54558.0,8416.0,4169.0,1735.0,405.0,433.0
652011,County,2020/07/23,21.0,KY,21037.0,Campbell County,21592.0,71560.0,292585.0,75328.0,66953.0,32515.0,43054.0,58445.0,9628.0,3997.0,1688.0,559.0,418.0
656840,County,2020/07/24,21.0,KY,21037.0,Campbell County,19907.0,73245.0,317063.0,80054.0,74992.0,33627.0,49856.0,61869.0,9604.0,4510.0,1665.0,495.0,391.0
660106,County,2020/07/25,21.0,KY,21037.0,Campbell County,22420.0,70732.0,297019.0,78394.0,71675.0,30320.0,46376.0,53229.0,10567.0,3756.0,1741.0,537.0,424.0
663185,County,2020/07/26,21.0,KY,21037.0,Campbell County,22806.0,70346.0,291077.0,76965.0,71421.0,32488.0,42404.0,49962.0,9327.0,5393.0,2224.0,459.0,434.0
666458,County,2020/07/27,21.0,KY,21037.0,Campbell County,22820.0,70332.0,295300.0,78200.0,69081.0,30721.0,44097.0,57861.0,8723.0,3845.0,1583.0,712.0,477.0
668039,County,2020/07/28,21.0,KY,21037.0,Campbell County,21891.0,71261.0,304644.0,74547.0,71617.0,36394.0,46637.0,59521.0,9876.0,3451.0,1224.0,882.0,495.0
672923,County,2020/07/29,21.0,KY,21037.0,Campbell County,22091.0,71061.0,291662.0,69640.0,68870.0,32293.0,46909.0,57669.0,9149.0,4221.0,1563.0,922.0,426.0
676005,County,2020/07/30,21.0,KY,21037.0,Campbell County,20949.0,72203.0,280080.0,63308.0,65473.0,32442.0,43729.0,60149.0,8751.0,2976.0,1835.0,821.0,596.0
679233,County,2020/07/31,21.0,KY,21037.0,Campbell County,21459.0,71693.0,306336.0,77533.0,69897.0,36222.0,47299.0,58664.0,9400.0,4253.0,1719.0,831.0,518.0
682354,County,2020/08/01,21.0,KY,21037.0,Campbell County,23612.0,69540.0,275198.0,69047.0,65540.0,32879.0,40328.0,51036.0,9116.0,4408.0,1315.0,961.0,568.0
685594,County,2020/08/02,21.0,KY,21037.0,Campbell County,24449.0,68703.0,282141.0,70024.0,70061.0,33105.0,44783.0,46800.0,9478.0,4300.0,2530.0,717.0,343.0
688797,County,2020/08/03,21.0,KY,21037.0,Campbell County,21966.0,71186.0,321461.0,85377.0,82886.0,39419.0,43255.0,56557.0,9087.0,2338.0,1445.0,776.0,321.0
690425,County,2020/08/04,21.0,KY,21037.0,Campbell County,20458.0,72694.0,335907.0,90465.0,85914.0,36411.0,48738.0,60784.0,9261.0,2760.0,1169.0,375.0,30.0
693588,County,2020/08/05,21.0,KY,21037.0,Campbell County,20507.0,72645.0,334520.0,90045.0,78611.0,39060.0,45416.0,64270.0,12568.0,2722.0,1363.0,393.0,72.0
696794,County,2020/08/06,21.0,KY,21037.0,Campbell County,19982.0,73170.0,330359.0,86522.0,80053.0,36176.0,49268.0,62715.0,10980.0,2828.0,1045.0,654.0,118.0
700006,County,2020/08/07,21.0,KY,21037.0,Campbell County,18919.0,74233.0,344499.0,92640.0,85810.0,38153.0,46196.0,64232.0,11419.0,3239.0,2132.0,551.0,127.0
704767,County,2020/08/08,21.0,KY,21037.0,Campbell County,20547.0,72605.0,317045.0,81475.0,78392.0,35390.0,48009.0,58599.0,9748.0,3498.0,1385.0,413.0,136.0
706394,County,2020/08/09,21.0,KY,21037.0,Campbell County,21847.0,71305.0,293896.0,71578.0,77486.0,35129.0,43891.0,48616.0,10268.0,3862.0,2309.0,634.0,123.0
711155,County,2020/08/10,21.0,KY,21037.0,Campbell County,21329.0,71823.0,317338.0,77828.0,74806.0,38450.0,45545.0,65041.0,10277.0,3144.0,1530.0,535.0,182.0
714396,County,2020/08/11,21.0,KY,21037.0,Campbell County,19920.0,73232.0,327873.0,76971.0,78714.0,39466.0,50480.0,63615.0,12811.0,3837.0,1608.0,309.0,62.0
717445,County,2020/08/12,21.0,KY,21037.0,Campbell County,20413.0,72739.0,293999.0,66922.0,69152.0,36100.0,44503.0,60852.0,10663.0,3196.0,1541.0,587.0,483.0
719171,County,2020/08/13,21.0,KY,21037.0,Campbell County,19834.0,73318.0,312154.0,69452.0,74410.0,38587.0,48501.0,65074.0,9693.0,2938.0,1964.0,792.0,743.0
723915,County,2020/08/14,21.0,KY,21037.0,Campbell County,18119.0,75033.0,328331.0,74865.0,80134.0,38841.0,48543.0,65591.0,11724.0,4664.0,2309.0,980.0,680.0
727126,County,2020/08/15,21.0,KY,21037.0,Campbell County,20126.0,73026.0,307819.0,72481.0,78650.0,34297.0,47069.0,56109.0,11859.0,4017.0,1796.0,695.0,846.0
730318,County,2020/08/16,21.0,KY,21037.0,Campbell County,22917.0,70235.0,283018.0,71423.0,65285.0,35047.0,41727.0,47919.0,11248.0,5296.0,2707.0,1151.0,1215.0
731947,County,2020/08/17,21.0,KY,21037.0,Campbell County,22746.0,70406.0,299635.0,71281.0,67750.0,36864.0,44105.0,61986.0,9962.0,3327.0,1837.0,1252.0,1271.0
735113,County,2020/08/18,21.0,KY,21037.0,Campbell County,21614.0,71538.0,271523.0,61147.0,65186.0,31917.0,39615.0,54460.0,10507.0,3769.0,2217.0,1417.0,1288.0
738319,County,2020/08/19,21.0,KY,21037.0,Campbell County,20361.0,72791.0,297168.0,71485.0,70305.0,33116.0,43682.0,60349.0,9893.0,4044.0,1784.0,1147.0,1363.0
743100,County,2020/08/20,21.0,KY,21037.0,Campbell County,20270.0,72882.0,310713.0,79528.0,72681.0,34921.0,44770.0,59305.0,12068.0,3075.0,1933.0,1183.0,1249.0
746306,County,2020/08/21,21.0,KY,21037.0,Campbell County,18970.0,74182.0,319378.0,77597.0,79247.0,34638.0,46024.0,61328.0,11199.0,4576.0,2502.0,1063.0,1204.0
747934,County,2020/08/22,21.0,KY,21037.0,Campbell County,20430.0,72722.0,308017.0,73613.0,78176.0,35412.0,45327.0,55323.0,11373.0,4299.0,2291.0,1028.0,1175.0
752679,County,2020/08/23,21.0,KY,21037.0,Campbell County,23618.0,69534.0,243430.0,55871.0,61797.0,26457.0,38092.0,44038.0,9663.0,3895.0,1851.0,898.0,868.0
754302,County,2020/08/24,21.0,KY,21037.0,Campbell County,23019.0,70133.0,259719.0,58950.0,61411.0,28621.0,39256.0,55454.0,8809.0,3544.0,1825.0,870.0,979.0
759062,County,2020/08/25,21.0,KY,21037.0,Campbell County,22061.0,71091.0,287711.0,71462.0,69657.0,30244.0,40213.0,60273.0,9474.0,2915.0,1555.0,1061.0,857.0
762222,County,2020/08/26,21.0,KY,21037.0,Campbell County,22233.0,70919.0,277096.0,67528.0,65573.0,29930.0,44448.0,54757.0,8304.0,3259.0,1651.0,827.0,819.0
763850,County,2020/08/27,21.0,KY,21037.0,Campbell County,21641.0,71511.0,282340.0,71489.0,64368.0,30273.0,45006.0,53439.0,10072.0,4612.0,1499.0,803.0,779.0
768633,County,2020/08/28,21.0,KY,21037.0,Campbell County,21551.0,71601.0,294991.0,71158.0,71211.0,31257.0,43999.0,59263.0,10540.0,3590.0,2482.0,727.0,764.0
770261,County,2020/08/29,21.0,KY,21037.0,Campbell County,22728.0,70424.0,290853.0,76349.0,67946.0,34209.0,43624.0,51662.0,10143.0,4076.0,1529.0,511.0,804.0
775051,County,2020/08/30,21.0,KY,21037.0,Campbell County,23637.0,69515.0,263189.0,65656.0,67454.0,29277.0,40163.0,44800.0,7751.0,4135.0,2138.0,725.0,1090.0
776660,County,2020/08/31,21.0,KY,21037.0,Campbell County,23180.0,69972.0,278100.0,69437.0,66782.0,29763.0,38853.0,56365.0,9916.0,3370.0,1830.0,764.0,1020.0
779803,County,2020/09/01,21.0,KY,21037.0,Campbell County,22094.0,71058.0,289653.0,68603.0,75558.0,33978.0,39925.0,54975.0,9790.0,4078.0,1258.0,747.0,741.0
783834,County,2020/09/02,21.0,KY,21037.0,Campbell County,22260.0,70892.0,293934.0,66723.0,73543.0,32403.0,45439.0,60137.0,9048.0,3719.0,1803.0,504.0,615.0
787786,County,2020/09/03,21.0,KY,21037.0,Campbell County,20953.0,72199.0,317683.0,79043.0,79031.0,35967.0,45628.0,61675.0,9288.0,3591.0,1769.0,847.0,844.0
789400,County,2020/09/04,21.0,KY,21037.0,Campbell County,21671.0,71481.0,298226.0,75966.0,69298.0,31018.0,46008.0,57440.0,9311.0,5151.0,2326.0,951.0,757.0
794167,County,2020/09/05,21.0,KY,21037.0,Campbell County,22278.0,70874.0,302956.0,76899.0,73674.0,34012.0,45683.0,52974.0,11219.0,4961.0,2166.0,630.0,738.0
797370,County,2020/09/06,21.0,KY,21037.0,Campbell County,24553.0,68599.0,263570.0,66699.0,67001.0,25564.0,38921.0,45552.0,11134.0,4513.0,2461.0,842.0,883.0
800584,County,2020/09/07,21.0,KY,21037.0,Campbell County,25411.0,67741.0,243492.0,53536.0,63738.0,25117.0,38616.0,43602.0,8915.0,4998.0,3219.0,936.0,815.0
802193,County,2020/09/08,21.0,KY,21037.0,Campbell County,23619.0,69533.0,296263.0,70313.0,72486.0,32939.0,45117.0,56867.0,10487.0,4262.0,1912.0,973.0,907.0
806974,County,2020/09/09,21.0,KY,21037.0,Campbell County,22624.0,70528.0,312309.0,78571.0,74204.0,34129.0,46239.0,62663.0,9553.0,3996.0,1381.0,722.0,851.0
808601,County,2020/09/10,21.0,KY,21037.0,Campbell County,22431.0,70721.0,292046.0,68972.0,74891.0,30170.0,42821.0,57298.0,9934.0,4813.0,1635.0,658.0,854.0
813362,County,2020/09/11,21.0,KY,21037.0,Campbell County,20957.0,72195.0,319762.0,77394.0,78405.0,35777.0,46292.0,63582.0,9730.0,5039.0,2210.0,575.0,758.0
816509,County,2020/09/12,21.0,KY,21037.0,Campbell County,23462.0,69690.0,281728.0,66865.0,64384.0,31680.0,47352.0,52487.0,10795.0,5207.0,1652.0,569.0,737.0
818164,County,2020/09/13,21.0,KY,21037.0,Campbell County,24664.0,68488.0,225903.0,46561.0,60699.0,25474.0,35246.0,39373.0,8804.0,5635.0,2172.0,916.0,1023.0
821369,County,2020/09/14,21.0,KY,21037.0,Campbell County,23510.0,69642.0,302449.0,79833.0,72227.0,34206.0,44203.0,57050.0,8723.0,3358.0,1530.0,416.0,903.0
826138,County,2020/09/15,21.0,KY,21037.0,Campbell County,22880.0,70272.0,307266.0,80582.0,73928.0,32620.0,45893.0,57923.0,9855.0,3910.0,1166.0,492.0,897.0
827766,County,2020/09/16,21.0,KY,21037.0,Campbell County,22170.0,70982.0,299349.0,67068.0,75804.0,32388.0,45223.0,62373.0,9086.0,4440.0,1604.0,476.0,887.0
832509,County,2020/09/17,21.0,KY,21037.0,Campbell County,21997.0,71155.0,309759.0,75895.0,75559.0,33766.0,46182.0,62031.0,10327.0,3161.0,1388.0,666.0,784.0
834138,County,2020/09/18,21.0,KY,21037.0,Campbell County,21685.0,71467.0,326088.0,81116.0,80812.0,32130.0,50558.0,63247.0,10299.0,4222.0,2155.0,944.0,605.0
838913,County,2020/09/19,21.0,KY,21037.0,Campbell County,22340.0,70812.0,336134.0,86230.0,85012.0,35606.0,50812.0,60762.0,10032.0,4315.0,2172.0,619.0,574.0
840542,County,2020/09/20,21.0,KY,21037.0,Campbell County,22473.0,70679.0,260957.0,63920.0,62381.0,32096.0,41700.0,42534.0,9803.0,4869.0,2610.0,622.0,422.0
845329,County,2020/09/21,21.0,KY,21037.0,Campbell County,23348.0,69804.0,274658.0,67381.0,66857.0,29444.0,42193.0,55275.0,8697.0,2472.0,1667.0,480.0,192.0
846908,County,2020/09/22,21.0,KY,21037.0,Campbell County,21574.0,71578.0,325588.0,85156.0,82435.0,32779.0,47088.0,63499.0,10262.0,2777.0,1101.0,427.0,64.0
851686,County,2020/09/23,21.0,KY,21037.0,Campbell County,20165.0,72987.0,325500.0,84901.0,80259.0,33793.0,51783.0,61642.0,9188.0,2476.0,993.0,315.0,150.0
853314,County,2020/09/24,21.0,KY,21037.0,Campbell County,20072.0,73080.0,319422.0,77066.0,75114.0,34618.0,49506.0,67457.0,10286.0,3579.0,1231.0,438.0,127.0
858078,County,2020/09/25,21.0,KY,21037.0,Campbell County,18182.0,74970.0,341706.0,86468.0,82684.0,35706.0,53298.0,67007.0,10992.0,3365.0,1571.0,520.0,95.0
859706,County,2020/09/26,21.0,KY,21037.0,Campbell County,20326.0,72826.0,333946.0,80890.0,83107.0,37375.0,53601.0,60353.0,11982.0,4892.0,1421.0,237.0,88.0
862878,County,2020/09/27,21.0,KY,21037.0,Campbell County,21012.0,72140.0,304392.0,81139.0,77957.0,35782.0,41434.0,50867.0,9579.0,4745.0,2213.0,563.0,113.0
866081,County,2020/09/28,21.0,KY,21037.0,Campbell County,21145.0,72007.0,298375.0,72898.0,73533.0,34265.0,44793.0,60612.0,8893.0,1844.0,1153.0,272.0,112.0
870853,County,2020/09/29,21.0,KY,21037.0,Campbell County,21773.0,71379.0,309345.0,74037.0,72312.0,38560.0,45694.0,62137.0,10746.0,3978.0,1237.0,442.0,202.0
872482,County,2020/09/30,21.0,KY,21037.0,Campbell County,21399.0,71753.0,317481.0,73756.0,76325.0,35432.0,51485.0,64968.0,9187.0,4283.0,1520.0,351.0,174.0
875647,County,2020/10/01,21.0,KY,21037.0,Campbell County,20106.0,73046.0,319648.0,71728.0,75731.0,35174.0,54448.0,63915.0,12183.0,4216.0,1472.0,543.0,238.0
878850,County,2020/10/02,21.0,KY,21037.0,Campbell County,19886.0,73266.0,322570.0,77225.0,78090.0,37475.0,50379.0,60941.0,10400.0,5428.0,2040.0,406.0,186.0
883632,County,2020/10/03,21.0,KY,21037.0,Campbell County,21962.0,71190.0,316287.0,81668.0,71750.0,39663.0,52180.0,54281.0,9456.0,4781.0,1942.0,415.0,151.0
885681,County,2020/10/04,21.0,KY,21037.0,Campbell County,24162.0,68990.0,260164.0,63652.0,67815.0,26863.0,40023.0,46677.0,8077.0,4794.0,1652.0,460.0,151.0
888927,County,2020/10/05,21.0,KY,21037.0,Campbell County,24437.0,68715.0,271591.0,65313.0,64591.0,31984.0,37137.0,55071.0,10840.0,4616.0,1396.0,434.0,209.0
892112,County,2020/10/06,21.0,KY,21037.0,Campbell County,21993.0,71159.0,323995.0,76176.0,81227.0,38093.0,47480.0,63344.0,11856.0,4114.0,1103.0,448.0,154.0
895300,County,2020/10/07,21.0,KY,21037.0,Campbell County,21655.0,71497.0,317141.0,74276.0,75674.0,35728.0,51626.0,62260.0,11115.0,4582.0,1283.0,432.0,165.0
898485,County,2020/10/08,21.0,KY,21037.0,Campbell County,21842.0,71310.0,306079.0,75749.0,70331.0,32201.0,44371.0,66595.0,10512.0,4300.0,1448.0,338.0,234.0
901714,County,2020/10/09,21.0,KY,21037.0,Campbell County,21750.0,71402.0,311392.0,69460.0,80106.0,35031.0,43650.0,63347.0,12143.0,5448.0,1482.0,561.0,164.0
904904,County,2020/10/10,21.0,KY,21037.0,Campbell County,23279.0,69873.0,297010.0,73214.0,74302.0,32282.0,45084.0,52189.0,12436.0,5122.0,1623.0,557.0,201.0
909745,County,2020/10/11,21.0,KY,21037.0,Campbell County,24426.0,68726.0,244964.0,56668.0,64185.0,26228.0,39768.0,42215.0,9597.0,4076.0,1549.0,528.0,150.0
912689,County,2020/10/12,21.0,KY,21037.0,Campbell County,23188.0,69964.0,282244.0,66849.0,69095.0,30426.0,39793.0,60509.0,9362.0,4013.0,1560.0,494.0,143.0
915561,County,2020/10/13,21.0,KY,21037.0,Campbell County,21800.0,71352.0,291288.0,61107.0,70644.0,32364.0,45424.0,63220.0,12539.0,4126.0,1284.0,435.0,145.0
918865,County,2020/10/14,21.0,KY,21037.0,Campbell County,21793.0,71359.0,304002.0,72253.0,74743.0,32018.0,45849.0,61006.0,10089.0,5953.0,1329.0,608.0,154.0
922399,County,2020/10/15,21.0,KY,21037.0,Campbell County,22505.0,70647.0,256780.0,55843.0,61780.0,27771.0,41438.0,53028.0,10004.0,4740.0,1453.0,514.0,209.0
925460,County,2020/10/16,21.0,KY,21037.0,Campbell County,20846.0,72306.0,305417.0,67942.0,76973.0,34355.0,49240.0,59832.0,10749.0,4207.0,1350.0,560.0,209.0
928323,County,2020/10/17,21.0,KY,21037.0,Campbell County,22764.0,70388.0,299238.0,69357.0,79230.0,34847.0,45503.0,53196.0,10580.0,4248.0,1321.0,741.0,215.0
931395,County,2020/10/18,21.0,KY,21037.0,Campbell County,23585.0,69567.0,248385.0,51184.0,66704.0,29221.0,41380.0,44007.0,9282.0,3424.0,2417.0,609.0,157.0
935077,County,2020/10/19,21.0,KY,21037.0,Campbell County,22412.0,70740.0,280647.0,65045.0,74912.0,29426.0,41501.0,56047.0,8614.0,3055.0,1406.0,478.0,163.0
937922,County,2020/10/20,21.0,KY,21037.0,Campbell County,22914.0,70238.0,285309.0,69052.0,74320.0,29853.0,42433.0,55701.0,8378.0,3800.0,1232.0,384.0,156.0
941493,County,2020/10/21,21.0,KY,21037.0,Campbell County,22430.0,70722.0,281760.0,59353.0,71210.0,31246.0,46963.0,57242.0,10052.0,3656.0,1270.0,614.0,154.0
944646,County,2020/10/22,21.0,KY,21037.0,Campbell County,21554.0,71598.0,306413.0,70491.0,78000.0,31101.0,49398.0,61647.0,10570.0,3190.0,1333.0,556.0,127.0
947574,County,2020/10/23,21.0,KY,21037.0,Campbell County,20286.0,72866.0,343025.0,85732.0,90494.0,37751.0,49771.0,62499.0,10128.0,4671.0,1360.0,499.0,120.0
950823,County,2020/10/24,21.0,KY,21037.0,Campbell County,21235.0,71917.0,339425.0,81468.0,89601.0,36617.0,52910.0,61350.0,11963.0,3858.0,1168.0,378.0,112.0
