,Level,Date,State FIPS,State Postal Code,County FIPS,County Name,Population Staying at Home,Population Not Staying at Home,Number of Trips,Number of Trips <1,Number of Trips 1-3,Number of Trips 3-5,Number of Trips 5-10,Number of Trips 10-25,Number of Trips 25-50,Number of Trips 50-100,Number of Trips 100-250,Number of Trips 250-500,Number of Trips >=500
1990,County,2020/01/01,38.0,ND,38003.0,Barnes County,3258.0,7284.0,30258.0,10689.0,7858.0,881.0,2453.0,3439.0,2141.0,1847.0,898.0,41.0,11.0
5035,County,2020/01/02,38.0,ND,38003.0,Barnes County,2754.0,7788.0,39256.0,15144.0,10179.0,1311.0,2696.0,3805.0,3564.0,1874.0,621.0,60.0,2.0
8276,County,2020/01/03,38.0,ND,38003.0,Barnes County,2529.0,8013.0,41809.0,16644.0,11298.0,1406.0,2062.0,4860.0,3408.0,1583.0,444.0,95.0,9.0
10792,County,2020/01/04,38.0,ND,38003.0,Barnes County,2881.0,7661.0,36452.0,12718.0,8489.0,2193.0,2610.0,5384.0,3060.0,1512.0,437.0,35.0,14.0
14766,County,2020/01/05,38.0,ND,38003.0,Barnes County,3219.0,7323.0,30881.0,11504.0,9189.0,1474.0,953.0,3562.0,1663.0,2060.0,399.0,57.0,20.0
18595,County,2020/01/06,38.0,ND,38003.0,Barnes County,2492.0,8050.0,39316.0,13256.0,11402.0,1991.0,1886.0,5108.0,3096.0,1804.0,662.0,109.0,2.0
21741,County,2020/01/07,38.0,ND,38003.0,Barnes County,2609.0,7933.0,37536.0,13753.0,9182.0,2058.0,2573.0,4610.0,3361.0,1532.0,410.0,44.0,13.0
23417,County,2020/01/08,38.0,ND,38003.0,Barnes County,2768.0,7774.0,33224.0,12227.0,9131.0,862.0,2254.0,4672.0,2734.0,847.0,408.0,65.0,24.0
28116,County,2020/01/09,38.0,ND,38003.0,Barnes County,2628.0,7914.0,32238.0,9318.0,8618.0,995.0,1800.0,4885.0,3591.0,2085.0,894.0,40.0,12.0
31323,County,2020/01/10,38.0,ND,38003.0,Barnes County,2796.0,7746.0,34800.0,11766.0,10017.0,1311.0,2256.0,4571.0,2700.0,1672.0,431.0,57.0,19.0
33000,County,2020/01/11,38.0,ND,38003.0,Barnes County,3003.0,7539.0,32060.0,10918.0,8234.0,1468.0,2421.0,3604.0,2139.0,2051.0,1158.0,62.0,5.0
36156,County,2020/01/12,38.0,ND,38003.0,Barnes County,3114.0,7428.0,26638.0,9271.0,5832.0,1602.0,1305.0,2413.0,3181.0,2082.0,849.0,90.0,13.0
39350,County,2020/01/13,38.0,ND,38003.0,Barnes County,2782.0,7760.0,35203.0,13679.0,8008.0,1108.0,1754.0,5167.0,2749.0,2089.0,577.0,56.0,16.0
44083,County,2020/01/14,38.0,ND,38003.0,Barnes County,2689.0,7853.0,34934.0,11970.0,8001.0,1449.0,1873.0,6100.0,3445.0,1736.0,343.0,0.0,17.0
47288,County,2020/01/15,38.0,ND,38003.0,Barnes County,2819.0,7723.0,37399.0,15615.0,11132.0,826.0,2685.0,3887.0,2096.0,974.0,98.0,73.0,13.0
48817,County,2020/01/16,38.0,ND,38003.0,Barnes County,2667.0,7875.0,37906.0,17212.0,9748.0,1138.0,1679.0,3727.0,2569.0,1608.0,187.0,30.0,8.0
53732,County,2020/01/17,38.0,ND,38003.0,Barnes County,2986.0,7556.0,32369.0,12802.0,9453.0,980.0,1342.0,3969.0,2328.0,919.0,537.0,31.0,8.0
55305,County,2020/01/18,38.0,ND,38003.0,Barnes County,4098.0,6444.0,23975.0,8746.0,7878.0,1019.0,1037.0,3671.0,805.0,427.0,289.0,103.0,0.0
58453,County,2020/01/19,38.0,ND,38003.0,Barnes County,3445.0,7097.0,26469.0,8497.0,10558.0,934.0,1282.0,2183.0,1279.0,1328.0,316.0,81.0,11.0
61685,County,2020/01/20,38.0,ND,38003.0,Barnes County,2843.0,7699.0,34253.0,12452.0,8976.0,1120.0,1448.0,4103.0,3370.0,2068.0,656.0,43.0,17.0
64891,County,2020/01/21,38.0,ND,38003.0,Barnes County,2780.0,7762.0,35720.0,12677.0,10828.0,1265.0,1181.0,4679.0,3163.0,1440.0,416.0,67.0,4.0
69651,County,2020/01/22,38.0,ND,38003.0,Barnes County,2794.0,7748.0,38887.0,14337.0,10729.0,981.0,1786.0,5528.0,3503.0,1655.0,309.0,55.0,4.0
71277,County,2020/01/23,38.0,ND,38003.0,Barnes County,2826.0,7716.0,36858.0,15582.0,8807.0,1341.0,1283.0,5318.0,2269.0,1891.0,342.0,10.0,15.0
75991,County,2020/01/24,38.0,ND,38003.0,Barnes County,2727.0,7815.0,37843.0,13899.0,8509.0,1236.0,2370.0,5719.0,4063.0,1690.0,305.0,43.0,9.0
79226,County,2020/01/25,38.0,ND,38003.0,Barnes County,2701.0,7841.0,33418.0,11292.0,8014.0,1569.0,2175.0,4143.0,3084.0,2652.0,431.0,41.0,17.0
81840,County,2020/01/26,38.0,ND,38003.0,Barnes County,3091.0,7451.0,26391.0,8485.0,6802.0,1058.0,1448.0,2917.0,2827.0,2159.0,580.0,101.0,14.0
85590,County,2020/01/27,38.0,ND,38003.0,Barnes County,2687.0,7855.0,36724.0,14030.0,9102.0,1123.0,1906.0,5684.0,3341.0,1338.0,145.0,51.0,4.0
89346,County,2020/01/28,38.0,ND,38003.0,Barnes County,2580.0,7962.0,37764.0,12676.0,11603.0,801.0,1245.0,5898.0,3783.0,1363.0,379.0,0.0,16.0
90418,County,2020/01/29,38.0,ND,38003.0,Barnes County,2588.0,7954.0,36372.0,14474.0,9967.0,944.0,1011.0,5609.0,2801.0,1353.0,141.0,50.0,22.0
95202,County,2020/01/30,38.0,ND,38003.0,Barnes County,2664.0,7878.0,38930.0,15457.0,10874.0,1390.0,1789.0,4550.0,2541.0,1708.0,499.0,106.0,16.0
98396,County,2020/01/31,38.0,ND,38003.0,Barnes County,2430.0,8112.0,41051.0,14653.0,11449.0,1801.0,1935.0,5085.0,3759.0,1604.0,639.0,100.0,26.0
100075,County,2020/02/01,38.0,ND,38003.0,Barnes County,2334.0,8208.0,34108.0,9504.0,9378.0,1380.0,1712.0,4299.0,4018.0,2519.0,1138.0,144.0,16.0
104737,County,2020/02/02,38.0,ND,38003.0,Barnes County,3068.0,7474.0,30733.0,9913.0,8202.0,1337.0,2093.0,4628.0,2610.0,1185.0,584.0,145.0,36.0
107989,County,2020/02/03,38.0,ND,38003.0,Barnes County,2612.0,7930.0,38881.0,14552.0,10095.0,1320.0,1244.0,6196.0,2880.0,2121.0,375.0,80.0,18.0
111125,County,2020/02/04,38.0,ND,38003.0,Barnes County,2583.0,7959.0,39856.0,15239.0,9903.0,1389.0,2111.0,5756.0,3232.0,1683.0,411.0,105.0,27.0
112752,County,2020/02/05,38.0,ND,38003.0,Barnes County,2295.0,8247.0,40092.0,15661.0,10738.0,1160.0,1311.0,5897.0,3504.0,1085.0,627.0,84.0,25.0
115896,County,2020/02/06,38.0,ND,38003.0,Barnes County,2540.0,8002.0,37430.0,13317.0,9823.0,1143.0,2216.0,4946.0,3501.0,1883.0,464.0,107.0,30.0
120789,County,2020/02/07,38.0,ND,38003.0,Barnes County,2345.0,8197.0,35870.0,12130.0,9592.0,1099.0,2056.0,3945.0,3339.0,2747.0,880.0,60.0,22.0
123949,County,2020/02/08,38.0,ND,38003.0,Barnes County,2589.0,7953.0,35824.0,10991.0,9723.0,1426.0,2703.0,4393.0,2507.0,3120.0,873.0,76.0,12.0
126004,County,2020/02/09,38.0,ND,38003.0,Barnes County,3093.0,7449.0,28121.0,8605.0,7657.0,1128.0,1985.0,3420.0,2546.0,1620.0,950.0,143.0,67.0
130299,County,2020/02/10,38.0,ND,38003.0,Barnes County,2511.0,8031.0,35813.0,13064.0,9302.0,1161.0,2203.0,4953.0,2900.0,1347.0,707.0,117.0,59.0
132455,County,2020/02/11,38.0,ND,38003.0,Barnes County,2230.0,8312.0,38204.0,12281.0,11429.0,1248.0,1500.0,5620.0,3345.0,1881.0,776.0,63.0,61.0
135584,County,2020/02/12,38.0,ND,38003.0,Barnes County,2875.0,7667.0,31831.0,9899.0,10161.0,1104.0,1825.0,5004.0,1964.0,1201.0,442.0,120.0,111.0
139918,County,2020/02/13,38.0,ND,38003.0,Barnes County,2350.0,8192.0,33938.0,11701.0,9276.0,1194.0,2160.0,4169.0,3232.0,1168.0,791.0,169.0,78.0
141449,County,2020/02/14,38.0,ND,38003.0,Barnes County,2202.0,8340.0,38135.0,12461.0,10269.0,1353.0,2295.0,5015.0,3188.0,2543.0,829.0,104.0,78.0
144745,County,2020/02/15,38.0,ND,38003.0,Barnes County,2446.0,8096.0,34749.0,9489.0,7941.0,1787.0,2539.0,5551.0,2947.0,2929.0,1388.0,102.0,76.0
149480,County,2020/02/16,38.0,ND,38003.0,Barnes County,2644.0,7898.0,29253.0,8430.0,7240.0,1951.0,2207.0,4031.0,2516.0,2191.0,440.0,112.0,135.0
151108,County,2020/02/17,38.0,ND,38003.0,Barnes County,3041.0,7501.0,28473.0,7449.0,8925.0,1098.0,1499.0,4526.0,2478.0,1747.0,574.0,130.0,47.0
155840,County,2020/02/18,38.0,ND,38003.0,Barnes County,2423.0,8119.0,35917.0,10780.0,10337.0,1185.0,2009.0,6414.0,3650.0,621.0,776.0,73.0,72.0
157517,County,2020/02/19,38.0,ND,38003.0,Barnes County,2440.0,8102.0,35025.0,11549.0,11407.0,1486.0,1517.0,4391.0,3351.0,653.0,544.0,68.0,59.0
160578,County,2020/02/20,38.0,ND,38003.0,Barnes County,2338.0,8204.0,36179.0,10706.0,11665.0,1366.0,1602.0,4886.0,3367.0,2120.0,336.0,112.0,19.0
163856,County,2020/02/21,38.0,ND,38003.0,Barnes County,2320.0,8222.0,41199.0,14863.0,11649.0,1256.0,2366.0,5327.0,2413.0,2241.0,880.0,178.0,26.0
168616,County,2020/02/22,38.0,ND,38003.0,Barnes County,2240.0,8302.0,40260.0,13106.0,11666.0,2553.0,1985.0,4178.0,2819.0,2786.0,1007.0,128.0,32.0
170278,County,2020/02/23,38.0,ND,38003.0,Barnes County,2536.0,8006.0,34473.0,12392.0,9597.0,1342.0,1517.0,3437.0,2763.0,2445.0,884.0,82.0,14.0
175059,County,2020/02/24,38.0,ND,38003.0,Barnes County,2435.0,8107.0,39373.0,12493.0,13713.0,1358.0,1164.0,5900.0,2693.0,1373.0,576.0,75.0,28.0
177661,County,2020/02/25,38.0,ND,38003.0,Barnes County,2311.0,8231.0,41157.0,13192.0,12159.0,1344.0,2377.0,6692.0,3162.0,1836.0,277.0,94.0,24.0
180854,County,2020/02/26,38.0,ND,38003.0,Barnes County,2268.0,8274.0,36837.0,9005.0,10860.0,2279.0,2577.0,7460.0,1966.0,1825.0,762.0,81.0,22.0
184630,County,2020/02/27,38.0,ND,38003.0,Barnes County,2570.0,7972.0,41327.0,14508.0,11248.0,2188.0,2041.0,6535.0,2592.0,1776.0,311.0,110.0,18.0
186356,County,2020/02/28,38.0,ND,38003.0,Barnes County,2313.0,8229.0,43039.0,15633.0,11440.0,1775.0,1949.0,5229.0,4118.0,2179.0,672.0,30.0,14.0
189409,County,2020/02/29,38.0,ND,38003.0,Barnes County,2413.0,8129.0,38151.0,12097.0,9004.0,1734.0,2221.0,5770.0,3129.0,2785.0,1313.0,70.0,28.0
192648,County,2020/03/01,38.0,ND,38003.0,Barnes County,2632.0,7910.0,27263.0,8868.0,8130.0,1175.0,1329.0,3174.0,2253.0,1478.0,779.0,48.0,29.0
197398,County,2020/03/02,38.0,ND,38003.0,Barnes County,2569.0,7973.0,37867.0,14179.0,10922.0,850.0,2071.0,5566.0,2582.0,753.0,867.0,53.0,24.0
200623,County,2020/03/03,38.0,ND,38003.0,Barnes County,2382.0,8160.0,40067.0,13376.0,10565.0,1746.0,2161.0,6256.0,3187.0,2350.0,315.0,84.0,27.0
203809,County,2020/03/04,38.0,ND,38003.0,Barnes County,2521.0,8021.0,35984.0,10389.0,10222.0,829.0,1593.0,6373.0,4579.0,1215.0,627.0,150.0,7.0
205376,County,2020/03/05,38.0,ND,38003.0,Barnes County,2155.0,8387.0,35068.0,13159.0,9787.0,1089.0,2725.0,4836.0,2193.0,896.0,295.0,47.0,41.0
208495,County,2020/03/06,38.0,ND,38003.0,Barnes County,2100.0,8442.0,40412.0,13964.0,10601.0,1855.0,3410.0,5189.0,2878.0,1863.0,586.0,32.0,34.0
213410,County,2020/03/07,38.0,ND,38003.0,Barnes County,2112.0,8430.0,33586.0,8917.0,10129.0,813.0,1470.0,4920.0,3208.0,3150.0,769.0,164.0,46.0
215011,County,2020/03/08,38.0,ND,38003.0,Barnes County,2393.0,8149.0,28641.0,6613.0,6957.0,1417.0,1602.0,6524.0,2598.0,2134.0,588.0,161.0,47.0
219769,County,2020/03/09,38.0,ND,38003.0,Barnes County,2275.0,8267.0,34658.0,10983.0,9411.0,1772.0,1917.0,5297.0,2608.0,1938.0,583.0,109.0,40.0
221398,County,2020/03/10,38.0,ND,38003.0,Barnes County,2447.0,8095.0,36130.0,12116.0,10691.0,1588.0,2515.0,4290.0,2688.0,1664.0,451.0,97.0,30.0
224587,County,2020/03/11,38.0,ND,38003.0,Barnes County,2146.0,8396.0,39217.0,15529.0,10469.0,1000.0,1131.0,5564.0,2256.0,2933.0,189.0,81.0,65.0
229284,County,2020/03/12,38.0,ND,38003.0,Barnes County,2216.0,8326.0,39604.0,14702.0,8390.0,2116.0,2826.0,4407.0,3254.0,2822.0,909.0,155.0,23.0
232552,County,2020/03/13,38.0,ND,38003.0,Barnes County,2194.0,8348.0,39800.0,9276.0,10150.0,2201.0,3732.0,6843.0,4469.0,2536.0,417.0,132.0,44.0
234130,County,2020/03/14,38.0,ND,38003.0,Barnes County,2550.0,7992.0,24096.0,5604.0,5421.0,1957.0,2705.0,2491.0,2944.0,1822.0,1029.0,87.0,36.0
237366,County,2020/03/15,38.0,ND,38003.0,Barnes County,2774.0,7768.0,26587.0,7990.0,6400.0,2054.0,1519.0,4396.0,1782.0,1738.0,599.0,64.0,45.0
240560,County,2020/03/16,38.0,ND,38003.0,Barnes County,2715.0,7827.0,34295.0,9591.0,9250.0,1763.0,2825.0,5411.0,3150.0,1385.0,765.0,104.0,51.0
243694,County,2020/03/17,38.0,ND,38003.0,Barnes County,2972.0,7570.0,37725.0,11954.0,10855.0,1789.0,2374.0,5854.0,3070.0,1222.0,515.0,63.0,29.0
248474,County,2020/03/18,38.0,ND,38003.0,Barnes County,3188.0,7354.0,31458.0,8467.0,8839.0,1358.0,2133.0,5927.0,2979.0,1264.0,429.0,31.0,31.0
251680,County,2020/03/19,38.0,ND,38003.0,Barnes County,3440.0,7102.0,32287.0,11977.0,10364.0,1292.0,1643.0,3568.0,1822.0,1354.0,153.0,81.0,33.0
253338,County,2020/03/20,38.0,ND,38003.0,Barnes County,3290.0,7252.0,31937.0,9255.0,8507.0,2302.0,3068.0,4172.0,2227.0,1982.0,311.0,83.0,30.0
258096,County,2020/03/21,38.0,ND,38003.0,Barnes County,3716.0,6826.0,25044.0,7481.0,6334.0,1894.0,2366.0,4078.0,1349.0,1253.0,188.0,80.0,21.0
259717,County,2020/03/22,38.0,ND,38003.0,Barnes County,3802.0,6740.0,21043.0,5774.0,7235.0,1422.0,1206.0,2715.0,1336.0,496.0,673.0,167.0,19.0
262921,County,2020/03/23,38.0,ND,38003.0,Barnes County,2944.0,7598.0,30086.0,10483.0,8180.0,1010.0,2854.0,3659.0,2359.0,1209.0,273.0,44.0,15.0
267676,County,2020/03/24,38.0,ND,38003.0,Barnes County,3070.0,7472.0,24353.0,6875.0,6503.0,978.0,1936.0,3469.0,3126.0,940.0,309.0,197.0,20.0
269306,County,2020/03/25,38.0,ND,38003.0,Barnes County,3254.0,7288.0,26618.0,8856.0,6080.0,1951.0,1805.0,3919.0,2201.0,1394.0,336.0,54.0,22.0
274047,County,2020/03/26,38.0,ND,38003.0,Barnes County,3329.0,7213.0,25804.0,8388.0,7778.0,1127.0,1176.0,2837.0,2542.0,1362.0,492.0,70.0,32.0
275687,County,2020/03/27,38.0,ND,38003.0,Barnes County,3178.0,7364.0,32641.0,12139.0,8138.0,1306.0,2171.0,4526.0,2426.0,1288.0,582.0,46.0,19.0
280448,County,2020/03/28,38.0,ND,38003.0,Barnes County,3290.0,7252.0,22932.0,7760.0,5249.0,1134.0,1374.0,3844.0,2101.0,1018.0,383.0,49.0,20.0
282083,County,2020/03/29,38.0,ND,38003.0,Barnes County,3760.0,6782.0,24493.0,9592.0,6051.0,317.0,1551.0,4836.0,1190.0,442.0,399.0,85.0,30.0
285228,County,2020/03/30,38.0,ND,38003.0,Barnes County,3196.0,7346.0,26868.0,9044.0,7893.0,1138.0,1046.0,4076.0,2167.0,1342.0,67.0,72.0,23.0
290031,County,2020/03/31,38.0,ND,38003.0,Barnes County,3368.0,7174.0,26539.0,9464.0,6163.0,730.0,2016.0,4113.0,2652.0,1019.0,307.0,65.0,10.0
293230,County,2020/04/01,38.0,ND,38003.0,Barnes County,3339.0,7203.0,28622.0,9091.0,7040.0,966.0,2521.0,5230.0,2850.0,623.0,211.0,75.0,15.0
294859,County,2020/04/02,38.0,ND,38003.0,Barnes County,3415.0,7127.0,20348.0,5570.0,6727.0,380.0,1203.0,3857.0,686.0,1035.0,791.0,77.0,22.0
299619,County,2020/04/03,38.0,ND,38003.0,Barnes County,3389.0,7153.0,30148.0,11322.0,8985.0,1341.0,1137.0,4116.0,1986.0,703.0,476.0,51.0,31.0
302799,County,2020/04/04,38.0,ND,38003.0,Barnes County,3303.0,7239.0,20004.0,5293.0,7442.0,982.0,1480.0,2410.0,1476.0,600.0,232.0,66.0,23.0
306001,County,2020/04/05,38.0,ND,38003.0,Barnes County,3577.0,6965.0,18480.0,5863.0,2337.0,888.0,2232.0,2746.0,2894.0,930.0,467.0,99.0,24.0
307636,County,2020/04/06,38.0,ND,38003.0,Barnes County,3241.0,7301.0,28431.0,9790.0,7403.0,1485.0,1492.0,4861.0,2140.0,1037.0,156.0,50.0,17.0
310829,County,2020/04/07,38.0,ND,38003.0,Barnes County,3070.0,7472.0,34699.0,16150.0,7152.0,558.0,2163.0,4435.0,2337.0,1586.0,302.0,0.0,16.0
314023,County,2020/04/08,38.0,ND,38003.0,Barnes County,3358.0,7184.0,28245.0,11423.0,7381.0,449.0,1420.0,5287.0,1518.0,752.0,0.0,0.0,15.0
318733,County,2020/04/09,38.0,ND,38003.0,Barnes County,3460.0,7082.0,30705.0,9608.0,8132.0,989.0,1900.0,5663.0,2788.0,1243.0,374.0,0.0,8.0
320419,County,2020/04/10,38.0,ND,38003.0,Barnes County,3125.0,7417.0,27766.0,9220.0,5813.0,1320.0,1393.0,5329.0,3177.0,830.0,666.0,0.0,18.0
325172,County,2020/04/11,38.0,ND,38003.0,Barnes County,3477.0,7065.0,25665.0,7745.0,6585.0,813.0,2068.0,4490.0,2178.0,1384.0,385.0,0.0,17.0
328338,County,2020/04/12,38.0,ND,38003.0,Barnes County,4160.0,6382.0,18064.0,7457.0,4068.0,408.0,1230.0,2671.0,767.0,428.0,1030.0,0.0,5.0
331560,County,2020/04/13,38.0,ND,38003.0,Barnes County,3279.0,7263.0,25737.0,6716.0,6364.0,1673.0,2489.0,4035.0,2284.0,1568.0,583.0,18.0,7.0
334686,County,2020/04/14,38.0,ND,38003.0,Barnes County,3134.0,7408.0,37505.0,9179.0,6828.0,2644.0,5340.0,9583.0,2557.0,1187.0,179.0,0.0,8.0
336363,County,2020/04/15,38.0,ND,38003.0,Barnes County,3279.0,7263.0,32435.0,9822.0,6719.0,3281.0,4240.0,3836.0,1850.0,1473.0,1110.0,94.0,10.0
341082,County,2020/04/16,38.0,ND,38003.0,Barnes County,3281.0,7261.0,25305.0,4797.0,5016.0,2236.0,2781.0,7318.0,1766.0,703.0,634.0,45.0,9.0
344345,County,2020/04/17,38.0,ND,38003.0,Barnes County,3240.0,7302.0,23796.0,4736.0,4074.0,1257.0,3411.0,5349.0,2836.0,1844.0,238.0,51.0,0.0
347492,County,2020/04/18,38.0,ND,38003.0,Barnes County,3223.0,7319.0,21638.0,5054.0,3673.0,983.0,1778.0,7074.0,1551.0,1235.0,186.0,79.0,25.0
350675,County,2020/04/19,38.0,ND,38003.0,Barnes County,3525.0,7017.0,20828.0,7959.0,4243.0,785.0,1776.0,3428.0,1477.0,1097.0,0.0,53.0,10.0
353924,County,2020/04/20,38.0,ND,38003.0,Barnes County,2817.0,7725.0,26297.0,5686.0,6393.0,446.0,2017.0,6570.0,3774.0,934.0,422.0,45.0,10.0
357061,County,2020/04/21,38.0,ND,38003.0,Barnes County,3066.0,7476.0,27065.0,8702.0,5143.0,578.0,2613.0,5807.0,3258.0,951.0,0.0,0.0,13.0
358738,County,2020/04/22,38.0,ND,38003.0,Barnes County,3156.0,7386.0,28771.0,9283.0,7170.0,719.0,2439.0,5443.0,2535.0,753.0,425.0,0.0,4.0
361844,County,2020/04/23,38.0,ND,38003.0,Barnes County,3135.0,7407.0,29890.0,11603.0,6427.0,1594.0,2332.0,4296.0,2221.0,1179.0,177.0,57.0,4.0
365098,County,2020/04/24,38.0,ND,38003.0,Barnes County,2890.0,7652.0,37150.0,12937.0,6639.0,1372.0,2555.0,7925.0,3824.0,1437.0,458.0,0.0,3.0
368265,County,2020/04/25,38.0,ND,38003.0,Barnes County,3239.0,7303.0,28551.0,9877.0,6336.0,1201.0,1986.0,4841.0,3545.0,678.0,87.0,0.0,0.0
373034,County,2020/04/26,38.0,ND,38003.0,Barnes County,3455.0,7087.0,25968.0,6902.0,5418.0,828.0,1989.0,5759.0,3035.0,1518.0,490.0,21.0,8.0
374708,County,2020/04/27,38.0,ND,38003.0,Barnes County,3175.0,7367.0,31724.0,8693.0,9470.0,950.0,1855.0,6217.0,2922.0,1447.0,163.0,0.0,7.0
379387,County,2020/04/28,38.0,ND,38003.0,Barnes County,3142.0,7400.0,29880.0,9898.0,7367.0,1371.0,1453.0,6029.0,2222.0,1167.0,324.0,35.0,14.0
381111,County,2020/04/29,38.0,ND,38003.0,Barnes County,2948.0,7594.0,37143.0,14741.0,9526.0,521.0,2259.0,6397.0,2253.0,728.0,658.0,53.0,7.0
384259,County,2020/04/30,38.0,ND,38003.0,Barnes County,3021.0,7521.0,34682.0,13604.0,8576.0,516.0,2140.0,5349.0,3396.0,811.0,244.0,35.0,11.0
389045,County,2020/05/01,38.0,ND,38003.0,Barnes County,2979.0,7563.0,29990.0,9635.0,7219.0,734.0,2029.0,5474.0,3313.0,1197.0,386.0,0.0,3.0
392244,County,2020/05/02,38.0,ND,38003.0,Barnes County,3251.0,7291.0,32177.0,12895.0,5871.0,1250.0,1956.0,5506.0,3470.0,806.0,364.0,39.0,20.0
393879,County,2020/05/03,38.0,ND,38003.0,Barnes County,3159.0,7383.0,28257.0,10348.0,6696.0,1168.0,1056.0,4970.0,1976.0,1346.0,663.0,24.0,10.0
398633,County,2020/05/04,38.0,ND,38003.0,Barnes County,3142.0,7400.0,27446.0,8244.0,6708.0,1277.0,2166.0,5076.0,2264.0,1434.0,259.0,18.0,0.0
400260,County,2020/05/05,38.0,ND,38003.0,Barnes County,3046.0,7496.0,27941.0,10594.0,5654.0,978.0,1710.0,6114.0,1906.0,745.0,168.0,72.0,0.0
405015,County,2020/05/06,38.0,ND,38003.0,Barnes County,2963.0,7579.0,33389.0,13315.0,7421.0,1488.0,1963.0,5413.0,2891.0,780.0,78.0,33.0,7.0
406642,County,2020/05/07,38.0,ND,38003.0,Barnes County,3061.0,7481.0,29989.0,11667.0,6614.0,1014.0,2118.0,4853.0,2025.0,1063.0,591.0,31.0,13.0
409947,County,2020/05/08,38.0,ND,38003.0,Barnes County,2965.0,7577.0,32076.0,12309.0,8217.0,1199.0,1259.0,4624.0,2608.0,1435.0,405.0,17.0,3.0
414569,County,2020/05/09,38.0,ND,38003.0,Barnes County,3180.0,7362.0,29897.0,11009.0,6944.0,1416.0,2776.0,3864.0,2769.0,890.0,179.0,38.0,12.0
417749,County,2020/05/10,38.0,ND,38003.0,Barnes County,3325.0,7217.0,27475.0,9569.0,5989.0,511.0,1387.0,4518.0,3114.0,2035.0,290.0,62.0,0.0
420979,County,2020/05/11,38.0,ND,38003.0,Barnes County,2378.0,8164.0,41381.0,14465.0,9958.0,1982.0,2377.0,7177.0,3117.0,1699.0,568.0,36.0,2.0
422657,County,2020/05/12,38.0,ND,38003.0,Barnes County,2297.0,8245.0,39753.0,14018.0,9894.0,1565.0,2781.0,6221.0,2585.0,1933.0,688.0,45.0,23.0
427379,County,2020/05/13,38.0,ND,38003.0,Barnes County,2487.0,8055.0,38572.0,13543.0,9310.0,882.0,2062.0,5776.0,3450.0,2588.0,835.0,107.0,19.0
430573,County,2020/05/14,38.0,ND,38003.0,Barnes County,2518.0,8024.0,41787.0,16203.0,9850.0,1088.0,2202.0,5905.0,3165.0,1680.0,1572.0,115.0,7.0
433747,County,2020/05/15,38.0,ND,38003.0,Barnes County,2046.0,8496.0,41121.0,12941.0,9242.0,1840.0,2815.0,6998.0,3846.0,1985.0,1281.0,164.0,9.0
435425,County,2020/05/16,38.0,ND,38003.0,Barnes County,2547.0,7995.0,38285.0,12966.0,10090.0,1328.0,2360.0,6728.0,2568.0,1988.0,180.0,64.0,13.0
440110,County,2020/05/17,38.0,ND,38003.0,Barnes County,2965.0,7577.0,33879.0,11951.0,6243.0,2697.0,1743.0,6306.0,3042.0,1211.0,608.0,78.0,0.0
441823,County,2020/05/18,38.0,ND,38003.0,Barnes County,2161.0,8381.0,36467.0,14099.0,9263.0,2093.0,3196.0,3084.0,4251.0,439.0,0.0,21.0,21.0
446513,County,2020/05/19,38.0,ND,38003.0,Barnes County,2399.0,8143.0,33806.0,12536.0,8050.0,1588.0,2035.0,5372.0,2628.0,998.0,501.0,85.0,13.0
448144,County,2020/05/20,38.0,ND,38003.0,Barnes County,2208.0,8334.0,40409.0,16088.0,9129.0,1562.0,2761.0,5434.0,3415.0,1739.0,277.0,0.0,4.0
452579,County,2020/05/21,38.0,ND,38003.0,Barnes County,2164.0,8378.0,37188.0,13658.0,9124.0,2711.0,3065.0,4881.0,2548.0,852.0,342.0,0.0,7.0
456124,County,2020/05/22,38.0,ND,38003.0,Barnes County,2158.0,8384.0,39842.0,13344.0,10397.0,2397.0,2168.0,6120.0,3028.0,1607.0,726.0,39.0,16.0
459335,County,2020/05/23,38.0,ND,38003.0,Barnes County,2547.0,7995.0,45300.0,15412.0,10405.0,3144.0,2697.0,7807.0,3302.0,1249.0,1231.0,44.0,9.0
462490,County,2020/05/24,38.0,ND,38003.0,Barnes County,2769.0,7773.0,31222.0,11668.0,6318.0,1859.0,2038.0,3780.0,3748.0,1180.0,586.0,34.0,11.0
464118,County,2020/05/25,38.0,ND,38003.0,Barnes County,2583.0,7959.0,36740.0,10770.0,6232.0,2717.0,2643.0,8451.0,3556.0,1537.0,772.0,55.0,7.0
468900,County,2020/05/26,38.0,ND,38003.0,Barnes County,2408.0,8134.0,41323.0,15366.0,11084.0,1704.0,1927.0,5665.0,3123.0,1506.0,806.0,129.0,13.0
470528,County,2020/05/27,38.0,ND,38003.0,Barnes County,2045.0,8497.0,43588.0,17301.0,11025.0,1613.0,1824.0,6046.0,3228.0,1526.0,985.0,21.0,19.0
475289,County,2020/05/28,38.0,ND,38003.0,Barnes County,2433.0,8109.0,42547.0,15487.0,11376.0,2474.0,3233.0,5039.0,2419.0,1613.0,780.0,122.0,4.0
476869,County,2020/05/29,38.0,ND,38003.0,Barnes County,2557.0,7985.0,38308.0,12372.0,10042.0,1194.0,2429.0,6642.0,3097.0,1438.0,1017.0,60.0,17.0
480056,County,2020/05/30,38.0,ND,38003.0,Barnes County,2450.0,8092.0,39563.0,15807.0,8795.0,1998.0,3742.0,4701.0,2606.0,1047.0,768.0,76.0,23.0
484823,County,2020/05/31,38.0,ND,38003.0,Barnes County,2726.0,7816.0,31453.0,10803.0,6061.0,1746.0,2538.0,6428.0,2391.0,914.0,472.0,75.0,25.0
486451,County,2020/06/01,38.0,ND,38003.0,Barnes County,2608.0,7934.0,38281.0,13079.0,10109.0,2739.0,2144.0,4827.0,3149.0,1324.0,797.0,96.0,17.0
491231,County,2020/06/02,38.0,ND,38003.0,Barnes County,2435.0,8107.0,37332.0,13149.0,8658.0,1599.0,1695.0,6625.0,2706.0,2147.0,662.0,81.0,10.0
492860,County,2020/06/03,38.0,ND,38003.0,Barnes County,2419.0,8123.0,43699.0,17666.0,9152.0,2098.0,2847.0,5236.0,3905.0,1923.0,794.0,74.0,4.0
497635,County,2020/06/04,38.0,ND,38003.0,Barnes County,2116.0,8426.0,38027.0,12328.0,9467.0,1408.0,3526.0,5680.0,3121.0,1686.0,714.0,91.0,6.0
499275,County,2020/06/05,38.0,ND,38003.0,Barnes County,2075.0,8467.0,42954.0,12357.0,10643.0,1557.0,3635.0,8221.0,3513.0,1947.0,951.0,101.0,29.0
502422,County,2020/06/06,38.0,ND,38003.0,Barnes County,2422.0,8120.0,35532.0,13199.0,7656.0,2047.0,3132.0,5421.0,1766.0,1451.0,741.0,109.0,10.0
507199,County,2020/06/07,38.0,ND,38003.0,Barnes County,2620.0,7922.0,32833.0,11443.0,8035.0,2521.0,2186.0,3837.0,2116.0,1474.0,1109.0,107.0,5.0
510410,County,2020/06/08,38.0,ND,38003.0,Barnes County,2183.0,8359.0,40897.0,14418.0,11074.0,1984.0,1776.0,4599.0,3310.0,2684.0,1017.0,25.0,10.0
513566,County,2020/06/09,38.0,ND,38003.0,Barnes County,2529.0,8013.0,34790.0,12306.0,9031.0,1901.0,1569.0,4373.0,2608.0,2369.0,584.0,41.0,8.0
516820,County,2020/06/10,38.0,ND,38003.0,Barnes County,2426.0,8116.0,37063.0,13177.0,8920.0,1839.0,2192.0,5206.0,2467.0,1822.0,1364.0,70.0,6.0
519977,County,2020/06/11,38.0,ND,38003.0,Barnes County,2352.0,8190.0,44398.0,17147.0,11377.0,1705.0,2155.0,6320.0,2772.0,2259.0,617.0,30.0,16.0
523200,County,2020/06/12,38.0,ND,38003.0,Barnes County,2218.0,8324.0,41702.0,15931.0,9118.0,1707.0,2096.0,6386.0,3246.0,2095.0,1062.0,49.0,12.0
526387,County,2020/06/13,38.0,ND,38003.0,Barnes County,2438.0,8104.0,39377.0,13969.0,10044.0,1936.0,2248.0,5567.0,3010.0,1535.0,990.0,63.0,15.0
528022,County,2020/06/14,38.0,ND,38003.0,Barnes County,3124.0,7418.0,28477.0,7957.0,6466.0,1641.0,1377.0,5545.0,2687.0,1886.0,802.0,107.0,9.0
532781,County,2020/06/15,38.0,ND,38003.0,Barnes County,2631.0,7911.0,37956.0,12553.0,7557.0,2612.0,2531.0,7023.0,3051.0,1466.0,1059.0,85.0,19.0
534360,County,2020/06/16,38.0,ND,38003.0,Barnes County,2547.0,7995.0,38459.0,14211.0,8547.0,1006.0,2585.0,5687.0,3146.0,2347.0,822.0,101.0,7.0
539120,County,2020/06/17,38.0,ND,38003.0,Barnes County,2395.0,8147.0,35291.0,13742.0,8156.0,1467.0,2422.0,3959.0,2595.0,1870.0,1013.0,56.0,11.0
542315,County,2020/06/18,38.0,ND,38003.0,Barnes County,2487.0,8055.0,34617.0,11681.0,8332.0,1573.0,1680.0,5220.0,2760.0,2197.0,1075.0,79.0,20.0
545516,County,2020/06/19,38.0,ND,38003.0,Barnes County,2244.0,8298.0,39952.0,12716.0,9479.0,2082.0,2815.0,7261.0,3115.0,1470.0,900.0,110.0,4.0
548751,County,2020/06/20,38.0,ND,38003.0,Barnes County,2525.0,8017.0,32021.0,9062.0,8637.0,2891.0,1730.0,5357.0,2350.0,1203.0,724.0,60.0,7.0
550351,County,2020/06/21,38.0,ND,38003.0,Barnes County,2891.0,7651.0,30427.0,9505.0,6011.0,2605.0,2131.0,4990.0,2064.0,1859.0,1154.0,101.0,7.0
555131,County,2020/06/22,38.0,ND,38003.0,Barnes County,2743.0,7799.0,37620.0,13303.0,7874.0,2023.0,2065.0,7027.0,2839.0,2017.0,420.0,40.0,12.0
556759,County,2020/06/23,38.0,ND,38003.0,Barnes County,2475.0,8067.0,38179.0,12127.0,11178.0,1783.0,2491.0,6180.0,2426.0,1264.0,645.0,74.0,11.0
561527,County,2020/06/24,38.0,ND,38003.0,Barnes County,2628.0,7914.0,40282.0,14112.0,10388.0,1700.0,2914.0,5564.0,3216.0,1896.0,415.0,66.0,11.0
563107,County,2020/06/25,38.0,ND,38003.0,Barnes County,2440.0,8102.0,42286.0,15490.0,10058.0,2563.0,2737.0,5128.0,2838.0,2437.0,943.0,67.0,25.0
567951,County,2020/06/26,38.0,ND,38003.0,Barnes County,2358.0,8184.0,42388.0,14794.0,9364.0,3220.0,2600.0,5772.0,3055.0,2517.0,967.0,82.0,17.0
571101,County,2020/06/27,38.0,ND,38003.0,Barnes County,2586.0,7956.0,43080.0,14540.0,10222.0,2832.0,2869.0,6373.0,3061.0,2163.0,949.0,59.0,12.0
574284,County,2020/06/28,38.0,ND,38003.0,Barnes County,2798.0,7744.0,30665.0,8305.0,6554.0,3165.0,1820.0,4830.0,2421.0,2080.0,1371.0,97.0,22.0
575889,County,2020/06/29,38.0,ND,38003.0,Barnes County,2600.0,7942.0,37126.0,12984.0,8456.0,2477.0,2435.0,5376.0,2308.0,1975.0,1019.0,76.0,20.0
580701,County,2020/06/30,38.0,ND,38003.0,Barnes County,2520.0,8022.0,35395.0,12201.0,7995.0,1512.0,2654.0,5975.0,2530.0,1858.0,543.0,95.0,32.0
582302,County,2020/07/01,38.0,ND,38003.0,Barnes County,2315.0,8227.0,34096.0,11814.0,7592.0,1666.0,2237.0,6049.0,1879.0,2018.0,690.0,115.0,36.0
585494,County,2020/07/02,38.0,ND,38003.0,Barnes County,2872.0,7670.0,44883.0,16441.0,10676.0,2720.0,2905.0,5443.0,3012.0,2587.0,1001.0,71.0,27.0
590285,County,2020/07/03,38.0,ND,38003.0,Barnes County,3052.0,7490.0,42150.0,14711.0,9311.0,3202.0,2585.0,5739.0,3038.0,2503.0,962.0,82.0,17.0
593471,County,2020/07/04,38.0,ND,38003.0,Barnes County,3143.0,7399.0,36059.0,12585.0,7966.0,2739.0,2212.0,4910.0,2599.0,2141.0,823.0,70.0,14.0
596631,County,2020/07/05,38.0,ND,38003.0,Barnes County,3005.0,7537.0,26984.0,8808.0,5582.0,1396.0,2433.0,3617.0,2493.0,1767.0,716.0,141.0,31.0
599807,County,2020/07/06,38.0,ND,38003.0,Barnes County,2547.0,7995.0,33150.0,12088.0,7538.0,1225.0,2682.0,5628.0,1873.0,1532.0,449.0,112.0,23.0
601384,County,2020/07/07,38.0,ND,38003.0,Barnes County,2587.0,7955.0,29191.0,9936.0,6424.0,1518.0,2168.0,5820.0,1893.0,1088.0,227.0,89.0,28.0
606144,County,2020/07/08,38.0,ND,38003.0,Barnes County,2757.0,7785.0,29800.0,8253.0,7037.0,1079.0,1502.0,6115.0,2669.0,2131.0,943.0,42.0,29.0
607870,County,2020/07/09,38.0,ND,38003.0,Barnes County,2692.0,7850.0,33427.0,10449.0,8932.0,1708.0,2415.0,5204.0,1820.0,1840.0,988.0,48.0,23.0
611070,County,2020/07/10,38.0,ND,38003.0,Barnes County,2590.0,7952.0,33867.0,9811.0,6468.0,2187.0,3443.0,7020.0,2225.0,1708.0,934.0,52.0,19.0
615818,County,2020/07/11,38.0,ND,38003.0,Barnes County,2562.0,7980.0,32462.0,11220.0,6719.0,2045.0,1944.0,5248.0,2935.0,1607.0,704.0,19.0,21.0
619005,County,2020/07/12,38.0,ND,38003.0,Barnes County,2883.0,7659.0,25678.0,8171.0,5370.0,1185.0,1766.0,3878.0,2491.0,1806.0,917.0,76.0,18.0
622212,County,2020/07/13,38.0,ND,38003.0,Barnes County,2777.0,7765.0,30701.0,9190.0,7589.0,1694.0,1605.0,5769.0,2737.0,1391.0,607.0,74.0,45.0
625406,County,2020/07/14,38.0,ND,38003.0,Barnes County,2727.0,7815.0,27826.0,9485.0,6490.0,1326.0,1500.0,4261.0,2549.0,1647.0,465.0,89.0,14.0
626915,County,2020/07/15,38.0,ND,38003.0,Barnes County,2621.0,7921.0,32991.0,12171.0,7736.0,1665.0,1540.0,5120.0,2390.0,1797.0,525.0,41.0,6.0
631845,County,2020/07/16,38.0,ND,38003.0,Barnes County,2618.0,7924.0,31761.0,9553.0,6310.0,2073.0,1744.0,5681.0,3807.0,2021.0,502.0,58.0,12.0
634940,County,2020/07/17,38.0,ND,38003.0,Barnes County,2426.0,8116.0,31943.0,9982.0,6741.0,1984.0,2200.0,6114.0,2809.0,1427.0,589.0,78.0,19.0
636617,County,2020/07/18,38.0,ND,38003.0,Barnes County,2713.0,7829.0,29654.0,7818.0,7151.0,3114.0,2410.0,4740.0,1911.0,1832.0,621.0,44.0,13.0
639772,County,2020/07/19,38.0,ND,38003.0,Barnes County,2783.0,7759.0,27651.0,7818.0,6433.0,1798.0,1443.0,5600.0,2093.0,1337.0,933.0,187.0,9.0
644554,County,2020/07/20,38.0,ND,38003.0,Barnes County,2613.0,7929.0,30607.0,9404.0,7254.0,903.0,1532.0,3695.0,3849.0,2734.0,1092.0,142.0,2.0
646182,County,2020/07/21,38.0,ND,38003.0,Barnes County,2661.0,7881.0,30046.0,9724.0,6633.0,1255.0,1590.0,4519.0,2832.0,2472.0,855.0,152.0,14.0
648864,County,2020/07/22,38.0,ND,38003.0,Barnes County,2769.0,7773.0,40263.0,13944.0,9978.0,2250.0,1716.0,6423.0,2833.0,2028.0,941.0,137.0,13.0
652501,County,2020/07/23,38.0,ND,38003.0,Barnes County,2669.0,7873.0,31823.0,10714.0,6939.0,1304.0,2155.0,5089.0,2602.0,1839.0,1092.0,71.0,18.0
657379,County,2020/07/24,38.0,ND,38003.0,Barnes County,2647.0,7895.0,39966.0,12504.0,8577.0,1650.0,2931.0,7868.0,2818.0,2617.0,892.0,105.0,4.0
660596,County,2020/07/25,38.0,ND,38003.0,Barnes County,2766.0,7776.0,30508.0,8710.0,6866.0,1391.0,1875.0,6653.0,2232.0,2298.0,405.0,65.0,13.0
663676,County,2020/07/26,38.0,ND,38003.0,Barnes County,2860.0,7682.0,31493.0,10644.0,6729.0,1293.0,1971.0,5431.0,2093.0,2415.0,851.0,34.0,32.0
666949,County,2020/07/27,38.0,ND,38003.0,Barnes County,3229.0,7313.0,33682.0,11356.0,8670.0,1240.0,2336.0,5861.0,1942.0,1660.0,522.0,56.0,39.0
670103,County,2020/07/28,38.0,ND,38003.0,Barnes County,2738.0,7804.0,31716.0,10405.0,7193.0,1870.0,2296.0,5160.0,2110.0,2016.0,557.0,65.0,44.0
671734,County,2020/07/29,38.0,ND,38003.0,Barnes County,2901.0,7641.0,35710.0,12798.0,9176.0,1333.0,1769.0,5787.0,2942.0,1215.0,549.0,94.0,47.0
676495,County,2020/07/30,38.0,ND,38003.0,Barnes County,2483.0,8059.0,37045.0,11592.0,8572.0,1831.0,1679.0,6640.0,3516.0,2333.0,796.0,40.0,46.0
679723,County,2020/07/31,38.0,ND,38003.0,Barnes County,2609.0,7933.0,34258.0,11551.0,7202.0,1272.0,3057.0,5032.0,3110.0,2000.0,953.0,32.0,49.0
682844,County,2020/08/01,38.0,ND,38003.0,Barnes County,2695.0,7847.0,29677.0,9944.0,7973.0,1538.0,1391.0,4228.0,2082.0,1418.0,873.0,198.0,32.0
686084,County,2020/08/02,38.0,ND,38003.0,Barnes County,3016.0,7526.0,28413.0,8976.0,4730.0,1504.0,2267.0,4335.0,2827.0,2625.0,1016.0,101.0,32.0
689287,County,2020/08/03,38.0,ND,38003.0,Barnes County,2750.0,7792.0,34674.0,11562.0,9200.0,1263.0,2406.0,5551.0,2325.0,1672.0,629.0,53.0,13.0
690915,County,2020/08/04,38.0,ND,38003.0,Barnes County,2501.0,8041.0,36356.0,12723.0,9375.0,1448.0,2079.0,5106.0,3205.0,1634.0,685.0,90.0,11.0
694078,County,2020/08/05,38.0,ND,38003.0,Barnes County,2656.0,7886.0,30257.0,9510.0,7238.0,1380.0,2405.0,4611.0,2399.0,1566.0,1088.0,46.0,14.0
697284,County,2020/08/06,38.0,ND,38003.0,Barnes County,2775.0,7767.0,39682.0,14886.0,8915.0,1680.0,2391.0,6617.0,2596.0,1759.0,765.0,63.0,10.0
700496,County,2020/08/07,38.0,ND,38003.0,Barnes County,2601.0,7941.0,31188.0,9991.0,7128.0,1359.0,1537.0,5004.0,2875.0,2076.0,1071.0,126.0,21.0
705257,County,2020/08/08,38.0,ND,38003.0,Barnes County,2536.0,8006.0,29921.0,8934.0,7191.0,2436.0,2102.0,4616.0,2242.0,2015.0,364.0,13.0,8.0
708476,County,2020/08/09,38.0,ND,38003.0,Barnes County,2784.0,7758.0,27813.0,8022.0,6272.0,1526.0,1406.0,4534.0,1977.0,2488.0,1444.0,126.0,18.0
711645,County,2020/08/10,38.0,ND,38003.0,Barnes County,2828.0,7714.0,33834.0,12218.0,5842.0,1967.0,2225.0,5587.0,2023.0,2668.0,1205.0,81.0,18.0
714838,County,2020/08/11,38.0,ND,38003.0,Barnes County,2581.0,7961.0,35044.0,11343.0,8579.0,1298.0,1978.0,5171.0,3500.0,2246.0,854.0,57.0,18.0
717935,County,2020/08/12,38.0,ND,38003.0,Barnes County,2698.0,7844.0,31103.0,9288.0,7383.0,1408.0,1757.0,5086.0,3013.0,1984.0,1011.0,137.0,36.0
719662,County,2020/08/13,38.0,ND,38003.0,Barnes County,2696.0,7846.0,34153.0,11110.0,8741.0,1336.0,1780.0,5310.0,2476.0,2299.0,993.0,57.0,51.0
724405,County,2020/08/14,38.0,ND,38003.0,Barnes County,2128.0,8414.0,33842.0,10840.0,7575.0,1070.0,2033.0,5254.0,2703.0,3228.0,1012.0,78.0,49.0
727616,County,2020/08/15,38.0,ND,38003.0,Barnes County,2730.0,7812.0,31472.0,9946.0,7469.0,1809.0,1215.0,4441.0,2806.0,2547.0,1124.0,80.0,35.0
730808,County,2020/08/16,38.0,ND,38003.0,Barnes County,3134.0,7408.0,31891.0,11435.0,6409.0,1004.0,1702.0,4721.0,2334.0,2497.0,1662.0,88.0,39.0
732438,County,2020/08/17,38.0,ND,38003.0,Barnes County,2937.0,7605.0,34977.0,12490.0,7860.0,970.0,1463.0,6263.0,3162.0,1864.0,765.0,87.0,53.0
735604,County,2020/08/18,38.0,ND,38003.0,Barnes County,2644.0,7898.0,31986.0,11125.0,6870.0,1766.0,1089.0,4292.0,3683.0,2130.0,861.0,107.0,63.0
738809,County,2020/08/19,38.0,ND,38003.0,Barnes County,2775.0,7767.0,38101.0,13905.0,8032.0,1368.0,2257.0,5880.0,3345.0,2748.0,378.0,160.0,28.0
743590,County,2020/08/20,38.0,ND,38003.0,Barnes County,2588.0,7954.0,39949.0,14634.0,8533.0,1456.0,3230.0,5735.0,3101.0,2428.0,613.0,195.0,24.0
745220,County,2020/08/21,38.0,ND,38003.0,Barnes County,2327.0,8215.0,42405.0,14725.0,10451.0,1752.0,2160.0,6601.0,2873.0,2725.0,1005.0,64.0,49.0
749952,County,2020/08/22,38.0,ND,38003.0,Barnes County,2576.0,7966.0,37029.0,13279.0,8009.0,2448.0,2491.0,5608.0,2416.0,1795.0,869.0,62.0,52.0
751618,County,2020/08/23,38.0,ND,38003.0,Barnes County,2848.0,7694.0,28027.0,10649.0,5866.0,457.0,1602.0,4487.0,2062.0,1580.0,1211.0,74.0,39.0
754791,County,2020/08/24,38.0,ND,38003.0,Barnes County,2971.0,7571.0,35357.0,13666.0,7957.0,1170.0,1598.0,5742.0,1923.0,2196.0,968.0,108.0,29.0
757942,County,2020/08/25,38.0,ND,38003.0,Barnes County,2786.0,7756.0,34196.0,12367.0,8104.0,1419.0,1449.0,4796.0,2324.0,2494.0,1127.0,92.0,24.0
762712,County,2020/08/26,38.0,ND,38003.0,Barnes County,2950.0,7592.0,33979.0,12219.0,7438.0,1607.0,1713.0,5334.0,2434.0,2116.0,1000.0,92.0,26.0
764341,County,2020/08/27,38.0,ND,38003.0,Barnes County,2705.0,7837.0,34211.0,11814.0,8130.0,1124.0,2296.0,5798.0,2436.0,1629.0,777.0,183.0,24.0
767548,County,2020/08/28,38.0,ND,38003.0,Barnes County,2802.0,7740.0,30895.0,9709.0,6473.0,1174.0,1174.0,6579.0,2445.0,2082.0,1026.0,209.0,24.0
770751,County,2020/08/29,38.0,ND,38003.0,Barnes County,2895.0,7647.0,36208.0,11899.0,8787.0,842.0,2380.0,5597.0,3680.0,2205.0,697.0,106.0,15.0
773954,County,2020/08/30,38.0,ND,38003.0,Barnes County,3084.0,7458.0,24791.0,9227.0,4114.0,720.0,1221.0,3339.0,2302.0,2704.0,965.0,170.0,29.0
777139,County,2020/08/31,38.0,ND,38003.0,Barnes County,2799.0,7743.0,28512.0,10225.0,5513.0,1001.0,1846.0,4826.0,2852.0,1710.0,349.0,149.0,41.0
781918,County,2020/09/01,38.0,ND,38003.0,Barnes County,2874.0,7668.0,32077.0,10415.0,7246.0,996.0,2003.0,5165.0,3559.0,1856.0,629.0,190.0,18.0
785061,County,2020/09/02,38.0,ND,38003.0,Barnes County,2844.0,7698.0,36197.0,12721.0,8352.0,1152.0,2367.0,6512.0,2421.0,2029.0,495.0,127.0,21.0
786674,County,2020/09/03,38.0,ND,38003.0,Barnes County,2861.0,7681.0,33382.0,8645.0,7313.0,1630.0,3195.0,6492.0,2452.0,2505.0,977.0,153.0,20.0
789887,County,2020/09/04,38.0,ND,38003.0,Barnes County,2800.0,7742.0,34258.0,10586.0,8347.0,1464.0,1782.0,5527.0,3238.0,2063.0,1065.0,170.0,16.0
793011,County,2020/09/05,38.0,ND,38003.0,Barnes County,3015.0,7527.0,37731.0,11523.0,9321.0,1626.0,2132.0,6066.0,3154.0,2588.0,1108.0,197.0,16.0
797854,County,2020/09/06,38.0,ND,38003.0,Barnes County,3298.0,7244.0,26770.0,7175.0,6700.0,1013.0,2379.0,5356.0,1846.0,1551.0,590.0,141.0,19.0
801065,County,2020/09/07,38.0,ND,38003.0,Barnes County,3378.0,7164.0,24778.0,7328.0,5703.0,458.0,1207.0,4993.0,1892.0,2078.0,1011.0,92.0,16.0
802684,County,2020/09/08,38.0,ND,38003.0,Barnes County,2866.0,7676.0,34492.0,11621.0,7758.0,1290.0,1649.0,6975.0,2656.0,1881.0,478.0,170.0,14.0
807464,County,2020/09/09,38.0,ND,38003.0,Barnes County,2821.0,7721.0,33004.0,9800.0,9412.0,1420.0,1926.0,5854.0,2370.0,1547.0,429.0,207.0,39.0
809092,County,2020/09/10,38.0,ND,38003.0,Barnes County,2870.0,7672.0,28377.0,9501.0,6231.0,1193.0,1862.0,4927.0,2499.0,1428.0,484.0,229.0,23.0
813853,County,2020/09/11,38.0,ND,38003.0,Barnes County,2863.0,7679.0,33022.0,10453.0,6992.0,1791.0,2294.0,5275.0,2962.0,2251.0,847.0,120.0,37.0
815434,County,2020/09/12,38.0,ND,38003.0,Barnes County,2926.0,7616.0,31344.0,8557.0,8119.0,1425.0,2071.0,5886.0,2602.0,1848.0,578.0,246.0,12.0
820231,County,2020/09/13,38.0,ND,38003.0,Barnes County,3005.0,7537.0,22971.0,5951.0,5158.0,753.0,2127.0,4310.0,1273.0,2266.0,902.0,192.0,39.0
821860,County,2020/09/14,38.0,ND,38003.0,Barnes County,2944.0,7598.0,32854.0,10977.0,8272.0,845.0,1091.0,5825.0,3063.0,2150.0,343.0,268.0,20.0
826629,County,2020/09/15,38.0,ND,38003.0,Barnes County,2825.0,7717.0,35255.0,12358.0,6634.0,1301.0,2206.0,7259.0,2401.0,2416.0,503.0,155.0,22.0
828257,County,2020/09/16,38.0,ND,38003.0,Barnes County,2920.0,7622.0,34675.0,10009.0,9726.0,1219.0,2000.0,6387.0,1788.0,2555.0,808.0,148.0,35.0
833000,County,2020/09/17,38.0,ND,38003.0,Barnes County,3023.0,7519.0,36645.0,10778.0,8639.0,915.0,1996.0,7706.0,3467.0,2260.0,681.0,185.0,18.0
834629,County,2020/09/18,38.0,ND,38003.0,Barnes County,2749.0,7793.0,34479.0,9888.0,9322.0,942.0,2663.0,6362.0,1927.0,2221.0,1003.0,142.0,9.0
839404,County,2020/09/19,38.0,ND,38003.0,Barnes County,3251.0,7291.0,35761.0,10410.0,8396.0,2271.0,2834.0,5897.0,2827.0,2215.0,667.0,222.0,22.0
841033,County,2020/09/20,38.0,ND,38003.0,Barnes County,3081.0,7461.0,27809.0,8808.0,6548.0,1038.0,1760.0,3822.0,2780.0,1903.0,982.0,157.0,11.0
845820,County,2020/09/21,38.0,ND,38003.0,Barnes County,3095.0,7447.0,31702.0,10592.0,9924.0,1086.0,1555.0,3791.0,3021.0,1213.0,411.0,88.0,21.0
847399,County,2020/09/22,38.0,ND,38003.0,Barnes County,2900.0,7642.0,35225.0,10849.0,9650.0,1032.0,2261.0,5174.0,3275.0,2231.0,672.0,78.0,3.0
852177,County,2020/09/23,38.0,ND,38003.0,Barnes County,2887.0,7655.0,40226.0,13056.0,9743.0,1486.0,2849.0,7296.0,3206.0,1827.0,672.0,78.0,13.0
853805,County,2020/09/24,38.0,ND,38003.0,Barnes County,2839.0,7703.0,33562.0,9375.0,9006.0,1619.0,1831.0,4995.0,3021.0,2676.0,943.0,88.0,8.0
858569,County,2020/09/25,38.0,ND,38003.0,Barnes County,2529.0,8013.0,40129.0,12647.0,9083.0,1918.0,2096.0,6382.0,3894.0,3215.0,786.0,103.0,5.0
860148,County,2020/09/26,38.0,ND,38003.0,Barnes County,2771.0,7771.0,40238.0,15180.0,8756.0,2037.0,2304.0,6209.0,3249.0,1914.0,465.0,113.0,11.0
864944,County,2020/09/27,38.0,ND,38003.0,Barnes County,2831.0,7711.0,25443.0,6979.0,5645.0,1427.0,1824.0,4671.0,2519.0,1690.0,528.0,150.0,10.0
866573,County,2020/09/28,38.0,ND,38003.0,Barnes County,3016.0,7526.0,37051.0,13422.0,7091.0,1786.0,2917.0,5738.0,3880.0,1663.0,501.0,53.0,0.0
871344,County,2020/09/29,38.0,ND,38003.0,Barnes County,2797.0,7745.0,38104.0,13153.0,7918.0,2074.0,2873.0,6567.0,3469.0,1612.0,331.0,101.0,6.0
872973,County,2020/09/30,38.0,ND,38003.0,Barnes County,2838.0,7704.0,35485.0,13881.0,7230.0,1983.0,1577.0,6730.0,2154.0,1770.0,48.0,105.0,7.0
876138,County,2020/10/01,38.0,ND,38003.0,Barnes County,2582.0,7960.0,36009.0,12684.0,9354.0,1411.0,3046.0,5249.0,1954.0,1748.0,330.0,225.0,8.0
879341,County,2020/10/02,38.0,ND,38003.0,Barnes County,2642.0,7900.0,35511.0,9709.0,9638.0,1244.0,3546.0,5929.0,2379.0,2266.0,680.0,112.0,8.0
882557,County,2020/10/03,38.0,ND,38003.0,Barnes County,2875.0,7667.0,37738.0,11726.0,8411.0,2204.0,3853.0,5796.0,3166.0,1680.0,726.0,171.0,5.0
886665,County,2020/10/04,38.0,ND,38003.0,Barnes County,3229.0,7313.0,26889.0,7255.0,6391.0,1415.0,1839.0,4321.0,2304.0,2372.0,835.0,156.0,1.0
889917,County,2020/10/05,38.0,ND,38003.0,Barnes County,3211.0,7331.0,32481.0,8831.0,7419.0,1501.0,2841.0,7024.0,2845.0,1333.0,588.0,95.0,4.0
893073,County,2020/10/06,38.0,ND,38003.0,Barnes County,2940.0,7602.0,34403.0,13327.0,7148.0,1324.0,1075.0,5812.0,2822.0,2152.0,619.0,117.0,7.0
896278,County,2020/10/07,38.0,ND,38003.0,Barnes County,2661.0,7881.0,34636.0,14061.0,6716.0,1752.0,2778.0,4387.0,2034.0,2310.0,509.0,82.0,7.0
899449,County,2020/10/08,38.0,ND,38003.0,Barnes County,2809.0,7733.0,37486.0,12597.0,7199.0,1859.0,2278.0,8166.0,2813.0,2145.0,271.0,152.0,6.0
902701,County,2020/10/09,38.0,ND,38003.0,Barnes County,2496.0,8046.0,32125.0,10435.0,6866.0,1207.0,2022.0,5830.0,2897.0,1974.0,777.0,111.0,6.0
906178,County,2020/10/10,38.0,ND,38003.0,Barnes County,2985.0,7557.0,31050.0,7929.0,6596.0,1985.0,2463.0,6518.0,2886.0,1953.0,567.0,150.0,3.0
908307,County,2020/10/11,38.0,ND,38003.0,Barnes County,3343.0,7199.0,22219.0,6180.0,4821.0,1720.0,1684.0,3311.0,1277.0,2063.0,1089.0,72.0,2.0
911502,County,2020/10/12,38.0,ND,38003.0,Barnes County,3027.0,7515.0,31787.0,9895.0,7801.0,1635.0,1463.0,5625.0,2257.0,2580.0,426.0,102.0,3.0
914672,County,2020/10/13,38.0,ND,38003.0,Barnes County,2931.0,7611.0,30504.0,8836.0,6879.0,997.0,1394.0,5855.0,3260.0,2857.0,315.0,104.0,7.0
917801,County,2020/10/14,38.0,ND,38003.0,Barnes County,3037.0,7505.0,35367.0,9218.0,6937.0,1508.0,2953.0,7907.0,3707.0,2681.0,318.0,133.0,5.0
921355,County,2020/10/15,38.0,ND,38003.0,Barnes County,3039.0,7503.0,28722.0,8933.0,6175.0,960.0,2760.0,4913.0,2517.0,2047.0,298.0,114.0,5.0
924208,County,2020/10/16,38.0,ND,38003.0,Barnes County,2833.0,7709.0,36902.0,8333.0,7994.0,1441.0,3289.0,9748.0,3272.0,2112.0,608.0,100.0,5.0
927813,County,2020/10/17,38.0,ND,38003.0,Barnes County,3188.0,7354.0,33782.0,9410.0,8439.0,1847.0,2893.0,5061.0,2961.0,2443.0,642.0,82.0,4.0
930603,County,2020/10/18,38.0,ND,38003.0,Barnes County,3325.0,7217.0,24619.0,7229.0,6983.0,1517.0,1874.0,3176.0,2131.0,1106.0,519.0,79.0,5.0
933628,County,2020/10/19,38.0,ND,38003.0,Barnes County,2889.0,7653.0,33058.0,11789.0,8736.0,1575.0,1834.0,3969.0,2408.0,1888.0,760.0,95.0,4.0
936890,County,2020/10/20,38.0,ND,38003.0,Barnes County,2996.0,7546.0,29832.0,11960.0,6887.0,994.0,2221.0,3479.0,1548.0,1977.0,671.0,88.0,7.0
940563,County,2020/10/21,38.0,ND,38003.0,Barnes County,3101.0,7441.0,30768.0,9872.0,8257.0,1430.0,1680.0,3987.0,2229.0,2516.0,673.0,119.0,5.0
943282,County,2020/10/22,38.0,ND,38003.0,Barnes County,3026.0,7516.0,26805.0,8487.0,7713.0,1419.0,1058.0,3012.0,2255.0,1657.0,1027.0,172.0,5.0
946567,County,2020/10/23,38.0,ND,38003.0,Barnes County,2918.0,7624.0,32926.0,11553.0,8554.0,492.0,1650.0,4139.0,3048.0,2546.0,813.0,125.0,6.0
949841,County,2020/10/24,38.0,ND,38003.0,Barnes County,3446.0,7096.0,31237.0,9222.0,8903.0,2580.0,2771.0,3780.0,1149.0,2311.0,448.0,69.0,4.0
