,Level,Date,State FIPS,State Postal Code,County FIPS,County Name,Population Staying at Home,Population Not Staying at Home,Number of Trips,Number of Trips <1,Number of Trips 1-3,Number of Trips 3-5,Number of Trips 5-10,Number of Trips 10-25,Number of Trips 25-50,Number of Trips 50-100,Number of Trips 100-250,Number of Trips 250-500,Number of Trips >=500
682,County,2020/01/01,17.0,IL,17175.0,Stark County,1901.0,3526.0,13672.0,4096.0,2013.0,593.0,2378.0,3050.0,820.0,293.0,401.0,22.0,6.0
6064,County,2020/01/02,17.0,IL,17175.0,Stark County,1359.0,4068.0,21181.0,6212.0,2960.0,1637.0,3089.0,4486.0,2011.0,344.0,386.0,56.0,0.0
7937,County,2020/01/03,17.0,IL,17175.0,Stark County,1440.0,3987.0,19504.0,5553.0,2476.0,1367.0,2577.0,4631.0,2050.0,585.0,265.0,0.0,0.0
9876,County,2020/01/04,17.0,IL,17175.0,Stark County,1558.0,3869.0,17505.0,5283.0,2606.0,919.0,3251.0,2929.0,2226.0,147.0,144.0,0.0,0.0
13458,County,2020/01/05,17.0,IL,17175.0,Stark County,1647.0,3780.0,14149.0,3662.0,1686.0,747.0,1716.0,4235.0,1265.0,206.0,607.0,20.0,5.0
16260,County,2020/01/06,17.0,IL,17175.0,Stark County,1525.0,3902.0,17306.0,4365.0,2708.0,882.0,2065.0,3905.0,2433.0,610.0,299.0,39.0,0.0
21069,County,2020/01/07,17.0,IL,17175.0,Stark County,1534.0,3893.0,17748.0,4949.0,1813.0,1780.0,2678.0,4007.0,1693.0,527.0,301.0,0.0,0.0
22696,County,2020/01/08,17.0,IL,17175.0,Stark County,1420.0,4007.0,18333.0,5397.0,2045.0,892.0,2685.0,5107.0,1903.0,88.0,216.0,0.0,0.0
25891,County,2020/01/09,17.0,IL,17175.0,Stark County,1180.0,4247.0,19552.0,4583.0,2762.0,1051.0,3109.0,5082.0,2189.0,574.0,187.0,15.0,0.0
29086,County,2020/01/10,17.0,IL,17175.0,Stark County,1354.0,4073.0,17893.0,4794.0,2265.0,953.0,3220.0,4037.0,2262.0,271.0,76.0,15.0,0.0
32328,County,2020/01/11,17.0,IL,17175.0,Stark County,1945.0,3482.0,15075.0,5342.0,1595.0,1184.0,2722.0,2418.0,1275.0,218.0,321.0,0.0,0.0
37014,County,2020/01/12,17.0,IL,17175.0,Stark County,1808.0,3619.0,12081.0,3613.0,1580.0,739.0,2829.0,1530.0,1431.0,204.0,150.0,0.0,5.0
40262,County,2020/01/13,17.0,IL,17175.0,Stark County,1476.0,3951.0,17612.0,5000.0,2525.0,1003.0,1883.0,4251.0,2381.0,449.0,120.0,0.0,0.0
41888,County,2020/01/14,17.0,IL,17175.0,Stark County,1465.0,3962.0,16838.0,5278.0,1658.0,1152.0,2246.0,3495.0,2546.0,377.0,82.0,0.0,4.0
45041,County,2020/01/15,17.0,IL,17175.0,Stark County,1495.0,3932.0,17246.0,4787.0,1932.0,963.0,2613.0,4174.0,1895.0,499.0,367.0,16.0,0.0
48193,County,2020/01/16,17.0,IL,17175.0,Stark County,1303.0,4124.0,18128.0,4793.0,2201.0,729.0,3439.0,4446.0,2038.0,349.0,114.0,15.0,4.0
51401,County,2020/01/17,17.0,IL,17175.0,Stark County,1416.0,4011.0,19987.0,7835.0,2053.0,1187.0,2687.0,3693.0,1917.0,448.0,146.0,14.0,7.0
56181,County,2020/01/18,17.0,IL,17175.0,Stark County,1745.0,3682.0,16677.0,4778.0,2307.0,939.0,2399.0,4285.0,1112.0,433.0,424.0,0.0,0.0
59428,County,2020/01/19,17.0,IL,17175.0,Stark County,1987.0,3440.0,15226.0,5256.0,2503.0,677.0,2113.0,2235.0,1761.0,468.0,153.0,60.0,0.0
62591,County,2020/01/20,17.0,IL,17175.0,Stark County,1486.0,3941.0,18900.0,6805.0,2321.0,1149.0,2347.0,3828.0,1669.0,556.0,195.0,30.0,0.0
64219,County,2020/01/21,17.0,IL,17175.0,Stark County,1450.0,3977.0,18389.0,5783.0,3029.0,906.0,2965.0,3009.0,2240.0,274.0,153.0,30.0,0.0
68981,County,2020/01/22,17.0,IL,17175.0,Stark County,1316.0,4111.0,20257.0,5788.0,2696.0,1494.0,3037.0,3786.0,2590.0,650.0,187.0,29.0,0.0
70605,County,2020/01/23,17.0,IL,17175.0,Stark County,1488.0,3939.0,17956.0,4762.0,2641.0,1409.0,3183.0,3465.0,1925.0,337.0,220.0,14.0,0.0
75319,County,2020/01/24,17.0,IL,17175.0,Stark County,1269.0,4158.0,20843.0,6211.0,3244.0,1627.0,2346.0,4538.0,2500.0,218.0,142.0,0.0,17.0
76994,County,2020/01/25,17.0,IL,17175.0,Stark County,1590.0,3837.0,15713.0,4211.0,2159.0,564.0,2319.0,3779.0,1820.0,606.0,255.0,0.0,0.0
80532,County,2020/01/26,17.0,IL,17175.0,Stark County,1504.0,3923.0,17334.0,5130.0,1751.0,833.0,2617.0,4730.0,1551.0,354.0,347.0,17.0,4.0
84722,County,2020/01/27,17.0,IL,17175.0,Stark County,1385.0,4042.0,19108.0,4277.0,2977.0,1670.0,2284.0,5048.0,2311.0,412.0,121.0,0.0,8.0
86591,County,2020/01/28,17.0,IL,17175.0,Stark County,1327.0,4100.0,19495.0,5275.0,2230.0,1821.0,3452.0,3826.0,2004.0,610.0,262.0,15.0,0.0
91324,County,2020/01/29,17.0,IL,17175.0,Stark County,1211.0,4216.0,20219.0,5699.0,2429.0,1183.0,3159.0,4794.0,2474.0,335.0,146.0,0.0,0.0
93050,County,2020/01/30,17.0,IL,17175.0,Stark County,1233.0,4194.0,19778.0,5119.0,2352.0,1337.0,3278.0,4672.0,2289.0,518.0,181.0,28.0,4.0
96154,County,2020/01/31,17.0,IL,17175.0,Stark County,1145.0,4282.0,22255.0,5770.0,3300.0,1285.0,3217.0,5324.0,2407.0,569.0,383.0,0.0,0.0
100912,County,2020/02/01,17.0,IL,17175.0,Stark County,1354.0,4073.0,16642.0,2937.0,2997.0,1289.0,2504.0,3987.0,2036.0,698.0,190.0,0.0,4.0
102530,County,2020/02/02,17.0,IL,17175.0,Stark County,1449.0,3978.0,16281.0,4847.0,1499.0,860.0,2708.0,3819.0,1666.0,634.0,233.0,15.0,0.0
105740,County,2020/02/03,17.0,IL,17175.0,Stark County,1254.0,4173.0,19140.0,5134.0,2454.0,1290.0,2966.0,4694.0,2042.0,357.0,175.0,14.0,14.0
110501,County,2020/02/04,17.0,IL,17175.0,Stark County,1256.0,4171.0,19753.0,5935.0,2373.0,1486.0,3557.0,3428.0,2249.0,449.0,252.0,12.0,12.0
112129,County,2020/02/05,17.0,IL,17175.0,Stark County,1247.0,4180.0,19506.0,4113.0,3540.0,1070.0,2733.0,5029.0,2592.0,193.0,221.0,12.0,3.0
115224,County,2020/02/06,17.0,IL,17175.0,Stark County,1242.0,4185.0,21502.0,6711.0,3017.0,976.0,3739.0,4132.0,2010.0,641.0,231.0,26.0,19.0
118490,County,2020/02/07,17.0,IL,17175.0,Stark County,1280.0,4147.0,21992.0,6288.0,2808.0,1659.0,2953.0,4935.0,2476.0,591.0,272.0,0.0,10.0
121736,County,2020/02/08,17.0,IL,17175.0,Stark County,1107.0,4320.0,15736.0,3455.0,2152.0,1430.0,2130.0,3948.0,2039.0,362.0,194.0,13.0,13.0
124905,County,2020/02/09,17.0,IL,17175.0,Stark County,1703.0,3724.0,13170.0,2852.0,1333.0,867.0,2084.0,3582.0,1811.0,141.0,449.0,41.0,10.0
128991,County,2020/02/10,17.0,IL,17175.0,Stark County,1225.0,4202.0,21294.0,6056.0,3050.0,1610.0,2699.0,4576.0,2355.0,696.0,239.0,13.0,0.0
131637,County,2020/02/11,17.0,IL,17175.0,Stark County,1148.0,4279.0,22761.0,7111.0,2736.0,1987.0,3406.0,4145.0,2914.0,326.0,71.0,55.0,10.0
134961,County,2020/02/12,17.0,IL,17175.0,Stark County,1258.0,4169.0,21977.0,6312.0,3087.0,1732.0,3133.0,3898.0,2912.0,498.0,358.0,25.0,22.0
139293,County,2020/02/13,17.0,IL,17175.0,Stark County,1275.0,4152.0,22369.0,6460.0,3127.0,2075.0,2842.0,4876.0,2492.0,245.0,171.0,54.0,27.0
142449,County,2020/02/14,17.0,IL,17175.0,Stark County,1037.0,4390.0,24219.0,5656.0,3673.0,1803.0,3683.0,5566.0,2828.0,535.0,383.0,82.0,10.0
145655,County,2020/02/15,17.0,IL,17175.0,Stark County,1318.0,4109.0,20170.0,5593.0,2684.0,1678.0,2661.0,4275.0,2803.0,320.0,118.0,30.0,8.0
147262,County,2020/02/16,17.0,IL,17175.0,Stark County,1632.0,3795.0,15256.0,3320.0,1940.0,2323.0,2004.0,3223.0,1774.0,434.0,213.0,0.0,25.0
152024,County,2020/02/17,17.0,IL,17175.0,Stark County,1709.0,3718.0,15807.0,3833.0,2167.0,986.0,2140.0,4438.0,1551.0,579.0,100.0,0.0,13.0
153650,County,2020/02/18,17.0,IL,17175.0,Stark County,1075.0,4352.0,21325.0,5922.0,2446.0,1143.0,2847.0,5303.0,2770.0,475.0,387.0,16.0,16.0
158411,County,2020/02/19,17.0,IL,17175.0,Stark County,1181.0,4246.0,23609.0,6279.0,3623.0,1315.0,3053.0,5490.0,2654.0,620.0,567.0,0.0,8.0
161509,County,2020/02/20,17.0,IL,17175.0,Stark County,1210.0,4217.0,21588.0,5246.0,2467.0,2255.0,3030.0,4755.0,2970.0,452.0,401.0,0.0,12.0
164800,County,2020/02/21,17.0,IL,17175.0,Stark County,1165.0,4262.0,22212.0,5454.0,2244.0,1999.0,2695.0,5201.0,3138.0,1152.0,301.0,14.0,14.0
167944,County,2020/02/22,17.0,IL,17175.0,Stark County,1292.0,4135.0,23188.0,6172.0,2586.0,1181.0,3571.0,5373.0,3161.0,387.0,716.0,33.0,8.0
171192,County,2020/02/23,17.0,IL,17175.0,Stark County,1553.0,3874.0,17612.0,4701.0,2114.0,922.0,2945.0,3500.0,2766.0,455.0,134.0,53.0,22.0
172770,County,2020/02/24,17.0,IL,17175.0,Stark County,1279.0,4148.0,23712.0,6648.0,3470.0,2601.0,3863.0,3634.0,2657.0,624.0,180.0,14.0,21.0
176744,County,2020/02/25,17.0,IL,17175.0,Stark County,1072.0,4355.0,20409.0,4536.0,3278.0,1796.0,3603.0,4043.0,2226.0,577.0,261.0,68.0,21.0
179546,County,2020/02/26,17.0,IL,17175.0,Stark County,1190.0,4237.0,18921.0,4032.0,3480.0,2796.0,2210.0,3835.0,1827.0,643.0,90.0,0.0,8.0
183713,County,2020/02/27,17.0,IL,17175.0,Stark County,1198.0,4229.0,22747.0,5069.0,4231.0,1926.0,3875.0,4940.0,1932.0,565.0,197.0,0.0,12.0
185684,County,2020/02/28,17.0,IL,17175.0,Stark County,1163.0,4264.0,23303.0,4545.0,3516.0,2321.0,5260.0,4232.0,2295.0,722.0,393.0,0.0,19.0
190303,County,2020/02/29,17.0,IL,17175.0,Stark County,1122.0,4305.0,21197.0,4982.0,2866.0,1608.0,3790.0,5290.0,2346.0,214.0,84.0,17.0,0.0
191975,County,2020/03/01,17.0,IL,17175.0,Stark County,1440.0,3987.0,16808.0,3767.0,3101.0,913.0,3581.0,3173.0,1580.0,451.0,220.0,0.0,22.0
196775,County,2020/03/02,17.0,IL,17175.0,Stark County,1240.0,4187.0,18951.0,4409.0,2665.0,1270.0,3245.0,4038.0,2293.0,672.0,354.0,0.0,5.0
199835,County,2020/03/03,17.0,IL,17175.0,Stark County,1114.0,4313.0,21575.0,4486.0,2845.0,1842.0,3644.0,4808.0,2824.0,764.0,312.0,25.0,25.0
203139,County,2020/03/04,17.0,IL,17175.0,Stark County,999.0,4428.0,23608.0,4471.0,3716.0,3586.0,2936.0,4885.0,2820.0,572.0,622.0,0.0,0.0
206341,County,2020/03/05,17.0,IL,17175.0,Stark County,1092.0,4335.0,19759.0,3363.0,3307.0,897.0,3324.0,5416.0,2175.0,621.0,608.0,48.0,0.0
207823,County,2020/03/06,17.0,IL,17175.0,Stark County,892.0,4535.0,23922.0,4808.0,3003.0,1601.0,5269.0,5385.0,2856.0,408.0,570.0,22.0,0.0
212787,County,2020/03/07,17.0,IL,17175.0,Stark County,1025.0,4402.0,21962.0,4857.0,3660.0,1027.0,3456.0,5211.0,2411.0,645.0,695.0,0.0,0.0
215898,County,2020/03/08,17.0,IL,17175.0,Stark County,1280.0,4147.0,20207.0,4846.0,3829.0,1706.0,4114.0,3499.0,1759.0,197.0,257.0,0.0,0.0
219097,County,2020/03/09,17.0,IL,17175.0,Stark County,1120.0,4307.0,24455.0,7120.0,4407.0,605.0,3188.0,5315.0,2382.0,785.0,563.0,80.0,10.0
222291,County,2020/03/10,17.0,IL,17175.0,Stark County,1129.0,4298.0,17866.0,3863.0,2506.0,1845.0,3140.0,2848.0,2340.0,608.0,594.0,116.0,6.0
223915,County,2020/03/11,17.0,IL,17175.0,Stark County,910.0,4517.0,23586.0,7247.0,2599.0,3182.0,4315.0,3043.0,2247.0,549.0,404.0,0.0,0.0
228660,County,2020/03/12,17.0,IL,17175.0,Stark County,1029.0,4398.0,20214.0,5248.0,1911.0,2296.0,2932.0,4137.0,2410.0,317.0,933.0,0.0,30.0
230308,County,2020/03/13,17.0,IL,17175.0,Stark County,1114.0,4313.0,19238.0,5200.0,1629.0,1600.0,5251.0,3498.0,738.0,473.0,773.0,61.0,15.0
234935,County,2020/03/14,17.0,IL,17175.0,Stark County,1503.0,3924.0,19027.0,4054.0,3658.0,3694.0,2358.0,3603.0,1243.0,0.0,417.0,0.0,0.0
236694,County,2020/03/15,17.0,IL,17175.0,Stark County,1734.0,3693.0,18647.0,5007.0,3251.0,810.0,3363.0,4014.0,1717.0,211.0,274.0,0.0,0.0
239888,County,2020/03/16,17.0,IL,17175.0,Stark County,1191.0,4236.0,23770.0,6690.0,3551.0,1449.0,4046.0,4810.0,2412.0,689.0,123.0,0.0,0.0
244694,County,2020/03/17,17.0,IL,17175.0,Stark County,1360.0,4067.0,20145.0,5017.0,2760.0,2321.0,3953.0,3794.0,1805.0,297.0,175.0,23.0,0.0
247802,County,2020/03/18,17.0,IL,17175.0,Stark County,1493.0,3934.0,20636.0,4681.0,3333.0,1215.0,4416.0,3788.0,2114.0,582.0,507.0,0.0,0.0
251057,County,2020/03/19,17.0,IL,17175.0,Stark County,1524.0,3903.0,21953.0,5395.0,3422.0,1016.0,4648.0,4803.0,1982.0,585.0,58.0,44.0,0.0
252666,County,2020/03/20,17.0,IL,17175.0,Stark County,1715.0,3712.0,21868.0,5651.0,2790.0,2438.0,4611.0,3821.0,1750.0,312.0,489.0,0.0,6.0
255858,County,2020/03/21,17.0,IL,17175.0,Stark County,1868.0,3559.0,14723.0,4357.0,2463.0,1309.0,2089.0,2553.0,1497.0,151.0,296.0,0.0,8.0
260611,County,2020/03/22,17.0,IL,17175.0,Stark County,1976.0,3451.0,9609.0,1526.0,1979.0,1409.0,2289.0,1384.0,724.0,177.0,87.0,34.0,0.0
263824,County,2020/03/23,17.0,IL,17175.0,Stark County,1726.0,3701.0,16966.0,5236.0,3517.0,1295.0,2244.0,3248.0,1045.0,256.0,125.0,0.0,0.0
265401,County,2020/03/24,17.0,IL,17175.0,Stark County,1685.0,3742.0,13875.0,2562.0,1970.0,877.0,2490.0,3599.0,1574.0,539.0,264.0,0.0,0.0
270202,County,2020/03/25,17.0,IL,17175.0,Stark County,1613.0,3814.0,13811.0,3398.0,1776.0,1121.0,3340.0,2523.0,1056.0,129.0,443.0,25.0,0.0
271828,County,2020/03/26,17.0,IL,17175.0,Stark County,1838.0,3589.0,15025.0,4661.0,1306.0,799.0,3188.0,3238.0,1371.0,138.0,271.0,53.0,0.0
276590,County,2020/03/27,17.0,IL,17175.0,Stark County,1743.0,3684.0,13497.0,2761.0,2106.0,806.0,2880.0,3337.0,1366.0,56.0,164.0,21.0,0.0
278218,County,2020/03/28,17.0,IL,17175.0,Stark County,1855.0,3572.0,10997.0,2012.0,2080.0,557.0,2437.0,1576.0,1798.0,275.0,215.0,42.0,5.0
281411,County,2020/03/29,17.0,IL,17175.0,Stark County,2146.0,3281.0,11497.0,3236.0,774.0,869.0,3328.0,1760.0,1227.0,75.0,221.0,0.0,7.0
284604,County,2020/03/30,17.0,IL,17175.0,Stark County,1551.0,3876.0,14463.0,4053.0,2163.0,791.0,2222.0,2992.0,1788.0,219.0,214.0,21.0,0.0
287800,County,2020/03/31,17.0,IL,17175.0,Stark County,1576.0,3851.0,11889.0,3203.0,1353.0,894.0,1557.0,3002.0,1378.0,337.0,165.0,0.0,0.0
291036,County,2020/04/01,17.0,IL,17175.0,Stark County,1451.0,3976.0,20209.0,5651.0,3766.0,1159.0,3848.0,3479.0,1934.0,267.0,105.0,0.0,0.0
294187,County,2020/04/02,17.0,IL,17175.0,Stark County,1467.0,3960.0,17226.0,3739.0,2533.0,1543.0,3847.0,3838.0,1246.0,356.0,100.0,19.0,5.0
298947,County,2020/04/03,17.0,IL,17175.0,Stark County,1442.0,3985.0,17832.0,5200.0,2285.0,1109.0,4060.0,3196.0,1253.0,409.0,300.0,20.0,0.0
300574,County,2020/04/04,17.0,IL,17175.0,Stark County,1842.0,3585.0,13350.0,4109.0,1665.0,841.0,2028.0,2692.0,1433.0,323.0,253.0,0.0,6.0
305328,County,2020/04/05,17.0,IL,17175.0,Stark County,1541.0,3886.0,10975.0,2780.0,1571.0,441.0,1688.0,2380.0,1778.0,183.0,119.0,23.0,12.0
308529,County,2020/04/06,17.0,IL,17175.0,Stark County,1343.0,4084.0,16948.0,4920.0,2584.0,1377.0,2776.0,3263.0,1580.0,301.0,147.0,0.0,0.0
311769,County,2020/04/07,17.0,IL,17175.0,Stark County,1539.0,3888.0,18509.0,6877.0,2924.0,1428.0,1824.0,3287.0,1730.0,439.0,0.0,0.0,0.0
313351,County,2020/04/08,17.0,IL,17175.0,Stark County,1426.0,4001.0,12996.0,2827.0,2093.0,1301.0,1662.0,3033.0,1607.0,318.0,104.0,41.0,10.0
318110,County,2020/04/09,17.0,IL,17175.0,Stark County,1637.0,3790.0,17090.0,4641.0,2704.0,1911.0,2440.0,3360.0,1396.0,189.0,431.0,0.0,18.0
319796,County,2020/04/10,17.0,IL,17175.0,Stark County,1669.0,3758.0,17656.0,3934.0,4557.0,1054.0,3060.0,3021.0,1238.0,597.0,195.0,0.0,0.0
322932,County,2020/04/11,17.0,IL,17175.0,Stark County,1374.0,4053.0,19615.0,7086.0,2904.0,2596.0,2535.0,2957.0,1171.0,211.0,155.0,0.0,0.0
327665,County,2020/04/12,17.0,IL,17175.0,Stark County,1812.0,3615.0,11515.0,3248.0,2023.0,1378.0,2276.0,1387.0,916.0,112.0,110.0,65.0,0.0
329342,County,2020/04/13,17.0,IL,17175.0,Stark County,1441.0,3986.0,15412.0,3340.0,3072.0,1331.0,2200.0,3315.0,1833.0,162.0,159.0,0.0,0.0
334063,County,2020/04/14,17.0,IL,17175.0,Stark County,1634.0,3793.0,13048.0,3008.0,1597.0,1152.0,2941.0,3456.0,620.0,132.0,130.0,0.0,12.0
337316,County,2020/04/15,17.0,IL,17175.0,Stark County,1608.0,3819.0,12608.0,3480.0,2054.0,172.0,2649.0,2801.0,976.0,359.0,117.0,0.0,0.0
340410,County,2020/04/16,17.0,IL,17175.0,Stark County,1757.0,3670.0,10195.0,2760.0,624.0,1574.0,2680.0,1260.0,1130.0,121.0,0.0,46.0,0.0
343722,County,2020/04/17,17.0,IL,17175.0,Stark County,1322.0,4105.0,11984.0,2220.0,2933.0,493.0,2101.0,2814.0,1195.0,228.0,0.0,0.0,0.0
346820,County,2020/04/18,17.0,IL,17175.0,Stark County,1620.0,3807.0,16163.0,5474.0,1458.0,1022.0,4179.0,1842.0,1156.0,424.0,554.0,54.0,0.0
348471,County,2020/04/19,17.0,IL,17175.0,Stark County,1719.0,3708.0,17286.0,6153.0,2240.0,1884.0,3850.0,2206.0,761.0,130.0,0.0,50.0,12.0
351678,County,2020/04/20,17.0,IL,17175.0,Stark County,1537.0,3890.0,16109.0,6073.0,2168.0,810.0,2587.0,2919.0,981.0,420.0,138.0,0.0,13.0
354871,County,2020/04/21,17.0,IL,17175.0,Stark County,1390.0,4037.0,15317.0,3302.0,1663.0,1679.0,3811.0,2352.0,1807.0,387.0,316.0,0.0,0.0
359643,County,2020/04/22,17.0,IL,17175.0,Stark County,1651.0,3776.0,15636.0,4314.0,1954.0,2260.0,2230.0,3053.0,1244.0,568.0,0.0,0.0,13.0
361172,County,2020/04/23,17.0,IL,17175.0,Stark County,1540.0,3887.0,12571.0,3275.0,1010.0,1020.0,2496.0,3061.0,1098.0,353.0,230.0,22.0,6.0
366060,County,2020/04/24,17.0,IL,17175.0,Stark County,1556.0,3871.0,15584.0,4358.0,1408.0,1094.0,3026.0,3776.0,1398.0,315.0,185.0,24.0,0.0
369216,County,2020/04/25,17.0,IL,17175.0,Stark County,1649.0,3778.0,12672.0,3801.0,2032.0,905.0,2312.0,2264.0,1056.0,139.0,136.0,27.0,0.0
370806,County,2020/04/26,17.0,IL,17175.0,Stark County,1735.0,3692.0,13276.0,5492.0,1273.0,476.0,1063.0,3643.0,1153.0,82.0,0.0,94.0,0.0
375641,County,2020/04/27,17.0,IL,17175.0,Stark County,1397.0,4030.0,19020.0,5980.0,2304.0,1586.0,2813.0,3412.0,2134.0,731.0,60.0,0.0,0.0
377187,County,2020/04/28,17.0,IL,17175.0,Stark County,1369.0,4058.0,15638.0,4627.0,1219.0,1578.0,1813.0,4333.0,1082.0,382.0,588.0,0.0,16.0
380439,County,2020/04/29,17.0,IL,17175.0,Stark County,1619.0,3808.0,13056.0,2959.0,1769.0,893.0,2280.0,3038.0,1602.0,274.0,202.0,26.0,13.0
385185,County,2020/04/30,17.0,IL,17175.0,Stark County,1288.0,4139.0,20851.0,6626.0,2231.0,1783.0,2157.0,5409.0,1743.0,584.0,318.0,0.0,0.0
386811,County,2020/05/01,17.0,IL,17175.0,Stark County,1406.0,4021.0,18686.0,5516.0,1853.0,1313.0,2829.0,4582.0,1988.0,284.0,278.0,43.0,0.0
391571,County,2020/05/02,17.0,IL,17175.0,Stark County,1194.0,4233.0,18184.0,5304.0,2240.0,1335.0,3509.0,3960.0,1268.0,489.0,53.0,21.0,5.0
394767,County,2020/05/03,17.0,IL,17175.0,Stark County,1734.0,3693.0,11713.0,2846.0,1099.0,1131.0,3281.0,2591.0,415.0,213.0,70.0,54.0,13.0
396369,County,2020/05/04,17.0,IL,17175.0,Stark County,1393.0,4034.0,18120.0,6702.0,1848.0,1372.0,2219.0,3295.0,1772.0,696.0,186.0,24.0,6.0
399588,County,2020/05/05,17.0,IL,17175.0,Stark County,1456.0,3971.0,14783.0,3064.0,2569.0,811.0,2070.0,3649.0,1381.0,623.0,610.0,0.0,6.0
402767,County,2020/05/06,17.0,IL,17175.0,Stark County,1426.0,4001.0,16788.0,4055.0,3282.0,980.0,2388.0,3369.0,1654.0,554.0,483.0,0.0,23.0
407486,County,2020/05/07,17.0,IL,17175.0,Stark County,1514.0,3913.0,16230.0,4970.0,2092.0,1174.0,1374.0,4051.0,1816.0,609.0,66.0,78.0,0.0
410798,County,2020/05/08,17.0,IL,17175.0,Stark County,1419.0,4008.0,20490.0,5422.0,3088.0,1925.0,3809.0,4159.0,1398.0,599.0,65.0,25.0,0.0
413897,County,2020/05/09,17.0,IL,17175.0,Stark County,1415.0,4012.0,16151.0,4887.0,2622.0,1704.0,2560.0,2709.0,1052.0,277.0,340.0,0.0,0.0
415558,County,2020/05/10,17.0,IL,17175.0,Stark County,1946.0,3481.0,12587.0,2915.0,1303.0,1218.0,1710.0,3728.0,1376.0,337.0,0.0,0.0,0.0
418752,County,2020/05/11,17.0,IL,17175.0,Stark County,1369.0,4058.0,18955.0,5291.0,2884.0,751.0,3394.0,4422.0,1539.0,400.0,274.0,0.0,0.0
423609,County,2020/05/12,17.0,IL,17175.0,Stark County,1343.0,4084.0,17231.0,3808.0,3113.0,1548.0,2660.0,3806.0,1682.0,412.0,202.0,0.0,0.0
426658,County,2020/05/13,17.0,IL,17175.0,Stark County,1449.0,3978.0,17702.0,5231.0,2657.0,1146.0,3586.0,3303.0,1249.0,317.0,194.0,15.0,4.0
429901,County,2020/05/14,17.0,IL,17175.0,Stark County,1407.0,4020.0,15065.0,3363.0,2636.0,1082.0,2141.0,3751.0,1485.0,337.0,256.0,14.0,0.0
431530,County,2020/05/15,17.0,IL,17175.0,Stark County,1503.0,3924.0,14809.0,2567.0,2776.0,1268.0,2471.0,3485.0,1670.0,138.0,407.0,18.0,9.0
434753,County,2020/05/16,17.0,IL,17175.0,Stark County,1434.0,3993.0,13827.0,3014.0,2397.0,1589.0,2263.0,2697.0,1135.0,254.0,373.0,97.0,8.0
439436,County,2020/05/17,17.0,IL,17175.0,Stark County,1491.0,3936.0,15441.0,3040.0,2604.0,1315.0,1492.0,3946.0,2240.0,606.0,198.0,0.0,0.0
442727,County,2020/05/18,17.0,IL,17175.0,Stark County,952.0,4475.0,19875.0,4698.0,2985.0,2398.0,2770.0,4010.0,2120.0,632.0,232.0,30.0,0.0
444305,County,2020/05/19,17.0,IL,17175.0,Stark County,1175.0,4252.0,19859.0,4633.0,2264.0,2159.0,4054.0,3660.0,1948.0,703.0,430.0,0.0,8.0
449066,County,2020/05/20,17.0,IL,17175.0,Stark County,817.0,4610.0,18195.0,3992.0,3209.0,1350.0,3291.0,3426.0,2080.0,509.0,249.0,65.0,24.0
450692,County,2020/05/21,17.0,IL,17175.0,Stark County,1229.0,4198.0,24015.0,7669.0,2534.0,1630.0,4483.0,5307.0,1620.0,347.0,425.0,0.0,0.0
455451,County,2020/05/22,17.0,IL,17175.0,Stark County,1026.0,4401.0,21075.0,5518.0,2956.0,1796.0,4058.0,4106.0,1785.0,669.0,187.0,0.0,0.0
457075,County,2020/05/23,17.0,IL,17175.0,Stark County,1491.0,3936.0,15690.0,4050.0,1348.0,1843.0,2896.0,3446.0,1602.0,392.0,0.0,113.0,0.0
461818,County,2020/05/24,17.0,IL,17175.0,Stark County,1607.0,3820.0,15737.0,4316.0,3219.0,1723.0,2357.0,2716.0,994.0,85.0,250.0,65.0,12.0
465120,County,2020/05/25,17.0,IL,17175.0,Stark County,1440.0,3987.0,13995.0,3701.0,2901.0,1079.0,2320.0,2505.0,962.0,393.0,115.0,15.0,4.0
466599,County,2020/05/26,17.0,IL,17175.0,Stark County,1196.0,4231.0,16667.0,4574.0,3142.0,846.0,2498.0,3428.0,1622.0,183.0,322.0,42.0,10.0
471468,County,2020/05/27,17.0,IL,17175.0,Stark County,1035.0,4392.0,20579.0,5309.0,3196.0,1845.0,4241.0,3323.0,1830.0,292.0,536.0,0.0,7.0
473052,County,2020/05/28,17.0,IL,17175.0,Stark County,1103.0,4324.0,23160.0,5401.0,4033.0,1594.0,4201.0,5092.0,1909.0,498.0,418.0,14.0,0.0
477806,County,2020/05/29,17.0,IL,17175.0,Stark County,1130.0,4297.0,19517.0,5055.0,2794.0,1679.0,2716.0,4587.0,1762.0,310.0,607.0,0.0,7.0
481006,County,2020/05/30,17.0,IL,17175.0,Stark County,1235.0,4192.0,20605.0,5440.0,3298.0,1040.0,4340.0,4685.0,1120.0,288.0,376.0,18.0,0.0
484150,County,2020/05/31,17.0,IL,17175.0,Stark County,1298.0,4129.0,15348.0,3671.0,1836.0,702.0,2421.0,4174.0,1531.0,680.0,333.0,0.0,0.0
487501,County,2020/06/01,17.0,IL,17175.0,Stark County,1130.0,4297.0,17761.0,3698.0,2740.0,1892.0,3020.0,3993.0,1814.0,164.0,440.0,0.0,0.0
490559,County,2020/06/02,17.0,IL,17175.0,Stark County,1502.0,3925.0,20762.0,7192.0,3340.0,1701.0,2644.0,3263.0,1731.0,460.0,401.0,20.0,10.0
493782,County,2020/06/03,17.0,IL,17175.0,Stark County,1156.0,4271.0,17967.0,4039.0,4120.0,1351.0,2701.0,2857.0,2419.0,122.0,358.0,0.0,0.0
495399,County,2020/06/04,17.0,IL,17175.0,Stark County,1066.0,4361.0,20150.0,5691.0,3173.0,1219.0,3409.0,4338.0,1687.0,201.0,432.0,0.0,0.0
500176,County,2020/06/05,17.0,IL,17175.0,Stark County,1173.0,4254.0,22569.0,7717.0,2743.0,1451.0,3704.0,4809.0,1703.0,228.0,179.0,35.0,0.0
503328,County,2020/06/06,17.0,IL,17175.0,Stark County,1417.0,4010.0,15308.0,4502.0,2516.0,1101.0,2595.0,2440.0,1435.0,410.0,287.0,22.0,0.0
504991,County,2020/06/07,17.0,IL,17175.0,Stark County,1563.0,3864.0,14237.0,2427.0,2267.0,1622.0,3166.0,2748.0,1386.0,396.0,194.0,25.0,6.0
508165,County,2020/06/08,17.0,IL,17175.0,Stark County,1125.0,4302.0,22208.0,5726.0,3558.0,1617.0,4128.0,4367.0,2272.0,248.0,284.0,0.0,8.0
512942,County,2020/06/09,17.0,IL,17175.0,Stark County,1245.0,4182.0,20498.0,6010.0,3835.0,1263.0,3045.0,3601.0,2265.0,194.0,285.0,0.0,0.0
514574,County,2020/06/10,17.0,IL,17175.0,Stark County,1478.0,3949.0,19267.0,3961.0,3006.0,1562.0,3420.0,4220.0,2282.0,514.0,302.0,0.0,0.0
517777,County,2020/06/11,17.0,IL,17175.0,Stark County,1025.0,4402.0,21851.0,5061.0,3725.0,1755.0,3762.0,5362.0,1569.0,260.0,340.0,17.0,0.0
522577,County,2020/06/12,17.0,IL,17175.0,Stark County,1129.0,4298.0,22722.0,6171.0,3880.0,2132.0,3232.0,4859.0,1721.0,276.0,451.0,0.0,0.0
525715,County,2020/06/13,17.0,IL,17175.0,Stark County,1235.0,4192.0,17900.0,4036.0,2721.0,1457.0,3897.0,3560.0,1512.0,336.0,376.0,0.0,5.0
527350,County,2020/06/14,17.0,IL,17175.0,Stark County,1576.0,3851.0,13811.0,2752.0,1922.0,1415.0,2839.0,3154.0,1360.0,0.0,365.0,0.0,4.0
532109,County,2020/06/15,17.0,IL,17175.0,Stark County,1130.0,4297.0,19562.0,5206.0,2670.0,2010.0,2869.0,4579.0,1575.0,245.0,400.0,0.0,8.0
533737,County,2020/06/16,17.0,IL,17175.0,Stark County,1243.0,4184.0,20070.0,5174.0,3161.0,2140.0,3395.0,3271.0,2199.0,493.0,220.0,17.0,0.0
538497,County,2020/06/17,17.0,IL,17175.0,Stark County,1361.0,4066.0,20995.0,5768.0,3824.0,1821.0,2946.0,4100.0,2254.0,168.0,82.0,32.0,0.0
541692,County,2020/06/18,17.0,IL,17175.0,Stark County,1421.0,4006.0,18630.0,4625.0,4485.0,1446.0,2168.0,3851.0,1625.0,217.0,213.0,0.0,0.0
543319,County,2020/06/19,17.0,IL,17175.0,Stark County,1278.0,4149.0,18254.0,4902.0,3189.0,1199.0,2551.0,4472.0,1521.0,197.0,193.0,30.0,0.0
548079,County,2020/06/20,17.0,IL,17175.0,Stark County,1514.0,3913.0,14087.0,3019.0,3173.0,958.0,2098.0,2527.0,1382.0,426.0,464.0,36.0,4.0
551266,County,2020/06/21,17.0,IL,17175.0,Stark County,1610.0,3817.0,12061.0,2869.0,1683.0,921.0,1627.0,2487.0,1715.0,147.0,575.0,37.0,0.0
552903,County,2020/06/22,17.0,IL,17175.0,Stark County,1391.0,4036.0,17987.0,5114.0,2843.0,1435.0,2850.0,3015.0,2059.0,294.0,360.0,14.0,3.0
557662,County,2020/06/23,17.0,IL,17175.0,Stark County,1148.0,4279.0,18888.0,4972.0,3147.0,1820.0,2535.0,3974.0,1781.0,229.0,411.0,15.0,4.0
560855,County,2020/06/24,17.0,IL,17175.0,Stark County,1432.0,3995.0,17324.0,3574.0,3171.0,1279.0,4117.0,2753.0,1481.0,461.0,452.0,29.0,7.0
562483,County,2020/06/25,17.0,IL,17175.0,Stark County,1358.0,4069.0,19963.0,6125.0,3905.0,1643.0,2028.0,3599.0,2033.0,341.0,260.0,29.0,0.0
567327,County,2020/06/26,17.0,IL,17175.0,Stark County,1277.0,4150.0,17670.0,3379.0,2580.0,1324.0,3785.0,4004.0,1880.0,293.0,394.0,28.0,3.0
570428,County,2020/06/27,17.0,IL,17175.0,Stark County,1384.0,4043.0,14497.0,2525.0,1982.0,1407.0,2928.0,3191.0,1683.0,252.0,529.0,0.0,0.0
572067,County,2020/06/28,17.0,IL,17175.0,Stark County,1514.0,3913.0,14201.0,3112.0,1812.0,1016.0,2966.0,3530.0,1231.0,201.0,295.0,38.0,0.0
576792,County,2020/06/29,17.0,IL,17175.0,Stark County,1147.0,4280.0,16123.0,4394.0,2203.0,1534.0,1959.0,3511.0,1806.0,309.0,390.0,17.0,0.0
580041,County,2020/06/30,17.0,IL,17175.0,Stark County,1331.0,4096.0,19252.0,5268.0,3395.0,1143.0,3729.0,3602.0,1332.0,263.0,516.0,0.0,4.0
583234,County,2020/07/01,17.0,IL,17175.0,Stark County,1248.0,4179.0,18682.0,4954.0,2844.0,864.0,3734.0,4369.0,1234.0,368.0,315.0,0.0,0.0
584833,County,2020/07/02,17.0,IL,17175.0,Stark County,1401.0,4026.0,21190.0,6501.0,4145.0,1744.0,2153.0,3820.0,2158.0,362.0,276.0,31.0,0.0
588059,County,2020/07/03,17.0,IL,17175.0,Stark County,1598.0,3829.0,17570.0,3360.0,2565.0,1317.0,3764.0,3981.0,1869.0,291.0,392.0,28.0,3.0
592810,County,2020/07/04,17.0,IL,17175.0,Stark County,1583.0,3844.0,15032.0,2875.0,2195.0,1126.0,3220.0,3406.0,1599.0,249.0,335.0,24.0,3.0
594459,County,2020/07/05,17.0,IL,17175.0,Stark County,1433.0,3994.0,14352.0,3969.0,2106.0,780.0,2625.0,2808.0,1259.0,490.0,240.0,75.0,0.0
599135,County,2020/07/06,17.0,IL,17175.0,Stark County,1442.0,3985.0,14106.0,3649.0,1733.0,761.0,1457.0,3995.0,1944.0,263.0,258.0,34.0,12.0
600810,County,2020/07/07,17.0,IL,17175.0,Stark County,1359.0,4068.0,16220.0,3622.0,2548.0,1448.0,2589.0,3495.0,1590.0,521.0,353.0,46.0,8.0
605521,County,2020/07/08,17.0,IL,17175.0,Stark County,1365.0,4062.0,16765.0,5264.0,2393.0,1007.0,2117.0,2932.0,2199.0,368.0,481.0,0.0,4.0
608775,County,2020/07/09,17.0,IL,17175.0,Stark County,1203.0,4224.0,14683.0,3756.0,2420.0,880.0,2248.0,2775.0,1866.0,228.0,484.0,15.0,11.0
611980,County,2020/07/10,17.0,IL,17175.0,Stark County,1148.0,4279.0,18048.0,4072.0,3667.0,931.0,2899.0,3932.0,1786.0,282.0,394.0,77.0,8.0
615196,County,2020/07/11,17.0,IL,17175.0,Stark County,1274.0,4153.0,16442.0,4165.0,2087.0,1332.0,3633.0,2890.0,1662.0,251.0,410.0,0.0,12.0
616780,County,2020/07/12,17.0,IL,17175.0,Stark County,1630.0,3797.0,13683.0,3717.0,1423.0,986.0,2608.0,3235.0,1080.0,292.0,286.0,56.0,0.0
619970,County,2020/07/13,17.0,IL,17175.0,Stark County,1452.0,3975.0,17032.0,3679.0,2780.0,1391.0,3228.0,3643.0,1888.0,262.0,128.0,33.0,0.0
623170,County,2020/07/14,17.0,IL,17175.0,Stark County,1380.0,4047.0,16491.0,4076.0,3014.0,1210.0,2428.0,3321.0,1582.0,478.0,351.0,31.0,0.0
627907,County,2020/07/15,17.0,IL,17175.0,Stark County,1269.0,4158.0,17091.0,3589.0,3307.0,892.0,3820.0,3261.0,1695.0,254.0,249.0,14.0,10.0
629533,County,2020/07/16,17.0,IL,17175.0,Stark County,1623.0,3804.0,19577.0,4838.0,3275.0,1181.0,4273.0,3250.0,1960.0,454.0,311.0,35.0,0.0
634267,County,2020/07/17,17.0,IL,17175.0,Stark County,1272.0,4155.0,20234.0,4185.0,3059.0,1755.0,3734.0,4740.0,2030.0,404.0,277.0,46.0,4.0
635945,County,2020/07/18,17.0,IL,17175.0,Stark County,1514.0,3913.0,17813.0,4957.0,2040.0,1144.0,3927.0,3542.0,1443.0,445.0,291.0,19.0,5.0
640673,County,2020/07/19,17.0,IL,17175.0,Stark County,1416.0,4011.0,15749.0,4479.0,1592.0,670.0,3801.0,2881.0,1442.0,360.0,504.0,20.0,0.0
642334,County,2020/07/20,17.0,IL,17175.0,Stark County,1327.0,4100.0,18659.0,5926.0,3188.0,894.0,2546.0,3344.0,2054.0,428.0,279.0,0.0,0.0
647574,County,2020/07/21,17.0,IL,17175.0,Stark County,1304.0,4123.0,17555.0,6835.0,2385.0,842.0,1818.0,3089.0,1881.0,448.0,219.0,34.0,4.0
649764,County,2020/07/22,17.0,IL,17175.0,Stark County,1307.0,4120.0,19433.0,4727.0,2808.0,639.0,2772.0,5118.0,2475.0,397.0,476.0,17.0,4.0
651829,County,2020/07/23,17.0,IL,17175.0,Stark County,1175.0,4252.0,18858.0,6025.0,3547.0,1080.0,2513.0,3202.0,1948.0,307.0,215.0,17.0,4.0
655001,County,2020/07/24,17.0,IL,17175.0,Stark County,1016.0,4411.0,19748.0,4472.0,3772.0,1392.0,2773.0,4212.0,2158.0,539.0,415.0,15.0,0.0
658298,County,2020/07/25,17.0,IL,17175.0,Stark County,1514.0,3913.0,17985.0,4549.0,4206.0,1548.0,2636.0,3054.0,1012.0,561.0,399.0,20.0,0.0
661497,County,2020/07/26,17.0,IL,17175.0,Stark County,1523.0,3904.0,14935.0,4461.0,926.0,1212.0,1989.0,3662.0,1536.0,658.0,469.0,22.0,0.0
664744,County,2020/07/27,17.0,IL,17175.0,Stark County,1415.0,4012.0,16264.0,4794.0,2890.0,1054.0,1759.0,3649.0,1505.0,448.0,165.0,0.0,0.0
669528,County,2020/07/28,17.0,IL,17175.0,Stark County,1228.0,4199.0,20410.0,5637.0,3521.0,1259.0,3498.0,3401.0,2032.0,410.0,652.0,0.0,0.0
671063,County,2020/07/29,17.0,IL,17175.0,Stark County,1261.0,4166.0,19375.0,4722.0,2936.0,1036.0,3561.0,4521.0,1866.0,496.0,216.0,21.0,0.0
674273,County,2020/07/30,17.0,IL,17175.0,Stark County,1198.0,4229.0,19361.0,4988.0,3889.0,364.0,2228.0,5041.0,1937.0,402.0,493.0,19.0,0.0
679051,County,2020/07/31,17.0,IL,17175.0,Stark County,1311.0,4116.0,17078.0,3189.0,3635.0,1147.0,2831.0,3305.0,2531.0,264.0,156.0,20.0,0.0
682172,County,2020/08/01,17.0,IL,17175.0,Stark County,1417.0,4010.0,13852.0,3906.0,1896.0,563.0,2636.0,2957.0,1439.0,195.0,254.0,0.0,6.0
685412,County,2020/08/02,17.0,IL,17175.0,Stark County,1464.0,3963.0,15084.0,2295.0,2488.0,610.0,3676.0,3692.0,1760.0,422.0,118.0,23.0,0.0
687050,County,2020/08/03,17.0,IL,17175.0,Stark County,1566.0,3861.0,14876.0,2726.0,1201.0,918.0,4340.0,3639.0,1483.0,445.0,124.0,0.0,0.0
690243,County,2020/08/04,17.0,IL,17175.0,Stark County,1247.0,4180.0,17185.0,3439.0,3131.0,979.0,3075.0,4134.0,1458.0,572.0,357.0,40.0,0.0
695002,County,2020/08/05,17.0,IL,17175.0,Stark County,1326.0,4101.0,16719.0,3809.0,2619.0,761.0,3784.0,3696.0,1718.0,157.0,154.0,21.0,0.0
698197,County,2020/08/06,17.0,IL,17175.0,Stark County,1514.0,3913.0,15733.0,4169.0,2345.0,658.0,3043.0,3182.0,1327.0,739.0,222.0,43.0,5.0
699824,County,2020/08/07,17.0,IL,17175.0,Stark County,1401.0,4026.0,15115.0,2287.0,2598.0,1015.0,2392.0,4218.0,2079.0,378.0,106.0,21.0,21.0
703022,County,2020/08/08,17.0,IL,17175.0,Stark County,1342.0,4085.0,17261.0,3375.0,1970.0,785.0,4233.0,4557.0,1620.0,603.0,118.0,0.0,0.0
706212,County,2020/08/09,17.0,IL,17175.0,Stark County,1687.0,3740.0,14527.0,3035.0,2054.0,601.0,2878.0,4060.0,1273.0,468.0,153.0,0.0,5.0
709433,County,2020/08/10,17.0,IL,17175.0,Stark County,1467.0,3960.0,17889.0,4487.0,2451.0,1000.0,2553.0,5064.0,1766.0,432.0,127.0,0.0,9.0
712601,County,2020/08/11,17.0,IL,17175.0,Stark County,1445.0,3982.0,16688.0,3544.0,2788.0,1043.0,2163.0,4812.0,1842.0,271.0,221.0,0.0,4.0
715796,County,2020/08/12,17.0,IL,17175.0,Stark County,1396.0,4031.0,19623.0,5949.0,2296.0,1031.0,3946.0,4522.0,1247.0,179.0,393.0,51.0,9.0
718989,County,2020/08/13,17.0,IL,17175.0,Stark County,1504.0,3923.0,18389.0,5278.0,2034.0,790.0,3783.0,4150.0,1541.0,182.0,579.0,35.0,17.0
722182,County,2020/08/14,17.0,IL,17175.0,Stark County,1394.0,4033.0,19941.0,6189.0,2635.0,978.0,2830.0,4403.0,2369.0,450.0,44.0,17.0,26.0
725412,County,2020/08/15,17.0,IL,17175.0,Stark County,1427.0,4000.0,19478.0,7231.0,2980.0,1433.0,2013.0,3097.0,2024.0,298.0,340.0,38.0,24.0
728572,County,2020/08/16,17.0,IL,17175.0,Stark County,1387.0,4040.0,19855.0,4715.0,3268.0,1269.0,3601.0,4127.0,2163.0,341.0,334.0,0.0,37.0
731765,County,2020/08/17,17.0,IL,17175.0,Stark County,1405.0,4022.0,16781.0,3480.0,2065.0,931.0,3089.0,4637.0,1653.0,601.0,210.0,99.0,16.0
736525,County,2020/08/18,17.0,IL,17175.0,Stark County,1447.0,3980.0,16524.0,4270.0,1923.0,633.0,2156.0,4623.0,1930.0,486.0,381.0,112.0,10.0
739719,County,2020/08/19,17.0,IL,17175.0,Stark County,1358.0,4069.0,17043.0,3389.0,2350.0,446.0,3339.0,4711.0,2009.0,309.0,388.0,68.0,34.0
741347,County,2020/08/20,17.0,IL,17175.0,Stark County,1373.0,4054.0,17324.0,3373.0,2619.0,1101.0,2648.0,4668.0,2198.0,358.0,308.0,34.0,17.0
744547,County,2020/08/21,17.0,IL,17175.0,Stark County,1332.0,4095.0,18532.0,3493.0,3101.0,1232.0,2776.0,5416.0,1872.0,300.0,294.0,19.0,29.0
747752,County,2020/08/22,17.0,IL,17175.0,Stark County,1489.0,3938.0,18039.0,4075.0,3339.0,1483.0,2790.0,3514.0,2016.0,270.0,423.0,104.0,25.0
750945,County,2020/08/23,17.0,IL,17175.0,Stark County,1650.0,3777.0,14090.0,3055.0,1293.0,1152.0,2859.0,3514.0,1808.0,266.0,130.0,0.0,13.0
755688,County,2020/08/24,17.0,IL,17175.0,Stark County,1484.0,3943.0,17569.0,3904.0,1856.0,1236.0,2575.0,4629.0,2941.0,90.0,265.0,69.0,4.0
757317,County,2020/08/25,17.0,IL,17175.0,Stark County,1257.0,4170.0,19062.0,3187.0,3019.0,1270.0,3243.0,4677.0,3168.0,160.0,273.0,46.0,19.0
762040,County,2020/08/26,17.0,IL,17175.0,Stark County,1418.0,4009.0,15834.0,3795.0,1606.0,614.0,2667.0,4259.0,2182.0,425.0,208.0,65.0,13.0
763668,County,2020/08/27,17.0,IL,17175.0,Stark County,1581.0,3846.0,17021.0,5211.0,2258.0,921.0,2132.0,3939.0,1998.0,279.0,234.0,45.0,4.0
768451,County,2020/08/28,17.0,IL,17175.0,Stark County,1468.0,3959.0,18198.0,5109.0,2636.0,779.0,2449.0,4372.0,2226.0,373.0,203.0,47.0,4.0
771651,County,2020/08/29,17.0,IL,17175.0,Stark County,1574.0,3853.0,17990.0,6033.0,2423.0,1291.0,2168.0,3976.0,1481.0,376.0,184.0,54.0,4.0
774870,County,2020/08/30,17.0,IL,17175.0,Stark County,2033.0,3394.0,14704.0,3614.0,2265.0,1305.0,2562.0,2711.0,1782.0,208.0,204.0,53.0,0.0
776479,County,2020/08/31,17.0,IL,17175.0,Stark County,1542.0,3885.0,16160.0,4106.0,1430.0,1137.0,2562.0,4034.0,2051.0,416.0,362.0,53.0,9.0
781258,County,2020/09/01,17.0,IL,17175.0,Stark County,1533.0,3894.0,19385.0,5236.0,2824.0,1426.0,2861.0,4217.0,2246.0,282.0,275.0,18.0,0.0
783653,County,2020/09/02,17.0,IL,17175.0,Stark County,1442.0,3985.0,19312.0,4658.0,2426.0,1760.0,3774.0,3865.0,2045.0,390.0,381.0,0.0,13.0
786013,County,2020/09/03,17.0,IL,17175.0,Stark County,1118.0,4309.0,20858.0,4918.0,3025.0,1717.0,3098.0,5222.0,2007.0,328.0,481.0,62.0,0.0
789219,County,2020/09/04,17.0,IL,17175.0,Stark County,1405.0,4022.0,19011.0,4013.0,1586.0,867.0,3832.0,4204.0,3069.0,831.0,587.0,18.0,4.0
792349,County,2020/09/05,17.0,IL,17175.0,Stark County,1653.0,3774.0,18935.0,5232.0,2668.0,882.0,3583.0,3249.0,2201.0,665.0,434.0,21.0,0.0
797190,County,2020/09/06,17.0,IL,17175.0,Stark County,1713.0,3714.0,13684.0,1985.0,1500.0,631.0,3224.0,3736.0,1529.0,561.0,489.0,23.0,6.0
798848,County,2020/09/07,17.0,IL,17175.0,Stark County,1657.0,3770.0,13525.0,2201.0,1572.0,827.0,2956.0,3722.0,1601.0,171.0,392.0,66.0,17.0
803599,County,2020/09/08,17.0,IL,17175.0,Stark County,1271.0,4156.0,17142.0,3572.0,1928.0,1343.0,3429.0,3879.0,1987.0,619.0,341.0,44.0,0.0
805226,County,2020/09/09,17.0,IL,17175.0,Stark County,1177.0,4250.0,20102.0,5046.0,2012.0,1584.0,3766.0,4328.0,2557.0,529.0,222.0,44.0,14.0
809996,County,2020/09/10,17.0,IL,17175.0,Stark County,1228.0,4199.0,18668.0,3816.0,2849.0,1198.0,3353.0,4163.0,2257.0,671.0,309.0,45.0,7.0
813180,County,2020/09/11,17.0,IL,17175.0,Stark County,1313.0,4114.0,19770.0,4676.0,3456.0,1306.0,3334.0,3581.0,2587.0,493.0,282.0,47.0,8.0
816376,County,2020/09/12,17.0,IL,17175.0,Stark County,1636.0,3791.0,15666.0,4457.0,2411.0,652.0,2589.0,3196.0,1286.0,651.0,343.0,76.0,5.0
819558,County,2020/09/13,17.0,IL,17175.0,Stark County,1789.0,3638.0,11885.0,1469.0,2049.0,1355.0,2989.0,1775.0,1492.0,341.0,362.0,47.0,6.0
822763,County,2020/09/14,17.0,IL,17175.0,Stark County,1460.0,3967.0,19301.0,4447.0,1826.0,1383.0,4512.0,3251.0,3224.0,372.0,260.0,21.0,5.0
824392,County,2020/09/15,17.0,IL,17175.0,Stark County,1495.0,3932.0,18005.0,3707.0,2228.0,1406.0,3163.0,4402.0,2378.0,555.0,91.0,70.0,5.0
827584,County,2020/09/16,17.0,IL,17175.0,Stark County,1356.0,4071.0,19007.0,3855.0,2888.0,1471.0,3103.0,4377.0,2271.0,752.0,260.0,17.0,13.0
830778,County,2020/09/17,17.0,IL,17175.0,Stark County,1445.0,3982.0,19710.0,4053.0,2676.0,2182.0,3235.0,3992.0,2556.0,536.0,429.0,37.0,14.0
835539,County,2020/09/18,17.0,IL,17175.0,Stark County,1135.0,4292.0,21620.0,4863.0,2243.0,1415.0,4304.0,5767.0,2286.0,606.0,91.0,36.0,9.0
837167,County,2020/09/19,17.0,IL,17175.0,Stark County,1574.0,3853.0,18260.0,3325.0,3021.0,1361.0,3593.0,3515.0,2931.0,251.0,185.0,72.0,6.0
840360,County,2020/09/20,17.0,IL,17175.0,Stark County,1860.0,3567.0,17214.0,4937.0,2445.0,497.0,3080.0,3642.0,1260.0,589.0,721.0,38.0,5.0
845147,County,2020/09/21,17.0,IL,17175.0,Stark County,1485.0,3942.0,16218.0,3762.0,1783.0,1370.0,2831.0,5051.0,1106.0,271.0,44.0,0.0,0.0
848315,County,2020/09/22,17.0,IL,17175.0,Stark County,1269.0,4158.0,22146.0,5964.0,3808.0,1813.0,3396.0,4790.0,1610.0,585.0,164.0,16.0,0.0
849942,County,2020/09/23,17.0,IL,17175.0,Stark County,1386.0,4041.0,22317.0,5212.0,2936.0,1710.0,4448.0,5532.0,1636.0,569.0,257.0,17.0,0.0
854709,County,2020/09/24,17.0,IL,17175.0,Stark County,1290.0,4137.0,19945.0,4292.0,2923.0,1766.0,3543.0,4827.0,1782.0,480.0,299.0,33.0,0.0
857896,County,2020/09/25,17.0,IL,17175.0,Stark County,1277.0,4150.0,22479.0,5234.0,3699.0,1892.0,4675.0,5001.0,1626.0,253.0,83.0,16.0,0.0
859524,County,2020/09/26,17.0,IL,17175.0,Stark County,1597.0,3830.0,21334.0,4654.0,3366.0,1684.0,3323.0,6411.0,1421.0,423.0,52.0,0.0,0.0
864271,County,2020/09/27,17.0,IL,17175.0,Stark County,1747.0,3680.0,14967.0,2287.0,2200.0,1928.0,2954.0,3751.0,1121.0,267.0,418.0,41.0,0.0
867479,County,2020/09/28,17.0,IL,17175.0,Stark County,1345.0,4082.0,17689.0,4598.0,2526.0,1610.0,2795.0,3827.0,1767.0,223.0,305.0,34.0,4.0
869107,County,2020/09/29,17.0,IL,17175.0,Stark County,1338.0,4089.0,19802.0,4400.0,2635.0,2438.0,2924.0,4658.0,2326.0,255.0,149.0,12.0,5.0
872300,County,2020/09/30,17.0,IL,17175.0,Stark County,1349.0,4078.0,19732.0,3347.0,4132.0,2318.0,3157.0,4105.0,2121.0,480.0,71.0,0.0,1.0
877040,County,2020/10/01,17.0,IL,17175.0,Stark County,1166.0,4261.0,19391.0,2677.0,4976.0,2591.0,2291.0,3710.0,2253.0,367.0,489.0,35.0,2.0
878668,County,2020/10/02,17.0,IL,17175.0,Stark County,1205.0,4222.0,19198.0,4744.0,3291.0,2250.0,3167.0,3117.0,2095.0,199.0,277.0,55.0,3.0
881883,County,2020/10/03,17.0,IL,17175.0,Stark County,1606.0,3821.0,19616.0,5591.0,4304.0,1509.0,2505.0,3533.0,1461.0,417.0,294.0,0.0,2.0
885064,County,2020/10/04,17.0,IL,17175.0,Stark County,1856.0,3571.0,15279.0,3258.0,1819.0,955.0,3434.0,3975.0,1402.0,277.0,121.0,38.0,0.0
888582,County,2020/10/05,17.0,IL,17175.0,Stark County,1449.0,3978.0,18005.0,3739.0,2625.0,1292.0,3460.0,3585.0,2644.0,435.0,223.0,0.0,2.0
891949,County,2020/10/06,17.0,IL,17175.0,Stark County,1376.0,4051.0,18694.0,3739.0,2873.0,1538.0,2910.0,5024.0,1860.0,571.0,177.0,0.0,2.0
894994,County,2020/10/07,17.0,IL,17175.0,Stark County,1046.0,4381.0,20991.0,4081.0,3951.0,1569.0,4136.0,4782.0,2226.0,144.0,99.0,0.0,3.0
898177,County,2020/10/08,17.0,IL,17175.0,Stark County,1477.0,3950.0,17479.0,4059.0,2863.0,1462.0,2881.0,3343.0,2139.0,432.0,252.0,47.0,1.0
901375,County,2020/10/09,17.0,IL,17175.0,Stark County,1480.0,3947.0,22667.0,5761.0,4247.0,1806.0,3795.0,4718.0,1610.0,521.0,198.0,11.0,0.0
904538,County,2020/10/10,17.0,IL,17175.0,Stark County,1709.0,3718.0,17675.0,4699.0,3071.0,1326.0,2700.0,3553.0,1432.0,894.0,0.0,0.0,0.0
909937,County,2020/10/11,17.0,IL,17175.0,Stark County,1559.0,3868.0,15074.0,3861.0,2669.0,1188.0,2251.0,2975.0,1351.0,358.0,395.0,25.0,1.0
913013,County,2020/10/12,17.0,IL,17175.0,Stark County,1473.0,3954.0,19252.0,3690.0,4937.0,2300.0,2155.0,3251.0,2187.0,575.0,154.0,0.0,3.0
916365,County,2020/10/13,17.0,IL,17175.0,Stark County,1195.0,4232.0,20556.0,5097.0,3118.0,1086.0,4112.0,3684.0,2592.0,716.0,141.0,10.0,0.0
919146,County,2020/10/14,17.0,IL,17175.0,Stark County,1095.0,4332.0,24398.0,6758.0,5813.0,1236.0,2861.0,4090.0,2898.0,435.0,284.0,20.0,3.0
922728,County,2020/10/15,17.0,IL,17175.0,Stark County,1318.0,4109.0,21023.0,5509.0,3848.0,1507.0,3278.0,3961.0,2134.0,294.0,477.0,12.0,3.0
925302,County,2020/10/16,17.0,IL,17175.0,Stark County,1295.0,4132.0,22733.0,3938.0,4982.0,1633.0,4394.0,4604.0,1980.0,749.0,441.0,10.0,2.0
928772,County,2020/10/17,17.0,IL,17175.0,Stark County,1394.0,4033.0,21636.0,3412.0,5659.0,1303.0,4358.0,4704.0,1710.0,216.0,239.0,33.0,2.0
931993,County,2020/10/18,17.0,IL,17175.0,Stark County,1566.0,3861.0,16804.0,3677.0,2569.0,1180.0,2782.0,3446.0,1942.0,664.0,530.0,12.0,2.0
934662,County,2020/10/19,17.0,IL,17175.0,Stark County,1103.0,4324.0,21733.0,5532.0,4945.0,1109.0,3151.0,4067.0,2428.0,244.0,251.0,0.0,6.0
938233,County,2020/10/20,17.0,IL,17175.0,Stark County,1573.0,3854.0,21921.0,5123.0,3815.0,1621.0,4666.0,3394.0,2368.0,507.0,373.0,53.0,1.0
941840,County,2020/10/21,17.0,IL,17175.0,Stark County,1372.0,4055.0,18702.0,4336.0,3798.0,1322.0,2087.0,4344.0,1908.0,582.0,299.0,24.0,2.0
945109,County,2020/10/22,17.0,IL,17175.0,Stark County,1436.0,3991.0,19314.0,4170.0,2869.0,1660.0,3993.0,3740.0,2329.0,279.0,246.0,23.0,5.0
948273,County,2020/10/23,17.0,IL,17175.0,Stark County,1322.0,4105.0,21982.0,5504.0,3984.0,1025.0,3697.0,4552.0,2331.0,412.0,455.0,21.0,1.0
951156,County,2020/10/24,17.0,IL,17175.0,Stark County,1323.0,4104.0,19963.0,4590.0,4227.0,1398.0,3199.0,3904.0,1879.0,492.0,272.0,0.0,2.0
