,Level,Date,State FIPS,State Postal Code,County FIPS,County Name,Population Staying at Home,Population Not Staying at Home,Number of Trips,Number of Trips <1,Number of Trips 1-3,Number of Trips 3-5,Number of Trips 5-10,Number of Trips 10-25,Number of Trips 25-50,Number of Trips 50-100,Number of Trips 100-250,Number of Trips 250-500,Number of Trips >=500
2860,County,2020/01/01,51.0,VA,51083.0,Halifax County,5819.0,28301.0,116134.0,25107.0,29013.0,15509.0,20478.0,16404.0,5468.0,2659.0,1315.0,136.0,45.0
4166,County,2020/01/02,51.0,VA,51083.0,Halifax County,5319.0,28801.0,145192.0,28341.0,38931.0,21240.0,20552.0,19665.0,8880.0,5565.0,1862.0,123.0,33.0
6816,County,2020/01/03,51.0,VA,51083.0,Halifax County,5331.0,28789.0,143673.0,28110.0,37063.0,21975.0,20258.0,21356.0,9039.0,4146.0,1550.0,120.0,56.0
11254,County,2020/01/04,51.0,VA,51083.0,Halifax County,5856.0,28264.0,131877.0,22385.0,35772.0,20240.0,19674.0,20126.0,8788.0,3336.0,1279.0,198.0,79.0
15635,County,2020/01/05,51.0,VA,51083.0,Halifax County,6038.0,28082.0,118794.0,22778.0,29162.0,15402.0,19958.0,20270.0,6175.0,2974.0,1818.0,184.0,73.0
18976,County,2020/01/06,51.0,VA,51083.0,Halifax County,5149.0,28971.0,140046.0,27288.0,37597.0,18580.0,22374.0,19291.0,9239.0,4020.0,1315.0,272.0,70.0
22170,County,2020/01/07,51.0,VA,51083.0,Halifax County,4872.0,29248.0,136261.0,26217.0,36499.0,19724.0,21740.0,17070.0,9343.0,4234.0,1156.0,229.0,49.0
25364,County,2020/01/08,51.0,VA,51083.0,Halifax County,4970.0,29150.0,147336.0,29018.0,39454.0,19973.0,23021.0,21215.0,8504.0,4856.0,1167.0,91.0,37.0
26991,County,2020/01/09,51.0,VA,51083.0,Halifax County,5042.0,29078.0,143605.0,29369.0,32754.0,19375.0,24011.0,21464.0,11059.0,4365.0,957.0,194.0,57.0
31753,County,2020/01/10,51.0,VA,51083.0,Halifax County,5047.0,29073.0,155370.0,29796.0,37792.0,22527.0,24671.0,22196.0,11159.0,5475.0,1444.0,280.0,30.0
34947,County,2020/01/11,51.0,VA,51083.0,Halifax County,5326.0,28794.0,133949.0,22957.0,36449.0,18326.0,23205.0,18074.0,9519.0,3723.0,1484.0,183.0,29.0
36585,County,2020/01/12,51.0,VA,51083.0,Halifax County,5994.0,28126.0,121551.0,19429.0,33844.0,17445.0,20813.0,18310.0,6928.0,3122.0,1368.0,243.0,49.0
39826,County,2020/01/13,51.0,VA,51083.0,Halifax County,5187.0,28933.0,135745.0,25730.0,37627.0,18715.0,20218.0,17809.0,9177.0,4623.0,1635.0,176.0,35.0
42990,County,2020/01/14,51.0,VA,51083.0,Halifax County,4796.0,29324.0,134136.0,25697.0,34769.0,18040.0,21781.0,18659.0,8940.0,4953.0,1066.0,184.0,47.0
47718,County,2020/01/15,51.0,VA,51083.0,Halifax County,4918.0,29202.0,137368.0,25830.0,35707.0,17796.0,21606.0,19938.0,10172.0,4569.0,1528.0,168.0,54.0
49246,County,2020/01/16,51.0,VA,51083.0,Halifax County,4809.0,29311.0,145920.0,25782.0,40441.0,21839.0,21717.0,20073.0,9377.0,5128.0,1338.0,190.0,35.0
54160,County,2020/01/17,51.0,VA,51083.0,Halifax County,5084.0,29036.0,148260.0,30476.0,38457.0,19619.0,21580.0,19989.0,10160.0,6255.0,1509.0,149.0,66.0
55734,County,2020/01/18,51.0,VA,51083.0,Halifax County,5518.0,28602.0,133313.0,28491.0,30401.0,19142.0,21451.0,18555.0,9148.0,4905.0,1048.0,112.0,60.0
58931,County,2020/01/19,51.0,VA,51083.0,Halifax County,5864.0,28256.0,119781.0,25742.0,28331.0,18530.0,19675.0,16211.0,6806.0,3366.0,828.0,253.0,39.0
62114,County,2020/01/20,51.0,VA,51083.0,Halifax County,5335.0,28785.0,131602.0,25238.0,29823.0,19634.0,22510.0,18952.0,8981.0,4507.0,1465.0,388.0,104.0
65320,County,2020/01/21,51.0,VA,51083.0,Halifax County,5192.0,28928.0,139070.0,25323.0,36240.0,19396.0,19606.0,21095.0,10658.0,4894.0,1516.0,279.0,63.0
70080,County,2020/01/22,51.0,VA,51083.0,Halifax County,5161.0,28959.0,142991.0,26680.0,34996.0,19456.0,21928.0,23256.0,10163.0,4599.0,1651.0,218.0,44.0
71707,County,2020/01/23,51.0,VA,51083.0,Halifax County,5048.0,29072.0,147060.0,26490.0,40228.0,22881.0,20357.0,20648.0,9754.0,4936.0,1388.0,326.0,52.0
76468,County,2020/01/24,51.0,VA,51083.0,Halifax County,5070.0,29050.0,144630.0,25857.0,38448.0,20820.0,23399.0,20548.0,9021.0,4639.0,1389.0,457.0,52.0
78097,County,2020/01/25,51.0,VA,51083.0,Halifax County,5456.0,28664.0,140710.0,25770.0,33729.0,23417.0,21531.0,19973.0,11170.0,3602.0,1145.0,287.0,86.0
82709,County,2020/01/26,51.0,VA,51083.0,Halifax County,5618.0,28502.0,132485.0,26410.0,31240.0,19911.0,22957.0,19952.0,6516.0,4141.0,1111.0,122.0,125.0
86018,County,2020/01/27,51.0,VA,51083.0,Halifax County,5134.0,28986.0,142306.0,27406.0,34758.0,22291.0,22727.0,19489.0,9879.0,4362.0,1225.0,130.0,39.0
87740,County,2020/01/28,51.0,VA,51083.0,Halifax County,5119.0,29001.0,144829.0,26200.0,34583.0,23400.0,22934.0,21216.0,9282.0,5768.0,1236.0,164.0,46.0
90846,County,2020/01/29,51.0,VA,51083.0,Halifax County,5091.0,29029.0,137416.0,26724.0,33793.0,19366.0,23525.0,18789.0,9425.0,3815.0,1706.0,177.0,96.0
95632,County,2020/01/30,51.0,VA,51083.0,Halifax County,5029.0,29091.0,137507.0,23868.0,32982.0,20565.0,22091.0,19477.0,10512.0,6140.0,1605.0,204.0,63.0
97206,County,2020/01/31,51.0,VA,51083.0,Halifax County,4945.0,29175.0,144988.0,24554.0,36397.0,23006.0,24541.0,21868.0,7969.0,4815.0,1595.0,135.0,108.0
102013,County,2020/02/01,51.0,VA,51083.0,Halifax County,5014.0,29106.0,147207.0,26315.0,35850.0,24434.0,24178.0,19337.0,9818.0,5489.0,1510.0,216.0,60.0
105214,County,2020/02/02,51.0,VA,51083.0,Halifax County,5839.0,28281.0,131046.0,21357.0,31297.0,21137.0,25898.0,18982.0,7005.0,4015.0,1053.0,246.0,56.0
106840,County,2020/02/03,51.0,VA,51083.0,Halifax County,5069.0,29051.0,142610.0,25574.0,33892.0,21737.0,23927.0,21330.0,9423.0,4775.0,1658.0,245.0,49.0
110036,County,2020/02/04,51.0,VA,51083.0,Halifax County,4818.0,29302.0,146375.0,28293.0,37333.0,19400.0,23758.0,20897.0,10351.0,4413.0,1664.0,190.0,76.0
113181,County,2020/02/05,51.0,VA,51083.0,Halifax County,4768.0,29352.0,140001.0,25016.0,37833.0,21620.0,21442.0,19546.0,8542.0,3993.0,1612.0,316.0,81.0
117963,County,2020/02/06,51.0,VA,51083.0,Halifax County,5110.0,29010.0,129948.0,21909.0,32641.0,19784.0,21839.0,19090.0,8790.0,3924.0,1603.0,318.0,50.0
119590,County,2020/02/07,51.0,VA,51083.0,Halifax County,4760.0,29360.0,153416.0,29065.0,39225.0,23600.0,22990.0,21388.0,10649.0,4337.0,1802.0,276.0,84.0
122837,County,2020/02/08,51.0,VA,51083.0,Halifax County,5020.0,29100.0,139309.0,25337.0,34655.0,21132.0,24294.0,20425.0,8238.0,3933.0,1007.0,178.0,110.0
126875,County,2020/02/09,51.0,VA,51083.0,Halifax County,6193.0,27927.0,112319.0,18643.0,28315.0,15347.0,21489.0,16513.0,7083.0,2980.0,1590.0,202.0,157.0
128025,County,2020/02/10,51.0,VA,51083.0,Halifax County,4988.0,29132.0,136450.0,27912.0,31830.0,17562.0,23857.0,19139.0,9530.0,4343.0,1845.0,301.0,131.0
132884,County,2020/02/11,51.0,VA,51083.0,Halifax County,4646.0,29474.0,138665.0,25256.0,35384.0,18645.0,23777.0,19054.0,9826.0,5183.0,1156.0,267.0,117.0
134487,County,2020/02/12,51.0,VA,51083.0,Halifax County,4313.0,29807.0,143985.0,28804.0,37351.0,19158.0,24498.0,19355.0,9167.0,3790.0,1640.0,133.0,89.0
138818,County,2020/02/13,51.0,VA,51083.0,Halifax County,4358.0,29762.0,143849.0,24488.0,37063.0,21233.0,24919.0,21080.0,9328.0,3932.0,1430.0,279.0,97.0
141877,County,2020/02/14,51.0,VA,51083.0,Halifax County,4082.0,30038.0,149485.0,25694.0,36728.0,19828.0,25440.0,23270.0,11102.0,4864.0,2086.0,327.0,146.0
145174,County,2020/02/15,51.0,VA,51083.0,Halifax County,5302.0,28818.0,138575.0,23359.0,32960.0,16482.0,25657.0,22245.0,10918.0,4711.0,1820.0,286.0,137.0
148362,County,2020/02/16,51.0,VA,51083.0,Halifax County,6110.0,28010.0,129988.0,24527.0,34689.0,15874.0,21917.0,20721.0,6973.0,3274.0,1652.0,253.0,108.0
151540,County,2020/02/17,51.0,VA,51083.0,Halifax County,5892.0,28228.0,114304.0,21063.0,28344.0,14294.0,21044.0,16877.0,6678.0,4089.0,1496.0,316.0,103.0
156319,County,2020/02/18,51.0,VA,51083.0,Halifax County,4878.0,29242.0,139879.0,27057.0,34129.0,19859.0,23359.0,20523.0,8581.0,4366.0,1528.0,333.0,144.0
157946,County,2020/02/19,51.0,VA,51083.0,Halifax County,4582.0,29538.0,135921.0,23408.0,32529.0,18608.0,23219.0,21624.0,9333.0,5102.0,1612.0,339.0,147.0
161007,County,2020/02/20,51.0,VA,51083.0,Halifax County,5181.0,28939.0,139763.0,26291.0,36821.0,18501.0,20272.0,21706.0,8839.0,4989.0,1793.0,419.0,132.0
165900,County,2020/02/21,51.0,VA,51083.0,Halifax County,5120.0,29000.0,137549.0,24650.0,34468.0,19125.0,22401.0,21126.0,9104.0,4554.0,1629.0,437.0,55.0
169047,County,2020/02/22,51.0,VA,51083.0,Halifax County,5158.0,28962.0,139321.0,23250.0,34925.0,20492.0,20893.0,22428.0,11301.0,4262.0,1452.0,262.0,56.0
170708,County,2020/02/23,51.0,VA,51083.0,Halifax County,5536.0,28584.0,116717.0,18152.0,28892.0,14379.0,20663.0,19979.0,7256.0,5008.0,1990.0,314.0,84.0
175488,County,2020/02/24,51.0,VA,51083.0,Halifax County,4997.0,29123.0,135338.0,24180.0,31715.0,21012.0,21130.0,21235.0,10361.0,3804.0,1617.0,220.0,64.0
178530,County,2020/02/25,51.0,VA,51083.0,Halifax County,4362.0,29758.0,154297.0,30997.0,39472.0,19374.0,24240.0,22625.0,11265.0,4339.0,1658.0,189.0,138.0
181723,County,2020/02/26,51.0,VA,51083.0,Halifax County,4656.0,29464.0,189429.0,39271.0,50692.0,26853.0,26831.0,27639.0,11741.0,4912.0,1366.0,88.0,36.0
185060,County,2020/02/27,51.0,VA,51083.0,Halifax County,4347.0,29773.0,141533.0,26879.0,30978.0,20881.0,24187.0,22324.0,10780.0,3608.0,1606.0,183.0,107.0
188258,County,2020/02/28,51.0,VA,51083.0,Halifax County,4261.0,29859.0,156363.0,28672.0,38965.0,22428.0,25450.0,24892.0,10608.0,3863.0,1335.0,87.0,63.0
191452,County,2020/02/29,51.0,VA,51083.0,Halifax County,4626.0,29494.0,145341.0,29925.0,32155.0,20233.0,22868.0,20473.0,11923.0,6108.0,1462.0,97.0,97.0
193077,County,2020/03/01,51.0,VA,51083.0,Halifax County,5388.0,28732.0,146447.0,30896.0,34347.0,18983.0,25420.0,21960.0,8965.0,4214.0,1439.0,124.0,99.0
196299,County,2020/03/02,51.0,VA,51083.0,Halifax County,4536.0,29584.0,163017.0,32366.0,39234.0,22918.0,25736.0,25278.0,11399.0,3798.0,2062.0,103.0,123.0
199359,County,2020/03/03,51.0,VA,51083.0,Halifax County,4383.0,29737.0,179300.0,34842.0,47942.0,25850.0,26195.0,25064.0,12322.0,4675.0,2221.0,105.0,84.0
201785,County,2020/03/04,51.0,VA,51083.0,Halifax County,4555.0,29565.0,179556.0,32375.0,51927.0,24005.0,25693.0,26508.0,12695.0,4236.0,1976.0,108.0,33.0
205806,County,2020/03/05,51.0,VA,51083.0,Halifax County,4039.0,30081.0,178658.0,36137.0,48302.0,22580.0,25514.0,25252.0,12506.0,5765.0,2238.0,237.0,127.0
208924,County,2020/03/06,51.0,VA,51083.0,Halifax County,4272.0,29848.0,177176.0,30722.0,43652.0,26024.0,28983.0,27499.0,12381.0,6083.0,1544.0,267.0,21.0
212225,County,2020/03/07,51.0,VA,51083.0,Halifax County,4591.0,29529.0,165880.0,26335.0,42136.0,23831.0,27831.0,23865.0,13975.0,6447.0,1269.0,120.0,71.0
215441,County,2020/03/08,51.0,VA,51083.0,Halifax County,5115.0,29005.0,145518.0,26047.0,35433.0,18488.0,26061.0,22961.0,9084.0,5503.0,1577.0,303.0,61.0
220198,County,2020/03/09,51.0,VA,51083.0,Halifax County,4549.0,29571.0,173652.0,31546.0,41437.0,26208.0,29196.0,25092.0,12460.0,5774.0,1662.0,227.0,50.0
223391,County,2020/03/10,51.0,VA,51083.0,Halifax County,4601.0,29519.0,172536.0,33421.0,44450.0,21278.0,27266.0,26299.0,11855.0,5725.0,1946.0,212.0,84.0
225066,County,2020/03/11,51.0,VA,51083.0,Halifax County,4169.0,29951.0,188292.0,28374.0,57684.0,23313.0,32230.0,25154.0,11257.0,7731.0,2191.0,239.0,119.0
229713,County,2020/03/12,51.0,VA,51083.0,Halifax County,4494.0,29626.0,196137.0,31932.0,63879.0,26233.0,30843.0,23537.0,10057.0,6847.0,2318.0,300.0,191.0
231410,County,2020/03/13,51.0,VA,51083.0,Halifax County,3941.0,30179.0,195374.0,31196.0,54013.0,26812.0,34723.0,30797.0,9737.0,5088.0,2747.0,170.0,91.0
234462,County,2020/03/14,51.0,VA,51083.0,Halifax County,5324.0,28796.0,173489.0,27869.0,49560.0,25976.0,29552.0,23536.0,9554.0,5328.0,1668.0,360.0,86.0
239362,County,2020/03/15,51.0,VA,51083.0,Halifax County,6362.0,27758.0,127468.0,23123.0,33306.0,14581.0,23364.0,21166.0,7496.0,2459.0,1599.0,214.0,160.0
242555,County,2020/03/16,51.0,VA,51083.0,Halifax County,5648.0,28472.0,145444.0,27700.0,37299.0,19150.0,25126.0,18460.0,10155.0,4693.0,2362.0,380.0,119.0
245749,County,2020/03/17,51.0,VA,51083.0,Halifax County,6115.0,28005.0,146689.0,27588.0,35996.0,20621.0,24805.0,22559.0,8386.0,4256.0,2186.0,248.0,44.0
248904,County,2020/03/18,51.0,VA,51083.0,Halifax County,6008.0,28112.0,140138.0,25127.0,37713.0,18431.0,23631.0,21029.0,7725.0,4463.0,1741.0,191.0,87.0
250582,County,2020/03/19,51.0,VA,51083.0,Halifax County,5830.0,28290.0,151731.0,29690.0,37278.0,20585.0,24892.0,20792.0,10735.0,5312.0,2150.0,265.0,32.0
255332,County,2020/03/20,51.0,VA,51083.0,Halifax County,5588.0,28532.0,153060.0,30040.0,39817.0,20200.0,23937.0,24626.0,8755.0,3866.0,1532.0,205.0,82.0
256910,County,2020/03/21,51.0,VA,51083.0,Halifax County,6894.0,27226.0,141899.0,29217.0,33974.0,21635.0,22478.0,24033.0,7297.0,1855.0,1100.0,221.0,89.0
261714,County,2020/03/22,51.0,VA,51083.0,Halifax County,6601.0,27519.0,112555.0,25016.0,29188.0,14884.0,16639.0,16681.0,5201.0,2679.0,1858.0,310.0,99.0
263349,County,2020/03/23,51.0,VA,51083.0,Halifax County,5948.0,28172.0,120783.0,27328.0,29139.0,16300.0,17680.0,17365.0,7637.0,3529.0,1572.0,203.0,30.0
268105,County,2020/03/24,51.0,VA,51083.0,Halifax County,5643.0,28477.0,127691.0,29042.0,30033.0,16105.0,20951.0,18158.0,8236.0,3162.0,1584.0,307.0,113.0
271302,County,2020/03/25,51.0,VA,51083.0,Halifax County,6159.0,27961.0,131626.0,26089.0,30921.0,16548.0,24028.0,18778.0,8977.0,4617.0,1200.0,423.0,45.0
274478,County,2020/03/26,51.0,VA,51083.0,Halifax County,5881.0,28239.0,140229.0,34733.0,35278.0,18427.0,19544.0,19686.0,8380.0,2661.0,1250.0,216.0,54.0
276116,County,2020/03/27,51.0,VA,51083.0,Halifax County,6203.0,27917.0,131214.0,23077.0,34815.0,18345.0,21731.0,19814.0,7362.0,4226.0,1680.0,132.0,32.0
280877,County,2020/03/28,51.0,VA,51083.0,Halifax County,6289.0,27831.0,128966.0,29370.0,32898.0,16909.0,18666.0,18830.0,6384.0,4544.0,1212.0,109.0,44.0
282512,County,2020/03/29,51.0,VA,51083.0,Halifax County,6855.0,27265.0,110456.0,23781.0,33121.0,15676.0,17988.0,12324.0,3775.0,2593.0,928.0,210.0,60.0
287303,County,2020/03/30,51.0,VA,51083.0,Halifax County,5709.0,28411.0,134669.0,28667.0,32352.0,18905.0,20189.0,20700.0,7860.0,4209.0,1619.0,120.0,48.0
290461,County,2020/03/31,51.0,VA,51083.0,Halifax County,6356.0,27764.0,122355.0,24777.0,29903.0,17584.0,20094.0,17685.0,5636.0,4811.0,1559.0,188.0,118.0
293660,County,2020/04/01,51.0,VA,51083.0,Halifax County,6098.0,28022.0,134085.0,23903.0,36989.0,19929.0,21068.0,20694.0,5987.0,4229.0,1070.0,184.0,32.0
295288,County,2020/04/02,51.0,VA,51083.0,Halifax County,6015.0,28105.0,139182.0,27252.0,36663.0,20432.0,20524.0,20924.0,8267.0,3163.0,1778.0,105.0,74.0
300048,County,2020/04/03,51.0,VA,51083.0,Halifax County,5649.0,28471.0,138976.0,34536.0,30297.0,21500.0,21037.0,19576.0,8103.0,2616.0,1012.0,249.0,50.0
301674,County,2020/04/04,51.0,VA,51083.0,Halifax County,6454.0,27666.0,131775.0,28475.0,32651.0,20150.0,22026.0,18635.0,6281.0,2546.0,740.0,236.0,35.0
304857,County,2020/04/05,51.0,VA,51083.0,Halifax County,6772.0,27348.0,120663.0,31002.0,30000.0,15734.0,18481.0,17912.0,3583.0,2756.0,1023.0,132.0,40.0
309630,County,2020/04/06,51.0,VA,51083.0,Halifax County,5936.0,28184.0,140788.0,33063.0,36426.0,17966.0,21306.0,18448.0,6770.0,4547.0,2109.0,109.0,44.0
311257,County,2020/04/07,51.0,VA,51083.0,Halifax County,5806.0,28314.0,135402.0,25432.0,35577.0,19744.0,23317.0,18679.0,7670.0,3188.0,1547.0,155.0,93.0
314452,County,2020/04/08,51.0,VA,51083.0,Halifax County,5839.0,28281.0,130575.0,27318.0,29004.0,19233.0,23287.0,18038.0,7777.0,4500.0,1285.0,102.0,31.0
319212,County,2020/04/09,51.0,VA,51083.0,Halifax County,6018.0,28102.0,143177.0,32187.0,40715.0,17291.0,23672.0,16718.0,8406.0,2610.0,1430.0,106.0,42.0
320848,County,2020/04/10,51.0,VA,51083.0,Halifax County,5778.0,28342.0,140430.0,29221.0,34099.0,21837.0,25064.0,17994.0,8460.0,2938.0,736.0,27.0,54.0
325601,County,2020/04/11,51.0,VA,51083.0,Halifax County,6099.0,28021.0,130703.0,27798.0,33824.0,19172.0,22823.0,17119.0,6270.0,2595.0,867.0,112.0,123.0
328768,County,2020/04/12,51.0,VA,51083.0,Halifax County,7146.0,26974.0,102809.0,18689.0,25689.0,16800.0,21166.0,13653.0,4872.0,1229.0,660.0,29.0,22.0
331988,County,2020/04/13,51.0,VA,51083.0,Halifax County,6484.0,27636.0,126560.0,27006.0,29145.0,19000.0,22828.0,19021.0,5517.0,2616.0,1299.0,58.0,70.0
335163,County,2020/04/14,51.0,VA,51083.0,Halifax County,5828.0,28292.0,142287.0,28841.0,41748.0,20175.0,22926.0,18015.0,5593.0,3505.0,1297.0,104.0,83.0
338368,County,2020/04/15,51.0,VA,51083.0,Halifax County,5692.0,28428.0,148698.0,28650.0,41621.0,20768.0,25554.0,17404.0,10568.0,3111.0,780.0,202.0,40.0
341513,County,2020/04/16,51.0,VA,51083.0,Halifax County,5984.0,28136.0,149758.0,31321.0,39921.0,20500.0,25202.0,19296.0,9370.0,3144.0,726.0,214.0,64.0
343295,County,2020/04/17,51.0,VA,51083.0,Halifax County,5506.0,28614.0,155998.0,37679.0,45696.0,18373.0,21936.0,18829.0,8771.0,3461.0,1136.0,53.0,64.0
347921,County,2020/04/18,51.0,VA,51083.0,Halifax County,5883.0,28237.0,153197.0,32432.0,49035.0,21510.0,21107.0,17244.0,7265.0,3619.0,825.0,53.0,107.0
351152,County,2020/04/19,51.0,VA,51083.0,Halifax County,6107.0,28013.0,136046.0,29345.0,39563.0,19639.0,24714.0,13693.0,5784.0,2113.0,1103.0,0.0,92.0
354352,County,2020/04/20,51.0,VA,51083.0,Halifax County,5617.0,28503.0,161220.0,35460.0,51142.0,17111.0,21261.0,21604.0,9231.0,4483.0,638.0,264.0,26.0
357540,County,2020/04/21,51.0,VA,51083.0,Halifax County,5714.0,28406.0,133244.0,27069.0,34881.0,18526.0,21836.0,18236.0,7471.0,3431.0,1543.0,228.0,23.0
359168,County,2020/04/22,51.0,VA,51083.0,Halifax County,5472.0,28648.0,137057.0,31047.0,32730.0,19521.0,23919.0,17890.0,8496.0,2287.0,1031.0,89.0,47.0
362274,County,2020/04/23,51.0,VA,51083.0,Halifax County,5846.0,28274.0,122652.0,24916.0,29191.0,16203.0,22379.0,17247.0,8236.0,3254.0,959.0,217.0,50.0
367159,County,2020/04/24,51.0,VA,51083.0,Halifax County,5325.0,28795.0,150702.0,32511.0,33856.0,25753.0,23700.0,20795.0,8455.0,4304.0,1100.0,171.0,57.0
370318,County,2020/04/25,51.0,VA,51083.0,Halifax County,5820.0,28300.0,136763.0,30778.0,30652.0,16103.0,24081.0,22568.0,8658.0,2487.0,1269.0,119.0,48.0
371862,County,2020/04/26,51.0,VA,51083.0,Halifax County,6242.0,27878.0,116347.0,21882.0,30889.0,16714.0,19879.0,18158.0,6696.0,1373.0,661.0,68.0,27.0
375138,County,2020/04/27,51.0,VA,51083.0,Halifax County,5297.0,28823.0,142031.0,29565.0,33678.0,21458.0,24237.0,19323.0,8827.0,3263.0,1533.0,147.0,0.0
378288,County,2020/04/28,51.0,VA,51083.0,Halifax County,5730.0,28390.0,141537.0,28003.0,34244.0,25594.0,23199.0,18915.0,7338.0,2254.0,1588.0,365.0,37.0
381540,County,2020/04/29,51.0,VA,51083.0,Halifax County,5491.0,28629.0,144105.0,31923.0,34646.0,23639.0,20159.0,20764.0,8541.0,2908.0,1366.0,147.0,12.0
386286,County,2020/04/30,51.0,VA,51083.0,Halifax County,5502.0,28618.0,140863.0,28311.0,36862.0,21348.0,20298.0,19625.0,8932.0,4165.0,1110.0,201.0,11.0
389473,County,2020/05/01,51.0,VA,51083.0,Halifax County,5352.0,28768.0,141103.0,23964.0,35455.0,23154.0,23126.0,23416.0,7889.0,2549.0,1330.0,220.0,0.0
392674,County,2020/05/02,51.0,VA,51083.0,Halifax County,5501.0,28619.0,152803.0,30509.0,39880.0,22779.0,24334.0,22509.0,9147.0,2758.0,740.0,96.0,51.0
394308,County,2020/05/03,51.0,VA,51083.0,Halifax County,6048.0,28072.0,127636.0,21510.0,34756.0,18507.0,25142.0,18119.0,5936.0,2507.0,1070.0,74.0,15.0
399062,County,2020/05/04,51.0,VA,51083.0,Halifax County,5457.0,28663.0,142467.0,25185.0,37859.0,23883.0,20352.0,22447.0,8052.0,3413.0,1128.0,123.0,25.0
402238,County,2020/05/05,51.0,VA,51083.0,Halifax County,5149.0,28971.0,137761.0,24852.0,36879.0,21023.0,21505.0,17990.0,9814.0,4462.0,1075.0,139.0,22.0
405445,County,2020/05/06,51.0,VA,51083.0,Halifax County,5265.0,28855.0,152742.0,28313.0,36426.0,25000.0,26035.0,21095.0,9279.0,5322.0,1058.0,192.0,22.0
407071,County,2020/05/07,51.0,VA,51083.0,Halifax County,4953.0,29167.0,145435.0,30174.0,35346.0,22919.0,21114.0,22615.0,8571.0,3426.0,898.0,310.0,62.0
410374,County,2020/05/08,51.0,VA,51083.0,Halifax County,5174.0,28946.0,147300.0,30084.0,35143.0,22253.0,25038.0,23157.0,7728.0,2437.0,1323.0,105.0,32.0
413380,County,2020/05/09,51.0,VA,51083.0,Halifax County,5307.0,28813.0,139712.0,23794.0,32172.0,26937.0,24027.0,19977.0,8759.0,2796.0,1051.0,151.0,48.0
418227,County,2020/05/10,51.0,VA,51083.0,Halifax County,5858.0,28262.0,141521.0,28433.0,33067.0,22553.0,26624.0,22040.0,5489.0,2521.0,668.0,63.0,63.0
419901,County,2020/05/11,51.0,VA,51083.0,Halifax County,4886.0,29234.0,148504.0,30856.0,39152.0,20949.0,20675.0,19957.0,10368.0,4815.0,1489.0,212.0,31.0
423087,County,2020/05/12,51.0,VA,51083.0,Halifax County,4687.0,29433.0,146092.0,26586.0,39585.0,19847.0,23147.0,21044.0,10018.0,4251.0,1439.0,168.0,7.0
427809,County,2020/05/13,51.0,VA,51083.0,Halifax County,4677.0,29443.0,143953.0,25620.0,38936.0,21963.0,21291.0,20229.0,8870.0,5106.0,1599.0,301.0,38.0
431002,County,2020/05/14,51.0,VA,51083.0,Halifax County,4904.0,29216.0,143183.0,29004.0,36887.0,19213.0,19529.0,21781.0,10808.0,3818.0,1868.0,213.0,62.0
432630,County,2020/05/15,51.0,VA,51083.0,Halifax County,4867.0,29253.0,154185.0,31473.0,38060.0,24000.0,21921.0,22882.0,8882.0,5188.0,1587.0,137.0,55.0
435855,County,2020/05/16,51.0,VA,51083.0,Halifax County,4903.0,29217.0,151881.0,35186.0,37976.0,19454.0,23097.0,21508.0,9135.0,4127.0,1175.0,182.0,41.0
439007,County,2020/05/17,51.0,VA,51083.0,Halifax County,4847.0,29273.0,154077.0,31745.0,38558.0,22864.0,26106.0,21789.0,7838.0,3775.0,1182.0,204.0,16.0
443778,County,2020/05/18,51.0,VA,51083.0,Halifax County,4227.0,29893.0,167299.0,37758.0,42692.0,24814.0,23095.0,22685.0,10271.0,4143.0,1753.0,73.0,15.0
445406,County,2020/05/19,51.0,VA,51083.0,Halifax County,4036.0,30084.0,138540.0,26512.0,34358.0,20646.0,23200.0,18819.0,8493.0,4674.0,1634.0,176.0,28.0
450166,County,2020/05/20,51.0,VA,51083.0,Halifax County,3876.0,30244.0,148675.0,25926.0,40507.0,19950.0,22171.0,21777.0,10727.0,5364.0,2001.0,222.0,30.0
453353,County,2020/05/21,51.0,VA,51083.0,Halifax County,4210.0,29910.0,155184.0,28248.0,38205.0,25881.0,27472.0,20874.0,8076.0,3782.0,2233.0,385.0,28.0
456553,County,2020/05/22,51.0,VA,51083.0,Halifax County,3681.0,30439.0,155848.0,27869.0,42564.0,23062.0,26332.0,19858.0,10253.0,3746.0,1955.0,101.0,108.0
458176,County,2020/05/23,51.0,VA,51083.0,Halifax County,4123.0,29997.0,153688.0,31794.0,35993.0,24201.0,27452.0,22099.0,7750.0,2832.0,1330.0,191.0,46.0
461344,County,2020/05/24,51.0,VA,51083.0,Halifax County,4974.0,29146.0,135185.0,26435.0,33471.0,20749.0,23377.0,19357.0,6674.0,3400.0,1491.0,165.0,66.0
466220,County,2020/05/25,51.0,VA,51083.0,Halifax County,5419.0,28701.0,139587.0,27789.0,35862.0,23486.0,21112.0,18677.0,6486.0,4220.0,1775.0,117.0,63.0
469329,County,2020/05/26,51.0,VA,51083.0,Halifax County,4652.0,29468.0,149962.0,28075.0,38033.0,26129.0,21210.0,20236.0,8994.0,4844.0,2328.0,91.0,22.0
470958,County,2020/05/27,51.0,VA,51083.0,Halifax County,4625.0,29495.0,151476.0,25030.0,42059.0,24096.0,23317.0,22030.0,9234.0,4106.0,1357.0,240.0,7.0
475718,County,2020/05/28,51.0,VA,51083.0,Halifax County,4703.0,29417.0,137374.0,24332.0,35982.0,19730.0,21486.0,22255.0,7624.0,4018.0,1666.0,246.0,35.0
478906,County,2020/05/29,51.0,VA,51083.0,Halifax County,5560.0,28560.0,143459.0,23386.0,37123.0,23268.0,25377.0,20443.0,8329.0,4194.0,1293.0,21.0,25.0
480486,County,2020/05/30,51.0,VA,51083.0,Halifax County,5484.0,28636.0,144578.0,26615.0,35207.0,22842.0,22306.0,23455.0,9789.0,2779.0,1450.0,125.0,10.0
483614,County,2020/05/31,51.0,VA,51083.0,Halifax County,5433.0,28687.0,128485.0,20655.0,36752.0,19959.0,21826.0,17969.0,7013.0,2719.0,1372.0,220.0,0.0
488552,County,2020/06/01,51.0,VA,51083.0,Halifax County,4947.0,29173.0,148553.0,27434.0,36434.0,25372.0,24705.0,19833.0,10184.0,3380.0,959.0,227.0,25.0
490120,County,2020/06/02,51.0,VA,51083.0,Halifax County,5061.0,29059.0,143675.0,31933.0,34053.0,23940.0,20617.0,18296.0,7818.0,4912.0,1912.0,151.0,43.0
494881,County,2020/06/03,51.0,VA,51083.0,Halifax County,4419.0,29701.0,150664.0,23528.0,39070.0,24713.0,25237.0,22548.0,9492.0,4340.0,1489.0,193.0,54.0
498066,County,2020/06/04,51.0,VA,51083.0,Halifax County,4539.0,29581.0,146641.0,25130.0,38224.0,22855.0,22767.0,22879.0,9224.0,3822.0,1452.0,264.0,24.0
499704,County,2020/06/05,51.0,VA,51083.0,Halifax County,4971.0,29149.0,150027.0,30448.0,37391.0,24509.0,20028.0,22657.0,9052.0,3704.0,1913.0,274.0,51.0
502851,County,2020/06/06,51.0,VA,51083.0,Halifax County,5664.0,28456.0,139588.0,23644.0,34901.0,21777.0,23738.0,20471.0,9708.0,3819.0,1318.0,151.0,61.0
506042,County,2020/06/07,51.0,VA,51083.0,Halifax County,5399.0,28721.0,139194.0,29942.0,32310.0,21268.0,23895.0,19095.0,8701.0,1520.0,2168.0,219.0,76.0
509264,County,2020/06/08,51.0,VA,51083.0,Halifax County,4791.0,29329.0,144304.0,23890.0,38029.0,20258.0,26073.0,21341.0,9154.0,3679.0,1641.0,217.0,22.0
512469,County,2020/06/09,51.0,VA,51083.0,Halifax County,5202.0,28918.0,143404.0,28308.0,32729.0,21634.0,24438.0,20273.0,10557.0,3406.0,1684.0,329.0,46.0
517250,County,2020/06/10,51.0,VA,51083.0,Halifax County,4855.0,29265.0,143529.0,25577.0,38641.0,20245.0,24843.0,19076.0,9202.0,4292.0,1434.0,130.0,89.0
520407,County,2020/06/11,51.0,VA,51083.0,Halifax County,4801.0,29319.0,134363.0,24857.0,32146.0,18926.0,22049.0,21466.0,8548.0,4637.0,1385.0,279.0,70.0
522079,County,2020/06/12,51.0,VA,51083.0,Halifax County,4930.0,29190.0,150243.0,27125.0,38048.0,20681.0,26580.0,20696.0,11249.0,3973.0,1750.0,101.0,40.0
526816,County,2020/06/13,51.0,VA,51083.0,Halifax County,4831.0,29289.0,148200.0,31512.0,37757.0,20756.0,21364.0,20535.0,10520.0,4263.0,1395.0,82.0,16.0
528451,County,2020/06/14,51.0,VA,51083.0,Halifax County,5250.0,28870.0,128635.0,28734.0,30565.0,20793.0,19072.0,16708.0,7441.0,3377.0,1654.0,259.0,32.0
533210,County,2020/06/15,51.0,VA,51083.0,Halifax County,5278.0,28842.0,135556.0,28862.0,34402.0,17035.0,20836.0,18096.0,8423.0,5487.0,2138.0,198.0,79.0
534837,County,2020/06/16,51.0,VA,51083.0,Halifax County,5179.0,28941.0,134264.0,25152.0,33616.0,22075.0,19686.0,18518.0,9939.0,3157.0,1740.0,348.0,33.0
538031,County,2020/06/17,51.0,VA,51083.0,Halifax County,4771.0,29349.0,142551.0,28359.0,36734.0,24582.0,18035.0,19444.0,9447.0,3525.0,2097.0,305.0,23.0
541180,County,2020/06/18,51.0,VA,51083.0,Halifax County,4979.0,29141.0,144131.0,27665.0,33063.0,23469.0,22019.0,19943.0,11072.0,4471.0,2128.0,270.0,31.0
545946,County,2020/06/19,51.0,VA,51083.0,Halifax County,4839.0,29281.0,139568.0,30038.0,32326.0,21642.0,21794.0,19013.0,8869.0,3766.0,1872.0,194.0,54.0
549180,County,2020/06/20,51.0,VA,51083.0,Halifax County,5253.0,28867.0,137615.0,25554.0,34249.0,20476.0,23322.0,20255.0,7882.0,4026.0,1581.0,155.0,115.0
550829,County,2020/06/21,51.0,VA,51083.0,Halifax County,5621.0,28499.0,127917.0,19593.0,34206.0,22986.0,24755.0,16111.0,6937.0,1930.0,1051.0,272.0,76.0
555561,County,2020/06/22,51.0,VA,51083.0,Halifax County,4536.0,29584.0,144854.0,31367.0,33917.0,22333.0,22151.0,19405.0,9611.0,4243.0,1641.0,121.0,65.0
557189,County,2020/06/23,51.0,VA,51083.0,Halifax County,4547.0,29573.0,153661.0,29605.0,36259.0,24058.0,24088.0,23736.0,9896.0,4435.0,1470.0,106.0,8.0
561956,County,2020/06/24,51.0,VA,51083.0,Halifax County,5241.0,28879.0,155194.0,35420.0,35508.0,24161.0,24845.0,20336.0,9694.0,3885.0,1126.0,163.0,56.0
563584,County,2020/06/25,51.0,VA,51083.0,Halifax County,4829.0,29291.0,158744.0,34587.0,42517.0,24174.0,20649.0,20363.0,10332.0,3430.0,2492.0,200.0,0.0
566836,County,2020/06/26,51.0,VA,51083.0,Halifax County,4934.0,29186.0,157413.0,30825.0,39095.0,24800.0,22572.0,23292.0,9787.0,4980.0,1972.0,71.0,19.0
571531,County,2020/06/27,51.0,VA,51083.0,Halifax County,4677.0,29443.0,152388.0,30688.0,37887.0,24165.0,21968.0,21218.0,10632.0,3664.0,2008.0,99.0,59.0
573152,County,2020/06/28,51.0,VA,51083.0,Halifax County,4974.0,29146.0,129600.0,25310.0,29202.0,18337.0,22669.0,20162.0,7164.0,4614.0,1958.0,145.0,39.0
576311,County,2020/06/29,51.0,VA,51083.0,Halifax County,4906.0,29214.0,137357.0,25848.0,31783.0,23795.0,20550.0,19654.0,9618.0,4209.0,1695.0,195.0,10.0
581124,County,2020/06/30,51.0,VA,51083.0,Halifax County,4789.0,29331.0,143049.0,30457.0,35441.0,19962.0,20816.0,19325.0,10948.0,4028.0,1835.0,190.0,47.0
584314,County,2020/07/01,51.0,VA,51083.0,Halifax County,4598.0,29522.0,149907.0,31087.0,34284.0,27766.0,20982.0,21291.0,8843.0,3109.0,2400.0,117.0,28.0
587508,County,2020/07/02,51.0,VA,51083.0,Halifax County,5334.0,28786.0,168491.0,36711.0,45128.0,25658.0,21917.0,21613.0,10966.0,3641.0,2645.0,212.0,0.0
590703,County,2020/07/03,51.0,VA,51083.0,Halifax County,5231.0,28889.0,156527.0,30651.0,38875.0,24660.0,22445.0,23161.0,9732.0,4952.0,1961.0,71.0,19.0
593889,County,2020/07/04,51.0,VA,51083.0,Halifax County,5938.0,28182.0,133912.0,26223.0,33258.0,21097.0,19202.0,19815.0,8326.0,4237.0,1678.0,60.0,16.0
595541,County,2020/07/05,51.0,VA,51083.0,Halifax County,5456.0,28664.0,123763.0,22254.0,30057.0,21825.0,20088.0,17832.0,6492.0,3135.0,1964.0,116.0,0.0
600284,County,2020/07/06,51.0,VA,51083.0,Halifax County,5188.0,28932.0,131716.0,24599.0,33577.0,19239.0,20827.0,17604.0,8619.0,4498.0,2340.0,359.0,54.0
602303,County,2020/07/07,51.0,VA,51083.0,Halifax County,5057.0,29063.0,149768.0,31341.0,34211.0,21336.0,21422.0,23824.0,10783.0,4101.0,2525.0,225.0,0.0
606672,County,2020/07/08,51.0,VA,51083.0,Halifax County,5057.0,29063.0,141885.0,27485.0,35164.0,20733.0,23235.0,20320.0,8456.0,4055.0,2258.0,146.0,33.0
608300,County,2020/07/09,51.0,VA,51083.0,Halifax County,4808.0,29312.0,144061.0,29783.0,36887.0,18402.0,23529.0,20526.0,8360.0,4323.0,1958.0,259.0,34.0
611499,County,2020/07/10,51.0,VA,51083.0,Halifax County,5027.0,29093.0,142611.0,25919.0,34395.0,19867.0,24958.0,20568.0,9559.0,5155.0,1614.0,543.0,33.0
614709,County,2020/07/11,51.0,VA,51083.0,Halifax County,5475.0,28645.0,141654.0,26690.0,32069.0,21474.0,24293.0,20021.0,10284.0,4812.0,1750.0,251.0,10.0
619436,County,2020/07/12,51.0,VA,51083.0,Halifax County,5707.0,28413.0,131401.0,23157.0,28635.0,20208.0,27651.0,17683.0,7702.0,4147.0,1922.0,242.0,54.0
622642,County,2020/07/13,51.0,VA,51083.0,Halifax County,5265.0,28855.0,130685.0,27280.0,28448.0,20742.0,21620.0,17274.0,8532.0,4440.0,2022.0,240.0,87.0
625835,County,2020/07/14,51.0,VA,51083.0,Halifax County,5143.0,28977.0,143137.0,28372.0,33534.0,17934.0,22439.0,23591.0,11301.0,4227.0,1519.0,202.0,18.0
629007,County,2020/07/15,51.0,VA,51083.0,Halifax County,5272.0,28848.0,138961.0,32185.0,29857.0,20662.0,20272.0,18921.0,11041.0,4068.0,1582.0,364.0,9.0
630633,County,2020/07/16,51.0,VA,51083.0,Halifax County,5210.0,28910.0,136914.0,29443.0,30556.0,20319.0,20694.0,20653.0,8397.0,4713.0,1910.0,202.0,27.0
635370,County,2020/07/17,51.0,VA,51083.0,Halifax County,5033.0,29087.0,134550.0,27673.0,32743.0,19090.0,19691.0,19033.0,10371.0,3991.0,1721.0,212.0,25.0
637047,County,2020/07/18,51.0,VA,51083.0,Halifax County,5902.0,28218.0,150586.0,32453.0,34687.0,23931.0,24204.0,20178.0,8931.0,4240.0,1753.0,165.0,44.0
640201,County,2020/07/19,51.0,VA,51083.0,Halifax County,6260.0,27860.0,141225.0,32114.0,34068.0,21226.0,23166.0,16068.0,8635.0,3728.0,1698.0,467.0,55.0
645031,County,2020/07/20,51.0,VA,51083.0,Halifax County,5499.0,28621.0,143246.0,29909.0,38348.0,21741.0,18598.0,19362.0,9469.0,3502.0,2104.0,185.0,28.0
646612,County,2020/07/21,51.0,VA,51083.0,Halifax County,5037.0,29083.0,157470.0,34229.0,41172.0,23422.0,21981.0,19578.0,9449.0,4862.0,2551.0,192.0,34.0
649293,County,2020/07/22,51.0,VA,51083.0,Halifax County,5072.0,29048.0,154815.0,33215.0,38077.0,25374.0,20677.0,20975.0,9444.0,4514.0,2356.0,142.0,41.0
654583,County,2020/07/23,51.0,VA,51083.0,Halifax County,5077.0,29043.0,145350.0,31057.0,33280.0,22308.0,19730.0,20247.0,11123.0,5279.0,2115.0,179.0,32.0
657855,County,2020/07/24,51.0,VA,51083.0,Halifax County,4753.0,29367.0,151474.0,27783.0,38974.0,24162.0,23365.0,20889.0,9153.0,4886.0,1813.0,410.0,39.0
659398,County,2020/07/25,51.0,VA,51083.0,Halifax County,5541.0,28579.0,142960.0,30635.0,32713.0,20730.0,22618.0,20273.0,9177.0,4590.0,1931.0,209.0,84.0
664107,County,2020/07/26,51.0,VA,51083.0,Halifax County,5695.0,28425.0,138555.0,26612.0,30000.0,21661.0,23134.0,22011.0,7882.0,4615.0,2464.0,147.0,29.0
665892,County,2020/07/27,51.0,VA,51083.0,Halifax County,5365.0,28755.0,153958.0,33781.0,32749.0,25299.0,23634.0,20345.0,9779.0,5315.0,2774.0,263.0,19.0
669055,County,2020/07/28,51.0,VA,51083.0,Halifax County,4937.0,29183.0,145789.0,29935.0,33848.0,21615.0,22312.0,20283.0,9040.0,5410.0,3140.0,129.0,77.0
672261,County,2020/07/29,51.0,VA,51083.0,Halifax County,5042.0,29078.0,147898.0,31370.0,35915.0,22889.0,20656.0,20757.0,8553.0,4306.0,2988.0,344.0,120.0
675374,County,2020/07/30,51.0,VA,51083.0,Halifax County,4931.0,29189.0,157195.0,31977.0,34516.0,27106.0,22350.0,23040.0,9695.0,5269.0,2764.0,384.0,94.0
678574,County,2020/07/31,51.0,VA,51083.0,Halifax County,4993.0,29127.0,139306.0,21348.0,34850.0,25154.0,20570.0,20282.0,9861.0,4025.0,2810.0,363.0,43.0
683321,County,2020/08/01,51.0,VA,51083.0,Halifax County,5337.0,28783.0,138415.0,24051.0,28893.0,21329.0,24990.0,21219.0,10891.0,4122.0,2391.0,470.0,59.0
686514,County,2020/08/02,51.0,VA,51083.0,Halifax County,5691.0,28429.0,115539.0,22383.0,28160.0,15180.0,17326.0,18744.0,6639.0,4537.0,2317.0,181.0,72.0
689717,County,2020/08/03,51.0,VA,51083.0,Halifax County,5124.0,28996.0,129474.0,24574.0,31965.0,19834.0,20661.0,15939.0,9081.0,4574.0,2550.0,183.0,113.0
691344,County,2020/08/04,51.0,VA,51083.0,Halifax County,5013.0,29107.0,136716.0,30579.0,35932.0,17836.0,21505.0,16927.0,8693.0,3132.0,1846.0,179.0,87.0
696103,County,2020/08/05,51.0,VA,51083.0,Halifax County,5363.0,28757.0,147755.0,33391.0,34436.0,18808.0,21471.0,20534.0,12424.0,4510.0,1897.0,197.0,87.0
697714,County,2020/08/06,51.0,VA,51083.0,Halifax County,4771.0,29349.0,134366.0,25018.0,32356.0,19653.0,17914.0,21764.0,11413.0,4019.0,2067.0,116.0,46.0
700926,County,2020/08/07,51.0,VA,51083.0,Halifax County,5273.0,28847.0,133560.0,26010.0,30962.0,18630.0,18827.0,18732.0,12338.0,4872.0,3009.0,110.0,70.0
705686,County,2020/08/08,51.0,VA,51083.0,Halifax County,5981.0,28139.0,114818.0,21886.0,23142.0,17204.0,17833.0,18449.0,10302.0,4192.0,1338.0,410.0,62.0
708905,County,2020/08/09,51.0,VA,51083.0,Halifax County,5869.0,28251.0,111875.0,17893.0,23638.0,17292.0,17021.0,19408.0,9791.0,4731.0,1788.0,291.0,22.0
712074,County,2020/08/10,51.0,VA,51083.0,Halifax County,5464.0,28656.0,122910.0,19596.0,25885.0,18128.0,20531.0,20440.0,11580.0,5035.0,1504.0,150.0,61.0
715268,County,2020/08/11,51.0,VA,51083.0,Halifax County,5604.0,28516.0,124661.0,20536.0,29748.0,17783.0,19551.0,20290.0,9841.0,4614.0,2119.0,149.0,30.0
716799,County,2020/08/12,51.0,VA,51083.0,Halifax County,5371.0,28749.0,123640.0,22503.0,25833.0,15872.0,20573.0,19710.0,11386.0,4781.0,2554.0,273.0,155.0
721656,County,2020/08/13,51.0,VA,51083.0,Halifax County,5146.0,28974.0,121033.0,19671.0,27888.0,16758.0,19042.0,20497.0,9141.0,5227.0,2487.0,193.0,129.0
723283,County,2020/08/14,51.0,VA,51083.0,Halifax County,4816.0,29304.0,134608.0,22250.0,29966.0,19565.0,22027.0,21788.0,9922.0,6165.0,2560.0,189.0,176.0
728045,County,2020/08/15,51.0,VA,51083.0,Halifax County,5570.0,28550.0,124255.0,21153.0,27688.0,17444.0,17777.0,18455.0,13568.0,5069.0,2597.0,324.0,180.0
731238,County,2020/08/16,51.0,VA,51083.0,Halifax County,5862.0,28258.0,109811.0,15994.0,28411.0,13242.0,15851.0,19715.0,8059.0,4693.0,3233.0,380.0,233.0
732867,County,2020/08/17,51.0,VA,51083.0,Halifax County,5342.0,28778.0,128050.0,17514.0,31007.0,18062.0,19966.0,20192.0,11344.0,6702.0,2828.0,297.0,138.0
736082,County,2020/08/18,51.0,VA,51083.0,Halifax County,5306.0,28814.0,123570.0,18237.0,31432.0,17383.0,17242.0,19982.0,10251.0,5401.0,3001.0,345.0,296.0
739239,County,2020/08/19,51.0,VA,51083.0,Halifax County,5003.0,29117.0,139557.0,23518.0,32249.0,18101.0,20856.0,22651.0,13129.0,6080.0,2391.0,344.0,238.0
744020,County,2020/08/20,51.0,VA,51083.0,Halifax County,5167.0,28953.0,135664.0,23920.0,31348.0,14835.0,20336.0,20862.0,15021.0,6029.0,2927.0,220.0,166.0
747224,County,2020/08/21,51.0,VA,51083.0,Halifax County,4758.0,29362.0,137199.0,22469.0,32299.0,18323.0,22348.0,22474.0,11558.0,4437.0,2779.0,359.0,153.0
748853,County,2020/08/22,51.0,VA,51083.0,Halifax County,5242.0,28878.0,121348.0,16623.0,27509.0,16639.0,18295.0,20915.0,12555.0,5919.0,2402.0,351.0,140.0
752047,County,2020/08/23,51.0,VA,51083.0,Halifax County,5566.0,28554.0,109256.0,17850.0,23616.0,13935.0,21000.0,18049.0,7282.0,4720.0,2356.0,288.0,160.0
756790,County,2020/08/24,51.0,VA,51083.0,Halifax County,5442.0,28678.0,113683.0,19056.0,27619.0,14589.0,17533.0,18800.0,9544.0,3767.0,2320.0,290.0,165.0
759982,County,2020/08/25,51.0,VA,51083.0,Halifax County,5161.0,28959.0,128950.0,19462.0,33671.0,16029.0,19938.0,20977.0,11424.0,5168.0,1950.0,202.0,129.0
761563,County,2020/08/26,51.0,VA,51083.0,Halifax County,5192.0,28928.0,120663.0,20237.0,24883.0,16667.0,20048.0,20560.0,10510.0,5163.0,2348.0,160.0,87.0
764770,County,2020/08/27,51.0,VA,51083.0,Halifax County,4851.0,29269.0,127169.0,21689.0,30901.0,14940.0,21368.0,20989.0,10845.0,4527.0,1635.0,245.0,30.0
769553,County,2020/08/28,51.0,VA,51083.0,Halifax County,4917.0,29203.0,125197.0,20956.0,29419.0,17218.0,18925.0,21619.0,10260.0,4443.0,2123.0,151.0,83.0
771181,County,2020/08/29,51.0,VA,51083.0,Halifax County,5369.0,28751.0,113516.0,17157.0,28117.0,16859.0,16775.0,18447.0,9323.0,4685.0,1970.0,87.0,96.0
775954,County,2020/08/30,51.0,VA,51083.0,Halifax County,6110.0,28010.0,107328.0,17661.0,21379.0,17193.0,19046.0,15347.0,9430.0,4009.0,2849.0,374.0,40.0
777562,County,2020/08/31,51.0,VA,51083.0,Halifax County,5387.0,28733.0,115361.0,18359.0,28401.0,16550.0,18461.0,15885.0,10661.0,4453.0,2351.0,207.0,33.0
782342,County,2020/09/01,51.0,VA,51083.0,Halifax County,5686.0,28434.0,121257.0,19165.0,26761.0,17712.0,20076.0,17356.0,10498.0,6434.0,2946.0,291.0,18.0
785488,County,2020/09/02,51.0,VA,51083.0,Halifax County,5074.0,29046.0,126369.0,21523.0,29120.0,19100.0,19363.0,20281.0,9571.0,4478.0,2410.0,409.0,114.0
787097,County,2020/09/03,51.0,VA,51083.0,Halifax County,4870.0,29250.0,130447.0,22635.0,28909.0,19026.0,19737.0,19110.0,11275.0,6325.0,2898.0,418.0,114.0
791924,County,2020/09/04,51.0,VA,51083.0,Halifax County,5422.0,28698.0,129992.0,24515.0,26697.0,18282.0,19888.0,19700.0,12256.0,4989.0,3301.0,273.0,91.0
793435,County,2020/09/05,51.0,VA,51083.0,Halifax County,5548.0,28572.0,123612.0,24649.0,27006.0,15472.0,19675.0,18420.0,11148.0,5236.0,1749.0,203.0,54.0
796717,County,2020/09/06,51.0,VA,51083.0,Halifax County,6256.0,27864.0,107889.0,17808.0,25414.0,13652.0,20494.0,17314.0,8122.0,3099.0,1608.0,286.0,92.0
799934,County,2020/09/07,51.0,VA,51083.0,Halifax County,6564.0,27556.0,109106.0,19265.0,24922.0,13788.0,17626.0,19187.0,7845.0,3183.0,2873.0,333.0,84.0
804700,County,2020/09/08,51.0,VA,51083.0,Halifax County,5667.0,28453.0,118788.0,16204.0,25789.0,16196.0,19432.0,20333.0,11090.0,6764.0,2692.0,251.0,37.0
807894,County,2020/09/09,51.0,VA,51083.0,Halifax County,5575.0,28545.0,122311.0,20193.0,27691.0,18906.0,18063.0,18758.0,11421.0,4512.0,2411.0,279.0,77.0
809522,County,2020/09/10,51.0,VA,51083.0,Halifax County,5536.0,28584.0,121804.0,18723.0,27307.0,17982.0,19722.0,18589.0,10664.0,5769.0,2824.0,172.0,52.0
814282,County,2020/09/11,51.0,VA,51083.0,Halifax County,5224.0,28896.0,129416.0,20036.0,27042.0,17632.0,21691.0,23731.0,11079.0,5408.0,2459.0,271.0,67.0
817476,County,2020/09/12,51.0,VA,51083.0,Halifax County,5664.0,28456.0,116805.0,17572.0,28130.0,17225.0,17848.0,19537.0,9056.0,4961.0,2366.0,72.0,38.0
820661,County,2020/09/13,51.0,VA,51083.0,Halifax County,6111.0,28009.0,111735.0,15314.0,25454.0,20882.0,17735.0,15767.0,7362.0,6884.0,1966.0,299.0,72.0
822290,County,2020/09/14,51.0,VA,51083.0,Halifax County,5751.0,28369.0,123939.0,17816.0,28302.0,18974.0,22130.0,20405.0,8871.0,4745.0,2453.0,195.0,48.0
827058,County,2020/09/15,51.0,VA,51083.0,Halifax County,5281.0,28839.0,116627.0,16046.0,23414.0,16960.0,20425.0,21428.0,10999.0,5074.0,2042.0,211.0,28.0
830252,County,2020/09/16,51.0,VA,51083.0,Halifax County,5348.0,28772.0,127217.0,18576.0,27752.0,18652.0,21447.0,21308.0,11606.0,5090.0,2456.0,268.0,62.0
831879,County,2020/09/17,51.0,VA,51083.0,Halifax County,5550.0,28570.0,115935.0,15303.0,27523.0,17760.0,17258.0,19541.0,9875.0,4963.0,3331.0,344.0,37.0
835059,County,2020/09/18,51.0,VA,51083.0,Halifax County,5331.0,28789.0,127102.0,19178.0,27832.0,20256.0,21159.0,20447.0,9627.0,4930.0,3177.0,394.0,102.0
839834,County,2020/09/19,51.0,VA,51083.0,Halifax County,5657.0,28463.0,130882.0,21899.0,29558.0,19415.0,22261.0,21100.0,10189.0,4459.0,1624.0,262.0,115.0
841463,County,2020/09/20,51.0,VA,51083.0,Halifax County,6318.0,27802.0,102074.0,12897.0,24710.0,14643.0,18224.0,16110.0,8918.0,3730.0,2596.0,246.0,0.0
844672,County,2020/09/21,51.0,VA,51083.0,Halifax County,6282.0,27838.0,105894.0,17573.0,25542.0,13906.0,16302.0,17762.0,9169.0,3120.0,2419.0,72.0,29.0
849416,County,2020/09/22,51.0,VA,51083.0,Halifax County,5418.0,28702.0,113277.0,15786.0,26247.0,17521.0,19179.0,19684.0,8501.0,4765.0,1349.0,169.0,76.0
852607,County,2020/09/23,51.0,VA,51083.0,Halifax County,5347.0,28773.0,118585.0,18401.0,29269.0,16617.0,18646.0,19803.0,9448.0,4172.0,1979.0,225.0,25.0
854234,County,2020/09/24,51.0,VA,51083.0,Halifax County,5485.0,28635.0,112008.0,16871.0,27547.0,17737.0,15376.0,19515.0,9776.0,3174.0,1868.0,103.0,41.0
858998,County,2020/09/25,51.0,VA,51083.0,Halifax County,5671.0,28449.0,105523.0,14769.0,23363.0,15403.0,15682.0,18851.0,10535.0,4229.0,2526.0,148.0,17.0
862192,County,2020/09/26,51.0,VA,51083.0,Halifax County,6572.0,27548.0,109480.0,14716.0,24540.0,15364.0,17496.0,20848.0,10654.0,3428.0,2347.0,77.0,10.0
863797,County,2020/09/27,51.0,VA,51083.0,Halifax County,6429.0,27691.0,96625.0,10978.0,24461.0,13399.0,19060.0,15586.0,6373.0,4487.0,2000.0,271.0,10.0
867003,County,2020/09/28,51.0,VA,51083.0,Halifax County,5816.0,28304.0,108370.0,18476.0,26104.0,14918.0,17746.0,17921.0,7159.0,4585.0,1218.0,225.0,18.0
871774,County,2020/09/29,51.0,VA,51083.0,Halifax County,5569.0,28551.0,110936.0,17903.0,26898.0,13827.0,19678.0,14722.0,9465.0,6058.0,2115.0,250.0,20.0
873402,County,2020/09/30,51.0,VA,51083.0,Halifax County,5464.0,28656.0,110247.0,12061.0,26219.0,17521.0,16899.0,19276.0,10501.0,5365.0,2288.0,97.0,20.0
878141,County,2020/10/01,51.0,VA,51083.0,Halifax County,5219.0,28901.0,118587.0,14739.0,29350.0,15487.0,22287.0,17866.0,11231.0,5001.0,2473.0,127.0,26.0
879771,County,2020/10/02,51.0,VA,51083.0,Halifax County,5433.0,28687.0,122886.0,19983.0,26595.0,19595.0,20437.0,18972.0,9990.0,5013.0,2149.0,142.0,10.0
882987,County,2020/10/03,51.0,VA,51083.0,Halifax County,6229.0,27891.0,115164.0,16339.0,24532.0,17532.0,19886.0,17921.0,10358.0,6582.0,1713.0,281.0,20.0
887562,County,2020/10/04,51.0,VA,51083.0,Halifax County,6260.0,27860.0,103438.0,13647.0,24714.0,13391.0,19484.0,15995.0,7827.0,5626.0,2606.0,123.0,25.0
890987,County,2020/10/05,51.0,VA,51083.0,Halifax County,5957.0,28163.0,106515.0,15084.0,27018.0,14283.0,16822.0,16668.0,9496.0,4811.0,2065.0,213.0,55.0
893932,County,2020/10/06,51.0,VA,51083.0,Halifax County,5434.0,28686.0,118133.0,18285.0,24502.0,18712.0,16763.0,22413.0,9891.0,5380.0,2078.0,87.0,22.0
897135,County,2020/10/07,51.0,VA,51083.0,Halifax County,5408.0,28712.0,118236.0,15830.0,28894.0,16233.0,18212.0,20516.0,10117.0,6294.0,2036.0,87.0,17.0
900362,County,2020/10/08,51.0,VA,51083.0,Halifax County,4992.0,29128.0,111482.0,16062.0,23383.0,16009.0,16966.0,20797.0,11044.0,4957.0,2100.0,145.0,19.0
903581,County,2020/10/09,51.0,VA,51083.0,Halifax County,5349.0,28771.0,118788.0,19481.0,26794.0,15652.0,19209.0,18576.0,10708.0,6034.0,2137.0,183.0,14.0
906732,County,2020/10/10,51.0,VA,51083.0,Halifax County,6205.0,27915.0,105518.0,13908.0,23420.0,13815.0,16964.0,18428.0,9919.0,7127.0,1868.0,45.0,24.0
907428,County,2020/10/11,51.0,VA,51083.0,Halifax County,6526.0,27594.0,94179.0,9779.0,27068.0,12651.0,15133.0,12884.0,8074.0,5992.0,2436.0,143.0,19.0
910885,County,2020/10/12,51.0,VA,51083.0,Halifax County,5610.0,28510.0,107320.0,16354.0,23703.0,14155.0,18155.0,15743.0,9909.0,6549.0,2556.0,182.0,14.0
914034,County,2020/10/13,51.0,VA,51083.0,Halifax County,5578.0,28542.0,117116.0,18231.0,29898.0,13200.0,18895.0,19408.0,10280.0,5114.0,1926.0,152.0,12.0
916964,County,2020/10/14,51.0,VA,51083.0,Halifax County,5680.0,28440.0,115711.0,16450.0,26883.0,17876.0,18170.0,19071.0,9121.0,5697.0,2272.0,153.0,18.0
920233,County,2020/10/15,51.0,VA,51083.0,Halifax County,5926.0,28194.0,109947.0,15565.0,23481.0,12713.0,18704.0,18871.0,11485.0,6117.0,2838.0,155.0,18.0
923744,County,2020/10/16,51.0,VA,51083.0,Halifax County,5273.0,28847.0,121836.0,19697.0,24593.0,16998.0,21229.0,19973.0,10738.0,5965.0,2396.0,223.0,24.0
927381,County,2020/10/17,51.0,VA,51083.0,Halifax County,5649.0,28471.0,122899.0,17645.0,31611.0,17801.0,19335.0,17219.0,10173.0,6950.0,2006.0,130.0,29.0
929674,County,2020/10/18,51.0,VA,51083.0,Halifax County,5911.0,28209.0,106688.0,16665.0,23750.0,12496.0,19853.0,16364.0,7922.0,6735.0,2763.0,118.0,22.0
933276,County,2020/10/19,51.0,VA,51083.0,Halifax County,5568.0,28552.0,114954.0,17077.0,23904.0,14257.0,18844.0,19615.0,11276.0,6252.0,3574.0,141.0,14.0
938510,County,2020/10/20,51.0,VA,51083.0,Halifax County,5393.0,28727.0,110334.0,15788.0,25082.0,15603.0,17722.0,18500.0,9305.0,5854.0,2262.0,184.0,34.0
939492,County,2020/10/21,51.0,VA,51083.0,Halifax County,5755.0,28365.0,120503.0,15712.0,29339.0,15402.0,16256.0,22012.0,11561.0,8064.0,1876.0,266.0,15.0
942373,County,2020/10/22,51.0,VA,51083.0,Halifax County,5569.0,28551.0,124511.0,16677.0,27867.0,16523.0,20597.0,20878.0,12648.0,6584.0,2487.0,228.0,22.0
946133,County,2020/10/23,51.0,VA,51083.0,Halifax County,4892.0,29228.0,133885.0,23635.0,34488.0,16022.0,21352.0,18051.0,9708.0,7027.0,3382.0,194.0,26.0
949345,County,2020/10/24,51.0,VA,51083.0,Halifax County,5520.0,28600.0,133668.0,26143.0,33366.0,15317.0,20127.0,20191.0,10151.0,6322.0,1999.0,33.0,19.0
