,Level,Date,State FIPS,State Postal Code,County FIPS,County Name,Population Staying at Home,Population Not Staying at Home,Number of Trips,Number of Trips <1,Number of Trips 1-3,Number of Trips 3-5,Number of Trips 5-10,Number of Trips 10-25,Number of Trips 25-50,Number of Trips 50-100,Number of Trips 100-250,Number of Trips 250-500,Number of Trips >=500
917,County,2020/01/01,20.0,KS,20059.0,Franklin County,5728.0,19903.0,73480.0,14927.0,19352.0,7851.0,9146.0,10664.0,7780.0,2488.0,986.0,199.0,87.0
6299,County,2020/01/02,20.0,KS,20059.0,Franklin County,4378.0,21253.0,95783.0,20379.0,25654.0,9462.0,10903.0,12980.0,10711.0,4044.0,1373.0,212.0,65.0
7702,County,2020/01/03,20.0,KS,20059.0,Franklin County,4427.0,21204.0,98390.0,20610.0,24916.0,10233.0,11572.0,14136.0,10889.0,4345.0,1295.0,301.0,93.0
12266,County,2020/01/04,20.0,KS,20059.0,Franklin County,5201.0,20430.0,96670.0,20470.0,26044.0,9306.0,11674.0,13374.0,10608.0,3935.0,936.0,225.0,98.0
13693,County,2020/01/05,20.0,KS,20059.0,Franklin County,5596.0,20035.0,79663.0,14908.0,22673.0,9326.0,10477.0,10443.0,8021.0,2378.0,990.0,359.0,88.0
18060,County,2020/01/06,20.0,KS,20059.0,Franklin County,4523.0,21108.0,95073.0,22606.0,24475.0,9077.0,11277.0,12431.0,9513.0,4002.0,1333.0,327.0,32.0
21206,County,2020/01/07,20.0,KS,20059.0,Franklin County,4321.0,21310.0,97139.0,20945.0,26438.0,8947.0,10827.0,13591.0,9696.0,5064.0,1288.0,263.0,80.0
24450,County,2020/01/08,20.0,KS,20059.0,Franklin County,4296.0,21335.0,94649.0,21128.0,26827.0,8091.0,9942.0,12572.0,10408.0,3876.0,1310.0,428.0,67.0
27581,County,2020/01/09,20.0,KS,20059.0,Franklin County,4165.0,21466.0,98167.0,21974.0,26583.0,9658.0,11278.0,12373.0,10697.0,4157.0,1186.0,203.0,58.0
30788,County,2020/01/10,20.0,KS,20059.0,Franklin County,4106.0,21525.0,93169.0,18774.0,26866.0,8940.0,10345.0,13195.0,8991.0,4526.0,1157.0,306.0,69.0
34032,County,2020/01/11,20.0,KS,20059.0,Franklin County,6521.0,19110.0,74253.0,15664.0,24099.0,8674.0,7998.0,9155.0,4858.0,1870.0,1350.0,511.0,74.0
37151,County,2020/01/12,20.0,KS,20059.0,Franklin County,5891.0,19740.0,73543.0,13725.0,21695.0,9181.0,9950.0,9764.0,5545.0,2192.0,1034.0,358.0,99.0
38815,County,2020/01/13,20.0,KS,20059.0,Franklin County,4438.0,21193.0,93009.0,19497.0,25547.0,10859.0,9457.0,12381.0,8747.0,4845.0,1394.0,245.0,37.0
43548,County,2020/01/14,20.0,KS,20059.0,Franklin County,4525.0,21106.0,90914.0,17705.0,27385.0,8094.0,8873.0,11783.0,10660.0,4479.0,1554.0,328.0,53.0
46754,County,2020/01/15,20.0,KS,20059.0,Franklin County,4446.0,21185.0,94534.0,21796.0,24713.0,8306.0,9654.0,13420.0,10178.0,4789.0,1368.0,251.0,59.0
48281,County,2020/01/16,20.0,KS,20059.0,Franklin County,4179.0,21452.0,96111.0,20582.0,27776.0,9533.0,9975.0,11854.0,9806.0,5028.0,1104.0,363.0,90.0
53197,County,2020/01/17,20.0,KS,20059.0,Franklin County,5097.0,20534.0,86276.0,19565.0,25984.0,7912.0,9346.0,10902.0,7309.0,3223.0,1610.0,323.0,102.0
54770,County,2020/01/18,20.0,KS,20059.0,Franklin County,4646.0,20985.0,91438.0,16574.0,24855.0,9226.0,8889.0,14194.0,11910.0,4160.0,1309.0,257.0,64.0
57917,County,2020/01/19,20.0,KS,20059.0,Franklin County,5457.0,20174.0,73185.0,14620.0,19394.0,6737.0,8137.0,10606.0,8160.0,3612.0,1535.0,290.0,94.0
61150,County,2020/01/20,20.0,KS,20059.0,Franklin County,4739.0,20892.0,84927.0,16712.0,22212.0,8274.0,8859.0,12783.0,9365.0,4819.0,1651.0,142.0,110.0
65927,County,2020/01/21,20.0,KS,20059.0,Franklin County,4420.0,21211.0,91994.0,18529.0,27728.0,8558.0,8169.0,12760.0,10046.0,4801.0,1078.0,220.0,105.0
69118,County,2020/01/22,20.0,KS,20059.0,Franklin County,4500.0,21131.0,90158.0,19680.0,27027.0,7539.0,9630.0,11421.0,9371.0,3800.0,1419.0,189.0,82.0
72300,County,2020/01/23,20.0,KS,20059.0,Franklin County,4448.0,21183.0,92550.0,19074.0,26219.0,10173.0,9919.0,11687.0,9325.0,4456.0,1391.0,219.0,87.0
75456,County,2020/01/24,20.0,KS,20059.0,Franklin County,4628.0,21003.0,94880.0,19834.0,27566.0,8654.0,11163.0,12153.0,9043.0,4769.0,1444.0,231.0,23.0
78691,County,2020/01/25,20.0,KS,20059.0,Franklin County,5018.0,20613.0,86817.0,16569.0,24604.0,9741.0,9083.0,10207.0,9686.0,5431.0,1173.0,267.0,56.0
80767,County,2020/01/26,20.0,KS,20059.0,Franklin County,5329.0,20302.0,80152.0,15574.0,21710.0,7572.0,9218.0,12553.0,8307.0,3577.0,1224.0,336.0,81.0
84957,County,2020/01/27,20.0,KS,20059.0,Franklin County,4536.0,21095.0,93124.0,20043.0,26998.0,8382.0,9157.0,12612.0,9972.0,4482.0,1219.0,214.0,45.0
88811,County,2020/01/28,20.0,KS,20059.0,Franklin County,4250.0,21381.0,90733.0,19104.0,25429.0,8982.0,9769.0,11577.0,10238.0,3922.0,1303.0,323.0,86.0
89883,County,2020/01/29,20.0,KS,20059.0,Franklin County,4557.0,21074.0,96617.0,21512.0,28651.0,9019.0,9569.0,11594.0,9686.0,4680.0,1525.0,296.0,85.0
93187,County,2020/01/30,20.0,KS,20059.0,Franklin County,4329.0,21302.0,93069.0,21537.0,25923.0,7717.0,9417.0,12201.0,9344.0,5281.0,1037.0,462.0,150.0
97861,County,2020/01/31,20.0,KS,20059.0,Franklin County,4052.0,21579.0,104594.0,25251.0,27832.0,9617.0,9923.0,15144.0,11079.0,4153.0,1102.0,346.0,147.0
101049,County,2020/02/01,20.0,KS,20059.0,Franklin County,4622.0,21009.0,91694.0,19747.0,25636.0,8930.0,9570.0,12444.0,9429.0,4063.0,1501.0,235.0,139.0
104202,County,2020/02/02,20.0,KS,20059.0,Franklin County,5070.0,20561.0,89564.0,19112.0,26887.0,9137.0,11765.0,11974.0,6188.0,2949.0,1089.0,270.0,193.0
107454,County,2020/02/03,20.0,KS,20059.0,Franklin County,4158.0,21473.0,93858.0,19343.0,27653.0,7481.0,9380.0,14136.0,10099.0,4086.0,1126.0,375.0,179.0
109071,County,2020/02/04,20.0,KS,20059.0,Franklin County,4379.0,21252.0,92389.0,19773.0,25892.0,8128.0,9896.0,12957.0,9517.0,4562.0,1098.0,434.0,132.0
113794,County,2020/02/05,20.0,KS,20059.0,Franklin County,4644.0,20987.0,100166.0,21795.0,27983.0,9354.0,10748.0,14467.0,9553.0,4232.0,1462.0,456.0,116.0
115361,County,2020/02/06,20.0,KS,20059.0,Franklin County,4093.0,21538.0,102200.0,21700.0,29155.0,8892.0,11488.0,14278.0,10919.0,3727.0,1508.0,382.0,151.0
120254,County,2020/02/07,20.0,KS,20059.0,Franklin County,3965.0,21666.0,106729.0,22888.0,28423.0,10687.0,12384.0,15104.0,11476.0,4058.0,1295.0,330.0,84.0
123414,County,2020/02/08,20.0,KS,20059.0,Franklin County,4252.0,21379.0,98230.0,18694.0,28813.0,9075.0,12510.0,12887.0,10266.0,4533.0,911.0,415.0,126.0
127621,County,2020/02/09,20.0,KS,20059.0,Franklin County,5896.0,19735.0,81115.0,16522.0,22849.0,9384.0,8438.0,11815.0,8054.0,2633.0,907.0,377.0,136.0
129226,County,2020/02/10,20.0,KS,20059.0,Franklin County,4171.0,21460.0,108525.0,24499.0,29400.0,10146.0,11330.0,15907.0,10775.0,4691.0,1199.0,421.0,157.0
134010,County,2020/02/11,20.0,KS,20059.0,Franklin County,3829.0,21802.0,108547.0,22579.0,31517.0,10868.0,10525.0,14978.0,11501.0,4638.0,1286.0,453.0,202.0
136112,County,2020/02/12,20.0,KS,20059.0,Franklin County,4223.0,21408.0,99293.0,20872.0,28431.0,9933.0,10055.0,12977.0,10488.0,4529.0,1233.0,622.0,153.0
137807,County,2020/02/13,20.0,KS,20059.0,Franklin County,4632.0,20999.0,101295.0,21298.0,27481.0,9576.0,10365.0,12907.0,12327.0,5247.0,1555.0,393.0,146.0
140914,County,2020/02/14,20.0,KS,20059.0,Franklin County,4225.0,21406.0,110379.0,22514.0,29532.0,11752.0,11241.0,13921.0,13790.0,5490.0,1540.0,414.0,185.0
145792,County,2020/02/15,20.0,KS,20059.0,Franklin County,4710.0,20921.0,97506.0,18728.0,24682.0,9636.0,10376.0,15527.0,10979.0,5086.0,1620.0,640.0,232.0
148945,County,2020/02/16,20.0,KS,20059.0,Franklin County,5435.0,20196.0,87296.0,17824.0,24029.0,9218.0,10470.0,13273.0,7365.0,3172.0,1427.0,328.0,190.0
150573,County,2020/02/17,20.0,KS,20059.0,Franklin County,6026.0,19605.0,85004.0,19364.0,22723.0,8061.0,8942.0,11270.0,9404.0,3624.0,1188.0,292.0,136.0
155304,County,2020/02/18,20.0,KS,20059.0,Franklin County,4372.0,21259.0,104126.0,20739.0,29439.0,10009.0,10873.0,14019.0,11689.0,5299.0,1505.0,323.0,231.0
156982,County,2020/02/19,20.0,KS,20059.0,Franklin County,4265.0,21366.0,109411.0,26929.0,29149.0,10026.0,11773.0,13111.0,11601.0,4864.0,1429.0,328.0,201.0
161695,County,2020/02/20,20.0,KS,20059.0,Franklin County,4145.0,21486.0,102088.0,21575.0,26618.0,9601.0,11410.0,13199.0,11893.0,5761.0,1500.0,386.0,145.0
163321,County,2020/02/21,20.0,KS,20059.0,Franklin County,3846.0,21785.0,110230.0,24114.0,30944.0,8895.0,11571.0,15185.0,11906.0,5500.0,1551.0,389.0,175.0
166515,County,2020/02/22,20.0,KS,20059.0,Franklin County,4317.0,21314.0,104520.0,21180.0,30164.0,9211.0,12010.0,13699.0,11696.0,4665.0,1321.0,440.0,134.0
169742,County,2020/02/23,20.0,KS,20059.0,Franklin County,5308.0,20323.0,88195.0,17161.0,26030.0,8617.0,9943.0,13251.0,7965.0,3402.0,1342.0,348.0,136.0
174525,County,2020/02/24,20.0,KS,20059.0,Franklin County,4712.0,20919.0,98306.0,18354.0,30185.0,8722.0,10827.0,13139.0,10992.0,4390.0,1217.0,365.0,115.0
176145,County,2020/02/25,20.0,KS,20059.0,Franklin County,4025.0,21606.0,101882.0,21085.0,29068.0,10351.0,10589.0,13986.0,10476.0,3832.0,1933.0,454.0,108.0
179781,County,2020/02/26,20.0,KS,20059.0,Franklin County,4849.0,20782.0,94974.0,19117.0,25437.0,9883.0,10335.0,13182.0,12081.0,3827.0,767.0,301.0,44.0
183948,County,2020/02/27,20.0,KS,20059.0,Franklin County,4115.0,21516.0,105224.0,25176.0,28582.0,9380.0,10175.0,13012.0,11113.0,5309.0,2043.0,312.0,122.0
187343,County,2020/02/28,20.0,KS,20059.0,Franklin County,4136.0,21495.0,117937.0,27206.0,33930.0,10935.0,10487.0,15229.0,12789.0,5059.0,1984.0,242.0,76.0
190440,County,2020/02/29,20.0,KS,20059.0,Franklin County,4575.0,21056.0,112633.0,23921.0,32222.0,10585.0,12042.0,15959.0,11219.0,4836.0,1535.0,223.0,91.0
193658,County,2020/03/01,20.0,KS,20059.0,Franklin County,5141.0,20490.0,85905.0,19001.0,27054.0,7275.0,8726.0,11043.0,8213.0,2788.0,1322.0,380.0,103.0
195287,County,2020/03/02,20.0,KS,20059.0,Franklin County,4312.0,21319.0,106416.0,25174.0,31063.0,9526.0,9787.0,15281.0,9472.0,4183.0,1608.0,272.0,50.0
198490,County,2020/03/03,20.0,KS,20059.0,Franklin County,4041.0,21590.0,107817.0,24569.0,29044.0,9752.0,10523.0,15946.0,10509.0,5162.0,1783.0,431.0,98.0
202349,County,2020/03/04,20.0,KS,20059.0,Franklin County,4070.0,21561.0,108691.0,25352.0,28042.0,8988.0,12952.0,14698.0,12247.0,4412.0,1410.0,474.0,116.0
206478,County,2020/03/05,20.0,KS,20059.0,Franklin County,3746.0,21885.0,110001.0,24889.0,30704.0,7893.0,13318.0,14201.0,10855.0,5256.0,2345.0,443.0,97.0
207960,County,2020/03/06,20.0,KS,20059.0,Franklin County,3744.0,21887.0,116256.0,25935.0,33689.0,9871.0,11936.0,14980.0,11915.0,5179.0,2424.0,232.0,95.0
211261,County,2020/03/07,20.0,KS,20059.0,Franklin County,4254.0,21377.0,109453.0,24652.0,30196.0,10843.0,12736.0,16015.0,8369.0,4908.0,1304.0,324.0,106.0
214475,County,2020/03/08,20.0,KS,20059.0,Franklin County,4728.0,20903.0,87238.0,18740.0,25747.0,9042.0,9573.0,10974.0,7621.0,3635.0,1538.0,256.0,112.0
219234,County,2020/03/09,20.0,KS,20059.0,Franklin County,4115.0,21516.0,100951.0,18328.0,28911.0,10350.0,10788.0,16449.0,10154.0,4527.0,1114.0,259.0,71.0
220863,County,2020/03/10,20.0,KS,20059.0,Franklin County,4172.0,21459.0,105047.0,20947.0,30718.0,9653.0,10115.0,15488.0,11107.0,4783.0,1921.0,256.0,59.0
225657,County,2020/03/11,20.0,KS,20059.0,Franklin County,3998.0,21633.0,98373.0,17157.0,24791.0,8938.0,10935.0,16039.0,11844.0,6156.0,1756.0,540.0,217.0
228748,County,2020/03/12,20.0,KS,20059.0,Franklin County,4078.0,21553.0,102178.0,19233.0,26465.0,9524.0,11284.0,15846.0,12150.0,5463.0,1922.0,176.0,115.0
232017,County,2020/03/13,20.0,KS,20059.0,Franklin County,4055.0,21576.0,106766.0,18832.0,24587.0,10320.0,9503.0,18444.0,15865.0,6396.0,2148.0,467.0,204.0
235072,County,2020/03/14,20.0,KS,20059.0,Franklin County,5082.0,20549.0,91563.0,19249.0,23609.0,9166.0,11157.0,14563.0,9077.0,2500.0,1547.0,449.0,246.0
238349,County,2020/03/15,20.0,KS,20059.0,Franklin County,6155.0,19476.0,86626.0,18781.0,24164.0,9168.0,10420.0,11604.0,6175.0,4336.0,1490.0,346.0,142.0
241592,County,2020/03/16,20.0,KS,20059.0,Franklin County,5098.0,20533.0,93533.0,18353.0,22825.0,9103.0,11255.0,14211.0,10441.0,5017.0,1910.0,312.0,106.0
243208,County,2020/03/17,20.0,KS,20059.0,Franklin County,5106.0,20525.0,93027.0,20804.0,23115.0,8239.0,9671.0,13504.0,10170.0,5182.0,1792.0,475.0,75.0
246412,County,2020/03/18,20.0,KS,20059.0,Franklin County,5287.0,20344.0,92578.0,22553.0,25225.0,9039.0,9193.0,11999.0,7803.0,4308.0,1707.0,578.0,173.0
251194,County,2020/03/19,20.0,KS,20059.0,Franklin County,5762.0,19869.0,92788.0,19141.0,24933.0,8088.0,11320.0,13242.0,8846.0,4333.0,2420.0,373.0,92.0
254369,County,2020/03/20,20.0,KS,20059.0,Franklin County,5596.0,20035.0,88059.0,16394.0,23138.0,9236.0,9467.0,13032.0,9820.0,4101.0,2306.0,469.0,96.0
255946,County,2020/03/21,20.0,KS,20059.0,Franklin County,6674.0,18957.0,82554.0,19122.0,21354.0,9095.0,10275.0,11083.0,6340.0,3440.0,1358.0,388.0,99.0
259181,County,2020/03/22,20.0,KS,20059.0,Franklin County,6807.0,18824.0,70763.0,15542.0,18544.0,7499.0,9335.0,10099.0,5526.0,2287.0,1550.0,305.0,76.0
262386,County,2020/03/23,20.0,KS,20059.0,Franklin County,5184.0,20447.0,80659.0,15481.0,23114.0,8731.0,7886.0,12130.0,7853.0,3581.0,1477.0,322.0,84.0
265538,County,2020/03/24,20.0,KS,20059.0,Franklin County,5942.0,19689.0,75996.0,18689.0,16204.0,9804.0,7572.0,9380.0,7099.0,5119.0,1686.0,367.0,76.0
268772,County,2020/03/25,20.0,KS,20059.0,Franklin County,5321.0,20310.0,79707.0,18066.0,20397.0,8734.0,8378.0,10726.0,7268.0,3777.0,1893.0,396.0,72.0
273512,County,2020/03/26,20.0,KS,20059.0,Franklin County,5298.0,20333.0,74614.0,17268.0,19193.0,6993.0,9333.0,9710.0,6172.0,3744.0,1801.0,347.0,53.0
275152,County,2020/03/27,20.0,KS,20059.0,Franklin County,5535.0,20096.0,81538.0,18512.0,21616.0,7543.0,10479.0,9939.0,7334.0,3937.0,1759.0,309.0,110.0
279913,County,2020/03/28,20.0,KS,20059.0,Franklin County,6524.0,19107.0,70750.0,16764.0,19086.0,6586.0,10166.0,9890.0,4618.0,1887.0,1321.0,306.0,126.0
281548,County,2020/03/29,20.0,KS,20059.0,Franklin County,6630.0,19001.0,69413.0,16189.0,21795.0,8075.0,6636.0,9328.0,4702.0,1531.0,840.0,250.0,67.0
286292,County,2020/03/30,20.0,KS,20059.0,Franklin County,5502.0,20129.0,74878.0,16597.0,20220.0,7532.0,9357.0,8698.0,7537.0,3102.0,1539.0,229.0,67.0
289496,County,2020/03/31,20.0,KS,20059.0,Franklin County,5982.0,19649.0,78161.0,16445.0,19297.0,8899.0,8189.0,11082.0,8043.0,4241.0,1717.0,163.0,85.0
292695,County,2020/04/01,20.0,KS,20059.0,Franklin County,5606.0,20025.0,77410.0,18934.0,19541.0,6674.0,9338.0,10351.0,7321.0,3362.0,1493.0,325.0,71.0
294324,County,2020/04/02,20.0,KS,20059.0,Franklin County,5758.0,19873.0,74294.0,17135.0,18454.0,8026.0,8176.0,10077.0,7195.0,3327.0,1478.0,370.0,56.0
299084,County,2020/04/03,20.0,KS,20059.0,Franklin County,5949.0,19682.0,71775.0,14474.0,18725.0,8252.0,7413.0,10781.0,6537.0,3609.0,1651.0,256.0,77.0
302264,County,2020/04/04,20.0,KS,20059.0,Franklin County,6823.0,18808.0,64993.0,13457.0,18130.0,7328.0,9544.0,8097.0,5138.0,1718.0,1194.0,300.0,87.0
303892,County,2020/04/05,20.0,KS,20059.0,Franklin County,6836.0,18795.0,63779.0,14221.0,19900.0,5939.0,8174.0,9020.0,3067.0,2341.0,869.0,147.0,101.0
307101,County,2020/04/06,20.0,KS,20059.0,Franklin County,5993.0,19638.0,78432.0,18231.0,20715.0,7243.0,8156.0,10586.0,7534.0,3752.0,1884.0,256.0,75.0
310294,County,2020/04/07,20.0,KS,20059.0,Franklin County,5866.0,19765.0,83817.0,17614.0,23376.0,8042.0,10196.0,12008.0,7318.0,3478.0,1474.0,243.0,68.0
315030,County,2020/04/08,20.0,KS,20059.0,Franklin County,5706.0,19925.0,81971.0,18425.0,22373.0,8094.0,9206.0,11017.0,7295.0,3765.0,1378.0,367.0,51.0
316657,County,2020/04/09,20.0,KS,20059.0,Franklin County,5767.0,19864.0,83193.0,18806.0,21988.0,8580.0,10365.0,10669.0,7971.0,2879.0,1616.0,268.0,51.0
319884,County,2020/04/10,20.0,KS,20059.0,Franklin County,5824.0,19807.0,80987.0,16784.0,23038.0,7952.0,9505.0,12952.0,5824.0,3060.0,1526.0,262.0,84.0
323069,County,2020/04/11,20.0,KS,20059.0,Franklin County,5976.0,19655.0,76290.0,14862.0,20449.0,10223.0,11749.0,11754.0,4461.0,1583.0,945.0,189.0,75.0
327802,County,2020/04/12,20.0,KS,20059.0,Franklin County,7632.0,17999.0,52285.0,10446.0,14989.0,7360.0,6212.0,7854.0,3248.0,1086.0,876.0,161.0,53.0
329479,County,2020/04/13,20.0,KS,20059.0,Franklin County,6165.0,19466.0,74504.0,16298.0,19316.0,8168.0,7718.0,10652.0,7514.0,3026.0,1589.0,208.0,15.0
332603,County,2020/04/14,20.0,KS,20059.0,Franklin County,5657.0,19974.0,70302.0,14655.0,17268.0,8196.0,8370.0,10227.0,6248.0,3375.0,1653.0,227.0,83.0
335829,County,2020/04/15,20.0,KS,20059.0,Franklin County,5792.0,19839.0,81575.0,17882.0,17782.0,7924.0,11281.0,15322.0,7337.0,2284.0,1557.0,119.0,87.0
340547,County,2020/04/16,20.0,KS,20059.0,Franklin County,5535.0,20096.0,65973.0,13309.0,15499.0,6830.0,7813.0,9288.0,8212.0,3918.0,870.0,95.0,139.0
342282,County,2020/04/17,20.0,KS,20059.0,Franklin County,5759.0,19872.0,72084.0,12594.0,19212.0,7761.0,10064.0,12444.0,5829.0,3051.0,918.0,159.0,52.0
346957,County,2020/04/18,20.0,KS,20059.0,Franklin County,6217.0,19414.0,75529.0,17385.0,16433.0,9982.0,11363.0,11967.0,5343.0,2680.0,204.0,134.0,38.0
350139,County,2020/04/19,20.0,KS,20059.0,Franklin County,6627.0,19004.0,70053.0,19374.0,18922.0,8005.0,8458.0,8541.0,3994.0,1442.0,1157.0,50.0,110.0
353389,County,2020/04/20,20.0,KS,20059.0,Franklin County,5442.0,20189.0,78447.0,13762.0,21697.0,7533.0,10440.0,13173.0,6106.0,4177.0,1307.0,175.0,77.0
356575,County,2020/04/21,20.0,KS,20059.0,Franklin County,5538.0,20093.0,86696.0,19707.0,20261.0,9497.0,11374.0,12280.0,8222.0,3744.0,1182.0,349.0,80.0
358204,County,2020/04/22,20.0,KS,20059.0,Franklin County,5631.0,20000.0,81971.0,18248.0,21482.0,10433.0,9205.0,9572.0,7329.0,3676.0,1527.0,438.0,61.0
361309,County,2020/04/23,20.0,KS,20059.0,Franklin County,5077.0,20554.0,87152.0,18096.0,26784.0,8437.0,9839.0,11528.0,7563.0,3235.0,1288.0,298.0,84.0
364563,County,2020/04/24,20.0,KS,20059.0,Franklin County,4989.0,20642.0,80621.0,15841.0,22510.0,8901.0,8841.0,10865.0,7712.0,3868.0,1696.0,293.0,94.0
367730,County,2020/04/25,20.0,KS,20059.0,Franklin County,5492.0,20139.0,83419.0,14869.0,22338.0,10983.0,10993.0,13456.0,6605.0,2873.0,973.0,240.0,89.0
372499,County,2020/04/26,20.0,KS,20059.0,Franklin County,6086.0,19545.0,72580.0,12534.0,20673.0,10211.0,10132.0,10971.0,5249.0,1840.0,687.0,239.0,44.0
375778,County,2020/04/27,20.0,KS,20059.0,Franklin County,4955.0,20676.0,80035.0,14929.0,21751.0,8319.0,9848.0,12419.0,7432.0,3910.0,1016.0,361.0,50.0
377324,County,2020/04/28,20.0,KS,20059.0,Franklin County,5447.0,20184.0,83306.0,18689.0,22265.0,8279.0,8210.0,11537.0,8536.0,4088.0,1276.0,365.0,61.0
382105,County,2020/04/29,20.0,KS,20059.0,Franklin County,5092.0,20539.0,91625.0,18159.0,25578.0,9673.0,11400.0,14003.0,6669.0,3992.0,1745.0,336.0,70.0
385322,County,2020/04/30,20.0,KS,20059.0,Franklin County,5105.0,20526.0,94121.0,18606.0,25752.0,10756.0,11874.0,13267.0,8238.0,3819.0,1563.0,215.0,31.0
388558,County,2020/05/01,20.0,KS,20059.0,Franklin County,4953.0,20678.0,92217.0,18972.0,25791.0,9138.0,10885.0,13261.0,9332.0,3157.0,1375.0,291.0,15.0
390131,County,2020/05/02,20.0,KS,20059.0,Franklin County,5421.0,20210.0,91933.0,20316.0,26966.0,10500.0,11732.0,13399.0,5906.0,2112.0,804.0,166.0,32.0
393344,County,2020/05/03,20.0,KS,20059.0,Franklin County,6020.0,19611.0,79713.0,17721.0,21730.0,10917.0,8627.0,12686.0,4953.0,2070.0,797.0,174.0,38.0
396506,County,2020/05/04,20.0,KS,20059.0,Franklin County,5050.0,20581.0,88754.0,17412.0,24470.0,11173.0,9767.0,12583.0,7417.0,4077.0,1582.0,224.0,49.0
401274,County,2020/05/05,20.0,KS,20059.0,Franklin County,5062.0,20569.0,94763.0,19317.0,26304.0,13710.0,10177.0,12860.0,7968.0,2720.0,1402.0,244.0,61.0
404480,County,2020/05/06,20.0,KS,20059.0,Franklin County,5103.0,20528.0,93737.0,20633.0,23702.0,11871.0,11111.0,11783.0,8861.0,4000.0,1403.0,297.0,76.0
406107,County,2020/05/07,20.0,KS,20059.0,Franklin County,4977.0,20654.0,85278.0,18868.0,22814.0,9318.0,8906.0,12686.0,7449.0,3636.0,1275.0,270.0,56.0
409363,County,2020/05/08,20.0,KS,20059.0,Franklin County,4968.0,20663.0,94472.0,18621.0,24279.0,10168.0,12760.0,15287.0,8232.0,3281.0,1342.0,464.0,38.0
414034,County,2020/05/09,20.0,KS,20059.0,Franklin County,5330.0,20301.0,98139.0,22524.0,26235.0,10363.0,14744.0,12822.0,7568.0,2531.0,980.0,330.0,42.0
417214,County,2020/05/10,20.0,KS,20059.0,Franklin County,5972.0,19659.0,88005.0,21380.0,26360.0,9107.0,11069.0,12312.0,4073.0,2411.0,1160.0,105.0,28.0
420493,County,2020/05/11,20.0,KS,20059.0,Franklin County,4536.0,21095.0,95089.0,20308.0,25065.0,9647.0,11877.0,12856.0,9149.0,4276.0,1556.0,317.0,38.0
422073,County,2020/05/12,20.0,KS,20059.0,Franklin County,4597.0,21034.0,94870.0,23054.0,22298.0,9900.0,11080.0,12768.0,9074.0,4569.0,1801.0,254.0,72.0
425229,County,2020/05/13,20.0,KS,20059.0,Franklin County,4707.0,20924.0,88846.0,23655.0,19652.0,8684.0,10204.0,11395.0,8680.0,3878.0,2234.0,342.0,122.0
430038,County,2020/05/14,20.0,KS,20059.0,Franklin County,4501.0,21130.0,94829.0,22879.0,23045.0,10407.0,10374.0,13498.0,7927.0,4398.0,1891.0,294.0,116.0
431667,County,2020/05/15,20.0,KS,20059.0,Franklin County,4526.0,21105.0,91996.0,21577.0,21089.0,8763.0,11219.0,12618.0,10140.0,4321.0,1655.0,376.0,238.0
436416,County,2020/05/16,20.0,KS,20059.0,Franklin County,5121.0,20510.0,88031.0,20448.0,22333.0,9168.0,10040.0,11414.0,8795.0,3809.0,1655.0,305.0,64.0
438043,County,2020/05/17,20.0,KS,20059.0,Franklin County,4832.0,20799.0,91079.0,20533.0,24585.0,11534.0,12594.0,11963.0,5859.0,2099.0,1454.0,343.0,115.0
441288,County,2020/05/18,20.0,KS,20059.0,Franklin County,3646.0,21985.0,104983.0,22820.0,28673.0,10666.0,15100.0,13784.0,8905.0,3255.0,1449.0,283.0,48.0
444442,County,2020/05/19,20.0,KS,20059.0,Franklin County,3601.0,22030.0,106126.0,26154.0,26633.0,11381.0,12714.0,13382.0,9345.0,4687.0,1321.0,368.0,141.0
447610,County,2020/05/20,20.0,KS,20059.0,Franklin County,3615.0,22016.0,105094.0,25464.0,29041.0,9719.0,11365.0,13728.0,8296.0,4508.0,2502.0,414.0,57.0
452044,County,2020/05/21,20.0,KS,20059.0,Franklin County,3507.0,22124.0,95065.0,20438.0,24209.0,11001.0,9587.0,12861.0,9811.0,4033.0,2565.0,494.0,66.0
454016,County,2020/05/22,20.0,KS,20059.0,Franklin County,3399.0,22232.0,106631.0,20472.0,28124.0,9879.0,14653.0,15066.0,10388.0,5502.0,2149.0,265.0,133.0
457212,County,2020/05/23,20.0,KS,20059.0,Franklin County,3936.0,21695.0,106369.0,24561.0,27002.0,11953.0,14635.0,15979.0,7744.0,2154.0,1998.0,290.0,53.0
460380,County,2020/05/24,20.0,KS,20059.0,Franklin County,5184.0,20447.0,84161.0,21739.0,22188.0,9728.0,10092.0,11080.0,6079.0,1972.0,1001.0,207.0,75.0
463583,County,2020/05/25,20.0,KS,20059.0,Franklin County,5268.0,20363.0,73686.0,15488.0,20742.0,9418.0,8015.0,10580.0,5536.0,2214.0,1415.0,228.0,50.0
468414,County,2020/05/26,20.0,KS,20059.0,Franklin County,4640.0,20991.0,85112.0,17415.0,21568.0,10129.0,8333.0,13161.0,9271.0,3533.0,1371.0,262.0,69.0
469993,County,2020/05/27,20.0,KS,20059.0,Franklin County,4028.0,21603.0,97795.0,22839.0,24493.0,9808.0,11068.0,12814.0,10466.0,4089.0,1751.0,381.0,86.0
473189,County,2020/05/28,20.0,KS,20059.0,Franklin County,4391.0,21240.0,82077.0,17798.0,18425.0,7495.0,10558.0,12548.0,9207.0,3735.0,1997.0,273.0,41.0
476334,County,2020/05/29,20.0,KS,20059.0,Franklin County,4708.0,20923.0,98686.0,21394.0,26772.0,9204.0,11167.0,15261.0,9097.0,4221.0,1248.0,278.0,44.0
479521,County,2020/05/30,20.0,KS,20059.0,Franklin County,4700.0,20931.0,90269.0,18767.0,22281.0,11559.0,10139.0,14030.0,8795.0,2866.0,1487.0,296.0,49.0
484287,County,2020/05/31,20.0,KS,20059.0,Franklin County,4805.0,20826.0,83181.0,17384.0,23813.0,9166.0,10238.0,11923.0,6251.0,2729.0,1347.0,271.0,59.0
485916,County,2020/06/01,20.0,KS,20059.0,Franklin County,4503.0,21128.0,91701.0,19661.0,23935.0,8795.0,12369.0,12959.0,8758.0,3811.0,1071.0,303.0,39.0
489157,County,2020/06/02,20.0,KS,20059.0,Franklin County,4413.0,21218.0,88762.0,20315.0,23752.0,8257.0,9970.0,12485.0,8037.0,3993.0,1441.0,422.0,90.0
492326,County,2020/06/03,20.0,KS,20059.0,Franklin County,4066.0,21565.0,98227.0,23501.0,25432.0,9047.0,9961.0,14144.0,10327.0,3550.0,1778.0,387.0,100.0
497100,County,2020/06/04,20.0,KS,20059.0,Franklin County,3891.0,21740.0,98826.0,24902.0,23754.0,8844.0,9903.0,14453.0,9944.0,4682.0,1897.0,328.0,119.0
498740,County,2020/06/05,20.0,KS,20059.0,Franklin County,3929.0,21702.0,104484.0,24677.0,26861.0,9059.0,10922.0,15812.0,10248.0,5014.0,1562.0,284.0,45.0
501887,County,2020/06/06,20.0,KS,20059.0,Franklin County,4684.0,20947.0,103688.0,28142.0,25492.0,10207.0,10024.0,15600.0,8855.0,3655.0,1169.0,436.0,108.0
505079,County,2020/06/07,20.0,KS,20059.0,Franklin County,5168.0,20463.0,94408.0,26231.0,23216.0,8675.0,12170.0,12611.0,6498.0,3099.0,1543.0,336.0,29.0
509875,County,2020/06/08,20.0,KS,20059.0,Franklin County,3799.0,21832.0,105047.0,25732.0,27637.0,10214.0,11264.0,14418.0,10292.0,3518.0,1622.0,287.0,63.0
511504,County,2020/06/09,20.0,KS,20059.0,Franklin County,4287.0,21344.0,98434.0,22353.0,23565.0,9319.0,12950.0,14533.0,9402.0,4037.0,1934.0,292.0,49.0
516285,County,2020/06/10,20.0,KS,20059.0,Franklin County,4158.0,21473.0,102528.0,25805.0,24148.0,10246.0,12634.0,13124.0,9562.0,4568.0,1895.0,431.0,115.0
517914,County,2020/06/11,20.0,KS,20059.0,Franklin County,3911.0,21720.0,104027.0,23664.0,24863.0,9866.0,13250.0,14652.0,10650.0,4216.0,2269.0,494.0,103.0
522665,County,2020/06/12,20.0,KS,20059.0,Franklin County,4047.0,21584.0,99786.0,21681.0,25040.0,9539.0,12077.0,14996.0,9743.0,4125.0,2119.0,374.0,92.0
524292,County,2020/06/13,20.0,KS,20059.0,Franklin County,4216.0,21415.0,103508.0,24919.0,25382.0,10796.0,12255.0,14788.0,9755.0,3169.0,1910.0,391.0,143.0
529055,County,2020/06/14,20.0,KS,20059.0,Franklin County,4971.0,20660.0,82445.0,21028.0,20444.0,6557.0,10445.0,11264.0,7251.0,3000.0,1928.0,426.0,102.0
532246,County,2020/06/15,20.0,KS,20059.0,Franklin County,4441.0,21190.0,86935.0,22919.0,20704.0,8196.0,6965.0,12163.0,9147.0,4644.0,1770.0,304.0,123.0
535417,County,2020/06/16,20.0,KS,20059.0,Franklin County,4502.0,21129.0,96719.0,25261.0,23045.0,9251.0,9467.0,13572.0,9282.0,4395.0,1828.0,480.0,138.0
537019,County,2020/06/17,20.0,KS,20059.0,Franklin County,4250.0,21381.0,97063.0,25048.0,23508.0,8187.0,10268.0,13390.0,8968.0,4771.0,2234.0,584.0,105.0
541780,County,2020/06/18,20.0,KS,20059.0,Franklin County,4435.0,21196.0,92733.0,20769.0,23876.0,9336.0,11719.0,12159.0,8234.0,3809.0,2210.0,548.0,73.0
544981,County,2020/06/19,20.0,KS,20059.0,Franklin County,4110.0,21521.0,90502.0,22685.0,21735.0,7728.0,8707.0,12659.0,10239.0,4335.0,1853.0,451.0,110.0
548216,County,2020/06/20,20.0,KS,20059.0,Franklin County,4711.0,20920.0,89904.0,22674.0,20182.0,7575.0,11121.0,14340.0,8385.0,3276.0,1751.0,483.0,117.0
549816,County,2020/06/21,20.0,KS,20059.0,Franklin County,5341.0,20290.0,78997.0,20784.0,19535.0,6224.0,8384.0,11308.0,7522.0,3144.0,1361.0,672.0,63.0
554596,County,2020/06/22,20.0,KS,20059.0,Franklin County,4675.0,20956.0,84597.0,19037.0,22229.0,6915.0,10151.0,12286.0,8545.0,3821.0,1151.0,366.0,96.0
556224,County,2020/06/23,20.0,KS,20059.0,Franklin County,4494.0,21137.0,96690.0,24004.0,23040.0,8920.0,10452.0,13862.0,8557.0,5786.0,1556.0,440.0,73.0
560992,County,2020/06/24,20.0,KS,20059.0,Franklin County,4586.0,21045.0,86672.0,19377.0,23297.0,7573.0,9361.0,13148.0,8289.0,3590.0,1639.0,322.0,76.0
564120,County,2020/06/25,20.0,KS,20059.0,Franklin County,4500.0,21131.0,90046.0,21421.0,23147.0,8062.0,9546.0,12293.0,9536.0,4074.0,1611.0,278.0,78.0
567415,County,2020/06/26,20.0,KS,20059.0,Franklin County,4254.0,21377.0,95073.0,22872.0,25154.0,8693.0,9680.0,13709.0,9608.0,3411.0,1605.0,280.0,61.0
568996,County,2020/06/27,20.0,KS,20059.0,Franklin County,4771.0,20860.0,84133.0,18017.0,22580.0,8767.0,10660.0,11342.0,7651.0,3062.0,1763.0,232.0,59.0
572204,County,2020/06/28,20.0,KS,20059.0,Franklin County,5056.0,20575.0,81981.0,15711.0,20815.0,9382.0,11305.0,11617.0,7771.0,2972.0,2020.0,311.0,77.0
576929,County,2020/06/29,20.0,KS,20059.0,Franklin County,4929.0,20702.0,86619.0,17919.0,25466.0,8528.0,9307.0,11142.0,7318.0,5079.0,1571.0,242.0,47.0
578572,County,2020/06/30,20.0,KS,20059.0,Franklin County,4694.0,20937.0,85438.0,19384.0,25374.0,6799.0,9074.0,11594.0,8226.0,3353.0,1210.0,324.0,100.0
581778,County,2020/07/01,20.0,KS,20059.0,Franklin County,4455.0,21176.0,85579.0,18260.0,24069.0,9744.0,8025.0,11348.0,8200.0,4133.0,1332.0,391.0,77.0
584970,County,2020/07/02,20.0,KS,20059.0,Franklin County,5076.0,20555.0,95575.0,22736.0,24568.0,8557.0,10132.0,13048.0,10122.0,4324.0,1710.0,295.0,83.0
588147,County,2020/07/03,20.0,KS,20059.0,Franklin County,5113.0,20518.0,94537.0,22743.0,25012.0,8644.0,9625.0,13632.0,9554.0,3392.0,1596.0,278.0,61.0
591357,County,2020/07/04,20.0,KS,20059.0,Franklin County,6005.0,19626.0,80879.0,19457.0,21399.0,7395.0,8235.0,11662.0,8174.0,2902.0,1365.0,238.0,52.0
596103,County,2020/07/05,20.0,KS,20059.0,Franklin County,5311.0,20320.0,74548.0,12573.0,22709.0,8540.0,9416.0,10199.0,6231.0,2837.0,1631.0,333.0,79.0
598403,County,2020/07/06,20.0,KS,20059.0,Franklin County,5136.0,20495.0,76511.0,15850.0,21617.0,7319.0,9060.0,10730.0,7225.0,2899.0,1366.0,279.0,166.0
602894,County,2020/07/07,20.0,KS,20059.0,Franklin County,4836.0,20795.0,84775.0,18926.0,24008.0,7218.0,9468.0,10458.0,9035.0,3822.0,1365.0,372.0,103.0
605609,County,2020/07/08,20.0,KS,20059.0,Franklin County,5193.0,20438.0,82933.0,18935.0,23169.0,8791.0,8580.0,11342.0,6786.0,3620.0,1250.0,346.0,114.0
607335,County,2020/07/09,20.0,KS,20059.0,Franklin County,4890.0,20741.0,81592.0,16846.0,20436.0,8577.0,9494.0,12577.0,8482.0,3454.0,1312.0,309.0,105.0
612117,County,2020/07/10,20.0,KS,20059.0,Franklin County,4676.0,20955.0,93621.0,23447.0,25210.0,8386.0,8608.0,13189.0,9018.0,4080.0,1167.0,363.0,153.0
613696,County,2020/07/11,20.0,KS,20059.0,Franklin County,5093.0,20538.0,87193.0,21051.0,22030.0,9393.0,10549.0,12347.0,7613.0,2848.0,924.0,273.0,165.0
618470,County,2020/07/12,20.0,KS,20059.0,Franklin County,5467.0,20164.0,77667.0,21352.0,20505.0,6981.0,8163.0,10689.0,6234.0,2492.0,645.0,444.0,162.0
620107,County,2020/07/13,20.0,KS,20059.0,Franklin County,4690.0,20941.0,84280.0,19438.0,22947.0,8284.0,8184.0,12312.0,8772.0,3063.0,755.0,317.0,208.0
623307,County,2020/07/14,20.0,KS,20059.0,Franklin County,4833.0,20798.0,83859.0,19894.0,22576.0,7323.0,8138.0,12826.0,9107.0,2584.0,998.0,298.0,115.0
626380,County,2020/07/15,20.0,KS,20059.0,Franklin County,4662.0,20969.0,83541.0,18291.0,22854.0,7297.0,8024.0,13413.0,8122.0,4111.0,1069.0,268.0,92.0
631310,County,2020/07/16,20.0,KS,20059.0,Franklin County,4648.0,20983.0,84779.0,20041.0,21137.0,7969.0,9571.0,13096.0,7738.0,3763.0,1115.0,224.0,125.0
632871,County,2020/07/17,20.0,KS,20059.0,Franklin County,4771.0,20860.0,83987.0,19474.0,21418.0,6500.0,8769.0,12804.0,10070.0,3422.0,1176.0,231.0,123.0
637657,County,2020/07/18,20.0,KS,20059.0,Franklin County,5392.0,20239.0,82615.0,15969.0,23529.0,7005.0,9511.0,13320.0,8471.0,3099.0,1335.0,314.0,62.0
639237,County,2020/07/19,20.0,KS,20059.0,Franklin County,5826.0,19805.0,67521.0,17673.0,15484.0,5293.0,7851.0,10948.0,5589.0,2620.0,1592.0,332.0,139.0
644019,County,2020/07/20,20.0,KS,20059.0,Franklin County,5737.0,19894.0,81289.0,17724.0,24017.0,6630.0,7306.0,12111.0,7167.0,4384.0,1645.0,221.0,84.0
645647,County,2020/07/21,20.0,KS,20059.0,Franklin County,5013.0,20618.0,81731.0,18135.0,20370.0,6594.0,9152.0,13727.0,8201.0,3754.0,1412.0,276.0,110.0
650376,County,2020/07/22,20.0,KS,20059.0,Franklin County,5127.0,20504.0,86113.0,21579.0,20695.0,8211.0,9322.0,12657.0,8235.0,3733.0,1232.0,312.0,137.0
651966,County,2020/07/23,20.0,KS,20059.0,Franklin County,5082.0,20549.0,86432.0,20361.0,22626.0,7232.0,9651.0,13227.0,7872.0,3870.0,1111.0,422.0,60.0
655138,County,2020/07/24,20.0,KS,20059.0,Franklin County,4936.0,20695.0,90204.0,22195.0,22843.0,7618.0,9531.0,12412.0,9148.0,4549.0,1415.0,407.0,86.0
660061,County,2020/07/25,20.0,KS,20059.0,Franklin County,5284.0,20347.0,83612.0,19524.0,22451.0,7213.0,9256.0,12564.0,7485.0,3510.0,1058.0,447.0,104.0
661634,County,2020/07/26,20.0,KS,20059.0,Franklin County,5558.0,20073.0,83266.0,19533.0,20764.0,9446.0,9783.0,11363.0,7021.0,3782.0,887.0,550.0,137.0
666413,County,2020/07/27,20.0,KS,20059.0,Franklin County,5143.0,20488.0,78262.0,16853.0,20031.0,8243.0,8133.0,12189.0,7308.0,3413.0,1308.0,570.0,214.0
667994,County,2020/07/28,20.0,KS,20059.0,Franklin County,4684.0,20947.0,89314.0,18103.0,23979.0,8644.0,10129.0,13840.0,9277.0,3684.0,1041.0,502.0,115.0
672878,County,2020/07/29,20.0,KS,20059.0,Franklin County,4835.0,20796.0,86892.0,19962.0,21812.0,7854.0,10555.0,13477.0,7261.0,3959.0,1400.0,498.0,114.0
675960,County,2020/07/30,20.0,KS,20059.0,Franklin County,4805.0,20826.0,87346.0,18403.0,24176.0,8146.0,8963.0,12939.0,7558.0,4821.0,1571.0,636.0,133.0
679188,County,2020/07/31,20.0,KS,20059.0,Franklin County,5065.0,20566.0,83143.0,17746.0,22282.0,7796.0,8637.0,11383.0,8765.0,4333.0,1641.0,377.0,183.0
682309,County,2020/08/01,20.0,KS,20059.0,Franklin County,5583.0,20048.0,91520.0,23789.0,22413.0,8184.0,10735.0,12720.0,7755.0,3560.0,1725.0,527.0,112.0
685549,County,2020/08/02,20.0,KS,20059.0,Franklin County,5326.0,20305.0,81519.0,20838.0,21442.0,9160.0,7798.0,9725.0,7773.0,2911.0,1351.0,392.0,129.0
688752,County,2020/08/03,20.0,KS,20059.0,Franklin County,5100.0,20531.0,94760.0,20163.0,27762.0,10540.0,9147.0,13750.0,8261.0,3824.0,843.0,368.0,102.0
690380,County,2020/08/04,20.0,KS,20059.0,Franklin County,4525.0,21106.0,100186.0,22363.0,26832.0,10435.0,11495.0,14569.0,9538.0,3472.0,1189.0,238.0,55.0
693543,County,2020/08/05,20.0,KS,20059.0,Franklin County,4485.0,21146.0,100778.0,24415.0,27396.0,9546.0,11429.0,13793.0,9099.0,3418.0,1266.0,311.0,105.0
696749,County,2020/08/06,20.0,KS,20059.0,Franklin County,4694.0,20937.0,91409.0,20289.0,22935.0,9513.0,8143.0,15846.0,8858.0,3563.0,1921.0,255.0,86.0
699961,County,2020/08/07,20.0,KS,20059.0,Franklin County,4642.0,20989.0,92575.0,21075.0,22922.0,9976.0,10048.0,13574.0,9286.0,3888.0,1534.0,185.0,87.0
704722,County,2020/08/08,20.0,KS,20059.0,Franklin County,5147.0,20484.0,87838.0,22355.0,21948.0,7227.0,9718.0,13504.0,7709.0,3314.0,1823.0,182.0,58.0
707892,County,2020/08/09,20.0,KS,20059.0,Franklin County,5468.0,20163.0,79858.0,19156.0,22715.0,6433.0,6921.0,12348.0,7257.0,3077.0,1376.0,504.0,71.0
711110,County,2020/08/10,20.0,KS,20059.0,Franklin County,5278.0,20353.0,86837.0,19738.0,24172.0,6850.0,8483.0,11740.0,9801.0,4225.0,1509.0,250.0,69.0
714351,County,2020/08/11,20.0,KS,20059.0,Franklin County,5241.0,20390.0,86709.0,17549.0,23927.0,6828.0,8286.0,13831.0,9898.0,4573.0,1445.0,301.0,71.0
717400,County,2020/08/12,20.0,KS,20059.0,Franklin County,5029.0,20602.0,82284.0,18294.0,22386.0,6832.0,7549.0,12082.0,9345.0,3821.0,1421.0,359.0,195.0
719126,County,2020/08/13,20.0,KS,20059.0,Franklin County,5007.0,20624.0,85925.0,17801.0,23527.0,7715.0,7558.0,12781.0,9513.0,4850.0,1480.0,446.0,254.0
723870,County,2020/08/14,20.0,KS,20059.0,Franklin County,4787.0,20844.0,91136.0,18479.0,27619.0,8225.0,8287.0,12721.0,8962.0,4615.0,1493.0,500.0,235.0
727081,County,2020/08/15,20.0,KS,20059.0,Franklin County,5098.0,20533.0,78850.0,14384.0,23224.0,7149.0,9174.0,10920.0,7901.0,3743.0,1621.0,498.0,236.0
730273,County,2020/08/16,20.0,KS,20059.0,Franklin County,5665.0,19966.0,79897.0,15057.0,22645.0,7263.0,8357.0,12080.0,8828.0,3620.0,1094.0,677.0,276.0
731902,County,2020/08/17,20.0,KS,20059.0,Franklin County,5011.0,20620.0,86014.0,14483.0,25995.0,7819.0,8372.0,12591.0,9275.0,4893.0,1671.0,591.0,324.0
735068,County,2020/08/18,20.0,KS,20059.0,Franklin County,5003.0,20628.0,80913.0,13716.0,23583.0,6602.0,8047.0,12349.0,9956.0,4334.0,1496.0,474.0,356.0
738274,County,2020/08/19,20.0,KS,20059.0,Franklin County,4932.0,20699.0,88229.0,18019.0,25530.0,7729.0,9296.0,12362.0,8822.0,4044.0,1524.0,495.0,408.0
743055,County,2020/08/20,20.0,KS,20059.0,Franklin County,4523.0,21108.0,88276.0,19596.0,22767.0,6730.0,8220.0,13455.0,9270.0,6007.0,1413.0,475.0,343.0
746261,County,2020/08/21,20.0,KS,20059.0,Franklin County,4299.0,21332.0,96295.0,20800.0,24870.0,9064.0,9781.0,13706.0,10345.0,4911.0,1940.0,554.0,324.0
749417,County,2020/08/22,20.0,KS,20059.0,Franklin County,4953.0,20678.0,95461.0,21390.0,25073.0,8854.0,10880.0,14050.0,9515.0,3735.0,1310.0,326.0,328.0
752585,County,2020/08/23,20.0,KS,20059.0,Franklin County,5552.0,20079.0,77846.0,20384.0,18994.0,6627.0,7331.0,11210.0,6766.0,3980.0,1845.0,461.0,248.0
754257,County,2020/08/24,20.0,KS,20059.0,Franklin County,5623.0,20008.0,75480.0,15200.0,19535.0,7419.0,7710.0,11277.0,7406.0,4572.0,1738.0,359.0,264.0
759017,County,2020/08/25,20.0,KS,20059.0,Franklin County,5065.0,20566.0,82552.0,17476.0,21896.0,7414.0,8790.0,11130.0,9558.0,4244.0,1531.0,310.0,203.0
760649,County,2020/08/26,20.0,KS,20059.0,Franklin County,5226.0,20405.0,85059.0,17799.0,22350.0,8040.0,8846.0,12854.0,8989.0,4105.0,1496.0,337.0,243.0
763805,County,2020/08/27,20.0,KS,20059.0,Franklin County,5169.0,20462.0,85658.0,20277.0,22368.0,6772.0,8473.0,12672.0,8004.0,4526.0,1903.0,446.0,217.0
768588,County,2020/08/28,20.0,KS,20059.0,Franklin County,4532.0,21099.0,86652.0,17044.0,21307.0,8358.0,10638.0,13791.0,8933.0,4128.0,1717.0,445.0,291.0
770216,County,2020/08/29,20.0,KS,20059.0,Franklin County,5204.0,20427.0,84853.0,17185.0,22386.0,7399.0,9702.0,13579.0,9312.0,3349.0,1283.0,481.0,177.0
773423,County,2020/08/30,20.0,KS,20059.0,Franklin County,6191.0,19440.0,72067.0,14778.0,20087.0,7559.0,5841.0,11539.0,6574.0,2915.0,2034.0,465.0,275.0
776616,County,2020/08/31,20.0,KS,20059.0,Franklin County,5256.0,20375.0,76324.0,16466.0,19607.0,6032.0,7942.0,11801.0,8394.0,3878.0,1582.0,455.0,167.0
779758,County,2020/09/01,20.0,KS,20059.0,Franklin County,5385.0,20246.0,81754.0,17690.0,22112.0,6798.0,8960.0,11237.0,8629.0,4533.0,1149.0,501.0,145.0
783790,County,2020/09/02,20.0,KS,20059.0,Franklin County,5044.0,20587.0,84740.0,16915.0,22369.0,7436.0,8796.0,13071.0,9227.0,3898.0,2198.0,651.0,179.0
787741,County,2020/09/03,20.0,KS,20059.0,Franklin County,4935.0,20696.0,85169.0,17899.0,23659.0,7432.0,8188.0,12616.0,8797.0,4239.0,1529.0,630.0,180.0
789356,County,2020/09/04,20.0,KS,20059.0,Franklin County,5376.0,20255.0,84964.0,15744.0,22403.0,7862.0,10004.0,12517.0,8669.0,4524.0,2441.0,607.0,193.0
794123,County,2020/09/05,20.0,KS,20059.0,Franklin County,5272.0,20359.0,83973.0,16004.0,22545.0,7864.0,9915.0,13036.0,8583.0,3851.0,1592.0,422.0,161.0
795775,County,2020/09/06,20.0,KS,20059.0,Franklin County,6247.0,19384.0,73950.0,16807.0,20867.0,5723.0,7792.0,10648.0,6964.0,3135.0,1349.0,415.0,250.0
800540,County,2020/09/07,20.0,KS,20059.0,Franklin County,6707.0,18924.0,68036.0,12304.0,20952.0,5712.0,6344.0,10672.0,6127.0,3553.0,1628.0,496.0,248.0
802148,County,2020/09/08,20.0,KS,20059.0,Franklin County,5374.0,20257.0,85978.0,17344.0,24310.0,6885.0,8325.0,13385.0,9418.0,4168.0,1489.0,436.0,218.0
806929,County,2020/09/09,20.0,KS,20059.0,Franklin County,5262.0,20369.0,84283.0,16786.0,24418.0,7690.0,8446.0,11973.0,8939.0,3656.0,1639.0,556.0,180.0
808556,County,2020/09/10,20.0,KS,20059.0,Franklin County,5332.0,20299.0,79989.0,15105.0,25239.0,7306.0,7149.0,9103.0,9558.0,4165.0,1616.0,581.0,167.0
813317,County,2020/09/11,20.0,KS,20059.0,Franklin County,4953.0,20678.0,86546.0,15231.0,27392.0,8177.0,7411.0,12429.0,9130.0,4539.0,1667.0,351.0,219.0
814897,County,2020/09/12,20.0,KS,20059.0,Franklin County,5551.0,20080.0,84256.0,17137.0,24165.0,8624.0,8175.0,11268.0,9106.0,3626.0,1495.0,459.0,201.0
818119,County,2020/09/13,20.0,KS,20059.0,Franklin County,5962.0,19669.0,67839.0,11809.0,15525.0,6790.0,7738.0,12610.0,8180.0,3313.0,1141.0,531.0,202.0
821324,County,2020/09/14,20.0,KS,20059.0,Franklin County,5305.0,20326.0,93542.0,21936.0,27659.0,8147.0,7781.0,11505.0,10097.0,4527.0,1262.0,493.0,135.0
826093,County,2020/09/15,20.0,KS,20059.0,Franklin County,5154.0,20477.0,91500.0,19215.0,26887.0,7573.0,9476.0,12304.0,9433.0,4534.0,1462.0,416.0,200.0
827721,County,2020/09/16,20.0,KS,20059.0,Franklin County,4905.0,20726.0,88091.0,18699.0,22517.0,8514.0,8943.0,13489.0,9950.0,3198.0,2152.0,421.0,208.0
832464,County,2020/09/17,20.0,KS,20059.0,Franklin County,5075.0,20556.0,90094.0,17629.0,24730.0,9154.0,9225.0,12790.0,9395.0,4893.0,1490.0,578.0,210.0
834093,County,2020/09/18,20.0,KS,20059.0,Franklin County,5041.0,20590.0,92676.0,17079.0,27705.0,7580.0,9453.0,13540.0,10446.0,4164.0,2069.0,450.0,190.0
838868,County,2020/09/19,20.0,KS,20059.0,Franklin County,5231.0,20400.0,94608.0,20004.0,27407.0,6265.0,10662.0,13916.0,8503.0,5469.0,1666.0,537.0,179.0
840497,County,2020/09/20,20.0,KS,20059.0,Franklin County,6140.0,19491.0,74356.0,17424.0,21776.0,6441.0,6576.0,10552.0,6478.0,3064.0,1608.0,277.0,160.0
843659,County,2020/09/21,20.0,KS,20059.0,Franklin County,6049.0,19582.0,72286.0,14461.0,18912.0,7337.0,7408.0,10796.0,7028.0,4592.0,1439.0,262.0,51.0
846863,County,2020/09/22,20.0,KS,20059.0,Franklin County,5380.0,20251.0,82171.0,17180.0,22084.0,6346.0,7940.0,13249.0,9030.0,4793.0,1174.0,290.0,85.0
851641,County,2020/09/23,20.0,KS,20059.0,Franklin County,5108.0,20523.0,85364.0,15454.0,26270.0,6267.0,8539.0,13874.0,8713.0,3890.0,2022.0,237.0,98.0
853269,County,2020/09/24,20.0,KS,20059.0,Franklin County,5106.0,20525.0,81414.0,15799.0,22629.0,6904.0,8564.0,13137.0,8479.0,3955.0,1473.0,334.0,140.0
858033,County,2020/09/25,20.0,KS,20059.0,Franklin County,4595.0,21036.0,90356.0,19771.0,22542.0,8943.0,9745.0,13799.0,9272.0,4283.0,1590.0,321.0,90.0
861179,County,2020/09/26,20.0,KS,20059.0,Franklin County,5375.0,20256.0,89278.0,16844.0,25281.0,8195.0,10711.0,12423.0,10218.0,3710.0,1620.0,169.0,107.0
862833,County,2020/09/27,20.0,KS,20059.0,Franklin County,6031.0,19600.0,73305.0,14001.0,20278.0,6652.0,8003.0,11904.0,6806.0,3583.0,1712.0,259.0,107.0
866036,County,2020/09/28,20.0,KS,20059.0,Franklin County,5379.0,20252.0,83471.0,16112.0,23223.0,6699.0,9189.0,13176.0,9447.0,3800.0,1387.0,309.0,129.0
870808,County,2020/09/29,20.0,KS,20059.0,Franklin County,5117.0,20514.0,84849.0,17489.0,22839.0,7156.0,9506.0,12214.0,9129.0,5205.0,1065.0,200.0,46.0
872437,County,2020/09/30,20.0,KS,20059.0,Franklin County,5324.0,20307.0,93063.0,20028.0,25541.0,8676.0,9779.0,13847.0,9827.0,4169.0,886.0,252.0,58.0
875602,County,2020/10/01,20.0,KS,20059.0,Franklin County,5117.0,20514.0,92708.0,22178.0,23679.0,9361.0,7634.0,13099.0,10709.0,4397.0,1344.0,242.0,65.0
878805,County,2020/10/02,20.0,KS,20059.0,Franklin County,5303.0,20328.0,92086.0,20236.0,26502.0,8167.0,10175.0,11819.0,9683.0,4116.0,1078.0,264.0,46.0
883587,County,2020/10/03,20.0,KS,20059.0,Franklin County,5680.0,19951.0,84548.0,16640.0,23995.0,8323.0,10038.0,12888.0,7548.0,3540.0,1368.0,167.0,41.0
885587,County,2020/10/04,20.0,KS,20059.0,Franklin County,6001.0,19630.0,76485.0,15547.0,21215.0,8347.0,7230.0,11098.0,7994.0,3882.0,898.0,225.0,49.0
888826,County,2020/10/05,20.0,KS,20059.0,Franklin County,5853.0,19778.0,76362.0,16067.0,22772.0,5627.0,6936.0,10218.0,8443.0,4736.0,1302.0,182.0,79.0
892009,County,2020/10/06,20.0,KS,20059.0,Franklin County,5295.0,20336.0,81998.0,17896.0,23486.0,7344.0,7640.0,11575.0,7918.0,4482.0,1299.0,289.0,69.0
895195,County,2020/10/07,20.0,KS,20059.0,Franklin County,5086.0,20545.0,88936.0,19634.0,25624.0,7970.0,8137.0,12780.0,8665.0,4637.0,1156.0,264.0,69.0
898382,County,2020/10/08,20.0,KS,20059.0,Franklin County,5173.0,20458.0,82798.0,19423.0,22553.0,7662.0,7830.0,10683.0,8928.0,4062.0,1263.0,334.0,60.0
901611,County,2020/10/09,20.0,KS,20059.0,Franklin County,5572.0,20059.0,89024.0,19590.0,27192.0,8699.0,6450.0,11490.0,8672.0,5226.0,1364.0,276.0,65.0
904806,County,2020/10/10,20.0,KS,20059.0,Franklin County,5955.0,19676.0,88384.0,19446.0,24139.0,7530.0,10690.0,11784.0,9568.0,4054.0,878.0,245.0,50.0
909839,County,2020/10/11,20.0,KS,20059.0,Franklin County,6022.0,19609.0,66271.0,12925.0,20585.0,6530.0,6246.0,9288.0,6239.0,2744.0,1372.0,302.0,40.0
912377,County,2020/10/12,20.0,KS,20059.0,Franklin County,5687.0,19944.0,85233.0,18152.0,24398.0,8650.0,7517.0,12136.0,8376.0,4843.0,945.0,173.0,43.0
915656,County,2020/10/13,20.0,KS,20059.0,Franklin County,5447.0,20184.0,88822.0,20482.0,26441.0,7459.0,7837.0,12076.0,9041.0,4366.0,781.0,285.0,54.0
918910,County,2020/10/14,20.0,KS,20059.0,Franklin County,4968.0,20663.0,87526.0,19949.0,23894.0,7633.0,9387.0,11324.0,9044.0,4461.0,1518.0,260.0,56.0
922143,County,2020/10/15,20.0,KS,20059.0,Franklin County,5666.0,19965.0,76731.0,15140.0,20150.0,6953.0,6390.0,11416.0,10759.0,4474.0,1072.0,319.0,58.0
925554,County,2020/10/16,20.0,KS,20059.0,Franklin County,5163.0,20468.0,89912.0,17742.0,24662.0,8441.0,9686.0,12339.0,10786.0,4549.0,1374.0,264.0,69.0
928553,County,2020/10/17,20.0,KS,20059.0,Franklin County,5300.0,20331.0,78321.0,15400.0,21776.0,8883.0,8861.0,9797.0,7603.0,4059.0,1577.0,281.0,84.0
932108,County,2020/10/18,20.0,KS,20059.0,Franklin County,5964.0,19667.0,74255.0,15853.0,22323.0,5565.0,7395.0,9439.0,7889.0,4188.0,1311.0,228.0,64.0
934265,County,2020/10/19,20.0,KS,20059.0,Franklin County,5263.0,20368.0,85946.0,20408.0,19651.0,9652.0,9038.0,12532.0,8687.0,4303.0,1349.0,276.0,50.0
938447,County,2020/10/20,20.0,KS,20059.0,Franklin County,5172.0,20459.0,83053.0,17080.0,24120.0,8877.0,7532.0,9671.0,9364.0,4894.0,1275.0,200.0,40.0
941078,County,2020/10/21,20.0,KS,20059.0,Franklin County,5371.0,20260.0,76245.0,15004.0,21894.0,6536.0,6756.0,10682.0,9315.0,4846.0,885.0,260.0,67.0
944740,County,2020/10/22,20.0,KS,20059.0,Franklin County,5091.0,20540.0,89127.0,17548.0,27209.0,7748.0,8564.0,12113.0,9654.0,4877.0,1155.0,210.0,49.0
948055,County,2020/10/23,20.0,KS,20059.0,Franklin County,4859.0,20772.0,92605.0,18349.0,24757.0,8342.0,8870.0,15362.0,10203.0,5120.0,1327.0,224.0,51.0
950914,County,2020/10/24,20.0,KS,20059.0,Franklin County,5332.0,20299.0,95082.0,22374.0,23910.0,10582.0,8668.0,12774.0,10521.0,4523.0,1575.0,124.0,31.0
