,Level,Date,State FIPS,State Postal Code,County FIPS,County Name,Population Staying at Home,Population Not Staying at Home,Number of Trips,Number of Trips <1,Number of Trips 1-3,Number of Trips 3-5,Number of Trips 5-10,Number of Trips 10-25,Number of Trips 25-50,Number of Trips 50-100,Number of Trips 100-250,Number of Trips 250-500,Number of Trips >=500
2895,County,2020/01/01,51.0,VA,51159.0,Richmond County,1373.0,7665.0,33988.0,5850.0,7491.0,5292.0,6981.0,5596.0,1497.0,1172.0,60.0,49.0,0.0
4131,County,2020/01/02,51.0,VA,51159.0,Richmond County,1010.0,8028.0,38483.0,5906.0,9518.0,5634.0,7368.0,6379.0,1929.0,1637.0,90.0,0.0,22.0
8891,County,2020/01/03,51.0,VA,51159.0,Richmond County,1054.0,7984.0,42800.0,7089.0,8196.0,8788.0,7555.0,6997.0,1827.0,2013.0,275.0,37.0,23.0
10327,County,2020/01/04,51.0,VA,51159.0,Richmond County,1237.0,7801.0,35919.0,4219.0,8435.0,8204.0,7738.0,5298.0,1006.0,819.0,97.0,79.0,24.0
15670,County,2020/01/05,51.0,VA,51159.0,Richmond County,1218.0,7820.0,32089.0,5241.0,6027.0,5595.0,6747.0,6333.0,643.0,1477.0,0.0,0.0,26.0
17445,County,2020/01/06,51.0,VA,51159.0,Richmond County,944.0,8094.0,34410.0,5973.0,5716.0,5591.0,6935.0,6100.0,2628.0,1288.0,125.0,33.0,21.0
20602,County,2020/01/07,51.0,VA,51159.0,Richmond County,931.0,8107.0,35319.0,6784.0,6004.0,4861.0,8337.0,5333.0,2043.0,1813.0,82.0,0.0,62.0
23881,County,2020/01/08,51.0,VA,51159.0,Richmond County,936.0,8102.0,35981.0,7491.0,9319.0,3218.0,6600.0,6106.0,1430.0,1720.0,42.0,34.0,21.0
28581,County,2020/01/09,51.0,VA,51159.0,Richmond County,1053.0,7985.0,35451.0,6040.0,8494.0,3564.0,8295.0,5101.0,1631.0,2025.0,212.0,68.0,21.0
31788,County,2020/01/10,51.0,VA,51159.0,Richmond County,1110.0,7928.0,40382.0,8458.0,7692.0,5359.0,7221.0,8018.0,1502.0,1940.0,45.0,147.0,0.0
34982,County,2020/01/11,51.0,VA,51159.0,Richmond County,1235.0,7803.0,40785.0,8392.0,6689.0,8203.0,8793.0,5817.0,1467.0,1247.0,152.0,0.0,25.0
38103,County,2020/01/12,51.0,VA,51159.0,Richmond County,1225.0,7813.0,32482.0,7106.0,7458.0,3670.0,6256.0,5432.0,1174.0,1348.0,0.0,38.0,0.0
41348,County,2020/01/13,51.0,VA,51159.0,Richmond County,1090.0,7948.0,32682.0,6072.0,6051.0,3831.0,6779.0,5944.0,2319.0,1471.0,126.0,68.0,21.0
44547,County,2020/01/14,51.0,VA,51159.0,Richmond County,1019.0,8019.0,34566.0,5857.0,7813.0,4927.0,6122.0,6881.0,1726.0,1135.0,84.0,0.0,21.0
47753,County,2020/01/15,51.0,VA,51159.0,Richmond County,961.0,8077.0,31282.0,3860.0,5403.0,6166.0,5501.0,6434.0,1972.0,1802.0,80.0,64.0,0.0
49282,County,2020/01/16,51.0,VA,51159.0,Richmond County,1022.0,8016.0,38915.0,7487.0,8399.0,4746.0,7181.0,7126.0,2339.0,1554.0,83.0,0.0,0.0
52536,County,2020/01/17,51.0,VA,51159.0,Richmond County,1056.0,7982.0,41410.0,5155.0,7038.0,9073.0,8017.0,7854.0,2370.0,1656.0,132.0,71.0,44.0
57319,County,2020/01/18,51.0,VA,51159.0,Richmond County,1173.0,7865.0,30183.0,5621.0,5332.0,4177.0,6822.0,5873.0,1328.0,832.0,138.0,37.0,23.0
60517,County,2020/01/19,51.0,VA,51159.0,Richmond County,1346.0,7692.0,34185.0,6678.0,6508.0,5942.0,6937.0,5834.0,835.0,1070.0,221.0,133.0,27.0
62149,County,2020/01/20,51.0,VA,51159.0,Richmond County,1159.0,7879.0,31978.0,5165.0,5886.0,5687.0,5076.0,6311.0,2125.0,1560.0,48.0,0.0,120.0
66877,County,2020/01/21,51.0,VA,51159.0,Richmond County,942.0,8096.0,37898.0,7018.0,7832.0,3927.0,6885.0,7564.0,2324.0,2236.0,40.0,32.0,40.0
68508,County,2020/01/22,51.0,VA,51159.0,Richmond County,997.0,8041.0,40241.0,7671.0,8087.0,5596.0,8569.0,6683.0,2046.0,1414.0,175.0,0.0,0.0
73301,County,2020/01/23,51.0,VA,51159.0,Richmond County,1106.0,7932.0,36107.0,7065.0,7957.0,4915.0,6709.0,6373.0,1779.0,1025.0,250.0,34.0,0.0
74888,County,2020/01/24,51.0,VA,51159.0,Richmond County,974.0,8064.0,39006.0,7092.0,6777.0,6339.0,7023.0,7593.0,1654.0,2176.0,320.0,32.0,0.0
78132,County,2020/01/25,51.0,VA,51159.0,Richmond County,1147.0,7891.0,40434.0,7480.0,8635.0,7010.0,7094.0,5985.0,1432.0,2282.0,407.0,109.0,0.0
82744,County,2020/01/26,51.0,VA,51159.0,Richmond County,1178.0,7860.0,34024.0,7591.0,7623.0,5051.0,5672.0,5388.0,860.0,1401.0,417.0,0.0,21.0
86053,County,2020/01/27,51.0,VA,51159.0,Richmond County,1066.0,7972.0,38373.0,7723.0,9022.0,5013.0,6887.0,6444.0,1661.0,1249.0,282.0,32.0,60.0
88259,County,2020/01/28,51.0,VA,51159.0,Richmond County,868.0,8170.0,38358.0,7243.0,8183.0,4215.0,7365.0,6762.0,2634.0,1809.0,147.0,0.0,0.0
92461,County,2020/01/29,51.0,VA,51159.0,Richmond County,968.0,8070.0,37528.0,7244.0,6317.0,6462.0,7754.0,5755.0,1724.0,2076.0,196.0,0.0,0.0
95666,County,2020/01/30,51.0,VA,51159.0,Richmond County,938.0,8100.0,39452.0,8407.0,7682.0,4793.0,7754.0,6436.0,2461.0,1605.0,219.0,59.0,36.0
97241,County,2020/01/31,51.0,VA,51159.0,Richmond County,935.0,8103.0,38156.0,7213.0,6873.0,6439.0,7433.0,6323.0,1872.0,1760.0,184.0,59.0,0.0
100490,County,2020/02/01,51.0,VA,51159.0,Richmond County,1015.0,8023.0,41233.0,8020.0,8556.0,5060.0,7992.0,7554.0,1469.0,2148.0,395.0,0.0,39.0
103619,County,2020/02/02,51.0,VA,51159.0,Richmond County,1215.0,7823.0,34310.0,5760.0,8392.0,6478.0,5952.0,5162.0,806.0,1568.0,125.0,67.0,0.0
108453,County,2020/02/03,51.0,VA,51159.0,Richmond County,1023.0,8015.0,39874.0,6539.0,8881.0,6080.0,7523.0,7324.0,2336.0,981.0,181.0,29.0,0.0
110071,County,2020/02/04,51.0,VA,51159.0,Richmond County,930.0,8108.0,38104.0,7482.0,6944.0,5216.0,6984.0,7305.0,2280.0,1677.0,180.0,0.0,36.0
114792,County,2020/02/05,51.0,VA,51159.0,Richmond County,860.0,8178.0,39350.0,8557.0,6677.0,5714.0,7070.0,7581.0,1868.0,1624.0,170.0,55.0,34.0
117998,County,2020/02/06,51.0,VA,51159.0,Richmond County,1011.0,8027.0,38832.0,5633.0,7755.0,7324.0,7080.0,6842.0,2292.0,1450.0,374.0,82.0,0.0
121253,County,2020/02/07,51.0,VA,51159.0,Richmond County,867.0,8171.0,42688.0,7238.0,9224.0,6274.0,7686.0,7757.0,2948.0,1325.0,186.0,50.0,0.0
122872,County,2020/02/08,51.0,VA,51159.0,Richmond County,1005.0,8033.0,34956.0,5746.0,7494.0,5497.0,5963.0,6248.0,1732.0,1935.0,170.0,137.0,34.0
126910,County,2020/02/09,51.0,VA,51159.0,Richmond County,1178.0,7860.0,32001.0,6469.0,5333.0,6085.0,6150.0,5223.0,1119.0,1091.0,331.0,170.0,30.0
128060,County,2020/02/10,51.0,VA,51159.0,Richmond County,940.0,8098.0,39058.0,7159.0,6528.0,6621.0,8682.0,6592.0,2030.0,1192.0,184.0,24.0,46.0
133522,County,2020/02/11,51.0,VA,51159.0,Richmond County,896.0,8142.0,35274.0,5521.0,6252.0,5457.0,7199.0,6548.0,2058.0,1974.0,249.0,0.0,16.0
137161,County,2020/02/12,51.0,VA,51159.0,Richmond County,961.0,8077.0,36276.0,6312.0,6974.0,4697.0,6652.0,6832.0,2039.0,2405.0,290.0,46.0,29.0
138853,County,2020/02/13,51.0,VA,51159.0,Richmond County,784.0,8254.0,39851.0,7509.0,7945.0,5829.0,7197.0,6420.0,2609.0,2132.0,109.0,88.0,13.0
143538,County,2020/02/14,51.0,VA,51159.0,Richmond County,717.0,8321.0,39800.0,6157.0,8316.0,6327.0,7809.0,6659.0,2509.0,1716.0,221.0,45.0,41.0
146742,County,2020/02/15,51.0,VA,51159.0,Richmond County,962.0,8076.0,38163.0,6373.0,7059.0,5442.0,8601.0,5748.0,2491.0,2048.0,291.0,78.0,32.0
149944,County,2020/02/16,51.0,VA,51159.0,Richmond County,1207.0,7831.0,29362.0,3601.0,5987.0,4582.0,7459.0,4314.0,1330.0,1621.0,393.0,58.0,17.0
151575,County,2020/02/17,51.0,VA,51159.0,Richmond County,1387.0,7651.0,29329.0,4978.0,4895.0,4042.0,5555.0,5721.0,2175.0,1817.0,146.0,0.0,0.0
156354,County,2020/02/18,51.0,VA,51159.0,Richmond County,937.0,8101.0,35705.0,6830.0,6046.0,4562.0,6679.0,6847.0,2547.0,2094.0,67.0,0.0,33.0
159498,County,2020/02/19,51.0,VA,51159.0,Richmond County,920.0,8118.0,34671.0,6030.0,7478.0,4268.0,5439.0,6241.0,2874.0,2125.0,137.0,28.0,51.0
162742,County,2020/02/20,51.0,VA,51159.0,Richmond County,862.0,8176.0,35521.0,5572.0,7782.0,4512.0,6646.0,6422.0,2415.0,1981.0,159.0,0.0,32.0
164321,County,2020/02/21,51.0,VA,51159.0,Richmond County,862.0,8176.0,36500.0,6272.0,5648.0,5687.0,8708.0,6205.0,1998.0,1791.0,102.0,55.0,34.0
169082,County,2020/02/22,51.0,VA,51159.0,Richmond County,1007.0,8031.0,40867.0,7145.0,6615.0,5661.0,8752.0,7764.0,2424.0,2174.0,280.0,32.0,20.0
172280,County,2020/02/23,51.0,VA,51159.0,Richmond County,1258.0,7780.0,35366.0,9224.0,6208.0,4428.0,8226.0,4831.0,905.0,1190.0,219.0,70.0,65.0
173906,County,2020/02/24,51.0,VA,51159.0,Richmond County,910.0,8128.0,36220.0,7620.0,6267.0,5199.0,6842.0,5792.0,2712.0,1614.0,99.0,26.0,49.0
178565,County,2020/02/25,51.0,VA,51159.0,Richmond County,784.0,8254.0,37733.0,6109.0,7717.0,4970.0,7450.0,6679.0,2886.0,1707.0,38.0,62.0,115.0
181758,County,2020/02/26,51.0,VA,51159.0,Richmond County,1105.0,7933.0,42233.0,9716.0,7648.0,4646.0,8019.0,7188.0,2244.0,2271.0,501.0,0.0,0.0
185095,County,2020/02/27,51.0,VA,51159.0,Richmond County,906.0,8132.0,37525.0,6718.0,8355.0,5293.0,6968.0,5799.0,2301.0,1774.0,234.0,0.0,83.0
186821,County,2020/02/28,51.0,VA,51159.0,Richmond County,840.0,8198.0,39957.0,7722.0,6854.0,5343.0,8467.0,6945.0,2611.0,1739.0,276.0,0.0,0.0
189825,County,2020/02/29,51.0,VA,51159.0,Richmond County,979.0,8059.0,41093.0,6967.0,6789.0,6715.0,9255.0,7382.0,1688.0,2132.0,115.0,31.0,19.0
194658,County,2020/03/01,51.0,VA,51159.0,Richmond County,1033.0,8005.0,33098.0,6609.0,6041.0,4946.0,7252.0,4382.0,1899.0,1267.0,578.0,36.0,88.0
197862,County,2020/03/02,51.0,VA,51159.0,Richmond County,981.0,8057.0,43586.0,6807.0,10907.0,4168.0,8781.0,8439.0,2588.0,1600.0,198.0,0.0,98.0
199394,County,2020/03/03,51.0,VA,51159.0,Richmond County,882.0,8156.0,41555.0,9894.0,9358.0,5134.0,5912.0,7080.0,2266.0,1577.0,304.0,0.0,30.0
204224,County,2020/03/04,51.0,VA,51159.0,Richmond County,851.0,8187.0,45503.0,9720.0,7657.0,6242.0,9939.0,7172.0,2381.0,2238.0,62.0,0.0,92.0
207428,County,2020/03/05,51.0,VA,51159.0,Richmond County,835.0,8203.0,45158.0,8666.0,7458.0,7324.0,7306.0,8767.0,3336.0,1929.0,310.0,0.0,62.0
210691,County,2020/03/06,51.0,VA,51159.0,Richmond County,818.0,8220.0,43557.0,9388.0,7303.0,6452.0,8151.0,6863.0,3296.0,1858.0,60.0,97.0,89.0
212260,County,2020/03/07,51.0,VA,51159.0,Richmond County,950.0,8088.0,43198.0,7097.0,7685.0,8349.0,7749.0,8280.0,1860.0,1652.0,451.0,0.0,75.0
216987,County,2020/03/08,51.0,VA,51159.0,Richmond County,1138.0,7900.0,39980.0,9457.0,7331.0,7427.0,5491.0,6595.0,1256.0,1967.0,456.0,0.0,0.0
218627,County,2020/03/09,51.0,VA,51159.0,Richmond County,908.0,8130.0,40650.0,6464.0,9335.0,5919.0,7492.0,6887.0,1935.0,2425.0,117.0,47.0,29.0
221862,County,2020/03/10,51.0,VA,51159.0,Richmond County,923.0,8115.0,40268.0,8681.0,9009.0,5591.0,6258.0,6899.0,2127.0,1332.0,343.0,0.0,28.0
226608,County,2020/03/11,51.0,VA,51159.0,Richmond County,913.0,8125.0,37969.0,3900.0,8446.0,4820.0,8857.0,6836.0,2954.0,1619.0,537.0,0.0,0.0
229748,County,2020/03/12,51.0,VA,51159.0,Richmond County,956.0,8082.0,44480.0,4827.0,6551.0,7851.0,12366.0,7097.0,3666.0,1292.0,333.0,0.0,497.0
232967,County,2020/03/13,51.0,VA,51159.0,Richmond County,746.0,8292.0,38760.0,3407.0,8714.0,5128.0,7710.0,7729.0,1524.0,3580.0,831.0,0.0,137.0
236169,County,2020/03/14,51.0,VA,51159.0,Richmond County,1213.0,7825.0,49835.0,8079.0,10340.0,5900.0,10389.0,8690.0,3013.0,2549.0,657.0,0.0,218.0
237781,County,2020/03/15,51.0,VA,51159.0,Richmond County,1383.0,7655.0,34196.0,6776.0,5982.0,7243.0,6884.0,4578.0,1021.0,1343.0,222.0,0.0,147.0
241025,County,2020/03/16,51.0,VA,51159.0,Richmond County,992.0,8046.0,40320.0,6832.0,6498.0,5854.0,8128.0,7238.0,3030.0,2249.0,289.0,0.0,202.0
245784,County,2020/03/17,51.0,VA,51159.0,Richmond County,1154.0,7884.0,36786.0,5301.0,8403.0,6503.0,7241.0,5503.0,2174.0,1438.0,117.0,47.0,59.0
247362,County,2020/03/18,51.0,VA,51159.0,Richmond County,1250.0,7788.0,41520.0,8801.0,7813.0,6687.0,7680.0,5654.0,2049.0,2569.0,186.0,50.0,31.0
252144,County,2020/03/19,51.0,VA,51159.0,Richmond County,1276.0,7762.0,36325.0,5381.0,6266.0,6704.0,7625.0,6938.0,2192.0,883.0,114.0,137.0,85.0
253803,County,2020/03/20,51.0,VA,51159.0,Richmond County,1149.0,7889.0,37479.0,6712.0,7055.0,5759.0,6600.0,6972.0,2734.0,1355.0,166.0,44.0,82.0
256945,County,2020/03/21,51.0,VA,51159.0,Richmond County,1564.0,7474.0,32111.0,7703.0,5842.0,5250.0,5819.0,4692.0,1532.0,864.0,372.0,0.0,37.0
261749,County,2020/03/22,51.0,VA,51159.0,Richmond County,1233.0,7805.0,32894.0,5972.0,8285.0,6592.0,5016.0,4620.0,1061.0,1074.0,178.0,96.0,0.0
264911,County,2020/03/23,51.0,VA,51159.0,Richmond County,1205.0,7833.0,34928.0,6814.0,8737.0,4300.0,5382.0,5793.0,2216.0,1364.0,222.0,45.0,55.0
266537,County,2020/03/24,51.0,VA,51159.0,Richmond County,1306.0,7732.0,35168.0,5391.0,5805.0,6286.0,6583.0,6371.0,3149.0,1402.0,181.0,0.0,0.0
269771,County,2020/03/25,51.0,VA,51159.0,Richmond County,1306.0,7732.0,29161.0,4791.0,6117.0,3696.0,5030.0,5644.0,2433.0,1340.0,61.0,49.0,0.0
274513,County,2020/03/26,51.0,VA,51159.0,Richmond County,1306.0,7732.0,34895.0,6294.0,6202.0,5408.0,6748.0,6381.0,2128.0,1615.0,119.0,0.0,0.0
276151,County,2020/03/27,51.0,VA,51159.0,Richmond County,1078.0,7960.0,32700.0,6708.0,5987.0,5466.0,5859.0,4696.0,2094.0,1377.0,406.0,82.0,25.0
279305,County,2020/03/28,51.0,VA,51159.0,Richmond County,1306.0,7732.0,32997.0,9677.0,4265.0,7097.0,5341.0,4513.0,994.0,779.0,241.0,0.0,90.0
284065,County,2020/03/29,51.0,VA,51159.0,Richmond County,1402.0,7636.0,30100.0,6691.0,4354.0,5919.0,5774.0,4879.0,1433.0,673.0,325.0,52.0,0.0
285693,County,2020/03/30,51.0,VA,51159.0,Richmond County,1305.0,7733.0,33347.0,6524.0,6249.0,5539.0,6435.0,5251.0,1717.0,1320.0,284.0,0.0,28.0
290496,County,2020/03/31,51.0,VA,51159.0,Richmond County,1342.0,7696.0,32729.0,5637.0,4372.0,6106.0,6635.0,5931.0,1690.0,1891.0,409.0,0.0,58.0
292123,County,2020/04/01,51.0,VA,51159.0,Richmond County,1023.0,8015.0,33253.0,8112.0,6241.0,4507.0,5623.0,5390.0,1501.0,1731.0,99.0,0.0,49.0
296856,County,2020/04/02,51.0,VA,51159.0,Richmond County,1207.0,7831.0,32608.0,5450.0,4592.0,4753.0,7614.0,6860.0,1868.0,1264.0,163.0,44.0,0.0
298517,County,2020/04/03,51.0,VA,51159.0,Richmond County,1125.0,7913.0,34755.0,6769.0,6584.0,7450.0,6084.0,5335.0,1405.0,1100.0,0.0,0.0,28.0
303264,County,2020/04/04,51.0,VA,51159.0,Richmond County,1215.0,7823.0,29545.0,4269.0,4025.0,7295.0,6827.0,5129.0,1491.0,389.0,60.0,0.0,60.0
304892,County,2020/04/05,51.0,VA,51159.0,Richmond County,1394.0,7644.0,25939.0,5047.0,4486.0,5485.0,5242.0,3160.0,1435.0,758.0,326.0,0.0,0.0
308050,County,2020/04/06,51.0,VA,51159.0,Richmond County,1266.0,7772.0,35247.0,4974.0,6549.0,6930.0,6242.0,5871.0,2499.0,1879.0,303.0,0.0,0.0
311292,County,2020/04/07,51.0,VA,51159.0,Richmond County,1122.0,7916.0,31313.0,4798.0,5006.0,3557.0,7131.0,7409.0,2313.0,931.0,144.0,0.0,24.0
316029,County,2020/04/08,51.0,VA,51159.0,Richmond County,1181.0,7857.0,33605.0,5601.0,6933.0,6305.0,5906.0,4694.0,2577.0,1424.0,165.0,0.0,0.0
317656,County,2020/04/09,51.0,VA,51159.0,Richmond County,1211.0,7827.0,31299.0,7615.0,4800.0,5160.0,4565.0,6338.0,1718.0,954.0,57.0,92.0,0.0
320883,County,2020/04/10,51.0,VA,51159.0,Richmond County,1135.0,7903.0,30089.0,5216.0,5062.0,4333.0,6413.0,6460.0,1623.0,901.0,54.0,0.0,27.0
324068,County,2020/04/11,51.0,VA,51159.0,Richmond County,1323.0,7715.0,33828.0,5082.0,5039.0,9488.0,7793.0,4893.0,793.0,580.0,64.0,0.0,96.0
327214,County,2020/04/12,51.0,VA,51159.0,Richmond County,1675.0,7363.0,23751.0,3126.0,2898.0,6615.0,5643.0,3402.0,1158.0,817.0,0.0,57.0,35.0
330477,County,2020/04/13,51.0,VA,51159.0,Richmond County,1208.0,7830.0,27781.0,4311.0,3700.0,5373.0,6347.0,5108.0,2039.0,589.0,285.0,0.0,29.0
335198,County,2020/04/14,51.0,VA,51159.0,Richmond County,1353.0,7685.0,33782.0,6800.0,4485.0,8156.0,6466.0,4398.0,2156.0,921.0,285.0,115.0,0.0
338403,County,2020/04/15,51.0,VA,51159.0,Richmond County,1271.0,7767.0,28054.0,5063.0,6479.0,2773.0,6511.0,4235.0,945.0,1774.0,274.0,0.0,0.0
341548,County,2020/04/16,51.0,VA,51159.0,Richmond County,1577.0,7461.0,34387.0,5630.0,10359.0,2533.0,6595.0,4974.0,2070.0,1945.0,188.0,0.0,93.0
344761,County,2020/04/17,51.0,VA,51159.0,Richmond County,1205.0,7833.0,26910.0,4403.0,5033.0,2721.0,6388.0,5541.0,1297.0,1393.0,134.0,0.0,0.0
346387,County,2020/04/18,51.0,VA,51159.0,Richmond County,1430.0,7608.0,26889.0,4445.0,4389.0,7013.0,3989.0,3716.0,1843.0,1347.0,0.0,0.0,147.0
349560,County,2020/04/19,51.0,VA,51159.0,Richmond County,1476.0,7562.0,22345.0,1506.0,3386.0,5216.0,7809.0,1011.0,1185.0,1113.0,1033.0,0.0,86.0
352814,County,2020/04/20,51.0,VA,51159.0,Richmond County,1346.0,7692.0,22299.0,5091.0,2373.0,3385.0,2073.0,6499.0,553.0,1560.0,603.0,162.0,0.0
357575,County,2020/04/21,51.0,VA,51159.0,Richmond County,1281.0,7757.0,31042.0,5491.0,5723.0,3785.0,7092.0,5636.0,1274.0,1710.0,331.0,0.0,0.0
360730,County,2020/04/22,51.0,VA,51159.0,Richmond County,1299.0,7739.0,32582.0,5634.0,5488.0,5636.0,5466.0,5739.0,2591.0,1714.0,279.0,0.0,35.0
363935,County,2020/04/23,51.0,VA,51159.0,Richmond County,1151.0,7887.0,28732.0,5319.0,4297.0,4086.0,5507.0,5885.0,2087.0,1491.0,0.0,0.0,60.0
365561,County,2020/04/24,51.0,VA,51159.0,Richmond County,1212.0,7826.0,32152.0,5965.0,7007.0,3577.0,6831.0,6153.0,1376.0,1212.0,0.0,0.0,31.0
368731,County,2020/04/25,51.0,VA,51159.0,Richmond County,1406.0,7632.0,32227.0,4752.0,5434.0,5581.0,6838.0,6031.0,1846.0,1429.0,316.0,0.0,0.0
371897,County,2020/04/26,51.0,VA,51159.0,Richmond County,1365.0,7673.0,30084.0,3749.0,6446.0,5768.0,6605.0,5034.0,1332.0,770.0,223.0,120.0,37.0
376728,County,2020/04/27,51.0,VA,51159.0,Richmond County,1299.0,7739.0,28627.0,4196.0,4669.0,5023.0,5874.0,4783.0,2426.0,1228.0,339.0,55.0,34.0
379900,County,2020/04/28,51.0,VA,51159.0,Richmond County,1095.0,7943.0,27765.0,3847.0,6407.0,4218.0,5684.0,4050.0,1551.0,1539.0,438.0,0.0,31.0
383103,County,2020/04/29,51.0,VA,51159.0,Richmond County,1171.0,7867.0,29740.0,6387.0,4184.0,4558.0,5583.0,5114.0,2483.0,1250.0,129.0,52.0,0.0
384724,County,2020/04/30,51.0,VA,51159.0,Richmond County,1239.0,7799.0,26315.0,3366.0,6003.0,4194.0,5009.0,5399.0,1285.0,966.0,62.0,0.0,31.0
389508,County,2020/05/01,51.0,VA,51159.0,Richmond County,1111.0,7927.0,33004.0,4909.0,7550.0,6266.0,5397.0,4956.0,2080.0,1730.0,116.0,0.0,0.0
391081,County,2020/05/02,51.0,VA,51159.0,Richmond County,1263.0,7775.0,32268.0,5785.0,5683.0,5882.0,7068.0,5628.0,832.0,1390.0,0.0,0.0,0.0
394343,County,2020/05/03,51.0,VA,51159.0,Richmond County,1330.0,7708.0,28491.0,2468.0,4251.0,5458.0,6049.0,7259.0,1806.0,699.0,463.0,0.0,38.0
397504,County,2020/05/04,51.0,VA,51159.0,Richmond County,1159.0,7879.0,33363.0,5246.0,6432.0,3303.0,6609.0,8072.0,2340.0,1099.0,262.0,0.0,0.0
400726,County,2020/05/05,51.0,VA,51159.0,Richmond County,1058.0,7980.0,31721.0,5716.0,4831.0,6202.0,5318.0,5683.0,2027.0,1667.0,246.0,0.0,31.0
405480,County,2020/05/06,51.0,VA,51159.0,Richmond County,1137.0,7901.0,30148.0,6478.0,4780.0,3357.0,6811.0,5585.0,1629.0,1209.0,249.0,50.0,0.0
408574,County,2020/05/07,51.0,VA,51159.0,Richmond County,1255.0,7783.0,28034.0,5010.0,5538.0,3748.0,4996.0,5291.0,2252.0,1101.0,65.0,0.0,33.0
410409,County,2020/05/08,51.0,VA,51159.0,Richmond County,1229.0,7809.0,27105.0,4623.0,3902.0,4955.0,5410.0,4137.0,2377.0,1406.0,192.0,103.0,0.0
415033,County,2020/05/09,51.0,VA,51159.0,Richmond County,1329.0,7709.0,26956.0,3160.0,4933.0,4094.0,5955.0,6365.0,1359.0,786.0,304.0,0.0,0.0
416647,County,2020/05/10,51.0,VA,51159.0,Richmond County,1544.0,7494.0,30421.0,3791.0,3100.0,8115.0,7074.0,6266.0,893.0,719.0,463.0,0.0,0.0
421444,County,2020/05/11,51.0,VA,51159.0,Richmond County,1102.0,7936.0,38213.0,8387.0,7336.0,6881.0,7903.0,4054.0,2320.0,1189.0,102.0,41.0,0.0
423122,County,2020/05/12,51.0,VA,51159.0,Richmond County,1102.0,7936.0,35688.0,7556.0,6373.0,4793.0,7694.0,5410.0,2026.0,1714.0,98.0,0.0,24.0
426131,County,2020/05/13,51.0,VA,51159.0,Richmond County,1177.0,7861.0,42427.0,7847.0,7064.0,8253.0,9640.0,6031.0,1726.0,1695.0,171.0,0.0,0.0
429471,County,2020/05/14,51.0,VA,51159.0,Richmond County,1064.0,7974.0,38272.0,8058.0,7231.0,4072.0,8779.0,6539.0,2130.0,1376.0,48.0,39.0,0.0
434212,County,2020/05/15,51.0,VA,51159.0,Richmond County,1026.0,8012.0,34650.0,5802.0,6111.0,5465.0,6790.0,6677.0,2042.0,1439.0,278.0,0.0,46.0
435890,County,2020/05/16,51.0,VA,51159.0,Richmond County,1171.0,7867.0,44630.0,7850.0,9762.0,6759.0,10351.0,7047.0,1611.0,721.0,446.0,0.0,83.0
439042,County,2020/05/17,51.0,VA,51159.0,Richmond County,1393.0,7645.0,27567.0,4958.0,3506.0,2824.0,5838.0,7857.0,1154.0,1220.0,210.0,0.0,0.0
442287,County,2020/05/18,51.0,VA,51159.0,Richmond County,1067.0,7971.0,30795.0,8067.0,3892.0,3053.0,6121.0,6178.0,1702.0,1386.0,330.0,66.0,0.0
446977,County,2020/05/19,51.0,VA,51159.0,Richmond County,1037.0,8001.0,35117.0,6763.0,5740.0,7170.0,6019.0,6606.0,1845.0,816.0,158.0,0.0,0.0
448609,County,2020/05/20,51.0,VA,51159.0,Richmond County,1120.0,7918.0,37417.0,8504.0,5077.0,5326.0,8929.0,5138.0,2520.0,1507.0,416.0,0.0,0.0
453388,County,2020/05/21,51.0,VA,51159.0,Richmond County,860.0,8178.0,33356.0,4879.0,4651.0,6514.0,7094.0,5475.0,2366.0,1760.0,501.0,116.0,0.0
454966,County,2020/05/22,51.0,VA,51159.0,Richmond County,1150.0,7888.0,31271.0,5725.0,5069.0,4189.0,6048.0,6137.0,2201.0,1724.0,178.0,0.0,0.0
459750,County,2020/05/23,51.0,VA,51159.0,Richmond County,1095.0,7943.0,31094.0,3488.0,4496.0,7105.0,6890.0,6072.0,968.0,1592.0,439.0,0.0,44.0
462954,County,2020/05/24,51.0,VA,51159.0,Richmond County,1205.0,7833.0,34089.0,6701.0,6203.0,8082.0,5533.0,5394.0,648.0,1217.0,188.0,76.0,47.0
464583,County,2020/05/25,51.0,VA,51159.0,Richmond County,1150.0,7888.0,36714.0,9267.0,8508.0,4385.0,7386.0,4511.0,1152.0,1143.0,232.0,38.0,92.0
469364,County,2020/05/26,51.0,VA,51159.0,Richmond County,1016.0,8022.0,36189.0,6233.0,8212.0,6390.0,6784.0,5329.0,1567.0,1527.0,126.0,0.0,21.0
470993,County,2020/05/27,51.0,VA,51159.0,Richmond County,902.0,8136.0,41103.0,8101.0,7460.0,8384.0,7900.0,5966.0,2003.0,1189.0,38.0,62.0,0.0
474089,County,2020/05/28,51.0,VA,51159.0,Richmond County,1254.0,7784.0,34415.0,6122.0,6762.0,6163.0,7734.0,4395.0,1720.0,1385.0,134.0,0.0,0.0
477334,County,2020/05/29,51.0,VA,51159.0,Richmond County,1090.0,7948.0,35352.0,5780.0,7626.0,5533.0,7126.0,5882.0,1565.0,1798.0,42.0,0.0,0.0
480521,County,2020/05/30,51.0,VA,51159.0,Richmond County,1188.0,7850.0,41338.0,6385.0,9435.0,8777.0,7419.0,7048.0,1148.0,876.0,156.0,42.0,52.0
483650,County,2020/05/31,51.0,VA,51159.0,Richmond County,1304.0,7734.0,40368.0,7339.0,8303.0,9598.0,7236.0,5639.0,981.0,1063.0,110.0,44.0,55.0
488587,County,2020/06/01,51.0,VA,51159.0,Richmond County,1049.0,7989.0,31093.0,4035.0,6878.0,5657.0,7024.0,5071.0,1000.0,1292.0,91.0,0.0,45.0
490155,County,2020/06/02,51.0,VA,51159.0,Richmond County,1207.0,7831.0,34698.0,3834.0,7362.0,7393.0,7410.0,5133.0,1648.0,1678.0,200.0,40.0,0.0
493325,County,2020/06/03,51.0,VA,51159.0,Richmond County,1183.0,7855.0,45464.0,7137.0,10686.0,8664.0,8845.0,7282.0,1508.0,1232.0,48.0,38.0,24.0
498101,County,2020/06/04,51.0,VA,51159.0,Richmond County,941.0,8097.0,34365.0,6315.0,5354.0,7331.0,6218.0,5230.0,1959.0,1624.0,251.0,0.0,83.0
501263,County,2020/06/05,51.0,VA,51159.0,Richmond County,966.0,8072.0,36391.0,4457.0,8318.0,6277.0,6658.0,7082.0,1627.0,1881.0,91.0,0.0,0.0
504464,County,2020/06/06,51.0,VA,51159.0,Richmond County,1163.0,7875.0,38055.0,5454.0,6369.0,9398.0,6563.0,6808.0,1997.0,1299.0,167.0,0.0,0.0
507665,County,2020/06/07,51.0,VA,51159.0,Richmond County,1240.0,7798.0,36765.0,4812.0,6657.0,9195.0,7959.0,5758.0,899.0,1152.0,237.0,96.0,0.0
510875,County,2020/06/08,51.0,VA,51159.0,Richmond County,931.0,8107.0,35922.0,5786.0,7526.0,4995.0,8213.0,5794.0,1665.0,1615.0,234.0,94.0,0.0
512504,County,2020/06/09,51.0,VA,51159.0,Richmond County,1102.0,7936.0,36186.0,4866.0,7897.0,6998.0,7306.0,6177.0,1170.0,1649.0,47.0,76.0,0.0
515661,County,2020/06/10,51.0,VA,51159.0,Richmond County,1145.0,7893.0,36357.0,7626.0,6969.0,6287.0,6912.0,4995.0,1713.0,1672.0,144.0,39.0,0.0
518864,County,2020/06/11,51.0,VA,51159.0,Richmond County,1099.0,7939.0,35436.0,7461.0,6515.0,5712.0,6165.0,6588.0,1112.0,1567.0,283.0,33.0,0.0
523664,County,2020/06/12,51.0,VA,51159.0,Richmond County,1080.0,7958.0,36247.0,5434.0,6844.0,8008.0,6177.0,6019.0,1818.0,1595.0,352.0,0.0,0.0
526851,County,2020/06/13,51.0,VA,51159.0,Richmond County,1175.0,7863.0,45439.0,10664.0,8162.0,8833.0,9050.0,6238.0,1313.0,802.0,238.0,115.0,24.0
530007,County,2020/06/14,51.0,VA,51159.0,Richmond County,1135.0,7903.0,37021.0,6764.0,6600.0,7688.0,6823.0,5615.0,1924.0,964.0,512.0,38.0,93.0
531635,County,2020/06/15,51.0,VA,51159.0,Richmond County,980.0,8058.0,30086.0,5716.0,6344.0,3321.0,6338.0,5185.0,1618.0,1374.0,190.0,0.0,0.0
536416,County,2020/06/16,51.0,VA,51159.0,Richmond County,953.0,8085.0,35358.0,6910.0,5722.0,5367.0,7890.0,6499.0,1261.0,1597.0,40.0,32.0,40.0
539585,County,2020/06/17,51.0,VA,51159.0,Richmond County,1125.0,7913.0,32366.0,4194.0,5859.0,4803.0,7873.0,5979.0,1674.0,1627.0,336.0,0.0,21.0
541215,County,2020/06/18,51.0,VA,51159.0,Richmond County,1080.0,7958.0,38662.0,4331.0,8201.0,8882.0,8599.0,5126.0,1639.0,1595.0,213.0,34.0,42.0
544407,County,2020/06/19,51.0,VA,51159.0,Richmond County,1084.0,7954.0,36842.0,5606.0,5922.0,7884.0,7244.0,7373.0,1611.0,973.0,167.0,0.0,62.0
547611,County,2020/06/20,51.0,VA,51159.0,Richmond County,1211.0,7827.0,36279.0,5244.0,6351.0,7993.0,8911.0,5093.0,1241.0,1289.0,95.0,38.0,24.0
552355,County,2020/06/21,51.0,VA,51159.0,Richmond County,1283.0,7755.0,25158.0,3574.0,3893.0,3517.0,5896.0,5008.0,1891.0,1280.0,55.0,44.0,0.0
555596,County,2020/06/22,51.0,VA,51159.0,Richmond County,1244.0,7794.0,32167.0,6655.0,4022.0,4754.0,8133.0,4936.0,1675.0,1700.0,292.0,0.0,0.0
558750,County,2020/06/23,51.0,VA,51159.0,Richmond County,1106.0,7932.0,33920.0,6631.0,7572.0,4537.0,6649.0,5798.0,1324.0,1120.0,289.0,0.0,0.0
560381,County,2020/06/24,51.0,VA,51159.0,Richmond County,1066.0,7972.0,31349.0,6040.0,4214.0,5018.0,7396.0,5474.0,1538.0,1445.0,140.0,38.0,46.0
565119,County,2020/06/25,51.0,VA,51159.0,Richmond County,1043.0,7995.0,31507.0,5826.0,6391.0,5182.0,5907.0,4899.0,1706.0,1327.0,214.0,34.0,21.0
568416,County,2020/06/26,51.0,VA,51159.0,Richmond County,1026.0,8012.0,32328.0,5226.0,5746.0,6401.0,6503.0,5315.0,1978.0,899.0,139.0,75.0,46.0
571566,County,2020/06/27,51.0,VA,51159.0,Richmond County,1229.0,7809.0,36477.0,6482.0,5616.0,8294.0,7852.0,5429.0,1233.0,1375.0,168.0,0.0,28.0
574740,County,2020/06/28,51.0,VA,51159.0,Richmond County,1154.0,7884.0,36109.0,8250.0,5933.0,8018.0,6112.0,4743.0,1019.0,1711.0,159.0,85.0,79.0
576346,County,2020/06/29,51.0,VA,51159.0,Richmond County,1229.0,7809.0,34372.0,5424.0,6057.0,6032.0,7621.0,6088.0,1618.0,1375.0,56.0,45.0,56.0
579556,County,2020/06/30,51.0,VA,51159.0,Richmond County,1091.0,7947.0,39416.0,5640.0,7421.0,8691.0,7678.0,6346.0,1639.0,1926.0,50.0,0.0,25.0
582758,County,2020/07/01,51.0,VA,51159.0,Richmond County,905.0,8133.0,35191.0,5799.0,5985.0,6422.0,8241.0,5405.0,1749.0,1409.0,91.0,0.0,90.0
585950,County,2020/07/02,51.0,VA,51159.0,Richmond County,895.0,8143.0,33441.0,6184.0,6783.0,5500.0,6270.0,5200.0,1811.0,1408.0,227.0,36.0,22.0
590737,County,2020/07/03,51.0,VA,51159.0,Richmond County,1112.0,7926.0,32147.0,5197.0,5714.0,6365.0,6466.0,5285.0,1967.0,894.0,138.0,75.0,46.0
593925,County,2020/07/04,51.0,VA,51159.0,Richmond County,1328.0,7710.0,27501.0,4446.0,4888.0,5445.0,5532.0,4521.0,1683.0,765.0,118.0,64.0,39.0
597092,County,2020/07/05,51.0,VA,51159.0,Richmond County,1186.0,7852.0,34361.0,7971.0,4928.0,7094.0,6576.0,4267.0,1802.0,1325.0,285.0,0.0,113.0
598186,County,2020/07/06,51.0,VA,51159.0,Richmond County,1025.0,8013.0,35451.0,6210.0,7419.0,5404.0,6868.0,5601.0,2264.0,1505.0,120.0,0.0,60.0
601849,County,2020/07/07,51.0,VA,51159.0,Richmond County,901.0,8137.0,36495.0,6049.0,5272.0,6482.0,8096.0,7654.0,1870.0,830.0,151.0,91.0,0.0
606707,County,2020/07/08,51.0,VA,51159.0,Richmond County,1119.0,7919.0,35808.0,6549.0,5384.0,6583.0,6541.0,6192.0,2391.0,1685.0,391.0,70.0,22.0
609862,County,2020/07/09,51.0,VA,51159.0,Richmond County,929.0,8109.0,38603.0,5715.0,6485.0,6124.0,8206.0,7238.0,2972.0,1617.0,227.0,0.0,19.0
613067,County,2020/07/10,51.0,VA,51159.0,Richmond County,1010.0,8028.0,39150.0,7009.0,6564.0,7138.0,8583.0,6000.0,1999.0,1472.0,353.0,32.0,0.0
616283,County,2020/07/11,51.0,VA,51159.0,Richmond County,1104.0,7934.0,34846.0,6852.0,5145.0,7592.0,5022.0,6229.0,1675.0,1633.0,586.0,0.0,112.0
619471,County,2020/07/12,51.0,VA,51159.0,Richmond County,1275.0,7763.0,36374.0,6607.0,4647.0,8342.0,9269.0,4657.0,1269.0,1192.0,230.0,46.0,115.0
621056,County,2020/07/13,51.0,VA,51159.0,Richmond County,1063.0,7975.0,33391.0,5415.0,5919.0,4908.0,6012.0,7116.0,2459.0,1398.0,94.0,0.0,70.0
624257,County,2020/07/14,51.0,VA,51159.0,Richmond County,971.0,8067.0,33661.0,6112.0,6133.0,4631.0,5863.0,6131.0,2650.0,1660.0,458.0,0.0,23.0
627379,County,2020/07/15,51.0,VA,51159.0,Richmond County,1086.0,7952.0,34419.0,7007.0,6100.0,5989.0,7054.0,4490.0,1757.0,1415.0,547.0,37.0,23.0
632310,County,2020/07/16,51.0,VA,51159.0,Richmond County,1070.0,7968.0,33795.0,7160.0,4113.0,5093.0,7616.0,6341.0,1469.0,1438.0,356.0,143.0,66.0
635405,County,2020/07/17,51.0,VA,51159.0,Richmond County,1154.0,7884.0,28507.0,6030.0,5426.0,3502.0,5129.0,5980.0,1369.0,877.0,136.0,36.0,22.0
638608,County,2020/07/18,51.0,VA,51159.0,Richmond County,1290.0,7748.0,37029.0,6227.0,6885.0,6705.0,8339.0,5143.0,1993.0,1405.0,302.0,0.0,30.0
641811,County,2020/07/19,51.0,VA,51159.0,Richmond County,1283.0,7755.0,27846.0,4466.0,4866.0,4813.0,5782.0,3958.0,1815.0,1706.0,385.0,0.0,55.0
643421,County,2020/07/20,51.0,VA,51159.0,Richmond County,1373.0,7665.0,28477.0,7270.0,3905.0,2742.0,5564.0,5236.0,2311.0,1316.0,51.0,82.0,0.0
646647,County,2020/07/21,51.0,VA,51159.0,Richmond County,1111.0,7927.0,28016.0,5347.0,4876.0,2782.0,5022.0,5559.0,2274.0,1687.0,391.0,35.0,43.0
651374,County,2020/07/22,51.0,VA,51159.0,Richmond County,1018.0,8020.0,28056.0,6087.0,3626.0,2113.0,5339.0,6628.0,1835.0,2130.0,196.0,63.0,39.0
652919,County,2020/07/23,51.0,VA,51159.0,Richmond County,1164.0,7874.0,30944.0,6539.0,4537.0,3734.0,6678.0,5344.0,1892.0,2065.0,133.0,0.0,22.0
656040,County,2020/07/24,51.0,VA,51159.0,Richmond County,1032.0,8006.0,33225.0,6159.0,5914.0,4589.0,6614.0,5242.0,2096.0,2125.0,361.0,65.0,60.0
661060,County,2020/07/25,51.0,VA,51159.0,Richmond County,1106.0,7932.0,29130.0,5487.0,5833.0,3588.0,5160.0,4902.0,1530.0,2217.0,232.0,112.0,69.0
662585,County,2020/07/26,51.0,VA,51159.0,Richmond County,1281.0,7757.0,35130.0,6125.0,5371.0,6244.0,7649.0,5223.0,2127.0,1932.0,258.0,124.0,77.0
667365,County,2020/07/27,51.0,VA,51159.0,Richmond County,1113.0,7925.0,35397.0,8047.0,4873.0,6051.0,6512.0,6496.0,1671.0,1382.0,340.0,0.0,25.0
670568,County,2020/07/28,51.0,VA,51159.0,Richmond County,1090.0,7948.0,31996.0,7104.0,4478.0,4906.0,5071.0,5286.0,3008.0,1825.0,227.0,0.0,91.0
672296,County,2020/07/29,51.0,VA,51159.0,Richmond County,1131.0,7907.0,36655.0,8760.0,5858.0,5176.0,7232.0,5999.0,2181.0,1305.0,96.0,0.0,48.0
676912,County,2020/07/30,51.0,VA,51159.0,Richmond County,1134.0,7904.0,39406.0,9765.0,6025.0,5468.0,6508.0,7023.0,3001.0,1501.0,46.0,0.0,69.0
680139,County,2020/07/31,51.0,VA,51159.0,Richmond County,1066.0,7972.0,32760.0,6327.0,5524.0,4728.0,6154.0,6319.0,1812.0,1589.0,263.0,0.0,44.0
681720,County,2020/08/01,51.0,VA,51159.0,Richmond County,1208.0,7830.0,32198.0,4174.0,5630.0,4557.0,8265.0,5277.0,2363.0,1750.0,156.0,0.0,26.0
686549,County,2020/08/02,51.0,VA,51159.0,Richmond County,1373.0,7665.0,36559.0,6978.0,5944.0,8267.0,6718.0,4786.0,1624.0,2015.0,94.0,39.0,94.0
688140,County,2020/08/03,51.0,VA,51159.0,Richmond County,1142.0,7896.0,37313.0,6424.0,6584.0,7648.0,7314.0,5914.0,2029.0,1082.0,199.0,0.0,119.0
692914,County,2020/08/04,51.0,VA,51159.0,Richmond County,1222.0,7816.0,38791.0,8342.0,7197.0,9008.0,7141.0,4972.0,1191.0,712.0,157.0,32.0,39.0
694542,County,2020/08/05,51.0,VA,51159.0,Richmond County,1190.0,7848.0,41924.0,7815.0,9482.0,6492.0,8711.0,6341.0,1643.0,1188.0,138.0,0.0,114.0
697749,County,2020/08/06,51.0,VA,51159.0,Richmond County,1021.0,8017.0,36155.0,6760.0,5948.0,6960.0,7579.0,5456.0,1843.0,1188.0,345.0,0.0,76.0
702481,County,2020/08/07,51.0,VA,51159.0,Richmond County,1149.0,7889.0,40772.0,9894.0,6607.0,6786.0,7534.0,5799.0,2542.0,1303.0,210.0,34.0,63.0
704110,County,2020/08/08,51.0,VA,51159.0,Richmond County,1185.0,7853.0,29928.0,4895.0,5299.0,4859.0,5258.0,5514.0,1655.0,1866.0,481.0,77.0,24.0
707300,County,2020/08/09,51.0,VA,51159.0,Richmond County,1364.0,7674.0,34474.0,7312.0,4696.0,9019.0,5765.0,4450.0,1602.0,1280.0,350.0,0.0,0.0
710570,County,2020/08/10,51.0,VA,51159.0,Richmond County,1202.0,7836.0,34178.0,6033.0,4367.0,7477.0,6106.0,5940.0,2742.0,1399.0,114.0,0.0,0.0
715303,County,2020/08/11,51.0,VA,51159.0,Richmond County,1290.0,7748.0,29841.0,4755.0,4963.0,3936.0,5837.0,6239.0,2371.0,1352.0,246.0,50.0,92.0
718449,County,2020/08/12,51.0,VA,51159.0,Richmond County,1096.0,7942.0,36628.0,8028.0,4806.0,7075.0,6551.0,5529.0,2488.0,1706.0,245.0,79.0,121.0
720078,County,2020/08/13,51.0,VA,51159.0,Richmond County,976.0,8062.0,34464.0,8121.0,3430.0,6334.0,6151.0,6001.0,1957.0,1602.0,459.0,112.0,297.0
724870,County,2020/08/14,51.0,VA,51159.0,Richmond County,1045.0,7993.0,39296.0,11091.0,5184.0,5387.0,6794.0,7053.0,1683.0,1582.0,235.0,76.0,211.0
728080,County,2020/08/15,51.0,VA,51159.0,Richmond County,1246.0,7792.0,38163.0,6079.0,5521.0,9845.0,6513.0,6015.0,1610.0,1890.0,409.0,48.0,233.0
729660,County,2020/08/16,51.0,VA,51159.0,Richmond County,1365.0,7673.0,26443.0,2824.0,4151.0,5760.0,4116.0,5028.0,2747.0,1327.0,171.0,92.0,227.0
734440,County,2020/08/17,51.0,VA,51159.0,Richmond County,1161.0,7877.0,33685.0,6668.0,4911.0,4364.0,5544.0,6631.0,2378.0,2483.0,384.0,154.0,168.0
737612,County,2020/08/18,51.0,VA,51159.0,Richmond County,1143.0,7895.0,34818.0,7840.0,4274.0,4253.0,5836.0,6683.0,3059.0,2222.0,353.0,122.0,176.0
739274,County,2020/08/19,51.0,VA,51159.0,Richmond County,1019.0,8019.0,33582.0,5968.0,4994.0,3264.0,7807.0,6173.0,2414.0,2089.0,369.0,298.0,206.0
742437,County,2020/08/20,51.0,VA,51159.0,Richmond County,974.0,8064.0,41753.0,8138.0,5432.0,7994.0,7194.0,6764.0,3267.0,2319.0,242.0,234.0,169.0
745636,County,2020/08/21,51.0,VA,51159.0,Richmond County,961.0,8077.0,39775.0,6182.0,5361.0,6352.0,7350.0,7778.0,3245.0,2508.0,733.0,84.0,182.0
750416,County,2020/08/22,51.0,VA,51159.0,Richmond County,1101.0,7937.0,34658.0,4852.0,4405.0,8860.0,5427.0,6500.0,2157.0,1954.0,392.0,0.0,111.0
753586,County,2020/08/23,51.0,VA,51159.0,Richmond County,1314.0,7724.0,24129.0,4303.0,3672.0,3546.0,5232.0,4150.0,922.0,1609.0,383.0,193.0,119.0
755255,County,2020/08/24,51.0,VA,51159.0,Richmond County,1255.0,7783.0,27115.0,4537.0,3206.0,3964.0,5322.0,6053.0,2429.0,1288.0,181.0,0.0,135.0
760017,County,2020/08/25,51.0,VA,51159.0,Richmond County,1243.0,7795.0,26186.0,4587.0,3869.0,2618.0,4717.0,6722.0,2392.0,709.0,183.0,184.0,205.0
763177,County,2020/08/26,51.0,VA,51159.0,Richmond County,1173.0,7865.0,28912.0,5305.0,4788.0,4536.0,4123.0,6131.0,2093.0,1461.0,348.0,105.0,22.0
766373,County,2020/08/27,51.0,VA,51159.0,Richmond County,1185.0,7853.0,27010.0,3997.0,4304.0,3684.0,4512.0,6301.0,1988.0,1980.0,131.0,70.0,43.0
769588,County,2020/08/28,51.0,VA,51159.0,Richmond County,1228.0,7810.0,31722.0,7134.0,4195.0,5129.0,5834.0,5115.0,2096.0,1745.0,261.0,105.0,108.0
771216,County,2020/08/29,51.0,VA,51159.0,Richmond County,1272.0,7766.0,30391.0,6097.0,4746.0,4842.0,5645.0,5385.0,1596.0,1440.0,510.0,38.0,92.0
774414,County,2020/08/30,51.0,VA,51159.0,Richmond County,1351.0,7687.0,26573.0,2071.0,5588.0,4184.0,5492.0,4696.0,1954.0,2067.0,414.0,48.0,59.0
777597,County,2020/08/31,51.0,VA,51159.0,Richmond County,1334.0,7704.0,31024.0,5329.0,4933.0,5139.0,5734.0,6328.0,1726.0,1128.0,545.0,0.0,162.0
780748,County,2020/09/01,51.0,VA,51159.0,Richmond County,1181.0,7857.0,31946.0,5949.0,4967.0,2890.0,8436.0,5417.0,2015.0,1893.0,353.0,0.0,26.0
784772,County,2020/09/02,51.0,VA,51159.0,Richmond County,1131.0,7907.0,35052.0,6042.0,4970.0,4908.0,7716.0,7353.0,1872.0,1948.0,194.0,0.0,49.0
788732,County,2020/09/03,51.0,VA,51159.0,Richmond County,1039.0,7999.0,37478.0,5968.0,6931.0,6290.0,7092.0,6924.0,1811.0,1757.0,594.0,69.0,42.0
790346,County,2020/09/04,51.0,VA,51159.0,Richmond County,1177.0,7861.0,37038.0,6994.0,3921.0,4945.0,8654.0,7861.0,2815.0,1492.0,210.0,42.0,104.0
795107,County,2020/09/05,51.0,VA,51159.0,Richmond County,1004.0,8034.0,34174.0,7337.0,5357.0,3668.0,6927.0,6136.0,2123.0,2113.0,454.0,37.0,22.0
798310,County,2020/09/06,51.0,VA,51159.0,Richmond County,1363.0,7675.0,26938.0,5014.0,4332.0,3927.0,4809.0,4949.0,1693.0,1676.0,389.0,52.0,97.0
801520,County,2020/09/07,51.0,VA,51159.0,Richmond County,1297.0,7741.0,30961.0,5870.0,5091.0,3942.0,7371.0,5342.0,848.0,1832.0,431.0,50.0,184.0
803150,County,2020/09/08,51.0,VA,51159.0,Richmond County,1330.0,7708.0,33465.0,5446.0,3850.0,6243.0,6054.0,6660.0,2976.0,1665.0,463.0,83.0,25.0
807929,County,2020/09/09,51.0,VA,51159.0,Richmond County,1241.0,7797.0,30966.0,5772.0,5311.0,3605.0,4992.0,6771.0,2114.0,1806.0,511.0,38.0,46.0
811085,County,2020/09/10,51.0,VA,51159.0,Richmond County,1216.0,7822.0,30513.0,4508.0,5790.0,4476.0,5875.0,5510.0,2025.0,1719.0,285.0,230.0,95.0
812713,County,2020/09/11,51.0,VA,51159.0,Richmond County,1173.0,7865.0,30338.0,4501.0,5729.0,3857.0,6597.0,6032.0,1511.0,1544.0,286.0,115.0,166.0
815899,County,2020/09/12,51.0,VA,51159.0,Richmond County,1361.0,7677.0,27759.0,3490.0,6318.0,5408.0,3680.0,4283.0,2538.0,1077.0,536.0,192.0,237.0
820696,County,2020/09/13,51.0,VA,51159.0,Richmond County,1417.0,7621.0,33479.0,4903.0,5289.0,8430.0,5929.0,4905.0,1149.0,2518.0,269.0,54.0,33.0
822325,County,2020/09/14,51.0,VA,51159.0,Richmond County,1322.0,7716.0,28332.0,4983.0,5196.0,4352.0,4868.0,5120.0,1934.0,1599.0,225.0,0.0,55.0
825480,County,2020/09/15,51.0,VA,51159.0,Richmond County,1229.0,7809.0,25646.0,3092.0,3528.0,3968.0,5073.0,5873.0,1480.0,2319.0,154.0,83.0,76.0
828721,County,2020/09/16,51.0,VA,51159.0,Richmond County,1194.0,7844.0,31846.0,5053.0,5025.0,4692.0,5747.0,6347.0,2236.0,2583.0,140.0,0.0,23.0
833465,County,2020/09/17,51.0,VA,51159.0,Richmond County,1200.0,7838.0,24219.0,2352.0,4199.0,2501.0,6221.0,4978.0,1597.0,1920.0,186.0,150.0,115.0
835094,County,2020/09/18,51.0,VA,51159.0,Richmond County,1214.0,7824.0,30556.0,4280.0,5461.0,4591.0,5825.0,6155.0,2145.0,1826.0,97.0,79.0,97.0
838256,County,2020/09/19,51.0,VA,51159.0,Richmond County,1241.0,7797.0,32627.0,4532.0,5689.0,4957.0,8243.0,5099.0,1809.0,1904.0,210.0,0.0,184.0
843031,County,2020/09/20,51.0,VA,51159.0,Richmond County,1508.0,7530.0,25441.0,4279.0,3840.0,3756.0,4946.0,5491.0,1074.0,1659.0,223.0,90.0,83.0
846235,County,2020/09/21,51.0,VA,51159.0,Richmond County,1314.0,7724.0,26500.0,3600.0,3018.0,4478.0,6013.0,5787.0,2322.0,1124.0,0.0,82.0,76.0
847864,County,2020/09/22,51.0,VA,51159.0,Richmond County,1173.0,7865.0,30696.0,6442.0,5868.0,3291.0,5941.0,6047.0,1274.0,1596.0,103.0,83.0,51.0
852642,County,2020/09/23,51.0,VA,51159.0,Richmond County,1209.0,7829.0,31760.0,4068.0,5432.0,4395.0,7973.0,6123.0,2418.0,844.0,251.0,81.0,175.0
855797,County,2020/09/24,51.0,VA,51159.0,Richmond County,1075.0,7963.0,33004.0,4772.0,5840.0,7997.0,5102.0,5962.0,1838.0,1280.0,99.0,40.0,74.0
857426,County,2020/09/25,51.0,VA,51159.0,Richmond County,1082.0,7956.0,31082.0,5774.0,6082.0,4287.0,5158.0,6614.0,1251.0,1235.0,591.0,0.0,90.0
860612,County,2020/09/26,51.0,VA,51159.0,Richmond County,1238.0,7800.0,28801.0,3114.0,3794.0,5968.0,6773.0,5974.0,1148.0,1618.0,156.0,126.0,130.0
865409,County,2020/09/27,51.0,VA,51159.0,Richmond County,1176.0,7862.0,27763.0,6368.0,3748.0,4456.0,5240.0,4589.0,1165.0,1985.0,212.0,0.0,0.0
867038,County,2020/09/28,51.0,VA,51159.0,Richmond County,1272.0,7766.0,29239.0,4363.0,4397.0,4893.0,6685.0,5091.0,2076.0,1734.0,0.0,0.0,0.0
870195,County,2020/09/29,51.0,VA,51159.0,Richmond County,1156.0,7882.0,32021.0,4994.0,6738.0,5279.0,4790.0,6654.0,1198.0,2252.0,87.0,0.0,29.0
874974,County,2020/09/30,51.0,VA,51159.0,Richmond County,1080.0,7958.0,28941.0,3884.0,3278.0,5387.0,6050.0,5780.0,2660.0,1638.0,227.0,0.0,37.0
876602,County,2020/10/01,51.0,VA,51159.0,Richmond County,952.0,8086.0,31951.0,3745.0,5854.0,4499.0,7266.0,5355.0,3092.0,1963.0,141.0,0.0,36.0
879806,County,2020/10/02,51.0,VA,51159.0,Richmond County,1031.0,8007.0,38091.0,9325.0,5028.0,5400.0,6408.0,7217.0,2758.0,1685.0,222.0,29.0,19.0
883022,County,2020/10/03,51.0,VA,51159.0,Richmond County,1127.0,7911.0,33204.0,7032.0,4617.0,6889.0,5585.0,4952.0,1573.0,2179.0,346.0,31.0,0.0
887610,County,2020/10/04,51.0,VA,51159.0,Richmond County,1290.0,7748.0,23980.0,3025.0,4059.0,4315.0,4506.0,5015.0,1317.0,1436.0,261.0,34.0,12.0
890782,County,2020/10/05,51.0,VA,51159.0,Richmond County,1391.0,7647.0,32112.0,7438.0,4759.0,4241.0,6347.0,4994.0,2292.0,1589.0,360.0,78.0,14.0
893975,County,2020/10/06,51.0,VA,51159.0,Richmond County,1440.0,7598.0,33427.0,5799.0,6055.0,6972.0,4780.0,5592.0,2662.0,1306.0,234.0,27.0,0.0
897170,County,2020/10/07,51.0,VA,51159.0,Richmond County,1126.0,7912.0,31427.0,5557.0,4083.0,6186.0,5240.0,5968.0,2863.0,1059.0,429.0,20.0,22.0
900397,County,2020/10/08,51.0,VA,51159.0,Richmond County,1290.0,7748.0,30763.0,5536.0,4497.0,4925.0,5462.0,6063.0,1783.0,2151.0,207.0,95.0,44.0
903603,County,2020/10/09,51.0,VA,51159.0,Richmond County,1240.0,7798.0,32802.0,5699.0,4796.0,5967.0,6059.0,6207.0,2188.0,1596.0,215.0,49.0,26.0
906767,County,2020/10/10,51.0,VA,51159.0,Richmond County,1421.0,7617.0,32726.0,5144.0,5360.0,4892.0,7546.0,5679.0,2319.0,1466.0,197.0,85.0,38.0
907389,County,2020/10/11,51.0,VA,51159.0,Richmond County,1519.0,7519.0,22694.0,4510.0,3858.0,3245.0,3276.0,4409.0,1309.0,1606.0,442.0,0.0,39.0
910529,County,2020/10/12,51.0,VA,51159.0,Richmond County,1417.0,7621.0,25860.0,4100.0,4509.0,4509.0,3352.0,4525.0,2478.0,2002.0,232.0,135.0,18.0
913998,County,2020/10/13,51.0,VA,51159.0,Richmond County,1257.0,7781.0,29659.0,4228.0,6233.0,2288.0,5774.0,6474.0,2690.0,1564.0,347.0,50.0,11.0
916949,County,2020/10/14,51.0,VA,51159.0,Richmond County,1234.0,7804.0,29907.0,5107.0,4184.0,3790.0,6014.0,5900.0,3347.0,1199.0,328.0,0.0,38.0
920525,County,2020/10/15,51.0,VA,51159.0,Richmond County,1204.0,7834.0,29514.0,5804.0,4544.0,4286.0,5080.0,5619.0,2630.0,1019.0,381.0,123.0,28.0
923409,County,2020/10/16,51.0,VA,51159.0,Richmond County,1082.0,7956.0,28964.0,5735.0,4130.0,3473.0,5110.0,5478.0,2534.0,2133.0,300.0,22.0,49.0
927346,County,2020/10/17,51.0,VA,51159.0,Richmond County,1290.0,7748.0,32322.0,5691.0,3930.0,5288.0,6941.0,5894.0,1954.0,2411.0,100.0,87.0,26.0
930139,County,2020/10/18,51.0,VA,51159.0,Richmond County,1452.0,7586.0,28258.0,6104.0,4881.0,3754.0,4407.0,4383.0,1797.0,2476.0,373.0,62.0,21.0
933687,County,2020/10/19,51.0,VA,51159.0,Richmond County,1283.0,7755.0,29309.0,5305.0,3384.0,5272.0,4981.0,6356.0,2465.0,1401.0,95.0,0.0,50.0
936468,County,2020/10/20,51.0,VA,51159.0,Richmond County,1298.0,7740.0,26829.0,3261.0,4320.0,4623.0,4001.0,6168.0,3017.0,1376.0,50.0,0.0,13.0
939930,County,2020/10/21,51.0,VA,51159.0,Richmond County,1343.0,7695.0,30196.0,3213.0,5384.0,5805.0,5767.0,6900.0,1497.0,1542.0,53.0,0.0,35.0
942880,County,2020/10/22,51.0,VA,51159.0,Richmond County,1119.0,7919.0,29113.0,4656.0,5350.0,3800.0,4360.0,6536.0,2096.0,1953.0,273.0,53.0,36.0
946098,County,2020/10/23,51.0,VA,51159.0,Richmond County,1093.0,7945.0,37528.0,5492.0,7218.0,5782.0,7122.0,7446.0,1865.0,2259.0,306.0,26.0,12.0
951319,County,2020/10/24,51.0,VA,51159.0,Richmond County,1355.0,7683.0,40113.0,6790.0,6841.0,8755.0,7880.0,7009.0,1512.0,1075.0,170.0,66.0,15.0
