,Level,Date,State FIPS,State Postal Code,County FIPS,County Name,Population Staying at Home,Population Not Staying at Home,Number of Trips,Number of Trips <1,Number of Trips 1-3,Number of Trips 3-5,Number of Trips 5-10,Number of Trips 10-25,Number of Trips 25-50,Number of Trips 50-100,Number of Trips 100-250,Number of Trips 250-500,Number of Trips >=500
2955,County,2020/01/01,53.0,WA,53005.0,Benton County,52561.0,149316.0,590556.0,146953.0,171178.0,80443.0,101988.0,54847.0,17464.0,11191.0,5167.0,823.0,502.0
4071,County,2020/01/02,53.0,WA,53005.0,Benton County,42910.0,158967.0,711970.0,173881.0,193060.0,92205.0,125927.0,76048.0,31922.0,12992.0,4880.0,573.0,482.0
6863,County,2020/01/03,53.0,WA,53005.0,Benton County,43928.0,157949.0,768701.0,196975.0,207566.0,104036.0,133663.0,81254.0,27793.0,11640.0,4783.0,604.0,387.0
11207,County,2020/01/04,53.0,WA,53005.0,Benton County,47861.0,154016.0,700921.0,172857.0,197465.0,100675.0,122640.0,64201.0,24202.0,12621.0,5152.0,796.0,312.0
15730,County,2020/01/05,53.0,WA,53005.0,Benton County,50446.0,151431.0,608240.0,151546.0,170148.0,91604.0,100254.0,60537.0,18702.0,9266.0,4928.0,780.0,475.0
19023,County,2020/01/06,53.0,WA,53005.0,Benton County,43668.0,158209.0,713106.0,189184.0,184055.0,93242.0,126634.0,73028.0,32007.0,9601.0,4484.0,463.0,408.0
22217,County,2020/01/07,53.0,WA,53005.0,Benton County,39587.0,162290.0,756835.0,194143.0,195730.0,100636.0,135192.0,83192.0,33559.0,9672.0,3676.0,607.0,428.0
25411,County,2020/01/08,53.0,WA,53005.0,Benton County,40125.0,161752.0,760573.0,202574.0,193466.0,99787.0,136001.0,79481.0,35373.0,9320.0,3634.0,612.0,325.0
27038,County,2020/01/09,53.0,WA,53005.0,Benton County,40605.0,161272.0,746452.0,183565.0,200287.0,97973.0,131659.0,80902.0,36538.0,10695.0,3850.0,693.0,290.0
31799,County,2020/01/10,53.0,WA,53005.0,Benton County,40003.0,161874.0,813830.0,212731.0,221149.0,110515.0,151002.0,75111.0,26523.0,12339.0,3603.0,434.0,423.0
33478,County,2020/01/11,53.0,WA,53005.0,Benton County,45153.0,156724.0,721239.0,169074.0,213118.0,105846.0,132361.0,61296.0,22531.0,12299.0,3680.0,551.0,483.0
36632,County,2020/01/12,53.0,WA,53005.0,Benton County,48777.0,153100.0,636277.0,150853.0,198040.0,86691.0,114652.0,56387.0,16914.0,7985.0,3867.0,472.0,416.0
41408,County,2020/01/13,53.0,WA,53005.0,Benton County,42174.0,159703.0,733776.0,199706.0,200335.0,92014.0,123544.0,70808.0,34172.0,8698.0,3567.0,565.0,367.0
43037,County,2020/01/14,53.0,WA,53005.0,Benton County,43022.0,158855.0,749316.0,194309.0,199904.0,95088.0,130284.0,80551.0,35993.0,8965.0,3453.0,460.0,309.0
47764,County,2020/01/15,53.0,WA,53005.0,Benton County,41906.0,159971.0,774843.0,212349.0,211018.0,98170.0,128296.0,78196.0,34084.0,8546.0,3189.0,671.0,324.0
50921,County,2020/01/16,53.0,WA,53005.0,Benton County,40887.0,160990.0,752900.0,194645.0,201636.0,96119.0,134584.0,76001.0,34241.0,10197.0,4270.0,667.0,540.0
54207,County,2020/01/17,53.0,WA,53005.0,Benton County,39989.0,161888.0,809658.0,211538.0,226941.0,107298.0,143963.0,77244.0,25034.0,11129.0,4947.0,997.0,567.0
55781,County,2020/01/18,53.0,WA,53005.0,Benton County,45021.0,156856.0,745929.0,192304.0,214085.0,108214.0,127444.0,64088.0,22357.0,11894.0,4500.0,722.0,321.0
58978,County,2020/01/19,53.0,WA,53005.0,Benton County,49291.0,152586.0,683411.0,177574.0,197909.0,99424.0,112366.0,58449.0,20032.0,11247.0,4903.0,1003.0,504.0
62160,County,2020/01/20,53.0,WA,53005.0,Benton County,42695.0,159182.0,726497.0,191299.0,187084.0,93600.0,129066.0,72819.0,35468.0,11138.0,4617.0,926.0,480.0
65367,County,2020/01/21,53.0,WA,53005.0,Benton County,41098.0,160779.0,740162.0,183939.0,196500.0,96655.0,133627.0,76559.0,36771.0,10946.0,3955.0,650.0,560.0
70127,County,2020/01/22,53.0,WA,53005.0,Benton County,38178.0,163699.0,779391.0,193013.0,205645.0,99075.0,144879.0,84546.0,35787.0,11407.0,3795.0,749.0,495.0
71753,County,2020/01/23,53.0,WA,53005.0,Benton County,40365.0,161512.0,760242.0,183300.0,205795.0,103511.0,137166.0,79991.0,34805.0,10461.0,3898.0,796.0,519.0
76515,County,2020/01/24,53.0,WA,53005.0,Benton County,38711.0,163166.0,826618.0,203407.0,238929.0,111431.0,145742.0,80120.0,26384.0,14354.0,5049.0,780.0,422.0
78143,County,2020/01/25,53.0,WA,53005.0,Benton County,44194.0,157683.0,763406.0,199241.0,216655.0,100782.0,136365.0,69073.0,22973.0,12709.0,4287.0,751.0,570.0
82804,County,2020/01/26,53.0,WA,53005.0,Benton County,47540.0,154337.0,671510.0,176372.0,195555.0,91446.0,113894.0,57167.0,19487.0,11306.0,4964.0,725.0,594.0
83435,County,2020/01/27,53.0,WA,53005.0,Benton County,41683.0,160194.0,743745.0,194529.0,191631.0,102806.0,133231.0,74202.0,34654.0,7928.0,3745.0,608.0,411.0
87787,County,2020/01/28,53.0,WA,53005.0,Benton County,40700.0,161177.0,811763.0,229247.0,206791.0,108117.0,136322.0,79781.0,37685.0,9100.0,3557.0,734.0,429.0
90893,County,2020/01/29,53.0,WA,53005.0,Benton County,41146.0,160731.0,742356.0,179428.0,198184.0,98499.0,136175.0,79343.0,36281.0,9795.0,3517.0,778.0,356.0
95677,County,2020/01/30,53.0,WA,53005.0,Benton County,39479.0,162398.0,754974.0,177974.0,202646.0,100322.0,139574.0,81714.0,35957.0,9629.0,5604.0,841.0,713.0
98874,County,2020/01/31,53.0,WA,53005.0,Benton County,38846.0,163031.0,811852.0,203842.0,221287.0,109103.0,146146.0,81938.0,27335.0,12815.0,7836.0,976.0,574.0
102060,County,2020/02/01,53.0,WA,53005.0,Benton County,43394.0,158483.0,722281.0,167428.0,205319.0,101713.0,132319.0,73926.0,20619.0,12616.0,6877.0,920.0,544.0
105261,County,2020/02/02,53.0,WA,53005.0,Benton County,46450.0,155427.0,637342.0,150159.0,193325.0,86685.0,108792.0,60531.0,19211.0,10533.0,6286.0,1126.0,694.0
106887,County,2020/02/03,53.0,WA,53005.0,Benton County,39225.0,162652.0,733394.0,183719.0,193885.0,99172.0,127558.0,77520.0,34343.0,9362.0,6257.0,892.0,686.0
110082,County,2020/02/04,53.0,WA,53005.0,Benton County,39293.0,162584.0,707241.0,166141.0,189003.0,94372.0,127547.0,77253.0,34518.0,10380.0,6633.0,848.0,546.0
113228,County,2020/02/05,53.0,WA,53005.0,Benton County,39153.0,162724.0,754788.0,195137.0,194711.0,103215.0,134829.0,75275.0,32759.0,11011.0,6576.0,720.0,555.0
116374,County,2020/02/06,53.0,WA,53005.0,Benton County,37907.0,163970.0,765153.0,188051.0,201954.0,103433.0,137874.0,79465.0,34873.0,10954.0,6957.0,900.0,692.0
119637,County,2020/02/07,53.0,WA,53005.0,Benton County,38263.0,163614.0,795434.0,193182.0,213817.0,111371.0,147889.0,78919.0,28616.0,11957.0,8035.0,1056.0,592.0
122883,County,2020/02/08,53.0,WA,53005.0,Benton County,42995.0,158882.0,701241.0,159517.0,203324.0,99708.0,134281.0,66129.0,19668.0,10804.0,6130.0,1042.0,638.0
126970,County,2020/02/09,53.0,WA,53005.0,Benton County,50055.0,151822.0,620183.0,140229.0,176326.0,98103.0,109203.0,59415.0,18388.0,10509.0,6103.0,1052.0,855.0
128120,County,2020/02/10,53.0,WA,53005.0,Benton County,37840.0,164037.0,785982.0,193573.0,207292.0,110348.0,139344.0,81409.0,34749.0,10628.0,6903.0,772.0,964.0
132931,County,2020/02/11,53.0,WA,53005.0,Benton County,36495.0,165382.0,783081.0,181518.0,206022.0,108997.0,147105.0,85289.0,35805.0,9296.0,7180.0,927.0,942.0
134534,County,2020/02/12,53.0,WA,53005.0,Benton County,36973.0,164904.0,796667.0,181964.0,205490.0,116068.0,148026.0,87471.0,36293.0,11462.0,7823.0,954.0,1116.0
138864,County,2020/02/13,53.0,WA,53005.0,Benton County,37637.0,164240.0,772976.0,184519.0,203153.0,108434.0,139544.0,80035.0,34853.0,11872.0,8205.0,1142.0,1219.0
141924,County,2020/02/14,53.0,WA,53005.0,Benton County,35085.0,166792.0,843312.0,191148.0,227592.0,130769.0,156786.0,84642.0,26354.0,13917.0,9712.0,1060.0,1332.0
145221,County,2020/02/15,53.0,WA,53005.0,Benton County,41687.0,160190.0,758326.0,175815.0,198025.0,118270.0,141583.0,78169.0,21779.0,14953.0,7326.0,1011.0,1395.0
148409,County,2020/02/16,53.0,WA,53005.0,Benton County,44174.0,157703.0,688453.0,156423.0,184017.0,106333.0,126845.0,72440.0,19581.0,13555.0,7024.0,1071.0,1164.0
153171,County,2020/02/17,53.0,WA,53005.0,Benton County,52021.0,149856.0,615378.0,147615.0,158125.0,88203.0,113248.0,64951.0,22042.0,12088.0,6976.0,1064.0,1066.0
156365,County,2020/02/18,53.0,WA,53005.0,Benton County,38555.0,163322.0,774349.0,181961.0,197002.0,109789.0,142248.0,85661.0,36199.0,11621.0,7297.0,1040.0,1531.0
157993,County,2020/02/19,53.0,WA,53005.0,Benton County,36913.0,164964.0,798344.0,195746.0,202604.0,103493.0,145607.0,88407.0,37735.0,14587.0,8060.0,1187.0,918.0
161054,County,2020/02/20,53.0,WA,53005.0,Benton County,39211.0,162666.0,770269.0,186435.0,194863.0,104544.0,136963.0,87489.0,34756.0,13959.0,9052.0,1258.0,950.0
164381,County,2020/02/21,53.0,WA,53005.0,Benton County,38226.0,163651.0,842028.0,201677.0,222532.0,116632.0,152991.0,89240.0,31609.0,14406.0,10589.0,1457.0,895.0
169092,County,2020/02/22,53.0,WA,53005.0,Benton County,38619.0,163258.0,787365.0,185575.0,219090.0,105624.0,144033.0,85313.0,23896.0,12969.0,8739.0,1177.0,949.0
170755,County,2020/02/23,53.0,WA,53005.0,Benton County,47842.0,154035.0,682615.0,166577.0,195473.0,97523.0,114422.0,64407.0,20690.0,14048.0,7926.0,1040.0,509.0
175535,County,2020/02/24,53.0,WA,53005.0,Benton County,40841.0,161036.0,753643.0,182630.0,197430.0,98955.0,140634.0,80626.0,37456.0,9496.0,4852.0,863.0,701.0
178625,County,2020/02/25,53.0,WA,53005.0,Benton County,40734.0,161143.0,694472.0,165956.0,183478.0,93014.0,129743.0,72800.0,31589.0,11705.0,4224.0,998.0,965.0
181818,County,2020/02/26,53.0,WA,53005.0,Benton County,32329.0,169548.0,826306.0,187539.0,237626.0,117949.0,138694.0,95012.0,33871.0,10984.0,3469.0,708.0,454.0
185106,County,2020/02/27,53.0,WA,53005.0,Benton County,39704.0,162173.0,840786.0,219290.0,215712.0,105170.0,154512.0,89380.0,37305.0,13534.0,4196.0,866.0,821.0
188305,County,2020/02/28,53.0,WA,53005.0,Benton County,38237.0,163640.0,903227.0,238188.0,248396.0,121283.0,160508.0,84411.0,28769.0,14845.0,4628.0,1253.0,946.0
191499,County,2020/02/29,53.0,WA,53005.0,Benton County,42263.0,159614.0,842251.0,222885.0,238667.0,116485.0,146066.0,75507.0,20896.0,14028.0,5878.0,1117.0,722.0
193124,County,2020/03/01,53.0,WA,53005.0,Benton County,44106.0,157771.0,713750.0,185945.0,207429.0,98128.0,115831.0,62743.0,20443.0,15252.0,5906.0,1359.0,714.0
196346,County,2020/03/02,53.0,WA,53005.0,Benton County,42962.0,158915.0,706923.0,191590.0,181753.0,88922.0,116339.0,77848.0,30711.0,12741.0,5154.0,952.0,913.0
199405,County,2020/03/03,53.0,WA,53005.0,Benton County,40508.0,161369.0,682776.0,174487.0,183411.0,81942.0,112411.0,72463.0,35909.0,11231.0,8521.0,1830.0,571.0
201832,County,2020/03/04,53.0,WA,53005.0,Benton County,40807.0,161070.0,686903.0,193581.0,163626.0,81040.0,121480.0,72977.0,32511.0,11478.0,7887.0,1714.0,609.0
205853,County,2020/03/05,53.0,WA,53005.0,Benton County,39578.0,162299.0,685339.0,176105.0,172761.0,87145.0,113485.0,73720.0,35763.0,14693.0,9131.0,1749.0,787.0
208971,County,2020/03/06,53.0,WA,53005.0,Benton County,39497.0,162380.0,662351.0,161258.0,180956.0,87103.0,110102.0,67586.0,28046.0,14740.0,9379.0,2219.0,962.0
213885,County,2020/03/07,53.0,WA,53005.0,Benton County,41924.0,159953.0,634022.0,147864.0,165078.0,90758.0,113384.0,64996.0,24306.0,15863.0,9136.0,1696.0,941.0
215488,County,2020/03/08,53.0,WA,53005.0,Benton County,47155.0,154722.0,583794.0,149872.0,159114.0,81824.0,92982.0,52900.0,21802.0,14018.0,8462.0,1948.0,872.0
220245,County,2020/03/09,53.0,WA,53005.0,Benton County,42181.0,159696.0,639236.0,160283.0,165906.0,81823.0,103877.0,72712.0,33227.0,12053.0,7613.0,1349.0,393.0
223438,County,2020/03/10,53.0,WA,53005.0,Benton County,41700.0,160177.0,639975.0,149006.0,165063.0,81354.0,110681.0,76181.0,36141.0,11966.0,7500.0,1304.0,779.0
225112,County,2020/03/11,53.0,WA,53005.0,Benton County,37350.0,164527.0,695181.0,159765.0,192490.0,80551.0,114923.0,81907.0,38116.0,10653.0,12150.0,3148.0,1478.0
229759,County,2020/03/12,53.0,WA,53005.0,Benton County,39071.0,162806.0,657757.0,162024.0,173853.0,79206.0,99441.0,79899.0,32887.0,11761.0,14763.0,2326.0,1597.0
231456,County,2020/03/13,53.0,WA,53005.0,Benton County,38454.0,163423.0,683398.0,163289.0,175778.0,98055.0,119335.0,68298.0,25383.0,18832.0,10340.0,2790.0,1298.0
234509,County,2020/03/14,53.0,WA,53005.0,Benton County,48039.0,153838.0,601317.0,147420.0,168652.0,74625.0,99554.0,58205.0,23043.0,16573.0,8725.0,2729.0,1791.0
239409,County,2020/03/15,53.0,WA,53005.0,Benton County,59064.0,142813.0,534027.0,143651.0,146373.0,65952.0,78931.0,60883.0,18467.0,11593.0,6686.0,983.0,508.0
242602,County,2020/03/16,53.0,WA,53005.0,Benton County,49705.0,152172.0,649254.0,174782.0,164001.0,79435.0,111746.0,67942.0,31547.0,10715.0,7010.0,1324.0,752.0
245795,County,2020/03/17,53.0,WA,53005.0,Benton County,55288.0,146589.0,581822.0,147010.0,147546.0,72837.0,98805.0,66732.0,30947.0,9414.0,6779.0,1221.0,531.0
248951,County,2020/03/18,53.0,WA,53005.0,Benton County,57386.0,144491.0,630370.0,177629.0,152812.0,77421.0,100183.0,71356.0,30491.0,11989.0,6390.0,1393.0,706.0
250629,County,2020/03/19,53.0,WA,53005.0,Benton County,56413.0,145464.0,621437.0,160059.0,161983.0,76371.0,103454.0,67894.0,31056.0,12922.0,5815.0,1365.0,518.0
255379,County,2020/03/20,53.0,WA,53005.0,Benton County,58806.0,143071.0,640400.0,170330.0,176264.0,74590.0,109089.0,66708.0,23697.0,10969.0,6711.0,1395.0,647.0
256956,County,2020/03/21,53.0,WA,53005.0,Benton County,64299.0,137578.0,578582.0,166525.0,161828.0,70321.0,87496.0,52533.0,17166.0,13896.0,6263.0,1816.0,738.0
261760,County,2020/03/22,53.0,WA,53005.0,Benton County,61728.0,140149.0,493296.0,143290.0,135741.0,54973.0,70725.0,53753.0,16805.0,9004.0,6752.0,1706.0,547.0
263396,County,2020/03/23,53.0,WA,53005.0,Benton County,55891.0,145986.0,519980.0,136491.0,140363.0,62986.0,92902.0,52030.0,18726.0,9557.0,5519.0,909.0,497.0
268152,County,2020/03/24,53.0,WA,53005.0,Benton County,58576.0,143301.0,528429.0,161936.0,125848.0,58842.0,87437.0,51633.0,24348.0,10243.0,6096.0,1619.0,427.0
271349,County,2020/03/25,53.0,WA,53005.0,Benton County,59785.0,142092.0,495019.0,153260.0,118064.0,54094.0,79869.0,49086.0,21457.0,10790.0,6314.0,1329.0,756.0
274524,County,2020/03/26,53.0,WA,53005.0,Benton County,60209.0,141668.0,478215.0,137890.0,119954.0,57154.0,73602.0,53496.0,18904.0,8720.0,5778.0,1732.0,985.0
276162,County,2020/03/27,53.0,WA,53005.0,Benton County,60502.0,141375.0,484691.0,142972.0,117644.0,58112.0,81178.0,49334.0,18196.0,7605.0,6932.0,2214.0,504.0
280924,County,2020/03/28,53.0,WA,53005.0,Benton County,63444.0,138433.0,455951.0,133811.0,121398.0,54353.0,69764.0,46057.0,15115.0,7818.0,5398.0,1591.0,646.0
282559,County,2020/03/29,53.0,WA,53005.0,Benton County,66537.0,135340.0,426712.0,124455.0,117222.0,55069.0,59958.0,38051.0,16947.0,7691.0,5256.0,1390.0,673.0
287350,County,2020/03/30,53.0,WA,53005.0,Benton County,59948.0,141929.0,497586.0,148631.0,121589.0,54063.0,82662.0,55000.0,18714.0,8666.0,6468.0,1284.0,509.0
290507,County,2020/03/31,53.0,WA,53005.0,Benton County,58951.0,142926.0,494651.0,143056.0,124968.0,56071.0,77649.0,53452.0,21246.0,10541.0,5595.0,1519.0,554.0
293707,County,2020/04/01,53.0,WA,53005.0,Benton County,58879.0,142998.0,505481.0,130166.0,133362.0,59264.0,91475.0,52392.0,22448.0,9352.0,5078.0,1399.0,545.0
295335,County,2020/04/02,53.0,WA,53005.0,Benton County,58566.0,143311.0,497895.0,142361.0,133004.0,55726.0,75794.0,54070.0,20270.0,7794.0,6330.0,1580.0,966.0
300095,County,2020/04/03,53.0,WA,53005.0,Benton County,57816.0,144061.0,529220.0,140148.0,144960.0,66600.0,90693.0,51460.0,19161.0,8808.0,5240.0,1484.0,666.0
301721,County,2020/04/04,53.0,WA,53005.0,Benton County,61453.0,140424.0,464165.0,125678.0,127649.0,61503.0,71102.0,47209.0,15942.0,7652.0,5019.0,1424.0,987.0
304903,County,2020/04/05,53.0,WA,53005.0,Benton County,63429.0,138448.0,417872.0,108946.0,109211.0,61344.0,62900.0,47012.0,14831.0,5937.0,5001.0,1819.0,871.0
308110,County,2020/04/06,53.0,WA,53005.0,Benton County,60737.0,141140.0,526871.0,150229.0,130795.0,62673.0,90071.0,59746.0,20327.0,7571.0,3683.0,1065.0,711.0
312868,County,2020/04/07,53.0,WA,53005.0,Benton County,60442.0,141435.0,527911.0,144520.0,137215.0,60207.0,93289.0,58217.0,21715.0,8399.0,2910.0,865.0,574.0
314499,County,2020/04/08,53.0,WA,53005.0,Benton County,59213.0,142664.0,542296.0,159367.0,140477.0,67570.0,88947.0,52183.0,18917.0,9672.0,3790.0,858.0,515.0
319259,County,2020/04/09,53.0,WA,53005.0,Benton County,59076.0,142801.0,516641.0,138473.0,133492.0,63827.0,91891.0,52153.0,19228.0,12367.0,3564.0,1016.0,630.0
320894,County,2020/04/10,53.0,WA,53005.0,Benton County,56384.0,145493.0,552405.0,149489.0,149937.0,74027.0,95466.0,52228.0,18178.0,7810.0,4260.0,545.0,465.0
325647,County,2020/04/11,53.0,WA,53005.0,Benton County,62055.0,139822.0,533442.0,158696.0,142048.0,71324.0,82783.0,53281.0,13536.0,6798.0,2987.0,1363.0,626.0
328815,County,2020/04/12,53.0,WA,53005.0,Benton County,69477.0,132400.0,410824.0,126604.0,110400.0,48678.0,64051.0,39396.0,11611.0,5616.0,2694.0,1051.0,723.0
332035,County,2020/04/13,53.0,WA,53005.0,Benton County,59755.0,142122.0,540828.0,151829.0,146988.0,65597.0,86804.0,56081.0,21531.0,8313.0,2755.0,628.0,302.0
333615,County,2020/04/14,53.0,WA,53005.0,Benton County,57205.0,144672.0,538162.0,160576.0,152931.0,52726.0,83961.0,48693.0,24813.0,6792.0,4904.0,2179.0,587.0
338414,County,2020/04/15,53.0,WA,53005.0,Benton County,55212.0,146665.0,523773.0,123651.0,161607.0,64749.0,89779.0,51624.0,16935.0,9244.0,4671.0,1202.0,311.0
341559,County,2020/04/16,53.0,WA,53005.0,Benton County,58146.0,143731.0,609908.0,198561.0,158014.0,62038.0,93610.0,58753.0,20416.0,13054.0,3755.0,1129.0,578.0
343342,County,2020/04/17,53.0,WA,53005.0,Benton County,52404.0,149473.0,603978.0,160285.0,167301.0,65827.0,101913.0,63104.0,21612.0,13068.0,7827.0,2163.0,878.0
347968,County,2020/04/18,53.0,WA,53005.0,Benton County,57321.0,144556.0,539049.0,159444.0,141853.0,68822.0,88284.0,47929.0,13338.0,12944.0,3816.0,1836.0,783.0
351199,County,2020/04/19,53.0,WA,53005.0,Benton County,60308.0,141569.0,466985.0,123197.0,133681.0,59833.0,73085.0,39383.0,19212.0,10067.0,5339.0,1984.0,1204.0
354399,County,2020/04/20,53.0,WA,53005.0,Benton County,51666.0,150211.0,562518.0,164223.0,165898.0,56150.0,84890.0,62974.0,12302.0,8152.0,4370.0,1840.0,1719.0
357586,County,2020/04/21,53.0,WA,53005.0,Benton County,57217.0,144660.0,534901.0,139533.0,146885.0,59195.0,93380.0,58861.0,21943.0,9583.0,3915.0,1116.0,490.0
359215,County,2020/04/22,53.0,WA,53005.0,Benton County,57070.0,144807.0,525185.0,125348.0,141522.0,66331.0,88363.0,59749.0,27108.0,11192.0,3444.0,1578.0,550.0
362321,County,2020/04/23,53.0,WA,53005.0,Benton County,58283.0,143594.0,567495.0,147526.0,151895.0,71334.0,95434.0,60787.0,23306.0,11887.0,3754.0,1212.0,360.0
367206,County,2020/04/24,53.0,WA,53005.0,Benton County,56392.0,145485.0,632281.0,170753.0,164500.0,79930.0,113365.0,60719.0,24543.0,12609.0,4366.0,1044.0,452.0
370365,County,2020/04/25,53.0,WA,53005.0,Benton County,60491.0,141386.0,519531.0,121928.0,145761.0,76697.0,91692.0,48935.0,16470.0,12172.0,4261.0,1009.0,606.0
371908,County,2020/04/26,53.0,WA,53005.0,Benton County,61380.0,140497.0,507497.0,132296.0,153465.0,68186.0,82691.0,44185.0,11668.0,9220.0,4019.0,1147.0,620.0
375185,County,2020/04/27,53.0,WA,53005.0,Benton County,56454.0,145423.0,581423.0,169037.0,148961.0,69807.0,95180.0,60796.0,20456.0,11505.0,4503.0,768.0,410.0
378335,County,2020/04/28,53.0,WA,53005.0,Benton County,56562.0,145315.0,585079.0,179090.0,140807.0,66712.0,100209.0,58885.0,24119.0,9840.0,3910.0,1032.0,475.0
381587,County,2020/04/29,53.0,WA,53005.0,Benton County,56295.0,145582.0,573864.0,155844.0,143341.0,66478.0,106442.0,63372.0,23718.0,9667.0,3373.0,1323.0,306.0
386333,County,2020/04/30,53.0,WA,53005.0,Benton County,55940.0,145937.0,566696.0,160375.0,149318.0,67672.0,92388.0,59383.0,20905.0,11173.0,3902.0,1305.0,275.0
389519,County,2020/05/01,53.0,WA,53005.0,Benton County,53477.0,148400.0,619420.0,168352.0,175900.0,71784.0,104376.0,60164.0,22668.0,11728.0,3133.0,984.0,331.0
392721,County,2020/05/02,53.0,WA,53005.0,Benton County,57608.0,144269.0,533690.0,141786.0,151362.0,73598.0,87342.0,48369.0,16659.0,8703.0,4123.0,1254.0,494.0
395869,County,2020/05/03,53.0,WA,53005.0,Benton County,62132.0,139745.0,478903.0,127235.0,134624.0,66369.0,77071.0,44077.0,13724.0,8339.0,5487.0,1171.0,806.0
399109,County,2020/05/04,53.0,WA,53005.0,Benton County,55734.0,146143.0,580757.0,156639.0,151367.0,74866.0,98960.0,61452.0,19779.0,11651.0,4850.0,950.0,243.0
402285,County,2020/05/05,53.0,WA,53005.0,Benton County,55753.0,146124.0,611961.0,171353.0,158263.0,75000.0,108635.0,61442.0,23029.0,9596.0,3100.0,1119.0,424.0
405491,County,2020/05/06,53.0,WA,53005.0,Benton County,56351.0,145526.0,550706.0,132499.0,149038.0,69013.0,99533.0,63068.0,20683.0,11867.0,3165.0,1122.0,718.0
407118,County,2020/05/07,53.0,WA,53005.0,Benton County,54041.0,147836.0,560824.0,141048.0,150085.0,76206.0,92974.0,60064.0,24157.0,10117.0,4313.0,1138.0,722.0
411848,County,2020/05/08,53.0,WA,53005.0,Benton County,55002.0,146875.0,633640.0,155352.0,171295.0,85338.0,114707.0,64474.0,22763.0,13486.0,4333.0,1331.0,561.0
413427,County,2020/05/09,53.0,WA,53005.0,Benton County,57996.0,143881.0,568788.0,150515.0,150216.0,67233.0,104020.0,55885.0,20259.0,14386.0,4483.0,1327.0,464.0
418273,County,2020/05/10,53.0,WA,53005.0,Benton County,58375.0,143502.0,523442.0,142122.0,137649.0,71790.0,82182.0,54459.0,16265.0,12112.0,4471.0,1909.0,483.0
419948,County,2020/05/11,53.0,WA,53005.0,Benton County,48661.0,153216.0,626251.0,157915.0,169893.0,80423.0,110326.0,63041.0,24344.0,12409.0,6191.0,1486.0,223.0
423133,County,2020/05/12,53.0,WA,53005.0,Benton County,48014.0,153863.0,619012.0,164698.0,157073.0,76523.0,112359.0,65390.0,23884.0,12921.0,4556.0,1215.0,393.0
427856,County,2020/05/13,53.0,WA,53005.0,Benton County,50332.0,151545.0,593309.0,154574.0,143059.0,72549.0,106404.0,70550.0,26297.0,13977.0,4372.0,1247.0,280.0
431049,County,2020/05/14,53.0,WA,53005.0,Benton County,50435.0,151442.0,623181.0,167785.0,153622.0,78089.0,115405.0,64290.0,23090.0,14346.0,5110.0,1047.0,397.0
432677,County,2020/05/15,53.0,WA,53005.0,Benton County,49279.0,152598.0,624374.0,169408.0,151384.0,76643.0,108910.0,70317.0,24603.0,14137.0,7451.0,1146.0,375.0
437426,County,2020/05/16,53.0,WA,53005.0,Benton County,50854.0,151023.0,576120.0,145672.0,161676.0,73263.0,99487.0,56278.0,19136.0,12931.0,5668.0,1654.0,355.0
439053,County,2020/05/17,53.0,WA,53005.0,Benton County,53363.0,148514.0,548075.0,155063.0,144858.0,58784.0,86303.0,56545.0,23915.0,12950.0,6949.0,2371.0,337.0
443825,County,2020/05/18,53.0,WA,53005.0,Benton County,44929.0,156948.0,683185.0,214580.0,158166.0,77749.0,117626.0,69650.0,27770.0,11207.0,5565.0,771.0,101.0
445453,County,2020/05/19,53.0,WA,53005.0,Benton County,44869.0,157008.0,676934.0,183322.0,173276.0,77625.0,107397.0,81789.0,31018.0,14258.0,6155.0,1770.0,324.0
450213,County,2020/05/20,53.0,WA,53005.0,Benton County,45542.0,156335.0,658566.0,176520.0,159327.0,79076.0,120877.0,71279.0,26279.0,17614.0,6144.0,1199.0,251.0
453399,County,2020/05/21,53.0,WA,53005.0,Benton County,41215.0,160662.0,682445.0,184818.0,167488.0,82662.0,114755.0,77092.0,30623.0,17518.0,5731.0,1442.0,316.0
456600,County,2020/05/22,53.0,WA,53005.0,Benton County,40930.0,160947.0,669248.0,178908.0,166571.0,71803.0,122805.0,82215.0,23831.0,13203.0,7719.0,1598.0,595.0
458223,County,2020/05/23,53.0,WA,53005.0,Benton County,45848.0,156029.0,665515.0,181228.0,163055.0,86533.0,121951.0,62882.0,23595.0,16895.0,6802.0,1975.0,599.0
461391,County,2020/05/24,53.0,WA,53005.0,Benton County,51782.0,150095.0,543719.0,139355.0,146917.0,63896.0,101619.0,52075.0,19504.0,12079.0,6065.0,1428.0,781.0
466267,County,2020/05/25,53.0,WA,53005.0,Benton County,49600.0,152277.0,520718.0,134157.0,128771.0,63530.0,104945.0,51064.0,18606.0,11636.0,6111.0,1210.0,688.0
469375,County,2020/05/26,53.0,WA,53005.0,Benton County,46642.0,155235.0,605185.0,156839.0,154772.0,71045.0,119071.0,65758.0,22282.0,9017.0,4453.0,1058.0,890.0
472567,County,2020/05/27,53.0,WA,53005.0,Benton County,47000.0,154877.0,654064.0,189518.0,154004.0,79394.0,115452.0,69566.0,26312.0,12899.0,5276.0,1209.0,434.0
475765,County,2020/05/28,53.0,WA,53005.0,Benton County,47354.0,154523.0,630993.0,180849.0,154509.0,75878.0,101568.0,69830.0,26413.0,13292.0,6981.0,1165.0,508.0
478953,County,2020/05/29,53.0,WA,53005.0,Benton County,51609.0,150268.0,676024.0,209476.0,164810.0,77294.0,107856.0,72019.0,22968.0,12859.0,7185.0,1125.0,432.0
482153,County,2020/05/30,53.0,WA,53005.0,Benton County,53551.0,148326.0,582298.0,164457.0,147041.0,69986.0,95096.0,63230.0,22363.0,10532.0,7137.0,1664.0,792.0
483661,County,2020/05/31,53.0,WA,53005.0,Benton County,55714.0,146163.0,524831.0,142987.0,143193.0,63680.0,86669.0,51983.0,17565.0,10195.0,6584.0,1446.0,529.0
486927,County,2020/06/01,53.0,WA,53005.0,Benton County,51593.0,150284.0,603481.0,181774.0,148065.0,66382.0,102208.0,61096.0,24732.0,11550.0,6096.0,1064.0,514.0
491708,County,2020/06/02,53.0,WA,53005.0,Benton County,52428.0,149449.0,610575.0,175605.0,149426.0,71767.0,104977.0,62494.0,27210.0,11302.0,6259.0,1098.0,437.0
494928,County,2020/06/03,53.0,WA,53005.0,Benton County,45816.0,156061.0,622981.0,171749.0,160848.0,71612.0,108240.0,63975.0,25614.0,13327.0,5727.0,1519.0,370.0
498112,County,2020/06/04,53.0,WA,53005.0,Benton County,47045.0,154832.0,610170.0,167542.0,154607.0,72116.0,106108.0,62938.0,25570.0,12254.0,6962.0,1517.0,556.0
499750,County,2020/06/05,53.0,WA,53005.0,Benton County,47581.0,154296.0,656414.0,186696.0,165296.0,76059.0,113431.0,66807.0,23401.0,15094.0,6965.0,2024.0,641.0
502898,County,2020/06/06,53.0,WA,53005.0,Benton County,50833.0,151044.0,549431.0,132860.0,152726.0,73854.0,93636.0,57019.0,19564.0,12121.0,5530.0,1612.0,509.0
506089,County,2020/06/07,53.0,WA,53005.0,Benton County,47073.0,154804.0,629338.0,150180.0,183770.0,84920.0,100893.0,58964.0,23484.0,15893.0,9086.0,1449.0,699.0
509311,County,2020/06/08,53.0,WA,53005.0,Benton County,43771.0,158106.0,671415.0,189531.0,165222.0,87014.0,109059.0,71079.0,27322.0,13776.0,6631.0,1483.0,298.0
512515,County,2020/06/09,53.0,WA,53005.0,Benton County,49409.0,152468.0,573889.0,148815.0,140229.0,74413.0,102858.0,62037.0,27177.0,11759.0,4922.0,1313.0,366.0
517297,County,2020/06/10,53.0,WA,53005.0,Benton County,48667.0,153210.0,608707.0,165412.0,148293.0,69944.0,104920.0,73161.0,26877.0,12414.0,5957.0,1334.0,395.0
520454,County,2020/06/11,53.0,WA,53005.0,Benton County,46614.0,155263.0,664383.0,184409.0,162011.0,81724.0,112560.0,71837.0,31994.0,12944.0,5105.0,1385.0,414.0
522126,County,2020/06/12,53.0,WA,53005.0,Benton County,47750.0,154127.0,620589.0,169130.0,149355.0,72969.0,110550.0,69737.0,25643.0,14107.0,6982.0,1676.0,440.0
525303,County,2020/06/13,53.0,WA,53005.0,Benton County,51292.0,150585.0,577130.0,148836.0,152857.0,76677.0,90945.0,61637.0,21986.0,14564.0,7676.0,1443.0,509.0
528498,County,2020/06/14,53.0,WA,53005.0,Benton County,53254.0,148623.0,510791.0,131150.0,138949.0,59190.0,84363.0,54424.0,19532.0,13515.0,7566.0,1637.0,465.0
533257,County,2020/06/15,53.0,WA,53005.0,Benton County,49899.0,151978.0,564775.0,148607.0,145448.0,72379.0,90399.0,60712.0,26161.0,11784.0,7383.0,1453.0,449.0
534884,County,2020/06/16,53.0,WA,53005.0,Benton County,51145.0,150732.0,633914.0,192798.0,150028.0,72467.0,101861.0,68987.0,28013.0,12819.0,5497.0,1192.0,252.0
538078,County,2020/06/17,53.0,WA,53005.0,Benton County,47341.0,154536.0,653313.0,189855.0,157985.0,81730.0,108640.0,68762.0,27147.0,11635.0,5393.0,1635.0,531.0
541226,County,2020/06/18,53.0,WA,53005.0,Benton County,47289.0,154588.0,630180.0,164482.0,159658.0,75556.0,111604.0,70235.0,27544.0,13135.0,6247.0,1466.0,253.0
545993,County,2020/06/19,53.0,WA,53005.0,Benton County,47826.0,154051.0,629515.0,155971.0,166572.0,81714.0,106957.0,69442.0,27741.0,14078.0,5180.0,1367.0,493.0
549227,County,2020/06/20,53.0,WA,53005.0,Benton County,51807.0,150070.0,583667.0,166658.0,153595.0,73019.0,87870.0,59396.0,22801.0,12189.0,6109.0,1614.0,416.0
552415,County,2020/06/21,53.0,WA,53005.0,Benton County,53982.0,147895.0,521842.0,148694.0,136268.0,59907.0,77967.0,52321.0,24512.0,14554.0,5932.0,1232.0,455.0
555607,County,2020/06/22,53.0,WA,53005.0,Benton County,48896.0,152981.0,588145.0,154236.0,147294.0,67809.0,97807.0,68568.0,30138.0,14665.0,5828.0,1360.0,440.0
557236,County,2020/06/23,53.0,WA,53005.0,Benton County,48952.0,152925.0,645091.0,179581.0,163080.0,73135.0,105506.0,72182.0,30644.0,13655.0,5455.0,1522.0,331.0
562003,County,2020/06/24,53.0,WA,53005.0,Benton County,51276.0,150601.0,596443.0,164074.0,140761.0,73409.0,105497.0,65594.0,28382.0,11848.0,5202.0,1490.0,186.0
565179,County,2020/06/25,53.0,WA,53005.0,Benton County,46919.0,154958.0,621158.0,166059.0,157979.0,77180.0,108520.0,63231.0,28672.0,11484.0,6053.0,1472.0,508.0
566883,County,2020/06/26,53.0,WA,53005.0,Benton County,49755.0,152122.0,622829.0,166528.0,160917.0,75667.0,110621.0,61542.0,24216.0,13496.0,7209.0,2102.0,531.0
571577,County,2020/06/27,53.0,WA,53005.0,Benton County,51664.0,150213.0,606155.0,166414.0,161811.0,73435.0,98515.0,55471.0,23333.0,17820.0,7620.0,1459.0,277.0
573199,County,2020/06/28,53.0,WA,53005.0,Benton County,55074.0,146803.0,528173.0,139881.0,140177.0,63546.0,83747.0,56162.0,19756.0,14923.0,7620.0,1853.0,508.0
577973,County,2020/06/29,53.0,WA,53005.0,Benton County,52007.0,149870.0,590537.0,160772.0,145956.0,68664.0,103461.0,64646.0,28383.0,10266.0,6362.0,1539.0,488.0
581171,County,2020/06/30,53.0,WA,53005.0,Benton County,50304.0,151573.0,563556.0,146166.0,137582.0,65814.0,102610.0,64698.0,27232.0,11207.0,6485.0,1144.0,618.0
584361,County,2020/07/01,53.0,WA,53005.0,Benton County,50150.0,151727.0,585747.0,163314.0,145568.0,68697.0,95253.0,64626.0,28444.0,12461.0,5480.0,1315.0,589.0
587555,County,2020/07/02,53.0,WA,53005.0,Benton County,50630.0,151247.0,659300.0,176256.0,167679.0,81919.0,115184.0,67114.0,30433.0,12189.0,6425.0,1562.0,539.0
589193,County,2020/07/03,53.0,WA,53005.0,Benton County,53331.0,148546.0,619320.0,165590.0,160010.0,75241.0,109998.0,61195.0,24080.0,13420.0,7168.0,2090.0,528.0
593936,County,2020/07/04,53.0,WA,53005.0,Benton County,55795.0,146082.0,529844.0,141666.0,136893.0,64370.0,94106.0,52354.0,20601.0,11481.0,6133.0,1788.0,452.0
595588,County,2020/07/05,53.0,WA,53005.0,Benton County,53654.0,148223.0,508732.0,135717.0,124726.0,68422.0,80032.0,55554.0,18689.0,15351.0,8142.0,1413.0,686.0
600331,County,2020/07/06,53.0,WA,53005.0,Benton County,50190.0,151687.0,558229.0,160898.0,131849.0,65580.0,91684.0,61525.0,26847.0,11947.0,6375.0,1000.0,524.0
602349,County,2020/07/07,53.0,WA,53005.0,Benton County,50618.0,151259.0,550595.0,147255.0,141016.0,67370.0,88337.0,60891.0,24806.0,12391.0,6562.0,1368.0,599.0
606718,County,2020/07/08,53.0,WA,53005.0,Benton County,49604.0,152273.0,572992.0,163446.0,133498.0,72808.0,94818.0,61151.0,25756.0,12705.0,6673.0,1670.0,467.0
608347,County,2020/07/09,53.0,WA,53005.0,Benton County,50138.0,151739.0,555060.0,151695.0,134420.0,65316.0,97508.0,60973.0,24099.0,13221.0,6144.0,1132.0,552.0
611546,County,2020/07/10,53.0,WA,53005.0,Benton County,47617.0,154260.0,586032.0,160633.0,142496.0,74621.0,104751.0,61162.0,21892.0,10469.0,7348.0,1985.0,675.0
614756,County,2020/07/11,53.0,WA,53005.0,Benton County,51839.0,150038.0,583341.0,175594.0,154667.0,73035.0,85972.0,53966.0,20871.0,9974.0,6808.0,1708.0,746.0
619482,County,2020/07/12,53.0,WA,53005.0,Benton County,53914.0,147963.0,486230.0,124980.0,134735.0,63401.0,71333.0,48888.0,18093.0,14018.0,8444.0,1687.0,651.0
622689,County,2020/07/13,53.0,WA,53005.0,Benton County,48881.0,152996.0,545310.0,149060.0,139072.0,60140.0,89542.0,59857.0,25408.0,12136.0,7068.0,1796.0,1231.0
625882,County,2020/07/14,53.0,WA,53005.0,Benton County,51339.0,150538.0,557284.0,149602.0,141934.0,66966.0,94548.0,57035.0,28390.0,11669.0,4946.0,1280.0,914.0
629054,County,2020/07/15,53.0,WA,53005.0,Benton County,50511.0,151366.0,605595.0,167043.0,148522.0,75237.0,98290.0,66728.0,28978.0,13741.0,5329.0,881.0,846.0
630680,County,2020/07/16,53.0,WA,53005.0,Benton County,51357.0,150520.0,583294.0,151425.0,147141.0,66258.0,102349.0,62969.0,32942.0,13587.0,4813.0,1020.0,790.0
635416,County,2020/07/17,53.0,WA,53005.0,Benton County,50467.0,151410.0,593791.0,149627.0,150982.0,72156.0,108468.0,62714.0,26397.0,15943.0,5694.0,1053.0,757.0
637094,County,2020/07/18,53.0,WA,53005.0,Benton County,53668.0,148209.0,580696.0,151530.0,144868.0,71276.0,101111.0,66053.0,22664.0,15504.0,5831.0,1072.0,787.0
640248,County,2020/07/19,53.0,WA,53005.0,Benton County,57635.0,144242.0,497404.0,129459.0,129622.0,64934.0,76470.0,55010.0,20394.0,10668.0,8614.0,1562.0,671.0
645078,County,2020/07/20,53.0,WA,53005.0,Benton County,54827.0,147050.0,576870.0,153455.0,147827.0,68180.0,98420.0,64182.0,28203.0,10054.0,5116.0,1010.0,423.0
646658,County,2020/07/21,53.0,WA,53005.0,Benton County,52839.0,149038.0,550333.0,146216.0,132450.0,62565.0,96809.0,63877.0,28126.0,12690.0,5720.0,1027.0,853.0
649340,County,2020/07/22,53.0,WA,53005.0,Benton County,51528.0,150349.0,551146.0,138319.0,133196.0,68109.0,97110.0,67149.0,28362.0,11330.0,5720.0,1198.0,653.0
654629,County,2020/07/23,53.0,WA,53005.0,Benton County,52408.0,149469.0,541377.0,141017.0,125807.0,67491.0,96792.0,63639.0,26877.0,11521.0,6095.0,1354.0,784.0
657902,County,2020/07/24,53.0,WA,53005.0,Benton County,49719.0,152158.0,604503.0,160852.0,146010.0,78027.0,103633.0,66549.0,27066.0,13789.0,6494.0,1494.0,589.0
659445,County,2020/07/25,53.0,WA,53005.0,Benton County,53803.0,148074.0,532584.0,139270.0,131916.0,66899.0,88330.0,60433.0,24374.0,11899.0,6886.0,1924.0,653.0
664154,County,2020/07/26,53.0,WA,53005.0,Benton County,53473.0,148404.0,516153.0,132602.0,131353.0,66844.0,81491.0,56664.0,20896.0,14213.0,9455.0,1690.0,945.0
665939,County,2020/07/27,53.0,WA,53005.0,Benton County,50959.0,150918.0,575236.0,147058.0,145674.0,67493.0,94914.0,69825.0,27325.0,12046.0,7863.0,1763.0,1275.0
669102,County,2020/07/28,53.0,WA,53005.0,Benton County,49965.0,151912.0,588748.0,151683.0,147024.0,72505.0,98417.0,69465.0,27353.0,12087.0,7501.0,1776.0,937.0
672307,County,2020/07/29,53.0,WA,53005.0,Benton County,50776.0,151101.0,577751.0,152375.0,141085.0,73918.0,93823.0,65285.0,28470.0,13757.0,6661.0,1383.0,994.0
675421,County,2020/07/30,53.0,WA,53005.0,Benton County,49107.0,152770.0,574517.0,141837.0,142075.0,69696.0,101029.0,65766.0,28584.0,14395.0,8230.0,1628.0,1277.0
680199,County,2020/07/31,53.0,WA,53005.0,Benton County,50693.0,151184.0,573081.0,134223.0,146085.0,71937.0,108362.0,61871.0,24876.0,13625.0,9460.0,1646.0,996.0
683368,County,2020/08/01,53.0,WA,53005.0,Benton County,54359.0,147518.0,521650.0,130190.0,129564.0,67384.0,88497.0,58678.0,23891.0,12590.0,8009.0,1905.0,942.0
686560,County,2020/08/02,53.0,WA,53005.0,Benton County,56573.0,145304.0,535408.0,138591.0,139089.0,61667.0,87581.0,59273.0,22338.0,16709.0,7837.0,1597.0,726.0
689763,County,2020/08/03,53.0,WA,53005.0,Benton County,51105.0,150772.0,620718.0,165823.0,163011.0,68879.0,101664.0,71562.0,29676.0,12239.0,6708.0,830.0,326.0
691391,County,2020/08/04,53.0,WA,53005.0,Benton County,49310.0,152567.0,614341.0,160629.0,158981.0,71264.0,104080.0,69733.0,28078.0,14073.0,5683.0,1372.0,448.0
696150,County,2020/08/05,53.0,WA,53005.0,Benton County,49059.0,152818.0,625426.0,170877.0,157862.0,74846.0,101478.0,67689.0,30987.0,14184.0,5630.0,1446.0,427.0
699345,County,2020/08/06,53.0,WA,53005.0,Benton County,49522.0,152355.0,624532.0,165194.0,157568.0,71059.0,101515.0,71552.0,33926.0,16023.0,6035.0,1286.0,374.0
700972,County,2020/08/07,53.0,WA,53005.0,Benton County,49573.0,152304.0,610316.0,150912.0,163359.0,72451.0,110551.0,65388.0,25084.0,13249.0,7403.0,1413.0,506.0
705733,County,2020/08/08,53.0,WA,53005.0,Benton County,52575.0,149302.0,556648.0,135859.0,147638.0,70568.0,90917.0,63410.0,24203.0,14982.0,7347.0,1310.0,414.0
708952,County,2020/08/09,53.0,WA,53005.0,Benton County,54367.0,147510.0,555890.0,138223.0,150838.0,69678.0,92100.0,56136.0,23097.0,14830.0,8456.0,1993.0,539.0
712121,County,2020/08/10,53.0,WA,53005.0,Benton County,48299.0,153578.0,635960.0,156871.0,165188.0,76107.0,111223.0,71111.0,34167.0,13140.0,6567.0,1123.0,463.0
715314,County,2020/08/11,53.0,WA,53005.0,Benton County,49456.0,152421.0,640463.0,164207.0,164086.0,78287.0,107500.0,71741.0,34112.0,13789.0,5358.0,1019.0,364.0
718509,County,2020/08/12,53.0,WA,53005.0,Benton County,47700.0,154177.0,603134.0,148659.0,149103.0,75174.0,107404.0,68847.0,30838.0,13691.0,6869.0,1327.0,1222.0
721703,County,2020/08/13,53.0,WA,53005.0,Benton County,43464.0,158413.0,618449.0,148193.0,154134.0,76762.0,110814.0,70186.0,31413.0,16215.0,7750.0,1505.0,1477.0
723330,County,2020/08/14,53.0,WA,53005.0,Benton County,41697.0,160180.0,671311.0,157987.0,173988.0,89018.0,114794.0,76036.0,28934.0,18477.0,8526.0,1879.0,1672.0
728091,County,2020/08/15,53.0,WA,53005.0,Benton County,45630.0,156247.0,581359.0,136189.0,143561.0,78742.0,104798.0,63573.0,27181.0,15594.0,8332.0,1651.0,1738.0
731285,County,2020/08/16,53.0,WA,53005.0,Benton County,52464.0,149413.0,518436.0,116973.0,128970.0,70037.0,89602.0,56950.0,23144.0,16400.0,11308.0,2651.0,2401.0
732914,County,2020/08/17,53.0,WA,53005.0,Benton County,51115.0,150762.0,594387.0,140689.0,152965.0,69666.0,102527.0,70530.0,30842.0,14403.0,8515.0,2015.0,2235.0
736129,County,2020/08/18,53.0,WA,53005.0,Benton County,48368.0,153509.0,574050.0,123717.0,146523.0,68134.0,107231.0,67563.0,34488.0,14201.0,8275.0,1806.0,2112.0
739285,County,2020/08/19,53.0,WA,53005.0,Benton County,47191.0,154686.0,600197.0,135348.0,140311.0,80439.0,111535.0,69866.0,36482.0,14107.0,8217.0,2066.0,1826.0
742496,County,2020/08/20,53.0,WA,53005.0,Benton County,45206.0,156671.0,595147.0,144165.0,137937.0,77246.0,107014.0,70059.0,31670.0,14041.0,8929.0,2117.0,1969.0
747271,County,2020/08/21,53.0,WA,53005.0,Benton County,43880.0,157997.0,636577.0,148340.0,165555.0,80204.0,111878.0,74160.0,27647.0,14760.0,9755.0,2202.0,2076.0
748900,County,2020/08/22,53.0,WA,53005.0,Benton County,47744.0,154133.0,588220.0,136063.0,151412.0,79733.0,105051.0,66019.0,21564.0,15525.0,8539.0,2106.0,2208.0
752094,County,2020/08/23,53.0,WA,53005.0,Benton County,53003.0,148874.0,484553.0,110501.0,124500.0,60586.0,86202.0,53503.0,23345.0,13173.0,9236.0,1839.0,1668.0
756837,County,2020/08/24,53.0,WA,53005.0,Benton County,52500.0,149377.0,549852.0,130158.0,142693.0,67309.0,95531.0,63592.0,29949.0,11731.0,5849.0,1435.0,1605.0
760028,County,2020/08/25,53.0,WA,53005.0,Benton County,49447.0,152430.0,584391.0,135710.0,145144.0,76957.0,107128.0,66728.0,30557.0,12963.0,6771.0,1036.0,1397.0
761610,County,2020/08/26,53.0,WA,53005.0,Benton County,50632.0,151245.0,543604.0,118316.0,137018.0,70860.0,97996.0,66534.0,31707.0,12172.0,6862.0,1256.0,883.0
764817,County,2020/08/27,53.0,WA,53005.0,Benton County,49834.0,152043.0,554954.0,129693.0,139634.0,67955.0,97445.0,70839.0,28058.0,11709.0,7114.0,1475.0,1032.0
768023,County,2020/08/28,53.0,WA,53005.0,Benton County,49353.0,152524.0,577152.0,131474.0,144876.0,76250.0,105755.0,67741.0,25962.0,14197.0,8802.0,1259.0,836.0
771227,County,2020/08/29,53.0,WA,53005.0,Benton County,52376.0,149501.0,543227.0,126728.0,144630.0,72104.0,101307.0,56579.0,21380.0,10842.0,7166.0,1549.0,942.0
776001,County,2020/08/30,53.0,WA,53005.0,Benton County,56700.0,145177.0,492299.0,111180.0,136426.0,62101.0,85427.0,52304.0,20252.0,11765.0,9568.0,2360.0,916.0
777608,County,2020/08/31,53.0,WA,53005.0,Benton County,50253.0,151624.0,544796.0,125560.0,144509.0,67696.0,94957.0,64034.0,26343.0,11332.0,7578.0,1388.0,1399.0
782389,County,2020/09/01,53.0,WA,53005.0,Benton County,48667.0,153210.0,626343.0,163496.0,158144.0,83405.0,107256.0,64890.0,28353.0,11570.0,6439.0,1848.0,942.0
785583,County,2020/09/02,53.0,WA,53005.0,Benton County,49365.0,152512.0,603237.0,150451.0,158669.0,72850.0,102243.0,69282.0,29284.0,11767.0,5787.0,1930.0,974.0
787144,County,2020/09/03,53.0,WA,53005.0,Benton County,45225.0,156652.0,635183.0,150214.0,168134.0,77729.0,111977.0,71563.0,31849.0,13816.0,7034.0,1764.0,1103.0
791971,County,2020/09/04,53.0,WA,53005.0,Benton County,49935.0,151942.0,607589.0,141187.0,159274.0,83952.0,104594.0,67039.0,25813.0,13698.0,8983.0,2100.0,949.0
793481,County,2020/09/05,53.0,WA,53005.0,Benton County,50552.0,151325.0,616383.0,162559.0,166674.0,75551.0,99514.0,64156.0,22966.0,14349.0,7830.0,1943.0,841.0
796764,County,2020/09/06,53.0,WA,53005.0,Benton County,54616.0,147261.0,506900.0,116924.0,126904.0,66626.0,88138.0,58120.0,25435.0,13692.0,8248.0,1898.0,915.0
799981,County,2020/09/07,53.0,WA,53005.0,Benton County,57704.0,144173.0,467809.0,97955.0,130548.0,64553.0,76203.0,47457.0,22483.0,16805.0,9039.0,1587.0,1179.0
804747,County,2020/09/08,53.0,WA,53005.0,Benton County,50867.0,151010.0,577191.0,126414.0,157311.0,70568.0,103470.0,66306.0,31972.0,12299.0,6612.0,1232.0,1007.0
807940,County,2020/09/09,53.0,WA,53005.0,Benton County,48635.0,153242.0,630726.0,154888.0,155487.0,75712.0,114848.0,69402.0,36928.0,13496.0,7375.0,1375.0,1215.0
809569,County,2020/09/10,53.0,WA,53005.0,Benton County,49442.0,152435.0,591038.0,144132.0,145796.0,70680.0,105648.0,69406.0,33048.0,12102.0,7439.0,1875.0,912.0
812773,County,2020/09/11,53.0,WA,53005.0,Benton County,48264.0,153613.0,594466.0,129512.0,153798.0,79197.0,107657.0,68698.0,30752.0,14075.0,7923.0,1681.0,1173.0
817523,County,2020/09/12,53.0,WA,53005.0,Benton County,56270.0,145607.0,510265.0,112433.0,144428.0,66745.0,94190.0,48483.0,23130.0,10334.0,7331.0,1519.0,1672.0
819130,County,2020/09/13,53.0,WA,53005.0,Benton County,56359.0,145518.0,458298.0,95662.0,132115.0,57819.0,80614.0,49927.0,20160.0,12451.0,6443.0,1454.0,1653.0
822336,County,2020/09/14,53.0,WA,53005.0,Benton County,54718.0,147159.0,538555.0,113066.0,145806.0,70268.0,104855.0,60545.0,25607.0,9877.0,6360.0,1332.0,839.0
827105,County,2020/09/15,53.0,WA,53005.0,Benton County,53572.0,148305.0,569018.0,113829.0,154132.0,78688.0,109979.0,64653.0,25964.0,12168.0,6721.0,1514.0,1370.0
830299,County,2020/09/16,53.0,WA,53005.0,Benton County,54120.0,147757.0,578071.0,115346.0,156031.0,77070.0,113119.0,68223.0,26855.0,12889.0,5899.0,1363.0,1276.0
831926,County,2020/09/17,53.0,WA,53005.0,Benton County,52437.0,149440.0,574324.0,122819.0,140692.0,76562.0,109503.0,65309.0,36921.0,11478.0,8615.0,1606.0,819.0
835105,County,2020/09/18,53.0,WA,53005.0,Benton County,50933.0,150944.0,607639.0,134268.0,160355.0,80805.0,114279.0,72110.0,25080.0,10991.0,7616.0,1161.0,974.0
839881,County,2020/09/19,53.0,WA,53005.0,Benton County,53280.0,148597.0,597242.0,147598.0,161385.0,78330.0,101366.0,61530.0,24393.0,12714.0,7344.0,1768.0,814.0
841510,County,2020/09/20,53.0,WA,53005.0,Benton County,54167.0,147710.0,515672.0,122594.0,140010.0,69123.0,87778.0,50290.0,23937.0,12699.0,7337.0,1373.0,531.0
844719,County,2020/09/21,53.0,WA,53005.0,Benton County,54846.0,147031.0,556948.0,127583.0,144669.0,71565.0,100783.0,64437.0,30203.0,10951.0,4814.0,1588.0,355.0
849463,County,2020/09/22,53.0,WA,53005.0,Benton County,49416.0,152461.0,584792.0,139049.0,148404.0,69186.0,103408.0,70230.0,36379.0,12439.0,4008.0,1462.0,227.0
852653,County,2020/09/23,53.0,WA,53005.0,Benton County,47610.0,154267.0,595644.0,130209.0,151271.0,75156.0,110585.0,70311.0,38612.0,12830.0,5249.0,1170.0,251.0
854281,County,2020/09/24,53.0,WA,53005.0,Benton County,49219.0,152658.0,574656.0,123423.0,146654.0,74196.0,105298.0,68141.0,35316.0,14546.0,5645.0,945.0,492.0
859045,County,2020/09/25,53.0,WA,53005.0,Benton County,48706.0,153171.0,627322.0,153584.0,158976.0,80685.0,109563.0,69591.0,30090.0,16594.0,6821.0,1098.0,320.0
862239,County,2020/09/26,53.0,WA,53005.0,Benton County,52193.0,149684.0,577002.0,130259.0,158836.0,79123.0,102140.0,60603.0,24775.0,14276.0,5672.0,1083.0,235.0
863844,County,2020/09/27,53.0,WA,53005.0,Benton County,55418.0,146459.0,513559.0,117928.0,136864.0,66121.0,92087.0,53121.0,22582.0,15320.0,7920.0,1301.0,315.0
867049,County,2020/09/28,53.0,WA,53005.0,Benton County,51691.0,150186.0,576522.0,131899.0,152460.0,72926.0,100928.0,66710.0,31311.0,13716.0,5127.0,1186.0,259.0
871821,County,2020/09/29,53.0,WA,53005.0,Benton County,49712.0,152165.0,563512.0,118779.0,142974.0,72091.0,106852.0,69465.0,36453.0,11339.0,4580.0,680.0,299.0
873449,County,2020/09/30,53.0,WA,53005.0,Benton County,49665.0,152212.0,623628.0,148618.0,168322.0,76949.0,110251.0,67649.0,35910.0,10646.0,4567.0,446.0,270.0
878188,County,2020/10/01,53.0,WA,53005.0,Benton County,48384.0,153493.0,593927.0,130887.0,156973.0,77394.0,110100.0,69948.0,30043.0,12353.0,5220.0,663.0,346.0
881403,County,2020/10/02,53.0,WA,53005.0,Benton County,50169.0,151708.0,563864.0,127741.0,149075.0,79462.0,100454.0,59505.0,27764.0,12568.0,6091.0,918.0,286.0
883033,County,2020/10/03,53.0,WA,53005.0,Benton County,54136.0,147741.0,548132.0,127923.0,146667.0,76337.0,96795.0,59048.0,23981.0,9991.0,6482.0,613.0,295.0
887674,County,2020/10/04,53.0,WA,53005.0,Benton County,54790.0,147087.0,483646.0,100105.0,134617.0,65489.0,82638.0,55717.0,22484.0,13518.0,7064.0,1622.0,392.0
890852,County,2020/10/05,53.0,WA,53005.0,Benton County,53531.0,148346.0,549450.0,111824.0,156652.0,69077.0,97723.0,63694.0,31912.0,11003.0,6655.0,643.0,267.0
894043,County,2020/10/06,53.0,WA,53005.0,Benton County,49399.0,152478.0,554711.0,114240.0,139638.0,73255.0,103647.0,70905.0,34912.0,11687.0,5381.0,780.0,266.0
897232,County,2020/10/07,53.0,WA,53005.0,Benton County,47717.0,154160.0,592647.0,116732.0,154932.0,77029.0,114378.0,75095.0,34680.0,12341.0,6386.0,799.0,275.0
900457,County,2020/10/08,53.0,WA,53005.0,Benton County,49040.0,152837.0,549008.0,111498.0,140998.0,69409.0,107335.0,67422.0,31990.0,13287.0,5842.0,916.0,311.0
903636,County,2020/10/09,53.0,WA,53005.0,Benton County,49337.0,152540.0,586286.0,128661.0,149702.0,71226.0,116466.0,71015.0,29558.0,11478.0,6928.0,1041.0,211.0
906827,County,2020/10/10,53.0,WA,53005.0,Benton County,55257.0,146620.0,509222.0,95557.0,140665.0,71615.0,92252.0,65919.0,25196.0,9772.0,6994.0,1031.0,221.0
907324,County,2020/10/11,53.0,WA,53005.0,Benton County,56359.0,145518.0,461062.0,88490.0,130241.0,66414.0,88275.0,46749.0,21345.0,9797.0,8239.0,1305.0,207.0
910469,County,2020/10/12,53.0,WA,53005.0,Benton County,51116.0,150761.0,531473.0,115328.0,133019.0,68587.0,97858.0,65186.0,33557.0,10769.0,6136.0,842.0,191.0
916236,County,2020/10/13,53.0,WA,53005.0,Benton County,51206.0,150671.0,526995.0,107397.0,130979.0,70715.0,97451.0,66682.0,35114.0,11567.0,5828.0,982.0,280.0
916887,County,2020/10/14,53.0,WA,53005.0,Benton County,47668.0,154209.0,552436.0,116685.0,141574.0,71920.0,104560.0,64967.0,33260.0,11283.0,6836.0,1032.0,319.0
920157,County,2020/10/15,53.0,WA,53005.0,Benton County,50842.0,151035.0,507507.0,99425.0,127941.0,62180.0,100454.0,63787.0,33157.0,12460.0,6674.0,1103.0,326.0
923343,County,2020/10/16,53.0,WA,53005.0,Benton County,48287.0,153590.0,562263.0,119247.0,143529.0,79966.0,106853.0,66197.0,24679.0,13106.0,7235.0,1033.0,418.0
926551,County,2020/10/17,53.0,WA,53005.0,Benton County,51765.0,150112.0,539976.0,113672.0,151886.0,75050.0,96170.0,60212.0,23151.0,12226.0,6004.0,1156.0,449.0
929659,County,2020/10/18,53.0,WA,53005.0,Benton County,55899.0,145978.0,483229.0,104979.0,134413.0,61310.0,82453.0,56531.0,20192.0,14402.0,7587.0,1127.0,235.0
933214,County,2020/10/19,53.0,WA,53005.0,Benton County,50544.0,151333.0,545413.0,122996.0,139463.0,68705.0,103363.0,62265.0,30606.0,10695.0,6215.0,801.0,304.0
936054,County,2020/10/20,53.0,WA,53005.0,Benton County,50993.0,150884.0,544956.0,121942.0,146043.0,70256.0,95722.0,60270.0,31393.0,12636.0,5632.0,808.0,254.0
939641,County,2020/10/21,53.0,WA,53005.0,Benton County,52959.0,148918.0,522019.0,110172.0,140403.0,68902.0,90937.0,60324.0,32167.0,11627.0,6189.0,1031.0,267.0
942820,County,2020/10/22,53.0,WA,53005.0,Benton County,50387.0,151490.0,579832.0,126937.0,147971.0,76974.0,100196.0,73033.0,33485.0,13916.0,6067.0,1023.0,230.0
945587,County,2020/10/23,53.0,WA,53005.0,Benton County,47950.0,153927.0,607662.0,131093.0,156186.0,77899.0,114490.0,75860.0,29907.0,13349.0,7725.0,927.0,226.0
948730,County,2020/10/24,53.0,WA,53005.0,Benton County,53547.0,148330.0,572686.0,127640.0,150402.0,81054.0,98839.0,67476.0,27144.0,14196.0,4920.0,775.0,240.0
