,Level,Date,State FIPS,State Postal Code,County FIPS,County Name,Population Staying at Home,Population Not Staying at Home,Number of Trips,Number of Trips <1,Number of Trips 1-3,Number of Trips 3-5,Number of Trips 5-10,Number of Trips 10-25,Number of Trips 25-50,Number of Trips 50-100,Number of Trips 100-250,Number of Trips 250-500,Number of Trips >=500
2060,County,2020/01/01,39.0,OH,39037.0,Darke County,12837.0,38486.0,144931.0,37451.0,32398.0,13538.0,21302.0,26277.0,10140.0,2355.0,1000.0,377.0,93.0
4965,County,2020/01/02,39.0,OH,39037.0,Darke County,9675.0,41648.0,177563.0,38901.0,41302.0,17754.0,23084.0,32519.0,18217.0,3959.0,1524.0,218.0,85.0
9336,County,2020/01/03,39.0,OH,39037.0,Darke County,9485.0,41838.0,195285.0,43907.0,48663.0,19600.0,23332.0,35618.0,17741.0,4351.0,1666.0,315.0,92.0
11661,County,2020/01/04,39.0,OH,39037.0,Darke County,10185.0,41138.0,168511.0,44085.0,36144.0,13704.0,20860.0,32086.0,16458.0,3437.0,1308.0,332.0,97.0
14836,County,2020/01/05,39.0,OH,39037.0,Darke County,11713.0,39610.0,153871.0,34912.0,38291.0,15558.0,19625.0,29505.0,12209.0,2591.0,924.0,209.0,47.0
17001,County,2020/01/06,39.0,OH,39037.0,Darke County,9718.0,41605.0,186096.0,45468.0,43119.0,17409.0,22345.0,34366.0,17760.0,3924.0,1285.0,236.0,184.0
21762,County,2020/01/07,39.0,OH,39037.0,Darke County,9344.0,41979.0,188171.0,44446.0,45810.0,16833.0,21540.0,35892.0,18705.0,3675.0,929.0,197.0,144.0
24957,County,2020/01/08,39.0,OH,39037.0,Darke County,8846.0,42477.0,198667.0,53126.0,44878.0,18465.0,22341.0,35437.0,19499.0,3249.0,1363.0,195.0,114.0
26584,County,2020/01/09,39.0,OH,39037.0,Darke County,9364.0,41959.0,193249.0,48203.0,44160.0,15802.0,23944.0,35738.0,19403.0,4088.0,1485.0,280.0,146.0
29780,County,2020/01/10,39.0,OH,39037.0,Darke County,8739.0,42584.0,204394.0,49237.0,50491.0,19315.0,24054.0,36412.0,18873.0,4444.0,1306.0,253.0,9.0
33021,County,2020/01/11,39.0,OH,39037.0,Darke County,10059.0,41264.0,183498.0,42734.0,45103.0,17771.0,23952.0,32572.0,16877.0,3056.0,1254.0,170.0,9.0
37708,County,2020/01/12,39.0,OH,39037.0,Darke County,11054.0,40269.0,170179.0,42442.0,37571.0,16943.0,23612.0,31931.0,12994.0,2961.0,1241.0,348.0,136.0
40955,County,2020/01/13,39.0,OH,39037.0,Darke County,9528.0,41795.0,182275.0,44238.0,43623.0,17592.0,21838.0,33316.0,16904.0,3043.0,1321.0,308.0,92.0
42581,County,2020/01/14,39.0,OH,39037.0,Darke County,9357.0,41966.0,194402.0,45327.0,48394.0,17617.0,23350.0,33987.0,20784.0,3704.0,1095.0,144.0,0.0
45734,County,2020/01/15,39.0,OH,39037.0,Darke County,9514.0,41809.0,189196.0,44132.0,47119.0,18732.0,22022.0,33180.0,18305.0,4202.0,1186.0,262.0,56.0
48838,County,2020/01/16,39.0,OH,39037.0,Darke County,9279.0,42044.0,183642.0,41813.0,44389.0,15368.0,22411.0,34395.0,19823.0,3698.0,1416.0,283.0,46.0
53753,County,2020/01/17,39.0,OH,39037.0,Darke County,8886.0,42437.0,202425.0,48917.0,51132.0,19672.0,23748.0,35692.0,18170.0,3387.0,1496.0,152.0,59.0
55326,County,2020/01/18,39.0,OH,39037.0,Darke County,10874.0,40449.0,182193.0,44266.0,48772.0,16542.0,22098.0,31896.0,13985.0,2853.0,1491.0,147.0,143.0
58523,County,2020/01/19,39.0,OH,39037.0,Darke County,11652.0,39671.0,170321.0,45776.0,38939.0,15129.0,23468.0,30367.0,12308.0,2608.0,1123.0,513.0,90.0
63285,County,2020/01/20,39.0,OH,39037.0,Darke County,9986.0,41337.0,177700.0,42641.0,41534.0,16308.0,21327.0,34426.0,16202.0,3881.0,1186.0,167.0,28.0
64912,County,2020/01/21,39.0,OH,39037.0,Darke County,9424.0,41899.0,185602.0,43804.0,43958.0,18217.0,24338.0,30625.0,19526.0,3597.0,1344.0,93.0,100.0
69672,County,2020/01/22,39.0,OH,39037.0,Darke County,8862.0,42461.0,196855.0,44706.0,48685.0,20487.0,23275.0,34618.0,19459.0,4066.0,1259.0,236.0,64.0
71298,County,2020/01/23,39.0,OH,39037.0,Darke County,9652.0,41671.0,195069.0,50127.0,45558.0,18278.0,23643.0,34198.0,18255.0,3489.0,1137.0,314.0,70.0
74495,County,2020/01/24,39.0,OH,39037.0,Darke County,9133.0,42190.0,201833.0,49469.0,50492.0,17422.0,23996.0,36962.0,17339.0,4205.0,1585.0,286.0,77.0
77688,County,2020/01/25,39.0,OH,39037.0,Darke County,10587.0,40736.0,176037.0,37316.0,46496.0,17240.0,21762.0,30531.0,16512.0,4159.0,1530.0,415.0,76.0
81910,County,2020/01/26,39.0,OH,39037.0,Darke County,11177.0,40146.0,158575.0,35624.0,37946.0,14964.0,22049.0,32013.0,11134.0,2876.0,1404.0,481.0,84.0
85611,County,2020/01/27,39.0,OH,39037.0,Darke County,9413.0,41910.0,185140.0,43614.0,45016.0,17309.0,22566.0,33156.0,18405.0,3537.0,1169.0,290.0,78.0
89367,County,2020/01/28,39.0,OH,39037.0,Darke County,9354.0,41969.0,182772.0,44666.0,41913.0,15929.0,23429.0,32823.0,18945.0,3271.0,1465.0,263.0,68.0
92017,County,2020/01/29,39.0,OH,39037.0,Darke County,9633.0,41690.0,187713.0,45099.0,45740.0,16179.0,22299.0,36427.0,17352.0,3228.0,1006.0,276.0,107.0
93792,County,2020/01/30,39.0,OH,39037.0,Darke County,9379.0,41944.0,191110.0,40690.0,48570.0,17889.0,24302.0,36011.0,18230.0,3275.0,1712.0,329.0,102.0
98417,County,2020/01/31,39.0,OH,39037.0,Darke County,9021.0,42302.0,197892.0,47093.0,49430.0,17782.0,23975.0,36313.0,17061.0,4274.0,1654.0,223.0,87.0
101605,County,2020/02/01,39.0,OH,39037.0,Darke County,9394.0,41929.0,187710.0,41077.0,47202.0,17268.0,23853.0,33621.0,18644.0,4136.0,1452.0,329.0,128.0
103224,County,2020/02/02,39.0,OH,39037.0,Darke County,10738.0,40585.0,175132.0,39663.0,44479.0,16733.0,24805.0,31813.0,13167.0,2693.0,1315.0,315.0,149.0
106433,County,2020/02/03,39.0,OH,39037.0,Darke County,9349.0,41974.0,192403.0,45112.0,47160.0,18094.0,24058.0,34594.0,17617.0,3704.0,1670.0,266.0,128.0
111195,County,2020/02/04,39.0,OH,39037.0,Darke County,9177.0,42146.0,184800.0,41506.0,43602.0,18503.0,24820.0,33805.0,17421.0,3363.0,1474.0,237.0,69.0
112773,County,2020/02/05,39.0,OH,39037.0,Darke County,8806.0,42517.0,181838.0,38722.0,44879.0,17708.0,23168.0,32777.0,18065.0,4283.0,1792.0,341.0,103.0
115917,County,2020/02/06,39.0,OH,39037.0,Darke County,9461.0,41862.0,176796.0,40913.0,45314.0,16626.0,19403.0,31599.0,16636.0,4031.0,1913.0,281.0,80.0
119183,County,2020/02/07,39.0,OH,39037.0,Darke County,8330.0,42993.0,200685.0,45414.0,49766.0,18661.0,23806.0,38017.0,19043.0,3756.0,1811.0,275.0,136.0
122429,County,2020/02/08,39.0,OH,39037.0,Darke County,10023.0,41300.0,189041.0,42827.0,45249.0,17647.0,25089.0,36162.0,16351.0,3765.0,1600.0,258.0,93.0
126074,County,2020/02/09,39.0,OH,39037.0,Darke County,12244.0,39079.0,144468.0,29307.0,35939.0,15338.0,21538.0,26961.0,11020.0,2432.0,1382.0,373.0,178.0
130369,County,2020/02/10,39.0,OH,39037.0,Darke County,9235.0,42088.0,178912.0,37950.0,46007.0,17801.0,21626.0,33022.0,16339.0,3595.0,1973.0,371.0,228.0
132476,County,2020/02/11,39.0,OH,39037.0,Darke County,8615.0,42708.0,194672.0,46953.0,47181.0,16957.0,22913.0,36384.0,18061.0,3851.0,1850.0,420.0,102.0
136717,County,2020/02/12,39.0,OH,39037.0,Darke County,8964.0,42359.0,194439.0,48558.0,50390.0,17410.0,21691.0,32280.0,17287.0,4089.0,2084.0,518.0,132.0
138412,County,2020/02/13,39.0,OH,39037.0,Darke County,9107.0,42216.0,170408.0,38754.0,41002.0,15793.0,19232.0,32977.0,16323.0,3399.0,2147.0,577.0,204.0
141470,County,2020/02/14,39.0,OH,39037.0,Darke County,8522.0,42801.0,197691.0,43239.0,46193.0,18773.0,24301.0,38100.0,20484.0,4039.0,1907.0,426.0,229.0
144766,County,2020/02/15,39.0,OH,39037.0,Darke County,9200.0,42123.0,185910.0,41075.0,42557.0,16559.0,24079.0,36120.0,19272.0,3943.0,1759.0,361.0,185.0
147955,County,2020/02/16,39.0,OH,39037.0,Darke County,10991.0,40332.0,161901.0,33536.0,40912.0,14469.0,23031.0,30965.0,13146.0,3348.0,1904.0,401.0,189.0
151180,County,2020/02/17,39.0,OH,39037.0,Darke County,12361.0,38962.0,145499.0,33297.0,32673.0,13142.0,18984.0,28189.0,13043.0,3577.0,1751.0,640.0,203.0
155910,County,2020/02/18,39.0,OH,39037.0,Darke County,8890.0,42433.0,183424.0,42259.0,42172.0,16872.0,23086.0,33099.0,19403.0,3741.0,1976.0,666.0,150.0
157538,County,2020/02/19,39.0,OH,39037.0,Darke County,8478.0,42845.0,189109.0,41492.0,44867.0,18128.0,24662.0,36879.0,16977.0,3953.0,1609.0,396.0,146.0
160599,County,2020/02/20,39.0,OH,39037.0,Darke County,8804.0,42519.0,185982.0,44151.0,42254.0,17164.0,23501.0,34488.0,18251.0,4051.0,1819.0,224.0,79.0
165493,County,2020/02/21,39.0,OH,39037.0,Darke County,8391.0,42932.0,200402.0,44120.0,47626.0,17603.0,23731.0,38305.0,21343.0,5466.0,1877.0,238.0,93.0
167071,County,2020/02/22,39.0,OH,39037.0,Darke County,8897.0,42426.0,198781.0,44336.0,48391.0,16549.0,24232.0,36766.0,20014.0,6073.0,2014.0,279.0,127.0
171886,County,2020/02/23,39.0,OH,39037.0,Darke County,10561.0,40762.0,165046.0,39268.0,40254.0,13721.0,21442.0,30973.0,13822.0,3627.0,1471.0,357.0,111.0
175080,County,2020/02/24,39.0,OH,39037.0,Darke County,9097.0,42226.0,180885.0,43849.0,43995.0,15584.0,20703.0,33512.0,17404.0,3736.0,1483.0,406.0,213.0
177731,County,2020/02/25,39.0,OH,39037.0,Darke County,8346.0,42977.0,187239.0,42395.0,40957.0,18831.0,24905.0,34271.0,19658.0,4153.0,1295.0,551.0,223.0
180924,County,2020/02/26,39.0,OH,39037.0,Darke County,10050.0,41273.0,171554.0,33172.0,44315.0,22340.0,24626.0,27952.0,11394.0,4595.0,2100.0,979.0,81.0
182488,County,2020/02/27,39.0,OH,39037.0,Darke County,8872.0,42451.0,171488.0,35587.0,39356.0,16445.0,21430.0,35059.0,17659.0,3856.0,1572.0,395.0,129.0
187899,County,2020/02/28,39.0,OH,39037.0,Darke County,7760.0,43563.0,201432.0,46530.0,45349.0,19001.0,25845.0,38190.0,20144.0,4946.0,971.0,288.0,168.0
189430,County,2020/02/29,39.0,OH,39037.0,Darke County,8895.0,42428.0,199161.0,43077.0,44960.0,18150.0,25020.0,39628.0,21834.0,4784.0,1273.0,353.0,82.0
192669,County,2020/03/01,39.0,OH,39037.0,Darke County,10208.0,41115.0,174286.0,44705.0,41077.0,14952.0,22772.0,33771.0,12000.0,3492.0,842.0,462.0,213.0
195892,County,2020/03/02,39.0,OH,39037.0,Darke County,9072.0,42251.0,196599.0,45487.0,44898.0,20580.0,23979.0,36234.0,18758.0,4643.0,1398.0,422.0,200.0
199048,County,2020/03/03,39.0,OH,39037.0,Darke County,8327.0,42996.0,195519.0,49306.0,43659.0,18766.0,23186.0,33690.0,19524.0,5065.0,1795.0,360.0,168.0
201377,County,2020/03/04,39.0,OH,39037.0,Darke County,8777.0,42546.0,209460.0,51199.0,51072.0,17895.0,26193.0,35028.0,20652.0,5068.0,1786.0,462.0,105.0
205397,County,2020/03/05,39.0,OH,39037.0,Darke County,8104.0,43219.0,206262.0,48972.0,47277.0,18983.0,25698.0,37479.0,19858.0,5622.0,1863.0,398.0,112.0
210248,County,2020/03/06,39.0,OH,39037.0,Darke County,8206.0,43117.0,201650.0,44747.0,47280.0,20766.0,25562.0,37043.0,18917.0,4753.0,2031.0,407.0,144.0
211866,County,2020/03/07,39.0,OH,39037.0,Darke County,9310.0,42013.0,219030.0,54689.0,51915.0,20681.0,26483.0,37110.0,18677.0,6506.0,2354.0,479.0,136.0
216592,County,2020/03/08,39.0,OH,39037.0,Darke County,10463.0,40860.0,183766.0,44328.0,41515.0,20191.0,23494.0,32954.0,14310.0,4461.0,1544.0,833.0,136.0
219790,County,2020/03/09,39.0,OH,39037.0,Darke County,9158.0,42165.0,197276.0,47608.0,46374.0,21781.0,23206.0,33938.0,18026.0,3796.0,1934.0,501.0,112.0
222983,County,2020/03/10,39.0,OH,39037.0,Darke County,9079.0,42244.0,194007.0,45958.0,45066.0,20096.0,23703.0,33173.0,18181.0,5303.0,1895.0,435.0,197.0
226213,County,2020/03/11,39.0,OH,39037.0,Darke County,9640.0,41683.0,168958.0,36544.0,37920.0,24783.0,21373.0,29249.0,9816.0,5406.0,2355.0,1123.0,389.0
227842,County,2020/03/12,39.0,OH,39037.0,Darke County,9829.0,41494.0,193156.0,37974.0,45562.0,27752.0,27979.0,35586.0,9902.0,4308.0,3092.0,720.0,281.0
231001,County,2020/03/13,39.0,OH,39037.0,Darke County,9475.0,41848.0,164883.0,27919.0,36012.0,22313.0,22317.0,34813.0,13692.0,4330.0,2487.0,755.0,245.0
234151,County,2020/03/14,39.0,OH,39037.0,Darke County,11475.0,39848.0,153332.0,28910.0,36108.0,24662.0,23576.0,22759.0,9280.0,4318.0,2244.0,1100.0,375.0
237387,County,2020/03/15,39.0,OH,39037.0,Darke County,13104.0,38219.0,161942.0,31699.0,42762.0,17079.0,24644.0,30581.0,9679.0,3553.0,1256.0,457.0,232.0
242148,County,2020/03/16,39.0,OH,39037.0,Darke County,11029.0,40294.0,187783.0,39130.0,47779.0,20136.0,23745.0,35451.0,15312.0,4220.0,1435.0,445.0,130.0
243764,County,2020/03/17,39.0,OH,39037.0,Darke County,12149.0,39174.0,174328.0,41976.0,38988.0,15994.0,20274.0,30711.0,19657.0,4150.0,2186.0,347.0,45.0
248495,County,2020/03/18,39.0,OH,39037.0,Darke County,12518.0,38805.0,162087.0,36299.0,35022.0,14596.0,21433.0,32812.0,16165.0,3803.0,1331.0,517.0,109.0
251701,County,2020/03/19,39.0,OH,39037.0,Darke County,12907.0,38416.0,162398.0,38898.0,37803.0,15200.0,19559.0,29546.0,15363.0,3741.0,1588.0,616.0,84.0
254925,County,2020/03/20,39.0,OH,39037.0,Darke County,12460.0,38863.0,175074.0,39279.0,43044.0,18280.0,22242.0,31236.0,14498.0,4561.0,1622.0,255.0,57.0
256502,County,2020/03/21,39.0,OH,39037.0,Darke County,14264.0,37059.0,155521.0,38805.0,38671.0,17394.0,19974.0,27849.0,8447.0,2879.0,1278.0,88.0,136.0
261305,County,2020/03/22,39.0,OH,39037.0,Darke County,13968.0,37355.0,142073.0,40821.0,34537.0,14109.0,17957.0,23834.0,7091.0,2424.0,735.0,495.0,70.0
262942,County,2020/03/23,39.0,OH,39037.0,Darke County,11915.0,39408.0,153826.0,38774.0,36682.0,15357.0,20201.0,26360.0,12474.0,2605.0,748.0,557.0,68.0
266094,County,2020/03/24,39.0,OH,39037.0,Darke County,13568.0,37755.0,144826.0,39503.0,30840.0,13377.0,18004.0,25934.0,13253.0,2628.0,960.0,280.0,47.0
270895,County,2020/03/25,39.0,OH,39037.0,Darke County,13287.0,38036.0,156234.0,45037.0,35928.0,14212.0,18628.0,25206.0,13064.0,2517.0,1378.0,157.0,107.0
272521,County,2020/03/26,39.0,OH,39037.0,Darke County,12345.0,38978.0,147012.0,36167.0,35213.0,14378.0,18024.0,26232.0,12474.0,2475.0,1450.0,507.0,92.0
277284,County,2020/03/27,39.0,OH,39037.0,Darke County,12751.0,38572.0,134018.0,29804.0,32978.0,12208.0,16154.0,24816.0,12456.0,3454.0,1739.0,284.0,125.0
280469,County,2020/03/28,39.0,OH,39037.0,Darke County,13186.0,38137.0,129324.0,29035.0,36134.0,13507.0,17550.0,22437.0,6296.0,2735.0,1399.0,166.0,65.0
282104,County,2020/03/29,39.0,OH,39037.0,Darke County,14948.0,36375.0,111092.0,22601.0,29808.0,13083.0,16214.0,19994.0,5233.0,2119.0,1844.0,129.0,67.0
286896,County,2020/03/30,39.0,OH,39037.0,Darke County,12214.0,39109.0,140757.0,34778.0,33798.0,12965.0,15925.0,25524.0,12560.0,3240.0,1517.0,333.0,117.0
288494,County,2020/03/31,39.0,OH,39037.0,Darke County,13446.0,37877.0,133763.0,30090.0,30663.0,13067.0,17366.0,25960.0,11618.0,3145.0,1355.0,338.0,161.0
291729,County,2020/04/01,39.0,OH,39037.0,Darke County,12996.0,38327.0,138158.0,32162.0,32304.0,13504.0,16263.0,27585.0,12058.0,2459.0,1350.0,402.0,71.0
294880,County,2020/04/02,39.0,OH,39037.0,Darke County,13192.0,38131.0,144609.0,39614.0,32357.0,13365.0,17543.0,24776.0,12733.0,2383.0,1206.0,455.0,177.0
299640,County,2020/04/03,39.0,OH,39037.0,Darke County,12068.0,39255.0,164785.0,44549.0,38434.0,15597.0,20122.0,28592.0,12621.0,3321.0,1192.0,208.0,149.0
301267,County,2020/04/04,39.0,OH,39037.0,Darke County,13685.0,37638.0,151619.0,47771.0,34670.0,13190.0,18649.0,25598.0,7434.0,2558.0,1302.0,311.0,136.0
304448,County,2020/04/05,39.0,OH,39037.0,Darke County,14960.0,36363.0,115780.0,30377.0,30625.0,10864.0,15774.0,18638.0,5566.0,2363.0,1193.0,287.0,93.0
309222,County,2020/04/06,39.0,OH,39037.0,Darke County,12399.0,38924.0,158794.0,43163.0,37242.0,15673.0,19631.0,27440.0,11150.0,3091.0,1152.0,181.0,71.0
310849,County,2020/04/07,39.0,OH,39037.0,Darke County,12953.0,38370.0,146084.0,41743.0,27612.0,13999.0,18209.0,27366.0,12345.0,3494.0,1125.0,177.0,14.0
314044,County,2020/04/08,39.0,OH,39037.0,Darke County,12524.0,38799.0,142845.0,33796.0,33377.0,12820.0,17628.0,29325.0,11877.0,2657.0,1065.0,235.0,65.0
318803,County,2020/04/09,39.0,OH,39037.0,Darke County,13222.0,38101.0,148906.0,36362.0,32502.0,16060.0,20265.0,27105.0,13076.0,2394.0,786.0,267.0,89.0
321999,County,2020/04/10,39.0,OH,39037.0,Darke County,12581.0,38742.0,144048.0,32825.0,37678.0,14134.0,20674.0,24649.0,10427.0,2460.0,976.0,118.0,107.0
323674,County,2020/04/11,39.0,OH,39037.0,Darke County,13091.0,38232.0,163843.0,46645.0,39112.0,16636.0,24516.0,25648.0,8542.0,1762.0,810.0,157.0,15.0
328359,County,2020/04/12,39.0,OH,39037.0,Darke County,16020.0,35303.0,111737.0,27648.0,29150.0,13157.0,18040.0,17949.0,3228.0,1696.0,433.0,420.0,16.0
331581,County,2020/04/13,39.0,OH,39037.0,Darke County,13208.0,38115.0,131082.0,27895.0,31487.0,13043.0,18315.0,23965.0,12647.0,2536.0,847.0,316.0,31.0
334756,County,2020/04/14,39.0,OH,39037.0,Darke County,12812.0,38511.0,149019.0,29147.0,39507.0,15831.0,21955.0,26322.0,11361.0,2570.0,1787.0,362.0,177.0
336433,County,2020/04/15,39.0,OH,39037.0,Darke County,12064.0,39259.0,141727.0,27840.0,34145.0,18523.0,19695.0,25174.0,11500.0,2940.0,1486.0,394.0,30.0
339587,County,2020/04/16,39.0,OH,39037.0,Darke County,13236.0,38087.0,138870.0,29198.0,34266.0,17448.0,17165.0,24310.0,11311.0,3609.0,877.0,650.0,36.0
344366,County,2020/04/17,39.0,OH,39037.0,Darke County,12019.0,39304.0,144237.0,35647.0,35274.0,15280.0,20909.0,22135.0,8324.0,5041.0,1201.0,329.0,97.0
347513,County,2020/04/18,39.0,OH,39037.0,Darke County,13709.0,37614.0,158575.0,39118.0,41644.0,18077.0,23192.0,24494.0,8416.0,2135.0,1051.0,408.0,40.0
349165,County,2020/04/19,39.0,OH,39037.0,Darke County,13787.0,37536.0,133356.0,27698.0,35652.0,19535.0,18785.0,20877.0,5713.0,3038.0,1657.0,203.0,198.0
352371,County,2020/04/20,39.0,OH,39037.0,Darke County,12723.0,38600.0,139697.0,25345.0,35070.0,27528.0,16602.0,19763.0,9600.0,4109.0,1180.0,500.0,0.0
357131,County,2020/04/21,39.0,OH,39037.0,Darke County,12000.0,39323.0,163305.0,44605.0,36121.0,16871.0,20286.0,28693.0,13061.0,2575.0,791.0,240.0,62.0
360286,County,2020/04/22,39.0,OH,39037.0,Darke County,11171.0,40152.0,165728.0,42571.0,42925.0,15412.0,20420.0,27593.0,11967.0,3653.0,880.0,276.0,31.0
361865,County,2020/04/23,39.0,OH,39037.0,Darke County,12250.0,39073.0,158170.0,39225.0,38323.0,16290.0,18904.0,27270.0,13501.0,3464.0,723.0,421.0,49.0
366753,County,2020/04/24,39.0,OH,39037.0,Darke County,10810.0,40513.0,180012.0,49408.0,46176.0,17757.0,17873.0,31133.0,12921.0,3511.0,976.0,227.0,30.0
369909,County,2020/04/25,39.0,OH,39037.0,Darke County,12645.0,38678.0,170452.0,47867.0,40136.0,21849.0,23327.0,24446.0,8893.0,2987.0,822.0,125.0,0.0
371501,County,2020/04/26,39.0,OH,39037.0,Darke County,13517.0,37806.0,135745.0,34554.0,32736.0,17631.0,19114.0,22261.0,7176.0,1356.0,606.0,252.0,59.0
376335,County,2020/04/27,39.0,OH,39037.0,Darke County,11774.0,39549.0,165763.0,40830.0,46371.0,15026.0,22175.0,25510.0,12447.0,2585.0,709.0,79.0,31.0
379457,County,2020/04/28,39.0,OH,39037.0,Darke County,11542.0,39781.0,171086.0,47581.0,40936.0,18107.0,20872.0,25448.0,14028.0,2914.0,803.0,351.0,46.0
381132,County,2020/04/29,39.0,OH,39037.0,Darke County,11813.0,39510.0,156636.0,38453.0,40070.0,14783.0,19238.0,26960.0,12899.0,2998.0,945.0,275.0,15.0
385878,County,2020/04/30,39.0,OH,39037.0,Darke County,11464.0,39859.0,166546.0,41375.0,37779.0,15999.0,20671.0,30391.0,16256.0,2783.0,1088.0,158.0,46.0
389115,County,2020/05/01,39.0,OH,39037.0,Darke County,10662.0,40661.0,184620.0,51992.0,43908.0,16806.0,22189.0,29976.0,15136.0,3489.0,859.0,222.0,43.0
390687,County,2020/05/02,39.0,OH,39037.0,Darke County,11415.0,39908.0,189298.0,56293.0,47390.0,19989.0,25339.0,26125.0,11122.0,2218.0,402.0,390.0,30.0
393900,County,2020/05/03,39.0,OH,39037.0,Darke County,12742.0,38581.0,155759.0,39077.0,39766.0,18362.0,20371.0,25587.0,9381.0,2259.0,730.0,189.0,37.0
398654,County,2020/05/04,39.0,OH,39037.0,Darke County,10508.0,40815.0,169256.0,41572.0,36735.0,18450.0,23144.0,29410.0,15369.0,3107.0,1038.0,416.0,15.0
401830,County,2020/05/05,39.0,OH,39037.0,Darke County,10885.0,40438.0,163730.0,39443.0,37334.0,14795.0,20748.0,30359.0,16097.0,3487.0,1017.0,407.0,43.0
403460,County,2020/05/06,39.0,OH,39037.0,Darke County,10417.0,40906.0,187023.0,52296.0,40676.0,18377.0,22397.0,32634.0,15338.0,3971.0,863.0,359.0,112.0
408180,County,2020/05/07,39.0,OH,39037.0,Darke County,11043.0,40280.0,176903.0,46370.0,38992.0,15421.0,23030.0,31364.0,17386.0,3034.0,716.0,435.0,155.0
409967,County,2020/05/08,39.0,OH,39037.0,Darke County,10605.0,40718.0,170802.0,43546.0,40145.0,13777.0,22576.0,31772.0,13679.0,3582.0,1203.0,479.0,43.0
414589,County,2020/05/09,39.0,OH,39037.0,Darke County,11982.0,39341.0,187871.0,50641.0,45203.0,20722.0,25221.0,30789.0,11803.0,2432.0,752.0,292.0,16.0
416251,County,2020/05/10,39.0,OH,39037.0,Darke County,12303.0,39020.0,146718.0,35399.0,36744.0,18905.0,17998.0,23762.0,9871.0,2486.0,1190.0,317.0,46.0
419494,County,2020/05/11,39.0,OH,39037.0,Darke County,9671.0,41652.0,167933.0,39169.0,40312.0,16934.0,20452.0,30861.0,15096.0,3404.0,1153.0,431.0,121.0
424254,County,2020/05/12,39.0,OH,39037.0,Darke County,9607.0,41716.0,194120.0,52877.0,45522.0,18714.0,23093.0,32748.0,16147.0,3352.0,1175.0,354.0,138.0
427400,County,2020/05/13,39.0,OH,39037.0,Darke County,9267.0,42056.0,187435.0,50500.0,43623.0,19085.0,23210.0,30646.0,15291.0,3624.0,1041.0,233.0,182.0
430594,County,2020/05/14,39.0,OH,39037.0,Darke County,9566.0,41757.0,167837.0,42679.0,37859.0,14764.0,20607.0,31005.0,15310.0,3715.0,1482.0,299.0,117.0
432223,County,2020/05/15,39.0,OH,39037.0,Darke County,9112.0,42211.0,171888.0,41238.0,39376.0,17201.0,22979.0,30408.0,15099.0,3792.0,1190.0,376.0,229.0
436972,County,2020/05/16,39.0,OH,39037.0,Darke County,9958.0,41365.0,183358.0,53086.0,40437.0,18407.0,25823.0,30801.0,9927.0,3175.0,1011.0,512.0,179.0
438599,County,2020/05/17,39.0,OH,39037.0,Darke County,10595.0,40728.0,164701.0,44800.0,40659.0,17292.0,24182.0,25305.0,8825.0,2112.0,1078.0,366.0,82.0
441844,County,2020/05/18,39.0,OH,39037.0,Darke County,7735.0,43588.0,181619.0,42446.0,44145.0,20532.0,20253.0,33124.0,16741.0,3289.0,756.0,264.0,69.0
444998,County,2020/05/19,39.0,OH,39037.0,Darke County,8614.0,42709.0,168757.0,43661.0,36045.0,15757.0,18470.0,30211.0,17974.0,4981.0,1353.0,270.0,35.0
449759,County,2020/05/20,39.0,OH,39037.0,Darke County,8345.0,42978.0,194336.0,47471.0,45340.0,19478.0,23735.0,34438.0,18257.0,4335.0,1128.0,136.0,18.0
451385,County,2020/05/21,39.0,OH,39037.0,Darke County,8081.0,43242.0,198584.0,50626.0,43005.0,19548.0,26312.0,36054.0,16378.0,4642.0,1676.0,222.0,121.0
454572,County,2020/05/22,39.0,OH,39037.0,Darke County,7744.0,43579.0,219160.0,59971.0,46670.0,21019.0,27597.0,38440.0,18401.0,4760.0,1633.0,531.0,138.0
459356,County,2020/05/23,39.0,OH,39037.0,Darke County,9191.0,42132.0,203365.0,56628.0,45995.0,22665.0,28307.0,31914.0,12414.0,3759.0,1162.0,483.0,38.0
460936,County,2020/05/24,39.0,OH,39037.0,Darke County,10262.0,41061.0,166268.0,47758.0,34065.0,18153.0,25195.0,26957.0,9262.0,3034.0,902.0,644.0,298.0
465813,County,2020/05/25,39.0,OH,39037.0,Darke County,10583.0,40740.0,152732.0,40741.0,35861.0,16564.0,19794.0,25215.0,9872.0,2718.0,1061.0,652.0,254.0
467342,County,2020/05/26,39.0,OH,39037.0,Darke County,8891.0,42432.0,176592.0,41369.0,40999.0,19622.0,22876.0,29260.0,17143.0,3102.0,1363.0,635.0,223.0
470549,County,2020/05/27,39.0,OH,39037.0,Darke County,9196.0,42127.0,177708.0,43362.0,40266.0,17333.0,23201.0,31888.0,16163.0,3854.0,1164.0,356.0,121.0
475310,County,2020/05/28,39.0,OH,39037.0,Darke County,9591.0,41732.0,172462.0,42297.0,39795.0,16612.0,20936.0,32044.0,15399.0,3695.0,1356.0,275.0,53.0
478499,County,2020/05/29,39.0,OH,39037.0,Darke County,10345.0,40978.0,172189.0,42739.0,38487.0,17387.0,20668.0,31053.0,16100.0,3895.0,1506.0,284.0,70.0
481699,County,2020/05/30,39.0,OH,39037.0,Darke County,10958.0,40365.0,180468.0,50443.0,43847.0,15948.0,21951.0,30557.0,13533.0,3001.0,834.0,291.0,63.0
483255,County,2020/05/31,39.0,OH,39037.0,Darke County,11685.0,39638.0,154838.0,39322.0,34997.0,15513.0,21257.0,28715.0,10530.0,2734.0,1513.0,166.0,91.0
488145,County,2020/06/01,39.0,OH,39037.0,Darke County,9037.0,42286.0,186169.0,52334.0,43247.0,17209.0,20925.0,32071.0,14382.0,4152.0,1171.0,536.0,142.0
489713,County,2020/06/02,39.0,OH,39037.0,Darke County,9600.0,41723.0,173019.0,45182.0,38745.0,16287.0,22844.0,28891.0,15143.0,4075.0,1223.0,466.0,163.0
494474,County,2020/06/03,39.0,OH,39037.0,Darke County,8039.0,43284.0,188885.0,47833.0,42518.0,19376.0,25417.0,32580.0,15489.0,3608.0,1320.0,619.0,125.0
496093,County,2020/06/04,39.0,OH,39037.0,Darke County,9054.0,42269.0,179750.0,45712.0,40464.0,16690.0,23304.0,32497.0,15003.0,4070.0,1459.0,442.0,109.0
500869,County,2020/06/05,39.0,OH,39037.0,Darke County,8883.0,42440.0,188137.0,48406.0,40820.0,18687.0,23717.0,34676.0,15558.0,4248.0,1391.0,498.0,136.0
502443,County,2020/06/06,39.0,OH,39037.0,Darke County,10392.0,40931.0,160048.0,38072.0,39586.0,15844.0,19715.0,31213.0,10119.0,3966.0,1099.0,312.0,122.0
507220,County,2020/06/07,39.0,OH,39037.0,Darke County,10908.0,40415.0,144308.0,30127.0,33302.0,16927.0,23639.0,26906.0,8761.0,2614.0,1444.0,471.0,117.0
508858,County,2020/06/08,39.0,OH,39037.0,Darke County,9118.0,42205.0,181127.0,42401.0,42405.0,18943.0,22084.0,33575.0,16276.0,4097.0,923.0,316.0,107.0
513636,County,2020/06/09,39.0,OH,39037.0,Darke County,8726.0,42597.0,172051.0,43139.0,40799.0,17145.0,19404.0,31950.0,15247.0,2867.0,1022.0,375.0,103.0
516841,County,2020/06/10,39.0,OH,39037.0,Darke County,8975.0,42348.0,171222.0,45179.0,37896.0,17862.0,20813.0,29900.0,14100.0,3308.0,1500.0,419.0,245.0
519998,County,2020/06/11,39.0,OH,39037.0,Darke County,8673.0,42650.0,188186.0,45666.0,45604.0,19073.0,22947.0,32723.0,16336.0,3805.0,1315.0,585.0,132.0
521672,County,2020/06/12,39.0,OH,39037.0,Darke County,8708.0,42615.0,190107.0,44498.0,44943.0,19466.0,25515.0,34187.0,15382.0,3641.0,1673.0,584.0,218.0
524848,County,2020/06/13,39.0,OH,39037.0,Darke County,9774.0,41549.0,167203.0,37853.0,38316.0,16249.0,23691.0,32523.0,13814.0,3347.0,950.0,352.0,108.0
529612,County,2020/06/14,39.0,OH,39037.0,Darke County,10357.0,40966.0,150336.0,36336.0,33845.0,14896.0,20124.0,28018.0,11283.0,3330.0,1480.0,848.0,176.0
532802,County,2020/06/15,39.0,OH,39037.0,Darke County,10466.0,40857.0,174013.0,42205.0,40920.0,18807.0,21485.0,29765.0,15046.0,3819.0,1365.0,469.0,132.0
536022,County,2020/06/16,39.0,OH,39037.0,Darke County,9606.0,41717.0,176713.0,43098.0,40653.0,19390.0,20713.0,32738.0,14184.0,3890.0,1596.0,265.0,186.0
537624,County,2020/06/17,39.0,OH,39037.0,Darke County,8916.0,42407.0,189427.0,49550.0,43671.0,19288.0,21853.0,33125.0,16830.0,3577.0,1237.0,206.0,90.0
540820,County,2020/06/18,39.0,OH,39037.0,Darke County,9669.0,41654.0,171428.0,42573.0,39932.0,16701.0,21506.0,29989.0,15685.0,3449.0,1096.0,344.0,153.0
545537,County,2020/06/19,39.0,OH,39037.0,Darke County,9415.0,41908.0,175126.0,39673.0,43155.0,17067.0,21253.0,32425.0,15653.0,4012.0,1292.0,401.0,195.0
548772,County,2020/06/20,39.0,OH,39037.0,Darke County,10447.0,40876.0,158445.0,34372.0,36855.0,16036.0,18485.0,33165.0,14728.0,3295.0,1071.0,348.0,90.0
551960,County,2020/06/21,39.0,OH,39037.0,Darke County,11765.0,39558.0,133480.0,28602.0,31460.0,15131.0,18524.0,25120.0,10647.0,2606.0,915.0,387.0,88.0
553596,County,2020/06/22,39.0,OH,39037.0,Darke County,9666.0,41657.0,157878.0,37593.0,36826.0,13917.0,17445.0,29462.0,16795.0,3657.0,1664.0,387.0,132.0
558356,County,2020/06/23,39.0,OH,39037.0,Darke County,9444.0,41879.0,167431.0,38679.0,40377.0,16967.0,16419.0,32360.0,17003.0,3716.0,1323.0,422.0,165.0
561548,County,2020/06/24,39.0,OH,39037.0,Darke County,10076.0,41247.0,167981.0,41763.0,40531.0,16902.0,17346.0,30164.0,16074.0,3577.0,1154.0,376.0,94.0
564724,County,2020/06/25,39.0,OH,39037.0,Darke County,9706.0,41617.0,172609.0,44922.0,37521.0,13412.0,20568.0,33450.0,16377.0,4087.0,1514.0,639.0,119.0
566430,County,2020/06/26,39.0,OH,39037.0,Darke County,9587.0,41736.0,171659.0,41917.0,41582.0,14358.0,19052.0,29839.0,17720.0,4776.0,1836.0,489.0,90.0
569552,County,2020/06/27,39.0,OH,39037.0,Darke County,9890.0,41433.0,162995.0,37370.0,37941.0,16108.0,20878.0,29620.0,14297.0,4802.0,1305.0,573.0,101.0
572749,County,2020/06/28,39.0,OH,39037.0,Darke County,10227.0,41096.0,150678.0,36006.0,37256.0,13308.0,18867.0,26829.0,12052.0,4403.0,1290.0,421.0,246.0
577527,County,2020/06/29,39.0,OH,39037.0,Darke County,10107.0,41216.0,154441.0,34421.0,37816.0,13786.0,18041.0,28638.0,14759.0,4770.0,1659.0,380.0,171.0
580719,County,2020/06/30,39.0,OH,39037.0,Darke County,9482.0,41841.0,152395.0,34928.0,35378.0,12665.0,17363.0,29089.0,16179.0,3964.0,1948.0,766.0,115.0
583913,County,2020/07/01,39.0,OH,39037.0,Darke County,9525.0,41798.0,160237.0,39532.0,38318.0,14470.0,14985.0,28669.0,16995.0,4198.0,2135.0,673.0,262.0
587107,County,2020/07/02,39.0,OH,39037.0,Darke County,10371.0,40952.0,183208.0,47680.0,39825.0,14236.0,21831.0,35504.0,17383.0,4338.0,1607.0,678.0,126.0
590304,County,2020/07/03,39.0,OH,39037.0,Darke County,11424.0,39899.0,170692.0,41681.0,41348.0,14277.0,18945.0,29671.0,17620.0,4749.0,1826.0,486.0,89.0
593489,County,2020/07/04,39.0,OH,39037.0,Darke County,12665.0,38658.0,146031.0,35659.0,35374.0,12214.0,16208.0,25384.0,15074.0,4063.0,1562.0,416.0,77.0
596701,County,2020/07/05,39.0,OH,39037.0,Darke County,10925.0,40398.0,137428.0,30494.0,33692.0,14295.0,16207.0,25237.0,10685.0,3602.0,1894.0,1018.0,304.0
597791,County,2020/07/06,39.0,OH,39037.0,Darke County,10305.0,41018.0,140730.0,31891.0,35143.0,13559.0,16436.0,24179.0,12693.0,4154.0,1725.0,670.0,280.0
601454,County,2020/07/07,39.0,OH,39037.0,Darke County,9880.0,41443.0,152243.0,35235.0,36630.0,14368.0,17428.0,26975.0,14458.0,4214.0,1826.0,791.0,318.0
604696,County,2020/07/08,39.0,OH,39037.0,Darke County,9985.0,41338.0,153098.0,37730.0,36793.0,15004.0,16570.0,25827.0,13828.0,4383.0,2167.0,553.0,243.0
607891,County,2020/07/09,39.0,OH,39037.0,Darke County,9847.0,41476.0,153163.0,35489.0,37683.0,13572.0,17591.0,26934.0,14311.0,4479.0,2095.0,821.0,188.0
611091,County,2020/07/10,39.0,OH,39037.0,Darke County,9212.0,42111.0,163835.0,39407.0,38786.0,15299.0,18293.0,29589.0,14339.0,5382.0,2095.0,497.0,148.0
614302,County,2020/07/11,39.0,OH,39037.0,Darke County,11104.0,40219.0,148455.0,33513.0,35727.0,15198.0,18445.0,26391.0,12798.0,4198.0,1548.0,384.0,253.0
617473,County,2020/07/12,39.0,OH,39037.0,Darke County,11548.0,39775.0,125736.0,29566.0,27225.0,14377.0,15826.0,21888.0,9111.0,4542.0,1714.0,1070.0,417.0
620663,County,2020/07/13,39.0,OH,39037.0,Darke County,10071.0,41252.0,156531.0,38525.0,36705.0,14350.0,16113.0,30289.0,12735.0,4700.0,2068.0,760.0,286.0
625427,County,2020/07/14,39.0,OH,39037.0,Darke County,10469.0,40854.0,156236.0,37397.0,33266.0,14828.0,19878.0,30170.0,13686.0,4552.0,1617.0,671.0,171.0
628600,County,2020/07/15,39.0,OH,39037.0,Darke County,10655.0,40668.0,158812.0,37552.0,37241.0,14542.0,18847.0,32788.0,12261.0,3678.0,1277.0,405.0,221.0
630226,County,2020/07/16,39.0,OH,39037.0,Darke County,10410.0,40913.0,158063.0,35924.0,37631.0,13347.0,18946.0,31630.0,14859.0,3845.0,1434.0,292.0,155.0
633427,County,2020/07/17,39.0,OH,39037.0,Darke County,10094.0,41229.0,155241.0,31824.0,38095.0,14439.0,18508.0,30848.0,15043.0,4495.0,1498.0,376.0,115.0
636638,County,2020/07/18,39.0,OH,39037.0,Darke County,11872.0,39451.0,153650.0,34766.0,39019.0,15075.0,19537.0,27545.0,11611.0,4326.0,1257.0,408.0,106.0
639793,County,2020/07/19,39.0,OH,39037.0,Darke County,12821.0,38502.0,120178.0,25279.0,28319.0,14093.0,13795.0,23603.0,9139.0,3318.0,1963.0,538.0,131.0
643027,County,2020/07/20,39.0,OH,39037.0,Darke County,11155.0,40168.0,153787.0,32969.0,35758.0,14734.0,18637.0,29733.0,16006.0,3922.0,1552.0,408.0,68.0
648267,County,2020/07/21,39.0,OH,39037.0,Darke County,10940.0,40383.0,150453.0,31405.0,34464.0,15007.0,19585.0,28817.0,15297.0,3909.0,1429.0,396.0,144.0
650980,County,2020/07/22,39.0,OH,39037.0,Darke County,10791.0,40532.0,150552.0,33679.0,34217.0,13720.0,16824.0,31549.0,14685.0,3492.0,1839.0,462.0,85.0
652522,County,2020/07/23,39.0,OH,39037.0,Darke County,11055.0,40268.0,154252.0,37488.0,36048.0,12857.0,17016.0,30606.0,13267.0,4351.0,1936.0,550.0,133.0
655645,County,2020/07/24,39.0,OH,39037.0,Darke County,9903.0,41420.0,161890.0,35010.0,35489.0,16439.0,19015.0,33410.0,14894.0,4788.0,2088.0,626.0,131.0
658991,County,2020/07/25,39.0,OH,39037.0,Darke County,11599.0,39724.0,143708.0,32001.0,34145.0,12252.0,17777.0,28202.0,12527.0,4369.0,1888.0,434.0,113.0
663697,County,2020/07/26,39.0,OH,39037.0,Darke County,11177.0,40146.0,152323.0,35419.0,33236.0,13843.0,20033.0,28528.0,12925.0,4682.0,2665.0,690.0,302.0
666970,County,2020/07/27,39.0,OH,39037.0,Darke County,10977.0,40346.0,158502.0,36045.0,36580.0,13798.0,18765.0,29282.0,14558.0,5746.0,2602.0,947.0,179.0
668648,County,2020/07/28,39.0,OH,39037.0,Darke County,10169.0,41154.0,165970.0,36456.0,35242.0,14228.0,19374.0,34385.0,17214.0,5308.0,2651.0,952.0,160.0
673436,County,2020/07/29,39.0,OH,39037.0,Darke County,10641.0,40682.0,167793.0,36245.0,40942.0,16747.0,18371.0,32091.0,15714.0,4562.0,2361.0,577.0,183.0
676516,County,2020/07/30,39.0,OH,39037.0,Darke County,9923.0,41400.0,163892.0,35350.0,37442.0,13974.0,19646.0,32799.0,15714.0,5319.0,2585.0,821.0,242.0
679744,County,2020/07/31,39.0,OH,39037.0,Darke County,10606.0,40717.0,158839.0,36187.0,34695.0,14740.0,17626.0,29491.0,16188.0,6031.0,2651.0,839.0,391.0
681325,County,2020/08/01,39.0,OH,39037.0,Darke County,12279.0,39044.0,145685.0,32918.0,35914.0,14359.0,17468.0,26018.0,11353.0,4651.0,1996.0,753.0,255.0
684548,County,2020/08/02,39.0,OH,39037.0,Darke County,12649.0,38674.0,130428.0,26842.0,33552.0,11770.0,16335.0,25442.0,8587.0,5137.0,2073.0,557.0,133.0
687745,County,2020/08/03,39.0,OH,39037.0,Darke County,11018.0,40305.0,156478.0,34039.0,35333.0,14808.0,19056.0,30299.0,15319.0,4330.0,2684.0,487.0,123.0
690936,County,2020/08/04,39.0,OH,39037.0,Darke County,9755.0,41568.0,167639.0,39645.0,35842.0,15947.0,19845.0,33557.0,16430.0,4330.0,1496.0,487.0,60.0
695696,County,2020/08/05,39.0,OH,39037.0,Darke County,10130.0,41193.0,175359.0,44132.0,40073.0,16801.0,20991.0,31620.0,15449.0,4134.0,1646.0,438.0,75.0
698891,County,2020/08/06,39.0,OH,39037.0,Darke County,9889.0,41434.0,177999.0,40434.0,44863.0,16452.0,21569.0,31865.0,16397.0,4570.0,1561.0,237.0,51.0
702087,County,2020/08/07,39.0,OH,39037.0,Darke County,9731.0,41592.0,181287.0,45916.0,40626.0,16067.0,23096.0,31557.0,17627.0,4472.0,1620.0,296.0,10.0
705278,County,2020/08/08,39.0,OH,39037.0,Darke County,11062.0,40261.0,169657.0,39272.0,41306.0,15642.0,21008.0,31405.0,15039.0,3889.0,1615.0,408.0,73.0
706906,County,2020/08/09,39.0,OH,39037.0,Darke County,11832.0,39491.0,151458.0,35327.0,37297.0,12013.0,19327.0,28998.0,13537.0,3297.0,1235.0,352.0,75.0
710127,County,2020/08/10,39.0,OH,39037.0,Darke County,10042.0,41281.0,168468.0,36810.0,38732.0,15588.0,21247.0,32753.0,16659.0,4807.0,1324.0,497.0,51.0
713344,County,2020/08/11,39.0,OH,39037.0,Darke County,10774.0,40549.0,170279.0,36571.0,40977.0,16233.0,20915.0,31606.0,16527.0,5893.0,1168.0,312.0,77.0
717956,County,2020/08/12,39.0,OH,39037.0,Darke County,10341.0,40982.0,161552.0,36664.0,36533.0,15579.0,18787.0,29230.0,16857.0,4940.0,2229.0,498.0,235.0
719683,County,2020/08/13,39.0,OH,39037.0,Darke County,9619.0,41704.0,165959.0,37787.0,37927.0,14039.0,20640.0,31395.0,15996.0,5243.0,2043.0,564.0,325.0
722876,County,2020/08/14,39.0,OH,39037.0,Darke County,9125.0,42198.0,192239.0,43686.0,44119.0,17197.0,23526.0,35691.0,18350.0,6737.0,2082.0,503.0,348.0
726107,County,2020/08/15,39.0,OH,39037.0,Darke County,10182.0,41141.0,169180.0,37737.0,38633.0,14887.0,24254.0,31303.0,14536.0,5090.0,1555.0,784.0,401.0
730829,County,2020/08/16,39.0,OH,39037.0,Darke County,11213.0,40110.0,156391.0,33563.0,36137.0,15335.0,20845.0,29868.0,11929.0,4736.0,2519.0,910.0,549.0
732459,County,2020/08/17,39.0,OH,39037.0,Darke County,10331.0,40992.0,176838.0,40192.0,39254.0,14994.0,21880.0,33821.0,17634.0,5472.0,2118.0,976.0,497.0
737218,County,2020/08/18,39.0,OH,39037.0,Darke County,10657.0,40666.0,159771.0,37357.0,31692.0,12027.0,19811.0,31634.0,16785.0,5654.0,2650.0,1513.0,648.0
740413,County,2020/08/19,39.0,OH,39037.0,Darke County,9995.0,41328.0,179819.0,40778.0,41071.0,16706.0,20378.0,33149.0,18313.0,4925.0,2900.0,1088.0,511.0
742042,County,2020/08/20,39.0,OH,39037.0,Darke County,9710.0,41613.0,170918.0,36077.0,38100.0,15772.0,21173.0,33830.0,15850.0,5816.0,2953.0,930.0,417.0
745241,County,2020/08/21,39.0,OH,39037.0,Darke County,9143.0,42180.0,196289.0,46627.0,43876.0,16564.0,21674.0,36844.0,19890.0,6450.0,2703.0,1195.0,466.0
748446,County,2020/08/22,39.0,OH,39037.0,Darke County,10131.0,41192.0,173063.0,38622.0,39065.0,15078.0,21944.0,33114.0,15332.0,5824.0,2592.0,973.0,519.0
753191,County,2020/08/23,39.0,OH,39037.0,Darke County,11487.0,39836.0,138135.0,27323.0,31423.0,13616.0,17947.0,28355.0,11965.0,4386.0,1773.0,977.0,370.0
756383,County,2020/08/24,39.0,OH,39037.0,Darke County,10752.0,40571.0,155811.0,31927.0,32814.0,16050.0,19770.0,31765.0,16276.0,4577.0,1810.0,577.0,245.0
758012,County,2020/08/25,39.0,OH,39037.0,Darke County,10186.0,41137.0,158656.0,33637.0,36218.0,13305.0,19981.0,29852.0,18172.0,5077.0,1468.0,609.0,337.0
762733,County,2020/08/26,39.0,OH,39037.0,Darke County,10893.0,40430.0,153384.0,33834.0,34505.0,12997.0,17780.0,31934.0,15111.0,4406.0,1903.0,658.0,256.0
764362,County,2020/08/27,39.0,OH,39037.0,Darke County,10075.0,41248.0,158738.0,37628.0,34569.0,15125.0,19842.0,27633.0,15843.0,4970.0,2051.0,749.0,328.0
769145,County,2020/08/28,39.0,OH,39037.0,Darke County,9820.0,41503.0,170495.0,37727.0,38413.0,15033.0,20798.0,32291.0,17753.0,5393.0,2018.0,815.0,254.0
772346,County,2020/08/29,39.0,OH,39037.0,Darke County,10438.0,40885.0,170838.0,40246.0,38037.0,15780.0,22106.0,31423.0,16505.0,3767.0,1661.0,917.0,396.0
775548,County,2020/08/30,39.0,OH,39037.0,Darke County,12441.0,38882.0,141372.0,32263.0,31808.0,12828.0,18982.0,27842.0,11016.0,3199.0,2148.0,934.0,352.0
778747,County,2020/08/31,39.0,OH,39037.0,Darke County,11221.0,40102.0,151454.0,35747.0,35146.0,12858.0,17326.0,28527.0,13983.0,4387.0,2332.0,795.0,353.0
781936,County,2020/09/01,39.0,OH,39037.0,Darke County,11023.0,40300.0,162494.0,37607.0,38897.0,14394.0,18110.0,29703.0,16114.0,4378.0,2284.0,725.0,282.0
784386,County,2020/09/02,39.0,OH,39037.0,Darke County,10767.0,40556.0,155026.0,34382.0,34403.0,14665.0,18071.0,30358.0,14933.0,4819.0,2407.0,682.0,306.0
786692,County,2020/09/03,39.0,OH,39037.0,Darke County,9784.0,41539.0,170845.0,39907.0,39929.0,13695.0,18520.0,34410.0,15264.0,5856.0,2283.0,712.0,269.0
791525,County,2020/09/04,39.0,OH,39037.0,Darke County,10868.0,40455.0,176966.0,43406.0,40121.0,13946.0,20611.0,32764.0,16778.0,5319.0,2612.0,1118.0,291.0
793029,County,2020/09/05,39.0,OH,39037.0,Darke County,11208.0,40115.0,177732.0,44514.0,40972.0,15654.0,21907.0,31551.0,15963.0,4230.0,1884.0,866.0,191.0
796317,County,2020/09/06,39.0,OH,39037.0,Darke County,12737.0,38586.0,133903.0,29867.0,32220.0,10865.0,17871.0,25245.0,11218.0,3071.0,2068.0,1133.0,345.0
799531,County,2020/09/07,39.0,OH,39037.0,Darke County,13419.0,37904.0,122973.0,27205.0,27140.0,10155.0,13822.0,25512.0,10424.0,4292.0,2681.0,1364.0,378.0
804293,County,2020/09/08,39.0,OH,39037.0,Darke County,11171.0,40152.0,166171.0,35008.0,38399.0,14752.0,20111.0,32323.0,17829.0,4846.0,1757.0,929.0,217.0
805922,County,2020/09/09,39.0,OH,39037.0,Darke County,10561.0,40762.0,174851.0,41373.0,40590.0,16073.0,20051.0,33475.0,16323.0,4290.0,1592.0,787.0,297.0
809113,County,2020/09/10,39.0,OH,39037.0,Darke County,10434.0,40889.0,158411.0,34085.0,37027.0,12354.0,20224.0,30736.0,15508.0,4767.0,2346.0,1088.0,276.0
813874,County,2020/09/11,39.0,OH,39037.0,Darke County,10027.0,41296.0,176529.0,40793.0,41809.0,12802.0,20334.0,35181.0,15914.0,5658.0,2523.0,1195.0,320.0
817069,County,2020/09/12,39.0,OH,39037.0,Darke County,11966.0,39357.0,164122.0,40516.0,35871.0,13250.0,22209.0,32679.0,11956.0,4768.0,1764.0,798.0,311.0
818676,County,2020/09/13,39.0,OH,39037.0,Darke County,13320.0,38003.0,120988.0,21483.0,32531.0,9822.0,17821.0,22759.0,8921.0,3678.0,2128.0,1317.0,528.0
823458,County,2020/09/14,39.0,OH,39037.0,Darke County,10790.0,40533.0,159425.0,32739.0,37661.0,13177.0,21687.0,31015.0,16449.0,3879.0,1896.0,663.0,259.0
826650,County,2020/09/15,39.0,OH,39037.0,Darke County,10853.0,40470.0,164610.0,34469.0,36536.0,17820.0,20225.0,31727.0,16835.0,3936.0,2027.0,623.0,412.0
829844,County,2020/09/16,39.0,OH,39037.0,Darke County,10074.0,41249.0,170592.0,36137.0,41558.0,15554.0,20924.0,32707.0,16664.0,4290.0,1980.0,538.0,240.0
831472,County,2020/09/17,39.0,OH,39037.0,Darke County,10744.0,40579.0,169475.0,35855.0,40033.0,16159.0,20998.0,31972.0,17071.0,4663.0,1848.0,607.0,269.0
836233,County,2020/09/18,39.0,OH,39037.0,Darke County,10462.0,40861.0,184965.0,41464.0,41368.0,17520.0,22017.0,35535.0,18313.0,5587.0,2400.0,664.0,97.0
837862,County,2020/09/19,39.0,OH,39037.0,Darke County,11037.0,40286.0,183642.0,40227.0,39683.0,15995.0,25868.0,37998.0,16745.0,4574.0,1602.0,795.0,155.0
841054,County,2020/09/20,39.0,OH,39037.0,Darke County,12529.0,38794.0,134682.0,32100.0,30710.0,10296.0,18028.0,25948.0,10805.0,4523.0,1715.0,457.0,100.0
845841,County,2020/09/21,39.0,OH,39037.0,Darke County,11619.0,39704.0,141022.0,28698.0,32993.0,11266.0,17162.0,29490.0,15198.0,4455.0,1206.0,487.0,67.0
849009,County,2020/09/22,39.0,OH,39037.0,Darke County,10601.0,40722.0,155509.0,35200.0,35444.0,12922.0,17597.0,30733.0,17330.0,4430.0,1508.0,302.0,43.0
850637,County,2020/09/23,39.0,OH,39037.0,Darke County,10247.0,41076.0,170357.0,40798.0,37537.0,17844.0,19309.0,31692.0,16698.0,4815.0,1115.0,519.0,30.0
853826,County,2020/09/24,39.0,OH,39037.0,Darke County,10442.0,40881.0,157498.0,32983.0,39012.0,14744.0,18936.0,30145.0,16026.0,3753.0,1257.0,601.0,41.0
858590,County,2020/09/25,39.0,OH,39037.0,Darke County,9688.0,41635.0,181248.0,39387.0,42789.0,16041.0,23104.0,35412.0,18671.0,3990.0,1316.0,476.0,62.0
861785,County,2020/09/26,39.0,OH,39037.0,Darke County,11073.0,40250.0,174782.0,37120.0,42915.0,15116.0,23583.0,34543.0,15185.0,4588.0,1212.0,460.0,60.0
863390,County,2020/09/27,39.0,OH,39037.0,Darke County,12479.0,38844.0,142835.0,30728.0,35239.0,12000.0,21638.0,27335.0,11470.0,2627.0,1266.0,471.0,61.0
868173,County,2020/09/28,39.0,OH,39037.0,Darke County,11298.0,40025.0,148644.0,30672.0,33401.0,11301.0,20150.0,30243.0,17158.0,4208.0,1318.0,171.0,22.0
871365,County,2020/09/29,39.0,OH,39037.0,Darke County,10495.0,40828.0,162366.0,32868.0,39294.0,15324.0,17861.0,31983.0,17599.0,5519.0,1379.0,475.0,64.0
872994,County,2020/09/30,39.0,OH,39037.0,Darke County,10543.0,40780.0,154752.0,32178.0,37145.0,12451.0,18889.0,30951.0,15855.0,5392.0,1399.0,423.0,69.0
877734,County,2020/10/01,39.0,OH,39037.0,Darke County,9683.0,41640.0,167654.0,34705.0,40700.0,15365.0,21707.0,32071.0,16609.0,4373.0,1396.0,595.0,133.0
880949,County,2020/10/02,39.0,OH,39037.0,Darke County,9878.0,41445.0,164899.0,35793.0,43585.0,13221.0,19235.0,30758.0,16012.0,4135.0,1675.0,375.0,110.0
884144,County,2020/10/03,39.0,OH,39037.0,Darke County,11365.0,39958.0,156663.0,34306.0,39847.0,14155.0,16727.0,32485.0,13208.0,3928.0,1524.0,393.0,90.0
886747,County,2020/10/04,39.0,OH,39037.0,Darke County,13427.0,37896.0,136057.0,29740.0,34154.0,12090.0,17727.0,26374.0,10660.0,3308.0,1552.0,396.0,56.0
889995,County,2020/10/05,39.0,OH,39037.0,Darke County,12243.0,39080.0,140345.0,27007.0,35918.0,12295.0,17112.0,26792.0,14817.0,4074.0,1691.0,559.0,80.0
893143,County,2020/10/06,39.0,OH,39037.0,Darke County,10772.0,40551.0,162670.0,37066.0,40954.0,12270.0,19515.0,29970.0,16486.0,4318.0,1533.0,486.0,72.0
896348,County,2020/10/07,39.0,OH,39037.0,Darke County,10333.0,40990.0,172733.0,36223.0,42882.0,14713.0,23103.0,33654.0,15970.0,3740.0,1567.0,781.0,100.0
899521,County,2020/10/08,39.0,OH,39037.0,Darke County,10428.0,40895.0,156976.0,33407.0,38370.0,11937.0,18581.0,32324.0,15873.0,4495.0,1301.0,574.0,114.0
902726,County,2020/10/09,39.0,OH,39037.0,Darke County,10377.0,40946.0,166610.0,34883.0,39483.0,13529.0,21573.0,32536.0,16438.0,6055.0,1437.0,539.0,137.0
906199,County,2020/10/10,39.0,OH,39037.0,Darke County,12533.0,38790.0,158072.0,34621.0,36439.0,13233.0,19941.0,32652.0,14570.0,4821.0,1185.0,543.0,67.0
908713,County,2020/10/11,39.0,OH,39037.0,Darke County,13083.0,38240.0,127771.0,28026.0,31889.0,10418.0,16973.0,23614.0,9561.0,5156.0,1537.0,539.0,58.0
911683,County,2020/10/12,39.0,OH,39037.0,Darke County,11635.0,39688.0,150729.0,32702.0,34331.0,14561.0,18692.0,29673.0,14258.0,4340.0,1379.0,724.0,69.0
914583,County,2020/10/13,39.0,OH,39037.0,Darke County,10781.0,40542.0,157791.0,35773.0,36730.0,13770.0,19610.0,27688.0,16432.0,5554.0,1494.0,658.0,82.0
918168,County,2020/10/14,39.0,OH,39037.0,Darke County,10261.0,41062.0,168646.0,38120.0,41806.0,14884.0,18695.0,32487.0,14714.0,5818.0,1477.0,557.0,88.0
921285,County,2020/10/15,39.0,OH,39037.0,Darke County,10780.0,40543.0,141138.0,28309.0,35159.0,11981.0,17365.0,27348.0,13789.0,4703.0,1507.0,842.0,135.0
924515,County,2020/10/16,39.0,OH,39037.0,Darke County,10091.0,41232.0,173697.0,36815.0,42722.0,14442.0,23045.0,33073.0,15531.0,5445.0,1612.0,912.0,100.0
927743,County,2020/10/17,39.0,OH,39037.0,Darke County,11011.0,40312.0,164288.0,38884.0,38465.0,13665.0,18859.0,29010.0,18305.0,4758.0,1693.0,511.0,138.0
930531,County,2020/10/18,39.0,OH,39037.0,Darke County,12397.0,38926.0,134047.0,29806.0,32141.0,11741.0,19057.0,25170.0,10688.0,3265.0,1341.0,724.0,114.0
933556,County,2020/10/19,39.0,OH,39037.0,Darke County,10890.0,40433.0,142716.0,29468.0,31492.0,12859.0,18154.0,29777.0,13825.0,4996.0,1425.0,630.0,90.0
937261,County,2020/10/20,39.0,OH,39037.0,Darke County,11129.0,40194.0,150133.0,29044.0,33568.0,11949.0,19022.0,30985.0,18122.0,5329.0,1493.0,558.0,63.0
940493,County,2020/10/21,39.0,OH,39037.0,Darke County,11146.0,40177.0,147147.0,24614.0,38494.0,11052.0,17431.0,31872.0,15802.0,5510.0,1752.0,560.0,60.0
943102,County,2020/10/22,39.0,OH,39037.0,Darke County,11163.0,40160.0,156264.0,33406.0,37323.0,12046.0,19952.0,30521.0,14012.0,6468.0,1861.0,576.0,99.0
946497,County,2020/10/23,39.0,OH,39037.0,Darke County,9697.0,41626.0,182678.0,38867.0,44535.0,14448.0,21657.0,34775.0,19622.0,6281.0,1814.0,576.0,103.0
949771,County,2020/10/24,39.0,OH,39037.0,Darke County,11263.0,40060.0,173748.0,37623.0,41273.0,15279.0,22639.0,34375.0,15569.0,5380.0,1292.0,261.0,57.0
