,Level,Date,State FIPS,State Postal Code,County FIPS,County Name,Population Staying at Home,Population Not Staying at Home,Number of Trips,Number of Trips <1,Number of Trips 1-3,Number of Trips 3-5,Number of Trips 5-10,Number of Trips 10-25,Number of Trips 25-50,Number of Trips 50-100,Number of Trips 100-250,Number of Trips 250-500,Number of Trips >=500
1323,County,2020/01/01,27.0,MN,27019.0,Carver County,25772.0,77779.0,249425.0,46761.0,58726.0,24656.0,38729.0,52940.0,18287.0,5472.0,2637.0,618.0,599.0
3563,County,2020/01/02,27.0,MN,27019.0,Carver County,18343.0,85208.0,336683.0,59568.0,77341.0,34150.0,54964.0,74872.0,29042.0,4275.0,1475.0,494.0,502.0
8808,County,2020/01/03,27.0,MN,27019.0,Carver County,17870.0,85681.0,344976.0,61266.0,76494.0,38675.0,54273.0,78802.0,26703.0,4983.0,2780.0,618.0,382.0
12055,County,2020/01/04,27.0,MN,27019.0,Carver County,20856.0,82695.0,334502.0,62894.0,73545.0,32723.0,55086.0,75623.0,25734.0,5620.0,2342.0,513.0,422.0
14099,County,2020/01/05,27.0,MN,27019.0,Carver County,23825.0,79726.0,268360.0,48483.0,64212.0,29496.0,42030.0,53613.0,20703.0,4674.0,4009.0,591.0,549.0
16559,County,2020/01/06,27.0,MN,27019.0,Carver County,18411.0,85140.0,333216.0,58462.0,73982.0,36823.0,51640.0,78414.0,27161.0,3717.0,1615.0,551.0,851.0
19813,County,2020/01/07,27.0,MN,27019.0,Carver County,18495.0,85056.0,341540.0,56354.0,78223.0,37571.0,52107.0,83456.0,27239.0,4063.0,1465.0,569.0,493.0
24661,County,2020/01/08,27.0,MN,27019.0,Carver County,18680.0,84871.0,331039.0,58556.0,74319.0,36077.0,51567.0,74458.0,29995.0,3542.0,1577.0,553.0,395.0
26190,County,2020/01/09,27.0,MN,27019.0,Carver County,18070.0,85481.0,350153.0,67558.0,75610.0,37979.0,50667.0,80493.0,29756.0,4179.0,2814.0,492.0,605.0
30999,County,2020/01/10,27.0,MN,27019.0,Carver County,17307.0,86244.0,367120.0,64255.0,83583.0,41041.0,55493.0,82097.0,30067.0,6455.0,2904.0,618.0,607.0
32627,County,2020/01/11,27.0,MN,27019.0,Carver County,21339.0,82212.0,325835.0,58818.0,75605.0,36004.0,51277.0,70762.0,23586.0,5612.0,2982.0,567.0,622.0
35783,County,2020/01/12,27.0,MN,27019.0,Carver County,22560.0,80991.0,294495.0,55549.0,71110.0,32567.0,44235.0,58355.0,22303.0,4221.0,4799.0,650.0,706.0
39026,County,2020/01/13,27.0,MN,27019.0,Carver County,19130.0,84421.0,323028.0,59590.0,72477.0,34909.0,48654.0,72677.0,27473.0,3447.0,2409.0,602.0,790.0
43759,County,2020/01/14,27.0,MN,27019.0,Carver County,18232.0,85319.0,354500.0,66756.0,79791.0,38632.0,50340.0,82310.0,29896.0,3334.0,2006.0,712.0,723.0
46965,County,2020/01/15,27.0,MN,27019.0,Carver County,18561.0,84990.0,335952.0,60307.0,73566.0,37651.0,52136.0,79226.0,26999.0,3877.0,1084.0,500.0,606.0
48492,County,2020/01/16,27.0,MN,27019.0,Carver County,18208.0,85343.0,338728.0,57993.0,76584.0,35119.0,51875.0,80894.0,28760.0,3929.0,2413.0,585.0,576.0
51749,County,2020/01/17,27.0,MN,27019.0,Carver County,20307.0,83244.0,322182.0,66260.0,81511.0,36117.0,46085.0,63363.0,22525.0,3573.0,1751.0,563.0,434.0
56529,County,2020/01/18,27.0,MN,27019.0,Carver County,25542.0,78009.0,319434.0,65437.0,84266.0,33469.0,53392.0,60107.0,17847.0,2865.0,1001.0,484.0,566.0
58128,County,2020/01/19,27.0,MN,27019.0,Carver County,24845.0,78706.0,306173.0,62725.0,79302.0,34402.0,49561.0,54257.0,18064.0,3777.0,3062.0,567.0,456.0
61361,County,2020/01/20,27.0,MN,27019.0,Carver County,20595.0,82956.0,332316.0,63041.0,77228.0,32546.0,48245.0,76414.0,28193.0,3767.0,1752.0,414.0,716.0
66138,County,2020/01/21,27.0,MN,27019.0,Carver County,18703.0,84848.0,344756.0,65113.0,77253.0,36226.0,51636.0,79129.0,28941.0,4061.0,1519.0,237.0,641.0
67721,County,2020/01/22,27.0,MN,27019.0,Carver County,17694.0,85857.0,340447.0,60609.0,76517.0,36029.0,50362.0,82256.0,28895.0,3181.0,1532.0,338.0,728.0
72511,County,2020/01/23,27.0,MN,27019.0,Carver County,17855.0,85696.0,344306.0,64203.0,82370.0,33798.0,49118.0,80791.0,26920.0,4221.0,1738.0,520.0,627.0
75667,County,2020/01/24,27.0,MN,27019.0,Carver County,18193.0,85358.0,372212.0,71997.0,84113.0,36721.0,55935.0,82373.0,32070.0,4685.0,2995.0,626.0,697.0
78902,County,2020/01/25,27.0,MN,27019.0,Carver County,20210.0,83341.0,362504.0,74918.0,78572.0,40841.0,55103.0,74887.0,28732.0,5598.0,2849.0,498.0,506.0
81173,County,2020/01/26,27.0,MN,27019.0,Carver County,21400.0,82151.0,314942.0,64966.0,71152.0,34802.0,47279.0,61298.0,23725.0,6377.0,3931.0,733.0,679.0
85217,County,2020/01/27,27.0,MN,27019.0,Carver County,18466.0,85085.0,343813.0,66804.0,76171.0,33884.0,52206.0,79137.0,30055.0,3605.0,1018.0,321.0,612.0
89022,County,2020/01/28,27.0,MN,27019.0,Carver County,17781.0,85770.0,346394.0,66483.0,75684.0,36352.0,52421.0,78379.0,30347.0,3895.0,1856.0,435.0,542.0
91672,County,2020/01/29,27.0,MN,27019.0,Carver County,18245.0,85306.0,349855.0,66824.0,76131.0,37718.0,52365.0,80163.0,30416.0,4063.0,1087.0,439.0,649.0
93398,County,2020/01/30,27.0,MN,27019.0,Carver County,17995.0,85556.0,349410.0,64218.0,81757.0,35015.0,51562.0,79859.0,29103.0,4414.0,1876.0,610.0,996.0
96453,County,2020/01/31,27.0,MN,27019.0,Carver County,17659.0,85892.0,359284.0,69065.0,82978.0,35196.0,54075.0,79349.0,28443.0,5119.0,3029.0,815.0,1215.0
99702,County,2020/02/01,27.0,MN,27019.0,Carver County,19851.0,83700.0,355136.0,74566.0,80331.0,34183.0,56653.0,72399.0,26655.0,6079.0,2700.0,650.0,920.0
104413,County,2020/02/02,27.0,MN,27019.0,Carver County,21691.0,81860.0,309392.0,62447.0,81218.0,31069.0,46443.0,57481.0,20817.0,4791.0,3156.0,898.0,1072.0
107665,County,2020/02/03,27.0,MN,27019.0,Carver County,17761.0,85790.0,343183.0,67382.0,79234.0,33937.0,52203.0,74876.0,27552.0,3488.0,2252.0,823.0,1436.0
109282,County,2020/02/04,27.0,MN,27019.0,Carver County,17382.0,86169.0,361089.0,67995.0,83853.0,39530.0,52574.0,81065.0,29324.0,3653.0,1484.0,755.0,856.0
112428,County,2020/02/05,27.0,MN,27019.0,Carver County,17852.0,85699.0,364947.0,73571.0,87064.0,36949.0,51960.0,78490.0,30343.0,3173.0,1705.0,681.0,1011.0
117211,County,2020/02/06,27.0,MN,27019.0,Carver County,17353.0,86198.0,366045.0,70952.0,82115.0,37725.0,52432.0,84557.0,30646.0,3947.0,2278.0,640.0,753.0
120465,County,2020/02/07,27.0,MN,27019.0,Carver County,17095.0,86456.0,378108.0,73735.0,87593.0,39358.0,56749.0,80416.0,30479.0,5584.0,2644.0,944.0,606.0
123625,County,2020/02/08,27.0,MN,27019.0,Carver County,19693.0,83858.0,350286.0,73649.0,79516.0,33168.0,52504.0,72561.0,29079.0,5489.0,3099.0,728.0,493.0
125336,County,2020/02/09,27.0,MN,27019.0,Carver County,26806.0,76745.0,305161.0,71783.0,80859.0,28264.0,43521.0,51055.0,21583.0,3346.0,2577.0,903.0,1270.0
129632,County,2020/02/10,27.0,MN,27019.0,Carver County,17316.0,86235.0,372569.0,75521.0,83493.0,37875.0,50882.0,85052.0,32274.0,3698.0,1413.0,1053.0,1308.0
132083,County,2020/02/11,27.0,MN,27019.0,Carver County,15952.0,87599.0,382044.0,72045.0,84231.0,38543.0,55534.0,88284.0,34397.0,4900.0,2102.0,938.0,1070.0
135260,County,2020/02/12,27.0,MN,27019.0,Carver County,17229.0,86322.0,372116.0,66633.0,85329.0,38446.0,56003.0,83246.0,34347.0,3825.0,2139.0,760.0,1388.0
138018,County,2020/02/13,27.0,MN,27019.0,Carver County,18003.0,85548.0,371355.0,67564.0,87371.0,35130.0,53923.0,83993.0,33599.0,5015.0,2431.0,946.0,1383.0
142748,County,2020/02/14,27.0,MN,27019.0,Carver County,17016.0,86535.0,400263.0,73759.0,91367.0,39916.0,58452.0,90545.0,33418.0,5832.0,4028.0,1400.0,1546.0
144372,County,2020/02/15,27.0,MN,27019.0,Carver County,19712.0,83839.0,390177.0,76958.0,92908.0,36568.0,56060.0,82720.0,33391.0,6029.0,3104.0,1120.0,1319.0
149156,County,2020/02/16,27.0,MN,27019.0,Carver County,21938.0,81613.0,349414.0,67098.0,88732.0,37662.0,50648.0,67504.0,26683.0,5259.0,3632.0,976.0,1220.0
150784,County,2020/02/17,27.0,MN,27019.0,Carver County,25353.0,78198.0,290216.0,56334.0,66328.0,28908.0,40353.0,61340.0,26466.0,5218.0,2734.0,975.0,1560.0
153998,County,2020/02/18,27.0,MN,27019.0,Carver County,17931.0,85620.0,383234.0,75616.0,88726.0,38568.0,56410.0,83339.0,31635.0,4757.0,1654.0,1018.0,1511.0
158710,County,2020/02/19,27.0,MN,27019.0,Carver County,16690.0,86861.0,384515.0,76273.0,88981.0,37581.0,53765.0,84233.0,34272.0,5238.0,1798.0,956.0,1418.0
160254,County,2020/02/20,27.0,MN,27019.0,Carver County,17943.0,85608.0,377759.0,74035.0,89268.0,37446.0,51920.0,84588.0,30517.0,5515.0,2553.0,739.0,1178.0
163532,County,2020/02/21,27.0,MN,27019.0,Carver County,17688.0,85863.0,403198.0,79491.0,90873.0,42739.0,59152.0,87035.0,32625.0,5200.0,3086.0,1167.0,1830.0
166726,County,2020/02/22,27.0,MN,27019.0,Carver County,17619.0,85932.0,400360.0,84155.0,92069.0,38951.0,62086.0,80851.0,31180.0,6318.0,2586.0,809.0,1355.0
169953,County,2020/02/23,27.0,MN,27019.0,Carver County,21594.0,81957.0,344525.0,71116.0,85489.0,37964.0,49787.0,65033.0,23857.0,5155.0,4032.0,1154.0,938.0
173118,County,2020/02/24,27.0,MN,27019.0,Carver County,18655.0,84896.0,374337.0,75834.0,87315.0,37518.0,52072.0,81470.0,30592.0,4847.0,2310.0,901.0,1478.0
176356,County,2020/02/25,27.0,MN,27019.0,Carver County,16829.0,86722.0,384787.0,76069.0,83351.0,37190.0,56691.0,88889.0,33437.0,4875.0,2138.0,759.0,1388.0
180187,County,2020/02/26,27.0,MN,27019.0,Carver County,19287.0,84264.0,336227.0,55353.0,85088.0,38235.0,56273.0,68539.0,26186.0,2928.0,1747.0,698.0,1180.0
182143,County,2020/02/27,27.0,MN,27019.0,Carver County,16612.0,86939.0,387744.0,74850.0,90631.0,40066.0,56128.0,85299.0,31472.0,4893.0,2300.0,774.0,1331.0
187554,County,2020/02/28,27.0,MN,27019.0,Carver County,17215.0,86336.0,403986.0,78784.0,91090.0,42681.0,60087.0,86485.0,33158.0,6061.0,3696.0,692.0,1252.0
189085,County,2020/02/29,27.0,MN,27019.0,Carver County,18865.0,84686.0,400364.0,85004.0,91675.0,41495.0,57515.0,82448.0,31285.0,5477.0,3400.0,1024.0,1041.0
193869,County,2020/03/01,27.0,MN,27019.0,Carver County,20747.0,82804.0,332414.0,72447.0,82425.0,33399.0,49457.0,59071.0,23168.0,5700.0,4341.0,973.0,1433.0
195498,County,2020/03/02,27.0,MN,27019.0,Carver County,18726.0,84825.0,356250.0,68489.0,83430.0,38776.0,48582.0,78027.0,30420.0,5068.0,1398.0,661.0,1399.0
200183,County,2020/03/03,27.0,MN,27019.0,Carver County,17487.0,86064.0,362993.0,76046.0,84512.0,37086.0,48450.0,73891.0,32882.0,5765.0,2379.0,1000.0,982.0
202512,County,2020/03/04,27.0,MN,27019.0,Carver County,17914.0,85637.0,361837.0,73117.0,79480.0,35040.0,53912.0,78357.0,31633.0,6050.0,2939.0,599.0,710.0
205003,County,2020/03/05,27.0,MN,27019.0,Carver County,16550.0,87001.0,355032.0,69174.0,77681.0,37059.0,53474.0,76865.0,31051.0,5850.0,2217.0,746.0,915.0
208171,County,2020/03/06,27.0,MN,27019.0,Carver County,17190.0,86361.0,374035.0,77163.0,81832.0,37047.0,52788.0,79717.0,32843.0,6426.0,4689.0,742.0,788.0
211472,County,2020/03/07,27.0,MN,27019.0,Carver County,18812.0,84739.0,380720.0,83566.0,86015.0,40972.0,53813.0,72062.0,32114.0,6997.0,3742.0,751.0,688.0
216246,County,2020/03/08,27.0,MN,27019.0,Carver County,20948.0,82603.0,337057.0,73757.0,81940.0,37042.0,44555.0,63080.0,24169.0,5878.0,4701.0,1161.0,774.0
217840,County,2020/03/09,27.0,MN,27019.0,Carver County,17624.0,85927.0,339631.0,64929.0,80282.0,34454.0,46984.0,76343.0,28537.0,3825.0,2361.0,950.0,966.0
221074,County,2020/03/10,27.0,MN,27019.0,Carver County,17803.0,85748.0,348815.0,69924.0,76916.0,36056.0,49252.0,77300.0,31105.0,4157.0,2339.0,374.0,1392.0
225868,County,2020/03/11,27.0,MN,27019.0,Carver County,19053.0,84498.0,322260.0,45444.0,83944.0,32977.0,46698.0,68526.0,30672.0,7061.0,3487.0,1465.0,1986.0
228959,County,2020/03/12,27.0,MN,27019.0,Carver County,19339.0,84212.0,339390.0,56998.0,79309.0,40206.0,47445.0,71688.0,31457.0,4216.0,3798.0,1828.0,2445.0
232228,County,2020/03/13,27.0,MN,27019.0,Carver County,19560.0,83991.0,346312.0,63030.0,94933.0,41600.0,39616.0,67619.0,27951.0,3413.0,4684.0,1038.0,2428.0
233806,County,2020/03/14,27.0,MN,27019.0,Carver County,24053.0,79498.0,323011.0,48689.0,83795.0,39414.0,52279.0,60119.0,27264.0,3599.0,4274.0,1137.0,2441.0
238560,County,2020/03/15,27.0,MN,27019.0,Carver County,26290.0,77261.0,296053.0,68041.0,78223.0,30904.0,37224.0,50303.0,20899.0,5057.0,3824.0,822.0,756.0
241803,County,2020/03/16,27.0,MN,27019.0,Carver County,22955.0,80596.0,327467.0,64666.0,75836.0,33032.0,45939.0,70193.0,31347.0,3465.0,1834.0,505.0,650.0
243419,County,2020/03/17,27.0,MN,27019.0,Carver County,25168.0,78383.0,308960.0,66850.0,71108.0,29906.0,38584.0,64981.0,28270.0,5128.0,2869.0,781.0,483.0
246574,County,2020/03/18,27.0,MN,27019.0,Carver County,26884.0,76667.0,299040.0,60454.0,72185.0,30088.0,37744.0,60929.0,28192.0,5876.0,2420.0,680.0,472.0
249780,County,2020/03/19,27.0,MN,27019.0,Carver County,29610.0,73941.0,277332.0,54685.0,64821.0,27637.0,38054.0,59604.0,23907.0,4528.0,2947.0,642.0,507.0
253014,County,2020/03/20,27.0,MN,27019.0,Carver County,28672.0,74879.0,302576.0,72446.0,68787.0,27580.0,37983.0,62142.0,22055.0,6011.0,3738.0,824.0,1010.0
256157,County,2020/03/21,27.0,MN,27019.0,Carver County,31927.0,71624.0,278515.0,72477.0,66480.0,29833.0,39089.0,45784.0,16555.0,4113.0,2252.0,1039.0,893.0
259393,County,2020/03/22,27.0,MN,27019.0,Carver County,32810.0,70741.0,228966.0,59230.0,55582.0,21916.0,29527.0,39529.0,14038.0,4269.0,3321.0,771.0,783.0
264123,County,2020/03/23,27.0,MN,27019.0,Carver County,27513.0,76038.0,252042.0,57868.0,59134.0,23080.0,33357.0,51734.0,19973.0,3822.0,1980.0,659.0,435.0
267352,County,2020/03/24,27.0,MN,27019.0,Carver County,27763.0,75788.0,254645.0,58114.0,59851.0,23153.0,30878.0,52453.0,22434.0,3847.0,2459.0,861.0,595.0
268983,County,2020/03/25,27.0,MN,27019.0,Carver County,27963.0,75588.0,258795.0,63155.0,59146.0,24730.0,34307.0,47992.0,22315.0,3727.0,1982.0,715.0,726.0
273723,County,2020/03/26,27.0,MN,27019.0,Carver County,27680.0,75871.0,260992.0,59705.0,59558.0,27049.0,34001.0,50600.0,22277.0,4421.0,1960.0,908.0,513.0
275363,County,2020/03/27,27.0,MN,27019.0,Carver County,27145.0,76406.0,263032.0,54371.0,65451.0,30317.0,33378.0,51283.0,21521.0,3488.0,1956.0,551.0,716.0
278517,County,2020/03/28,27.0,MN,27019.0,Carver County,32481.0,71070.0,218945.0,52900.0,57684.0,20662.0,26317.0,40060.0,14214.0,2899.0,2344.0,1097.0,768.0
283277,County,2020/03/29,27.0,MN,27019.0,Carver County,33916.0,69635.0,212576.0,50220.0,57193.0,24149.0,29160.0,32446.0,13379.0,2724.0,2003.0,444.0,858.0
284904,County,2020/03/30,27.0,MN,27019.0,Carver County,28373.0,75178.0,240854.0,52609.0,60616.0,25984.0,30152.0,47543.0,18650.0,2164.0,1497.0,797.0,842.0
289707,County,2020/03/31,27.0,MN,27019.0,Carver County,29383.0,74168.0,240332.0,54625.0,56886.0,24176.0,29436.0,48690.0,19775.0,3466.0,2087.0,404.0,787.0
292906,County,2020/04/01,27.0,MN,27019.0,Carver County,28715.0,74836.0,246986.0,59553.0,62197.0,25038.0,26915.0,47208.0,19665.0,3563.0,1895.0,423.0,529.0
296068,County,2020/04/02,27.0,MN,27019.0,Carver County,28953.0,74598.0,233507.0,49395.0,60002.0,23057.0,28460.0,47899.0,18181.0,3403.0,1642.0,744.0,724.0
297729,County,2020/04/03,27.0,MN,27019.0,Carver County,29069.0,74482.0,228985.0,47049.0,59962.0,22914.0,28863.0,45171.0,18134.0,3313.0,2260.0,516.0,803.0
302475,County,2020/04/04,27.0,MN,27019.0,Carver County,30579.0,72972.0,232805.0,57663.0,61967.0,24458.0,32222.0,35361.0,13972.0,3582.0,2304.0,483.0,793.0
304103,County,2020/04/05,27.0,MN,27019.0,Carver County,32090.0,71461.0,226947.0,59212.0,59965.0,23611.0,28701.0,36049.0,12553.0,3469.0,1958.0,709.0,720.0
307312,County,2020/04/06,27.0,MN,27019.0,Carver County,28872.0,74679.0,239412.0,55072.0,55905.0,24642.0,35557.0,44144.0,18627.0,3537.0,1349.0,251.0,328.0
312068,County,2020/04/07,27.0,MN,27019.0,Carver County,28698.0,74853.0,259036.0,64668.0,63685.0,23993.0,33217.0,48952.0,19022.0,2732.0,2279.0,312.0,176.0
315241,County,2020/04/08,27.0,MN,27019.0,Carver County,28795.0,74756.0,250921.0,60281.0,58054.0,23176.0,35047.0,46621.0,21993.0,3391.0,1488.0,504.0,366.0
316868,County,2020/04/09,27.0,MN,27019.0,Carver County,31057.0,72494.0,229926.0,42727.0,56671.0,22866.0,31454.0,52243.0,19151.0,2310.0,1524.0,527.0,453.0
320095,County,2020/04/10,27.0,MN,27019.0,Carver County,28283.0,75268.0,263752.0,54032.0,64925.0,25908.0,39024.0,53504.0,20049.0,3386.0,2144.0,331.0,449.0
323280,County,2020/04/11,27.0,MN,27019.0,Carver County,29243.0,74308.0,254234.0,56431.0,65407.0,30612.0,35751.0,47183.0,13191.0,3067.0,1686.0,395.0,511.0
326424,County,2020/04/12,27.0,MN,27019.0,Carver County,39535.0,64016.0,146635.0,24536.0,42629.0,19372.0,17654.0,26826.0,10022.0,2732.0,1786.0,535.0,543.0
329690,County,2020/04/13,27.0,MN,27019.0,Carver County,31677.0,71874.0,219186.0,38721.0,51199.0,22997.0,31898.0,51564.0,18068.0,3319.0,870.0,294.0,256.0
332814,County,2020/04/14,27.0,MN,27019.0,Carver County,30571.0,72980.0,189680.0,39224.0,48869.0,16581.0,21532.0,37314.0,18567.0,4316.0,1524.0,811.0,942.0
336040,County,2020/04/15,27.0,MN,27019.0,Carver County,29882.0,73669.0,215973.0,47426.0,59059.0,18725.0,24317.0,41838.0,17225.0,4351.0,1976.0,818.0,238.0
340758,County,2020/04/16,27.0,MN,27019.0,Carver County,31413.0,72138.0,197976.0,40276.0,51284.0,20300.0,21583.0,41571.0,15953.0,3272.0,2105.0,747.0,885.0
342493,County,2020/04/17,27.0,MN,27019.0,Carver County,28390.0,75161.0,224598.0,47604.0,62211.0,22369.0,27166.0,43306.0,13685.0,3806.0,3468.0,652.0,331.0
345599,County,2020/04/18,27.0,MN,27019.0,Carver County,30755.0,72796.0,240145.0,45442.0,75754.0,27316.0,32175.0,39743.0,13280.0,3405.0,1460.0,667.0,903.0
350350,County,2020/04/19,27.0,MN,27019.0,Carver County,31858.0,71693.0,199939.0,41068.0,58105.0,21492.0,30012.0,33766.0,9575.0,1858.0,2959.0,242.0,862.0
353600,County,2020/04/20,27.0,MN,27019.0,Carver County,27351.0,76200.0,233483.0,47277.0,64033.0,22962.0,31919.0,41550.0,17142.0,4209.0,2337.0,791.0,1263.0
356786,County,2020/04/21,27.0,MN,27019.0,Carver County,27645.0,75906.0,258765.0,56993.0,60405.0,27303.0,35850.0,52540.0,20213.0,3396.0,1345.0,437.0,283.0
358415,County,2020/04/22,27.0,MN,27019.0,Carver County,27024.0,76527.0,285741.0,69488.0,70359.0,30498.0,34153.0,53633.0,20047.0,5076.0,1669.0,386.0,432.0
363147,County,2020/04/23,27.0,MN,27019.0,Carver County,26805.0,76746.0,277354.0,61679.0,69321.0,26619.0,38639.0,53647.0,21903.0,2688.0,1860.0,515.0,483.0
364774,County,2020/04/24,27.0,MN,27019.0,Carver County,26742.0,76809.0,289906.0,65769.0,67242.0,33331.0,38504.0,57338.0,19892.0,4731.0,2528.0,283.0,288.0
367941,County,2020/04/25,27.0,MN,27019.0,Carver County,27236.0,76315.0,297377.0,69323.0,81874.0,31160.0,44144.0,49495.0,15780.0,3753.0,1502.0,114.0,232.0
372710,County,2020/04/26,27.0,MN,27019.0,Carver County,29300.0,74251.0,271730.0,64119.0,69257.0,28201.0,39675.0,47468.0,15884.0,4819.0,1819.0,264.0,224.0
374384,County,2020/04/27,27.0,MN,27019.0,Carver County,27076.0,76475.0,279361.0,63150.0,68710.0,29946.0,36464.0,52735.0,22116.0,3464.0,1981.0,489.0,306.0
379112,County,2020/04/28,27.0,MN,27019.0,Carver County,27402.0,76149.0,245600.0,42766.0,53362.0,26452.0,35559.0,57452.0,23414.0,4016.0,1832.0,390.0,357.0
382316,County,2020/04/29,27.0,MN,27019.0,Carver County,26625.0,76926.0,286643.0,61735.0,65524.0,33381.0,41383.0,56061.0,23734.0,3303.0,1044.0,317.0,161.0
383935,County,2020/04/30,27.0,MN,27019.0,Carver County,25368.0,78183.0,297427.0,68374.0,68748.0,30246.0,40217.0,61025.0,22118.0,3951.0,2169.0,469.0,110.0
387159,County,2020/05/01,27.0,MN,27019.0,Carver County,24854.0,78697.0,299861.0,67913.0,70749.0,31838.0,41942.0,58257.0,21055.0,4815.0,2775.0,412.0,105.0
390342,County,2020/05/02,27.0,MN,27019.0,Carver County,26960.0,76591.0,306440.0,75673.0,77634.0,37823.0,42991.0,47827.0,15770.0,4572.0,3413.0,619.0,118.0
395066,County,2020/05/03,27.0,MN,27019.0,Carver County,26926.0,76625.0,278527.0,67721.0,71436.0,31365.0,37393.0,44148.0,15163.0,5806.0,4727.0,494.0,274.0
396717,County,2020/05/04,27.0,MN,27019.0,Carver County,26914.0,76637.0,304760.0,65973.0,72359.0,31476.0,43147.0,61386.0,22563.0,5151.0,2022.0,399.0,284.0
399936,County,2020/05/05,27.0,MN,27019.0,Carver County,26371.0,77180.0,294890.0,65618.0,70253.0,29222.0,39917.0,58529.0,25048.0,3563.0,2132.0,416.0,192.0
404691,County,2020/05/06,27.0,MN,27019.0,Carver County,26338.0,77213.0,289149.0,60234.0,69613.0,32698.0,42693.0,56792.0,20515.0,4077.0,1888.0,261.0,378.0
406318,County,2020/05/07,27.0,MN,27019.0,Carver County,26321.0,77230.0,298360.0,64047.0,71170.0,28428.0,48686.0,57899.0,21146.0,4669.0,1697.0,434.0,184.0
411048,County,2020/05/08,27.0,MN,27019.0,Carver County,25403.0,78148.0,299980.0,56802.0,73168.0,34667.0,45716.0,62096.0,19952.0,4190.0,2749.0,488.0,152.0
412628,County,2020/05/09,27.0,MN,27019.0,Carver County,27549.0,76002.0,282607.0,61767.0,72660.0,29835.0,41939.0,50465.0,17723.0,4830.0,2598.0,486.0,304.0
417425,County,2020/05/10,27.0,MN,27019.0,Carver County,29391.0,74160.0,233187.0,43236.0,56617.0,24292.0,35699.0,44040.0,17206.0,7153.0,4418.0,305.0,221.0
420704,County,2020/05/11,27.0,MN,27019.0,Carver County,22920.0,80631.0,304776.0,68731.0,72255.0,31674.0,40483.0,62232.0,23251.0,4053.0,1506.0,278.0,313.0
422284,County,2020/05/12,27.0,MN,27019.0,Carver County,22078.0,81473.0,314457.0,71114.0,69956.0,31470.0,45409.0,65114.0,24121.0,4883.0,1653.0,499.0,238.0
426957,County,2020/05/13,27.0,MN,27019.0,Carver County,22678.0,80873.0,286163.0,59284.0,62038.0,29989.0,38873.0,60998.0,26120.0,5357.0,2626.0,553.0,325.0
428683,County,2020/05/14,27.0,MN,27019.0,Carver County,21166.0,82385.0,324629.0,75445.0,73158.0,31247.0,43256.0,65796.0,26466.0,5464.0,2708.0,610.0,479.0
433423,County,2020/05/15,27.0,MN,27019.0,Carver County,20740.0,82811.0,335372.0,74896.0,77113.0,33471.0,50311.0,61605.0,26786.0,7497.0,2846.0,533.0,314.0
435101,County,2020/05/16,27.0,MN,27019.0,Carver County,22950.0,80601.0,307084.0,72886.0,76163.0,34692.0,43060.0,53061.0,17311.0,5962.0,2673.0,773.0,503.0
438254,County,2020/05/17,27.0,MN,27019.0,Carver County,26125.0,77426.0,236178.0,39449.0,62351.0,26547.0,34164.0,42626.0,15802.0,8514.0,5654.0,752.0,319.0
443026,County,2020/05/18,27.0,MN,27019.0,Carver County,20239.0,83312.0,331778.0,73444.0,84417.0,27381.0,45105.0,62888.0,29061.0,4986.0,3402.0,621.0,473.0
446189,County,2020/05/19,27.0,MN,27019.0,Carver County,18865.0,84686.0,345121.0,76676.0,88348.0,38978.0,43870.0,64128.0,25651.0,4200.0,2560.0,454.0,256.0
447821,County,2020/05/20,27.0,MN,27019.0,Carver County,20021.0,83530.0,337984.0,82999.0,83414.0,31509.0,45674.0,57530.0,29027.0,4205.0,2658.0,455.0,513.0
450991,County,2020/05/21,27.0,MN,27019.0,Carver County,19279.0,84272.0,349988.0,81718.0,80990.0,34602.0,49646.0,65492.0,26249.0,5981.0,4031.0,585.0,694.0
454227,County,2020/05/22,27.0,MN,27019.0,Carver County,16277.0,87274.0,348972.0,72145.0,80484.0,38080.0,50173.0,66644.0,26706.0,7558.0,6146.0,672.0,364.0
458962,County,2020/05/23,27.0,MN,27019.0,Carver County,21234.0,82317.0,308638.0,75759.0,75792.0,32462.0,45603.0,47960.0,19662.0,4572.0,5530.0,482.0,816.0
462166,County,2020/05/24,27.0,MN,27019.0,Carver County,24459.0,79092.0,285889.0,73036.0,66486.0,30030.0,41870.0,45816.0,17923.0,5681.0,3784.0,519.0,744.0
463794,County,2020/05/25,27.0,MN,27019.0,Carver County,24178.0,79373.0,268608.0,65420.0,65455.0,27193.0,37817.0,42697.0,15919.0,6278.0,6463.0,875.0,491.0
468625,County,2020/05/26,27.0,MN,27019.0,Carver County,21213.0,82338.0,296377.0,65531.0,63429.0,28749.0,44055.0,61818.0,24458.0,4550.0,2634.0,493.0,660.0
471767,County,2020/05/27,27.0,MN,27019.0,Carver County,20721.0,82830.0,335439.0,79190.0,74477.0,32152.0,47307.0,68827.0,25600.0,5153.0,1924.0,471.0,338.0
474867,County,2020/05/28,27.0,MN,27019.0,Carver County,20954.0,82597.0,325505.0,76771.0,73037.0,29626.0,45430.0,65038.0,27294.0,5248.0,2121.0,716.0,224.0
476545,County,2020/05/29,27.0,MN,27019.0,Carver County,22119.0,81432.0,308068.0,65563.0,67160.0,33381.0,43314.0,62346.0,26302.0,5922.0,3755.0,235.0,90.0
479732,County,2020/05/30,27.0,MN,27019.0,Carver County,23043.0,80508.0,329342.0,83533.0,78160.0,34739.0,46746.0,58092.0,18154.0,5547.0,3780.0,520.0,71.0
482860,County,2020/05/31,27.0,MN,27019.0,Carver County,25579.0,77972.0,278245.0,68750.0,63206.0,31831.0,38319.0,47859.0,16899.0,6189.0,4446.0,495.0,251.0
486127,County,2020/06/01,27.0,MN,27019.0,Carver County,21943.0,81608.0,287574.0,64091.0,64956.0,29460.0,40944.0,58381.0,22756.0,4270.0,2218.0,247.0,251.0
489368,County,2020/06/02,27.0,MN,27019.0,Carver County,21589.0,81962.0,305694.0,63895.0,67610.0,30401.0,43191.0,66111.0,27119.0,4416.0,1740.0,436.0,775.0
492537,County,2020/06/03,27.0,MN,27019.0,Carver County,19713.0,83838.0,345078.0,79697.0,81300.0,32309.0,46173.0,69253.0,28448.0,4970.0,1726.0,351.0,851.0
497311,County,2020/06/04,27.0,MN,27019.0,Carver County,19044.0,84507.0,325104.0,67755.0,75274.0,33001.0,48275.0,66380.0,24920.0,5575.0,2640.0,583.0,701.0
498951,County,2020/06/05,27.0,MN,27019.0,Carver County,19408.0,84143.0,346808.0,74993.0,79615.0,34399.0,51707.0,68173.0,26859.0,6161.0,3679.0,662.0,560.0
502098,County,2020/06/06,27.0,MN,27019.0,Carver County,23282.0,80269.0,308194.0,68762.0,83059.0,31946.0,45622.0,52031.0,18230.0,5172.0,2725.0,304.0,343.0
505290,County,2020/06/07,27.0,MN,27019.0,Carver County,24068.0,79483.0,275377.0,55907.0,76162.0,27102.0,41314.0,45873.0,18488.0,5695.0,3979.0,631.0,226.0
510086,County,2020/06/08,27.0,MN,27019.0,Carver County,18629.0,84922.0,354682.0,77034.0,84783.0,35784.0,50999.0,71847.0,26416.0,5203.0,1750.0,629.0,237.0
511715,County,2020/06/09,27.0,MN,27019.0,Carver County,21529.0,82022.0,320677.0,68670.0,72742.0,30537.0,52611.0,63016.0,25305.0,5026.0,1805.0,640.0,325.0
514873,County,2020/06/10,27.0,MN,27019.0,Carver County,21537.0,82014.0,323835.0,75610.0,70757.0,33082.0,46604.0,64065.0,26223.0,4753.0,1824.0,685.0,232.0
519604,County,2020/06/11,27.0,MN,27019.0,Carver County,20213.0,83338.0,349589.0,83733.0,75790.0,36527.0,48485.0,68473.0,27496.0,5453.0,2886.0,477.0,269.0
522876,County,2020/06/12,27.0,MN,27019.0,Carver County,20116.0,83435.0,338175.0,77254.0,77114.0,34707.0,48921.0,62253.0,26146.0,7109.0,3979.0,440.0,252.0
524503,County,2020/06/13,27.0,MN,27019.0,Carver County,22381.0,81170.0,332682.0,83209.0,79578.0,34978.0,45800.0,56332.0,22410.0,5529.0,4114.0,608.0,124.0
527698,County,2020/06/14,27.0,MN,27019.0,Carver County,24116.0,79435.0,277428.0,61090.0,70135.0,30351.0,37356.0,46325.0,18721.0,7414.0,4940.0,574.0,522.0
530847,County,2020/06/15,27.0,MN,27019.0,Carver County,23568.0,79983.0,290325.0,62260.0,63158.0,28520.0,43653.0,60525.0,24221.0,4692.0,2576.0,314.0,406.0
535628,County,2020/06/16,27.0,MN,27019.0,Carver County,23255.0,80296.0,307754.0,74476.0,67059.0,30530.0,42526.0,61728.0,23938.0,4962.0,1904.0,298.0,333.0
538796,County,2020/06/17,27.0,MN,27019.0,Carver County,22391.0,81160.0,327941.0,76518.0,73467.0,34715.0,45331.0,65571.0,23639.0,5555.0,2274.0,461.0,410.0
540426,County,2020/06/18,27.0,MN,27019.0,Carver County,21588.0,81963.0,297837.0,66320.0,64477.0,28440.0,45161.0,60191.0,23128.0,5499.0,3907.0,431.0,283.0
543618,County,2020/06/19,27.0,MN,27019.0,Carver County,21176.0,82375.0,318201.0,71267.0,74932.0,30641.0,44703.0,61441.0,24028.0,6145.0,3903.0,620.0,521.0
546823,County,2020/06/20,27.0,MN,27019.0,Carver County,23030.0,80521.0,281240.0,61120.0,70889.0,31339.0,40770.0,47255.0,18302.0,6514.0,3928.0,854.0,269.0
550027,County,2020/06/21,27.0,MN,27019.0,Carver County,24963.0,78588.0,255079.0,56602.0,62115.0,30635.0,32077.0,42571.0,17204.0,7817.0,5519.0,411.0,128.0
553202,County,2020/06/22,27.0,MN,27019.0,Carver County,23995.0,79556.0,282755.0,65361.0,65053.0,25823.0,38141.0,56049.0,24477.0,5152.0,1901.0,492.0,306.0
556435,County,2020/06/23,27.0,MN,27019.0,Carver County,22068.0,81483.0,322271.0,75222.0,68114.0,34781.0,46757.0,65447.0,25371.0,3909.0,1519.0,641.0,510.0
559594,County,2020/06/24,27.0,MN,27019.0,Carver County,23360.0,80191.0,287326.0,61688.0,65243.0,30857.0,40689.0,57006.0,23510.0,4361.0,2806.0,885.0,281.0
562783,County,2020/06/25,27.0,MN,27019.0,Carver County,23072.0,80479.0,294977.0,64337.0,65197.0,28298.0,43380.0,62353.0,21521.0,5373.0,3221.0,1029.0,268.0
567627,County,2020/06/26,27.0,MN,27019.0,Carver County,22863.0,80688.0,284325.0,56352.0,61199.0,27438.0,46343.0,59000.0,23682.0,5160.0,4010.0,859.0,282.0
569207,County,2020/06/27,27.0,MN,27019.0,Carver County,23546.0,80005.0,319753.0,78058.0,73193.0,35679.0,46295.0,54941.0,18734.0,6846.0,5333.0,447.0,227.0
573968,County,2020/06/28,27.0,MN,27019.0,Carver County,23762.0,79789.0,275312.0,56842.0,65156.0,29368.0,41484.0,48025.0,19617.0,7517.0,6090.0,922.0,291.0
577139,County,2020/06/29,27.0,MN,27019.0,Carver County,23595.0,79956.0,273014.0,51534.0,59591.0,26305.0,41934.0,58116.0,25868.0,5416.0,3038.0,761.0,451.0
578781,County,2020/06/30,27.0,MN,27019.0,Carver County,22529.0,81022.0,285452.0,56876.0,58008.0,29926.0,42251.0,62630.0,26878.0,5216.0,2237.0,612.0,818.0
581988,County,2020/07/01,27.0,MN,27019.0,Carver County,21865.0,81686.0,287147.0,61730.0,62713.0,29534.0,41424.0,58948.0,24193.0,4467.0,2653.0,847.0,638.0
586722,County,2020/07/02,27.0,MN,27019.0,Carver County,24137.0,79414.0,313090.0,68288.0,69200.0,30036.0,46044.0,66182.0,22842.0,5703.0,3419.0,1092.0,284.0
589923,County,2020/07/03,27.0,MN,27019.0,Carver County,26561.0,76990.0,282723.0,56035.0,60854.0,27283.0,46082.0,58668.0,23549.0,5131.0,3987.0,854.0,280.0
591567,County,2020/07/04,27.0,MN,27019.0,Carver County,27663.0,75888.0,241877.0,47939.0,52062.0,23342.0,39424.0,50192.0,20146.0,4390.0,3411.0,731.0,240.0
596313,County,2020/07/05,27.0,MN,27019.0,Carver County,24282.0,79269.0,250551.0,55784.0,59516.0,25193.0,32629.0,41041.0,17905.0,9103.0,7676.0,845.0,859.0
598615,County,2020/07/06,27.0,MN,27019.0,Carver County,25233.0,78318.0,255373.0,50100.0,55551.0,27273.0,35122.0,53012.0,23991.0,5409.0,3442.0,664.0,809.0
603105,County,2020/07/07,27.0,MN,27019.0,Carver County,24684.0,78867.0,260394.0,55818.0,57749.0,24473.0,38694.0,52003.0,24343.0,3884.0,2009.0,652.0,769.0
604351,County,2020/07/08,27.0,MN,27019.0,Carver County,24428.0,79123.0,264249.0,55420.0,54802.0,30133.0,39814.0,52775.0,23781.0,3954.0,2309.0,777.0,484.0
607497,County,2020/07/09,27.0,MN,27019.0,Carver County,24173.0,79378.0,270675.0,56603.0,62742.0,27998.0,36648.0,55751.0,22066.0,4946.0,2536.0,805.0,580.0
610697,County,2020/07/10,27.0,MN,27019.0,Carver County,23858.0,79693.0,286595.0,60692.0,64171.0,27869.0,41342.0,58988.0,21551.0,6818.0,3680.0,993.0,491.0
613908,County,2020/07/11,27.0,MN,27019.0,Carver County,24877.0,78674.0,265134.0,60975.0,60580.0,28185.0,39397.0,44294.0,21042.0,5002.0,4136.0,936.0,587.0
618681,County,2020/07/12,27.0,MN,27019.0,Carver County,25854.0,77697.0,249609.0,55118.0,56378.0,26197.0,33738.0,44406.0,19801.0,7100.0,4808.0,1081.0,982.0
621888,County,2020/07/13,27.0,MN,27019.0,Carver County,25636.0,77915.0,250789.0,52292.0,55435.0,23716.0,35443.0,54235.0,22042.0,3767.0,2558.0,573.0,728.0
623469,County,2020/07/14,27.0,MN,27019.0,Carver County,25578.0,77973.0,249357.0,52016.0,53037.0,25811.0,36820.0,51865.0,21097.0,5355.0,1975.0,685.0,696.0
626591,County,2020/07/15,27.0,MN,27019.0,Carver County,23748.0,79803.0,283504.0,60709.0,65612.0,29734.0,41848.0,55058.0,22483.0,4961.0,2053.0,640.0,406.0
631521,County,2020/07/16,27.0,MN,27019.0,Carver County,24383.0,79168.0,280614.0,62911.0,59806.0,30925.0,39460.0,57007.0,20779.0,5468.0,3143.0,618.0,497.0
633082,County,2020/07/17,27.0,MN,27019.0,Carver County,25401.0,78150.0,270059.0,55019.0,57020.0,29614.0,37942.0,54967.0,22370.0,7450.0,4643.0,661.0,373.0
637819,County,2020/07/18,27.0,MN,27019.0,Carver County,26507.0,77044.0,263572.0,58727.0,63779.0,27066.0,36743.0,47674.0,18413.0,6192.0,3628.0,980.0,370.0
641021,County,2020/07/19,27.0,MN,27019.0,Carver County,25984.0,77567.0,255519.0,59152.0,58908.0,24345.0,37381.0,43971.0,19409.0,7103.0,4344.0,514.0,392.0
644230,County,2020/07/20,27.0,MN,27019.0,Carver County,25752.0,77799.0,283770.0,63963.0,65572.0,28591.0,42559.0,55064.0,21001.0,4095.0,2180.0,516.0,229.0
645858,County,2020/07/21,27.0,MN,27019.0,Carver County,24394.0,79157.0,277157.0,59554.0,54479.0,27684.0,40821.0,61969.0,24420.0,4947.0,1991.0,669.0,623.0
648540,County,2020/07/22,27.0,MN,27019.0,Carver County,24223.0,79328.0,292610.0,64350.0,57874.0,32970.0,41161.0,62793.0,24911.0,5060.0,2510.0,585.0,396.0
653781,County,2020/07/23,27.0,MN,27019.0,Carver County,24030.0,79521.0,278915.0,59760.0,58522.0,29026.0,36824.0,61035.0,23170.0,6402.0,3326.0,450.0,400.0
657055,County,2020/07/24,27.0,MN,27019.0,Carver County,23692.0,79859.0,294067.0,64881.0,60206.0,28665.0,39007.0,62033.0,25726.0,8112.0,4255.0,640.0,542.0
660272,County,2020/07/25,27.0,MN,27019.0,Carver County,26585.0,76966.0,258693.0,53279.0,57544.0,27183.0,40150.0,48788.0,19970.0,6648.0,3878.0,759.0,494.0
663351,County,2020/07/26,27.0,MN,27019.0,Carver County,26170.0,77381.0,248953.0,48338.0,54944.0,25551.0,36990.0,45725.0,20264.0,7439.0,7757.0,1142.0,803.0
665092,County,2020/07/27,27.0,MN,27019.0,Carver County,25519.0,78032.0,278928.0,56155.0,56522.0,30650.0,39556.0,56390.0,28224.0,6287.0,3684.0,710.0,750.0
668205,County,2020/07/28,27.0,MN,27019.0,Carver County,24752.0,78799.0,293253.0,64244.0,60696.0,31783.0,41994.0,62591.0,23446.0,4518.0,2434.0,794.0,753.0
671411,County,2020/07/29,27.0,MN,27019.0,Carver County,25094.0,78457.0,279925.0,65453.0,59838.0,24092.0,36276.0,59756.0,23031.0,6513.0,3342.0,889.0,735.0
674621,County,2020/07/30,27.0,MN,27019.0,Carver County,24763.0,78788.0,281745.0,55962.0,57163.0,27467.0,40359.0,63555.0,24435.0,6951.0,3758.0,1120.0,975.0
677773,County,2020/07/31,27.0,MN,27019.0,Carver County,24707.0,78844.0,279983.0,58988.0,59733.0,27655.0,41660.0,52350.0,25070.0,7803.0,4670.0,1381.0,673.0
682520,County,2020/08/01,27.0,MN,27019.0,Carver County,27637.0,75914.0,277348.0,58427.0,58986.0,27877.0,43096.0,52230.0,23005.0,7621.0,4234.0,795.0,1077.0
685760,County,2020/08/02,27.0,MN,27019.0,Carver County,25851.0,77700.0,274819.0,56711.0,60997.0,27161.0,38956.0,50781.0,22497.0,8553.0,7472.0,1290.0,401.0
688963,County,2020/08/03,27.0,MN,27019.0,Carver County,25027.0,78524.0,277930.0,55253.0,58942.0,28087.0,40055.0,62779.0,23180.0,5864.0,2549.0,750.0,471.0
692125,County,2020/08/04,27.0,MN,27019.0,Carver County,23619.0,79932.0,310693.0,72461.0,63710.0,35059.0,42671.0,63565.0,26034.0,4129.0,2442.0,423.0,199.0
693754,County,2020/08/05,27.0,MN,27019.0,Carver County,24027.0,79524.0,300519.0,64156.0,63335.0,32920.0,41941.0,64083.0,25415.0,5011.0,2703.0,523.0,432.0
696960,County,2020/08/06,27.0,MN,27019.0,Carver County,22539.0,81012.0,312637.0,66592.0,68850.0,31343.0,44974.0,66495.0,25420.0,4813.0,3383.0,488.0,279.0
700172,County,2020/08/07,27.0,MN,27019.0,Carver County,21348.0,82203.0,312248.0,71365.0,68685.0,30783.0,40752.0,62082.0,24446.0,6789.0,6328.0,685.0,333.0
703321,County,2020/08/08,27.0,MN,27019.0,Carver County,23931.0,79620.0,305554.0,67894.0,71371.0,29964.0,45715.0,55815.0,21788.0,7546.0,4743.0,545.0,173.0
706512,County,2020/08/09,27.0,MN,27019.0,Carver County,25070.0,78481.0,265779.0,54410.0,64945.0,23810.0,38757.0,49984.0,18141.0,6804.0,7497.0,1054.0,377.0
711321,County,2020/08/10,27.0,MN,27019.0,Carver County,24416.0,79135.0,295578.0,60754.0,67767.0,27829.0,39682.0,64469.0,24930.0,6391.0,2634.0,744.0,378.0
714562,County,2020/08/11,27.0,MN,27019.0,Carver County,23755.0,79796.0,321750.0,65183.0,73795.0,30398.0,48625.0,66967.0,27845.0,5283.0,3040.0,428.0,186.0
716095,County,2020/08/12,27.0,MN,27019.0,Carver County,22954.0,80597.0,290681.0,51775.0,64706.0,28383.0,39368.0,66127.0,29227.0,5821.0,3016.0,894.0,1364.0
720855,County,2020/08/13,27.0,MN,27019.0,Carver County,22885.0,80666.0,311080.0,69147.0,64045.0,27114.0,42868.0,67850.0,28316.0,5559.0,3804.0,648.0,1729.0
724081,County,2020/08/14,27.0,MN,27019.0,Carver County,21293.0,82258.0,305786.0,60147.0,59656.0,28091.0,46699.0,66060.0,27927.0,8527.0,5612.0,1151.0,1916.0
727292,County,2020/08/15,27.0,MN,27019.0,Carver County,22254.0,81297.0,324973.0,73785.0,72049.0,31413.0,46994.0,59795.0,25396.0,7226.0,5238.0,1024.0,2053.0
730484,County,2020/08/16,27.0,MN,27019.0,Carver County,24937.0,78614.0,298999.0,59457.0,71512.0,30054.0,42829.0,53593.0,23067.0,7367.0,6708.0,1534.0,2878.0
733652,County,2020/08/17,27.0,MN,27019.0,Carver County,24888.0,78663.0,313029.0,69345.0,61785.0,34095.0,42606.0,63743.0,26775.0,6895.0,3432.0,1040.0,3313.0
735279,County,2020/08/18,27.0,MN,27019.0,Carver County,24211.0,79340.0,286555.0,55797.0,58144.0,26890.0,38365.0,62816.0,32270.0,5707.0,2806.0,1142.0,2618.0
738485,County,2020/08/19,27.0,MN,27019.0,Carver County,22883.0,80668.0,309977.0,64440.0,66691.0,30780.0,38680.0,67452.0,29662.0,4929.0,3816.0,878.0,2649.0
743266,County,2020/08/20,27.0,MN,27019.0,Carver County,21836.0,81715.0,319951.0,66905.0,65162.0,30983.0,42396.0,68469.0,31176.0,7158.0,4059.0,998.0,2645.0
744846,County,2020/08/21,27.0,MN,27019.0,Carver County,20894.0,82657.0,332768.0,67535.0,70226.0,33272.0,48591.0,67067.0,28457.0,7975.0,6364.0,1016.0,2265.0
749628,County,2020/08/22,27.0,MN,27019.0,Carver County,22489.0,81062.0,327253.0,72913.0,70074.0,33347.0,47158.0,60005.0,26640.0,8601.0,4545.0,1288.0,2682.0
751244,County,2020/08/23,27.0,MN,27019.0,Carver County,27083.0,76468.0,248369.0,52725.0,50516.0,26517.0,37298.0,43067.0,21612.0,7561.0,6386.0,744.0,1943.0
754467,County,2020/08/24,27.0,MN,27019.0,Carver County,26426.0,77125.0,260172.0,51027.0,57602.0,26997.0,35396.0,54603.0,24031.0,4819.0,2898.0,840.0,1959.0
759228,County,2020/08/25,27.0,MN,27019.0,Carver County,25028.0,78523.0,286062.0,59636.0,63220.0,31471.0,39781.0,58627.0,23840.0,4555.0,2127.0,856.0,1949.0
760811,County,2020/08/26,27.0,MN,27019.0,Carver County,25079.0,78472.0,275721.0,54439.0,59196.0,28103.0,41661.0,57217.0,25118.0,4991.0,3040.0,775.0,1181.0
765584,County,2020/08/27,27.0,MN,27019.0,Carver County,25494.0,78057.0,284141.0,56085.0,63220.0,28867.0,41538.0,57796.0,27038.0,5576.0,2677.0,514.0,830.0
768799,County,2020/08/28,27.0,MN,27019.0,Carver County,24262.0,79289.0,272273.0,51769.0,56926.0,26034.0,39904.0,57493.0,24806.0,7374.0,6205.0,917.0,845.0
770427,County,2020/08/29,27.0,MN,27019.0,Carver County,26247.0,77304.0,313656.0,71584.0,66822.0,31574.0,48043.0,57444.0,23096.0,8851.0,4555.0,724.0,963.0
773634,County,2020/08/30,27.0,MN,27019.0,Carver County,26415.0,77136.0,263800.0,50162.0,54519.0,29518.0,41592.0,50354.0,19258.0,9259.0,6665.0,1271.0,1202.0
778359,County,2020/08/31,27.0,MN,27019.0,Carver County,25651.0,77900.0,273966.0,58125.0,55131.0,27586.0,38492.0,55905.0,27325.0,5191.0,4200.0,888.0,1123.0
779970,County,2020/09/01,27.0,MN,27019.0,Carver County,24837.0,78714.0,285837.0,56050.0,60711.0,28098.0,44862.0,61159.0,26028.0,4875.0,2456.0,835.0,763.0
783164,County,2020/09/02,27.0,MN,27019.0,Carver County,24263.0,79288.0,307022.0,62832.0,64920.0,30217.0,47063.0,62912.0,29304.0,4948.0,3427.0,707.0,692.0
787952,County,2020/09/03,27.0,MN,27019.0,Carver County,23143.0,80408.0,326454.0,65444.0,71166.0,30433.0,47161.0,70016.0,30203.0,5393.0,5151.0,635.0,852.0
791143,County,2020/09/04,27.0,MN,27019.0,Carver County,24920.0,78631.0,299681.0,59086.0,61562.0,31105.0,41330.0,61945.0,27195.0,7004.0,8520.0,959.0,975.0
794332,County,2020/09/05,27.0,MN,27019.0,Carver County,25408.0,78143.0,315503.0,77161.0,72131.0,32145.0,42935.0,49006.0,25475.0,8949.0,6096.0,811.0,794.0
797536,County,2020/09/06,27.0,MN,27019.0,Carver County,28119.0,75432.0,267759.0,58231.0,61962.0,26938.0,34680.0,46251.0,23326.0,7743.0,6511.0,1050.0,1067.0
799146,County,2020/09/07,27.0,MN,27019.0,Carver County,28639.0,74912.0,231284.0,44052.0,51695.0,23427.0,29817.0,43884.0,19507.0,7971.0,8678.0,1435.0,818.0
802359,County,2020/09/08,27.0,MN,27019.0,Carver County,27165.0,76386.0,282324.0,52747.0,64079.0,30560.0,37114.0,62943.0,25350.0,4874.0,2620.0,801.0,1236.0
807140,County,2020/09/09,27.0,MN,27019.0,Carver County,27663.0,75888.0,290299.0,52418.0,64499.0,32518.0,42156.0,61151.0,28174.0,5241.0,2753.0,508.0,881.0
810295,County,2020/09/10,27.0,MN,27019.0,Carver County,26577.0,76974.0,278908.0,52145.0,61488.0,28873.0,41180.0,59002.0,27474.0,4088.0,3069.0,700.0,889.0
811924,County,2020/09/11,27.0,MN,27019.0,Carver County,24538.0,79013.0,305398.0,58784.0,67543.0,31055.0,43362.0,62854.0,28594.0,6157.0,4916.0,1002.0,1131.0
815109,County,2020/09/12,27.0,MN,27019.0,Carver County,26855.0,76696.0,290381.0,52066.0,61816.0,29859.0,44517.0,61202.0,27990.0,7157.0,4260.0,667.0,847.0
819906,County,2020/09/13,27.0,MN,27019.0,Carver County,29110.0,74441.0,249583.0,48490.0,53408.0,28681.0,36643.0,45010.0,25570.0,6715.0,3641.0,458.0,967.0
821535,County,2020/09/14,27.0,MN,27019.0,Carver County,26048.0,77503.0,289243.0,56275.0,61099.0,31379.0,43939.0,59929.0,27999.0,4373.0,2555.0,724.0,971.0
824691,County,2020/09/15,27.0,MN,27019.0,Carver County,26331.0,77220.0,296503.0,56974.0,67904.0,27527.0,44433.0,61270.0,29032.0,4761.0,2614.0,898.0,1090.0
827932,County,2020/09/16,27.0,MN,27019.0,Carver County,25498.0,78053.0,296268.0,54838.0,63423.0,31167.0,45701.0,61661.0,30577.0,4247.0,2840.0,799.0,1015.0
832675,County,2020/09/17,27.0,MN,27019.0,Carver County,25398.0,78153.0,300129.0,56679.0,68284.0,30635.0,41658.0,66131.0,27811.0,4003.0,3058.0,971.0,899.0
834304,County,2020/09/18,27.0,MN,27019.0,Carver County,24815.0,78736.0,314827.0,60339.0,71028.0,29243.0,45671.0,65227.0,30639.0,5787.0,5020.0,1046.0,827.0
839079,County,2020/09/19,27.0,MN,27019.0,Carver County,26032.0,77519.0,325423.0,66158.0,77208.0,33520.0,48232.0,62349.0,25445.0,6380.0,4182.0,785.0,1164.0
842242,County,2020/09/20,27.0,MN,27019.0,Carver County,27431.0,76120.0,275895.0,60799.0,62672.0,28260.0,38414.0,52374.0,20560.0,5925.0,5437.0,975.0,479.0
843870,County,2020/09/21,27.0,MN,27019.0,Carver County,26922.0,76629.0,276310.0,56788.0,59315.0,26034.0,42068.0,58402.0,26032.0,4389.0,2654.0,361.0,267.0
847074,County,2020/09/22,27.0,MN,27019.0,Carver County,24891.0,78660.0,300160.0,64258.0,64820.0,31526.0,41558.0,62593.0,28456.0,4295.0,1871.0,498.0,285.0
851852,County,2020/09/23,27.0,MN,27019.0,Carver County,23603.0,79948.0,315264.0,61246.0,73694.0,35974.0,45267.0,64164.0,27049.0,4930.0,2368.0,420.0,152.0
853480,County,2020/09/24,27.0,MN,27019.0,Carver County,23111.0,80440.0,300938.0,62652.0,69578.0,30497.0,40749.0,61801.0,28111.0,4646.0,1890.0,544.0,470.0
856637,County,2020/09/25,27.0,MN,27019.0,Carver County,21917.0,81634.0,318895.0,61653.0,70229.0,32342.0,47536.0,68423.0,27390.0,5310.0,5159.0,497.0,356.0
861390,County,2020/09/26,27.0,MN,27019.0,Carver County,23863.0,79688.0,309244.0,63073.0,72220.0,30324.0,42287.0,65834.0,22782.0,7714.0,4537.0,268.0,205.0
863044,County,2020/09/27,27.0,MN,27019.0,Carver County,25199.0,78352.0,287538.0,63979.0,70416.0,26350.0,38163.0,53220.0,20111.0,7724.0,6819.0,582.0,174.0
866248,County,2020/09/28,27.0,MN,27019.0,Carver County,24123.0,79428.0,288406.0,53773.0,67051.0,34497.0,43712.0,59029.0,23325.0,4200.0,2198.0,423.0,198.0
871019,County,2020/09/29,27.0,MN,27019.0,Carver County,23332.0,80219.0,301594.0,53878.0,68096.0,33094.0,45344.0,65231.0,29067.0,4612.0,1727.0,326.0,219.0
874185,County,2020/09/30,27.0,MN,27019.0,Carver County,23271.0,80280.0,312753.0,61344.0,69057.0,27515.0,45837.0,71413.0,29878.0,5027.0,2238.0,279.0,165.0
875813,County,2020/10/01,27.0,MN,27019.0,Carver County,21908.0,81643.0,299391.0,53285.0,68171.0,29242.0,43467.0,70189.0,27528.0,4505.0,2204.0,516.0,284.0
879016,County,2020/10/02,27.0,MN,27019.0,Carver County,23937.0,79614.0,306117.0,60159.0,70183.0,29936.0,46567.0,60767.0,28163.0,5465.0,4103.0,476.0,298.0
882232,County,2020/10/03,27.0,MN,27019.0,Carver County,25979.0,77572.0,305921.0,68367.0,70077.0,27564.0,42989.0,61918.0,23921.0,7694.0,2681.0,509.0,201.0
885993,County,2020/10/04,27.0,MN,27019.0,Carver County,27491.0,76060.0,258939.0,48540.0,60020.0,28620.0,38882.0,50732.0,19390.0,6712.0,5241.0,527.0,275.0
889239,County,2020/10/05,27.0,MN,27019.0,Carver County,28081.0,75470.0,271177.0,52375.0,61181.0,26235.0,38056.0,57301.0,29781.0,4035.0,1580.0,364.0,269.0
892395,County,2020/10/06,27.0,MN,27019.0,Carver County,24775.0,78776.0,290866.0,55170.0,69739.0,27528.0,39405.0,63142.0,28923.0,4886.0,1481.0,393.0,199.0
895937,County,2020/10/07,27.0,MN,27019.0,Carver County,24225.0,79326.0,308158.0,57123.0,69954.0,30538.0,45785.0,65207.0,32703.0,4229.0,1779.0,447.0,393.0
899266,County,2020/10/08,27.0,MN,27019.0,Carver County,25337.0,78214.0,293477.0,56400.0,68860.0,27547.0,45915.0,58762.0,28045.0,4501.0,2899.0,219.0,329.0
902000,County,2020/10/09,27.0,MN,27019.0,Carver County,25703.0,77848.0,311520.0,57493.0,72875.0,32352.0,44616.0,65896.0,27321.0,6430.0,3892.0,489.0,156.0
905203,County,2020/10/10,27.0,MN,27019.0,Carver County,27024.0,76527.0,310607.0,61247.0,65725.0,35189.0,47443.0,59452.0,29952.0,7409.0,3626.0,380.0,184.0
908983,County,2020/10/11,27.0,MN,27019.0,Carver County,27334.0,76217.0,261587.0,50778.0,59496.0,26320.0,35945.0,55169.0,19879.0,7333.0,5789.0,665.0,213.0
912001,County,2020/10/12,27.0,MN,27019.0,Carver County,26206.0,77345.0,276657.0,54064.0,63722.0,27920.0,38314.0,58400.0,27259.0,4038.0,2329.0,403.0,208.0
915727,County,2020/10/13,27.0,MN,27019.0,Carver County,24951.0,78600.0,296265.0,58062.0,72751.0,30129.0,41628.0,56779.0,28602.0,4223.0,3035.0,598.0,458.0
918508,County,2020/10/14,27.0,MN,27019.0,Carver County,23573.0,79978.0,285034.0,50022.0,63150.0,27580.0,45185.0,61946.0,27919.0,4723.0,3430.0,608.0,471.0
921620,County,2020/10/15,27.0,MN,27019.0,Carver County,24673.0,78878.0,271504.0,48657.0,58702.0,28464.0,36479.0,59215.0,27625.0,6754.0,4449.0,707.0,452.0
924740,County,2020/10/16,27.0,MN,27019.0,Carver County,23343.0,80208.0,296619.0,58182.0,60106.0,30731.0,43729.0,63094.0,27711.0,7048.0,4725.0,793.0,500.0
928026,County,2020/10/17,27.0,MN,27019.0,Carver County,26415.0,77136.0,277421.0,51232.0,64995.0,27343.0,41553.0,55162.0,24978.0,7560.0,3564.0,683.0,351.0
931243,County,2020/10/18,27.0,MN,27019.0,Carver County,28050.0,75501.0,235816.0,46753.0,53430.0,23719.0,31593.0,44676.0,20702.0,6415.0,6949.0,1225.0,354.0
933907,County,2020/10/19,27.0,MN,27019.0,Carver County,25082.0,78469.0,268716.0,49887.0,60395.0,25454.0,39515.0,54686.0,29406.0,5978.0,2488.0,580.0,327.0
937331,County,2020/10/20,27.0,MN,27019.0,Carver County,27095.0,76456.0,270876.0,54456.0,64600.0,27647.0,36833.0,53683.0,26513.0,4500.0,1917.0,417.0,310.0
941215,County,2020/10/21,27.0,MN,27019.0,Carver County,26388.0,77163.0,275239.0,54297.0,58744.0,24655.0,42403.0,59394.0,28632.0,3693.0,2540.0,527.0,354.0
944474,County,2020/10/22,27.0,MN,27019.0,Carver County,25278.0,78273.0,279255.0,47767.0,67077.0,28269.0,41542.0,59054.0,27588.0,3886.0,3094.0,621.0,357.0
947305,County,2020/10/23,27.0,MN,27019.0,Carver County,23330.0,80221.0,308440.0,51482.0,70993.0,31818.0,45571.0,71190.0,27161.0,6549.0,2735.0,606.0,335.0
950193,County,2020/10/24,27.0,MN,27019.0,Carver County,25554.0,77997.0,311813.0,63457.0,70984.0,33916.0,50697.0,59033.0,23775.0,6628.0,2458.0,673.0,192.0
