,Level,Date,State FIPS,State Postal Code,County FIPS,County Name,Population Staying at Home,Population Not Staying at Home,Number of Trips,Number of Trips <1,Number of Trips 1-3,Number of Trips 3-5,Number of Trips 5-10,Number of Trips 10-25,Number of Trips 25-50,Number of Trips 50-100,Number of Trips 100-250,Number of Trips 250-500,Number of Trips >=500
1434,County,2020/01/01,28.0,MS,28067.0,Jones County,11814.0,56647.0,197899.0,45443.0,53257.0,24797.0,31031.0,27093.0,11628.0,2479.0,1516.0,590.0,65.0
3674,County,2020/01/02,28.0,MS,28067.0,Jones County,9862.0,58599.0,224719.0,54503.0,61709.0,28440.0,32528.0,29135.0,12399.0,3140.0,2385.0,422.0,58.0
8746,County,2020/01/03,28.0,MS,28067.0,Jones County,9713.0,58748.0,241901.0,61106.0,62740.0,29105.0,36536.0,31411.0,15244.0,3230.0,2090.0,408.0,31.0
11993,County,2020/01/04,28.0,MS,28067.0,Jones County,10204.0,58257.0,237010.0,60784.0,56912.0,28077.0,36714.0,32528.0,15673.0,3065.0,2880.0,323.0,54.0
14210,County,2020/01/05,28.0,MS,28067.0,Jones County,11561.0,56900.0,209403.0,45425.0,56435.0,26690.0,36403.0,28995.0,9911.0,2776.0,2159.0,528.0,81.0
16621,County,2020/01/06,28.0,MS,28067.0,Jones County,9923.0,58538.0,246446.0,60600.0,66180.0,29850.0,35889.0,31619.0,15522.0,4143.0,2275.0,318.0,50.0
19876,County,2020/01/07,28.0,MS,28067.0,Jones County,9443.0,59018.0,256463.0,59127.0,68746.0,34394.0,40647.0,32666.0,15043.0,3897.0,1519.0,387.0,37.0
24723,County,2020/01/08,28.0,MS,28067.0,Jones County,9787.0,58674.0,240503.0,53541.0,65261.0,31921.0,38132.0,31070.0,14834.0,3482.0,1892.0,325.0,45.0
26252,County,2020/01/09,28.0,MS,28067.0,Jones County,9235.0,59226.0,240869.0,58479.0,63148.0,29753.0,37929.0,32295.0,13588.0,3527.0,1722.0,376.0,52.0
29448,County,2020/01/10,28.0,MS,28067.0,Jones County,9414.0,59047.0,244089.0,55750.0,67009.0,30146.0,40424.0,31019.0,14111.0,3361.0,1957.0,272.0,40.0
32689,County,2020/01/11,28.0,MS,28067.0,Jones County,10796.0,57665.0,206847.0,47208.0,60090.0,26372.0,31142.0,26588.0,11098.0,2246.0,1773.0,245.0,85.0
35845,County,2020/01/12,28.0,MS,28067.0,Jones County,11244.0,57217.0,218876.0,50564.0,60884.0,26245.0,37557.0,28473.0,10598.0,2644.0,1613.0,238.0,60.0
39089,County,2020/01/13,28.0,MS,28067.0,Jones County,10028.0,58433.0,234960.0,57367.0,60549.0,31839.0,37811.0,29139.0,12333.0,3578.0,2048.0,241.0,55.0
43821,County,2020/01/14,28.0,MS,28067.0,Jones County,9609.0,58852.0,241648.0,57860.0,64402.0,32682.0,36775.0,29644.0,14266.0,3742.0,1973.0,268.0,36.0
45403,County,2020/01/15,28.0,MS,28067.0,Jones County,9564.0,58897.0,249200.0,62781.0,64845.0,35879.0,36394.0,31355.0,12094.0,3260.0,2192.0,338.0,62.0
50183,County,2020/01/16,28.0,MS,28067.0,Jones County,9452.0,59009.0,242172.0,53705.0,65591.0,31921.0,40327.0,31469.0,13240.0,3574.0,1902.0,389.0,54.0
53470,County,2020/01/17,28.0,MS,28067.0,Jones County,8892.0,59569.0,269518.0,64978.0,71370.0,34179.0,40413.0,36076.0,15824.0,4172.0,2057.0,373.0,76.0
56591,County,2020/01/18,28.0,MS,28067.0,Jones County,10390.0,58071.0,229579.0,52179.0,61171.0,30893.0,34622.0,30842.0,13837.0,3212.0,2488.0,305.0,30.0
58190,County,2020/01/19,28.0,MS,28067.0,Jones County,10922.0,57539.0,224935.0,52573.0,64088.0,30010.0,34181.0,28871.0,10220.0,3115.0,1578.0,226.0,73.0
62953,County,2020/01/20,28.0,MS,28067.0,Jones County,10579.0,57882.0,233485.0,54303.0,64591.0,27154.0,36217.0,30163.0,15589.0,3202.0,1879.0,350.0,37.0
64580,County,2020/01/21,28.0,MS,28067.0,Jones County,9760.0,58701.0,236737.0,55860.0,61919.0,32878.0,37691.0,31199.0,11901.0,2828.0,2057.0,363.0,41.0
67783,County,2020/01/22,28.0,MS,28067.0,Jones County,9517.0,58944.0,247235.0,59900.0,64673.0,31316.0,39907.0,32237.0,13644.0,3208.0,1817.0,492.0,41.0
72573,County,2020/01/23,28.0,MS,28067.0,Jones County,10037.0,58424.0,256824.0,67153.0,67718.0,32365.0,40453.0,30054.0,13090.0,3369.0,2155.0,428.0,39.0
75729,County,2020/01/24,28.0,MS,28067.0,Jones County,9237.0,59224.0,268381.0,58371.0,76108.0,36071.0,43068.0,33441.0,15472.0,3420.0,2022.0,361.0,47.0
77356,County,2020/01/25,28.0,MS,28067.0,Jones County,10184.0,58277.0,231868.0,52311.0,61105.0,29549.0,39977.0,30488.0,13442.0,2750.0,1767.0,438.0,41.0
81284,County,2020/01/26,28.0,MS,28067.0,Jones County,11016.0,57445.0,208961.0,46217.0,59054.0,27853.0,34992.0,26896.0,8802.0,2600.0,2066.0,448.0,33.0
83685,County,2020/01/27,28.0,MS,28067.0,Jones County,9841.0,58620.0,240738.0,58067.0,59472.0,32052.0,39763.0,31977.0,13477.0,2925.0,2457.0,469.0,79.0
89084,County,2020/01/28,28.0,MS,28067.0,Jones County,9744.0,58717.0,247126.0,60717.0,68505.0,30762.0,36848.0,31559.0,13017.0,3364.0,1931.0,369.0,54.0
91734,County,2020/01/29,28.0,MS,28067.0,Jones County,9928.0,58533.0,232281.0,52817.0,64225.0,31198.0,36056.0,29253.0,13049.0,3006.0,2222.0,420.0,35.0
94940,County,2020/01/30,28.0,MS,28067.0,Jones County,9441.0,59020.0,245608.0,62727.0,64720.0,28914.0,37197.0,30421.0,13387.0,4329.0,3303.0,537.0,73.0
96515,County,2020/01/31,28.0,MS,28067.0,Jones County,8901.0,59560.0,265023.0,60568.0,72095.0,32834.0,42209.0,33334.0,15481.0,4897.0,2913.0,589.0,103.0
99764,County,2020/02/01,28.0,MS,28067.0,Jones County,10171.0,58290.0,246173.0,56806.0,66619.0,28336.0,40609.0,30143.0,16231.0,4403.0,2060.0,913.0,53.0
104475,County,2020/02/02,28.0,MS,28067.0,Jones County,10414.0,58047.0,227215.0,49240.0,64586.0,29577.0,37637.0,29424.0,9993.0,3281.0,2560.0,857.0,60.0
107727,County,2020/02/03,28.0,MS,28067.0,Jones County,8924.0,59537.0,257299.0,61851.0,68922.0,29810.0,40196.0,33239.0,14617.0,4586.0,3428.0,577.0,73.0
110864,County,2020/02/04,28.0,MS,28067.0,Jones County,8828.0,59633.0,247430.0,54405.0,68163.0,32864.0,36420.0,31896.0,16060.0,4368.0,2576.0,633.0,45.0
114067,County,2020/02/05,28.0,MS,28067.0,Jones County,9147.0,59314.0,234101.0,52795.0,62995.0,29430.0,37077.0,30109.0,13765.0,4021.0,3260.0,573.0,76.0
117273,County,2020/02/06,28.0,MS,28067.0,Jones County,8975.0,59486.0,239634.0,50503.0,67058.0,30877.0,38940.0,31754.0,13228.0,3816.0,2979.0,360.0,119.0
120527,County,2020/02/07,28.0,MS,28067.0,Jones County,8377.0,60084.0,268826.0,60764.0,73885.0,32336.0,43164.0,35792.0,15013.0,4209.0,3045.0,553.0,65.0
123687,County,2020/02/08,28.0,MS,28067.0,Jones County,9782.0,58679.0,236117.0,48800.0,65161.0,29455.0,38845.0,31665.0,15539.0,3697.0,2532.0,329.0,94.0
125447,County,2020/02/09,28.0,MS,28067.0,Jones County,11436.0,57025.0,207353.0,43932.0,59799.0,28401.0,31430.0,26107.0,11643.0,3182.0,2234.0,397.0,228.0
129743,County,2020/02/10,28.0,MS,28067.0,Jones County,8896.0,59565.0,252932.0,56118.0,68162.0,33530.0,39778.0,32693.0,14369.0,4216.0,3320.0,528.0,218.0
132145,County,2020/02/11,28.0,MS,28067.0,Jones County,8441.0,60020.0,260370.0,57435.0,70840.0,34427.0,42741.0,31648.0,15021.0,4679.0,2989.0,420.0,170.0
136385,County,2020/02/12,28.0,MS,28067.0,Jones County,8609.0,59852.0,260150.0,58414.0,71678.0,32733.0,39457.0,32668.0,16470.0,5003.0,2964.0,545.0,218.0
138080,County,2020/02/13,28.0,MS,28067.0,Jones County,8187.0,60274.0,263303.0,59818.0,69877.0,34151.0,41091.0,33588.0,16500.0,4537.0,2896.0,619.0,226.0
142810,County,2020/02/14,28.0,MS,28067.0,Jones County,8186.0,60275.0,295691.0,64810.0,83051.0,34358.0,47606.0,36456.0,19071.0,5098.0,4112.0,844.0,285.0
146016,County,2020/02/15,28.0,MS,28067.0,Jones County,9541.0,58920.0,271875.0,63823.0,76719.0,31761.0,38208.0,32958.0,18729.0,5074.0,3776.0,554.0,273.0
149218,County,2020/02/16,28.0,MS,28067.0,Jones County,10793.0,57668.0,221637.0,41921.0,64684.0,29647.0,37256.0,28093.0,12719.0,3260.0,3142.0,702.0,213.0
150846,County,2020/02/17,28.0,MS,28067.0,Jones County,11798.0,56663.0,211561.0,44830.0,59976.0,26347.0,33614.0,26141.0,12933.0,3792.0,3194.0,524.0,210.0
155529,County,2020/02/18,28.0,MS,28067.0,Jones County,9257.0,59204.0,250473.0,50410.0,70232.0,33495.0,39644.0,31907.0,15294.0,4643.0,3806.0,788.0,254.0
157206,County,2020/02/19,28.0,MS,28067.0,Jones County,8857.0,59604.0,248553.0,54944.0,67233.0,31937.0,40798.0,30718.0,14479.0,4137.0,3404.0,746.0,157.0
160316,County,2020/02/20,28.0,MS,28067.0,Jones County,8989.0,59472.0,242813.0,49567.0,66883.0,32575.0,39222.0,31292.0,14704.0,4753.0,3258.0,454.0,105.0
163594,County,2020/02/21,28.0,MS,28067.0,Jones County,8903.0,59558.0,279692.0,59663.0,74175.0,36593.0,44175.0,36139.0,17333.0,6398.0,4417.0,628.0,171.0
166788,County,2020/02/22,28.0,MS,28067.0,Jones County,8860.0,59601.0,259219.0,58080.0,64803.0,35133.0,41324.0,33549.0,16670.0,4463.0,4543.0,540.0,114.0
171554,County,2020/02/23,28.0,MS,28067.0,Jones County,10795.0,57666.0,232482.0,52216.0,61020.0,32291.0,40048.0,29193.0,10373.0,3633.0,3248.0,372.0,88.0
173180,County,2020/02/24,28.0,MS,28067.0,Jones County,9906.0,58555.0,238533.0,53270.0,64768.0,28590.0,41194.0,29956.0,14180.0,3598.0,2454.0,318.0,205.0
177154,County,2020/02/25,28.0,MS,28067.0,Jones County,8872.0,59589.0,276800.0,60488.0,75813.0,35419.0,45716.0,35571.0,16346.0,3800.0,3129.0,365.0,153.0
180298,County,2020/02/26,28.0,MS,28067.0,Jones County,8722.0,59739.0,280577.0,59321.0,85474.0,36301.0,44408.0,35135.0,13932.0,3999.0,1754.0,168.0,85.0
184320,County,2020/02/27,28.0,MS,28067.0,Jones County,8868.0,59593.0,269133.0,57139.0,75433.0,34456.0,45424.0,35028.0,15641.0,3144.0,2227.0,514.0,127.0
186045,County,2020/02/28,28.0,MS,28067.0,Jones County,8673.0,59788.0,301667.0,64750.0,85050.0,37311.0,52364.0,38326.0,16222.0,4267.0,2779.0,522.0,76.0
189147,County,2020/02/29,28.0,MS,28067.0,Jones County,9164.0,59297.0,272839.0,60669.0,72029.0,35242.0,45276.0,35599.0,17451.0,3613.0,2645.0,216.0,99.0
193931,County,2020/03/01,28.0,MS,28067.0,Jones County,10196.0,58265.0,216119.0,45670.0,58175.0,27659.0,36592.0,30623.0,11353.0,3111.0,2598.0,220.0,118.0
195560,County,2020/03/02,28.0,MS,28067.0,Jones County,9260.0,59201.0,264250.0,56972.0,78105.0,33249.0,41014.0,33402.0,15100.0,3888.0,1725.0,711.0,84.0
200196,County,2020/03/03,28.0,MS,28067.0,Jones County,8070.0,60391.0,270434.0,58412.0,75408.0,33633.0,41480.0,34864.0,16604.0,5742.0,3734.0,491.0,66.0
202574,County,2020/03/04,28.0,MS,28067.0,Jones County,8216.0,60245.0,260105.0,57647.0,72401.0,30441.0,41372.0,35143.0,14117.0,5434.0,2970.0,504.0,76.0
205065,County,2020/03/05,28.0,MS,28067.0,Jones County,7553.0,60908.0,268180.0,56647.0,77964.0,34147.0,42108.0,33448.0,15479.0,5068.0,2782.0,480.0,57.0
209965,County,2020/03/06,28.0,MS,28067.0,Jones County,7567.0,60894.0,292814.0,64097.0,77799.0,37079.0,46903.0,38949.0,17452.0,5842.0,3931.0,720.0,42.0
211534,County,2020/03/07,28.0,MS,28067.0,Jones County,8118.0,60343.0,271394.0,58558.0,75068.0,35321.0,43023.0,32241.0,17314.0,5908.0,3392.0,491.0,78.0
214700,County,2020/03/08,28.0,MS,28067.0,Jones County,9612.0,58849.0,231466.0,49060.0,64404.0,29884.0,40223.0,28901.0,10895.0,4338.0,3185.0,498.0,78.0
217902,County,2020/03/09,28.0,MS,28067.0,Jones County,8487.0,59974.0,279402.0,64250.0,74301.0,35738.0,46873.0,34241.0,14930.0,5099.0,3003.0,881.0,86.0
222701,County,2020/03/10,28.0,MS,28067.0,Jones County,7725.0,60736.0,272205.0,57820.0,78289.0,36534.0,42135.0,32694.0,15912.0,5277.0,2739.0,712.0,93.0
224325,County,2020/03/11,28.0,MS,28067.0,Jones County,8052.0,60409.0,271867.0,54558.0,77067.0,41845.0,37774.0,34829.0,15489.0,4518.0,4145.0,1440.0,202.0
227510,County,2020/03/12,28.0,MS,28067.0,Jones County,8296.0,60165.0,298701.0,76123.0,77706.0,37402.0,42370.0,34081.0,18576.0,5595.0,5465.0,1133.0,250.0
230669,County,2020/03/13,28.0,MS,28067.0,Jones County,7947.0,60514.0,314317.0,81310.0,84886.0,39549.0,45155.0,34758.0,17048.0,5665.0,4576.0,1107.0,263.0
233868,County,2020/03/14,28.0,MS,28067.0,Jones County,9940.0,58521.0,289694.0,72894.0,85929.0,35127.0,37476.0,32330.0,16555.0,5129.0,2998.0,931.0,325.0
238622,County,2020/03/15,28.0,MS,28067.0,Jones County,11580.0,56881.0,226545.0,53806.0,60886.0,32868.0,34410.0,27806.0,10128.0,3533.0,2441.0,563.0,104.0
240298,County,2020/03/16,28.0,MS,28067.0,Jones County,10051.0,58410.0,259536.0,55733.0,78440.0,31597.0,42552.0,30304.0,12378.0,4797.0,3151.0,456.0,128.0
245057,County,2020/03/17,28.0,MS,28067.0,Jones County,10594.0,57867.0,254569.0,60843.0,68160.0,31295.0,40102.0,32680.0,13131.0,4641.0,3140.0,445.0,132.0
246636,County,2020/03/18,28.0,MS,28067.0,Jones County,11413.0,57048.0,257395.0,59330.0,67483.0,33789.0,43020.0,31787.0,13855.0,4629.0,2836.0,601.0,65.0
249842,County,2020/03/19,28.0,MS,28067.0,Jones County,11349.0,57112.0,245338.0,55289.0,70990.0,30621.0,38870.0,27402.0,14202.0,4534.0,2724.0,626.0,80.0
253076,County,2020/03/20,28.0,MS,28067.0,Jones County,11104.0,57357.0,245014.0,52414.0,71305.0,31518.0,38882.0,28513.0,15120.0,3926.0,2671.0,594.0,71.0
256219,County,2020/03/21,28.0,MS,28067.0,Jones County,12764.0,55697.0,224150.0,54101.0,68065.0,29490.0,34618.0,23790.0,9129.0,2426.0,2048.0,426.0,57.0
259406,County,2020/03/22,28.0,MS,28067.0,Jones County,12706.0,55755.0,184308.0,46280.0,54724.0,25202.0,25044.0,21168.0,6994.0,1974.0,2291.0,536.0,95.0
264185,County,2020/03/23,28.0,MS,28067.0,Jones County,10927.0,57534.0,222474.0,55203.0,64458.0,27304.0,32520.0,26072.0,11175.0,3531.0,1620.0,547.0,44.0
265811,County,2020/03/24,28.0,MS,28067.0,Jones County,10822.0,57639.0,214532.0,54754.0,55151.0,25452.0,36168.0,25868.0,10949.0,3646.0,2099.0,364.0,81.0
269045,County,2020/03/25,28.0,MS,28067.0,Jones County,10857.0,57604.0,232386.0,60713.0,62622.0,29857.0,37476.0,24866.0,10938.0,3291.0,2001.0,576.0,46.0
273785,County,2020/03/26,28.0,MS,28067.0,Jones County,10996.0,57465.0,228976.0,56888.0,63056.0,27775.0,38776.0,26712.0,9870.0,2854.0,2555.0,431.0,59.0
275376,County,2020/03/27,28.0,MS,28067.0,Jones County,11025.0,57436.0,236394.0,55851.0,69350.0,30563.0,37464.0,27949.0,9217.0,2843.0,2638.0,473.0,46.0
278579,County,2020/03/28,28.0,MS,28067.0,Jones County,11764.0,56697.0,210931.0,52787.0,60923.0,26552.0,36170.0,21651.0,7698.0,2561.0,2101.0,414.0,74.0
283339,County,2020/03/29,28.0,MS,28067.0,Jones County,13099.0,55362.0,192303.0,45213.0,57227.0,24123.0,30217.0,24612.0,6044.0,2210.0,1933.0,633.0,91.0
284966,County,2020/03/30,28.0,MS,28067.0,Jones County,10770.0,57691.0,203264.0,44997.0,57053.0,25880.0,33749.0,25663.0,10614.0,2663.0,1953.0,583.0,109.0
289769,County,2020/03/31,28.0,MS,28067.0,Jones County,11201.0,57260.0,205685.0,48052.0,60241.0,26216.0,32207.0,23823.0,9316.0,2733.0,2462.0,534.0,101.0
291397,County,2020/04/01,28.0,MS,28067.0,Jones County,10504.0,57957.0,227255.0,52141.0,64484.0,31439.0,38402.0,24715.0,11301.0,2555.0,1640.0,417.0,161.0
296130,County,2020/04/02,28.0,MS,28067.0,Jones County,10843.0,57618.0,221587.0,50842.0,57321.0,32876.0,38032.0,27708.0,8781.0,3257.0,2243.0,441.0,86.0
297791,County,2020/04/03,28.0,MS,28067.0,Jones County,10949.0,57512.0,232542.0,54501.0,65796.0,31145.0,38097.0,27968.0,10105.0,2463.0,1858.0,465.0,144.0
302537,County,2020/04/04,28.0,MS,28067.0,Jones County,12894.0,55567.0,206945.0,49792.0,62753.0,28077.0,29507.0,23516.0,8511.0,2502.0,1640.0,550.0,97.0
305690,County,2020/04/05,28.0,MS,28067.0,Jones County,13681.0,54780.0,178557.0,44513.0,53805.0,24394.0,25329.0,20210.0,6653.0,1546.0,1670.0,336.0,101.0
308890,County,2020/04/06,28.0,MS,28067.0,Jones County,12029.0,56432.0,213592.0,53895.0,58596.0,27964.0,34059.0,24612.0,9526.0,3071.0,1369.0,407.0,93.0
312130,County,2020/04/07,28.0,MS,28067.0,Jones County,11122.0,57339.0,205643.0,45745.0,60016.0,28232.0,32718.0,25585.0,8129.0,3230.0,1584.0,342.0,62.0
315303,County,2020/04/08,28.0,MS,28067.0,Jones County,11641.0,56820.0,213186.0,51657.0,56940.0,28542.0,33358.0,27039.0,10404.0,3057.0,1862.0,284.0,43.0
316930,County,2020/04/09,28.0,MS,28067.0,Jones County,11308.0,57153.0,218933.0,49508.0,63101.0,30241.0,35532.0,26455.0,9737.0,2299.0,1692.0,303.0,65.0
320157,County,2020/04/10,28.0,MS,28067.0,Jones County,10818.0,57643.0,227328.0,48481.0,68591.0,30976.0,36058.0,28029.0,11739.0,1931.0,1171.0,290.0,62.0
323342,County,2020/04/11,28.0,MS,28067.0,Jones County,11862.0,56599.0,209812.0,51469.0,59658.0,32666.0,33497.0,22215.0,7819.0,1023.0,1084.0,314.0,67.0
326486,County,2020/04/12,28.0,MS,28067.0,Jones County,14491.0,53970.0,173877.0,49468.0,53139.0,24616.0,22006.0,17492.0,4556.0,1356.0,966.0,255.0,23.0
329752,County,2020/04/13,28.0,MS,28067.0,Jones County,11209.0,57252.0,223292.0,54279.0,57979.0,28529.0,39952.0,28172.0,10672.0,2191.0,1206.0,279.0,33.0
332876,County,2020/04/14,28.0,MS,28067.0,Jones County,11454.0,57007.0,269758.0,72241.0,78852.0,36249.0,41643.0,28103.0,8582.0,2395.0,1086.0,511.0,96.0
336102,County,2020/04/15,28.0,MS,28067.0,Jones County,11523.0,56938.0,263450.0,75443.0,73660.0,31784.0,40956.0,25642.0,11617.0,2984.0,933.0,388.0,43.0
339255,County,2020/04/16,28.0,MS,28067.0,Jones County,11862.0,56599.0,254087.0,76716.0,70174.0,31444.0,37956.0,26522.0,8731.0,1578.0,778.0,66.0,122.0
344034,County,2020/04/17,28.0,MS,28067.0,Jones County,10034.0,58427.0,247088.0,67265.0,71668.0,32249.0,38043.0,23747.0,9460.0,2754.0,1530.0,279.0,93.0
345661,County,2020/04/18,28.0,MS,28067.0,Jones County,11752.0,56709.0,252317.0,68946.0,77963.0,36533.0,30807.0,25933.0,10339.0,614.0,1021.0,120.0,41.0
350412,County,2020/04/19,28.0,MS,28067.0,Jones County,12351.0,56110.0,216790.0,49801.0,80573.0,31585.0,28903.0,16184.0,5673.0,2000.0,1612.0,410.0,49.0
353662,County,2020/04/20,28.0,MS,28067.0,Jones County,11262.0,57199.0,298680.0,89566.0,92084.0,38050.0,39247.0,24890.0,11079.0,1576.0,1612.0,538.0,38.0
355233,County,2020/04/21,28.0,MS,28067.0,Jones County,10953.0,57508.0,240183.0,55866.0,67721.0,30085.0,41039.0,28801.0,11779.0,3267.0,1330.0,261.0,34.0
358477,County,2020/04/22,28.0,MS,28067.0,Jones County,10253.0,58208.0,228079.0,60363.0,60106.0,29946.0,34205.0,27689.0,10036.0,3273.0,2037.0,389.0,35.0
363209,County,2020/04/23,28.0,MS,28067.0,Jones County,11412.0,57049.0,233589.0,57071.0,65996.0,34246.0,36814.0,26340.0,9062.0,2073.0,1664.0,304.0,19.0
364836,County,2020/04/24,28.0,MS,28067.0,Jones County,9874.0,58587.0,252176.0,56390.0,71823.0,36496.0,41070.0,30365.0,10971.0,3273.0,1486.0,243.0,59.0
368003,County,2020/04/25,28.0,MS,28067.0,Jones County,11379.0,57082.0,234428.0,59253.0,67841.0,31236.0,37005.0,25505.0,10173.0,2169.0,1096.0,124.0,26.0
371169,County,2020/04/26,28.0,MS,28067.0,Jones County,12405.0,56056.0,205864.0,46813.0,62446.0,27080.0,32667.0,26098.0,7950.0,1512.0,1114.0,142.0,42.0
376003,County,2020/04/27,28.0,MS,28067.0,Jones County,10310.0,58151.0,238086.0,55814.0,68394.0,33668.0,39025.0,25602.0,10562.0,3222.0,1256.0,436.0,107.0
379174,County,2020/04/28,28.0,MS,28067.0,Jones County,9955.0,58506.0,238854.0,54875.0,67842.0,32652.0,39174.0,28508.0,10474.0,3232.0,1699.0,363.0,35.0
382378,County,2020/04/29,28.0,MS,28067.0,Jones County,10738.0,57723.0,221707.0,48630.0,63207.0,33984.0,34082.0,26776.0,10405.0,2778.0,1250.0,562.0,33.0
385595,County,2020/04/30,28.0,MS,28067.0,Jones County,10148.0,58313.0,248004.0,54979.0,68699.0,38170.0,40917.0,28192.0,12311.0,2486.0,1793.0,437.0,20.0
387221,County,2020/05/01,28.0,MS,28067.0,Jones County,9365.0,59096.0,260947.0,59853.0,68587.0,39809.0,41135.0,33345.0,12830.0,3852.0,1350.0,167.0,19.0
391933,County,2020/05/02,28.0,MS,28067.0,Jones County,10336.0,58125.0,227131.0,46517.0,63541.0,36509.0,38042.0,27931.0,9967.0,2734.0,1453.0,370.0,67.0
395128,County,2020/05/03,28.0,MS,28067.0,Jones County,10983.0,57478.0,210364.0,45288.0,64306.0,33395.0,34042.0,21260.0,8242.0,2128.0,1400.0,285.0,18.0
396779,County,2020/05/04,28.0,MS,28067.0,Jones County,10028.0,58433.0,232218.0,49148.0,65222.0,36868.0,37568.0,28432.0,9780.0,2707.0,2155.0,294.0,44.0
401547,County,2020/05/05,28.0,MS,28067.0,Jones County,10050.0,58411.0,229394.0,49559.0,62853.0,36705.0,35821.0,27813.0,11574.0,3059.0,1651.0,336.0,23.0
404753,County,2020/05/06,28.0,MS,28067.0,Jones County,10392.0,58069.0,233464.0,53787.0,63721.0,34601.0,37914.0,26931.0,10900.0,3219.0,1954.0,366.0,71.0
407848,County,2020/05/07,28.0,MS,28067.0,Jones County,9841.0,58620.0,251685.0,59295.0,69318.0,35607.0,41583.0,28555.0,11674.0,3302.0,1795.0,484.0,72.0
409636,County,2020/05/08,28.0,MS,28067.0,Jones County,10453.0,58008.0,226380.0,44352.0,66435.0,29299.0,39717.0,29794.0,12452.0,2204.0,1727.0,350.0,50.0
412691,County,2020/05/09,28.0,MS,28067.0,Jones County,10160.0,58301.0,239953.0,49591.0,71555.0,31112.0,41171.0,29262.0,12985.0,2499.0,1409.0,329.0,40.0
415919,County,2020/05/10,28.0,MS,28067.0,Jones County,11240.0,57221.0,228683.0,51083.0,65131.0,35104.0,38950.0,24415.0,9401.0,2752.0,1638.0,165.0,44.0
419162,County,2020/05/11,28.0,MS,28067.0,Jones County,8958.0,59503.0,248877.0,53595.0,69241.0,35598.0,41924.0,31443.0,12162.0,3005.0,1552.0,329.0,28.0
423971,County,2020/05/12,28.0,MS,28067.0,Jones County,8635.0,59826.0,266753.0,60861.0,76120.0,34839.0,44819.0,32565.0,12569.0,2759.0,1690.0,506.0,25.0
427019,County,2020/05/13,28.0,MS,28067.0,Jones County,9303.0,59158.0,249958.0,56086.0,67395.0,34370.0,42697.0,30841.0,13152.0,2980.0,1982.0,399.0,56.0
428745,County,2020/05/14,28.0,MS,28067.0,Jones County,9517.0,58944.0,251063.0,60045.0,70062.0,31864.0,39642.0,31151.0,12649.0,3267.0,1892.0,437.0,54.0
433485,County,2020/05/15,28.0,MS,28067.0,Jones County,9167.0,59294.0,232360.0,50714.0,64730.0,33301.0,37097.0,28745.0,12243.0,2996.0,1959.0,455.0,120.0
435163,County,2020/05/16,28.0,MS,28067.0,Jones County,10008.0,58453.0,230428.0,49415.0,63965.0,31341.0,40051.0,29490.0,10553.0,3155.0,2069.0,287.0,102.0
439798,County,2020/05/17,28.0,MS,28067.0,Jones County,10269.0,58192.0,224094.0,44707.0,66481.0,37331.0,37879.0,24097.0,9957.0,2236.0,1180.0,205.0,21.0
443089,County,2020/05/18,28.0,MS,28067.0,Jones County,7484.0,60977.0,248860.0,49844.0,66972.0,36621.0,43215.0,31070.0,14712.0,3743.0,2143.0,522.0,18.0
444715,County,2020/05/19,28.0,MS,28067.0,Jones County,7788.0,60673.0,270124.0,62886.0,74293.0,39666.0,42801.0,31748.0,13271.0,3137.0,1945.0,318.0,59.0
447883,County,2020/05/20,28.0,MS,28067.0,Jones County,8260.0,60201.0,265624.0,64827.0,67235.0,36511.0,45269.0,31647.0,13566.0,3848.0,2381.0,291.0,49.0
451053,County,2020/05/21,28.0,MS,28067.0,Jones County,7780.0,60681.0,264207.0,55323.0,72903.0,37131.0,46984.0,31911.0,15137.0,2841.0,1670.0,248.0,59.0
454240,County,2020/05/22,28.0,MS,28067.0,Jones County,7036.0,61425.0,259022.0,56921.0,69882.0,33898.0,44489.0,30530.0,15362.0,3933.0,3284.0,678.0,45.0
459024,County,2020/05/23,28.0,MS,28067.0,Jones County,8571.0,59890.0,243397.0,52135.0,71055.0,35082.0,39280.0,27249.0,12517.0,3425.0,1934.0,682.0,38.0
460653,County,2020/05/24,28.0,MS,28067.0,Jones County,10394.0,58067.0,224733.0,46377.0,66626.0,33860.0,37271.0,26539.0,8520.0,2528.0,2388.0,570.0,54.0
465530,County,2020/05/25,28.0,MS,28067.0,Jones County,10270.0,58191.0,215347.0,49007.0,58275.0,30384.0,34438.0,26921.0,10449.0,3357.0,1956.0,474.0,86.0
466962,County,2020/05/26,28.0,MS,28067.0,Jones County,8894.0,59567.0,246559.0,57518.0,62367.0,35388.0,39455.0,33649.0,12299.0,3354.0,2030.0,432.0,67.0
471829,County,2020/05/27,28.0,MS,28067.0,Jones County,9411.0,59050.0,244091.0,56757.0,64480.0,33108.0,37425.0,34365.0,11652.0,3557.0,2271.0,417.0,59.0
474929,County,2020/05/28,28.0,MS,28067.0,Jones County,9104.0,59357.0,243065.0,57950.0,61653.0,32305.0,39170.0,33308.0,11935.0,3769.0,2528.0,409.0,38.0
476607,County,2020/05/29,28.0,MS,28067.0,Jones County,9821.0,58640.0,246996.0,54906.0,70458.0,34484.0,38619.0,29199.0,12642.0,4065.0,2321.0,277.0,25.0
479794,County,2020/05/30,28.0,MS,28067.0,Jones County,10358.0,58103.0,250119.0,55076.0,74832.0,36328.0,35614.0,29456.0,11831.0,3758.0,2766.0,405.0,53.0
482922,County,2020/05/31,28.0,MS,28067.0,Jones County,10545.0,57916.0,219521.0,50133.0,69648.0,29938.0,31624.0,23183.0,8648.0,3469.0,2425.0,423.0,30.0
486189,County,2020/06/01,28.0,MS,28067.0,Jones County,9074.0,59387.0,235432.0,53175.0,65212.0,33284.0,37267.0,28122.0,11640.0,3827.0,2499.0,334.0,72.0
489430,County,2020/06/02,28.0,MS,28067.0,Jones County,9999.0,58462.0,224626.0,50952.0,62517.0,29909.0,33014.0,28550.0,11869.0,4713.0,2556.0,463.0,83.0
492599,County,2020/06/03,28.0,MS,28067.0,Jones County,8932.0,59529.0,241781.0,53311.0,63147.0,35837.0,38267.0,32267.0,12104.0,3923.0,2397.0,454.0,74.0
495762,County,2020/06/04,28.0,MS,28067.0,Jones County,8838.0,59623.0,242766.0,59230.0,63009.0,33876.0,36686.0,29999.0,12516.0,4105.0,2729.0,536.0,80.0
500537,County,2020/06/05,28.0,MS,28067.0,Jones County,9152.0,59309.0,254344.0,56468.0,71094.0,34704.0,40267.0,31697.0,12706.0,4322.0,2529.0,459.0,98.0
503738,County,2020/06/06,28.0,MS,28067.0,Jones County,10567.0,57894.0,224341.0,47465.0,63111.0,32893.0,33692.0,27630.0,12893.0,3256.0,3031.0,264.0,106.0
505352,County,2020/06/07,28.0,MS,28067.0,Jones County,11893.0,56568.0,211767.0,43738.0,65096.0,35613.0,31778.0,22590.0,7374.0,2730.0,2162.0,507.0,179.0
510148,County,2020/06/08,28.0,MS,28067.0,Jones County,9127.0,59334.0,237971.0,51567.0,66427.0,32158.0,38581.0,32220.0,11408.0,3425.0,1830.0,283.0,72.0
513304,County,2020/06/09,28.0,MS,28067.0,Jones County,9688.0,58773.0,242580.0,57818.0,66275.0,31689.0,38253.0,30711.0,12050.0,3549.0,1898.0,252.0,85.0
514935,County,2020/06/10,28.0,MS,28067.0,Jones County,9451.0,59010.0,245857.0,54735.0,65220.0,33855.0,40043.0,32466.0,13623.0,3045.0,2293.0,501.0,76.0
519666,County,2020/06/11,28.0,MS,28067.0,Jones County,9384.0,59077.0,264366.0,66104.0,66092.0,35710.0,42662.0,32613.0,13981.0,4099.0,2490.0,567.0,48.0
522938,County,2020/06/12,28.0,MS,28067.0,Jones County,9230.0,59231.0,248914.0,53118.0,67341.0,36027.0,41495.0,32316.0,11683.0,4223.0,2213.0,444.0,54.0
524565,County,2020/06/13,28.0,MS,28067.0,Jones County,9509.0,58952.0,247097.0,53006.0,67397.0,37970.0,39459.0,30149.0,11570.0,4550.0,2572.0,397.0,27.0
529280,County,2020/06/14,28.0,MS,28067.0,Jones County,10490.0,57971.0,219860.0,52022.0,62404.0,31397.0,32596.0,24654.0,10412.0,2876.0,2747.0,667.0,85.0
530909,County,2020/06/15,28.0,MS,28067.0,Jones County,9587.0,58874.0,264401.0,74186.0,69967.0,34983.0,39391.0,27915.0,11189.0,3997.0,2348.0,348.0,77.0
535690,County,2020/06/16,28.0,MS,28067.0,Jones County,9219.0,59242.0,253030.0,57476.0,67367.0,34733.0,41807.0,30550.0,14270.0,3967.0,2168.0,633.0,59.0
537292,County,2020/06/17,28.0,MS,28067.0,Jones County,9290.0,59171.0,255535.0,65397.0,64726.0,32648.0,41278.0,32312.0,12200.0,4143.0,2457.0,331.0,43.0
542053,County,2020/06/18,28.0,MS,28067.0,Jones County,8775.0,59686.0,251353.0,58575.0,66402.0,31665.0,39911.0,34335.0,13791.0,4017.0,2147.0,454.0,56.0
543680,County,2020/06/19,28.0,MS,28067.0,Jones County,9065.0,59396.0,254464.0,62955.0,67294.0,33037.0,40261.0,31406.0,12270.0,4034.0,2647.0,487.0,73.0
546885,County,2020/06/20,28.0,MS,28067.0,Jones County,10380.0,58081.0,231595.0,51823.0,65890.0,31646.0,35020.0,28066.0,13160.0,3703.0,1811.0,426.0,50.0
550089,County,2020/06/21,28.0,MS,28067.0,Jones County,11548.0,56913.0,208199.0,47360.0,55791.0,31157.0,33047.0,24126.0,10403.0,3285.0,2369.0,603.0,58.0
553264,County,2020/06/22,28.0,MS,28067.0,Jones County,9262.0,59199.0,219437.0,52921.0,56040.0,31619.0,33077.0,25689.0,12850.0,3930.0,2615.0,628.0,68.0
558024,County,2020/06/23,28.0,MS,28067.0,Jones County,9280.0,59181.0,235147.0,51796.0,59685.0,34816.0,37587.0,32221.0,12534.0,3704.0,2186.0,551.0,67.0
559656,County,2020/06/24,28.0,MS,28067.0,Jones County,9850.0,58611.0,212509.0,53319.0,54267.0,29599.0,30238.0,27423.0,10660.0,3600.0,2740.0,610.0,53.0
564392,County,2020/06/25,28.0,MS,28067.0,Jones County,9710.0,58751.0,239363.0,57857.0,62551.0,34272.0,38092.0,27614.0,12071.0,3940.0,2396.0,513.0,57.0
567689,County,2020/06/26,28.0,MS,28067.0,Jones County,8993.0,59468.0,231220.0,54814.0,61354.0,32139.0,35489.0,29344.0,11543.0,3951.0,1968.0,519.0,99.0
570790,County,2020/06/27,28.0,MS,28067.0,Jones County,9994.0,58467.0,222578.0,50573.0,58319.0,28717.0,35523.0,30379.0,11664.0,4348.0,2471.0,525.0,59.0
572428,County,2020/06/28,28.0,MS,28067.0,Jones County,10900.0,57561.0,207543.0,46213.0,58611.0,27730.0,32260.0,25402.0,10801.0,3474.0,2639.0,357.0,56.0
577201,County,2020/06/29,28.0,MS,28067.0,Jones County,10341.0,58120.0,212451.0,49803.0,55551.0,29420.0,33229.0,26975.0,11487.0,3105.0,2254.0,554.0,73.0
578843,County,2020/06/30,28.0,MS,28067.0,Jones County,10087.0,58374.0,207261.0,49230.0,51110.0,27548.0,32349.0,28176.0,11624.0,4167.0,2192.0,749.0,116.0
583595,County,2020/07/01,28.0,MS,28067.0,Jones County,9458.0,59003.0,213607.0,48278.0,54725.0,29152.0,34703.0,27953.0,12260.0,3935.0,1807.0,672.0,122.0
586784,County,2020/07/02,28.0,MS,28067.0,Jones County,10590.0,57871.0,254062.0,61410.0,66392.0,36376.0,40431.0,29310.0,12812.0,4182.0,2543.0,545.0,61.0
589985,County,2020/07/03,28.0,MS,28067.0,Jones County,11474.0,56987.0,229917.0,54505.0,61008.0,31958.0,35289.0,29179.0,11478.0,3929.0,1957.0,516.0,98.0
591629,County,2020/07/04,28.0,MS,28067.0,Jones County,12080.0,56381.0,196701.0,46631.0,52194.0,27341.0,30191.0,24963.0,9820.0,3361.0,1674.0,442.0,84.0
594822,County,2020/07/05,28.0,MS,28067.0,Jones County,11182.0,57279.0,187373.0,45167.0,53067.0,25327.0,26788.0,22642.0,8614.0,2350.0,2753.0,483.0,182.0
598678,County,2020/07/06,28.0,MS,28067.0,Jones County,10981.0,57480.0,200937.0,46535.0,51206.0,25825.0,31008.0,28580.0,10622.0,3924.0,2648.0,456.0,133.0
603167,County,2020/07/07,28.0,MS,28067.0,Jones County,10240.0,58221.0,207757.0,47086.0,56518.0,30081.0,29183.0,26936.0,11528.0,3155.0,2492.0,664.0,114.0
605833,County,2020/07/08,28.0,MS,28067.0,Jones County,9780.0,58681.0,208552.0,48060.0,56557.0,26356.0,33032.0,25484.0,11763.0,3223.0,3062.0,864.0,151.0
609136,County,2020/07/09,28.0,MS,28067.0,Jones County,9594.0,58867.0,213597.0,50886.0,55962.0,29491.0,34013.0,25189.0,10894.0,3646.0,2587.0,790.0,139.0
610759,County,2020/07/10,28.0,MS,28067.0,Jones County,9935.0,58526.0,222460.0,50106.0,59235.0,29401.0,34082.0,28871.0,12523.0,4542.0,2812.0,734.0,154.0
613970,County,2020/07/11,28.0,MS,28067.0,Jones County,11217.0,57244.0,197406.0,49820.0,48986.0,26512.0,29345.0,24758.0,11305.0,3276.0,2692.0,542.0,170.0
618743,County,2020/07/12,28.0,MS,28067.0,Jones County,11170.0,57291.0,183639.0,40257.0,49849.0,25947.0,29923.0,24052.0,6649.0,3390.0,2774.0,633.0,165.0
620331,County,2020/07/13,28.0,MS,28067.0,Jones County,10554.0,57907.0,202185.0,45738.0,51995.0,26397.0,33574.0,27002.0,11047.0,3538.0,2167.0,590.0,137.0
623532,County,2020/07/14,28.0,MS,28067.0,Jones County,9593.0,58868.0,215771.0,54160.0,55706.0,28593.0,32886.0,28757.0,10853.0,2313.0,1919.0,458.0,126.0
626653,County,2020/07/15,28.0,MS,28067.0,Jones County,9951.0,58510.0,220710.0,53321.0,59401.0,28630.0,34029.0,28491.0,11744.0,2667.0,1822.0,496.0,109.0
631583,County,2020/07/16,28.0,MS,28067.0,Jones County,9839.0,58622.0,234589.0,57744.0,66476.0,29455.0,35335.0,28117.0,11924.0,3586.0,1489.0,366.0,97.0
634629,County,2020/07/17,28.0,MS,28067.0,Jones County,10392.0,58069.0,219503.0,46925.0,61929.0,27813.0,32842.0,30426.0,12735.0,4206.0,2064.0,485.0,78.0
637881,County,2020/07/18,28.0,MS,28067.0,Jones County,11234.0,57227.0,233003.0,54623.0,68186.0,32829.0,34436.0,25367.0,11152.0,3859.0,2073.0,402.0,76.0
641083,County,2020/07/19,28.0,MS,28067.0,Jones County,12075.0,56386.0,186097.0,39243.0,54582.0,26516.0,28423.0,21706.0,9328.0,3269.0,2195.0,719.0,116.0
644292,County,2020/07/20,28.0,MS,28067.0,Jones County,11821.0,56640.0,207489.0,49080.0,53830.0,26316.0,30849.0,27946.0,12102.0,4428.0,2210.0,675.0,53.0
645920,County,2020/07/21,28.0,MS,28067.0,Jones County,10335.0,58126.0,200297.0,48972.0,52951.0,24706.0,28207.0,26971.0,10806.0,4287.0,2727.0,534.0,136.0
650649,County,2020/07/22,28.0,MS,28067.0,Jones County,10083.0,58378.0,203860.0,49486.0,50625.0,24892.0,31307.0,28924.0,12242.0,3332.0,2299.0,607.0,146.0
653843,County,2020/07/23,28.0,MS,28067.0,Jones County,10245.0,58216.0,201320.0,45279.0,52484.0,25944.0,32283.0,26016.0,11283.0,4344.0,3054.0,493.0,140.0
657117,County,2020/07/24,28.0,MS,28067.0,Jones County,10246.0,58215.0,206162.0,46329.0,53861.0,24951.0,29686.0,30569.0,12047.0,4984.0,3159.0,427.0,149.0
660334,County,2020/07/25,28.0,MS,28067.0,Jones County,11132.0,57329.0,179047.0,41145.0,50458.0,22419.0,23979.0,22987.0,10928.0,3766.0,2660.0,567.0,138.0
661858,County,2020/07/26,28.0,MS,28067.0,Jones County,11592.0,56869.0,186716.0,41363.0,51172.0,22805.0,27364.0,25285.0,9680.0,4796.0,3252.0,867.0,132.0
665154,County,2020/07/27,28.0,MS,28067.0,Jones County,10658.0,57803.0,199767.0,46506.0,54168.0,23439.0,28657.0,25934.0,11821.0,4764.0,3633.0,716.0,129.0
668267,County,2020/07/28,28.0,MS,28067.0,Jones County,10394.0,58067.0,215986.0,52331.0,55421.0,25861.0,32488.0,27850.0,12063.0,5964.0,3139.0,716.0,153.0
671473,County,2020/07/29,28.0,MS,28067.0,Jones County,10793.0,57668.0,204177.0,45833.0,53771.0,24536.0,30026.0,28057.0,12457.0,4712.0,3984.0,651.0,150.0
674634,County,2020/07/30,28.0,MS,28067.0,Jones County,9833.0,58628.0,220083.0,51475.0,53089.0,27732.0,34908.0,31390.0,11764.0,5123.0,3582.0,864.0,156.0
677835,County,2020/07/31,28.0,MS,28067.0,Jones County,10657.0,57804.0,206844.0,47749.0,53897.0,25493.0,29319.0,27309.0,13141.0,5560.0,3266.0,968.0,142.0
682582,County,2020/08/01,28.0,MS,28067.0,Jones County,11399.0,57062.0,185801.0,39021.0,48196.0,22144.0,29991.0,25437.0,11646.0,5773.0,2716.0,745.0,132.0
685822,County,2020/08/02,28.0,MS,28067.0,Jones County,11529.0,56932.0,179570.0,37794.0,47944.0,21727.0,27299.0,24477.0,11472.0,4091.0,4009.0,707.0,50.0
687412,County,2020/08/03,28.0,MS,28067.0,Jones County,11104.0,57357.0,220174.0,46595.0,59848.0,30154.0,34547.0,27547.0,13063.0,4685.0,3227.0,454.0,54.0
692187,County,2020/08/04,28.0,MS,28067.0,Jones County,9847.0,58614.0,232087.0,49790.0,62330.0,29350.0,36303.0,32668.0,15180.0,4309.0,1876.0,233.0,48.0
693816,County,2020/08/05,28.0,MS,28067.0,Jones County,10278.0,58183.0,211043.0,50879.0,51431.0,26161.0,33838.0,28436.0,13378.0,4140.0,2309.0,398.0,73.0
697022,County,2020/08/06,28.0,MS,28067.0,Jones County,10275.0,58186.0,238354.0,53137.0,63600.0,30587.0,37907.0,32407.0,13158.0,4382.0,2600.0,528.0,48.0
701754,County,2020/08/07,28.0,MS,28067.0,Jones County,9806.0,58655.0,225798.0,49868.0,59218.0,28669.0,38349.0,29094.0,13643.0,4130.0,2433.0,356.0,38.0
703383,County,2020/08/08,28.0,MS,28067.0,Jones County,10538.0,57923.0,189199.0,40766.0,48265.0,20539.0,29960.0,30010.0,13962.0,3154.0,2179.0,308.0,56.0
706574,County,2020/08/09,28.0,MS,28067.0,Jones County,11955.0,56506.0,175941.0,32324.0,46077.0,20539.0,30280.0,27100.0,12177.0,3908.0,2887.0,578.0,71.0
711383,County,2020/08/10,28.0,MS,28067.0,Jones County,11602.0,56859.0,197250.0,40185.0,48028.0,22622.0,32970.0,32289.0,13524.0,4034.0,2859.0,702.0,37.0
712963,County,2020/08/11,28.0,MS,28067.0,Jones County,11146.0,57315.0,201433.0,41810.0,48762.0,25832.0,33872.0,30512.0,13300.0,4004.0,2568.0,711.0,62.0
716157,County,2020/08/12,28.0,MS,28067.0,Jones County,10367.0,58094.0,185018.0,35459.0,44040.0,21770.0,32660.0,28916.0,13926.0,4282.0,2959.0,831.0,175.0
720917,County,2020/08/13,28.0,MS,28067.0,Jones County,9816.0,58645.0,193114.0,35267.0,43809.0,24727.0,33929.0,30300.0,14712.0,5482.0,3805.0,856.0,227.0
724143,County,2020/08/14,28.0,MS,28067.0,Jones County,9471.0,58990.0,201005.0,43573.0,44697.0,25291.0,35359.0,28291.0,14085.0,5132.0,3337.0,918.0,322.0
725774,County,2020/08/15,28.0,MS,28067.0,Jones County,10309.0,58152.0,202754.0,43949.0,50426.0,24720.0,33494.0,29728.0,11435.0,4732.0,3277.0,703.0,290.0
728933,County,2020/08/16,28.0,MS,28067.0,Jones County,11097.0,57364.0,172810.0,34278.0,42312.0,21609.0,28746.0,25201.0,10355.0,5301.0,3354.0,1262.0,392.0
733714,County,2020/08/17,28.0,MS,28067.0,Jones County,10244.0,58217.0,197675.0,42132.0,43697.0,22864.0,37041.0,27481.0,13901.0,5808.0,3432.0,988.0,331.0
735341,County,2020/08/18,28.0,MS,28067.0,Jones County,10119.0,58342.0,177578.0,34231.0,42718.0,20060.0,28821.0,27849.0,13266.0,5377.0,3595.0,1216.0,445.0
738547,County,2020/08/19,28.0,MS,28067.0,Jones County,10194.0,58267.0,204367.0,39948.0,50573.0,23893.0,38573.0,29319.0,12687.0,4185.0,3543.0,1299.0,347.0
741709,County,2020/08/20,28.0,MS,28067.0,Jones County,9009.0,59452.0,209022.0,44445.0,52702.0,25954.0,32861.0,29394.0,13719.0,5017.0,3445.0,1101.0,384.0
746485,County,2020/08/21,28.0,MS,28067.0,Jones County,8555.0,59906.0,219362.0,44422.0,55333.0,27804.0,37560.0,31245.0,13745.0,4516.0,3234.0,1165.0,338.0
749690,County,2020/08/22,28.0,MS,28067.0,Jones County,9898.0,58563.0,207653.0,42857.0,50466.0,24318.0,35797.0,31877.0,12852.0,4354.0,3814.0,884.0,434.0
751306,County,2020/08/23,28.0,MS,28067.0,Jones County,11431.0,57030.0,174096.0,33427.0,46124.0,19404.0,30831.0,28824.0,9076.0,3326.0,1991.0,805.0,288.0
754529,County,2020/08/24,28.0,MS,28067.0,Jones County,11152.0,57309.0,188065.0,39018.0,47650.0,23081.0,32181.0,26804.0,12666.0,3623.0,2220.0,610.0,212.0
757679,County,2020/08/25,28.0,MS,28067.0,Jones County,10393.0,58068.0,180423.0,35170.0,43545.0,22137.0,31965.0,28670.0,12081.0,3758.0,2167.0,699.0,231.0
760873,County,2020/08/26,28.0,MS,28067.0,Jones County,10333.0,58128.0,194922.0,38685.0,47104.0,23068.0,37858.0,28835.0,12884.0,3343.0,2281.0,700.0,164.0
765646,County,2020/08/27,28.0,MS,28067.0,Jones County,10547.0,57914.0,193511.0,37629.0,45769.0,24228.0,35251.0,30442.0,13047.0,4428.0,2159.0,428.0,130.0
768861,County,2020/08/28,28.0,MS,28067.0,Jones County,10004.0,58457.0,201045.0,38536.0,50155.0,22636.0,38570.0,31844.0,11896.0,4155.0,2523.0,601.0,129.0
772013,County,2020/08/29,28.0,MS,28067.0,Jones County,10834.0,57627.0,203799.0,48059.0,47520.0,22791.0,36191.0,29828.0,13066.0,3158.0,2167.0,837.0,182.0
775231,County,2020/08/30,28.0,MS,28067.0,Jones County,11953.0,56508.0,171316.0,33356.0,45715.0,19268.0,31372.0,24734.0,10593.0,2755.0,2361.0,965.0,197.0
778421,County,2020/08/31,28.0,MS,28067.0,Jones County,10829.0,57632.0,191413.0,41628.0,49436.0,20119.0,31464.0,27716.0,13394.0,4430.0,2136.0,891.0,199.0
780032,County,2020/09/01,28.0,MS,28067.0,Jones County,10492.0,57969.0,219144.0,52948.0,54371.0,24264.0,34492.0,31215.0,14537.0,3925.0,2205.0,1050.0,137.0
783226,County,2020/09/02,28.0,MS,28067.0,Jones County,10375.0,58086.0,225669.0,61202.0,54503.0,24158.0,35701.0,30086.0,12242.0,4579.0,2042.0,1016.0,140.0
788014,County,2020/09/03,28.0,MS,28067.0,Jones County,9204.0,59257.0,226920.0,48439.0,56543.0,27391.0,38393.0,34021.0,12994.0,5161.0,2966.0,827.0,185.0
791205,County,2020/09/04,28.0,MS,28067.0,Jones County,10639.0,57822.0,206158.0,43107.0,52558.0,25479.0,34626.0,26836.0,14796.0,4212.0,3611.0,752.0,181.0
794394,County,2020/09/05,28.0,MS,28067.0,Jones County,10658.0,57803.0,209095.0,45339.0,53880.0,22568.0,34191.0,32575.0,13510.0,3679.0,2721.0,431.0,201.0
795999,County,2020/09/06,28.0,MS,28067.0,Jones County,12111.0,56350.0,174556.0,36500.0,45890.0,23031.0,27950.0,23133.0,10420.0,3766.0,2956.0,685.0,225.0
799208,County,2020/09/07,28.0,MS,28067.0,Jones County,12222.0,56239.0,168210.0,36534.0,47053.0,17764.0,25370.0,22684.0,11192.0,3778.0,2678.0,866.0,291.0
802421,County,2020/09/08,28.0,MS,28067.0,Jones County,10664.0,57797.0,209710.0,45027.0,53254.0,21974.0,36498.0,30883.0,13653.0,4692.0,2557.0,949.0,223.0
805589,County,2020/09/09,28.0,MS,28067.0,Jones County,9875.0,58586.0,210871.0,45229.0,48259.0,26050.0,38015.0,31775.0,13491.0,4096.0,2745.0,967.0,244.0
810357,County,2020/09/10,28.0,MS,28067.0,Jones County,10380.0,58081.0,217860.0,49549.0,53132.0,26041.0,36697.0,30831.0,13540.0,4024.0,2693.0,1113.0,240.0
811986,County,2020/09/11,28.0,MS,28067.0,Jones County,9445.0,59016.0,233239.0,47597.0,58099.0,27568.0,40088.0,36182.0,15376.0,4319.0,2781.0,1027.0,202.0
815171,County,2020/09/12,28.0,MS,28067.0,Jones County,11282.0,57179.0,212630.0,46253.0,55778.0,24152.0,35870.0,29656.0,12653.0,3967.0,3044.0,1098.0,159.0
819968,County,2020/09/13,28.0,MS,28067.0,Jones County,11973.0,56488.0,165638.0,30534.0,41305.0,20882.0,26898.0,26933.0,10979.0,4196.0,2500.0,1094.0,317.0
823125,County,2020/09/14,28.0,MS,28067.0,Jones County,10896.0,57565.0,215392.0,47015.0,51815.0,25744.0,38001.0,30776.0,14132.0,3908.0,2999.0,868.0,134.0
824753,County,2020/09/15,28.0,MS,28067.0,Jones County,10609.0,57852.0,205648.0,48097.0,49385.0,24215.0,34378.0,31413.0,10866.0,3798.0,2498.0,821.0,177.0
827994,County,2020/09/16,28.0,MS,28067.0,Jones County,11360.0,57101.0,201889.0,49010.0,47511.0,25016.0,31000.0,28681.0,12734.0,3804.0,3014.0,935.0,184.0
832737,County,2020/09/17,28.0,MS,28067.0,Jones County,10661.0,57800.0,222679.0,50746.0,51498.0,28460.0,37567.0,32008.0,13675.0,5111.0,2841.0,610.0,163.0
834366,County,2020/09/18,28.0,MS,28067.0,Jones County,10159.0,58302.0,233879.0,48603.0,59929.0,27770.0,39762.0,33938.0,14552.0,5094.0,3169.0,902.0,160.0
837529,County,2020/09/19,28.0,MS,28067.0,Jones County,10906.0,57555.0,221077.0,53306.0,50880.0,24698.0,36438.0,33549.0,13196.0,4785.0,3318.0,755.0,152.0
842304,County,2020/09/20,28.0,MS,28067.0,Jones County,11865.0,56596.0,180794.0,35266.0,48871.0,24477.0,29566.0,25075.0,10569.0,3741.0,2627.0,502.0,100.0
843932,County,2020/09/21,28.0,MS,28067.0,Jones County,12185.0,56276.0,189189.0,41664.0,48256.0,24222.0,32134.0,25746.0,11154.0,3205.0,2330.0,415.0,63.0
847136,County,2020/09/22,28.0,MS,28067.0,Jones County,10601.0,57860.0,213794.0,51941.0,52883.0,25635.0,34024.0,29107.0,14231.0,3040.0,2309.0,594.0,30.0
850305,County,2020/09/23,28.0,MS,28067.0,Jones County,9889.0,58572.0,215768.0,48659.0,53886.0,25303.0,38306.0,30543.0,13112.0,3406.0,2023.0,486.0,44.0
855070,County,2020/09/24,28.0,MS,28067.0,Jones County,10013.0,58448.0,215466.0,46697.0,51464.0,28799.0,38604.0,31658.0,12295.0,3223.0,2173.0,512.0,41.0
856699,County,2020/09/25,28.0,MS,28067.0,Jones County,9652.0,58809.0,233854.0,51636.0,53617.0,29429.0,42692.0,35373.0,14709.0,3892.0,1943.0,538.0,25.0
861452,County,2020/09/26,28.0,MS,28067.0,Jones County,10735.0,57726.0,214040.0,48707.0,52048.0,24079.0,33971.0,33228.0,15705.0,3358.0,2605.0,278.0,61.0
863106,County,2020/09/27,28.0,MS,28067.0,Jones County,11725.0,56736.0,195618.0,44968.0,49454.0,23726.0,34627.0,26579.0,10613.0,2877.0,2178.0,562.0,34.0
867840,County,2020/09/28,28.0,MS,28067.0,Jones County,9591.0,58870.0,224254.0,48614.0,59183.0,29603.0,37281.0,29753.0,13843.0,3246.0,2260.0,432.0,39.0
869468,County,2020/09/29,28.0,MS,28067.0,Jones County,10076.0,58385.0,214737.0,43178.0,54031.0,27805.0,36785.0,30224.0,15103.0,5028.0,1996.0,542.0,45.0
874247,County,2020/09/30,28.0,MS,28067.0,Jones County,11103.0,57358.0,202740.0,40184.0,53964.0,26617.0,31866.0,29249.0,14208.0,3510.0,2333.0,764.0,45.0
875875,County,2020/10/01,28.0,MS,28067.0,Jones County,9510.0,58951.0,213602.0,49250.0,55160.0,25261.0,35239.0,28071.0,13607.0,3941.0,2306.0,695.0,72.0
879078,County,2020/10/02,28.0,MS,28067.0,Jones County,9944.0,58517.0,228852.0,50809.0,53233.0,31348.0,38111.0,35359.0,13354.0,3389.0,2713.0,478.0,58.0
883811,County,2020/10/03,28.0,MS,28067.0,Jones County,11088.0,57373.0,207516.0,44701.0,52463.0,28654.0,32294.0,30241.0,12218.0,3795.0,2482.0,639.0,29.0
886104,County,2020/10/04,28.0,MS,28067.0,Jones County,12220.0,56241.0,184333.0,37630.0,48372.0,23175.0,27617.0,29781.0,11154.0,3569.0,2359.0,646.0,30.0
889350,County,2020/10/05,28.0,MS,28067.0,Jones County,12995.0,55466.0,191856.0,44157.0,46615.0,23215.0,30583.0,27478.0,13282.0,4062.0,1881.0,543.0,40.0
892520,County,2020/10/06,28.0,MS,28067.0,Jones County,11266.0,57195.0,210086.0,50760.0,51450.0,25553.0,33030.0,28947.0,12499.0,5116.0,2231.0,462.0,38.0
895711,County,2020/10/07,28.0,MS,28067.0,Jones County,10347.0,58114.0,208627.0,44354.0,51908.0,27339.0,33126.0,30288.0,13612.0,5352.0,2083.0,517.0,48.0
898890,County,2020/10/08,28.0,MS,28067.0,Jones County,10412.0,58049.0,187517.0,39639.0,42845.0,26351.0,29532.0,28916.0,12475.0,4499.0,2599.0,619.0,42.0
902124,County,2020/10/09,28.0,MS,28067.0,Jones County,11353.0,57108.0,191586.0,35883.0,54519.0,24696.0,29137.0,27959.0,11368.0,5128.0,2275.0,580.0,41.0
905331,County,2020/10/10,28.0,MS,28067.0,Jones County,12556.0,55905.0,178399.0,42180.0,43785.0,19995.0,27168.0,26359.0,10614.0,4940.0,2512.0,799.0,47.0
908872,County,2020/10/11,28.0,MS,28067.0,Jones County,12658.0,55803.0,174140.0,35007.0,44795.0,23784.0,26057.0,26385.0,10943.0,3918.0,2446.0,782.0,23.0
912305,County,2020/10/12,28.0,MS,28067.0,Jones County,11454.0,57007.0,197977.0,44087.0,48859.0,23349.0,28952.0,30953.0,13573.0,4609.0,2991.0,571.0,33.0
915197,County,2020/10/13,28.0,MS,28067.0,Jones County,10432.0,58029.0,209833.0,43568.0,51938.0,26332.0,35896.0,29965.0,14612.0,4786.0,2075.0,624.0,37.0
918301,County,2020/10/14,28.0,MS,28067.0,Jones County,10629.0,57832.0,205830.0,44315.0,48102.0,25519.0,33317.0,33703.0,13656.0,3887.0,2758.0,535.0,38.0
921557,County,2020/10/15,28.0,MS,28067.0,Jones County,11160.0,57301.0,189894.0,40792.0,48462.0,22495.0,29961.0,26531.0,12789.0,5698.0,2415.0,701.0,50.0
925121,County,2020/10/16,28.0,MS,28067.0,Jones County,10364.0,58097.0,212878.0,45033.0,50620.0,26654.0,35101.0,33725.0,13786.0,4698.0,2669.0,538.0,54.0
928377,County,2020/10/17,28.0,MS,28067.0,Jones County,11282.0,57179.0,202284.0,48475.0,47626.0,25912.0,29596.0,30142.0,13445.0,4211.0,2405.0,407.0,65.0
931042,County,2020/10/18,28.0,MS,28067.0,Jones County,11443.0,57018.0,173386.0,35620.0,45780.0,21303.0,25337.0,26606.0,11366.0,4140.0,2499.0,699.0,36.0
934479,County,2020/10/19,28.0,MS,28067.0,Jones County,9946.0,58515.0,214997.0,47376.0,53048.0,24056.0,37192.0,31590.0,14426.0,4239.0,2385.0,644.0,41.0
937778,County,2020/10/20,28.0,MS,28067.0,Jones County,10116.0,58345.0,201956.0,43862.0,50393.0,22902.0,33451.0,29309.0,14694.0,4534.0,2176.0,598.0,37.0
941102,County,2020/10/21,28.0,MS,28067.0,Jones County,11527.0,56934.0,204795.0,48214.0,56667.0,24823.0,26795.0,29090.0,11675.0,4826.0,2088.0,560.0,57.0
943969,County,2020/10/22,28.0,MS,28067.0,Jones County,9936.0,58525.0,224245.0,51190.0,55863.0,24970.0,38472.0,31642.0,13768.0,5538.0,2177.0,593.0,32.0
947097,County,2020/10/23,28.0,MS,28067.0,Jones County,9507.0,58954.0,240950.0,49852.0,60183.0,29015.0,44523.0,34609.0,13865.0,5587.0,2663.0,615.0,38.0
950734,County,2020/10/24,28.0,MS,28067.0,Jones County,10605.0,57856.0,235105.0,56089.0,55386.0,27990.0,37391.0,36680.0,14699.0,4334.0,1911.0,596.0,29.0
