,Level,Date,State FIPS,State Postal Code,County FIPS,County Name,Population Staying at Home,Population Not Staying at Home,Number of Trips,Number of Trips <1,Number of Trips 1-3,Number of Trips 3-5,Number of Trips 5-10,Number of Trips 10-25,Number of Trips 25-50,Number of Trips 50-100,Number of Trips 100-250,Number of Trips 250-500,Number of Trips >=500
657,County,2020/01/01,17.0,IL,17125.0,Mason County,3533.0,10032.0,38734.0,8099.0,9201.0,3873.0,3603.0,7447.0,4438.0,1292.0,483.0,267.0,31.0
6039,County,2020/01/02,17.0,IL,17125.0,Mason County,3013.0,10552.0,53420.0,14245.0,9091.0,3792.0,4942.0,10393.0,8135.0,2110.0,545.0,154.0,13.0
7962,County,2020/01/03,17.0,IL,17125.0,Mason County,2909.0,10656.0,53373.0,12275.0,7435.0,4601.0,5693.0,12260.0,8156.0,2178.0,593.0,182.0,0.0
12379,County,2020/01/04,17.0,IL,17125.0,Mason County,3403.0,10162.0,47017.0,11658.0,7037.0,4460.0,4680.0,10109.0,6210.0,2158.0,663.0,0.0,42.0
13433,County,2020/01/05,17.0,IL,17125.0,Mason County,3357.0,10208.0,41700.0,9259.0,6893.0,2912.0,4058.0,10669.0,5932.0,954.0,650.0,359.0,14.0
16235,County,2020/01/06,17.0,IL,17125.0,Mason County,2790.0,10775.0,47597.0,11268.0,8952.0,3803.0,4145.0,11204.0,5799.0,1678.0,478.0,270.0,0.0
19489,County,2020/01/07,17.0,IL,17125.0,Mason County,2834.0,10731.0,49823.0,11651.0,8782.0,4710.0,4233.0,10839.0,7387.0,1406.0,687.0,95.0,33.0
24337,County,2020/01/08,17.0,IL,17125.0,Mason County,2715.0,10850.0,49036.0,11297.0,8335.0,4094.0,5437.0,10992.0,6553.0,1373.0,775.0,149.0,31.0
27468,County,2020/01/09,17.0,IL,17125.0,Mason County,2797.0,10768.0,52509.0,11761.0,9663.0,4312.0,5340.0,10170.0,8504.0,1968.0,545.0,236.0,10.0
29061,County,2020/01/10,17.0,IL,17125.0,Mason County,2745.0,10820.0,55500.0,14607.0,11857.0,4025.0,4482.0,11252.0,6637.0,1715.0,685.0,200.0,40.0
32303,County,2020/01/11,17.0,IL,17125.0,Mason County,3482.0,10083.0,44201.0,10373.0,9550.0,3381.0,5204.0,9745.0,4333.0,1211.0,192.0,212.0,0.0
35459,County,2020/01/12,17.0,IL,17125.0,Mason County,3605.0,9960.0,43712.0,12172.0,9138.0,4010.0,2989.0,8930.0,4555.0,1424.0,388.0,79.0,27.0
38702,County,2020/01/13,17.0,IL,17125.0,Mason County,2770.0,10795.0,50303.0,12624.0,8465.0,3967.0,4967.0,11054.0,6441.0,2146.0,545.0,94.0,0.0
43435,County,2020/01/14,17.0,IL,17125.0,Mason County,2872.0,10693.0,53274.0,13655.0,9967.0,5128.0,4431.0,10541.0,7050.0,1799.0,672.0,31.0,0.0
45016,County,2020/01/15,17.0,IL,17125.0,Mason County,2836.0,10729.0,48863.0,12206.0,8302.0,3168.0,4078.0,12145.0,6314.0,1824.0,662.0,122.0,42.0
48168,County,2020/01/16,17.0,IL,17125.0,Mason County,2740.0,10825.0,51284.0,11281.0,9947.0,5001.0,4697.0,10395.0,6929.0,2029.0,806.0,178.0,21.0
53084,County,2020/01/17,17.0,IL,17125.0,Mason County,2896.0,10669.0,52180.0,13896.0,9851.0,4483.0,4940.0,10641.0,5849.0,1510.0,619.0,342.0,49.0
54657,County,2020/01/18,17.0,IL,17125.0,Mason County,3534.0,10031.0,47489.0,12947.0,7225.0,6038.0,4388.0,9447.0,5262.0,1470.0,389.0,286.0,37.0
57804,County,2020/01/19,17.0,IL,17125.0,Mason County,3647.0,9918.0,42866.0,8866.0,8462.0,4432.0,4035.0,11643.0,3608.0,1092.0,449.0,188.0,91.0
62566,County,2020/01/20,17.0,IL,17125.0,Mason County,3180.0,10385.0,51812.0,13827.0,10970.0,3952.0,3555.0,11571.0,5720.0,1476.0,452.0,256.0,33.0
64194,County,2020/01/21,17.0,IL,17125.0,Mason County,3005.0,10560.0,52151.0,12939.0,9198.0,4337.0,5420.0,11947.0,5644.0,1812.0,691.0,121.0,42.0
67396,County,2020/01/22,17.0,IL,17125.0,Mason County,2884.0,10681.0,52691.0,13299.0,8115.0,4431.0,4830.0,12036.0,7055.0,2167.0,551.0,197.0,10.0
72187,County,2020/01/23,17.0,IL,17125.0,Mason County,2861.0,10704.0,50562.0,13887.0,8909.0,3663.0,4754.0,11077.0,5712.0,1648.0,770.0,113.0,29.0
73826,County,2020/01/24,17.0,IL,17125.0,Mason County,2897.0,10668.0,53632.0,15051.0,10923.0,3985.0,4545.0,9339.0,6786.0,1989.0,832.0,113.0,69.0
76969,County,2020/01/25,17.0,IL,17125.0,Mason County,3190.0,10375.0,54670.0,14216.0,8621.0,6010.0,5272.0,11911.0,5889.0,2138.0,536.0,66.0,11.0
80507,County,2020/01/26,17.0,IL,17125.0,Mason County,3436.0,10129.0,48255.0,11836.0,9314.0,4296.0,4423.0,11433.0,4956.0,1459.0,502.0,36.0,0.0
84697,County,2020/01/27,17.0,IL,17125.0,Mason County,2869.0,10696.0,50387.0,11252.0,8410.0,4264.0,4566.0,11800.0,6652.0,2545.0,761.0,117.0,20.0
88698,County,2020/01/28,17.0,IL,17125.0,Mason County,2836.0,10729.0,54172.0,14020.0,9606.0,5313.0,4968.0,11528.0,5774.0,2205.0,529.0,229.0,0.0
89770,County,2020/01/29,17.0,IL,17125.0,Mason County,2905.0,10660.0,50153.0,14531.0,8648.0,3644.0,3833.0,10385.0,6162.0,2067.0,608.0,265.0,10.0
93025,County,2020/01/30,17.0,IL,17125.0,Mason County,2644.0,10921.0,51977.0,11994.0,9330.0,4125.0,4356.0,11726.0,7119.0,2511.0,650.0,109.0,57.0
96129,County,2020/01/31,17.0,IL,17125.0,Mason County,2473.0,11092.0,53381.0,12224.0,9604.0,4361.0,3783.0,12623.0,8115.0,1510.0,872.0,187.0,102.0
99378,County,2020/02/01,17.0,IL,17125.0,Mason County,2844.0,10721.0,54000.0,13920.0,9675.0,4666.0,5450.0,11355.0,6633.0,1518.0,467.0,286.0,30.0
104089,County,2020/02/02,17.0,IL,17125.0,Mason County,3235.0,10330.0,49196.0,14335.0,8693.0,4534.0,5911.0,9730.0,4129.0,1197.0,595.0,61.0,11.0
107341,County,2020/02/03,17.0,IL,17125.0,Mason County,2693.0,10872.0,52541.0,12962.0,9410.0,4608.0,5054.0,11727.0,6227.0,1691.0,679.0,156.0,27.0
110476,County,2020/02/04,17.0,IL,17125.0,Mason County,2576.0,10989.0,52258.0,14160.0,8403.0,5141.0,4076.0,11162.0,6087.0,2479.0,671.0,71.0,8.0
112104,County,2020/02/05,17.0,IL,17125.0,Mason County,2781.0,10784.0,51571.0,14829.0,9432.0,4119.0,4460.0,9507.0,6540.0,1803.0,699.0,129.0,53.0
116887,County,2020/02/06,17.0,IL,17125.0,Mason County,2666.0,10899.0,54440.0,14321.0,10175.0,4802.0,4979.0,10819.0,7024.0,1506.0,563.0,233.0,18.0
120141,County,2020/02/07,17.0,IL,17125.0,Mason County,2511.0,11054.0,61656.0,15489.0,12148.0,5075.0,5429.0,12829.0,7310.0,2421.0,849.0,98.0,8.0
121711,County,2020/02/08,17.0,IL,17125.0,Mason County,2946.0,10619.0,56348.0,12909.0,11430.0,5804.0,4915.0,11383.0,7586.0,1501.0,673.0,129.0,18.0
124880,County,2020/02/09,17.0,IL,17125.0,Mason County,3722.0,9843.0,40182.0,9582.0,6958.0,4077.0,3509.0,9647.0,4178.0,1405.0,595.0,164.0,67.0
128966,County,2020/02/10,17.0,IL,17125.0,Mason County,2534.0,11031.0,58094.0,16010.0,9493.0,5055.0,6019.0,11320.0,7399.0,1907.0,661.0,178.0,52.0
131612,County,2020/02/11,17.0,IL,17125.0,Mason County,2598.0,10967.0,64305.0,18387.0,11840.0,5912.0,6463.0,12453.0,5871.0,2266.0,903.0,156.0,54.0
135999,County,2020/02/12,17.0,IL,17125.0,Mason County,2727.0,10838.0,59531.0,18246.0,9352.0,5015.0,5742.0,12279.0,5873.0,1832.0,802.0,333.0,57.0
139268,County,2020/02/13,17.0,IL,17125.0,Mason County,2912.0,10653.0,61601.0,17651.0,11287.0,5210.0,6476.0,11550.0,6471.0,2051.0,711.0,109.0,85.0
142424,County,2020/02/14,17.0,IL,17125.0,Mason County,2669.0,10896.0,61886.0,15681.0,10881.0,6896.0,4779.0,13241.0,7265.0,2167.0,703.0,161.0,112.0
144048,County,2020/02/15,17.0,IL,17125.0,Mason County,3077.0,10488.0,60588.0,17665.0,9173.0,5904.0,6721.0,10543.0,6716.0,2994.0,658.0,159.0,55.0
148832,County,2020/02/16,17.0,IL,17125.0,Mason County,3357.0,10208.0,57727.0,16907.0,9842.0,4990.0,6116.0,10982.0,5597.0,2220.0,853.0,137.0,83.0
150460,County,2020/02/17,17.0,IL,17125.0,Mason County,3854.0,9711.0,46294.0,12698.0,9011.0,3402.0,3268.0,8636.0,6220.0,1929.0,897.0,138.0,95.0
153625,County,2020/02/18,17.0,IL,17125.0,Mason County,2812.0,10753.0,58677.0,17801.0,9949.0,5424.0,4235.0,10724.0,7512.0,1786.0,894.0,253.0,99.0
158386,County,2020/02/19,17.0,IL,17125.0,Mason County,2653.0,10912.0,59315.0,17158.0,8197.0,5024.0,4514.0,13032.0,7277.0,2731.0,1145.0,192.0,45.0
160027,County,2020/02/20,17.0,IL,17125.0,Mason County,2506.0,11059.0,58521.0,17277.0,10495.0,4503.0,4821.0,10858.0,7314.0,1897.0,1172.0,184.0,0.0
163208,County,2020/02/21,17.0,IL,17125.0,Mason County,2646.0,10919.0,63774.0,17730.0,11120.0,4667.0,5102.0,11904.0,8575.0,2999.0,1337.0,276.0,64.0
167919,County,2020/02/22,17.0,IL,17125.0,Mason County,2630.0,10935.0,66129.0,18925.0,10834.0,5525.0,6965.0,14163.0,6641.0,1971.0,921.0,136.0,48.0
171167,County,2020/02/23,17.0,IL,17125.0,Mason County,3224.0,10341.0,55718.0,15959.0,9974.0,5560.0,5559.0,10996.0,5344.0,1469.0,568.0,224.0,65.0
174412,County,2020/02/24,17.0,IL,17125.0,Mason County,2969.0,10596.0,53772.0,14425.0,8450.0,4533.0,5290.0,9938.0,7230.0,2538.0,1051.0,194.0,123.0
176032,County,2020/02/25,17.0,IL,17125.0,Mason County,2644.0,10921.0,59890.0,17274.0,12343.0,5720.0,4406.0,10088.0,6816.0,2191.0,819.0,37.0,196.0
179521,County,2020/02/26,17.0,IL,17125.0,Mason County,2905.0,10660.0,53542.0,13959.0,9174.0,4631.0,5242.0,12692.0,6014.0,880.0,672.0,207.0,71.0
183688,County,2020/02/27,17.0,IL,17125.0,Mason County,2640.0,10925.0,63334.0,17506.0,10267.0,5945.0,6015.0,12821.0,7970.0,2016.0,641.0,104.0,49.0
185659,County,2020/02/28,17.0,IL,17125.0,Mason County,2730.0,10835.0,63516.0,17341.0,10666.0,6390.0,6430.0,12924.0,7739.0,1192.0,637.0,146.0,51.0
188761,County,2020/02/29,17.0,IL,17125.0,Mason County,2765.0,10800.0,63698.0,16312.0,10773.0,6053.0,5832.0,12970.0,8558.0,2210.0,766.0,156.0,68.0
193545,County,2020/03/01,17.0,IL,17125.0,Mason County,3018.0,10547.0,59341.0,18179.0,9880.0,5572.0,6522.0,10555.0,6005.0,1928.0,506.0,194.0,0.0
195174,County,2020/03/02,17.0,IL,17125.0,Mason County,2653.0,10912.0,58154.0,16928.0,9829.0,4912.0,5225.0,11821.0,5783.0,2333.0,1065.0,213.0,45.0
199810,County,2020/03/03,17.0,IL,17125.0,Mason County,2549.0,11016.0,56496.0,14238.0,9076.0,4130.0,7026.0,12027.0,7020.0,1886.0,742.0,315.0,36.0
203114,County,2020/03/04,17.0,IL,17125.0,Mason County,2758.0,10807.0,60817.0,16585.0,12183.0,3936.0,4859.0,12083.0,7072.0,3162.0,730.0,168.0,39.0
204679,County,2020/03/05,17.0,IL,17125.0,Mason County,2298.0,11267.0,58587.0,16009.0,10789.0,3404.0,5297.0,13621.0,6207.0,2154.0,895.0,194.0,17.0
209579,County,2020/03/06,17.0,IL,17125.0,Mason County,2333.0,11232.0,66528.0,18776.0,12375.0,6787.0,6071.0,12919.0,6270.0,2295.0,817.0,162.0,56.0
212762,County,2020/03/07,17.0,IL,17125.0,Mason County,2511.0,11054.0,60371.0,15134.0,11963.0,4277.0,6802.0,11940.0,8072.0,1350.0,552.0,281.0,0.0
215873,County,2020/03/08,17.0,IL,17125.0,Mason County,2810.0,10755.0,55771.0,15077.0,10226.0,4556.0,6792.0,13413.0,3394.0,1233.0,717.0,300.0,63.0
217516,County,2020/03/09,17.0,IL,17125.0,Mason County,2353.0,11212.0,53356.0,14373.0,7400.0,4516.0,5692.0,11721.0,6422.0,2499.0,634.0,49.0,50.0
220750,County,2020/03/10,17.0,IL,17125.0,Mason County,2453.0,11112.0,57100.0,16390.0,11903.0,3928.0,5459.0,10094.0,6677.0,1793.0,706.0,150.0,0.0
225544,County,2020/03/11,17.0,IL,17125.0,Mason County,2546.0,11019.0,54815.0,10352.0,11617.0,5156.0,5476.0,11188.0,6624.0,2354.0,1330.0,611.0,107.0
228635,County,2020/03/12,17.0,IL,17125.0,Mason County,2523.0,11042.0,54810.0,12237.0,12199.0,5234.0,6438.0,11655.0,4093.0,1592.0,843.0,465.0,54.0
230283,County,2020/03/13,17.0,IL,17125.0,Mason County,2531.0,11034.0,44862.0,9929.0,5484.0,3620.0,6678.0,8991.0,6370.0,2754.0,875.0,161.0,0.0
233482,County,2020/03/14,17.0,IL,17125.0,Mason County,3332.0,10233.0,47966.0,10015.0,11184.0,5645.0,9941.0,5319.0,4730.0,859.0,273.0,0.0,0.0
238236,County,2020/03/15,17.0,IL,17125.0,Mason County,3388.0,10177.0,49891.0,13165.0,8301.0,4872.0,4283.0,12777.0,4393.0,715.0,1105.0,238.0,42.0
241479,County,2020/03/16,17.0,IL,17125.0,Mason County,3116.0,10449.0,56988.0,15878.0,10635.0,4411.0,4898.0,11255.0,6934.0,2221.0,647.0,109.0,0.0
244669,County,2020/03/17,17.0,IL,17125.0,Mason County,3256.0,10309.0,57600.0,17643.0,10508.0,4245.0,4910.0,10030.0,7261.0,2494.0,283.0,208.0,18.0
247777,County,2020/03/18,17.0,IL,17125.0,Mason County,3846.0,9719.0,52790.0,14487.0,10547.0,4971.0,5404.0,8691.0,5746.0,1669.0,928.0,305.0,42.0
249456,County,2020/03/19,17.0,IL,17125.0,Mason County,4059.0,9506.0,50573.0,14650.0,9288.0,3856.0,5821.0,9470.0,5386.0,1272.0,559.0,172.0,99.0
254256,County,2020/03/20,17.0,IL,17125.0,Mason County,3747.0,9818.0,52907.0,14274.0,8471.0,4620.0,5579.0,10659.0,7020.0,1312.0,715.0,219.0,38.0
255833,County,2020/03/21,17.0,IL,17125.0,Mason County,4045.0,9520.0,46656.0,11652.0,8718.0,3851.0,3937.0,10303.0,5654.0,1897.0,425.0,196.0,23.0
260586,County,2020/03/22,17.0,IL,17125.0,Mason County,4305.0,9260.0,41251.0,11206.0,9135.0,3340.0,4781.0,7325.0,3284.0,1220.0,775.0,158.0,27.0
263799,County,2020/03/23,17.0,IL,17125.0,Mason County,3486.0,10079.0,43201.0,12075.0,7451.0,3710.0,4787.0,7627.0,4975.0,1476.0,828.0,254.0,18.0
267028,County,2020/03/24,17.0,IL,17125.0,Mason County,3592.0,9973.0,41789.0,9993.0,6267.0,6254.0,4929.0,7392.0,4926.0,1237.0,605.0,167.0,19.0
268659,County,2020/03/25,17.0,IL,17125.0,Mason County,3455.0,10110.0,48876.0,13053.0,7714.0,6619.0,5046.0,8659.0,5849.0,1282.0,582.0,53.0,19.0
271803,County,2020/03/26,17.0,IL,17125.0,Mason County,3167.0,10398.0,44441.0,11103.0,8446.0,3294.0,4144.0,9970.0,5337.0,1253.0,796.0,98.0,0.0
276565,County,2020/03/27,17.0,IL,17125.0,Mason County,3432.0,10133.0,43143.0,11552.0,6610.0,5028.0,3978.0,8657.0,5704.0,1020.0,548.0,46.0,0.0
278193,County,2020/03/28,17.0,IL,17125.0,Mason County,3901.0,9664.0,40841.0,10234.0,8616.0,4276.0,4719.0,6900.0,5086.0,588.0,373.0,49.0,0.0
282953,County,2020/03/29,17.0,IL,17125.0,Mason County,4283.0,9282.0,30297.0,7236.0,6584.0,2897.0,3280.0,5707.0,3399.0,441.0,560.0,193.0,0.0
286179,County,2020/03/30,17.0,IL,17125.0,Mason County,3328.0,10237.0,43409.0,11001.0,7250.0,5991.0,4105.0,8123.0,4700.0,1319.0,739.0,181.0,0.0
287775,County,2020/03/31,17.0,IL,17125.0,Mason County,3471.0,10094.0,45107.0,13405.0,7343.0,2954.0,5189.0,8096.0,5940.0,1626.0,435.0,50.0,69.0
291011,County,2020/04/01,17.0,IL,17125.0,Mason County,3597.0,9968.0,46242.0,13497.0,9051.0,4649.0,3852.0,8151.0,4675.0,1331.0,740.0,195.0,101.0
295744,County,2020/04/02,17.0,IL,17125.0,Mason County,3633.0,9932.0,42672.0,10425.0,6913.0,2609.0,4421.0,10443.0,5799.0,1170.0,743.0,98.0,51.0
297405,County,2020/04/03,17.0,IL,17125.0,Mason County,3166.0,10399.0,47563.0,14301.0,8229.0,4111.0,3488.0,8285.0,6565.0,1692.0,748.0,129.0,15.0
302151,County,2020/04/04,17.0,IL,17125.0,Mason County,3952.0,9613.0,45031.0,12153.0,9102.0,5295.0,4329.0,7143.0,5103.0,806.0,512.0,588.0,0.0
305303,County,2020/04/05,17.0,IL,17125.0,Mason County,3985.0,9580.0,38228.0,9253.0,6881.0,3948.0,4375.0,9056.0,2876.0,1149.0,465.0,183.0,42.0
308504,County,2020/04/06,17.0,IL,17125.0,Mason County,3734.0,9831.0,48526.0,13220.0,6797.0,5505.0,6787.0,9278.0,4987.0,1358.0,345.0,212.0,37.0
311744,County,2020/04/07,17.0,IL,17125.0,Mason County,3386.0,10179.0,46222.0,10032.0,6665.0,6324.0,6640.0,9326.0,5069.0,1422.0,744.0,0.0,0.0
314917,County,2020/04/08,17.0,IL,17125.0,Mason County,3462.0,10103.0,47042.0,12010.0,8151.0,4941.0,5270.0,9290.0,4926.0,1388.0,931.0,135.0,0.0
316544,County,2020/04/09,17.0,IL,17125.0,Mason County,3658.0,9907.0,46519.0,12135.0,9087.0,4648.0,3219.0,8425.0,5730.0,1916.0,986.0,373.0,0.0
319771,County,2020/04/10,17.0,IL,17125.0,Mason County,3317.0,10248.0,49294.0,13368.0,10687.0,4063.0,4185.0,8451.0,5933.0,1943.0,561.0,103.0,0.0
322907,County,2020/04/11,17.0,IL,17125.0,Mason County,3523.0,10042.0,47643.0,14035.0,8093.0,5425.0,6005.0,8829.0,4001.0,578.0,629.0,48.0,0.0
327640,County,2020/04/12,17.0,IL,17125.0,Mason County,4362.0,9203.0,31887.0,8756.0,7917.0,3397.0,4329.0,3957.0,2163.0,827.0,460.0,60.0,21.0
330912,County,2020/04/13,17.0,IL,17125.0,Mason County,3715.0,9850.0,44996.0,13399.0,7478.0,3938.0,4207.0,9194.0,4790.0,1331.0,452.0,207.0,0.0
332490,County,2020/04/14,17.0,IL,17125.0,Mason County,3633.0,9932.0,38225.0,7101.0,8883.0,6231.0,3196.0,5776.0,3686.0,2230.0,992.0,130.0,0.0
337291,County,2020/04/15,17.0,IL,17125.0,Mason County,3405.0,10160.0,35111.0,8587.0,5466.0,4560.0,4807.0,5357.0,2838.0,1586.0,1638.0,232.0,40.0
340385,County,2020/04/16,17.0,IL,17125.0,Mason County,3618.0,9947.0,37382.0,12241.0,6265.0,3696.0,3831.0,5526.0,4280.0,613.0,650.0,239.0,41.0
343697,County,2020/04/17,17.0,IL,17125.0,Mason County,3342.0,10223.0,35309.0,8981.0,6624.0,3384.0,6128.0,4869.0,3629.0,618.0,915.0,120.0,41.0
345275,County,2020/04/18,17.0,IL,17125.0,Mason County,4217.0,9348.0,46351.0,10594.0,7338.0,8476.0,6904.0,7467.0,4870.0,0.0,702.0,0.0,0.0
350026,County,2020/04/19,17.0,IL,17125.0,Mason County,4326.0,9239.0,50789.0,11581.0,13793.0,8742.0,8120.0,5068.0,2705.0,0.0,780.0,0.0,0.0
353276,County,2020/04/20,17.0,IL,17125.0,Mason County,3395.0,10170.0,41453.0,5397.0,5040.0,9148.0,8368.0,8263.0,3903.0,1012.0,322.0,0.0,0.0
354846,County,2020/04/21,17.0,IL,17125.0,Mason County,3258.0,10307.0,48004.0,13137.0,8172.0,5089.0,6259.0,9009.0,4549.0,1032.0,656.0,101.0,0.0
359618,County,2020/04/22,17.0,IL,17125.0,Mason County,3077.0,10488.0,52005.0,14076.0,10887.0,4940.0,5925.0,9232.0,3914.0,1913.0,1100.0,0.0,18.0
362823,County,2020/04/23,17.0,IL,17125.0,Mason County,3254.0,10311.0,45843.0,10380.0,10017.0,4563.0,5233.0,8774.0,4341.0,1791.0,569.0,157.0,18.0
364450,County,2020/04/24,17.0,IL,17125.0,Mason County,3263.0,10302.0,44444.0,10716.0,6486.0,4329.0,5497.0,9322.0,6218.0,1223.0,598.0,55.0,0.0
367617,County,2020/04/25,17.0,IL,17125.0,Mason County,3834.0,9731.0,42098.0,10722.0,7099.0,2600.0,4236.0,8399.0,6474.0,1695.0,718.0,132.0,23.0
370781,County,2020/04/26,17.0,IL,17125.0,Mason County,3537.0,10028.0,42565.0,12668.0,8838.0,2709.0,4543.0,7954.0,4928.0,706.0,150.0,69.0,0.0
375616,County,2020/04/27,17.0,IL,17125.0,Mason County,3053.0,10512.0,55188.0,14398.0,12938.0,5007.0,6047.0,9215.0,5467.0,1567.0,498.0,51.0,0.0
378788,County,2020/04/28,17.0,IL,17125.0,Mason County,3282.0,10283.0,51500.0,15071.0,10820.0,4155.0,5094.0,9818.0,4803.0,959.0,609.0,153.0,18.0
381992,County,2020/04/29,17.0,IL,17125.0,Mason County,3355.0,10210.0,45829.0,15672.0,6474.0,2907.0,4117.0,8964.0,5846.0,983.0,749.0,57.0,60.0
383611,County,2020/04/30,17.0,IL,17125.0,Mason County,3260.0,10305.0,58444.0,19570.0,9878.0,6846.0,4811.0,9270.0,6556.0,893.0,504.0,116.0,0.0
386786,County,2020/05/01,17.0,IL,17125.0,Mason County,3040.0,10525.0,63240.0,18556.0,10751.0,8279.0,6545.0,10636.0,6739.0,1440.0,171.0,105.0,18.0
391546,County,2020/05/02,17.0,IL,17125.0,Mason County,3414.0,10151.0,51936.0,16539.0,9575.0,4833.0,4762.0,12005.0,3645.0,460.0,117.0,0.0,0.0
393182,County,2020/05/03,17.0,IL,17125.0,Mason County,3818.0,9747.0,44000.0,13183.0,8756.0,4800.0,5740.0,6578.0,2938.0,889.0,968.0,148.0,0.0
397985,County,2020/05/04,17.0,IL,17125.0,Mason County,3220.0,10345.0,47402.0,13447.0,6444.0,4340.0,5499.0,10243.0,4310.0,2152.0,870.0,57.0,40.0
401161,County,2020/05/05,17.0,IL,17125.0,Mason County,3345.0,10220.0,41576.0,9190.0,6539.0,3752.0,4377.0,9053.0,6014.0,1985.0,568.0,58.0,40.0
402742,County,2020/05/06,17.0,IL,17125.0,Mason County,3385.0,10180.0,46204.0,10215.0,7715.0,6289.0,5329.0,10093.0,4216.0,1612.0,576.0,118.0,41.0
407461,County,2020/05/07,17.0,IL,17125.0,Mason County,3289.0,10276.0,46637.0,10875.0,7606.0,5177.0,5894.0,8063.0,5784.0,2292.0,425.0,502.0,19.0
410773,County,2020/05/08,17.0,IL,17125.0,Mason County,3234.0,10331.0,49671.0,15654.0,5738.0,5992.0,5106.0,9433.0,4994.0,2070.0,626.0,58.0,0.0
412304,County,2020/05/09,17.0,IL,17125.0,Mason County,3284.0,10281.0,49018.0,16183.0,7929.0,4860.0,4890.0,9514.0,3607.0,1690.0,201.0,123.0,21.0
417101,County,2020/05/10,17.0,IL,17125.0,Mason County,3547.0,10018.0,37725.0,8265.0,5084.0,5101.0,4248.0,8557.0,4952.0,963.0,408.0,125.0,22.0
420380,County,2020/05/11,17.0,IL,17125.0,Mason County,2712.0,10853.0,56732.0,14670.0,10559.0,7281.0,5849.0,9300.0,6327.0,1969.0,521.0,256.0,0.0
423584,County,2020/05/12,17.0,IL,17125.0,Mason County,2568.0,10997.0,57353.0,16607.0,9243.0,5827.0,6301.0,9416.0,6821.0,1958.0,1076.0,93.0,11.0
426633,County,2020/05/13,17.0,IL,17125.0,Mason County,2693.0,10872.0,59774.0,17332.0,9333.0,6533.0,7228.0,10638.0,5801.0,2220.0,558.0,121.0,10.0
428359,County,2020/05/14,17.0,IL,17125.0,Mason County,2453.0,11112.0,51036.0,13059.0,8758.0,5139.0,6787.0,8857.0,6028.0,1710.0,497.0,171.0,30.0
433099,County,2020/05/15,17.0,IL,17125.0,Mason County,2743.0,10822.0,55014.0,16381.0,9069.0,4364.0,7136.0,9344.0,6460.0,1660.0,492.0,97.0,11.0
436303,County,2020/05/16,17.0,IL,17125.0,Mason County,2885.0,10680.0,53504.0,14566.0,8919.0,5836.0,7252.0,9571.0,4810.0,1921.0,481.0,136.0,12.0
439411,County,2020/05/17,17.0,IL,17125.0,Mason County,3035.0,10530.0,42906.0,11756.0,6755.0,5247.0,4358.0,9758.0,3852.0,608.0,483.0,89.0,0.0
442702,County,2020/05/18,17.0,IL,17125.0,Mason County,2190.0,11375.0,51685.0,13361.0,9930.0,3994.0,5487.0,10296.0,5993.0,1968.0,588.0,68.0,0.0
445865,County,2020/05/19,17.0,IL,17125.0,Mason County,2521.0,11044.0,53583.0,12651.0,10514.0,6727.0,5973.0,9355.0,5571.0,2168.0,459.0,141.0,24.0
447497,County,2020/05/20,17.0,IL,17125.0,Mason County,2454.0,11111.0,54538.0,14604.0,10082.0,6573.0,5263.0,9590.0,5828.0,1936.0,410.0,226.0,26.0
450667,County,2020/05/21,17.0,IL,17125.0,Mason County,2622.0,10943.0,61837.0,18924.0,11634.0,5744.0,6378.0,10722.0,5710.0,1929.0,536.0,211.0,49.0
455426,County,2020/05/22,17.0,IL,17125.0,Mason County,2104.0,11461.0,66741.0,19793.0,10115.0,7891.0,8602.0,11490.0,5686.0,2161.0,839.0,140.0,24.0
458638,County,2020/05/23,17.0,IL,17125.0,Mason County,2558.0,11007.0,56138.0,14751.0,11812.0,7301.0,5042.0,8681.0,5758.0,1568.0,996.0,229.0,0.0
460267,County,2020/05/24,17.0,IL,17125.0,Mason County,3062.0,10503.0,49994.0,11847.0,9739.0,7358.0,6642.0,8279.0,3958.0,1106.0,773.0,258.0,34.0
463470,County,2020/05/25,17.0,IL,17125.0,Mason County,3353.0,10212.0,45680.0,12156.0,9094.0,6038.0,5920.0,7766.0,3052.0,1018.0,503.0,99.0,34.0
466574,County,2020/05/26,17.0,IL,17125.0,Mason County,2603.0,10962.0,52990.0,11622.0,10389.0,7948.0,6639.0,9290.0,4962.0,1186.0,814.0,111.0,29.0
471443,County,2020/05/27,17.0,IL,17125.0,Mason County,2762.0,10803.0,54623.0,16555.0,9094.0,6322.0,5392.0,10211.0,4602.0,1649.0,594.0,193.0,11.0
474543,County,2020/05/28,17.0,IL,17125.0,Mason County,2687.0,10878.0,53686.0,14989.0,9422.0,6287.0,5552.0,9542.0,5441.0,1598.0,769.0,57.0,29.0
476221,County,2020/05/29,17.0,IL,17125.0,Mason County,3209.0,10356.0,56032.0,16189.0,12027.0,5993.0,4497.0,9814.0,5243.0,1422.0,786.0,36.0,25.0
480981,County,2020/05/30,17.0,IL,17125.0,Mason County,3492.0,10073.0,57715.0,14101.0,12784.0,8074.0,5588.0,10626.0,4124.0,1716.0,595.0,91.0,16.0
484125,County,2020/05/31,17.0,IL,17125.0,Mason County,3139.0,10426.0,52707.0,13446.0,10139.0,5814.0,6429.0,11362.0,3826.0,852.0,749.0,77.0,13.0
487476,County,2020/06/01,17.0,IL,17125.0,Mason County,2471.0,11094.0,56071.0,14142.0,10261.0,6493.0,6215.0,10960.0,5998.0,1542.0,337.0,84.0,39.0
489044,County,2020/06/02,17.0,IL,17125.0,Mason County,2954.0,10611.0,56001.0,15705.0,11757.0,5541.0,6217.0,8903.0,6020.0,1221.0,591.0,34.0,12.0
492213,County,2020/06/03,17.0,IL,17125.0,Mason County,2568.0,10997.0,60504.0,15837.0,10219.0,7335.0,8031.0,9243.0,6330.0,2566.0,913.0,30.0,0.0
495374,County,2020/06/04,17.0,IL,17125.0,Mason County,2503.0,11062.0,60643.0,16486.0,11051.0,6656.0,7891.0,9559.0,6296.0,1998.0,564.0,97.0,45.0
500151,County,2020/06/05,17.0,IL,17125.0,Mason County,2492.0,11073.0,61981.0,17634.0,10824.0,6930.0,5857.0,10607.0,6878.0,2301.0,766.0,128.0,56.0
501774,County,2020/06/06,17.0,IL,17125.0,Mason County,2997.0,10568.0,51538.0,12067.0,7445.0,9512.0,6696.0,9414.0,4330.0,1501.0,363.0,167.0,43.0
506501,County,2020/06/07,17.0,IL,17125.0,Mason County,3158.0,10407.0,46230.0,9831.0,8784.0,5710.0,6703.0,8314.0,4114.0,1303.0,1215.0,203.0,53.0
509762,County,2020/06/08,17.0,IL,17125.0,Mason County,2362.0,11203.0,61249.0,15544.0,11811.0,6584.0,6709.0,11422.0,7040.0,1623.0,387.0,119.0,10.0
512917,County,2020/06/09,17.0,IL,17125.0,Mason County,2677.0,10888.0,53034.0,11597.0,7842.0,5448.0,7566.0,11199.0,6856.0,2036.0,296.0,170.0,24.0
514549,County,2020/06/10,17.0,IL,17125.0,Mason County,2544.0,11021.0,55873.0,17081.0,6754.0,5719.0,6203.0,10320.0,6582.0,2088.0,921.0,170.0,35.0
517752,County,2020/06/11,17.0,IL,17125.0,Mason County,2155.0,11410.0,60253.0,16600.0,9902.0,6735.0,6546.0,10709.0,6946.0,1944.0,768.0,92.0,11.0
522552,County,2020/06/12,17.0,IL,17125.0,Mason County,2211.0,11354.0,66677.0,20142.0,9585.0,8761.0,7556.0,11516.0,6652.0,1795.0,553.0,95.0,22.0
525690,County,2020/06/13,17.0,IL,17125.0,Mason County,2682.0,10883.0,61515.0,15011.0,13101.0,6268.0,7257.0,11776.0,5693.0,1477.0,860.0,72.0,0.0
527325,County,2020/06/14,17.0,IL,17125.0,Mason County,2957.0,10608.0,47604.0,12556.0,8078.0,5776.0,5679.0,8394.0,4807.0,1576.0,655.0,71.0,12.0
530523,County,2020/06/15,17.0,IL,17125.0,Mason County,2671.0,10894.0,56157.0,12875.0,9868.0,6221.0,6664.0,11197.0,6846.0,1639.0,682.0,165.0,0.0
535304,County,2020/06/16,17.0,IL,17125.0,Mason County,2765.0,10800.0,59680.0,14603.0,11521.0,8018.0,5632.0,9050.0,8031.0,2067.0,657.0,101.0,0.0
538472,County,2020/06/17,17.0,IL,17125.0,Mason County,2516.0,11049.0,55873.0,14098.0,8536.0,7796.0,5716.0,9752.0,7171.0,1765.0,736.0,258.0,45.0
541667,County,2020/06/18,17.0,IL,17125.0,Mason County,2429.0,11136.0,53374.0,13047.0,8271.0,7321.0,5142.0,9561.0,6756.0,2359.0,733.0,184.0,0.0
543294,County,2020/06/19,17.0,IL,17125.0,Mason County,2525.0,11040.0,60914.0,16147.0,9327.0,8396.0,6891.0,10160.0,7185.0,2011.0,691.0,95.0,11.0
546499,County,2020/06/20,17.0,IL,17125.0,Mason County,2761.0,10804.0,46961.0,10942.0,9530.0,5111.0,4550.0,8284.0,5798.0,1735.0,836.0,175.0,0.0
549703,County,2020/06/21,17.0,IL,17125.0,Mason County,3096.0,10469.0,40571.0,9685.0,6165.0,6388.0,5113.0,6758.0,4433.0,1228.0,693.0,80.0,28.0
552878,County,2020/06/22,17.0,IL,17125.0,Mason County,3115.0,10450.0,52290.0,11939.0,9185.0,7411.0,5578.0,8609.0,5877.0,2860.0,734.0,64.0,33.0
557637,County,2020/06/23,17.0,IL,17125.0,Mason County,2589.0,10976.0,57026.0,12795.0,10970.0,7690.0,7210.0,8507.0,7267.0,1522.0,788.0,231.0,46.0
559270,County,2020/06/24,17.0,IL,17125.0,Mason County,2853.0,10712.0,50617.0,13122.0,9075.0,4820.0,6150.0,8872.0,5575.0,2013.0,877.0,101.0,12.0
564007,County,2020/06/25,17.0,IL,17125.0,Mason County,2722.0,10843.0,55276.0,15848.0,9355.0,6096.0,5284.0,10474.0,6224.0,1370.0,580.0,33.0,12.0
567302,County,2020/06/26,17.0,IL,17125.0,Mason County,3069.0,10496.0,50509.0,11814.0,8225.0,4901.0,6115.0,10948.0,5388.0,2148.0,796.0,174.0,0.0
570403,County,2020/06/27,17.0,IL,17125.0,Mason County,3232.0,10333.0,54459.0,17493.0,10248.0,5656.0,5512.0,8336.0,4793.0,1754.0,578.0,76.0,13.0
572042,County,2020/06/28,17.0,IL,17125.0,Mason County,3344.0,10221.0,39627.0,8922.0,7698.0,4404.0,3471.0,7996.0,4502.0,1943.0,468.0,196.0,27.0
575252,County,2020/06/29,17.0,IL,17125.0,Mason County,2809.0,10756.0,55191.0,13155.0,9886.0,9392.0,5623.0,8096.0,6431.0,2151.0,312.0,108.0,37.0
580016,County,2020/06/30,17.0,IL,17125.0,Mason County,2855.0,10710.0,50113.0,11799.0,9896.0,5661.0,4815.0,9213.0,5286.0,2707.0,508.0,216.0,12.0
583209,County,2020/07/01,17.0,IL,17125.0,Mason County,2770.0,10795.0,52418.0,12556.0,11810.0,5696.0,5007.0,8276.0,5859.0,2092.0,911.0,175.0,36.0
586398,County,2020/07/02,17.0,IL,17125.0,Mason County,2903.0,10662.0,58669.0,16821.0,9929.0,6470.0,5608.0,11117.0,6606.0,1454.0,616.0,35.0,13.0
588034,County,2020/07/03,17.0,IL,17125.0,Mason County,3239.0,10326.0,50225.0,11747.0,8179.0,4873.0,6081.0,10886.0,5358.0,2136.0,792.0,173.0,0.0
591244,County,2020/07/04,17.0,IL,17125.0,Mason County,3573.0,9992.0,42968.0,10050.0,6997.0,4169.0,5202.0,9314.0,4584.0,1827.0,677.0,148.0,0.0
594434,County,2020/07/05,17.0,IL,17125.0,Mason County,3355.0,10210.0,47477.0,12845.0,8479.0,5931.0,4510.0,7316.0,4860.0,2567.0,765.0,188.0,16.0
597608,County,2020/07/06,17.0,IL,17125.0,Mason County,2914.0,10651.0,48697.0,12976.0,7795.0,6114.0,5127.0,8625.0,5063.0,1970.0,834.0,160.0,33.0
602780,County,2020/07/07,17.0,IL,17125.0,Mason County,2773.0,10792.0,49184.0,13541.0,7508.0,6348.0,5212.0,8504.0,5144.0,2249.0,586.0,34.0,58.0
605496,County,2020/07/08,17.0,IL,17125.0,Mason County,2786.0,10779.0,49857.0,12816.0,8737.0,4822.0,5555.0,9227.0,5612.0,2049.0,985.0,32.0,22.0
608750,County,2020/07/09,17.0,IL,17125.0,Mason County,2585.0,10980.0,46873.0,10805.0,8467.0,5141.0,5288.0,7867.0,6375.0,1929.0,828.0,152.0,21.0
610373,County,2020/07/10,17.0,IL,17125.0,Mason County,2612.0,10953.0,51790.0,12674.0,10140.0,6439.0,5137.0,7811.0,6125.0,2436.0,841.0,155.0,32.0
613583,County,2020/07/11,17.0,IL,17125.0,Mason County,3007.0,10558.0,45892.0,10872.0,7873.0,5561.0,5665.0,8609.0,4418.0,2006.0,717.0,146.0,25.0
616755,County,2020/07/12,17.0,IL,17125.0,Mason County,3177.0,10388.0,40395.0,9107.0,10125.0,2971.0,4124.0,7231.0,3984.0,1684.0,753.0,328.0,88.0
619945,County,2020/07/13,17.0,IL,17125.0,Mason County,2802.0,10763.0,47263.0,10696.0,9447.0,4199.0,5757.0,8195.0,5447.0,2333.0,918.0,260.0,11.0
624709,County,2020/07/14,17.0,IL,17125.0,Mason County,2765.0,10800.0,49791.0,11407.0,8505.0,5187.0,5520.0,10112.0,5396.0,2667.0,795.0,191.0,11.0
626267,County,2020/07/15,17.0,IL,17125.0,Mason County,2826.0,10739.0,48666.0,13083.0,7501.0,4470.0,5125.0,10079.0,5394.0,1731.0,1100.0,173.0,10.0
631197,County,2020/07/16,17.0,IL,17125.0,Mason County,2709.0,10856.0,52277.0,13261.0,8399.0,5216.0,4580.0,10851.0,5976.0,2655.0,990.0,337.0,12.0
634242,County,2020/07/17,17.0,IL,17125.0,Mason County,2850.0,10715.0,53264.0,13659.0,11186.0,6239.0,4701.0,8682.0,5083.0,2220.0,1151.0,307.0,36.0
635920,County,2020/07/18,17.0,IL,17125.0,Mason County,3159.0,10406.0,46464.0,8865.0,9347.0,5347.0,5680.0,9923.0,3734.0,2170.0,1292.0,79.0,27.0
639124,County,2020/07/19,17.0,IL,17125.0,Mason County,3584.0,9981.0,36930.0,7590.0,6557.0,4649.0,4478.0,7270.0,4235.0,1233.0,691.0,212.0,15.0
643906,County,2020/07/20,17.0,IL,17125.0,Mason County,3024.0,10541.0,47642.0,11808.0,8383.0,5960.0,3437.0,9314.0,5537.0,2354.0,526.0,297.0,26.0
647549,County,2020/07/21,17.0,IL,17125.0,Mason County,2895.0,10670.0,48778.0,12287.0,9326.0,4638.0,4270.0,8973.0,5669.0,2491.0,809.0,259.0,56.0
649739,County,2020/07/22,17.0,IL,17125.0,Mason County,2914.0,10651.0,49703.0,12714.0,9900.0,4323.0,4539.0,9851.0,5417.0,2288.0,400.0,201.0,70.0
653458,County,2020/07/23,17.0,IL,17125.0,Mason County,2704.0,10861.0,45849.0,9897.0,8975.0,3759.0,4305.0,9234.0,6392.0,2176.0,815.0,228.0,68.0
656682,County,2020/07/24,17.0,IL,17125.0,Mason County,2748.0,10817.0,56057.0,14360.0,10023.0,6361.0,5048.0,10804.0,5945.0,2563.0,866.0,32.0,55.0
659948,County,2020/07/25,17.0,IL,17125.0,Mason County,3014.0,10551.0,46065.0,12920.0,7895.0,5928.0,4119.0,9066.0,3619.0,1997.0,368.0,75.0,78.0
661472,County,2020/07/26,17.0,IL,17125.0,Mason County,3031.0,10534.0,45501.0,11582.0,7400.0,4172.0,4915.0,9483.0,5116.0,1486.0,983.0,326.0,38.0
666300,County,2020/07/27,17.0,IL,17125.0,Mason County,3071.0,10494.0,55335.0,16334.0,10075.0,6175.0,5178.0,9189.0,4851.0,2466.0,821.0,138.0,108.0
667881,County,2020/07/28,17.0,IL,17125.0,Mason County,2790.0,10775.0,53894.0,14742.0,8467.0,4912.0,5470.0,11112.0,6274.0,2086.0,609.0,165.0,57.0
671038,County,2020/07/29,17.0,IL,17125.0,Mason County,3124.0,10441.0,47550.0,9169.0,8606.0,4665.0,5593.0,10270.0,5789.0,2477.0,614.0,318.0,49.0
674248,County,2020/07/30,17.0,IL,17125.0,Mason County,3072.0,10493.0,52524.0,11709.0,10059.0,6815.0,4318.0,9079.0,7106.0,2649.0,586.0,168.0,35.0
677449,County,2020/07/31,17.0,IL,17125.0,Mason County,3059.0,10506.0,48843.0,13878.0,7022.0,4218.0,4380.0,8808.0,7204.0,2567.0,621.0,108.0,37.0
680655,County,2020/08/01,17.0,IL,17125.0,Mason County,3340.0,10225.0,47166.0,11301.0,6906.0,5256.0,4569.0,10315.0,5927.0,2400.0,278.0,170.0,44.0
685387,County,2020/08/02,17.0,IL,17125.0,Mason County,3526.0,10039.0,45622.0,12081.0,7883.0,6223.0,4491.0,7402.0,5510.0,1501.0,318.0,126.0,87.0
687025,County,2020/08/03,17.0,IL,17125.0,Mason County,2980.0,10585.0,50117.0,11727.0,7367.0,7799.0,4199.0,8439.0,7224.0,2311.0,754.0,183.0,114.0
691801,County,2020/08/04,17.0,IL,17125.0,Mason County,3111.0,10454.0,52571.0,13700.0,7935.0,7577.0,5083.0,8179.0,7028.0,2400.0,442.0,74.0,153.0
693430,County,2020/08/05,17.0,IL,17125.0,Mason County,2940.0,10625.0,50199.0,14462.0,6927.0,4727.0,5761.0,9190.0,6468.0,1703.0,858.0,103.0,0.0
696636,County,2020/08/06,17.0,IL,17125.0,Mason County,2842.0,10723.0,47959.0,11949.0,5869.0,5312.0,5014.0,9772.0,7121.0,2036.0,570.0,280.0,36.0
699799,County,2020/08/07,17.0,IL,17125.0,Mason County,2905.0,10660.0,50950.0,14083.0,7221.0,5911.0,5128.0,8660.0,6901.0,2047.0,827.0,109.0,63.0
702997,County,2020/08/08,17.0,IL,17125.0,Mason County,3272.0,10293.0,45040.0,11038.0,7873.0,5363.0,4516.0,8288.0,5585.0,1666.0,573.0,81.0,57.0
707779,County,2020/08/09,17.0,IL,17125.0,Mason County,3492.0,10073.0,43219.0,10015.0,7910.0,4242.0,4538.0,9348.0,5304.0,1326.0,399.0,81.0,56.0
710997,County,2020/08/10,17.0,IL,17125.0,Mason County,3108.0,10457.0,52047.0,14431.0,9313.0,4036.0,4332.0,9748.0,7304.0,2087.0,664.0,107.0,25.0
712576,County,2020/08/11,17.0,IL,17125.0,Mason County,3332.0,10233.0,52914.0,15292.0,8295.0,4552.0,4303.0,10633.0,7143.0,2078.0,480.0,74.0,64.0
715771,County,2020/08/12,17.0,IL,17125.0,Mason County,3182.0,10383.0,49593.0,13419.0,6877.0,4784.0,4212.0,9289.0,7283.0,2852.0,578.0,212.0,87.0
720531,County,2020/08/13,17.0,IL,17125.0,Mason County,3015.0,10550.0,51535.0,12210.0,10088.0,4071.0,4262.0,9864.0,7520.0,2356.0,998.0,141.0,25.0
723757,County,2020/08/14,17.0,IL,17125.0,Mason County,3023.0,10542.0,53761.0,15228.0,7692.0,5894.0,4942.0,9759.0,6189.0,2331.0,1443.0,210.0,73.0
725387,County,2020/08/15,17.0,IL,17125.0,Mason County,2975.0,10590.0,52630.0,11500.0,9476.0,5979.0,4880.0,10515.0,7215.0,1881.0,887.0,248.0,49.0
728547,County,2020/08/16,17.0,IL,17125.0,Mason County,3336.0,10229.0,42835.0,10304.0,8000.0,3368.0,4153.0,8039.0,6408.0,1388.0,924.0,77.0,174.0
733328,County,2020/08/17,17.0,IL,17125.0,Mason County,2993.0,10572.0,51675.0,12923.0,8661.0,5436.0,3647.0,9617.0,7752.0,2286.0,879.0,316.0,158.0
734955,County,2020/08/18,17.0,IL,17125.0,Mason County,3283.0,10282.0,51300.0,13537.0,8660.0,4531.0,4104.0,9704.0,6835.0,2620.0,832.0,282.0,195.0
739694,County,2020/08/19,17.0,IL,17125.0,Mason County,2697.0,10868.0,52270.0,13926.0,8868.0,5338.0,4297.0,9577.0,6701.0,2422.0,713.0,345.0,83.0
741322,County,2020/08/20,17.0,IL,17125.0,Mason County,2637.0,10928.0,53198.0,14912.0,9500.0,5044.0,3590.0,8322.0,7866.0,2317.0,1115.0,329.0,203.0
744522,County,2020/08/21,17.0,IL,17125.0,Mason County,2599.0,10966.0,59127.0,16090.0,8963.0,4700.0,5374.0,11637.0,8449.0,2601.0,867.0,341.0,105.0
749304,County,2020/08/22,17.0,IL,17125.0,Mason County,3051.0,10514.0,45802.0,9506.0,9030.0,4291.0,4194.0,8905.0,5835.0,2686.0,663.0,480.0,212.0
750920,County,2020/08/23,17.0,IL,17125.0,Mason County,3635.0,9930.0,40766.0,9419.0,7757.0,3581.0,4309.0,8154.0,4872.0,1475.0,896.0,225.0,78.0
754144,County,2020/08/24,17.0,IL,17125.0,Mason County,3158.0,10407.0,49285.0,13747.0,9398.0,3649.0,4897.0,8217.0,5767.0,2380.0,1042.0,124.0,64.0
757292,County,2020/08/25,17.0,IL,17125.0,Mason County,3182.0,10383.0,51809.0,16050.0,7752.0,4880.0,4244.0,9413.0,6543.0,2091.0,489.0,258.0,89.0
762015,County,2020/08/26,17.0,IL,17125.0,Mason County,3237.0,10328.0,48157.0,13529.0,8885.0,3993.0,3957.0,8333.0,6510.0,1878.0,842.0,129.0,101.0
765260,County,2020/08/27,17.0,IL,17125.0,Mason County,3279.0,10286.0,43097.0,11151.0,7011.0,3760.0,3937.0,7352.0,6086.0,2400.0,993.0,293.0,114.0
766900,County,2020/08/28,17.0,IL,17125.0,Mason County,3048.0,10517.0,47811.0,12751.0,6648.0,4153.0,4723.0,10329.0,5991.0,2198.0,768.0,161.0,89.0
771626,County,2020/08/29,17.0,IL,17125.0,Mason County,3337.0,10228.0,47979.0,11696.0,8320.0,4410.0,4198.0,10402.0,6395.0,1623.0,675.0,146.0,114.0
774845,County,2020/08/30,17.0,IL,17125.0,Mason County,3517.0,10048.0,40303.0,9460.0,9186.0,4583.0,3305.0,7065.0,4685.0,906.0,797.0,203.0,113.0
778034,County,2020/08/31,17.0,IL,17125.0,Mason County,2836.0,10729.0,45655.0,10579.0,7818.0,5345.0,4451.0,7514.0,5621.0,2636.0,1140.0,426.0,125.0
781233,County,2020/09/01,17.0,IL,17125.0,Mason County,2839.0,10726.0,45631.0,10963.0,7955.0,4407.0,4907.0,8802.0,5532.0,2054.0,688.0,300.0,23.0
782840,County,2020/09/02,17.0,IL,17125.0,Mason County,3229.0,10336.0,48842.0,11625.0,7730.0,4407.0,4787.0,9133.0,7739.0,2683.0,487.0,187.0,64.0
785988,County,2020/09/03,17.0,IL,17125.0,Mason County,2571.0,10994.0,50157.0,12817.0,8150.0,3782.0,5300.0,9272.0,7269.0,2404.0,780.0,269.0,114.0
790819,County,2020/09/04,17.0,IL,17125.0,Mason County,3170.0,10395.0,50230.0,12731.0,7183.0,5066.0,4957.0,9619.0,6864.0,2505.0,1102.0,112.0,91.0
794010,County,2020/09/05,17.0,IL,17125.0,Mason County,3045.0,10520.0,53482.0,12829.0,11097.0,5420.0,4990.0,11069.0,4916.0,2005.0,863.0,227.0,66.0
797165,County,2020/09/06,17.0,IL,17125.0,Mason County,3512.0,10053.0,35590.0,7842.0,6956.0,3161.0,3138.0,7712.0,4493.0,1001.0,783.0,270.0,234.0
798823,County,2020/09/07,17.0,IL,17125.0,Mason County,3794.0,9771.0,33276.0,6916.0,6615.0,2759.0,2292.0,6302.0,4756.0,2479.0,762.0,233.0,162.0
802035,County,2020/09/08,17.0,IL,17125.0,Mason County,2835.0,10730.0,51573.0,13414.0,9851.0,4139.0,5493.0,9351.0,5844.0,2197.0,851.0,313.0,120.0
805201,County,2020/09/09,17.0,IL,17125.0,Mason County,2930.0,10635.0,52350.0,13687.0,9590.0,3757.0,6180.0,8704.0,6535.0,2831.0,692.0,286.0,88.0
809971,County,2020/09/10,17.0,IL,17125.0,Mason County,3158.0,10407.0,49215.0,11657.0,8009.0,4963.0,4930.0,9156.0,6846.0,2556.0,996.0,102.0,0.0
811600,County,2020/09/11,17.0,IL,17125.0,Mason County,2787.0,10778.0,53003.0,12353.0,10016.0,5820.0,4445.0,10245.0,5942.0,2779.0,1143.0,127.0,133.0
814784,County,2020/09/12,17.0,IL,17125.0,Mason County,3611.0,9954.0,46760.0,10740.0,8682.0,4895.0,4485.0,9326.0,5282.0,2398.0,693.0,170.0,89.0
818006,County,2020/09/13,17.0,IL,17125.0,Mason County,3596.0,9969.0,35411.0,6495.0,5952.0,5176.0,3009.0,6858.0,5089.0,1996.0,580.0,133.0,123.0
822738,County,2020/09/14,17.0,IL,17125.0,Mason County,3361.0,10204.0,47332.0,11957.0,7831.0,4724.0,4931.0,8849.0,6546.0,1598.0,568.0,224.0,104.0
824367,County,2020/09/15,17.0,IL,17125.0,Mason County,3084.0,10481.0,46562.0,11014.0,7073.0,5159.0,4751.0,8734.0,7595.0,1478.0,431.0,252.0,75.0
829174,County,2020/09/16,17.0,IL,17125.0,Mason County,3077.0,10488.0,47909.0,10876.0,8918.0,4058.0,3954.0,9865.0,7514.0,1882.0,598.0,137.0,107.0
832351,County,2020/09/17,17.0,IL,17125.0,Mason County,2903.0,10662.0,47875.0,11096.0,7915.0,3955.0,3819.0,9454.0,7826.0,2407.0,1045.0,275.0,83.0
835514,County,2020/09/18,17.0,IL,17125.0,Mason County,2904.0,10661.0,61356.0,16791.0,15110.0,4801.0,4698.0,10557.0,6974.0,1462.0,619.0,320.0,24.0
837142,County,2020/09/19,17.0,IL,17125.0,Mason County,3125.0,10440.0,54563.0,11844.0,13536.0,6190.0,4001.0,10488.0,4904.0,2809.0,522.0,200.0,69.0
841918,County,2020/09/20,17.0,IL,17125.0,Mason County,3755.0,9810.0,40047.0,9341.0,6997.0,4169.0,3426.0,7785.0,5590.0,1966.0,524.0,185.0,64.0
843546,County,2020/09/21,17.0,IL,17125.0,Mason County,3680.0,9885.0,44202.0,11448.0,7674.0,4854.0,3823.0,8243.0,6225.0,1413.0,408.0,75.0,39.0
846750,County,2020/09/22,17.0,IL,17125.0,Mason County,3060.0,10505.0,47180.0,11158.0,7040.0,5780.0,4378.0,9582.0,6312.0,2383.0,469.0,66.0,12.0
849917,County,2020/09/23,17.0,IL,17125.0,Mason County,3166.0,10399.0,49107.0,11173.0,8085.0,3865.0,4679.0,11174.0,6888.0,2696.0,547.0,0.0,0.0
854684,County,2020/09/24,17.0,IL,17125.0,Mason County,3002.0,10563.0,51483.0,13471.0,8994.0,4824.0,5103.0,10742.0,5908.0,1637.0,682.0,99.0,23.0
856313,County,2020/09/25,17.0,IL,17125.0,Mason County,2980.0,10585.0,50025.0,11435.0,9877.0,4646.0,5735.0,9233.0,6728.0,1866.0,395.0,99.0,11.0
861066,County,2020/09/26,17.0,IL,17125.0,Mason County,3230.0,10335.0,49721.0,9257.0,10547.0,5761.0,5130.0,10695.0,5969.0,1785.0,527.0,37.0,13.0
862720,County,2020/09/27,17.0,IL,17125.0,Mason County,3654.0,9911.0,39221.0,11143.0,6131.0,3000.0,3405.0,8064.0,5337.0,1475.0,625.0,41.0,0.0
867454,County,2020/09/28,17.0,IL,17125.0,Mason County,3147.0,10418.0,47832.0,10641.0,8529.0,5692.0,4773.0,8846.0,6474.0,2103.0,629.0,145.0,0.0
869082,County,2020/09/29,17.0,IL,17125.0,Mason County,3217.0,10348.0,51607.0,12920.0,11199.0,4368.0,4908.0,8605.0,7028.0,1861.0,567.0,146.0,5.0
873861,County,2020/09/30,17.0,IL,17125.0,Mason County,3058.0,10507.0,46909.0,10787.0,8579.0,3804.0,3293.0,10340.0,6332.0,2762.0,776.0,215.0,21.0
875489,County,2020/10/01,17.0,IL,17125.0,Mason County,2959.0,10606.0,47631.0,13126.0,9247.0,4123.0,4486.0,8934.0,5230.0,1424.0,736.0,292.0,33.0
880279,County,2020/10/02,17.0,IL,17125.0,Mason County,3018.0,10547.0,53219.0,16088.0,8041.0,4841.0,4074.0,10494.0,7080.0,1821.0,573.0,182.0,25.0
881858,County,2020/10/03,17.0,IL,17125.0,Mason County,3320.0,10245.0,48673.0,10688.0,10647.0,4133.0,4232.0,10135.0,5687.0,2118.0,828.0,172.0,33.0
885031,County,2020/10/04,17.0,IL,17125.0,Mason County,3503.0,10062.0,45465.0,13385.0,8593.0,3249.0,3288.0,9245.0,4914.0,1937.0,587.0,236.0,31.0
888551,County,2020/10/05,17.0,IL,17125.0,Mason County,3474.0,10091.0,44788.0,10452.0,8384.0,4493.0,3892.0,9086.0,6196.0,1914.0,212.0,138.0,21.0
891778,County,2020/10/06,17.0,IL,17125.0,Mason County,3129.0,10436.0,45587.0,9485.0,8377.0,5405.0,4369.0,9243.0,6094.0,1668.0,654.0,259.0,33.0
894969,County,2020/10/07,17.0,IL,17125.0,Mason County,2855.0,10710.0,48947.0,11833.0,8482.0,5099.0,4797.0,9463.0,6806.0,1635.0,644.0,175.0,13.0
898152,County,2020/10/08,17.0,IL,17125.0,Mason County,3023.0,10542.0,45895.0,10517.0,8754.0,4742.0,4675.0,8770.0,6431.0,1243.0,493.0,227.0,43.0
901343,County,2020/10/09,17.0,IL,17125.0,Mason County,3061.0,10504.0,51369.0,13042.0,8693.0,5174.0,5179.0,9754.0,7077.0,1774.0,484.0,177.0,15.0
904510,County,2020/10/10,17.0,IL,17125.0,Mason County,3269.0,10296.0,46668.0,10501.0,7644.0,5308.0,4940.0,10553.0,5486.0,1574.0,565.0,87.0,10.0
909204,County,2020/10/11,17.0,IL,17125.0,Mason County,3702.0,9863.0,37218.0,7879.0,5684.0,3423.0,2515.0,8802.0,5901.0,2120.0,687.0,192.0,15.0
913038,County,2020/10/12,17.0,IL,17125.0,Mason County,3261.0,10304.0,45373.0,12430.0,7412.0,3701.0,3069.0,9045.0,7613.0,1528.0,517.0,40.0,18.0
915987,County,2020/10/13,17.0,IL,17125.0,Mason County,3077.0,10488.0,44527.0,11088.0,7941.0,2825.0,5068.0,7463.0,6365.0,3045.0,649.0,62.0,21.0
919180,County,2020/10/14,17.0,IL,17125.0,Mason County,3070.0,10495.0,50105.0,13870.0,9471.0,3893.0,3510.0,9450.0,6337.0,2535.0,915.0,97.0,27.0
922319,County,2020/10/15,17.0,IL,17125.0,Mason County,3466.0,10099.0,44575.0,10524.0,6853.0,4966.0,4493.0,9103.0,5746.0,1817.0,868.0,177.0,28.0
925327,County,2020/10/16,17.0,IL,17125.0,Mason County,2972.0,10593.0,45361.0,10757.0,7271.0,4496.0,4272.0,10558.0,5878.0,1393.0,575.0,120.0,41.0
928797,County,2020/10/17,17.0,IL,17125.0,Mason County,3503.0,10062.0,46451.0,12569.0,8677.0,4573.0,4071.0,9466.0,4535.0,1938.0,498.0,94.0,30.0
932018,County,2020/10/18,17.0,IL,17125.0,Mason County,3428.0,10137.0,38095.0,8574.0,6483.0,4170.0,3381.0,7335.0,5438.0,1864.0,651.0,159.0,40.0
933969,County,2020/10/19,17.0,IL,17125.0,Mason County,3181.0,10384.0,52207.0,13461.0,11081.0,3716.0,4016.0,9980.0,6108.0,2761.0,816.0,249.0,19.0
938261,County,2020/10/20,17.0,IL,17125.0,Mason County,3343.0,10222.0,49573.0,14613.0,8351.0,3740.0,3869.0,9829.0,6111.0,2385.0,520.0,130.0,25.0
941877,County,2020/10/21,17.0,IL,17125.0,Mason County,3563.0,10002.0,45499.0,10222.0,9126.0,3774.0,4363.0,9334.0,5394.0,2488.0,756.0,24.0,18.0
945177,County,2020/10/22,17.0,IL,17125.0,Mason County,3224.0,10341.0,48606.0,12232.0,9188.0,5454.0,3915.0,9424.0,5741.0,1655.0,790.0,196.0,11.0
948298,County,2020/10/23,17.0,IL,17125.0,Mason County,3220.0,10345.0,53239.0,14434.0,10911.0,4665.0,4678.0,8823.0,6600.0,2284.0,673.0,149.0,22.0
951181,County,2020/10/24,17.0,IL,17125.0,Mason County,3475.0,10090.0,52379.0,14447.0,7275.0,5437.0,4718.0,9945.0,7098.0,2676.0,701.0,82.0,0.0
