,Level,Date,State FIPS,State Postal Code,County FIPS,County Name,Population Staying at Home,Population Not Staying at Home,Number of Trips,Number of Trips <1,Number of Trips 1-3,Number of Trips 3-5,Number of Trips 5-10,Number of Trips 10-25,Number of Trips 25-50,Number of Trips 50-100,Number of Trips 100-250,Number of Trips 250-500,Number of Trips >=500
2576,County,2020/01/01,48.0,TX,48109.0,Culberson County,555.0,1649.0,5278.0,1052.0,1212.0,676.0,1141.0,368.0,266.0,204.0,294.0,36.0,29.0
4449,County,2020/01/02,48.0,TX,48109.0,Culberson County,507.0,1697.0,7035.0,1568.0,1223.0,876.0,1591.0,637.0,433.0,361.0,282.0,41.0,23.0
9063,County,2020/01/03,48.0,TX,48109.0,Culberson County,462.0,1742.0,7396.0,1467.0,946.0,718.0,2167.0,789.0,516.0,346.0,374.0,49.0,24.0
10499,County,2020/01/04,48.0,TX,48109.0,Culberson County,464.0,1740.0,6580.0,1484.0,1137.0,853.0,1582.0,624.0,375.0,199.0,244.0,47.0,35.0
15352,County,2020/01/05,48.0,TX,48109.0,Culberson County,494.0,1710.0,5387.0,902.0,720.0,616.0,1656.0,412.0,374.0,292.0,316.0,61.0,38.0
18839,County,2020/01/06,48.0,TX,48109.0,Culberson County,456.0,1748.0,6339.0,1086.0,936.0,744.0,1543.0,656.0,581.0,376.0,351.0,46.0,20.0
22034,County,2020/01/07,48.0,TX,48109.0,Culberson County,437.0,1767.0,7316.0,1273.0,1139.0,778.0,2131.0,576.0,567.0,392.0,383.0,55.0,22.0
23709,County,2020/01/08,48.0,TX,48109.0,Culberson County,456.0,1748.0,6587.0,1143.0,943.0,712.0,1927.0,719.0,423.0,355.0,266.0,55.0,44.0
28409,County,2020/01/09,48.0,TX,48109.0,Culberson County,471.0,1733.0,7836.0,1332.0,1071.0,881.0,2413.0,860.0,525.0,360.0,319.0,48.0,27.0
31616,County,2020/01/10,48.0,TX,48109.0,Culberson County,427.0,1777.0,7846.0,1267.0,1302.0,1140.0,2220.0,737.0,510.0,266.0,345.0,41.0,18.0
33293,County,2020/01/11,48.0,TX,48109.0,Culberson County,447.0,1757.0,7531.0,1615.0,1256.0,942.0,1967.0,570.0,430.0,333.0,345.0,49.0,24.0
36449,County,2020/01/12,48.0,TX,48109.0,Culberson County,528.0,1676.0,6545.0,1847.0,1055.0,498.0,1608.0,546.0,325.0,311.0,291.0,52.0,12.0
41226,County,2020/01/13,48.0,TX,48109.0,Culberson County,451.0,1753.0,6258.0,1407.0,949.0,693.0,1200.0,759.0,461.0,401.0,314.0,46.0,28.0
44375,County,2020/01/14,48.0,TX,48109.0,Culberson County,408.0,1796.0,7053.0,1287.0,1187.0,695.0,1645.0,593.0,787.0,486.0,292.0,48.0,33.0
47581,County,2020/01/15,48.0,TX,48109.0,Culberson County,402.0,1802.0,7072.0,1350.0,942.0,758.0,2101.0,540.0,621.0,410.0,282.0,39.0,29.0
49110,County,2020/01/16,48.0,TX,48109.0,Culberson County,421.0,1783.0,6757.0,1110.0,1165.0,723.0,1864.0,618.0,496.0,372.0,351.0,38.0,20.0
54025,County,2020/01/17,48.0,TX,48109.0,Culberson County,383.0,1821.0,6998.0,1331.0,955.0,744.0,1828.0,848.0,513.0,363.0,350.0,45.0,21.0
57146,County,2020/01/18,48.0,TX,48109.0,Culberson County,443.0,1761.0,6950.0,1190.0,1087.0,566.0,2086.0,906.0,445.0,292.0,296.0,53.0,29.0
58746,County,2020/01/19,48.0,TX,48109.0,Culberson County,560.0,1644.0,6234.0,1165.0,1191.0,723.0,1734.0,480.0,327.0,271.0,268.0,57.0,18.0
61978,County,2020/01/20,48.0,TX,48109.0,Culberson County,442.0,1762.0,6371.0,1047.0,952.0,651.0,1689.0,824.0,589.0,279.0,272.0,50.0,18.0
65184,County,2020/01/21,48.0,TX,48109.0,Culberson County,438.0,1766.0,6870.0,1221.0,1015.0,807.0,1848.0,731.0,500.0,375.0,292.0,54.0,27.0
69944,County,2020/01/22,48.0,TX,48109.0,Culberson County,476.0,1728.0,7097.0,1282.0,1242.0,936.0,1700.0,630.0,465.0,324.0,446.0,48.0,24.0
71570,County,2020/01/23,48.0,TX,48109.0,Culberson County,446.0,1758.0,7100.0,1203.0,1220.0,669.0,2183.0,535.0,492.0,387.0,340.0,51.0,20.0
74717,County,2020/01/24,48.0,TX,48109.0,Culberson County,439.0,1765.0,7755.0,1523.0,1247.0,861.0,2278.0,636.0,622.0,297.0,234.0,29.0,28.0
79519,County,2020/01/25,48.0,TX,48109.0,Culberson County,395.0,1809.0,6518.0,1369.0,1252.0,619.0,1504.0,599.0,323.0,505.0,267.0,52.0,28.0
82426,County,2020/01/26,48.0,TX,48109.0,Culberson County,555.0,1649.0,6382.0,1182.0,1076.0,512.0,1711.0,600.0,389.0,549.0,295.0,48.0,20.0
83251,County,2020/01/27,48.0,TX,48109.0,Culberson County,477.0,1727.0,6247.0,1438.0,1079.0,542.0,1086.0,647.0,564.0,521.0,322.0,28.0,20.0
87604,County,2020/01/28,48.0,TX,48109.0,Culberson County,405.0,1799.0,6732.0,1320.0,1055.0,622.0,1321.0,734.0,633.0,624.0,350.0,36.0,37.0
90710,County,2020/01/29,48.0,TX,48109.0,Culberson County,377.0,1827.0,6798.0,1374.0,1084.0,649.0,1770.0,530.0,540.0,362.0,403.0,57.0,29.0
95495,County,2020/01/30,48.0,TX,48109.0,Culberson County,454.0,1750.0,6805.0,1438.0,875.0,796.0,1340.0,881.0,611.0,417.0,363.0,48.0,36.0
98689,County,2020/01/31,48.0,TX,48109.0,Culberson County,454.0,1750.0,6800.0,1478.0,1036.0,644.0,1734.0,681.0,565.0,272.0,327.0,47.0,16.0
101877,County,2020/02/01,48.0,TX,48109.0,Culberson County,415.0,1789.0,7348.0,1464.0,1013.0,824.0,2043.0,702.0,436.0,413.0,369.0,50.0,34.0
103446,County,2020/02/02,48.0,TX,48109.0,Culberson County,492.0,1712.0,6601.0,1291.0,800.0,621.0,2126.0,513.0,470.0,377.0,331.0,38.0,34.0
108282,County,2020/02/03,48.0,TX,48109.0,Culberson County,445.0,1759.0,7344.0,1831.0,1079.0,665.0,1809.0,675.0,501.0,389.0,330.0,44.0,21.0
109899,County,2020/02/04,48.0,TX,48109.0,Culberson County,408.0,1796.0,7085.0,1375.0,1153.0,727.0,1707.0,789.0,496.0,429.0,325.0,49.0,35.0
113045,County,2020/02/05,48.0,TX,48109.0,Culberson County,485.0,1719.0,6586.0,1689.0,1115.0,611.0,1542.0,587.0,406.0,260.0,291.0,42.0,43.0
116189,County,2020/02/06,48.0,TX,48109.0,Culberson County,379.0,1825.0,7673.0,1537.0,1100.0,546.0,2321.0,866.0,440.0,437.0,345.0,49.0,32.0
121082,County,2020/02/07,48.0,TX,48109.0,Culberson County,378.0,1826.0,8307.0,1547.0,1242.0,946.0,2148.0,816.0,543.0,607.0,387.0,48.0,23.0
124242,County,2020/02/08,48.0,TX,48109.0,Culberson County,433.0,1771.0,7250.0,1494.0,1015.0,782.0,1663.0,793.0,499.0,534.0,385.0,50.0,35.0
126590,County,2020/02/09,48.0,TX,48109.0,Culberson County,490.0,1714.0,6622.0,1353.0,865.0,743.0,2036.0,493.0,376.0,323.0,326.0,63.0,44.0
130884,County,2020/02/10,48.0,TX,48109.0,Culberson County,373.0,1831.0,6717.0,1221.0,1110.0,656.0,1573.0,699.0,590.0,356.0,403.0,70.0,39.0
132748,County,2020/02/11,48.0,TX,48109.0,Culberson County,343.0,1861.0,6930.0,1289.0,1157.0,634.0,1573.0,627.0,628.0,481.0,438.0,65.0,38.0
134351,County,2020/02/12,48.0,TX,48109.0,Culberson County,396.0,1808.0,7255.0,1521.0,1309.0,606.0,1342.0,944.0,590.0,488.0,346.0,63.0,46.0
140211,County,2020/02/13,48.0,TX,48109.0,Culberson County,359.0,1845.0,8008.0,1797.0,1522.0,665.0,1673.0,768.0,693.0,397.0,369.0,78.0,46.0
143414,County,2020/02/14,48.0,TX,48109.0,Culberson County,374.0,1830.0,8172.0,1638.0,1333.0,884.0,1821.0,705.0,942.0,398.0,357.0,55.0,39.0
145038,County,2020/02/15,48.0,TX,48109.0,Culberson County,385.0,1819.0,8845.0,1761.0,1221.0,841.0,2353.0,984.0,735.0,540.0,327.0,48.0,35.0
149772,County,2020/02/16,48.0,TX,48109.0,Culberson County,498.0,1706.0,7203.0,1534.0,1151.0,833.0,1667.0,643.0,613.0,399.0,279.0,43.0,41.0
151403,County,2020/02/17,48.0,TX,48109.0,Culberson County,516.0,1688.0,5919.0,1257.0,936.0,627.0,1306.0,571.0,450.0,422.0,283.0,41.0,26.0
156182,County,2020/02/18,48.0,TX,48109.0,Culberson County,410.0,1794.0,7682.0,1415.0,967.0,662.0,2206.0,844.0,603.0,605.0,288.0,44.0,48.0
157810,County,2020/02/19,48.0,TX,48109.0,Culberson County,377.0,1827.0,6913.0,1383.0,1126.0,562.0,1486.0,804.0,638.0,422.0,398.0,51.0,43.0
162619,County,2020/02/20,48.0,TX,48109.0,Culberson County,399.0,1805.0,7947.0,1755.0,987.0,761.0,2007.0,975.0,592.0,412.0,368.0,58.0,32.0
164149,County,2020/02/21,48.0,TX,48109.0,Culberson County,406.0,1798.0,8111.0,1931.0,1303.0,648.0,1983.0,868.0,613.0,342.0,329.0,56.0,38.0
168909,County,2020/02/22,48.0,TX,48109.0,Culberson County,373.0,1831.0,8018.0,1339.0,1155.0,760.0,2546.0,779.0,610.0,486.0,255.0,55.0,33.0
170571,County,2020/02/23,48.0,TX,48109.0,Culberson County,485.0,1719.0,7184.0,1362.0,1172.0,417.0,2325.0,688.0,528.0,407.0,228.0,32.0,25.0
175352,County,2020/02/24,48.0,TX,48109.0,Culberson County,444.0,1760.0,8104.0,1801.0,1196.0,1060.0,1861.0,706.0,747.0,359.0,320.0,37.0,17.0
178247,County,2020/02/25,48.0,TX,48109.0,Culberson County,395.0,1809.0,8458.0,1386.0,1263.0,1032.0,2041.0,988.0,661.0,610.0,413.0,47.0,17.0
181440,County,2020/02/26,48.0,TX,48109.0,Culberson County,368.0,1836.0,9079.0,1163.0,1151.0,1307.0,2638.0,1029.0,753.0,638.0,327.0,58.0,15.0
184923,County,2020/02/27,48.0,TX,48109.0,Culberson County,369.0,1835.0,8296.0,1569.0,1280.0,949.0,1985.0,869.0,637.0,542.0,379.0,45.0,41.0
188121,County,2020/02/28,48.0,TX,48109.0,Culberson County,401.0,1803.0,8476.0,2086.0,1221.0,906.0,2241.0,662.0,581.0,398.0,293.0,62.0,26.0
189702,County,2020/02/29,48.0,TX,48109.0,Culberson County,433.0,1771.0,7813.0,1532.0,1090.0,992.0,1960.0,718.0,603.0,523.0,315.0,55.0,25.0
194535,County,2020/03/01,48.0,TX,48109.0,Culberson County,425.0,1779.0,5977.0,1363.0,961.0,599.0,1309.0,590.0,556.0,329.0,196.0,40.0,34.0
197691,County,2020/03/02,48.0,TX,48109.0,Culberson County,406.0,1798.0,7925.0,1548.0,1158.0,640.0,2106.0,884.0,490.0,711.0,326.0,38.0,24.0
199222,County,2020/03/03,48.0,TX,48109.0,Culberson County,350.0,1854.0,7599.0,1421.0,1070.0,598.0,1997.0,847.0,623.0,593.0,379.0,48.0,23.0
204101,County,2020/03/04,48.0,TX,48109.0,Culberson County,335.0,1869.0,7028.0,1352.0,1100.0,847.0,1384.0,942.0,370.0,588.0,358.0,59.0,28.0
205669,County,2020/03/05,48.0,TX,48109.0,Culberson County,369.0,1835.0,8779.0,2003.0,1255.0,721.0,2177.0,923.0,609.0,528.0,469.0,50.0,44.0
210520,County,2020/03/06,48.0,TX,48109.0,Culberson County,342.0,1862.0,7780.0,1377.0,909.0,1300.0,1876.0,869.0,462.0,485.0,403.0,75.0,24.0
213702,County,2020/03/07,48.0,TX,48109.0,Culberson County,376.0,1828.0,6015.0,1131.0,903.0,891.0,1104.0,732.0,407.0,416.0,349.0,47.0,35.0
215304,County,2020/03/08,48.0,TX,48109.0,Culberson County,397.0,1807.0,5924.0,1094.0,933.0,474.0,1570.0,543.0,449.0,425.0,319.0,83.0,34.0
220062,County,2020/03/09,48.0,TX,48109.0,Culberson County,393.0,1811.0,7346.0,1620.0,1120.0,503.0,1700.0,798.0,556.0,603.0,391.0,44.0,11.0
223255,County,2020/03/10,48.0,TX,48109.0,Culberson County,346.0,1858.0,8272.0,1507.0,1293.0,784.0,1813.0,976.0,812.0,726.0,279.0,63.0,19.0
226435,County,2020/03/11,48.0,TX,48109.0,Culberson County,385.0,1819.0,9316.0,1424.0,819.0,940.0,1865.0,1922.0,1104.0,779.0,295.0,107.0,61.0
228113,County,2020/03/12,48.0,TX,48109.0,Culberson County,350.0,1854.0,7634.0,1035.0,1065.0,855.0,2208.0,1066.0,706.0,269.0,328.0,34.0,68.0
231273,County,2020/03/13,48.0,TX,48109.0,Culberson County,392.0,1812.0,8142.0,1131.0,1134.0,712.0,2096.0,1189.0,766.0,562.0,441.0,50.0,61.0
234325,County,2020/03/14,48.0,TX,48109.0,Culberson County,493.0,1711.0,6604.0,1243.0,652.0,523.0,1591.0,1148.0,638.0,274.0,452.0,59.0,24.0
239226,County,2020/03/15,48.0,TX,48109.0,Culberson County,469.0,1735.0,5872.0,1360.0,1155.0,518.0,1258.0,548.0,420.0,325.0,199.0,42.0,47.0
240853,County,2020/03/16,48.0,TX,48109.0,Culberson County,462.0,1742.0,7251.0,1521.0,1226.0,575.0,1579.0,849.0,684.0,420.0,363.0,30.0,4.0
245612,County,2020/03/17,48.0,TX,48109.0,Culberson County,449.0,1755.0,7699.0,1371.0,989.0,694.0,2038.0,820.0,657.0,657.0,404.0,46.0,23.0
248767,County,2020/03/18,48.0,TX,48109.0,Culberson County,432.0,1772.0,7050.0,1307.0,1027.0,628.0,1939.0,729.0,469.0,504.0,375.0,53.0,19.0
250446,County,2020/03/19,48.0,TX,48109.0,Culberson County,509.0,1695.0,7019.0,1336.0,804.0,737.0,1612.0,856.0,697.0,600.0,330.0,37.0,10.0
253631,County,2020/03/20,48.0,TX,48109.0,Culberson County,499.0,1705.0,7406.0,1913.0,946.0,607.0,1602.0,830.0,636.0,475.0,330.0,44.0,23.0
256774,County,2020/03/21,48.0,TX,48109.0,Culberson County,605.0,1599.0,6565.0,1618.0,864.0,586.0,1245.0,516.0,624.0,715.0,304.0,66.0,27.0
261576,County,2020/03/22,48.0,TX,48109.0,Culberson County,542.0,1662.0,4846.0,1187.0,793.0,470.0,799.0,323.0,442.0,430.0,308.0,53.0,41.0
263214,County,2020/03/23,48.0,TX,48109.0,Culberson County,458.0,1746.0,7282.0,2037.0,1017.0,509.0,1444.0,842.0,529.0,528.0,335.0,34.0,7.0
266365,County,2020/03/24,48.0,TX,48109.0,Culberson County,467.0,1737.0,6627.0,1471.0,878.0,565.0,1469.0,831.0,433.0,644.0,267.0,52.0,17.0
269599,County,2020/03/25,48.0,TX,48109.0,Culberson County,439.0,1765.0,6371.0,1282.0,695.0,606.0,1600.0,608.0,508.0,627.0,365.0,57.0,23.0
274340,County,2020/03/26,48.0,TX,48109.0,Culberson County,549.0,1655.0,7018.0,1478.0,819.0,579.0,1771.0,808.0,535.0,542.0,412.0,52.0,22.0
275980,County,2020/03/27,48.0,TX,48109.0,Culberson County,510.0,1694.0,7901.0,1681.0,1081.0,526.0,2324.0,889.0,443.0,578.0,333.0,27.0,19.0
280741,County,2020/03/28,48.0,TX,48109.0,Culberson County,537.0,1667.0,5995.0,1795.0,827.0,620.0,909.0,701.0,546.0,235.0,294.0,41.0,27.0
282376,County,2020/03/29,48.0,TX,48109.0,Culberson County,584.0,1620.0,5230.0,1384.0,848.0,732.0,1003.0,437.0,330.0,190.0,254.0,37.0,15.0
285521,County,2020/03/30,48.0,TX,48109.0,Culberson County,556.0,1648.0,6009.0,1272.0,769.0,602.0,1544.0,823.0,353.0,319.0,265.0,45.0,17.0
290324,County,2020/03/31,48.0,TX,48109.0,Culberson County,538.0,1666.0,7038.0,1622.0,883.0,499.0,1503.0,1067.0,594.0,426.0,377.0,40.0,27.0
293523,County,2020/04/01,48.0,TX,48109.0,Culberson County,488.0,1716.0,6476.0,1359.0,707.0,462.0,1544.0,1117.0,575.0,387.0,259.0,45.0,21.0
295152,County,2020/04/02,48.0,TX,48109.0,Culberson County,439.0,1765.0,6309.0,1373.0,844.0,721.0,1718.0,681.0,385.0,288.0,235.0,47.0,17.0
299912,County,2020/04/03,48.0,TX,48109.0,Culberson County,524.0,1680.0,7170.0,1774.0,947.0,587.0,1729.0,813.0,494.0,480.0,296.0,28.0,22.0
303092,County,2020/04/04,48.0,TX,48109.0,Culberson County,584.0,1620.0,5949.0,2013.0,770.0,560.0,1191.0,412.0,193.0,428.0,303.0,52.0,27.0
304720,County,2020/04/05,48.0,TX,48109.0,Culberson County,593.0,1611.0,5967.0,2184.0,663.0,362.0,1486.0,383.0,362.0,265.0,183.0,50.0,29.0
309494,County,2020/04/06,48.0,TX,48109.0,Culberson County,539.0,1665.0,7545.0,2604.0,715.0,421.0,1896.0,786.0,452.0,363.0,250.0,42.0,16.0
311121,County,2020/04/07,48.0,TX,48109.0,Culberson County,495.0,1709.0,7348.0,2616.0,738.0,567.0,1519.0,834.0,389.0,343.0,273.0,45.0,24.0
314316,County,2020/04/08,48.0,TX,48109.0,Culberson County,526.0,1678.0,6697.0,1810.0,1041.0,508.0,1440.0,486.0,515.0,513.0,325.0,44.0,15.0
317484,County,2020/04/09,48.0,TX,48109.0,Culberson County,558.0,1646.0,6279.0,1606.0,724.0,593.0,1564.0,665.0,447.0,417.0,207.0,48.0,8.0
320711,County,2020/04/10,48.0,TX,48109.0,Culberson County,508.0,1696.0,6601.0,1189.0,950.0,651.0,1631.0,800.0,565.0,443.0,297.0,45.0,30.0
323945,County,2020/04/11,48.0,TX,48109.0,Culberson County,566.0,1638.0,6368.0,1893.0,1093.0,515.0,1313.0,572.0,485.0,264.0,173.0,44.0,16.0
328631,County,2020/04/12,48.0,TX,48109.0,Culberson County,744.0,1460.0,3448.0,651.0,608.0,260.0,994.0,357.0,173.0,171.0,183.0,35.0,16.0
331853,County,2020/04/13,48.0,TX,48109.0,Culberson County,605.0,1599.0,6265.0,1333.0,998.0,471.0,1670.0,665.0,477.0,364.0,247.0,36.0,4.0
333431,County,2020/04/14,48.0,TX,48109.0,Culberson County,629.0,1575.0,5253.0,513.0,1005.0,834.0,1393.0,630.0,471.0,131.0,180.0,67.0,29.0
338231,County,2020/04/15,48.0,TX,48109.0,Culberson County,599.0,1605.0,8036.0,1435.0,1261.0,321.0,1778.0,1599.0,548.0,659.0,346.0,59.0,30.0
341375,County,2020/04/16,48.0,TX,48109.0,Culberson County,571.0,1633.0,6867.0,788.0,821.0,522.0,1727.0,1196.0,705.0,765.0,273.0,33.0,37.0
343159,County,2020/04/17,48.0,TX,48109.0,Culberson County,590.0,1614.0,7043.0,706.0,1019.0,469.0,2101.0,1018.0,505.0,875.0,262.0,29.0,59.0
347785,County,2020/04/18,48.0,TX,48109.0,Culberson County,675.0,1529.0,7054.0,1806.0,1079.0,514.0,1872.0,737.0,312.0,268.0,394.0,25.0,47.0
351016,County,2020/04/19,48.0,TX,48109.0,Culberson County,639.0,1565.0,5011.0,984.0,792.0,506.0,1344.0,569.0,231.0,278.0,233.0,43.0,31.0
352642,County,2020/04/20,48.0,TX,48109.0,Culberson County,558.0,1646.0,7057.0,682.0,1387.0,425.0,3157.0,336.0,386.0,414.0,166.0,48.0,56.0
357403,County,2020/04/21,48.0,TX,48109.0,Culberson County,513.0,1691.0,7493.0,1474.0,1179.0,398.0,1746.0,882.0,862.0,565.0,334.0,37.0,16.0
359031,County,2020/04/22,48.0,TX,48109.0,Culberson County,551.0,1653.0,6620.0,1219.0,1018.0,415.0,2098.0,577.0,600.0,323.0,314.0,44.0,12.0
362137,County,2020/04/23,48.0,TX,48109.0,Culberson County,500.0,1704.0,7075.0,1251.0,1178.0,466.0,2037.0,724.0,549.0,501.0,303.0,53.0,13.0
365439,County,2020/04/24,48.0,TX,48109.0,Culberson County,470.0,1734.0,6107.0,1396.0,1290.0,451.0,1678.0,492.0,223.0,289.0,237.0,29.0,22.0
368558,County,2020/04/25,48.0,TX,48109.0,Culberson County,594.0,1610.0,6273.0,1720.0,995.0,359.0,1734.0,587.0,317.0,334.0,153.0,48.0,26.0
371724,County,2020/04/26,48.0,TX,48109.0,Culberson County,586.0,1618.0,5887.0,1161.0,1104.0,135.0,2154.0,590.0,328.0,173.0,170.0,61.0,11.0
375001,County,2020/04/27,48.0,TX,48109.0,Culberson County,572.0,1632.0,6191.0,1309.0,1199.0,617.0,1312.0,653.0,392.0,334.0,316.0,46.0,13.0
378152,County,2020/04/28,48.0,TX,48109.0,Culberson County,497.0,1707.0,6265.0,1145.0,862.0,493.0,1379.0,1002.0,615.0,380.0,305.0,59.0,25.0
381404,County,2020/04/29,48.0,TX,48109.0,Culberson County,511.0,1693.0,6985.0,1483.0,1000.0,585.0,1922.0,760.0,550.0,350.0,259.0,51.0,25.0
386150,County,2020/04/30,48.0,TX,48109.0,Culberson County,470.0,1734.0,7058.0,1081.0,918.0,527.0,1960.0,1031.0,561.0,598.0,327.0,42.0,13.0
387776,County,2020/05/01,48.0,TX,48109.0,Culberson County,478.0,1726.0,7096.0,1278.0,1090.0,466.0,1923.0,972.0,583.0,482.0,239.0,50.0,13.0
392537,County,2020/05/02,48.0,TX,48109.0,Culberson County,474.0,1730.0,6210.0,1387.0,1216.0,585.0,1470.0,506.0,453.0,311.0,214.0,30.0,38.0
394172,County,2020/05/03,48.0,TX,48109.0,Culberson County,562.0,1642.0,5604.0,1504.0,1156.0,522.0,1331.0,478.0,169.0,204.0,175.0,43.0,22.0
398926,County,2020/05/04,48.0,TX,48109.0,Culberson County,391.0,1813.0,6746.0,1671.0,988.0,614.0,1362.0,805.0,519.0,469.0,287.0,27.0,4.0
400553,County,2020/05/05,48.0,TX,48109.0,Culberson County,489.0,1715.0,7446.0,1302.0,1148.0,485.0,2472.0,794.0,412.0,479.0,317.0,25.0,12.0
405308,County,2020/05/06,48.0,TX,48109.0,Culberson County,432.0,1772.0,7607.0,1354.0,1058.0,704.0,2271.0,951.0,517.0,409.0,261.0,47.0,35.0
406934,County,2020/05/07,48.0,TX,48109.0,Culberson County,410.0,1794.0,7312.0,1528.0,1124.0,656.0,1844.0,930.0,470.0,446.0,260.0,32.0,22.0
410239,County,2020/05/08,48.0,TX,48109.0,Culberson County,473.0,1731.0,8366.0,1837.0,1155.0,998.0,2386.0,699.0,531.0,475.0,218.0,51.0,16.0
414861,County,2020/05/09,48.0,TX,48109.0,Culberson County,478.0,1726.0,7170.0,1809.0,1170.0,451.0,2029.0,561.0,532.0,233.0,330.0,30.0,25.0
418041,County,2020/05/10,48.0,TX,48109.0,Culberson County,505.0,1699.0,6061.0,1147.0,1279.0,601.0,1858.0,274.0,398.0,280.0,165.0,37.0,22.0
421272,County,2020/05/11,48.0,TX,48109.0,Culberson County,320.0,1884.0,6305.0,1436.0,851.0,398.0,1595.0,551.0,587.0,460.0,345.0,50.0,32.0
422950,County,2020/05/12,48.0,TX,48109.0,Culberson County,309.0,1895.0,6776.0,1355.0,1105.0,469.0,1384.0,673.0,672.0,632.0,397.0,60.0,29.0
427672,County,2020/05/13,48.0,TX,48109.0,Culberson County,353.0,1851.0,7261.0,1371.0,934.0,628.0,1758.0,737.0,736.0,706.0,288.0,57.0,46.0
430866,County,2020/05/14,48.0,TX,48109.0,Culberson County,332.0,1872.0,6135.0,1467.0,850.0,602.0,1002.0,464.0,642.0,547.0,459.0,61.0,41.0
434040,County,2020/05/15,48.0,TX,48109.0,Culberson County,342.0,1862.0,6849.0,1489.0,1042.0,450.0,1264.0,621.0,879.0,588.0,410.0,62.0,44.0
435718,County,2020/05/16,48.0,TX,48109.0,Culberson County,331.0,1873.0,6223.0,1157.0,784.0,416.0,1732.0,614.0,516.0,558.0,344.0,61.0,41.0
440402,County,2020/05/17,48.0,TX,48109.0,Culberson County,308.0,1896.0,6681.0,1295.0,1356.0,1034.0,1374.0,581.0,452.0,284.0,239.0,51.0,15.0
442116,County,2020/05/18,48.0,TX,48109.0,Culberson County,325.0,1879.0,8316.0,1734.0,1022.0,907.0,1994.0,1191.0,570.0,549.0,305.0,39.0,5.0
445270,County,2020/05/19,48.0,TX,48109.0,Culberson County,211.0,1993.0,9887.0,2723.0,1204.0,909.0,2254.0,1154.0,865.0,333.0,376.0,55.0,14.0
448437,County,2020/05/20,48.0,TX,48109.0,Culberson County,273.0,1931.0,8515.0,1913.0,1075.0,958.0,2160.0,783.0,635.0,446.0,439.0,92.0,14.0
452871,County,2020/05/21,48.0,TX,48109.0,Culberson County,261.0,1943.0,9733.0,2078.0,1324.0,1172.0,2614.0,983.0,713.0,565.0,230.0,36.0,18.0
456417,County,2020/05/22,48.0,TX,48109.0,Culberson County,295.0,1909.0,9463.0,2167.0,1297.0,1148.0,2135.0,1108.0,646.0,609.0,280.0,55.0,18.0
458040,County,2020/05/23,48.0,TX,48109.0,Culberson County,333.0,1871.0,7809.0,1287.0,1118.0,861.0,2253.0,771.0,523.0,533.0,400.0,52.0,11.0
461208,County,2020/05/24,48.0,TX,48109.0,Culberson County,378.0,1826.0,4949.0,976.0,779.0,429.0,1085.0,486.0,323.0,314.0,439.0,79.0,39.0
464411,County,2020/05/25,48.0,TX,48109.0,Culberson County,403.0,1801.0,5608.0,1290.0,777.0,674.0,1053.0,440.0,349.0,493.0,393.0,85.0,54.0
469192,County,2020/05/26,48.0,TX,48109.0,Culberson County,367.0,1837.0,6647.0,1110.0,939.0,387.0,1795.0,782.0,428.0,669.0,443.0,66.0,28.0
470821,County,2020/05/27,48.0,TX,48109.0,Culberson County,339.0,1865.0,5407.0,1198.0,766.0,322.0,1008.0,699.0,453.0,459.0,392.0,48.0,62.0
475582,County,2020/05/28,48.0,TX,48109.0,Culberson County,330.0,1874.0,5504.0,1063.0,645.0,484.0,1171.0,741.0,507.0,452.0,319.0,66.0,56.0
477162,County,2020/05/29,48.0,TX,48109.0,Culberson County,416.0,1788.0,5050.0,964.0,741.0,520.0,1063.0,466.0,426.0,498.0,275.0,68.0,29.0
480349,County,2020/05/30,48.0,TX,48109.0,Culberson County,418.0,1786.0,5177.0,865.0,827.0,441.0,1301.0,479.0,446.0,466.0,255.0,58.0,39.0
485116,County,2020/05/31,48.0,TX,48109.0,Culberson County,444.0,1760.0,6052.0,1223.0,728.0,424.0,1488.0,561.0,683.0,481.0,392.0,48.0,24.0
488417,County,2020/06/01,48.0,TX,48109.0,Culberson County,326.0,1878.0,6587.0,1277.0,979.0,617.0,1573.0,606.0,557.0,593.0,314.0,34.0,37.0
491524,County,2020/06/02,48.0,TX,48109.0,Culberson County,321.0,1883.0,6273.0,1156.0,753.0,550.0,1630.0,555.0,577.0,561.0,364.0,90.0,37.0
493153,County,2020/06/03,48.0,TX,48109.0,Culberson County,299.0,1905.0,6559.0,1337.0,707.0,478.0,1597.0,551.0,758.0,562.0,436.0,81.0,52.0
497928,County,2020/06/04,48.0,TX,48109.0,Culberson County,290.0,1914.0,6097.0,1119.0,796.0,443.0,1536.0,573.0,489.0,589.0,430.0,80.0,42.0
499568,County,2020/06/05,48.0,TX,48109.0,Culberson County,347.0,1857.0,6877.0,1611.0,857.0,629.0,1589.0,718.0,538.0,403.0,423.0,71.0,38.0
502715,County,2020/06/06,48.0,TX,48109.0,Culberson County,512.0,1692.0,6693.0,1362.0,1031.0,578.0,1565.0,556.0,575.0,654.0,291.0,56.0,25.0
505906,County,2020/06/07,48.0,TX,48109.0,Culberson County,457.0,1747.0,5116.0,931.0,889.0,420.0,1141.0,431.0,468.0,375.0,352.0,61.0,48.0
510703,County,2020/06/08,48.0,TX,48109.0,Culberson County,314.0,1890.0,5852.0,1425.0,908.0,550.0,1137.0,416.0,621.0,403.0,296.0,53.0,43.0
512332,County,2020/06/09,48.0,TX,48109.0,Culberson County,312.0,1892.0,6307.0,1264.0,866.0,657.0,1323.0,585.0,557.0,544.0,401.0,66.0,44.0
517113,County,2020/06/10,48.0,TX,48109.0,Culberson County,361.0,1843.0,6105.0,1170.0,658.0,604.0,1473.0,592.0,562.0,572.0,334.0,72.0,68.0
520270,County,2020/06/11,48.0,TX,48109.0,Culberson County,292.0,1912.0,5834.0,1364.0,802.0,528.0,1293.0,474.0,457.0,363.0,457.0,63.0,33.0
521944,County,2020/06/12,48.0,TX,48109.0,Culberson County,333.0,1871.0,6825.0,1293.0,928.0,557.0,1722.0,714.0,533.0,494.0,470.0,76.0,38.0
525120,County,2020/06/13,48.0,TX,48109.0,Culberson County,369.0,1835.0,6877.0,1010.0,719.0,962.0,1804.0,668.0,539.0,676.0,393.0,70.0,36.0
529884,County,2020/06/14,48.0,TX,48109.0,Culberson County,471.0,1733.0,5277.0,794.0,486.0,562.0,1319.0,554.0,365.0,639.0,410.0,105.0,43.0
533074,County,2020/06/15,48.0,TX,48109.0,Culberson County,341.0,1863.0,6708.0,1253.0,587.0,701.0,1909.0,542.0,590.0,513.0,483.0,73.0,57.0
534701,County,2020/06/16,48.0,TX,48109.0,Culberson County,307.0,1897.0,5827.0,1058.0,690.0,417.0,1418.0,556.0,517.0,598.0,448.0,77.0,48.0
539413,County,2020/06/17,48.0,TX,48109.0,Culberson County,359.0,1845.0,6219.0,1063.0,774.0,751.0,1423.0,570.0,566.0,538.0,406.0,94.0,34.0
541043,County,2020/06/18,48.0,TX,48109.0,Culberson County,341.0,1863.0,5947.0,1129.0,771.0,798.0,1281.0,551.0,396.0,560.0,344.0,70.0,47.0
545809,County,2020/06/19,48.0,TX,48109.0,Culberson County,337.0,1867.0,5593.0,1071.0,755.0,457.0,1283.0,690.0,496.0,334.0,400.0,63.0,44.0
549044,County,2020/06/20,48.0,TX,48109.0,Culberson County,473.0,1731.0,5957.0,1224.0,765.0,605.0,1660.0,537.0,356.0,371.0,341.0,51.0,47.0
550644,County,2020/06/21,48.0,TX,48109.0,Culberson County,437.0,1767.0,5053.0,1168.0,1062.0,477.0,737.0,241.0,224.0,587.0,422.0,76.0,59.0
555424,County,2020/06/22,48.0,TX,48109.0,Culberson County,444.0,1760.0,5062.0,1271.0,574.0,410.0,872.0,403.0,463.0,529.0,446.0,60.0,34.0
557052,County,2020/06/23,48.0,TX,48109.0,Culberson County,384.0,1820.0,5231.0,948.0,548.0,256.0,1284.0,571.0,579.0,523.0,412.0,60.0,50.0
561820,County,2020/06/24,48.0,TX,48109.0,Culberson County,386.0,1818.0,5139.0,930.0,654.0,477.0,1126.0,402.0,537.0,530.0,356.0,82.0,45.0
563448,County,2020/06/25,48.0,TX,48109.0,Culberson County,405.0,1799.0,5833.0,1374.0,653.0,484.0,1316.0,501.0,459.0,481.0,448.0,68.0,49.0
568244,County,2020/06/26,48.0,TX,48109.0,Culberson County,369.0,1835.0,5073.0,980.0,637.0,434.0,1042.0,329.0,562.0,594.0,399.0,66.0,30.0
571394,County,2020/06/27,48.0,TX,48109.0,Culberson County,424.0,1780.0,4598.0,729.0,666.0,480.0,882.0,496.0,385.0,431.0,425.0,69.0,35.0
574575,County,2020/06/28,48.0,TX,48109.0,Culberson County,424.0,1780.0,5446.0,709.0,667.0,364.0,1587.0,496.0,582.0,588.0,321.0,65.0,67.0
576178,County,2020/06/29,48.0,TX,48109.0,Culberson County,360.0,1844.0,5651.0,1147.0,757.0,439.0,1049.0,580.0,656.0,535.0,387.0,66.0,35.0
580988,County,2020/06/30,48.0,TX,48109.0,Culberson County,350.0,1854.0,4716.0,873.0,550.0,370.0,930.0,588.0,419.0,591.0,277.0,80.0,38.0
584179,County,2020/07/01,48.0,TX,48109.0,Culberson County,320.0,1884.0,5298.0,683.0,475.0,623.0,1476.0,612.0,422.0,586.0,299.0,68.0,54.0
585782,County,2020/07/02,48.0,TX,48109.0,Culberson County,472.0,1732.0,6192.0,1458.0,693.0,514.0,1397.0,532.0,487.0,511.0,476.0,72.0,52.0
590573,County,2020/07/03,48.0,TX,48109.0,Culberson County,434.0,1770.0,5045.0,974.0,633.0,432.0,1036.0,327.0,559.0,591.0,397.0,66.0,30.0
593758,County,2020/07/04,48.0,TX,48109.0,Culberson County,590.0,1614.0,4315.0,834.0,542.0,369.0,886.0,280.0,478.0,505.0,339.0,56.0,26.0
595411,County,2020/07/05,48.0,TX,48109.0,Culberson County,533.0,1671.0,6115.0,877.0,888.0,682.0,2173.0,476.0,222.0,552.0,164.0,58.0,23.0
598063,County,2020/07/06,48.0,TX,48109.0,Culberson County,416.0,1788.0,5665.0,958.0,621.0,631.0,1651.0,501.0,428.0,391.0,383.0,55.0,46.0
601677,County,2020/07/07,48.0,TX,48109.0,Culberson County,322.0,1882.0,5730.0,748.0,825.0,484.0,1745.0,579.0,435.0,416.0,382.0,62.0,54.0
604918,County,2020/07/08,48.0,TX,48109.0,Culberson County,412.0,1792.0,6009.0,760.0,609.0,627.0,1950.0,639.0,435.0,524.0,323.0,89.0,53.0
608163,County,2020/07/09,48.0,TX,48109.0,Culberson County,402.0,1802.0,7305.0,1078.0,719.0,732.0,2592.0,731.0,531.0,506.0,293.0,71.0,52.0
611363,County,2020/07/10,48.0,TX,48109.0,Culberson County,398.0,1806.0,6011.0,659.0,640.0,566.0,2036.0,541.0,648.0,398.0,409.0,69.0,45.0
616111,County,2020/07/11,48.0,TX,48109.0,Culberson County,472.0,1732.0,5221.0,943.0,908.0,495.0,1273.0,386.0,348.0,362.0,411.0,41.0,54.0
619299,County,2020/07/12,48.0,TX,48109.0,Culberson County,463.0,1741.0,4710.0,745.0,669.0,565.0,1359.0,182.0,299.0,342.0,454.0,56.0,39.0
622505,County,2020/07/13,48.0,TX,48109.0,Culberson County,393.0,1811.0,4803.0,1041.0,631.0,300.0,1231.0,238.0,417.0,550.0,303.0,51.0,41.0
625699,County,2020/07/14,48.0,TX,48109.0,Culberson County,391.0,1813.0,5549.0,1433.0,924.0,353.0,984.0,653.0,362.0,452.0,296.0,67.0,25.0
628871,County,2020/07/15,48.0,TX,48109.0,Culberson County,410.0,1794.0,6500.0,1165.0,797.0,397.0,1644.0,730.0,635.0,612.0,407.0,83.0,30.0
632138,County,2020/07/16,48.0,TX,48109.0,Culberson County,408.0,1796.0,6141.0,733.0,594.0,498.0,1309.0,1015.0,734.0,676.0,454.0,83.0,45.0
635233,County,2020/07/17,48.0,TX,48109.0,Culberson County,405.0,1799.0,6280.0,1149.0,906.0,438.0,1070.0,961.0,811.0,512.0,360.0,49.0,24.0
636910,County,2020/07/18,48.0,TX,48109.0,Culberson County,424.0,1780.0,5903.0,991.0,678.0,762.0,918.0,927.0,741.0,427.0,341.0,86.0,32.0
640065,County,2020/07/19,48.0,TX,48109.0,Culberson County,435.0,1769.0,4041.0,682.0,536.0,321.0,1023.0,315.0,278.0,436.0,338.0,75.0,37.0
644847,County,2020/07/20,48.0,TX,48109.0,Culberson County,513.0,1691.0,4425.0,889.0,669.0,402.0,653.0,663.0,374.0,381.0,318.0,53.0,23.0
646475,County,2020/07/21,48.0,TX,48109.0,Culberson County,454.0,1750.0,5000.0,641.0,692.0,259.0,1651.0,535.0,472.0,379.0,269.0,61.0,41.0
649157,County,2020/07/22,48.0,TX,48109.0,Culberson County,442.0,1762.0,4122.0,482.0,539.0,611.0,851.0,412.0,371.0,462.0,269.0,71.0,54.0
652794,County,2020/07/23,48.0,TX,48109.0,Culberson County,374.0,1830.0,4454.0,866.0,602.0,430.0,914.0,476.0,324.0,420.0,261.0,109.0,52.0
657720,County,2020/07/24,48.0,TX,48109.0,Culberson County,389.0,1815.0,5462.0,873.0,746.0,383.0,1584.0,479.0,453.0,545.0,311.0,66.0,22.0
660888,County,2020/07/25,48.0,TX,48109.0,Culberson County,442.0,1762.0,5679.0,763.0,737.0,556.0,1900.0,613.0,220.0,477.0,308.0,82.0,23.0
663969,County,2020/07/26,48.0,TX,48109.0,Culberson County,454.0,1750.0,4252.0,751.0,718.0,228.0,1077.0,161.0,415.0,353.0,426.0,63.0,60.0
667242,County,2020/07/27,48.0,TX,48109.0,Culberson County,432.0,1772.0,5777.0,988.0,755.0,314.0,1835.0,401.0,429.0,613.0,308.0,71.0,63.0
670396,County,2020/07/28,48.0,TX,48109.0,Culberson County,386.0,1818.0,5403.0,863.0,681.0,439.0,1230.0,465.0,633.0,559.0,389.0,63.0,81.0
672027,County,2020/07/29,48.0,TX,48109.0,Culberson County,419.0,1785.0,5509.0,830.0,653.0,499.0,1432.0,462.0,621.0,475.0,394.0,71.0,72.0
676788,County,2020/07/30,48.0,TX,48109.0,Culberson County,443.0,1761.0,5031.0,797.0,722.0,613.0,922.0,567.0,356.0,485.0,428.0,84.0,57.0
678439,County,2020/07/31,48.0,TX,48109.0,Culberson County,383.0,1821.0,5265.0,941.0,822.0,456.0,1019.0,457.0,539.0,579.0,314.0,92.0,46.0
681548,County,2020/08/01,48.0,TX,48109.0,Culberson County,401.0,1803.0,5667.0,968.0,915.0,432.0,1515.0,471.0,495.0,429.0,316.0,57.0,69.0
686377,County,2020/08/02,48.0,TX,48109.0,Culberson County,441.0,1763.0,5185.0,1365.0,502.0,359.0,1361.0,311.0,404.0,375.0,344.0,87.0,77.0
689580,County,2020/08/03,48.0,TX,48109.0,Culberson County,523.0,1681.0,5247.0,742.0,583.0,287.0,1886.0,524.0,492.0,382.0,272.0,38.0,41.0
691208,County,2020/08/04,48.0,TX,48109.0,Culberson County,398.0,1806.0,5853.0,1128.0,825.0,455.0,1335.0,585.0,540.0,507.0,342.0,85.0,51.0
694370,County,2020/08/05,48.0,TX,48109.0,Culberson County,337.0,1867.0,5723.0,1175.0,832.0,344.0,1051.0,626.0,640.0,551.0,383.0,87.0,34.0
697577,County,2020/08/06,48.0,TX,48109.0,Culberson County,301.0,1903.0,5785.0,961.0,950.0,506.0,1156.0,615.0,582.0,439.0,448.0,78.0,50.0
700789,County,2020/08/07,48.0,TX,48109.0,Culberson County,455.0,1749.0,5712.0,885.0,934.0,312.0,1420.0,577.0,649.0,505.0,329.0,66.0,35.0
705550,County,2020/08/08,48.0,TX,48109.0,Culberson County,473.0,1731.0,5946.0,1001.0,699.0,333.0,2128.0,666.0,312.0,339.0,362.0,61.0,45.0
708769,County,2020/08/09,48.0,TX,48109.0,Culberson County,440.0,1764.0,5869.0,744.0,805.0,419.0,2204.0,490.0,201.0,485.0,370.0,70.0,81.0
710398,County,2020/08/10,48.0,TX,48109.0,Culberson County,451.0,1753.0,5995.0,741.0,608.0,438.0,1818.0,869.0,319.0,546.0,494.0,96.0,66.0
715131,County,2020/08/11,48.0,TX,48109.0,Culberson County,419.0,1785.0,4990.0,769.0,602.0,340.0,1176.0,473.0,504.0,514.0,450.0,101.0,61.0
716663,County,2020/08/12,48.0,TX,48109.0,Culberson County,350.0,1854.0,5478.0,953.0,644.0,424.0,1296.0,420.0,663.0,446.0,434.0,86.0,112.0
719955,County,2020/08/13,48.0,TX,48109.0,Culberson County,322.0,1882.0,5855.0,778.0,616.0,424.0,1589.0,759.0,589.0,562.0,380.0,91.0,67.0
724698,County,2020/08/14,48.0,TX,48109.0,Culberson County,363.0,1841.0,6878.0,1257.0,843.0,398.0,1599.0,772.0,699.0,794.0,379.0,53.0,84.0
727909,County,2020/08/15,48.0,TX,48109.0,Culberson County,345.0,1859.0,5974.0,1051.0,945.0,352.0,1682.0,581.0,401.0,499.0,310.0,87.0,66.0
731101,County,2020/08/16,48.0,TX,48109.0,Culberson County,386.0,1818.0,5217.0,951.0,739.0,513.0,762.0,624.0,483.0,544.0,404.0,99.0,98.0
732731,County,2020/08/17,48.0,TX,48109.0,Culberson County,379.0,1825.0,6647.0,945.0,867.0,556.0,1128.0,1176.0,784.0,592.0,450.0,77.0,72.0
737440,County,2020/08/18,48.0,TX,48109.0,Culberson County,360.0,1844.0,6652.0,1023.0,754.0,310.0,1725.0,1136.0,653.0,385.0,489.0,94.0,83.0
739102,County,2020/08/19,48.0,TX,48109.0,Culberson County,344.0,1860.0,6960.0,1035.0,896.0,363.0,1852.0,1127.0,589.0,443.0,431.0,101.0,123.0
743883,County,2020/08/20,48.0,TX,48109.0,Culberson County,359.0,1845.0,6651.0,1236.0,884.0,375.0,1168.0,1189.0,622.0,585.0,403.0,97.0,92.0
747088,County,2020/08/21,48.0,TX,48109.0,Culberson County,334.0,1870.0,6678.0,1216.0,953.0,464.0,1627.0,536.0,515.0,741.0,450.0,93.0,83.0
748717,County,2020/08/22,48.0,TX,48109.0,Culberson County,330.0,1874.0,5746.0,959.0,745.0,228.0,1455.0,496.0,508.0,760.0,400.0,86.0,109.0
751911,County,2020/08/23,48.0,TX,48109.0,Culberson County,463.0,1741.0,5625.0,1456.0,769.0,320.0,1190.0,747.0,291.0,312.0,367.0,84.0,89.0
755084,County,2020/08/24,48.0,TX,48109.0,Culberson County,438.0,1766.0,6064.0,1346.0,595.0,219.0,1858.0,492.0,481.0,460.0,468.0,80.0,65.0
759845,County,2020/08/25,48.0,TX,48109.0,Culberson County,401.0,1803.0,5405.0,956.0,976.0,404.0,1073.0,414.0,460.0,536.0,398.0,91.0,97.0
763005,County,2020/08/26,48.0,TX,48109.0,Culberson County,373.0,1831.0,5566.0,810.0,752.0,385.0,1106.0,718.0,604.0,530.0,501.0,102.0,58.0
764634,County,2020/08/27,48.0,TX,48109.0,Culberson County,374.0,1830.0,5945.0,886.0,680.0,275.0,1305.0,695.0,785.0,759.0,412.0,81.0,67.0
767840,County,2020/08/28,48.0,TX,48109.0,Culberson County,345.0,1859.0,5957.0,1052.0,894.0,597.0,952.0,1005.0,415.0,531.0,373.0,77.0,61.0
771044,County,2020/08/29,48.0,TX,48109.0,Culberson County,352.0,1852.0,5634.0,1051.0,782.0,453.0,1339.0,507.0,536.0,498.0,338.0,77.0,53.0
775818,County,2020/08/30,48.0,TX,48109.0,Culberson County,468.0,1736.0,4556.0,777.0,584.0,324.0,636.0,541.0,440.0,439.0,629.0,130.0,56.0
777428,County,2020/08/31,48.0,TX,48109.0,Culberson County,438.0,1766.0,5502.0,1140.0,881.0,375.0,947.0,620.0,599.0,394.0,425.0,69.0,52.0
782206,County,2020/09/01,48.0,TX,48109.0,Culberson County,371.0,1833.0,6091.0,1109.0,792.0,380.0,1748.0,613.0,449.0,540.0,319.0,81.0,60.0
784603,County,2020/09/02,48.0,TX,48109.0,Culberson County,339.0,1865.0,5606.0,1059.0,942.0,389.0,1103.0,434.0,579.0,522.0,384.0,118.0,76.0
786961,County,2020/09/03,48.0,TX,48109.0,Culberson County,309.0,1895.0,5876.0,1050.0,705.0,543.0,1375.0,574.0,444.0,595.0,434.0,63.0,93.0
791742,County,2020/09/04,48.0,TX,48109.0,Culberson County,402.0,1802.0,7134.0,743.0,837.0,413.0,2779.0,752.0,627.0,352.0,462.0,103.0,66.0
793299,County,2020/09/05,48.0,TX,48109.0,Culberson County,439.0,1765.0,6775.0,1122.0,1159.0,665.0,2037.0,493.0,308.0,448.0,420.0,76.0,47.0
796584,County,2020/09/06,48.0,TX,48109.0,Culberson County,488.0,1716.0,4967.0,981.0,808.0,424.0,1480.0,209.0,277.0,376.0,274.0,95.0,43.0
801351,County,2020/09/07,48.0,TX,48109.0,Culberson County,570.0,1634.0,5033.0,942.0,780.0,617.0,1314.0,275.0,336.0,333.0,328.0,51.0,57.0
802977,County,2020/09/08,48.0,TX,48109.0,Culberson County,429.0,1775.0,5758.0,931.0,682.0,276.0,1128.0,1033.0,529.0,590.0,463.0,72.0,54.0
807757,County,2020/09/09,48.0,TX,48109.0,Culberson County,350.0,1854.0,5008.0,734.0,450.0,296.0,1004.0,688.0,658.0,591.0,436.0,89.0,62.0
809385,County,2020/09/10,48.0,TX,48109.0,Culberson County,343.0,1861.0,4332.0,682.0,494.0,302.0,814.0,523.0,563.0,369.0,406.0,121.0,58.0
814146,County,2020/09/11,48.0,TX,48109.0,Culberson County,399.0,1805.0,5646.0,713.0,920.0,245.0,1324.0,471.0,689.0,683.0,448.0,96.0,57.0
815727,County,2020/09/12,48.0,TX,48109.0,Culberson County,473.0,1731.0,5606.0,547.0,671.0,379.0,1963.0,626.0,474.0,502.0,302.0,94.0,48.0
820524,County,2020/09/13,48.0,TX,48109.0,Culberson County,422.0,1782.0,5116.0,715.0,837.0,233.0,710.0,990.0,711.0,367.0,398.0,93.0,62.0
822153,County,2020/09/14,48.0,TX,48109.0,Culberson County,373.0,1831.0,6478.0,1153.0,671.0,537.0,1428.0,698.0,722.0,622.0,511.0,79.0,57.0
826922,County,2020/09/15,48.0,TX,48109.0,Culberson County,376.0,1828.0,5373.0,1027.0,698.0,314.0,926.0,614.0,705.0,425.0,471.0,104.0,89.0
830116,County,2020/09/16,48.0,TX,48109.0,Culberson County,349.0,1855.0,5527.0,1100.0,851.0,456.0,969.0,413.0,581.0,524.0,451.0,109.0,73.0
833293,County,2020/09/17,48.0,TX,48109.0,Culberson County,305.0,1899.0,6233.0,864.0,733.0,464.0,1531.0,786.0,565.0,595.0,507.0,121.0,67.0
834922,County,2020/09/18,48.0,TX,48109.0,Culberson County,380.0,1824.0,5838.0,762.0,710.0,434.0,1488.0,715.0,558.0,636.0,365.0,104.0,66.0
839697,County,2020/09/19,48.0,TX,48109.0,Culberson County,339.0,1865.0,6540.0,873.0,936.0,683.0,1667.0,682.0,508.0,648.0,442.0,77.0,24.0
841326,County,2020/09/20,48.0,TX,48109.0,Culberson County,502.0,1702.0,3516.0,634.0,351.0,191.0,811.0,328.0,435.0,349.0,256.0,89.0,72.0
846113,County,2020/09/21,48.0,TX,48109.0,Culberson County,514.0,1690.0,3879.0,570.0,495.0,244.0,1132.0,340.0,418.0,276.0,283.0,68.0,53.0
847692,County,2020/09/22,48.0,TX,48109.0,Culberson County,464.0,1740.0,4208.0,692.0,671.0,278.0,718.0,378.0,519.0,378.0,414.0,97.0,63.0
852470,County,2020/09/23,48.0,TX,48109.0,Culberson County,460.0,1744.0,4622.0,569.0,580.0,414.0,965.0,501.0,516.0,462.0,451.0,85.0,79.0
854098,County,2020/09/24,48.0,TX,48109.0,Culberson County,423.0,1781.0,4459.0,806.0,578.0,551.0,521.0,432.0,447.0,553.0,439.0,83.0,49.0
858862,County,2020/09/25,48.0,TX,48109.0,Culberson County,450.0,1754.0,4355.0,549.0,593.0,342.0,1089.0,339.0,415.0,438.0,452.0,87.0,51.0
862056,County,2020/09/26,48.0,TX,48109.0,Culberson County,429.0,1775.0,4702.0,621.0,603.0,377.0,1503.0,274.0,258.0,535.0,364.0,99.0,68.0
865237,County,2020/09/27,48.0,TX,48109.0,Culberson County,431.0,1773.0,4614.0,594.0,528.0,375.0,1359.0,338.0,308.0,565.0,407.0,105.0,35.0
866866,County,2020/09/28,48.0,TX,48109.0,Culberson County,439.0,1765.0,4402.0,595.0,598.0,435.0,1100.0,274.0,289.0,591.0,417.0,70.0,33.0
871637,County,2020/09/29,48.0,TX,48109.0,Culberson County,460.0,1744.0,4935.0,1116.0,630.0,478.0,749.0,346.0,428.0,682.0,429.0,57.0,20.0
873266,County,2020/09/30,48.0,TX,48109.0,Culberson County,444.0,1760.0,5228.0,608.0,903.0,359.0,1350.0,423.0,638.0,566.0,309.0,53.0,19.0
876430,County,2020/10/01,48.0,TX,48109.0,Culberson County,374.0,1830.0,5563.0,764.0,574.0,638.0,1534.0,470.0,489.0,609.0,391.0,71.0,23.0
879634,County,2020/10/02,48.0,TX,48109.0,Culberson County,460.0,1744.0,4980.0,862.0,595.0,336.0,1205.0,633.0,383.0,569.0,337.0,43.0,17.0
882850,County,2020/10/03,48.0,TX,48109.0,Culberson County,405.0,1799.0,5993.0,759.0,538.0,404.0,1718.0,1188.0,478.0,542.0,303.0,52.0,11.0
887248,County,2020/10/04,48.0,TX,48109.0,Culberson County,373.0,1831.0,4685.0,612.0,580.0,533.0,995.0,625.0,286.0,579.0,376.0,59.0,40.0
890493,County,2020/10/05,48.0,TX,48109.0,Culberson County,426.0,1778.0,5777.0,743.0,866.0,669.0,1565.0,723.0,347.0,514.0,299.0,42.0,9.0
893683,County,2020/10/06,48.0,TX,48109.0,Culberson County,382.0,1822.0,5461.0,1165.0,644.0,330.0,1387.0,653.0,491.0,440.0,297.0,38.0,16.0
896859,County,2020/10/07,48.0,TX,48109.0,Culberson County,330.0,1874.0,4759.0,1108.0,894.0,387.0,622.0,408.0,309.0,586.0,364.0,58.0,23.0
900038,County,2020/10/08,48.0,TX,48109.0,Culberson County,462.0,1742.0,8431.0,3401.0,1357.0,768.0,1021.0,564.0,512.0,384.0,368.0,47.0,9.0
903238,County,2020/10/09,48.0,TX,48109.0,Culberson County,464.0,1740.0,6417.0,1226.0,752.0,600.0,1887.0,585.0,560.0,506.0,255.0,37.0,9.0
906063,County,2020/10/10,48.0,TX,48109.0,Culberson County,460.0,1744.0,5740.0,1307.0,739.0,491.0,1491.0,656.0,482.0,292.0,231.0,34.0,17.0
907785,County,2020/10/11,48.0,TX,48109.0,Culberson County,419.0,1785.0,4824.0,811.0,631.0,267.0,1172.0,573.0,538.0,433.0,330.0,56.0,13.0
910947,County,2020/10/12,48.0,TX,48109.0,Culberson County,436.0,1768.0,4881.0,653.0,536.0,495.0,1229.0,475.0,634.0,469.0,330.0,52.0,8.0
913815,County,2020/10/13,48.0,TX,48109.0,Culberson County,319.0,1885.0,5700.0,977.0,714.0,301.0,1309.0,773.0,579.0,544.0,436.0,48.0,19.0
917241,County,2020/10/14,48.0,TX,48109.0,Culberson County,426.0,1778.0,5364.0,742.0,613.0,398.0,1581.0,592.0,385.0,559.0,426.0,46.0,22.0
920585,County,2020/10/15,48.0,TX,48109.0,Culberson County,403.0,1801.0,5861.0,922.0,768.0,393.0,1359.0,843.0,512.0,653.0,362.0,36.0,13.0
923585,County,2020/10/16,48.0,TX,48109.0,Culberson County,425.0,1779.0,6120.0,942.0,876.0,479.0,1410.0,1183.0,431.0,481.0,258.0,47.0,13.0
927633,County,2020/10/17,48.0,TX,48109.0,Culberson County,440.0,1764.0,6523.0,763.0,919.0,648.0,2014.0,945.0,450.0,482.0,240.0,50.0,12.0
929966,County,2020/10/18,48.0,TX,48109.0,Culberson County,472.0,1732.0,4953.0,1178.0,722.0,386.0,1115.0,323.0,275.0,538.0,353.0,48.0,15.0
932959,County,2020/10/19,48.0,TX,48109.0,Culberson County,423.0,1781.0,5422.0,1031.0,524.0,495.0,1276.0,463.0,593.0,587.0,387.0,44.0,22.0
936396,County,2020/10/20,48.0,TX,48109.0,Culberson County,448.0,1756.0,5668.0,1105.0,805.0,299.0,1405.0,688.0,553.0,447.0,308.0,42.0,16.0
939406,County,2020/10/21,48.0,TX,48109.0,Culberson County,440.0,1764.0,5863.0,816.0,447.0,688.0,1098.0,1087.0,626.0,690.0,341.0,53.0,17.0
943220,County,2020/10/22,48.0,TX,48109.0,Culberson County,397.0,1807.0,6794.0,1094.0,932.0,514.0,1669.0,1261.0,616.0,365.0,276.0,56.0,11.0
945951,County,2020/10/23,48.0,TX,48109.0,Culberson County,478.0,1726.0,5533.0,988.0,618.0,485.0,1529.0,524.0,422.0,577.0,342.0,33.0,15.0
949537,County,2020/10/24,48.0,TX,48109.0,Culberson County,469.0,1735.0,6005.0,1022.0,784.0,666.0,1849.0,411.0,400.0,536.0,288.0,42.0,7.0
