,Level,Date,State FIPS,State Postal Code,County FIPS,County Name,Population Staying at Home,Population Not Staying at Home,Number of Trips,Number of Trips <1,Number of Trips 1-3,Number of Trips 3-5,Number of Trips 5-10,Number of Trips 10-25,Number of Trips 25-50,Number of Trips 50-100,Number of Trips 100-250,Number of Trips 250-500,Number of Trips >=500
1039,County,2020/01/01,21.0,KY,21093.0,Hardin County,28024.0,82332.0,327288.0,67781.0,85753.0,43301.0,52188.0,45843.0,21082.0,7232.0,3123.0,849.0,136.0
3279,County,2020/01/02,21.0,KY,21093.0,Hardin County,22242.0,88114.0,429313.0,91146.0,107026.0,52646.0,72811.0,61147.0,28841.0,10890.0,3571.0,1088.0,147.0
7580,County,2020/01/03,21.0,KY,21093.0,Hardin County,22296.0,88060.0,453642.0,97314.0,115704.0,56180.0,76725.0,63405.0,29563.0,10057.0,3694.0,887.0,113.0
12193,County,2020/01/04,21.0,KY,21093.0,Hardin County,25406.0,84950.0,402825.0,87314.0,101595.0,49002.0,69566.0,57247.0,26248.0,7898.0,3081.0,776.0,98.0
13815,County,2020/01/05,21.0,KY,21093.0,Hardin County,26516.0,83840.0,356185.0,75622.0,88312.0,44446.0,60428.0,51817.0,25356.0,6303.0,2733.0,970.0,198.0
16421,County,2020/01/06,21.0,KY,21093.0,Hardin County,22435.0,87921.0,429038.0,89622.0,111346.0,50765.0,71461.0,62071.0,29234.0,10654.0,2776.0,950.0,159.0
19675,County,2020/01/07,21.0,KY,21093.0,Hardin County,21368.0,88988.0,447223.0,95916.0,112798.0,52796.0,74327.0,64277.0,32056.0,11198.0,2927.0,845.0,83.0
24523,County,2020/01/08,21.0,KY,21093.0,Hardin County,21010.0,89346.0,462869.0,103058.0,122758.0,54206.0,70285.0,67695.0,31595.0,9466.0,2858.0,832.0,116.0
27654,County,2020/01/09,21.0,KY,21093.0,Hardin County,21004.0,89352.0,465423.0,107971.0,115118.0,54375.0,73710.0,66630.0,33201.0,10385.0,3108.0,837.0,88.0
30861,County,2020/01/10,21.0,KY,21093.0,Hardin County,20603.0,89753.0,483468.0,103498.0,128521.0,56574.0,78958.0,70682.0,30864.0,9666.0,3658.0,937.0,110.0
32489,County,2020/01/11,21.0,KY,21093.0,Hardin County,25097.0,85259.0,414909.0,92040.0,111006.0,51211.0,66786.0,58124.0,25030.0,7035.0,2677.0,877.0,123.0
35645,County,2020/01/12,21.0,KY,21093.0,Hardin County,26277.0,84079.0,374505.0,77472.0,107141.0,44995.0,60981.0,52132.0,21898.0,5859.0,2923.0,964.0,140.0
38888,County,2020/01/13,21.0,KY,21093.0,Hardin County,21822.0,88534.0,435787.0,93634.0,110314.0,56620.0,67641.0,63687.0,31575.0,8765.0,2673.0,731.0,147.0
43621,County,2020/01/14,21.0,KY,21093.0,Hardin County,20834.0,89522.0,455086.0,95628.0,122570.0,53180.0,72183.0,67661.0,30749.0,9473.0,2800.0,749.0,93.0
46827,County,2020/01/15,21.0,KY,21093.0,Hardin County,20856.0,89500.0,463016.0,104207.0,117636.0,54588.0,73462.0,67256.0,31172.0,11153.0,2635.0,803.0,104.0
48354,County,2020/01/16,21.0,KY,21093.0,Hardin County,20688.0,89668.0,468046.0,103212.0,123256.0,54112.0,73592.0,66573.0,32407.0,10489.0,3418.0,873.0,114.0
51611,County,2020/01/17,21.0,KY,21093.0,Hardin County,20458.0,89898.0,477767.0,100334.0,124605.0,57436.0,77691.0,69974.0,32254.0,10970.0,3199.0,1183.0,121.0
56391,County,2020/01/18,21.0,KY,21093.0,Hardin County,24629.0,85727.0,419356.0,87079.0,108886.0,51964.0,72139.0,59489.0,27425.0,8912.0,2656.0,680.0,126.0
57990,County,2020/01/19,21.0,KY,21093.0,Hardin County,26387.0,83969.0,379150.0,88711.0,99965.0,48371.0,60657.0,52492.0,19794.0,5627.0,2333.0,1077.0,123.0
61223,County,2020/01/20,21.0,KY,21093.0,Hardin County,24371.0,85985.0,396616.0,80985.0,99661.0,50306.0,68749.0,55421.0,27901.0,9618.0,2850.0,951.0,174.0
64380,County,2020/01/21,21.0,KY,21093.0,Hardin County,21599.0,88757.0,447687.0,97685.0,114680.0,56153.0,72837.0,63049.0,30191.0,9164.0,2836.0,956.0,136.0
67582,County,2020/01/22,21.0,KY,21093.0,Hardin County,20663.0,89693.0,448247.0,99617.0,112111.0,54855.0,72433.0,63058.0,31501.0,10436.0,3070.0,1086.0,80.0
72373,County,2020/01/23,21.0,KY,21093.0,Hardin County,21474.0,88882.0,465550.0,111307.0,119293.0,54432.0,72416.0,61529.0,32496.0,9850.0,3281.0,819.0,127.0
75529,County,2020/01/24,21.0,KY,21093.0,Hardin County,21558.0,88798.0,486983.0,105926.0,132108.0,57870.0,76064.0,71541.0,29470.0,9758.0,3293.0,840.0,113.0
78764,County,2020/01/25,21.0,KY,21093.0,Hardin County,24736.0,85620.0,423785.0,90863.0,115282.0,53178.0,65594.0,58051.0,28122.0,9380.0,2474.0,740.0,101.0
80889,County,2020/01/26,21.0,KY,21093.0,Hardin County,25829.0,84527.0,371177.0,75214.0,106591.0,51121.0,59929.0,50142.0,18939.0,6000.0,2408.0,689.0,144.0
85079,County,2020/01/27,21.0,KY,21093.0,Hardin County,21032.0,89324.0,448442.0,97170.0,119835.0,52394.0,70490.0,65895.0,29698.0,9365.0,2707.0,801.0,87.0
88885,County,2020/01/28,21.0,KY,21093.0,Hardin County,21267.0,89089.0,447227.0,99906.0,114929.0,53075.0,68622.0,68266.0,29661.0,8614.0,3027.0,999.0,128.0
91534,County,2020/01/29,21.0,KY,21093.0,Hardin County,21160.0,89196.0,448407.0,98057.0,116495.0,51819.0,70162.0,65649.0,31916.0,9776.0,3519.0,926.0,88.0
93260,County,2020/01/30,21.0,KY,21093.0,Hardin County,21442.0,88914.0,450548.0,101427.0,115534.0,53938.0,70398.0,63060.0,30818.0,9948.0,3871.0,1317.0,237.0
96315,County,2020/01/31,21.0,KY,21093.0,Hardin County,19832.0,90524.0,457734.0,97067.0,113616.0,57262.0,76272.0,65284.0,33602.0,9441.0,3682.0,1295.0,213.0
99564,County,2020/02/01,21.0,KY,21093.0,Hardin County,22855.0,87501.0,427854.0,91833.0,111553.0,55346.0,68510.0,56072.0,30620.0,8565.0,3821.0,1287.0,247.0
104275,County,2020/02/02,21.0,KY,21093.0,Hardin County,24916.0,85440.0,392262.0,88068.0,98216.0,54807.0,66348.0,49774.0,23176.0,6643.0,3444.0,1470.0,316.0
107527,County,2020/02/03,21.0,KY,21093.0,Hardin County,21216.0,89140.0,453766.0,98591.0,121540.0,54930.0,71746.0,60951.0,31523.0,9343.0,3604.0,1258.0,280.0
109144,County,2020/02/04,21.0,KY,21093.0,Hardin County,20742.0,89614.0,421784.0,88678.0,111840.0,49474.0,66444.0,60823.0,29626.0,9658.0,3861.0,1114.0,266.0
112290,County,2020/02/05,21.0,KY,21093.0,Hardin County,21631.0,88725.0,430569.0,89672.0,111795.0,53295.0,66165.0,63272.0,31015.0,9776.0,3748.0,1530.0,301.0
117073,County,2020/02/06,21.0,KY,21093.0,Hardin County,20902.0,89454.0,441221.0,94375.0,119755.0,55391.0,67991.0,59242.0,29181.0,10122.0,3549.0,1376.0,239.0
120327,County,2020/02/07,21.0,KY,21093.0,Hardin County,21793.0,88563.0,432975.0,94077.0,112963.0,53814.0,69634.0,57469.0,30272.0,9484.0,3808.0,1182.0,272.0
123487,County,2020/02/08,21.0,KY,21093.0,Hardin County,24364.0,85992.0,406975.0,87318.0,110229.0,51987.0,65145.0,52626.0,27120.0,8244.0,3086.0,960.0,260.0
125066,County,2020/02/09,21.0,KY,21093.0,Hardin County,27683.0,82673.0,322679.0,64767.0,86898.0,43105.0,52821.0,42992.0,20934.0,6335.0,3176.0,1258.0,393.0
129348,County,2020/02/10,21.0,KY,21093.0,Hardin County,20835.0,89521.0,402386.0,78552.0,105623.0,51861.0,66493.0,57032.0,28665.0,8609.0,3861.0,1250.0,440.0
133694,County,2020/02/11,21.0,KY,21093.0,Hardin County,19285.0,91071.0,407858.0,85550.0,105415.0,52498.0,64652.0,55889.0,29196.0,8865.0,4019.0,1343.0,431.0
136185,County,2020/02/12,21.0,KY,21093.0,Hardin County,19452.0,90904.0,400581.0,79956.0,104046.0,50302.0,64924.0,55682.0,30521.0,9066.0,4158.0,1386.0,540.0
137880,County,2020/02/13,21.0,KY,21093.0,Hardin County,18716.0,91640.0,414106.0,79890.0,112085.0,54112.0,65602.0,57460.0,30284.0,8707.0,4017.0,1265.0,684.0
142610,County,2020/02/14,21.0,KY,21093.0,Hardin County,17984.0,92372.0,441920.0,81076.0,109792.0,58277.0,77130.0,62492.0,35395.0,10164.0,5184.0,1676.0,734.0
144234,County,2020/02/15,21.0,KY,21093.0,Hardin County,21542.0,88814.0,395968.0,76563.0,98807.0,49344.0,66163.0,56902.0,30440.0,10555.0,5058.0,1212.0,924.0
149018,County,2020/02/16,21.0,KY,21093.0,Hardin County,24921.0,85435.0,352170.0,67940.0,89437.0,51548.0,56849.0,48607.0,24790.0,7557.0,3410.0,1334.0,698.0
150646,County,2020/02/17,21.0,KY,21093.0,Hardin County,26038.0,84318.0,335752.0,62766.0,88510.0,43168.0,56375.0,46146.0,25011.0,8337.0,3674.0,1097.0,668.0
153860,County,2020/02/18,21.0,KY,21093.0,Hardin County,20273.0,90083.0,389636.0,73105.0,102694.0,53012.0,61905.0,54888.0,28479.0,9503.0,4033.0,1305.0,712.0
158572,County,2020/02/19,21.0,KY,21093.0,Hardin County,19971.0,90385.0,420204.0,81961.0,112471.0,54517.0,69269.0,57440.0,30061.0,8963.0,3824.0,1267.0,431.0
161768,County,2020/02/20,21.0,KY,21093.0,Hardin County,20191.0,90165.0,396286.0,77672.0,102253.0,51768.0,65000.0,55732.0,28331.0,9906.0,3721.0,1575.0,328.0
163394,County,2020/02/21,21.0,KY,21093.0,Hardin County,19269.0,91087.0,430232.0,85501.0,110668.0,51615.0,70447.0,62879.0,32354.0,10509.0,4418.0,1402.0,439.0
166588,County,2020/02/22,21.0,KY,21093.0,Hardin County,22237.0,88119.0,395692.0,78826.0,98731.0,52623.0,64233.0,55761.0,29437.0,9612.0,4333.0,1467.0,669.0
171353,County,2020/02/23,21.0,KY,21093.0,Hardin County,24640.0,85716.0,356202.0,69211.0,92649.0,48455.0,57996.0,52259.0,23707.0,6997.0,3541.0,1131.0,256.0
172980,County,2020/02/24,21.0,KY,21093.0,Hardin County,19789.0,90567.0,397132.0,80695.0,100962.0,50776.0,69024.0,56758.0,27050.0,7653.0,3001.0,838.0,375.0
176954,County,2020/02/25,21.0,KY,21093.0,Hardin County,18492.0,91864.0,429829.0,85010.0,112347.0,55464.0,72775.0,60638.0,30205.0,9138.0,2928.0,922.0,402.0
179903,County,2020/02/26,21.0,KY,21093.0,Hardin County,21930.0,88426.0,381545.0,73369.0,108797.0,49160.0,62641.0,53955.0,20620.0,8448.0,3302.0,1029.0,224.0
184070,County,2020/02/27,21.0,KY,21093.0,Hardin County,18487.0,91869.0,425451.0,84016.0,115760.0,53071.0,70813.0,62481.0,26849.0,8651.0,2775.0,821.0,214.0
185845,County,2020/02/28,21.0,KY,21093.0,Hardin County,17649.0,92707.0,462455.0,91177.0,124843.0,59425.0,78174.0,65182.0,28994.0,9708.0,3674.0,1002.0,276.0
188947,County,2020/02/29,21.0,KY,21093.0,Hardin County,20284.0,90072.0,431176.0,86034.0,110839.0,59968.0,72304.0,60088.0,27684.0,10056.0,3098.0,854.0,251.0
193731,County,2020/03/01,21.0,KY,21093.0,Hardin County,24080.0,86276.0,415400.0,95107.0,108351.0,50458.0,69114.0,54891.0,24001.0,8256.0,3654.0,1269.0,299.0
195360,County,2020/03/02,21.0,KY,21093.0,Hardin County,20885.0,89471.0,444238.0,94433.0,119821.0,50941.0,69301.0,64218.0,30403.0,10132.0,3527.0,1130.0,332.0
200045,County,2020/03/03,21.0,KY,21093.0,Hardin County,20080.0,90276.0,453157.0,90884.0,115504.0,54018.0,73700.0,64722.0,37136.0,11352.0,4287.0,1327.0,227.0
203300,County,2020/03/04,21.0,KY,21093.0,Hardin County,20330.0,90026.0,468156.0,99889.0,121634.0,56484.0,72699.0,68671.0,32322.0,10297.0,4691.0,1214.0,255.0
204865,County,2020/03/05,21.0,KY,21093.0,Hardin County,18665.0,91691.0,480037.0,99145.0,124654.0,57610.0,73329.0,75049.0,33235.0,10835.0,4723.0,1189.0,268.0
208033,County,2020/03/06,21.0,KY,21093.0,Hardin County,19558.0,90798.0,463287.0,90590.0,122485.0,57376.0,75919.0,67019.0,32163.0,12180.0,3870.0,1418.0,267.0
212997,County,2020/03/07,21.0,KY,21093.0,Hardin County,21961.0,88395.0,454223.0,102283.0,118748.0,52732.0,69919.0,62762.0,31615.0,11129.0,3680.0,1051.0,304.0
214499,County,2020/03/08,21.0,KY,21093.0,Hardin County,24405.0,85951.0,396962.0,85352.0,100843.0,51458.0,67388.0,51740.0,25780.0,9361.0,3512.0,1217.0,311.0
217702,County,2020/03/09,21.0,KY,21093.0,Hardin County,21845.0,88511.0,437751.0,92056.0,112527.0,49247.0,70195.0,64697.0,33125.0,11489.0,3073.0,1086.0,256.0
220936,County,2020/03/10,21.0,KY,21093.0,Hardin County,21270.0,89086.0,436700.0,92682.0,105370.0,56821.0,68264.0,66743.0,30494.0,11486.0,3516.0,1073.0,251.0
225730,County,2020/03/11,21.0,KY,21093.0,Hardin County,20682.0,89674.0,413072.0,91690.0,108744.0,47358.0,54472.0,55720.0,34818.0,13206.0,4685.0,1747.0,632.0
228821,County,2020/03/12,21.0,KY,21093.0,Hardin County,21975.0,88381.0,387737.0,86874.0,102617.0,44049.0,54804.0,49843.0,29904.0,13591.0,4025.0,1298.0,732.0
230469,County,2020/03/13,21.0,KY,21093.0,Hardin County,21563.0,88793.0,404470.0,84648.0,107515.0,48025.0,56043.0,57037.0,30945.0,13163.0,5186.0,1187.0,721.0
233668,County,2020/03/14,21.0,KY,21093.0,Hardin County,27092.0,83264.0,317187.0,68323.0,81292.0,29619.0,49988.0,43509.0,28522.0,9000.0,3990.0,1867.0,1077.0
238422,County,2020/03/15,21.0,KY,21093.0,Hardin County,30051.0,80305.0,341579.0,72405.0,88065.0,43357.0,55074.0,49188.0,20924.0,7771.0,3301.0,1054.0,440.0
240098,County,2020/03/16,21.0,KY,21093.0,Hardin County,25953.0,84403.0,421711.0,91476.0,110273.0,49583.0,66516.0,57974.0,28821.0,11433.0,4371.0,970.0,294.0
243281,County,2020/03/17,21.0,KY,21093.0,Hardin County,27892.0,82464.0,398163.0,84472.0,102644.0,48893.0,58486.0,57473.0,29687.0,11186.0,4203.0,850.0,269.0
247963,County,2020/03/18,21.0,KY,21093.0,Hardin County,28818.0,81538.0,395269.0,83536.0,105100.0,45841.0,60933.0,54625.0,29817.0,9793.0,4272.0,1091.0,261.0
249642,County,2020/03/19,21.0,KY,21093.0,Hardin County,29218.0,81138.0,384965.0,84308.0,99467.0,43547.0,58801.0,53729.0,29961.0,9543.0,4313.0,1099.0,197.0
252876,County,2020/03/20,21.0,KY,21093.0,Hardin County,28921.0,81435.0,406440.0,90726.0,105269.0,51263.0,60425.0,55147.0,27353.0,10707.0,4128.0,1231.0,191.0
256019,County,2020/03/21,21.0,KY,21093.0,Hardin County,34118.0,76238.0,345690.0,82821.0,89677.0,40935.0,52122.0,46652.0,22458.0,6159.0,3279.0,1328.0,259.0
260772,County,2020/03/22,21.0,KY,21093.0,Hardin County,33982.0,76374.0,274634.0,70105.0,67919.0,32112.0,43566.0,35578.0,15690.0,4875.0,3338.0,1077.0,374.0
263985,County,2020/03/23,21.0,KY,21093.0,Hardin County,28590.0,81766.0,333184.0,79256.0,85677.0,38363.0,50840.0,45043.0,21299.0,8355.0,3186.0,771.0,394.0
267214,County,2020/03/24,21.0,KY,21093.0,Hardin County,30138.0,80218.0,318759.0,75937.0,79354.0,35956.0,46689.0,46298.0,20972.0,8706.0,3538.0,1049.0,260.0
268845,County,2020/03/25,21.0,KY,21093.0,Hardin County,29681.0,80675.0,336685.0,84872.0,83509.0,36485.0,51438.0,43752.0,22002.0,9062.0,3868.0,1486.0,211.0
273585,County,2020/03/26,21.0,KY,21093.0,Hardin County,30009.0,80347.0,346224.0,86008.0,87958.0,40094.0,49987.0,47085.0,22857.0,7660.0,3268.0,1120.0,187.0
275176,County,2020/03/27,21.0,KY,21093.0,Hardin County,29659.0,80697.0,337195.0,82066.0,85938.0,36336.0,49987.0,46010.0,24526.0,7512.0,3504.0,1113.0,203.0
278379,County,2020/03/28,21.0,KY,21093.0,Hardin County,32139.0,78217.0,312165.0,74964.0,86727.0,35376.0,50372.0,37804.0,17933.0,4986.0,2628.0,1175.0,200.0
283139,County,2020/03/29,21.0,KY,21093.0,Hardin County,33596.0,76760.0,270728.0,66460.0,71920.0,31971.0,42150.0,32365.0,15789.0,6108.0,2560.0,1049.0,356.0
284765,County,2020/03/30,21.0,KY,21093.0,Hardin County,28886.0,81470.0,324282.0,78523.0,79611.0,38516.0,49182.0,45060.0,21614.0,7156.0,3377.0,906.0,337.0
289569,County,2020/03/31,21.0,KY,21093.0,Hardin County,30699.0,79657.0,301307.0,71349.0,73609.0,32404.0,48176.0,39338.0,22696.0,8313.0,3808.0,1294.0,320.0
291197,County,2020/04/01,21.0,KY,21093.0,Hardin County,30372.0,79984.0,315401.0,72907.0,80044.0,39351.0,46264.0,43493.0,20858.0,7656.0,3667.0,852.0,309.0
295930,County,2020/04/02,21.0,KY,21093.0,Hardin County,29702.0,80654.0,315393.0,70144.0,84886.0,35997.0,47125.0,41636.0,21859.0,8896.0,3640.0,862.0,348.0
297591,County,2020/04/03,21.0,KY,21093.0,Hardin County,28848.0,81508.0,351235.0,79140.0,94252.0,38682.0,55595.0,47485.0,23940.0,8028.0,2835.0,942.0,336.0
302337,County,2020/04/04,21.0,KY,21093.0,Hardin County,32316.0,78040.0,317406.0,74989.0,89141.0,34656.0,53100.0,40022.0,17627.0,4161.0,2201.0,925.0,584.0
303965,County,2020/04/05,21.0,KY,21093.0,Hardin County,33394.0,76962.0,302010.0,74835.0,82598.0,34316.0,49258.0,35793.0,17132.0,4004.0,2921.0,808.0,345.0
308690,County,2020/04/06,21.0,KY,21093.0,Hardin County,29781.0,80575.0,344576.0,88385.0,85145.0,37958.0,50323.0,47210.0,23629.0,7576.0,3092.0,1061.0,197.0
311930,County,2020/04/07,21.0,KY,21093.0,Hardin County,30021.0,80335.0,344530.0,80875.0,92801.0,39016.0,54657.0,43998.0,20724.0,8217.0,3131.0,866.0,245.0
315103,County,2020/04/08,21.0,KY,21093.0,Hardin County,30892.0,79464.0,345343.0,82428.0,87639.0,36212.0,53186.0,51516.0,22208.0,8003.0,3168.0,813.0,170.0
316730,County,2020/04/09,21.0,KY,21093.0,Hardin County,30788.0,79568.0,326098.0,72426.0,86772.0,36547.0,50470.0,43855.0,23153.0,8009.0,3610.0,1026.0,230.0
319957,County,2020/04/10,21.0,KY,21093.0,Hardin County,28842.0,81514.0,363456.0,87679.0,97491.0,43161.0,55564.0,46511.0,23118.0,6393.0,2490.0,847.0,202.0
324703,County,2020/04/11,21.0,KY,21093.0,Hardin County,29394.0,80962.0,360165.0,93218.0,91512.0,43041.0,60106.0,44911.0,18810.0,5113.0,2664.0,650.0,140.0
326286,County,2020/04/12,21.0,KY,21093.0,Hardin County,35699.0,74657.0,234346.0,52618.0,66446.0,30944.0,35934.0,29398.0,11896.0,4114.0,1996.0,858.0,142.0
329552,County,2020/04/13,21.0,KY,21093.0,Hardin County,31710.0,78646.0,315771.0,71567.0,73306.0,36861.0,52649.0,49190.0,22801.0,5905.0,2336.0,1004.0,152.0
332676,County,2020/04/14,21.0,KY,21093.0,Hardin County,28793.0,81563.0,329467.0,77879.0,77713.0,34663.0,58487.0,44607.0,25408.0,5903.0,3226.0,1258.0,323.0
335902,County,2020/04/15,21.0,KY,21093.0,Hardin County,27993.0,82363.0,371030.0,86478.0,99448.0,41456.0,54695.0,48571.0,28516.0,7685.0,2788.0,1153.0,240.0
340620,County,2020/04/16,21.0,KY,21093.0,Hardin County,29384.0,80972.0,361088.0,80586.0,95106.0,38674.0,62318.0,49270.0,24327.0,7361.0,2148.0,1188.0,110.0
342355,County,2020/04/17,21.0,KY,21093.0,Hardin County,27293.0,83063.0,347455.0,71420.0,89330.0,48873.0,55900.0,40844.0,28421.0,8799.0,2218.0,1384.0,266.0
345461,County,2020/04/18,21.0,KY,21093.0,Hardin County,29652.0,80704.0,378667.0,84894.0,109379.0,43726.0,66328.0,50410.0,16046.0,4479.0,2012.0,1142.0,251.0
350212,County,2020/04/19,21.0,KY,21093.0,Hardin County,31463.0,78893.0,265712.0,50139.0,76190.0,31139.0,47970.0,33447.0,17155.0,7287.0,1628.0,584.0,173.0
353462,County,2020/04/20,21.0,KY,21093.0,Hardin County,28866.0,81490.0,303764.0,82273.0,77825.0,33797.0,41629.0,35373.0,20292.0,8422.0,2413.0,1345.0,395.0
356648,County,2020/04/21,21.0,KY,21093.0,Hardin County,28340.0,82016.0,347042.0,87581.0,87865.0,39464.0,55203.0,43893.0,23315.0,5726.0,3127.0,765.0,103.0
358277,County,2020/04/22,21.0,KY,21093.0,Hardin County,28052.0,82304.0,371250.0,90709.0,94492.0,42544.0,60861.0,46587.0,24443.0,7839.0,2866.0,763.0,146.0
363009,County,2020/04/23,21.0,KY,21093.0,Hardin County,29080.0,81276.0,330470.0,69649.0,88179.0,34947.0,49812.0,51124.0,25056.0,7206.0,3300.0,1052.0,145.0
364636,County,2020/04/24,21.0,KY,21093.0,Hardin County,27120.0,83236.0,397208.0,95584.0,105738.0,46714.0,59821.0,54638.0,22666.0,8139.0,3216.0,616.0,76.0
367803,County,2020/04/25,21.0,KY,21093.0,Hardin County,30740.0,79616.0,332777.0,81918.0,83870.0,42838.0,55726.0,45714.0,15018.0,5199.0,1709.0,645.0,140.0
372572,County,2020/04/26,21.0,KY,21093.0,Hardin County,33327.0,77029.0,284110.0,67174.0,73554.0,36422.0,44186.0,40551.0,15094.0,4113.0,2143.0,628.0,245.0
375802,County,2020/04/27,21.0,KY,21093.0,Hardin County,27452.0,82904.0,386045.0,91565.0,100162.0,39938.0,61950.0,56161.0,26117.0,6774.0,2577.0,615.0,186.0
378974,County,2020/04/28,21.0,KY,21093.0,Hardin County,27083.0,83273.0,374348.0,84449.0,100235.0,41898.0,60293.0,51929.0,24428.0,7277.0,2827.0,756.0,256.0
382178,County,2020/04/29,21.0,KY,21093.0,Hardin County,28355.0,82001.0,358792.0,81970.0,94227.0,39480.0,57212.0,49772.0,23610.0,8261.0,3228.0,903.0,129.0
385395,County,2020/04/30,21.0,KY,21093.0,Hardin County,27685.0,82671.0,368725.0,80404.0,94846.0,43625.0,60610.0,51175.0,25812.0,8304.0,2921.0,907.0,121.0
387021,County,2020/05/01,21.0,KY,21093.0,Hardin County,25525.0,84831.0,414725.0,101180.0,105584.0,46977.0,69429.0,55394.0,27247.0,6254.0,1981.0,618.0,61.0
391732,County,2020/05/02,21.0,KY,21093.0,Hardin County,27461.0,82895.0,377400.0,89222.0,99734.0,43008.0,62676.0,51891.0,20719.0,6796.0,2524.0,746.0,84.0
394928,County,2020/05/03,21.0,KY,21093.0,Hardin County,31048.0,79308.0,327299.0,75946.0,84740.0,35356.0,59856.0,47209.0,16131.0,4725.0,2597.0,578.0,161.0
396579,County,2020/05/04,21.0,KY,21093.0,Hardin County,26533.0,83823.0,400337.0,97930.0,102525.0,46281.0,65147.0,52186.0,24822.0,8217.0,2548.0,571.0,110.0
401347,County,2020/05/05,21.0,KY,21093.0,Hardin County,27853.0,82503.0,368066.0,77635.0,98309.0,41467.0,67704.0,48129.0,23897.0,7041.0,2710.0,1087.0,87.0
404553,County,2020/05/06,21.0,KY,21093.0,Hardin County,26766.0,83590.0,378139.0,90841.0,99334.0,40330.0,64084.0,49724.0,21978.0,7481.0,3061.0,935.0,371.0
407647,County,2020/05/07,21.0,KY,21093.0,Hardin County,25823.0,84533.0,399814.0,93107.0,104438.0,48125.0,65135.0,49689.0,26580.0,8883.0,2790.0,900.0,167.0
409436,County,2020/05/08,21.0,KY,21093.0,Hardin County,27371.0,82985.0,374058.0,88393.0,88567.0,45724.0,66527.0,48291.0,24450.0,7933.0,3126.0,964.0,83.0
412490,County,2020/05/09,21.0,KY,21093.0,Hardin County,28767.0,81589.0,384231.0,93771.0,100035.0,42788.0,63170.0,52698.0,21505.0,7384.0,1998.0,740.0,142.0
417287,County,2020/05/10,21.0,KY,21093.0,Hardin County,29177.0,81179.0,325865.0,72541.0,84148.0,40636.0,56040.0,42446.0,20576.0,6306.0,2363.0,667.0,142.0
420566,County,2020/05/11,21.0,KY,21093.0,Hardin County,23621.0,86735.0,418712.0,103471.0,104188.0,50820.0,65859.0,55462.0,26995.0,7719.0,3289.0,824.0,85.0
422146,County,2020/05/12,21.0,KY,21093.0,Hardin County,23284.0,87072.0,426703.0,115618.0,98474.0,47514.0,66293.0,55052.0,29378.0,8818.0,4312.0,1125.0,119.0
426819,County,2020/05/13,21.0,KY,21093.0,Hardin County,24296.0,86060.0,380352.0,92441.0,95736.0,40948.0,61831.0,48415.0,25602.0,9740.0,4060.0,1434.0,145.0
428545,County,2020/05/14,21.0,KY,21093.0,Hardin County,22482.0,87874.0,420286.0,107298.0,99758.0,47926.0,69143.0,53799.0,27571.0,8740.0,4439.0,1469.0,143.0
431740,County,2020/05/15,21.0,KY,21093.0,Hardin County,22589.0,87767.0,390378.0,94268.0,99953.0,42097.0,64096.0,49825.0,25611.0,8826.0,4141.0,1358.0,203.0
436489,County,2020/05/16,21.0,KY,21093.0,Hardin County,24587.0,85769.0,367995.0,83766.0,97699.0,45057.0,62089.0,47514.0,19418.0,7656.0,3491.0,1185.0,120.0
438116,County,2020/05/17,21.0,KY,21093.0,Hardin County,24890.0,85466.0,357566.0,89055.0,89768.0,41547.0,65179.0,42311.0,17562.0,7681.0,3202.0,1171.0,90.0
442888,County,2020/05/18,21.0,KY,21093.0,Hardin County,19253.0,91103.0,427657.0,102221.0,107505.0,45675.0,67741.0,60506.0,30797.0,9122.0,3314.0,703.0,73.0
446051,County,2020/05/19,21.0,KY,21093.0,Hardin County,19832.0,90524.0,420955.0,100556.0,107708.0,43376.0,66149.0,56775.0,31110.0,9740.0,4550.0,960.0,31.0
447683,County,2020/05/20,21.0,KY,21093.0,Hardin County,19102.0,91254.0,434536.0,103665.0,114586.0,45627.0,68147.0,58394.0,28307.0,10194.0,4196.0,1238.0,182.0
452117,County,2020/05/21,21.0,KY,21093.0,Hardin County,18821.0,91535.0,457044.0,115390.0,110910.0,49385.0,69661.0,63320.0,33405.0,8923.0,4859.0,1000.0,191.0
455612,County,2020/05/22,21.0,KY,21093.0,Hardin County,18254.0,92102.0,476595.0,112560.0,123014.0,55001.0,76324.0,66188.0,28742.0,9502.0,3837.0,1091.0,336.0
458824,County,2020/05/23,21.0,KY,21093.0,Hardin County,21349.0,89007.0,433997.0,103797.0,114624.0,53731.0,71763.0,52333.0,26742.0,6546.0,3316.0,1009.0,136.0
460453,County,2020/05/24,21.0,KY,21093.0,Hardin County,26672.0,83684.0,335857.0,79305.0,84615.0,41646.0,56556.0,41025.0,22211.0,6174.0,3127.0,885.0,313.0
463656,County,2020/05/25,21.0,KY,21093.0,Hardin County,26697.0,83659.0,328200.0,77019.0,83864.0,40139.0,54514.0,42002.0,19688.0,6108.0,3058.0,1449.0,359.0
468487,County,2020/05/26,21.0,KY,21093.0,Hardin County,23713.0,86643.0,366784.0,88455.0,89452.0,43683.0,56346.0,49743.0,25632.0,8106.0,3501.0,1542.0,324.0
471629,County,2020/05/27,21.0,KY,21093.0,Hardin County,23713.0,86643.0,382737.0,94196.0,94616.0,41591.0,61154.0,49901.0,25564.0,9183.0,4209.0,1947.0,376.0
474729,County,2020/05/28,21.0,KY,21093.0,Hardin County,23535.0,86821.0,408822.0,106520.0,99324.0,42914.0,62071.0,52045.0,27480.0,11909.0,4918.0,1525.0,116.0
476407,County,2020/05/29,21.0,KY,21093.0,Hardin County,26105.0,84251.0,400419.0,96232.0,104604.0,45265.0,60370.0,53443.0,25998.0,9383.0,3774.0,1225.0,125.0
479594,County,2020/05/30,21.0,KY,21093.0,Hardin County,26725.0,83631.0,413155.0,100769.0,105630.0,47666.0,68407.0,54274.0,22923.0,9264.0,3125.0,990.0,107.0
482721,County,2020/05/31,21.0,KY,21093.0,Hardin County,26922.0,83434.0,373491.0,96243.0,92595.0,39466.0,58646.0,51574.0,22615.0,7490.0,3635.0,1134.0,93.0
487662,County,2020/06/01,21.0,KY,21093.0,Hardin County,22848.0,87508.0,412358.0,98638.0,110247.0,48193.0,62539.0,51788.0,27249.0,9467.0,3023.0,1012.0,202.0
489230,County,2020/06/02,21.0,KY,21093.0,Hardin County,23944.0,86412.0,406662.0,100035.0,104981.0,42581.0,59382.0,56592.0,27238.0,10116.0,3889.0,1663.0,185.0
492399,County,2020/06/03,21.0,KY,21093.0,Hardin County,21454.0,88902.0,421820.0,101399.0,111573.0,44068.0,62663.0,56997.0,28014.0,10779.0,4502.0,1563.0,262.0
497173,County,2020/06/04,21.0,KY,21093.0,Hardin County,22108.0,88248.0,398478.0,93701.0,103014.0,44259.0,59736.0,54315.0,27629.0,10224.0,4213.0,1179.0,208.0
500337,County,2020/06/05,21.0,KY,21093.0,Hardin County,22625.0,87731.0,421124.0,102302.0,100793.0,49365.0,65798.0,56220.0,29873.0,10361.0,4822.0,1369.0,221.0
501960,County,2020/06/06,21.0,KY,21093.0,Hardin County,25881.0,84475.0,372738.0,89795.0,96583.0,39623.0,58501.0,51180.0,23225.0,9305.0,3232.0,1097.0,197.0
505152,County,2020/06/07,21.0,KY,21093.0,Hardin County,26504.0,83852.0,343516.0,80649.0,86652.0,41971.0,56139.0,43171.0,22895.0,8183.0,2884.0,890.0,82.0
509948,County,2020/06/08,21.0,KY,21093.0,Hardin County,21261.0,89095.0,415110.0,92389.0,111120.0,48948.0,63754.0,57499.0,25645.0,10466.0,4008.0,1106.0,175.0
511577,County,2020/06/09,21.0,KY,21093.0,Hardin County,22703.0,87653.0,390179.0,87829.0,100236.0,47420.0,59040.0,53088.0,27219.0,9926.0,3777.0,1315.0,329.0
514735,County,2020/06/10,21.0,KY,21093.0,Hardin County,22737.0,87619.0,405564.0,92488.0,110290.0,45467.0,62964.0,52123.0,27849.0,8256.0,4347.0,1563.0,217.0
519466,County,2020/06/11,21.0,KY,21093.0,Hardin County,21177.0,89179.0,436436.0,105548.0,110911.0,49074.0,68020.0,56226.0,30208.0,10761.0,4102.0,1423.0,163.0
522738,County,2020/06/12,21.0,KY,21093.0,Hardin County,22438.0,87918.0,432996.0,108064.0,104357.0,50552.0,66021.0,56889.0,29594.0,11951.0,4242.0,1077.0,249.0
525925,County,2020/06/13,21.0,KY,21093.0,Hardin County,23641.0,86715.0,446254.0,113105.0,108800.0,52657.0,71505.0,56594.0,28115.0,10297.0,3965.0,1057.0,159.0
529079,County,2020/06/14,21.0,KY,21093.0,Hardin County,26533.0,83823.0,339769.0,85198.0,89118.0,39717.0,53576.0,40599.0,18571.0,7996.0,3589.0,1231.0,174.0
530709,County,2020/06/15,21.0,KY,21093.0,Hardin County,24546.0,85810.0,389007.0,92035.0,101805.0,43987.0,60321.0,49002.0,25428.0,10793.0,4115.0,1313.0,208.0
535490,County,2020/06/16,21.0,KY,21093.0,Hardin County,23322.0,87034.0,419222.0,109381.0,105119.0,47417.0,61559.0,51859.0,26199.0,10785.0,5096.0,1613.0,194.0
538658,County,2020/06/17,21.0,KY,21093.0,Hardin County,22826.0,87530.0,425225.0,105843.0,111372.0,48173.0,61990.0,53977.0,27788.0,9076.0,5402.0,1421.0,183.0
540287,County,2020/06/18,21.0,KY,21093.0,Hardin County,22987.0,87369.0,414175.0,103639.0,102702.0,44410.0,62193.0,54436.0,29892.0,10173.0,5054.0,1536.0,140.0
543480,County,2020/06/19,21.0,KY,21093.0,Hardin County,23601.0,86755.0,400026.0,93033.0,102255.0,47968.0,57658.0,54201.0,29288.0,9212.0,4958.0,1323.0,130.0
546685,County,2020/06/20,21.0,KY,21093.0,Hardin County,24836.0,85520.0,385500.0,96404.0,98584.0,46567.0,57585.0,47811.0,24101.0,9209.0,4003.0,1076.0,160.0
549889,County,2020/06/21,21.0,KY,21093.0,Hardin County,28739.0,81617.0,298478.0,66906.0,74791.0,34765.0,45980.0,38390.0,21687.0,8774.0,5729.0,1269.0,187.0
554669,County,2020/06/22,21.0,KY,21093.0,Hardin County,23947.0,86409.0,385717.0,102835.0,97947.0,46950.0,51542.0,45950.0,23380.0,10368.0,5102.0,1494.0,149.0
557823,County,2020/06/23,21.0,KY,21093.0,Hardin County,23195.0,87161.0,397291.0,102941.0,95275.0,42828.0,58751.0,52730.0,28703.0,9754.0,4191.0,1942.0,176.0
561065,County,2020/06/24,21.0,KY,21093.0,Hardin County,25032.0,85324.0,380683.0,95737.0,96166.0,40920.0,49711.0,51444.0,30329.0,9692.0,4658.0,1850.0,176.0
562644,County,2020/06/25,21.0,KY,21093.0,Hardin County,23295.0,87061.0,400392.0,98081.0,105498.0,42933.0,58170.0,52222.0,27730.0,9469.0,4498.0,1599.0,192.0
567488,County,2020/06/26,21.0,KY,21093.0,Hardin County,24591.0,85765.0,386032.0,89910.0,100079.0,43723.0,55511.0,53506.0,27591.0,10003.0,4030.0,1448.0,231.0
569069,County,2020/06/27,21.0,KY,21093.0,Hardin County,26512.0,83844.0,364336.0,84083.0,93664.0,43960.0,56477.0,46945.0,24042.0,9732.0,3622.0,1541.0,270.0
572228,County,2020/06/28,21.0,KY,21093.0,Hardin County,29254.0,81102.0,304041.0,68067.0,78402.0,34953.0,46010.0,41942.0,19255.0,9498.0,4035.0,1666.0,213.0
577002,County,2020/06/29,21.0,KY,21093.0,Hardin County,24741.0,85615.0,343107.0,70153.0,87063.0,40812.0,52949.0,49669.0,26575.0,10317.0,3932.0,1376.0,261.0
578644,County,2020/06/30,21.0,KY,21093.0,Hardin County,24893.0,85463.0,331690.0,73177.0,83395.0,38789.0,47625.0,46399.0,26053.0,9063.0,4880.0,1968.0,341.0
583395,County,2020/07/01,21.0,KY,21093.0,Hardin County,24284.0,86072.0,343552.0,77137.0,83956.0,38692.0,50651.0,46299.0,29130.0,10348.0,5695.0,1369.0,275.0
586584,County,2020/07/02,21.0,KY,21093.0,Hardin County,26023.0,84333.0,424978.0,104104.0,111976.0,45569.0,61742.0,55429.0,29433.0,10050.0,4774.0,1697.0,204.0
588220,County,2020/07/03,21.0,KY,21093.0,Hardin County,27668.0,82688.0,383858.0,89403.0,99515.0,43477.0,55198.0,53205.0,27436.0,9947.0,4007.0,1440.0,230.0
591430,County,2020/07/04,21.0,KY,21093.0,Hardin County,29976.0,80380.0,328400.0,76487.0,85138.0,37195.0,47223.0,45518.0,23472.0,8510.0,3428.0,1232.0,197.0
596176,County,2020/07/05,21.0,KY,21093.0,Hardin County,26761.0,83595.0,292755.0,62172.0,73483.0,30265.0,44286.0,43681.0,24305.0,8692.0,4397.0,1042.0,432.0
598477,County,2020/07/06,21.0,KY,21093.0,Hardin County,25981.0,84375.0,326400.0,72788.0,80290.0,35842.0,47072.0,46837.0,27304.0,9575.0,5119.0,1162.0,411.0
602967,County,2020/07/07,21.0,KY,21093.0,Hardin County,25168.0,85188.0,341654.0,79477.0,82782.0,36297.0,51416.0,49496.0,27658.0,8814.0,4383.0,934.0,397.0
605682,County,2020/07/08,21.0,KY,21093.0,Hardin County,24922.0,85434.0,341685.0,78480.0,86727.0,35812.0,48767.0,48232.0,26897.0,10282.0,4604.0,1458.0,426.0
608936,County,2020/07/09,21.0,KY,21093.0,Hardin County,25406.0,84950.0,351716.0,80526.0,90088.0,38549.0,48783.0,51923.0,27705.0,8525.0,3921.0,1386.0,310.0
610559,County,2020/07/10,21.0,KY,21093.0,Hardin County,24362.0,85994.0,366903.0,83952.0,92351.0,38123.0,54602.0,52984.0,28835.0,9896.0,4434.0,1410.0,316.0
613769,County,2020/07/11,21.0,KY,21093.0,Hardin County,26747.0,83609.0,340307.0,81229.0,82700.0,36669.0,51708.0,43397.0,29169.0,9942.0,4087.0,996.0,410.0
618543,County,2020/07/12,21.0,KY,21093.0,Hardin County,28487.0,81869.0,284236.0,61952.0,71831.0,33359.0,43659.0,36823.0,21504.0,9329.0,4043.0,1413.0,323.0
621700,County,2020/07/13,21.0,KY,21093.0,Hardin County,25434.0,84922.0,384568.0,111753.0,91430.0,39090.0,54263.0,45504.0,28359.0,8261.0,4304.0,1294.0,310.0
623331,County,2020/07/14,21.0,KY,21093.0,Hardin County,26442.0,83914.0,344858.0,78701.0,85751.0,41043.0,53852.0,46675.0,25771.0,7494.0,4103.0,1231.0,237.0
626453,County,2020/07/15,21.0,KY,21093.0,Hardin County,25933.0,84423.0,354838.0,80519.0,92008.0,42606.0,52468.0,46223.0,28064.0,8291.0,3484.0,1064.0,111.0
631383,County,2020/07/16,21.0,KY,21093.0,Hardin County,26619.0,83737.0,344785.0,71871.0,92382.0,42031.0,53433.0,48141.0,24322.0,7809.0,3734.0,942.0,120.0
632944,County,2020/07/17,21.0,KY,21093.0,Hardin County,25715.0,84641.0,342576.0,73908.0,86765.0,41991.0,50780.0,49518.0,26531.0,8284.0,3789.0,889.0,121.0
636106,County,2020/07/18,21.0,KY,21093.0,Hardin County,28957.0,81399.0,344339.0,71646.0,85708.0,44107.0,56560.0,50193.0,23159.0,9001.0,3098.0,728.0,139.0
640883,County,2020/07/19,21.0,KY,21093.0,Hardin County,30698.0,79658.0,282080.0,58626.0,73556.0,28777.0,46820.0,39062.0,22587.0,7564.0,3744.0,1108.0,236.0
644092,County,2020/07/20,21.0,KY,21093.0,Hardin County,28602.0,81754.0,335167.0,77278.0,80723.0,40136.0,51383.0,47038.0,26379.0,7769.0,3327.0,1006.0,128.0
645720,County,2020/07/21,21.0,KY,21093.0,Hardin County,27187.0,83169.0,333968.0,74386.0,82599.0,35084.0,53962.0,46274.0,28225.0,8229.0,3762.0,1261.0,186.0
648401,County,2020/07/22,21.0,KY,21093.0,Hardin County,26375.0,83981.0,340015.0,75555.0,85062.0,39068.0,48257.0,50467.0,26883.0,9237.0,4070.0,1224.0,192.0
653643,County,2020/07/23,21.0,KY,21093.0,Hardin County,27572.0,82784.0,329593.0,77229.0,78905.0,37223.0,45801.0,46801.0,28052.0,10257.0,3872.0,1158.0,295.0
656868,County,2020/07/24,21.0,KY,21093.0,Hardin County,25575.0,84781.0,368617.0,86999.0,90119.0,38968.0,56521.0,51544.0,29361.0,9302.0,4429.0,1128.0,246.0
660134,County,2020/07/25,21.0,KY,21093.0,Hardin County,29079.0,81277.0,330598.0,74320.0,81380.0,38209.0,50880.0,46869.0,24978.0,9035.0,3634.0,1047.0,246.0
661658,County,2020/07/26,21.0,KY,21093.0,Hardin County,29020.0,81336.0,307360.0,68403.0,75286.0,32191.0,48410.0,40986.0,26899.0,9542.0,4128.0,1236.0,279.0
664954,County,2020/07/27,21.0,KY,21093.0,Hardin County,28090.0,82266.0,336951.0,75431.0,82202.0,39200.0,51364.0,45452.0,28140.0,9746.0,3905.0,1184.0,327.0
668067,County,2020/07/28,21.0,KY,21093.0,Hardin County,26986.0,83370.0,351762.0,80564.0,87584.0,38468.0,53782.0,47578.0,28303.0,10445.0,3529.0,1222.0,287.0
672951,County,2020/07/29,21.0,KY,21093.0,Hardin County,27557.0,82799.0,350777.0,77879.0,90209.0,37580.0,53349.0,47616.0,27815.0,11151.0,3908.0,944.0,326.0
674434,County,2020/07/30,21.0,KY,21093.0,Hardin County,25460.0,84896.0,341128.0,68343.0,85704.0,41134.0,54052.0,47692.0,28524.0,9792.0,3884.0,1621.0,382.0
677635,County,2020/07/31,21.0,KY,21093.0,Hardin County,26601.0,83755.0,333032.0,71240.0,83356.0,36657.0,51779.0,44546.0,28216.0,10665.0,4376.0,1812.0,385.0
682382,County,2020/08/01,21.0,KY,21093.0,Hardin County,29266.0,81090.0,308111.0,66369.0,77247.0,36142.0,48214.0,38862.0,25411.0,9898.0,4270.0,1377.0,321.0
685622,County,2020/08/02,21.0,KY,21093.0,Hardin County,28996.0,81360.0,310368.0,70454.0,80401.0,32162.0,46576.0,38874.0,26001.0,10082.0,4520.0,993.0,305.0
687211,County,2020/08/03,21.0,KY,21093.0,Hardin County,26262.0,84094.0,350708.0,73964.0,92391.0,38337.0,52770.0,48992.0,29858.0,8484.0,4349.0,1426.0,137.0
691987,County,2020/08/04,21.0,KY,21093.0,Hardin County,25539.0,84817.0,372306.0,82781.0,89988.0,40844.0,57850.0,56976.0,28540.0,9416.0,4635.0,1172.0,104.0
693616,County,2020/08/05,21.0,KY,21093.0,Hardin County,24746.0,85610.0,388484.0,92517.0,97762.0,42450.0,58490.0,54584.0,27810.0,9466.0,4144.0,1148.0,113.0
696822,County,2020/08/06,21.0,KY,21093.0,Hardin County,24667.0,85689.0,400658.0,95116.0,100638.0,43765.0,61992.0,54789.0,27395.0,11831.0,3862.0,1151.0,119.0
701553,County,2020/08/07,21.0,KY,21093.0,Hardin County,24054.0,86302.0,401496.0,89931.0,99933.0,46322.0,62882.0,56359.0,30101.0,10669.0,4260.0,941.0,98.0
703183,County,2020/08/08,21.0,KY,21093.0,Hardin County,25711.0,84645.0,355817.0,74137.0,84617.0,41093.0,57389.0,55447.0,26962.0,10918.0,4222.0,896.0,136.0
707965,County,2020/08/09,21.0,KY,21093.0,Hardin County,28699.0,81657.0,337787.0,77613.0,78126.0,37200.0,56288.0,46663.0,26166.0,10687.0,3667.0,1156.0,221.0
711183,County,2020/08/10,21.0,KY,21093.0,Hardin County,25753.0,84603.0,355725.0,73176.0,89060.0,41653.0,55609.0,52409.0,28112.0,10109.0,4362.0,1138.0,97.0
714424,County,2020/08/11,21.0,KY,21093.0,Hardin County,26773.0,83583.0,372362.0,84002.0,89655.0,40547.0,54849.0,56641.0,30066.0,11295.0,3948.0,1234.0,125.0
715957,County,2020/08/12,21.0,KY,21093.0,Hardin County,26072.0,84284.0,344004.0,68420.0,90340.0,39671.0,51215.0,50101.0,28525.0,9518.0,4287.0,1519.0,408.0
720717,County,2020/08/13,21.0,KY,21093.0,Hardin County,25001.0,85355.0,328151.0,64916.0,78326.0,38275.0,49532.0,49568.0,29599.0,11037.0,4504.0,1899.0,495.0
723943,County,2020/08/14,21.0,KY,21093.0,Hardin County,23695.0,86661.0,361121.0,72999.0,85686.0,41758.0,58069.0,54241.0,30498.0,11468.0,4391.0,1503.0,508.0
727154,County,2020/08/15,21.0,KY,21093.0,Hardin County,25074.0,85282.0,343333.0,73353.0,84169.0,39455.0,51188.0,47621.0,29613.0,11788.0,4338.0,1247.0,561.0
728733,County,2020/08/16,21.0,KY,21093.0,Hardin County,28476.0,81880.0,314882.0,66427.0,72983.0,34283.0,47457.0,46822.0,28670.0,11096.0,4730.0,1469.0,945.0
733514,County,2020/08/17,21.0,KY,21093.0,Hardin County,28009.0,82347.0,337567.0,64265.0,80269.0,38622.0,55254.0,50974.0,28988.0,11560.0,5171.0,1779.0,685.0
735141,County,2020/08/18,21.0,KY,21093.0,Hardin County,27070.0,83286.0,316961.0,61317.0,74914.0,33597.0,47332.0,47471.0,33719.0,10426.0,5322.0,1975.0,888.0
738347,County,2020/08/19,21.0,KY,21093.0,Hardin County,25532.0,84824.0,345613.0,75914.0,86799.0,38312.0,46790.0,48483.0,30762.0,11309.0,4227.0,2109.0,908.0
741508,County,2020/08/20,21.0,KY,21093.0,Hardin County,24591.0,85765.0,354863.0,73691.0,88144.0,39031.0,53096.0,52279.0,30450.0,10530.0,4982.0,1899.0,761.0
744708,County,2020/08/21,21.0,KY,21093.0,Hardin County,23707.0,86649.0,369801.0,76808.0,90611.0,47484.0,55364.0,50892.0,30534.0,10933.0,4893.0,1527.0,755.0
749490,County,2020/08/22,21.0,KY,21093.0,Hardin County,25815.0,84541.0,353706.0,72505.0,89289.0,43107.0,57302.0,48870.0,26298.0,9944.0,3988.0,1606.0,797.0
751106,County,2020/08/23,21.0,KY,21093.0,Hardin County,29728.0,80628.0,282862.0,54432.0,69265.0,32316.0,50362.0,41170.0,21611.0,7546.0,4166.0,1282.0,712.0
754330,County,2020/08/24,21.0,KY,21093.0,Hardin County,27629.0,82727.0,318195.0,64989.0,76863.0,37729.0,52672.0,45150.0,26358.0,8955.0,3202.0,1650.0,627.0
759090,County,2020/08/25,21.0,KY,21093.0,Hardin County,26435.0,83921.0,334502.0,70980.0,85517.0,37350.0,52202.0,47618.0,25746.0,9055.0,3938.0,1486.0,610.0
760673,County,2020/08/26,21.0,KY,21093.0,Hardin County,26522.0,83834.0,319511.0,63812.0,80445.0,36740.0,50629.0,44696.0,28758.0,8913.0,3589.0,1361.0,568.0
765446,County,2020/08/27,21.0,KY,21093.0,Hardin County,26931.0,83425.0,341378.0,71717.0,87087.0,40025.0,51730.0,47580.0,28876.0,8859.0,3785.0,1405.0,314.0
768661,County,2020/08/28,21.0,KY,21093.0,Hardin County,26185.0,84171.0,335888.0,76649.0,80619.0,37955.0,52259.0,45321.0,27684.0,9802.0,3854.0,1118.0,627.0
770289,County,2020/08/29,21.0,KY,21093.0,Hardin County,27944.0,82412.0,317301.0,62828.0,80788.0,35818.0,52312.0,43815.0,26902.0,9882.0,3203.0,1161.0,592.0
775079,County,2020/08/30,21.0,KY,21093.0,Hardin County,30558.0,79798.0,288829.0,56740.0,76138.0,32880.0,47048.0,39469.0,22782.0,7649.0,4082.0,1471.0,570.0
778220,County,2020/08/31,21.0,KY,21093.0,Hardin County,26814.0,83542.0,299845.0,56327.0,76517.0,34493.0,48267.0,41230.0,26700.0,9609.0,4285.0,1731.0,686.0
779831,County,2020/09/01,21.0,KY,21093.0,Hardin County,27173.0,83183.0,330877.0,64467.0,83854.0,34042.0,51881.0,49634.0,30042.0,10694.0,4313.0,1718.0,232.0
783026,County,2020/09/02,21.0,KY,21093.0,Hardin County,27245.0,83111.0,335785.0,65968.0,84052.0,37468.0,51668.0,50603.0,29435.0,10246.0,4501.0,1412.0,432.0
787814,County,2020/09/03,21.0,KY,21093.0,Hardin County,24804.0,85552.0,347897.0,70187.0,87465.0,37381.0,59328.0,46038.0,29783.0,11073.0,4528.0,1685.0,429.0
791005,County,2020/09/04,21.0,KY,21093.0,Hardin County,26578.0,83778.0,356814.0,76818.0,89469.0,42490.0,48617.0,50933.0,31337.0,9551.0,5700.0,1499.0,400.0
794195,County,2020/09/05,21.0,KY,21093.0,Hardin County,27134.0,83222.0,361760.0,79300.0,87919.0,40845.0,59692.0,49164.0,28396.0,10608.0,4181.0,1304.0,351.0
797398,County,2020/09/06,21.0,KY,21093.0,Hardin County,30870.0,79486.0,302443.0,64541.0,77537.0,31901.0,50362.0,39843.0,23445.0,8906.0,4191.0,1379.0,338.0
799008,County,2020/09/07,21.0,KY,21093.0,Hardin County,31375.0,78981.0,280646.0,54998.0,74860.0,29326.0,43408.0,39763.0,22459.0,8834.0,4977.0,1559.0,462.0
802221,County,2020/09/08,21.0,KY,21093.0,Hardin County,29047.0,81309.0,335153.0,65019.0,81564.0,39014.0,56778.0,48212.0,28468.0,10104.0,4290.0,1216.0,488.0
807002,County,2020/09/09,21.0,KY,21093.0,Hardin County,27270.0,83086.0,349137.0,68949.0,86524.0,41533.0,56502.0,49427.0,29902.0,9983.0,4566.0,1152.0,599.0
810157,County,2020/09/10,21.0,KY,21093.0,Hardin County,27639.0,82717.0,342655.0,68921.0,84057.0,37684.0,57601.0,48657.0,28895.0,10055.0,5015.0,1315.0,455.0
811786,County,2020/09/11,21.0,KY,21093.0,Hardin County,26781.0,83575.0,371955.0,76431.0,96729.0,41438.0,57955.0,54557.0,30766.0,8092.0,4634.0,1001.0,352.0
816537,County,2020/09/12,21.0,KY,21093.0,Hardin County,28983.0,81373.0,340373.0,75193.0,88026.0,36648.0,52180.0,47980.0,26343.0,8489.0,4124.0,1025.0,365.0
818192,County,2020/09/13,21.0,KY,21093.0,Hardin County,30932.0,79424.0,305610.0,78688.0,78126.0,25864.0,41123.0,41602.0,26945.0,7893.0,3601.0,1048.0,720.0
821397,County,2020/09/14,21.0,KY,21093.0,Hardin County,27952.0,82404.0,345431.0,65306.0,87656.0,42351.0,57949.0,51662.0,26832.0,7750.0,4425.0,1011.0,489.0
824553,County,2020/09/15,21.0,KY,21093.0,Hardin County,27702.0,82654.0,377973.0,85691.0,93203.0,43158.0,59551.0,52538.0,28842.0,8376.0,4949.0,1240.0,425.0
829360,County,2020/09/16,21.0,KY,21093.0,Hardin County,27131.0,83225.0,367271.0,73286.0,93733.0,41247.0,62001.0,52945.0,28638.0,8530.0,5305.0,1150.0,436.0
832537,County,2020/09/17,21.0,KY,21093.0,Hardin County,26668.0,83688.0,367421.0,71741.0,90625.0,45248.0,61956.0,52195.0,30231.0,8353.0,5152.0,1418.0,502.0
834166,County,2020/09/18,21.0,KY,21093.0,Hardin County,26825.0,83531.0,382409.0,74299.0,101353.0,43314.0,61671.0,54149.0,31120.0,9479.0,5379.0,1309.0,336.0
837328,County,2020/09/19,21.0,KY,21093.0,Hardin County,28061.0,82295.0,404764.0,100722.0,101283.0,46005.0,62681.0,53276.0,25536.0,8692.0,4928.0,1287.0,354.0
842104,County,2020/09/20,21.0,KY,21093.0,Hardin County,28897.0,81459.0,323184.0,70101.0,79530.0,38664.0,56406.0,44644.0,22017.0,6368.0,3991.0,1168.0,295.0
843732,County,2020/09/21,21.0,KY,21093.0,Hardin County,28461.0,81895.0,322258.0,67947.0,81807.0,34411.0,52599.0,45871.0,26095.0,8293.0,3621.0,1464.0,150.0
846936,County,2020/09/22,21.0,KY,21093.0,Hardin County,26481.0,83875.0,406099.0,103286.0,101590.0,41839.0,59274.0,55819.0,30056.0,9413.0,3403.0,1275.0,144.0
851714,County,2020/09/23,21.0,KY,21093.0,Hardin County,23946.0,86410.0,372597.0,78542.0,94435.0,43564.0,57161.0,56713.0,27715.0,9175.0,3861.0,1318.0,113.0
854870,County,2020/09/24,21.0,KY,21093.0,Hardin County,24580.0,85776.0,379048.0,74291.0,98966.0,46267.0,64197.0,54095.0,27736.0,8539.0,3765.0,1001.0,191.0
856499,County,2020/09/25,21.0,KY,21093.0,Hardin County,23302.0,87054.0,397408.0,80461.0,96732.0,48667.0,67565.0,62819.0,28904.0,7683.0,3480.0,939.0,158.0
861252,County,2020/09/26,21.0,KY,21093.0,Hardin County,26122.0,84234.0,388002.0,82125.0,103113.0,45935.0,65013.0,51825.0,27499.0,8858.0,2790.0,707.0,137.0
862906,County,2020/09/27,21.0,KY,21093.0,Hardin County,27730.0,82626.0,330930.0,67223.0,81776.0,42136.0,57133.0,46438.0,22094.0,8826.0,3961.0,1235.0,108.0
866109,County,2020/09/28,21.0,KY,21093.0,Hardin County,25722.0,84634.0,345071.0,62649.0,90087.0,39161.0,60391.0,50781.0,29119.0,7867.0,3999.0,909.0,108.0
869268,County,2020/09/29,21.0,KY,21093.0,Hardin County,25271.0,85085.0,360899.0,67069.0,92612.0,40156.0,60736.0,54006.0,32215.0,9156.0,3878.0,967.0,104.0
874047,County,2020/09/30,21.0,KY,21093.0,Hardin County,25427.0,84929.0,373972.0,72607.0,94670.0,40536.0,58368.0,56462.0,33631.0,12494.0,4091.0,1014.0,99.0
875675,County,2020/10/01,21.0,KY,21093.0,Hardin County,23785.0,86571.0,740956.0,352941.0,176960.0,44674.0,65922.0,55280.0,30642.0,8870.0,4409.0,1128.0,130.0
878878,County,2020/10/02,21.0,KY,21093.0,Hardin County,23360.0,86996.0,376778.0,78001.0,95328.0,44633.0,60114.0,55018.0,29309.0,7916.0,5257.0,1057.0,145.0
883660,County,2020/10/03,21.0,KY,21093.0,Hardin County,26132.0,84224.0,375286.0,76204.0,93849.0,44191.0,59457.0,58763.0,29736.0,8514.0,3793.0,675.0,104.0
885709,County,2020/10/04,21.0,KY,21093.0,Hardin County,28853.0,81503.0,300942.0,55636.0,79379.0,35640.0,49042.0,44847.0,21502.0,9955.0,3870.0,913.0,158.0
888955,County,2020/10/05,21.0,KY,21093.0,Hardin County,28726.0,81630.0,323233.0,60260.0,82034.0,36681.0,53533.0,47110.0,29414.0,9440.0,3879.0,802.0,80.0
892141,County,2020/10/06,21.0,KY,21093.0,Hardin County,25989.0,84367.0,349538.0,67249.0,83008.0,38641.0,59339.0,52018.0,33651.0,10409.0,4164.0,956.0,103.0
895328,County,2020/10/07,21.0,KY,21093.0,Hardin County,24218.0,86138.0,367709.0,70088.0,84860.0,41286.0,63203.0,57294.0,35797.0,10007.0,4112.0,948.0,114.0
898513,County,2020/10/08,21.0,KY,21093.0,Hardin County,25877.0,84479.0,339667.0,62030.0,86701.0,37378.0,53164.0,50907.0,33151.0,11394.0,3887.0,926.0,129.0
901749,County,2020/10/09,21.0,KY,21093.0,Hardin County,25164.0,85192.0,370813.0,72691.0,91904.0,40323.0,60924.0,56576.0,31603.0,12473.0,3366.0,848.0,105.0
904936,County,2020/10/10,21.0,KY,21093.0,Hardin County,28307.0,82049.0,339143.0,63254.0,85060.0,43084.0,54508.0,50323.0,29015.0,9519.0,3374.0,899.0,107.0
909717,County,2020/10/11,21.0,KY,21093.0,Hardin County,29340.0,81016.0,286475.0,53725.0,72319.0,33446.0,46505.0,41956.0,25819.0,7966.0,3776.0,858.0,105.0
912661,County,2020/10/12,21.0,KY,21093.0,Hardin County,26595.0,83761.0,336648.0,66735.0,87113.0,33322.0,52883.0,48962.0,32783.0,10217.0,3424.0,1125.0,84.0
915527,County,2020/10/13,21.0,KY,21093.0,Hardin County,24863.0,85493.0,361031.0,71703.0,87246.0,40668.0,59771.0,55068.0,32560.0,9288.0,3560.0,1064.0,103.0
918848,County,2020/10/14,21.0,KY,21093.0,Hardin County,25041.0,85315.0,371014.0,69442.0,94423.0,41681.0,61598.0,57560.0,30719.0,10376.0,4157.0,935.0,123.0
922371,County,2020/10/15,21.0,KY,21093.0,Hardin County,26282.0,84074.0,328759.0,63669.0,81858.0,35367.0,51538.0,51871.0,30373.0,8660.0,4156.0,1133.0,134.0
925432,County,2020/10/16,21.0,KY,21093.0,Hardin County,23636.0,86720.0,382790.0,75660.0,97484.0,43380.0,62328.0,58544.0,30199.0,9934.0,4083.0,1037.0,141.0
928295,County,2020/10/17,21.0,KY,21093.0,Hardin County,27411.0,82945.0,355533.0,74614.0,90854.0,41448.0,55214.0,49478.0,28236.0,11032.0,3803.0,742.0,112.0
931364,County,2020/10/18,21.0,KY,21093.0,Hardin County,29248.0,81108.0,287803.0,55396.0,79050.0,31549.0,47094.0,38338.0,21953.0,9473.0,3815.0,992.0,143.0
935049,County,2020/10/19,21.0,KY,21093.0,Hardin County,26993.0,83363.0,316149.0,53777.0,78303.0,35833.0,53523.0,49348.0,30432.0,10003.0,3936.0,862.0,132.0
937894,County,2020/10/20,21.0,KY,21093.0,Hardin County,27161.0,83195.0,315777.0,57827.0,81915.0,32431.0,52161.0,46358.0,31019.0,9598.0,3502.0,843.0,123.0
941013,County,2020/10/21,21.0,KY,21093.0,Hardin County,27729.0,82627.0,322638.0,59069.0,81263.0,34794.0,52846.0,47214.0,32896.0,9103.0,4362.0,990.0,101.0
945155,County,2020/10/22,21.0,KY,21093.0,Hardin County,26530.0,83826.0,352845.0,69754.0,91098.0,38402.0,55451.0,50119.0,32779.0,10059.0,4291.0,799.0,93.0
947546,County,2020/10/23,21.0,KY,21093.0,Hardin County,25025.0,85331.0,378885.0,75025.0,98046.0,42115.0,61173.0,56257.0,30337.0,10581.0,4368.0,898.0,85.0
950793,County,2020/10/24,21.0,KY,21093.0,Hardin County,27796.0,82560.0,363574.0,74813.0,90114.0,41252.0,61818.0,50474.0,31663.0,9681.0,2876.0,809.0,74.0
