,Level,Date,State FIPS,State Postal Code,County FIPS,County Name,Population Staying at Home,Population Not Staying at Home,Number of Trips,Number of Trips <1,Number of Trips 1-3,Number of Trips 3-5,Number of Trips 5-10,Number of Trips 10-25,Number of Trips 25-50,Number of Trips 50-100,Number of Trips 100-250,Number of Trips 250-500,Number of Trips >=500
2402,County,2020/01/01,46.0,SD,46085.0,Lyman County,777.0,3044.0,10270.0,1194.0,2411.0,1081.0,1898.0,2164.0,711.0,616.0,135.0,15.0,45.0
4623,County,2020/01/02,46.0,SD,46085.0,Lyman County,639.0,3182.0,10046.0,1801.0,2390.0,1199.0,1202.0,2570.0,496.0,179.0,176.0,9.0,24.0
6604,County,2020/01/03,46.0,SD,46085.0,Lyman County,599.0,3222.0,11361.0,2044.0,3027.0,1415.0,2046.0,1749.0,482.0,391.0,171.0,21.0,15.0
10575,County,2020/01/04,46.0,SD,46085.0,Lyman County,709.0,3112.0,10689.0,1448.0,1739.0,1215.0,2297.0,2338.0,947.0,488.0,149.0,34.0,34.0
15178,County,2020/01/05,46.0,SD,46085.0,Lyman County,723.0,3098.0,7338.0,1108.0,1231.0,1000.0,958.0,1729.0,658.0,332.0,270.0,19.0,33.0
17196,County,2020/01/06,46.0,SD,46085.0,Lyman County,545.0,3276.0,12623.0,1968.0,2651.0,1254.0,1788.0,3136.0,1304.0,409.0,90.0,16.0,7.0
20354,County,2020/01/07,46.0,SD,46085.0,Lyman County,594.0,3227.0,12685.0,1516.0,3118.0,1042.0,2673.0,2085.0,1392.0,711.0,110.0,16.0,22.0
23633,County,2020/01/08,46.0,SD,46085.0,Lyman County,558.0,3263.0,10819.0,1649.0,2528.0,1456.0,1345.0,2377.0,943.0,480.0,18.0,16.0,7.0
28333,County,2020/01/09,46.0,SD,46085.0,Lyman County,605.0,3216.0,10237.0,1813.0,2387.0,941.0,550.0,2588.0,1248.0,532.0,125.0,24.0,29.0
29975,County,2020/01/10,46.0,SD,46085.0,Lyman County,621.0,3200.0,12258.0,1698.0,2507.0,1170.0,2327.0,2029.0,1693.0,651.0,125.0,8.0,50.0
34734,County,2020/01/11,46.0,SD,46085.0,Lyman County,708.0,3113.0,10500.0,1557.0,1553.0,2011.0,1381.0,2361.0,696.0,547.0,320.0,18.0,56.0
37854,County,2020/01/12,46.0,SD,46085.0,Lyman County,742.0,3079.0,11118.0,871.0,1682.0,1383.0,1973.0,3892.0,876.0,271.0,118.0,4.0,48.0
39566,County,2020/01/13,46.0,SD,46085.0,Lyman County,557.0,3264.0,10230.0,1080.0,1967.0,1744.0,1021.0,3345.0,631.0,303.0,100.0,19.0,20.0
42728,County,2020/01/14,46.0,SD,46085.0,Lyman County,615.0,3206.0,11018.0,1252.0,2206.0,1381.0,1481.0,2993.0,888.0,640.0,158.0,12.0,7.0
47505,County,2020/01/15,46.0,SD,46085.0,Lyman County,664.0,3157.0,11920.0,1630.0,2828.0,1794.0,1431.0,2774.0,1121.0,213.0,93.0,13.0,23.0
50661,County,2020/01/16,46.0,SD,46085.0,Lyman County,643.0,3178.0,9593.0,952.0,2531.0,835.0,977.0,2019.0,1511.0,617.0,111.0,21.0,19.0
52289,County,2020/01/17,46.0,SD,46085.0,Lyman County,687.0,3134.0,8779.0,1809.0,1058.0,1399.0,1809.0,1768.0,533.0,307.0,67.0,15.0,14.0
57070,County,2020/01/18,46.0,SD,46085.0,Lyman County,776.0,3045.0,7934.0,1062.0,1436.0,1341.0,1412.0,1789.0,582.0,187.0,82.0,27.0,16.0
58670,County,2020/01/19,46.0,SD,46085.0,Lyman County,673.0,3148.0,10326.0,1289.0,2531.0,1151.0,2289.0,1766.0,944.0,240.0,53.0,28.0,35.0
61902,County,2020/01/20,46.0,SD,46085.0,Lyman County,633.0,3188.0,11510.0,2116.0,1463.0,1318.0,2602.0,2390.0,834.0,559.0,169.0,21.0,38.0
65059,County,2020/01/21,46.0,SD,46085.0,Lyman County,649.0,3172.0,12788.0,2091.0,2911.0,1803.0,1726.0,3034.0,712.0,299.0,187.0,17.0,8.0
68260,County,2020/01/22,46.0,SD,46085.0,Lyman County,563.0,3258.0,11883.0,2155.0,2185.0,1993.0,2073.0,2290.0,801.0,231.0,118.0,23.0,14.0
73051,County,2020/01/23,46.0,SD,46085.0,Lyman County,673.0,3148.0,11165.0,2127.0,1587.0,1564.0,1510.0,3208.0,792.0,204.0,143.0,16.0,14.0
76208,County,2020/01/24,46.0,SD,46085.0,Lyman County,541.0,3280.0,13007.0,1959.0,2350.0,2362.0,1585.0,3058.0,1106.0,435.0,111.0,28.0,13.0
79443,County,2020/01/25,46.0,SD,46085.0,Lyman County,655.0,3166.0,11423.0,1706.0,1699.0,1650.0,2141.0,2297.0,1402.0,337.0,164.0,7.0,20.0
82252,County,2020/01/26,46.0,SD,46085.0,Lyman County,686.0,3135.0,9690.0,1724.0,1747.0,744.0,2321.0,1488.0,1256.0,302.0,76.0,17.0,15.0
85806,County,2020/01/27,46.0,SD,46085.0,Lyman County,624.0,3197.0,12577.0,2211.0,2858.0,826.0,1450.0,3080.0,1522.0,470.0,120.0,12.0,28.0
87479,County,2020/01/28,46.0,SD,46085.0,Lyman County,634.0,3187.0,10875.0,1572.0,2749.0,1156.0,1394.0,2457.0,784.0,490.0,231.0,15.0,27.0
92213,County,2020/01/29,46.0,SD,46085.0,Lyman County,541.0,3280.0,11671.0,2020.0,2937.0,1320.0,2194.0,2085.0,352.0,544.0,175.0,25.0,19.0
95419,County,2020/01/30,46.0,SD,46085.0,Lyman County,560.0,3261.0,13457.0,2412.0,2356.0,1699.0,2623.0,2923.0,885.0,390.0,124.0,7.0,38.0
98613,County,2020/01/31,46.0,SD,46085.0,Lyman County,533.0,3288.0,14352.0,2256.0,1908.0,2389.0,2562.0,3187.0,1249.0,519.0,227.0,24.0,31.0
100242,County,2020/02/01,46.0,SD,46085.0,Lyman County,713.0,3108.0,14016.0,2412.0,2852.0,1847.0,2255.0,2811.0,930.0,670.0,183.0,12.0,44.0
103370,County,2020/02/02,46.0,SD,46085.0,Lyman County,646.0,3175.0,10271.0,1235.0,1829.0,1193.0,2487.0,1865.0,702.0,778.0,153.0,8.0,21.0
108206,County,2020/02/03,46.0,SD,46085.0,Lyman County,630.0,3191.0,12157.0,1586.0,1975.0,1717.0,2050.0,3162.0,1094.0,394.0,141.0,32.0,6.0
109823,County,2020/02/04,46.0,SD,46085.0,Lyman County,620.0,3201.0,11938.0,1653.0,2331.0,1772.0,2534.0,2035.0,1235.0,103.0,225.0,20.0,30.0
114544,County,2020/02/05,46.0,SD,46085.0,Lyman County,552.0,3269.0,13756.0,2538.0,2747.0,2079.0,1938.0,2730.0,1175.0,305.0,193.0,27.0,24.0
117751,County,2020/02/06,46.0,SD,46085.0,Lyman County,639.0,3182.0,12945.0,1762.0,2187.0,1193.0,1513.0,4046.0,1583.0,415.0,197.0,31.0,18.0
121006,County,2020/02/07,46.0,SD,46085.0,Lyman County,486.0,3335.0,14350.0,2180.0,2068.0,1746.0,2452.0,3669.0,1432.0,456.0,266.0,33.0,48.0
124166,County,2020/02/08,46.0,SD,46085.0,Lyman County,579.0,3242.0,10038.0,1602.0,1053.0,1358.0,1490.0,2378.0,1106.0,798.0,181.0,41.0,31.0
126416,County,2020/02/09,46.0,SD,46085.0,Lyman County,716.0,3105.0,10814.0,1873.0,1543.0,1426.0,1702.0,2626.0,950.0,446.0,182.0,50.0,16.0
130711,County,2020/02/10,46.0,SD,46085.0,Lyman County,632.0,3189.0,13535.0,2490.0,3184.0,1096.0,2042.0,2671.0,1288.0,464.0,234.0,28.0,38.0
133274,County,2020/02/11,46.0,SD,46085.0,Lyman County,518.0,3303.0,13927.0,2401.0,2505.0,2090.0,2038.0,3196.0,1135.0,303.0,200.0,27.0,32.0
134275,County,2020/02/12,46.0,SD,46085.0,Lyman County,611.0,3210.0,12622.0,2397.0,2332.0,1666.0,1815.0,2587.0,789.0,780.0,171.0,53.0,32.0
140135,County,2020/02/13,46.0,SD,46085.0,Lyman County,545.0,3276.0,14161.0,1864.0,2942.0,1708.0,1607.0,3419.0,1590.0,797.0,153.0,47.0,34.0
141616,County,2020/02/14,46.0,SD,46085.0,Lyman County,552.0,3269.0,13329.0,2469.0,1624.0,2175.0,1684.0,2753.0,1713.0,601.0,220.0,66.0,24.0
146494,County,2020/02/15,46.0,SD,46085.0,Lyman County,610.0,3211.0,11458.0,1449.0,1527.0,1280.0,1981.0,3087.0,1144.0,629.0,275.0,58.0,28.0
149696,County,2020/02/16,46.0,SD,46085.0,Lyman County,769.0,3052.0,11205.0,1263.0,1964.0,1935.0,2852.0,1782.0,952.0,121.0,248.0,60.0,28.0
151327,County,2020/02/17,46.0,SD,46085.0,Lyman County,765.0,3056.0,10599.0,1522.0,1899.0,1325.0,2022.0,1959.0,1042.0,632.0,158.0,30.0,10.0
156106,County,2020/02/18,46.0,SD,46085.0,Lyman County,488.0,3333.0,14092.0,2028.0,3109.0,1773.0,1498.0,3942.0,1187.0,446.0,60.0,43.0,6.0
159250,County,2020/02/19,46.0,SD,46085.0,Lyman County,516.0,3305.0,13171.0,2896.0,2449.0,1624.0,1612.0,2403.0,1738.0,221.0,162.0,40.0,26.0
160746,County,2020/02/20,46.0,SD,46085.0,Lyman County,618.0,3203.0,15171.0,2616.0,3298.0,1716.0,2190.0,3589.0,1354.0,162.0,214.0,24.0,8.0
164073,County,2020/02/21,46.0,SD,46085.0,Lyman County,536.0,3285.0,12879.0,2564.0,2483.0,1980.0,1198.0,2664.0,1433.0,249.0,234.0,49.0,25.0
168833,County,2020/02/22,46.0,SD,46085.0,Lyman County,603.0,3218.0,13711.0,2352.0,2584.0,2010.0,2822.0,1689.0,1221.0,797.0,183.0,17.0,36.0
170495,County,2020/02/23,46.0,SD,46085.0,Lyman County,658.0,3163.0,9886.0,1107.0,1331.0,1338.0,1658.0,1969.0,1765.0,534.0,144.0,32.0,8.0
173658,County,2020/02/24,46.0,SD,46085.0,Lyman County,626.0,3195.0,13229.0,2097.0,1833.0,2027.0,1472.0,3917.0,1163.0,510.0,192.0,11.0,7.0
178073,County,2020/02/25,46.0,SD,46085.0,Lyman County,651.0,3170.0,15263.0,3005.0,2355.0,1728.0,2865.0,3841.0,1112.0,201.0,132.0,15.0,9.0
181266,County,2020/02/26,46.0,SD,46085.0,Lyman County,522.0,3299.0,14976.0,2755.0,2560.0,1412.0,2125.0,5048.0,439.0,527.0,91.0,0.0,19.0
184847,County,2020/02/27,46.0,SD,46085.0,Lyman County,626.0,3195.0,16521.0,2389.0,3746.0,2214.0,2691.0,3579.0,1356.0,311.0,214.0,13.0,8.0
186573,County,2020/02/28,46.0,SD,46085.0,Lyman County,596.0,3225.0,13631.0,2759.0,3013.0,2121.0,1489.0,2631.0,1105.0,265.0,194.0,30.0,24.0
191191,County,2020/02/29,46.0,SD,46085.0,Lyman County,624.0,3197.0,12832.0,2402.0,2120.0,1701.0,2513.0,1881.0,1361.0,420.0,389.0,28.0,17.0
192815,County,2020/03/01,46.0,SD,46085.0,Lyman County,703.0,3118.0,10074.0,1996.0,1560.0,879.0,2004.0,1757.0,1207.0,413.0,241.0,0.0,17.0
197615,County,2020/03/02,46.0,SD,46085.0,Lyman County,553.0,3268.0,12164.0,1740.0,2078.0,1180.0,2242.0,2163.0,2063.0,512.0,112.0,20.0,54.0
199146,County,2020/03/03,46.0,SD,46085.0,Lyman County,525.0,3296.0,14382.0,2111.0,3036.0,1906.0,3543.0,2356.0,1055.0,58.0,256.0,40.0,21.0
203976,County,2020/03/04,46.0,SD,46085.0,Lyman County,544.0,3277.0,14313.0,1942.0,3820.0,2201.0,1830.0,2549.0,1258.0,484.0,159.0,59.0,11.0
207180,County,2020/03/05,46.0,SD,46085.0,Lyman County,564.0,3257.0,12850.0,2150.0,2373.0,2318.0,2354.0,1952.0,971.0,318.0,335.0,57.0,22.0
210444,County,2020/03/06,46.0,SD,46085.0,Lyman County,570.0,3251.0,13068.0,2293.0,2088.0,1690.0,1825.0,3251.0,1222.0,475.0,179.0,33.0,12.0
213626,County,2020/03/07,46.0,SD,46085.0,Lyman County,577.0,3244.0,14051.0,2004.0,1338.0,2445.0,2777.0,3309.0,1353.0,525.0,164.0,30.0,106.0
215228,County,2020/03/08,46.0,SD,46085.0,Lyman County,682.0,3139.0,9270.0,778.0,1696.0,1146.0,2513.0,1432.0,1243.0,224.0,164.0,21.0,53.0
218379,County,2020/03/09,46.0,SD,46085.0,Lyman County,576.0,3245.0,15737.0,2011.0,3040.0,2603.0,2610.0,3473.0,987.0,777.0,169.0,44.0,23.0
221614,County,2020/03/10,46.0,SD,46085.0,Lyman County,493.0,3328.0,11332.0,2387.0,2273.0,1345.0,589.0,2690.0,1460.0,292.0,256.0,40.0,0.0
224804,County,2020/03/11,46.0,SD,46085.0,Lyman County,523.0,3298.0,9792.0,1569.0,2911.0,1435.0,0.0,2008.0,1038.0,449.0,263.0,14.0,105.0
228037,County,2020/03/12,46.0,SD,46085.0,Lyman County,542.0,3279.0,18239.0,3350.0,2882.0,3719.0,3807.0,3411.0,448.0,323.0,283.0,16.0,0.0
231197,County,2020/03/13,46.0,SD,46085.0,Lyman County,520.0,3301.0,19350.0,2545.0,3186.0,2029.0,6612.0,4060.0,420.0,151.0,198.0,15.0,134.0
234249,County,2020/03/14,46.0,SD,46085.0,Lyman County,718.0,3103.0,14843.0,411.0,1868.0,884.0,8528.0,2651.0,0.0,461.0,0.0,0.0,40.0
237533,County,2020/03/15,46.0,SD,46085.0,Lyman County,875.0,2946.0,9621.0,1472.0,3270.0,504.0,2064.0,1513.0,243.0,351.0,154.0,35.0,15.0
240777,County,2020/03/16,46.0,SD,46085.0,Lyman County,621.0,3200.0,10587.0,2402.0,2330.0,661.0,387.0,2536.0,1755.0,287.0,176.0,22.0,31.0
245536,County,2020/03/17,46.0,SD,46085.0,Lyman County,688.0,3133.0,13066.0,2404.0,3664.0,1938.0,1600.0,2167.0,825.0,357.0,78.0,23.0,10.0
247114,County,2020/03/18,46.0,SD,46085.0,Lyman County,759.0,3062.0,10374.0,1532.0,2370.0,2072.0,1711.0,1707.0,618.0,127.0,195.0,31.0,11.0
251896,County,2020/03/19,46.0,SD,46085.0,Lyman County,647.0,3174.0,11022.0,1917.0,2451.0,1855.0,1221.0,2552.0,588.0,182.0,212.0,12.0,32.0
253555,County,2020/03/20,46.0,SD,46085.0,Lyman County,708.0,3113.0,14412.0,1920.0,2687.0,2825.0,2685.0,2944.0,596.0,430.0,269.0,24.0,32.0
256698,County,2020/03/21,46.0,SD,46085.0,Lyman County,904.0,2917.0,12486.0,2813.0,2878.0,2126.0,1493.0,2127.0,308.0,518.0,162.0,22.0,39.0
261500,County,2020/03/22,46.0,SD,46085.0,Lyman County,906.0,2915.0,10186.0,2453.0,1470.0,1593.0,1779.0,1304.0,1048.0,227.0,265.0,7.0,40.0
264663,County,2020/03/23,46.0,SD,46085.0,Lyman County,729.0,3092.0,13872.0,2831.0,2922.0,2267.0,1895.0,2808.0,547.0,338.0,247.0,17.0,0.0
267893,County,2020/03/24,46.0,SD,46085.0,Lyman County,684.0,3137.0,11006.0,1993.0,2408.0,2081.0,1538.0,1753.0,793.0,286.0,100.0,34.0,20.0
269523,County,2020/03/25,46.0,SD,46085.0,Lyman County,753.0,3068.0,11953.0,1713.0,2200.0,4459.0,435.0,1983.0,896.0,129.0,85.0,19.0,34.0
274264,County,2020/03/26,46.0,SD,46085.0,Lyman County,751.0,3070.0,10969.0,2466.0,2236.0,2403.0,844.0,2044.0,435.0,439.0,55.0,25.0,22.0
275904,County,2020/03/27,46.0,SD,46085.0,Lyman County,746.0,3075.0,8614.0,1703.0,2333.0,1434.0,774.0,1214.0,958.0,115.0,25.0,28.0,30.0
279057,County,2020/03/28,46.0,SD,46085.0,Lyman County,795.0,3026.0,7170.0,1642.0,1606.0,670.0,980.0,1564.0,404.0,175.0,102.0,6.0,21.0
283817,County,2020/03/29,46.0,SD,46085.0,Lyman County,969.0,2852.0,10012.0,1525.0,708.0,1340.0,2646.0,3016.0,485.0,175.0,77.0,9.0,31.0
285445,County,2020/03/30,46.0,SD,46085.0,Lyman County,778.0,3043.0,10268.0,3189.0,1478.0,874.0,1150.0,1748.0,1264.0,456.0,50.0,39.0,20.0
290248,County,2020/03/31,46.0,SD,46085.0,Lyman County,620.0,3201.0,10693.0,2918.0,2081.0,886.0,1037.0,1871.0,1425.0,360.0,45.0,25.0,45.0
293447,County,2020/04/01,46.0,SD,46085.0,Lyman County,651.0,3170.0,10271.0,2272.0,1417.0,931.0,2123.0,2327.0,875.0,194.0,85.0,38.0,9.0
296608,County,2020/04/02,46.0,SD,46085.0,Lyman County,869.0,2952.0,12772.0,2172.0,1145.0,1599.0,1943.0,4308.0,1336.0,128.0,112.0,6.0,23.0
298269,County,2020/04/03,46.0,SD,46085.0,Lyman County,693.0,3128.0,9653.0,1141.0,2221.0,1717.0,1595.0,1819.0,731.0,369.0,23.0,0.0,37.0
303016,County,2020/04/04,46.0,SD,46085.0,Lyman County,787.0,3034.0,9818.0,1905.0,1347.0,2450.0,1720.0,1348.0,620.0,128.0,252.0,25.0,23.0
304644,County,2020/04/05,46.0,SD,46085.0,Lyman County,944.0,2877.0,6649.0,1924.0,1571.0,338.0,593.0,1183.0,611.0,264.0,77.0,26.0,62.0
307851,County,2020/04/06,46.0,SD,46085.0,Lyman County,801.0,3020.0,13337.0,2856.0,3299.0,1734.0,1521.0,2168.0,1255.0,377.0,99.0,15.0,13.0
312608,County,2020/04/07,46.0,SD,46085.0,Lyman County,809.0,3012.0,11268.0,1991.0,2742.0,2075.0,1593.0,1687.0,751.0,338.0,59.0,20.0,12.0
315781,County,2020/04/08,46.0,SD,46085.0,Lyman County,876.0,2945.0,14603.0,2628.0,1839.0,2853.0,3339.0,2719.0,787.0,355.0,62.0,21.0,0.0
318950,County,2020/04/09,46.0,SD,46085.0,Lyman County,792.0,3029.0,11999.0,2384.0,2206.0,1695.0,1831.0,2871.0,566.0,272.0,149.0,13.0,12.0
320635,County,2020/04/10,46.0,SD,46085.0,Lyman County,665.0,3156.0,11637.0,2078.0,1679.0,1672.0,2201.0,2614.0,908.0,273.0,167.0,16.0,29.0
325388,County,2020/04/11,46.0,SD,46085.0,Lyman County,842.0,2979.0,11116.0,2450.0,2204.0,1241.0,1525.0,2359.0,629.0,518.0,142.0,25.0,23.0
326965,County,2020/04/12,46.0,SD,46085.0,Lyman County,968.0,2853.0,5649.0,824.0,567.0,2683.0,295.0,671.0,364.0,87.0,115.0,43.0,0.0
330230,County,2020/04/13,46.0,SD,46085.0,Lyman County,859.0,2962.0,10482.0,2258.0,866.0,2340.0,770.0,3220.0,635.0,229.0,134.0,30.0,0.0
333355,County,2020/04/14,46.0,SD,46085.0,Lyman County,586.0,3235.0,26551.0,3571.0,4008.0,4004.0,4440.0,6764.0,2764.0,576.0,269.0,52.0,103.0
338155,County,2020/04/15,46.0,SD,46085.0,Lyman County,560.0,3261.0,24458.0,3500.0,3882.0,3872.0,4183.0,5682.0,2235.0,593.0,346.0,66.0,99.0
341299,County,2020/04/16,46.0,SD,46085.0,Lyman County,616.0,3205.0,27400.0,4190.0,4696.0,4193.0,4505.0,5846.0,2638.0,859.0,374.0,92.0,7.0
344512,County,2020/04/17,46.0,SD,46085.0,Lyman County,551.0,3270.0,25943.0,3850.0,4629.0,3854.0,4428.0,5359.0,2536.0,831.0,347.0,59.0,50.0
346139,County,2020/04/18,46.0,SD,46085.0,Lyman County,618.0,3203.0,21057.0,3412.0,3944.0,3533.0,3213.0,4314.0,1972.0,395.0,188.0,35.0,51.0
349311,County,2020/04/19,46.0,SD,46085.0,Lyman County,582.0,3239.0,18847.0,2303.0,2976.0,3045.0,3186.0,4231.0,2264.0,526.0,269.0,43.0,4.0
354141,County,2020/04/20,46.0,SD,46085.0,Lyman County,498.0,3323.0,26913.0,3926.0,4110.0,4019.0,4472.0,6039.0,3149.0,743.0,416.0,39.0,0.0
357327,County,2020/04/21,46.0,SD,46085.0,Lyman County,640.0,3181.0,14949.0,2774.0,2482.0,2495.0,3091.0,2496.0,1381.0,77.0,101.0,38.0,14.0
360481,County,2020/04/22,46.0,SD,46085.0,Lyman County,758.0,3063.0,15653.0,3502.0,2192.0,819.0,4310.0,2866.0,1678.0,214.0,31.0,28.0,13.0
363687,County,2020/04/23,46.0,SD,46085.0,Lyman County,600.0,3221.0,13140.0,3473.0,3241.0,1314.0,1153.0,2520.0,1030.0,343.0,50.0,6.0,10.0
366899,County,2020/04/24,46.0,SD,46085.0,Lyman County,683.0,3138.0,15269.0,3264.0,3025.0,954.0,3767.0,2386.0,1553.0,187.0,109.0,24.0,0.0
368482,County,2020/04/25,46.0,SD,46085.0,Lyman County,657.0,3164.0,14031.0,3204.0,2766.0,1907.0,2152.0,2317.0,1380.0,142.0,124.0,14.0,25.0
371648,County,2020/04/26,46.0,SD,46085.0,Lyman County,681.0,3140.0,9018.0,2113.0,1419.0,979.0,1227.0,1539.0,1215.0,438.0,32.0,43.0,13.0
374925,County,2020/04/27,46.0,SD,46085.0,Lyman County,662.0,3159.0,14692.0,3653.0,1972.0,1049.0,3069.0,3383.0,1434.0,61.0,27.0,12.0,32.0
379652,County,2020/04/28,46.0,SD,46085.0,Lyman County,607.0,3214.0,13805.0,3382.0,2049.0,1845.0,3036.0,1846.0,1419.0,120.0,79.0,18.0,11.0
382855,County,2020/04/29,46.0,SD,46085.0,Lyman County,693.0,3128.0,15943.0,3829.0,3097.0,1515.0,3102.0,2653.0,1553.0,66.0,115.0,13.0,0.0
386074,County,2020/04/30,46.0,SD,46085.0,Lyman County,608.0,3213.0,13245.0,4489.0,2633.0,259.0,2276.0,1427.0,1596.0,474.0,59.0,20.0,12.0
387700,County,2020/05/01,46.0,SD,46085.0,Lyman County,597.0,3224.0,7806.0,2016.0,1713.0,1238.0,790.0,1126.0,570.0,176.0,154.0,23.0,0.0
392461,County,2020/05/02,46.0,SD,46085.0,Lyman County,814.0,3007.0,11212.0,3747.0,2906.0,598.0,1311.0,1644.0,432.0,390.0,102.0,54.0,28.0
395608,County,2020/05/03,46.0,SD,46085.0,Lyman County,655.0,3166.0,15079.0,2404.0,2287.0,2157.0,2636.0,3132.0,1654.0,534.0,162.0,38.0,75.0
397257,County,2020/05/04,46.0,SD,46085.0,Lyman County,634.0,3187.0,8341.0,2256.0,1197.0,257.0,1355.0,1030.0,1489.0,537.0,176.0,20.0,24.0
400477,County,2020/05/05,46.0,SD,46085.0,Lyman County,682.0,3139.0,9719.0,1914.0,1328.0,916.0,2066.0,1832.0,1325.0,137.0,149.0,40.0,12.0
405232,County,2020/05/06,46.0,SD,46085.0,Lyman County,739.0,3082.0,9913.0,2410.0,2284.0,1848.0,998.0,1280.0,617.0,297.0,130.0,36.0,13.0
406858,County,2020/05/07,46.0,SD,46085.0,Lyman County,725.0,3096.0,8329.0,1855.0,1964.0,774.0,226.0,2194.0,1120.0,67.0,59.0,46.0,24.0
411588,County,2020/05/08,46.0,SD,46085.0,Lyman County,750.0,3071.0,10655.0,1624.0,2157.0,1275.0,995.0,2835.0,1435.0,222.0,97.0,15.0,0.0
413168,County,2020/05/09,46.0,SD,46085.0,Lyman County,888.0,2933.0,7805.0,1039.0,1114.0,1153.0,1735.0,1318.0,1073.0,258.0,75.0,25.0,15.0
417965,County,2020/05/10,46.0,SD,46085.0,Lyman County,924.0,2897.0,10583.0,1482.0,2110.0,1604.0,2502.0,1248.0,1547.0,0.0,81.0,9.0,0.0
421196,County,2020/05/11,46.0,SD,46085.0,Lyman County,592.0,3229.0,12231.0,2322.0,2316.0,1494.0,2403.0,2117.0,991.0,357.0,199.0,26.0,6.0
422874,County,2020/05/12,46.0,SD,46085.0,Lyman County,454.0,3367.0,10895.0,1902.0,1597.0,1717.0,1707.0,2348.0,994.0,418.0,157.0,23.0,32.0
425882,County,2020/05/13,46.0,SD,46085.0,Lyman County,592.0,3229.0,10883.0,1766.0,1948.0,1369.0,1857.0,2304.0,946.0,455.0,199.0,22.0,17.0
429223,County,2020/05/14,46.0,SD,46085.0,Lyman County,571.0,3250.0,12781.0,1852.0,2333.0,1619.0,3263.0,2100.0,955.0,376.0,260.0,12.0,11.0
433964,County,2020/05/15,46.0,SD,46085.0,Lyman County,485.0,3336.0,14035.0,2192.0,2243.0,1933.0,3006.0,2708.0,1439.0,259.0,215.0,20.0,20.0
435642,County,2020/05/16,46.0,SD,46085.0,Lyman County,630.0,3191.0,12120.0,2051.0,2007.0,2248.0,1754.0,2437.0,1220.0,196.0,171.0,13.0,23.0
440326,County,2020/05/17,46.0,SD,46085.0,Lyman County,596.0,3225.0,20923.0,2566.0,3465.0,2868.0,4050.0,4633.0,2299.0,701.0,279.0,33.0,29.0
443566,County,2020/05/18,46.0,SD,46085.0,Lyman County,569.0,3252.0,26496.0,3683.0,4187.0,3482.0,4858.0,6349.0,2724.0,872.0,267.0,47.0,27.0
446729,County,2020/05/19,46.0,SD,46085.0,Lyman County,560.0,3261.0,26822.0,3789.0,4159.0,3350.0,4678.0,6830.0,2816.0,826.0,309.0,64.0,1.0
448361,County,2020/05/20,46.0,SD,46085.0,Lyman County,564.0,3257.0,26712.0,3830.0,3999.0,3400.0,4308.0,6468.0,3232.0,950.0,462.0,62.0,1.0
451532,County,2020/05/21,46.0,SD,46085.0,Lyman County,563.0,3258.0,28448.0,4534.0,4115.0,3714.0,4632.0,6619.0,3210.0,1068.0,478.0,51.0,27.0
456341,County,2020/05/22,46.0,SD,46085.0,Lyman County,542.0,3279.0,28633.0,4704.0,4378.0,4065.0,4739.0,6577.0,2932.0,801.0,345.0,42.0,50.0
459502,County,2020/05/23,46.0,SD,46085.0,Lyman County,556.0,3265.0,24316.0,3563.0,3604.0,3608.0,4274.0,5619.0,2678.0,639.0,262.0,43.0,26.0
462706,County,2020/05/24,46.0,SD,46085.0,Lyman County,657.0,3164.0,9011.0,1869.0,1707.0,1110.0,1505.0,1666.0,657.0,211.0,219.0,39.0,28.0
464335,County,2020/05/25,46.0,SD,46085.0,Lyman County,708.0,3113.0,8758.0,1618.0,1312.0,1379.0,1714.0,1322.0,665.0,450.0,249.0,38.0,11.0
469116,County,2020/05/26,46.0,SD,46085.0,Lyman County,641.0,3180.0,11210.0,2903.0,1544.0,1255.0,1902.0,1769.0,1156.0,327.0,326.0,12.0,16.0
472307,County,2020/05/27,46.0,SD,46085.0,Lyman County,591.0,3230.0,14294.0,3245.0,2575.0,1691.0,3068.0,1974.0,938.0,500.0,270.0,23.0,10.0
473841,County,2020/05/28,46.0,SD,46085.0,Lyman County,642.0,3179.0,10358.0,1983.0,1519.0,1437.0,1802.0,1952.0,929.0,402.0,305.0,24.0,5.0
477086,County,2020/05/29,46.0,SD,46085.0,Lyman County,678.0,3143.0,12707.0,1987.0,2176.0,1658.0,3211.0,2117.0,952.0,328.0,261.0,12.0,5.0
480273,County,2020/05/30,46.0,SD,46085.0,Lyman County,656.0,3165.0,10267.0,1603.0,2034.0,1503.0,2216.0,1925.0,609.0,157.0,192.0,22.0,6.0
485040,County,2020/05/31,46.0,SD,46085.0,Lyman County,612.0,3209.0,12678.0,2054.0,2262.0,3009.0,2112.0,1605.0,919.0,349.0,321.0,41.0,6.0
486667,County,2020/06/01,46.0,SD,46085.0,Lyman County,492.0,3329.0,12902.0,3468.0,1588.0,1757.0,2870.0,1515.0,1184.0,379.0,97.0,22.0,22.0
489908,County,2020/06/02,46.0,SD,46085.0,Lyman County,629.0,3192.0,12339.0,2086.0,2364.0,1537.0,2330.0,2377.0,759.0,620.0,224.0,29.0,13.0
493077,County,2020/06/03,46.0,SD,46085.0,Lyman County,495.0,3326.0,12700.0,3573.0,1363.0,2267.0,1780.0,1433.0,1209.0,716.0,327.0,21.0,11.0
497852,County,2020/06/04,46.0,SD,46085.0,Lyman County,596.0,3225.0,13217.0,2198.0,2043.0,1751.0,2755.0,2416.0,1398.0,347.0,276.0,22.0,11.0
499492,County,2020/06/05,46.0,SD,46085.0,Lyman County,484.0,3337.0,13202.0,2389.0,1902.0,1125.0,3070.0,2500.0,1402.0,587.0,186.0,29.0,12.0
504216,County,2020/06/06,46.0,SD,46085.0,Lyman County,639.0,3182.0,10005.0,2058.0,2023.0,2018.0,656.0,1720.0,1028.0,273.0,188.0,27.0,14.0
507416,County,2020/06/07,46.0,SD,46085.0,Lyman County,520.0,3301.0,8548.0,1095.0,1668.0,931.0,1057.0,2028.0,832.0,629.0,251.0,36.0,21.0
510627,County,2020/06/08,46.0,SD,46085.0,Lyman County,498.0,3323.0,13125.0,1831.0,2000.0,1927.0,2921.0,2629.0,856.0,617.0,310.0,22.0,12.0
512256,County,2020/06/09,46.0,SD,46085.0,Lyman County,643.0,3178.0,11564.0,2317.0,1629.0,1470.0,2580.0,1826.0,844.0,661.0,208.0,29.0,0.0
515412,County,2020/06/10,46.0,SD,46085.0,Lyman County,604.0,3217.0,13234.0,2349.0,2224.0,2051.0,2493.0,2052.0,1104.0,686.0,228.0,32.0,15.0
518616,County,2020/06/11,46.0,SD,46085.0,Lyman County,594.0,3227.0,11274.0,1980.0,1674.0,1667.0,1737.0,2346.0,980.0,544.0,274.0,43.0,29.0
523416,County,2020/06/12,46.0,SD,46085.0,Lyman County,579.0,3242.0,12028.0,1849.0,2083.0,1429.0,1902.0,2070.0,1533.0,746.0,360.0,38.0,18.0
525044,County,2020/06/13,46.0,SD,46085.0,Lyman County,507.0,3314.0,13854.0,2552.0,2726.0,1561.0,3094.0,2016.0,984.0,683.0,184.0,31.0,23.0
529808,County,2020/06/14,46.0,SD,46085.0,Lyman County,697.0,3124.0,9139.0,1029.0,1513.0,1872.0,2045.0,1415.0,632.0,391.0,200.0,15.0,27.0
531387,County,2020/06/15,46.0,SD,46085.0,Lyman County,562.0,3259.0,11186.0,1471.0,1364.0,1652.0,3314.0,1811.0,883.0,431.0,207.0,28.0,25.0
536168,County,2020/06/16,46.0,SD,46085.0,Lyman County,576.0,3245.0,10113.0,1224.0,1565.0,1133.0,2386.0,1776.0,1175.0,552.0,259.0,29.0,14.0
539337,County,2020/06/17,46.0,SD,46085.0,Lyman County,622.0,3199.0,10430.0,1368.0,1984.0,735.0,2581.0,2137.0,912.0,347.0,304.0,43.0,19.0
540967,County,2020/06/18,46.0,SD,46085.0,Lyman County,599.0,3222.0,9129.0,1525.0,1339.0,1584.0,1939.0,1327.0,773.0,384.0,219.0,36.0,3.0
544158,County,2020/06/19,46.0,SD,46085.0,Lyman County,619.0,3202.0,9788.0,1994.0,1505.0,1112.0,1951.0,1691.0,998.0,302.0,193.0,30.0,12.0
547363,County,2020/06/20,46.0,SD,46085.0,Lyman County,676.0,3145.0,9867.0,1366.0,1684.0,1792.0,1888.0,1275.0,1240.0,437.0,155.0,12.0,18.0
550568,County,2020/06/21,46.0,SD,46085.0,Lyman County,570.0,3251.0,8737.0,1122.0,1131.0,1449.0,1891.0,1747.0,699.0,330.0,246.0,30.0,92.0
555348,County,2020/06/22,46.0,SD,46085.0,Lyman County,638.0,3183.0,10836.0,1381.0,1330.0,1169.0,3042.0,1734.0,1196.0,673.0,221.0,31.0,59.0
556976,County,2020/06/23,46.0,SD,46085.0,Lyman County,527.0,3294.0,12770.0,2138.0,2012.0,2013.0,2650.0,1877.0,1358.0,406.0,261.0,47.0,8.0
560133,County,2020/06/24,46.0,SD,46085.0,Lyman County,628.0,3193.0,10946.0,2105.0,2079.0,1791.0,2047.0,1375.0,965.0,283.0,276.0,17.0,8.0
564870,County,2020/06/25,46.0,SD,46085.0,Lyman County,547.0,3274.0,9856.0,1429.0,1669.0,877.0,1869.0,2225.0,1156.0,425.0,165.0,35.0,6.0
568168,County,2020/06/26,46.0,SD,46085.0,Lyman County,561.0,3260.0,10161.0,1045.0,1915.0,1391.0,1952.0,1987.0,1208.0,352.0,254.0,39.0,18.0
571318,County,2020/06/27,46.0,SD,46085.0,Lyman County,614.0,3207.0,11093.0,1680.0,1951.0,1495.0,2549.0,1795.0,1082.0,401.0,88.0,28.0,24.0
574500,County,2020/06/28,46.0,SD,46085.0,Lyman County,605.0,3216.0,7452.0,897.0,906.0,857.0,2180.0,1243.0,744.0,335.0,245.0,33.0,12.0
576104,County,2020/06/29,46.0,SD,46085.0,Lyman County,688.0,3133.0,10701.0,1400.0,2110.0,998.0,2627.0,1830.0,963.0,434.0,317.0,17.0,5.0
579312,County,2020/06/30,46.0,SD,46085.0,Lyman County,734.0,3087.0,9953.0,1337.0,1733.0,1495.0,1652.0,2106.0,922.0,434.0,228.0,31.0,15.0
582517,County,2020/07/01,46.0,SD,46085.0,Lyman County,539.0,3282.0,8836.0,1322.0,1434.0,898.0,1926.0,1996.0,758.0,156.0,308.0,15.0,23.0
585708,County,2020/07/02,46.0,SD,46085.0,Lyman County,686.0,3135.0,10461.0,1517.0,1771.0,931.0,1984.0,2362.0,1227.0,451.0,175.0,37.0,6.0
590500,County,2020/07/03,46.0,SD,46085.0,Lyman County,742.0,3079.0,10104.0,1039.0,1904.0,1383.0,1941.0,1976.0,1201.0,350.0,253.0,39.0,18.0
592097,County,2020/07/04,46.0,SD,46085.0,Lyman County,777.0,3044.0,8643.0,889.0,1629.0,1183.0,1661.0,1690.0,1028.0,299.0,216.0,33.0,15.0
596847,County,2020/07/05,46.0,SD,46085.0,Lyman County,637.0,3184.0,6831.0,609.0,1416.0,1310.0,1469.0,874.0,553.0,380.0,175.0,32.0,13.0
600023,County,2020/07/06,46.0,SD,46085.0,Lyman County,665.0,3156.0,7707.0,1079.0,1513.0,1115.0,1544.0,1145.0,743.0,276.0,235.0,35.0,22.0
601601,County,2020/07/07,46.0,SD,46085.0,Lyman County,684.0,3137.0,8326.0,956.0,1199.0,1013.0,1778.0,1993.0,855.0,317.0,154.0,36.0,25.0
606361,County,2020/07/08,46.0,SD,46085.0,Lyman County,670.0,3151.0,8516.0,964.0,1651.0,1092.0,2323.0,1291.0,623.0,345.0,151.0,42.0,34.0
609614,County,2020/07/09,46.0,SD,46085.0,Lyman County,593.0,3228.0,9982.0,1113.0,1970.0,1202.0,2176.0,2105.0,816.0,392.0,163.0,17.0,28.0
612819,County,2020/07/10,46.0,SD,46085.0,Lyman County,644.0,3177.0,8005.0,934.0,1089.0,899.0,1945.0,1648.0,737.0,485.0,219.0,35.0,14.0
616035,County,2020/07/11,46.0,SD,46085.0,Lyman County,739.0,3082.0,10127.0,1618.0,1585.0,1218.0,2631.0,1781.0,814.0,318.0,139.0,19.0,4.0
619223,County,2020/07/12,46.0,SD,46085.0,Lyman County,645.0,3176.0,10222.0,1033.0,2367.0,820.0,2372.0,1497.0,1188.0,579.0,331.0,22.0,13.0
622429,County,2020/07/13,46.0,SD,46085.0,Lyman County,583.0,3238.0,10276.0,1341.0,1526.0,1036.0,2627.0,2573.0,611.0,340.0,158.0,43.0,21.0
624009,County,2020/07/14,46.0,SD,46085.0,Lyman County,619.0,3202.0,10010.0,1076.0,1464.0,1224.0,2074.0,2365.0,1191.0,352.0,231.0,17.0,16.0
627131,County,2020/07/15,46.0,SD,46085.0,Lyman County,648.0,3173.0,9752.0,1455.0,1618.0,1275.0,1838.0,1914.0,989.0,428.0,208.0,19.0,8.0
632062,County,2020/07/16,46.0,SD,46085.0,Lyman County,652.0,3169.0,10103.0,1534.0,1356.0,1308.0,3111.0,1394.0,764.0,396.0,193.0,24.0,23.0
635157,County,2020/07/17,46.0,SD,46085.0,Lyman County,569.0,3252.0,9958.0,1991.0,1649.0,1575.0,1646.0,1426.0,950.0,431.0,248.0,25.0,17.0
638359,County,2020/07/18,46.0,SD,46085.0,Lyman County,625.0,3196.0,9432.0,1221.0,1452.0,974.0,2768.0,1578.0,839.0,412.0,148.0,19.0,21.0
641562,County,2020/07/19,46.0,SD,46085.0,Lyman County,702.0,3119.0,9152.0,934.0,830.0,930.0,2266.0,1809.0,1607.0,431.0,283.0,48.0,14.0
644771,County,2020/07/20,46.0,SD,46085.0,Lyman County,584.0,3237.0,9502.0,1086.0,1527.0,855.0,2669.0,1807.0,963.0,298.0,250.0,34.0,13.0
646399,County,2020/07/21,46.0,SD,46085.0,Lyman County,579.0,3242.0,10368.0,1465.0,1896.0,1481.0,2450.0,1354.0,857.0,596.0,222.0,28.0,19.0
649081,County,2020/07/22,46.0,SD,46085.0,Lyman County,591.0,3230.0,9779.0,1209.0,1273.0,946.0,2643.0,1851.0,1027.0,449.0,305.0,40.0,36.0
654321,County,2020/07/23,46.0,SD,46085.0,Lyman County,560.0,3261.0,9031.0,1294.0,1260.0,511.0,2017.0,2299.0,832.0,378.0,360.0,37.0,43.0
657595,County,2020/07/24,46.0,SD,46085.0,Lyman County,498.0,3323.0,10887.0,1614.0,2171.0,1244.0,1408.0,2087.0,1568.0,481.0,257.0,39.0,18.0
660813,County,2020/07/25,46.0,SD,46085.0,Lyman County,598.0,3223.0,10117.0,1210.0,1827.0,1633.0,2035.0,1792.0,915.0,440.0,217.0,24.0,24.0
662337,County,2020/07/26,46.0,SD,46085.0,Lyman County,586.0,3235.0,10426.0,1066.0,1677.0,1736.0,2611.0,1488.0,969.0,517.0,283.0,38.0,41.0
665632,County,2020/07/27,46.0,SD,46085.0,Lyman County,596.0,3225.0,11281.0,1406.0,1900.0,1462.0,2109.0,2718.0,1247.0,190.0,215.0,19.0,15.0
670320,County,2020/07/28,46.0,SD,46085.0,Lyman County,650.0,3171.0,10262.0,966.0,2181.0,1128.0,2263.0,1935.0,816.0,645.0,270.0,38.0,20.0
671951,County,2020/07/29,46.0,SD,46085.0,Lyman County,570.0,3251.0,9300.0,1561.0,1561.0,946.0,1495.0,2178.0,890.0,321.0,281.0,41.0,26.0
675113,County,2020/07/30,46.0,SD,46085.0,Lyman County,580.0,3241.0,11369.0,1558.0,1368.0,1433.0,2677.0,2498.0,1003.0,506.0,274.0,26.0,26.0
679891,County,2020/07/31,46.0,SD,46085.0,Lyman County,589.0,3232.0,11994.0,1225.0,1567.0,856.0,3335.0,3090.0,1101.0,447.0,326.0,34.0,13.0
681472,County,2020/08/01,46.0,SD,46085.0,Lyman County,694.0,3127.0,9116.0,877.0,1181.0,1016.0,2898.0,1588.0,690.0,563.0,232.0,53.0,18.0
686301,County,2020/08/02,46.0,SD,46085.0,Lyman County,535.0,3286.0,9297.0,1283.0,1592.0,1289.0,1565.0,1835.0,897.0,518.0,227.0,59.0,32.0
689504,County,2020/08/03,46.0,SD,46085.0,Lyman County,535.0,3286.0,11089.0,801.0,1536.0,1297.0,2732.0,2491.0,1201.0,677.0,308.0,26.0,20.0
692666,County,2020/08/04,46.0,SD,46085.0,Lyman County,589.0,3232.0,10606.0,1208.0,1935.0,1868.0,2132.0,1589.0,1048.0,488.0,298.0,27.0,13.0
694294,County,2020/08/05,46.0,SD,46085.0,Lyman County,534.0,3287.0,11568.0,1057.0,1530.0,1809.0,2402.0,2871.0,1054.0,530.0,273.0,38.0,4.0
697501,County,2020/08/06,46.0,SD,46085.0,Lyman County,496.0,3325.0,12491.0,1693.0,2046.0,1626.0,2343.0,2003.0,1509.0,914.0,324.0,22.0,11.0
700713,County,2020/08/07,46.0,SD,46085.0,Lyman County,541.0,3280.0,11145.0,922.0,1595.0,1021.0,3379.0,2005.0,1108.0,717.0,341.0,28.0,29.0
703862,County,2020/08/08,46.0,SD,46085.0,Lyman County,599.0,3222.0,9524.0,1147.0,1510.0,1205.0,2272.0,1696.0,1065.0,326.0,255.0,32.0,16.0
707052,County,2020/08/09,46.0,SD,46085.0,Lyman County,576.0,3245.0,9023.0,893.0,1385.0,1123.0,1888.0,2106.0,576.0,537.0,428.0,57.0,30.0
711862,County,2020/08/10,46.0,SD,46085.0,Lyman County,550.0,3271.0,10456.0,1154.0,884.0,1351.0,2217.0,3051.0,978.0,386.0,389.0,38.0,8.0
713539,County,2020/08/11,46.0,SD,46085.0,Lyman County,530.0,3291.0,12384.0,1437.0,1484.0,1945.0,2665.0,2991.0,1064.0,495.0,249.0,24.0,30.0
718152,County,2020/08/12,46.0,SD,46085.0,Lyman County,541.0,3280.0,10611.0,1098.0,1883.0,1024.0,2032.0,2494.0,1032.0,720.0,254.0,45.0,29.0
721395,County,2020/08/13,46.0,SD,46085.0,Lyman County,435.0,3386.0,13350.0,1413.0,1272.0,841.0,4038.0,3011.0,1601.0,716.0,374.0,56.0,28.0
724622,County,2020/08/14,46.0,SD,46085.0,Lyman County,465.0,3356.0,11070.0,880.0,1657.0,821.0,2799.0,2462.0,1418.0,642.0,323.0,51.0,17.0
727833,County,2020/08/15,46.0,SD,46085.0,Lyman County,528.0,3293.0,11811.0,1366.0,1926.0,1063.0,3108.0,2228.0,1062.0,660.0,324.0,50.0,24.0
729412,County,2020/08/16,46.0,SD,46085.0,Lyman County,544.0,3277.0,11079.0,1251.0,1678.0,1170.0,2232.0,1986.0,1326.0,796.0,546.0,42.0,52.0
734192,County,2020/08/17,46.0,SD,46085.0,Lyman County,567.0,3254.0,10618.0,1168.0,1402.0,1450.0,1637.0,2902.0,900.0,703.0,355.0,53.0,48.0
735821,County,2020/08/18,46.0,SD,46085.0,Lyman County,585.0,3236.0,11331.0,835.0,1422.0,1420.0,2306.0,2893.0,1293.0,823.0,288.0,41.0,10.0
739026,County,2020/08/19,46.0,SD,46085.0,Lyman County,498.0,3323.0,12859.0,1318.0,1630.0,1692.0,3630.0,2492.0,1157.0,662.0,204.0,39.0,35.0
743807,County,2020/08/20,46.0,SD,46085.0,Lyman County,435.0,3386.0,12149.0,1360.0,1521.0,778.0,3841.0,2287.0,1373.0,609.0,267.0,42.0,71.0
745388,County,2020/08/21,46.0,SD,46085.0,Lyman County,503.0,3318.0,14311.0,1409.0,1626.0,2130.0,3831.0,3068.0,1316.0,543.0,321.0,24.0,43.0
750168,County,2020/08/22,46.0,SD,46085.0,Lyman County,561.0,3260.0,12729.0,1935.0,1906.0,1849.0,3042.0,1908.0,1171.0,603.0,251.0,33.0,31.0
753337,County,2020/08/23,46.0,SD,46085.0,Lyman County,657.0,3164.0,9097.0,1293.0,1557.0,1086.0,1739.0,1748.0,752.0,591.0,269.0,32.0,30.0
755008,County,2020/08/24,46.0,SD,46085.0,Lyman County,621.0,3200.0,8335.0,770.0,1525.0,984.0,1583.0,1805.0,1009.0,364.0,244.0,25.0,26.0
759769,County,2020/08/25,46.0,SD,46085.0,Lyman County,669.0,3152.0,8672.0,1061.0,1440.0,827.0,1792.0,2189.0,880.0,203.0,211.0,29.0,40.0
762929,County,2020/08/26,46.0,SD,46085.0,Lyman County,723.0,3098.0,9026.0,1110.0,1439.0,1371.0,1411.0,1985.0,1231.0,198.0,194.0,39.0,48.0
766124,County,2020/08/27,46.0,SD,46085.0,Lyman County,610.0,3211.0,9967.0,1454.0,1253.0,931.0,2005.0,2371.0,1256.0,419.0,232.0,30.0,16.0
769341,County,2020/08/28,46.0,SD,46085.0,Lyman County,642.0,3179.0,10728.0,1594.0,1432.0,1270.0,2302.0,2286.0,1010.0,464.0,309.0,26.0,35.0
770968,County,2020/08/29,46.0,SD,46085.0,Lyman County,634.0,3187.0,10952.0,1754.0,1720.0,1460.0,2104.0,2138.0,1056.0,408.0,274.0,33.0,5.0
774169,County,2020/08/30,46.0,SD,46085.0,Lyman County,667.0,3154.0,8671.0,2285.0,614.0,614.0,1373.0,1677.0,1011.0,642.0,344.0,54.0,57.0
777354,County,2020/08/31,46.0,SD,46085.0,Lyman County,568.0,3253.0,9659.0,1394.0,717.0,690.0,2885.0,2229.0,883.0,499.0,303.0,30.0,29.0
780503,County,2020/09/01,46.0,SD,46085.0,Lyman County,607.0,3214.0,10884.0,1112.0,1367.0,838.0,2416.0,3235.0,996.0,656.0,205.0,31.0,28.0
785276,County,2020/09/02,46.0,SD,46085.0,Lyman County,507.0,3314.0,11834.0,2574.0,1466.0,1118.0,2061.0,3022.0,770.0,525.0,243.0,34.0,21.0
788487,County,2020/09/03,46.0,SD,46085.0,Lyman County,559.0,3262.0,12001.0,2475.0,1287.0,1409.0,1485.0,3103.0,1428.0,353.0,361.0,69.0,31.0
790102,County,2020/09/04,46.0,SD,46085.0,Lyman County,510.0,3311.0,13983.0,1929.0,1373.0,1143.0,3059.0,3910.0,1522.0,658.0,330.0,37.0,22.0
794862,County,2020/09/05,46.0,SD,46085.0,Lyman County,651.0,3170.0,11373.0,1472.0,2007.0,923.0,2545.0,2110.0,1384.0,551.0,346.0,23.0,12.0
798069,County,2020/09/06,46.0,SD,46085.0,Lyman County,830.0,2991.0,10573.0,2681.0,1481.0,613.0,1998.0,2365.0,697.0,503.0,200.0,27.0,8.0
801277,County,2020/09/07,46.0,SD,46085.0,Lyman County,776.0,3045.0,8293.0,1409.0,1477.0,1112.0,1255.0,1350.0,460.0,787.0,418.0,17.0,8.0
802901,County,2020/09/08,46.0,SD,46085.0,Lyman County,672.0,3149.0,8203.0,1112.0,1554.0,545.0,1433.0,1906.0,985.0,390.0,248.0,24.0,6.0
807681,County,2020/09/09,46.0,SD,46085.0,Lyman County,639.0,3182.0,9208.0,1248.0,1901.0,812.0,2082.0,1687.0,994.0,195.0,229.0,20.0,40.0
810836,County,2020/09/10,46.0,SD,46085.0,Lyman County,632.0,3189.0,9121.0,1828.0,1088.0,964.0,1579.0,2187.0,697.0,436.0,264.0,36.0,42.0
812465,County,2020/09/11,46.0,SD,46085.0,Lyman County,515.0,3306.0,9892.0,794.0,1859.0,1367.0,1877.0,2139.0,1204.0,372.0,231.0,21.0,28.0
815651,County,2020/09/12,46.0,SD,46085.0,Lyman County,670.0,3151.0,9769.0,1262.0,1153.0,1137.0,1862.0,2274.0,933.0,712.0,398.0,31.0,7.0
820448,County,2020/09/13,46.0,SD,46085.0,Lyman County,660.0,3161.0,7559.0,1058.0,650.0,769.0,1931.0,1761.0,717.0,344.0,255.0,45.0,29.0
822077,County,2020/09/14,46.0,SD,46085.0,Lyman County,615.0,3206.0,10996.0,1180.0,1231.0,1662.0,2432.0,2635.0,1003.0,578.0,205.0,32.0,38.0
825232,County,2020/09/15,46.0,SD,46085.0,Lyman County,638.0,3183.0,10081.0,1516.0,827.0,1047.0,2205.0,2794.0,708.0,583.0,335.0,46.0,20.0
828473,County,2020/09/16,46.0,SD,46085.0,Lyman County,612.0,3209.0,10846.0,2045.0,1631.0,1215.0,1629.0,2787.0,724.0,373.0,359.0,44.0,39.0
833217,County,2020/09/17,46.0,SD,46085.0,Lyman County,561.0,3260.0,10310.0,1187.0,799.0,1216.0,1422.0,2905.0,1710.0,599.0,386.0,24.0,62.0
834846,County,2020/09/18,46.0,SD,46085.0,Lyman County,669.0,3152.0,12319.0,1166.0,2120.0,1567.0,2613.0,2430.0,1190.0,777.0,394.0,40.0,22.0
839621,County,2020/09/19,46.0,SD,46085.0,Lyman County,604.0,3217.0,10456.0,1698.0,2090.0,1672.0,1403.0,1891.0,1000.0,380.0,266.0,42.0,14.0
842783,County,2020/09/20,46.0,SD,46085.0,Lyman County,505.0,3316.0,10259.0,1280.0,1198.0,1311.0,2301.0,2204.0,1101.0,520.0,300.0,30.0,14.0
844411,County,2020/09/21,46.0,SD,46085.0,Lyman County,532.0,3289.0,11614.0,1289.0,1452.0,1362.0,2286.0,3140.0,1243.0,525.0,271.0,24.0,22.0
847616,County,2020/09/22,46.0,SD,46085.0,Lyman County,601.0,3220.0,12805.0,1763.0,1558.0,1451.0,2449.0,3295.0,1374.0,641.0,230.0,34.0,10.0
852394,County,2020/09/23,46.0,SD,46085.0,Lyman County,528.0,3293.0,10558.0,1275.0,1192.0,1118.0,2474.0,2480.0,1196.0,380.0,400.0,25.0,18.0
855549,County,2020/09/24,46.0,SD,46085.0,Lyman County,522.0,3299.0,9745.0,943.0,1770.0,897.0,2361.0,1745.0,1190.0,390.0,376.0,41.0,32.0
857178,County,2020/09/25,46.0,SD,46085.0,Lyman County,552.0,3269.0,11775.0,1197.0,1212.0,1334.0,2688.0,3411.0,1001.0,645.0,237.0,41.0,9.0
860364,County,2020/09/26,46.0,SD,46085.0,Lyman County,552.0,3269.0,12755.0,2433.0,1352.0,1433.0,2999.0,2426.0,1077.0,575.0,428.0,17.0,15.0
865161,County,2020/09/27,46.0,SD,46085.0,Lyman County,738.0,3083.0,9737.0,1494.0,1284.0,759.0,1938.0,2279.0,1249.0,360.0,331.0,11.0,32.0
866790,County,2020/09/28,46.0,SD,46085.0,Lyman County,821.0,3000.0,9895.0,1279.0,891.0,1297.0,3131.0,1460.0,1350.0,381.0,74.0,25.0,7.0
869947,County,2020/09/29,46.0,SD,46085.0,Lyman County,655.0,3166.0,10976.0,920.0,1861.0,1179.0,3724.0,1337.0,1422.0,287.0,228.0,13.0,5.0
874726,County,2020/09/30,46.0,SD,46085.0,Lyman County,706.0,3115.0,9812.0,1872.0,1741.0,1164.0,1886.0,1791.0,713.0,374.0,237.0,25.0,9.0
876354,County,2020/10/01,46.0,SD,46085.0,Lyman County,599.0,3222.0,9855.0,1354.0,1111.0,927.0,2035.0,2165.0,1175.0,766.0,301.0,13.0,8.0
879558,County,2020/10/02,46.0,SD,46085.0,Lyman County,598.0,3223.0,8948.0,1220.0,870.0,1210.0,1487.0,2119.0,1401.0,379.0,233.0,18.0,11.0
882774,County,2020/10/03,46.0,SD,46085.0,Lyman County,799.0,3022.0,10763.0,954.0,1244.0,1195.0,3874.0,1656.0,1264.0,240.0,327.0,6.0,3.0
887123,County,2020/10/04,46.0,SD,46085.0,Lyman County,783.0,3038.0,10077.0,1625.0,1355.0,1143.0,1614.0,2298.0,1003.0,668.0,325.0,27.0,19.0
890302,County,2020/10/05,46.0,SD,46085.0,Lyman County,711.0,3110.0,9910.0,1351.0,1940.0,1675.0,1307.0,1865.0,1231.0,341.0,169.0,23.0,8.0
893477,County,2020/10/06,46.0,SD,46085.0,Lyman County,705.0,3116.0,11367.0,1168.0,1203.0,1651.0,2717.0,2316.0,1212.0,797.0,269.0,29.0,5.0
896968,County,2020/10/07,46.0,SD,46085.0,Lyman County,676.0,3145.0,10710.0,1692.0,1631.0,1426.0,1648.0,2071.0,1496.0,525.0,185.0,31.0,5.0
899906,County,2020/10/08,46.0,SD,46085.0,Lyman County,640.0,3181.0,12258.0,1612.0,1894.0,1973.0,1368.0,3436.0,1049.0,723.0,172.0,29.0,2.0
903102,County,2020/10/09,46.0,SD,46085.0,Lyman County,645.0,3176.0,10628.0,1639.0,1255.0,1139.0,1551.0,3149.0,1024.0,622.0,228.0,10.0,11.0
906394,County,2020/10/10,46.0,SD,46085.0,Lyman County,669.0,3152.0,9802.0,1019.0,1216.0,1168.0,1735.0,3070.0,1051.0,297.0,220.0,23.0,3.0
908021,County,2020/10/11,46.0,SD,46085.0,Lyman County,631.0,3190.0,9835.0,1054.0,1083.0,1259.0,2321.0,2297.0,1124.0,293.0,371.0,27.0,6.0
911121,County,2020/10/12,46.0,SD,46085.0,Lyman County,627.0,3194.0,8809.0,764.0,1019.0,905.0,1813.0,2169.0,1143.0,628.0,353.0,8.0,7.0
914179,County,2020/10/13,46.0,SD,46085.0,Lyman County,526.0,3295.0,9900.0,1497.0,1185.0,1102.0,1793.0,2413.0,1180.0,439.0,265.0,17.0,9.0
917397,County,2020/10/14,46.0,SD,46085.0,Lyman County,550.0,3271.0,26720.0,13779.0,4816.0,876.0,2223.0,2429.0,1829.0,501.0,235.0,27.0,5.0
921018,County,2020/10/15,46.0,SD,46085.0,Lyman County,645.0,3176.0,10392.0,1802.0,810.0,1018.0,2040.0,2364.0,1455.0,582.0,288.0,26.0,7.0
923894,County,2020/10/16,46.0,SD,46085.0,Lyman County,603.0,3218.0,10214.0,1190.0,1731.0,596.0,1423.0,2683.0,1489.0,831.0,248.0,17.0,6.0
927113,County,2020/10/17,46.0,SD,46085.0,Lyman County,637.0,3184.0,10817.0,1206.0,1031.0,1038.0,2218.0,2953.0,1425.0,678.0,237.0,27.0,4.0
930246,County,2020/10/18,46.0,SD,46085.0,Lyman County,799.0,3022.0,10704.0,1202.0,1147.0,1646.0,2721.0,2060.0,1175.0,499.0,232.0,15.0,7.0
933096,County,2020/10/19,46.0,SD,46085.0,Lyman County,597.0,3224.0,10712.0,1008.0,1630.0,1656.0,2054.0,2418.0,761.0,879.0,279.0,23.0,4.0
936919,County,2020/10/20,46.0,SD,46085.0,Lyman County,583.0,3238.0,10478.0,1484.0,1648.0,1450.0,2014.0,2371.0,911.0,401.0,172.0,18.0,9.0
939708,County,2020/10/21,46.0,SD,46085.0,Lyman County,713.0,3108.0,10142.0,935.0,1517.0,1423.0,2471.0,2177.0,823.0,540.0,225.0,17.0,14.0
942932,County,2020/10/22,46.0,SD,46085.0,Lyman County,656.0,3165.0,9182.0,644.0,1194.0,1025.0,3034.0,2171.0,560.0,256.0,264.0,27.0,7.0
946188,County,2020/10/23,46.0,SD,46085.0,Lyman County,667.0,3154.0,12303.0,1421.0,1362.0,2200.0,3104.0,2477.0,834.0,584.0,300.0,12.0,9.0
949203,County,2020/10/24,46.0,SD,46085.0,Lyman County,635.0,3186.0,13765.0,1247.0,2095.0,1328.0,4992.0,2872.0,737.0,274.0,193.0,17.0,10.0
