,Level,Date,State FIPS,State Postal Code,County FIPS,County Name,Population Staying at Home,Population Not Staying at Home,Number of Trips,Number of Trips <1,Number of Trips 1-3,Number of Trips 3-5,Number of Trips 5-10,Number of Trips 10-25,Number of Trips 25-50,Number of Trips 50-100,Number of Trips 100-250,Number of Trips 250-500,Number of Trips >=500
1366,County,2020/01/01,27.0,MN,27105.0,Nobles County,5368.0,16556.0,62102.0,11815.0,17900.0,5368.0,7374.0,11786.0,3757.0,2564.0,1032.0,443.0,63.0
3606,County,2020/01/02,27.0,MN,27105.0,Nobles County,4321.0,17603.0,81210.0,19473.0,22423.0,7489.0,9232.0,13519.0,4406.0,3254.0,1132.0,241.0,41.0
7302,County,2020/01/03,27.0,MN,27105.0,Nobles County,4468.0,17456.0,82114.0,21474.0,22972.0,5555.0,10820.0,13180.0,3387.0,3044.0,1388.0,271.0,23.0
11073,County,2020/01/04,27.0,MN,27105.0,Nobles County,4464.0,17460.0,77169.0,16207.0,24014.0,4892.0,9856.0,13888.0,3832.0,3048.0,1204.0,212.0,16.0
14142,County,2020/01/05,27.0,MN,27105.0,Nobles County,5171.0,16753.0,76312.0,20002.0,22834.0,6036.0,10556.0,9741.0,3133.0,2543.0,1045.0,374.0,48.0
16602,County,2020/01/06,27.0,MN,27105.0,Nobles County,4528.0,17396.0,85349.0,23250.0,23481.0,7159.0,10500.0,12709.0,4032.0,2752.0,1068.0,356.0,42.0
21411,County,2020/01/07,27.0,MN,27105.0,Nobles County,4014.0,17910.0,87374.0,25228.0,25662.0,4420.0,10766.0,12871.0,3874.0,3054.0,1269.0,215.0,15.0
23038,County,2020/01/08,27.0,MN,27105.0,Nobles County,4457.0,17467.0,81338.0,22398.0,25396.0,5389.0,7775.0,11635.0,4432.0,3035.0,1019.0,204.0,55.0
27836,County,2020/01/09,27.0,MN,27105.0,Nobles County,4545.0,17379.0,88482.0,26838.0,23753.0,6042.0,10069.0,13190.0,4020.0,3170.0,995.0,298.0,107.0
29430,County,2020/01/10,27.0,MN,27105.0,Nobles County,4543.0,17381.0,89699.0,26383.0,24787.0,5323.0,10209.0,14122.0,4830.0,2747.0,909.0,341.0,48.0
32670,County,2020/01/11,27.0,MN,27105.0,Nobles County,4899.0,17025.0,78767.0,20399.0,21760.0,6198.0,9170.0,13227.0,3577.0,3339.0,864.0,165.0,68.0
37356,County,2020/01/12,27.0,MN,27105.0,Nobles County,5349.0,16575.0,70856.0,21972.0,20903.0,4496.0,8803.0,8584.0,2808.0,2211.0,826.0,235.0,18.0
40605,County,2020/01/13,27.0,MN,27105.0,Nobles County,4414.0,17510.0,80727.0,20001.0,26254.0,4814.0,8257.0,13429.0,4159.0,2916.0,654.0,186.0,57.0
42230,County,2020/01/14,27.0,MN,27105.0,Nobles County,4401.0,17523.0,83656.0,21419.0,23544.0,6458.0,9919.0,13507.0,3688.0,3786.0,1017.0,282.0,36.0
45384,County,2020/01/15,27.0,MN,27105.0,Nobles County,4619.0,17305.0,79684.0,22983.0,22005.0,5116.0,9209.0,11910.0,4401.0,2804.0,1032.0,182.0,42.0
50165,County,2020/01/16,27.0,MN,27105.0,Nobles County,3945.0,17979.0,81752.0,21859.0,24895.0,6140.0,7904.0,11858.0,4080.0,3523.0,1150.0,281.0,62.0
53402,County,2020/01/17,27.0,MN,27105.0,Nobles County,5363.0,16561.0,66076.0,20656.0,20280.0,6609.0,5674.0,7836.0,2634.0,1151.0,680.0,419.0,137.0
54976,County,2020/01/18,27.0,MN,27105.0,Nobles County,6225.0,15699.0,73644.0,21418.0,30908.0,5136.0,6536.0,5810.0,1894.0,846.0,836.0,147.0,113.0
59770,County,2020/01/19,27.0,MN,27105.0,Nobles County,5514.0,16410.0,72753.0,18507.0,23040.0,8088.0,8475.0,8750.0,2568.0,2254.0,712.0,239.0,120.0
62934,County,2020/01/20,27.0,MN,27105.0,Nobles County,4573.0,17351.0,81148.0,21893.0,24099.0,6502.0,8950.0,10834.0,3952.0,3573.0,989.0,289.0,67.0
64561,County,2020/01/21,27.0,MN,27105.0,Nobles County,4237.0,17687.0,78854.0,21730.0,25032.0,4115.0,9301.0,10015.0,4054.0,3140.0,1153.0,261.0,53.0
69322,County,2020/01/22,27.0,MN,27105.0,Nobles County,4295.0,17629.0,79147.0,20038.0,23663.0,5305.0,8719.0,12121.0,4392.0,2977.0,1460.0,442.0,30.0
70947,County,2020/01/23,27.0,MN,27105.0,Nobles County,4559.0,17365.0,83711.0,24283.0,24181.0,6763.0,8989.0,10802.0,3682.0,3632.0,1015.0,328.0,36.0
74144,County,2020/01/24,27.0,MN,27105.0,Nobles County,4548.0,17376.0,88431.0,24542.0,26835.0,6249.0,8965.0,11360.0,5134.0,3377.0,1720.0,202.0,47.0
77337,County,2020/01/25,27.0,MN,27105.0,Nobles County,4830.0,17094.0,76547.0,19714.0,19985.0,6389.0,9997.0,9167.0,5418.0,4565.0,1033.0,245.0,34.0
81216,County,2020/01/26,27.0,MN,27105.0,Nobles County,5148.0,16776.0,72470.0,18723.0,22815.0,5828.0,9052.0,8870.0,3109.0,2815.0,896.0,259.0,103.0
85261,County,2020/01/27,27.0,MN,27105.0,Nobles County,4560.0,17364.0,85564.0,23279.0,24074.0,5409.0,9021.0,14243.0,4388.0,3596.0,1197.0,306.0,51.0
86933,County,2020/01/28,27.0,MN,27105.0,Nobles County,4582.0,17342.0,85803.0,23906.0,25772.0,5347.0,8879.0,11887.0,4633.0,3852.0,1127.0,363.0,37.0
90088,County,2020/01/29,27.0,MN,27105.0,Nobles County,4362.0,17562.0,87796.0,22132.0,26817.0,6290.0,7754.0,13694.0,6343.0,3304.0,941.0,458.0,63.0
94922,County,2020/01/30,27.0,MN,27105.0,Nobles County,4633.0,17291.0,82359.0,22396.0,24988.0,5746.0,6831.0,13091.0,5027.0,2764.0,1011.0,456.0,49.0
96496,County,2020/01/31,27.0,MN,27105.0,Nobles County,4100.0,17824.0,93466.0,27003.0,26699.0,6881.0,8954.0,14047.0,4370.0,3595.0,1423.0,403.0,91.0
101254,County,2020/02/01,27.0,MN,27105.0,Nobles County,4427.0,17497.0,88996.0,23855.0,24358.0,8527.0,8992.0,13184.0,4586.0,4199.0,814.0,411.0,70.0
102872,County,2020/02/02,27.0,MN,27105.0,Nobles County,4663.0,17261.0,75111.0,19292.0,21962.0,6650.0,10376.0,9768.0,3394.0,2123.0,1173.0,323.0,50.0
106082,County,2020/02/03,27.0,MN,27105.0,Nobles County,4135.0,17789.0,93685.0,25582.0,27516.0,7601.0,10856.0,13487.0,4592.0,2368.0,1269.0,370.0,44.0
110846,County,2020/02/04,27.0,MN,27105.0,Nobles County,4164.0,17760.0,88851.0,21830.0,25355.0,7174.0,10317.0,13998.0,4356.0,4229.0,1237.0,286.0,69.0
112471,County,2020/02/05,27.0,MN,27105.0,Nobles County,4088.0,17836.0,83337.0,18715.0,26034.0,6972.0,10553.0,12313.0,4900.0,2459.0,1102.0,235.0,54.0
115566,County,2020/02/06,27.0,MN,27105.0,Nobles County,4109.0,17815.0,83390.0,19998.0,25437.0,6082.0,9780.0,12299.0,5327.0,2866.0,1228.0,313.0,60.0
118832,County,2020/02/07,27.0,MN,27105.0,Nobles County,4251.0,17673.0,89417.0,24282.0,26299.0,6899.0,10815.0,12582.0,3802.0,3204.0,1269.0,189.0,76.0
122078,County,2020/02/08,27.0,MN,27105.0,Nobles County,4233.0,17691.0,76666.0,19412.0,20648.0,5732.0,8385.0,13229.0,3911.0,3656.0,1340.0,322.0,31.0
125379,County,2020/02/09,27.0,MN,27105.0,Nobles County,5977.0,15947.0,70428.0,19930.0,21838.0,8837.0,5810.0,7839.0,1711.0,2828.0,1156.0,371.0,108.0
129675,County,2020/02/10,27.0,MN,27105.0,Nobles County,4314.0,17610.0,90674.0,24796.0,28312.0,6271.0,8739.0,13154.0,3909.0,3588.0,1398.0,383.0,124.0
133828,County,2020/02/11,27.0,MN,27105.0,Nobles County,3904.0,18020.0,89805.0,21881.0,25759.0,7949.0,10109.0,14920.0,4145.0,3109.0,1487.0,297.0,149.0
135303,County,2020/02/12,27.0,MN,27105.0,Nobles County,4327.0,17597.0,80699.0,22451.0,22671.0,6030.0,8399.0,12095.0,3879.0,3019.0,1599.0,417.0,139.0
139638,County,2020/02/13,27.0,MN,27105.0,Nobles County,4170.0,17754.0,87380.0,24202.0,24471.0,6935.0,9710.0,12265.0,4009.0,3818.0,1522.0,285.0,163.0
142791,County,2020/02/14,27.0,MN,27105.0,Nobles County,3818.0,18106.0,88256.0,27328.0,24616.0,5438.0,8806.0,12113.0,4463.0,3506.0,1482.0,415.0,89.0
144415,County,2020/02/15,27.0,MN,27105.0,Nobles County,4186.0,17738.0,85221.0,20001.0,23102.0,8063.0,9589.0,13165.0,5319.0,4141.0,1299.0,400.0,142.0
147604,County,2020/02/16,27.0,MN,27105.0,Nobles County,5153.0,16771.0,72932.0,17188.0,20020.0,8501.0,10219.0,9039.0,3413.0,2862.0,1225.0,283.0,182.0
152366,County,2020/02/17,27.0,MN,27105.0,Nobles County,5518.0,16406.0,70133.0,16513.0,22784.0,6486.0,8704.0,8391.0,3351.0,2478.0,1025.0,328.0,73.0
155511,County,2020/02/18,27.0,MN,27105.0,Nobles County,4132.0,17792.0,87488.0,22035.0,27169.0,7466.0,9205.0,13626.0,4119.0,2437.0,921.0,358.0,152.0
158753,County,2020/02/19,27.0,MN,27105.0,Nobles County,4103.0,17821.0,90789.0,25836.0,24900.0,6187.0,11309.0,12814.0,4994.0,2774.0,1282.0,592.0,101.0
161948,County,2020/02/20,27.0,MN,27105.0,Nobles County,4177.0,17747.0,87004.0,21639.0,23096.0,8238.0,12084.0,12760.0,3633.0,3487.0,1428.0,533.0,106.0
165142,County,2020/02/21,27.0,MN,27105.0,Nobles County,4240.0,17684.0,91770.0,23115.0,28360.0,6709.0,9671.0,14400.0,4382.0,3452.0,1091.0,527.0,63.0
168286,County,2020/02/22,27.0,MN,27105.0,Nobles County,3960.0,17964.0,94709.0,24047.0,26486.0,9334.0,9637.0,15060.0,4002.0,4769.0,1037.0,233.0,104.0
171535,County,2020/02/23,27.0,MN,27105.0,Nobles County,4446.0,17478.0,78625.0,17822.0,22442.0,6737.0,12160.0,10232.0,3405.0,3743.0,1531.0,454.0,99.0
174730,County,2020/02/24,27.0,MN,27105.0,Nobles County,4319.0,17605.0,86120.0,23249.0,26201.0,6102.0,9079.0,12638.0,4525.0,2883.0,961.0,281.0,201.0
177086,County,2020/02/25,27.0,MN,27105.0,Nobles County,3585.0,18339.0,93178.0,23806.0,27909.0,8553.0,11767.0,11745.0,4386.0,3511.0,953.0,413.0,135.0
180230,County,2020/02/26,27.0,MN,27105.0,Nobles County,3625.0,18299.0,85654.0,15463.0,28693.0,3591.0,13625.0,12576.0,6317.0,3850.0,996.0,430.0,113.0
184301,County,2020/02/27,27.0,MN,27105.0,Nobles County,4185.0,17739.0,92724.0,24736.0,25027.0,5861.0,12608.0,13975.0,4816.0,3736.0,1518.0,408.0,39.0
186026,County,2020/02/28,27.0,MN,27105.0,Nobles County,3744.0,18180.0,98771.0,28749.0,27992.0,7531.0,10254.0,14843.0,3978.0,3915.0,918.0,499.0,92.0
190646,County,2020/02/29,27.0,MN,27105.0,Nobles County,3963.0,17961.0,99966.0,28674.0,26459.0,8209.0,12761.0,14646.0,4209.0,3481.0,1087.0,343.0,97.0
192317,County,2020/03/01,27.0,MN,27105.0,Nobles County,4514.0,17410.0,81399.0,26194.0,22215.0,5261.0,10345.0,9157.0,3545.0,3025.0,1143.0,445.0,69.0
197118,County,2020/03/02,27.0,MN,27105.0,Nobles County,4165.0,17759.0,91628.0,25679.0,28818.0,6133.0,11167.0,11438.0,4248.0,2589.0,1171.0,309.0,76.0
198697,County,2020/03/03,27.0,MN,27105.0,Nobles County,3746.0,18178.0,84621.0,20990.0,23557.0,4524.0,11153.0,13251.0,5563.0,3813.0,1289.0,447.0,34.0
202555,County,2020/03/04,27.0,MN,27105.0,Nobles County,4011.0,17913.0,86753.0,22442.0,27696.0,4521.0,9908.0,11618.0,5104.0,3966.0,1046.0,372.0,80.0
206683,County,2020/03/05,27.0,MN,27105.0,Nobles County,3540.0,18384.0,84051.0,21293.0,25154.0,5252.0,7455.0,13298.0,6150.0,3252.0,1567.0,565.0,65.0
209897,County,2020/03/06,27.0,MN,27105.0,Nobles County,3648.0,18276.0,97330.0,25197.0,28749.0,5271.0,12366.0,14334.0,6387.0,3238.0,1306.0,377.0,105.0
213129,County,2020/03/07,27.0,MN,27105.0,Nobles County,3818.0,18106.0,95800.0,24763.0,27696.0,7000.0,11026.0,14217.0,4551.0,4876.0,1027.0,604.0,40.0
214681,County,2020/03/08,27.0,MN,27105.0,Nobles County,3990.0,17934.0,88868.0,22590.0,25861.0,7206.0,13116.0,12674.0,2428.0,3108.0,1360.0,419.0,106.0
219439,County,2020/03/09,27.0,MN,27105.0,Nobles County,3758.0,18166.0,87301.0,22149.0,27879.0,5936.0,8536.0,13900.0,4936.0,2527.0,1188.0,183.0,67.0
222633,County,2020/03/10,27.0,MN,27105.0,Nobles County,3824.0,18100.0,89791.0,21008.0,28316.0,6698.0,7225.0,15742.0,5925.0,2723.0,1529.0,557.0,68.0
224257,County,2020/03/11,27.0,MN,27105.0,Nobles County,3293.0,18631.0,73687.0,10008.0,25448.0,6631.0,8174.0,12805.0,5308.0,2537.0,2062.0,607.0,107.0
227491,County,2020/03/12,27.0,MN,27105.0,Nobles County,3667.0,18257.0,98606.0,23668.0,26420.0,5833.0,10273.0,18962.0,7257.0,4064.0,1502.0,370.0,257.0
230651,County,2020/03/13,27.0,MN,27105.0,Nobles County,3480.0,18444.0,117583.0,32278.0,32141.0,13323.0,13346.0,15533.0,5440.0,3674.0,1100.0,463.0,285.0
235277,County,2020/03/14,27.0,MN,27105.0,Nobles County,4253.0,17671.0,67106.0,15367.0,18029.0,5138.0,10941.0,9410.0,3305.0,3037.0,1346.0,311.0,222.0
237037,County,2020/03/15,27.0,MN,27105.0,Nobles County,5360.0,16564.0,67830.0,19350.0,20669.0,6134.0,9074.0,5797.0,2449.0,2469.0,1522.0,227.0,139.0
240230,County,2020/03/16,27.0,MN,27105.0,Nobles County,4374.0,17550.0,87637.0,23620.0,27775.0,6677.0,8881.0,11013.0,4974.0,3020.0,1266.0,351.0,60.0
245038,County,2020/03/17,27.0,MN,27105.0,Nobles County,5063.0,16861.0,86568.0,21569.0,26965.0,6150.0,11047.0,12454.0,3826.0,2611.0,1520.0,390.0,36.0
246617,County,2020/03/18,27.0,MN,27105.0,Nobles County,4872.0,17052.0,87016.0,24216.0,21543.0,6240.0,12475.0,11325.0,6060.0,3134.0,1378.0,599.0,46.0
251399,County,2020/03/19,27.0,MN,27105.0,Nobles County,4754.0,17170.0,75851.0,18438.0,20830.0,7750.0,9194.0,10147.0,4617.0,2784.0,1405.0,616.0,70.0
254574,County,2020/03/20,27.0,MN,27105.0,Nobles County,5401.0,16523.0,96034.0,29653.0,27460.0,10834.0,9048.0,9778.0,4375.0,3084.0,1175.0,544.0,83.0
257766,County,2020/03/21,27.0,MN,27105.0,Nobles County,5649.0,16275.0,77078.0,20068.0,22155.0,10246.0,6935.0,9893.0,4265.0,2613.0,628.0,179.0,96.0
260953,County,2020/03/22,27.0,MN,27105.0,Nobles County,5571.0,16353.0,58783.0,12401.0,17320.0,7419.0,8157.0,7480.0,2947.0,1397.0,1060.0,534.0,68.0
264166,County,2020/03/23,27.0,MN,27105.0,Nobles County,4805.0,17119.0,72106.0,18327.0,18864.0,7858.0,10873.0,9094.0,2619.0,2830.0,1194.0,392.0,55.0
265743,County,2020/03/24,27.0,MN,27105.0,Nobles County,4818.0,17106.0,75476.0,19539.0,20607.0,9068.0,8130.0,9103.0,4488.0,2603.0,1307.0,586.0,45.0
270544,County,2020/03/25,27.0,MN,27105.0,Nobles County,4945.0,16979.0,69320.0,16786.0,19019.0,6126.0,7960.0,10253.0,3966.0,2999.0,1631.0,478.0,102.0
272170,County,2020/03/26,27.0,MN,27105.0,Nobles County,4463.0,17461.0,73370.0,15940.0,20614.0,7725.0,8241.0,12302.0,4205.0,2760.0,1106.0,396.0,81.0
276933,County,2020/03/27,27.0,MN,27105.0,Nobles County,5094.0,16830.0,64465.0,18332.0,14837.0,6639.0,7440.0,8331.0,3778.0,3083.0,1595.0,368.0,62.0
278561,County,2020/03/28,27.0,MN,27105.0,Nobles County,5658.0,16266.0,52269.0,14012.0,13094.0,7210.0,4444.0,8325.0,2243.0,1355.0,1237.0,267.0,82.0
281753,County,2020/03/29,27.0,MN,27105.0,Nobles County,5990.0,15934.0,63500.0,20609.0,17545.0,5117.0,6551.0,8517.0,2679.0,1005.0,946.0,437.0,94.0
286545,County,2020/03/30,27.0,MN,27105.0,Nobles County,5020.0,16904.0,69224.0,15917.0,18348.0,7781.0,9411.0,9530.0,4396.0,2455.0,882.0,424.0,80.0
288143,County,2020/03/31,27.0,MN,27105.0,Nobles County,4914.0,17010.0,69563.0,19702.0,15980.0,5986.0,9137.0,9678.0,4345.0,2913.0,1438.0,316.0,68.0
291378,County,2020/04/01,27.0,MN,27105.0,Nobles County,5021.0,16903.0,69911.0,16022.0,17903.0,6770.0,9538.0,10412.0,5190.0,2374.0,1261.0,337.0,104.0
294529,County,2020/04/02,27.0,MN,27105.0,Nobles County,4754.0,17170.0,67543.0,14780.0,15520.0,7125.0,12849.0,9450.0,4238.0,1777.0,1236.0,469.0,99.0
299289,County,2020/04/03,27.0,MN,27105.0,Nobles County,5033.0,16891.0,75833.0,21147.0,18174.0,5244.0,12744.0,10731.0,4078.0,2227.0,1224.0,233.0,31.0
300916,County,2020/04/04,27.0,MN,27105.0,Nobles County,5506.0,16418.0,71435.0,15256.0,15683.0,8177.0,13587.0,12468.0,3387.0,1321.0,1025.0,434.0,97.0
305671,County,2020/04/05,27.0,MN,27105.0,Nobles County,5652.0,16272.0,71730.0,16805.0,19221.0,7160.0,12544.0,9841.0,2975.0,2188.0,543.0,376.0,77.0
308871,County,2020/04/06,27.0,MN,27105.0,Nobles County,5075.0,16849.0,74634.0,19219.0,16195.0,6484.0,15986.0,9551.0,3439.0,2393.0,1078.0,221.0,68.0
310499,County,2020/04/07,27.0,MN,27105.0,Nobles County,4886.0,17038.0,78979.0,22358.0,18727.0,5950.0,13203.0,10654.0,4453.0,2280.0,1072.0,231.0,51.0
313693,County,2020/04/08,27.0,MN,27105.0,Nobles County,4839.0,17085.0,69275.0,16689.0,16328.0,5514.0,10951.0,10513.0,4502.0,3557.0,1067.0,102.0,52.0
318452,County,2020/04/09,27.0,MN,27105.0,Nobles County,4983.0,16941.0,70318.0,13211.0,18307.0,8328.0,11273.0,10599.0,4178.0,3261.0,706.0,399.0,56.0
321648,County,2020/04/10,27.0,MN,27105.0,Nobles County,5016.0,16908.0,83414.0,20497.0,21494.0,6248.0,16194.0,11833.0,3314.0,2530.0,962.0,320.0,22.0
323323,County,2020/04/11,27.0,MN,27105.0,Nobles County,5419.0,16505.0,75736.0,17853.0,18969.0,5600.0,15978.0,10864.0,2962.0,2452.0,692.0,355.0,11.0
326467,County,2020/04/12,27.0,MN,27105.0,Nobles County,6954.0,14970.0,62271.0,9465.0,21631.0,6005.0,16581.0,5735.0,654.0,781.0,923.0,480.0,16.0
331230,County,2020/04/13,27.0,MN,27105.0,Nobles County,5618.0,16306.0,74375.0,14236.0,21858.0,5946.0,16079.0,8872.0,2923.0,3385.0,922.0,128.0,26.0
334405,County,2020/04/14,27.0,MN,27105.0,Nobles County,5091.0,16833.0,71698.0,11534.0,20951.0,3738.0,20272.0,7250.0,4476.0,1909.0,1077.0,415.0,76.0
337658,County,2020/04/15,27.0,MN,27105.0,Nobles County,4901.0,17023.0,70051.0,8307.0,16385.0,5822.0,22429.0,9502.0,2575.0,3042.0,1486.0,403.0,100.0
339237,County,2020/04/16,27.0,MN,27105.0,Nobles County,5074.0,16850.0,56621.0,9005.0,15475.0,4759.0,9928.0,10379.0,2392.0,2890.0,1231.0,487.0,75.0
342536,County,2020/04/17,27.0,MN,27105.0,Nobles County,4919.0,17005.0,59590.0,9989.0,13106.0,5396.0,13779.0,11503.0,3567.0,1074.0,926.0,171.0,79.0
347163,County,2020/04/18,27.0,MN,27105.0,Nobles County,5306.0,16618.0,59201.0,10210.0,15359.0,7959.0,7849.0,13658.0,2166.0,739.0,860.0,265.0,136.0
348814,County,2020/04/19,27.0,MN,27105.0,Nobles County,5646.0,16278.0,48727.0,10692.0,11931.0,4173.0,8574.0,8995.0,2020.0,1293.0,780.0,206.0,63.0
352021,County,2020/04/20,27.0,MN,27105.0,Nobles County,4502.0,17422.0,61714.0,12756.0,23373.0,3366.0,5994.0,7534.0,4276.0,3300.0,540.0,498.0,77.0
355215,County,2020/04/21,27.0,MN,27105.0,Nobles County,5092.0,16832.0,80516.0,21575.0,19264.0,9415.0,12483.0,9940.0,4352.0,2063.0,982.0,394.0,48.0
358458,County,2020/04/22,27.0,MN,27105.0,Nobles County,4874.0,17050.0,81315.0,19979.0,23464.0,8692.0,12501.0,9187.0,4042.0,2102.0,1088.0,161.0,99.0
361514,County,2020/04/23,27.0,MN,27105.0,Nobles County,4905.0,17019.0,84841.0,21363.0,24871.0,6202.0,18304.0,8133.0,3376.0,1833.0,361.0,334.0,64.0
366402,County,2020/04/24,27.0,MN,27105.0,Nobles County,5103.0,16821.0,96643.0,25390.0,20826.0,9102.0,21754.0,11365.0,4449.0,2761.0,714.0,206.0,76.0
369558,County,2020/04/25,27.0,MN,27105.0,Nobles County,5300.0,16624.0,86430.0,28229.0,21229.0,10395.0,10204.0,9623.0,3353.0,2414.0,786.0,171.0,26.0
371150,County,2020/04/26,27.0,MN,27105.0,Nobles County,5871.0,16053.0,83737.0,21093.0,23123.0,9904.0,15509.0,9187.0,3206.0,1243.0,257.0,178.0,37.0
375984,County,2020/04/27,27.0,MN,27105.0,Nobles County,5086.0,16838.0,89475.0,26808.0,22473.0,9057.0,16972.0,8244.0,3057.0,2271.0,392.0,201.0,0.0
377529,County,2020/04/28,27.0,MN,27105.0,Nobles County,4957.0,16967.0,77180.0,19361.0,21094.0,5160.0,17110.0,8762.0,2809.0,1653.0,812.0,395.0,24.0
380781,County,2020/04/29,27.0,MN,27105.0,Nobles County,4819.0,17105.0,89817.0,26206.0,22045.0,6611.0,18861.0,9160.0,3907.0,1579.0,1225.0,210.0,13.0
385527,County,2020/04/30,27.0,MN,27105.0,Nobles County,4964.0,16960.0,103551.0,31903.0,25117.0,6643.0,21527.0,10763.0,4443.0,1939.0,684.0,506.0,26.0
388764,County,2020/05/01,27.0,MN,27105.0,Nobles County,4801.0,17123.0,104796.0,34314.0,25425.0,5498.0,18583.0,13100.0,3669.0,2965.0,809.0,433.0,0.0
391915,County,2020/05/02,27.0,MN,27105.0,Nobles County,5401.0,16523.0,89652.0,24120.0,22485.0,9047.0,18503.0,8437.0,3470.0,2769.0,642.0,137.0,42.0
393549,County,2020/05/03,27.0,MN,27105.0,Nobles County,5864.0,16060.0,89050.0,23416.0,23864.0,8656.0,19675.0,9284.0,2209.0,1131.0,455.0,360.0,0.0
398303,County,2020/05/04,27.0,MN,27105.0,Nobles County,4901.0,17023.0,89256.0,23962.0,25244.0,7325.0,15577.0,10657.0,3688.0,1786.0,748.0,244.0,25.0
401479,County,2020/05/05,27.0,MN,27105.0,Nobles County,4964.0,16960.0,75252.0,15891.0,20857.0,8466.0,11325.0,11961.0,2844.0,2426.0,1125.0,320.0,37.0
403110,County,2020/05/06,27.0,MN,27105.0,Nobles County,4931.0,16993.0,73632.0,21529.0,19612.0,5201.0,9949.0,10035.0,3026.0,2998.0,905.0,279.0,98.0
407829,County,2020/05/07,27.0,MN,27105.0,Nobles County,5112.0,16812.0,73551.0,20098.0,21262.0,5573.0,10201.0,9072.0,3953.0,1882.0,852.0,600.0,58.0
411091,County,2020/05/08,27.0,MN,27105.0,Nobles County,4716.0,17208.0,80717.0,22613.0,19854.0,7595.0,11236.0,11208.0,4502.0,1960.0,1541.0,150.0,58.0
414240,County,2020/05/09,27.0,MN,27105.0,Nobles County,5106.0,16818.0,76835.0,20353.0,17448.0,7490.0,12669.0,11566.0,3508.0,2831.0,795.0,116.0,59.0
417468,County,2020/05/10,27.0,MN,27105.0,Nobles County,5380.0,16544.0,64654.0,16030.0,17149.0,6288.0,10502.0,9383.0,2540.0,1413.0,975.0,360.0,14.0
419094,County,2020/05/11,27.0,MN,27105.0,Nobles County,4199.0,17725.0,93798.0,29324.0,23211.0,6556.0,14310.0,12109.0,4037.0,2396.0,1420.0,406.0,29.0
423954,County,2020/05/12,27.0,MN,27105.0,Nobles County,4089.0,17835.0,96306.0,27553.0,20846.0,8900.0,15922.0,15224.0,3604.0,2823.0,939.0,458.0,37.0
427000,County,2020/05/13,27.0,MN,27105.0,Nobles County,4219.0,17705.0,97550.0,28544.0,21621.0,7578.0,16315.0,14600.0,4741.0,2627.0,1033.0,452.0,39.0
430244,County,2020/05/14,27.0,MN,27105.0,Nobles County,4050.0,17874.0,100274.0,29175.0,23000.0,9554.0,17283.0,13870.0,3788.0,2219.0,1073.0,277.0,35.0
431872,County,2020/05/15,27.0,MN,27105.0,Nobles County,4141.0,17783.0,102761.0,31609.0,22989.0,7009.0,19275.0,14079.0,3346.0,2904.0,1217.0,311.0,22.0
436621,County,2020/05/16,27.0,MN,27105.0,Nobles County,4406.0,17518.0,96450.0,27309.0,23544.0,7303.0,17120.0,13219.0,4236.0,2280.0,1122.0,292.0,25.0
439780,County,2020/05/17,27.0,MN,27105.0,Nobles County,5131.0,16793.0,69668.0,15749.0,17432.0,8129.0,11135.0,10109.0,3442.0,2377.0,940.0,334.0,21.0
443070,County,2020/05/18,27.0,MN,27105.0,Nobles County,3384.0,18540.0,95716.0,28878.0,25773.0,8833.0,11434.0,12686.0,3847.0,3179.0,796.0,245.0,45.0
444647,County,2020/05/19,27.0,MN,27105.0,Nobles County,4129.0,17795.0,94128.0,20067.0,24114.0,9319.0,19046.0,11344.0,6274.0,2506.0,1060.0,381.0,17.0
449408,County,2020/05/20,27.0,MN,27105.0,Nobles County,4016.0,17908.0,105852.0,25930.0,27665.0,10439.0,17658.0,15034.0,4626.0,3157.0,933.0,377.0,33.0
452298,County,2020/05/21,27.0,MN,27105.0,Nobles County,3514.0,18410.0,92586.0,26899.0,21306.0,7943.0,12703.0,12814.0,5609.0,3789.0,1031.0,477.0,15.0
455794,County,2020/05/22,27.0,MN,27105.0,Nobles County,3133.0,18791.0,90583.0,25398.0,21921.0,8086.0,14953.0,11010.0,4512.0,3380.0,923.0,359.0,41.0
457417,County,2020/05/23,27.0,MN,27105.0,Nobles County,3723.0,18201.0,99862.0,26155.0,24510.0,10116.0,20408.0,10121.0,4130.0,3097.0,1105.0,204.0,16.0
460585,County,2020/05/24,27.0,MN,27105.0,Nobles County,4613.0,17311.0,77947.0,21967.0,17443.0,6459.0,14462.0,10818.0,2870.0,2326.0,1267.0,263.0,72.0
465463,County,2020/05/25,27.0,MN,27105.0,Nobles County,4631.0,17293.0,82163.0,26892.0,17746.0,6437.0,13648.0,10950.0,3224.0,1973.0,897.0,343.0,53.0
466943,County,2020/05/26,27.0,MN,27105.0,Nobles County,4400.0,17524.0,96192.0,25486.0,24494.0,6113.0,15826.0,16055.0,4393.0,2044.0,1380.0,326.0,75.0
471811,County,2020/05/27,27.0,MN,27105.0,Nobles County,3920.0,18004.0,101974.0,30692.0,24266.0,8681.0,17390.0,13224.0,4529.0,1848.0,927.0,294.0,123.0
473394,County,2020/05/28,27.0,MN,27105.0,Nobles County,3705.0,18219.0,96561.0,29022.0,23560.0,7002.0,15037.0,13567.0,4365.0,2413.0,1329.0,150.0,116.0
478148,County,2020/05/29,27.0,MN,27105.0,Nobles County,4178.0,17746.0,93529.0,27235.0,26593.0,9296.0,11461.0,11723.0,3136.0,2554.0,1164.0,349.0,18.0
481348,County,2020/05/30,27.0,MN,27105.0,Nobles County,4574.0,17350.0,103396.0,34658.0,27724.0,6962.0,13923.0,13736.0,3116.0,2227.0,892.0,137.0,21.0
482903,County,2020/05/31,27.0,MN,27105.0,Nobles County,4390.0,17534.0,84656.0,24684.0,22549.0,7787.0,11411.0,11181.0,3999.0,2184.0,635.0,196.0,30.0
486170,County,2020/06/01,27.0,MN,27105.0,Nobles County,3582.0,18342.0,91319.0,19645.0,23791.0,8018.0,19064.0,13589.0,3492.0,2554.0,908.0,203.0,55.0
490901,County,2020/06/02,27.0,MN,27105.0,Nobles County,3565.0,18359.0,98586.0,29783.0,21679.0,9217.0,15285.0,13344.0,4121.0,3465.0,1318.0,292.0,82.0
494124,County,2020/06/03,27.0,MN,27105.0,Nobles County,3465.0,18459.0,114531.0,33100.0,26251.0,10075.0,17334.0,16521.0,6389.0,3291.0,1224.0,270.0,76.0
495743,County,2020/06/04,27.0,MN,27105.0,Nobles County,3692.0,18232.0,115242.0,40109.0,25782.0,11401.0,13779.0,14844.0,4807.0,3218.0,940.0,347.0,15.0
500518,County,2020/06/05,27.0,MN,27105.0,Nobles County,3409.0,18515.0,110192.0,31091.0,30249.0,11350.0,13153.0,14566.0,4634.0,3374.0,1500.0,252.0,23.0
503670,County,2020/06/06,27.0,MN,27105.0,Nobles County,4462.0,17462.0,89829.0,21852.0,20272.0,10441.0,13960.0,14154.0,4403.0,3483.0,1025.0,229.0,10.0
506868,County,2020/06/07,27.0,MN,27105.0,Nobles County,3964.0,17960.0,81438.0,19980.0,21243.0,5779.0,15186.0,11460.0,1822.0,3814.0,1754.0,338.0,62.0
508507,County,2020/06/08,27.0,MN,27105.0,Nobles County,3612.0,18312.0,107269.0,31773.0,24651.0,9012.0,15162.0,17087.0,5021.0,2807.0,1452.0,282.0,22.0
513286,County,2020/06/09,27.0,MN,27105.0,Nobles County,3668.0,18256.0,98237.0,29192.0,24312.0,10073.0,10917.0,13792.0,4881.0,3393.0,1303.0,344.0,30.0
514916,County,2020/06/10,27.0,MN,27105.0,Nobles County,3860.0,18064.0,89969.0,25552.0,23274.0,7376.0,11670.0,12200.0,5086.0,2969.0,1418.0,382.0,42.0
518119,County,2020/06/11,27.0,MN,27105.0,Nobles County,3379.0,18545.0,103916.0,29960.0,26478.0,8654.0,15093.0,12127.0,5975.0,3774.0,1521.0,305.0,29.0
521321,County,2020/06/12,27.0,MN,27105.0,Nobles County,3935.0,17989.0,92930.0,27563.0,23957.0,5714.0,12473.0,13144.0,5378.0,2930.0,1487.0,211.0,73.0
526057,County,2020/06/13,27.0,MN,27105.0,Nobles County,3803.0,18121.0,102053.0,34067.0,24298.0,8163.0,12317.0,13000.0,4776.0,3678.0,1317.0,379.0,58.0
529261,County,2020/06/14,27.0,MN,27105.0,Nobles County,4553.0,17371.0,78338.0,22670.0,20869.0,6952.0,11712.0,8126.0,2901.0,3390.0,1364.0,283.0,71.0
532451,County,2020/06/15,27.0,MN,27105.0,Nobles County,3929.0,17995.0,86411.0,26827.0,20273.0,7109.0,12889.0,11233.0,3927.0,2282.0,1532.0,325.0,14.0
534080,County,2020/06/16,27.0,MN,27105.0,Nobles County,4157.0,17767.0,99171.0,32033.0,24633.0,8356.0,11907.0,11417.0,5967.0,2873.0,1512.0,458.0,15.0
538839,County,2020/06/17,27.0,MN,27105.0,Nobles County,4070.0,17854.0,100049.0,28435.0,24254.0,8340.0,16008.0,13705.0,4597.0,2549.0,1623.0,516.0,22.0
542035,County,2020/06/18,27.0,MN,27105.0,Nobles County,3316.0,18608.0,95551.0,26611.0,22456.0,7823.0,14628.0,13510.0,5024.0,3796.0,1394.0,273.0,36.0
543661,County,2020/06/19,27.0,MN,27105.0,Nobles County,3816.0,18108.0,98053.0,27190.0,25707.0,6766.0,15686.0,12809.0,5497.0,2720.0,1383.0,247.0,48.0
548421,County,2020/06/20,27.0,MN,27105.0,Nobles County,4144.0,17780.0,93086.0,28817.0,19329.0,9286.0,13792.0,11770.0,5603.0,3221.0,1021.0,224.0,23.0
551608,County,2020/06/21,27.0,MN,27105.0,Nobles County,4868.0,17056.0,68254.0,20914.0,17049.0,4077.0,9551.0,7377.0,4439.0,2888.0,1322.0,588.0,49.0
554850,County,2020/06/22,27.0,MN,27105.0,Nobles County,4082.0,17842.0,82265.0,22666.0,23351.0,6420.0,9921.0,10862.0,3987.0,3066.0,1521.0,422.0,49.0
558005,County,2020/06/23,27.0,MN,27105.0,Nobles County,4107.0,17817.0,99267.0,32078.0,19906.0,8843.0,14821.0,14530.0,4057.0,2676.0,1599.0,750.0,7.0
561197,County,2020/06/24,27.0,MN,27105.0,Nobles County,4347.0,17577.0,85703.0,23246.0,18625.0,6859.0,13197.0,12872.0,5262.0,3282.0,1648.0,669.0,43.0
562827,County,2020/06/25,27.0,MN,27105.0,Nobles County,4215.0,17709.0,82895.0,23594.0,19430.0,6423.0,14407.0,10583.0,4176.0,2444.0,1372.0,436.0,30.0
566079,County,2020/06/26,27.0,MN,27105.0,Nobles County,4471.0,17453.0,79285.0,22786.0,18750.0,6007.0,12129.0,10741.0,4341.0,2357.0,1617.0,529.0,28.0
570772,County,2020/06/27,27.0,MN,27105.0,Nobles County,4620.0,17304.0,92792.0,24622.0,21300.0,8514.0,15307.0,13676.0,4571.0,3240.0,1278.0,236.0,48.0
572409,County,2020/06/28,27.0,MN,27105.0,Nobles County,4246.0,17678.0,81969.0,22728.0,21623.0,5816.0,12874.0,10060.0,4102.0,3070.0,1143.0,499.0,54.0
575570,County,2020/06/29,27.0,MN,27105.0,Nobles County,4010.0,17914.0,89698.0,21169.0,22032.0,10385.0,14698.0,12818.0,3978.0,2798.0,1417.0,342.0,61.0
580382,County,2020/06/30,27.0,MN,27105.0,Nobles County,3950.0,17974.0,95392.0,27648.0,24471.0,7679.0,13589.0,14046.0,3573.0,2818.0,1160.0,357.0,51.0
583576,County,2020/07/01,27.0,MN,27105.0,Nobles County,3851.0,18073.0,95182.0,25161.0,26398.0,6925.0,10276.0,16170.0,4817.0,3335.0,1664.0,427.0,9.0
585175,County,2020/07/02,27.0,MN,27105.0,Nobles County,4272.0,17652.0,87985.0,25043.0,20623.0,6817.0,15292.0,11233.0,4432.0,2594.0,1456.0,463.0,32.0
588402,County,2020/07/03,27.0,MN,27105.0,Nobles County,4316.0,17608.0,78839.0,22658.0,18644.0,5973.0,12061.0,10680.0,4317.0,2344.0,1608.0,526.0,28.0
593152,County,2020/07/04,27.0,MN,27105.0,Nobles County,4634.0,17290.0,67448.0,19384.0,15951.0,5110.0,10318.0,9137.0,3693.0,2005.0,1376.0,450.0,24.0
594803,County,2020/07/05,27.0,MN,27105.0,Nobles County,4001.0,17923.0,70514.0,18758.0,20175.0,5099.0,7683.0,9300.0,4780.0,2894.0,1293.0,503.0,29.0
599477,County,2020/07/06,27.0,MN,27105.0,Nobles County,4213.0,17711.0,78695.0,16151.0,21694.0,7433.0,12879.0,12217.0,4375.0,2239.0,1376.0,290.0,41.0
601152,County,2020/07/07,27.0,MN,27105.0,Nobles County,4045.0,17879.0,87341.0,20861.0,23317.0,7718.0,13685.0,12620.0,5582.0,2013.0,1321.0,188.0,36.0
605815,County,2020/07/08,27.0,MN,27105.0,Nobles County,3936.0,17988.0,87979.0,22862.0,21893.0,8294.0,13079.0,14320.0,3885.0,2105.0,1251.0,257.0,33.0
607540,County,2020/07/09,27.0,MN,27105.0,Nobles County,4063.0,17861.0,89059.0,22605.0,23395.0,7077.0,12965.0,13787.0,4923.0,2556.0,1417.0,327.0,7.0
612322,County,2020/07/10,27.0,MN,27105.0,Nobles County,4201.0,17723.0,89545.0,26605.0,23679.0,5784.0,11280.0,13810.0,4065.0,2589.0,1440.0,257.0,36.0
615537,County,2020/07/11,27.0,MN,27105.0,Nobles County,4166.0,17758.0,85576.0,23924.0,21651.0,7133.0,12923.0,11450.0,4354.0,2459.0,1376.0,240.0,66.0
617122,County,2020/07/12,27.0,MN,27105.0,Nobles County,4861.0,17063.0,77075.0,26118.0,18969.0,4463.0,9800.0,9261.0,3872.0,2850.0,1240.0,464.0,38.0
620312,County,2020/07/13,27.0,MN,27105.0,Nobles County,4295.0,17629.0,80298.0,21056.0,19734.0,7818.0,11951.0,11433.0,4256.0,2324.0,1377.0,278.0,71.0
625077,County,2020/07/14,27.0,MN,27105.0,Nobles County,4164.0,17760.0,81654.0,20567.0,21640.0,8020.0,11662.0,12122.0,4198.0,2149.0,1087.0,160.0,49.0
628250,County,2020/07/15,27.0,MN,27105.0,Nobles County,4504.0,17420.0,96314.0,28690.0,24178.0,6667.0,13649.0,14922.0,4925.0,2377.0,601.0,264.0,41.0
629875,County,2020/07/16,27.0,MN,27105.0,Nobles County,4118.0,17806.0,84297.0,21751.0,23458.0,7263.0,10533.0,12670.0,4302.0,3075.0,1026.0,190.0,29.0
634611,County,2020/07/17,27.0,MN,27105.0,Nobles County,4067.0,17857.0,83168.0,22196.0,21663.0,6100.0,12873.0,11957.0,4728.0,2161.0,1118.0,344.0,28.0
637862,County,2020/07/18,27.0,MN,27105.0,Nobles County,4713.0,17211.0,79524.0,20909.0,20463.0,7051.0,13115.0,9507.0,4243.0,2413.0,1397.0,384.0,42.0
639442,County,2020/07/19,27.0,MN,27105.0,Nobles County,4945.0,16979.0,74873.0,21918.0,17258.0,5691.0,10523.0,9660.0,4415.0,3436.0,1538.0,347.0,87.0
642676,County,2020/07/20,27.0,MN,27105.0,Nobles County,4716.0,17208.0,89114.0,22368.0,23440.0,8317.0,12133.0,13549.0,4301.0,3670.0,1166.0,123.0,47.0
647916,County,2020/07/21,27.0,MN,27105.0,Nobles County,4304.0,17620.0,83024.0,24328.0,20648.0,6173.0,11719.0,11145.0,4637.0,2867.0,1246.0,219.0,42.0
650630,County,2020/07/22,27.0,MN,27105.0,Nobles County,4413.0,17511.0,90064.0,26155.0,25075.0,7778.0,8488.0,11511.0,6177.0,3257.0,1440.0,113.0,70.0
652171,County,2020/07/23,27.0,MN,27105.0,Nobles County,4714.0,17210.0,84010.0,19167.0,18723.0,8820.0,14243.0,13440.0,5072.0,2942.0,1313.0,248.0,42.0
655295,County,2020/07/24,27.0,MN,27105.0,Nobles County,4461.0,17463.0,90661.0,23068.0,23472.0,9994.0,13233.0,12704.0,4299.0,2120.0,1482.0,247.0,42.0
658640,County,2020/07/25,27.0,MN,27105.0,Nobles County,4951.0,16973.0,84182.0,24776.0,20007.0,7484.0,10232.0,12284.0,4963.0,3286.0,883.0,211.0,56.0
661840,County,2020/07/26,27.0,MN,27105.0,Nobles County,4538.0,17386.0,77954.0,20981.0,17255.0,5465.0,13992.0,11814.0,3356.0,3123.0,1482.0,343.0,143.0
666618,County,2020/07/27,27.0,MN,27105.0,Nobles County,4580.0,17344.0,89336.0,28633.0,17464.0,8288.0,12859.0,12793.0,5133.0,2522.0,1373.0,222.0,49.0
669870,County,2020/07/28,27.0,MN,27105.0,Nobles County,4412.0,17512.0,92799.0,30412.0,20360.0,7038.0,13175.0,11182.0,4895.0,3934.0,1440.0,318.0,45.0
673084,County,2020/07/29,27.0,MN,27105.0,Nobles County,4514.0,17410.0,92652.0,25945.0,21229.0,7891.0,14151.0,12954.0,5545.0,3265.0,1241.0,382.0,49.0
676165,County,2020/07/30,27.0,MN,27105.0,Nobles County,4502.0,17422.0,96129.0,27943.0,25441.0,7690.0,14651.0,11371.0,4338.0,2987.0,1411.0,249.0,48.0
679393,County,2020/07/31,27.0,MN,27105.0,Nobles County,4635.0,17289.0,103129.0,33581.0,25280.0,6535.0,14240.0,13947.0,4468.0,3529.0,1315.0,203.0,31.0
680973,County,2020/08/01,27.0,MN,27105.0,Nobles County,4459.0,17465.0,89416.0,27431.0,20495.0,5204.0,13013.0,12313.0,5018.0,4350.0,1214.0,297.0,81.0
684196,County,2020/08/02,27.0,MN,27105.0,Nobles County,4901.0,17023.0,86887.0,25673.0,20710.0,6776.0,9326.0,14227.0,5234.0,3294.0,1362.0,210.0,75.0
687393,County,2020/08/03,27.0,MN,27105.0,Nobles County,4685.0,17239.0,97489.0,30023.0,25234.0,7627.0,10343.0,15024.0,4733.0,3330.0,1063.0,101.0,11.0
690585,County,2020/08/04,27.0,MN,27105.0,Nobles County,4612.0,17312.0,94556.0,23975.0,21792.0,10880.0,13585.0,13842.0,5543.0,3174.0,1374.0,372.0,19.0
695344,County,2020/08/05,27.0,MN,27105.0,Nobles County,4268.0,17656.0,96507.0,30121.0,23284.0,7003.0,12870.0,14059.0,4852.0,3074.0,918.0,283.0,43.0
698539,County,2020/08/06,27.0,MN,27105.0,Nobles County,4339.0,17585.0,88519.0,19411.0,21208.0,9637.0,12350.0,15610.0,6212.0,2296.0,1492.0,225.0,78.0
701735,County,2020/08/07,27.0,MN,27105.0,Nobles County,4169.0,17755.0,82645.0,23458.0,22500.0,6786.0,10826.0,9035.0,5649.0,2472.0,1598.0,266.0,55.0
703364,County,2020/08/08,27.0,MN,27105.0,Nobles County,4574.0,17350.0,80241.0,22376.0,18515.0,6815.0,12783.0,11053.0,5322.0,2064.0,996.0,296.0,21.0
708145,County,2020/08/09,27.0,MN,27105.0,Nobles County,4705.0,17219.0,67774.0,17951.0,18321.0,5377.0,8085.0,8612.0,4070.0,3168.0,1450.0,641.0,99.0
709775,County,2020/08/10,27.0,MN,27105.0,Nobles County,4225.0,17699.0,72851.0,18600.0,19540.0,7277.0,7570.0,10265.0,5385.0,2905.0,874.0,404.0,31.0
712945,County,2020/08/11,27.0,MN,27105.0,Nobles County,4519.0,17405.0,82188.0,20998.0,21533.0,7323.0,9684.0,11721.0,6088.0,3339.0,1152.0,296.0,54.0
716138,County,2020/08/12,27.0,MN,27105.0,Nobles County,4470.0,17454.0,79930.0,20499.0,20376.0,7002.0,11221.0,10884.0,4638.0,3523.0,1318.0,389.0,80.0
719331,County,2020/08/13,27.0,MN,27105.0,Nobles County,4197.0,17727.0,79675.0,21827.0,20913.0,5570.0,11397.0,9904.0,4581.0,3523.0,1082.0,684.0,194.0
722524,County,2020/08/14,27.0,MN,27105.0,Nobles County,3967.0,17957.0,88225.0,29039.0,21750.0,6731.0,9680.0,11382.0,4946.0,2761.0,1482.0,324.0,130.0
725755,County,2020/08/15,27.0,MN,27105.0,Nobles County,3909.0,18015.0,71973.0,19077.0,16489.0,6106.0,9524.0,9390.0,4884.0,4513.0,1197.0,581.0,212.0
728914,County,2020/08/16,27.0,MN,27105.0,Nobles County,4856.0,17068.0,75145.0,22243.0,20691.0,3315.0,6811.0,10924.0,4737.0,3592.0,1759.0,828.0,245.0
732107,County,2020/08/17,27.0,MN,27105.0,Nobles County,4540.0,17384.0,77449.0,18250.0,19060.0,5565.0,9979.0,12833.0,5646.0,3290.0,1945.0,674.0,207.0
736867,County,2020/08/18,27.0,MN,27105.0,Nobles County,4354.0,17570.0,79558.0,19250.0,19084.0,6515.0,10207.0,13367.0,5393.0,3530.0,1467.0,513.0,232.0
740061,County,2020/08/19,27.0,MN,27105.0,Nobles County,4312.0,17612.0,79428.0,22534.0,19025.0,8175.0,8128.0,9641.0,6173.0,3246.0,1679.0,585.0,242.0
741690,County,2020/08/20,27.0,MN,27105.0,Nobles County,4041.0,17883.0,95878.0,34159.0,24487.0,6498.0,8172.0,11443.0,5802.0,3199.0,1405.0,491.0,222.0
744889,County,2020/08/21,27.0,MN,27105.0,Nobles County,3690.0,18234.0,82668.0,22539.0,21148.0,6539.0,8836.0,12478.0,4450.0,3913.0,1964.0,586.0,215.0
748095,County,2020/08/22,27.0,MN,27105.0,Nobles County,4080.0,17844.0,75502.0,20001.0,15952.0,5928.0,8874.0,11793.0,6761.0,4129.0,1492.0,408.0,164.0
752839,County,2020/08/23,27.0,MN,27105.0,Nobles County,5064.0,16860.0,63319.0,16272.0,15936.0,5271.0,8551.0,9316.0,3474.0,2771.0,1067.0,462.0,199.0
756031,County,2020/08/24,27.0,MN,27105.0,Nobles County,4873.0,17051.0,71985.0,17108.0,22220.0,6820.0,7032.0,9621.0,4523.0,2764.0,1340.0,413.0,144.0
757661,County,2020/08/25,27.0,MN,27105.0,Nobles County,4534.0,17390.0,71943.0,17709.0,21939.0,5331.0,7429.0,9943.0,4669.0,2960.0,1447.0,334.0,182.0
760854,County,2020/08/26,27.0,MN,27105.0,Nobles County,4781.0,17143.0,80179.0,23219.0,22134.0,5596.0,10647.0,10256.0,4569.0,1977.0,1198.0,459.0,124.0
764010,County,2020/08/27,27.0,MN,27105.0,Nobles County,4419.0,17505.0,75665.0,18776.0,18726.0,7440.0,9879.0,10932.0,4674.0,3243.0,1485.0,432.0,78.0
767218,County,2020/08/28,27.0,MN,27105.0,Nobles County,4398.0,17526.0,78078.0,19126.0,21270.0,6706.0,10133.0,11459.0,3945.0,3215.0,1818.0,288.0,118.0
771994,County,2020/08/29,27.0,MN,27105.0,Nobles County,4377.0,17547.0,81949.0,20800.0,20865.0,6487.0,11848.0,11921.0,4382.0,3738.0,1501.0,267.0,140.0
775212,County,2020/08/30,27.0,MN,27105.0,Nobles County,5083.0,16841.0,67424.0,19579.0,17352.0,4434.0,10580.0,7258.0,3660.0,2259.0,1615.0,540.0,147.0
776819,County,2020/08/31,27.0,MN,27105.0,Nobles County,4767.0,17157.0,70074.0,20381.0,18938.0,6255.0,7561.0,8512.0,3940.0,2848.0,1267.0,272.0,100.0
781601,County,2020/09/01,27.0,MN,27105.0,Nobles County,4863.0,17061.0,86609.0,23968.0,24735.0,6233.0,9256.0,11521.0,3933.0,4868.0,1668.0,378.0,49.0
783994,County,2020/09/02,27.0,MN,27105.0,Nobles County,4768.0,17156.0,82720.0,22733.0,21694.0,5683.0,11676.0,11199.0,4839.0,3248.0,1225.0,323.0,100.0
786355,County,2020/09/03,27.0,MN,27105.0,Nobles County,4730.0,17194.0,80905.0,19267.0,22161.0,7587.0,11691.0,11220.0,3835.0,3271.0,1399.0,271.0,203.0
789560,County,2020/09/04,27.0,MN,27105.0,Nobles County,5055.0,16869.0,68943.0,16819.0,16502.0,5281.0,9488.0,10921.0,4190.0,3784.0,1522.0,302.0,134.0
792690,County,2020/09/05,27.0,MN,27105.0,Nobles County,4871.0,17053.0,71557.0,18512.0,14240.0,5701.0,14056.0,9598.0,3660.0,3530.0,1756.0,454.0,50.0
795980,County,2020/09/06,27.0,MN,27105.0,Nobles County,5112.0,16812.0,72978.0,25612.0,17040.0,5613.0,7759.0,8377.0,2778.0,4266.0,1144.0,227.0,162.0
799189,County,2020/09/07,27.0,MN,27105.0,Nobles County,5335.0,16589.0,66119.0,15078.0,13957.0,5290.0,13043.0,9676.0,3902.0,2933.0,1558.0,531.0,151.0
803941,County,2020/09/08,27.0,MN,27105.0,Nobles County,4917.0,17007.0,72583.0,16137.0,20771.0,7808.0,6755.0,11549.0,4997.0,2800.0,1250.0,395.0,121.0
805570,County,2020/09/09,27.0,MN,27105.0,Nobles County,4635.0,17289.0,76756.0,15521.0,22104.0,6241.0,9938.0,12804.0,4741.0,3563.0,1218.0,520.0,106.0
810338,County,2020/09/10,27.0,MN,27105.0,Nobles County,4671.0,17253.0,78985.0,18999.0,21306.0,8335.0,9153.0,12147.0,4609.0,2359.0,1690.0,289.0,98.0
813522,County,2020/09/11,27.0,MN,27105.0,Nobles County,4433.0,17491.0,79702.0,19161.0,22038.0,6833.0,8731.0,12979.0,5546.0,2770.0,1194.0,331.0,119.0
816717,County,2020/09/12,27.0,MN,27105.0,Nobles County,5060.0,16864.0,75509.0,23766.0,21108.0,5207.0,6985.0,9026.0,4501.0,3342.0,1141.0,339.0,94.0
818324,County,2020/09/13,27.0,MN,27105.0,Nobles County,4973.0,16951.0,63581.0,16394.0,17611.0,4234.0,7691.0,9808.0,2668.0,3519.0,1202.0,322.0,132.0
823107,County,2020/09/14,27.0,MN,27105.0,Nobles County,4735.0,17189.0,84833.0,20742.0,21198.0,6454.0,10156.0,16186.0,5008.0,3189.0,1220.0,548.0,132.0
824734,County,2020/09/15,27.0,MN,27105.0,Nobles County,4792.0,17132.0,84493.0,22160.0,22636.0,6540.0,9608.0,13290.0,5606.0,2843.0,1404.0,339.0,67.0
829492,County,2020/09/16,27.0,MN,27105.0,Nobles County,4767.0,17157.0,87427.0,21463.0,20537.0,7871.0,12995.0,13842.0,5203.0,3394.0,1621.0,405.0,96.0
831120,County,2020/09/17,27.0,MN,27105.0,Nobles County,4663.0,17261.0,84781.0,21943.0,20191.0,6781.0,13711.0,12244.0,5095.0,2960.0,1271.0,511.0,74.0
835881,County,2020/09/18,27.0,MN,27105.0,Nobles County,4523.0,17401.0,93047.0,26247.0,25652.0,6420.0,9979.0,14371.0,4786.0,3436.0,1710.0,341.0,105.0
837510,County,2020/09/19,27.0,MN,27105.0,Nobles County,5113.0,16811.0,78744.0,22106.0,19355.0,4795.0,10765.0,10348.0,4381.0,5089.0,1563.0,190.0,152.0
840702,County,2020/09/20,27.0,MN,27105.0,Nobles County,5287.0,16637.0,61599.0,15298.0,18496.0,4120.0,9768.0,6148.0,3364.0,2870.0,1294.0,176.0,65.0
845489,County,2020/09/21,27.0,MN,27105.0,Nobles County,5403.0,16521.0,85023.0,25718.0,21269.0,8721.0,10751.0,9760.0,5204.0,2103.0,1128.0,335.0,34.0
848657,County,2020/09/22,27.0,MN,27105.0,Nobles County,4879.0,17045.0,80001.0,20324.0,21561.0,8306.0,9521.0,11525.0,4918.0,2842.0,770.0,194.0,40.0
850286,County,2020/09/23,27.0,MN,27105.0,Nobles County,4762.0,17162.0,82324.0,25330.0,20375.0,5436.0,13049.0,10672.0,3816.0,2126.0,1237.0,254.0,29.0
855051,County,2020/09/24,27.0,MN,27105.0,Nobles County,4925.0,16999.0,84230.0,24064.0,18171.0,8723.0,13621.0,12149.0,3482.0,2296.0,1292.0,323.0,109.0
858238,County,2020/09/25,27.0,MN,27105.0,Nobles County,4440.0,17484.0,83920.0,26231.0,20071.0,6044.0,10160.0,12196.0,4786.0,2934.0,1221.0,183.0,94.0
859866,County,2020/09/26,27.0,MN,27105.0,Nobles County,4729.0,17195.0,84662.0,28714.0,19248.0,4760.0,10563.0,13378.0,3542.0,3611.0,686.0,106.0,54.0
864613,County,2020/09/27,27.0,MN,27105.0,Nobles County,4988.0,16936.0,71125.0,19390.0,16419.0,4426.0,14549.0,9295.0,2498.0,3121.0,945.0,437.0,45.0
867821,County,2020/09/28,27.0,MN,27105.0,Nobles County,4797.0,17127.0,81301.0,22702.0,21744.0,6424.0,12749.0,10990.0,3583.0,2183.0,602.0,313.0,11.0
869449,County,2020/09/29,27.0,MN,27105.0,Nobles County,4356.0,17568.0,76380.0,19163.0,21080.0,6710.0,10003.0,10478.0,5266.0,2681.0,728.0,239.0,32.0
872642,County,2020/09/30,27.0,MN,27105.0,Nobles County,4612.0,17312.0,82561.0,27378.0,19773.0,4418.0,9710.0,12183.0,4811.0,3212.0,786.0,257.0,33.0
877382,County,2020/10/01,27.0,MN,27105.0,Nobles County,4507.0,17417.0,83603.0,26432.0,22788.0,5473.0,8012.0,10718.0,5586.0,3335.0,925.0,279.0,55.0
880597,County,2020/10/02,27.0,MN,27105.0,Nobles County,4861.0,17063.0,79765.0,20575.0,22323.0,5639.0,8734.0,12514.0,5746.0,2955.0,1168.0,70.0,41.0
883793,County,2020/10/03,27.0,MN,27105.0,Nobles County,4636.0,17288.0,73831.0,18475.0,20023.0,5126.0,8492.0,12312.0,4535.0,3646.0,1074.0,136.0,12.0
886036,County,2020/10/04,27.0,MN,27105.0,Nobles County,4995.0,16929.0,71622.0,21974.0,18850.0,4838.0,8820.0,9064.0,3834.0,2983.0,958.0,265.0,36.0
889282,County,2020/10/05,27.0,MN,27105.0,Nobles County,5028.0,16896.0,80496.0,26165.0,21490.0,6484.0,9728.0,9466.0,2856.0,2731.0,1256.0,290.0,30.0
892441,County,2020/10/06,27.0,MN,27105.0,Nobles County,4606.0,17318.0,90245.0,29625.0,24588.0,6265.0,8277.0,12120.0,4559.0,3260.0,1198.0,328.0,25.0
895639,County,2020/10/07,27.0,MN,27105.0,Nobles County,4311.0,17613.0,100292.0,32012.0,30554.0,7621.0,10935.0,10902.0,4798.0,2404.0,867.0,160.0,39.0
898820,County,2020/10/08,27.0,MN,27105.0,Nobles County,4334.0,17590.0,78168.0,20486.0,21990.0,6594.0,9311.0,11610.0,4163.0,2568.0,1228.0,184.0,34.0
902052,County,2020/10/09,27.0,MN,27105.0,Nobles County,4660.0,17264.0,78440.0,25125.0,16989.0,5727.0,7706.0,13596.0,4203.0,3822.0,961.0,274.0,37.0
905255,County,2020/10/10,27.0,MN,27105.0,Nobles County,4730.0,17194.0,78354.0,18038.0,18199.0,5698.0,13279.0,11984.0,4883.0,4866.0,1197.0,192.0,18.0
908940,County,2020/10/11,27.0,MN,27105.0,Nobles County,4850.0,17074.0,67738.0,15158.0,20992.0,4924.0,9712.0,8936.0,2411.0,4448.0,984.0,159.0,14.0
911958,County,2020/10/12,27.0,MN,27105.0,Nobles County,4933.0,16991.0,84492.0,21014.0,20220.0,6970.0,13008.0,14249.0,5499.0,2219.0,1097.0,191.0,25.0
915272,County,2020/10/13,27.0,MN,27105.0,Nobles County,4518.0,17406.0,85935.0,26800.0,22937.0,5038.0,10022.0,11644.0,5268.0,2944.0,1048.0,210.0,24.0
918373,County,2020/10/14,27.0,MN,27105.0,Nobles County,4417.0,17507.0,88573.0,26260.0,23727.0,5047.0,12308.0,13016.0,3282.0,3515.0,1122.0,276.0,20.0
922086,County,2020/10/15,27.0,MN,27105.0,Nobles County,5005.0,16919.0,84407.0,26407.0,17831.0,6045.0,12663.0,11026.0,5160.0,3589.0,1452.0,189.0,45.0
925189,County,2020/10/16,27.0,MN,27105.0,Nobles County,4549.0,17375.0,86692.0,27255.0,18697.0,6948.0,11757.0,10190.0,5786.0,4690.0,1172.0,156.0,41.0
928451,County,2020/10/17,27.0,MN,27105.0,Nobles County,4618.0,17306.0,82519.0,26075.0,19629.0,4867.0,9643.0,12697.0,4084.0,4097.0,1229.0,167.0,31.0
931115,County,2020/10/18,27.0,MN,27105.0,Nobles County,5317.0,16607.0,64727.0,14207.0,17482.0,4948.0,10725.0,10510.0,2755.0,2598.0,1111.0,358.0,33.0
933864,County,2020/10/19,27.0,MN,27105.0,Nobles County,4758.0,17166.0,78500.0,23120.0,18830.0,4671.0,8052.0,15667.0,4411.0,2360.0,1095.0,276.0,18.0
937288,County,2020/10/20,27.0,MN,27105.0,Nobles County,4874.0,17050.0,78261.0,17941.0,21166.0,5325.0,10145.0,16066.0,3485.0,2988.0,948.0,163.0,34.0
941172,County,2020/10/21,27.0,MN,27105.0,Nobles County,5154.0,16770.0,73219.0,17854.0,17682.0,6178.0,6620.0,13997.0,5428.0,3361.0,1789.0,274.0,36.0
944430,County,2020/10/22,27.0,MN,27105.0,Nobles County,4501.0,17423.0,68352.0,14876.0,20127.0,5343.0,8144.0,10020.0,5260.0,3016.0,1336.0,199.0,31.0
947262,County,2020/10/23,27.0,MN,27105.0,Nobles County,4361.0,17563.0,81322.0,20056.0,20418.0,5761.0,10537.0,14747.0,4396.0,3725.0,1309.0,352.0,21.0
950142,County,2020/10/24,27.0,MN,27105.0,Nobles County,4788.0,17136.0,88678.0,25912.0,22546.0,5217.0,12064.0,13190.0,3864.0,4676.0,991.0,198.0,20.0
