,Level,Date,State FIPS,State Postal Code,County FIPS,County Name,Population Staying at Home,Population Not Staying at Home,Number of Trips,Number of Trips <1,Number of Trips 1-3,Number of Trips 3-5,Number of Trips 5-10,Number of Trips 10-25,Number of Trips 25-50,Number of Trips 50-100,Number of Trips 100-250,Number of Trips 250-500,Number of Trips >=500
594,County,2020/01/01,16.0,ID,16087.0,Washington County,3453.0,6708.0,28738.0,8657.0,6661.0,2953.0,3474.0,5503.0,1014.0,167.0,234.0,75.0,0.0
5976,County,2020/01/02,16.0,ID,16087.0,Washington County,2607.0,7554.0,38472.0,13700.0,9164.0,2679.0,2205.0,8410.0,1124.0,925.0,195.0,47.0,23.0
8025,County,2020/01/03,16.0,ID,16087.0,Washington County,2817.0,7344.0,35925.0,10441.0,9924.0,2499.0,3130.0,6917.0,1750.0,952.0,253.0,34.0,25.0
9915,County,2020/01/04,16.0,ID,16087.0,Washington County,3016.0,7145.0,31910.0,10002.0,6651.0,2771.0,2499.0,6528.0,1616.0,1570.0,256.0,17.0,0.0
13370,County,2020/01/05,16.0,ID,16087.0,Washington County,3486.0,6675.0,26042.0,7456.0,7872.0,2026.0,2661.0,4415.0,729.0,539.0,303.0,41.0,0.0
17884,County,2020/01/06,16.0,ID,16087.0,Washington County,2972.0,7189.0,33577.0,10685.0,7932.0,2001.0,2359.0,8584.0,654.0,1052.0,282.0,16.0,12.0
21030,County,2020/01/07,16.0,ID,16087.0,Washington County,2729.0,7432.0,35772.0,11528.0,9225.0,3544.0,2304.0,6083.0,1460.0,1321.0,270.0,27.0,10.0
22657,County,2020/01/08,16.0,ID,16087.0,Washington County,2583.0,7578.0,35779.0,11870.0,8087.0,2456.0,3262.0,6674.0,1797.0,1106.0,482.0,26.0,19.0
25852,County,2020/01/09,16.0,ID,16087.0,Washington County,2414.0,7747.0,38182.0,12793.0,10545.0,2534.0,2408.0,7585.0,1391.0,732.0,123.0,62.0,9.0
29047,County,2020/01/10,16.0,ID,16087.0,Washington County,2511.0,7650.0,39448.0,13168.0,9137.0,2503.0,2813.0,9128.0,1536.0,855.0,262.0,26.0,20.0
33856,County,2020/01/11,16.0,ID,16087.0,Washington County,2900.0,7261.0,38957.0,12051.0,11480.0,3247.0,3250.0,6256.0,1501.0,947.0,173.0,42.0,10.0
36975,County,2020/01/12,16.0,ID,16087.0,Washington County,3282.0,6879.0,34476.0,12075.0,9335.0,3817.0,2763.0,4663.0,1126.0,642.0,42.0,0.0,13.0
40223,County,2020/01/13,16.0,ID,16087.0,Washington County,2983.0,7178.0,36486.0,12305.0,10036.0,3079.0,2745.0,6465.0,866.0,733.0,206.0,41.0,10.0
41849,County,2020/01/14,16.0,ID,16087.0,Washington County,2488.0,7673.0,38234.0,12823.0,10660.0,1953.0,3056.0,7158.0,1440.0,834.0,191.0,90.0,29.0
45002,County,2020/01/15,16.0,ID,16087.0,Washington County,2482.0,7679.0,37041.0,12141.0,10206.0,1885.0,3492.0,6825.0,1390.0,805.0,154.0,87.0,56.0
49734,County,2020/01/16,16.0,ID,16087.0,Washington County,2792.0,7369.0,33694.0,10670.0,9775.0,1817.0,2240.0,6003.0,2129.0,817.0,164.0,79.0,0.0
53021,County,2020/01/17,16.0,ID,16087.0,Washington County,2456.0,7705.0,35297.0,11027.0,9480.0,1992.0,2036.0,8046.0,1217.0,1238.0,153.0,62.0,46.0
56142,County,2020/01/18,16.0,ID,16087.0,Washington County,2978.0,7183.0,35727.0,12651.0,9119.0,2052.0,2386.0,6579.0,1737.0,1099.0,74.0,30.0,0.0
59389,County,2020/01/19,16.0,ID,16087.0,Washington County,3065.0,7096.0,34308.0,11863.0,10529.0,2616.0,2240.0,4248.0,1602.0,1099.0,74.0,15.0,22.0
62552,County,2020/01/20,16.0,ID,16087.0,Washington County,2767.0,7394.0,31928.0,9493.0,9178.0,2074.0,2119.0,6023.0,1721.0,898.0,296.0,66.0,60.0
65751,County,2020/01/21,16.0,ID,16087.0,Washington County,2624.0,7537.0,34682.0,9516.0,10929.0,1893.0,2371.0,6551.0,1614.0,1442.0,224.0,103.0,39.0
68942,County,2020/01/22,16.0,ID,16087.0,Washington County,2106.0,8055.0,39183.0,13669.0,10670.0,1761.0,2638.0,7051.0,1496.0,1422.0,430.0,37.0,9.0
70566,County,2020/01/23,16.0,ID,16087.0,Washington County,2475.0,7686.0,36780.0,10340.0,12419.0,2068.0,1820.0,7066.0,1844.0,928.0,150.0,109.0,36.0
73763,County,2020/01/24,16.0,ID,16087.0,Washington County,3081.0,7080.0,39128.0,11712.0,11933.0,2520.0,2839.0,7578.0,1342.0,923.0,169.0,41.0,71.0
76955,County,2020/01/25,16.0,ID,16087.0,Washington County,3066.0,7095.0,34206.0,8622.0,11058.0,2939.0,2235.0,7332.0,839.0,977.0,143.0,29.0,32.0
80444,County,2020/01/26,16.0,ID,16087.0,Washington County,3381.0,6780.0,28297.0,6928.0,10366.0,1792.0,2930.0,4306.0,812.0,713.0,337.0,90.0,23.0
84634,County,2020/01/27,16.0,ID,16087.0,Washington County,2739.0,7422.0,33024.0,9318.0,10833.0,1907.0,1583.0,7073.0,1406.0,629.0,187.0,50.0,38.0
86552,County,2020/01/28,16.0,ID,16087.0,Washington County,2394.0,7767.0,33659.0,11841.0,8693.0,1711.0,2369.0,6237.0,1563.0,823.0,231.0,104.0,87.0
91285,County,2020/01/29,16.0,ID,16087.0,Washington County,2561.0,7600.0,35539.0,10109.0,10623.0,1840.0,2790.0,7132.0,1569.0,1107.0,279.0,62.0,28.0
93011,County,2020/01/30,16.0,ID,16087.0,Washington County,2450.0,7711.0,35241.0,10972.0,11372.0,1714.0,2569.0,5639.0,1726.0,994.0,90.0,84.0,81.0
97685,County,2020/01/31,16.0,ID,16087.0,Washington County,2575.0,7586.0,37177.0,10117.0,12427.0,1294.0,2424.0,7326.0,1374.0,1910.0,169.0,68.0,68.0
100873,County,2020/02/01,16.0,ID,16087.0,Washington County,2702.0,7459.0,35124.0,11287.0,7568.0,2081.0,2930.0,7078.0,1646.0,2306.0,118.0,12.0,98.0
102491,County,2020/02/02,16.0,ID,16087.0,Washington County,3322.0,6839.0,26571.0,7464.0,6867.0,1999.0,2246.0,5622.0,566.0,1573.0,139.0,84.0,11.0
105701,County,2020/02/03,16.0,ID,16087.0,Washington County,2819.0,7342.0,32997.0,11080.0,7882.0,2007.0,1992.0,6070.0,2003.0,1425.0,330.0,145.0,63.0
110462,County,2020/02/04,16.0,ID,16087.0,Washington County,2667.0,7494.0,34400.0,10609.0,9853.0,2092.0,1969.0,7088.0,1351.0,1026.0,317.0,69.0,26.0
113618,County,2020/02/05,16.0,ID,16087.0,Washington County,2633.0,7528.0,32968.0,10912.0,8880.0,1996.0,1653.0,6866.0,1120.0,1140.0,254.0,113.0,34.0
116824,County,2020/02/06,16.0,ID,16087.0,Washington County,2770.0,7391.0,34249.0,12084.0,8383.0,1823.0,2484.0,6084.0,2086.0,1064.0,116.0,81.0,44.0
120078,County,2020/02/07,16.0,ID,16087.0,Washington County,2345.0,7816.0,34352.0,11779.0,8002.0,1484.0,3285.0,6792.0,1541.0,1168.0,181.0,42.0,78.0
121697,County,2020/02/08,16.0,ID,16087.0,Washington County,2790.0,7371.0,31828.0,10722.0,6151.0,1504.0,2415.0,8372.0,1267.0,1135.0,169.0,34.0,59.0
124866,County,2020/02/09,16.0,ID,16087.0,Washington County,3255.0,6906.0,30070.0,8706.0,7648.0,2992.0,2238.0,5731.0,1311.0,1261.0,56.0,34.0,93.0
128903,County,2020/02/10,16.0,ID,16087.0,Washington County,2762.0,7399.0,36301.0,11028.0,9289.0,1853.0,2368.0,8101.0,1216.0,2048.0,189.0,87.0,122.0
131549,County,2020/02/11,16.0,ID,16087.0,Washington County,2456.0,7705.0,36932.0,10597.0,9236.0,1741.0,1988.0,9008.0,1982.0,2036.0,241.0,54.0,49.0
134922,County,2020/02/12,16.0,ID,16087.0,Washington County,2249.0,7912.0,36675.0,12048.0,8032.0,1966.0,3184.0,8641.0,1449.0,1073.0,126.0,80.0,76.0
139254,County,2020/02/13,16.0,ID,16087.0,Washington County,2657.0,7504.0,33571.0,11854.0,7989.0,1765.0,3084.0,6108.0,1128.0,1203.0,209.0,168.0,63.0
140738,County,2020/02/14,16.0,ID,16087.0,Washington County,2271.0,7890.0,40628.0,13470.0,10362.0,1890.0,3311.0,8420.0,1325.0,1578.0,85.0,68.0,119.0
145616,County,2020/02/15,16.0,ID,16087.0,Washington County,2943.0,7218.0,37112.0,12744.0,9752.0,1478.0,2824.0,7720.0,1456.0,838.0,67.0,81.0,152.0
147223,County,2020/02/16,16.0,ID,16087.0,Washington County,3163.0,6998.0,33336.0,11362.0,9534.0,2844.0,2481.0,5556.0,786.0,561.0,73.0,29.0,110.0
151985,County,2020/02/17,16.0,ID,16087.0,Washington County,3997.0,6164.0,27750.0,8834.0,7414.0,1144.0,1908.0,6200.0,1194.0,711.0,189.0,51.0,105.0
153611,County,2020/02/18,16.0,ID,16087.0,Washington County,3008.0,7153.0,34506.0,10086.0,10867.0,2057.0,2465.0,6087.0,1205.0,1234.0,371.0,90.0,44.0
156806,County,2020/02/19,16.0,ID,16087.0,Washington County,2574.0,7587.0,34135.0,9862.0,9286.0,1794.0,2538.0,8586.0,1042.0,687.0,181.0,72.0,87.0
161470,County,2020/02/20,16.0,ID,16087.0,Washington County,2712.0,7449.0,36122.0,11155.0,9351.0,3774.0,2669.0,5398.0,1781.0,1398.0,379.0,137.0,80.0
164761,County,2020/02/21,16.0,ID,16087.0,Washington County,2713.0,7448.0,33433.0,10097.0,8390.0,2248.0,2716.0,7211.0,1222.0,1313.0,107.0,43.0,86.0
167905,County,2020/02/22,16.0,ID,16087.0,Washington County,2487.0,7674.0,37520.0,12423.0,9143.0,1916.0,3408.0,7105.0,1474.0,1808.0,38.0,104.0,101.0
171153,County,2020/02/23,16.0,ID,16087.0,Washington County,3160.0,7001.0,31353.0,9290.0,7582.0,2407.0,3034.0,6541.0,1363.0,598.0,420.0,67.0,51.0
172731,County,2020/02/24,16.0,ID,16087.0,Washington County,2841.0,7320.0,33934.0,12675.0,9912.0,1678.0,2216.0,4601.0,859.0,1565.0,329.0,88.0,11.0
176705,County,2020/02/25,16.0,ID,16087.0,Washington County,2402.0,7759.0,35445.0,11234.0,10379.0,1434.0,3257.0,6268.0,1579.0,940.0,208.0,134.0,12.0
179458,County,2020/02/26,16.0,ID,16087.0,Washington County,2311.0,7850.0,28465.0,6819.0,8666.0,1434.0,3744.0,5467.0,902.0,1089.0,251.0,68.0,25.0
183625,County,2020/02/27,16.0,ID,16087.0,Washington County,2249.0,7912.0,38574.0,13699.0,10793.0,1546.0,2963.0,6544.0,1582.0,1241.0,135.0,41.0,30.0
187167,County,2020/02/28,16.0,ID,16087.0,Washington County,2815.0,7346.0,41735.0,14973.0,10138.0,2742.0,2335.0,8822.0,1437.0,1089.0,159.0,16.0,24.0
190264,County,2020/02/29,16.0,ID,16087.0,Washington County,3000.0,7161.0,32699.0,9422.0,8052.0,1763.0,3516.0,6603.0,1743.0,1512.0,43.0,18.0,27.0
191936,County,2020/03/01,16.0,ID,16087.0,Washington County,2857.0,7304.0,29406.0,8931.0,7237.0,2006.0,3607.0,5853.0,985.0,548.0,210.0,17.0,12.0
196736,County,2020/03/02,16.0,ID,16087.0,Washington County,2906.0,7255.0,35600.0,13464.0,7384.0,1719.0,2790.0,7956.0,1241.0,691.0,264.0,43.0,48.0
199796,County,2020/03/03,16.0,ID,16087.0,Washington County,2518.0,7643.0,36797.0,10876.0,11328.0,1979.0,3257.0,5501.0,1453.0,1707.0,517.0,162.0,17.0
203051,County,2020/03/04,16.0,ID,16087.0,Washington County,2614.0,7547.0,30960.0,9951.0,6286.0,2491.0,1698.0,6959.0,1344.0,1622.0,434.0,100.0,75.0
206302,County,2020/03/05,16.0,ID,16087.0,Washington County,2453.0,7708.0,34695.0,14217.0,8413.0,1267.0,2472.0,5108.0,1414.0,1074.0,421.0,145.0,164.0
207784,County,2020/03/06,16.0,ID,16087.0,Washington County,2707.0,7454.0,29740.0,10588.0,8221.0,801.0,3002.0,4776.0,1387.0,580.0,280.0,0.0,105.0
212748,County,2020/03/07,16.0,ID,16087.0,Washington County,2648.0,7513.0,27614.0,6891.0,8016.0,1502.0,3209.0,4494.0,2450.0,424.0,499.0,86.0,43.0
214299,County,2020/03/08,16.0,ID,16087.0,Washington County,3067.0,7094.0,26232.0,7510.0,6154.0,2578.0,1902.0,6147.0,676.0,980.0,224.0,61.0,0.0
219058,County,2020/03/09,16.0,ID,16087.0,Washington County,2795.0,7366.0,30299.0,9516.0,8126.0,2003.0,2274.0,5571.0,1681.0,900.0,58.0,117.0,53.0
222252,County,2020/03/10,16.0,ID,16087.0,Washington County,2841.0,7320.0,30712.0,13192.0,4051.0,2958.0,1971.0,6070.0,971.0,960.0,404.0,135.0,0.0
223876,County,2020/03/11,16.0,ID,16087.0,Washington County,2266.0,7895.0,35866.0,11166.0,9954.0,1737.0,1776.0,8523.0,1172.0,1080.0,131.0,209.0,118.0
228621,County,2020/03/12,16.0,ID,16087.0,Washington County,2197.0,7964.0,33665.0,10065.0,8086.0,2211.0,2259.0,8429.0,1160.0,1068.0,129.0,103.0,155.0
231841,County,2020/03/13,16.0,ID,16087.0,Washington County,2398.0,7763.0,21352.0,8375.0,4965.0,578.0,2067.0,3720.0,819.0,539.0,0.0,61.0,228.0
234896,County,2020/03/14,16.0,ID,16087.0,Washington County,2987.0,7174.0,23820.0,3062.0,4785.0,4085.0,2276.0,6904.0,701.0,1385.0,194.0,311.0,117.0
236655,County,2020/03/15,16.0,ID,16087.0,Washington County,3847.0,6314.0,23383.0,4810.0,5576.0,2804.0,4457.0,4902.0,294.0,484.0,0.0,32.0,24.0
239849,County,2020/03/16,16.0,ID,16087.0,Washington County,2772.0,7389.0,33736.0,12607.0,7637.0,1940.0,2775.0,6520.0,1190.0,843.0,102.0,61.0,61.0
244655,County,2020/03/17,16.0,ID,16087.0,Washington County,3611.0,6550.0,34641.0,11174.0,8464.0,1250.0,4415.0,6504.0,1824.0,848.0,60.0,48.0,54.0
246236,County,2020/03/18,16.0,ID,16087.0,Washington County,3216.0,6945.0,25463.0,7066.0,4987.0,1477.0,2697.0,6945.0,1295.0,853.0,55.0,22.0,66.0
251018,County,2020/03/19,16.0,ID,16087.0,Washington County,3454.0,6707.0,29942.0,9014.0,8398.0,1921.0,3100.0,5352.0,1433.0,565.0,53.0,42.0,64.0
252627,County,2020/03/20,16.0,ID,16087.0,Washington County,3493.0,6668.0,35119.0,12564.0,9183.0,3055.0,4265.0,4078.0,1249.0,379.0,213.0,21.0,112.0
255819,County,2020/03/21,16.0,ID,16087.0,Washington County,3933.0,6228.0,26881.0,7643.0,6471.0,2260.0,4233.0,4490.0,830.0,546.0,263.0,26.0,119.0
260572,County,2020/03/22,16.0,ID,16087.0,Washington County,3272.0,6889.0,23675.0,7451.0,6045.0,2266.0,3262.0,3388.0,486.0,512.0,108.0,108.0,49.0
262210,County,2020/03/23,16.0,ID,16087.0,Washington County,3187.0,6974.0,22109.0,5886.0,5005.0,1039.0,2993.0,5946.0,714.0,352.0,99.0,60.0,15.0
265362,County,2020/03/24,16.0,ID,16087.0,Washington County,3323.0,6838.0,24148.0,7105.0,4170.0,1144.0,3188.0,7141.0,589.0,582.0,109.0,87.0,33.0
268596,County,2020/03/25,16.0,ID,16087.0,Washington County,3397.0,6764.0,29573.0,12587.0,5490.0,1692.0,4033.0,3710.0,1171.0,701.0,118.0,0.0,71.0
271789,County,2020/03/26,16.0,ID,16087.0,Washington County,3469.0,6692.0,30466.0,11082.0,8150.0,1861.0,3803.0,3445.0,620.0,1156.0,286.0,46.0,17.0
276551,County,2020/03/27,16.0,ID,16087.0,Washington County,3532.0,6629.0,29049.0,8622.0,8228.0,1193.0,4100.0,4808.0,1433.0,404.0,113.0,114.0,34.0
279737,County,2020/03/28,16.0,ID,16087.0,Washington County,3569.0,6592.0,23769.0,9894.0,5607.0,1376.0,3028.0,2119.0,899.0,658.0,111.0,44.0,33.0
281372,County,2020/03/29,16.0,ID,16087.0,Washington County,3725.0,6436.0,26701.0,9083.0,5037.0,1820.0,3719.0,5552.0,916.0,377.0,127.0,51.0,19.0
284565,County,2020/03/30,16.0,ID,16087.0,Washington County,3544.0,6617.0,35235.0,15737.0,7748.0,974.0,3539.0,5573.0,920.0,404.0,170.0,136.0,34.0
287761,County,2020/03/31,16.0,ID,16087.0,Washington County,3736.0,6425.0,33535.0,11930.0,7815.0,1560.0,5236.0,5258.0,631.0,831.0,233.0,23.0,18.0
292519,County,2020/04/01,16.0,ID,16087.0,Washington County,3469.0,6692.0,30078.0,13442.0,5956.0,1095.0,3356.0,4384.0,1033.0,680.0,57.0,23.0,52.0
294148,County,2020/04/02,16.0,ID,16087.0,Washington County,3518.0,6643.0,28000.0,11128.0,5391.0,1108.0,2603.0,5386.0,1464.0,757.0,116.0,47.0,0.0
297342,County,2020/04/03,16.0,ID,16087.0,Washington County,3309.0,6852.0,24591.0,10253.0,5372.0,730.0,2024.0,3876.0,1476.0,712.0,55.0,44.0,49.0
300535,County,2020/04/04,16.0,ID,16087.0,Washington County,3642.0,6519.0,29274.0,11205.0,5035.0,1256.0,4235.0,6467.0,593.0,312.0,66.0,26.0,79.0
305289,County,2020/04/05,16.0,ID,16087.0,Washington County,3616.0,6545.0,26679.0,10880.0,5958.0,1387.0,2964.0,4509.0,357.0,313.0,198.0,53.0,60.0
306925,County,2020/04/06,16.0,ID,16087.0,Washington County,3817.0,6344.0,27545.0,12002.0,6750.0,917.0,2275.0,4683.0,495.0,163.0,205.0,55.0,0.0
310118,County,2020/04/07,16.0,ID,16087.0,Washington County,3457.0,6704.0,38501.0,17763.0,7472.0,1898.0,4485.0,5259.0,1120.0,442.0,62.0,0.0,0.0
313312,County,2020/04/08,16.0,ID,16087.0,Washington County,3094.0,7067.0,29121.0,10789.0,5462.0,1734.0,2835.0,5622.0,1419.0,934.0,302.0,24.0,0.0
318071,County,2020/04/09,16.0,ID,16087.0,Washington County,3362.0,6799.0,24369.0,7265.0,4572.0,3193.0,2886.0,5270.0,928.0,229.0,0.0,26.0,0.0
321266,County,2020/04/10,16.0,ID,16087.0,Washington County,3113.0,7048.0,27168.0,10966.0,5282.0,1268.0,2945.0,5112.0,653.0,502.0,301.0,121.0,18.0
324503,County,2020/04/11,16.0,ID,16087.0,Washington County,3675.0,6486.0,25736.0,9296.0,4428.0,1125.0,4453.0,4826.0,796.0,437.0,294.0,59.0,22.0
326086,County,2020/04/12,16.0,ID,16087.0,Washington County,4002.0,6159.0,23512.0,7734.0,4373.0,2921.0,2714.0,4559.0,1003.0,83.0,69.0,56.0,0.0
329303,County,2020/04/13,16.0,ID,16087.0,Washington County,3525.0,6636.0,32865.0,10049.0,9262.0,2808.0,2245.0,5935.0,1613.0,455.0,447.0,51.0,0.0
334024,County,2020/04/14,16.0,ID,16087.0,Washington County,3193.0,6968.0,27050.0,10500.0,7037.0,1553.0,3173.0,4070.0,244.0,161.0,0.0,271.0,41.0
337277,County,2020/04/15,16.0,ID,16087.0,Washington County,2981.0,7180.0,29311.0,12030.0,3550.0,2479.0,2955.0,6206.0,975.0,770.0,216.0,130.0,0.0
340371,County,2020/04/16,16.0,ID,16087.0,Washington County,3175.0,6986.0,27009.0,6707.0,4388.0,1970.0,5593.0,6576.0,1033.0,272.0,343.0,92.0,35.0
342106,County,2020/04/17,16.0,ID,16087.0,Washington County,2962.0,7199.0,37656.0,14012.0,8177.0,1666.0,4620.0,7148.0,1573.0,147.0,125.0,150.0,38.0
346781,County,2020/04/18,16.0,ID,16087.0,Washington County,3069.0,7092.0,29297.0,8214.0,3456.0,2194.0,6054.0,7531.0,1450.0,272.0,0.0,92.0,34.0
348432,County,2020/04/19,16.0,ID,16087.0,Washington County,3300.0,6861.0,30935.0,10540.0,7006.0,1803.0,5263.0,4788.0,973.0,320.0,134.0,108.0,0.0
351639,County,2020/04/20,16.0,ID,16087.0,Washington County,2745.0,7416.0,33252.0,10899.0,8444.0,3195.0,2260.0,7029.0,928.0,305.0,0.0,154.0,38.0
354832,County,2020/04/21,16.0,ID,16087.0,Washington County,3409.0,6752.0,31582.0,14306.0,7334.0,976.0,3240.0,4361.0,921.0,227.0,128.0,51.0,38.0
358028,County,2020/04/22,16.0,ID,16087.0,Washington County,3323.0,6838.0,31742.0,14369.0,6856.0,1938.0,3379.0,3425.0,969.0,638.0,60.0,72.0,36.0
361133,County,2020/04/23,16.0,ID,16087.0,Washington County,3494.0,6667.0,34960.0,16290.0,6257.0,1833.0,3169.0,5444.0,532.0,1051.0,295.0,89.0,0.0
366021,County,2020/04/24,16.0,ID,16087.0,Washington County,3023.0,7138.0,33924.0,11061.0,8520.0,2618.0,3405.0,6639.0,1236.0,370.0,0.0,75.0,0.0
369177,County,2020/04/25,16.0,ID,16087.0,Washington County,3142.0,7019.0,23933.0,6908.0,5163.0,1352.0,3570.0,3868.0,2341.0,630.0,59.0,24.0,18.0
370767,County,2020/04/26,16.0,ID,16087.0,Washington County,3278.0,6883.0,24690.0,6527.0,8188.0,1741.0,3303.0,3556.0,704.0,541.0,130.0,0.0,0.0
375602,County,2020/04/27,16.0,ID,16087.0,Washington County,3443.0,6718.0,33845.0,14277.0,6711.0,1847.0,3339.0,5892.0,939.0,706.0,74.0,60.0,0.0
378725,County,2020/04/28,16.0,ID,16087.0,Washington County,2794.0,7367.0,35787.0,8177.0,10910.0,3362.0,5153.0,7213.0,529.0,279.0,117.0,47.0,0.0
380400,County,2020/04/29,16.0,ID,16087.0,Washington County,3094.0,7067.0,43871.0,16446.0,11435.0,2188.0,3801.0,8607.0,723.0,476.0,172.0,23.0,0.0
385146,County,2020/04/30,16.0,ID,16087.0,Washington County,3124.0,7037.0,37457.0,9269.0,8573.0,2147.0,8196.0,7110.0,1600.0,562.0,0.0,0.0,0.0
386772,County,2020/05/01,16.0,ID,16087.0,Washington County,3051.0,7110.0,37009.0,11010.0,11277.0,2968.0,4899.0,5388.0,970.0,497.0,0.0,0.0,0.0
391532,County,2020/05/02,16.0,ID,16087.0,Washington County,3342.0,6819.0,30165.0,8557.0,7449.0,3193.0,3625.0,6089.0,223.0,1029.0,0.0,0.0,0.0
394728,County,2020/05/03,16.0,ID,16087.0,Washington County,3149.0,7012.0,27602.0,8787.0,9067.0,760.0,2718.0,5073.0,717.0,394.0,66.0,0.0,20.0
397922,County,2020/05/04,16.0,ID,16087.0,Washington County,3295.0,6866.0,31247.0,10854.0,8522.0,2604.0,3421.0,4966.0,468.0,308.0,0.0,104.0,0.0
399549,County,2020/05/05,16.0,ID,16087.0,Washington County,3207.0,6954.0,30434.0,7380.0,8977.0,2291.0,3943.0,6726.0,455.0,599.0,0.0,25.0,38.0
402728,County,2020/05/06,16.0,ID,16087.0,Washington County,2913.0,7248.0,35580.0,11452.0,11436.0,2663.0,3156.0,5484.0,603.0,596.0,111.0,45.0,34.0
407447,County,2020/05/07,16.0,ID,16087.0,Washington County,2744.0,7417.0,36422.0,13253.0,9937.0,1633.0,3650.0,5401.0,1445.0,825.0,214.0,64.0,0.0
409187,County,2020/05/08,16.0,ID,16087.0,Washington County,2895.0,7266.0,36730.0,13410.0,11274.0,1696.0,3590.0,5371.0,572.0,678.0,63.0,76.0,0.0
413858,County,2020/05/09,16.0,ID,16087.0,Washington County,3305.0,6856.0,31771.0,11485.0,8510.0,2150.0,4652.0,2894.0,1194.0,707.0,132.0,27.0,20.0
415519,County,2020/05/10,16.0,ID,16087.0,Washington County,3322.0,6839.0,26462.0,8026.0,7405.0,1766.0,4125.0,3789.0,715.0,392.0,198.0,26.0,20.0
418713,County,2020/05/11,16.0,ID,16087.0,Washington County,2871.0,7290.0,26237.0,7525.0,7498.0,1866.0,1784.0,6027.0,852.0,524.0,94.0,38.0,29.0
423570,County,2020/05/12,16.0,ID,16087.0,Washington County,2797.0,7364.0,30664.0,10079.0,6980.0,2612.0,2610.0,5977.0,1315.0,830.0,121.0,85.0,55.0
425053,County,2020/05/13,16.0,ID,16087.0,Washington County,2774.0,7387.0,34084.0,10163.0,8169.0,2737.0,3094.0,7995.0,1099.0,543.0,183.0,37.0,64.0
428296,County,2020/05/14,16.0,ID,16087.0,Washington County,2794.0,7367.0,32607.0,8720.0,8583.0,2073.0,2347.0,8575.0,1111.0,975.0,117.0,35.0,71.0
433036,County,2020/05/15,16.0,ID,16087.0,Washington County,2937.0,7224.0,28215.0,7549.0,9052.0,1551.0,1950.0,5887.0,1239.0,630.0,281.0,38.0,38.0
434714,County,2020/05/16,16.0,ID,16087.0,Washington County,3011.0,7150.0,31755.0,10308.0,8967.0,2301.0,3069.0,5302.0,845.0,675.0,167.0,81.0,40.0
439397,County,2020/05/17,16.0,ID,16087.0,Washington County,3168.0,6993.0,29549.0,6360.0,9404.0,2526.0,5163.0,4818.0,318.0,837.0,88.0,35.0,0.0
441112,County,2020/05/18,16.0,ID,16087.0,Washington County,2199.0,7962.0,29672.0,8133.0,5813.0,2707.0,4149.0,7163.0,767.0,841.0,71.0,28.0,0.0
444266,County,2020/05/19,16.0,ID,16087.0,Washington County,2360.0,7801.0,30973.0,7253.0,10078.0,1794.0,3526.0,5527.0,1433.0,943.0,361.0,58.0,0.0
449027,County,2020/05/20,16.0,ID,16087.0,Washington County,2445.0,7716.0,28919.0,6597.0,6663.0,1745.0,5053.0,6032.0,1648.0,633.0,456.0,92.0,0.0
450653,County,2020/05/21,16.0,ID,16087.0,Washington County,2494.0,7667.0,27317.0,6283.0,6409.0,2306.0,3604.0,6597.0,640.0,1180.0,213.0,85.0,0.0
455412,County,2020/05/22,16.0,ID,16087.0,Washington County,2485.0,7676.0,23949.0,7901.0,4866.0,1558.0,3039.0,4658.0,802.0,792.0,222.0,89.0,22.0
457036,County,2020/05/23,16.0,ID,16087.0,Washington County,3049.0,7112.0,27494.0,7896.0,8049.0,1451.0,2409.0,5707.0,1199.0,564.0,190.0,0.0,29.0
461779,County,2020/05/24,16.0,ID,16087.0,Washington County,3203.0,6958.0,20117.0,5098.0,4894.0,2078.0,1712.0,4314.0,949.0,833.0,105.0,28.0,106.0
465081,County,2020/05/25,16.0,ID,16087.0,Washington County,2858.0,7303.0,23094.0,5752.0,5884.0,1333.0,2497.0,5004.0,1416.0,897.0,203.0,12.0,96.0
466560,County,2020/05/26,16.0,ID,16087.0,Washington County,2921.0,7240.0,27085.0,8945.0,6075.0,2151.0,1841.0,5653.0,933.0,1300.0,122.0,37.0,28.0
469817,County,2020/05/27,16.0,ID,16087.0,Washington County,2771.0,7390.0,31352.0,12374.0,6940.0,2730.0,2334.0,4463.0,1105.0,1143.0,175.0,70.0,18.0
473013,County,2020/05/28,16.0,ID,16087.0,Washington County,2962.0,7199.0,28914.0,11032.0,5792.0,1676.0,2362.0,6034.0,982.0,682.0,272.0,73.0,9.0
477767,County,2020/05/29,16.0,ID,16087.0,Washington County,3031.0,7130.0,21766.0,6000.0,4907.0,1714.0,2001.0,5252.0,693.0,1103.0,64.0,13.0,19.0
480967,County,2020/05/30,16.0,ID,16087.0,Washington County,3002.0,7159.0,23184.0,6046.0,7960.0,2069.0,1387.0,4069.0,916.0,442.0,203.0,41.0,51.0
484111,County,2020/05/31,16.0,ID,16087.0,Washington County,3155.0,7006.0,21419.0,5161.0,7530.0,2148.0,1060.0,3602.0,979.0,644.0,155.0,93.0,47.0
487413,County,2020/06/01,16.0,ID,16087.0,Washington County,2702.0,7459.0,27807.0,8950.0,7009.0,2176.0,1606.0,5792.0,970.0,1089.0,158.0,38.0,19.0
490520,County,2020/06/02,16.0,ID,16087.0,Washington County,2837.0,7324.0,32463.0,9005.0,9569.0,1470.0,2595.0,7457.0,1451.0,457.0,245.0,140.0,74.0
492150,County,2020/06/03,16.0,ID,16087.0,Washington County,2690.0,7471.0,30226.0,10009.0,7828.0,2318.0,1943.0,6375.0,785.0,812.0,93.0,25.0,38.0
495360,County,2020/06/04,16.0,ID,16087.0,Washington County,2548.0,7613.0,32128.0,11100.0,8153.0,1877.0,1918.0,7127.0,1100.0,603.0,203.0,27.0,20.0
498564,County,2020/06/05,16.0,ID,16087.0,Washington County,2449.0,7712.0,32049.0,12425.0,7503.0,1446.0,2524.0,5600.0,1365.0,898.0,189.0,51.0,48.0
503289,County,2020/06/06,16.0,ID,16087.0,Washington County,2966.0,7195.0,28356.0,9929.0,6778.0,2555.0,2611.0,4085.0,1490.0,794.0,39.0,63.0,12.0
504952,County,2020/06/07,16.0,ID,16087.0,Washington County,3062.0,7099.0,26431.0,7603.0,5475.0,1951.0,3190.0,6140.0,1252.0,436.0,245.0,115.0,24.0
509699,County,2020/06/08,16.0,ID,16087.0,Washington County,2280.0,7881.0,35105.0,11970.0,7783.0,1995.0,2905.0,7419.0,1742.0,1085.0,156.0,42.0,8.0
512903,County,2020/06/09,16.0,ID,16087.0,Washington County,2853.0,7308.0,29876.0,11241.0,5443.0,2362.0,1825.0,6097.0,1686.0,1038.0,90.0,85.0,9.0
516109,County,2020/06/10,16.0,ID,16087.0,Washington County,2715.0,7446.0,29544.0,9603.0,8206.0,2595.0,1665.0,5696.0,797.0,862.0,63.0,38.0,19.0
519266,County,2020/06/11,16.0,ID,16087.0,Washington County,2888.0,7273.0,29118.0,8749.0,6687.0,2569.0,2327.0,6597.0,1102.0,907.0,61.0,110.0,9.0
520940,County,2020/06/12,16.0,ID,16087.0,Washington County,2844.0,7317.0,30080.0,8612.0,8073.0,1938.0,2941.0,6217.0,1442.0,657.0,154.0,37.0,9.0
525676,County,2020/06/13,16.0,ID,16087.0,Washington County,2804.0,7357.0,24155.0,5933.0,5909.0,1563.0,2173.0,5545.0,1653.0,894.0,294.0,171.0,20.0
527311,County,2020/06/14,16.0,ID,16087.0,Washington County,3284.0,6877.0,23958.0,7437.0,4685.0,2472.0,3343.0,3848.0,1373.0,271.0,342.0,107.0,80.0
532070,County,2020/06/15,16.0,ID,16087.0,Washington County,2899.0,7262.0,23739.0,8488.0,4772.0,1235.0,1766.0,4150.0,1573.0,1189.0,355.0,182.0,29.0
533698,County,2020/06/16,16.0,ID,16087.0,Washington County,2961.0,7200.0,30679.0,12160.0,5958.0,1766.0,2642.0,6493.0,774.0,744.0,66.0,26.0,50.0
536892,County,2020/06/17,16.0,ID,16087.0,Washington County,2802.0,7359.0,28933.0,8250.0,6763.0,2086.0,2633.0,6844.0,1100.0,1029.0,128.0,52.0,48.0
541653,County,2020/06/18,16.0,ID,16087.0,Washington County,2856.0,7305.0,29756.0,10073.0,6576.0,1810.0,2987.0,5276.0,1445.0,1254.0,255.0,58.0,22.0
544805,County,2020/06/19,16.0,ID,16087.0,Washington County,2899.0,7262.0,20609.0,5617.0,5064.0,2264.0,1952.0,3137.0,1202.0,1099.0,222.0,30.0,22.0
548040,County,2020/06/20,16.0,ID,16087.0,Washington County,2871.0,7290.0,25750.0,8981.0,6033.0,1966.0,2655.0,4520.0,862.0,611.0,37.0,74.0,11.0
551227,County,2020/06/21,16.0,ID,16087.0,Washington County,3144.0,7017.0,22995.0,7480.0,4923.0,1146.0,2613.0,5044.0,832.0,712.0,138.0,37.0,70.0
554469,County,2020/06/22,16.0,ID,16087.0,Washington County,2930.0,7231.0,26000.0,9733.0,5159.0,1874.0,1473.0,5051.0,1565.0,940.0,38.0,76.0,91.0
557623,County,2020/06/23,16.0,ID,16087.0,Washington County,2602.0,7559.0,28331.0,9503.0,6606.0,1538.0,1845.0,6504.0,947.0,1080.0,140.0,126.0,42.0
560816,County,2020/06/24,16.0,ID,16087.0,Washington County,3012.0,7149.0,30310.0,11646.0,7308.0,2479.0,1565.0,5111.0,1033.0,816.0,191.0,138.0,23.0
562444,County,2020/06/25,16.0,ID,16087.0,Washington County,2972.0,7189.0,30679.0,13627.0,6841.0,1731.0,2618.0,3566.0,1242.0,818.0,72.0,131.0,33.0
565699,County,2020/06/26,16.0,ID,16087.0,Washington County,2981.0,7180.0,28865.0,11185.0,6761.0,1717.0,2778.0,3991.0,1351.0,711.0,262.0,30.0,79.0
570389,County,2020/06/27,16.0,ID,16087.0,Washington County,2503.0,7658.0,28276.0,9056.0,7735.0,1888.0,2727.0,4283.0,1659.0,526.0,170.0,191.0,41.0
572028,County,2020/06/28,16.0,ID,16087.0,Washington County,2716.0,7445.0,25787.0,8181.0,7123.0,1076.0,2611.0,4039.0,1777.0,627.0,176.0,71.0,106.0
576753,County,2020/06/29,16.0,ID,16087.0,Washington County,2872.0,7289.0,30353.0,10511.0,6951.0,1773.0,2363.0,6063.0,1382.0,910.0,202.0,113.0,85.0
580002,County,2020/06/30,16.0,ID,16087.0,Washington County,2999.0,7162.0,31930.0,10956.0,7844.0,2192.0,2986.0,5224.0,1655.0,908.0,38.0,92.0,35.0
581602,County,2020/07/01,16.0,ID,16087.0,Washington County,3121.0,7040.0,33468.0,10388.0,9955.0,2550.0,3158.0,5746.0,1021.0,480.0,121.0,0.0,49.0
584794,County,2020/07/02,16.0,ID,16087.0,Washington County,2685.0,7476.0,32562.0,14464.0,7261.0,1837.0,2779.0,3785.0,1318.0,868.0,76.0,139.0,35.0
589587,County,2020/07/03,16.0,ID,16087.0,Washington County,3189.0,6972.0,28703.0,11122.0,6723.0,1707.0,2762.0,3969.0,1343.0,707.0,261.0,30.0,79.0
592771,County,2020/07/04,16.0,ID,16087.0,Washington County,3177.0,6984.0,24556.0,9515.0,5752.0,1461.0,2363.0,3395.0,1149.0,605.0,223.0,26.0,67.0
594420,County,2020/07/05,16.0,ID,16087.0,Washington County,3002.0,7159.0,23715.0,6195.0,6926.0,2282.0,2145.0,3916.0,1551.0,567.0,95.0,38.0,0.0
599096,County,2020/07/06,16.0,ID,16087.0,Washington County,3316.0,6845.0,23514.0,7475.0,5735.0,1410.0,1061.0,4457.0,1331.0,1613.0,272.0,78.0,82.0
600771,County,2020/07/07,16.0,ID,16087.0,Washington County,3170.0,6991.0,26195.0,8471.0,7063.0,2185.0,1945.0,4436.0,1131.0,613.0,147.0,148.0,56.0
603963,County,2020/07/08,16.0,ID,16087.0,Washington County,3139.0,7022.0,26697.0,7387.0,8191.0,3007.0,1874.0,4092.0,1454.0,365.0,192.0,77.0,58.0
607159,County,2020/07/09,16.0,ID,16087.0,Washington County,3186.0,6975.0,24487.0,7833.0,6468.0,2016.0,1065.0,4374.0,1247.0,1123.0,145.0,161.0,55.0
611941,County,2020/07/10,16.0,ID,16087.0,Washington County,3173.0,6988.0,25575.0,5931.0,10138.0,1825.0,1193.0,4281.0,827.0,1089.0,191.0,77.0,23.0
615157,County,2020/07/11,16.0,ID,16087.0,Washington County,3304.0,6857.0,26606.0,7607.0,9012.0,1748.0,1519.0,4376.0,1403.0,652.0,137.0,55.0,97.0
616741,County,2020/07/12,16.0,ID,16087.0,Washington County,3165.0,6996.0,23807.0,8759.0,7063.0,1941.0,1157.0,3355.0,687.0,603.0,127.0,51.0,64.0
619931,County,2020/07/13,16.0,ID,16087.0,Washington County,3134.0,7027.0,25697.0,7687.0,7016.0,1788.0,1083.0,5304.0,1625.0,864.0,139.0,97.0,94.0
623131,County,2020/07/14,16.0,ID,16087.0,Washington County,2793.0,7368.0,27144.0,10721.0,6611.0,1455.0,1293.0,5428.0,1015.0,511.0,0.0,80.0,30.0
627868,County,2020/07/15,16.0,ID,16087.0,Washington County,2987.0,7174.0,25215.0,8082.0,6003.0,1747.0,2928.0,4698.0,792.0,738.0,110.0,29.0,88.0
629494,County,2020/07/16,16.0,ID,16087.0,Washington County,2978.0,7183.0,23207.0,8038.0,5775.0,1203.0,1374.0,5162.0,802.0,660.0,74.0,30.0,89.0
634228,County,2020/07/17,16.0,ID,16087.0,Washington County,3065.0,7096.0,23764.0,8518.0,6783.0,1485.0,1734.0,3742.0,734.0,483.0,148.0,104.0,33.0
637481,County,2020/07/18,16.0,ID,16087.0,Washington County,3209.0,6952.0,21460.0,6480.0,3585.0,1855.0,2369.0,4775.0,1401.0,403.0,436.0,39.0,117.0
640634,County,2020/07/19,16.0,ID,16087.0,Washington County,3806.0,6355.0,18040.0,5101.0,4733.0,1302.0,1126.0,3725.0,946.0,934.0,52.0,42.0,79.0
642295,County,2020/07/20,16.0,ID,16087.0,Washington County,3328.0,6833.0,23009.0,6834.0,5546.0,2051.0,1707.0,4563.0,1362.0,802.0,40.0,32.0,72.0
647535,County,2020/07/21,16.0,ID,16087.0,Washington County,3257.0,6904.0,23042.0,7182.0,6162.0,1412.0,1237.0,5291.0,381.0,919.0,352.0,42.0,64.0
649725,County,2020/07/22,16.0,ID,16087.0,Washington County,3179.0,6982.0,22816.0,6144.0,7619.0,1330.0,1291.0,4472.0,754.0,785.0,313.0,14.0,94.0
651790,County,2020/07/23,16.0,ID,16087.0,Washington County,3171.0,6990.0,24675.0,7393.0,7493.0,1584.0,1478.0,4629.0,1040.0,813.0,180.0,43.0,22.0
654962,County,2020/07/24,16.0,ID,16087.0,Washington County,3434.0,6727.0,24866.0,7894.0,7334.0,1419.0,1450.0,4622.0,744.0,1077.0,206.0,33.0,87.0
658259,County,2020/07/25,16.0,ID,16087.0,Washington County,3195.0,6966.0,19945.0,6640.0,4584.0,1310.0,2379.0,2914.0,1237.0,633.0,114.0,31.0,103.0
662964,County,2020/07/26,16.0,ID,16087.0,Washington County,3267.0,6894.0,21326.0,6121.0,6044.0,767.0,1255.0,4610.0,1015.0,1097.0,200.0,96.0,121.0
664705,County,2020/07/27,16.0,ID,16087.0,Washington County,3084.0,7077.0,25334.0,6008.0,7642.0,1437.0,1189.0,6068.0,1227.0,1275.0,394.0,29.0,65.0
669489,County,2020/07/28,16.0,ID,16087.0,Washington County,2759.0,7402.0,23595.0,6635.0,4638.0,1558.0,1910.0,6149.0,1000.0,1278.0,228.0,131.0,68.0
671024,County,2020/07/29,16.0,ID,16087.0,Washington County,2832.0,7329.0,24837.0,7464.0,6944.0,1927.0,1970.0,4358.0,763.0,1004.0,195.0,104.0,108.0
675784,County,2020/07/30,16.0,ID,16087.0,Washington County,3062.0,7099.0,24354.0,6172.0,4488.0,1829.0,2002.0,6445.0,1726.0,1258.0,307.0,55.0,72.0
679012,County,2020/07/31,16.0,ID,16087.0,Washington County,3336.0,6825.0,19820.0,5511.0,4390.0,1775.0,1236.0,4848.0,990.0,753.0,84.0,119.0,114.0
682133,County,2020/08/01,16.0,ID,16087.0,Washington County,3073.0,7088.0,21629.0,5690.0,6346.0,1346.0,1618.0,5321.0,673.0,344.0,41.0,150.0,100.0
683815,County,2020/08/02,16.0,ID,16087.0,Washington County,3211.0,6950.0,23862.0,4820.0,6862.0,2356.0,2075.0,5345.0,844.0,1313.0,128.0,68.0,51.0
687011,County,2020/08/03,16.0,ID,16087.0,Washington County,3059.0,7102.0,25078.0,8626.0,5524.0,1747.0,1934.0,5207.0,963.0,905.0,114.0,46.0,12.0
690204,County,2020/08/04,16.0,ID,16087.0,Washington County,2950.0,7211.0,22701.0,6640.0,5587.0,1164.0,2029.0,4602.0,905.0,1276.0,394.0,29.0,75.0
694963,County,2020/08/05,16.0,ID,16087.0,Washington County,3084.0,7077.0,26013.0,7741.0,5513.0,2464.0,1889.0,5728.0,1526.0,1100.0,0.0,16.0,36.0
698158,County,2020/08/06,16.0,ID,16087.0,Washington County,3058.0,7103.0,23041.0,7960.0,5505.0,1566.0,2183.0,3769.0,605.0,1151.0,149.0,75.0,78.0
699785,County,2020/08/07,16.0,ID,16087.0,Washington County,3110.0,7051.0,20067.0,6147.0,4705.0,1329.0,1143.0,4199.0,1122.0,1260.0,110.0,30.0,22.0
704546,County,2020/08/08,16.0,ID,16087.0,Washington County,3370.0,6791.0,23882.0,5278.0,8134.0,1515.0,1741.0,5011.0,1072.0,942.0,99.0,60.0,30.0
706173,County,2020/08/09,16.0,ID,16087.0,Washington County,3434.0,6727.0,20579.0,4997.0,6352.0,1280.0,611.0,4027.0,2094.0,690.0,357.0,90.0,81.0
709394,County,2020/08/10,16.0,ID,16087.0,Washington County,3112.0,7049.0,20821.0,6246.0,4624.0,1260.0,1530.0,4845.0,595.0,1371.0,247.0,66.0,37.0
712562,County,2020/08/11,16.0,ID,16087.0,Washington County,3174.0,6987.0,23308.0,7316.0,6186.0,849.0,2522.0,4083.0,1530.0,575.0,121.0,114.0,12.0
717224,County,2020/08/12,16.0,ID,16087.0,Washington County,2689.0,7472.0,21984.0,5863.0,5067.0,1180.0,2478.0,4688.0,1424.0,693.0,377.0,69.0,145.0
718950,County,2020/08/13,16.0,ID,16087.0,Washington County,2805.0,7356.0,21881.0,4727.0,6068.0,1299.0,1467.0,5280.0,1355.0,1316.0,179.0,71.0,119.0
722143,County,2020/08/14,16.0,ID,16087.0,Washington County,2492.0,7669.0,22465.0,5232.0,6200.0,1159.0,1808.0,4886.0,1497.0,1402.0,95.0,51.0,135.0
725373,County,2020/08/15,16.0,ID,16087.0,Washington County,2948.0,7213.0,22362.0,5187.0,5709.0,1505.0,1999.0,4627.0,1279.0,1216.0,590.0,95.0,155.0
730097,County,2020/08/16,16.0,ID,16087.0,Washington County,3408.0,6753.0,19289.0,4770.0,5000.0,1222.0,1249.0,4496.0,989.0,1247.0,92.0,183.0,41.0
731726,County,2020/08/17,16.0,ID,16087.0,Washington County,2973.0,7188.0,22472.0,7200.0,4297.0,1098.0,1795.0,5235.0,1036.0,1274.0,229.0,169.0,139.0
736486,County,2020/08/18,16.0,ID,16087.0,Washington County,2997.0,7164.0,25186.0,7420.0,7070.0,1274.0,1872.0,5240.0,828.0,1139.0,209.0,34.0,100.0
739680,County,2020/08/19,16.0,ID,16087.0,Washington County,2833.0,7328.0,23773.0,7536.0,5976.0,1416.0,1828.0,4797.0,422.0,1528.0,78.0,110.0,82.0
741308,County,2020/08/20,16.0,ID,16087.0,Washington County,2622.0,7539.0,27729.0,9034.0,6789.0,1752.0,1566.0,5843.0,1309.0,1088.0,191.0,30.0,127.0
746085,County,2020/08/21,16.0,ID,16087.0,Washington County,2362.0,7799.0,24872.0,5810.0,7566.0,2185.0,2376.0,4233.0,931.0,1357.0,185.0,118.0,111.0
747713,County,2020/08/22,16.0,ID,16087.0,Washington County,2904.0,7257.0,26089.0,9041.0,5896.0,1029.0,1339.0,5623.0,1148.0,1571.0,343.0,40.0,59.0
752458,County,2020/08/23,16.0,ID,16087.0,Washington County,3547.0,6614.0,21271.0,5420.0,5531.0,1468.0,1895.0,4974.0,583.0,1105.0,121.0,65.0,109.0
755649,County,2020/08/24,16.0,ID,16087.0,Washington County,3350.0,6811.0,20780.0,5271.0,5409.0,1687.0,1586.0,4439.0,1020.0,1132.0,70.0,70.0,96.0
757278,County,2020/08/25,16.0,ID,16087.0,Washington County,3198.0,6963.0,25747.0,8066.0,5655.0,2137.0,2117.0,5093.0,1344.0,1006.0,203.0,55.0,71.0
760473,County,2020/08/26,16.0,ID,16087.0,Washington County,3076.0,7085.0,23572.0,6805.0,6017.0,2132.0,2676.0,4182.0,747.0,757.0,96.0,102.0,58.0
763629,County,2020/08/27,16.0,ID,16087.0,Washington County,3256.0,6905.0,22438.0,6064.0,5595.0,1921.0,1624.0,4832.0,876.0,1070.0,347.0,98.0,11.0
768412,County,2020/08/28,16.0,ID,16087.0,Washington County,3297.0,6864.0,18332.0,5369.0,3893.0,2244.0,1111.0,3500.0,706.0,1056.0,249.0,86.0,118.0
771612,County,2020/08/29,16.0,ID,16087.0,Washington County,3243.0,6918.0,21860.0,5599.0,7307.0,1876.0,1227.0,3758.0,708.0,1026.0,118.0,158.0,83.0
774831,County,2020/08/30,16.0,ID,16087.0,Washington County,3611.0,6550.0,18494.0,4040.0,4765.0,788.0,1700.0,4009.0,1653.0,1143.0,229.0,56.0,111.0
777971,County,2020/08/31,16.0,ID,16087.0,Washington County,3386.0,6775.0,22161.0,6945.0,4508.0,750.0,1379.0,6220.0,1062.0,1072.0,79.0,63.0,83.0
781219,County,2020/09/01,16.0,ID,16087.0,Washington County,3207.0,6954.0,21496.0,6414.0,6357.0,956.0,1326.0,4397.0,903.0,849.0,143.0,87.0,64.0
783614,County,2020/09/02,16.0,ID,16087.0,Washington County,3290.0,6871.0,20709.0,7377.0,4840.0,808.0,1127.0,3680.0,1179.0,1325.0,192.0,123.0,58.0
787565,County,2020/09/03,16.0,ID,16087.0,Washington County,3203.0,6958.0,22555.0,7364.0,5522.0,1354.0,1383.0,4549.0,1150.0,1094.0,36.0,71.0,32.0
790756,County,2020/09/04,16.0,ID,16087.0,Washington County,3481.0,6680.0,21285.0,4862.0,5478.0,1547.0,1414.0,4657.0,1844.0,1113.0,255.0,102.0,13.0
793947,County,2020/09/05,16.0,ID,16087.0,Washington County,2953.0,7208.0,19251.0,4388.0,5342.0,672.0,1601.0,4909.0,1127.0,974.0,117.0,62.0,59.0
797151,County,2020/09/06,16.0,ID,16087.0,Washington County,3254.0,6907.0,18163.0,4182.0,3784.0,1023.0,1307.0,4634.0,1449.0,1537.0,89.0,90.0,68.0
800364,County,2020/09/07,16.0,ID,16087.0,Washington County,3492.0,6669.0,17526.0,3995.0,4663.0,1024.0,1617.0,3061.0,1230.0,1561.0,292.0,39.0,44.0
803560,County,2020/09/08,16.0,ID,16087.0,Washington County,3170.0,6991.0,21555.0,6051.0,6010.0,1266.0,1771.0,4575.0,755.0,911.0,69.0,84.0,63.0
805187,County,2020/09/09,16.0,ID,16087.0,Washington County,3308.0,6853.0,21706.0,7502.0,3851.0,1816.0,2062.0,4905.0,127.0,1045.0,211.0,70.0,117.0
808380,County,2020/09/10,16.0,ID,16087.0,Washington County,3217.0,6944.0,24948.0,6979.0,6634.0,2113.0,2228.0,4094.0,772.0,1863.0,142.0,58.0,65.0
813141,County,2020/09/11,16.0,ID,16087.0,Washington County,2821.0,7340.0,24474.0,6781.0,5834.0,1667.0,1956.0,6004.0,700.0,1227.0,194.0,52.0,59.0
816337,County,2020/09/12,16.0,ID,16087.0,Washington County,3299.0,6862.0,19135.0,4716.0,3715.0,1145.0,2262.0,4476.0,1081.0,1280.0,200.0,224.0,36.0
817943,County,2020/09/13,16.0,ID,16087.0,Washington County,3394.0,6767.0,19230.0,7195.0,4428.0,833.0,972.0,3912.0,899.0,666.0,180.0,145.0,0.0
822724,County,2020/09/14,16.0,ID,16087.0,Washington County,3269.0,6892.0,22917.0,7611.0,5247.0,1078.0,1689.0,4728.0,746.0,1339.0,263.0,136.0,80.0
825917,County,2020/09/15,16.0,ID,16087.0,Washington County,3138.0,7023.0,25365.0,6495.0,8420.0,1014.0,2556.0,4254.0,1212.0,1134.0,106.0,99.0,75.0
827545,County,2020/09/16,16.0,ID,16087.0,Washington County,3075.0,7086.0,24013.0,7055.0,6211.0,1721.0,1689.0,5319.0,910.0,898.0,144.0,44.0,22.0
830739,County,2020/09/17,16.0,ID,16087.0,Washington County,3288.0,6873.0,25293.0,7102.0,6077.0,1391.0,2991.0,5548.0,1174.0,819.0,114.0,31.0,46.0
835500,County,2020/09/18,16.0,ID,16087.0,Washington County,3171.0,6990.0,28127.0,10821.0,5809.0,1889.0,2288.0,4703.0,925.0,1435.0,110.0,147.0,0.0
837128,County,2020/09/19,16.0,ID,16087.0,Washington County,3099.0,7062.0,25520.0,6873.0,7646.0,1256.0,1605.0,5167.0,1482.0,1317.0,124.0,50.0,0.0
840320,County,2020/09/20,16.0,ID,16087.0,Washington County,3679.0,6482.0,20147.0,5967.0,4806.0,1507.0,1260.0,4605.0,776.0,1022.0,107.0,43.0,54.0
845108,County,2020/09/21,16.0,ID,16087.0,Washington County,3716.0,6445.0,20548.0,4978.0,5699.0,781.0,1595.0,5358.0,1032.0,873.0,204.0,16.0,12.0
848276,County,2020/09/22,16.0,ID,16087.0,Washington County,3947.0,6214.0,22912.0,6475.0,7208.0,809.0,2113.0,4243.0,1103.0,782.0,94.0,57.0,28.0
849903,County,2020/09/23,16.0,ID,16087.0,Washington County,3238.0,6923.0,24403.0,6883.0,6924.0,1539.0,1722.0,5660.0,761.0,592.0,230.0,46.0,46.0
853093,County,2020/09/24,16.0,ID,16087.0,Washington County,3559.0,6602.0,20660.0,6354.0,4502.0,1494.0,1607.0,4610.0,1039.0,782.0,206.0,66.0,0.0
857857,County,2020/09/25,16.0,ID,16087.0,Washington County,3430.0,6731.0,23561.0,6160.0,5873.0,806.0,2470.0,6286.0,761.0,1047.0,115.0,31.0,12.0
859485,County,2020/09/26,16.0,ID,16087.0,Washington County,3492.0,6669.0,19065.0,5997.0,4489.0,1155.0,1012.0,4130.0,1090.0,872.0,259.0,35.0,26.0
864232,County,2020/09/27,16.0,ID,16087.0,Washington County,3773.0,6388.0,21580.0,5832.0,5802.0,1885.0,1156.0,4718.0,1335.0,586.0,246.0,20.0,0.0
867440,County,2020/09/28,16.0,ID,16087.0,Washington County,3575.0,6586.0,20435.0,6273.0,4164.0,1091.0,1950.0,5070.0,944.0,734.0,190.0,19.0,0.0
870632,County,2020/09/29,16.0,ID,16087.0,Washington County,3076.0,7085.0,22427.0,5285.0,5640.0,1447.0,2464.0,4829.0,1594.0,1049.0,94.0,21.0,4.0
872261,County,2020/09/30,16.0,ID,16087.0,Washington County,3269.0,6892.0,21998.0,7175.0,5688.0,1040.0,1643.0,4194.0,982.0,1117.0,101.0,54.0,4.0
877001,County,2020/10/01,16.0,ID,16087.0,Washington County,3244.0,6917.0,22107.0,5634.0,6091.0,1572.0,2174.0,4498.0,698.0,1264.0,151.0,13.0,12.0
880216,County,2020/10/02,16.0,ID,16087.0,Washington County,3369.0,6792.0,20890.0,5859.0,5207.0,1484.0,2503.0,3397.0,1331.0,922.0,103.0,57.0,27.0
881844,County,2020/10/03,16.0,ID,16087.0,Washington County,3210.0,6951.0,22266.0,6064.0,4619.0,1831.0,2940.0,4240.0,1317.0,921.0,262.0,47.0,25.0
885411,County,2020/10/04,16.0,ID,16087.0,Washington County,3722.0,6439.0,17661.0,4613.0,4957.0,1419.0,1913.0,2931.0,930.0,636.0,173.0,57.0,32.0
888480,County,2020/10/05,16.0,ID,16087.0,Washington County,3342.0,6819.0,15468.0,3084.0,3340.0,1150.0,2156.0,3070.0,1425.0,1046.0,117.0,58.0,22.0
891710,County,2020/10/06,16.0,ID,16087.0,Washington County,3219.0,6942.0,19649.0,5024.0,4658.0,1174.0,2053.0,4656.0,857.0,1138.0,28.0,48.0,13.0
894888,County,2020/10/07,16.0,ID,16087.0,Washington County,3146.0,7015.0,21008.0,4694.0,5158.0,1653.0,2335.0,4917.0,830.0,1253.0,88.0,58.0,22.0
898089,County,2020/10/08,16.0,ID,16087.0,Washington County,3333.0,6828.0,18326.0,4928.0,3224.0,1235.0,2076.0,4213.0,1202.0,1296.0,88.0,50.0,14.0
901273,County,2020/10/09,16.0,ID,16087.0,Washington County,3127.0,7034.0,18583.0,4175.0,3999.0,1053.0,2290.0,4260.0,1257.0,1178.0,259.0,107.0,5.0
904686,County,2020/10/10,16.0,ID,16087.0,Washington County,3585.0,6576.0,16509.0,4614.0,2466.0,999.0,1916.0,3871.0,1277.0,1090.0,213.0,40.0,23.0
910231,County,2020/10/11,16.0,ID,16087.0,Washington County,3350.0,6811.0,16821.0,3660.0,3221.0,1719.0,1407.0,4558.0,915.0,1087.0,131.0,113.0,10.0
913101,County,2020/10/12,16.0,ID,16087.0,Washington County,3045.0,7116.0,20515.0,5289.0,5179.0,772.0,1562.0,4408.0,1943.0,1075.0,216.0,54.0,17.0
916051,County,2020/10/13,16.0,ID,16087.0,Washington County,2916.0,7245.0,20667.0,4575.0,5600.0,1330.0,1718.0,4936.0,1376.0,794.0,296.0,26.0,16.0
919259,County,2020/10/14,16.0,ID,16087.0,Washington County,2975.0,7186.0,23644.0,6235.0,5395.0,1333.0,1721.0,6492.0,1310.0,984.0,59.0,103.0,12.0
922474,County,2020/10/15,16.0,ID,16087.0,Washington County,3384.0,6777.0,22738.0,7255.0,5110.0,514.0,1211.0,6191.0,1355.0,920.0,137.0,29.0,16.0
925368,County,2020/10/16,16.0,ID,16087.0,Washington County,2985.0,7176.0,22130.0,6650.0,4605.0,1619.0,1325.0,5471.0,1077.0,1121.0,216.0,36.0,10.0
928873,County,2020/10/17,16.0,ID,16087.0,Washington County,3119.0,7042.0,18586.0,4284.0,4998.0,1338.0,930.0,3958.0,1013.0,1692.0,301.0,48.0,24.0
932084,County,2020/10/18,16.0,ID,16087.0,Washington County,3696.0,6465.0,16940.0,4896.0,3742.0,1392.0,1082.0,3426.0,1096.0,1151.0,86.0,62.0,7.0
934701,County,2020/10/19,16.0,ID,16087.0,Washington County,3321.0,6840.0,21987.0,6203.0,6528.0,1493.0,1132.0,4157.0,956.0,1299.0,150.0,54.0,15.0
938742,County,2020/10/20,16.0,ID,16087.0,Washington County,3403.0,6758.0,21347.0,5391.0,4972.0,1073.0,1872.0,5291.0,1634.0,801.0,273.0,34.0,6.0
941947,County,2020/10/21,16.0,ID,16087.0,Washington County,3547.0,6614.0,18102.0,5066.0,4357.0,698.0,1208.0,4855.0,835.0,946.0,80.0,35.0,22.0
945240,County,2020/10/22,16.0,ID,16087.0,Washington County,3161.0,7000.0,25177.0,7674.0,5832.0,1618.0,1549.0,6163.0,1031.0,1131.0,102.0,69.0,8.0
948361,County,2020/10/23,16.0,ID,16087.0,Washington County,3017.0,7144.0,25221.0,7215.0,6354.0,1903.0,1522.0,4965.0,2215.0,852.0,159.0,28.0,8.0
951247,County,2020/10/24,16.0,ID,16087.0,Washington County,3431.0,6730.0,22050.0,6157.0,3962.0,1150.0,2854.0,4510.0,1948.0,1190.0,209.0,60.0,10.0
