,Level,Date,State FIPS,State Postal Code,County FIPS,County Name,Population Staying at Home,Population Not Staying at Home,Number of Trips,Number of Trips <1,Number of Trips 1-3,Number of Trips 3-5,Number of Trips 5-10,Number of Trips 10-25,Number of Trips 25-50,Number of Trips 50-100,Number of Trips 100-250,Number of Trips 250-500,Number of Trips >=500
813,County,2020/01/01,19.0,IA,19049.0,Dallas County,19836.0,70344.0,236407.0,49368.0,52494.0,28421.0,38628.0,42986.0,15608.0,4513.0,2476.0,1158.0,755.0
6195,County,2020/01/02,19.0,IA,19049.0,Dallas County,16249.0,73931.0,320060.0,72472.0,68688.0,36687.0,54615.0,62267.0,17952.0,4215.0,2280.0,556.0,328.0
7806,County,2020/01/03,19.0,IA,19049.0,Dallas County,15464.0,74716.0,319734.0,65755.0,72071.0,37550.0,56679.0,61997.0,18735.0,3359.0,2516.0,706.0,366.0
12321,County,2020/01/04,19.0,IA,19049.0,Dallas County,17804.0,72376.0,306121.0,64857.0,69244.0,31939.0,57557.0,56905.0,16327.0,4915.0,3134.0,685.0,558.0
13589,County,2020/01/05,19.0,IA,19049.0,Dallas County,19453.0,70727.0,260395.0,53807.0,63777.0,31049.0,47299.0,42768.0,13791.0,3427.0,3045.0,932.0,500.0
18005,County,2020/01/06,19.0,IA,19049.0,Dallas County,16420.0,73760.0,311445.0,60402.0,74437.0,35750.0,56472.0,58902.0,17580.0,4069.0,2601.0,743.0,489.0
21151,County,2020/01/07,19.0,IA,19049.0,Dallas County,15827.0,74353.0,316556.0,68680.0,68476.0,36768.0,54120.0,60868.0,20710.0,3625.0,2260.0,747.0,302.0
22778,County,2020/01/08,19.0,IA,19049.0,Dallas County,15111.0,75069.0,323622.0,69808.0,69567.0,39695.0,56155.0,60124.0,19869.0,4788.0,2668.0,505.0,443.0
27526,County,2020/01/09,19.0,IA,19049.0,Dallas County,15760.0,74420.0,321871.0,68280.0,69320.0,36400.0,56387.0,64391.0,18650.0,4947.0,2472.0,588.0,436.0
30733,County,2020/01/10,19.0,IA,19049.0,Dallas County,15427.0,74753.0,310429.0,67749.0,69636.0,35224.0,54315.0,58133.0,16226.0,4582.0,3321.0,644.0,599.0
33977,County,2020/01/11,19.0,IA,19049.0,Dallas County,18470.0,71710.0,302919.0,65271.0,74421.0,33965.0,56974.0,50111.0,15739.0,2782.0,2655.0,511.0,490.0
37096,County,2020/01/12,19.0,IA,19049.0,Dallas County,19453.0,70727.0,265100.0,52912.0,61739.0,30971.0,50008.0,46749.0,15251.0,3468.0,2785.0,656.0,561.0
40344,County,2020/01/13,19.0,IA,19049.0,Dallas County,16520.0,73660.0,302560.0,62345.0,68617.0,35730.0,52662.0,59393.0,16568.0,3942.0,2523.0,413.0,367.0
43493,County,2020/01/14,19.0,IA,19049.0,Dallas County,15576.0,74604.0,316452.0,66298.0,74605.0,33641.0,52441.0,63506.0,17960.0,4698.0,2517.0,485.0,301.0
46699,County,2020/01/15,19.0,IA,19049.0,Dallas County,15393.0,74787.0,310292.0,67444.0,70646.0,37360.0,50899.0,58981.0,16950.0,4451.0,2825.0,390.0,346.0
49855,County,2020/01/16,19.0,IA,19049.0,Dallas County,15338.0,74842.0,326610.0,68509.0,74466.0,37185.0,57663.0,61063.0,18395.0,4695.0,3265.0,785.0,584.0
51483,County,2020/01/17,19.0,IA,19049.0,Dallas County,19464.0,70716.0,282389.0,71931.0,74207.0,31912.0,44040.0,44570.0,9392.0,2714.0,2648.0,540.0,435.0
56263,County,2020/01/18,19.0,IA,19049.0,Dallas County,19834.0,70346.0,288893.0,62443.0,76578.0,39801.0,46235.0,47097.0,11381.0,1807.0,2383.0,507.0,661.0
57862,County,2020/01/19,19.0,IA,19049.0,Dallas County,20068.0,70112.0,267732.0,54806.0,66866.0,31256.0,47817.0,44678.0,14047.0,3889.0,3096.0,672.0,605.0
61095,County,2020/01/20,19.0,IA,19049.0,Dallas County,16636.0,73544.0,299838.0,62181.0,68885.0,35847.0,53973.0,55572.0,14852.0,4379.0,2895.0,817.0,437.0
65872,County,2020/01/21,19.0,IA,19049.0,Dallas County,15183.0,74997.0,316625.0,67286.0,74349.0,35227.0,52857.0,58047.0,21604.0,4101.0,2072.0,616.0,466.0
69063,County,2020/01/22,19.0,IA,19049.0,Dallas County,15328.0,74852.0,312598.0,67625.0,69809.0,36414.0,54136.0,58772.0,18564.0,3777.0,2541.0,521.0,439.0
70687,County,2020/01/23,19.0,IA,19049.0,Dallas County,15706.0,74474.0,322024.0,69563.0,72044.0,36832.0,53063.0,62044.0,20479.0,3977.0,2836.0,706.0,480.0
75401,County,2020/01/24,19.0,IA,19049.0,Dallas County,15288.0,74892.0,338018.0,74098.0,76969.0,39337.0,58021.0,61704.0,19670.0,4495.0,2723.0,597.0,404.0
78636,County,2020/01/25,19.0,IA,19049.0,Dallas County,16279.0,73901.0,325416.0,66504.0,78942.0,40638.0,57730.0,54107.0,18704.0,4868.0,2873.0,729.0,321.0
80663,County,2020/01/26,19.0,IA,19049.0,Dallas County,17995.0,72185.0,276340.0,58697.0,62374.0,33906.0,48770.0,47967.0,15958.0,3700.0,3674.0,673.0,621.0
84853,County,2020/01/27,19.0,IA,19049.0,Dallas County,15866.0,74314.0,315561.0,68534.0,69425.0,37855.0,52473.0,61084.0,18982.0,3839.0,2406.0,530.0,433.0
86673,County,2020/01/28,19.0,IA,19049.0,Dallas County,15348.0,74832.0,316264.0,66817.0,70595.0,36577.0,51266.0,63764.0,20023.0,3903.0,2357.0,567.0,395.0
89828,County,2020/01/29,19.0,IA,19049.0,Dallas County,15956.0,74224.0,318261.0,63517.0,68208.0,36685.0,58281.0,64969.0,19196.0,3659.0,2721.0,589.0,436.0
93132,County,2020/01/30,19.0,IA,19049.0,Dallas County,15677.0,74503.0,325469.0,68898.0,73316.0,34753.0,55878.0,62935.0,20795.0,4304.0,2983.0,997.0,610.0
97806,County,2020/01/31,19.0,IA,19049.0,Dallas County,14929.0,75251.0,336711.0,70191.0,75267.0,36795.0,60728.0,63019.0,19786.0,4901.0,4372.0,973.0,679.0
100994,County,2020/02/01,19.0,IA,19049.0,Dallas County,16406.0,73774.0,325314.0,69597.0,80054.0,32498.0,56977.0,58188.0,18518.0,4595.0,3057.0,879.0,951.0
102612,County,2020/02/02,19.0,IA,19049.0,Dallas County,17835.0,72345.0,277718.0,56363.0,70904.0,33020.0,45792.0,47653.0,14894.0,3947.0,3265.0,906.0,974.0
107399,County,2020/02/03,19.0,IA,19049.0,Dallas County,14846.0,75334.0,335523.0,73579.0,82114.0,38138.0,56160.0,59804.0,16968.0,4336.0,2915.0,707.0,802.0
109016,County,2020/02/04,19.0,IA,19049.0,Dallas County,15189.0,74991.0,323948.0,70076.0,75734.0,35494.0,56737.0,58561.0,19062.0,3552.0,3157.0,792.0,783.0
113739,County,2020/02/05,19.0,IA,19049.0,Dallas County,15139.0,75041.0,321923.0,68780.0,72680.0,36720.0,55580.0,60751.0,18295.0,3804.0,3567.0,940.0,806.0
115306,County,2020/02/06,19.0,IA,19049.0,Dallas County,14800.0,75380.0,334309.0,70716.0,78859.0,36243.0,55737.0,63990.0,19557.0,4314.0,3082.0,969.0,842.0
120199,County,2020/02/07,19.0,IA,19049.0,Dallas County,14634.0,75546.0,346481.0,77769.0,79651.0,39118.0,58473.0,61950.0,19374.0,4603.0,3852.0,845.0,846.0
123359,County,2020/02/08,19.0,IA,19049.0,Dallas County,15609.0,74571.0,321520.0,67711.0,77696.0,34938.0,54508.0,56626.0,20703.0,4050.0,3622.0,814.0,852.0
124987,County,2020/02/09,19.0,IA,19049.0,Dallas County,18743.0,71437.0,267810.0,54717.0,67485.0,37002.0,44935.0,41190.0,13581.0,2626.0,3989.0,1024.0,1261.0
129122,County,2020/02/10,19.0,IA,19049.0,Dallas County,14855.0,75325.0,344600.0,79911.0,76166.0,42256.0,57770.0,60532.0,18377.0,3753.0,4060.0,732.0,1043.0
131768,County,2020/02/11,19.0,IA,19049.0,Dallas County,13363.0,76817.0,348359.0,72040.0,79913.0,43250.0,58962.0,65107.0,19360.0,3729.0,3677.0,1274.0,1047.0
136057,County,2020/02/12,19.0,IA,19049.0,Dallas County,13944.0,76236.0,336859.0,68851.0,74678.0,43074.0,57982.0,63161.0,19335.0,4149.0,3584.0,925.0,1120.0
137752,County,2020/02/13,19.0,IA,19049.0,Dallas County,14830.0,75350.0,329294.0,66657.0,74569.0,44593.0,52997.0,62859.0,18490.0,3359.0,3571.0,1083.0,1116.0
140859,County,2020/02/14,19.0,IA,19049.0,Dallas County,13228.0,76952.0,366264.0,72817.0,83525.0,49179.0,60106.0,66695.0,20196.0,6099.0,5022.0,1334.0,1291.0
145737,County,2020/02/15,19.0,IA,19049.0,Dallas County,15260.0,74920.0,348136.0,68892.0,78493.0,47285.0,59399.0,58700.0,23239.0,5056.0,4885.0,1045.0,1142.0
147344,County,2020/02/16,19.0,IA,19049.0,Dallas County,17746.0,72434.0,294880.0,57591.0,68851.0,38672.0,52726.0,47870.0,17513.0,4800.0,4448.0,1244.0,1165.0
150518,County,2020/02/17,19.0,IA,19049.0,Dallas County,19851.0,70329.0,269168.0,49033.0,59999.0,33658.0,47184.0,51403.0,17551.0,4868.0,3573.0,1046.0,853.0
155249,County,2020/02/18,19.0,IA,19049.0,Dallas County,14761.0,75419.0,332229.0,69234.0,74745.0,38417.0,57481.0,63758.0,18464.0,5027.0,2963.0,894.0,1246.0
156927,County,2020/02/19,19.0,IA,19049.0,Dallas County,14387.0,75793.0,342855.0,72453.0,78959.0,40041.0,59200.0,62684.0,20395.0,3976.0,3376.0,903.0,868.0
161591,County,2020/02/20,19.0,IA,19049.0,Dallas County,14945.0,75235.0,352376.0,80932.0,81915.0,37166.0,57532.0,66523.0,18017.0,4617.0,3783.0,1092.0,799.0
163266,County,2020/02/21,19.0,IA,19049.0,Dallas County,14801.0,75379.0,378986.0,83054.0,88258.0,42037.0,59367.0,73014.0,21248.0,5290.0,4919.0,1105.0,694.0
166460,County,2020/02/22,19.0,IA,19049.0,Dallas County,14924.0,75256.0,371787.0,81706.0,90181.0,39732.0,66117.0,59963.0,21706.0,5914.0,4034.0,1426.0,1008.0
169687,County,2020/02/23,19.0,IA,19049.0,Dallas County,17565.0,72615.0,309676.0,67379.0,78430.0,34637.0,50032.0,51485.0,16210.0,5144.0,4628.0,1045.0,686.0
174470,County,2020/02/24,19.0,IA,19049.0,Dallas County,15966.0,74214.0,335795.0,72852.0,80478.0,39999.0,53820.0,63578.0,16296.0,3838.0,3088.0,877.0,969.0
176090,County,2020/02/25,19.0,IA,19049.0,Dallas County,14441.0,75739.0,352503.0,78071.0,83006.0,38539.0,58709.0,64927.0,20378.0,4329.0,2835.0,934.0,775.0
179677,County,2020/02/26,19.0,IA,19049.0,Dallas County,14985.0,75195.0,320663.0,66529.0,79523.0,39054.0,50245.0,60442.0,15383.0,4553.0,3557.0,791.0,586.0
183844,County,2020/02/27,19.0,IA,19049.0,Dallas County,14536.0,75644.0,363660.0,83335.0,81555.0,40436.0,60709.0,69105.0,18639.0,5030.0,2988.0,1232.0,631.0
187288,County,2020/02/28,19.0,IA,19049.0,Dallas County,14450.0,75730.0,374299.0,85620.0,82303.0,41120.0,60650.0,70895.0,23405.0,4995.0,3603.0,1103.0,605.0
190385,County,2020/02/29,19.0,IA,19049.0,Dallas County,15290.0,74890.0,365554.0,84549.0,82806.0,38433.0,64838.0,60902.0,23844.0,5299.0,3635.0,831.0,417.0
192057,County,2020/03/01,19.0,IA,19049.0,Dallas County,16913.0,73267.0,305112.0,74646.0,71189.0,34811.0,54556.0,46899.0,14076.0,3615.0,3667.0,1191.0,462.0
195232,County,2020/03/02,19.0,IA,19049.0,Dallas County,15484.0,74696.0,323610.0,66782.0,73100.0,38063.0,52927.0,64150.0,18970.0,5780.0,2622.0,776.0,440.0
198435,County,2020/03/03,19.0,IA,19049.0,Dallas County,14109.0,76071.0,331399.0,70795.0,76593.0,38719.0,53656.0,62814.0,18652.0,4884.0,3921.0,804.0,561.0
202294,County,2020/03/04,19.0,IA,19049.0,Dallas County,14522.0,75658.0,331341.0,77328.0,74767.0,38602.0,51969.0,61035.0,17111.0,5259.0,4186.0,675.0,409.0
206423,County,2020/03/05,19.0,IA,19049.0,Dallas County,13755.0,76425.0,322781.0,71470.0,70767.0,34217.0,54140.0,62703.0,18511.0,5483.0,4430.0,750.0,310.0
207905,County,2020/03/06,19.0,IA,19049.0,Dallas County,13905.0,76275.0,353915.0,79582.0,81804.0,37601.0,56705.0,66698.0,19388.0,5188.0,5445.0,998.0,506.0
211206,County,2020/03/07,19.0,IA,19049.0,Dallas County,15144.0,75036.0,346567.0,76274.0,85842.0,38407.0,59910.0,56188.0,17151.0,5943.0,5358.0,907.0,587.0
214420,County,2020/03/08,19.0,IA,19049.0,Dallas County,16647.0,73533.0,313009.0,75538.0,74798.0,36561.0,51453.0,46075.0,15688.0,5755.0,5738.0,642.0,761.0
219179,County,2020/03/09,19.0,IA,19049.0,Dallas County,14680.0,75500.0,308088.0,63356.0,73508.0,36710.0,49257.0,57663.0,17625.0,5044.0,3828.0,601.0,496.0
222373,County,2020/03/10,19.0,IA,19049.0,Dallas County,14662.0,75518.0,329737.0,76195.0,75295.0,39804.0,50981.0,59296.0,17401.0,5996.0,3634.0,761.0,374.0
225602,County,2020/03/11,19.0,IA,19049.0,Dallas County,15195.0,74985.0,316458.0,70210.0,77275.0,28003.0,49652.0,59792.0,13551.0,6338.0,8629.0,1877.0,1131.0
228693,County,2020/03/12,19.0,IA,19049.0,Dallas County,15214.0,74966.0,310167.0,64613.0,76998.0,30696.0,45610.0,56275.0,18399.0,6497.0,8017.0,1901.0,1161.0
231962,County,2020/03/13,19.0,IA,19049.0,Dallas County,14972.0,75208.0,307987.0,57612.0,76682.0,29998.0,48988.0,57956.0,17101.0,8014.0,8329.0,2388.0,919.0
235017,County,2020/03/14,19.0,IA,19049.0,Dallas County,18320.0,71860.0,294086.0,63482.0,77479.0,28689.0,46620.0,43885.0,18899.0,4779.0,6261.0,2554.0,1438.0
236776,County,2020/03/15,19.0,IA,19049.0,Dallas County,21538.0,68642.0,268012.0,67295.0,65991.0,28461.0,42230.0,39418.0,13741.0,4182.0,4927.0,907.0,860.0
241537,County,2020/03/16,19.0,IA,19049.0,Dallas County,18318.0,71862.0,311920.0,70923.0,70605.0,34236.0,52312.0,57760.0,15790.0,4387.0,4578.0,795.0,534.0
243153,County,2020/03/17,19.0,IA,19049.0,Dallas County,21152.0,69028.0,283610.0,68277.0,62282.0,28311.0,45665.0,54717.0,15747.0,4571.0,2702.0,992.0,346.0
246357,County,2020/03/18,19.0,IA,19049.0,Dallas County,22881.0,67299.0,274492.0,65760.0,57927.0,28678.0,42325.0,52621.0,16720.0,4763.0,4279.0,1052.0,367.0
251139,County,2020/03/19,19.0,IA,19049.0,Dallas County,22908.0,67272.0,257720.0,63618.0,57283.0,26147.0,38901.0,45060.0,16001.0,4288.0,4639.0,1178.0,605.0
254314,County,2020/03/20,19.0,IA,19049.0,Dallas County,22641.0,67539.0,266338.0,63112.0,55845.0,28263.0,42921.0,49605.0,15761.0,4460.0,4562.0,1235.0,574.0
255891,County,2020/03/21,19.0,IA,19049.0,Dallas County,24935.0,65245.0,249328.0,60194.0,65045.0,24625.0,41207.0,36671.0,12571.0,4198.0,3129.0,875.0,813.0
259126,County,2020/03/22,19.0,IA,19049.0,Dallas County,25093.0,65087.0,181528.0,41834.0,48836.0,18396.0,25902.0,26219.0,10761.0,4307.0,3717.0,1081.0,475.0
262331,County,2020/03/23,19.0,IA,19049.0,Dallas County,22358.0,67822.0,227772.0,53662.0,52285.0,22257.0,37664.0,41410.0,13521.0,3297.0,2654.0,628.0,394.0
265483,County,2020/03/24,19.0,IA,19049.0,Dallas County,22481.0,67699.0,244929.0,63643.0,53305.0,23634.0,39158.0,44963.0,12427.0,3722.0,3087.0,517.0,473.0
268717,County,2020/03/25,19.0,IA,19049.0,Dallas County,22906.0,67274.0,240356.0,62948.0,53539.0,24597.0,35051.0,43053.0,11244.0,5472.0,3507.0,624.0,321.0
273457,County,2020/03/26,19.0,IA,19049.0,Dallas County,22284.0,67896.0,244434.0,64897.0,53881.0,24574.0,35127.0,43796.0,13798.0,4046.0,2933.0,1074.0,308.0
275097,County,2020/03/27,19.0,IA,19049.0,Dallas County,22549.0,67631.0,243291.0,58252.0,54696.0,22702.0,40771.0,44176.0,14054.0,5007.0,2458.0,902.0,273.0
279858,County,2020/03/28,19.0,IA,19049.0,Dallas County,22716.0,67464.0,236547.0,62376.0,62865.0,19655.0,35177.0,36831.0,12989.0,2742.0,2886.0,723.0,303.0
281493,County,2020/03/29,19.0,IA,19049.0,Dallas County,25045.0,65135.0,221611.0,67659.0,53749.0,21455.0,32413.0,30063.0,9816.0,2619.0,2834.0,621.0,382.0
284637,County,2020/03/30,19.0,IA,19049.0,Dallas County,22636.0,67544.0,251888.0,70576.0,55738.0,24344.0,35725.0,44744.0,13611.0,3675.0,2411.0,702.0,362.0
287833,County,2020/03/31,19.0,IA,19049.0,Dallas County,23100.0,67080.0,253896.0,68665.0,57591.0,23593.0,37583.0,43601.0,15429.0,4147.0,2243.0,615.0,429.0
292640,County,2020/04/01,19.0,IA,19049.0,Dallas County,22243.0,67937.0,251391.0,69649.0,57683.0,22203.0,39206.0,41315.0,14464.0,3616.0,2201.0,500.0,554.0
294269,County,2020/04/02,19.0,IA,19049.0,Dallas County,22204.0,67976.0,250250.0,64650.0,57527.0,25755.0,36686.0,41807.0,15396.0,4255.0,3056.0,659.0,459.0
297463,County,2020/04/03,19.0,IA,19049.0,Dallas County,23132.0,67048.0,230610.0,60646.0,52393.0,27221.0,33107.0,39493.0,11248.0,3281.0,2662.0,224.0,335.0
302209,County,2020/04/04,19.0,IA,19049.0,Dallas County,23777.0,66403.0,234569.0,62512.0,57273.0,23448.0,36822.0,37541.0,10538.0,2499.0,2801.0,697.0,438.0
303837,County,2020/04/05,19.0,IA,19049.0,Dallas County,24510.0,65670.0,219365.0,66722.0,53783.0,23004.0,29090.0,29094.0,9793.0,3820.0,2738.0,671.0,650.0
307046,County,2020/04/06,19.0,IA,19049.0,Dallas County,22883.0,67297.0,254918.0,65882.0,57126.0,27660.0,39447.0,42450.0,14523.0,4956.0,2226.0,328.0,320.0
310239,County,2020/04/07,19.0,IA,19049.0,Dallas County,23219.0,66961.0,259985.0,73628.0,59233.0,26012.0,38705.0,41959.0,14095.0,3855.0,1853.0,435.0,210.0
313433,County,2020/04/08,19.0,IA,19049.0,Dallas County,22632.0,67548.0,256729.0,71498.0,56119.0,29187.0,38584.0,38921.0,15678.0,4355.0,1676.0,392.0,319.0
316602,County,2020/04/09,19.0,IA,19049.0,Dallas County,23262.0,66918.0,232639.0,55414.0,54784.0,24215.0,31149.0,41947.0,16981.0,5016.0,2180.0,734.0,219.0
321338,County,2020/04/10,19.0,IA,19049.0,Dallas County,22120.0,68060.0,262686.0,69745.0,57574.0,25327.0,41347.0,46116.0,14364.0,4157.0,3166.0,497.0,393.0
323014,County,2020/04/11,19.0,IA,19049.0,Dallas County,23503.0,66677.0,254890.0,76104.0,61316.0,27148.0,33071.0,37808.0,11826.0,4418.0,2341.0,563.0,295.0
327747,County,2020/04/12,19.0,IA,19049.0,Dallas County,27944.0,62236.0,167593.0,49002.0,44588.0,13037.0,21886.0,25975.0,7407.0,2034.0,2549.0,794.0,321.0
329424,County,2020/04/13,19.0,IA,19049.0,Dallas County,24546.0,65634.0,248926.0,72516.0,51867.0,24234.0,34170.0,43000.0,16339.0,3666.0,2558.0,339.0,237.0
332548,County,2020/04/14,19.0,IA,19049.0,Dallas County,23458.0,66722.0,198009.0,51624.0,49983.0,21390.0,22399.0,33905.0,11944.0,2385.0,2322.0,1862.0,195.0
335774,County,2020/04/15,19.0,IA,19049.0,Dallas County,22283.0,67897.0,212316.0,58986.0,49249.0,21310.0,28145.0,34136.0,11950.0,4477.0,2999.0,832.0,232.0
338975,County,2020/04/16,19.0,IA,19049.0,Dallas County,22899.0,67281.0,218977.0,54499.0,48182.0,19944.0,27815.0,43311.0,16607.0,5120.0,2548.0,560.0,391.0
342227,County,2020/04/17,19.0,IA,19049.0,Dallas County,21654.0,68526.0,228291.0,57893.0,60470.0,19835.0,27184.0,35977.0,16689.0,4665.0,3900.0,1159.0,519.0
346902,County,2020/04/18,19.0,IA,19049.0,Dallas County,24316.0,65864.0,256751.0,74152.0,58105.0,28387.0,39575.0,34965.0,12393.0,4649.0,3107.0,748.0,670.0
348553,County,2020/04/19,19.0,IA,19049.0,Dallas County,24435.0,65745.0,205965.0,57890.0,60339.0,19591.0,23911.0,28054.0,9441.0,2731.0,2806.0,533.0,669.0
353334,County,2020/04/20,19.0,IA,19049.0,Dallas County,21503.0,68677.0,245666.0,53719.0,61520.0,26607.0,36967.0,41563.0,16400.0,4585.0,2917.0,948.0,440.0
356520,County,2020/04/21,19.0,IA,19049.0,Dallas County,22778.0,67402.0,259731.0,69191.0,58014.0,27121.0,36924.0,44687.0,15097.0,5605.0,2248.0,528.0,316.0
358149,County,2020/04/22,19.0,IA,19049.0,Dallas County,22374.0,67806.0,254560.0,63108.0,54865.0,21048.0,41238.0,46082.0,18505.0,5445.0,3338.0,709.0,222.0
361254,County,2020/04/23,19.0,IA,19049.0,Dallas County,21974.0,68206.0,260841.0,65688.0,57093.0,26826.0,40149.0,47295.0,15916.0,4845.0,2423.0,357.0,249.0
366142,County,2020/04/24,19.0,IA,19049.0,Dallas County,21315.0,68865.0,269930.0,63266.0,63431.0,27834.0,44115.0,48273.0,16060.0,4431.0,1927.0,475.0,118.0
367675,County,2020/04/25,19.0,IA,19049.0,Dallas County,21997.0,68183.0,258588.0,64052.0,65390.0,27050.0,41348.0,39899.0,14323.0,4641.0,1132.0,604.0,149.0
372444,County,2020/04/26,19.0,IA,19049.0,Dallas County,23635.0,66545.0,247956.0,65515.0,59048.0,20047.0,37817.0,42332.0,14540.0,5407.0,2676.0,449.0,125.0
375723,County,2020/04/27,19.0,IA,19049.0,Dallas County,22300.0,67880.0,268048.0,66081.0,59059.0,27722.0,46707.0,45401.0,15215.0,4808.0,2251.0,577.0,227.0
377269,County,2020/04/28,19.0,IA,19049.0,Dallas County,22669.0,67511.0,257881.0,62668.0,58869.0,24390.0,42368.0,45374.0,16996.0,4966.0,1741.0,359.0,150.0
380521,County,2020/04/29,19.0,IA,19049.0,Dallas County,22724.0,67456.0,253189.0,60211.0,53920.0,27856.0,46588.0,43128.0,15313.0,3337.0,2024.0,592.0,220.0
385267,County,2020/04/30,19.0,IA,19049.0,Dallas County,21878.0,68302.0,266511.0,65378.0,56344.0,28969.0,43044.0,46192.0,19823.0,4465.0,1644.0,445.0,207.0
388503,County,2020/05/01,19.0,IA,19049.0,Dallas County,20715.0,69465.0,275131.0,64229.0,62596.0,31413.0,43917.0,48817.0,16275.0,4694.0,2116.0,814.0,260.0
390076,County,2020/05/02,19.0,IA,19049.0,Dallas County,21311.0,68869.0,267856.0,58347.0,66664.0,29457.0,42562.0,46568.0,15870.0,5445.0,2384.0,371.0,188.0
393289,County,2020/05/03,19.0,IA,19049.0,Dallas County,22705.0,67475.0,239757.0,59830.0,57452.0,23730.0,39889.0,39291.0,13652.0,3143.0,1882.0,613.0,275.0
398043,County,2020/05/04,19.0,IA,19049.0,Dallas County,21461.0,68719.0,253922.0,57144.0,54076.0,28509.0,43492.0,44977.0,17127.0,5445.0,2742.0,257.0,153.0
401219,County,2020/05/05,19.0,IA,19049.0,Dallas County,22344.0,67836.0,229916.0,48158.0,52909.0,23774.0,41030.0,42050.0,13571.0,5451.0,2380.0,411.0,182.0
404425,County,2020/05/06,19.0,IA,19049.0,Dallas County,22004.0,68176.0,262962.0,67281.0,54812.0,25780.0,45830.0,46252.0,15316.0,4581.0,2235.0,386.0,489.0
406052,County,2020/05/07,19.0,IA,19049.0,Dallas County,21043.0,69137.0,264686.0,54561.0,62846.0,32008.0,42203.0,47976.0,17283.0,4604.0,2260.0,666.0,279.0
409308,County,2020/05/08,19.0,IA,19049.0,Dallas County,20346.0,69834.0,286610.0,64150.0,68365.0,28885.0,45871.0,54080.0,16214.0,6083.0,2226.0,419.0,317.0
413979,County,2020/05/09,19.0,IA,19049.0,Dallas County,21487.0,68693.0,264529.0,61430.0,62220.0,28475.0,44470.0,44001.0,15814.0,4391.0,3102.0,455.0,171.0
415640,County,2020/05/10,19.0,IA,19049.0,Dallas County,23120.0,67060.0,227368.0,48715.0,57566.0,26834.0,32460.0,41140.0,11646.0,4833.0,3377.0,550.0,247.0
420438,County,2020/05/11,19.0,IA,19049.0,Dallas County,18860.0,71320.0,296445.0,73681.0,65283.0,30967.0,49639.0,51661.0,17652.0,4338.0,2607.0,430.0,187.0
422018,County,2020/05/12,19.0,IA,19049.0,Dallas County,19061.0,71119.0,299447.0,78430.0,64702.0,28152.0,49084.0,54708.0,15997.0,4860.0,2777.0,588.0,149.0
425174,County,2020/05/13,19.0,IA,19049.0,Dallas County,19035.0,71145.0,276822.0,68487.0,57118.0,25189.0,43816.0,56579.0,17400.0,4459.0,2997.0,501.0,276.0
429983,County,2020/05/14,19.0,IA,19049.0,Dallas County,18509.0,71671.0,269917.0,61914.0,56562.0,30143.0,45069.0,52219.0,16771.0,3406.0,2832.0,640.0,361.0
431612,County,2020/05/15,19.0,IA,19049.0,Dallas County,17870.0,72310.0,280672.0,66401.0,57474.0,29322.0,51331.0,52089.0,16702.0,3288.0,3095.0,719.0,251.0
436361,County,2020/05/16,19.0,IA,19049.0,Dallas County,17997.0,72183.0,286482.0,72580.0,73177.0,31233.0,44408.0,43569.0,13958.0,3859.0,2783.0,477.0,438.0
437988,County,2020/05/17,19.0,IA,19049.0,Dallas County,19400.0,70780.0,256609.0,66618.0,63369.0,22128.0,44687.0,34867.0,14845.0,5890.0,3041.0,836.0,328.0
441233,County,2020/05/18,19.0,IA,19049.0,Dallas County,17235.0,72945.0,307634.0,72879.0,71553.0,34275.0,46270.0,54867.0,18206.0,5799.0,3009.0,647.0,129.0
444387,County,2020/05/19,19.0,IA,19049.0,Dallas County,17294.0,72886.0,301338.0,71140.0,70284.0,28108.0,49897.0,56097.0,16899.0,5669.0,2667.0,577.0,0.0
447555,County,2020/05/20,19.0,IA,19049.0,Dallas County,16835.0,73345.0,306086.0,78151.0,64592.0,31010.0,50389.0,52558.0,21750.0,4888.0,1999.0,652.0,97.0
450725,County,2020/05/21,19.0,IA,19049.0,Dallas County,16850.0,73330.0,310545.0,83432.0,67355.0,29816.0,46306.0,53367.0,20357.0,5613.0,3163.0,913.0,223.0
453961,County,2020/05/22,19.0,IA,19049.0,Dallas County,14553.0,75627.0,328283.0,80458.0,70862.0,35927.0,56016.0,54179.0,20881.0,6073.0,3121.0,435.0,331.0
457157,County,2020/05/23,19.0,IA,19049.0,Dallas County,17299.0,72881.0,287986.0,66466.0,63122.0,37617.0,45311.0,48263.0,16943.0,5402.0,4065.0,413.0,384.0
461900,County,2020/05/24,19.0,IA,19049.0,Dallas County,19169.0,71011.0,250710.0,63081.0,59052.0,31748.0,34081.0,41741.0,13104.0,3784.0,3056.0,668.0,395.0
463528,County,2020/05/25,19.0,IA,19049.0,Dallas County,19860.0,70320.0,232904.0,54422.0,53177.0,27708.0,32783.0,39927.0,14976.0,4696.0,3663.0,1002.0,550.0
468359,County,2020/05/26,19.0,IA,19049.0,Dallas County,18185.0,71995.0,263803.0,60604.0,59462.0,27725.0,45215.0,49645.0,13898.0,3294.0,2988.0,613.0,359.0
469938,County,2020/05/27,19.0,IA,19049.0,Dallas County,18265.0,71915.0,303230.0,73984.0,66950.0,30749.0,48031.0,57893.0,16784.0,4499.0,3276.0,766.0,298.0
474601,County,2020/05/28,19.0,IA,19049.0,Dallas County,18342.0,71838.0,277186.0,64748.0,59116.0,27392.0,46342.0,52897.0,18649.0,3600.0,3287.0,1032.0,123.0
476279,County,2020/05/29,19.0,IA,19049.0,Dallas County,19939.0,70241.0,296933.0,71832.0,61933.0,28738.0,51289.0,54130.0,19827.0,4833.0,3312.0,881.0,158.0
479466,County,2020/05/30,19.0,IA,19049.0,Dallas County,20463.0,69717.0,284193.0,71045.0,67632.0,26394.0,45385.0,47227.0,16951.0,4859.0,3610.0,991.0,99.0
484232,County,2020/05/31,19.0,IA,19049.0,Dallas County,20532.0,69648.0,254724.0,61940.0,51668.0,27349.0,42585.0,44855.0,16662.0,4146.0,4402.0,929.0,188.0
485861,County,2020/06/01,19.0,IA,19049.0,Dallas County,17342.0,72838.0,276449.0,70784.0,61912.0,28302.0,40103.0,49386.0,16384.0,4522.0,3951.0,837.0,268.0
490641,County,2020/06/02,19.0,IA,19049.0,Dallas County,18449.0,71731.0,280728.0,66597.0,60352.0,30141.0,47661.0,51451.0,15778.0,4655.0,2817.0,909.0,367.0
493864,County,2020/06/03,19.0,IA,19049.0,Dallas County,16405.0,73775.0,308225.0,74034.0,64643.0,35502.0,51578.0,52429.0,20490.0,4982.0,3240.0,961.0,366.0
497045,County,2020/06/04,19.0,IA,19049.0,Dallas County,17114.0,73066.0,288673.0,66784.0,62036.0,31673.0,47701.0,52125.0,18802.0,4268.0,3720.0,1273.0,291.0
498685,County,2020/06/05,19.0,IA,19049.0,Dallas County,17341.0,72839.0,305607.0,80782.0,61564.0,34895.0,48286.0,52159.0,17518.0,4778.0,4006.0,1212.0,407.0
501832,County,2020/06/06,19.0,IA,19049.0,Dallas County,18898.0,71282.0,267648.0,60412.0,60323.0,30448.0,45884.0,49077.0,13649.0,3912.0,2547.0,962.0,434.0
506608,County,2020/06/07,19.0,IA,19049.0,Dallas County,18704.0,71476.0,253191.0,54481.0,66384.0,29779.0,36108.0,40675.0,13532.0,6840.0,3615.0,1395.0,382.0
509820,County,2020/06/08,19.0,IA,19049.0,Dallas County,15711.0,74469.0,317993.0,76262.0,67583.0,38610.0,53643.0,54469.0,19540.0,3522.0,3228.0,936.0,200.0
511449,County,2020/06/09,19.0,IA,19049.0,Dallas County,17781.0,72399.0,277343.0,60462.0,59073.0,31971.0,48565.0,51497.0,17384.0,4956.0,2244.0,877.0,314.0
516230,County,2020/06/10,19.0,IA,19049.0,Dallas County,17457.0,72723.0,270431.0,62480.0,61248.0,29723.0,43385.0,50443.0,13903.0,4664.0,3187.0,1030.0,368.0
517859,County,2020/06/11,19.0,IA,19049.0,Dallas County,16509.0,73671.0,315809.0,75358.0,71139.0,36553.0,51932.0,53161.0,16466.0,6137.0,3474.0,1264.0,325.0
522610,County,2020/06/12,19.0,IA,19049.0,Dallas County,16906.0,73274.0,310446.0,71811.0,72256.0,35530.0,50973.0,52264.0,16461.0,6155.0,3588.0,1050.0,358.0
525797,County,2020/06/13,19.0,IA,19049.0,Dallas County,16904.0,73276.0,314176.0,81843.0,70331.0,31404.0,49019.0,54719.0,17564.0,4704.0,3281.0,991.0,320.0
529000,County,2020/06/14,19.0,IA,19049.0,Dallas County,19727.0,70453.0,256885.0,64197.0,62414.0,29291.0,35056.0,39005.0,15668.0,5564.0,4025.0,1282.0,383.0
532191,County,2020/06/15,19.0,IA,19049.0,Dallas County,19530.0,70650.0,273951.0,68439.0,60326.0,31832.0,43274.0,45063.0,15120.0,4270.0,4095.0,1162.0,370.0
533819,County,2020/06/16,19.0,IA,19049.0,Dallas County,19301.0,70879.0,297393.0,68662.0,64780.0,35425.0,50227.0,54203.0,17318.0,2798.0,2847.0,806.0,327.0
538530,County,2020/06/17,19.0,IA,19049.0,Dallas County,18887.0,71293.0,297949.0,71737.0,70229.0,29755.0,47989.0,52284.0,18798.0,3336.0,2972.0,511.0,338.0
541725,County,2020/06/18,19.0,IA,19049.0,Dallas County,17811.0,72369.0,290527.0,70002.0,65829.0,31050.0,43542.0,53022.0,18084.0,4421.0,3330.0,1049.0,198.0
544926,County,2020/06/19,19.0,IA,19049.0,Dallas County,18108.0,72072.0,265444.0,62341.0,60345.0,26524.0,41863.0,47879.0,17533.0,4382.0,3026.0,1080.0,471.0
548161,County,2020/06/20,19.0,IA,19049.0,Dallas County,19329.0,70851.0,267547.0,65507.0,63684.0,27988.0,40921.0,45942.0,14738.0,4839.0,2689.0,740.0,499.0
549761,County,2020/06/21,19.0,IA,19049.0,Dallas County,20110.0,70070.0,224222.0,50474.0,48679.0,24557.0,32253.0,39264.0,14981.0,7382.0,5183.0,831.0,618.0
554541,County,2020/06/22,19.0,IA,19049.0,Dallas County,19056.0,71124.0,251296.0,56969.0,49999.0,30004.0,38838.0,49804.0,16187.0,4525.0,3794.0,729.0,447.0
556169,County,2020/06/23,19.0,IA,19049.0,Dallas County,17276.0,72904.0,281774.0,66511.0,59488.0,32628.0,43625.0,50991.0,18176.0,5918.0,3136.0,1073.0,228.0
560937,County,2020/06/24,19.0,IA,19049.0,Dallas County,19916.0,70264.0,260608.0,61051.0,54049.0,28174.0,39668.0,51995.0,16183.0,4959.0,3529.0,840.0,160.0
562565,County,2020/06/25,19.0,IA,19049.0,Dallas County,18190.0,71990.0,283797.0,68103.0,61169.0,32567.0,44018.0,48075.0,19331.0,4284.0,4385.0,1424.0,441.0
565771,County,2020/06/26,19.0,IA,19049.0,Dallas County,17655.0,72525.0,258864.0,61633.0,56179.0,25489.0,38673.0,48057.0,16728.0,5699.0,4743.0,1305.0,358.0
568941,County,2020/06/27,19.0,IA,19049.0,Dallas County,18262.0,71918.0,282838.0,64337.0,67217.0,30926.0,46151.0,48011.0,15474.0,5642.0,3798.0,1077.0,205.0
573702,County,2020/06/28,19.0,IA,19049.0,Dallas County,18880.0,71300.0,248605.0,55101.0,53598.0,25695.0,41809.0,42509.0,16566.0,5972.0,5067.0,1963.0,325.0
576874,County,2020/06/29,19.0,IA,19049.0,Dallas County,19529.0,70651.0,238895.0,48921.0,52550.0,27851.0,37099.0,45567.0,15696.0,5063.0,4126.0,1581.0,441.0
578517,County,2020/06/30,19.0,IA,19049.0,Dallas County,18722.0,71458.0,254711.0,58875.0,52921.0,27714.0,41603.0,47296.0,15920.0,3071.0,4911.0,1746.0,654.0
581723,County,2020/07/01,19.0,IA,19049.0,Dallas County,17986.0,72194.0,261920.0,61895.0,53651.0,28410.0,42615.0,47304.0,15712.0,5321.0,4695.0,1731.0,586.0
584915,County,2020/07/02,19.0,IA,19049.0,Dallas County,18510.0,71670.0,301223.0,72285.0,64925.0,34567.0,46721.0,51027.0,20518.0,4547.0,4654.0,1511.0,468.0
589708,County,2020/07/03,19.0,IA,19049.0,Dallas County,19083.0,71097.0,257405.0,61286.0,55862.0,25345.0,38455.0,47786.0,16634.0,5667.0,4716.0,1298.0,356.0
591302,County,2020/07/04,19.0,IA,19049.0,Dallas County,20653.0,69527.0,220217.0,52431.0,47792.0,21684.0,32899.0,40882.0,14231.0,4848.0,4035.0,1110.0,305.0
596048,County,2020/07/05,19.0,IA,19049.0,Dallas County,20069.0,70111.0,233416.0,49342.0,49998.0,26727.0,37218.0,42799.0,13878.0,6726.0,4538.0,1593.0,597.0
599217,County,2020/07/06,19.0,IA,19049.0,Dallas County,19663.0,70517.0,230371.0,49395.0,47343.0,28517.0,36782.0,43581.0,13766.0,4106.0,4925.0,1324.0,632.0
602839,County,2020/07/07,19.0,IA,19049.0,Dallas County,18952.0,71228.0,244185.0,55289.0,50607.0,29398.0,37987.0,44985.0,14898.0,4373.0,4792.0,1330.0,526.0
604035,County,2020/07/08,19.0,IA,19049.0,Dallas County,19462.0,70718.0,241558.0,51613.0,49543.0,28264.0,41470.0,46333.0,13646.0,3795.0,4683.0,1597.0,614.0
607280,County,2020/07/09,19.0,IA,19049.0,Dallas County,18597.0,71583.0,249479.0,56495.0,52119.0,28734.0,39468.0,45144.0,16274.0,4496.0,5009.0,1274.0,466.0
612062,County,2020/07/10,19.0,IA,19049.0,Dallas County,18539.0,71641.0,249062.0,59940.0,52719.0,25202.0,38911.0,46145.0,14413.0,4450.0,5290.0,1394.0,598.0
615229,County,2020/07/11,19.0,IA,19049.0,Dallas County,18958.0,71222.0,241837.0,57303.0,49633.0,26657.0,38084.0,44181.0,14046.0,5157.0,5104.0,1098.0,574.0
618415,County,2020/07/12,19.0,IA,19049.0,Dallas County,20779.0,69401.0,211465.0,46439.0,46289.0,25007.0,30433.0,37233.0,14406.0,5328.0,4491.0,1282.0,557.0
620052,County,2020/07/13,19.0,IA,19049.0,Dallas County,19912.0,70268.0,233641.0,50606.0,48511.0,23105.0,38621.0,46228.0,15422.0,5098.0,4529.0,1068.0,453.0
623252,County,2020/07/14,19.0,IA,19049.0,Dallas County,19117.0,71063.0,241314.0,52718.0,50250.0,27321.0,40800.0,46086.0,15773.0,3700.0,3077.0,1047.0,542.0
627989,County,2020/07/15,19.0,IA,19049.0,Dallas County,19963.0,70217.0,245610.0,51452.0,52256.0,26227.0,43050.0,48653.0,14887.0,4715.0,3246.0,774.0,350.0
631255,County,2020/07/16,19.0,IA,19049.0,Dallas County,19199.0,70981.0,260217.0,54816.0,57697.0,31741.0,42442.0,47997.0,15852.0,4919.0,3801.0,617.0,335.0
632816,County,2020/07/17,19.0,IA,19049.0,Dallas County,21128.0,69052.0,245331.0,54118.0,50854.0,26865.0,45424.0,43261.0,15590.0,4519.0,3455.0,917.0,328.0
637602,County,2020/07/18,19.0,IA,19049.0,Dallas County,21579.0,68601.0,220357.0,47872.0,49310.0,23887.0,35003.0,40628.0,13721.0,5335.0,3338.0,878.0,385.0
640755,County,2020/07/19,19.0,IA,19049.0,Dallas County,21854.0,68326.0,214053.0,46868.0,44191.0,23713.0,35711.0,38918.0,13276.0,4890.0,4476.0,1498.0,512.0
643964,County,2020/07/20,19.0,IA,19049.0,Dallas County,21751.0,68429.0,244572.0,54394.0,53275.0,27876.0,39805.0,44136.0,16087.0,4732.0,3171.0,827.0,269.0
645592,County,2020/07/21,19.0,IA,19049.0,Dallas County,19740.0,70440.0,264400.0,59298.0,56014.0,30531.0,41603.0,49923.0,16701.0,4765.0,4181.0,862.0,522.0
650321,County,2020/07/22,19.0,IA,19049.0,Dallas County,18711.0,71469.0,261631.0,61153.0,55647.0,28557.0,41534.0,48059.0,16140.0,4457.0,4028.0,1316.0,740.0
651911,County,2020/07/23,19.0,IA,19049.0,Dallas County,19322.0,70858.0,250377.0,55765.0,53092.0,27194.0,38353.0,50517.0,13406.0,5648.0,4687.0,1028.0,687.0
655083,County,2020/07/24,19.0,IA,19049.0,Dallas County,18170.0,72010.0,275292.0,64857.0,60703.0,28128.0,40681.0,50612.0,17683.0,5262.0,5147.0,1452.0,767.0
660006,County,2020/07/25,19.0,IA,19049.0,Dallas County,20033.0,70147.0,243166.0,59180.0,51479.0,24015.0,43042.0,41489.0,13828.0,4450.0,3696.0,1321.0,666.0
663085,County,2020/07/26,19.0,IA,19049.0,Dallas County,19960.0,70220.0,223600.0,45869.0,46483.0,25626.0,35447.0,41496.0,15240.0,5562.0,5537.0,1502.0,838.0
666358,County,2020/07/27,19.0,IA,19049.0,Dallas County,19874.0,70306.0,246676.0,49781.0,49010.0,27676.0,43237.0,50064.0,14938.0,6048.0,3773.0,1494.0,655.0
667939,County,2020/07/28,19.0,IA,19049.0,Dallas County,18623.0,71557.0,270557.0,62898.0,54539.0,30705.0,40789.0,53208.0,17503.0,5003.0,4241.0,1020.0,651.0
671145,County,2020/07/29,19.0,IA,19049.0,Dallas County,19097.0,71083.0,248694.0,51757.0,48893.0,26827.0,41378.0,52049.0,15855.0,4957.0,5016.0,1343.0,619.0
675905,County,2020/07/30,19.0,IA,19049.0,Dallas County,18052.0,72128.0,268732.0,58507.0,54467.0,29574.0,43672.0,54578.0,16119.0,4862.0,4624.0,1398.0,931.0
679133,County,2020/07/31,19.0,IA,19049.0,Dallas County,19157.0,71023.0,245723.0,51943.0,49593.0,25271.0,38079.0,49554.0,18030.0,5140.0,5657.0,1609.0,847.0
680713,County,2020/08/01,19.0,IA,19049.0,Dallas County,19846.0,70334.0,240838.0,54897.0,50229.0,26241.0,34183.0,45787.0,16018.0,6321.0,4880.0,1260.0,1022.0
685494,County,2020/08/02,19.0,IA,19049.0,Dallas County,20330.0,69850.0,229963.0,49482.0,45690.0,26658.0,35445.0,44542.0,14735.0,5166.0,5892.0,1498.0,855.0
688697,County,2020/08/03,19.0,IA,19049.0,Dallas County,19973.0,70207.0,256892.0,56298.0,54364.0,28162.0,39037.0,51427.0,17751.0,4634.0,3609.0,1151.0,459.0
690325,County,2020/08/04,19.0,IA,19049.0,Dallas County,18302.0,71878.0,295064.0,71833.0,63803.0,29521.0,51014.0,53464.0,17057.0,3671.0,3492.0,1037.0,172.0
695084,County,2020/08/05,19.0,IA,19049.0,Dallas County,19303.0,70877.0,272328.0,61713.0,62244.0,28677.0,42693.0,50215.0,16912.0,4944.0,3625.0,1092.0,213.0
696694,County,2020/08/06,19.0,IA,19049.0,Dallas County,17637.0,72543.0,276744.0,65894.0,58890.0,29093.0,44456.0,52501.0,16161.0,4635.0,3427.0,1351.0,336.0
699906,County,2020/08/07,19.0,IA,19049.0,Dallas County,18222.0,71958.0,286961.0,64722.0,61715.0,29284.0,45132.0,52653.0,21004.0,6548.0,4499.0,1048.0,356.0
704667,County,2020/08/08,19.0,IA,19049.0,Dallas County,19129.0,71051.0,274728.0,64626.0,60472.0,27218.0,43553.0,50503.0,17282.0,5967.0,3805.0,915.0,387.0
706294,County,2020/08/09,19.0,IA,19049.0,Dallas County,20536.0,69644.0,248971.0,55876.0,51705.0,27950.0,37635.0,45199.0,17638.0,6475.0,5421.0,719.0,353.0
711055,County,2020/08/10,19.0,IA,19049.0,Dallas County,18547.0,71633.0,287855.0,62462.0,64141.0,33643.0,48384.0,53531.0,16157.0,4697.0,3421.0,1058.0,361.0
714296,County,2020/08/11,19.0,IA,19049.0,Dallas County,19484.0,70696.0,304362.0,66201.0,70879.0,36529.0,51118.0,52750.0,16342.0,6077.0,3147.0,984.0,335.0
717345,County,2020/08/12,19.0,IA,19049.0,Dallas County,18202.0,71978.0,273145.0,58516.0,58311.0,31148.0,45592.0,51526.0,17392.0,4461.0,3589.0,1473.0,1137.0
719071,County,2020/08/13,19.0,IA,19049.0,Dallas County,16748.0,73432.0,280797.0,60276.0,58872.0,32325.0,45362.0,54935.0,16069.0,5984.0,4228.0,1557.0,1189.0
723815,County,2020/08/14,19.0,IA,19049.0,Dallas County,16136.0,74044.0,304791.0,66344.0,66980.0,33990.0,49096.0,54106.0,20982.0,6288.0,4374.0,1465.0,1166.0
727026,County,2020/08/15,19.0,IA,19049.0,Dallas County,17590.0,72590.0,283155.0,61172.0,63836.0,31018.0,45865.0,51036.0,17656.0,5699.0,4259.0,1078.0,1536.0
730218,County,2020/08/16,19.0,IA,19049.0,Dallas County,19260.0,70920.0,261728.0,56307.0,52497.0,29866.0,38230.0,51053.0,16850.0,6586.0,5999.0,2286.0,2054.0
731847,County,2020/08/17,19.0,IA,19049.0,Dallas County,19525.0,70655.0,273848.0,52008.0,60034.0,32664.0,45769.0,53039.0,15978.0,5773.0,5157.0,1765.0,1661.0
735013,County,2020/08/18,19.0,IA,19049.0,Dallas County,19709.0,70471.0,252319.0,48835.0,50924.0,31863.0,41001.0,48717.0,16571.0,5120.0,5342.0,1855.0,2091.0
738219,County,2020/08/19,19.0,IA,19049.0,Dallas County,18675.0,71505.0,264329.0,53559.0,55616.0,33077.0,39694.0,51222.0,17425.0,4776.0,5260.0,1842.0,1858.0
743000,County,2020/08/20,19.0,IA,19049.0,Dallas County,17396.0,72784.0,278195.0,60458.0,54900.0,29559.0,42844.0,56407.0,18609.0,5202.0,5842.0,2296.0,2078.0
746206,County,2020/08/21,19.0,IA,19049.0,Dallas County,16854.0,73326.0,299517.0,61283.0,66491.0,35309.0,47531.0,54730.0,21063.0,4416.0,5000.0,1930.0,1764.0
747834,County,2020/08/22,19.0,IA,19049.0,Dallas County,17483.0,72697.0,275961.0,56611.0,59224.0,30234.0,45234.0,51389.0,19196.0,6697.0,4355.0,1415.0,1606.0
751027,County,2020/08/23,19.0,IA,19049.0,Dallas County,20731.0,69449.0,230825.0,46409.0,57192.0,23428.0,36560.0,42212.0,12881.0,4613.0,4595.0,1449.0,1486.0
754202,County,2020/08/24,19.0,IA,19049.0,Dallas County,21120.0,69060.0,238906.0,46589.0,60984.0,26495.0,37463.0,44468.0,13443.0,3682.0,3065.0,1128.0,1589.0
758962,County,2020/08/25,19.0,IA,19049.0,Dallas County,19745.0,70435.0,254858.0,48826.0,60362.0,29534.0,43187.0,48582.0,14708.0,4494.0,2630.0,1183.0,1352.0
760594,County,2020/08/26,19.0,IA,19049.0,Dallas County,19521.0,70659.0,245943.0,50484.0,52325.0,29580.0,42046.0,45948.0,16355.0,4141.0,2940.0,1152.0,972.0
763750,County,2020/08/27,19.0,IA,19049.0,Dallas County,19811.0,70369.0,264644.0,58131.0,62504.0,27068.0,43546.0,48454.0,15593.0,3971.0,3035.0,1260.0,1082.0
768533,County,2020/08/28,19.0,IA,19049.0,Dallas County,19608.0,70572.0,273969.0,57072.0,59223.0,31590.0,45441.0,52635.0,16425.0,4662.0,4581.0,1464.0,876.0
770161,County,2020/08/29,19.0,IA,19049.0,Dallas County,20088.0,70092.0,274295.0,62392.0,56557.0,29681.0,44288.0,53167.0,17500.0,4833.0,4113.0,1058.0,706.0
773368,County,2020/08/30,19.0,IA,19049.0,Dallas County,22159.0,68021.0,234683.0,53738.0,48609.0,26264.0,37254.0,43314.0,13717.0,5019.0,4149.0,1632.0,987.0
776561,County,2020/08/31,19.0,IA,19049.0,Dallas County,20256.0,69924.0,247383.0,52898.0,51406.0,28874.0,41171.0,47539.0,15910.0,3143.0,3978.0,1528.0,936.0
779703,County,2020/09/01,19.0,IA,19049.0,Dallas County,19441.0,70739.0,260751.0,58141.0,55379.0,30581.0,40091.0,47732.0,19251.0,3919.0,3766.0,1301.0,590.0
783735,County,2020/09/02,19.0,IA,19049.0,Dallas County,19407.0,70773.0,269125.0,59757.0,63575.0,25393.0,42331.0,50314.0,18443.0,4048.0,3596.0,944.0,724.0
787686,County,2020/09/03,19.0,IA,19049.0,Dallas County,17654.0,72526.0,282278.0,62389.0,59304.0,30582.0,46762.0,55882.0,16427.0,4004.0,4448.0,1521.0,959.0
789301,County,2020/09/04,19.0,IA,19049.0,Dallas County,19508.0,70672.0,268622.0,52252.0,58597.0,27055.0,47218.0,49403.0,19333.0,7038.0,5337.0,1619.0,770.0
794068,County,2020/09/05,19.0,IA,19049.0,Dallas County,19761.0,70419.0,285297.0,63918.0,61222.0,31416.0,47667.0,49984.0,17712.0,7265.0,4666.0,811.0,636.0
795720,County,2020/09/06,19.0,IA,19049.0,Dallas County,22323.0,67857.0,231556.0,52511.0,49104.0,26373.0,37542.0,37564.0,15751.0,5267.0,5742.0,886.0,816.0
800485,County,2020/09/07,19.0,IA,19049.0,Dallas County,22598.0,67582.0,210698.0,44220.0,46807.0,18140.0,34772.0,35383.0,16334.0,6199.0,6210.0,1404.0,1229.0
802093,County,2020/09/08,19.0,IA,19049.0,Dallas County,20960.0,69220.0,241942.0,42819.0,56479.0,28148.0,38116.0,48234.0,16929.0,4089.0,5215.0,958.0,955.0
806874,County,2020/09/09,19.0,IA,19049.0,Dallas County,20691.0,69489.0,251996.0,47069.0,58808.0,29303.0,39264.0,49072.0,17860.0,4262.0,4519.0,1101.0,738.0
808501,County,2020/09/10,19.0,IA,19049.0,Dallas County,21160.0,69020.0,232726.0,41450.0,52202.0,23419.0,38042.0,49922.0,15487.0,4408.0,5627.0,1353.0,816.0
813262,County,2020/09/11,19.0,IA,19049.0,Dallas County,19914.0,70266.0,259134.0,51239.0,56680.0,27089.0,41999.0,50584.0,18564.0,4998.0,5873.0,1435.0,673.0
816458,County,2020/09/12,19.0,IA,19049.0,Dallas County,21233.0,68947.0,249092.0,48329.0,53304.0,28516.0,41251.0,47747.0,19336.0,4275.0,4625.0,1007.0,702.0
818064,County,2020/09/13,19.0,IA,19049.0,Dallas County,22466.0,67714.0,203845.0,37491.0,41759.0,21055.0,34597.0,40766.0,15099.0,4737.0,5944.0,1311.0,1086.0
821269,County,2020/09/14,19.0,IA,19049.0,Dallas County,21063.0,69117.0,252822.0,47675.0,59700.0,28466.0,40450.0,51068.0,14078.0,4536.0,4687.0,1181.0,981.0
826038,County,2020/09/15,19.0,IA,19049.0,Dallas County,20439.0,69741.0,261232.0,53067.0,56625.0,27684.0,43248.0,51628.0,17086.0,4288.0,5402.0,1344.0,860.0
827666,County,2020/09/16,19.0,IA,19049.0,Dallas County,20978.0,69202.0,259650.0,53012.0,55818.0,29132.0,41739.0,49267.0,17012.0,5800.0,5679.0,1449.0,742.0
832409,County,2020/09/17,19.0,IA,19049.0,Dallas County,20106.0,70074.0,258331.0,50968.0,54480.0,29054.0,41466.0,50019.0,19615.0,4798.0,5653.0,1360.0,918.0
834038,County,2020/09/18,19.0,IA,19049.0,Dallas County,19761.0,70419.0,279402.0,57158.0,61983.0,29007.0,47421.0,51799.0,19083.0,6052.0,5194.0,977.0,728.0
838813,County,2020/09/19,19.0,IA,19049.0,Dallas County,20979.0,69201.0,285667.0,58381.0,61037.0,27511.0,50382.0,55184.0,19834.0,5698.0,6273.0,880.0,487.0
840442,County,2020/09/20,19.0,IA,19049.0,Dallas County,20526.0,69654.0,241013.0,52342.0,53461.0,25269.0,39380.0,43672.0,15877.0,4145.0,5368.0,1054.0,445.0
845229,County,2020/09/21,19.0,IA,19049.0,Dallas County,22374.0,67806.0,243215.0,49689.0,54617.0,29958.0,40221.0,48401.0,13940.0,2941.0,2665.0,603.0,180.0
846808,County,2020/09/22,19.0,IA,19049.0,Dallas County,20635.0,69545.0,271308.0,56519.0,63312.0,30861.0,44187.0,50166.0,17367.0,4760.0,2998.0,887.0,251.0
851586,County,2020/09/23,19.0,IA,19049.0,Dallas County,19498.0,70682.0,281496.0,59294.0,65791.0,31493.0,48314.0,53003.0,15348.0,4039.0,3555.0,454.0,205.0
853214,County,2020/09/24,19.0,IA,19049.0,Dallas County,18786.0,71394.0,284275.0,60580.0,62613.0,34777.0,45681.0,52704.0,19765.0,3368.0,3787.0,748.0,252.0
857978,County,2020/09/25,19.0,IA,19049.0,Dallas County,17530.0,72650.0,307320.0,67671.0,65268.0,33387.0,52768.0,59095.0,19429.0,5237.0,3567.0,757.0,141.0
859606,County,2020/09/26,19.0,IA,19049.0,Dallas County,18526.0,71654.0,288464.0,61970.0,65078.0,31291.0,48984.0,53490.0,19066.0,5015.0,2634.0,738.0,198.0
862778,County,2020/09/27,19.0,IA,19049.0,Dallas County,21527.0,68653.0,239460.0,53988.0,45888.0,30544.0,41327.0,42045.0,14257.0,6166.0,3905.0,910.0,430.0
865981,County,2020/09/28,19.0,IA,19049.0,Dallas County,19915.0,70265.0,258064.0,53840.0,55723.0,30458.0,44902.0,48614.0,17757.0,3566.0,2231.0,764.0,209.0
870753,County,2020/09/29,19.0,IA,19049.0,Dallas County,19944.0,70236.0,258134.0,50846.0,60107.0,28174.0,42325.0,51323.0,15975.0,4805.0,3881.0,553.0,145.0
872382,County,2020/09/30,19.0,IA,19049.0,Dallas County,20198.0,69982.0,251608.0,47050.0,47395.0,30041.0,47930.0,50820.0,19769.0,4270.0,3579.0,589.0,165.0
877122,County,2020/10/01,19.0,IA,19049.0,Dallas County,18524.0,71656.0,253777.0,49683.0,56964.0,30733.0,42480.0,50649.0,14883.0,3974.0,3574.0,619.0,218.0
878750,County,2020/10/02,19.0,IA,19049.0,Dallas County,18255.0,71925.0,270982.0,56248.0,59301.0,32136.0,44148.0,51454.0,16847.0,5050.0,4863.0,775.0,160.0
883532,County,2020/10/03,19.0,IA,19049.0,Dallas County,20836.0,69344.0,246857.0,50289.0,54383.0,28250.0,39271.0,47678.0,17702.0,5659.0,2806.0,584.0,235.0
886902,County,2020/10/04,19.0,IA,19049.0,Dallas County,21249.0,68931.0,234002.0,45373.0,53931.0,22106.0,39579.0,46017.0,15986.0,5793.0,4167.0,771.0,279.0
888716,County,2020/10/05,19.0,IA,19049.0,Dallas County,21939.0,68241.0,246048.0,49756.0,55802.0,29116.0,41939.0,44020.0,16443.0,4230.0,3868.0,678.0,196.0
891893,County,2020/10/06,19.0,IA,19049.0,Dallas County,20084.0,70096.0,264729.0,57018.0,57406.0,30763.0,41014.0,50100.0,18659.0,5017.0,3936.0,645.0,171.0
895281,County,2020/10/07,19.0,IA,19049.0,Dallas County,18500.0,71680.0,289887.0,58348.0,64696.0,35166.0,49881.0,54370.0,18377.0,4906.0,3317.0,689.0,137.0
898267,County,2020/10/08,19.0,IA,19049.0,Dallas County,19480.0,70700.0,258682.0,51835.0,58304.0,31250.0,40567.0,49457.0,19226.0,3564.0,3569.0,725.0,185.0
901506,County,2020/10/09,19.0,IA,19049.0,Dallas County,21141.0,69039.0,270805.0,50619.0,60210.0,33047.0,47597.0,52050.0,18026.0,3667.0,4730.0,693.0,166.0
904680,County,2020/10/10,19.0,IA,19049.0,Dallas County,21783.0,68397.0,265836.0,58647.0,57535.0,28946.0,41159.0,51048.0,20037.0,4095.0,3676.0,569.0,124.0
907850,County,2020/10/11,19.0,IA,19049.0,Dallas County,21509.0,68671.0,223793.0,39010.0,49082.0,24579.0,35991.0,46192.0,17306.0,4967.0,5574.0,960.0,132.0
912481,County,2020/10/12,19.0,IA,19049.0,Dallas County,20463.0,69717.0,259574.0,50116.0,58364.0,28615.0,46455.0,49821.0,16653.0,4584.0,4179.0,678.0,109.0
915917,County,2020/10/13,19.0,IA,19049.0,Dallas County,19257.0,70923.0,268945.0,54783.0,60021.0,29720.0,43675.0,54497.0,16194.0,4732.0,4439.0,693.0,191.0
919062,County,2020/10/14,19.0,IA,19049.0,Dallas County,18860.0,71320.0,267244.0,55133.0,61571.0,29098.0,41653.0,52296.0,18117.0,4274.0,4030.0,811.0,261.0
922247,County,2020/10/15,19.0,IA,19049.0,Dallas County,20589.0,69591.0,235150.0,46275.0,53114.0,24624.0,38175.0,46394.0,15484.0,5444.0,4484.0,847.0,309.0
925068,County,2020/10/16,19.0,IA,19049.0,Dallas County,18125.0,72055.0,277091.0,57935.0,63681.0,28199.0,44487.0,56145.0,16020.0,5069.0,4330.0,921.0,304.0
928635,County,2020/10/17,19.0,IA,19049.0,Dallas County,19309.0,70871.0,270561.0,50808.0,66386.0,31074.0,47435.0,48101.0,16418.0,5739.0,3558.0,818.0,224.0
931703,County,2020/10/18,19.0,IA,19049.0,Dallas County,21724.0,68456.0,218305.0,40030.0,47318.0,27037.0,35141.0,44512.0,13621.0,4772.0,4996.0,687.0,191.0
934563,County,2020/10/19,19.0,IA,19049.0,Dallas County,19730.0,70450.0,237026.0,44753.0,56669.0,27945.0,39846.0,42042.0,16733.0,3960.0,4108.0,764.0,206.0
937943,County,2020/10/20,19.0,IA,19049.0,Dallas County,20224.0,69956.0,234201.0,44315.0,56423.0,27515.0,39138.0,41679.0,16190.0,4201.0,3929.0,592.0,219.0
941371,County,2020/10/21,19.0,IA,19049.0,Dallas County,20919.0,69261.0,233928.0,41502.0,55983.0,26258.0,36656.0,45895.0,17923.0,4277.0,4472.0,678.0,284.0
945381,County,2020/10/22,19.0,IA,19049.0,Dallas County,19191.0,70989.0,247620.0,41435.0,59038.0,28505.0,44277.0,47070.0,18203.0,4134.0,3894.0,845.0,219.0
948565,County,2020/10/23,19.0,IA,19049.0,Dallas County,18235.0,71945.0,277012.0,52255.0,62094.0,33558.0,47979.0,52802.0,17540.0,5164.0,4872.0,579.0,169.0
951048,County,2020/10/24,19.0,IA,19049.0,Dallas County,19876.0,70304.0,279932.0,56739.0,60391.0,35925.0,48183.0,48471.0,21830.0,4420.0,3201.0,577.0,195.0
