,Level,Date,State FIPS,State Postal Code,County FIPS,County Name,Population Staying at Home,Population Not Staying at Home,Number of Trips,Number of Trips <1,Number of Trips 1-3,Number of Trips 3-5,Number of Trips 5-10,Number of Trips 10-25,Number of Trips 25-50,Number of Trips 50-100,Number of Trips 100-250,Number of Trips 250-500,Number of Trips >=500
1120,County,2020/01/01,22.0,LA,22015.0,Bossier Parish,28279.0,98906.0,365351.0,81668.0,81400.0,51640.0,66992.0,60622.0,13192.0,5468.0,2939.0,1078.0,352.0
3360,County,2020/01/02,22.0,LA,22015.0,Bossier Parish,23311.0,103874.0,435066.0,91695.0,96738.0,58501.0,85255.0,76476.0,14917.0,6562.0,3447.0,1031.0,444.0
7499,County,2020/01/03,22.0,LA,22015.0,Bossier Parish,21374.0,105811.0,485116.0,101897.0,103571.0,65874.0,93467.0,89139.0,17032.0,8571.0,4248.0,843.0,474.0
12161,County,2020/01/04,22.0,LA,22015.0,Bossier Parish,25211.0,101974.0,449396.0,91898.0,101465.0,60792.0,86734.0,78172.0,16531.0,9043.0,3468.0,955.0,338.0
13896,County,2020/01/05,22.0,LA,22015.0,Bossier Parish,25741.0,101444.0,393855.0,82044.0,92101.0,53417.0,78611.0,63613.0,12984.0,5602.0,3842.0,1252.0,389.0
18165,County,2020/01/06,22.0,LA,22015.0,Bossier Parish,23340.0,103845.0,459073.0,95831.0,99255.0,64659.0,88866.0,83509.0,15503.0,7410.0,3167.0,677.0,196.0
19707,County,2020/01/07,22.0,LA,22015.0,Bossier Parish,21358.0,105827.0,467722.0,100273.0,102557.0,60780.0,91466.0,84399.0,17440.0,7143.0,2839.0,514.0,311.0
24555,County,2020/01/08,22.0,LA,22015.0,Bossier Parish,21790.0,105395.0,469185.0,100356.0,103922.0,59843.0,90885.0,85187.0,18300.0,6673.0,2910.0,700.0,409.0
27686,County,2020/01/09,22.0,LA,22015.0,Bossier Parish,21898.0,105287.0,469345.0,104545.0,100066.0,62497.0,88085.0,83020.0,19501.0,7573.0,3336.0,488.0,234.0
30893,County,2020/01/10,22.0,LA,22015.0,Bossier Parish,21421.0,105764.0,480858.0,110508.0,104665.0,63860.0,92194.0,83621.0,15774.0,5824.0,3258.0,787.0,367.0
34137,County,2020/01/11,22.0,LA,22015.0,Bossier Parish,25473.0,101712.0,442187.0,98729.0,96969.0,58178.0,89451.0,74076.0,14165.0,6273.0,3154.0,883.0,309.0
35677,County,2020/01/12,22.0,LA,22015.0,Bossier Parish,26094.0,101091.0,405440.0,86750.0,95078.0,57340.0,77182.0,65932.0,13177.0,5362.0,3224.0,990.0,405.0
38920,County,2020/01/13,22.0,LA,22015.0,Bossier Parish,21379.0,105806.0,470404.0,99326.0,107726.0,63117.0,90463.0,83698.0,15205.0,7182.0,2944.0,588.0,155.0
43653,County,2020/01/14,22.0,LA,22015.0,Bossier Parish,22141.0,105044.0,467922.0,101149.0,99288.0,64126.0,89403.0,84075.0,19637.0,6894.0,2482.0,584.0,284.0
46859,County,2020/01/15,22.0,LA,22015.0,Bossier Parish,21687.0,105498.0,474985.0,96902.0,103517.0,66158.0,92920.0,85684.0,19001.0,6752.0,2951.0,815.0,285.0
50015,County,2020/01/16,22.0,LA,22015.0,Bossier Parish,22554.0,104631.0,471823.0,98653.0,104320.0,65241.0,91015.0,83457.0,17354.0,7088.0,3537.0,850.0,308.0
53302,County,2020/01/17,22.0,LA,22015.0,Bossier Parish,20291.0,106894.0,507120.0,105030.0,109965.0,67588.0,100862.0,91289.0,19167.0,8429.0,3422.0,1026.0,342.0
56423,County,2020/01/18,22.0,LA,22015.0,Bossier Parish,23680.0,103505.0,444644.0,90196.0,97768.0,61438.0,92833.0,76146.0,13462.0,8011.0,3645.0,896.0,249.0
58022,County,2020/01/19,22.0,LA,22015.0,Bossier Parish,25014.0,102171.0,413444.0,87277.0,92099.0,55994.0,84067.0,70229.0,13364.0,5753.0,3450.0,917.0,294.0
61255,County,2020/01/20,22.0,LA,22015.0,Bossier Parish,23827.0,103358.0,443908.0,90956.0,95523.0,58406.0,88308.0,83199.0,16164.0,6959.0,3176.0,753.0,464.0
66032,County,2020/01/21,22.0,LA,22015.0,Bossier Parish,21623.0,105562.0,464670.0,99923.0,98868.0,60678.0,89368.0,86262.0,16967.0,8251.0,3366.0,642.0,345.0
67663,County,2020/01/22,22.0,LA,22015.0,Bossier Parish,22277.0,104908.0,454347.0,91857.0,93306.0,63863.0,93132.0,84045.0,16222.0,7872.0,2903.0,794.0,353.0
72405,County,2020/01/23,22.0,LA,22015.0,Bossier Parish,22719.0,104466.0,469002.0,99324.0,101908.0,64816.0,91281.0,84512.0,15556.0,7304.0,3147.0,839.0,315.0
75561,County,2020/01/24,22.0,LA,22015.0,Bossier Parish,21000.0,106185.0,500477.0,106427.0,105093.0,73997.0,95465.0,89206.0,17776.0,7548.0,3737.0,896.0,332.0
78796,County,2020/01/25,22.0,LA,22015.0,Bossier Parish,23785.0,103400.0,454688.0,98186.0,95178.0,64396.0,90618.0,77632.0,16049.0,8246.0,3257.0,903.0,223.0
80970,County,2020/01/26,22.0,LA,22015.0,Bossier Parish,25910.0,101275.0,399291.0,88551.0,90644.0,52421.0,77268.0,68740.0,11430.0,5645.0,3138.0,1009.0,445.0
83566,County,2020/01/27,22.0,LA,22015.0,Bossier Parish,21985.0,105200.0,464066.0,97721.0,101796.0,61610.0,90545.0,84920.0,16076.0,7639.0,2647.0,820.0,292.0
88916,County,2020/01/28,22.0,LA,22015.0,Bossier Parish,22799.0,104386.0,450399.0,94659.0,100476.0,59904.0,87375.0,80484.0,16715.0,7029.0,2810.0,711.0,236.0
91566,County,2020/01/29,22.0,LA,22015.0,Bossier Parish,22660.0,104525.0,462770.0,96526.0,102459.0,63199.0,91509.0,82290.0,16141.0,6925.0,2863.0,585.0,273.0
93292,County,2020/01/30,22.0,LA,22015.0,Bossier Parish,21560.0,105625.0,471928.0,102633.0,103929.0,62566.0,92072.0,83827.0,14754.0,6890.0,3589.0,1237.0,431.0
97966,County,2020/01/31,22.0,LA,22015.0,Bossier Parish,20072.0,107113.0,510145.0,103881.0,115875.0,71352.0,99101.0,88012.0,17488.0,8006.0,4789.0,1176.0,465.0
99596,County,2020/02/01,22.0,LA,22015.0,Bossier Parish,22158.0,105027.0,473897.0,100449.0,109460.0,65806.0,90802.0,79281.0,14962.0,7723.0,3675.0,1149.0,590.0
104307,County,2020/02/02,22.0,LA,22015.0,Bossier Parish,24009.0,103176.0,426187.0,90908.0,101262.0,57800.0,81152.0,68336.0,14344.0,6775.0,3998.0,1176.0,436.0
107559,County,2020/02/03,22.0,LA,22015.0,Bossier Parish,20600.0,106585.0,478891.0,102388.0,111893.0,62507.0,91262.0,81653.0,14777.0,8187.0,4526.0,1021.0,677.0
109176,County,2020/02/04,22.0,LA,22015.0,Bossier Parish,20546.0,106639.0,472751.0,98456.0,108577.0,61331.0,92226.0,82356.0,15626.0,8090.0,4690.0,954.0,445.0
113899,County,2020/02/05,22.0,LA,22015.0,Bossier Parish,21252.0,105933.0,461393.0,96906.0,108250.0,59363.0,88673.0,79033.0,16464.0,7814.0,3506.0,941.0,443.0
117105,County,2020/02/06,22.0,LA,22015.0,Bossier Parish,20644.0,106541.0,479317.0,100264.0,109214.0,66145.0,92534.0,83297.0,15732.0,7008.0,3816.0,908.0,399.0
120359,County,2020/02/07,22.0,LA,22015.0,Bossier Parish,19974.0,107211.0,526353.0,111848.0,123478.0,72227.0,100269.0,87629.0,16072.0,9109.0,4215.0,1085.0,421.0
123519,County,2020/02/08,22.0,LA,22015.0,Bossier Parish,22565.0,104620.0,477760.0,104971.0,111491.0,62076.0,91904.0,75663.0,17047.0,9324.0,4040.0,882.0,362.0
125133,County,2020/02/09,22.0,LA,22015.0,Bossier Parish,26968.0,100217.0,399470.0,88109.0,93695.0,54657.0,75830.0,61457.0,12505.0,6775.0,4814.0,1120.0,508.0
129429,County,2020/02/10,22.0,LA,22015.0,Bossier Parish,20737.0,106448.0,486554.0,101449.0,113669.0,69173.0,92146.0,80678.0,15946.0,6800.0,4962.0,1219.0,512.0
131977,County,2020/02/11,22.0,LA,22015.0,Bossier Parish,20221.0,106964.0,503703.0,104881.0,117554.0,70920.0,96888.0,84154.0,16822.0,6032.0,4590.0,1327.0,535.0
136217,County,2020/02/12,22.0,LA,22015.0,Bossier Parish,20785.0,106400.0,515431.0,112406.0,113699.0,75839.0,97787.0,87181.0,15959.0,6066.0,4552.0,1223.0,719.0
137912,County,2020/02/13,22.0,LA,22015.0,Bossier Parish,20066.0,107119.0,548887.0,116763.0,126306.0,74812.0,107176.0,92176.0,17471.0,7097.0,4893.0,1534.0,659.0
141019,County,2020/02/14,22.0,LA,22015.0,Bossier Parish,19772.0,107413.0,599031.0,126409.0,134341.0,85739.0,116342.0,99837.0,19150.0,9638.0,5363.0,1452.0,760.0
144266,County,2020/02/15,22.0,LA,22015.0,Bossier Parish,22918.0,104267.0,519957.0,118425.0,114805.0,69940.0,103315.0,82214.0,15478.0,8885.0,4741.0,1379.0,775.0
149050,County,2020/02/16,22.0,LA,22015.0,Bossier Parish,25177.0,102008.0,435927.0,84149.0,100873.0,58456.0,89066.0,73791.0,15057.0,7801.0,4410.0,1508.0,816.0
150678,County,2020/02/17,22.0,LA,22015.0,Bossier Parish,29160.0,98025.0,419806.0,87992.0,92630.0,55397.0,79814.0,74153.0,16652.0,7822.0,3839.0,1091.0,416.0
153892,County,2020/02/18,22.0,LA,22015.0,Bossier Parish,21318.0,105867.0,486722.0,102372.0,107583.0,62540.0,95354.0,86628.0,17619.0,8150.0,4533.0,1329.0,614.0
157087,County,2020/02/19,22.0,LA,22015.0,Bossier Parish,20442.0,106743.0,497916.0,96242.0,115113.0,68985.0,97475.0,88208.0,17338.0,8230.0,4215.0,1490.0,620.0
161800,County,2020/02/20,22.0,LA,22015.0,Bossier Parish,20342.0,106843.0,504766.0,101228.0,113265.0,69899.0,98762.0,89380.0,16980.0,7852.0,4908.0,1354.0,1138.0
163426,County,2020/02/21,22.0,LA,22015.0,Bossier Parish,19885.0,107300.0,550879.0,109083.0,125011.0,76951.0,110092.0,92976.0,18275.0,9453.0,5818.0,1945.0,1275.0
166620,County,2020/02/22,22.0,LA,22015.0,Bossier Parish,20987.0,106198.0,495732.0,107131.0,109898.0,64892.0,95781.0,82828.0,18957.0,8468.0,5301.0,1628.0,848.0
169847,County,2020/02/23,22.0,LA,22015.0,Bossier Parish,25047.0,102138.0,426892.0,92210.0,91062.0,58931.0,84227.0,75067.0,13668.0,6070.0,4032.0,1150.0,475.0
174630,County,2020/02/24,22.0,LA,22015.0,Bossier Parish,22629.0,104556.0,520689.0,105874.0,118084.0,73351.0,99709.0,93047.0,17837.0,8204.0,3357.0,756.0,470.0
176986,County,2020/02/25,22.0,LA,22015.0,Bossier Parish,19417.0,107768.0,540781.0,113937.0,127480.0,70050.0,102607.0,95184.0,17810.0,8487.0,3612.0,902.0,712.0
179984,County,2020/02/26,22.0,LA,22015.0,Bossier Parish,21070.0,106115.0,469584.0,91033.0,117515.0,68247.0,91944.0,75642.0,15071.0,6565.0,2584.0,804.0,179.0
184151,County,2020/02/27,22.0,LA,22015.0,Bossier Parish,19815.0,107370.0,538366.0,116822.0,116386.0,77322.0,102916.0,93249.0,18216.0,8319.0,3656.0,976.0,504.0
187448,County,2020/02/28,22.0,LA,22015.0,Bossier Parish,19258.0,107927.0,572283.0,125743.0,127261.0,79862.0,110630.0,94434.0,18693.0,9214.0,4938.0,943.0,565.0
190545,County,2020/02/29,22.0,LA,22015.0,Bossier Parish,20752.0,106433.0,532904.0,115155.0,121200.0,67496.0,103177.0,90483.0,19301.0,9942.0,4665.0,947.0,538.0
193763,County,2020/03/01,22.0,LA,22015.0,Bossier Parish,23862.0,103323.0,415325.0,89059.0,96338.0,56824.0,82727.0,63608.0,13548.0,7179.0,4236.0,1346.0,460.0
195392,County,2020/03/02,22.0,LA,22015.0,Bossier Parish,20985.0,106200.0,518316.0,115703.0,118599.0,72732.0,97742.0,84665.0,16698.0,7549.0,3180.0,921.0,527.0
200077,County,2020/03/03,22.0,LA,22015.0,Bossier Parish,18946.0,108239.0,530174.0,116342.0,119069.0,73295.0,98961.0,91051.0,17533.0,8773.0,3789.0,1103.0,258.0
202454,County,2020/03/04,22.0,LA,22015.0,Bossier Parish,19701.0,107484.0,492776.0,100398.0,110978.0,68339.0,94726.0,87738.0,17145.0,7385.0,4642.0,1187.0,238.0
204897,County,2020/03/05,22.0,LA,22015.0,Bossier Parish,18342.0,108843.0,535948.0,121719.0,121991.0,70592.0,101905.0,86579.0,19615.0,7805.0,4424.0,1037.0,281.0
208065,County,2020/03/06,22.0,LA,22015.0,Bossier Parish,17551.0,109634.0,567572.0,116709.0,126870.0,76800.0,110434.0,99913.0,19350.0,10309.0,5704.0,1268.0,215.0
211366,County,2020/03/07,22.0,LA,22015.0,Bossier Parish,20484.0,106701.0,511805.0,107627.0,117445.0,71667.0,94106.0,89085.0,15672.0,8362.0,6055.0,1420.0,366.0
216140,County,2020/03/08,22.0,LA,22015.0,Bossier Parish,22630.0,104555.0,440589.0,87552.0,100948.0,64732.0,85992.0,70532.0,14659.0,9217.0,5076.0,1415.0,466.0
219339,County,2020/03/09,22.0,LA,22015.0,Bossier Parish,20953.0,106232.0,498932.0,105013.0,111802.0,65036.0,97292.0,88970.0,16674.0,8308.0,4418.0,1133.0,286.0
222533,County,2020/03/10,22.0,LA,22015.0,Bossier Parish,20187.0,106998.0,517214.0,110988.0,108453.0,71850.0,97492.0,96587.0,18447.0,7800.0,4207.0,1010.0,380.0
225762,County,2020/03/11,22.0,LA,22015.0,Bossier Parish,20728.0,106457.0,497029.0,98379.0,120968.0,63663.0,98602.0,80936.0,16583.0,7808.0,7217.0,2330.0,543.0
228853,County,2020/03/12,22.0,LA,22015.0,Bossier Parish,21330.0,105855.0,505186.0,103782.0,124316.0,63356.0,96424.0,78967.0,17271.0,9194.0,9353.0,1937.0,586.0
232122,County,2020/03/13,22.0,LA,22015.0,Bossier Parish,20788.0,106397.0,506862.0,107576.0,124382.0,73755.0,94577.0,74444.0,15039.0,7247.0,7773.0,1591.0,478.0
235177,County,2020/03/14,22.0,LA,22015.0,Bossier Parish,25172.0,102013.0,450666.0,92434.0,106350.0,66691.0,88306.0,64325.0,18204.0,6709.0,5307.0,1842.0,498.0
238454,County,2020/03/15,22.0,LA,22015.0,Bossier Parish,29579.0,97606.0,387339.0,76706.0,94115.0,53545.0,71989.0,66888.0,12517.0,5759.0,4324.0,1179.0,317.0
241697,County,2020/03/16,22.0,LA,22015.0,Bossier Parish,24244.0,102941.0,485570.0,107294.0,108122.0,68321.0,90909.0,80966.0,17470.0,7146.0,4233.0,823.0,286.0
243313,County,2020/03/17,22.0,LA,22015.0,Bossier Parish,26183.0,101002.0,456543.0,104585.0,100817.0,58488.0,85314.0,78779.0,17236.0,7438.0,2878.0,903.0,105.0
248044,County,2020/03/18,22.0,LA,22015.0,Bossier Parish,28112.0,99073.0,443482.0,94603.0,92597.0,58470.0,86730.0,79722.0,18151.0,8299.0,3558.0,1205.0,147.0
249674,County,2020/03/19,22.0,LA,22015.0,Bossier Parish,27691.0,99494.0,446208.0,97562.0,99845.0,58129.0,82706.0,78182.0,18351.0,6814.0,3659.0,768.0,192.0
252908,County,2020/03/20,22.0,LA,22015.0,Bossier Parish,29970.0,97215.0,425291.0,90038.0,94953.0,53745.0,82170.0,77753.0,14358.0,7669.0,3080.0,1252.0,273.0
256051,County,2020/03/21,22.0,LA,22015.0,Bossier Parish,33125.0,94060.0,387586.0,87573.0,96257.0,50572.0,72148.0,57659.0,12981.0,6373.0,2867.0,877.0,279.0
260853,County,2020/03/22,22.0,LA,22015.0,Bossier Parish,32444.0,94741.0,305345.0,69577.0,78499.0,37736.0,52769.0,48487.0,9412.0,4710.0,2624.0,1294.0,237.0
262491,County,2020/03/23,22.0,LA,22015.0,Bossier Parish,28702.0,98483.0,371266.0,85202.0,82288.0,50337.0,63938.0,63966.0,13169.0,7444.0,3766.0,873.0,283.0
265643,County,2020/03/24,22.0,LA,22015.0,Bossier Parish,29197.0,97988.0,378097.0,81638.0,90530.0,45932.0,69431.0,65616.0,14218.0,6879.0,2762.0,881.0,210.0
268877,County,2020/03/25,22.0,LA,22015.0,Bossier Parish,28823.0,98362.0,383794.0,86787.0,86197.0,49566.0,69752.0,65767.0,14527.0,7024.0,3018.0,945.0,211.0
273617,County,2020/03/26,22.0,LA,22015.0,Bossier Parish,28305.0,98880.0,391973.0,86661.0,88289.0,53674.0,68958.0,65759.0,15808.0,7900.0,3692.0,1007.0,225.0
275257,County,2020/03/27,22.0,LA,22015.0,Bossier Parish,28852.0,98333.0,395337.0,86779.0,92328.0,48153.0,75075.0,66780.0,14399.0,6800.0,3795.0,1154.0,74.0
280018,County,2020/03/28,22.0,LA,22015.0,Bossier Parish,32104.0,95081.0,337441.0,78656.0,87127.0,45112.0,55453.0,51774.0,9619.0,6106.0,2531.0,846.0,217.0
283171,County,2020/03/29,22.0,LA,22015.0,Bossier Parish,33524.0,93661.0,312791.0,68696.0,80711.0,44498.0,51266.0,46750.0,12701.0,4793.0,2205.0,859.0,312.0
286397,County,2020/03/30,22.0,LA,22015.0,Bossier Parish,28837.0,98348.0,347048.0,74843.0,80953.0,43922.0,67509.0,56886.0,13571.0,5326.0,2769.0,1008.0,261.0
289601,County,2020/03/31,22.0,LA,22015.0,Bossier Parish,31012.0,96173.0,360362.0,74002.0,84156.0,43061.0,68650.0,64541.0,15274.0,6915.0,2921.0,763.0,79.0
292800,County,2020/04/01,22.0,LA,22015.0,Bossier Parish,28397.0,98788.0,381581.0,82383.0,88009.0,49084.0,71283.0,65625.0,15171.0,6147.0,3059.0,707.0,113.0
294429,County,2020/04/02,22.0,LA,22015.0,Bossier Parish,29297.0,97888.0,372914.0,84912.0,84534.0,47193.0,64355.0,65343.0,16709.0,6060.0,3110.0,508.0,190.0
297623,County,2020/04/03,22.0,LA,22015.0,Bossier Parish,30361.0,96824.0,370122.0,78667.0,81490.0,50707.0,69505.0,64353.0,14249.0,7595.0,2774.0,547.0,235.0
302369,County,2020/04/04,22.0,LA,22015.0,Bossier Parish,33877.0,93308.0,298241.0,59699.0,70384.0,40516.0,52539.0,54166.0,13501.0,4245.0,2201.0,827.0,163.0
303997,County,2020/04/05,22.0,LA,22015.0,Bossier Parish,34358.0,92827.0,313092.0,72331.0,82138.0,40813.0,54282.0,45534.0,10213.0,4715.0,2358.0,483.0,225.0
307206,County,2020/04/06,22.0,LA,22015.0,Bossier Parish,29523.0,97662.0,379629.0,81482.0,89042.0,51371.0,70193.0,63085.0,15347.0,6354.0,2234.0,418.0,103.0
310399,County,2020/04/07,22.0,LA,22015.0,Bossier Parish,28573.0,98612.0,385756.0,85991.0,90924.0,48784.0,72821.0,65022.0,13797.0,5518.0,2394.0,401.0,104.0
315135,County,2020/04/08,22.0,LA,22015.0,Bossier Parish,28232.0,98953.0,401689.0,93535.0,90687.0,52921.0,73428.0,65670.0,15765.0,6816.0,2273.0,448.0,146.0
316762,County,2020/04/09,22.0,LA,22015.0,Bossier Parish,29048.0,98137.0,391397.0,83051.0,92118.0,50751.0,72847.0,67656.0,15198.0,6598.0,2654.0,504.0,20.0
319989,County,2020/04/10,22.0,LA,22015.0,Bossier Parish,27878.0,99307.0,402422.0,83998.0,101711.0,52198.0,75201.0,65881.0,14500.0,5526.0,2701.0,544.0,162.0
323174,County,2020/04/11,22.0,LA,22015.0,Bossier Parish,30073.0,97112.0,375164.0,86181.0,90615.0,49653.0,69509.0,62070.0,10485.0,3837.0,2290.0,400.0,124.0
327907,County,2020/04/12,22.0,LA,22015.0,Bossier Parish,37029.0,90156.0,262859.0,54624.0,70454.0,37110.0,48272.0,39979.0,7519.0,2787.0,1636.0,456.0,22.0
329584,County,2020/04/13,22.0,LA,22015.0,Bossier Parish,29881.0,97304.0,383320.0,77517.0,90249.0,52650.0,70390.0,71135.0,13017.0,5744.0,2122.0,453.0,43.0
332708,County,2020/04/14,22.0,LA,22015.0,Bossier Parish,30153.0,97032.0,404509.0,96801.0,98248.0,47472.0,67285.0,65888.0,15111.0,8482.0,3659.0,920.0,643.0
335934,County,2020/04/15,22.0,LA,22015.0,Bossier Parish,29442.0,97743.0,413096.0,101893.0,94067.0,59244.0,69212.0,61776.0,13883.0,8801.0,2861.0,1145.0,214.0
340652,County,2020/04/16,22.0,LA,22015.0,Bossier Parish,31733.0,95452.0,417152.0,97418.0,109047.0,55352.0,72317.0,54385.0,16473.0,8569.0,2597.0,698.0,296.0
343915,County,2020/04/17,22.0,LA,22015.0,Bossier Parish,27741.0,99444.0,403961.0,96116.0,103787.0,50666.0,70488.0,56736.0,14962.0,7433.0,2767.0,592.0,414.0
345493,County,2020/04/18,22.0,LA,22015.0,Bossier Parish,32502.0,94683.0,393891.0,96102.0,100948.0,53379.0,69000.0,58154.0,9935.0,3741.0,1711.0,628.0,293.0
350244,County,2020/04/19,22.0,LA,22015.0,Bossier Parish,33656.0,93529.0,288062.0,68098.0,81391.0,37173.0,45027.0,36196.0,7362.0,8271.0,3019.0,1286.0,239.0
353494,County,2020/04/20,22.0,LA,22015.0,Bossier Parish,27987.0,99198.0,427948.0,101424.0,111323.0,59959.0,77960.0,52203.0,11992.0,9453.0,2489.0,890.0,255.0
356680,County,2020/04/21,22.0,LA,22015.0,Bossier Parish,26482.0,100703.0,423709.0,99377.0,94920.0,56056.0,78522.0,69804.0,15070.0,6201.0,2862.0,695.0,202.0
359836,County,2020/04/22,22.0,LA,22015.0,Bossier Parish,28163.0,99022.0,379532.0,80313.0,87872.0,46709.0,69607.0,68388.0,15466.0,7840.0,2556.0,662.0,119.0
363041,County,2020/04/23,22.0,LA,22015.0,Bossier Parish,26445.0,100740.0,425058.0,91088.0,99195.0,57205.0,77909.0,74499.0,15459.0,6328.0,2739.0,441.0,195.0
364668,County,2020/04/24,22.0,LA,22015.0,Bossier Parish,26437.0,100748.0,422450.0,87230.0,100175.0,58930.0,76585.0,75189.0,14817.0,6078.0,2873.0,404.0,169.0
367835,County,2020/04/25,22.0,LA,22015.0,Bossier Parish,27629.0,99556.0,402990.0,84003.0,98866.0,55105.0,80090.0,62068.0,14248.0,6865.0,1289.0,365.0,91.0
372604,County,2020/04/26,22.0,LA,22015.0,Bossier Parish,30009.0,97176.0,362380.0,69632.0,100207.0,48303.0,69830.0,57427.0,10174.0,4695.0,1595.0,388.0,129.0
374278,County,2020/04/27,22.0,LA,22015.0,Bossier Parish,26236.0,100949.0,441037.0,98377.0,102125.0,56956.0,84028.0,74856.0,15160.0,6882.0,2180.0,366.0,107.0
377429,County,2020/04/28,22.0,LA,22015.0,Bossier Parish,27521.0,99664.0,397986.0,84949.0,101718.0,50749.0,70548.0,67179.0,13932.0,5857.0,2410.0,446.0,198.0
382210,County,2020/04/29,22.0,LA,22015.0,Bossier Parish,26629.0,100556.0,429762.0,91773.0,99936.0,58567.0,81143.0,72558.0,16159.0,6021.0,2940.0,502.0,163.0
383829,County,2020/04/30,22.0,LA,22015.0,Bossier Parish,25156.0,102029.0,460324.0,104314.0,106357.0,61106.0,81920.0,78960.0,17025.0,7421.0,2529.0,649.0,43.0
387053,County,2020/05/01,22.0,LA,22015.0,Bossier Parish,23559.0,103626.0,452172.0,97397.0,101892.0,63247.0,89858.0,74799.0,15696.0,6366.0,2195.0,535.0,187.0
390236,County,2020/05/02,22.0,LA,22015.0,Bossier Parish,27970.0,99215.0,426057.0,100597.0,106028.0,58914.0,74524.0,63022.0,13595.0,5463.0,3077.0,739.0,98.0
393449,County,2020/05/03,22.0,LA,22015.0,Bossier Parish,29756.0,97429.0,391488.0,90585.0,108517.0,54081.0,64223.0,56376.0,9774.0,5217.0,1969.0,605.0,141.0
396611,County,2020/05/04,22.0,LA,22015.0,Bossier Parish,25632.0,101553.0,453530.0,97674.0,100836.0,62781.0,87329.0,77769.0,16283.0,7018.0,3060.0,601.0,179.0
401379,County,2020/05/05,22.0,LA,22015.0,Bossier Parish,24764.0,102421.0,443486.0,101280.0,102226.0,56799.0,79387.0,78018.0,15672.0,6808.0,2677.0,515.0,104.0
404585,County,2020/05/06,22.0,LA,22015.0,Bossier Parish,24723.0,102462.0,462074.0,99250.0,105132.0,62825.0,87329.0,79365.0,18021.0,7061.0,2504.0,459.0,128.0
406212,County,2020/05/07,22.0,LA,22015.0,Bossier Parish,25441.0,101744.0,446738.0,100467.0,96870.0,60779.0,89573.0,72898.0,14680.0,7736.0,3034.0,639.0,62.0
410991,County,2020/05/08,22.0,LA,22015.0,Bossier Parish,26168.0,101017.0,416883.0,87612.0,100643.0,56398.0,77491.0,68552.0,15161.0,7600.0,2727.0,579.0,120.0
412522,County,2020/05/09,22.0,LA,22015.0,Bossier Parish,25136.0,102049.0,442175.0,98652.0,110991.0,63741.0,75632.0,68639.0,15699.0,5790.0,2222.0,544.0,265.0
417319,County,2020/05/10,22.0,LA,22015.0,Bossier Parish,26855.0,100330.0,391846.0,81961.0,102913.0,51404.0,67710.0,62410.0,14442.0,7618.0,2700.0,568.0,120.0
420598,County,2020/05/11,22.0,LA,22015.0,Bossier Parish,21407.0,105778.0,473770.0,118196.0,104329.0,59315.0,86754.0,77039.0,17368.0,7599.0,2414.0,610.0,146.0
422178,County,2020/05/12,22.0,LA,22015.0,Bossier Parish,20633.0,106552.0,479159.0,112991.0,105442.0,60466.0,88359.0,83303.0,18103.0,6615.0,3306.0,505.0,69.0
425334,County,2020/05/13,22.0,LA,22015.0,Bossier Parish,21586.0,105599.0,448873.0,104421.0,92690.0,59823.0,83408.0,76587.0,19123.0,9267.0,2643.0,811.0,100.0
428577,County,2020/05/14,22.0,LA,22015.0,Bossier Parish,21708.0,105477.0,446480.0,93876.0,96537.0,58117.0,87237.0,80551.0,17476.0,8733.0,3116.0,696.0,141.0
431772,County,2020/05/15,22.0,LA,22015.0,Bossier Parish,21245.0,105940.0,444141.0,103551.0,97634.0,58596.0,83891.0,74629.0,14679.0,6956.0,3059.0,820.0,326.0
434995,County,2020/05/16,22.0,LA,22015.0,Bossier Parish,24096.0,103089.0,401289.0,92479.0,94515.0,52695.0,78734.0,59342.0,12737.0,6980.0,2877.0,770.0,160.0
438148,County,2020/05/17,22.0,LA,22015.0,Bossier Parish,23847.0,103338.0,408498.0,84905.0,99617.0,62653.0,69060.0,65273.0,13224.0,9855.0,3103.0,649.0,159.0
441393,County,2020/05/18,22.0,LA,22015.0,Bossier Parish,17720.0,109465.0,517685.0,112372.0,117350.0,72298.0,95741.0,89354.0,16523.0,9869.0,3497.0,520.0,161.0
446083,County,2020/05/19,22.0,LA,22015.0,Bossier Parish,17421.0,109764.0,528056.0,126032.0,119557.0,68150.0,95407.0,86034.0,19991.0,9311.0,2714.0,756.0,104.0
447715,County,2020/05/20,22.0,LA,22015.0,Bossier Parish,16703.0,110482.0,514458.0,116351.0,112526.0,69582.0,95127.0,87119.0,20707.0,8379.0,3455.0,1030.0,182.0
452149,County,2020/05/21,22.0,LA,22015.0,Bossier Parish,17072.0,110113.0,540694.0,124297.0,120385.0,73245.0,100118.0,87756.0,20711.0,9430.0,3717.0,855.0,180.0
455693,County,2020/05/22,22.0,LA,22015.0,Bossier Parish,16950.0,110235.0,559706.0,121787.0,130077.0,72967.0,105921.0,92860.0,20305.0,10771.0,3889.0,921.0,208.0
457317,County,2020/05/23,22.0,LA,22015.0,Bossier Parish,19951.0,107234.0,468743.0,106590.0,104553.0,63356.0,84214.0,77002.0,17354.0,10140.0,4156.0,1037.0,341.0
460485,County,2020/05/24,22.0,LA,22015.0,Bossier Parish,24799.0,102386.0,385021.0,88095.0,86538.0,53840.0,68862.0,60666.0,13446.0,8777.0,3597.0,860.0,340.0
463688,County,2020/05/25,22.0,LA,22015.0,Bossier Parish,26035.0,101150.0,371848.0,87533.0,81412.0,51885.0,69310.0,56497.0,12760.0,7658.0,3606.0,1033.0,154.0
468519,County,2020/05/26,22.0,LA,22015.0,Bossier Parish,21481.0,105704.0,459226.0,103131.0,98121.0,62018.0,88961.0,78178.0,16338.0,7858.0,3294.0,1081.0,246.0
470098,County,2020/05/27,22.0,LA,22015.0,Bossier Parish,20816.0,106369.0,477901.0,110860.0,105812.0,59728.0,92193.0,80101.0,16441.0,7678.0,3727.0,1137.0,224.0
474761,County,2020/05/28,22.0,LA,22015.0,Bossier Parish,21443.0,105742.0,448220.0,105616.0,94641.0,61318.0,83827.0,72456.0,17031.0,8301.0,3948.0,912.0,170.0
476439,County,2020/05/29,22.0,LA,22015.0,Bossier Parish,25356.0,101829.0,479720.0,111614.0,106024.0,66892.0,89894.0,76880.0,16409.0,6911.0,4238.0,708.0,150.0
479626,County,2020/05/30,22.0,LA,22015.0,Bossier Parish,23735.0,103450.0,462906.0,102581.0,104690.0,64863.0,89823.0,71231.0,17678.0,7464.0,3603.0,850.0,123.0
484392,County,2020/05/31,22.0,LA,22015.0,Bossier Parish,25434.0,101751.0,417671.0,98066.0,97556.0,54901.0,76305.0,61986.0,15312.0,8690.0,3414.0,1299.0,142.0
486021,County,2020/06/01,22.0,LA,22015.0,Bossier Parish,20841.0,106344.0,462058.0,107287.0,103274.0,57661.0,87700.0,77448.0,16717.0,7579.0,3393.0,835.0,164.0
489262,County,2020/06/02,22.0,LA,22015.0,Bossier Parish,22705.0,104480.0,450416.0,103399.0,99886.0,60677.0,83258.0,75613.0,15500.0,6606.0,4396.0,857.0,224.0
494024,County,2020/06/03,22.0,LA,22015.0,Bossier Parish,20124.0,107061.0,493336.0,114461.0,105603.0,68055.0,93275.0,82487.0,17671.0,7462.0,3285.0,854.0,183.0
497205,County,2020/06/04,22.0,LA,22015.0,Bossier Parish,20244.0,106941.0,475302.0,103852.0,105119.0,67663.0,87100.0,80639.0,17611.0,8362.0,3708.0,1072.0,176.0
498845,County,2020/06/05,22.0,LA,22015.0,Bossier Parish,20858.0,106327.0,503496.0,114025.0,110741.0,66089.0,93451.0,85500.0,18967.0,8998.0,4616.0,956.0,153.0
503570,County,2020/06/06,22.0,LA,22015.0,Bossier Parish,24200.0,102985.0,445295.0,96459.0,100192.0,60622.0,84662.0,75864.0,14489.0,7771.0,4118.0,875.0,243.0
505184,County,2020/06/07,22.0,LA,22015.0,Bossier Parish,24650.0,102535.0,401121.0,88798.0,100590.0,53080.0,69555.0,60209.0,15017.0,7985.0,4643.0,967.0,277.0
509980,County,2020/06/08,22.0,LA,22015.0,Bossier Parish,19306.0,107879.0,479836.0,100941.0,107351.0,65302.0,96457.0,81656.0,16398.0,6380.0,4330.0,909.0,112.0
511609,County,2020/06/09,22.0,LA,22015.0,Bossier Parish,21331.0,105854.0,461114.0,104550.0,100695.0,60386.0,86594.0,79860.0,17289.0,7446.0,3130.0,1040.0,124.0
516390,County,2020/06/10,22.0,LA,22015.0,Bossier Parish,21191.0,105994.0,481445.0,112724.0,101820.0,63949.0,92914.0,80194.0,18707.0,6678.0,3511.0,758.0,190.0
519498,County,2020/06/11,22.0,LA,22015.0,Bossier Parish,20077.0,107108.0,505298.0,115399.0,110605.0,67912.0,98148.0,82677.0,18019.0,7766.0,3790.0,759.0,223.0
522770,County,2020/06/12,22.0,LA,22015.0,Bossier Parish,20449.0,106736.0,477560.0,112225.0,103114.0,63082.0,91223.0,78563.0,17016.0,7035.0,4299.0,752.0,251.0
525957,County,2020/06/13,22.0,LA,22015.0,Bossier Parish,21614.0,105571.0,463034.0,105599.0,102441.0,61024.0,86280.0,76382.0,17663.0,8036.0,4339.0,1016.0,254.0
527592,County,2020/06/14,22.0,LA,22015.0,Bossier Parish,23685.0,103500.0,384577.0,90461.0,84566.0,52161.0,69239.0,58231.0,14874.0,9152.0,4690.0,945.0,258.0
532351,County,2020/06/15,22.0,LA,22015.0,Bossier Parish,21679.0,105506.0,446145.0,101695.0,98225.0,61652.0,82062.0,74300.0,16181.0,7370.0,3466.0,940.0,254.0
535522,County,2020/06/16,22.0,LA,22015.0,Bossier Parish,20577.0,106608.0,487670.0,109049.0,108333.0,69496.0,90560.0,80024.0,17170.0,7974.0,3872.0,1050.0,142.0
538690,County,2020/06/17,22.0,LA,22015.0,Bossier Parish,20140.0,107045.0,490653.0,112621.0,110252.0,62738.0,90837.0,82178.0,17223.0,9674.0,4139.0,763.0,228.0
541885,County,2020/06/18,22.0,LA,22015.0,Bossier Parish,20530.0,106655.0,484850.0,106763.0,105917.0,67219.0,94514.0,78586.0,18882.0,8104.0,3544.0,1094.0,227.0
545086,County,2020/06/19,22.0,LA,22015.0,Bossier Parish,21184.0,106001.0,450285.0,98826.0,96042.0,61963.0,86428.0,76486.0,16919.0,9055.0,3332.0,1045.0,189.0
546717,County,2020/06/20,22.0,LA,22015.0,Bossier Parish,23725.0,103460.0,436204.0,98583.0,101126.0,60540.0,78273.0,68431.0,17159.0,7185.0,3711.0,799.0,397.0
549921,County,2020/06/21,22.0,LA,22015.0,Bossier Parish,26274.0,100911.0,367894.0,83343.0,85798.0,48007.0,68994.0,56492.0,14718.0,5850.0,3589.0,777.0,326.0
554701,County,2020/06/22,22.0,LA,22015.0,Bossier Parish,23003.0,104182.0,419373.0,97251.0,91175.0,54728.0,78128.0,70934.0,15110.0,6483.0,4352.0,948.0,264.0
556329,County,2020/06/23,22.0,LA,22015.0,Bossier Parish,21790.0,105395.0,440076.0,96565.0,94641.0,58641.0,85185.0,75920.0,16915.0,7028.0,4279.0,742.0,160.0
559488,County,2020/06/24,22.0,LA,22015.0,Bossier Parish,23795.0,103390.0,403577.0,91152.0,88750.0,55564.0,73570.0,66772.0,15562.0,6973.0,4097.0,892.0,245.0
564225,County,2020/06/25,22.0,LA,22015.0,Bossier Parish,22661.0,104524.0,431599.0,101791.0,92047.0,56898.0,80295.0,73000.0,15052.0,7033.0,4294.0,1027.0,162.0
565931,County,2020/06/26,22.0,LA,22015.0,Bossier Parish,23400.0,103785.0,415102.0,87529.0,92940.0,58267.0,77196.0,69006.0,16286.0,8220.0,4399.0,1078.0,181.0
569101,County,2020/06/27,22.0,LA,22015.0,Bossier Parish,23588.0,103597.0,442858.0,107110.0,93836.0,56572.0,83193.0,72135.0,16553.0,7892.0,4411.0,894.0,262.0
573862,County,2020/06/28,22.0,LA,22015.0,Bossier Parish,24614.0,102571.0,360842.0,74453.0,79752.0,46529.0,68590.0,59168.0,16203.0,8698.0,5953.0,1207.0,289.0
577033,County,2020/06/29,22.0,LA,22015.0,Bossier Parish,25239.0,101946.0,396725.0,89960.0,84709.0,51415.0,75708.0,69221.0,14085.0,6238.0,4128.0,909.0,352.0
578675,County,2020/06/30,22.0,LA,22015.0,Bossier Parish,24032.0,103153.0,424361.0,97318.0,89022.0,55830.0,83738.0,70020.0,15611.0,7218.0,3897.0,1278.0,429.0
581883,County,2020/07/01,22.0,LA,22015.0,Bossier Parish,22868.0,104317.0,424069.0,102619.0,88947.0,53133.0,79056.0,71406.0,16217.0,7220.0,4079.0,1012.0,380.0
585075,County,2020/07/02,22.0,LA,22015.0,Bossier Parish,24882.0,102303.0,458100.0,108041.0,97699.0,60392.0,85225.0,77482.0,15976.0,7465.0,4558.0,1090.0,172.0
589819,County,2020/07/03,22.0,LA,22015.0,Bossier Parish,27008.0,100177.0,412763.0,87036.0,92416.0,57939.0,76761.0,68617.0,16194.0,8174.0,4374.0,1072.0,180.0
591461,County,2020/07/04,22.0,LA,22015.0,Bossier Parish,28858.0,98327.0,353129.0,74461.0,79064.0,49568.0,65671.0,58704.0,13855.0,6993.0,3742.0,917.0,154.0
596207,County,2020/07/05,22.0,LA,22015.0,Bossier Parish,27191.0,99994.0,339370.0,69523.0,78536.0,47799.0,63888.0,52284.0,12764.0,7595.0,4778.0,1667.0,536.0
598509,County,2020/07/06,22.0,LA,22015.0,Bossier Parish,25357.0,101828.0,392761.0,90299.0,88112.0,50691.0,69888.0,67851.0,12514.0,6725.0,4666.0,1556.0,459.0
602999,County,2020/07/07,22.0,LA,22015.0,Bossier Parish,24638.0,102547.0,391948.0,83891.0,83809.0,53437.0,76832.0,68266.0,13579.0,5579.0,4574.0,1595.0,386.0
605714,County,2020/07/08,22.0,LA,22015.0,Bossier Parish,23781.0,103404.0,406279.0,92665.0,90942.0,53495.0,73603.0,68897.0,12443.0,7226.0,5128.0,1592.0,288.0
607440,County,2020/07/09,22.0,LA,22015.0,Bossier Parish,22679.0,104506.0,415843.0,90285.0,90485.0,57172.0,78207.0,69380.0,15633.0,7621.0,5109.0,1547.0,404.0
610591,County,2020/07/10,22.0,LA,22015.0,Bossier Parish,23742.0,103443.0,426235.0,90672.0,92657.0,55318.0,83173.0,75050.0,15097.0,6981.0,5633.0,1397.0,257.0
615389,County,2020/07/11,22.0,LA,22015.0,Bossier Parish,25221.0,101964.0,409059.0,99460.0,89450.0,57526.0,73385.0,62582.0,14045.0,6856.0,4303.0,1129.0,323.0
618575,County,2020/07/12,22.0,LA,22015.0,Bossier Parish,26445.0,100740.0,358274.0,84841.0,80388.0,48216.0,66430.0,53396.0,11451.0,6866.0,4853.0,1505.0,328.0
620212,County,2020/07/13,22.0,LA,22015.0,Bossier Parish,23239.0,103946.0,397096.0,87146.0,83553.0,54102.0,75975.0,69625.0,14187.0,6787.0,3867.0,1399.0,455.0
624976,County,2020/07/14,22.0,LA,22015.0,Bossier Parish,23328.0,103857.0,415043.0,90414.0,87801.0,54911.0,85331.0,68652.0,14486.0,7650.0,4104.0,1236.0,458.0
626485,County,2020/07/15,22.0,LA,22015.0,Bossier Parish,23711.0,103474.0,428847.0,89345.0,94331.0,60996.0,83529.0,71098.0,17722.0,7585.0,3123.0,836.0,282.0
631415,County,2020/07/16,22.0,LA,22015.0,Bossier Parish,23740.0,103445.0,420348.0,88596.0,90431.0,61143.0,81679.0,70111.0,16324.0,7153.0,3507.0,1203.0,201.0
632976,County,2020/07/17,22.0,LA,22015.0,Bossier Parish,23736.0,103449.0,406038.0,84603.0,86222.0,58311.0,80792.0,70022.0,13751.0,7287.0,4013.0,817.0,220.0
636187,County,2020/07/18,22.0,LA,22015.0,Bossier Parish,26445.0,100740.0,408409.0,91687.0,90753.0,55748.0,78725.0,65708.0,13273.0,7564.0,3897.0,881.0,173.0
640915,County,2020/07/19,22.0,LA,22015.0,Bossier Parish,29498.0,97687.0,347360.0,76981.0,79739.0,47859.0,62299.0,52240.0,14535.0,7240.0,4684.0,1546.0,237.0
644124,County,2020/07/20,22.0,LA,22015.0,Bossier Parish,26953.0,100232.0,397508.0,89068.0,87697.0,50406.0,75356.0,68950.0,14265.0,7217.0,3346.0,931.0,272.0
645752,County,2020/07/21,22.0,LA,22015.0,Bossier Parish,25675.0,101510.0,428810.0,95237.0,87234.0,54713.0,85519.0,76169.0,18267.0,7146.0,3450.0,983.0,92.0
650481,County,2020/07/22,22.0,LA,22015.0,Bossier Parish,24429.0,102756.0,423776.0,96247.0,87165.0,53586.0,83441.0,73180.0,16967.0,7524.0,4523.0,890.0,253.0
652071,County,2020/07/23,22.0,LA,22015.0,Bossier Parish,25499.0,101686.0,409399.0,88950.0,88836.0,54115.0,75304.0,72444.0,17079.0,7605.0,3575.0,1164.0,327.0
656949,County,2020/07/24,22.0,LA,22015.0,Bossier Parish,24231.0,102954.0,450955.0,99939.0,95369.0,60431.0,85180.0,76507.0,17989.0,9325.0,4982.0,966.0,267.0
660166,County,2020/07/25,22.0,LA,22015.0,Bossier Parish,27970.0,99215.0,381017.0,80491.0,81546.0,51818.0,74308.0,65789.0,14463.0,7485.0,3780.0,1046.0,291.0
663245,County,2020/07/26,22.0,LA,22015.0,Bossier Parish,28789.0,98396.0,379033.0,79750.0,82657.0,50918.0,76039.0,61131.0,13447.0,7836.0,5595.0,1267.0,393.0
664986,County,2020/07/27,22.0,LA,22015.0,Bossier Parish,27512.0,99673.0,419858.0,87505.0,88899.0,56874.0,83057.0,71817.0,18017.0,7863.0,4230.0,1094.0,502.0
668099,County,2020/07/28,22.0,LA,22015.0,Bossier Parish,25703.0,101482.0,437926.0,93689.0,92021.0,56654.0,85005.0,80846.0,15045.0,8343.0,4764.0,1261.0,298.0
671305,County,2020/07/29,22.0,LA,22015.0,Bossier Parish,27216.0,99969.0,417804.0,94479.0,87263.0,51884.0,82276.0,70602.0,16020.0,8378.0,5030.0,1436.0,436.0
674515,County,2020/07/30,22.0,LA,22015.0,Bossier Parish,25360.0,101825.0,436420.0,94335.0,88136.0,58941.0,85529.0,75035.0,17309.0,9371.0,6062.0,1335.0,367.0
677667,County,2020/07/31,22.0,LA,22015.0,Bossier Parish,26906.0,100279.0,381819.0,77770.0,81388.0,53376.0,77968.0,61853.0,14916.0,7048.0,5420.0,1572.0,508.0
682414,County,2020/08/01,22.0,LA,22015.0,Bossier Parish,29419.0,97766.0,388869.0,86069.0,86864.0,54046.0,71180.0,60705.0,14923.0,8303.0,5494.0,901.0,384.0
685654,County,2020/08/02,22.0,LA,22015.0,Bossier Parish,28120.0,99065.0,360211.0,82144.0,77030.0,49907.0,69516.0,55088.0,13060.0,6897.0,4935.0,1299.0,335.0
688857,County,2020/08/03,22.0,LA,22015.0,Bossier Parish,25804.0,101381.0,422161.0,95033.0,87844.0,57350.0,80182.0,71206.0,16866.0,7644.0,4774.0,1064.0,198.0
690485,County,2020/08/04,22.0,LA,22015.0,Bossier Parish,22978.0,104207.0,452911.0,108382.0,95906.0,58283.0,86095.0,76806.0,14779.0,8656.0,3298.0,598.0,108.0
693648,County,2020/08/05,22.0,LA,22015.0,Bossier Parish,23443.0,103742.0,442387.0,106739.0,94541.0,57978.0,83001.0,70970.0,16866.0,8280.0,2947.0,796.0,269.0
696854,County,2020/08/06,22.0,LA,22015.0,Bossier Parish,22980.0,104205.0,459373.0,103243.0,100315.0,61970.0,86772.0,77103.0,16770.0,8168.0,4066.0,602.0,364.0
700066,County,2020/08/07,22.0,LA,22015.0,Bossier Parish,23278.0,103907.0,439000.0,93642.0,96871.0,60903.0,85144.0,73635.0,16724.0,7789.0,3423.0,565.0,304.0
704827,County,2020/08/08,22.0,LA,22015.0,Bossier Parish,25358.0,101827.0,400265.0,88959.0,88422.0,52809.0,77526.0,64547.0,15692.0,7400.0,3923.0,735.0,252.0
707997,County,2020/08/09,22.0,LA,22015.0,Bossier Parish,27927.0,99258.0,380264.0,90943.0,84940.0,49365.0,74433.0,54790.0,11734.0,7000.0,5040.0,1526.0,493.0
711215,County,2020/08/10,22.0,LA,22015.0,Bossier Parish,25864.0,101321.0,409453.0,82060.0,83138.0,52979.0,84681.0,76109.0,16804.0,8425.0,3848.0,1071.0,338.0
714456,County,2020/08/11,22.0,LA,22015.0,Bossier Parish,25739.0,101446.0,439291.0,96114.0,90469.0,57448.0,86263.0,80413.0,16799.0,7576.0,3070.0,794.0,345.0
717505,County,2020/08/12,22.0,LA,22015.0,Bossier Parish,24601.0,102584.0,405719.0,83867.0,84301.0,54532.0,77869.0,73923.0,16014.0,8971.0,4330.0,1043.0,869.0
720749,County,2020/08/13,22.0,LA,22015.0,Bossier Parish,23113.0,104072.0,435820.0,92695.0,90109.0,54954.0,87008.0,80483.0,17166.0,6915.0,4381.0,1010.0,1099.0
723975,County,2020/08/14,22.0,LA,22015.0,Bossier Parish,22595.0,104590.0,467699.0,90245.0,95954.0,63393.0,100938.0,82067.0,18118.0,9052.0,5439.0,1232.0,1261.0
727186,County,2020/08/15,22.0,LA,22015.0,Bossier Parish,24517.0,102668.0,420277.0,90798.0,91412.0,53645.0,84024.0,69471.0,15406.0,8696.0,4456.0,1021.0,1348.0
730378,County,2020/08/16,22.0,LA,22015.0,Bossier Parish,28733.0,98452.0,432640.0,113241.0,91829.0,52110.0,80806.0,62383.0,14102.0,8720.0,5942.0,1900.0,1607.0
733546,County,2020/08/17,22.0,LA,22015.0,Bossier Parish,27100.0,100085.0,435275.0,91567.0,90919.0,55593.0,87062.0,77601.0,15980.0,7393.0,6060.0,1361.0,1739.0
735173,County,2020/08/18,22.0,LA,22015.0,Bossier Parish,28265.0,98920.0,445593.0,122355.0,85012.0,48951.0,79906.0,76953.0,15529.0,7669.0,5665.0,1723.0,1830.0
738379,County,2020/08/19,22.0,LA,22015.0,Bossier Parish,25455.0,101730.0,422266.0,87479.0,80729.0,58189.0,85598.0,78123.0,16975.0,6813.0,5401.0,1297.0,1662.0
743160,County,2020/08/20,22.0,LA,22015.0,Bossier Parish,23491.0,103694.0,425635.0,86450.0,89477.0,57823.0,83733.0,77146.0,15637.0,6835.0,5322.0,1448.0,1764.0
746366,County,2020/08/21,22.0,LA,22015.0,Bossier Parish,23462.0,103723.0,454153.0,91204.0,93257.0,60857.0,92325.0,79427.0,19161.0,8449.0,6196.0,1566.0,1711.0
749522,County,2020/08/22,22.0,LA,22015.0,Bossier Parish,26400.0,100785.0,395275.0,74989.0,82614.0,53331.0,79252.0,72192.0,16944.0,8430.0,4705.0,1220.0,1598.0
751138,County,2020/08/23,22.0,LA,22015.0,Bossier Parish,29837.0,97348.0,329377.0,63255.0,74236.0,46364.0,65297.0,54375.0,11233.0,7131.0,5210.0,1286.0,990.0
754362,County,2020/08/24,22.0,LA,22015.0,Bossier Parish,28925.0,98260.0,360678.0,70927.0,74453.0,48585.0,71953.0,66870.0,14961.0,6773.0,3731.0,1329.0,1096.0
759122,County,2020/08/25,22.0,LA,22015.0,Bossier Parish,25445.0,101740.0,389085.0,77253.0,83855.0,49695.0,76594.0,71810.0,15030.0,8143.0,4340.0,1116.0,1249.0
762282,County,2020/08/26,22.0,LA,22015.0,Bossier Parish,25091.0,102094.0,410154.0,84240.0,88625.0,56608.0,80466.0,73822.0,12948.0,7768.0,3853.0,1097.0,727.0
765478,County,2020/08/27,22.0,LA,22015.0,Bossier Parish,32417.0,94768.0,287536.0,69968.0,62069.0,37690.0,54959.0,44490.0,8315.0,3740.0,4492.0,1164.0,649.0
768693,County,2020/08/28,22.0,LA,22015.0,Bossier Parish,26311.0,100874.0,400175.0,79327.0,85340.0,53695.0,81554.0,69815.0,15677.0,8243.0,5029.0,1160.0,335.0
770321,County,2020/08/29,22.0,LA,22015.0,Bossier Parish,27996.0,99189.0,395475.0,78025.0,89481.0,56990.0,71996.0,68721.0,15767.0,8499.0,4482.0,1061.0,453.0
775110,County,2020/08/30,22.0,LA,22015.0,Bossier Parish,30093.0,97092.0,346994.0,66287.0,78403.0,46477.0,72878.0,55040.0,13601.0,7562.0,4980.0,1245.0,521.0
776671,County,2020/08/31,22.0,LA,22015.0,Bossier Parish,27263.0,99922.0,392528.0,79933.0,83106.0,52493.0,79375.0,67915.0,15926.0,7684.0,4332.0,1275.0,489.0
779863,County,2020/09/01,22.0,LA,22015.0,Bossier Parish,25188.0,101997.0,427608.0,85747.0,94499.0,58433.0,84488.0,74461.0,16083.0,7660.0,4311.0,1498.0,428.0
783894,County,2020/09/02,22.0,LA,22015.0,Bossier Parish,25712.0,101473.0,421692.0,86220.0,89215.0,58146.0,82974.0,72116.0,16855.0,9267.0,5302.0,1189.0,408.0
787846,County,2020/09/03,22.0,LA,22015.0,Bossier Parish,24070.0,103115.0,433383.0,93417.0,92480.0,55192.0,84982.0,73668.0,17401.0,8676.0,5807.0,1408.0,352.0
789460,County,2020/09/04,22.0,LA,22015.0,Bossier Parish,27586.0,99599.0,404820.0,78953.0,92408.0,52801.0,76707.0,70329.0,16598.0,8713.0,5893.0,1892.0,526.0
794226,County,2020/09/05,22.0,LA,22015.0,Bossier Parish,26616.0,100569.0,419954.0,91150.0,95160.0,52937.0,79616.0,67990.0,16626.0,9946.0,4870.0,1208.0,451.0
797430,County,2020/09/06,22.0,LA,22015.0,Bossier Parish,30770.0,96415.0,346507.0,69899.0,82868.0,47721.0,66040.0,52273.0,12611.0,8549.0,4810.0,1334.0,402.0
800644,County,2020/09/07,22.0,LA,22015.0,Bossier Parish,32035.0,95150.0,327114.0,61699.0,73946.0,40800.0,63172.0,58283.0,14932.0,6317.0,5455.0,1878.0,632.0
802253,County,2020/09/08,22.0,LA,22015.0,Bossier Parish,27622.0,99563.0,424613.0,84550.0,85107.0,60038.0,87596.0,76568.0,16089.0,7929.0,4855.0,1464.0,417.0
807034,County,2020/09/09,22.0,LA,22015.0,Bossier Parish,26535.0,100650.0,438041.0,83499.0,93147.0,59868.0,88457.0,80575.0,19270.0,7144.0,4687.0,1081.0,313.0
808661,County,2020/09/10,22.0,LA,22015.0,Bossier Parish,26212.0,100973.0,403375.0,72955.0,85925.0,53459.0,80459.0,77887.0,18018.0,8162.0,5225.0,862.0,423.0
811818,County,2020/09/11,22.0,LA,22015.0,Bossier Parish,24622.0,102563.0,451901.0,88316.0,93263.0,58836.0,95443.0,81606.0,18509.0,8642.0,5420.0,1350.0,516.0
816569,County,2020/09/12,22.0,LA,22015.0,Bossier Parish,28730.0,98455.0,389628.0,74901.0,82176.0,55231.0,78759.0,67280.0,17040.0,7880.0,5127.0,802.0,432.0
819800,County,2020/09/13,22.0,LA,22015.0,Bossier Parish,32157.0,95028.0,316296.0,57439.0,76057.0,41490.0,65188.0,53078.0,11679.0,5440.0,4286.0,1341.0,298.0
821429,County,2020/09/14,22.0,LA,22015.0,Bossier Parish,26562.0,100623.0,417386.0,80381.0,89468.0,62054.0,81741.0,75563.0,14804.0,7840.0,4035.0,1219.0,281.0
826198,County,2020/09/15,22.0,LA,22015.0,Bossier Parish,25973.0,101212.0,432354.0,83119.0,89754.0,57988.0,90618.0,79673.0,17755.0,7114.0,5129.0,957.0,247.0
829392,County,2020/09/16,22.0,LA,22015.0,Bossier Parish,25854.0,101331.0,428826.0,82481.0,88727.0,61509.0,90181.0,77832.0,15329.0,7324.0,3714.0,1278.0,451.0
832569,County,2020/09/17,22.0,LA,22015.0,Bossier Parish,25209.0,101976.0,447939.0,87226.0,96752.0,59639.0,92059.0,80908.0,16736.0,8437.0,4560.0,1213.0,409.0
834198,County,2020/09/18,22.0,LA,22015.0,Bossier Parish,25188.0,101997.0,468787.0,93394.0,99114.0,67633.0,97770.0,77792.0,18379.0,7822.0,5548.0,1094.0,241.0
838973,County,2020/09/19,22.0,LA,22015.0,Bossier Parish,27217.0,99968.0,430285.0,85554.0,92204.0,56689.0,88299.0,72637.0,18872.0,9307.0,5150.0,1266.0,307.0
840602,County,2020/09/20,22.0,LA,22015.0,Bossier Parish,28967.0,98218.0,355072.0,71060.0,77426.0,44961.0,70314.0,62652.0,13222.0,8884.0,5118.0,1030.0,405.0
843764,County,2020/09/21,22.0,LA,22015.0,Bossier Parish,29691.0,97494.0,340045.0,67922.0,73584.0,45316.0,68117.0,63793.0,12578.0,5489.0,2140.0,808.0,298.0
846968,County,2020/09/22,22.0,LA,22015.0,Bossier Parish,25633.0,101552.0,369683.0,69184.0,81935.0,50893.0,73019.0,68298.0,14548.0,7030.0,3640.0,944.0,192.0
851746,County,2020/09/23,22.0,LA,22015.0,Bossier Parish,23997.0,103188.0,389668.0,71158.0,88463.0,53098.0,80229.0,69550.0,16013.0,7481.0,2605.0,896.0,175.0
853374,County,2020/09/24,22.0,LA,22015.0,Bossier Parish,23826.0,103359.0,402585.0,74849.0,87374.0,54736.0,77647.0,75300.0,20225.0,7490.0,3971.0,747.0,246.0
858138,County,2020/09/25,22.0,LA,22015.0,Bossier Parish,22298.0,104887.0,438280.0,81722.0,93881.0,60463.0,90527.0,80795.0,18776.0,7523.0,3609.0,719.0,265.0
861284,County,2020/09/26,22.0,LA,22015.0,Bossier Parish,26231.0,100954.0,406122.0,80005.0,92425.0,56019.0,77217.0,71461.0,15091.0,9484.0,3393.0,729.0,298.0
862938,County,2020/09/27,22.0,LA,22015.0,Bossier Parish,28620.0,98565.0,350045.0,64396.0,79113.0,53836.0,68694.0,57643.0,12578.0,8496.0,4182.0,991.0,116.0
866141,County,2020/09/28,22.0,LA,22015.0,Bossier Parish,24906.0,102279.0,398985.0,73705.0,86058.0,55767.0,86191.0,71805.0,15100.0,6694.0,2810.0,696.0,159.0
870913,County,2020/09/29,22.0,LA,22015.0,Bossier Parish,25209.0,101976.0,417032.0,74218.0,94520.0,58642.0,83332.0,76762.0,17934.0,7673.0,3354.0,490.0,107.0
874079,County,2020/09/30,22.0,LA,22015.0,Bossier Parish,27822.0,99363.0,387622.0,68318.0,86227.0,50425.0,80308.0,75852.0,15157.0,6859.0,3482.0,801.0,193.0
875707,County,2020/10/01,22.0,LA,22015.0,Bossier Parish,23933.0,103252.0,411143.0,82380.0,87865.0,56463.0,84957.0,73105.0,14163.0,7408.0,3690.0,934.0,178.0
878910,County,2020/10/02,22.0,LA,22015.0,Bossier Parish,23269.0,103916.0,405127.0,81752.0,85623.0,59120.0,81462.0,70877.0,14671.0,6059.0,4630.0,812.0,121.0
883692,County,2020/10/03,22.0,LA,22015.0,Bossier Parish,28894.0,98291.0,390851.0,78413.0,83162.0,53886.0,77789.0,67791.0,15702.0,9308.0,3986.0,692.0,122.0
885790,County,2020/10/04,22.0,LA,22015.0,Bossier Parish,28941.0,98244.0,353661.0,69586.0,69720.0,51541.0,74100.0,60283.0,13813.0,10101.0,3651.0,747.0,119.0
889036,County,2020/10/05,22.0,LA,22015.0,Bossier Parish,30290.0,96895.0,368399.0,65221.0,82417.0,50370.0,75346.0,69321.0,14545.0,7158.0,3318.0,610.0,93.0
892232,County,2020/10/06,22.0,LA,22015.0,Bossier Parish,26722.0,100463.0,415087.0,73153.0,88432.0,61712.0,87012.0,76221.0,16667.0,8014.0,3347.0,443.0,86.0
895430,County,2020/10/07,22.0,LA,22015.0,Bossier Parish,25123.0,102062.0,420533.0,75677.0,89248.0,60158.0,87591.0,78793.0,18128.0,7027.0,3217.0,598.0,96.0
898601,County,2020/10/08,22.0,LA,22015.0,Bossier Parish,25160.0,102025.0,382790.0,64559.0,79550.0,56280.0,76981.0,78191.0,15086.0,7523.0,3877.0,629.0,114.0
902268,County,2020/10/09,22.0,LA,22015.0,Bossier Parish,27717.0,99468.0,370385.0,59874.0,82691.0,55266.0,80783.0,67477.0,12835.0,6974.0,3579.0,757.0,149.0
904968,County,2020/10/10,22.0,LA,22015.0,Bossier Parish,30957.0,96228.0,370374.0,67765.0,82312.0,51308.0,75831.0,67517.0,14385.0,7137.0,3350.0,682.0,87.0
909655,County,2020/10/11,22.0,LA,22015.0,Bossier Parish,30201.0,96984.0,329834.0,61082.0,75668.0,47760.0,63377.0,56114.0,12557.0,7979.0,4354.0,817.0,126.0
912580,County,2020/10/12,22.0,LA,22015.0,Bossier Parish,27983.0,99202.0,382609.0,74036.0,80342.0,51731.0,75935.0,69193.0,17035.0,8907.0,4542.0,810.0,78.0
914760,County,2020/10/13,22.0,LA,22015.0,Bossier Parish,25884.0,101301.0,388205.0,76147.0,81413.0,52260.0,77326.0,72827.0,14898.0,8123.0,4143.0,941.0,127.0
918710,County,2020/10/14,22.0,LA,22015.0,Bossier Parish,25284.0,101901.0,391145.0,72261.0,83545.0,54774.0,75214.0,73013.0,17466.0,9385.0,4187.0,1085.0,215.0
921966,County,2020/10/15,22.0,LA,22015.0,Bossier Parish,27531.0,99654.0,358630.0,63844.0,75492.0,47493.0,71704.0,70039.0,16602.0,8131.0,4234.0,857.0,234.0
925841,County,2020/10/16,22.0,LA,22015.0,Bossier Parish,24510.0,102675.0,421224.0,82502.0,86605.0,52495.0,83779.0,83755.0,16873.0,9650.0,4498.0,803.0,264.0
928246,County,2020/10/17,22.0,LA,22015.0,Bossier Parish,27806.0,99379.0,391438.0,79945.0,85643.0,52573.0,72835.0,68814.0,17067.0,9594.0,4162.0,660.0,145.0
931890,County,2020/10/18,22.0,LA,22015.0,Bossier Parish,29741.0,97444.0,336115.0,62371.0,72696.0,45095.0,66701.0,62672.0,13086.0,7781.0,4608.0,944.0,161.0
934968,County,2020/10/19,22.0,LA,22015.0,Bossier Parish,25185.0,102000.0,398812.0,74720.0,85019.0,57854.0,82592.0,70207.0,15904.0,8056.0,3584.0,714.0,162.0
937813,County,2020/10/20,22.0,LA,22015.0,Bossier Parish,25162.0,102023.0,396172.0,74756.0,83007.0,58276.0,80973.0,71030.0,15946.0,7633.0,3720.0,644.0,187.0
940980,County,2020/10/21,22.0,LA,22015.0,Bossier Parish,28482.0,98703.0,365623.0,68999.0,79170.0,50671.0,74028.0,66194.0,15215.0,6645.0,3665.0,837.0,199.0
944576,County,2020/10/22,22.0,LA,22015.0,Bossier Parish,25240.0,101945.0,420606.0,82487.0,91122.0,64077.0,83012.0,72022.0,14130.0,9233.0,3547.0,749.0,227.0
947429,County,2020/10/23,22.0,LA,22015.0,Bossier Parish,23143.0,104042.0,454544.0,83965.0,100428.0,64047.0,92655.0,80445.0,18044.0,10147.0,3774.0,853.0,186.0
950565,County,2020/10/24,22.0,LA,22015.0,Bossier Parish,27145.0,100040.0,421419.0,85245.0,86186.0,62352.0,83954.0,71641.0,18123.0,10054.0,3100.0,578.0,186.0
