,Level,Date,State FIPS,State Postal Code,County FIPS,County Name,Population Staying at Home,Population Not Staying at Home,Number of Trips,Number of Trips <1,Number of Trips 1-3,Number of Trips 3-5,Number of Trips 5-10,Number of Trips 10-25,Number of Trips 25-50,Number of Trips 50-100,Number of Trips 100-250,Number of Trips 250-500,Number of Trips >=500
418,County,2020/01/01,13.0,GA,13065.0,Clinch County,1077.0,5571.0,20908.0,4841.0,4810.0,1229.0,3836.0,3676.0,1635.0,627.0,214.0,27.0,13.0
5800,County,2020/01/02,13.0,GA,13065.0,Clinch County,931.0,5717.0,23852.0,5396.0,5351.0,1441.0,3164.0,3318.0,3417.0,1409.0,340.0,8.0,8.0
8201,County,2020/01/03,13.0,GA,13065.0,Clinch County,782.0,5866.0,25613.0,5229.0,5779.0,1586.0,5032.0,3553.0,3218.0,835.0,354.0,27.0,0.0
12520,County,2020/01/04,13.0,GA,13065.0,Clinch County,890.0,5758.0,21090.0,4101.0,4564.0,1196.0,3247.0,3468.0,2931.0,1276.0,239.0,58.0,10.0
13194,County,2020/01/05,13.0,GA,13065.0,Clinch County,1106.0,5542.0,21881.0,4533.0,5400.0,1901.0,3710.0,2794.0,2460.0,647.0,398.0,38.0,0.0
17807,County,2020/01/06,13.0,GA,13065.0,Clinch County,968.0,5680.0,27899.0,5320.0,5259.0,1542.0,6882.0,3823.0,3527.0,1246.0,283.0,17.0,0.0
20953,County,2020/01/07,13.0,GA,13065.0,Clinch County,892.0,5756.0,24936.0,4758.0,5387.0,2124.0,5203.0,3089.0,3181.0,856.0,316.0,22.0,0.0
22580,County,2020/01/08,13.0,GA,13065.0,Clinch County,876.0,5772.0,27796.0,5930.0,6156.0,1857.0,4938.0,4886.0,2701.0,974.0,333.0,21.0,0.0
27328,County,2020/01/09,13.0,GA,13065.0,Clinch County,843.0,5805.0,29255.0,6254.0,6042.0,2602.0,5078.0,5190.0,3127.0,738.0,182.0,39.0,3.0
30534,County,2020/01/10,13.0,GA,13065.0,Clinch County,747.0,5901.0,28631.0,5896.0,6442.0,1530.0,5543.0,4473.0,3724.0,781.0,210.0,32.0,0.0
33779,County,2020/01/11,13.0,GA,13065.0,Clinch County,954.0,5694.0,27607.0,6053.0,5807.0,2160.0,4334.0,4444.0,3285.0,1102.0,388.0,34.0,0.0
36898,County,2020/01/12,13.0,GA,13065.0,Clinch County,1031.0,5617.0,21843.0,4341.0,4632.0,2086.0,3874.0,3632.0,2261.0,669.0,300.0,40.0,8.0
40146,County,2020/01/13,13.0,GA,13065.0,Clinch County,877.0,5771.0,27794.0,5726.0,6359.0,1767.0,5604.0,3826.0,3088.0,1052.0,339.0,33.0,0.0
41722,County,2020/01/14,13.0,GA,13065.0,Clinch County,863.0,5785.0,26360.0,4979.0,7173.0,1694.0,4676.0,3498.0,3189.0,790.0,335.0,26.0,0.0
46500,County,2020/01/15,13.0,GA,13065.0,Clinch County,818.0,5830.0,29497.0,5948.0,9099.0,1269.0,4798.0,4425.0,2435.0,1095.0,399.0,26.0,3.0
49657,County,2020/01/16,13.0,GA,13065.0,Clinch County,888.0,5760.0,31249.0,6966.0,7515.0,1813.0,6282.0,4444.0,2837.0,1100.0,246.0,46.0,0.0
51284,County,2020/01/17,13.0,GA,13065.0,Clinch County,747.0,5901.0,31035.0,6252.0,6520.0,2491.0,5986.0,4706.0,3969.0,713.0,357.0,41.0,0.0
56065,County,2020/01/18,13.0,GA,13065.0,Clinch County,877.0,5771.0,24701.0,5877.0,4883.0,2308.0,3449.0,3270.0,3235.0,1152.0,494.0,33.0,0.0
59262,County,2020/01/19,13.0,GA,13065.0,Clinch County,1093.0,5555.0,23390.0,4043.0,5983.0,1626.0,4233.0,3098.0,3469.0,458.0,458.0,15.0,7.0
60896,County,2020/01/20,13.0,GA,13065.0,Clinch County,1024.0,5624.0,27204.0,5709.0,5943.0,2737.0,3512.0,4400.0,3205.0,1181.0,496.0,21.0,0.0
65674,County,2020/01/21,13.0,GA,13065.0,Clinch County,921.0,5727.0,27004.0,6521.0,6847.0,2044.0,4174.0,3705.0,2610.0,873.0,179.0,51.0,0.0
68865,County,2020/01/22,13.0,GA,13065.0,Clinch County,909.0,5739.0,26836.0,6481.0,5518.0,1404.0,5272.0,3979.0,3142.0,741.0,274.0,19.0,6.0
70489,County,2020/01/23,13.0,GA,13065.0,Clinch County,866.0,5782.0,29050.0,6610.0,6453.0,1523.0,4942.0,4380.0,3408.0,1365.0,348.0,6.0,15.0
75202,County,2020/01/24,13.0,GA,13065.0,Clinch County,799.0,5849.0,29869.0,5247.0,7376.0,2373.0,5171.0,4545.0,3509.0,1211.0,414.0,12.0,11.0
78437,County,2020/01/25,13.0,GA,13065.0,Clinch County,941.0,5707.0,27078.0,6018.0,5423.0,1923.0,4877.0,4086.0,3572.0,599.0,537.0,43.0,0.0
80268,County,2020/01/26,13.0,GA,13065.0,Clinch County,1065.0,5583.0,22396.0,4639.0,5497.0,1867.0,4313.0,2715.0,2501.0,652.0,154.0,46.0,12.0
84458,County,2020/01/27,13.0,GA,13065.0,Clinch County,860.0,5788.0,25776.0,5086.0,6908.0,1792.0,3732.0,4133.0,2704.0,893.0,471.0,39.0,18.0
86475,County,2020/01/28,13.0,GA,13065.0,Clinch County,779.0,5869.0,26267.0,4163.0,6566.0,1774.0,5416.0,3472.0,3247.0,1035.0,558.0,28.0,8.0
91208,County,2020/01/29,13.0,GA,13065.0,Clinch County,810.0,5838.0,25815.0,5368.0,6487.0,1597.0,4206.0,4227.0,2685.0,686.0,528.0,28.0,3.0
94461,County,2020/01/30,13.0,GA,13065.0,Clinch County,841.0,5807.0,28139.0,5977.0,6825.0,1830.0,4856.0,4148.0,3410.0,747.0,281.0,60.0,5.0
97608,County,2020/01/31,13.0,GA,13065.0,Clinch County,782.0,5866.0,28003.0,5050.0,6098.0,1682.0,5101.0,4332.0,4578.0,897.0,240.0,20.0,5.0
99237,County,2020/02/01,13.0,GA,13065.0,Clinch County,883.0,5765.0,27085.0,5696.0,5818.0,1917.0,4249.0,4075.0,4056.0,838.0,373.0,37.0,26.0
102414,County,2020/02/02,13.0,GA,13065.0,Clinch County,1049.0,5599.0,22840.0,4970.0,5257.0,1872.0,2595.0,4049.0,2901.0,855.0,279.0,53.0,9.0
107200,County,2020/02/03,13.0,GA,13065.0,Clinch County,799.0,5849.0,29355.0,6374.0,6693.0,2329.0,5248.0,4296.0,3290.0,852.0,221.0,41.0,11.0
108817,County,2020/02/04,13.0,GA,13065.0,Clinch County,749.0,5899.0,27981.0,5290.0,6741.0,1932.0,4778.0,4302.0,3188.0,1247.0,446.0,32.0,25.0
113541,County,2020/02/05,13.0,GA,13065.0,Clinch County,804.0,5844.0,29084.0,6341.0,6590.0,1379.0,5383.0,5049.0,3251.0,665.0,385.0,36.0,5.0
116747,County,2020/02/06,13.0,GA,13065.0,Clinch County,811.0,5837.0,26471.0,6470.0,6473.0,1502.0,4137.0,4112.0,2863.0,592.0,279.0,41.0,2.0
118373,County,2020/02/07,13.0,GA,13065.0,Clinch County,711.0,5937.0,29292.0,5781.0,6296.0,1991.0,5487.0,4281.0,4387.0,806.0,216.0,32.0,15.0
123160,County,2020/02/08,13.0,GA,13065.0,Clinch County,941.0,5707.0,30594.0,5973.0,5590.0,2118.0,4702.0,5266.0,4508.0,1998.0,402.0,37.0,0.0
127368,County,2020/02/09,13.0,GA,13065.0,Clinch County,1096.0,5552.0,21283.0,4104.0,4710.0,1516.0,4858.0,2567.0,2433.0,773.0,269.0,49.0,4.0
128727,County,2020/02/10,13.0,GA,13065.0,Clinch County,897.0,5751.0,27710.0,5975.0,6151.0,1853.0,5424.0,3793.0,3049.0,1261.0,172.0,28.0,4.0
131373,County,2020/02/11,13.0,GA,13065.0,Clinch County,848.0,5800.0,28018.0,5142.0,5493.0,2349.0,4562.0,4739.0,4476.0,835.0,380.0,38.0,4.0
135858,County,2020/02/12,13.0,GA,13065.0,Clinch County,796.0,5852.0,26518.0,5663.0,6088.0,1979.0,4544.0,3407.0,3617.0,807.0,383.0,20.0,10.0
137553,County,2020/02/13,13.0,GA,13065.0,Clinch County,800.0,5848.0,26712.0,4441.0,5282.0,2103.0,5093.0,4289.0,3849.0,1171.0,440.0,42.0,2.0
140661,County,2020/02/14,13.0,GA,13065.0,Clinch County,757.0,5891.0,30418.0,7159.0,5982.0,2245.0,5013.0,4317.0,4098.0,1211.0,363.0,26.0,4.0
145539,County,2020/02/15,13.0,GA,13065.0,Clinch County,854.0,5794.0,27583.0,5962.0,5090.0,2561.0,5177.0,3978.0,3013.0,1075.0,683.0,37.0,7.0
147146,County,2020/02/16,13.0,GA,13065.0,Clinch County,1016.0,5632.0,22830.0,4538.0,4228.0,2079.0,4057.0,3328.0,2806.0,1258.0,460.0,72.0,4.0
150319,County,2020/02/17,13.0,GA,13065.0,Clinch County,1019.0,5629.0,21124.0,3513.0,3865.0,1529.0,4296.0,3379.0,3053.0,1030.0,423.0,29.0,7.0
155050,County,2020/02/18,13.0,GA,13065.0,Clinch County,923.0,5725.0,26933.0,5427.0,5359.0,1737.0,5220.0,4375.0,3352.0,1063.0,364.0,26.0,10.0
156729,County,2020/02/19,13.0,GA,13065.0,Clinch County,872.0,5776.0,24054.0,4066.0,5860.0,1755.0,4727.0,3095.0,3543.0,677.0,294.0,37.0,0.0
161393,County,2020/02/20,13.0,GA,13065.0,Clinch County,791.0,5857.0,24650.0,3895.0,5197.0,1683.0,5612.0,3748.0,3429.0,701.0,345.0,36.0,4.0
164684,County,2020/02/21,13.0,GA,13065.0,Clinch County,833.0,5815.0,25979.0,5332.0,5528.0,1803.0,4717.0,3337.0,4003.0,826.0,370.0,63.0,0.0
166261,County,2020/02/22,13.0,GA,13065.0,Clinch County,920.0,5728.0,25815.0,5434.0,5674.0,1439.0,5297.0,3485.0,3475.0,663.0,292.0,50.0,6.0
169489,County,2020/02/23,13.0,GA,13065.0,Clinch County,917.0,5731.0,22296.0,3413.0,5178.0,1312.0,4909.0,3360.0,3256.0,562.0,266.0,40.0,0.0
174271,County,2020/02/24,13.0,GA,13065.0,Clinch County,834.0,5814.0,26989.0,5463.0,5141.0,2035.0,6080.0,4097.0,3171.0,619.0,359.0,24.0,0.0
175891,County,2020/02/25,13.0,GA,13065.0,Clinch County,751.0,5897.0,28119.0,4881.0,6272.0,1862.0,6468.0,4499.0,2873.0,994.0,239.0,29.0,2.0
179282,County,2020/02/26,13.0,GA,13065.0,Clinch County,895.0,5753.0,29603.0,3392.0,7203.0,2591.0,9098.0,4636.0,2177.0,139.0,342.0,0.0,25.0
183449,County,2020/02/27,13.0,GA,13065.0,Clinch County,767.0,5881.0,26140.0,5334.0,6059.0,1765.0,5232.0,2918.0,3598.0,713.0,486.0,29.0,6.0
185518,County,2020/02/28,13.0,GA,13065.0,Clinch County,742.0,5906.0,28309.0,5705.0,6001.0,1734.0,6155.0,3398.0,3794.0,978.0,534.0,10.0,0.0
190187,County,2020/02/29,13.0,GA,13065.0,Clinch County,813.0,5835.0,28917.0,5303.0,5869.0,2440.0,4356.0,5273.0,4003.0,1181.0,441.0,45.0,6.0
191859,County,2020/03/01,13.0,GA,13065.0,Clinch County,971.0,5677.0,24067.0,4569.0,4190.0,1797.0,6017.0,3263.0,2691.0,860.0,635.0,30.0,15.0
195033,County,2020/03/02,13.0,GA,13065.0,Clinch County,752.0,5896.0,29278.0,5123.0,5321.0,1731.0,5981.0,5379.0,4235.0,1254.0,210.0,30.0,14.0
198236,County,2020/03/03,13.0,GA,13065.0,Clinch County,702.0,5946.0,34524.0,6555.0,6142.0,2707.0,7922.0,5843.0,3794.0,1052.0,445.0,60.0,4.0
202974,County,2020/03/04,13.0,GA,13065.0,Clinch County,638.0,6010.0,31225.0,5596.0,6340.0,2040.0,7273.0,5080.0,3270.0,1009.0,543.0,74.0,0.0
206226,County,2020/03/05,13.0,GA,13065.0,Clinch County,688.0,5960.0,31010.0,6642.0,5698.0,1937.0,7463.0,3896.0,3930.0,892.0,511.0,41.0,0.0
209389,County,2020/03/06,13.0,GA,13065.0,Clinch County,687.0,5961.0,37221.0,5896.0,7626.0,2300.0,7964.0,6145.0,5117.0,1610.0,454.0,105.0,4.0
211007,County,2020/03/07,13.0,GA,13065.0,Clinch County,737.0,5911.0,35059.0,6281.0,7245.0,2986.0,7930.0,4541.0,3709.0,1710.0,595.0,58.0,4.0
215782,County,2020/03/08,13.0,GA,13065.0,Clinch County,932.0,5716.0,29606.0,4491.0,6103.0,1683.0,9163.0,4531.0,2016.0,1203.0,371.0,45.0,0.0
218981,County,2020/03/09,13.0,GA,13065.0,Clinch County,783.0,5865.0,32508.0,5293.0,7396.0,2772.0,6573.0,5893.0,3113.0,778.0,653.0,28.0,9.0
222175,County,2020/03/10,13.0,GA,13065.0,Clinch County,827.0,5821.0,32742.0,6065.0,7451.0,2044.0,6934.0,5694.0,3660.0,648.0,222.0,19.0,5.0
225403,County,2020/03/11,13.0,GA,13065.0,Clinch County,863.0,5785.0,29851.0,4242.0,6104.0,3535.0,6621.0,5343.0,2118.0,1202.0,592.0,94.0,0.0
226982,County,2020/03/12,13.0,GA,13065.0,Clinch County,876.0,5772.0,34016.0,4246.0,7069.0,5054.0,7545.0,5371.0,3279.0,774.0,476.0,202.0,0.0
231764,County,2020/03/13,13.0,GA,13065.0,Clinch County,836.0,5812.0,24464.0,2139.0,3353.0,3236.0,7433.0,5292.0,1492.0,1017.0,469.0,33.0,0.0
234819,County,2020/03/14,13.0,GA,13065.0,Clinch County,1007.0,5641.0,28346.0,3037.0,4673.0,4509.0,10889.0,1597.0,2531.0,863.0,176.0,0.0,71.0
236578,County,2020/03/15,13.0,GA,13065.0,Clinch County,1021.0,5627.0,29312.0,5998.0,3735.0,3144.0,6061.0,5869.0,2526.0,1409.0,530.0,31.0,9.0
241338,County,2020/03/16,13.0,GA,13065.0,Clinch County,927.0,5721.0,32159.0,5796.0,6412.0,2402.0,6777.0,4436.0,4579.0,1040.0,640.0,68.0,9.0
242954,County,2020/03/17,13.0,GA,13065.0,Clinch County,988.0,5660.0,30043.0,5266.0,5097.0,1732.0,7059.0,5499.0,3597.0,1272.0,479.0,37.0,5.0
246159,County,2020/03/18,13.0,GA,13065.0,Clinch County,1124.0,5524.0,27891.0,3859.0,6467.0,2029.0,6440.0,4643.0,2648.0,1114.0,588.0,84.0,19.0
250941,County,2020/03/19,13.0,GA,13065.0,Clinch County,960.0,5688.0,31041.0,5719.0,6104.0,1703.0,5859.0,6637.0,3330.0,1231.0,401.0,48.0,9.0
254115,County,2020/03/20,13.0,GA,13065.0,Clinch County,957.0,5691.0,32708.0,6857.0,7672.0,2290.0,5094.0,5191.0,3886.0,935.0,671.0,102.0,10.0
257258,County,2020/03/21,13.0,GA,13065.0,Clinch County,1218.0,5430.0,26006.0,4792.0,5663.0,1587.0,6192.0,3872.0,2728.0,720.0,388.0,59.0,5.0
258927,County,2020/03/22,13.0,GA,13065.0,Clinch County,1104.0,5544.0,19611.0,3937.0,3131.0,1427.0,4422.0,3568.0,2262.0,428.0,369.0,67.0,0.0
262133,County,2020/03/23,13.0,GA,13065.0,Clinch County,984.0,5664.0,30064.0,6545.0,5532.0,1967.0,5922.0,5773.0,2945.0,932.0,397.0,38.0,13.0
265285,County,2020/03/24,13.0,GA,13065.0,Clinch County,989.0,5659.0,28387.0,6021.0,6259.0,1654.0,5683.0,4483.0,3158.0,660.0,407.0,48.0,14.0
270085,County,2020/03/25,13.0,GA,13065.0,Clinch County,1034.0,5614.0,25844.0,5301.0,4222.0,2297.0,5855.0,4514.0,2662.0,529.0,419.0,40.0,5.0
273258,County,2020/03/26,13.0,GA,13065.0,Clinch County,947.0,5701.0,30207.0,8166.0,6774.0,1412.0,6001.0,3684.0,2151.0,1289.0,700.0,30.0,0.0
274898,County,2020/03/27,13.0,GA,13065.0,Clinch County,982.0,5666.0,24544.0,5511.0,3928.0,1531.0,3969.0,5578.0,2329.0,1339.0,321.0,29.0,9.0
279660,County,2020/03/28,13.0,GA,13065.0,Clinch County,1072.0,5576.0,20216.0,3350.0,4704.0,1456.0,5717.0,2063.0,2223.0,437.0,215.0,46.0,5.0
281295,County,2020/03/29,13.0,GA,13065.0,Clinch County,1229.0,5419.0,19020.0,3267.0,2986.0,1302.0,3266.0,5138.0,2042.0,854.0,117.0,25.0,23.0
286038,County,2020/03/30,13.0,GA,13065.0,Clinch County,1065.0,5583.0,28251.0,6257.0,4717.0,2239.0,5767.0,4547.0,3129.0,1295.0,235.0,60.0,5.0
289242,County,2020/03/31,13.0,GA,13065.0,Clinch County,1097.0,5551.0,24656.0,4860.0,5026.0,1263.0,5368.0,4425.0,2189.0,881.0,626.0,18.0,0.0
292442,County,2020/04/01,13.0,GA,13065.0,Clinch County,1082.0,5566.0,23355.0,4355.0,5480.0,1763.0,3870.0,4476.0,1906.0,1124.0,323.0,49.0,9.0
294071,County,2020/04/02,13.0,GA,13065.0,Clinch County,1078.0,5570.0,24847.0,5067.0,5237.0,2188.0,5565.0,3421.0,2259.0,693.0,332.0,71.0,14.0
297265,County,2020/04/03,13.0,GA,13065.0,Clinch County,975.0,5673.0,28364.0,6107.0,5514.0,1996.0,7659.0,3456.0,2509.0,754.0,325.0,30.0,14.0
302010,County,2020/04/04,13.0,GA,13065.0,Clinch County,1149.0,5499.0,24569.0,5055.0,5065.0,2573.0,4669.0,3889.0,2397.0,525.0,323.0,57.0,16.0
303638,County,2020/04/05,13.0,GA,13065.0,Clinch County,1066.0,5582.0,18275.0,4433.0,3334.0,2068.0,2960.0,2822.0,2065.0,313.0,193.0,82.0,5.0
306848,County,2020/04/06,13.0,GA,13065.0,Clinch County,1002.0,5646.0,32142.0,6624.0,8716.0,2065.0,4969.0,4985.0,3130.0,1093.0,529.0,31.0,0.0
310041,County,2020/04/07,13.0,GA,13065.0,Clinch County,1076.0,5572.0,28320.0,4534.0,6362.0,1535.0,7236.0,4693.0,2661.0,495.0,762.0,32.0,10.0
313235,County,2020/04/08,13.0,GA,13065.0,Clinch County,1070.0,5578.0,21633.0,3352.0,5046.0,1526.0,3702.0,4737.0,1814.0,1261.0,137.0,58.0,0.0
316403,County,2020/04/09,13.0,GA,13065.0,Clinch County,1180.0,5468.0,26612.0,6243.0,6006.0,1596.0,5901.0,3571.0,2180.0,771.0,317.0,22.0,5.0
319630,County,2020/04/10,13.0,GA,13065.0,Clinch County,1071.0,5577.0,25923.0,4931.0,5639.0,1789.0,4713.0,5176.0,2084.0,1369.0,187.0,30.0,5.0
322816,County,2020/04/11,13.0,GA,13065.0,Clinch County,1051.0,5597.0,25280.0,5955.0,4514.0,1686.0,5429.0,3982.0,2315.0,1147.0,177.0,66.0,9.0
326009,County,2020/04/12,13.0,GA,13065.0,Clinch County,1190.0,5458.0,16348.0,4294.0,2992.0,1376.0,3019.0,2533.0,1373.0,421.0,303.0,28.0,9.0
329226,County,2020/04/13,13.0,GA,13065.0,Clinch County,1058.0,5590.0,23156.0,3255.0,4318.0,2016.0,5784.0,3714.0,2281.0,1372.0,380.0,27.0,9.0
332349,County,2020/04/14,13.0,GA,13065.0,Clinch County,1007.0,5641.0,28668.0,4264.0,6644.0,3002.0,7428.0,4060.0,2043.0,1113.0,86.0,19.0,9.0
335575,County,2020/04/15,13.0,GA,13065.0,Clinch County,968.0,5680.0,22876.0,3640.0,5091.0,1386.0,7080.0,2321.0,1760.0,1285.0,238.0,51.0,24.0
340294,County,2020/04/16,13.0,GA,13065.0,Clinch County,1085.0,5563.0,24066.0,2667.0,4612.0,1722.0,7816.0,2848.0,3010.0,732.0,631.0,19.0,9.0
342029,County,2020/04/17,13.0,GA,13065.0,Clinch County,944.0,5704.0,31980.0,10457.0,4525.0,2113.0,6185.0,3992.0,3516.0,1006.0,177.0,0.0,9.0
346704,County,2020/04/18,13.0,GA,13065.0,Clinch County,996.0,5652.0,24588.0,3939.0,5130.0,2920.0,5797.0,2519.0,3422.0,518.0,319.0,17.0,7.0
348355,County,2020/04/19,13.0,GA,13065.0,Clinch County,1085.0,5563.0,14130.0,1652.0,3416.0,1648.0,2895.0,2515.0,1139.0,647.0,159.0,51.0,8.0
353135,County,2020/04/20,13.0,GA,13065.0,Clinch County,1064.0,5584.0,20642.0,4429.0,5647.0,751.0,5940.0,1864.0,562.0,1151.0,236.0,50.0,12.0
356321,County,2020/04/21,13.0,GA,13065.0,Clinch County,927.0,5721.0,27427.0,5782.0,5451.0,2591.0,5378.0,4228.0,2116.0,1362.0,493.0,21.0,5.0
357951,County,2020/04/22,13.0,GA,13065.0,Clinch County,939.0,5709.0,24764.0,5110.0,4701.0,1637.0,6662.0,3162.0,2005.0,835.0,608.0,30.0,14.0
361056,County,2020/04/23,13.0,GA,13065.0,Clinch County,834.0,5814.0,21401.0,4782.0,3821.0,1693.0,3610.0,3426.0,2172.0,1295.0,570.0,32.0,0.0
365944,County,2020/04/24,13.0,GA,13065.0,Clinch County,876.0,5772.0,24575.0,4402.0,5236.0,1981.0,5397.0,3484.0,2522.0,1045.0,472.0,36.0,0.0
367476,County,2020/04/25,13.0,GA,13065.0,Clinch County,1095.0,5553.0,23536.0,3810.0,4442.0,2411.0,3921.0,4302.0,3120.0,1276.0,224.0,24.0,6.0
372245,County,2020/04/26,13.0,GA,13065.0,Clinch County,1151.0,5497.0,19561.0,3902.0,3538.0,878.0,3426.0,4700.0,1655.0,995.0,429.0,26.0,12.0
375524,County,2020/04/27,13.0,GA,13065.0,Clinch County,815.0,5833.0,23626.0,4776.0,3717.0,2782.0,4758.0,4254.0,2120.0,897.0,322.0,0.0,0.0
377070,County,2020/04/28,13.0,GA,13065.0,Clinch County,809.0,5839.0,25416.0,5334.0,4982.0,1878.0,5146.0,3726.0,2700.0,997.0,614.0,30.0,9.0
380323,County,2020/04/29,13.0,GA,13065.0,Clinch County,1022.0,5626.0,24507.0,3875.0,5211.0,2286.0,4818.0,4211.0,2282.0,1400.0,383.0,31.0,10.0
383470,County,2020/04/30,13.0,GA,13065.0,Clinch County,1001.0,5647.0,23991.0,4167.0,4620.0,1433.0,5594.0,4400.0,3259.0,325.0,150.0,43.0,0.0
386695,County,2020/05/01,13.0,GA,13065.0,Clinch County,868.0,5780.0,26714.0,3374.0,5348.0,1505.0,8434.0,3758.0,2719.0,1097.0,450.0,29.0,0.0
389878,County,2020/05/02,13.0,GA,13065.0,Clinch County,957.0,5691.0,25533.0,5075.0,5331.0,1662.0,5839.0,4375.0,2292.0,485.0,448.0,21.0,5.0
394651,County,2020/05/03,13.0,GA,13065.0,Clinch County,998.0,5650.0,25104.0,5376.0,5209.0,1774.0,5021.0,5029.0,2165.0,201.0,310.0,13.0,6.0
397845,County,2020/05/04,13.0,GA,13065.0,Clinch County,974.0,5674.0,28858.0,6783.0,4633.0,3103.0,4327.0,4785.0,3006.0,1676.0,516.0,12.0,17.0
401020,County,2020/05/05,13.0,GA,13065.0,Clinch County,756.0,5892.0,30524.0,6367.0,5846.0,2398.0,7431.0,4197.0,3027.0,792.0,443.0,19.0,4.0
404226,County,2020/05/06,13.0,GA,13065.0,Clinch County,924.0,5724.0,25733.0,4400.0,5602.0,2703.0,4991.0,2947.0,2906.0,1768.0,348.0,46.0,22.0
405854,County,2020/05/07,13.0,GA,13065.0,Clinch County,812.0,5836.0,33211.0,6840.0,5509.0,2141.0,9095.0,4305.0,3584.0,1268.0,434.0,18.0,17.0
409110,County,2020/05/08,13.0,GA,13065.0,Clinch County,756.0,5892.0,30311.0,7630.0,5870.0,2533.0,5501.0,4061.0,3460.0,952.0,251.0,53.0,0.0
413781,County,2020/05/09,13.0,GA,13065.0,Clinch County,853.0,5795.0,26286.0,5209.0,4249.0,2162.0,5369.0,5282.0,2531.0,761.0,703.0,20.0,0.0
415442,County,2020/05/10,13.0,GA,13065.0,Clinch County,992.0,5656.0,23521.0,5681.0,3692.0,1390.0,5952.0,3571.0,2255.0,621.0,273.0,81.0,5.0
420239,County,2020/05/11,13.0,GA,13065.0,Clinch County,805.0,5843.0,33340.0,8942.0,7255.0,3052.0,5676.0,3753.0,3271.0,1099.0,226.0,60.0,6.0
421819,County,2020/05/12,13.0,GA,13065.0,Clinch County,801.0,5847.0,32312.0,7750.0,6720.0,2940.0,6719.0,3901.0,3214.0,714.0,323.0,31.0,0.0
424976,County,2020/05/13,13.0,GA,13065.0,Clinch County,821.0,5827.0,31734.0,7828.0,6678.0,2462.0,6131.0,4123.0,3306.0,868.0,309.0,18.0,11.0
428219,County,2020/05/14,13.0,GA,13065.0,Clinch County,751.0,5897.0,29130.0,5982.0,5651.0,2155.0,6489.0,3553.0,4040.0,943.0,276.0,35.0,6.0
431413,County,2020/05/15,13.0,GA,13065.0,Clinch County,761.0,5887.0,28443.0,5988.0,5940.0,1911.0,4502.0,4095.0,3908.0,1522.0,498.0,50.0,29.0
434587,County,2020/05/16,13.0,GA,13065.0,Clinch County,794.0,5854.0,29434.0,5303.0,6142.0,2156.0,6797.0,4234.0,2983.0,1400.0,400.0,7.0,12.0
437789,County,2020/05/17,13.0,GA,13065.0,Clinch County,907.0,5741.0,23443.0,4679.0,3223.0,933.0,6009.0,3526.0,3312.0,952.0,782.0,14.0,13.0
441035,County,2020/05/18,13.0,GA,13065.0,Clinch County,794.0,5854.0,27198.0,4342.0,5498.0,2968.0,5055.0,4716.0,2694.0,1285.0,622.0,12.0,6.0
444189,County,2020/05/19,13.0,GA,13065.0,Clinch County,768.0,5880.0,27163.0,3654.0,4908.0,2544.0,6932.0,3853.0,3765.0,1074.0,386.0,47.0,0.0
448950,County,2020/05/20,13.0,GA,13065.0,Clinch County,804.0,5844.0,26912.0,6762.0,4674.0,2726.0,3631.0,3995.0,3190.0,1343.0,591.0,0.0,0.0
451790,County,2020/05/21,13.0,GA,13065.0,Clinch County,651.0,5997.0,28653.0,4115.0,6396.0,2658.0,4969.0,5588.0,3081.0,1400.0,377.0,69.0,0.0
453763,County,2020/05/22,13.0,GA,13065.0,Clinch County,578.0,6070.0,28424.0,4613.0,6006.0,2710.0,5024.0,3947.0,4284.0,1075.0,710.0,50.0,5.0
456959,County,2020/05/23,13.0,GA,13065.0,Clinch County,756.0,5892.0,30944.0,6983.0,6186.0,3127.0,5825.0,4162.0,2649.0,1354.0,595.0,63.0,0.0
461702,County,2020/05/24,13.0,GA,13065.0,Clinch County,908.0,5740.0,28284.0,6843.0,5296.0,2016.0,5517.0,4053.0,2340.0,1531.0,619.0,63.0,6.0
463329,County,2020/05/25,13.0,GA,13065.0,Clinch County,955.0,5693.0,26942.0,6415.0,4240.0,2279.0,5799.0,3493.0,2321.0,1756.0,614.0,25.0,0.0
468160,County,2020/05/26,13.0,GA,13065.0,Clinch County,821.0,5827.0,30681.0,7418.0,5607.0,2475.0,6188.0,4398.0,2889.0,1327.0,343.0,28.0,8.0
469739,County,2020/05/27,13.0,GA,13065.0,Clinch County,688.0,5960.0,32060.0,7749.0,5363.0,2377.0,6869.0,4455.0,3521.0,1369.0,337.0,20.0,0.0
472936,County,2020/05/28,13.0,GA,13065.0,Clinch County,820.0,5828.0,26343.0,6696.0,4692.0,1780.0,4758.0,3620.0,3245.0,869.0,657.0,21.0,5.0
476129,County,2020/05/29,13.0,GA,13065.0,Clinch County,973.0,5675.0,25032.0,5411.0,5762.0,1449.0,5745.0,2516.0,2846.0,906.0,323.0,62.0,12.0
479267,County,2020/05/30,13.0,GA,13065.0,Clinch County,1000.0,5648.0,25521.0,5796.0,4354.0,1669.0,5762.0,3589.0,2528.0,1527.0,289.0,0.0,7.0
482443,County,2020/05/31,13.0,GA,13065.0,Clinch County,1040.0,5608.0,27390.0,7404.0,4543.0,1973.0,4106.0,4556.0,2772.0,1417.0,551.0,68.0,0.0
485662,County,2020/06/01,13.0,GA,13065.0,Clinch County,844.0,5804.0,29825.0,6925.0,5193.0,2076.0,5957.0,4017.0,4144.0,982.0,477.0,54.0,0.0
490443,County,2020/06/02,13.0,GA,13065.0,Clinch County,888.0,5760.0,24721.0,5727.0,4266.0,1482.0,4724.0,3889.0,3233.0,1008.0,345.0,44.0,3.0
492073,County,2020/06/03,13.0,GA,13065.0,Clinch County,709.0,5939.0,30177.0,6611.0,6008.0,2023.0,6078.0,4777.0,3410.0,596.0,650.0,24.0,0.0
496846,County,2020/06/04,13.0,GA,13065.0,Clinch County,749.0,5899.0,29761.0,6441.0,4840.0,2009.0,7055.0,4236.0,3450.0,1382.0,323.0,25.0,0.0
498487,County,2020/06/05,13.0,GA,13065.0,Clinch County,781.0,5867.0,31996.0,7350.0,6310.0,2063.0,5833.0,4421.0,3868.0,1695.0,443.0,13.0,0.0
503212,County,2020/06/06,13.0,GA,13065.0,Clinch County,886.0,5762.0,29833.0,6364.0,5603.0,2210.0,5923.0,4861.0,3076.0,1246.0,512.0,31.0,7.0
506409,County,2020/06/07,13.0,GA,13065.0,Clinch County,1103.0,5545.0,21589.0,4196.0,4441.0,1537.0,4404.0,3439.0,1696.0,1073.0,712.0,86.0,5.0
509622,County,2020/06/08,13.0,GA,13065.0,Clinch County,766.0,5882.0,28793.0,6183.0,6060.0,2142.0,5353.0,4494.0,3660.0,504.0,337.0,60.0,0.0
511250,County,2020/06/09,13.0,GA,13065.0,Clinch County,821.0,5827.0,28307.0,6996.0,5353.0,1708.0,5997.0,3970.0,2928.0,938.0,385.0,29.0,3.0
516032,County,2020/06/10,13.0,GA,13065.0,Clinch County,802.0,5846.0,30908.0,6273.0,5101.0,2188.0,7424.0,5074.0,3376.0,1015.0,438.0,13.0,6.0
519189,County,2020/06/11,13.0,GA,13065.0,Clinch County,749.0,5899.0,29303.0,6303.0,4785.0,1839.0,7134.0,4120.0,3458.0,1135.0,484.0,29.0,16.0
520863,County,2020/06/12,13.0,GA,13065.0,Clinch County,760.0,5888.0,26802.0,6273.0,4950.0,1593.0,4584.0,3949.0,3400.0,1174.0,806.0,59.0,14.0
524038,County,2020/06/13,13.0,GA,13065.0,Clinch County,920.0,5728.0,28106.0,7247.0,6579.0,1411.0,5398.0,3927.0,2465.0,617.0,443.0,13.0,6.0
527233,County,2020/06/14,13.0,GA,13065.0,Clinch County,984.0,5664.0,24667.0,4818.0,4198.0,1976.0,6247.0,3220.0,2663.0,1210.0,279.0,53.0,3.0
531993,County,2020/06/15,13.0,GA,13065.0,Clinch County,786.0,5862.0,30874.0,7398.0,5792.0,2218.0,5999.0,3520.0,3986.0,1403.0,502.0,53.0,3.0
533621,County,2020/06/16,13.0,GA,13065.0,Clinch County,751.0,5897.0,32377.0,7188.0,6335.0,2287.0,6566.0,4176.0,3952.0,1302.0,525.0,35.0,11.0
538331,County,2020/06/17,13.0,GA,13065.0,Clinch County,713.0,5935.0,30665.0,6701.0,5593.0,2427.0,6173.0,4625.0,3091.0,1238.0,736.0,73.0,8.0
541527,County,2020/06/18,13.0,GA,13065.0,Clinch County,646.0,6002.0,31254.0,6809.0,5727.0,2195.0,6210.0,4204.0,3367.0,1700.0,945.0,87.0,10.0
544728,County,2020/06/19,13.0,GA,13065.0,Clinch County,792.0,5856.0,28343.0,6502.0,4321.0,2085.0,5015.0,5202.0,3167.0,1434.0,541.0,67.0,9.0
547963,County,2020/06/20,13.0,GA,13065.0,Clinch County,966.0,5682.0,24323.0,4760.0,3947.0,2307.0,4240.0,3193.0,3856.0,1369.0,573.0,64.0,14.0
551150,County,2020/06/21,13.0,GA,13065.0,Clinch County,907.0,5741.0,26514.0,5093.0,4648.0,1495.0,5127.0,4742.0,3625.0,1380.0,358.0,10.0,36.0
554343,County,2020/06/22,13.0,GA,13065.0,Clinch County,818.0,5830.0,29993.0,6137.0,5626.0,2763.0,5521.0,5197.0,3756.0,729.0,239.0,25.0,0.0
555971,County,2020/06/23,13.0,GA,13065.0,Clinch County,804.0,5844.0,31276.0,7128.0,6382.0,2551.0,7099.0,2796.0,3843.0,1179.0,272.0,26.0,0.0
560739,County,2020/06/24,13.0,GA,13065.0,Clinch County,843.0,5805.0,29259.0,6774.0,3684.0,3062.0,5984.0,4338.0,4141.0,857.0,403.0,13.0,3.0
562367,County,2020/06/25,13.0,GA,13065.0,Clinch County,833.0,5815.0,30389.0,8102.0,5501.0,2707.0,5028.0,3540.0,3793.0,1328.0,327.0,56.0,7.0
565573,County,2020/06/26,13.0,GA,13065.0,Clinch County,825.0,5823.0,30092.0,6803.0,5012.0,2314.0,7295.0,3204.0,3779.0,1341.0,330.0,14.0,0.0
568742,County,2020/06/27,13.0,GA,13065.0,Clinch County,989.0,5659.0,28096.0,4331.0,6098.0,2913.0,5533.0,4548.0,3323.0,1031.0,299.0,16.0,4.0
573505,County,2020/06/28,13.0,GA,13065.0,Clinch County,846.0,5802.0,20280.0,3969.0,4168.0,2316.0,3853.0,2418.0,1886.0,1119.0,498.0,49.0,4.0
576677,County,2020/06/29,13.0,GA,13065.0,Clinch County,1009.0,5639.0,23813.0,3869.0,3913.0,2098.0,6264.0,2973.0,2723.0,1713.0,176.0,84.0,0.0
578320,County,2020/06/30,13.0,GA,13065.0,Clinch County,846.0,5802.0,25469.0,3229.0,4216.0,2231.0,6916.0,4464.0,2883.0,1005.0,495.0,26.0,4.0
581526,County,2020/07/01,13.0,GA,13065.0,Clinch County,697.0,5951.0,25872.0,4964.0,5694.0,2404.0,4323.0,3407.0,3314.0,1285.0,432.0,38.0,11.0
584719,County,2020/07/02,13.0,GA,13065.0,Clinch County,955.0,5693.0,32254.0,8599.0,5839.0,2873.0,5337.0,3757.0,4026.0,1410.0,347.0,59.0,7.0
589511,County,2020/07/03,13.0,GA,13065.0,Clinch County,970.0,5678.0,29923.0,6765.0,4984.0,2301.0,7254.0,3186.0,3758.0,1333.0,328.0,14.0,0.0
591106,County,2020/07/04,13.0,GA,13065.0,Clinch County,1091.0,5557.0,25601.0,5787.0,4264.0,1969.0,6206.0,2726.0,3215.0,1141.0,281.0,12.0,0.0
595850,County,2020/07/05,13.0,GA,13065.0,Clinch County,983.0,5665.0,21181.0,5631.0,3905.0,1209.0,3996.0,2217.0,3123.0,726.0,313.0,57.0,4.0
599019,County,2020/07/06,13.0,GA,13065.0,Clinch County,931.0,5717.0,21714.0,3633.0,3546.0,1441.0,5273.0,3063.0,2638.0,1654.0,415.0,40.0,11.0
602639,County,2020/07/07,13.0,GA,13065.0,Clinch County,753.0,5895.0,22208.0,4338.0,4042.0,975.0,3901.0,3685.0,3299.0,1437.0,477.0,51.0,3.0
605355,County,2020/07/08,13.0,GA,13065.0,Clinch County,812.0,5836.0,21844.0,4519.0,4206.0,1353.0,3612.0,3528.0,3404.0,828.0,340.0,51.0,3.0
607082,County,2020/07/09,13.0,GA,13065.0,Clinch County,705.0,5943.0,22380.0,4777.0,3780.0,1515.0,5125.0,3260.0,2689.0,859.0,353.0,22.0,0.0
611864,County,2020/07/10,13.0,GA,13065.0,Clinch County,824.0,5824.0,28312.0,5400.0,5351.0,2493.0,5004.0,4794.0,3614.0,1151.0,485.0,16.0,4.0
615080,County,2020/07/11,13.0,GA,13065.0,Clinch County,880.0,5768.0,22679.0,5628.0,3981.0,1537.0,5643.0,2672.0,2301.0,428.0,439.0,37.0,13.0
618216,County,2020/07/12,13.0,GA,13065.0,Clinch County,982.0,5666.0,22257.0,5293.0,3475.0,1677.0,3841.0,3719.0,3202.0,446.0,550.0,49.0,5.0
619853,County,2020/07/13,13.0,GA,13065.0,Clinch County,905.0,5743.0,20870.0,4514.0,4294.0,2011.0,3211.0,2073.0,3224.0,1244.0,230.0,65.0,4.0
623054,County,2020/07/14,13.0,GA,13065.0,Clinch County,839.0,5809.0,23781.0,5236.0,4543.0,2392.0,4100.0,2663.0,3354.0,813.0,608.0,68.0,4.0
626176,County,2020/07/15,13.0,GA,13065.0,Clinch County,864.0,5784.0,21250.0,3879.0,4398.0,1323.0,2808.0,3750.0,3302.0,1350.0,381.0,59.0,0.0
631056,County,2020/07/16,13.0,GA,13065.0,Clinch County,880.0,5768.0,23978.0,5226.0,4463.0,1688.0,5623.0,2475.0,3080.0,891.0,512.0,16.0,4.0
632617,County,2020/07/17,13.0,GA,13065.0,Clinch County,841.0,5807.0,23913.0,4900.0,4442.0,2053.0,4666.0,3337.0,3255.0,924.0,304.0,32.0,0.0
637404,County,2020/07/18,13.0,GA,13065.0,Clinch County,973.0,5675.0,24820.0,4960.0,3793.0,1792.0,5061.0,4194.0,3577.0,1033.0,343.0,62.0,5.0
638983,County,2020/07/19,13.0,GA,13065.0,Clinch County,1144.0,5504.0,18233.0,2286.0,3659.0,1807.0,5047.0,2327.0,1803.0,503.0,774.0,22.0,5.0
642218,County,2020/07/20,13.0,GA,13065.0,Clinch County,921.0,5727.0,22897.0,4329.0,3119.0,1568.0,5948.0,3022.0,3193.0,1216.0,473.0,25.0,4.0
645393,County,2020/07/21,13.0,GA,13065.0,Clinch County,777.0,5871.0,23327.0,4934.0,4156.0,1070.0,4039.0,3486.0,3631.0,1637.0,303.0,71.0,0.0
650123,County,2020/07/22,13.0,GA,13065.0,Clinch County,727.0,5921.0,27244.0,5617.0,4063.0,1937.0,5559.0,3414.0,4386.0,1687.0,534.0,38.0,9.0
651713,County,2020/07/23,13.0,GA,13065.0,Clinch County,834.0,5814.0,24644.0,4148.0,4981.0,1668.0,5083.0,3198.0,3771.0,1201.0,555.0,39.0,0.0
654885,County,2020/07/24,13.0,GA,13065.0,Clinch County,693.0,5955.0,26762.0,4907.0,4632.0,2304.0,5423.0,2808.0,4370.0,1693.0,579.0,37.0,9.0
659807,County,2020/07/25,13.0,GA,13065.0,Clinch County,961.0,5687.0,23423.0,4613.0,4085.0,1732.0,4826.0,2963.0,2982.0,1402.0,788.0,32.0,0.0
662887,County,2020/07/26,13.0,GA,13065.0,Clinch County,871.0,5777.0,23175.0,3632.0,3794.0,1831.0,5326.0,3973.0,2627.0,1284.0,683.0,22.0,3.0
664628,County,2020/07/27,13.0,GA,13065.0,Clinch County,852.0,5796.0,24701.0,3448.0,5651.0,1515.0,4150.0,4036.0,3387.0,1979.0,495.0,40.0,0.0
669412,County,2020/07/28,13.0,GA,13065.0,Clinch County,815.0,5833.0,24940.0,3611.0,3672.0,1745.0,5553.0,3090.0,4898.0,1835.0,446.0,87.0,3.0
670947,County,2020/07/29,13.0,GA,13065.0,Clinch County,783.0,5865.0,25867.0,3950.0,4465.0,1588.0,6671.0,3534.0,3736.0,1100.0,748.0,60.0,15.0
674156,County,2020/07/30,13.0,GA,13065.0,Clinch County,737.0,5911.0,24968.0,4488.0,4591.0,1208.0,5661.0,3354.0,3670.0,1181.0,759.0,34.0,22.0
677357,County,2020/07/31,13.0,GA,13065.0,Clinch County,792.0,5856.0,21755.0,5450.0,4317.0,1198.0,2306.0,2507.0,3419.0,1572.0,897.0,68.0,21.0
682056,County,2020/08/01,13.0,GA,13065.0,Clinch County,872.0,5776.0,20524.0,3501.0,4569.0,980.0,3811.0,3174.0,2446.0,1143.0,835.0,47.0,18.0
685295,County,2020/08/02,13.0,GA,13065.0,Clinch County,877.0,5771.0,21334.0,3390.0,4183.0,1211.0,3190.0,4385.0,2821.0,1716.0,381.0,45.0,12.0
688499,County,2020/08/03,13.0,GA,13065.0,Clinch County,850.0,5798.0,20781.0,3130.0,4268.0,1257.0,4169.0,2671.0,3833.0,855.0,570.0,28.0,0.0
690127,County,2020/08/04,13.0,GA,13065.0,Clinch County,704.0,5944.0,26672.0,4768.0,4966.0,1505.0,5383.0,3316.0,4839.0,1592.0,280.0,23.0,0.0
694886,County,2020/08/05,13.0,GA,13065.0,Clinch County,1015.0,5633.0,28076.0,5630.0,5456.0,1334.0,4439.0,4974.0,4205.0,1720.0,309.0,9.0,0.0
696495,County,2020/08/06,13.0,GA,13065.0,Clinch County,852.0,5796.0,25707.0,5091.0,4788.0,1763.0,5019.0,4307.0,3641.0,930.0,152.0,16.0,0.0
701275,County,2020/08/07,13.0,GA,13065.0,Clinch County,800.0,5848.0,25515.0,5336.0,4363.0,1444.0,5176.0,3835.0,3663.0,1289.0,341.0,57.0,11.0
704469,County,2020/08/08,13.0,GA,13065.0,Clinch County,895.0,5753.0,26910.0,6543.0,4771.0,1557.0,5827.0,2686.0,3718.0,1520.0,213.0,63.0,12.0
706096,County,2020/08/09,13.0,GA,13065.0,Clinch County,1000.0,5648.0,21507.0,4743.0,3261.0,1447.0,3537.0,4192.0,2639.0,1220.0,435.0,25.0,8.0
710855,County,2020/08/10,13.0,GA,13065.0,Clinch County,895.0,5753.0,25806.0,4238.0,5685.0,1542.0,5197.0,3581.0,4184.0,1132.0,194.0,41.0,12.0
714097,County,2020/08/11,13.0,GA,13065.0,Clinch County,902.0,5746.0,28473.0,6680.0,5670.0,1629.0,5111.0,4041.0,3719.0,1247.0,329.0,39.0,8.0
717147,County,2020/08/12,13.0,GA,13065.0,Clinch County,816.0,5832.0,27191.0,6511.0,4525.0,1248.0,4839.0,3609.0,4204.0,1485.0,719.0,35.0,16.0
718873,County,2020/08/13,13.0,GA,13065.0,Clinch County,762.0,5886.0,26026.0,4985.0,4334.0,1283.0,4841.0,4849.0,3559.0,1600.0,538.0,19.0,18.0
723616,County,2020/08/14,13.0,GA,13065.0,Clinch County,759.0,5889.0,29756.0,5010.0,6359.0,1416.0,5389.0,4951.0,4807.0,1349.0,445.0,18.0,12.0
726827,County,2020/08/15,13.0,GA,13065.0,Clinch County,966.0,5682.0,30951.0,7138.0,4860.0,2521.0,5457.0,4819.0,3629.0,1735.0,774.0,15.0,3.0
730020,County,2020/08/16,13.0,GA,13065.0,Clinch County,851.0,5797.0,24663.0,4481.0,3841.0,1794.0,4620.0,3643.0,3582.0,1891.0,752.0,40.0,19.0
731649,County,2020/08/17,13.0,GA,13065.0,Clinch County,856.0,5792.0,28212.0,4586.0,5436.0,2232.0,6273.0,3954.0,4177.0,1082.0,421.0,37.0,14.0
736409,County,2020/08/18,13.0,GA,13065.0,Clinch County,884.0,5764.0,24796.0,4319.0,4244.0,1366.0,4676.0,4740.0,3475.0,1532.0,386.0,36.0,22.0
738020,County,2020/08/19,13.0,GA,13065.0,Clinch County,766.0,5882.0,29329.0,4695.0,4500.0,2227.0,6355.0,4890.0,4835.0,1306.0,455.0,52.0,14.0
742802,County,2020/08/20,13.0,GA,13065.0,Clinch County,750.0,5898.0,30110.0,5280.0,5794.0,1864.0,5830.0,4539.0,5291.0,1070.0,366.0,47.0,29.0
746008,County,2020/08/21,13.0,GA,13065.0,Clinch County,667.0,5981.0,28133.0,4460.0,6655.0,1446.0,5894.0,4100.0,4159.0,767.0,581.0,46.0,25.0
747636,County,2020/08/22,13.0,GA,13065.0,Clinch County,740.0,5908.0,27454.0,4871.0,5010.0,2063.0,4981.0,4659.0,4054.0,1250.0,527.0,35.0,4.0
752381,County,2020/08/23,13.0,GA,13065.0,Clinch County,907.0,5741.0,21364.0,3728.0,4183.0,1087.0,4727.0,2934.0,2583.0,1373.0,651.0,89.0,9.0
754003,County,2020/08/24,13.0,GA,13065.0,Clinch County,902.0,5746.0,23356.0,4569.0,4777.0,1088.0,2820.0,4037.0,3930.0,1745.0,326.0,35.0,29.0
758763,County,2020/08/25,13.0,GA,13065.0,Clinch County,847.0,5801.0,26783.0,4916.0,5289.0,1499.0,4688.0,4380.0,4207.0,1195.0,559.0,44.0,6.0
760396,County,2020/08/26,13.0,GA,13065.0,Clinch County,903.0,5745.0,23395.0,3882.0,4140.0,1825.0,5111.0,3564.0,3398.0,906.0,527.0,26.0,16.0
763552,County,2020/08/27,13.0,GA,13065.0,Clinch County,924.0,5724.0,25052.0,4508.0,4612.0,1306.0,5353.0,3634.0,4346.0,593.0,668.0,26.0,6.0
766759,County,2020/08/28,13.0,GA,13065.0,Clinch County,761.0,5887.0,28008.0,4572.0,5420.0,2001.0,5593.0,4125.0,4495.0,1300.0,457.0,37.0,8.0
769962,County,2020/08/29,13.0,GA,13065.0,Clinch County,801.0,5847.0,24934.0,4694.0,5539.0,1619.0,4306.0,2849.0,3769.0,1301.0,801.0,53.0,3.0
774754,County,2020/08/30,13.0,GA,13065.0,Clinch County,1025.0,5623.0,22797.0,4564.0,4978.0,1364.0,4219.0,3311.0,2916.0,795.0,612.0,34.0,4.0
776362,County,2020/08/31,13.0,GA,13065.0,Clinch County,804.0,5844.0,25623.0,4779.0,5094.0,1336.0,4974.0,3559.0,3628.0,1690.0,436.0,100.0,27.0
779505,County,2020/09/01,13.0,GA,13065.0,Clinch County,772.0,5876.0,26034.0,4497.0,4822.0,1587.0,5572.0,3297.0,4223.0,1349.0,632.0,42.0,13.0
783538,County,2020/09/02,13.0,GA,13065.0,Clinch County,846.0,5802.0,28066.0,4380.0,6063.0,1672.0,5872.0,4028.0,3950.0,1536.0,491.0,74.0,0.0
785897,County,2020/09/03,13.0,GA,13065.0,Clinch County,792.0,5856.0,26944.0,5649.0,5945.0,1560.0,4066.0,4279.0,4170.0,720.0,474.0,74.0,7.0
790680,County,2020/09/04,13.0,GA,13065.0,Clinch County,850.0,5798.0,24292.0,3933.0,5712.0,992.0,3808.0,3687.0,3525.0,1643.0,934.0,58.0,0.0
792284,County,2020/09/05,13.0,GA,13065.0,Clinch County,800.0,5848.0,25135.0,5121.0,5137.0,1838.0,4403.0,3315.0,3114.0,1307.0,841.0,52.0,7.0
797075,County,2020/09/06,13.0,GA,13065.0,Clinch County,1063.0,5585.0,23299.0,3466.0,3757.0,1970.0,4983.0,3462.0,3305.0,1528.0,793.0,31.0,4.0
800288,County,2020/09/07,13.0,GA,13065.0,Clinch County,1129.0,5519.0,19044.0,3933.0,3867.0,800.0,3432.0,2392.0,2749.0,1088.0,670.0,107.0,6.0
801894,County,2020/09/08,13.0,GA,13065.0,Clinch County,939.0,5709.0,28286.0,5118.0,5584.0,2155.0,5791.0,3953.0,3862.0,1294.0,518.0,8.0,3.0
806675,County,2020/09/09,13.0,GA,13065.0,Clinch County,787.0,5861.0,26577.0,4568.0,5454.0,1649.0,5322.0,3992.0,3556.0,1411.0,568.0,50.0,7.0
808303,County,2020/09/10,13.0,GA,13065.0,Clinch County,844.0,5804.0,23685.0,3503.0,6056.0,1870.0,3695.0,3147.0,3267.0,1492.0,625.0,23.0,7.0
813064,County,2020/09/11,13.0,GA,13065.0,Clinch County,734.0,5914.0,28010.0,5263.0,6158.0,1653.0,5899.0,2929.0,4385.0,1213.0,455.0,48.0,7.0
816260,County,2020/09/12,13.0,GA,13065.0,Clinch County,891.0,5757.0,24929.0,3848.0,4640.0,1742.0,4696.0,4759.0,3538.0,1143.0,547.0,16.0,0.0
819441,County,2020/09/13,13.0,GA,13065.0,Clinch County,1155.0,5493.0,23538.0,3807.0,3807.0,918.0,5300.0,3533.0,3799.0,1606.0,717.0,51.0,0.0
821070,County,2020/09/14,13.0,GA,13065.0,Clinch County,823.0,5825.0,25708.0,3519.0,4559.0,1986.0,6219.0,3497.0,4392.0,1096.0,404.0,36.0,0.0
825840,County,2020/09/15,13.0,GA,13065.0,Clinch County,874.0,5774.0,24555.0,3069.0,3975.0,1512.0,5218.0,4746.0,4530.0,882.0,577.0,36.0,10.0
827468,County,2020/09/16,13.0,GA,13065.0,Clinch County,890.0,5758.0,30035.0,4942.0,5226.0,2447.0,6666.0,4529.0,3839.0,1885.0,471.0,27.0,3.0
830662,County,2020/09/17,13.0,GA,13065.0,Clinch County,740.0,5908.0,28523.0,4611.0,5432.0,2107.0,6330.0,3448.0,4813.0,1385.0,353.0,44.0,0.0
833839,County,2020/09/18,13.0,GA,13065.0,Clinch County,759.0,5889.0,29712.0,6028.0,6677.0,1813.0,5747.0,3139.0,4624.0,1027.0,601.0,40.0,16.0
838615,County,2020/09/19,13.0,GA,13065.0,Clinch County,1015.0,5633.0,29594.0,6492.0,5802.0,2060.0,5426.0,3101.0,4240.0,1905.0,525.0,35.0,8.0
840243,County,2020/09/20,13.0,GA,13065.0,Clinch County,1108.0,5540.0,21871.0,3743.0,5859.0,848.0,4072.0,3445.0,2427.0,865.0,604.0,8.0,0.0
845031,County,2020/09/21,13.0,GA,13065.0,Clinch County,1131.0,5517.0,21231.0,2557.0,4385.0,1451.0,5202.0,2827.0,3078.0,1049.0,646.0,32.0,4.0
846609,County,2020/09/22,13.0,GA,13065.0,Clinch County,1069.0,5579.0,25001.0,4448.0,6010.0,1196.0,3676.0,3813.0,4656.0,915.0,263.0,24.0,0.0
851388,County,2020/09/23,13.0,GA,13065.0,Clinch County,861.0,5787.0,24425.0,4811.0,4410.0,1692.0,5854.0,3197.0,3481.0,733.0,226.0,21.0,0.0
853016,County,2020/09/24,13.0,GA,13065.0,Clinch County,909.0,5739.0,25810.0,4874.0,5031.0,1602.0,4923.0,3405.0,4298.0,1277.0,378.0,13.0,9.0
857780,County,2020/09/25,13.0,GA,13065.0,Clinch County,949.0,5699.0,27407.0,6214.0,6135.0,1393.0,4719.0,3737.0,3526.0,1015.0,625.0,27.0,16.0
859408,County,2020/09/26,13.0,GA,13065.0,Clinch County,1172.0,5476.0,23511.0,5516.0,3873.0,1964.0,4228.0,2872.0,3288.0,1358.0,358.0,42.0,12.0
862579,County,2020/09/27,13.0,GA,13065.0,Clinch County,847.0,5801.0,22788.0,3544.0,3876.0,1045.0,6281.0,3352.0,3405.0,786.0,484.0,15.0,0.0
865782,County,2020/09/28,13.0,GA,13065.0,Clinch County,888.0,5760.0,22177.0,4129.0,3981.0,1281.0,4010.0,4103.0,2668.0,1591.0,385.0,22.0,7.0
870555,County,2020/09/29,13.0,GA,13065.0,Clinch County,779.0,5869.0,25745.0,3833.0,5506.0,1074.0,5162.0,3765.0,4458.0,1269.0,637.0,38.0,3.0
872184,County,2020/09/30,13.0,GA,13065.0,Clinch County,913.0,5735.0,26453.0,3934.0,4730.0,1328.0,5102.0,4234.0,4972.0,1779.0,355.0,18.0,1.0
876924,County,2020/10/01,13.0,GA,13065.0,Clinch County,786.0,5862.0,31641.0,6389.0,5289.0,2094.0,6896.0,5007.0,4115.0,1402.0,447.0,0.0,2.0
878551,County,2020/10/02,13.0,GA,13065.0,Clinch County,822.0,5826.0,27731.0,4429.0,5864.0,1090.0,6018.0,4194.0,4043.0,1431.0,636.0,26.0,0.0
883333,County,2020/10/03,13.0,GA,13065.0,Clinch County,1022.0,5626.0,25177.0,5452.0,4283.0,1331.0,3937.0,4566.0,3496.0,1715.0,397.0,0.0,0.0
885334,County,2020/10/04,13.0,GA,13065.0,Clinch County,1043.0,5605.0,21952.0,3971.0,3384.0,1360.0,5281.0,3095.0,3359.0,947.0,519.0,34.0,2.0
888352,County,2020/10/05,13.0,GA,13065.0,Clinch County,1057.0,5591.0,25168.0,5475.0,5424.0,1497.0,4672.0,2975.0,3322.0,1265.0,512.0,24.0,2.0
891507,County,2020/10/06,13.0,GA,13065.0,Clinch County,814.0,5834.0,26992.0,5667.0,4577.0,1010.0,5586.0,4328.0,4327.0,1131.0,351.0,12.0,3.0
894699,County,2020/10/07,13.0,GA,13065.0,Clinch County,943.0,5705.0,26291.0,4735.0,5024.0,1087.0,6159.0,3873.0,3637.0,1370.0,372.0,33.0,1.0
897894,County,2020/10/08,13.0,GA,13065.0,Clinch County,783.0,5865.0,25265.0,4300.0,5021.0,929.0,5296.0,4367.0,3266.0,1915.0,141.0,26.0,4.0
901079,County,2020/10/09,13.0,GA,13065.0,Clinch County,927.0,5721.0,25771.0,5644.0,4488.0,997.0,3582.0,4491.0,5085.0,1063.0,396.0,23.0,2.0
904298,County,2020/10/10,13.0,GA,13065.0,Clinch County,1105.0,5543.0,23049.0,4737.0,4242.0,1599.0,3356.0,3805.0,3248.0,1842.0,180.0,38.0,2.0
909407,County,2020/10/11,13.0,GA,13065.0,Clinch County,973.0,5675.0,21071.0,3536.0,3999.0,1265.0,3870.0,3155.0,2728.0,1876.0,607.0,35.0,0.0
912822,County,2020/10/12,13.0,GA,13065.0,Clinch County,906.0,5742.0,24808.0,4315.0,5551.0,1677.0,3919.0,3828.0,3588.0,1502.0,389.0,38.0,1.0
915698,County,2020/10/13,13.0,GA,13065.0,Clinch County,834.0,5814.0,26263.0,4756.0,5785.0,1543.0,4566.0,3782.0,3770.0,1721.0,330.0,8.0,2.0
919784,County,2020/10/14,13.0,GA,13065.0,Clinch County,822.0,5826.0,26715.0,4188.0,5071.0,1546.0,5768.0,3710.0,4341.0,1605.0,468.0,17.0,1.0
923003,County,2020/10/15,13.0,GA,13065.0,Clinch County,951.0,5697.0,24077.0,4236.0,4570.0,882.0,5868.0,3948.0,3110.0,991.0,459.0,11.0,2.0
925734,County,2020/10/16,13.0,GA,13065.0,Clinch County,782.0,5866.0,26317.0,4557.0,6030.0,1773.0,6456.0,2680.0,3378.0,1069.0,330.0,42.0,2.0
929391,County,2020/10/17,13.0,GA,13065.0,Clinch County,957.0,5691.0,26867.0,5241.0,5724.0,2201.0,5607.0,3237.0,3540.0,838.0,459.0,16.0,4.0
931623,County,2020/10/18,13.0,GA,13065.0,Clinch County,1051.0,5597.0,23509.0,4760.0,4201.0,2447.0,3886.0,2506.0,3648.0,1380.0,639.0,41.0,1.0
935754,County,2020/10/19,13.0,GA,13065.0,Clinch County,860.0,5788.0,25678.0,5618.0,5316.0,1661.0,4739.0,2453.0,3446.0,1848.0,542.0,53.0,2.0
938918,County,2020/10/20,13.0,GA,13065.0,Clinch County,800.0,5848.0,22955.0,4444.0,4568.0,1995.0,3168.0,3144.0,4041.0,888.0,685.0,21.0,1.0
941445,County,2020/10/21,13.0,GA,13065.0,Clinch County,955.0,5693.0,26573.0,5039.0,6170.0,1323.0,4961.0,3841.0,3292.0,1374.0,535.0,36.0,2.0
942282,County,2020/10/22,13.0,GA,13065.0,Clinch County,828.0,5820.0,26200.0,4194.0,5256.0,2346.0,4583.0,3961.0,4100.0,1217.0,507.0,35.0,1.0
948537,County,2020/10/23,13.0,GA,13065.0,Clinch County,704.0,5944.0,27727.0,4240.0,5781.0,2248.0,5333.0,4837.0,3725.0,853.0,685.0,24.0,1.0
951744,County,2020/10/24,13.0,GA,13065.0,Clinch County,839.0,5809.0,27232.0,5595.0,4896.0,2056.0,5645.0,3841.0,3854.0,964.0,351.0,29.0,1.0
