,Level,Date,State FIPS,State Postal Code,County FIPS,County Name,Population Staying at Home,Population Not Staying at Home,Number of Trips,Number of Trips <1,Number of Trips 1-3,Number of Trips 3-5,Number of Trips 5-10,Number of Trips 10-25,Number of Trips 25-50,Number of Trips 50-100,Number of Trips 100-250,Number of Trips 250-500,Number of Trips >=500
818,County,2020/01/01,19.0,IA,19059.0,Dickinson County,4032.0,13121.0,49547.0,12840.0,12885.0,4930.0,8652.0,6544.0,1557.0,1098.0,936.0,51.0,54.0
6200,County,2020/01/02,19.0,IA,19059.0,Dickinson County,3315.0,13838.0,68052.0,19169.0,16965.0,6868.0,12165.0,8138.0,3132.0,947.0,528.0,113.0,27.0
7801,County,2020/01/03,19.0,IA,19059.0,Dickinson County,3370.0,13783.0,67751.0,20600.0,17413.0,5447.0,11468.0,8033.0,2288.0,1642.0,760.0,51.0,49.0
12316,County,2020/01/04,19.0,IA,19059.0,Dickinson County,3768.0,13385.0,61991.0,16875.0,16652.0,6588.0,9662.0,5965.0,2932.0,2212.0,1006.0,31.0,68.0
13594,County,2020/01/05,19.0,IA,19059.0,Dickinson County,3818.0,13335.0,53017.0,13186.0,13981.0,5565.0,8306.0,6235.0,2596.0,1819.0,1198.0,92.0,39.0
18010,County,2020/01/06,19.0,IA,19059.0,Dickinson County,3233.0,13920.0,69634.0,19437.0,16325.0,7811.0,13910.0,8059.0,2374.0,1148.0,495.0,14.0,61.0
21156,County,2020/01/07,19.0,IA,19059.0,Dickinson County,3220.0,13933.0,73505.0,21750.0,19014.0,7268.0,12746.0,8094.0,2558.0,1463.0,562.0,41.0,9.0
24400,County,2020/01/08,19.0,IA,19059.0,Dickinson County,3292.0,13861.0,71849.0,21811.0,18447.0,5129.0,12309.0,9578.0,2913.0,1008.0,491.0,137.0,26.0
27531,County,2020/01/09,19.0,IA,19059.0,Dickinson County,3311.0,13842.0,76985.0,25673.0,19593.0,6748.0,10960.0,8621.0,3258.0,1265.0,781.0,53.0,33.0
30738,County,2020/01/10,19.0,IA,19059.0,Dickinson County,3327.0,13826.0,74500.0,23187.0,19501.0,7502.0,11501.0,8436.0,2736.0,933.0,661.0,26.0,17.0
33982,County,2020/01/11,19.0,IA,19059.0,Dickinson County,3569.0,13584.0,63832.0,20260.0,15548.0,6449.0,10288.0,5820.0,2379.0,1652.0,1319.0,72.0,45.0
37101,County,2020/01/12,19.0,IA,19059.0,Dickinson County,3816.0,13337.0,55761.0,16284.0,15807.0,5113.0,10139.0,4802.0,1899.0,647.0,946.0,115.0,9.0
38765,County,2020/01/13,19.0,IA,19059.0,Dickinson County,3621.0,13532.0,71898.0,24907.0,18972.0,5996.0,10638.0,7690.0,2214.0,889.0,492.0,76.0,24.0
43498,County,2020/01/14,19.0,IA,19059.0,Dickinson County,3410.0,13743.0,74033.0,24246.0,18716.0,6656.0,11778.0,8015.0,2482.0,1370.0,707.0,63.0,0.0
46704,County,2020/01/15,19.0,IA,19059.0,Dickinson County,3394.0,13759.0,66328.0,20191.0,16123.0,5785.0,11135.0,8669.0,2826.0,852.0,650.0,46.0,51.0
49860,County,2020/01/16,19.0,IA,19059.0,Dickinson County,3255.0,13898.0,66643.0,20274.0,16257.0,6140.0,11171.0,7718.0,2898.0,1024.0,1034.0,91.0,36.0
51488,County,2020/01/17,19.0,IA,19059.0,Dickinson County,4121.0,13032.0,56436.0,18839.0,16552.0,4738.0,10056.0,4130.0,1113.0,455.0,510.0,43.0,0.0
54720,County,2020/01/18,19.0,IA,19059.0,Dickinson County,4624.0,12529.0,64058.0,19575.0,20941.0,7386.0,11457.0,2445.0,1178.0,401.0,587.0,54.0,34.0
57867,County,2020/01/19,19.0,IA,19059.0,Dickinson County,4047.0,13106.0,56965.0,16734.0,16081.0,6889.0,8678.0,5262.0,1271.0,963.0,1008.0,60.0,19.0
61100,County,2020/01/20,19.0,IA,19059.0,Dickinson County,3668.0,13485.0,67407.0,17520.0,18978.0,6238.0,12270.0,8654.0,2212.0,679.0,749.0,71.0,36.0
65877,County,2020/01/21,19.0,IA,19059.0,Dickinson County,3576.0,13577.0,69889.0,22108.0,17995.0,6575.0,10213.0,8440.0,2452.0,1313.0,717.0,37.0,39.0
69068,County,2020/01/22,19.0,IA,19059.0,Dickinson County,3412.0,13741.0,70234.0,21516.0,19900.0,6331.0,10243.0,8469.0,2246.0,779.0,683.0,36.0,31.0
72250,County,2020/01/23,19.0,IA,19059.0,Dickinson County,3408.0,13745.0,70056.0,19776.0,18808.0,7874.0,9702.0,8377.0,2921.0,1729.0,804.0,49.0,16.0
75406,County,2020/01/24,19.0,IA,19059.0,Dickinson County,3414.0,13739.0,73179.0,21921.0,20696.0,7696.0,10575.0,8141.0,1956.0,1234.0,829.0,80.0,51.0
78641,County,2020/01/25,19.0,IA,19059.0,Dickinson County,3299.0,13854.0,71267.0,22532.0,20068.0,8456.0,10214.0,6321.0,2187.0,802.0,617.0,53.0,17.0
80668,County,2020/01/26,19.0,IA,19059.0,Dickinson County,3592.0,13561.0,56125.0,16181.0,14903.0,6422.0,10168.0,5528.0,1099.0,803.0,919.0,38.0,64.0
84858,County,2020/01/27,19.0,IA,19059.0,Dickinson County,3463.0,13690.0,61700.0,19216.0,14948.0,4810.0,9879.0,8648.0,2527.0,994.0,600.0,62.0,16.0
88761,County,2020/01/28,19.0,IA,19059.0,Dickinson County,3317.0,13836.0,64547.0,17836.0,16204.0,6162.0,10861.0,9094.0,2413.0,1035.0,873.0,37.0,32.0
89833,County,2020/01/29,19.0,IA,19059.0,Dickinson County,3159.0,13994.0,64420.0,17162.0,17785.0,5723.0,10117.0,9703.0,2246.0,701.0,891.0,61.0,31.0
93137,County,2020/01/30,19.0,IA,19059.0,Dickinson County,3215.0,13938.0,63898.0,18953.0,16570.0,5617.0,9350.0,8390.0,2634.0,1255.0,971.0,92.0,66.0
97811,County,2020/01/31,19.0,IA,19059.0,Dickinson County,2996.0,14157.0,70632.0,20081.0,19208.0,5908.0,11064.0,9023.0,3031.0,1045.0,1036.0,157.0,79.0
100999,County,2020/02/01,19.0,IA,19059.0,Dickinson County,3312.0,13841.0,64881.0,18340.0,17311.0,6357.0,10921.0,6709.0,2026.0,1524.0,1486.0,122.0,85.0
104152,County,2020/02/02,19.0,IA,19059.0,Dickinson County,3756.0,13397.0,55713.0,16327.0,13650.0,5904.0,7912.0,7373.0,1629.0,1416.0,1298.0,130.0,74.0
107404,County,2020/02/03,19.0,IA,19059.0,Dickinson County,3318.0,13835.0,67037.0,18472.0,19214.0,5542.0,11573.0,7418.0,2507.0,1131.0,1010.0,118.0,52.0
109021,County,2020/02/04,19.0,IA,19059.0,Dickinson County,3172.0,13981.0,64873.0,18037.0,18391.0,5962.0,9788.0,8836.0,1800.0,1010.0,932.0,45.0,72.0
113744,County,2020/02/05,19.0,IA,19059.0,Dickinson County,2971.0,14182.0,65121.0,18030.0,17857.0,4700.0,9892.0,9441.0,2658.0,1170.0,1173.0,118.0,82.0
115311,County,2020/02/06,19.0,IA,19059.0,Dickinson County,2940.0,14213.0,66497.0,17987.0,17670.0,5798.0,9634.0,9745.0,2884.0,1442.0,1166.0,61.0,110.0
120204,County,2020/02/07,19.0,IA,19059.0,Dickinson County,3027.0,14126.0,77565.0,24397.0,19526.0,7105.0,10793.0,9566.0,3281.0,1382.0,1282.0,174.0,59.0
123364,County,2020/02/08,19.0,IA,19059.0,Dickinson County,3357.0,13796.0,60667.0,16128.0,15845.0,7320.0,9606.0,6290.0,2251.0,1950.0,1090.0,130.0,57.0
124992,County,2020/02/09,19.0,IA,19059.0,Dickinson County,4177.0,12976.0,53817.0,14599.0,15747.0,6278.0,8846.0,4710.0,1079.0,999.0,1377.0,86.0,96.0
129127,County,2020/02/10,19.0,IA,19059.0,Dickinson County,3074.0,14079.0,74512.0,21807.0,18656.0,6453.0,11223.0,9573.0,3278.0,1437.0,1667.0,160.0,258.0
131773,County,2020/02/11,19.0,IA,19059.0,Dickinson County,2842.0,14311.0,71956.0,21486.0,18533.0,6878.0,10572.0,8776.0,2585.0,1421.0,1368.0,154.0,183.0
136062,County,2020/02/12,19.0,IA,19059.0,Dickinson County,3156.0,13997.0,66205.0,18687.0,17624.0,6090.0,9552.0,8659.0,2582.0,1320.0,1257.0,196.0,238.0
137757,County,2020/02/13,19.0,IA,19059.0,Dickinson County,3050.0,14103.0,63248.0,15737.0,15681.0,5603.0,11081.0,9143.0,3075.0,1352.0,1256.0,127.0,193.0
140864,County,2020/02/14,19.0,IA,19059.0,Dickinson County,2931.0,14222.0,73703.0,20779.0,19491.0,6236.0,11325.0,9153.0,3044.0,1618.0,1713.0,233.0,111.0
145742,County,2020/02/15,19.0,IA,19059.0,Dickinson County,2998.0,14155.0,70142.0,18787.0,19493.0,7014.0,10073.0,8283.0,2481.0,1551.0,2009.0,220.0,231.0
148895,County,2020/02/16,19.0,IA,19059.0,Dickinson County,3526.0,13627.0,56502.0,13781.0,14574.0,5534.0,10216.0,6518.0,2488.0,1200.0,1771.0,182.0,238.0
150523,County,2020/02/17,19.0,IA,19059.0,Dickinson County,4040.0,13113.0,53096.0,13620.0,15690.0,5020.0,7870.0,6313.0,2071.0,1189.0,1032.0,153.0,138.0
155254,County,2020/02/18,19.0,IA,19059.0,Dickinson County,2986.0,14167.0,65215.0,15808.0,18556.0,6395.0,8771.0,9271.0,3588.0,1176.0,1333.0,173.0,144.0
156932,County,2020/02/19,19.0,IA,19059.0,Dickinson County,2945.0,14208.0,71823.0,19564.0,18756.0,7202.0,10740.0,9456.0,3045.0,1538.0,1274.0,179.0,69.0
161596,County,2020/02/20,19.0,IA,19059.0,Dickinson County,3033.0,14120.0,70116.0,18321.0,18695.0,6151.0,12175.0,7690.0,3346.0,1999.0,1573.0,120.0,46.0
163271,County,2020/02/21,19.0,IA,19059.0,Dickinson County,3162.0,13991.0,75035.0,22656.0,21157.0,5430.0,10012.0,8658.0,3320.0,1483.0,1786.0,317.0,216.0
166465,County,2020/02/22,19.0,IA,19059.0,Dickinson County,3059.0,14094.0,66310.0,15941.0,19681.0,5455.0,8707.0,7373.0,3931.0,2897.0,1979.0,243.0,103.0
169692,County,2020/02/23,19.0,IA,19059.0,Dickinson County,3334.0,13819.0,53553.0,11938.0,14628.0,5653.0,9410.0,6427.0,2041.0,1661.0,1556.0,146.0,93.0
174475,County,2020/02/24,19.0,IA,19059.0,Dickinson County,3288.0,13865.0,63915.0,17625.0,16909.0,6426.0,10239.0,7419.0,2788.0,1044.0,978.0,225.0,262.0
176095,County,2020/02/25,19.0,IA,19059.0,Dickinson County,2752.0,14401.0,79187.0,21866.0,22534.0,8964.0,10252.0,9744.0,3486.0,1253.0,774.0,76.0,238.0
179682,County,2020/02/26,19.0,IA,19059.0,Dickinson County,3013.0,14140.0,59659.0,14450.0,15595.0,6202.0,11003.0,8092.0,2575.0,1004.0,611.0,78.0,49.0
183849,County,2020/02/27,19.0,IA,19059.0,Dickinson County,3197.0,13956.0,74630.0,24170.0,19310.0,6215.0,10092.0,9149.0,3348.0,1521.0,680.0,53.0,92.0
187293,County,2020/02/28,19.0,IA,19059.0,Dickinson County,3074.0,14079.0,80174.0,27171.0,20117.0,6512.0,11215.0,9860.0,2743.0,1251.0,1156.0,81.0,68.0
190390,County,2020/02/29,19.0,IA,19059.0,Dickinson County,3427.0,13726.0,65370.0,18274.0,15140.0,7632.0,10901.0,7227.0,3160.0,1988.0,921.0,78.0,49.0
193608,County,2020/03/01,19.0,IA,19059.0,Dickinson County,3460.0,13693.0,57704.0,17688.0,15917.0,4893.0,8761.0,6763.0,1258.0,1188.0,1013.0,154.0,69.0
195237,County,2020/03/02,19.0,IA,19059.0,Dickinson County,3147.0,14006.0,67273.0,18104.0,19444.0,7026.0,10423.0,7074.0,2980.0,1123.0,860.0,133.0,106.0
198440,County,2020/03/03,19.0,IA,19059.0,Dickinson County,2782.0,14371.0,72607.0,21343.0,17330.0,7255.0,10908.0,9964.0,3049.0,1439.0,1168.0,56.0,95.0
202299,County,2020/03/04,19.0,IA,19059.0,Dickinson County,2916.0,14237.0,63964.0,17383.0,14723.0,6526.0,11065.0,8328.0,3028.0,1239.0,1569.0,78.0,25.0
206428,County,2020/03/05,19.0,IA,19059.0,Dickinson County,2657.0,14496.0,63841.0,17818.0,15705.0,4960.0,11070.0,8019.0,2938.0,1386.0,1632.0,198.0,115.0
207910,County,2020/03/06,19.0,IA,19059.0,Dickinson County,2735.0,14418.0,66789.0,17140.0,17156.0,6375.0,10478.0,8409.0,3457.0,1861.0,1632.0,232.0,49.0
211211,County,2020/03/07,19.0,IA,19059.0,Dickinson County,3178.0,13975.0,62385.0,12933.0,17316.0,7899.0,11733.0,7393.0,2179.0,1229.0,1498.0,144.0,61.0
214425,County,2020/03/08,19.0,IA,19059.0,Dickinson County,3296.0,13857.0,51056.0,12214.0,12401.0,5425.0,9109.0,6603.0,1757.0,1439.0,1857.0,179.0,72.0
219184,County,2020/03/09,19.0,IA,19059.0,Dickinson County,3189.0,13964.0,63735.0,17211.0,15393.0,5002.0,12067.0,7694.0,3251.0,1433.0,1428.0,204.0,52.0
220813,County,2020/03/10,19.0,IA,19059.0,Dickinson County,2866.0,14287.0,66226.0,19753.0,13320.0,6980.0,12121.0,8293.0,2714.0,1295.0,1592.0,97.0,61.0
225607,County,2020/03/11,19.0,IA,19059.0,Dickinson County,2852.0,14301.0,53185.0,11715.0,13991.0,5857.0,7312.0,8328.0,1524.0,1731.0,2530.0,162.0,35.0
228698,County,2020/03/12,19.0,IA,19059.0,Dickinson County,2857.0,14296.0,52838.0,16213.0,12977.0,5539.0,5320.0,7339.0,2402.0,819.0,1834.0,103.0,292.0
231967,County,2020/03/13,19.0,IA,19059.0,Dickinson County,2630.0,14523.0,53823.0,14331.0,12536.0,4687.0,6787.0,8191.0,2536.0,1729.0,2597.0,315.0,114.0
235022,County,2020/03/14,19.0,IA,19059.0,Dickinson County,3497.0,13656.0,59842.0,17001.0,16287.0,5454.0,7150.0,8021.0,2869.0,1257.0,1327.0,393.0,83.0
238299,County,2020/03/15,19.0,IA,19059.0,Dickinson County,4136.0,13017.0,53969.0,16683.0,12611.0,7007.0,7146.0,7132.0,1335.0,455.0,1478.0,47.0,75.0
241542,County,2020/03/16,19.0,IA,19059.0,Dickinson County,3632.0,13521.0,66712.0,20284.0,18114.0,4887.0,11151.0,7151.0,2153.0,1554.0,1199.0,142.0,77.0
243158,County,2020/03/17,19.0,IA,19059.0,Dickinson County,3681.0,13472.0,60973.0,17183.0,15851.0,5469.0,10443.0,7164.0,2358.0,1112.0,1235.0,97.0,61.0
246362,County,2020/03/18,19.0,IA,19059.0,Dickinson County,4183.0,12970.0,57914.0,13362.0,14992.0,5380.0,11642.0,7534.0,2291.0,1240.0,1343.0,130.0,0.0
251144,County,2020/03/19,19.0,IA,19059.0,Dickinson County,4323.0,12830.0,50149.0,13630.0,13578.0,4800.0,8095.0,6510.0,1582.0,712.0,1135.0,81.0,26.0
254319,County,2020/03/20,19.0,IA,19059.0,Dickinson County,4707.0,12446.0,65486.0,23026.0,17082.0,5567.0,8509.0,6613.0,2237.0,1033.0,1151.0,92.0,176.0
255896,County,2020/03/21,19.0,IA,19059.0,Dickinson County,4600.0,12553.0,55575.0,16402.0,13750.0,6521.0,10048.0,5821.0,1072.0,1253.0,610.0,98.0,0.0
259131,County,2020/03/22,19.0,IA,19059.0,Dickinson County,4744.0,12409.0,44969.0,14894.0,11990.0,4616.0,7059.0,3588.0,1301.0,532.0,864.0,55.0,70.0
262336,County,2020/03/23,19.0,IA,19059.0,Dickinson County,4014.0,13139.0,53766.0,16503.0,12861.0,5564.0,9859.0,5127.0,1889.0,897.0,941.0,43.0,82.0
265488,County,2020/03/24,19.0,IA,19059.0,Dickinson County,4166.0,12987.0,50203.0,14491.0,12289.0,5588.0,8416.0,5739.0,1933.0,818.0,797.0,64.0,68.0
268722,County,2020/03/25,19.0,IA,19059.0,Dickinson County,4040.0,13113.0,53133.0,16347.0,14670.0,4731.0,7564.0,6067.0,1934.0,829.0,839.0,139.0,13.0
273462,County,2020/03/26,19.0,IA,19059.0,Dickinson County,4075.0,13078.0,55177.0,18742.0,12381.0,5356.0,9060.0,6751.0,1558.0,598.0,582.0,83.0,66.0
275102,County,2020/03/27,19.0,IA,19059.0,Dickinson County,4017.0,13136.0,48349.0,14615.0,10812.0,4449.0,9578.0,5415.0,1730.0,825.0,804.0,74.0,47.0
279863,County,2020/03/28,19.0,IA,19059.0,Dickinson County,4297.0,12856.0,38131.0,9421.0,10827.0,3669.0,6737.0,4534.0,1190.0,830.0,754.0,103.0,66.0
281498,County,2020/03/29,19.0,IA,19059.0,Dickinson County,4633.0,12520.0,44436.0,13154.0,10330.0,4955.0,7986.0,4088.0,2031.0,692.0,1080.0,65.0,55.0
284642,County,2020/03/30,19.0,IA,19059.0,Dickinson County,3979.0,13174.0,60126.0,18447.0,16088.0,6251.0,9291.0,5691.0,2349.0,1144.0,697.0,89.0,79.0
287838,County,2020/03/31,19.0,IA,19059.0,Dickinson County,4237.0,12916.0,54428.0,17357.0,13712.0,5434.0,8791.0,5660.0,1841.0,765.0,659.0,92.0,117.0
292645,County,2020/04/01,19.0,IA,19059.0,Dickinson County,4058.0,13095.0,52896.0,15107.0,13142.0,4969.0,8154.0,7516.0,1921.0,1310.0,638.0,85.0,54.0
294274,County,2020/04/02,19.0,IA,19059.0,Dickinson County,4226.0,12927.0,49712.0,13445.0,13159.0,4465.0,8271.0,6293.0,1949.0,1273.0,620.0,138.0,99.0
299034,County,2020/04/03,19.0,IA,19059.0,Dickinson County,4245.0,12908.0,47241.0,11572.0,12155.0,4749.0,8376.0,5574.0,2720.0,1101.0,847.0,90.0,57.0
302214,County,2020/04/04,19.0,IA,19059.0,Dickinson County,4527.0,12626.0,48270.0,11008.0,14156.0,6139.0,8729.0,5374.0,1538.0,655.0,511.0,82.0,78.0
303842,County,2020/04/05,19.0,IA,19059.0,Dickinson County,4616.0,12537.0,45070.0,12552.0,10950.0,5426.0,7358.0,6367.0,1125.0,503.0,561.0,157.0,71.0
307051,County,2020/04/06,19.0,IA,19059.0,Dickinson County,4402.0,12751.0,54401.0,14739.0,14185.0,6317.0,10411.0,5167.0,1899.0,1101.0,536.0,20.0,26.0
310244,County,2020/04/07,19.0,IA,19059.0,Dickinson County,4209.0,12944.0,52226.0,14792.0,13238.0,5705.0,9259.0,5342.0,2512.0,814.0,519.0,20.0,25.0
313438,County,2020/04/08,19.0,IA,19059.0,Dickinson County,4391.0,12762.0,51128.0,13242.0,11430.0,5940.0,9373.0,7556.0,2108.0,507.0,927.0,20.0,25.0
316607,County,2020/04/09,19.0,IA,19059.0,Dickinson County,4395.0,12758.0,53119.0,16737.0,12244.0,6508.0,8236.0,6143.0,1742.0,617.0,835.0,43.0,14.0
321343,County,2020/04/10,19.0,IA,19059.0,Dickinson County,4145.0,13008.0,54972.0,18104.0,12583.0,5818.0,8245.0,5880.0,2127.0,1450.0,648.0,57.0,60.0
323019,County,2020/04/11,19.0,IA,19059.0,Dickinson County,4112.0,13041.0,50905.0,15409.0,13397.0,5230.0,7759.0,5541.0,1937.0,816.0,738.0,55.0,23.0
327752,County,2020/04/12,19.0,IA,19059.0,Dickinson County,5504.0,11649.0,34144.0,9712.0,9283.0,3248.0,6517.0,2632.0,1482.0,625.0,564.0,28.0,53.0
329429,County,2020/04/13,19.0,IA,19059.0,Dickinson County,4564.0,12589.0,59744.0,22566.0,16388.0,5299.0,8151.0,4214.0,1636.0,946.0,461.0,68.0,15.0
332553,County,2020/04/14,19.0,IA,19059.0,Dickinson County,4247.0,12906.0,35462.0,8568.0,8975.0,3649.0,4825.0,5051.0,2098.0,1485.0,643.0,103.0,65.0
335779,County,2020/04/15,19.0,IA,19059.0,Dickinson County,4045.0,13108.0,39162.0,12678.0,9515.0,3335.0,3470.0,5293.0,2924.0,1139.0,764.0,44.0,0.0
338980,County,2020/04/16,19.0,IA,19059.0,Dickinson County,4396.0,12757.0,38827.0,13298.0,10064.0,2592.0,4316.0,4357.0,2923.0,498.0,728.0,51.0,0.0
342232,County,2020/04/17,19.0,IA,19059.0,Dickinson County,3926.0,13227.0,43231.0,9246.0,11734.0,5640.0,6586.0,4739.0,1914.0,1818.0,1499.0,0.0,55.0
346907,County,2020/04/18,19.0,IA,19059.0,Dickinson County,4570.0,12583.0,51053.0,18450.0,12185.0,3924.0,8817.0,5275.0,1179.0,804.0,294.0,125.0,0.0
350089,County,2020/04/19,19.0,IA,19059.0,Dickinson County,4639.0,12514.0,42457.0,12751.0,9114.0,5088.0,7058.0,4749.0,1487.0,1955.0,212.0,0.0,43.0
353339,County,2020/04/20,19.0,IA,19059.0,Dickinson County,3680.0,13473.0,46673.0,12412.0,10571.0,6350.0,7927.0,6144.0,1735.0,888.0,432.0,184.0,30.0
356525,County,2020/04/21,19.0,IA,19059.0,Dickinson County,4189.0,12964.0,64387.0,19633.0,14691.0,7016.0,10807.0,8039.0,2739.0,910.0,444.0,66.0,42.0
358154,County,2020/04/22,19.0,IA,19059.0,Dickinson County,4181.0,12972.0,67350.0,26337.0,14917.0,5259.0,10434.0,6944.0,2188.0,722.0,422.0,113.0,14.0
361259,County,2020/04/23,19.0,IA,19059.0,Dickinson County,3615.0,13538.0,64087.0,19909.0,16825.0,6495.0,8952.0,7868.0,2409.0,1102.0,474.0,40.0,13.0
364513,County,2020/04/24,19.0,IA,19059.0,Dickinson County,3838.0,13315.0,57579.0,16237.0,14209.0,7076.0,8834.0,6861.0,2805.0,897.0,582.0,19.0,59.0
367680,County,2020/04/25,19.0,IA,19059.0,Dickinson County,4075.0,13078.0,63433.0,20695.0,16894.0,6657.0,9661.0,5873.0,2564.0,512.0,499.0,40.0,38.0
372449,County,2020/04/26,19.0,IA,19059.0,Dickinson County,4599.0,12554.0,63709.0,21763.0,14325.0,8812.0,9779.0,5348.0,2116.0,941.0,550.0,0.0,75.0
375728,County,2020/04/27,19.0,IA,19059.0,Dickinson County,4155.0,12998.0,64375.0,20770.0,16752.0,6658.0,10972.0,5296.0,2469.0,819.0,598.0,0.0,41.0
377274,County,2020/04/28,19.0,IA,19059.0,Dickinson County,3944.0,13209.0,54942.0,11701.0,15507.0,6694.0,10773.0,6709.0,2243.0,682.0,544.0,77.0,12.0
382055,County,2020/04/29,19.0,IA,19059.0,Dickinson County,4052.0,13101.0,58414.0,16444.0,14385.0,8535.0,9590.0,6375.0,2138.0,510.0,355.0,68.0,14.0
385272,County,2020/04/30,19.0,IA,19059.0,Dickinson County,3941.0,13212.0,60746.0,17306.0,16059.0,6678.0,10365.0,7128.0,2374.0,624.0,169.0,43.0,0.0
388508,County,2020/05/01,19.0,IA,19059.0,Dickinson County,3845.0,13308.0,57591.0,17689.0,16729.0,5923.0,7395.0,6457.0,2226.0,554.0,599.0,19.0,0.0
390081,County,2020/05/02,19.0,IA,19059.0,Dickinson County,4243.0,12910.0,60295.0,14745.0,18414.0,6716.0,11337.0,6040.0,1777.0,582.0,602.0,68.0,14.0
393294,County,2020/05/03,19.0,IA,19059.0,Dickinson County,3917.0,13236.0,56871.0,18133.0,18077.0,4865.0,8368.0,4815.0,1381.0,831.0,283.0,52.0,66.0
398048,County,2020/05/04,19.0,IA,19059.0,Dickinson County,3949.0,13204.0,56701.0,16654.0,12918.0,5931.0,9801.0,7110.0,2557.0,805.0,849.0,63.0,13.0
401224,County,2020/05/05,19.0,IA,19059.0,Dickinson County,4046.0,13107.0,55083.0,13695.0,16125.0,5251.0,8896.0,7012.0,2467.0,1081.0,527.0,0.0,29.0
404430,County,2020/05/06,19.0,IA,19059.0,Dickinson County,4033.0,13120.0,63320.0,16502.0,17398.0,8016.0,10761.0,7533.0,1490.0,994.0,613.0,0.0,13.0
406057,County,2020/05/07,19.0,IA,19059.0,Dickinson County,4058.0,13095.0,57250.0,16084.0,15369.0,7196.0,8667.0,6260.0,2291.0,716.0,634.0,20.0,13.0
409313,County,2020/05/08,19.0,IA,19059.0,Dickinson County,3762.0,13391.0,63568.0,19787.0,14501.0,5534.0,11033.0,7634.0,3601.0,825.0,588.0,40.0,25.0
413984,County,2020/05/09,19.0,IA,19059.0,Dickinson County,4230.0,12923.0,49524.0,12327.0,13754.0,6427.0,7133.0,6451.0,2147.0,480.0,735.0,43.0,27.0
417164,County,2020/05/10,19.0,IA,19059.0,Dickinson County,4346.0,12807.0,45220.0,10176.0,12858.0,4716.0,8192.0,7151.0,1156.0,315.0,576.0,49.0,31.0
420443,County,2020/05/11,19.0,IA,19059.0,Dickinson County,3179.0,13974.0,67957.0,21742.0,16167.0,8100.0,11044.0,6269.0,2283.0,1516.0,679.0,141.0,16.0
422023,County,2020/05/12,19.0,IA,19059.0,Dickinson County,3279.0,13874.0,68345.0,22982.0,18824.0,6176.0,9971.0,6308.0,2201.0,1187.0,578.0,102.0,16.0
425179,County,2020/05/13,19.0,IA,19059.0,Dickinson County,3084.0,14069.0,63914.0,18661.0,15264.0,7668.0,9696.0,7848.0,3030.0,982.0,607.0,106.0,52.0
429988,County,2020/05/14,19.0,IA,19059.0,Dickinson County,2986.0,14167.0,72561.0,22365.0,19782.0,8256.0,9987.0,6851.0,2775.0,1340.0,1056.0,86.0,63.0
431617,County,2020/05/15,19.0,IA,19059.0,Dickinson County,3117.0,14036.0,68643.0,22379.0,14845.0,7839.0,11976.0,6414.0,2559.0,1427.0,1062.0,111.0,31.0
436366,County,2020/05/16,19.0,IA,19059.0,Dickinson County,3364.0,13789.0,62733.0,19215.0,17774.0,7625.0,8141.0,5700.0,2055.0,1334.0,729.0,88.0,72.0
437993,County,2020/05/17,19.0,IA,19059.0,Dickinson County,4211.0,12942.0,46350.0,11576.0,13190.0,4908.0,6894.0,6058.0,2191.0,825.0,517.0,74.0,117.0
441238,County,2020/05/18,19.0,IA,19059.0,Dickinson County,2940.0,14213.0,67256.0,19716.0,16892.0,6546.0,13133.0,6286.0,2811.0,1348.0,394.0,112.0,18.0
444392,County,2020/05/19,19.0,IA,19059.0,Dickinson County,3093.0,14060.0,67037.0,20409.0,14987.0,8898.0,9684.0,9585.0,1629.0,1228.0,555.0,27.0,35.0
447560,County,2020/05/20,19.0,IA,19059.0,Dickinson County,3121.0,14032.0,67089.0,19307.0,16100.0,7414.0,11220.0,8118.0,3040.0,1122.0,589.0,162.0,17.0
450730,County,2020/05/21,19.0,IA,19059.0,Dickinson County,2978.0,14175.0,73337.0,22339.0,18629.0,9227.0,10697.0,8769.0,2064.0,1013.0,494.0,105.0,0.0
453966,County,2020/05/22,19.0,IA,19059.0,Dickinson County,2594.0,14559.0,64588.0,17860.0,16862.0,7253.0,10745.0,7232.0,2035.0,1264.0,1267.0,70.0,0.0
457162,County,2020/05/23,19.0,IA,19059.0,Dickinson County,3202.0,13951.0,64773.0,19134.0,15728.0,9472.0,10672.0,6309.0,1736.0,888.0,779.0,55.0,0.0
460330,County,2020/05/24,19.0,IA,19059.0,Dickinson County,3319.0,13834.0,58793.0,19086.0,16978.0,8251.0,8630.0,3045.0,1173.0,878.0,658.0,60.0,34.0
463533,County,2020/05/25,19.0,IA,19059.0,Dickinson County,3055.0,14098.0,49292.0,15305.0,12663.0,5831.0,6056.0,3675.0,1873.0,2017.0,1727.0,121.0,24.0
468364,County,2020/05/26,19.0,IA,19059.0,Dickinson County,3042.0,14111.0,57898.0,16906.0,14612.0,6335.0,9251.0,6422.0,1835.0,1362.0,1012.0,132.0,31.0
469943,County,2020/05/27,19.0,IA,19059.0,Dickinson County,2865.0,14288.0,71282.0,22397.0,18859.0,7895.0,10823.0,6878.0,2350.0,1238.0,760.0,62.0,20.0
474606,County,2020/05/28,19.0,IA,19059.0,Dickinson County,3051.0,14102.0,71640.0,21541.0,18701.0,8460.0,11548.0,6366.0,2586.0,1553.0,792.0,83.0,10.0
476284,County,2020/05/29,19.0,IA,19059.0,Dickinson County,3365.0,13788.0,70655.0,21508.0,18964.0,7149.0,10629.0,7154.0,2781.0,1408.0,928.0,112.0,22.0
479471,County,2020/05/30,19.0,IA,19059.0,Dickinson County,3384.0,13769.0,68670.0,21007.0,19984.0,9079.0,9284.0,5122.0,2307.0,964.0,858.0,52.0,13.0
484237,County,2020/05/31,19.0,IA,19059.0,Dickinson County,3373.0,13780.0,60289.0,19883.0,15044.0,6838.0,7638.0,5962.0,1623.0,2134.0,1040.0,111.0,16.0
485866,County,2020/06/01,19.0,IA,19059.0,Dickinson County,2843.0,14310.0,69118.0,21456.0,17893.0,8608.0,10023.0,7372.0,1586.0,1304.0,697.0,129.0,50.0
490646,County,2020/06/02,19.0,IA,19059.0,Dickinson County,2862.0,14291.0,74040.0,23627.0,18688.0,8720.0,11497.0,6677.0,2695.0,1065.0,946.0,88.0,37.0
493869,County,2020/06/03,19.0,IA,19059.0,Dickinson County,2555.0,14598.0,87905.0,32728.0,22576.0,9512.0,11370.0,6802.0,2677.0,1244.0,879.0,68.0,49.0
497050,County,2020/06/04,19.0,IA,19059.0,Dickinson County,2478.0,14675.0,85390.0,30024.0,21520.0,8114.0,12464.0,7353.0,2601.0,2262.0,983.0,57.0,12.0
498690,County,2020/06/05,19.0,IA,19059.0,Dickinson County,2505.0,14648.0,85180.0,28432.0,23263.0,8771.0,11824.0,7266.0,2940.0,1551.0,1049.0,59.0,25.0
501837,County,2020/06/06,19.0,IA,19059.0,Dickinson County,3241.0,13912.0,65231.0,16575.0,16919.0,8595.0,11061.0,7980.0,1914.0,1142.0,954.0,51.0,40.0
505029,County,2020/06/07,19.0,IA,19059.0,Dickinson County,3253.0,13900.0,54335.0,13030.0,15242.0,8563.0,8414.0,4735.0,1869.0,1571.0,827.0,67.0,17.0
509825,County,2020/06/08,19.0,IA,19059.0,Dickinson County,2681.0,14472.0,74793.0,23943.0,19883.0,8942.0,10899.0,6326.0,2391.0,1413.0,847.0,127.0,22.0
511454,County,2020/06/09,19.0,IA,19059.0,Dickinson County,3063.0,14090.0,68072.0,19561.0,18905.0,7543.0,10257.0,7171.0,2262.0,1524.0,756.0,34.0,59.0
516235,County,2020/06/10,19.0,IA,19059.0,Dickinson County,3113.0,14040.0,69807.0,19931.0,18567.0,8050.0,9902.0,8364.0,2832.0,1280.0,772.0,67.0,42.0
517864,County,2020/06/11,19.0,IA,19059.0,Dickinson County,2970.0,14183.0,77926.0,22859.0,21449.0,8825.0,11210.0,7513.0,2996.0,1755.0,1174.0,121.0,24.0
522615,County,2020/06/12,19.0,IA,19059.0,Dickinson County,3009.0,14144.0,72740.0,20029.0,21501.0,8254.0,10943.0,7002.0,2452.0,1541.0,898.0,66.0,54.0
525802,County,2020/06/13,19.0,IA,19059.0,Dickinson County,3379.0,13774.0,73965.0,23717.0,19112.0,8087.0,11717.0,7595.0,1918.0,1130.0,615.0,41.0,33.0
529005,County,2020/06/14,19.0,IA,19059.0,Dickinson County,3688.0,13465.0,53564.0,16487.0,13771.0,6443.0,7668.0,4971.0,1416.0,1274.0,1383.0,99.0,52.0
532196,County,2020/06/15,19.0,IA,19059.0,Dickinson County,3401.0,13752.0,63321.0,19140.0,16576.0,6848.0,9463.0,6677.0,1982.0,1548.0,960.0,88.0,39.0
535367,County,2020/06/16,19.0,IA,19059.0,Dickinson County,3363.0,13790.0,71758.0,23185.0,19911.0,6921.0,10693.0,6875.0,2270.0,764.0,1031.0,73.0,35.0
538535,County,2020/06/17,19.0,IA,19059.0,Dickinson County,3407.0,13746.0,70290.0,25993.0,18178.0,5930.0,9572.0,5839.0,2271.0,1277.0,1146.0,72.0,12.0
541730,County,2020/06/18,19.0,IA,19059.0,Dickinson County,2897.0,14256.0,63331.0,20479.0,17182.0,5526.0,9247.0,5601.0,2205.0,1576.0,1397.0,75.0,43.0
544931,County,2020/06/19,19.0,IA,19059.0,Dickinson County,3311.0,13842.0,64489.0,21203.0,17063.0,7019.0,8808.0,6017.0,1998.0,1226.0,982.0,119.0,54.0
548166,County,2020/06/20,19.0,IA,19059.0,Dickinson County,3346.0,13807.0,58429.0,15823.0,17724.0,7542.0,8195.0,5135.0,1785.0,886.0,1203.0,109.0,27.0
549766,County,2020/06/21,19.0,IA,19059.0,Dickinson County,3567.0,13586.0,46434.0,12956.0,13494.0,5714.0,6726.0,2881.0,1423.0,1882.0,1247.0,86.0,25.0
554546,County,2020/06/22,19.0,IA,19059.0,Dickinson County,3287.0,13866.0,58413.0,18181.0,15248.0,6270.0,9004.0,4968.0,2002.0,1573.0,1034.0,93.0,40.0
556174,County,2020/06/23,19.0,IA,19059.0,Dickinson County,3177.0,13976.0,70826.0,22822.0,19080.0,8245.0,9926.0,6372.0,2158.0,1103.0,992.0,106.0,22.0
560942,County,2020/06/24,19.0,IA,19059.0,Dickinson County,3391.0,13762.0,59580.0,16617.0,14871.0,6697.0,11234.0,5803.0,2045.0,1314.0,888.0,84.0,27.0
564070,County,2020/06/25,19.0,IA,19059.0,Dickinson County,3271.0,13882.0,59470.0,17004.0,16553.0,6902.0,8374.0,6361.0,1904.0,1198.0,990.0,133.0,51.0
565776,County,2020/06/26,19.0,IA,19059.0,Dickinson County,3595.0,13558.0,60813.0,17526.0,16877.0,7622.0,9010.0,5441.0,2053.0,1270.0,859.0,129.0,26.0
568946,County,2020/06/27,19.0,IA,19059.0,Dickinson County,3411.0,13742.0,67593.0,20299.0,20977.0,8269.0,9410.0,5319.0,1623.0,872.0,726.0,70.0,28.0
573707,County,2020/06/28,19.0,IA,19059.0,Dickinson County,2920.0,14233.0,56812.0,17399.0,14339.0,7327.0,8290.0,3683.0,2115.0,1936.0,1593.0,110.0,20.0
576879,County,2020/06/29,19.0,IA,19059.0,Dickinson County,2923.0,14230.0,70702.0,23399.0,17346.0,8232.0,10181.0,6428.0,2247.0,1701.0,1047.0,56.0,65.0
578522,County,2020/06/30,19.0,IA,19059.0,Dickinson County,3119.0,14034.0,69431.0,20808.0,19565.0,7940.0,9339.0,5969.0,3141.0,1638.0,861.0,100.0,70.0
581728,County,2020/07/01,19.0,IA,19059.0,Dickinson County,2810.0,14343.0,69471.0,22019.0,18573.0,7737.0,9902.0,6240.0,2338.0,1644.0,932.0,56.0,30.0
584920,County,2020/07/02,19.0,IA,19059.0,Dickinson County,3434.0,13719.0,63122.0,18048.0,17569.0,7326.0,8888.0,6752.0,2021.0,1272.0,1051.0,141.0,54.0
588097,County,2020/07/03,19.0,IA,19059.0,Dickinson County,3641.0,13512.0,60469.0,17427.0,16782.0,7579.0,8959.0,5410.0,2041.0,1263.0,854.0,128.0,26.0
591307,County,2020/07/04,19.0,IA,19059.0,Dickinson County,3995.0,13158.0,51733.0,14909.0,14357.0,6484.0,7665.0,4629.0,1746.0,1080.0,731.0,110.0,22.0
596053,County,2020/07/05,19.0,IA,19059.0,Dickinson County,3458.0,13695.0,56567.0,15256.0,16230.0,7612.0,8697.0,4264.0,1681.0,1752.0,854.0,103.0,118.0
598353,County,2020/07/06,19.0,IA,19059.0,Dickinson County,3196.0,13957.0,86282.0,43045.0,18951.0,6684.0,7463.0,5046.0,2063.0,1796.0,1038.0,150.0,46.0
602844,County,2020/07/07,19.0,IA,19059.0,Dickinson County,3210.0,13943.0,62700.0,17909.0,17374.0,7318.0,9548.0,5494.0,2097.0,1775.0,988.0,115.0,82.0
604040,County,2020/07/08,19.0,IA,19059.0,Dickinson County,3175.0,13978.0,61838.0,17462.0,16228.0,7686.0,9847.0,5781.0,2142.0,1482.0,1067.0,90.0,53.0
607285,County,2020/07/09,19.0,IA,19059.0,Dickinson County,3058.0,14095.0,60661.0,19454.0,14355.0,7028.0,9191.0,5601.0,2390.0,1393.0,1149.0,87.0,13.0
612067,County,2020/07/10,19.0,IA,19059.0,Dickinson County,3127.0,14026.0,67901.0,20602.0,17795.0,7837.0,11533.0,5108.0,2486.0,1328.0,1094.0,64.0,54.0
615234,County,2020/07/11,19.0,IA,19059.0,Dickinson County,3200.0,13953.0,63551.0,20300.0,16525.0,8074.0,9143.0,5422.0,1669.0,1246.0,1023.0,94.0,55.0
618420,County,2020/07/12,19.0,IA,19059.0,Dickinson County,3426.0,13727.0,59087.0,17501.0,13623.0,8164.0,9716.0,4905.0,1864.0,1642.0,1471.0,137.0,64.0
620057,County,2020/07/13,19.0,IA,19059.0,Dickinson County,3373.0,13780.0,62864.0,20136.0,16832.0,6302.0,9766.0,5429.0,1619.0,1655.0,996.0,61.0,68.0
623257,County,2020/07/14,19.0,IA,19059.0,Dickinson County,3284.0,13869.0,59883.0,18961.0,15086.0,6299.0,9841.0,5239.0,2404.0,1068.0,859.0,101.0,25.0
626330,County,2020/07/15,19.0,IA,19059.0,Dickinson County,3278.0,13875.0,67378.0,21644.0,17165.0,7562.0,9933.0,5963.0,2505.0,1625.0,778.0,137.0,66.0
631260,County,2020/07/16,19.0,IA,19059.0,Dickinson County,3290.0,13863.0,70785.0,22521.0,17721.0,7330.0,11372.0,6159.0,2728.0,1641.0,1093.0,171.0,49.0
632821,County,2020/07/17,19.0,IA,19059.0,Dickinson County,3383.0,13770.0,58548.0,16969.0,15500.0,6047.0,9416.0,5338.0,2273.0,1749.0,1132.0,114.0,10.0
637607,County,2020/07/18,19.0,IA,19059.0,Dickinson County,3750.0,13403.0,58076.0,16913.0,15934.0,6933.0,9360.0,5080.0,1727.0,960.0,1057.0,87.0,25.0
640760,County,2020/07/19,19.0,IA,19059.0,Dickinson County,3719.0,13434.0,50815.0,15884.0,11264.0,6339.0,7914.0,4571.0,1353.0,1865.0,1480.0,103.0,42.0
643969,County,2020/07/20,19.0,IA,19059.0,Dickinson County,3374.0,13779.0,69499.0,22763.0,17295.0,7492.0,10502.0,7034.0,2171.0,1351.0,752.0,120.0,19.0
645597,County,2020/07/21,19.0,IA,19059.0,Dickinson County,3188.0,13965.0,65155.0,18147.0,17762.0,8612.0,10088.0,6758.0,1568.0,1254.0,767.0,164.0,35.0
650326,County,2020/07/22,19.0,IA,19059.0,Dickinson County,2811.0,14342.0,71595.0,23594.0,18784.0,9114.0,9625.0,6104.0,2112.0,1132.0,911.0,156.0,63.0
651916,County,2020/07/23,19.0,IA,19059.0,Dickinson County,3065.0,14088.0,63619.0,18985.0,17563.0,7387.0,9222.0,5603.0,2391.0,1235.0,1089.0,66.0,78.0
656745,County,2020/07/24,19.0,IA,19059.0,Dickinson County,2833.0,14320.0,70837.0,21454.0,18906.0,9060.0,9377.0,6792.0,2481.0,1605.0,1022.0,89.0,51.0
660011,County,2020/07/25,19.0,IA,19059.0,Dickinson County,3321.0,13832.0,66005.0,20830.0,18303.0,7285.0,8953.0,6090.0,1589.0,1770.0,919.0,208.0,58.0
663090,County,2020/07/26,19.0,IA,19059.0,Dickinson County,3084.0,14069.0,60877.0,18601.0,16651.0,7336.0,7382.0,4692.0,2222.0,2216.0,1504.0,211.0,62.0
666363,County,2020/07/27,19.0,IA,19059.0,Dickinson County,3182.0,13971.0,74273.0,24730.0,18400.0,8074.0,11006.0,6853.0,2291.0,1615.0,1065.0,138.0,101.0
667944,County,2020/07/28,19.0,IA,19059.0,Dickinson County,2937.0,14216.0,79280.0,26218.0,21923.0,8396.0,11162.0,7330.0,2131.0,950.0,993.0,122.0,55.0
671150,County,2020/07/29,19.0,IA,19059.0,Dickinson County,2994.0,14159.0,77815.0,27007.0,19581.0,8744.0,10381.0,7019.0,2318.0,1530.0,1067.0,103.0,65.0
675910,County,2020/07/30,19.0,IA,19059.0,Dickinson County,2788.0,14365.0,75853.0,24029.0,21467.0,7647.0,10974.0,6275.0,2230.0,1758.0,1191.0,162.0,120.0
679138,County,2020/07/31,19.0,IA,19059.0,Dickinson County,3301.0,13852.0,71049.0,22586.0,17665.0,7852.0,10063.0,6878.0,2436.0,1948.0,1354.0,179.0,88.0
682259,County,2020/08/01,19.0,IA,19059.0,Dickinson County,3565.0,13588.0,64382.0,20263.0,17614.0,7189.0,8401.0,5693.0,1905.0,1593.0,1484.0,177.0,63.0
685499,County,2020/08/02,19.0,IA,19059.0,Dickinson County,3259.0,13894.0,59085.0,18144.0,15718.0,6992.0,7537.0,4488.0,2481.0,1603.0,1854.0,208.0,60.0
688702,County,2020/08/03,19.0,IA,19059.0,Dickinson County,3100.0,14053.0,72254.0,24826.0,18548.0,7039.0,9354.0,6982.0,2867.0,1222.0,1241.0,120.0,55.0
690330,County,2020/08/04,19.0,IA,19059.0,Dickinson County,2939.0,14214.0,80780.0,24746.0,23883.0,9450.0,11546.0,6612.0,2195.0,1466.0,789.0,68.0,25.0
693493,County,2020/08/05,19.0,IA,19059.0,Dickinson County,2925.0,14228.0,73087.0,23247.0,18981.0,8261.0,10952.0,6479.0,2750.0,1390.0,913.0,84.0,30.0
696699,County,2020/08/06,19.0,IA,19059.0,Dickinson County,2854.0,14299.0,70979.0,21528.0,19805.0,8419.0,10008.0,6213.0,2476.0,1407.0,987.0,97.0,39.0
699911,County,2020/08/07,19.0,IA,19059.0,Dickinson County,2865.0,14288.0,73181.0,24473.0,18525.0,8193.0,10278.0,6082.0,2750.0,1620.0,1117.0,124.0,19.0
704672,County,2020/08/08,19.0,IA,19059.0,Dickinson County,2866.0,14287.0,72607.0,23451.0,20748.0,8039.0,9634.0,6111.0,2065.0,1521.0,908.0,87.0,43.0
706299,County,2020/08/09,19.0,IA,19059.0,Dickinson County,3425.0,13728.0,60627.0,19219.0,16326.0,7152.0,7433.0,4766.0,1562.0,2302.0,1689.0,118.0,60.0
711060,County,2020/08/10,19.0,IA,19059.0,Dickinson County,3313.0,13840.0,68557.0,23286.0,17779.0,7173.0,9179.0,5908.0,2022.0,2095.0,1075.0,35.0,5.0
714301,County,2020/08/11,19.0,IA,19059.0,Dickinson County,3344.0,13809.0,76092.0,21246.0,22243.0,8824.0,10911.0,7522.0,2615.0,1859.0,778.0,81.0,13.0
717350,County,2020/08/12,19.0,IA,19059.0,Dickinson County,3089.0,14064.0,65010.0,20185.0,16713.0,6889.0,10527.0,6150.0,2266.0,1048.0,1021.0,129.0,82.0
719076,County,2020/08/13,19.0,IA,19059.0,Dickinson County,2918.0,14235.0,71094.0,20640.0,18070.0,8349.0,11425.0,7230.0,2192.0,1653.0,1270.0,148.0,117.0
723820,County,2020/08/14,19.0,IA,19059.0,Dickinson County,2819.0,14334.0,72282.0,19601.0,19153.0,8371.0,11962.0,7232.0,2805.0,1602.0,1246.0,218.0,92.0
727031,County,2020/08/15,19.0,IA,19059.0,Dickinson County,2925.0,14228.0,76936.0,24926.0,19312.0,10460.0,11290.0,5763.0,2390.0,1414.0,1062.0,202.0,117.0
730223,County,2020/08/16,19.0,IA,19059.0,Dickinson County,3084.0,14069.0,71151.0,21363.0,16272.0,8490.0,11783.0,6471.0,2404.0,2064.0,1864.0,199.0,241.0
731852,County,2020/08/17,19.0,IA,19059.0,Dickinson County,2926.0,14227.0,69627.0,18653.0,18504.0,8728.0,10496.0,6963.0,3039.0,1508.0,1245.0,259.0,232.0
735018,County,2020/08/18,19.0,IA,19059.0,Dickinson County,3155.0,13998.0,68675.0,18774.0,16640.0,8069.0,11361.0,8120.0,2574.0,1586.0,1229.0,158.0,164.0
738224,County,2020/08/19,19.0,IA,19059.0,Dickinson County,3056.0,14097.0,71249.0,20744.0,18064.0,8363.0,11274.0,6691.0,3176.0,1299.0,1299.0,170.0,169.0
743005,County,2020/08/20,19.0,IA,19059.0,Dickinson County,3030.0,14123.0,71003.0,21529.0,18640.0,6986.0,11923.0,7022.0,2460.0,1053.0,977.0,244.0,169.0
746211,County,2020/08/21,19.0,IA,19059.0,Dickinson County,2556.0,14597.0,77222.0,22987.0,20560.0,8128.0,11397.0,7846.0,3415.0,1474.0,1109.0,160.0,146.0
749367,County,2020/08/22,19.0,IA,19059.0,Dickinson County,3085.0,14068.0,76133.0,24282.0,20130.0,10046.0,10105.0,6321.0,2326.0,1573.0,1052.0,103.0,195.0
752535,County,2020/08/23,19.0,IA,19059.0,Dickinson County,3175.0,13978.0,59133.0,16617.0,16424.0,7778.0,8309.0,4649.0,1688.0,1879.0,1562.0,86.0,141.0
754207,County,2020/08/24,19.0,IA,19059.0,Dickinson County,3470.0,13683.0,63822.0,20166.0,15384.0,7191.0,10409.0,5876.0,2346.0,1124.0,1110.0,114.0,102.0
758967,County,2020/08/25,19.0,IA,19059.0,Dickinson County,3313.0,13840.0,67336.0,19592.0,17813.0,8135.0,10464.0,6594.0,2502.0,947.0,1062.0,108.0,119.0
760599,County,2020/08/26,19.0,IA,19059.0,Dickinson County,3150.0,14003.0,66834.0,19702.0,17660.0,8094.0,11006.0,5825.0,2320.0,1047.0,945.0,125.0,110.0
763755,County,2020/08/27,19.0,IA,19059.0,Dickinson County,3294.0,13859.0,73085.0,23465.0,20414.0,7473.0,10223.0,6313.0,2510.0,1375.0,1072.0,143.0,97.0
768538,County,2020/08/28,19.0,IA,19059.0,Dickinson County,3124.0,14029.0,67996.0,20702.0,17160.0,7843.0,10193.0,6590.0,2385.0,1671.0,1241.0,103.0,108.0
770166,County,2020/08/29,19.0,IA,19059.0,Dickinson County,3241.0,13912.0,67806.0,20529.0,18800.0,8516.0,10041.0,5241.0,2425.0,1057.0,983.0,135.0,79.0
773373,County,2020/08/30,19.0,IA,19059.0,Dickinson County,3250.0,13903.0,58778.0,17051.0,15003.0,8614.0,7841.0,4184.0,2462.0,1690.0,1680.0,151.0,102.0
776566,County,2020/08/31,19.0,IA,19059.0,Dickinson County,3225.0,13928.0,63587.0,20674.0,14871.0,7127.0,9369.0,5637.0,2615.0,1965.0,1067.0,141.0,121.0
779708,County,2020/09/01,19.0,IA,19059.0,Dickinson County,3120.0,14033.0,77881.0,23049.0,21618.0,8383.0,12305.0,7237.0,2735.0,1487.0,845.0,165.0,57.0
783740,County,2020/09/02,19.0,IA,19059.0,Dickinson County,3161.0,13992.0,77338.0,26507.0,19897.0,8872.0,10252.0,6623.0,2270.0,1669.0,937.0,181.0,130.0
787691,County,2020/09/03,19.0,IA,19059.0,Dickinson County,2933.0,14220.0,75566.0,24187.0,17867.0,8512.0,12153.0,7330.0,2755.0,1555.0,947.0,151.0,109.0
789306,County,2020/09/04,19.0,IA,19059.0,Dickinson County,3268.0,13885.0,74651.0,25157.0,17809.0,8871.0,9544.0,7137.0,2837.0,1777.0,1202.0,238.0,79.0
794073,County,2020/09/05,19.0,IA,19059.0,Dickinson County,3551.0,13602.0,80111.0,25037.0,21336.0,10610.0,12568.0,5514.0,1818.0,2048.0,998.0,130.0,52.0
795725,County,2020/09/06,19.0,IA,19059.0,Dickinson County,3783.0,13370.0,63338.0,20460.0,16380.0,8110.0,9008.0,5060.0,1882.0,1284.0,893.0,143.0,118.0
800490,County,2020/09/07,19.0,IA,19059.0,Dickinson County,3844.0,13309.0,53803.0,17224.0,13676.0,6055.0,6961.0,4635.0,1938.0,1475.0,1571.0,158.0,110.0
802098,County,2020/09/08,19.0,IA,19059.0,Dickinson County,3169.0,13984.0,62600.0,16788.0,16285.0,6428.0,9776.0,7790.0,2548.0,1796.0,919.0,187.0,83.0
806879,County,2020/09/09,19.0,IA,19059.0,Dickinson County,3255.0,13898.0,68324.0,19156.0,19329.0,6867.0,9726.0,7862.0,2958.0,1389.0,827.0,125.0,85.0
808506,County,2020/09/10,19.0,IA,19059.0,Dickinson County,3179.0,13974.0,69602.0,20116.0,18223.0,8410.0,10599.0,7168.0,2920.0,1108.0,824.0,173.0,61.0
813267,County,2020/09/11,19.0,IA,19059.0,Dickinson County,2753.0,14400.0,73144.0,21746.0,17587.0,7418.0,10903.0,8259.0,3818.0,1910.0,1232.0,210.0,61.0
814847,County,2020/09/12,19.0,IA,19059.0,Dickinson County,3563.0,13590.0,64704.0,19752.0,17251.0,6784.0,9276.0,6398.0,2393.0,1773.0,830.0,177.0,70.0
818069,County,2020/09/13,19.0,IA,19059.0,Dickinson County,4063.0,13090.0,55589.0,16021.0,14764.0,6289.0,7582.0,4738.0,2200.0,2250.0,1411.0,226.0,108.0
821274,County,2020/09/14,19.0,IA,19059.0,Dickinson County,3276.0,13877.0,67232.0,17338.0,17236.0,7135.0,12793.0,6807.0,3145.0,1485.0,1064.0,115.0,114.0
826043,County,2020/09/15,19.0,IA,19059.0,Dickinson County,3356.0,13797.0,81808.0,25757.0,23195.0,8032.0,10303.0,7997.0,3515.0,1903.0,948.0,66.0,92.0
827671,County,2020/09/16,19.0,IA,19059.0,Dickinson County,3486.0,13667.0,71571.0,23500.0,17481.0,6800.0,11007.0,7117.0,2902.0,1240.0,1187.0,152.0,185.0
832414,County,2020/09/17,19.0,IA,19059.0,Dickinson County,3497.0,13656.0,75362.0,23535.0,20465.0,7751.0,9823.0,7199.0,3154.0,2016.0,1201.0,112.0,106.0
834043,County,2020/09/18,19.0,IA,19059.0,Dickinson County,3333.0,13820.0,72722.0,22045.0,21563.0,6673.0,9730.0,7161.0,2023.0,1724.0,1533.0,202.0,68.0
838818,County,2020/09/19,19.0,IA,19059.0,Dickinson County,3739.0,13414.0,72141.0,21190.0,21583.0,7346.0,10632.0,6882.0,1759.0,1698.0,876.0,125.0,50.0
840447,County,2020/09/20,19.0,IA,19059.0,Dickinson County,3790.0,13363.0,53938.0,14893.0,14769.0,5509.0,7829.0,5466.0,2159.0,1487.0,1646.0,126.0,54.0
843609,County,2020/09/21,19.0,IA,19059.0,Dickinson County,3940.0,13213.0,65217.0,19749.0,17429.0,8078.0,8784.0,6021.0,2644.0,1552.0,878.0,62.0,20.0
846813,County,2020/09/22,19.0,IA,19059.0,Dickinson County,3558.0,13595.0,71193.0,21230.0,21687.0,6780.0,10474.0,6808.0,2851.0,883.0,430.0,41.0,9.0
851591,County,2020/09/23,19.0,IA,19059.0,Dickinson County,3474.0,13679.0,71580.0,21948.0,18745.0,7960.0,11897.0,6830.0,2444.0,1206.0,483.0,67.0,0.0
853219,County,2020/09/24,19.0,IA,19059.0,Dickinson County,3467.0,13686.0,72654.0,22529.0,19469.0,7661.0,10931.0,7309.0,2598.0,1240.0,863.0,28.0,26.0
857983,County,2020/09/25,19.0,IA,19059.0,Dickinson County,3096.0,14057.0,158813.0,96614.0,30935.0,8077.0,10353.0,7240.0,3198.0,1490.0,867.0,39.0,0.0
861129,County,2020/09/26,19.0,IA,19059.0,Dickinson County,3657.0,13496.0,70904.0,19309.0,22546.0,9733.0,9623.0,5159.0,2111.0,1406.0,930.0,47.0,40.0
862783,County,2020/09/27,19.0,IA,19059.0,Dickinson County,3808.0,13345.0,52631.0,14627.0,14936.0,5368.0,7913.0,4606.0,1717.0,1843.0,1454.0,123.0,44.0
865986,County,2020/09/28,19.0,IA,19059.0,Dickinson County,3519.0,13634.0,62203.0,18662.0,17483.0,6937.0,7910.0,6242.0,2997.0,1343.0,552.0,52.0,25.0
870758,County,2020/09/29,19.0,IA,19059.0,Dickinson County,3435.0,13718.0,63783.0,20259.0,16598.0,6580.0,8445.0,7389.0,2403.0,1371.0,636.0,74.0,28.0
872387,County,2020/09/30,19.0,IA,19059.0,Dickinson County,3254.0,13899.0,63157.0,20442.0,13611.0,7598.0,9824.0,6555.0,2549.0,1773.0,675.0,107.0,23.0
875552,County,2020/10/01,19.0,IA,19059.0,Dickinson County,3121.0,14032.0,66646.0,20348.0,19602.0,6379.0,8428.0,7026.0,1768.0,1856.0,1135.0,59.0,45.0
878755,County,2020/10/02,19.0,IA,19059.0,Dickinson County,3370.0,13783.0,64769.0,19592.0,19357.0,6201.0,8198.0,6349.0,2468.0,1562.0,933.0,73.0,36.0
883537,County,2020/10/03,19.0,IA,19059.0,Dickinson County,3673.0,13480.0,61961.0,16379.0,17644.0,6790.0,10124.0,6762.0,2268.0,1015.0,888.0,57.0,34.0
886907,County,2020/10/04,19.0,IA,19059.0,Dickinson County,3710.0,13443.0,52747.0,14064.0,12675.0,5806.0,8873.0,5752.0,2012.0,2292.0,1127.0,115.0,31.0
888721,County,2020/10/05,19.0,IA,19059.0,Dickinson County,3765.0,13388.0,66290.0,19943.0,19235.0,6502.0,9340.0,6102.0,3117.0,1056.0,854.0,101.0,40.0
891898,County,2020/10/06,19.0,IA,19059.0,Dickinson County,3443.0,13710.0,69357.0,19446.0,19657.0,7868.0,10317.0,6446.0,3176.0,1545.0,827.0,43.0,32.0
895286,County,2020/10/07,19.0,IA,19059.0,Dickinson County,3308.0,13845.0,68228.0,18609.0,18236.0,7711.0,11216.0,7247.0,2627.0,1580.0,890.0,62.0,50.0
898272,County,2020/10/08,19.0,IA,19059.0,Dickinson County,3292.0,13861.0,166556.0,102411.0,37361.0,6980.0,9587.0,5275.0,2225.0,1468.0,920.0,113.0,216.0
901511,County,2020/10/09,19.0,IA,19059.0,Dickinson County,3381.0,13772.0,116922.0,67067.0,22689.0,6247.0,7538.0,6859.0,3042.0,2092.0,1117.0,153.0,118.0
904691,County,2020/10/10,19.0,IA,19059.0,Dickinson County,3717.0,13436.0,65382.0,19018.0,18786.0,6191.0,9142.0,7703.0,2721.0,974.0,779.0,44.0,24.0
907845,County,2020/10/11,19.0,IA,19059.0,Dickinson County,3800.0,13353.0,46357.0,12142.0,12204.0,5372.0,6712.0,5228.0,1565.0,1701.0,1282.0,135.0,16.0
912476,County,2020/10/12,19.0,IA,19059.0,Dickinson County,3604.0,13549.0,60575.0,16014.0,17682.0,6764.0,8982.0,5790.0,2933.0,1547.0,731.0,110.0,22.0
915912,County,2020/10/13,19.0,IA,19059.0,Dickinson County,3368.0,13785.0,62851.0,17017.0,17258.0,7129.0,9542.0,7395.0,2354.0,1358.0,721.0,40.0,37.0
919057,County,2020/10/14,19.0,IA,19059.0,Dickinson County,3189.0,13964.0,65187.0,19387.0,17537.0,6864.0,10704.0,5612.0,3148.0,1138.0,683.0,69.0,45.0
922242,County,2020/10/15,19.0,IA,19059.0,Dickinson County,3416.0,13737.0,59657.0,16408.0,19498.0,5875.0,7256.0,5505.0,2594.0,1600.0,813.0,53.0,55.0
925063,County,2020/10/16,19.0,IA,19059.0,Dickinson County,3364.0,13789.0,67800.0,20198.0,19089.0,7173.0,10155.0,5611.0,2430.0,1983.0,1027.0,81.0,53.0
928630,County,2020/10/17,19.0,IA,19059.0,Dickinson County,3665.0,13488.0,65981.0,20584.0,17036.0,7780.0,9346.0,6073.0,2338.0,1700.0,983.0,102.0,39.0
931698,County,2020/10/18,19.0,IA,19059.0,Dickinson County,3937.0,13216.0,47177.0,11122.0,14849.0,5825.0,6195.0,5027.0,1740.0,1202.0,1113.0,64.0,40.0
934558,County,2020/10/19,19.0,IA,19059.0,Dickinson County,3415.0,13738.0,63285.0,18275.0,17464.0,6518.0,9693.0,6131.0,2651.0,1535.0,903.0,83.0,32.0
938497,County,2020/10/20,19.0,IA,19059.0,Dickinson County,3308.0,13845.0,63584.0,17523.0,18391.0,6404.0,9212.0,7479.0,2349.0,1761.0,363.0,65.0,37.0
941366,County,2020/10/21,19.0,IA,19059.0,Dickinson County,3708.0,13445.0,58797.0,17209.0,14669.0,6784.0,8961.0,5739.0,2632.0,1788.0,903.0,73.0,39.0
945376,County,2020/10/22,19.0,IA,19059.0,Dickinson County,3174.0,13979.0,58724.0,16660.0,16235.0,7925.0,8759.0,5382.0,1848.0,949.0,878.0,51.0,37.0
948560,County,2020/10/23,19.0,IA,19059.0,Dickinson County,3151.0,14002.0,70401.0,20191.0,18692.0,8215.0,11361.0,6823.0,2729.0,1388.0,922.0,52.0,28.0
951043,County,2020/10/24,19.0,IA,19059.0,Dickinson County,3774.0,13379.0,68799.0,18886.0,19781.0,8844.0,9174.0,6870.0,2820.0,1522.0,836.0,47.0,19.0
