,Level,Date,State FIPS,State Postal Code,County FIPS,County Name,Population Staying at Home,Population Not Staying at Home,Number of Trips,Number of Trips <1,Number of Trips 1-3,Number of Trips 3-5,Number of Trips 5-10,Number of Trips 10-25,Number of Trips 25-50,Number of Trips 50-100,Number of Trips 100-250,Number of Trips 250-500,Number of Trips >=500
601,County,2020/01/01,17.0,IL,17013.0,Calhoun County,994.0,3808.0,21704.0,5761.0,5522.0,2411.0,2008.0,4275.0,1168.0,371.0,188.0,0.0,0.0
5983,County,2020/01/02,17.0,IL,17013.0,Calhoun County,744.0,4058.0,13731.0,2507.0,2679.0,1889.0,715.0,2815.0,1962.0,1164.0,0.0,0.0,0.0
8018,County,2020/01/03,17.0,IL,17013.0,Calhoun County,808.0,3994.0,21372.0,5914.0,3678.0,2576.0,2553.0,2541.0,2918.0,973.0,219.0,0.0,0.0
9908,County,2020/01/04,17.0,IL,17013.0,Calhoun County,857.0,3945.0,14022.0,842.0,2417.0,2238.0,3050.0,3572.0,1255.0,620.0,0.0,28.0,0.0
13377,County,2020/01/05,17.0,IL,17013.0,Calhoun County,748.0,4054.0,12643.0,1600.0,2916.0,1188.0,2565.0,2782.0,740.0,686.0,92.0,74.0,0.0
17891,County,2020/01/06,17.0,IL,17013.0,Calhoun County,744.0,4058.0,16903.0,3506.0,3503.0,1889.0,1574.0,2949.0,2485.0,873.0,98.0,26.0,0.0
21037,County,2020/01/07,17.0,IL,17013.0,Calhoun County,772.0,4030.0,17869.0,3911.0,3181.0,2228.0,966.0,4655.0,2019.0,702.0,95.0,0.0,112.0
22664,County,2020/01/08,17.0,IL,17013.0,Calhoun County,763.0,4039.0,15364.0,2103.0,2752.0,2056.0,2166.0,3103.0,2446.0,648.0,44.0,46.0,0.0
25859,County,2020/01/09,17.0,IL,17013.0,Calhoun County,843.0,3959.0,15685.0,2253.0,2900.0,1899.0,2444.0,3637.0,1577.0,877.0,98.0,0.0,0.0
30619,County,2020/01/10,17.0,IL,17013.0,Calhoun County,829.0,3973.0,17971.0,2065.0,4874.0,2207.0,2757.0,3053.0,1948.0,892.0,129.0,46.0,0.0
33863,County,2020/01/11,17.0,IL,17013.0,Calhoun County,906.0,3896.0,11607.0,1730.0,2319.0,1654.0,1288.0,3017.0,1325.0,164.0,110.0,0.0,0.0
36982,County,2020/01/12,17.0,IL,17013.0,Calhoun County,1103.0,3699.0,17220.0,2081.0,3832.0,2602.0,4212.0,2700.0,811.0,901.0,0.0,81.0,0.0
40230,County,2020/01/13,17.0,IL,17013.0,Calhoun County,808.0,3994.0,19613.0,2661.0,4286.0,1139.0,3752.0,3515.0,3075.0,1052.0,133.0,0.0,0.0
41856,County,2020/01/14,17.0,IL,17013.0,Calhoun County,842.0,3960.0,17993.0,4714.0,2413.0,2663.0,838.0,3662.0,2425.0,1135.0,143.0,0.0,0.0
45009,County,2020/01/15,17.0,IL,17013.0,Calhoun County,692.0,4110.0,18263.0,3316.0,4257.0,2168.0,2339.0,2653.0,2026.0,1377.0,127.0,0.0,0.0
49741,County,2020/01/16,17.0,IL,17013.0,Calhoun County,698.0,4104.0,16598.0,2613.0,2310.0,941.0,1925.0,4408.0,2933.0,1196.0,146.0,39.0,87.0
53028,County,2020/01/17,17.0,IL,17013.0,Calhoun County,889.0,3913.0,15641.0,2643.0,2815.0,2485.0,2866.0,2197.0,1548.0,795.0,268.0,24.0,0.0
56149,County,2020/01/18,17.0,IL,17013.0,Calhoun County,879.0,3923.0,16344.0,2702.0,3495.0,1335.0,3943.0,2700.0,1109.0,925.0,52.0,83.0,0.0
59396,County,2020/01/19,17.0,IL,17013.0,Calhoun County,987.0,3815.0,17534.0,3209.0,6350.0,1677.0,3102.0,1836.0,1194.0,166.0,0.0,0.0,0.0
62559,County,2020/01/20,17.0,IL,17013.0,Calhoun County,859.0,3943.0,17093.0,2886.0,3496.0,2249.0,2171.0,2872.0,2335.0,909.0,175.0,0.0,0.0
65758,County,2020/01/21,17.0,IL,17013.0,Calhoun County,776.0,4026.0,17876.0,3480.0,4634.0,726.0,2227.0,3130.0,2489.0,881.0,85.0,23.0,201.0
68949,County,2020/01/22,17.0,IL,17013.0,Calhoun County,768.0,4034.0,16971.0,4246.0,3725.0,1650.0,1686.0,2844.0,1850.0,571.0,308.0,0.0,91.0
70573,County,2020/01/23,17.0,IL,17013.0,Calhoun County,788.0,4014.0,14799.0,3454.0,2640.0,2185.0,1833.0,3005.0,1152.0,349.0,118.0,63.0,0.0
73770,County,2020/01/24,17.0,IL,17013.0,Calhoun County,730.0,4072.0,15379.0,1815.0,4042.0,1969.0,1830.0,3200.0,1673.0,744.0,84.0,22.0,0.0
76962,County,2020/01/25,17.0,IL,17013.0,Calhoun County,796.0,4006.0,14863.0,1580.0,3650.0,2153.0,2267.0,3123.0,1341.0,542.0,183.0,24.0,0.0
80451,County,2020/01/26,17.0,IL,17013.0,Calhoun County,946.0,3856.0,15661.0,3905.0,3133.0,2194.0,680.0,2802.0,2485.0,415.0,47.0,0.0,0.0
84641,County,2020/01/27,17.0,IL,17013.0,Calhoun County,763.0,4039.0,16407.0,3065.0,3119.0,2617.0,1656.0,1910.0,2912.0,907.0,175.0,46.0,0.0
86559,County,2020/01/28,17.0,IL,17013.0,Calhoun County,808.0,3994.0,18484.0,2401.0,5127.0,1801.0,2087.0,2760.0,3142.0,998.0,168.0,0.0,0.0
91292,County,2020/01/29,17.0,IL,17013.0,Calhoun County,777.0,4025.0,15295.0,2495.0,3559.0,2072.0,1765.0,1764.0,2581.0,957.0,81.0,21.0,0.0
94546,County,2020/01/30,17.0,IL,17013.0,Calhoun County,797.0,4005.0,15579.0,1757.0,4254.0,1625.0,1600.0,2998.0,2363.0,876.0,84.0,22.0,0.0
97692,County,2020/01/31,17.0,IL,17013.0,Calhoun County,777.0,4025.0,19027.0,3044.0,5254.0,2762.0,1647.0,2645.0,2904.0,478.0,81.0,21.0,191.0
100880,County,2020/02/01,17.0,IL,17013.0,Calhoun County,695.0,4107.0,16722.0,2636.0,3466.0,2086.0,2187.0,3689.0,1400.0,1112.0,37.0,20.0,89.0
102498,County,2020/02/02,17.0,IL,17013.0,Calhoun County,867.0,3935.0,17753.0,3652.0,4648.0,3278.0,2358.0,2558.0,908.0,126.0,0.0,23.0,202.0
105708,County,2020/02/03,17.0,IL,17013.0,Calhoun County,619.0,4183.0,18204.0,2527.0,3984.0,2664.0,2853.0,2430.0,2687.0,879.0,148.0,32.0,0.0
108902,County,2020/02/04,17.0,IL,17013.0,Calhoun County,781.0,4021.0,18006.0,2711.0,5584.0,1384.0,2200.0,3141.0,2395.0,426.0,108.0,57.0,0.0
113625,County,2020/02/05,17.0,IL,17013.0,Calhoun County,726.0,4076.0,16481.0,3213.0,4021.0,2194.0,1097.0,2802.0,2096.0,811.0,102.0,145.0,0.0
116831,County,2020/02/06,17.0,IL,17013.0,Calhoun County,747.0,4055.0,14950.0,2646.0,2930.0,1161.0,2260.0,3282.0,1860.0,460.0,310.0,41.0,0.0
120085,County,2020/02/07,17.0,IL,17013.0,Calhoun County,658.0,4144.0,18083.0,1969.0,2683.0,3188.0,2690.0,3683.0,2743.0,947.0,142.0,38.0,0.0
121704,County,2020/02/08,17.0,IL,17013.0,Calhoun County,718.0,4084.0,19090.0,2091.0,3807.0,3448.0,4307.0,3393.0,1611.0,299.0,134.0,0.0,0.0
127452,County,2020/02/09,17.0,IL,17013.0,Calhoun County,748.0,4054.0,19166.0,3170.0,4333.0,3133.0,2523.0,3546.0,1243.0,986.0,100.0,53.0,79.0
128910,County,2020/02/10,17.0,IL,17013.0,Calhoun County,624.0,4178.0,18786.0,2854.0,4232.0,2230.0,2735.0,3322.0,2223.0,1030.0,104.0,56.0,0.0
131556,County,2020/02/11,17.0,IL,17013.0,Calhoun County,515.0,4287.0,17933.0,2338.0,4409.0,1189.0,2520.0,4386.0,2139.0,733.0,154.0,65.0,0.0
134929,County,2020/02/12,17.0,IL,17013.0,Calhoun County,708.0,4094.0,17380.0,2974.0,2836.0,2201.0,2531.0,2634.0,3085.0,858.0,193.0,68.0,0.0
139261,County,2020/02/13,17.0,IL,17013.0,Calhoun County,560.0,4242.0,17868.0,2318.0,4285.0,2183.0,1983.0,3716.0,1632.0,1411.0,170.0,90.0,80.0
140745,County,2020/02/14,17.0,IL,17013.0,Calhoun County,650.0,4152.0,21935.0,3211.0,4019.0,3464.0,2146.0,6031.0,2355.0,436.0,147.0,39.0,87.0
145623,County,2020/02/15,17.0,IL,17013.0,Calhoun County,679.0,4123.0,21721.0,1507.0,5106.0,4162.0,3190.0,3764.0,2593.0,1201.0,81.0,21.0,96.0
147230,County,2020/02/16,17.0,IL,17013.0,Calhoun County,697.0,4105.0,16271.0,3015.0,3633.0,2354.0,1490.0,3437.0,1467.0,350.0,275.0,63.0,187.0
151992,County,2020/02/17,17.0,IL,17013.0,Calhoun County,976.0,3826.0,16845.0,2225.0,2994.0,3486.0,2178.0,2875.0,2353.0,503.0,34.0,36.0,161.0
155135,County,2020/02/18,17.0,IL,17013.0,Calhoun County,389.0,4413.0,16351.0,1652.0,3004.0,2922.0,2275.0,3641.0,1994.0,579.0,0.0,52.0,232.0
156813,County,2020/02/19,17.0,IL,17013.0,Calhoun County,628.0,4174.0,15763.0,1587.0,2257.0,2831.0,1929.0,3501.0,2755.0,736.0,124.0,43.0,0.0
161477,County,2020/02/20,17.0,IL,17013.0,Calhoun County,804.0,3998.0,16996.0,2133.0,3413.0,1464.0,1995.0,3505.0,2964.0,1141.0,257.0,23.0,101.0
164768,County,2020/02/21,17.0,IL,17013.0,Calhoun County,617.0,4185.0,19590.0,2822.0,5435.0,2181.0,2058.0,3000.0,2405.0,1046.0,353.0,104.0,186.0
167912,County,2020/02/22,17.0,IL,17013.0,Calhoun County,642.0,4160.0,17588.0,2363.0,3531.0,3218.0,2451.0,3143.0,2123.0,262.0,88.0,94.0,315.0
169573,County,2020/02/23,17.0,IL,17013.0,Calhoun County,710.0,4092.0,20448.0,2507.0,4872.0,3125.0,3382.0,4224.0,1488.0,509.0,171.0,68.0,102.0
172738,County,2020/02/24,17.0,IL,17013.0,Calhoun County,824.0,3978.0,15649.0,1828.0,2715.0,1778.0,2155.0,3659.0,2462.0,822.0,46.0,74.0,110.0
176712,County,2020/02/25,17.0,IL,17013.0,Calhoun County,735.0,4067.0,17392.0,2067.0,3014.0,2835.0,2093.0,3619.0,2501.0,1145.0,0.0,118.0,0.0
179465,County,2020/02/26,17.0,IL,17013.0,Calhoun County,607.0,4195.0,16694.0,1304.0,3801.0,3872.0,3226.0,1924.0,2413.0,0.0,100.0,54.0,0.0
183632,County,2020/02/27,17.0,IL,17013.0,Calhoun County,745.0,4057.0,19088.0,3587.0,4511.0,3255.0,2740.0,2812.0,955.0,796.0,90.0,24.0,318.0
187174,County,2020/02/28,17.0,IL,17013.0,Calhoun County,597.0,4205.0,15709.0,1464.0,3311.0,2840.0,2178.0,2720.0,1106.0,1722.0,83.0,88.0,197.0
190271,County,2020/02/29,17.0,IL,17013.0,Calhoun County,674.0,4128.0,18740.0,3605.0,2832.0,2884.0,2387.0,3552.0,2054.0,1142.0,144.0,26.0,114.0
191943,County,2020/03/01,17.0,IL,17013.0,Calhoun County,697.0,4105.0,13405.0,921.0,2915.0,2041.0,2530.0,3555.0,1041.0,129.0,44.0,23.0,206.0
196743,County,2020/03/02,17.0,IL,17013.0,Calhoun County,755.0,4047.0,18732.0,1390.0,4488.0,2177.0,2967.0,4169.0,2576.0,603.0,0.0,0.0,362.0
199803,County,2020/03/03,17.0,IL,17013.0,Calhoun County,677.0,4125.0,18453.0,1746.0,4240.0,997.0,3622.0,4243.0,3104.0,460.0,0.0,41.0,0.0
203058,County,2020/03/04,17.0,IL,17013.0,Calhoun County,664.0,4138.0,27833.0,5233.0,6670.0,2378.0,5093.0,4555.0,2328.0,1413.0,79.0,84.0,0.0
206309,County,2020/03/05,17.0,IL,17013.0,Calhoun County,686.0,4116.0,20358.0,4802.0,2991.0,2742.0,3115.0,3890.0,1518.0,1055.0,0.0,76.0,169.0
207791,County,2020/03/06,17.0,IL,17013.0,Calhoun County,564.0,4238.0,18147.0,2564.0,4085.0,2601.0,2659.0,2491.0,1945.0,1442.0,183.0,33.0,144.0
212755,County,2020/03/07,17.0,IL,17013.0,Calhoun County,672.0,4130.0,17619.0,1593.0,3575.0,3312.0,2707.0,4017.0,1650.0,688.0,77.0,0.0,0.0
214306,County,2020/03/08,17.0,IL,17013.0,Calhoun County,734.0,4068.0,21539.0,3431.0,2346.0,5078.0,2851.0,4959.0,1489.0,1242.0,69.0,74.0,0.0
219065,County,2020/03/09,17.0,IL,17013.0,Calhoun County,617.0,4185.0,18351.0,1145.0,3388.0,3187.0,3619.0,4577.0,1820.0,552.0,63.0,0.0,0.0
222259,County,2020/03/10,17.0,IL,17013.0,Calhoun County,598.0,4204.0,13341.0,1527.0,3167.0,1613.0,1649.0,2231.0,2011.0,931.0,63.0,0.0,149.0
223883,County,2020/03/11,17.0,IL,17013.0,Calhoun County,397.0,4405.0,35733.0,5765.0,7980.0,4341.0,4347.0,6257.0,4507.0,1842.0,486.0,178.0,30.0
228628,County,2020/03/12,17.0,IL,17013.0,Calhoun County,432.0,4370.0,33519.0,5248.0,7706.0,3927.0,4138.0,5886.0,4333.0,1547.0,470.0,213.0,51.0
231848,County,2020/03/13,17.0,IL,17013.0,Calhoun County,433.0,4369.0,31013.0,4681.0,7399.0,4107.0,3673.0,5690.0,3708.0,1169.0,312.0,142.0,132.0
234903,County,2020/03/14,17.0,IL,17013.0,Calhoun County,495.0,4307.0,26222.0,4125.0,5909.0,3460.0,3267.0,4759.0,3090.0,1038.0,270.0,145.0,159.0
236662,County,2020/03/15,17.0,IL,17013.0,Calhoun County,955.0,3847.0,13541.0,3312.0,2777.0,1415.0,1928.0,2709.0,1102.0,0.0,166.0,132.0,0.0
239856,County,2020/03/16,17.0,IL,17013.0,Calhoun County,673.0,4129.0,15411.0,2232.0,3297.0,2067.0,3346.0,2805.0,1127.0,537.0,0.0,0.0,0.0
244662,County,2020/03/17,17.0,IL,17013.0,Calhoun County,837.0,3965.0,14541.0,1675.0,2736.0,2477.0,2321.0,3360.0,1543.0,429.0,0.0,0.0,0.0
246243,County,2020/03/18,17.0,IL,17013.0,Calhoun County,817.0,3985.0,16687.0,2605.0,3726.0,2920.0,2587.0,1491.0,2547.0,607.0,204.0,0.0,0.0
251025,County,2020/03/19,17.0,IL,17013.0,Calhoun County,1137.0,3665.0,11588.0,1723.0,1522.0,1938.0,2113.0,1980.0,2173.0,0.0,91.0,48.0,0.0
252634,County,2020/03/20,17.0,IL,17013.0,Calhoun County,831.0,3971.0,20889.0,1863.0,2998.0,2284.0,2726.0,4709.0,4474.0,1643.0,169.0,23.0,0.0
255826,County,2020/03/21,17.0,IL,17013.0,Calhoun County,1109.0,3693.0,16508.0,1829.0,2798.0,1858.0,2217.0,3442.0,2952.0,1136.0,195.0,81.0,0.0
259012,County,2020/03/22,17.0,IL,17013.0,Calhoun County,962.0,3840.0,17937.0,2182.0,3062.0,2223.0,1937.0,3598.0,2960.0,1432.0,337.0,160.0,46.0
262217,County,2020/03/23,17.0,IL,17013.0,Calhoun County,921.0,3881.0,23132.0,2626.0,3560.0,2426.0,2568.0,4922.0,4490.0,1856.0,428.0,211.0,45.0
265369,County,2020/03/24,17.0,IL,17013.0,Calhoun County,901.0,3901.0,11743.0,979.0,2635.0,1193.0,1626.0,2666.0,1673.0,827.0,70.0,74.0,0.0
268603,County,2020/03/25,17.0,IL,17013.0,Calhoun County,982.0,3820.0,10900.0,2562.0,1319.0,1008.0,1831.0,1930.0,2093.0,0.0,157.0,0.0,0.0
271796,County,2020/03/26,17.0,IL,17013.0,Calhoun County,964.0,3838.0,13794.0,2655.0,2881.0,2054.0,1800.0,1874.0,2194.0,0.0,137.0,36.0,163.0
274983,County,2020/03/27,17.0,IL,17013.0,Calhoun County,986.0,3816.0,13739.0,3304.0,2005.0,2043.0,2386.0,2422.0,909.0,404.0,68.0,36.0,162.0
279744,County,2020/03/28,17.0,IL,17013.0,Calhoun County,1017.0,3785.0,13161.0,1568.0,2614.0,2995.0,2041.0,2337.0,1451.0,0.0,155.0,0.0,0.0
281379,County,2020/03/29,17.0,IL,17013.0,Calhoun County,1134.0,3668.0,10394.0,2348.0,2608.0,379.0,1810.0,1696.0,709.0,526.0,177.0,141.0,0.0
284572,County,2020/03/30,17.0,IL,17013.0,Calhoun County,1041.0,3761.0,10804.0,856.0,2165.0,1575.0,2576.0,1006.0,981.0,1091.0,515.0,39.0,0.0
287768,County,2020/03/31,17.0,IL,17013.0,Calhoun County,1128.0,3674.0,11317.0,635.0,3171.0,2423.0,2202.0,1547.0,1006.0,0.0,283.0,50.0,0.0
292526,County,2020/04/01,17.0,IL,17013.0,Calhoun County,1125.0,3677.0,14469.0,2622.0,4854.0,380.0,2592.0,2671.0,948.0,0.0,355.0,47.0,0.0
294155,County,2020/04/02,17.0,IL,17013.0,Calhoun County,1059.0,3743.0,14079.0,1506.0,5816.0,1646.0,449.0,3573.0,820.0,228.0,0.0,41.0,0.0
297349,County,2020/04/03,17.0,IL,17013.0,Calhoun County,992.0,3810.0,14483.0,1441.0,4784.0,3655.0,1245.0,2139.0,759.0,422.0,0.0,38.0,0.0
300542,County,2020/04/04,17.0,IL,17013.0,Calhoun County,1088.0,3714.0,11256.0,1636.0,3395.0,1921.0,1309.0,1717.0,479.0,799.0,0.0,0.0,0.0
305296,County,2020/04/05,17.0,IL,17013.0,Calhoun County,1205.0,3597.0,14724.0,1730.0,4554.0,3374.0,2012.0,2693.0,263.0,0.0,98.0,0.0,0.0
306932,County,2020/04/06,17.0,IL,17013.0,Calhoun County,976.0,3826.0,14408.0,2226.0,3775.0,2884.0,2839.0,1841.0,399.0,444.0,0.0,0.0,0.0
310125,County,2020/04/07,17.0,IL,17013.0,Calhoun County,1066.0,3736.0,14487.0,1845.0,3794.0,3865.0,2107.0,1727.0,963.0,0.0,90.0,96.0,0.0
313319,County,2020/04/08,17.0,IL,17013.0,Calhoun County,940.0,3862.0,14241.0,3012.0,4058.0,1181.0,1207.0,3017.0,1656.0,0.0,0.0,110.0,0.0
318078,County,2020/04/09,17.0,IL,17013.0,Calhoun County,757.0,4045.0,27051.0,4186.0,6214.0,3370.0,3439.0,5313.0,3198.0,1007.0,237.0,87.0,0.0
321273,County,2020/04/10,17.0,IL,17013.0,Calhoun County,673.0,4129.0,23275.0,3665.0,5871.0,3200.0,2954.0,4286.0,2316.0,697.0,182.0,61.0,43.0
324510,County,2020/04/11,17.0,IL,17013.0,Calhoun County,1077.0,3725.0,20269.0,3044.0,6431.0,3793.0,2115.0,3302.0,1504.0,0.0,80.0,0.0,0.0
326093,County,2020/04/12,17.0,IL,17013.0,Calhoun County,1226.0,3576.0,10086.0,1838.0,3612.0,409.0,1114.0,2349.0,764.0,0.0,0.0,0.0,0.0
329310,County,2020/04/13,17.0,IL,17013.0,Calhoun County,1033.0,3769.0,9901.0,572.0,3695.0,314.0,1069.0,2604.0,1173.0,435.0,0.0,39.0,0.0
334031,County,2020/04/14,17.0,IL,17013.0,Calhoun County,675.0,4127.0,31335.0,5229.0,6316.0,3428.0,4056.0,6267.0,3775.0,1579.0,388.0,297.0,0.0
337284,County,2020/04/15,17.0,IL,17013.0,Calhoun County,655.0,4147.0,29511.0,5192.0,5663.0,3568.0,3876.0,5921.0,3387.0,1281.0,345.0,278.0,0.0
338861,County,2020/04/16,17.0,IL,17013.0,Calhoun County,652.0,4150.0,28771.0,4528.0,5555.0,3189.0,3792.0,5807.0,3509.0,1572.0,488.0,203.0,128.0
342113,County,2020/04/17,17.0,IL,17013.0,Calhoun County,654.0,4148.0,29077.0,3871.0,5705.0,3220.0,3923.0,5734.0,3475.0,2293.0,486.0,208.0,162.0
346788,County,2020/04/18,17.0,IL,17013.0,Calhoun County,690.0,4112.0,26397.0,4095.0,5921.0,3006.0,3705.0,4685.0,2724.0,1657.0,366.0,185.0,53.0
348439,County,2020/04/19,17.0,IL,17013.0,Calhoun County,641.0,4161.0,27129.0,4747.0,6734.0,3025.0,3369.0,5438.0,2582.0,892.0,168.0,100.0,74.0
351646,County,2020/04/20,17.0,IL,17013.0,Calhoun County,574.0,4228.0,33492.0,5561.0,7600.0,3673.0,3874.0,6942.0,4033.0,1286.0,330.0,122.0,71.0
356406,County,2020/04/21,17.0,IL,17013.0,Calhoun County,776.0,4026.0,28170.0,5081.0,6099.0,3032.0,3509.0,5524.0,3310.0,1103.0,342.0,170.0,0.0
358035,County,2020/04/22,17.0,IL,17013.0,Calhoun County,1028.0,3774.0,12446.0,1719.0,3583.0,996.0,2035.0,2542.0,1447.0,0.0,0.0,124.0,0.0
361140,County,2020/04/23,17.0,IL,17013.0,Calhoun County,706.0,4096.0,28313.0,4205.0,5666.0,3092.0,4031.0,5677.0,3596.0,1546.0,358.0,124.0,18.0
366028,County,2020/04/24,17.0,IL,17013.0,Calhoun County,884.0,3918.0,13333.0,1418.0,3946.0,2297.0,1565.0,2383.0,1431.0,0.0,134.0,0.0,159.0
369184,County,2020/04/25,17.0,IL,17013.0,Calhoun County,830.0,3972.0,20607.0,3153.0,4278.0,2427.0,2990.0,4396.0,2175.0,918.0,153.0,117.0,0.0
370774,County,2020/04/26,17.0,IL,17013.0,Calhoun County,831.0,3971.0,18973.0,3143.0,4608.0,2515.0,2466.0,3532.0,1932.0,590.0,130.0,35.0,22.0
374004,County,2020/04/27,17.0,IL,17013.0,Calhoun County,788.0,4014.0,20656.0,3291.0,4523.0,2452.0,2878.0,3921.0,2424.0,926.0,179.0,62.0,0.0
378732,County,2020/04/28,17.0,IL,17013.0,Calhoun County,981.0,3821.0,11111.0,1978.0,2998.0,916.0,1041.0,1560.0,1522.0,1058.0,0.0,38.0,0.0
380407,County,2020/04/29,17.0,IL,17013.0,Calhoun County,1181.0,3621.0,12792.0,1452.0,4019.0,910.0,2480.0,3195.0,0.0,630.0,106.0,0.0,0.0
385153,County,2020/04/30,17.0,IL,17013.0,Calhoun County,1077.0,3725.0,22489.0,5080.0,4161.0,3083.0,4464.0,1476.0,3601.0,534.0,90.0,0.0,0.0
386779,County,2020/05/01,17.0,IL,17013.0,Calhoun County,637.0,4165.0,17438.0,2902.0,3516.0,1764.0,2272.0,3470.0,2247.0,1067.0,116.0,45.0,39.0
389962,County,2020/05/02,17.0,IL,17013.0,Calhoun County,708.0,4094.0,15963.0,2607.0,3434.0,1928.0,2020.0,2990.0,1924.0,792.0,180.0,47.0,41.0
394735,County,2020/05/03,17.0,IL,17013.0,Calhoun County,919.0,3883.0,12730.0,2386.0,3047.0,1552.0,1481.0,1982.0,1741.0,430.0,72.0,39.0,0.0
397929,County,2020/05/04,17.0,IL,17013.0,Calhoun County,994.0,3808.0,15225.0,1351.0,2629.0,2679.0,2282.0,2779.0,2503.0,696.0,78.0,42.0,186.0
399556,County,2020/05/05,17.0,IL,17013.0,Calhoun County,792.0,4010.0,28091.0,4444.0,5792.0,3129.0,3974.0,6035.0,3248.0,1188.0,172.0,88.0,21.0
402735,County,2020/05/06,17.0,IL,17013.0,Calhoun County,950.0,3852.0,10569.0,1497.0,2533.0,1613.0,220.0,2883.0,402.0,1341.0,0.0,80.0,0.0
405938,County,2020/05/07,17.0,IL,17013.0,Calhoun County,969.0,3833.0,11872.0,1873.0,1985.0,1348.0,1837.0,2152.0,1890.0,467.0,236.0,84.0,0.0
409194,County,2020/05/08,17.0,IL,17013.0,Calhoun County,678.0,4124.0,28231.0,4852.0,6251.0,3398.0,3544.0,5681.0,3248.0,1019.0,146.0,92.0,0.0
413865,County,2020/05/09,17.0,IL,17013.0,Calhoun County,747.0,4055.0,25314.0,4212.0,5797.0,3021.0,3531.0,5311.0,2541.0,711.0,128.0,40.0,22.0
415526,County,2020/05/10,17.0,IL,17013.0,Calhoun County,723.0,4079.0,28869.0,4829.0,6179.0,3445.0,3738.0,6323.0,3209.0,932.0,175.0,39.0,0.0
418720,County,2020/05/11,17.0,IL,17013.0,Calhoun County,778.0,4024.0,17041.0,2246.0,5128.0,2359.0,2641.0,2905.0,1365.0,117.0,0.0,0.0,280.0
421904,County,2020/05/12,17.0,IL,17013.0,Calhoun County,738.0,4064.0,19664.0,1675.0,4305.0,3736.0,3432.0,3734.0,2226.0,338.0,38.0,0.0,180.0
425060,County,2020/05/13,17.0,IL,17013.0,Calhoun County,837.0,3965.0,15121.0,2104.0,2567.0,2964.0,1901.0,3116.0,1846.0,483.0,0.0,43.0,97.0
428303,County,2020/05/14,17.0,IL,17013.0,Calhoun County,677.0,4125.0,14597.0,2538.0,2981.0,2025.0,2185.0,2693.0,1577.0,351.0,39.0,21.0,187.0
433043,County,2020/05/15,17.0,IL,17013.0,Calhoun County,732.0,4070.0,13597.0,2190.0,4455.0,2269.0,1309.0,1672.0,1196.0,484.0,0.0,22.0,0.0
434721,County,2020/05/16,17.0,IL,17013.0,Calhoun County,787.0,4015.0,18438.0,3826.0,4505.0,1589.0,1925.0,4508.0,880.0,1101.0,82.0,22.0,0.0
437874,County,2020/05/17,17.0,IL,17013.0,Calhoun County,678.0,4124.0,22946.0,3724.0,4980.0,2395.0,2912.0,4609.0,2945.0,984.0,242.0,96.0,59.0
441119,County,2020/05/18,17.0,IL,17013.0,Calhoun County,653.0,4149.0,30167.0,4494.0,6963.0,3188.0,3687.0,6280.0,3775.0,1269.0,316.0,117.0,78.0
444273,County,2020/05/19,17.0,IL,17013.0,Calhoun County,638.0,4164.0,31140.0,4677.0,6634.0,3448.0,3730.0,6335.0,4023.0,1702.0,394.0,140.0,57.0
449034,County,2020/05/20,17.0,IL,17013.0,Calhoun County,634.0,4168.0,33725.0,5113.0,7389.0,3761.0,4132.0,6619.0,4195.0,1976.0,372.0,130.0,38.0
450660,County,2020/05/21,17.0,IL,17013.0,Calhoun County,570.0,4232.0,36926.0,5631.0,7810.0,3918.0,4429.0,7122.0,5028.0,2310.0,472.0,168.0,38.0
453847,County,2020/05/22,17.0,IL,17013.0,Calhoun County,567.0,4235.0,36469.0,5823.0,8184.0,4506.0,4389.0,6444.0,4454.0,2030.0,443.0,140.0,56.0
457043,County,2020/05/23,17.0,IL,17013.0,Calhoun County,579.0,4223.0,30908.0,4945.0,7894.0,4174.0,4051.0,5168.0,3023.0,1188.0,279.0,90.0,96.0
461786,County,2020/05/24,17.0,IL,17013.0,Calhoun County,619.0,4183.0,16459.0,3537.0,3735.0,2283.0,2853.0,2592.0,1106.0,264.0,89.0,0.0,0.0
465088,County,2020/05/25,17.0,IL,17013.0,Calhoun County,842.0,3960.0,18593.0,3900.0,4310.0,2726.0,3096.0,2997.0,849.0,525.0,106.0,0.0,84.0
466567,County,2020/05/26,17.0,IL,17013.0,Calhoun County,490.0,4312.0,17994.0,2830.0,4082.0,1957.0,2500.0,3983.0,2134.0,339.0,86.0,15.0,68.0
469824,County,2020/05/27,17.0,IL,17013.0,Calhoun County,681.0,4121.0,20125.0,2866.0,6076.0,3171.0,2366.0,3181.0,1505.0,941.0,0.0,19.0,0.0
473020,County,2020/05/28,17.0,IL,17013.0,Calhoun County,610.0,4192.0,14814.0,1728.0,2584.0,3423.0,2063.0,3278.0,1312.0,365.0,61.0,0.0,0.0
477774,County,2020/05/29,17.0,IL,17013.0,Calhoun County,866.0,3936.0,19611.0,5835.0,3659.0,2308.0,1694.0,3967.0,1880.0,246.0,0.0,22.0,0.0
480974,County,2020/05/30,17.0,IL,17013.0,Calhoun County,624.0,4178.0,18040.0,3565.0,4534.0,1470.0,2718.0,4692.0,916.0,145.0,0.0,0.0,0.0
482528,County,2020/05/31,17.0,IL,17013.0,Calhoun County,840.0,3962.0,18149.0,4134.0,4275.0,2323.0,3165.0,2966.0,1085.0,201.0,0.0,0.0,0.0
487420,County,2020/06/01,17.0,IL,17013.0,Calhoun County,503.0,4299.0,22055.0,3256.0,5478.0,3600.0,4293.0,2528.0,2467.0,249.0,84.0,0.0,100.0
490527,County,2020/06/02,17.0,IL,17013.0,Calhoun County,808.0,3994.0,21099.0,6395.0,4852.0,1301.0,2482.0,3156.0,2431.0,361.0,121.0,0.0,0.0
492157,County,2020/06/03,17.0,IL,17013.0,Calhoun County,603.0,4199.0,22655.0,3748.0,6041.0,3517.0,3235.0,3592.0,1972.0,487.0,41.0,22.0,0.0
495367,County,2020/06/04,17.0,IL,17013.0,Calhoun County,669.0,4133.0,24117.0,4530.0,6612.0,3545.0,3020.0,3509.0,1877.0,983.0,41.0,0.0,0.0
498571,County,2020/06/05,17.0,IL,17013.0,Calhoun County,480.0,4322.0,16090.0,2233.0,3316.0,1858.0,2302.0,3343.0,2315.0,702.0,0.0,21.0,0.0
503296,County,2020/06/06,17.0,IL,17013.0,Calhoun County,715.0,4087.0,17462.0,2362.0,3943.0,4017.0,3025.0,2699.0,922.0,293.0,148.0,53.0,0.0
504959,County,2020/06/07,17.0,IL,17013.0,Calhoun County,905.0,3897.0,14619.0,2682.0,2958.0,2410.0,1436.0,2500.0,1690.0,626.0,0.0,150.0,167.0
509706,County,2020/06/08,17.0,IL,17013.0,Calhoun County,669.0,4133.0,18278.0,3831.0,3132.0,3014.0,2174.0,3169.0,2098.0,860.0,0.0,0.0,0.0
511335,County,2020/06/09,17.0,IL,17013.0,Calhoun County,808.0,3994.0,18108.0,3384.0,3853.0,3099.0,1830.0,3957.0,1030.0,859.0,96.0,0.0,0.0
516116,County,2020/06/10,17.0,IL,17013.0,Calhoun County,726.0,4076.0,19990.0,2527.0,4259.0,5282.0,1414.0,3854.0,1763.0,654.0,132.0,0.0,105.0
519273,County,2020/06/11,17.0,IL,17013.0,Calhoun County,692.0,4110.0,18451.0,2952.0,4676.0,2792.0,2127.0,3461.0,1535.0,797.0,0.0,20.0,91.0
520947,County,2020/06/12,17.0,IL,17013.0,Calhoun County,606.0,4196.0,17701.0,2981.0,4346.0,2952.0,2682.0,3141.0,920.0,568.0,0.0,20.0,91.0
525683,County,2020/06/13,17.0,IL,17013.0,Calhoun County,873.0,3929.0,18285.0,2644.0,4389.0,3861.0,2354.0,3244.0,760.0,986.0,47.0,0.0,0.0
528886,County,2020/06/14,17.0,IL,17013.0,Calhoun County,778.0,4024.0,14171.0,2952.0,2233.0,2780.0,2067.0,2582.0,787.0,350.0,0.0,0.0,420.0
532077,County,2020/06/15,17.0,IL,17013.0,Calhoun County,530.0,4272.0,18679.0,3910.0,4116.0,3320.0,1548.0,3235.0,1742.0,726.0,82.0,0.0,0.0
533705,County,2020/06/16,17.0,IL,17013.0,Calhoun County,685.0,4117.0,16893.0,2498.0,4808.0,2130.0,3048.0,2855.0,1061.0,443.0,50.0,0.0,0.0
536899,County,2020/06/17,17.0,IL,17013.0,Calhoun County,499.0,4303.0,19384.0,3178.0,4887.0,3186.0,1221.0,4195.0,1613.0,1104.0,0.0,0.0,0.0
540045,County,2020/06/18,17.0,IL,17013.0,Calhoun County,559.0,4243.0,21943.0,3121.0,4955.0,5926.0,1944.0,3783.0,1504.0,608.0,102.0,0.0,0.0
544812,County,2020/06/19,17.0,IL,17013.0,Calhoun County,651.0,4151.0,13900.0,1222.0,4841.0,1776.0,1076.0,2519.0,2212.0,137.0,92.0,25.0,0.0
548047,County,2020/06/20,17.0,IL,17013.0,Calhoun County,750.0,4052.0,10995.0,1330.0,1865.0,2613.0,2266.0,1517.0,1036.0,165.0,55.0,148.0,0.0
551234,County,2020/06/21,17.0,IL,17013.0,Calhoun County,1077.0,3725.0,13241.0,1841.0,3215.0,1092.0,1984.0,3950.0,907.0,252.0,0.0,0.0,0.0
554476,County,2020/06/22,17.0,IL,17013.0,Calhoun County,593.0,4209.0,15178.0,2640.0,3488.0,1628.0,1816.0,2457.0,2398.0,513.0,138.0,18.0,82.0
556055,County,2020/06/23,17.0,IL,17013.0,Calhoun County,753.0,4049.0,15191.0,1855.0,3227.0,1096.0,2489.0,3498.0,1707.0,759.0,256.0,0.0,304.0
560823,County,2020/06/24,17.0,IL,17013.0,Calhoun County,762.0,4040.0,16884.0,3549.0,4147.0,1536.0,2487.0,2575.0,2034.0,532.0,0.0,24.0,0.0
562451,County,2020/06/25,17.0,IL,17013.0,Calhoun County,721.0,4081.0,20447.0,2702.0,3523.0,3190.0,3261.0,5855.0,1615.0,276.0,0.0,25.0,0.0
565706,County,2020/06/26,17.0,IL,17013.0,Calhoun County,597.0,4205.0,17034.0,3159.0,4958.0,2165.0,1352.0,2764.0,1911.0,625.0,0.0,0.0,100.0
568827,County,2020/06/27,17.0,IL,17013.0,Calhoun County,667.0,4135.0,19025.0,2265.0,5017.0,2555.0,3750.0,3890.0,1347.0,0.0,92.0,0.0,109.0
573588,County,2020/06/28,17.0,IL,17013.0,Calhoun County,606.0,4196.0,12496.0,1989.0,3059.0,1968.0,2012.0,2408.0,613.0,227.0,38.0,0.0,182.0
576760,County,2020/06/29,17.0,IL,17013.0,Calhoun County,618.0,4184.0,12622.0,1667.0,1892.0,1577.0,1672.0,2125.0,2620.0,728.0,82.0,65.0,194.0
580009,County,2020/06/30,17.0,IL,17013.0,Calhoun County,892.0,3910.0,13979.0,2332.0,2025.0,2750.0,1562.0,1171.0,2999.0,1112.0,0.0,28.0,0.0
581609,County,2020/07/01,17.0,IL,17013.0,Calhoun County,718.0,4084.0,14807.0,1826.0,1763.0,2514.0,1101.0,4127.0,2685.0,746.0,0.0,45.0,0.0
584801,County,2020/07/02,17.0,IL,17013.0,Calhoun County,744.0,4058.0,21703.0,2868.0,3739.0,3386.0,3461.0,6215.0,1714.0,293.0,0.0,27.0,0.0
589594,County,2020/07/03,17.0,IL,17013.0,Calhoun County,771.0,4031.0,16936.0,3141.0,4930.0,2153.0,1344.0,2748.0,1900.0,621.0,0.0,0.0,99.0
592778,County,2020/07/04,17.0,IL,17013.0,Calhoun County,959.0,3843.0,14491.0,2687.0,4218.0,1842.0,1150.0,2351.0,1626.0,532.0,0.0,0.0,85.0
594427,County,2020/07/05,17.0,IL,17013.0,Calhoun County,820.0,3982.0,13981.0,2217.0,3222.0,1532.0,2684.0,2375.0,1772.0,152.0,0.0,27.0,0.0
599103,County,2020/07/06,17.0,IL,17013.0,Calhoun County,699.0,4103.0,17836.0,4464.0,2867.0,2577.0,2225.0,3291.0,1499.0,833.0,80.0,0.0,0.0
600778,County,2020/07/07,17.0,IL,17013.0,Calhoun County,606.0,4196.0,16763.0,3099.0,3220.0,1640.0,3576.0,2513.0,2452.0,114.0,38.0,20.0,91.0
605440,County,2020/07/08,17.0,IL,17013.0,Calhoun County,611.0,4191.0,14910.0,2277.0,2202.0,2403.0,2184.0,3683.0,1597.0,333.0,112.0,119.0,0.0
607166,County,2020/07/09,17.0,IL,17013.0,Calhoun County,588.0,4214.0,14703.0,2619.0,2673.0,908.0,2371.0,3477.0,1885.0,524.0,106.0,56.0,84.0
611948,County,2020/07/10,17.0,IL,17013.0,Calhoun County,485.0,4317.0,20170.0,4006.0,3346.0,3099.0,3273.0,3957.0,1931.0,322.0,217.0,19.0,0.0
615164,County,2020/07/11,17.0,IL,17013.0,Calhoun County,713.0,4089.0,17883.0,3895.0,4644.0,1514.0,3095.0,3504.0,707.0,262.0,133.0,24.0,105.0
616748,County,2020/07/12,17.0,IL,17013.0,Calhoun County,916.0,3886.0,13988.0,2404.0,2581.0,2366.0,2687.0,2182.0,1310.0,364.0,61.0,33.0,0.0
621507,County,2020/07/13,17.0,IL,17013.0,Calhoun County,684.0,4118.0,12305.0,1665.0,2370.0,2092.0,1755.0,1850.0,1905.0,446.0,113.0,20.0,89.0
623138,County,2020/07/14,17.0,IL,17013.0,Calhoun County,686.0,4116.0,17058.0,1581.0,3891.0,1896.0,3406.0,3521.0,2362.0,358.0,0.0,43.0,0.0
627875,County,2020/07/15,17.0,IL,17013.0,Calhoun County,734.0,4068.0,17462.0,2044.0,4514.0,2896.0,2205.0,2066.0,3183.0,472.0,40.0,42.0,0.0
629501,County,2020/07/16,17.0,IL,17013.0,Calhoun County,718.0,4084.0,16151.0,2975.0,3173.0,1616.0,2447.0,3095.0,2573.0,124.0,126.0,22.0,0.0
632702,County,2020/07/17,17.0,IL,17013.0,Calhoun County,757.0,4045.0,16089.0,2575.0,2993.0,2202.0,2193.0,3569.0,2111.0,352.0,0.0,0.0,94.0
637488,County,2020/07/18,17.0,IL,17013.0,Calhoun County,931.0,3871.0,13023.0,823.0,1871.0,2451.0,2598.0,3651.0,1188.0,377.0,64.0,0.0,0.0
640641,County,2020/07/19,17.0,IL,17013.0,Calhoun County,975.0,3827.0,11498.0,1277.0,1586.0,3770.0,1468.0,1891.0,671.0,560.0,126.0,0.0,149.0
642302,County,2020/07/20,17.0,IL,17013.0,Calhoun County,927.0,3875.0,12445.0,2194.0,2316.0,1835.0,714.0,3347.0,1796.0,182.0,61.0,0.0,0.0
647542,County,2020/07/21,17.0,IL,17013.0,Calhoun County,808.0,3994.0,14926.0,2663.0,2236.0,2278.0,1682.0,3273.0,1892.0,789.0,89.0,24.0,0.0
650207,County,2020/07/22,17.0,IL,17013.0,Calhoun County,797.0,4005.0,12788.0,2158.0,2127.0,1625.0,1354.0,3920.0,1350.0,125.0,84.0,45.0,0.0
651797,County,2020/07/23,17.0,IL,17013.0,Calhoun County,660.0,4142.0,14641.0,3036.0,2043.0,2081.0,1655.0,3654.0,1513.0,361.0,202.0,0.0,96.0
654969,County,2020/07/24,17.0,IL,17013.0,Calhoun County,1010.0,3792.0,16199.0,1249.0,4637.0,1945.0,1326.0,3194.0,3116.0,578.0,0.0,0.0,154.0
658266,County,2020/07/25,17.0,IL,17013.0,Calhoun County,1039.0,3763.0,8677.0,794.0,2924.0,1324.0,677.0,1902.0,412.0,229.0,232.0,0.0,183.0
662971,County,2020/07/26,17.0,IL,17013.0,Calhoun County,983.0,3819.0,14173.0,2496.0,3377.0,983.0,2010.0,3138.0,1377.0,511.0,114.0,30.0,137.0
664712,County,2020/07/27,17.0,IL,17013.0,Calhoun County,904.0,3898.0,15099.0,1576.0,1910.0,1702.0,3480.0,3727.0,1213.0,1348.0,113.0,30.0,0.0
669496,County,2020/07/28,17.0,IL,17013.0,Calhoun County,807.0,3995.0,15818.0,2380.0,3167.0,2151.0,2492.0,4258.0,1072.0,298.0,0.0,0.0,0.0
671031,County,2020/07/29,17.0,IL,17013.0,Calhoun County,750.0,4052.0,14235.0,1415.0,2281.0,2682.0,1462.0,2968.0,1782.0,1239.0,208.0,0.0,198.0
675791,County,2020/07/30,17.0,IL,17013.0,Calhoun County,674.0,4128.0,16458.0,2146.0,4020.0,1475.0,2680.0,3347.0,1940.0,568.0,191.0,0.0,91.0
679019,County,2020/07/31,17.0,IL,17013.0,Calhoun County,778.0,4024.0,11628.0,1000.0,2554.0,600.0,1910.0,2300.0,1871.0,1110.0,234.0,49.0,0.0
682140,County,2020/08/01,17.0,IL,17013.0,Calhoun County,911.0,3891.0,11688.0,561.0,5242.0,1214.0,330.0,2169.0,1663.0,336.0,113.0,60.0,0.0
683822,County,2020/08/02,17.0,IL,17013.0,Calhoun County,860.0,3942.0,14401.0,2854.0,2392.0,3520.0,2030.0,2075.0,1181.0,188.0,127.0,34.0,0.0
688583,County,2020/08/03,17.0,IL,17013.0,Calhoun County,716.0,4086.0,18569.0,3182.0,5116.0,2607.0,2323.0,3328.0,1499.0,417.0,47.0,50.0,0.0
690211,County,2020/08/04,17.0,IL,17013.0,Calhoun County,642.0,4160.0,19811.0,2804.0,4688.0,3123.0,2754.0,3987.0,1717.0,636.0,0.0,0.0,102.0
694970,County,2020/08/05,17.0,IL,17013.0,Calhoun County,689.0,4113.0,18156.0,3018.0,4079.0,2597.0,3067.0,4090.0,862.0,360.0,40.0,43.0,0.0
698165,County,2020/08/06,17.0,IL,17013.0,Calhoun County,718.0,4084.0,20321.0,4003.0,5079.0,2402.0,3148.0,2596.0,2533.0,384.0,130.0,46.0,0.0
701360,County,2020/08/07,17.0,IL,17013.0,Calhoun County,721.0,4081.0,18770.0,2528.0,4246.0,3784.0,2947.0,3337.0,1235.0,499.0,127.0,67.0,0.0
704553,County,2020/08/08,17.0,IL,17013.0,Calhoun County,945.0,3857.0,17904.0,1794.0,2031.0,3103.0,4406.0,4458.0,1933.0,179.0,0.0,0.0,0.0
706180,County,2020/08/09,17.0,IL,17013.0,Calhoun County,784.0,4018.0,18620.0,3169.0,3433.0,4372.0,2532.0,3488.0,1089.0,303.0,153.0,81.0,0.0
709401,County,2020/08/10,17.0,IL,17013.0,Calhoun County,808.0,3994.0,15344.0,835.0,2947.0,2201.0,3136.0,3323.0,2120.0,554.0,93.0,25.0,110.0
714182,County,2020/08/11,17.0,IL,17013.0,Calhoun County,891.0,3911.0,19849.0,2100.0,3342.0,2341.0,3625.0,5162.0,2386.0,590.0,0.0,185.0,118.0
717231,County,2020/08/12,17.0,IL,17013.0,Calhoun County,796.0,4006.0,19488.0,3527.0,4159.0,1906.0,2165.0,4328.0,2507.0,441.0,50.0,53.0,352.0
718957,County,2020/08/13,17.0,IL,17013.0,Calhoun County,595.0,4207.0,19025.0,1761.0,2948.0,3171.0,3298.0,5007.0,1767.0,810.0,78.0,0.0,185.0
722150,County,2020/08/14,17.0,IL,17013.0,Calhoun County,728.0,4074.0,23151.0,3066.0,7223.0,2784.0,4337.0,3302.0,1486.0,551.0,47.0,25.0,330.0
725380,County,2020/08/15,17.0,IL,17013.0,Calhoun County,710.0,4092.0,21636.0,3489.0,3928.0,4633.0,4448.0,3362.0,918.0,292.0,99.0,0.0,467.0
730104,County,2020/08/16,17.0,IL,17013.0,Calhoun County,800.0,4002.0,14865.0,2253.0,3493.0,2001.0,1364.0,2840.0,1109.0,1387.0,363.0,55.0,0.0
731733,County,2020/08/17,17.0,IL,17013.0,Calhoun County,695.0,4107.0,18121.0,2362.0,3358.0,3250.0,2565.0,3713.0,1812.0,474.0,280.0,22.0,285.0
736493,County,2020/08/18,17.0,IL,17013.0,Calhoun County,633.0,4169.0,18571.0,3138.0,3848.0,2053.0,2672.0,2860.0,2907.0,776.0,87.0,23.0,207.0
739687,County,2020/08/19,17.0,IL,17013.0,Calhoun County,582.0,4220.0,19560.0,3555.0,4095.0,1738.0,3199.0,3995.0,2382.0,362.0,41.0,0.0,193.0
742886,County,2020/08/20,17.0,IL,17013.0,Calhoun County,569.0,4233.0,20738.0,2895.0,4589.0,4340.0,1707.0,3837.0,2288.0,809.0,117.0,63.0,93.0
746092,County,2020/08/21,17.0,IL,17013.0,Calhoun County,694.0,4108.0,19343.0,2094.0,3044.0,3514.0,3099.0,5015.0,1931.0,286.0,193.0,52.0,115.0
747720,County,2020/08/22,17.0,IL,17013.0,Calhoun County,672.0,4130.0,20195.0,4971.0,2808.0,2043.0,4177.0,4175.0,1401.0,425.0,144.0,51.0,0.0
752465,County,2020/08/23,17.0,IL,17013.0,Calhoun County,836.0,3966.0,14827.0,2591.0,2399.0,3841.0,2380.0,2006.0,1305.0,242.0,41.0,22.0,0.0
755656,County,2020/08/24,17.0,IL,17013.0,Calhoun County,973.0,3829.0,14993.0,2133.0,2527.0,2360.0,2193.0,3287.0,1871.0,446.0,150.0,26.0,0.0
758848,County,2020/08/25,17.0,IL,17013.0,Calhoun County,724.0,4078.0,16957.0,3463.0,3770.0,1565.0,2036.0,3088.0,2658.0,198.0,100.0,0.0,79.0
760480,County,2020/08/26,17.0,IL,17013.0,Calhoun County,747.0,4055.0,15081.0,1426.0,3090.0,1499.0,3371.0,3350.0,2055.0,0.0,105.0,19.0,166.0
763636,County,2020/08/27,17.0,IL,17013.0,Calhoun County,715.0,4087.0,19127.0,2822.0,4347.0,2475.0,2929.0,4574.0,1542.0,271.0,61.0,33.0,73.0
768419,County,2020/08/28,17.0,IL,17013.0,Calhoun County,754.0,4048.0,16524.0,3854.0,3367.0,2182.0,744.0,3882.0,1942.0,217.0,145.0,19.0,172.0
771619,County,2020/08/29,17.0,IL,17013.0,Calhoun County,829.0,3973.0,15882.0,2466.0,2467.0,3286.0,3029.0,3085.0,722.0,536.0,136.0,48.0,107.0
774838,County,2020/08/30,17.0,IL,17013.0,Calhoun County,877.0,3925.0,19061.0,3865.0,5643.0,1677.0,2938.0,2141.0,1940.0,664.0,0.0,60.0,133.0
777978,County,2020/08/31,17.0,IL,17013.0,Calhoun County,704.0,4098.0,14695.0,1711.0,3035.0,2001.0,2107.0,2903.0,1474.0,882.0,212.0,68.0,302.0
781226,County,2020/09/01,17.0,IL,17013.0,Calhoun County,553.0,4249.0,18624.0,2429.0,3394.0,3803.0,2592.0,3642.0,1616.0,718.0,121.0,21.0,288.0
783621,County,2020/09/02,17.0,IL,17013.0,Calhoun County,579.0,4223.0,18283.0,3094.0,3578.0,3644.0,3006.0,3307.0,1195.0,0.0,224.0,23.0,212.0
787572,County,2020/09/03,17.0,IL,17013.0,Calhoun County,573.0,4229.0,21148.0,2443.0,5406.0,1943.0,3311.0,5170.0,2220.0,449.0,76.0,40.0,90.0
790763,County,2020/09/04,17.0,IL,17013.0,Calhoun County,603.0,4199.0,18083.0,1761.0,3258.0,2538.0,3060.0,4986.0,1824.0,271.0,228.0,49.0,108.0
793954,County,2020/09/05,17.0,IL,17013.0,Calhoun County,612.0,4190.0,22186.0,4082.0,3722.0,1797.0,3808.0,5734.0,1741.0,830.0,373.0,99.0,0.0
795606,County,2020/09/06,17.0,IL,17013.0,Calhoun County,792.0,4010.0,18180.0,1462.0,2661.0,2109.0,2874.0,6923.0,1314.0,626.0,211.0,0.0,0.0
800371,County,2020/09/07,17.0,IL,17013.0,Calhoun County,964.0,3838.0,15671.0,2983.0,3531.0,2099.0,2656.0,2680.0,1307.0,415.0,0.0,0.0,0.0
803567,County,2020/09/08,17.0,IL,17013.0,Calhoun County,800.0,4002.0,19539.0,1062.0,5475.0,2230.0,2823.0,4577.0,2878.0,111.0,186.0,20.0,177.0
805194,County,2020/09/09,17.0,IL,17013.0,Calhoun County,707.0,4095.0,19122.0,3193.0,4686.0,2155.0,2413.0,3932.0,2015.0,533.0,72.0,38.0,85.0
808387,County,2020/09/10,17.0,IL,17013.0,Calhoun County,727.0,4075.0,16379.0,1462.0,3692.0,1956.0,2255.0,4034.0,1780.0,937.0,105.0,75.0,83.0
813148,County,2020/09/11,17.0,IL,17013.0,Calhoun County,663.0,4139.0,17498.0,1994.0,2652.0,2251.0,3170.0,4790.0,1777.0,623.0,140.0,18.0,83.0
816344,County,2020/09/12,17.0,IL,17013.0,Calhoun County,893.0,3909.0,15314.0,1094.0,2665.0,2715.0,1851.0,4267.0,2212.0,144.0,147.0,104.0,115.0
817950,County,2020/09/13,17.0,IL,17013.0,Calhoun County,857.0,3945.0,13132.0,733.0,2617.0,2667.0,3179.0,1489.0,1246.0,924.0,113.0,30.0,134.0
821155,County,2020/09/14,17.0,IL,17013.0,Calhoun County,790.0,4012.0,19129.0,2711.0,3825.0,2833.0,2293.0,4748.0,2206.0,491.0,0.0,22.0,0.0
825924,County,2020/09/15,17.0,IL,17013.0,Calhoun County,639.0,4163.0,21022.0,1971.0,6702.0,2764.0,1550.0,4774.0,2735.0,450.0,76.0,0.0,0.0
827552,County,2020/09/16,17.0,IL,17013.0,Calhoun County,601.0,4201.0,16057.0,1315.0,3566.0,1737.0,1830.0,4134.0,2263.0,985.0,148.0,79.0,0.0
830746,County,2020/09/17,17.0,IL,17013.0,Calhoun County,798.0,4004.0,18224.0,2097.0,3990.0,2517.0,1451.0,4078.0,3256.0,537.0,226.0,72.0,0.0
835507,County,2020/09/18,17.0,IL,17013.0,Calhoun County,698.0,4104.0,17313.0,1187.0,4978.0,2355.0,1852.0,4048.0,2370.0,251.0,127.0,45.0,100.0
838699,County,2020/09/19,17.0,IL,17013.0,Calhoun County,817.0,3985.0,13538.0,1384.0,2032.0,2635.0,2564.0,3003.0,1406.0,261.0,44.0,0.0,209.0
840327,County,2020/09/20,17.0,IL,17013.0,Calhoun County,855.0,3947.0,14708.0,2155.0,2145.0,1821.0,2730.0,3604.0,1588.0,378.0,85.0,0.0,202.0
845115,County,2020/09/21,17.0,IL,17013.0,Calhoun County,1015.0,3787.0,11240.0,1269.0,1051.0,2354.0,2042.0,1777.0,2400.0,297.0,50.0,0.0,0.0
848283,County,2020/09/22,17.0,IL,17013.0,Calhoun County,670.0,4132.0,10863.0,585.0,1105.0,1929.0,1643.0,3387.0,2103.0,111.0,0.0,0.0,0.0
849910,County,2020/09/23,17.0,IL,17013.0,Calhoun County,748.0,4054.0,12772.0,1648.0,1622.0,2148.0,1464.0,3482.0,1750.0,458.0,77.0,123.0,0.0
853100,County,2020/09/24,17.0,IL,17013.0,Calhoun County,743.0,4059.0,15517.0,1761.0,2990.0,2369.0,2076.0,3350.0,2109.0,704.0,158.0,0.0,0.0
857864,County,2020/09/25,17.0,IL,17013.0,Calhoun County,595.0,4207.0,17789.0,2348.0,3441.0,1669.0,3754.0,4370.0,1976.0,231.0,0.0,0.0,0.0
859492,County,2020/09/26,17.0,IL,17013.0,Calhoun County,695.0,4107.0,17518.0,3692.0,2706.0,3860.0,1754.0,3755.0,1260.0,382.0,86.0,23.0,0.0
864239,County,2020/09/27,17.0,IL,17013.0,Calhoun County,927.0,3875.0,15748.0,1738.0,3126.0,2388.0,4069.0,2669.0,1364.0,276.0,93.0,25.0,0.0
867447,County,2020/09/28,17.0,IL,17013.0,Calhoun County,996.0,3806.0,17867.0,2727.0,3590.0,4800.0,1558.0,3794.0,712.0,633.0,53.0,0.0,0.0
870639,County,2020/09/29,17.0,IL,17013.0,Calhoun County,811.0,3991.0,12173.0,1041.0,2757.0,1639.0,1435.0,2540.0,1895.0,648.0,163.0,55.0,0.0
872268,County,2020/09/30,17.0,IL,17013.0,Calhoun County,776.0,4026.0,12333.0,376.0,1930.0,1474.0,1675.0,4394.0,1531.0,681.0,234.0,0.0,38.0
877008,County,2020/10/01,17.0,IL,17013.0,Calhoun County,831.0,3971.0,12735.0,1190.0,2732.0,1159.0,1264.0,3997.0,1589.0,482.0,252.0,19.0,51.0
880223,County,2020/10/02,17.0,IL,17013.0,Calhoun County,809.0,3993.0,15189.0,1808.0,3010.0,1703.0,1857.0,4241.0,2016.0,472.0,0.0,46.0,36.0
883418,County,2020/10/03,17.0,IL,17013.0,Calhoun County,1209.0,3593.0,14492.0,1595.0,3526.0,2394.0,1224.0,3058.0,1865.0,830.0,0.0,0.0,0.0
885418,County,2020/10/04,17.0,IL,17013.0,Calhoun County,1048.0,3754.0,21278.0,6474.0,3663.0,2130.0,2737.0,3927.0,2010.0,194.0,117.0,26.0,0.0
888487,County,2020/10/05,17.0,IL,17013.0,Calhoun County,868.0,3934.0,13651.0,1133.0,2475.0,1131.0,913.0,3910.0,2451.0,1527.0,72.0,13.0,26.0
891717,County,2020/10/06,17.0,IL,17013.0,Calhoun County,787.0,4015.0,14968.0,1710.0,1743.0,1971.0,2506.0,4057.0,1846.0,888.0,209.0,13.0,25.0
894895,County,2020/10/07,17.0,IL,17013.0,Calhoun County,746.0,4056.0,13982.0,1666.0,2862.0,1232.0,1106.0,3679.0,1731.0,1388.0,294.0,0.0,24.0
898096,County,2020/10/08,17.0,IL,17013.0,Calhoun County,711.0,4091.0,15671.0,2085.0,2886.0,1450.0,2509.0,4094.0,1997.0,560.0,66.0,0.0,24.0
901280,County,2020/10/09,17.0,IL,17013.0,Calhoun County,853.0,3949.0,16087.0,1721.0,3441.0,2471.0,3159.0,3509.0,893.0,835.0,0.0,30.0,28.0
904742,County,2020/10/10,17.0,IL,17013.0,Calhoun County,1032.0,3770.0,18187.0,1737.0,3683.0,3701.0,3320.0,2475.0,1672.0,1459.0,49.0,55.0,36.0
910224,County,2020/10/11,17.0,IL,17013.0,Calhoun County,991.0,3811.0,14065.0,811.0,3496.0,3769.0,1632.0,2508.0,993.0,760.0,96.0,0.0,0.0
913094,County,2020/10/12,17.0,IL,17013.0,Calhoun County,885.0,3917.0,14468.0,792.0,3797.0,1478.0,1708.0,3804.0,2206.0,447.0,189.0,0.0,47.0
916044,County,2020/10/13,17.0,IL,17013.0,Calhoun County,798.0,4004.0,16662.0,1447.0,2598.0,3001.0,2832.0,2858.0,2459.0,1269.0,107.0,69.0,22.0
919252,County,2020/10/14,17.0,IL,17013.0,Calhoun County,738.0,4064.0,17023.0,1867.0,3402.0,2649.0,1912.0,3409.0,2442.0,1201.0,102.0,39.0,0.0
922467,County,2020/10/15,17.0,IL,17013.0,Calhoun County,907.0,3895.0,17314.0,902.0,4483.0,2742.0,2184.0,3871.0,1992.0,878.0,178.0,0.0,84.0
925361,County,2020/10/16,17.0,IL,17013.0,Calhoun County,633.0,4169.0,17383.0,1744.0,4739.0,2847.0,1790.0,3065.0,1750.0,1338.0,68.0,0.0,42.0
928857,County,2020/10/17,17.0,IL,17013.0,Calhoun County,854.0,3948.0,14287.0,1909.0,2693.0,1716.0,2643.0,2892.0,1055.0,1209.0,44.0,17.0,109.0
932077,County,2020/10/18,17.0,IL,17013.0,Calhoun County,732.0,4070.0,12105.0,1682.0,1828.0,1627.0,2741.0,2779.0,874.0,287.0,182.0,14.0,91.0
934694,County,2020/10/19,17.0,IL,17013.0,Calhoun County,762.0,4040.0,16516.0,2165.0,4925.0,1937.0,2017.0,2625.0,2056.0,621.0,126.0,24.0,20.0
938735,County,2020/10/20,17.0,IL,17013.0,Calhoun County,759.0,4043.0,12017.0,1098.0,2444.0,2071.0,1142.0,2104.0,2429.0,531.0,67.0,26.0,105.0
941940,County,2020/10/21,17.0,IL,17013.0,Calhoun County,729.0,4073.0,12421.0,1429.0,2779.0,1483.0,1624.0,2188.0,2165.0,653.0,66.0,13.0,21.0
945233,County,2020/10/22,17.0,IL,17013.0,Calhoun County,798.0,4004.0,16284.0,1158.0,3511.0,2539.0,1448.0,4003.0,2281.0,1101.0,69.0,0.0,174.0
948354,County,2020/10/23,17.0,IL,17013.0,Calhoun County,744.0,4058.0,19762.0,3615.0,3287.0,3463.0,2568.0,3765.0,2342.0,610.0,93.0,0.0,19.0
951240,County,2020/10/24,17.0,IL,17013.0,Calhoun County,787.0,4015.0,17178.0,2625.0,4214.0,2531.0,2843.0,2490.0,1686.0,595.0,151.0,43.0,0.0
