,Level,Date,State FIPS,State Postal Code,County FIPS,County Name,Population Staying at Home,Population Not Staying at Home,Number of Trips,Number of Trips <1,Number of Trips 1-3,Number of Trips 3-5,Number of Trips 5-10,Number of Trips 10-25,Number of Trips 25-50,Number of Trips 50-100,Number of Trips 100-250,Number of Trips 250-500,Number of Trips >=500
2486,County,2020/01/01,47.0,TN,47119.0,Maury County,22026.0,72314.0,235141.0,49916.0,51880.0,33046.0,37787.0,40194.0,15005.0,5044.0,1594.0,425.0,250.0
4539,County,2020/01/02,47.0,TN,47119.0,Maury County,17869.0,76471.0,273878.0,54710.0,63406.0,32034.0,41419.0,48629.0,24438.0,7482.0,1271.0,356.0,133.0
6639,County,2020/01/03,47.0,TN,47119.0,Maury County,16789.0,77551.0,302744.0,60357.0,70030.0,35740.0,42584.0,56086.0,28155.0,7571.0,1731.0,353.0,137.0
10540,County,2020/01/04,47.0,TN,47119.0,Maury County,18206.0,76134.0,272818.0,50173.0,62123.0,35274.0,43683.0,53224.0,19732.0,6502.0,1501.0,410.0,196.0
15262,County,2020/01/05,47.0,TN,47119.0,Maury County,20394.0,73946.0,253793.0,42039.0,62578.0,35707.0,42219.0,46061.0,16929.0,6184.0,1488.0,396.0,192.0
18798,County,2020/01/06,47.0,TN,47119.0,Maury County,17418.0,76922.0,292652.0,53755.0,67428.0,38569.0,43448.0,53471.0,26397.0,7849.0,1133.0,383.0,219.0
21993,County,2020/01/07,47.0,TN,47119.0,Maury County,16047.0,78293.0,310416.0,60527.0,71474.0,36297.0,44614.0,57344.0,29845.0,8648.0,1155.0,377.0,135.0
23668,County,2020/01/08,47.0,TN,47119.0,Maury County,15742.0,78598.0,319657.0,63474.0,71253.0,39925.0,46241.0,58674.0,29121.0,9138.0,1257.0,415.0,159.0
28368,County,2020/01/09,47.0,TN,47119.0,Maury County,16604.0,77736.0,307342.0,58748.0,70494.0,36552.0,45743.0,56185.0,29291.0,8474.0,1276.0,421.0,158.0
31575,County,2020/01/10,47.0,TN,47119.0,Maury County,15779.0,78561.0,323220.0,61923.0,75929.0,41094.0,44844.0,60149.0,29596.0,7663.0,1500.0,370.0,152.0
33252,County,2020/01/11,47.0,TN,47119.0,Maury County,19914.0,74426.0,267915.0,53087.0,66390.0,35225.0,39450.0,47458.0,18388.0,6476.0,1028.0,276.0,137.0
36408,County,2020/01/12,47.0,TN,47119.0,Maury County,19981.0,74359.0,269507.0,52457.0,63568.0,33975.0,46782.0,46358.0,18750.0,5559.0,1595.0,348.0,115.0
39601,County,2020/01/13,47.0,TN,47119.0,Maury County,16808.0,77532.0,305423.0,59977.0,69272.0,40312.0,43704.0,56488.0,26929.0,7349.0,973.0,318.0,101.0
44334,County,2020/01/14,47.0,TN,47119.0,Maury County,16852.0,77488.0,306693.0,54430.0,74567.0,38082.0,42844.0,58402.0,28826.0,8008.0,1039.0,340.0,155.0
47540,County,2020/01/15,47.0,TN,47119.0,Maury County,16300.0,78040.0,303780.0,58292.0,72349.0,34462.0,43464.0,57701.0,28270.0,7549.0,1267.0,325.0,101.0
49069,County,2020/01/16,47.0,TN,47119.0,Maury County,15725.0,78615.0,317068.0,60435.0,76106.0,38858.0,44898.0,57189.0,29119.0,8684.0,1270.0,351.0,158.0
53984,County,2020/01/17,47.0,TN,47119.0,Maury County,15390.0,78950.0,337377.0,67077.0,81560.0,40094.0,49657.0,60844.0,28514.0,7879.0,1225.0,405.0,122.0
55557,County,2020/01/18,47.0,TN,47119.0,Maury County,18561.0,75779.0,289288.0,56097.0,69541.0,37465.0,43785.0,52981.0,21471.0,6408.0,1149.0,265.0,126.0
58705,County,2020/01/19,47.0,TN,47119.0,Maury County,19777.0,74563.0,261256.0,47309.0,62542.0,37174.0,43978.0,45950.0,17039.0,5607.0,1191.0,333.0,133.0
61937,County,2020/01/20,47.0,TN,47119.0,Maury County,19124.0,75216.0,271989.0,50334.0,65022.0,34895.0,39456.0,47651.0,24841.0,7616.0,1714.0,294.0,166.0
65143,County,2020/01/21,47.0,TN,47119.0,Maury County,16922.0,77418.0,298688.0,55151.0,67270.0,39730.0,44616.0,54436.0,27584.0,8291.0,1159.0,291.0,160.0
69903,County,2020/01/22,47.0,TN,47119.0,Maury County,15668.0,78672.0,311208.0,61472.0,72065.0,36167.0,46031.0,57901.0,27745.0,8033.0,1393.0,288.0,113.0
73086,County,2020/01/23,47.0,TN,47119.0,Maury County,16437.0,77903.0,302746.0,57521.0,73014.0,35520.0,45251.0,54650.0,27263.0,7624.0,1406.0,327.0,170.0
76243,County,2020/01/24,47.0,TN,47119.0,Maury County,16192.0,78148.0,323086.0,60945.0,76774.0,40612.0,48959.0,56801.0,28756.0,8228.0,1537.0,293.0,181.0
79478,County,2020/01/25,47.0,TN,47119.0,Maury County,18082.0,76258.0,294394.0,52793.0,69576.0,39466.0,47921.0,53379.0,22503.0,7052.0,1257.0,275.0,172.0
82336,County,2020/01/26,47.0,TN,47119.0,Maury County,19399.0,74941.0,269780.0,49912.0,66666.0,36533.0,44681.0,45351.0,18296.0,6503.0,1356.0,342.0,140.0
83210,County,2020/01/27,47.0,TN,47119.0,Maury County,16545.0,77795.0,306532.0,58851.0,70510.0,39840.0,46101.0,56607.0,25906.0,6931.0,1213.0,334.0,239.0
88046,County,2020/01/28,47.0,TN,47119.0,Maury County,16430.0,77910.0,304526.0,57965.0,72501.0,38082.0,44312.0,54997.0,27029.0,7990.0,1225.0,238.0,187.0
92248,County,2020/01/29,47.0,TN,47119.0,Maury County,16454.0,77886.0,310451.0,59459.0,74368.0,37433.0,45383.0,56214.0,28322.0,7701.0,1146.0,297.0,128.0
95454,County,2020/01/30,47.0,TN,47119.0,Maury County,16074.0,78266.0,305473.0,55909.0,73488.0,40273.0,43495.0,52605.0,28668.0,8454.0,1909.0,442.0,230.0
97028,County,2020/01/31,47.0,TN,47119.0,Maury County,15826.0,78514.0,335296.0,66227.0,79351.0,44140.0,48121.0,58661.0,27819.0,8128.0,2146.0,417.0,286.0
101836,County,2020/02/01,47.0,TN,47119.0,Maury County,18295.0,76045.0,306591.0,59992.0,75647.0,41500.0,45989.0,51429.0,21467.0,7920.0,1851.0,536.0,260.0
103405,County,2020/02/02,47.0,TN,47119.0,Maury County,18624.0,75716.0,275911.0,55366.0,68411.0,39628.0,44411.0,43622.0,16412.0,5482.0,1912.0,426.0,241.0
108241,County,2020/02/03,47.0,TN,47119.0,Maury County,16436.0,77904.0,310815.0,60659.0,72925.0,42364.0,45871.0,51747.0,27006.0,7690.0,1834.0,500.0,219.0
109858,County,2020/02/04,47.0,TN,47119.0,Maury County,15883.0,78457.0,305917.0,57052.0,76015.0,37197.0,44671.0,52060.0,28763.0,7586.0,1823.0,563.0,187.0
113004,County,2020/02/05,47.0,TN,47119.0,Maury County,15584.0,78756.0,297857.0,55741.0,72157.0,39198.0,43157.0,50212.0,26642.0,7998.0,2050.0,448.0,254.0
117786,County,2020/02/06,47.0,TN,47119.0,Maury County,16141.0,78199.0,302959.0,55991.0,72273.0,37726.0,43539.0,53758.0,29231.0,7659.0,1978.0,543.0,261.0
121041,County,2020/02/07,47.0,TN,47119.0,Maury County,14894.0,79446.0,326032.0,62139.0,78066.0,40708.0,47551.0,58822.0,27667.0,8067.0,2186.0,550.0,276.0
124201,County,2020/02/08,47.0,TN,47119.0,Maury County,16906.0,77434.0,319670.0,64118.0,78363.0,41484.0,46251.0,57222.0,23134.0,6729.0,1769.0,334.0,266.0
126500,County,2020/02/09,47.0,TN,47119.0,Maury County,20921.0,73419.0,267771.0,48980.0,67036.0,35540.0,42221.0,46335.0,18556.0,6116.0,1764.0,667.0,556.0
130794,County,2020/02/10,47.0,TN,47119.0,Maury County,15563.0,78777.0,308106.0,54418.0,74403.0,38705.0,46620.0,54727.0,28254.0,7753.0,2184.0,530.0,512.0
133309,County,2020/02/11,47.0,TN,47119.0,Maury County,14849.0,79491.0,330734.0,61998.0,77118.0,43681.0,47507.0,59385.0,29410.0,8122.0,2308.0,691.0,514.0
134310,County,2020/02/12,47.0,TN,47119.0,Maury County,14921.0,79419.0,312434.0,57321.0,74159.0,40087.0,44773.0,56416.0,28047.0,8088.0,2286.0,669.0,588.0
140170,County,2020/02/13,47.0,TN,47119.0,Maury County,14792.0,79548.0,336493.0,63783.0,77220.0,42093.0,47985.0,62855.0,29540.0,8978.0,2717.0,639.0,683.0
143373,County,2020/02/14,47.0,TN,47119.0,Maury County,14310.0,80030.0,381529.0,72738.0,91667.0,48598.0,54357.0,70077.0,30433.0,9153.0,2999.0,761.0,746.0
144997,County,2020/02/15,47.0,TN,47119.0,Maury County,16912.0,77428.0,335034.0,63116.0,76657.0,43661.0,52254.0,61802.0,25325.0,8279.0,2456.0,719.0,765.0
149731,County,2020/02/16,47.0,TN,47119.0,Maury County,19246.0,75094.0,290543.0,52697.0,69951.0,41053.0,49409.0,48958.0,18342.0,5719.0,2882.0,763.0,769.0
151362,County,2020/02/17,47.0,TN,47119.0,Maury County,21180.0,73160.0,277240.0,55753.0,61180.0,36172.0,41778.0,48837.0,23190.0,7201.0,1885.0,611.0,633.0
156141,County,2020/02/18,47.0,TN,47119.0,Maury County,15513.0,78827.0,312904.0,54789.0,72323.0,41075.0,44971.0,57892.0,29469.0,8237.0,2782.0,639.0,727.0
157769,County,2020/02/19,47.0,TN,47119.0,Maury County,14916.0,79424.0,330561.0,60579.0,74213.0,42125.0,51167.0,60171.0,30957.0,8132.0,2177.0,595.0,445.0
160781,County,2020/02/20,47.0,TN,47119.0,Maury County,15392.0,78948.0,314070.0,58275.0,73559.0,38934.0,46007.0,56128.0,29004.0,8770.0,2391.0,566.0,436.0
164108,County,2020/02/21,47.0,TN,47119.0,Maury County,15108.0,79232.0,357136.0,65543.0,83416.0,47447.0,52280.0,65410.0,29563.0,9341.0,2959.0,729.0,448.0
168868,County,2020/02/22,47.0,TN,47119.0,Maury County,14879.0,79461.0,358376.0,74221.0,82656.0,49987.0,51179.0,62354.0,27192.0,7551.0,2142.0,648.0,446.0
170530,County,2020/02/23,47.0,TN,47119.0,Maury County,19377.0,74963.0,292442.0,54564.0,68462.0,45042.0,47352.0,49167.0,19391.0,5794.0,1803.0,523.0,344.0
175311,County,2020/02/24,47.0,TN,47119.0,Maury County,16895.0,77445.0,318442.0,58888.0,75441.0,41463.0,48184.0,58265.0,25956.0,7881.0,1288.0,578.0,498.0
178157,County,2020/02/25,47.0,TN,47119.0,Maury County,14180.0,80160.0,345080.0,66629.0,79660.0,41497.0,53555.0,64763.0,28241.0,8191.0,1443.0,510.0,591.0
181350,County,2020/02/26,47.0,TN,47119.0,Maury County,16176.0,78164.0,301367.0,52113.0,75537.0,44298.0,46601.0,50032.0,24984.0,5945.0,1082.0,469.0,306.0
184882,County,2020/02/27,47.0,TN,47119.0,Maury County,14728.0,79612.0,356718.0,69288.0,87591.0,43762.0,53785.0,62691.0,28784.0,8517.0,1508.0,435.0,357.0
186608,County,2020/02/28,47.0,TN,47119.0,Maury County,15271.0,79069.0,372720.0,73649.0,89307.0,45347.0,57131.0,64676.0,30668.0,9603.0,1640.0,431.0,268.0
189661,County,2020/02/29,47.0,TN,47119.0,Maury County,15810.0,78530.0,365978.0,72257.0,86021.0,50880.0,56684.0,61830.0,26706.0,9167.0,1624.0,572.0,237.0
192850,County,2020/03/01,47.0,TN,47119.0,Maury County,18031.0,76309.0,297167.0,61294.0,73283.0,39318.0,47993.0,48610.0,18445.0,5876.0,1559.0,465.0,324.0
197650,County,2020/03/02,47.0,TN,47119.0,Maury County,16034.0,78306.0,329754.0,67063.0,82193.0,39850.0,47708.0,56731.0,26897.0,7044.0,1470.0,473.0,325.0
199181,County,2020/03/03,47.0,TN,47119.0,Maury County,15156.0,79184.0,338072.0,71846.0,82957.0,41460.0,47004.0,57595.0,26764.0,7924.0,1737.0,558.0,227.0
201608,County,2020/03/04,47.0,TN,47119.0,Maury County,14767.0,79573.0,343609.0,69634.0,78450.0,40135.0,53870.0,61955.0,29407.0,7735.0,1686.0,502.0,235.0
207215,County,2020/03/05,47.0,TN,47119.0,Maury County,13441.0,80899.0,360557.0,75799.0,87952.0,42776.0,52032.0,60206.0,29954.0,9401.0,1700.0,534.0,203.0
210479,County,2020/03/06,47.0,TN,47119.0,Maury County,14289.0,80051.0,365294.0,76777.0,85648.0,45654.0,52238.0,63701.0,29784.0,8897.0,1920.0,407.0,268.0
212096,County,2020/03/07,47.0,TN,47119.0,Maury County,15881.0,78459.0,349360.0,70827.0,84057.0,43776.0,56348.0,58259.0,24107.0,9049.0,1926.0,770.0,241.0
215263,County,2020/03/08,47.0,TN,47119.0,Maury County,18560.0,75780.0,308214.0,63469.0,74998.0,40304.0,48787.0,51746.0,19171.0,7278.0,1572.0,593.0,296.0
220021,County,2020/03/09,47.0,TN,47119.0,Maury County,15536.0,78804.0,326413.0,66259.0,77747.0,40642.0,48920.0,54016.0,28674.0,7769.0,1684.0,511.0,191.0
221649,County,2020/03/10,47.0,TN,47119.0,Maury County,15169.0,79171.0,328559.0,62577.0,81631.0,41774.0,49385.0,57040.0,25066.0,8829.0,1519.0,483.0,255.0
226394,County,2020/03/11,47.0,TN,47119.0,Maury County,15834.0,78506.0,333177.0,57954.0,84836.0,44100.0,54395.0,56835.0,23348.0,8126.0,1874.0,1019.0,690.0
228072,County,2020/03/12,47.0,TN,47119.0,Maury County,16162.0,78178.0,335880.0,59785.0,97924.0,38935.0,45515.0,52841.0,29218.0,7986.0,2396.0,723.0,557.0
231232,County,2020/03/13,47.0,TN,47119.0,Maury County,15828.0,78512.0,335142.0,64891.0,81003.0,45822.0,53163.0,54309.0,23413.0,8117.0,2957.0,886.0,581.0
235956,County,2020/03/14,47.0,TN,47119.0,Maury County,19718.0,74622.0,298540.0,52631.0,83034.0,40084.0,41856.0,50833.0,17611.0,8166.0,2582.0,850.0,893.0
237568,County,2020/03/15,47.0,TN,47119.0,Maury County,22892.0,71448.0,267440.0,49552.0,74114.0,35280.0,42223.0,44827.0,13701.0,5083.0,1757.0,611.0,292.0
240812,County,2020/03/16,47.0,TN,47119.0,Maury County,18626.0,75714.0,320576.0,66930.0,76458.0,39515.0,46565.0,56897.0,23780.0,7865.0,1782.0,476.0,308.0
245571,County,2020/03/17,47.0,TN,47119.0,Maury County,19852.0,74488.0,288263.0,55063.0,68894.0,38096.0,43315.0,50935.0,23364.0,6700.0,1276.0,390.0,230.0
248726,County,2020/03/18,47.0,TN,47119.0,Maury County,21239.0,73101.0,290487.0,58369.0,66461.0,36170.0,43750.0,52215.0,24258.0,7055.0,1406.0,471.0,332.0
251931,County,2020/03/19,47.0,TN,47119.0,Maury County,21690.0,72650.0,290890.0,58028.0,71690.0,37205.0,42053.0,50639.0,21709.0,7354.0,1476.0,589.0,147.0
253590,County,2020/03/20,47.0,TN,47119.0,Maury County,22099.0,72241.0,287217.0,55311.0,75244.0,35060.0,42853.0,48448.0,21816.0,6350.0,1462.0,470.0,203.0
256733,County,2020/03/21,47.0,TN,47119.0,Maury County,25095.0,69245.0,254066.0,49139.0,64803.0,34680.0,40638.0,41771.0,15602.0,5051.0,1392.0,740.0,250.0
261535,County,2020/03/22,47.0,TN,47119.0,Maury County,24756.0,69584.0,217478.0,43240.0,56512.0,30222.0,36283.0,34722.0,10485.0,4154.0,1058.0,617.0,185.0
263173,County,2020/03/23,47.0,TN,47119.0,Maury County,22427.0,71913.0,246348.0,50034.0,61789.0,32136.0,38178.0,40899.0,15499.0,5467.0,1510.0,534.0,302.0
267928,County,2020/03/24,47.0,TN,47119.0,Maury County,22902.0,71438.0,226965.0,42957.0,61073.0,27619.0,32813.0,37268.0,17382.0,5581.0,1541.0,456.0,275.0
269558,County,2020/03/25,47.0,TN,47119.0,Maury County,22769.0,71571.0,259904.0,56904.0,63530.0,33130.0,37371.0,42366.0,18040.0,6223.0,1619.0,531.0,190.0
274299,County,2020/03/26,47.0,TN,47119.0,Maury County,21733.0,72607.0,276954.0,59199.0,73101.0,33920.0,38808.0,43842.0,19622.0,6298.0,1518.0,527.0,119.0
275939,County,2020/03/27,47.0,TN,47119.0,Maury County,21523.0,72817.0,275342.0,57559.0,68362.0,34094.0,42665.0,47042.0,17564.0,5982.0,1429.0,423.0,222.0
280700,County,2020/03/28,47.0,TN,47119.0,Maury County,21858.0,72482.0,255888.0,57951.0,63629.0,33933.0,40310.0,40012.0,13254.0,5073.0,1079.0,518.0,129.0
283852,County,2020/03/29,47.0,TN,47119.0,Maury County,24730.0,69610.0,217449.0,43339.0,58353.0,29917.0,34733.0,33815.0,11933.0,3719.0,952.0,440.0,248.0
285480,County,2020/03/30,47.0,TN,47119.0,Maury County,22579.0,71761.0,267734.0,60452.0,65247.0,32836.0,41078.0,42355.0,18263.0,5794.0,1093.0,414.0,202.0
290283,County,2020/03/31,47.0,TN,47119.0,Maury County,24007.0,70333.0,232108.0,46518.0,57313.0,31334.0,34827.0,38702.0,16040.0,5410.0,1335.0,475.0,154.0
293482,County,2020/04/01,47.0,TN,47119.0,Maury County,23170.0,71170.0,272553.0,59804.0,71483.0,32943.0,40251.0,42437.0,18231.0,5604.0,1167.0,473.0,160.0
295111,County,2020/04/02,47.0,TN,47119.0,Maury County,23379.0,70961.0,268861.0,66013.0,65041.0,30760.0,38387.0,41742.0,18555.0,6372.0,1396.0,431.0,164.0
298304,County,2020/04/03,47.0,TN,47119.0,Maury County,23388.0,70952.0,278310.0,62260.0,69975.0,36077.0,41790.0,42626.0,18108.0,5827.0,1018.0,392.0,237.0
303051,County,2020/04/04,47.0,TN,47119.0,Maury County,25100.0,69240.0,241216.0,56048.0,61826.0,32960.0,40539.0,32935.0,10686.0,4991.0,685.0,345.0,201.0
304679,County,2020/04/05,47.0,TN,47119.0,Maury County,26479.0,67861.0,219891.0,47297.0,61903.0,29264.0,34633.0,30905.0,11183.0,3138.0,938.0,403.0,227.0
309453,County,2020/04/06,47.0,TN,47119.0,Maury County,23468.0,70872.0,264754.0,62311.0,64957.0,31418.0,42222.0,39953.0,17607.0,5046.0,931.0,211.0,98.0
311080,County,2020/04/07,47.0,TN,47119.0,Maury County,22783.0,71557.0,266117.0,56774.0,66934.0,32951.0,39878.0,46737.0,16488.0,4947.0,1082.0,203.0,123.0
315816,County,2020/04/08,47.0,TN,47119.0,Maury County,23170.0,71170.0,267748.0,55780.0,68659.0,34390.0,39889.0,44729.0,16605.0,6207.0,1081.0,310.0,98.0
317443,County,2020/04/09,47.0,TN,47119.0,Maury County,23967.0,70373.0,266500.0,57775.0,63872.0,35727.0,39390.0,46257.0,15870.0,6200.0,1005.0,259.0,145.0
320670,County,2020/04/10,47.0,TN,47119.0,Maury County,23335.0,71005.0,288323.0,64913.0,71741.0,33896.0,44921.0,47609.0,17984.0,6037.0,812.0,295.0,115.0
325423,County,2020/04/11,47.0,TN,47119.0,Maury County,24233.0,70107.0,263260.0,55171.0,69320.0,36281.0,44481.0,39884.0,11473.0,5481.0,682.0,367.0,120.0
328590,County,2020/04/12,47.0,TN,47119.0,Maury County,30305.0,64035.0,167763.0,31365.0,52609.0,23387.0,28159.0,21185.0,6352.0,3461.0,802.0,328.0,115.0
330265,County,2020/04/13,47.0,TN,47119.0,Maury County,24615.0,69725.0,246835.0,50417.0,64832.0,29539.0,38240.0,40206.0,16209.0,6054.0,989.0,255.0,94.0
333390,County,2020/04/14,47.0,TN,47119.0,Maury County,24545.0,69795.0,239195.0,54509.0,76687.0,27416.0,26551.0,33243.0,14421.0,4746.0,1179.0,253.0,190.0
338190,County,2020/04/15,47.0,TN,47119.0,Maury County,23252.0,71088.0,259743.0,55689.0,77086.0,30487.0,35051.0,36799.0,16915.0,6223.0,1159.0,166.0,168.0
341334,County,2020/04/16,47.0,TN,47119.0,Maury County,25354.0,68986.0,264304.0,73645.0,62983.0,27845.0,40840.0,37702.0,16862.0,3537.0,384.0,251.0,255.0
343118,County,2020/04/17,47.0,TN,47119.0,Maury County,23060.0,71280.0,269293.0,67624.0,73371.0,29249.0,41529.0,36005.0,14441.0,5265.0,821.0,801.0,187.0
347744,County,2020/04/18,47.0,TN,47119.0,Maury County,25374.0,68966.0,251975.0,53318.0,73934.0,29882.0,40984.0,37810.0,10383.0,4378.0,803.0,276.0,207.0
349346,County,2020/04/19,47.0,TN,47119.0,Maury County,25383.0,68957.0,194299.0,38147.0,63521.0,28154.0,30038.0,23227.0,7296.0,2659.0,767.0,292.0,198.0
354176,County,2020/04/20,47.0,TN,47119.0,Maury County,22536.0,71804.0,307924.0,71015.0,89800.0,38779.0,41814.0,45102.0,14638.0,4883.0,896.0,581.0,416.0
357362,County,2020/04/21,47.0,TN,47119.0,Maury County,22572.0,71768.0,282034.0,56991.0,73602.0,36661.0,42848.0,46609.0,18362.0,5390.0,1139.0,320.0,112.0
358990,County,2020/04/22,47.0,TN,47119.0,Maury County,21793.0,72547.0,283349.0,64259.0,72116.0,33639.0,44195.0,45547.0,17183.0,5071.0,795.0,421.0,123.0
362096,County,2020/04/23,47.0,TN,47119.0,Maury County,21463.0,72877.0,273153.0,55103.0,68379.0,35871.0,41680.0,44312.0,19988.0,6179.0,1206.0,316.0,119.0
366934,County,2020/04/24,47.0,TN,47119.0,Maury County,20534.0,73806.0,301150.0,64334.0,78726.0,38466.0,46243.0,44988.0,20159.0,6567.0,1208.0,301.0,158.0
368517,County,2020/04/25,47.0,TN,47119.0,Maury County,22699.0,71641.0,235364.0,49457.0,63049.0,30243.0,36344.0,38067.0,12578.0,4077.0,1131.0,330.0,88.0
371683,County,2020/04/26,47.0,TN,47119.0,Maury County,24783.0,69557.0,225375.0,44066.0,59957.0,28557.0,39250.0,36223.0,11769.0,4059.0,936.0,357.0,201.0
374960,County,2020/04/27,47.0,TN,47119.0,Maury County,21494.0,72846.0,289323.0,63904.0,72545.0,36911.0,44964.0,46678.0,17110.0,5742.0,910.0,415.0,144.0
378111,County,2020/04/28,47.0,TN,47119.0,Maury County,20518.0,73822.0,286067.0,62795.0,73048.0,34735.0,41423.0,48668.0,17700.0,6265.0,996.0,318.0,119.0
382890,County,2020/04/29,47.0,TN,47119.0,Maury County,21112.0,73228.0,272379.0,55084.0,68787.0,33350.0,41315.0,47260.0,19678.0,5324.0,1094.0,313.0,174.0
386109,County,2020/04/30,47.0,TN,47119.0,Maury County,20470.0,73870.0,299037.0,62715.0,75760.0,39496.0,45366.0,47709.0,20507.0,6034.0,1105.0,234.0,111.0
387735,County,2020/05/01,47.0,TN,47119.0,Maury County,19481.0,74859.0,326719.0,68248.0,84742.0,41913.0,46873.0,58058.0,19600.0,5793.0,1048.0,335.0,109.0
390917,County,2020/05/02,47.0,TN,47119.0,Maury County,20699.0,73641.0,306298.0,65590.0,79064.0,42584.0,49537.0,45629.0,16127.0,6403.0,1034.0,222.0,108.0
394131,County,2020/05/03,47.0,TN,47119.0,Maury County,21988.0,72352.0,258693.0,53868.0,72181.0,34995.0,43463.0,35976.0,11634.0,5055.0,1193.0,261.0,67.0
397292,County,2020/05/04,47.0,TN,47119.0,Maury County,19736.0,74604.0,299592.0,65515.0,76049.0,41909.0,43283.0,49135.0,16640.0,5701.0,1044.0,213.0,103.0
400512,County,2020/05/05,47.0,TN,47119.0,Maury County,20803.0,73537.0,297328.0,61783.0,80340.0,40834.0,44288.0,44503.0,18700.0,5653.0,936.0,246.0,45.0
405267,County,2020/05/06,47.0,TN,47119.0,Maury County,20770.0,73570.0,286907.0,62357.0,72313.0,37838.0,41903.0,45088.0,20342.0,5216.0,1255.0,431.0,164.0
406893,County,2020/05/07,47.0,TN,47119.0,Maury County,19681.0,74659.0,298769.0,63881.0,70468.0,36640.0,51135.0,48158.0,20517.0,5735.0,1344.0,631.0,260.0
410198,County,2020/05/08,47.0,TN,47119.0,Maury County,20731.0,73609.0,282996.0,51439.0,73993.0,37449.0,43227.0,49171.0,19967.0,6010.0,1261.0,344.0,135.0
413203,County,2020/05/09,47.0,TN,47119.0,Maury County,21047.0,73293.0,291411.0,58732.0,75277.0,43260.0,44772.0,47965.0,14925.0,4888.0,1154.0,324.0,114.0
418000,County,2020/05/10,47.0,TN,47119.0,Maury County,21262.0,73078.0,262759.0,52060.0,67138.0,34538.0,41832.0,46573.0,13862.0,5003.0,1324.0,286.0,143.0
421231,County,2020/05/11,47.0,TN,47119.0,Maury County,17489.0,76851.0,321942.0,67756.0,82660.0,38570.0,50763.0,55024.0,20514.0,5032.0,1105.0,350.0,168.0
422909,County,2020/05/12,47.0,TN,47119.0,Maury County,16675.0,77665.0,324488.0,70388.0,79366.0,41579.0,46775.0,57771.0,21158.0,6223.0,827.0,283.0,118.0
427631,County,2020/05/13,47.0,TN,47119.0,Maury County,17104.0,77236.0,302274.0,60809.0,78380.0,36535.0,45484.0,51238.0,21830.0,6434.0,1000.0,402.0,162.0
429258,County,2020/05/14,47.0,TN,47119.0,Maury County,16442.0,77898.0,306594.0,59170.0,74974.0,39385.0,48090.0,54704.0,21384.0,7189.0,928.0,565.0,205.0
433999,County,2020/05/15,47.0,TN,47119.0,Maury County,16461.0,77879.0,317788.0,67474.0,78081.0,40553.0,47032.0,54615.0,21001.0,6923.0,1412.0,464.0,233.0
435677,County,2020/05/16,47.0,TN,47119.0,Maury County,17452.0,76888.0,304585.0,62359.0,76237.0,40358.0,47831.0,51961.0,18416.0,5336.0,1305.0,523.0,259.0
440361,County,2020/05/17,47.0,TN,47119.0,Maury County,18612.0,75728.0,273526.0,60842.0,67696.0,33847.0,42949.0,45637.0,14387.0,6344.0,1239.0,489.0,96.0
442075,County,2020/05/18,47.0,TN,47119.0,Maury County,16592.0,77748.0,329043.0,69772.0,82681.0,40802.0,46769.0,56809.0,21549.0,8963.0,1299.0,350.0,49.0
446764,County,2020/05/19,47.0,TN,47119.0,Maury County,15651.0,78689.0,328935.0,70711.0,79537.0,40674.0,49908.0,55369.0,23945.0,7321.0,943.0,469.0,58.0
448396,County,2020/05/20,47.0,TN,47119.0,Maury County,15366.0,78974.0,315081.0,67133.0,78088.0,36816.0,46191.0,54374.0,23395.0,7397.0,1258.0,353.0,76.0
452830,County,2020/05/21,47.0,TN,47119.0,Maury County,14205.0,80135.0,330762.0,68357.0,83842.0,42268.0,47747.0,55785.0,23676.0,6754.0,1433.0,700.0,200.0
456376,County,2020/05/22,47.0,TN,47119.0,Maury County,13099.0,81241.0,334203.0,67144.0,84810.0,44604.0,46742.0,55951.0,23668.0,8849.0,1577.0,502.0,356.0
457999,County,2020/05/23,47.0,TN,47119.0,Maury County,16204.0,78136.0,309329.0,65809.0,79306.0,40339.0,46580.0,51488.0,15387.0,8180.0,1336.0,600.0,304.0
462741,County,2020/05/24,47.0,TN,47119.0,Maury County,19486.0,74854.0,241776.0,44454.0,61201.0,34294.0,39883.0,41149.0,13059.0,5238.0,1015.0,1041.0,442.0
464370,County,2020/05/25,47.0,TN,47119.0,Maury County,20412.0,73928.0,242497.0,50653.0,62957.0,31452.0,36747.0,39151.0,12181.0,6736.0,1352.0,903.0,365.0
469151,County,2020/05/26,47.0,TN,47119.0,Maury County,16793.0,77547.0,281077.0,57568.0,65977.0,36759.0,43940.0,48768.0,18852.0,6456.0,1129.0,1172.0,456.0
470780,County,2020/05/27,47.0,TN,47119.0,Maury County,17701.0,76639.0,294018.0,59168.0,68908.0,36332.0,46242.0,53161.0,20635.0,7200.0,1466.0,650.0,256.0
473876,County,2020/05/28,47.0,TN,47119.0,Maury County,17158.0,77182.0,300662.0,60677.0,71348.0,38266.0,47058.0,52949.0,21260.0,7004.0,1484.0,527.0,89.0
477121,County,2020/05/29,47.0,TN,47119.0,Maury County,19035.0,75305.0,293711.0,55903.0,76111.0,37154.0,42796.0,51299.0,21785.0,6750.0,1469.0,367.0,77.0
480308,County,2020/05/30,47.0,TN,47119.0,Maury County,19273.0,75067.0,299945.0,61841.0,75446.0,38859.0,43886.0,53094.0,18284.0,6813.0,1218.0,389.0,115.0
485075,County,2020/05/31,47.0,TN,47119.0,Maury County,20872.0,73468.0,265748.0,55501.0,66326.0,36201.0,42441.0,41963.0,15588.0,6069.0,1296.0,274.0,89.0
488376,County,2020/06/01,47.0,TN,47119.0,Maury County,17117.0,77223.0,296795.0,59379.0,74178.0,39390.0,44550.0,51441.0,19304.0,6637.0,1305.0,490.0,121.0
489943,County,2020/06/02,47.0,TN,47119.0,Maury County,17948.0,76392.0,290813.0,57548.0,70195.0,35414.0,44190.0,53592.0,21581.0,6092.0,1427.0,566.0,208.0
493112,County,2020/06/03,47.0,TN,47119.0,Maury County,15946.0,78394.0,309531.0,59565.0,75355.0,39797.0,49331.0,54552.0,21761.0,6948.0,1492.0,501.0,229.0
497887,County,2020/06/04,47.0,TN,47119.0,Maury County,16324.0,78016.0,299763.0,62753.0,73173.0,34348.0,45638.0,53031.0,21412.0,7266.0,1466.0,427.0,249.0
499527,County,2020/06/05,47.0,TN,47119.0,Maury County,15949.0,78391.0,302814.0,58805.0,70426.0,39437.0,47950.0,52329.0,22813.0,8602.0,1670.0,512.0,270.0
502674,County,2020/06/06,47.0,TN,47119.0,Maury County,19133.0,75207.0,265874.0,48042.0,66818.0,34949.0,42169.0,46874.0,17685.0,7262.0,1474.0,374.0,227.0
507451,County,2020/06/07,47.0,TN,47119.0,Maury County,20294.0,74046.0,258704.0,45914.0,69731.0,34229.0,44012.0,42328.0,14092.0,6152.0,1535.0,521.0,190.0
510662,County,2020/06/08,47.0,TN,47119.0,Maury County,15706.0,78634.0,311071.0,61019.0,73628.0,39007.0,50196.0,56215.0,21745.0,7198.0,1333.0,504.0,226.0
512291,County,2020/06/09,47.0,TN,47119.0,Maury County,16777.0,77563.0,277335.0,51191.0,66328.0,37006.0,43911.0,49246.0,19838.0,7489.0,1242.0,697.0,387.0
517072,County,2020/06/10,47.0,TN,47119.0,Maury County,16244.0,78096.0,292255.0,62825.0,67016.0,36826.0,44386.0,50563.0,21318.0,6369.0,1857.0,840.0,255.0
518651,County,2020/06/11,47.0,TN,47119.0,Maury County,15615.0,78725.0,302106.0,57972.0,70248.0,39751.0,45962.0,54547.0,22645.0,8235.0,1655.0,627.0,464.0
523451,County,2020/06/12,47.0,TN,47119.0,Maury County,16201.0,78139.0,310456.0,61422.0,72262.0,40494.0,50754.0,53864.0,20951.0,7896.0,1809.0,711.0,293.0
525079,County,2020/06/13,47.0,TN,47119.0,Maury County,17770.0,76570.0,305971.0,61580.0,72898.0,42391.0,47206.0,52980.0,20459.0,6448.0,1377.0,433.0,199.0
528273,County,2020/06/14,47.0,TN,47119.0,Maury County,19415.0,74925.0,251014.0,49286.0,59682.0,34468.0,41277.0,40904.0,15839.0,6829.0,1776.0,544.0,409.0
533033,County,2020/06/15,47.0,TN,47119.0,Maury County,17376.0,76964.0,296758.0,58982.0,72731.0,38760.0,44828.0,51291.0,20199.0,7599.0,1614.0,538.0,216.0
536203,County,2020/06/16,47.0,TN,47119.0,Maury County,16534.0,77806.0,311310.0,64535.0,74761.0,38718.0,44912.0,55009.0,23275.0,7695.0,1825.0,438.0,142.0
539372,County,2020/06/17,47.0,TN,47119.0,Maury County,16408.0,77932.0,316430.0,67144.0,75493.0,38434.0,44181.0,58974.0,23516.0,6966.0,1331.0,322.0,69.0
541002,County,2020/06/18,47.0,TN,47119.0,Maury County,16676.0,77664.0,318068.0,68050.0,76098.0,36158.0,48812.0,54856.0,23937.0,8234.0,1478.0,377.0,68.0
545768,County,2020/06/19,47.0,TN,47119.0,Maury County,16200.0,78140.0,298075.0,58475.0,69307.0,37895.0,49017.0,51108.0,21921.0,7845.0,1791.0,550.0,166.0
547398,County,2020/06/20,47.0,TN,47119.0,Maury County,17943.0,76397.0,276017.0,52606.0,66766.0,35455.0,44237.0,47904.0,19468.0,7187.0,1606.0,610.0,178.0
550603,County,2020/06/21,47.0,TN,47119.0,Maury County,20617.0,73723.0,238475.0,46699.0,58221.0,33197.0,38281.0,38804.0,15280.0,5898.0,1452.0,493.0,150.0
555383,County,2020/06/22,47.0,TN,47119.0,Maury County,18082.0,76258.0,264761.0,53090.0,61575.0,34028.0,39245.0,49541.0,18618.0,6418.0,1463.0,622.0,161.0
557011,County,2020/06/23,47.0,TN,47119.0,Maury County,17352.0,76988.0,279606.0,51084.0,69543.0,36060.0,39555.0,53401.0,21940.0,5501.0,1781.0,599.0,142.0
561779,County,2020/06/24,47.0,TN,47119.0,Maury County,18898.0,75442.0,261038.0,45462.0,61498.0,35283.0,40856.0,50079.0,19647.0,6542.0,1065.0,493.0,113.0
564905,County,2020/06/25,47.0,TN,47119.0,Maury County,17936.0,76404.0,273301.0,48721.0,65943.0,34478.0,42780.0,52282.0,20610.0,6452.0,1214.0,662.0,159.0
568203,County,2020/06/26,47.0,TN,47119.0,Maury County,17527.0,76813.0,276883.0,57589.0,66679.0,32790.0,40077.0,49058.0,22220.0,6537.0,1348.0,456.0,129.0
571353,County,2020/06/27,47.0,TN,47119.0,Maury County,18666.0,75674.0,281805.0,57502.0,64011.0,37530.0,47021.0,49261.0,17063.0,6984.0,1668.0,621.0,144.0
574535,County,2020/06/28,47.0,TN,47119.0,Maury County,20101.0,74239.0,240755.0,45676.0,57947.0,33191.0,40649.0,39229.0,14695.0,6673.0,1640.0,761.0,294.0
576138,County,2020/06/29,47.0,TN,47119.0,Maury County,20118.0,74222.0,265274.0,49923.0,62182.0,37479.0,42271.0,45046.0,19564.0,6701.0,1258.0,633.0,217.0
580948,County,2020/06/30,47.0,TN,47119.0,Maury County,19430.0,74910.0,250660.0,45766.0,62000.0,29996.0,37227.0,45744.0,20808.0,6325.0,1591.0,683.0,520.0
582552,County,2020/07/01,47.0,TN,47119.0,Maury County,19059.0,75281.0,260075.0,53317.0,60876.0,33468.0,39239.0,44992.0,18729.0,6859.0,1416.0,774.0,405.0
585742,County,2020/07/02,47.0,TN,47119.0,Maury County,20373.0,73967.0,290084.0,51713.0,69992.0,36595.0,45407.0,55492.0,21876.0,6848.0,1289.0,703.0,169.0
590533,County,2020/07/03,47.0,TN,47119.0,Maury County,21650.0,72690.0,275322.0,57265.0,66303.0,32605.0,39851.0,48782.0,22095.0,6500.0,1340.0,453.0,128.0
593718,County,2020/07/04,47.0,TN,47119.0,Maury County,23705.0,70635.0,235547.0,48991.0,56724.0,27895.0,34094.0,41734.0,18903.0,5561.0,1147.0,388.0,110.0
596882,County,2020/07/05,47.0,TN,47119.0,Maury County,21750.0,72590.0,218043.0,41995.0,51628.0,28348.0,37845.0,36438.0,11998.0,6497.0,1793.0,949.0,552.0
600058,County,2020/07/06,47.0,TN,47119.0,Maury County,20706.0,73634.0,229577.0,41759.0,55046.0,28035.0,34926.0,43262.0,17087.0,6681.0,1355.0,880.0,546.0
601636,County,2020/07/07,47.0,TN,47119.0,Maury County,19739.0,74601.0,239248.0,47736.0,54022.0,28866.0,35550.0,45659.0,18244.0,6232.0,1585.0,735.0,619.0
606396,County,2020/07/08,47.0,TN,47119.0,Maury County,19536.0,74804.0,244742.0,51617.0,52686.0,30110.0,36137.0,46164.0,18878.0,5915.0,2079.0,669.0,487.0
608122,County,2020/07/09,47.0,TN,47119.0,Maury County,19993.0,74347.0,256002.0,51780.0,58579.0,32250.0,38408.0,44794.0,20020.0,7144.0,1895.0,713.0,419.0
612854,County,2020/07/10,47.0,TN,47119.0,Maury County,19569.0,74771.0,256251.0,48581.0,59495.0,31269.0,37708.0,50311.0,18325.0,6956.0,2119.0,1012.0,475.0
616070,County,2020/07/11,47.0,TN,47119.0,Maury County,21498.0,72842.0,253074.0,54234.0,56793.0,34076.0,36250.0,45030.0,16474.0,7045.0,1938.0,718.0,516.0
619258,County,2020/07/12,47.0,TN,47119.0,Maury County,22857.0,71483.0,191538.0,38644.0,45770.0,26557.0,31858.0,29245.0,11431.0,4812.0,1713.0,1047.0,461.0
622464,County,2020/07/13,47.0,TN,47119.0,Maury County,19801.0,74539.0,253490.0,53767.0,58535.0,30609.0,36373.0,44776.0,19345.0,7434.0,1607.0,659.0,385.0
625658,County,2020/07/14,47.0,TN,47119.0,Maury County,19689.0,74651.0,261169.0,53612.0,62937.0,29483.0,37897.0,47786.0,19955.0,7313.0,1246.0,574.0,366.0
627166,County,2020/07/15,47.0,TN,47119.0,Maury County,19408.0,74932.0,258933.0,51242.0,59647.0,33757.0,36811.0,48828.0,19956.0,6820.0,1054.0,461.0,357.0
632097,County,2020/07/16,47.0,TN,47119.0,Maury County,19607.0,74733.0,263822.0,51825.0,61897.0,30923.0,41241.0,49886.0,18674.0,7388.0,1362.0,321.0,305.0
635192,County,2020/07/17,47.0,TN,47119.0,Maury County,20324.0,74016.0,266224.0,51516.0,60222.0,35942.0,38972.0,48920.0,21371.0,7300.0,1442.0,343.0,196.0
636869,County,2020/07/18,47.0,TN,47119.0,Maury County,22308.0,72032.0,238520.0,47044.0,58462.0,30978.0,36053.0,41099.0,16481.0,6155.0,1576.0,435.0,237.0
641597,County,2020/07/19,47.0,TN,47119.0,Maury County,24101.0,70239.0,219240.0,39510.0,53179.0,33452.0,35986.0,36750.0,12695.0,5228.0,1676.0,497.0,267.0
644806,County,2020/07/20,47.0,TN,47119.0,Maury County,22670.0,71670.0,247955.0,47912.0,61662.0,30932.0,36618.0,46223.0,16432.0,6273.0,1444.0,321.0,138.0
646434,County,2020/07/21,47.0,TN,47119.0,Maury County,20930.0,73410.0,253619.0,52148.0,60085.0,28466.0,38074.0,46530.0,19167.0,6775.0,1317.0,664.0,393.0
649116,County,2020/07/22,47.0,TN,47119.0,Maury County,21048.0,73292.0,257357.0,56210.0,56493.0,29074.0,37557.0,48970.0,20153.0,6697.0,1268.0,638.0,297.0
652753,County,2020/07/23,47.0,TN,47119.0,Maury County,20605.0,73735.0,246979.0,48883.0,57361.0,28918.0,39568.0,44721.0,17806.0,6901.0,1815.0,690.0,316.0
657630,County,2020/07/24,47.0,TN,47119.0,Maury County,20107.0,74233.0,275504.0,56497.0,62291.0,31730.0,42517.0,52246.0,20312.0,7082.0,1892.0,616.0,321.0
660847,County,2020/07/25,47.0,TN,47119.0,Maury County,22271.0,72069.0,243442.0,48365.0,54050.0,31448.0,38991.0,43871.0,16629.0,7132.0,2047.0,668.0,241.0
663928,County,2020/07/26,47.0,TN,47119.0,Maury County,23773.0,70567.0,226716.0,46569.0,51284.0,32088.0,35727.0,37406.0,13907.0,6198.0,1912.0,1113.0,512.0
665667,County,2020/07/27,47.0,TN,47119.0,Maury County,22035.0,72305.0,254082.0,55255.0,59273.0,27636.0,36523.0,45369.0,20135.0,6954.0,1517.0,894.0,526.0
670355,County,2020/07/28,47.0,TN,47119.0,Maury County,21410.0,72930.0,263657.0,52421.0,58005.0,32317.0,38207.0,51758.0,20582.0,7526.0,1685.0,804.0,352.0
671986,County,2020/07/29,47.0,TN,47119.0,Maury County,21742.0,72598.0,254531.0,48201.0,59812.0,32518.0,37369.0,46907.0,19665.0,7432.0,1273.0,850.0,504.0
676747,County,2020/07/30,47.0,TN,47119.0,Maury County,20548.0,73792.0,257039.0,49531.0,55267.0,29982.0,39420.0,51392.0,20440.0,7839.0,1626.0,1039.0,503.0
678398,County,2020/07/31,47.0,TN,47119.0,Maury County,20689.0,73651.0,241352.0,46318.0,55761.0,28126.0,35546.0,44331.0,21200.0,6964.0,1619.0,897.0,590.0
681507,County,2020/08/01,47.0,TN,47119.0,Maury County,23291.0,71049.0,228814.0,43213.0,53721.0,28977.0,36167.0,40416.0,16326.0,6679.0,1914.0,895.0,506.0
686336,County,2020/08/02,47.0,TN,47119.0,Maury County,23215.0,71125.0,248528.0,50580.0,58263.0,31026.0,41275.0,41065.0,16941.0,6884.0,1539.0,591.0,364.0
689539,County,2020/08/03,47.0,TN,47119.0,Maury County,20231.0,74109.0,278853.0,53678.0,72095.0,35107.0,40848.0,46997.0,21000.0,6725.0,1670.0,537.0,196.0
691167,County,2020/08/04,47.0,TN,47119.0,Maury County,19188.0,75152.0,295390.0,61789.0,69294.0,33462.0,46430.0,52572.0,23614.0,6582.0,1171.0,385.0,91.0
694329,County,2020/08/05,47.0,TN,47119.0,Maury County,19724.0,74616.0,284190.0,57713.0,68922.0,35399.0,42209.0,49060.0,21201.0,8108.0,1227.0,281.0,70.0
697536,County,2020/08/06,47.0,TN,47119.0,Maury County,19561.0,74779.0,296427.0,62931.0,68734.0,40957.0,41955.0,52693.0,21360.0,6057.0,1238.0,415.0,87.0
700748,County,2020/08/07,47.0,TN,47119.0,Maury County,19273.0,75067.0,281185.0,54189.0,65680.0,33346.0,44134.0,53619.0,21453.0,6786.0,1411.0,365.0,202.0
705509,County,2020/08/08,47.0,TN,47119.0,Maury County,20600.0,73740.0,270453.0,51453.0,64939.0,36008.0,42836.0,48590.0,17858.0,6783.0,1508.0,384.0,94.0
708679,County,2020/08/09,47.0,TN,47119.0,Maury County,22902.0,71438.0,248785.0,44491.0,59929.0,31506.0,41843.0,44244.0,18028.0,6724.0,1357.0,514.0,149.0
711897,County,2020/08/10,47.0,TN,47119.0,Maury County,19771.0,74569.0,276889.0,52787.0,62035.0,35030.0,44644.0,50150.0,23283.0,7360.0,1194.0,315.0,91.0
715090,County,2020/08/11,47.0,TN,47119.0,Maury County,19951.0,74389.0,274272.0,49587.0,58896.0,34894.0,44022.0,53134.0,24514.0,7516.0,1176.0,425.0,108.0
718236,County,2020/08/12,47.0,TN,47119.0,Maury County,19181.0,75159.0,266584.0,52264.0,57448.0,30634.0,42247.0,50506.0,23441.0,7325.0,1568.0,652.0,499.0
721430,County,2020/08/13,47.0,TN,47119.0,Maury County,18436.0,75904.0,270332.0,49057.0,59664.0,32536.0,43926.0,51162.0,23150.0,8035.0,1459.0,820.0,523.0
724657,County,2020/08/14,47.0,TN,47119.0,Maury County,17428.0,76912.0,292032.0,54593.0,67265.0,35387.0,45827.0,54761.0,22863.0,8319.0,1545.0,931.0,541.0
727868,County,2020/08/15,47.0,TN,47119.0,Maury County,19295.0,75045.0,266602.0,50319.0,59703.0,33228.0,40888.0,49884.0,20486.0,8851.0,1886.0,799.0,558.0
731060,County,2020/08/16,47.0,TN,47119.0,Maury County,23230.0,71110.0,261779.0,68634.0,58707.0,28868.0,35287.0,42602.0,15025.0,7500.0,2366.0,1566.0,1224.0
734227,County,2020/08/17,47.0,TN,47119.0,Maury County,21412.0,72928.0,371704.0,141272.0,79136.0,32067.0,38949.0,47915.0,20406.0,7931.0,1642.0,1478.0,908.0
735856,County,2020/08/18,47.0,TN,47119.0,Maury County,20414.0,73926.0,242208.0,41963.0,54314.0,27493.0,37128.0,48859.0,20416.0,7461.0,1969.0,1373.0,1232.0
739061,County,2020/08/19,47.0,TN,47119.0,Maury County,19855.0,74485.0,261568.0,50571.0,56177.0,31152.0,40557.0,48689.0,22186.0,8279.0,1485.0,1519.0,953.0
743842,County,2020/08/20,47.0,TN,47119.0,Maury County,18859.0,75481.0,315895.0,94705.0,67524.0,31007.0,39852.0,49696.0,21414.0,7484.0,1717.0,1375.0,1121.0
747047,County,2020/08/21,47.0,TN,47119.0,Maury County,18000.0,76340.0,301445.0,66383.0,68364.0,36332.0,44200.0,52108.0,22361.0,8003.0,1643.0,1135.0,916.0
750203,County,2020/08/22,47.0,TN,47119.0,Maury County,19880.0,74460.0,260220.0,48661.0,59678.0,34157.0,42302.0,45218.0,18606.0,7536.0,1917.0,1188.0,957.0
753372,County,2020/08/23,47.0,TN,47119.0,Maury County,22963.0,71377.0,209670.0,39724.0,49352.0,27120.0,34287.0,36877.0,13109.0,5796.0,1438.0,1177.0,790.0
755043,County,2020/08/24,47.0,TN,47119.0,Maury County,22449.0,71891.0,226731.0,42872.0,50627.0,28964.0,35462.0,41065.0,18721.0,6320.0,1054.0,976.0,670.0
759804,County,2020/08/25,47.0,TN,47119.0,Maury County,20894.0,73446.0,239724.0,44645.0,54079.0,33164.0,33539.0,46519.0,19035.0,5660.0,1384.0,1003.0,696.0
761386,County,2020/08/26,47.0,TN,47119.0,Maury County,21603.0,72737.0,235595.0,45590.0,52519.0,27020.0,37285.0,43422.0,20503.0,6545.0,1062.0,1070.0,579.0
766159,County,2020/08/27,47.0,TN,47119.0,Maury County,21098.0,73242.0,242518.0,46526.0,56950.0,30089.0,34013.0,44194.0,20778.0,7145.0,1222.0,1073.0,528.0
767799,County,2020/08/28,47.0,TN,47119.0,Maury County,20344.0,73996.0,244263.0,44870.0,58041.0,27870.0,39831.0,44347.0,19839.0,6687.0,1189.0,969.0,620.0
771003,County,2020/08/29,47.0,TN,47119.0,Maury County,21787.0,72553.0,244421.0,40918.0,56983.0,33597.0,41009.0,45846.0,17204.0,6123.0,1092.0,990.0,659.0
774204,County,2020/08/30,47.0,TN,47119.0,Maury County,23908.0,70432.0,204357.0,37716.0,48247.0,27079.0,33284.0,36098.0,12376.0,6154.0,1148.0,1421.0,834.0
777388,County,2020/08/31,47.0,TN,47119.0,Maury County,21599.0,72741.0,228770.0,47063.0,52424.0,28219.0,32112.0,41627.0,17235.0,6559.0,1258.0,1449.0,824.0
782165,County,2020/09/01,47.0,TN,47119.0,Maury County,21186.0,73154.0,243985.0,42734.0,55027.0,32222.0,37875.0,46770.0,19785.0,6746.0,1580.0,798.0,448.0
784563,County,2020/09/02,47.0,TN,47119.0,Maury County,20847.0,73493.0,261127.0,48801.0,59579.0,32846.0,40206.0,47056.0,22077.0,7512.0,1773.0,842.0,435.0
786920,County,2020/09/03,47.0,TN,47119.0,Maury County,19404.0,74936.0,270842.0,49932.0,62843.0,33750.0,40365.0,49878.0,22411.0,8136.0,1948.0,996.0,583.0
790136,County,2020/09/04,47.0,TN,47119.0,Maury County,20622.0,73718.0,274072.0,51313.0,61491.0,33101.0,44389.0,49578.0,21997.0,8141.0,2392.0,1165.0,505.0
793259,County,2020/09/05,47.0,TN,47119.0,Maury County,21310.0,73030.0,274941.0,58177.0,61173.0,37619.0,43734.0,45871.0,16666.0,8528.0,1713.0,948.0,512.0
798104,County,2020/09/06,47.0,TN,47119.0,Maury County,23666.0,70674.0,228874.0,45962.0,55303.0,28771.0,35343.0,38793.0,15235.0,6233.0,1570.0,1063.0,601.0
801311,County,2020/09/07,47.0,TN,47119.0,Maury County,25303.0,69037.0,208914.0,42232.0,48217.0,25386.0,33639.0,35378.0,13494.0,6996.0,1712.0,1085.0,775.0
802936,County,2020/09/08,47.0,TN,47119.0,Maury County,21531.0,72809.0,250168.0,48823.0,52315.0,30688.0,38790.0,47182.0,21362.0,7579.0,1600.0,1232.0,597.0
807716,County,2020/09/09,47.0,TN,47119.0,Maury County,21246.0,73094.0,273840.0,53804.0,61820.0,34013.0,41855.0,49480.0,22207.0,7505.0,1369.0,1156.0,631.0
809344,County,2020/09/10,47.0,TN,47119.0,Maury County,20956.0,73384.0,258312.0,53316.0,54667.0,31934.0,37211.0,47777.0,22192.0,7689.0,1600.0,1243.0,683.0
812500,County,2020/09/11,47.0,TN,47119.0,Maury County,20327.0,74013.0,287781.0,52269.0,65214.0,36248.0,45282.0,53046.0,24088.0,8263.0,1592.0,1247.0,532.0
815686,County,2020/09/12,47.0,TN,47119.0,Maury County,21810.0,72530.0,252130.0,51823.0,55728.0,30120.0,36013.0,47033.0,20288.0,7808.0,1560.0,1190.0,567.0
820483,County,2020/09/13,47.0,TN,47119.0,Maury County,25006.0,69334.0,195039.0,32774.0,49090.0,26093.0,31598.0,34443.0,12058.0,5606.0,1321.0,1422.0,634.0
822112,County,2020/09/14,47.0,TN,47119.0,Maury County,21974.0,72366.0,254737.0,48346.0,57558.0,32163.0,37468.0,46608.0,21921.0,7666.0,1328.0,1116.0,563.0
826881,County,2020/09/15,47.0,TN,47119.0,Maury County,21780.0,72560.0,259891.0,47674.0,60373.0,31438.0,37445.0,49917.0,23324.0,6796.0,1399.0,967.0,558.0
828508,County,2020/09/16,47.0,TN,47119.0,Maury County,21014.0,73326.0,274400.0,56017.0,61226.0,32697.0,40963.0,50292.0,22874.0,7069.0,1615.0,1002.0,645.0
833252,County,2020/09/17,47.0,TN,47119.0,Maury County,20894.0,73446.0,271186.0,47025.0,61281.0,34897.0,42339.0,51337.0,23447.0,7584.0,1681.0,1103.0,492.0
834881,County,2020/09/18,47.0,TN,47119.0,Maury County,20386.0,73954.0,287932.0,56972.0,63918.0,37450.0,44489.0,51464.0,22122.0,7890.0,1983.0,1271.0,373.0
839656,County,2020/09/19,47.0,TN,47119.0,Maury County,21860.0,72480.0,275306.0,54866.0,57135.0,35648.0,44514.0,49938.0,22786.0,7404.0,1691.0,896.0,428.0
841285,County,2020/09/20,47.0,TN,47119.0,Maury County,21777.0,72563.0,229672.0,42429.0,54605.0,32035.0,37950.0,39993.0,14648.0,5115.0,1817.0,794.0,286.0
844446,County,2020/09/21,47.0,TN,47119.0,Maury County,21818.0,72522.0,244565.0,47787.0,57154.0,28503.0,35836.0,43853.0,22514.0,7448.0,958.0,378.0,134.0
847651,County,2020/09/22,47.0,TN,47119.0,Maury County,19833.0,74507.0,262249.0,51673.0,57538.0,30076.0,41050.0,49844.0,23531.0,6809.0,1167.0,448.0,113.0
852429,County,2020/09/23,47.0,TN,47119.0,Maury County,18369.0,75971.0,265002.0,49420.0,59974.0,30600.0,41350.0,50557.0,24323.0,6927.0,1255.0,408.0,188.0
854057,County,2020/09/24,47.0,TN,47119.0,Maury County,19048.0,75292.0,249797.0,44077.0,52873.0,31181.0,41168.0,46877.0,24358.0,7047.0,1560.0,509.0,147.0
858821,County,2020/09/25,47.0,TN,47119.0,Maury County,18177.0,76163.0,289477.0,56398.0,62560.0,37366.0,42514.0,54238.0,25324.0,8813.0,1682.0,439.0,143.0
860399,County,2020/09/26,47.0,TN,47119.0,Maury County,20504.0,73836.0,275087.0,53808.0,61779.0,37254.0,43329.0,48367.0,20583.0,8578.0,1014.0,260.0,115.0
865196,County,2020/09/27,47.0,TN,47119.0,Maury County,21913.0,72427.0,244188.0,45673.0,59259.0,32259.0,40899.0,40487.0,16559.0,6765.0,1638.0,444.0,205.0
866825,County,2020/09/28,47.0,TN,47119.0,Maury County,19385.0,74955.0,264711.0,51667.0,58471.0,32757.0,39410.0,48656.0,24990.0,7040.0,1146.0,422.0,152.0
871596,County,2020/09/29,47.0,TN,47119.0,Maury County,20620.0,73720.0,263164.0,50824.0,61684.0,31715.0,39483.0,46911.0,22866.0,7882.0,1105.0,532.0,162.0
873225,County,2020/09/30,47.0,TN,47119.0,Maury County,20461.0,73879.0,253279.0,49466.0,55779.0,30137.0,39276.0,45980.0,23157.0,7495.0,1229.0,604.0,156.0
876389,County,2020/10/01,47.0,TN,47119.0,Maury County,19219.0,75121.0,264229.0,47522.0,59396.0,33365.0,42002.0,46624.0,24298.0,8629.0,1559.0,613.0,221.0
879593,County,2020/10/02,47.0,TN,47119.0,Maury County,20166.0,74174.0,269140.0,48261.0,63385.0,36438.0,41372.0,48661.0,20098.0,8424.0,1674.0,641.0,186.0
882809,County,2020/10/03,47.0,TN,47119.0,Maury County,21301.0,73039.0,255190.0,46905.0,60569.0,33385.0,39572.0,44618.0,20181.0,7385.0,1705.0,680.0,190.0
887598,County,2020/10/04,47.0,TN,47119.0,Maury County,23122.0,71218.0,219505.0,39717.0,49476.0,30719.0,36337.0,39669.0,15243.0,5600.0,1996.0,552.0,196.0
890402,County,2020/10/05,47.0,TN,47119.0,Maury County,22706.0,71634.0,230106.0,45599.0,52580.0,27785.0,33235.0,40494.0,21741.0,6500.0,1307.0,641.0,224.0
893582,County,2020/10/06,47.0,TN,47119.0,Maury County,20733.0,73607.0,260322.0,45692.0,62226.0,32207.0,37039.0,48243.0,24973.0,7921.0,1269.0,582.0,170.0
896759,County,2020/10/07,47.0,TN,47119.0,Maury County,19363.0,74977.0,245807.0,43314.0,56911.0,30500.0,37102.0,43682.0,23831.0,8278.0,1201.0,799.0,189.0
899941,County,2020/10/08,47.0,TN,47119.0,Maury County,20180.0,74160.0,238474.0,41219.0,56025.0,28668.0,34279.0,44299.0,23829.0,7679.0,1618.0,692.0,166.0
903197,County,2020/10/09,47.0,TN,47119.0,Maury County,21079.0,73261.0,245193.0,39534.0,52974.0,32178.0,39595.0,47334.0,23099.0,8229.0,1505.0,597.0,148.0
906478,County,2020/10/10,47.0,TN,47119.0,Maury County,22507.0,71833.0,223105.0,35825.0,52557.0,31140.0,36438.0,40310.0,18271.0,6688.0,1281.0,435.0,160.0
907883,County,2020/10/11,47.0,TN,47119.0,Maury County,24254.0,70086.0,209664.0,37251.0,50250.0,28481.0,34029.0,35389.0,16521.0,5724.0,1228.0,644.0,147.0
911037,County,2020/10/12,47.0,TN,47119.0,Maury County,21958.0,72382.0,252434.0,47842.0,54613.0,35884.0,37760.0,44848.0,21033.0,8620.0,1182.0,556.0,96.0
914095,County,2020/10/13,47.0,TN,47119.0,Maury County,19949.0,74391.0,267556.0,52173.0,59704.0,32555.0,37709.0,48882.0,26714.0,7881.0,1201.0,601.0,136.0
917362,County,2020/10/14,47.0,TN,47119.0,Maury County,19712.0,74628.0,274600.0,54719.0,63653.0,34413.0,41167.0,49334.0,21758.0,7477.0,1372.0,592.0,115.0
920675,County,2020/10/15,47.0,TN,47119.0,Maury County,20311.0,74029.0,236861.0,42426.0,54062.0,29294.0,36186.0,44300.0,21169.0,7235.0,1283.0,741.0,165.0
923686,County,2020/10/16,47.0,TN,47119.0,Maury County,19379.0,74961.0,275441.0,50324.0,61331.0,36970.0,41095.0,53215.0,22704.0,7710.0,1250.0,676.0,166.0
927029,County,2020/10/17,47.0,TN,47119.0,Maury County,21679.0,72661.0,255303.0,48217.0,59704.0,33425.0,39837.0,43414.0,19743.0,8994.0,1165.0,649.0,155.0
930071,County,2020/10/18,47.0,TN,47119.0,Maury County,23124.0,71216.0,228668.0,39838.0,57873.0,33439.0,38141.0,35381.0,14941.0,7110.0,1240.0,561.0,144.0
933718,County,2020/10/19,47.0,TN,47119.0,Maury County,20617.0,73723.0,252999.0,50513.0,55047.0,32252.0,39753.0,41750.0,24000.0,7617.0,1418.0,519.0,130.0
936547,County,2020/10/20,47.0,TN,47119.0,Maury County,20143.0,74197.0,264900.0,55749.0,60392.0,33359.0,39017.0,45795.0,21658.0,7266.0,1114.0,434.0,116.0
939423,County,2020/10/21,47.0,TN,47119.0,Maury County,22115.0,72225.0,254452.0,50810.0,57508.0,32923.0,37612.0,43619.0,22766.0,7657.0,886.0,559.0,112.0
942658,County,2020/10/22,47.0,TN,47119.0,Maury County,21105.0,73235.0,283947.0,62122.0,61051.0,36803.0,41998.0,48706.0,23336.0,8025.0,1273.0,535.0,98.0
946056,County,2020/10/23,47.0,TN,47119.0,Maury County,18757.0,75583.0,304085.0,59161.0,67578.0,38977.0,45917.0,59365.0,22856.0,8429.0,1115.0,560.0,127.0
949083,County,2020/10/24,47.0,TN,47119.0,Maury County,21715.0,72625.0,283578.0,59348.0,63206.0,37355.0,44606.0,51080.0,19527.0,7239.0,852.0,280.0,85.0
