,Level,Date,State FIPS,State Postal Code,County FIPS,County Name,Population Staying at Home,Population Not Staying at Home,Number of Trips,Number of Trips <1,Number of Trips 1-3,Number of Trips 3-5,Number of Trips 5-10,Number of Trips 10-25,Number of Trips 25-50,Number of Trips 50-100,Number of Trips 100-250,Number of Trips 250-500,Number of Trips >=500
608,County,2020/01/01,17.0,IL,17027.0,Clinton County,9141.0,28498.0,124787.0,31678.0,23350.0,8807.0,21822.0,25398.0,9931.0,2391.0,904.0,334.0,172.0
5990,County,2020/01/02,17.0,IL,17027.0,Clinton County,7833.0,29806.0,135891.0,35308.0,27545.0,8825.0,19711.0,24929.0,14661.0,3422.0,985.0,333.0,172.0
8011,County,2020/01/03,17.0,IL,17027.0,Clinton County,7261.0,30378.0,151775.0,37539.0,28078.0,13219.0,21855.0,29214.0,15797.0,3897.0,1672.0,430.0,74.0
9901,County,2020/01/04,17.0,IL,17027.0,Clinton County,7809.0,29830.0,142576.0,32063.0,28165.0,11804.0,24065.0,27535.0,12770.0,4179.0,1327.0,531.0,137.0
13384,County,2020/01/05,17.0,IL,17027.0,Clinton County,9200.0,28439.0,137280.0,37500.0,25313.0,11186.0,23068.0,24233.0,10204.0,2754.0,2289.0,583.0,150.0
17898,County,2020/01/06,17.0,IL,17027.0,Clinton County,7527.0,30112.0,137242.0,34922.0,28684.0,9526.0,18546.0,26444.0,13192.0,4482.0,1123.0,177.0,146.0
21044,County,2020/01/07,17.0,IL,17027.0,Clinton County,7303.0,30336.0,148486.0,36676.0,31509.0,11941.0,20431.0,27206.0,15218.0,4212.0,878.0,330.0,85.0
22671,County,2020/01/08,17.0,IL,17027.0,Clinton County,7085.0,30554.0,147184.0,32840.0,31000.0,10965.0,21520.0,27793.0,16267.0,4672.0,1610.0,437.0,80.0
25866,County,2020/01/09,17.0,IL,17027.0,Clinton County,6946.0,30693.0,152230.0,31719.0,35063.0,13974.0,19260.0,29973.0,15442.0,4406.0,1714.0,618.0,61.0
30626,County,2020/01/10,17.0,IL,17027.0,Clinton County,7204.0,30435.0,152904.0,30990.0,30239.0,14081.0,23768.0,31256.0,15985.0,3970.0,1951.0,571.0,93.0
33870,County,2020/01/11,17.0,IL,17027.0,Clinton County,8267.0,29372.0,139975.0,28527.0,30317.0,15316.0,20993.0,26850.0,12954.0,3503.0,925.0,523.0,67.0
36989,County,2020/01/12,17.0,IL,17027.0,Clinton County,9310.0,28329.0,128412.0,27948.0,26879.0,9809.0,21695.0,26611.0,10836.0,3222.0,958.0,324.0,130.0
40237,County,2020/01/13,17.0,IL,17027.0,Clinton County,7370.0,30269.0,145090.0,31897.0,31817.0,12760.0,21274.0,26939.0,14013.0,4467.0,1477.0,348.0,98.0
41863,County,2020/01/14,17.0,IL,17027.0,Clinton County,6907.0,30732.0,148103.0,31429.0,33229.0,11556.0,20080.0,29320.0,16375.0,4833.0,761.0,457.0,63.0
46592,County,2020/01/15,17.0,IL,17027.0,Clinton County,7237.0,30402.0,150253.0,36533.0,31723.0,13067.0,20990.0,27732.0,13010.0,5467.0,1423.0,214.0,94.0
49748,County,2020/01/16,17.0,IL,17027.0,Clinton County,7194.0,30445.0,149533.0,35396.0,30417.0,12556.0,23113.0,25273.0,16498.0,4701.0,1096.0,329.0,154.0
53035,County,2020/01/17,17.0,IL,17027.0,Clinton County,7411.0,30228.0,138396.0,29126.0,31060.0,12707.0,23138.0,24371.0,13020.0,3033.0,1356.0,465.0,120.0
56156,County,2020/01/18,17.0,IL,17027.0,Clinton County,7944.0,29695.0,139696.0,33759.0,26995.0,10692.0,20199.0,29484.0,13063.0,4042.0,1024.0,388.0,50.0
59403,County,2020/01/19,17.0,IL,17027.0,Clinton County,9461.0,28178.0,127170.0,27996.0,26339.0,10850.0,23013.0,25851.0,9471.0,2077.0,1060.0,495.0,18.0
60988,County,2020/01/20,17.0,IL,17027.0,Clinton County,8394.0,29245.0,130040.0,29799.0,25486.0,10613.0,21105.0,24774.0,12634.0,3075.0,2060.0,412.0,82.0
65765,County,2020/01/21,17.0,IL,17027.0,Clinton County,7444.0,30195.0,146637.0,37849.0,28711.0,11741.0,20126.0,26966.0,15073.0,4337.0,1571.0,122.0,141.0
68956,County,2020/01/22,17.0,IL,17027.0,Clinton County,7359.0,30280.0,145089.0,35939.0,29966.0,11486.0,20620.0,25919.0,15030.0,4306.0,1332.0,415.0,76.0
70580,County,2020/01/23,17.0,IL,17027.0,Clinton County,7368.0,30271.0,143604.0,32362.0,32010.0,11204.0,20259.0,27554.0,14775.0,4049.0,947.0,341.0,103.0
73777,County,2020/01/24,17.0,IL,17027.0,Clinton County,7144.0,30495.0,155182.0,34105.0,31708.0,11068.0,24010.0,30590.0,16496.0,5129.0,1515.0,440.0,121.0
78529,County,2020/01/25,17.0,IL,17027.0,Clinton County,7555.0,30084.0,158441.0,33098.0,37626.0,13565.0,22900.0,29373.0,16115.0,4367.0,1022.0,258.0,117.0
80458,County,2020/01/26,17.0,IL,17027.0,Clinton County,8502.0,29137.0,138769.0,34125.0,27756.0,10936.0,25461.0,24886.0,10944.0,2977.0,1306.0,294.0,84.0
84648,County,2020/01/27,17.0,IL,17027.0,Clinton County,7782.0,29857.0,154925.0,41931.0,32509.0,11370.0,21098.0,26456.0,14968.0,4684.0,1277.0,521.0,111.0
86566,County,2020/01/28,17.0,IL,17027.0,Clinton County,7070.0,30569.0,156956.0,43044.0,30647.0,12285.0,20093.0,28487.0,15290.0,5560.0,921.0,524.0,105.0
91299,County,2020/01/29,17.0,IL,17027.0,Clinton County,7468.0,30171.0,148453.0,36252.0,31053.0,12483.0,20394.0,27511.0,14607.0,4001.0,1756.0,351.0,45.0
94553,County,2020/01/30,17.0,IL,17027.0,Clinton County,6773.0,30866.0,153190.0,33566.0,34213.0,11954.0,22653.0,29784.0,14378.0,4369.0,1604.0,567.0,102.0
97699,County,2020/01/31,17.0,IL,17027.0,Clinton County,6702.0,30937.0,164091.0,35633.0,33006.0,13406.0,28300.0,30114.0,15017.0,6510.0,1429.0,543.0,133.0
100887,County,2020/02/01,17.0,IL,17027.0,Clinton County,7757.0,29882.0,157401.0,38347.0,31879.0,12790.0,24372.0,30022.0,13090.0,4277.0,2128.0,327.0,169.0
102505,County,2020/02/02,17.0,IL,17027.0,Clinton County,8668.0,28971.0,139824.0,37376.0,28010.0,12812.0,23204.0,24864.0,8390.0,3407.0,1220.0,305.0,236.0
105715,County,2020/02/03,17.0,IL,17027.0,Clinton County,7011.0,30628.0,156414.0,39855.0,31642.0,13232.0,23115.0,28567.0,14103.0,4010.0,1070.0,696.0,124.0
108909,County,2020/02/04,17.0,IL,17027.0,Clinton County,6783.0,30856.0,147287.0,33082.0,30549.0,12776.0,22488.0,26456.0,14782.0,5253.0,1200.0,489.0,212.0
113632,County,2020/02/05,17.0,IL,17027.0,Clinton County,7644.0,29995.0,148643.0,37155.0,32225.0,11905.0,22758.0,25829.0,12770.0,4258.0,1317.0,290.0,136.0
116838,County,2020/02/06,17.0,IL,17027.0,Clinton County,6899.0,30740.0,154772.0,35595.0,32911.0,12454.0,22880.0,30506.0,14816.0,4066.0,768.0,538.0,238.0
120092,County,2020/02/07,17.0,IL,17027.0,Clinton County,6478.0,31161.0,170010.0,39250.0,36800.0,14215.0,25011.0,31384.0,16112.0,5107.0,1587.0,438.0,106.0
123252,County,2020/02/08,17.0,IL,17027.0,Clinton County,7454.0,30185.0,153293.0,37875.0,31981.0,11914.0,23602.0,29023.0,13784.0,3672.0,940.0,349.0,153.0
127459,County,2020/02/09,17.0,IL,17027.0,Clinton County,9166.0,28473.0,130825.0,29521.0,27576.0,12290.0,19405.0,24943.0,10769.0,3731.0,1850.0,344.0,396.0
128917,County,2020/02/10,17.0,IL,17027.0,Clinton County,6652.0,30987.0,168062.0,38662.0,35069.0,14011.0,23398.0,30887.0,17403.0,5794.0,1832.0,590.0,416.0
131563,County,2020/02/11,17.0,IL,17027.0,Clinton County,6710.0,30929.0,166814.0,37846.0,35075.0,14262.0,24878.0,30445.0,16482.0,5520.0,1462.0,631.0,213.0
134936,County,2020/02/12,17.0,IL,17027.0,Clinton County,6889.0,30750.0,159157.0,33066.0,35879.0,13650.0,24693.0,29968.0,14407.0,4857.0,1561.0,807.0,269.0
137645,County,2020/02/13,17.0,IL,17027.0,Clinton County,6922.0,30717.0,156779.0,34690.0,30176.0,13394.0,22959.0,30000.0,17208.0,5399.0,1963.0,730.0,260.0
140752,County,2020/02/14,17.0,IL,17027.0,Clinton County,6656.0,30983.0,169593.0,37591.0,32781.0,14917.0,24848.0,33473.0,15974.0,6284.0,2341.0,1137.0,247.0
145630,County,2020/02/15,17.0,IL,17027.0,Clinton County,7229.0,30410.0,178678.0,43385.0,33239.0,13551.0,30147.0,34397.0,15245.0,5643.0,1720.0,1001.0,350.0
147237,County,2020/02/16,17.0,IL,17027.0,Clinton County,8472.0,29167.0,151753.0,39080.0,27993.0,14350.0,24488.0,26535.0,13054.0,3610.0,1234.0,1044.0,365.0
151999,County,2020/02/17,17.0,IL,17027.0,Clinton County,9534.0,28105.0,122555.0,26973.0,25763.0,8885.0,17742.0,24116.0,12796.0,4258.0,1057.0,580.0,385.0
155142,County,2020/02/18,17.0,IL,17027.0,Clinton County,7159.0,30480.0,151780.0,34845.0,28954.0,13537.0,22850.0,29041.0,14617.0,5946.0,931.0,889.0,170.0
156820,County,2020/02/19,17.0,IL,17027.0,Clinton County,6922.0,30717.0,163238.0,36851.0,31302.0,14982.0,22534.0,32395.0,17104.0,6095.0,1199.0,652.0,124.0
161484,County,2020/02/20,17.0,IL,17027.0,Clinton County,6949.0,30690.0,162261.0,38639.0,33209.0,14274.0,23874.0,28896.0,15581.0,5411.0,1450.0,737.0,190.0
164775,County,2020/02/21,17.0,IL,17027.0,Clinton County,6884.0,30755.0,180457.0,42645.0,36253.0,16226.0,26702.0,33504.0,18419.0,4659.0,1057.0,802.0,190.0
166353,County,2020/02/22,17.0,IL,17027.0,Clinton County,6641.0,30998.0,164714.0,37738.0,34253.0,14737.0,25468.0,29830.0,16607.0,3632.0,1910.0,465.0,74.0
169580,County,2020/02/23,17.0,IL,17027.0,Clinton County,8553.0,29086.0,140130.0,29435.0,32735.0,13840.0,21142.0,25188.0,11312.0,3826.0,1949.0,605.0,98.0
172745,County,2020/02/24,17.0,IL,17027.0,Clinton County,7328.0,30311.0,144243.0,31662.0,28325.0,12886.0,21253.0,29523.0,13378.0,4875.0,1478.0,592.0,271.0
176719,County,2020/02/25,17.0,IL,17027.0,Clinton County,6712.0,30927.0,157426.0,31789.0,32723.0,12414.0,24478.0,31787.0,16022.0,5955.0,1246.0,748.0,264.0
179472,County,2020/02/26,17.0,IL,17027.0,Clinton County,7441.0,30198.0,142787.0,26695.0,32874.0,13586.0,22635.0,28114.0,13134.0,3825.0,1197.0,449.0,278.0
183639,County,2020/02/27,17.0,IL,17027.0,Clinton County,7147.0,30492.0,154050.0,35572.0,30815.0,11214.0,21956.0,30861.0,16273.0,5436.0,1187.0,543.0,193.0
187181,County,2020/02/28,17.0,IL,17027.0,Clinton County,6724.0,30915.0,174169.0,38968.0,34833.0,15015.0,25882.0,35578.0,16494.0,5071.0,1363.0,818.0,147.0
190278,County,2020/02/29,17.0,IL,17027.0,Clinton County,7729.0,29910.0,173771.0,37786.0,39069.0,14659.0,28010.0,33276.0,14249.0,4727.0,1406.0,402.0,187.0
191950,County,2020/03/01,17.0,IL,17027.0,Clinton County,8331.0,29308.0,139225.0,32407.0,31432.0,11797.0,22189.0,25669.0,11316.0,2548.0,1291.0,443.0,133.0
196750,County,2020/03/02,17.0,IL,17027.0,Clinton County,7257.0,30382.0,141355.0,33015.0,27117.0,12205.0,19294.0,27833.0,15066.0,4633.0,1521.0,414.0,257.0
198328,County,2020/03/03,17.0,IL,17027.0,Clinton County,6690.0,30949.0,155104.0,32935.0,31859.0,15490.0,20847.0,31555.0,16060.0,3984.0,1716.0,434.0,224.0
203065,County,2020/03/04,17.0,IL,17027.0,Clinton County,6680.0,30959.0,155038.0,34569.0,28735.0,14312.0,23916.0,29818.0,15972.0,5213.0,1818.0,601.0,84.0
206316,County,2020/03/05,17.0,IL,17027.0,Clinton County,6330.0,31309.0,155901.0,32252.0,31484.0,13304.0,22203.0,33225.0,16322.0,4510.0,1704.0,818.0,79.0
207798,County,2020/03/06,17.0,IL,17027.0,Clinton County,6413.0,31226.0,166379.0,34517.0,35071.0,16599.0,23807.0,32622.0,16682.0,5403.0,1081.0,541.0,56.0
211099,County,2020/03/07,17.0,IL,17027.0,Clinton County,6833.0,30806.0,178169.0,43333.0,37426.0,15493.0,26692.0,32920.0,14295.0,4413.0,2602.0,902.0,93.0
214313,County,2020/03/08,17.0,IL,17027.0,Clinton County,7822.0,29817.0,142329.0,30395.0,30747.0,14815.0,23901.0,26086.0,9678.0,3519.0,2044.0,993.0,151.0
219072,County,2020/03/09,17.0,IL,17027.0,Clinton County,6958.0,30681.0,153033.0,31199.0,33817.0,15006.0,23442.0,26706.0,13960.0,6249.0,1792.0,685.0,177.0
222266,County,2020/03/10,17.0,IL,17027.0,Clinton County,6568.0,31071.0,140374.0,25581.0,30177.0,11556.0,21458.0,26120.0,16229.0,5711.0,2386.0,972.0,184.0
223890,County,2020/03/11,17.0,IL,17027.0,Clinton County,6684.0,30955.0,143158.0,22101.0,27659.0,17620.0,20679.0,27351.0,16104.0,6819.0,3140.0,1161.0,524.0
227074,County,2020/03/12,17.0,IL,17027.0,Clinton County,7168.0,30471.0,145154.0,28343.0,25967.0,12126.0,24722.0,26735.0,15943.0,7716.0,2430.0,1021.0,151.0
231855,County,2020/03/13,17.0,IL,17027.0,Clinton County,6981.0,30658.0,170048.0,29738.0,35175.0,14914.0,32621.0,32429.0,16635.0,5498.0,1898.0,1140.0,0.0
234910,County,2020/03/14,17.0,IL,17027.0,Clinton County,8278.0,29361.0,126072.0,20717.0,24499.0,14070.0,18066.0,27616.0,13835.0,3669.0,2080.0,1428.0,92.0
236669,County,2020/03/15,17.0,IL,17027.0,Clinton County,9603.0,28036.0,126006.0,26352.0,24771.0,12356.0,20131.0,26370.0,11165.0,2019.0,2091.0,658.0,93.0
239863,County,2020/03/16,17.0,IL,17027.0,Clinton County,7938.0,29701.0,146414.0,32660.0,32300.0,12578.0,21392.0,25003.0,14631.0,4922.0,2499.0,300.0,129.0
243046,County,2020/03/17,17.0,IL,17027.0,Clinton County,9248.0,28391.0,144610.0,35581.0,27256.0,14423.0,18683.0,25043.0,17270.0,4374.0,1353.0,488.0,139.0
246250,County,2020/03/18,17.0,IL,17027.0,Clinton County,10240.0,27399.0,136454.0,33112.0,26535.0,11731.0,16942.0,25196.0,15563.0,5053.0,1719.0,573.0,30.0
251032,County,2020/03/19,17.0,IL,17027.0,Clinton County,9401.0,28238.0,140117.0,30841.0,30887.0,13320.0,21871.0,20714.0,15901.0,4886.0,839.0,806.0,52.0
252641,County,2020/03/20,17.0,IL,17027.0,Clinton County,9984.0,27655.0,136631.0,31031.0,28148.0,8241.0,21453.0,27894.0,12509.0,4825.0,1941.0,424.0,165.0
257350,County,2020/03/21,17.0,IL,17027.0,Clinton County,11185.0,26454.0,127459.0,26944.0,27551.0,13608.0,24523.0,20884.0,9549.0,2464.0,1611.0,258.0,67.0
259019,County,2020/03/22,17.0,IL,17027.0,Clinton County,12154.0,25485.0,91420.0,18487.0,24637.0,9484.0,14238.0,14429.0,6831.0,1792.0,837.0,574.0,111.0
262224,County,2020/03/23,17.0,IL,17027.0,Clinton County,10172.0,27467.0,113190.0,25966.0,22983.0,10267.0,17336.0,20222.0,10589.0,3976.0,1442.0,325.0,84.0
265376,County,2020/03/24,17.0,IL,17027.0,Clinton County,10321.0,27318.0,118352.0,28041.0,29577.0,9461.0,16489.0,18395.0,11191.0,3137.0,1497.0,506.0,58.0
268610,County,2020/03/25,17.0,IL,17027.0,Clinton County,9884.0,27755.0,121382.0,27732.0,30825.0,11281.0,15760.0,17821.0,11736.0,4264.0,1706.0,228.0,29.0
273350,County,2020/03/26,17.0,IL,17027.0,Clinton County,9546.0,28093.0,129636.0,31232.0,29264.0,12590.0,18099.0,21744.0,11309.0,3292.0,1442.0,611.0,53.0
274990,County,2020/03/27,17.0,IL,17027.0,Clinton County,10040.0,27599.0,125235.0,30367.0,27556.0,11600.0,16721.0,21337.0,12054.0,3255.0,2006.0,289.0,50.0
279751,County,2020/03/28,17.0,IL,17027.0,Clinton County,10809.0,26830.0,107854.0,24312.0,26347.0,8898.0,16007.0,18882.0,10106.0,1995.0,754.0,553.0,0.0
281386,County,2020/03/29,17.0,IL,17027.0,Clinton County,11333.0,26306.0,111536.0,30112.0,29013.0,12970.0,14268.0,16761.0,5569.0,1117.0,1462.0,234.0,30.0
284579,County,2020/03/30,17.0,IL,17027.0,Clinton County,9941.0,27698.0,129772.0,34702.0,29919.0,10991.0,18003.0,20132.0,10854.0,3310.0,1334.0,501.0,26.0
289334,County,2020/03/31,17.0,IL,17027.0,Clinton County,9868.0,27771.0,124418.0,31498.0,25627.0,10198.0,18828.0,20557.0,12739.0,3066.0,1187.0,560.0,158.0
292533,County,2020/04/01,17.0,IL,17027.0,Clinton County,9742.0,27897.0,124664.0,36302.0,26415.0,10103.0,17403.0,19828.0,9954.0,2815.0,1008.0,706.0,130.0
294162,County,2020/04/02,17.0,IL,17027.0,Clinton County,10095.0,27544.0,128387.0,36194.0,28345.0,8765.0,19233.0,19544.0,11445.0,3100.0,1082.0,595.0,84.0
297356,County,2020/04/03,17.0,IL,17027.0,Clinton County,9570.0,28069.0,139364.0,41015.0,29983.0,11423.0,18225.0,22539.0,11078.0,3293.0,1217.0,390.0,201.0
300549,County,2020/04/04,17.0,IL,17027.0,Clinton County,10988.0,26651.0,114421.0,33727.0,29209.0,9135.0,14526.0,16879.0,7151.0,2687.0,762.0,286.0,59.0
303730,County,2020/04/05,17.0,IL,17027.0,Clinton County,11720.0,25919.0,103294.0,30195.0,25323.0,7994.0,13497.0,15762.0,6041.0,2565.0,1400.0,517.0,0.0
306939,County,2020/04/06,17.0,IL,17027.0,Clinton County,10094.0,27545.0,126294.0,35467.0,29370.0,11169.0,14696.0,19693.0,10273.0,3692.0,1425.0,481.0,28.0
310132,County,2020/04/07,17.0,IL,17027.0,Clinton County,10283.0,27356.0,138223.0,38603.0,29865.0,12516.0,17974.0,21290.0,11620.0,4232.0,1569.0,554.0,0.0
313326,County,2020/04/08,17.0,IL,17027.0,Clinton County,9274.0,28365.0,138061.0,40428.0,31792.0,12516.0,18888.0,19380.0,9432.0,3479.0,1814.0,332.0,0.0
318085,County,2020/04/09,17.0,IL,17027.0,Clinton County,10014.0,27625.0,128422.0,36260.0,27735.0,10074.0,17817.0,20237.0,11077.0,3281.0,1471.0,416.0,54.0
319722,County,2020/04/10,17.0,IL,17027.0,Clinton County,9808.0,27831.0,136010.0,37562.0,31092.0,12184.0,19361.0,21002.0,9983.0,2955.0,1234.0,582.0,55.0
324517,County,2020/04/11,17.0,IL,17027.0,Clinton County,9832.0,27807.0,128927.0,36811.0,31425.0,12435.0,16441.0,18213.0,9816.0,2104.0,1148.0,424.0,110.0
326100,County,2020/04/12,17.0,IL,17027.0,Clinton County,12934.0,24705.0,83905.0,23810.0,21249.0,7672.0,11291.0,14182.0,3739.0,944.0,856.0,129.0,33.0
329317,County,2020/04/13,17.0,IL,17027.0,Clinton County,10497.0,27142.0,109928.0,27051.0,25516.0,8718.0,16342.0,17174.0,9420.0,3526.0,1635.0,546.0,0.0
334038,County,2020/04/14,17.0,IL,17027.0,Clinton County,10298.0,27341.0,110771.0,26920.0,22108.0,10389.0,14973.0,20625.0,10448.0,3484.0,1097.0,659.0,68.0
335667,County,2020/04/15,17.0,IL,17027.0,Clinton County,10030.0,27609.0,116622.0,26686.0,24657.0,14053.0,15229.0,20932.0,9115.0,3039.0,1938.0,906.0,67.0
338868,County,2020/04/16,17.0,IL,17027.0,Clinton County,10466.0,27173.0,111741.0,19617.0,26990.0,15890.0,16451.0,20009.0,9577.0,1856.0,842.0,379.0,130.0
342120,County,2020/04/17,17.0,IL,17027.0,Clinton County,9881.0,27758.0,120496.0,20083.0,24911.0,18439.0,21822.0,19015.0,12333.0,2617.0,636.0,509.0,131.0
346795,County,2020/04/18,17.0,IL,17027.0,Clinton County,10942.0,26697.0,119619.0,27017.0,29427.0,17431.0,16262.0,20042.0,5983.0,2040.0,1028.0,309.0,80.0
348446,County,2020/04/19,17.0,IL,17027.0,Clinton County,10788.0,26851.0,91686.0,18815.0,20064.0,14162.0,12301.0,16748.0,6344.0,2237.0,461.0,554.0,0.0
351653,County,2020/04/20,17.0,IL,17027.0,Clinton County,8937.0,28702.0,132747.0,27197.0,37463.0,12860.0,20877.0,21968.0,8161.0,2886.0,701.0,561.0,73.0
356413,County,2020/04/21,17.0,IL,17027.0,Clinton County,9994.0,27645.0,138757.0,38006.0,31199.0,16140.0,17954.0,20576.0,10761.0,3277.0,489.0,294.0,61.0
358042,County,2020/04/22,17.0,IL,17027.0,Clinton County,9572.0,28067.0,134453.0,35034.0,31124.0,11836.0,16043.0,22382.0,13084.0,3496.0,944.0,510.0,0.0
361147,County,2020/04/23,17.0,IL,17027.0,Clinton County,9800.0,27839.0,119134.0,28643.0,25907.0,13620.0,14327.0,20379.0,11157.0,4074.0,602.0,301.0,124.0
366035,County,2020/04/24,17.0,IL,17027.0,Clinton County,8604.0,29035.0,118994.0,23936.0,26657.0,13105.0,18019.0,22418.0,10127.0,3480.0,672.0,554.0,26.0
369191,County,2020/04/25,17.0,IL,17027.0,Clinton County,10645.0,26994.0,105625.0,22018.0,22603.0,16840.0,14287.0,19447.0,6499.0,2515.0,987.0,395.0,34.0
372337,County,2020/04/26,17.0,IL,17027.0,Clinton County,9557.0,28082.0,129424.0,33358.0,29626.0,16599.0,17403.0,19828.0,8035.0,2698.0,1687.0,190.0,0.0
374011,County,2020/04/27,17.0,IL,17027.0,Clinton County,9646.0,27993.0,128385.0,33481.0,30036.0,12648.0,15650.0,19206.0,11455.0,3819.0,1318.0,509.0,263.0
378739,County,2020/04/28,17.0,IL,17027.0,Clinton County,9809.0,27830.0,137654.0,32573.0,34096.0,13344.0,19623.0,22928.0,9104.0,4522.0,782.0,574.0,108.0
380414,County,2020/04/29,17.0,IL,17027.0,Clinton County,9260.0,28379.0,116352.0,25179.0,26129.0,13552.0,14078.0,22322.0,10206.0,4170.0,284.0,227.0,205.0
385160,County,2020/04/30,17.0,IL,17027.0,Clinton County,9551.0,28088.0,131165.0,29453.0,30694.0,11546.0,17035.0,26086.0,11105.0,3806.0,1079.0,118.0,243.0
388396,County,2020/05/01,17.0,IL,17027.0,Clinton County,9045.0,28594.0,152191.0,38242.0,40169.0,15053.0,21280.0,22063.0,10548.0,3881.0,629.0,270.0,56.0
389969,County,2020/05/02,17.0,IL,17027.0,Clinton County,9832.0,27807.0,145497.0,34766.0,36310.0,20772.0,18267.0,21877.0,8289.0,3413.0,1604.0,170.0,29.0
394742,County,2020/05/03,17.0,IL,17027.0,Clinton County,10166.0,27473.0,117175.0,25021.0,30344.0,15828.0,16134.0,19537.0,7160.0,2145.0,846.0,127.0,33.0
397936,County,2020/05/04,17.0,IL,17027.0,Clinton County,9032.0,28607.0,132781.0,30292.0,34360.0,10422.0,17058.0,25164.0,9452.0,4403.0,1314.0,316.0,0.0
399563,County,2020/05/05,17.0,IL,17027.0,Clinton County,9471.0,28168.0,133665.0,35322.0,29256.0,13055.0,17611.0,22555.0,11641.0,2973.0,1065.0,160.0,27.0
404318,County,2020/05/06,17.0,IL,17027.0,Clinton County,9642.0,27997.0,144532.0,40423.0,29196.0,11134.0,20998.0,25841.0,13154.0,2952.0,574.0,230.0,30.0
405945,County,2020/05/07,17.0,IL,17027.0,Clinton County,8635.0,29004.0,145097.0,42374.0,29218.0,12245.0,21625.0,24094.0,10126.0,3919.0,854.0,616.0,26.0
409201,County,2020/05/08,17.0,IL,17027.0,Clinton County,9097.0,28542.0,133918.0,28123.0,29781.0,14129.0,21577.0,24278.0,11392.0,3571.0,1012.0,55.0,0.0
413872,County,2020/05/09,17.0,IL,17027.0,Clinton County,9126.0,28513.0,131597.0,25901.0,31039.0,16534.0,22867.0,22225.0,9249.0,2765.0,760.0,228.0,29.0
415533,County,2020/05/10,17.0,IL,17027.0,Clinton County,9871.0,27768.0,117719.0,25133.0,29925.0,13114.0,19258.0,18388.0,8529.0,2457.0,796.0,119.0,0.0
418727,County,2020/05/11,17.0,IL,17027.0,Clinton County,8131.0,29508.0,160021.0,44889.0,34790.0,13731.0,22475.0,24712.0,12698.0,4630.0,1558.0,520.0,18.0
421911,County,2020/05/12,17.0,IL,17027.0,Clinton County,7320.0,30319.0,162419.0,40400.0,39015.0,14688.0,23578.0,24117.0,13979.0,4584.0,1733.0,325.0,0.0
425067,County,2020/05/13,17.0,IL,17027.0,Clinton County,7630.0,30009.0,131584.0,28138.0,30160.0,13776.0,19553.0,22348.0,11921.0,3867.0,1387.0,400.0,34.0
428310,County,2020/05/14,17.0,IL,17027.0,Clinton County,7500.0,30139.0,141359.0,33630.0,32037.0,13936.0,21554.0,24062.0,11075.0,3186.0,1381.0,383.0,115.0
433050,County,2020/05/15,17.0,IL,17027.0,Clinton County,7877.0,29762.0,135701.0,31272.0,32290.0,10459.0,20349.0,24599.0,11571.0,3166.0,1160.0,630.0,205.0
434728,County,2020/05/16,17.0,IL,17027.0,Clinton County,8017.0,29622.0,134982.0,33032.0,29550.0,15270.0,21110.0,22688.0,9909.0,2216.0,914.0,240.0,53.0
437881,County,2020/05/17,17.0,IL,17027.0,Clinton County,8546.0,29093.0,120369.0,21862.0,30264.0,15484.0,17249.0,22138.0,8037.0,2952.0,2188.0,155.0,40.0
441126,County,2020/05/18,17.0,IL,17027.0,Clinton County,6947.0,30692.0,153479.0,31461.0,38695.0,16700.0,24221.0,24079.0,12212.0,4566.0,1186.0,259.0,100.0
444280,County,2020/05/19,17.0,IL,17027.0,Clinton County,7010.0,30629.0,143536.0,27413.0,34659.0,16304.0,19975.0,23756.0,15198.0,4597.0,1042.0,556.0,36.0
449041,County,2020/05/20,17.0,IL,17027.0,Clinton County,6852.0,30787.0,148347.0,31089.0,33832.0,13956.0,24184.0,25779.0,12278.0,5117.0,1624.0,488.0,0.0
451882,County,2020/05/21,17.0,IL,17027.0,Clinton County,5985.0,31654.0,162872.0,40212.0,32826.0,16618.0,24300.0,27175.0,12728.0,5633.0,2448.0,767.0,165.0
453854,County,2020/05/22,17.0,IL,17027.0,Clinton County,6328.0,31311.0,172360.0,42278.0,32996.0,20064.0,28918.0,27048.0,13902.0,4859.0,1907.0,191.0,197.0
457050,County,2020/05/23,17.0,IL,17027.0,Clinton County,7329.0,30310.0,150678.0,32123.0,31631.0,17304.0,27245.0,25577.0,11947.0,3611.0,868.0,372.0,0.0
461793,County,2020/05/24,17.0,IL,17027.0,Clinton County,7934.0,29705.0,132592.0,27175.0,32530.0,16666.0,22397.0,20562.0,8614.0,2576.0,1532.0,288.0,252.0
465095,County,2020/05/25,17.0,IL,17027.0,Clinton County,8619.0,29020.0,123218.0,30842.0,26542.0,12694.0,17157.0,20659.0,9543.0,3226.0,1904.0,511.0,140.0
468252,County,2020/05/26,17.0,IL,17027.0,Clinton County,7622.0,30017.0,144681.0,38104.0,30485.0,12350.0,21058.0,23818.0,13533.0,3522.0,1379.0,285.0,147.0
469831,County,2020/05/27,17.0,IL,17027.0,Clinton County,7067.0,30572.0,144837.0,37397.0,31150.0,12990.0,20948.0,23539.0,12901.0,3734.0,1683.0,337.0,158.0
473027,County,2020/05/28,17.0,IL,17027.0,Clinton County,7501.0,30138.0,131215.0,28639.0,28241.0,12318.0,19965.0,23137.0,12833.0,3663.0,1888.0,312.0,219.0
477781,County,2020/05/29,17.0,IL,17027.0,Clinton County,9080.0,28559.0,138082.0,32916.0,29712.0,14645.0,20805.0,24123.0,10427.0,3347.0,1591.0,478.0,38.0
479359,County,2020/05/30,17.0,IL,17027.0,Clinton County,8964.0,28675.0,152972.0,41363.0,34766.0,15741.0,24347.0,22761.0,10073.0,2519.0,1025.0,264.0,113.0
482535,County,2020/05/31,17.0,IL,17027.0,Clinton County,8378.0,29261.0,148561.0,35773.0,37581.0,14465.0,21407.0,26772.0,8263.0,2558.0,1562.0,134.0,46.0
487427,County,2020/06/01,17.0,IL,17027.0,Clinton County,7205.0,30434.0,148687.0,36074.0,31163.0,15800.0,22358.0,25013.0,12183.0,4268.0,1224.0,501.0,103.0
490534,County,2020/06/02,17.0,IL,17027.0,Clinton County,7661.0,29978.0,155345.0,38060.0,35677.0,15434.0,21943.0,24777.0,13193.0,3529.0,2030.0,522.0,180.0
492164,County,2020/06/03,17.0,IL,17027.0,Clinton County,6326.0,31313.0,170353.0,42084.0,41689.0,18666.0,23108.0,25718.0,13299.0,3651.0,1464.0,424.0,250.0
496938,County,2020/06/04,17.0,IL,17027.0,Clinton County,6933.0,30706.0,166327.0,43370.0,38260.0,15140.0,22953.0,27287.0,13601.0,3368.0,1667.0,614.0,67.0
498578,County,2020/06/05,17.0,IL,17027.0,Clinton County,5728.0,31911.0,174548.0,45330.0,36328.0,16609.0,26577.0,28969.0,14293.0,3956.0,1741.0,729.0,16.0
503303,County,2020/06/06,17.0,IL,17027.0,Clinton County,8060.0,29579.0,151554.0,36653.0,34094.0,16758.0,24543.0,25401.0,10284.0,2675.0,896.0,207.0,43.0
504966,County,2020/06/07,17.0,IL,17027.0,Clinton County,8591.0,29048.0,134508.0,30836.0,29467.0,14511.0,24506.0,23105.0,7788.0,3047.0,751.0,451.0,46.0
509713,County,2020/06/08,17.0,IL,17027.0,Clinton County,6358.0,31281.0,168039.0,44754.0,36009.0,14797.0,24367.0,28822.0,12965.0,4331.0,1468.0,441.0,85.0
511342,County,2020/06/09,17.0,IL,17027.0,Clinton County,7311.0,30328.0,146729.0,36320.0,32180.0,13983.0,20369.0,24895.0,12879.0,3517.0,2072.0,466.0,48.0
516123,County,2020/06/10,17.0,IL,17027.0,Clinton County,7429.0,30210.0,156766.0,44918.0,34251.0,12430.0,19728.0,25200.0,13216.0,4233.0,2024.0,694.0,72.0
519280,County,2020/06/11,17.0,IL,17027.0,Clinton County,6550.0,31089.0,166977.0,43363.0,38290.0,14150.0,22512.0,27757.0,13988.0,4167.0,1960.0,634.0,156.0
520954,County,2020/06/12,17.0,IL,17027.0,Clinton County,7024.0,30615.0,158445.0,43425.0,34308.0,11502.0,24714.0,25487.0,12389.0,3768.0,2164.0,533.0,155.0
524130,County,2020/06/13,17.0,IL,17027.0,Clinton County,7052.0,30587.0,162552.0,41835.0,35536.0,15000.0,26374.0,28219.0,10327.0,2820.0,2019.0,370.0,52.0
528893,County,2020/06/14,17.0,IL,17027.0,Clinton County,7867.0,29772.0,133715.0,32363.0,30024.0,11310.0,20699.0,23899.0,9295.0,3118.0,2541.0,398.0,68.0
532084,County,2020/06/15,17.0,IL,17027.0,Clinton County,7313.0,30326.0,143645.0,34788.0,31542.0,12875.0,19359.0,26898.0,11672.0,4176.0,1668.0,517.0,150.0
533712,County,2020/06/16,17.0,IL,17027.0,Clinton County,7191.0,30448.0,160005.0,40632.0,36239.0,14407.0,20505.0,27548.0,13557.0,4647.0,2052.0,366.0,52.0
536906,County,2020/06/17,17.0,IL,17027.0,Clinton County,6752.0,30887.0,160127.0,39652.0,35336.0,14633.0,24078.0,27014.0,13032.0,3685.0,1869.0,726.0,102.0
540052,County,2020/06/18,17.0,IL,17027.0,Clinton County,6681.0,30958.0,158568.0,40489.0,33701.0,12106.0,22348.0,27406.0,13914.0,5563.0,2298.0,610.0,133.0
544819,County,2020/06/19,17.0,IL,17027.0,Clinton County,7285.0,30354.0,148643.0,37352.0,33902.0,10282.0,21084.0,25519.0,13387.0,4214.0,2280.0,522.0,101.0
548054,County,2020/06/20,17.0,IL,17027.0,Clinton County,7374.0,30265.0,138142.0,34094.0,33580.0,13055.0,21029.0,22265.0,8881.0,3580.0,1262.0,362.0,34.0
551241,County,2020/06/21,17.0,IL,17027.0,Clinton County,8620.0,29019.0,114201.0,25392.0,24956.0,10420.0,16332.0,22171.0,9718.0,3942.0,918.0,257.0,95.0
552829,County,2020/06/22,17.0,IL,17027.0,Clinton County,7330.0,30309.0,129509.0,27273.0,28500.0,12094.0,18981.0,23539.0,13417.0,3508.0,1450.0,646.0,101.0
556062,County,2020/06/23,17.0,IL,17027.0,Clinton County,6526.0,31113.0,156174.0,37094.0,33963.0,13618.0,22886.0,27066.0,14371.0,4917.0,1571.0,609.0,79.0
560830,County,2020/06/24,17.0,IL,17027.0,Clinton County,7755.0,29884.0,136170.0,33294.0,32077.0,9612.0,17559.0,22560.0,14112.0,4705.0,1742.0,458.0,51.0
562458,County,2020/06/25,17.0,IL,17027.0,Clinton County,6998.0,30641.0,152639.0,37181.0,35070.0,11562.0,20773.0,28082.0,12802.0,4457.0,1991.0,674.0,47.0
565713,County,2020/06/26,17.0,IL,17027.0,Clinton County,7457.0,30182.0,144750.0,34810.0,31671.0,11436.0,20967.0,25400.0,12151.0,5446.0,2167.0,585.0,117.0
568834,County,2020/06/27,17.0,IL,17027.0,Clinton County,8007.0,29632.0,137739.0,29717.0,34895.0,12603.0,19592.0,24873.0,10366.0,3399.0,1874.0,354.0,66.0
573595,County,2020/06/28,17.0,IL,17027.0,Clinton County,8029.0,29610.0,128291.0,29685.0,29292.0,13500.0,18651.0,22189.0,8735.0,3712.0,1968.0,525.0,34.0
576767,County,2020/06/29,17.0,IL,17027.0,Clinton County,7727.0,29912.0,134393.0,33195.0,28979.0,13044.0,17517.0,22779.0,11965.0,4392.0,1992.0,457.0,73.0
578410,County,2020/06/30,17.0,IL,17027.0,Clinton County,8266.0,29373.0,124898.0,26852.0,23415.0,11715.0,19176.0,24258.0,12267.0,4195.0,1962.0,892.0,166.0
581616,County,2020/07/01,17.0,IL,17027.0,Clinton County,7385.0,30254.0,125622.0,27685.0,26916.0,9154.0,17052.0,24790.0,13471.0,4422.0,1521.0,541.0,70.0
584808,County,2020/07/02,17.0,IL,17027.0,Clinton County,8175.0,29464.0,162011.0,39464.0,37223.0,12272.0,22049.0,29806.0,13588.0,4731.0,2113.0,715.0,50.0
589601,County,2020/07/03,17.0,IL,17027.0,Clinton County,9773.0,27866.0,143936.0,34614.0,31493.0,11372.0,20849.0,25257.0,12083.0,5415.0,2155.0,582.0,116.0
592785,County,2020/07/04,17.0,IL,17027.0,Clinton County,9586.0,28053.0,123141.0,29613.0,26943.0,9729.0,17837.0,21608.0,10337.0,4633.0,1843.0,498.0,100.0
595941,County,2020/07/05,17.0,IL,17027.0,Clinton County,7937.0,29702.0,114383.0,23829.0,21574.0,12787.0,18413.0,22232.0,8760.0,3546.0,2720.0,320.0,202.0
599110,County,2020/07/06,17.0,IL,17027.0,Clinton County,8414.0,29225.0,127036.0,30660.0,28920.0,10571.0,16517.0,22483.0,11693.0,3666.0,1842.0,537.0,147.0
600785,County,2020/07/07,17.0,IL,17027.0,Clinton County,7523.0,30116.0,133155.0,31658.0,29759.0,11492.0,18297.0,22730.0,12365.0,4501.0,1429.0,797.0,127.0
605447,County,2020/07/08,17.0,IL,17027.0,Clinton County,7661.0,29978.0,140988.0,33950.0,33827.0,12042.0,18594.0,23881.0,11223.0,4919.0,1743.0,747.0,62.0
607173,County,2020/07/09,17.0,IL,17027.0,Clinton County,7869.0,29770.0,142399.0,34559.0,30113.0,12963.0,18487.0,25250.0,13442.0,5437.0,1340.0,708.0,100.0
611955,County,2020/07/10,17.0,IL,17027.0,Clinton County,7197.0,30442.0,163824.0,44821.0,34216.0,13073.0,23692.0,27140.0,14037.0,4529.0,1444.0,739.0,133.0
615171,County,2020/07/11,17.0,IL,17027.0,Clinton County,8156.0,29483.0,145711.0,39293.0,31533.0,15783.0,19842.0,23576.0,9742.0,3591.0,1711.0,567.0,73.0
618308,County,2020/07/12,17.0,IL,17027.0,Clinton County,8396.0,29243.0,113641.0,25797.0,25831.0,9235.0,18585.0,19888.0,8663.0,3049.0,2062.0,437.0,94.0
621514,County,2020/07/13,17.0,IL,17027.0,Clinton County,8386.0,29253.0,132720.0,33313.0,29042.0,10246.0,18811.0,23899.0,11297.0,4407.0,1193.0,477.0,35.0
623145,County,2020/07/14,17.0,IL,17027.0,Clinton County,7964.0,29675.0,136677.0,33943.0,30726.0,13437.0,18185.0,22960.0,11227.0,4052.0,1258.0,821.0,68.0
627882,County,2020/07/15,17.0,IL,17027.0,Clinton County,7766.0,29873.0,136442.0,31545.0,33278.0,10694.0,18009.0,23023.0,13085.0,5130.0,1369.0,264.0,45.0
629508,County,2020/07/16,17.0,IL,17027.0,Clinton County,8382.0,29257.0,139488.0,33166.0,27474.0,13028.0,21372.0,25396.0,12230.0,4272.0,1871.0,628.0,51.0
632709,County,2020/07/17,17.0,IL,17027.0,Clinton County,8000.0,29639.0,127305.0,30518.0,28089.0,10943.0,17233.0,23529.0,10859.0,4251.0,1399.0,436.0,48.0
637495,County,2020/07/18,17.0,IL,17027.0,Clinton County,8901.0,28738.0,122309.0,29167.0,23920.0,13027.0,17110.0,21441.0,10238.0,4521.0,2166.0,607.0,112.0
640648,County,2020/07/19,17.0,IL,17027.0,Clinton County,9002.0,28637.0,102107.0,22578.0,21465.0,9109.0,13795.0,20738.0,8715.0,3009.0,1706.0,883.0,109.0
642309,County,2020/07/20,17.0,IL,17027.0,Clinton County,9009.0,28630.0,126531.0,27263.0,29218.0,12128.0,17338.0,21093.0,13051.0,4287.0,1458.0,620.0,75.0
645485,County,2020/07/21,17.0,IL,17027.0,Clinton County,7964.0,29675.0,132228.0,28847.0,26621.0,12009.0,18672.0,25627.0,13516.0,5192.0,1222.0,367.0,155.0
650214,County,2020/07/22,17.0,IL,17027.0,Clinton County,7535.0,30104.0,136996.0,28536.0,30813.0,12452.0,19739.0,24529.0,13893.0,4677.0,1596.0,649.0,112.0
651804,County,2020/07/23,17.0,IL,17027.0,Clinton County,7730.0,29909.0,134251.0,31565.0,29096.0,8720.0,19934.0,25981.0,12019.0,3860.0,2105.0,765.0,206.0
654976,County,2020/07/24,17.0,IL,17027.0,Clinton County,7406.0,30233.0,148603.0,34508.0,28333.0,12011.0,25488.0,28304.0,11976.0,5109.0,2146.0,612.0,116.0
658273,County,2020/07/25,17.0,IL,17027.0,Clinton County,9071.0,28568.0,128697.0,32742.0,26009.0,12300.0,18258.0,24004.0,10592.0,2689.0,1525.0,557.0,21.0
662978,County,2020/07/26,17.0,IL,17027.0,Clinton County,8080.0,29559.0,132137.0,30659.0,27276.0,9477.0,19829.0,25608.0,11412.0,4298.0,2794.0,663.0,121.0
664719,County,2020/07/27,17.0,IL,17027.0,Clinton County,7921.0,29718.0,135226.0,29347.0,27046.0,11414.0,20597.0,26731.0,13372.0,4589.0,1363.0,633.0,134.0
669503,County,2020/07/28,17.0,IL,17027.0,Clinton County,7622.0,30017.0,149959.0,36355.0,30666.0,13122.0,19383.0,27063.0,16021.0,4576.0,1991.0,689.0,93.0
672716,County,2020/07/29,17.0,IL,17027.0,Clinton County,7463.0,30176.0,139757.0,33131.0,27191.0,12508.0,21354.0,24022.0,13326.0,5765.0,1559.0,864.0,37.0
675798,County,2020/07/30,17.0,IL,17027.0,Clinton County,7196.0,30443.0,149338.0,34597.0,29645.0,12494.0,22722.0,27578.0,13659.0,5449.0,2428.0,629.0,137.0
679026,County,2020/07/31,17.0,IL,17027.0,Clinton County,7669.0,29970.0,136236.0,29409.0,27533.0,11235.0,19579.0,25411.0,13999.0,6122.0,2076.0,854.0,18.0
682147,County,2020/08/01,17.0,IL,17027.0,Clinton County,8770.0,28869.0,117165.0,28928.0,20518.0,12048.0,20063.0,20574.0,9279.0,3233.0,1653.0,691.0,178.0
683829,County,2020/08/02,17.0,IL,17027.0,Clinton County,9115.0,28524.0,123302.0,25538.0,23641.0,13210.0,18957.0,23599.0,10851.0,3885.0,2478.0,909.0,234.0
688590,County,2020/08/03,17.0,IL,17027.0,Clinton County,7902.0,29737.0,131211.0,29408.0,27498.0,10415.0,17712.0,24300.0,13484.0,5648.0,2002.0,641.0,103.0
690218,County,2020/08/04,17.0,IL,17027.0,Clinton County,7942.0,29697.0,160405.0,43694.0,34709.0,12257.0,21211.0,28041.0,13151.0,5400.0,1577.0,327.0,38.0
694977,County,2020/08/05,17.0,IL,17027.0,Clinton County,7873.0,29766.0,146122.0,33694.0,28020.0,13250.0,20924.0,29540.0,13910.0,4593.0,1798.0,297.0,96.0
698172,County,2020/08/06,17.0,IL,17027.0,Clinton County,7596.0,30043.0,157549.0,39897.0,31868.0,13088.0,20036.0,29836.0,15064.0,4906.0,2332.0,503.0,19.0
701367,County,2020/08/07,17.0,IL,17027.0,Clinton County,7666.0,29973.0,151557.0,39703.0,31439.0,11488.0,20175.0,26759.0,14549.0,4541.0,2449.0,415.0,39.0
704560,County,2020/08/08,17.0,IL,17027.0,Clinton County,8408.0,29231.0,139675.0,34860.0,29894.0,13512.0,20148.0,24842.0,9900.0,3890.0,2206.0,361.0,62.0
706187,County,2020/08/09,17.0,IL,17027.0,Clinton County,9259.0,28380.0,118365.0,28323.0,23689.0,9473.0,18149.0,20307.0,12095.0,3447.0,2132.0,640.0,110.0
709408,County,2020/08/10,17.0,IL,17027.0,Clinton County,8088.0,29551.0,135279.0,33130.0,27288.0,9680.0,18909.0,24300.0,14349.0,5486.0,1512.0,504.0,121.0
714189,County,2020/08/11,17.0,IL,17027.0,Clinton County,8404.0,29235.0,137033.0,32352.0,29018.0,10591.0,17988.0,25182.0,13831.0,5991.0,1598.0,446.0,36.0
717238,County,2020/08/12,17.0,IL,17027.0,Clinton County,7842.0,29797.0,127135.0,28687.0,25356.0,7820.0,16848.0,24325.0,14812.0,5850.0,2298.0,815.0,324.0
718964,County,2020/08/13,17.0,IL,17027.0,Clinton County,7179.0,30460.0,152419.0,34835.0,30189.0,12651.0,21962.0,28049.0,16031.0,5345.0,2020.0,926.0,411.0
722157,County,2020/08/14,17.0,IL,17027.0,Clinton County,7028.0,30611.0,159261.0,36032.0,31713.0,13631.0,24385.0,27936.0,15781.0,5826.0,2503.0,992.0,462.0
726919,County,2020/08/15,17.0,IL,17027.0,Clinton County,8176.0,29463.0,147839.0,36765.0,31700.0,12499.0,20755.0,25054.0,13493.0,4643.0,1638.0,948.0,344.0
730111,County,2020/08/16,17.0,IL,17027.0,Clinton County,7689.0,29950.0,145968.0,30744.0,32275.0,11174.0,24193.0,25178.0,12783.0,5617.0,2692.0,986.0,326.0
731740,County,2020/08/17,17.0,IL,17027.0,Clinton County,7955.0,29684.0,157609.0,38327.0,30277.0,12480.0,22428.0,28686.0,17271.0,4933.0,1885.0,859.0,463.0
736500,County,2020/08/18,17.0,IL,17027.0,Clinton County,7920.0,29719.0,136995.0,28411.0,26860.0,11631.0,17735.0,29521.0,15126.0,5044.0,1173.0,881.0,613.0
738112,County,2020/08/19,17.0,IL,17027.0,Clinton County,7202.0,30437.0,158977.0,37181.0,34792.0,13316.0,22799.0,27158.0,16239.0,5054.0,1317.0,672.0,449.0
742893,County,2020/08/20,17.0,IL,17027.0,Clinton County,6431.0,31208.0,160748.0,37644.0,33416.0,13625.0,22100.0,30261.0,15093.0,5333.0,1841.0,1027.0,408.0
746099,County,2020/08/21,17.0,IL,17027.0,Clinton County,6302.0,31337.0,175998.0,45403.0,36800.0,14262.0,24908.0,30482.0,15347.0,5329.0,2350.0,847.0,270.0
747727,County,2020/08/22,17.0,IL,17027.0,Clinton County,7740.0,29899.0,156012.0,37455.0,31187.0,15103.0,25250.0,27074.0,12009.0,5272.0,1513.0,727.0,422.0
752472,County,2020/08/23,17.0,IL,17027.0,Clinton County,8361.0,29278.0,126331.0,28693.0,24694.0,10310.0,19992.0,24059.0,11626.0,4414.0,1465.0,586.0,492.0
755663,County,2020/08/24,17.0,IL,17027.0,Clinton County,7933.0,29706.0,129841.0,32630.0,24306.0,10336.0,18518.0,23884.0,12573.0,5059.0,1522.0,633.0,380.0
758855,County,2020/08/25,17.0,IL,17027.0,Clinton County,7374.0,30265.0,139509.0,32774.0,26043.0,12710.0,20495.0,26007.0,12853.0,5285.0,2375.0,616.0,351.0
760487,County,2020/08/26,17.0,IL,17027.0,Clinton County,7659.0,29980.0,142555.0,34235.0,30303.0,10548.0,20589.0,26127.0,13428.0,4592.0,1898.0,684.0,151.0
763643,County,2020/08/27,17.0,IL,17027.0,Clinton County,7373.0,30266.0,136939.0,29578.0,27236.0,10314.0,19534.0,26748.0,15865.0,4645.0,2257.0,645.0,117.0
768426,County,2020/08/28,17.0,IL,17027.0,Clinton County,6967.0,30672.0,152066.0,37921.0,32808.0,12086.0,21330.0,26129.0,13756.0,5055.0,2228.0,605.0,148.0
770054,County,2020/08/29,17.0,IL,17027.0,Clinton County,7816.0,29823.0,149721.0,34854.0,28911.0,13197.0,24394.0,29636.0,11233.0,4947.0,1749.0,688.0,112.0
773261,County,2020/08/30,17.0,IL,17027.0,Clinton County,9275.0,28364.0,128903.0,32266.0,26382.0,12069.0,17767.0,24195.0,10054.0,3643.0,1652.0,662.0,213.0
777985,County,2020/08/31,17.0,IL,17027.0,Clinton County,8429.0,29210.0,130559.0,32458.0,23870.0,12879.0,17985.0,23058.0,13330.0,5192.0,886.0,646.0,255.0
779596,County,2020/09/01,17.0,IL,17027.0,Clinton County,7950.0,29689.0,137273.0,29524.0,29704.0,12295.0,20117.0,25403.0,13027.0,5297.0,1142.0,577.0,187.0
783628,County,2020/09/02,17.0,IL,17027.0,Clinton County,8342.0,29297.0,125192.0,27431.0,22374.0,11741.0,18261.0,23550.0,13418.0,5789.0,1720.0,651.0,257.0
787579,County,2020/09/03,17.0,IL,17027.0,Clinton County,7195.0,30444.0,157313.0,36742.0,31981.0,15391.0,21706.0,29385.0,14920.0,4517.0,1957.0,553.0,161.0
790770,County,2020/09/04,17.0,IL,17027.0,Clinton County,7772.0,29867.0,155833.0,35592.0,34152.0,14603.0,20514.0,29644.0,13792.0,4918.0,1621.0,856.0,141.0
793961,County,2020/09/05,17.0,IL,17027.0,Clinton County,8377.0,29262.0,153433.0,36569.0,36887.0,15374.0,22400.0,24958.0,11590.0,3455.0,1460.0,637.0,103.0
795613,County,2020/09/06,17.0,IL,17027.0,Clinton County,9344.0,28295.0,128158.0,28927.0,28721.0,10092.0,19569.0,23957.0,11649.0,3116.0,1233.0,691.0,203.0
800378,County,2020/09/07,17.0,IL,17027.0,Clinton County,10759.0,26880.0,107713.0,25363.0,21695.0,8234.0,13638.0,20143.0,11349.0,4256.0,1877.0,1019.0,139.0
803574,County,2020/09/08,17.0,IL,17027.0,Clinton County,8044.0,29595.0,143991.0,33518.0,31544.0,13618.0,19535.0,24863.0,14554.0,4282.0,1307.0,673.0,97.0
806767,County,2020/09/09,17.0,IL,17027.0,Clinton County,7650.0,29989.0,165500.0,39452.0,35769.0,15665.0,25072.0,28406.0,13698.0,5321.0,1406.0,457.0,254.0
808394,County,2020/09/10,17.0,IL,17027.0,Clinton County,7752.0,29887.0,145463.0,32098.0,30835.0,12026.0,22524.0,25814.0,15319.0,4634.0,1576.0,456.0,181.0
813155,County,2020/09/11,17.0,IL,17027.0,Clinton County,7393.0,30246.0,155238.0,34162.0,31107.0,13847.0,25138.0,28468.0,15045.0,5584.0,1209.0,553.0,125.0
816351,County,2020/09/12,17.0,IL,17027.0,Clinton County,8610.0,29029.0,140407.0,34831.0,30500.0,13226.0,21085.0,21933.0,12038.0,4038.0,1942.0,749.0,65.0
817957,County,2020/09/13,17.0,IL,17027.0,Clinton County,10155.0,27484.0,111871.0,18119.0,20987.0,13633.0,17482.0,25086.0,8850.0,4850.0,1908.0,648.0,308.0
821162,County,2020/09/14,17.0,IL,17027.0,Clinton County,8004.0,29635.0,144645.0,35046.0,24787.0,12827.0,20219.0,28840.0,15553.0,4774.0,1968.0,517.0,114.0
825931,County,2020/09/15,17.0,IL,17027.0,Clinton County,7879.0,29760.0,155286.0,41560.0,29374.0,12988.0,20319.0,28868.0,15155.0,5217.0,1183.0,449.0,173.0
827559,County,2020/09/16,17.0,IL,17027.0,Clinton County,7443.0,30196.0,153336.0,39638.0,29785.0,13581.0,19182.0,28443.0,13958.0,5574.0,2270.0,810.0,95.0
830753,County,2020/09/17,17.0,IL,17027.0,Clinton County,7205.0,30434.0,154502.0,35788.0,30498.0,13241.0,23153.0,29261.0,16203.0,4537.0,1136.0,611.0,74.0
833931,County,2020/09/18,17.0,IL,17027.0,Clinton County,8069.0,29570.0,167057.0,43132.0,34096.0,14664.0,22377.0,29073.0,16261.0,4651.0,2214.0,508.0,81.0
838706,County,2020/09/19,17.0,IL,17027.0,Clinton County,8028.0,29611.0,166265.0,41423.0,36135.0,13735.0,21427.0,32045.0,13615.0,5158.0,2064.0,620.0,43.0
840334,County,2020/09/20,17.0,IL,17027.0,Clinton County,9284.0,28355.0,126724.0,32491.0,27203.0,9739.0,17611.0,21679.0,10738.0,4795.0,1993.0,363.0,112.0
845122,County,2020/09/21,17.0,IL,17027.0,Clinton County,10200.0,27439.0,119002.0,30326.0,24471.0,11078.0,13342.0,21313.0,13026.0,3937.0,1082.0,406.0,21.0
848290,County,2020/09/22,17.0,IL,17027.0,Clinton County,9025.0,28614.0,128752.0,33169.0,25052.0,10657.0,15691.0,24185.0,13578.0,4843.0,925.0,556.0,96.0
851480,County,2020/09/23,17.0,IL,17027.0,Clinton County,7947.0,29692.0,143432.0,36901.0,29986.0,13315.0,20887.0,22229.0,14103.0,4279.0,1169.0,527.0,36.0
853107,County,2020/09/24,17.0,IL,17027.0,Clinton County,7502.0,30137.0,141541.0,33671.0,31178.0,12815.0,19405.0,25842.0,12919.0,4168.0,1238.0,270.0,35.0
857871,County,2020/09/25,17.0,IL,17027.0,Clinton County,8164.0,29475.0,156013.0,40460.0,31371.0,12378.0,21469.0,28304.0,14750.0,4504.0,2524.0,216.0,37.0
859499,County,2020/09/26,17.0,IL,17027.0,Clinton County,8353.0,29286.0,154558.0,41141.0,30653.0,13647.0,25483.0,25667.0,11633.0,4471.0,1448.0,395.0,20.0
864246,County,2020/09/27,17.0,IL,17027.0,Clinton County,9511.0,28128.0,129390.0,33336.0,24940.0,11686.0,19151.0,23771.0,10617.0,4084.0,1415.0,270.0,120.0
865874,County,2020/09/28,17.0,IL,17027.0,Clinton County,9029.0,28610.0,130913.0,34687.0,26457.0,11563.0,17662.0,22479.0,12706.0,3712.0,1052.0,557.0,38.0
870646,County,2020/09/29,17.0,IL,17027.0,Clinton County,8111.0,29528.0,143046.0,37163.0,27694.0,11062.0,21276.0,25585.0,14397.0,4437.0,793.0,588.0,51.0
872275,County,2020/09/30,17.0,IL,17027.0,Clinton County,8853.0,28786.0,143035.0,35550.0,29621.0,9582.0,17632.0,29088.0,15849.0,4353.0,812.0,475.0,73.0
877015,County,2020/10/01,17.0,IL,17027.0,Clinton County,7342.0,30297.0,145009.0,34359.0,28305.0,12341.0,22834.0,25609.0,15236.0,4253.0,1477.0,545.0,50.0
880230,County,2020/10/02,17.0,IL,17027.0,Clinton County,7945.0,29694.0,156521.0,39096.0,31040.0,12708.0,25298.0,27493.0,14302.0,4354.0,1872.0,309.0,49.0
883425,County,2020/10/03,17.0,IL,17027.0,Clinton County,8540.0,29099.0,138656.0,35332.0,27654.0,11952.0,20894.0,26152.0,11306.0,3370.0,1568.0,405.0,23.0
885425,County,2020/10/04,17.0,IL,17027.0,Clinton County,8874.0,28765.0,130666.0,35213.0,26985.0,11674.0,16613.0,23050.0,11797.0,3747.0,1306.0,270.0,11.0
888494,County,2020/10/05,17.0,IL,17027.0,Clinton County,9508.0,28131.0,134578.0,30646.0,29938.0,11573.0,19393.0,24313.0,14219.0,3097.0,968.0,388.0,43.0
891724,County,2020/10/06,17.0,IL,17027.0,Clinton County,8131.0,29508.0,158892.0,50163.0,25767.0,11638.0,18605.0,27556.0,17187.0,6232.0,1258.0,446.0,40.0
894911,County,2020/10/07,17.0,IL,17027.0,Clinton County,6905.0,30734.0,152369.0,37065.0,30889.0,11733.0,22899.0,28127.0,15077.0,5581.0,576.0,367.0,55.0
898103,County,2020/10/08,17.0,IL,17027.0,Clinton County,8261.0,29378.0,141195.0,31662.0,30049.0,12323.0,19222.0,26881.0,15411.0,4075.0,1110.0,427.0,35.0
901287,County,2020/10/09,17.0,IL,17027.0,Clinton County,8552.0,29087.0,146885.0,32892.0,27190.0,13140.0,23398.0,30516.0,13976.0,4672.0,808.0,271.0,22.0
904798,County,2020/10/10,17.0,IL,17027.0,Clinton County,9387.0,28252.0,137566.0,30326.0,21747.0,14779.0,22760.0,28540.0,13782.0,4636.0,720.0,251.0,25.0
910217,County,2020/10/11,17.0,IL,17027.0,Clinton County,9915.0,27724.0,120487.0,27070.0,24210.0,11964.0,17467.0,21709.0,11079.0,4990.0,1481.0,501.0,16.0
913087,County,2020/10/12,17.0,IL,17027.0,Clinton County,8764.0,28875.0,128116.0,28841.0,24579.0,10022.0,17034.0,27159.0,14328.0,4802.0,1008.0,333.0,10.0
916037,County,2020/10/13,17.0,IL,17027.0,Clinton County,8087.0,29552.0,133754.0,31000.0,26052.0,12502.0,20398.0,21897.0,15449.0,4187.0,1505.0,723.0,41.0
919245,County,2020/10/14,17.0,IL,17027.0,Clinton County,7949.0,29690.0,147933.0,34720.0,31311.0,14409.0,23233.0,23403.0,14223.0,5020.0,1152.0,426.0,36.0
922460,County,2020/10/15,17.0,IL,17027.0,Clinton County,8898.0,28741.0,128797.0,28104.0,27024.0,10745.0,17455.0,24933.0,13864.0,4614.0,1638.0,340.0,80.0
925354,County,2020/10/16,17.0,IL,17027.0,Clinton County,7137.0,30502.0,158723.0,42033.0,31009.0,14024.0,22799.0,25946.0,15303.0,5601.0,1498.0,456.0,54.0
928850,County,2020/10/17,17.0,IL,17027.0,Clinton County,8360.0,29279.0,144111.0,30715.0,33942.0,13124.0,21078.0,24351.0,14709.0,4640.0,1020.0,496.0,36.0
932070,County,2020/10/18,17.0,IL,17027.0,Clinton County,9496.0,28143.0,124836.0,30989.0,24866.0,10522.0,18648.0,21897.0,11342.0,5007.0,1179.0,340.0,46.0
934687,County,2020/10/19,17.0,IL,17027.0,Clinton County,7998.0,29641.0,139890.0,34286.0,26895.0,14797.0,19334.0,25651.0,13552.0,4248.0,724.0,335.0,68.0
938728,County,2020/10/20,17.0,IL,17027.0,Clinton County,7994.0,29645.0,132521.0,31314.0,27354.0,10526.0,19214.0,23847.0,13709.0,5310.0,883.0,310.0,54.0
941933,County,2020/10/21,17.0,IL,17027.0,Clinton County,8941.0,28698.0,113324.0,22706.0,24939.0,9713.0,16108.0,20956.0,12629.0,4755.0,967.0,497.0,54.0
945226,County,2020/10/22,17.0,IL,17027.0,Clinton County,8117.0,29522.0,149734.0,33709.0,31156.0,14804.0,20736.0,26597.0,15442.0,5537.0,1394.0,324.0,35.0
948347,County,2020/10/23,17.0,IL,17027.0,Clinton County,7556.0,30083.0,163485.0,38282.0,32109.0,14448.0,26413.0,28408.0,15438.0,5985.0,2070.0,262.0,70.0
951233,County,2020/10/24,17.0,IL,17027.0,Clinton County,8250.0,29389.0,162179.0,43442.0,30040.0,14986.0,24787.0,26955.0,14931.0,5220.0,1203.0,571.0,44.0
