,Level,Date,State FIPS,State Postal Code,County FIPS,County Name,Population Staying at Home,Population Not Staying at Home,Number of Trips,Number of Trips <1,Number of Trips 1-3,Number of Trips 3-5,Number of Trips 5-10,Number of Trips 10-25,Number of Trips 25-50,Number of Trips 50-100,Number of Trips 100-250,Number of Trips 250-500,Number of Trips >=500
2811,County,2020/01/01,50.0,VT,50013.0,Grand Isle County,1508.0,5582.0,21215.0,3815.0,5386.0,899.0,2468.0,6212.0,2164.0,187.0,60.0,24.0,0.0
4214,County,2020/01/02,50.0,VT,50013.0,Grand Isle County,1342.0,5748.0,24085.0,4582.0,6897.0,1267.0,2980.0,6508.0,1662.0,144.0,23.0,0.0,22.0
8926,County,2020/01/03,50.0,VT,50013.0,Grand Isle County,1144.0,5946.0,22384.0,2999.0,4622.0,2128.0,3557.0,6120.0,2541.0,350.0,67.0,0.0,0.0
10362,County,2020/01/04,50.0,VT,50013.0,Grand Isle County,1341.0,5749.0,23993.0,3256.0,5608.0,2458.0,3028.0,7496.0,1931.0,146.0,70.0,0.0,0.0
15587,County,2020/01/05,50.0,VT,50013.0,Grand Isle County,1616.0,5474.0,19904.0,3590.0,4214.0,2591.0,3216.0,4609.0,1187.0,359.0,115.0,23.0,0.0
17409,County,2020/01/06,50.0,VT,50013.0,Grand Isle County,1199.0,5891.0,25025.0,5020.0,6647.0,2109.0,2349.0,6690.0,1831.0,277.0,67.0,35.0,0.0
20567,County,2020/01/07,50.0,VT,50013.0,Grand Isle County,1220.0,5870.0,22880.0,5019.0,4551.0,1824.0,2681.0,6227.0,2233.0,213.0,0.0,0.0,132.0
23846,County,2020/01/08,50.0,VT,50013.0,Grand Isle County,1236.0,5854.0,29820.0,5796.0,7599.0,1903.0,4740.0,7171.0,2309.0,280.0,0.0,0.0,22.0
28546,County,2020/01/09,50.0,VT,50013.0,Grand Isle County,1178.0,5912.0,21254.0,2309.0,5500.0,2755.0,2700.0,5622.0,2130.0,215.0,23.0,0.0,0.0
30139,County,2020/01/10,50.0,VT,50013.0,Grand Isle County,1217.0,5873.0,27911.0,3954.0,7400.0,2780.0,3814.0,6982.0,2389.0,506.0,46.0,18.0,22.0
33430,County,2020/01/11,50.0,VT,50013.0,Grand Isle County,1519.0,5571.0,24668.0,3380.0,3940.0,2590.0,3337.0,9063.0,2289.0,0.0,25.0,20.0,24.0
38068,County,2020/01/12,50.0,VT,50013.0,Grand Isle County,1641.0,5449.0,21346.0,1952.0,6351.0,1403.0,2806.0,7535.0,1013.0,175.0,84.0,0.0,27.0
41313,County,2020/01/13,50.0,VT,50013.0,Grand Isle County,1432.0,5658.0,24347.0,3377.0,7604.0,1904.0,2380.0,6951.0,1841.0,223.0,48.0,19.0,0.0
44512,County,2020/01/14,50.0,VT,50013.0,Grand Isle County,1129.0,5961.0,24719.0,3887.0,4334.0,1909.0,4358.0,7827.0,2084.0,210.0,45.0,0.0,65.0
46093,County,2020/01/15,50.0,VT,50013.0,Grand Isle County,1367.0,5723.0,20809.0,2846.0,5155.0,2303.0,2586.0,5719.0,2051.0,65.0,84.0,0.0,0.0
50874,County,2020/01/16,50.0,VT,50013.0,Grand Isle County,1420.0,5670.0,25791.0,5642.0,5465.0,1642.0,1932.0,8177.0,2419.0,366.0,47.0,56.0,45.0
52501,County,2020/01/17,50.0,VT,50013.0,Grand Isle County,1366.0,5724.0,24347.0,4583.0,4662.0,1642.0,3348.0,7630.0,2145.0,273.0,22.0,0.0,42.0
57284,County,2020/01/18,50.0,VT,50013.0,Grand Isle County,1398.0,5692.0,22347.0,2705.0,5737.0,3537.0,2210.0,5310.0,2507.0,276.0,44.0,0.0,21.0
60482,County,2020/01/19,50.0,VT,50013.0,Grand Isle County,1487.0,5603.0,19546.0,4769.0,3895.0,1585.0,2438.0,5283.0,1383.0,76.0,98.0,19.0,0.0
63644,County,2020/01/20,50.0,VT,50013.0,Grand Isle County,1576.0,5514.0,21206.0,2433.0,6500.0,2076.0,2585.0,5635.0,1762.0,152.0,24.0,39.0,0.0
66842,County,2020/01/21,50.0,VT,50013.0,Grand Isle County,1211.0,5879.0,30154.0,4760.0,7233.0,2613.0,5408.0,6300.0,3341.0,457.0,42.0,0.0,0.0
68473,County,2020/01/22,50.0,VT,50013.0,Grand Isle County,1225.0,5865.0,27177.0,4934.0,6029.0,3535.0,3378.0,6868.0,2278.0,138.0,0.0,17.0,0.0
73265,County,2020/01/23,50.0,VT,50013.0,Grand Isle County,1195.0,5895.0,30813.0,6427.0,6083.0,2445.0,4875.0,7809.0,2849.0,265.0,43.0,17.0,0.0
74853,County,2020/01/24,50.0,VT,50013.0,Grand Isle County,1376.0,5714.0,26093.0,4448.0,5637.0,3434.0,3366.0,6901.0,2007.0,214.0,46.0,18.0,22.0
79607,County,2020/01/25,50.0,VT,50013.0,Grand Isle County,1320.0,5770.0,24466.0,4626.0,5517.0,1681.0,3690.0,6226.0,2079.0,629.0,0.0,18.0,0.0
82661,County,2020/01/26,50.0,VT,50013.0,Grand Isle County,1613.0,5477.0,18674.0,2753.0,4054.0,1992.0,3445.0,5187.0,966.0,146.0,94.0,37.0,0.0
83388,County,2020/01/27,50.0,VT,50013.0,Grand Isle County,1284.0,5806.0,24364.0,4172.0,5690.0,2443.0,2993.0,7095.0,1574.0,318.0,20.0,0.0,59.0
88224,County,2020/01/28,50.0,VT,50013.0,Grand Isle County,984.0,6106.0,24775.0,3377.0,6538.0,2023.0,2832.0,7349.0,2284.0,301.0,0.0,15.0,56.0
92426,County,2020/01/29,50.0,VT,50013.0,Grand Isle County,1218.0,5872.0,27861.0,5765.0,5718.0,1611.0,5432.0,7183.0,1551.0,402.0,86.0,51.0,62.0
94151,County,2020/01/30,50.0,VT,50013.0,Grand Isle County,1267.0,5823.0,27623.0,3573.0,6379.0,1704.0,5011.0,7324.0,3295.0,133.0,149.0,34.0,21.0
98826,County,2020/01/31,50.0,VT,50013.0,Grand Isle County,1141.0,5949.0,28259.0,5826.0,5057.0,3076.0,6277.0,4857.0,2612.0,452.0,36.0,14.0,52.0
100455,County,2020/02/01,50.0,VT,50013.0,Grand Isle County,1409.0,5681.0,25738.0,3511.0,6727.0,1881.0,4147.0,6421.0,2666.0,293.0,47.0,0.0,45.0
103584,County,2020/02/02,50.0,VT,50013.0,Grand Isle County,1519.0,5571.0,20782.0,2432.0,4104.0,2467.0,3337.0,5809.0,2289.0,231.0,74.0,39.0,0.0
108418,County,2020/02/03,50.0,VT,50013.0,Grand Isle County,940.0,6150.0,25697.0,3881.0,5827.0,2090.0,3979.0,6280.0,3386.0,124.0,80.0,31.0,19.0
111554,County,2020/02/04,50.0,VT,50013.0,Grand Isle County,1114.0,5976.0,26069.0,3371.0,6076.0,1786.0,3268.0,7759.0,3684.0,62.0,0.0,63.0,0.0
114757,County,2020/02/05,50.0,VT,50013.0,Grand Isle County,982.0,6108.0,23590.0,3062.0,3909.0,1927.0,5182.0,7002.0,2082.0,229.0,147.0,15.0,35.0
116326,County,2020/02/06,50.0,VT,50013.0,Grand Isle County,1052.0,6038.0,22868.0,5037.0,5409.0,1863.0,3187.0,5423.0,1746.0,159.0,17.0,27.0,0.0
121218,County,2020/02/07,50.0,VT,50013.0,Grand Isle County,1521.0,5569.0,27347.0,6626.0,6135.0,2996.0,3659.0,6512.0,1307.0,72.0,0.0,18.0,22.0
124330,County,2020/02/08,50.0,VT,50013.0,Grand Isle County,1519.0,5571.0,24490.0,5205.0,4528.0,2041.0,3735.0,6089.0,2573.0,212.0,45.0,18.0,44.0
126827,County,2020/02/09,50.0,VT,50013.0,Grand Isle County,1471.0,5619.0,17994.0,1475.0,3983.0,1304.0,3339.0,5782.0,1661.0,287.0,77.0,12.0,74.0
127977,County,2020/02/10,50.0,VT,50013.0,Grand Isle County,1100.0,5990.0,26290.0,4314.0,6620.0,1989.0,3600.0,6559.0,2761.0,287.0,77.0,24.0,59.0
133487,County,2020/02/11,50.0,VT,50013.0,Grand Isle County,1099.0,5991.0,26284.0,4444.0,6227.0,1506.0,3731.0,6872.0,2780.0,544.0,111.0,38.0,31.0
137126,County,2020/02/12,50.0,VT,50013.0,Grand Isle County,932.0,6158.0,27506.0,4929.0,7137.0,1986.0,3504.0,6798.0,2595.0,372.0,79.0,42.0,64.0
138770,County,2020/02/13,50.0,VT,50013.0,Grand Isle County,969.0,6121.0,24557.0,3470.0,7356.0,1309.0,2908.0,6165.0,2699.0,363.0,218.0,69.0,0.0
141829,County,2020/02/14,50.0,VT,50013.0,Grand Isle County,934.0,6156.0,26852.0,3717.0,6280.0,2831.0,4696.0,6154.0,2694.0,271.0,146.0,35.0,28.0
146707,County,2020/02/15,50.0,VT,50013.0,Grand Isle County,1339.0,5751.0,26972.0,3419.0,6180.0,3249.0,3713.0,8046.0,2010.0,174.0,112.0,15.0,54.0
149909,County,2020/02/16,50.0,VT,50013.0,Grand Isle County,1443.0,5647.0,21612.0,2526.0,5215.0,2329.0,2242.0,6484.0,2402.0,66.0,191.0,34.0,123.0
153076,County,2020/02/17,50.0,VT,50013.0,Grand Isle County,1568.0,5522.0,18943.0,1441.0,4087.0,1423.0,3172.0,6208.0,2394.0,94.0,15.0,23.0,86.0
154653,County,2020/02/18,50.0,VT,50013.0,Grand Isle County,1101.0,5989.0,23277.0,3253.0,5941.0,2021.0,2278.0,6504.0,2953.0,157.0,68.0,53.0,49.0
159463,County,2020/02/19,50.0,VT,50013.0,Grand Isle County,1130.0,5960.0,24391.0,3377.0,5302.0,2626.0,3088.0,6822.0,2801.0,283.0,0.0,57.0,35.0
162707,County,2020/02/20,50.0,VT,50013.0,Grand Isle County,1239.0,5851.0,22699.0,3127.0,6034.0,1360.0,2773.0,6065.0,3179.0,113.0,19.0,29.0,0.0
165852,County,2020/02/21,50.0,VT,50013.0,Grand Isle County,985.0,6105.0,22965.0,2037.0,4732.0,1984.0,3792.0,7319.0,2728.0,258.0,83.0,0.0,32.0
167430,County,2020/02/22,50.0,VT,50013.0,Grand Isle County,1357.0,5733.0,26739.0,3257.0,7701.0,2244.0,3750.0,7674.0,1827.0,221.0,23.0,19.0,23.0
172245,County,2020/02/23,50.0,VT,50013.0,Grand Isle County,1476.0,5614.0,22161.0,2242.0,5482.0,2289.0,3229.0,5604.0,2949.0,286.0,0.0,36.0,44.0
173871,County,2020/02/24,50.0,VT,50013.0,Grand Isle County,976.0,6114.0,24158.0,3626.0,5585.0,2350.0,3553.0,5454.0,3289.0,104.0,84.0,0.0,113.0
178482,County,2020/02/25,50.0,VT,50013.0,Grand Isle County,1096.0,5994.0,22888.0,2413.0,6684.0,1908.0,2481.0,5866.0,3314.0,125.0,81.0,16.0,0.0
181675,County,2020/02/26,50.0,VT,50013.0,Grand Isle County,1238.0,5852.0,25118.0,1531.0,9154.0,1085.0,4257.0,6478.0,2613.0,0.0,0.0,0.0,0.0
182847,County,2020/02/27,50.0,VT,50013.0,Grand Isle County,1197.0,5893.0,23730.0,2491.0,5311.0,2721.0,2986.0,6407.0,3554.0,169.0,91.0,0.0,0.0
186786,County,2020/02/28,50.0,VT,50013.0,Grand Isle County,1118.0,5972.0,26495.0,3747.0,5354.0,2414.0,4732.0,6147.0,3871.0,111.0,18.0,14.0,87.0
189790,County,2020/02/29,50.0,VT,50013.0,Grand Isle County,1080.0,6010.0,29191.0,5381.0,6174.0,2863.0,3832.0,7066.0,3562.0,246.0,20.0,47.0,0.0
194623,County,2020/03/01,50.0,VT,50013.0,Grand Isle County,1351.0,5739.0,26392.0,4306.0,5216.0,2379.0,3952.0,7780.0,2453.0,175.0,28.0,22.0,81.0
197827,County,2020/03/02,50.0,VT,50013.0,Grand Isle County,1236.0,5854.0,27866.0,4333.0,7082.0,2365.0,3302.0,5429.0,4419.0,738.0,89.0,24.0,85.0
201103,County,2020/03/03,50.0,VT,50013.0,Grand Isle County,1119.0,5971.0,24460.0,3082.0,6039.0,1997.0,3416.0,5641.0,3556.0,453.0,73.0,28.0,175.0
204189,County,2020/03/04,50.0,VT,50013.0,Grand Isle County,1174.0,5916.0,31150.0,7436.0,4807.0,1901.0,3354.0,9311.0,3528.0,593.0,153.0,30.0,37.0
207393,County,2020/03/05,50.0,VT,50013.0,Grand Isle County,832.0,6258.0,34469.0,5931.0,5697.0,3082.0,4027.0,9676.0,5473.0,428.0,35.0,54.0,66.0
210656,County,2020/03/06,50.0,VT,50013.0,Grand Isle County,943.0,6147.0,27160.0,5655.0,3449.0,3801.0,3455.0,5696.0,4454.0,432.0,104.0,81.0,33.0
213839,County,2020/03/07,50.0,VT,50013.0,Grand Isle County,1190.0,5900.0,31156.0,4516.0,6556.0,2111.0,6070.0,8617.0,2660.0,439.0,141.0,0.0,46.0
216952,County,2020/03/08,50.0,VT,50013.0,Grand Isle County,1198.0,5892.0,24344.0,3628.0,7154.0,1194.0,3278.0,5625.0,2258.0,870.0,120.0,63.0,154.0
218592,County,2020/03/09,50.0,VT,50013.0,Grand Isle County,1109.0,5981.0,39088.0,4939.0,7910.0,3302.0,4078.0,16018.0,2383.0,309.0,0.0,53.0,96.0
221827,County,2020/03/10,50.0,VT,50013.0,Grand Isle County,1055.0,6035.0,29684.0,6151.0,6993.0,2388.0,4494.0,6749.0,2627.0,199.0,32.0,51.0,0.0
226572,County,2020/03/11,50.0,VT,50013.0,Grand Isle County,1123.0,5967.0,33080.0,5229.0,10542.0,1981.0,1164.0,7460.0,6126.0,309.0,0.0,78.0,191.0
229665,County,2020/03/12,50.0,VT,50013.0,Grand Isle County,1263.0,5827.0,29760.0,3078.0,10195.0,2189.0,2574.0,8246.0,2820.0,342.0,0.0,0.0,316.0
232931,County,2020/03/13,50.0,VT,50013.0,Grand Isle County,879.0,6211.0,37040.0,7120.0,7423.0,2974.0,5685.0,9107.0,4218.0,233.0,149.0,59.0,72.0
236134,County,2020/03/14,50.0,VT,50013.0,Grand Isle County,1480.0,5610.0,24246.0,4235.0,3768.0,1416.0,4996.0,4001.0,5110.0,442.0,142.0,0.0,136.0
237746,County,2020/03/15,50.0,VT,50013.0,Grand Isle County,1708.0,5382.0,27266.0,5518.0,7493.0,1516.0,4075.0,5507.0,2456.0,541.0,0.0,35.0,125.0
240990,County,2020/03/16,50.0,VT,50013.0,Grand Isle County,1242.0,5848.0,36504.0,9547.0,7452.0,2545.0,4589.0,9109.0,3149.0,0.0,0.0,80.0,33.0
244172,County,2020/03/17,50.0,VT,50013.0,Grand Isle County,1561.0,5529.0,25670.0,4061.0,6901.0,2112.0,2259.0,6693.0,2970.0,599.0,38.0,0.0,37.0
247327,County,2020/03/18,50.0,VT,50013.0,Grand Isle County,1581.0,5509.0,24630.0,3584.0,5320.0,2433.0,4088.0,5566.0,3225.0,326.0,0.0,55.0,33.0
252109,County,2020/03/19,50.0,VT,50013.0,Grand Isle County,1733.0,5357.0,23450.0,3243.0,5148.0,611.0,4549.0,6328.0,3149.0,381.0,41.0,0.0,0.0
253768,County,2020/03/20,50.0,VT,50013.0,Grand Isle County,1668.0,5422.0,26389.0,3914.0,7983.0,1542.0,3225.0,6618.0,2827.0,213.0,34.0,0.0,33.0
256862,County,2020/03/21,50.0,VT,50013.0,Grand Isle County,1830.0,5260.0,19508.0,3470.0,4478.0,990.0,3492.0,4101.0,2653.0,247.0,0.0,0.0,77.0
260098,County,2020/03/22,50.0,VT,50013.0,Grand Isle County,1771.0,5319.0,18695.0,904.0,7445.0,2461.0,2632.0,4848.0,231.0,0.0,45.0,0.0,129.0
264876,County,2020/03/23,50.0,VT,50013.0,Grand Isle County,1812.0,5278.0,21052.0,1749.0,7302.0,2155.0,2765.0,4429.0,2424.0,122.0,0.0,31.0,75.0
266502,County,2020/03/24,50.0,VT,50013.0,Grand Isle County,1670.0,5420.0,22209.0,4244.0,5603.0,1579.0,3094.0,5122.0,2532.0,0.0,35.0,0.0,0.0
269736,County,2020/03/25,50.0,VT,50013.0,Grand Isle County,1820.0,5270.0,22002.0,4250.0,6087.0,1247.0,1467.0,5874.0,2572.0,260.0,125.0,0.0,120.0
272880,County,2020/03/26,50.0,VT,50013.0,Grand Isle County,1719.0,5371.0,19553.0,2637.0,3867.0,2518.0,2278.0,4744.0,2596.0,605.0,271.0,0.0,37.0
277643,County,2020/03/27,50.0,VT,50013.0,Grand Isle County,1573.0,5517.0,22799.0,3502.0,7282.0,1326.0,1560.0,6246.0,2393.0,207.0,199.0,52.0,32.0
279270,County,2020/03/28,50.0,VT,50013.0,Grand Isle County,1730.0,5360.0,20601.0,2083.0,6160.0,1780.0,2094.0,5701.0,2386.0,333.0,36.0,28.0,0.0
284030,County,2020/03/29,50.0,VT,50013.0,Grand Isle County,2115.0,4975.0,14551.0,1147.0,7313.0,1047.0,923.0,3204.0,270.0,490.0,157.0,0.0,0.0
285658,County,2020/03/30,50.0,VT,50013.0,Grand Isle County,1649.0,5441.0,18214.0,2412.0,4676.0,1118.0,2254.0,5867.0,1647.0,100.0,64.0,76.0,0.0
288853,County,2020/03/31,50.0,VT,50013.0,Grand Isle County,1649.0,5441.0,19387.0,2913.0,5314.0,1597.0,2818.0,4062.0,1811.0,598.0,192.0,51.0,31.0
292088,County,2020/04/01,50.0,VT,50013.0,Grand Isle County,1822.0,5268.0,20009.0,3160.0,5309.0,2280.0,3128.0,4294.0,1567.0,119.0,152.0,0.0,0.0
296821,County,2020/04/02,50.0,VT,50013.0,Grand Isle County,1659.0,5431.0,17037.0,2247.0,3560.0,1839.0,2556.0,4567.0,1551.0,417.0,268.0,0.0,32.0
298482,County,2020/04/03,50.0,VT,50013.0,Grand Isle County,1643.0,5447.0,20598.0,2513.0,5664.0,1964.0,2888.0,5859.0,1350.0,204.0,98.0,26.0,32.0
303229,County,2020/04/04,50.0,VT,50013.0,Grand Isle County,1905.0,5185.0,19099.0,4926.0,4776.0,633.0,1738.0,4772.0,1959.0,0.0,254.0,0.0,41.0
306381,County,2020/04/05,50.0,VT,50013.0,Grand Isle County,2066.0,5024.0,21260.0,5282.0,7736.0,793.0,2486.0,2738.0,1362.0,495.0,317.0,0.0,51.0
309582,County,2020/04/06,50.0,VT,50013.0,Grand Isle County,1548.0,5542.0,18365.0,2767.0,5763.0,999.0,1763.0,5020.0,1546.0,208.0,267.0,0.0,32.0
312821,County,2020/04/07,50.0,VT,50013.0,Grand Isle County,1664.0,5426.0,26667.0,4223.0,7063.0,2226.0,3826.0,5483.0,3530.0,214.0,69.0,0.0,33.0
315994,County,2020/04/08,50.0,VT,50013.0,Grand Isle County,1830.0,5260.0,20241.0,4395.0,5087.0,2615.0,1893.0,4548.0,1245.0,377.0,81.0,0.0,0.0
319164,County,2020/04/09,50.0,VT,50013.0,Grand Isle County,1675.0,5415.0,18566.0,2542.0,5457.0,1196.0,2612.0,5150.0,1233.0,213.0,103.0,27.0,33.0
322358,County,2020/04/10,50.0,VT,50013.0,Grand Isle County,1618.0,5472.0,23518.0,4839.0,5745.0,2417.0,2640.0,4716.0,2670.0,216.0,242.0,0.0,33.0
324033,County,2020/04/11,50.0,VT,50013.0,Grand Isle County,1659.0,5431.0,24053.0,5512.0,6316.0,2109.0,2894.0,4801.0,2175.0,0.0,246.0,0.0,0.0
327179,County,2020/04/12,50.0,VT,50013.0,Grand Isle County,2004.0,5086.0,14757.0,955.0,4729.0,1254.0,4179.0,2953.0,647.0,0.0,0.0,0.0,40.0
330442,County,2020/04/13,50.0,VT,50013.0,Grand Isle County,1597.0,5493.0,16742.0,1985.0,4921.0,1681.0,1977.0,3800.0,1906.0,210.0,202.0,27.0,33.0
333568,County,2020/04/14,50.0,VT,50013.0,Grand Isle County,1614.0,5476.0,16383.0,1765.0,6615.0,355.0,1253.0,5016.0,1098.0,0.0,213.0,0.0,68.0
336792,County,2020/04/15,50.0,VT,50013.0,Grand Isle County,1590.0,5500.0,24329.0,3496.0,10207.0,1826.0,2577.0,3440.0,1883.0,684.0,146.0,0.0,70.0
339946,County,2020/04/16,50.0,VT,50013.0,Grand Isle County,1712.0,5378.0,21666.0,1933.0,6348.0,1467.0,3884.0,6220.0,1135.0,458.0,221.0,0.0,0.0
344725,County,2020/04/17,50.0,VT,50013.0,Grand Isle County,1684.0,5406.0,34397.0,2876.0,15506.0,2689.0,5271.0,3799.0,3696.0,560.0,0.0,0.0,0.0
346352,County,2020/04/18,50.0,VT,50013.0,Grand Isle County,1822.0,5268.0,24877.0,1367.0,9957.0,2338.0,5499.0,2643.0,1928.0,583.0,562.0,0.0,0.0
349525,County,2020/04/19,50.0,VT,50013.0,Grand Isle County,1775.0,5315.0,19055.0,2142.0,7855.0,1265.0,2975.0,3177.0,1304.0,0.0,337.0,0.0,0.0
352779,County,2020/04/20,50.0,VT,50013.0,Grand Isle County,1524.0,5566.0,20885.0,1206.0,7535.0,1415.0,1664.0,4889.0,3892.0,0.0,284.0,0.0,0.0
355924,County,2020/04/21,50.0,VT,50013.0,Grand Isle County,1613.0,5477.0,25167.0,6859.0,6134.0,2880.0,2484.0,4160.0,1782.0,599.0,269.0,0.0,0.0
360694,County,2020/04/22,50.0,VT,50013.0,Grand Isle County,1645.0,5445.0,25547.0,3201.0,8363.0,982.0,4157.0,5363.0,2834.0,490.0,157.0,0.0,0.0
363900,County,2020/04/23,50.0,VT,50013.0,Grand Isle County,1599.0,5491.0,26441.0,6598.0,6405.0,2888.0,2943.0,4170.0,2779.0,120.0,501.0,0.0,37.0
365526,County,2020/04/24,50.0,VT,50013.0,Grand Isle County,1577.0,5513.0,26424.0,4874.0,8809.0,1358.0,2595.0,5755.0,2625.0,212.0,136.0,27.0,33.0
368695,County,2020/04/25,50.0,VT,50013.0,Grand Isle County,1806.0,5284.0,24094.0,3919.0,8580.0,1778.0,3399.0,4816.0,1146.0,278.0,178.0,0.0,0.0
373462,County,2020/04/26,50.0,VT,50013.0,Grand Isle County,1962.0,5128.0,26485.0,3703.0,9691.0,1618.0,2537.0,6604.0,2224.0,0.0,108.0,0.0,0.0
376693,County,2020/04/27,50.0,VT,50013.0,Grand Isle County,1742.0,5348.0,24743.0,2418.0,10388.0,2320.0,2233.0,3775.0,3262.0,263.0,84.0,0.0,0.0
379865,County,2020/04/28,50.0,VT,50013.0,Grand Isle County,1480.0,5610.0,31646.0,5742.0,10771.0,2698.0,3569.0,5082.0,3303.0,316.0,68.0,0.0,97.0
383068,County,2020/04/29,50.0,VT,50013.0,Grand Isle County,1677.0,5413.0,25858.0,3318.0,9599.0,1329.0,2679.0,6078.0,2153.0,474.0,228.0,0.0,0.0
384689,County,2020/04/30,50.0,VT,50013.0,Grand Isle County,1664.0,5426.0,21554.0,2991.0,4825.0,3021.0,3079.0,4174.0,2700.0,377.0,323.0,64.0,0.0
387913,County,2020/05/01,50.0,VT,50013.0,Grand Isle County,1534.0,5556.0,22351.0,3190.0,3930.0,2030.0,4341.0,4867.0,3615.0,230.0,148.0,0.0,0.0
391046,County,2020/05/02,50.0,VT,50013.0,Grand Isle County,1489.0,5601.0,23240.0,3836.0,7181.0,2047.0,4158.0,3680.0,2110.0,116.0,112.0,0.0,0.0
395822,County,2020/05/03,50.0,VT,50013.0,Grand Isle County,1725.0,5365.0,18704.0,1824.0,4360.0,1529.0,4624.0,5555.0,676.0,136.0,0.0,0.0,0.0
397469,County,2020/05/04,50.0,VT,50013.0,Grand Isle County,1595.0,5495.0,27052.0,5545.0,8416.0,1632.0,2399.0,5572.0,2734.0,509.0,245.0,0.0,0.0
400690,County,2020/05/05,50.0,VT,50013.0,Grand Isle County,1513.0,5577.0,28126.0,5665.0,6558.0,2112.0,4346.0,6298.0,2359.0,549.0,211.0,28.0,0.0
403819,County,2020/05/06,50.0,VT,50013.0,Grand Isle County,1271.0,5819.0,26175.0,4481.0,8270.0,2542.0,2325.0,5587.0,2476.0,353.0,141.0,0.0,0.0
408539,County,2020/05/07,50.0,VT,50013.0,Grand Isle County,1581.0,5509.0,25897.0,4979.0,5811.0,3881.0,4184.0,5178.0,1667.0,101.0,65.0,0.0,31.0
411801,County,2020/05/08,50.0,VT,50013.0,Grand Isle County,1474.0,5616.0,24933.0,4540.0,5032.0,2363.0,4632.0,5045.0,2436.0,885.0,0.0,0.0,0.0
414998,County,2020/05/09,50.0,VT,50013.0,Grand Isle County,1702.0,5388.0,25438.0,5837.0,6921.0,800.0,4705.0,5275.0,1650.0,250.0,0.0,0.0,0.0
418178,County,2020/05/10,50.0,VT,50013.0,Grand Isle County,1730.0,5360.0,27096.0,3874.0,7879.0,2960.0,5719.0,5178.0,1090.0,396.0,0.0,0.0,0.0
421409,County,2020/05/11,50.0,VT,50013.0,Grand Isle County,1605.0,5485.0,23672.0,4691.0,7808.0,1173.0,3036.0,4200.0,2178.0,586.0,0.0,0.0,0.0
424613,County,2020/05/12,50.0,VT,50013.0,Grand Isle County,1503.0,5587.0,31503.0,8416.0,7253.0,2137.0,2513.0,7951.0,2864.0,200.0,128.0,0.0,41.0
426095,County,2020/05/13,50.0,VT,50013.0,Grand Isle County,1548.0,5542.0,26967.0,5500.0,7326.0,1835.0,2563.0,5509.0,3902.0,286.0,46.0,0.0,0.0
429436,County,2020/05/14,50.0,VT,50013.0,Grand Isle County,1483.0,5607.0,29621.0,7796.0,6607.0,2429.0,3354.0,6168.0,2940.0,264.0,63.0,0.0,0.0
434177,County,2020/05/15,50.0,VT,50013.0,Grand Isle County,1436.0,5654.0,22583.0,3586.0,6195.0,2069.0,2190.0,5066.0,3093.0,323.0,21.0,0.0,40.0
437331,County,2020/05/16,50.0,VT,50013.0,Grand Isle County,1387.0,5703.0,32385.0,8491.0,9732.0,3542.0,2553.0,5596.0,2356.0,71.0,0.0,0.0,44.0
438959,County,2020/05/17,50.0,VT,50013.0,Grand Isle County,1285.0,5805.0,32458.0,6008.0,7422.0,2913.0,6501.0,6754.0,2334.0,208.0,179.0,139.0,0.0
442252,County,2020/05/18,50.0,VT,50013.0,Grand Isle County,1316.0,5774.0,36049.0,7283.0,7515.0,3166.0,6197.0,8024.0,3500.0,174.0,85.0,105.0,0.0
446942,County,2020/05/19,50.0,VT,50013.0,Grand Isle County,1259.0,5831.0,36456.0,7164.0,7721.0,3255.0,6300.0,8266.0,3407.0,219.0,56.0,68.0,0.0
448574,County,2020/05/20,50.0,VT,50013.0,Grand Isle County,1155.0,5935.0,41134.0,8823.0,9019.0,3501.0,7005.0,8645.0,3782.0,302.0,24.0,33.0,0.0
453009,County,2020/05/21,50.0,VT,50013.0,Grand Isle County,1080.0,6010.0,46102.0,8396.0,10226.0,4008.0,8429.0,9902.0,4118.0,490.0,265.0,268.0,0.0
454931,County,2020/05/22,50.0,VT,50013.0,Grand Isle County,1084.0,6006.0,42294.0,7245.0,9747.0,4363.0,7431.0,9165.0,3330.0,522.0,250.0,241.0,0.0
459715,County,2020/05/23,50.0,VT,50013.0,Grand Isle County,1214.0,5876.0,34624.0,5795.0,8638.0,3929.0,6701.0,7157.0,1959.0,408.0,37.0,0.0,0.0
462919,County,2020/05/24,50.0,VT,50013.0,Grand Isle County,1461.0,5629.0,24183.0,5590.0,5201.0,2220.0,4700.0,3430.0,2472.0,388.0,89.0,42.0,51.0
464548,County,2020/05/25,50.0,VT,50013.0,Grand Isle County,1487.0,5603.0,20683.0,4428.0,4522.0,2480.0,3240.0,4066.0,1326.0,516.0,55.0,15.0,35.0
467702,County,2020/05/26,50.0,VT,50013.0,Grand Isle County,1086.0,6004.0,30181.0,5384.0,5792.0,3151.0,4412.0,7491.0,3249.0,562.0,75.0,36.0,29.0
472520,County,2020/05/27,50.0,VT,50013.0,Grand Isle County,1189.0,5901.0,27902.0,4810.0,6083.0,2116.0,5575.0,6537.0,2269.0,370.0,102.0,40.0,0.0
474054,County,2020/05/28,50.0,VT,50013.0,Grand Isle County,1159.0,5931.0,27148.0,4129.0,6944.0,1890.0,3558.0,6909.0,2729.0,850.0,91.0,48.0,0.0
477299,County,2020/05/29,50.0,VT,50013.0,Grand Isle County,1361.0,5729.0,24141.0,3325.0,5895.0,3073.0,2658.0,6300.0,2237.0,564.0,18.0,71.0,0.0
482058,County,2020/05/30,50.0,VT,50013.0,Grand Isle County,1417.0,5673.0,26142.0,4214.0,5547.0,1923.0,4273.0,6341.0,3636.0,67.0,107.0,34.0,0.0
485253,County,2020/05/31,50.0,VT,50013.0,Grand Isle County,1513.0,5577.0,22731.0,2470.0,6643.0,2688.0,3311.0,5063.0,2111.0,399.0,26.0,20.0,0.0
486880,County,2020/06/01,50.0,VT,50013.0,Grand Isle County,1454.0,5636.0,26517.0,3221.0,7547.0,1959.0,4486.0,4952.0,3720.0,515.0,41.0,16.0,60.0
491661,County,2020/06/02,50.0,VT,50013.0,Grand Isle County,1231.0,5859.0,28673.0,3770.0,7449.0,2398.0,4114.0,6778.0,3400.0,686.0,40.0,0.0,38.0
493290,County,2020/06/03,50.0,VT,50013.0,Grand Isle County,1118.0,5972.0,26196.0,4685.0,6019.0,2544.0,4211.0,4881.0,3400.0,353.0,19.0,30.0,54.0
496453,County,2020/06/04,50.0,VT,50013.0,Grand Isle County,1136.0,5954.0,29973.0,5462.0,7335.0,3507.0,3653.0,5852.0,3513.0,500.0,80.0,32.0,39.0
501227,County,2020/06/05,50.0,VT,50013.0,Grand Isle County,1105.0,5985.0,33249.0,4990.0,8748.0,2943.0,6692.0,6560.0,2832.0,367.0,20.0,78.0,19.0
504429,County,2020/06/06,50.0,VT,50013.0,Grand Isle County,1376.0,5714.0,27596.0,3318.0,5485.0,3892.0,4578.0,7009.0,3069.0,143.0,0.0,36.0,66.0
507630,County,2020/06/07,50.0,VT,50013.0,Grand Isle County,1244.0,5846.0,30072.0,4382.0,6946.0,2776.0,6269.0,6694.0,2519.0,486.0,0.0,0.0,0.0
510840,County,2020/06/08,50.0,VT,50013.0,Grand Isle County,1032.0,6058.0,26564.0,3276.0,6323.0,2524.0,4453.0,7342.0,2143.0,417.0,45.0,12.0,29.0
513995,County,2020/06/09,50.0,VT,50013.0,Grand Isle County,1322.0,5768.0,29552.0,4749.0,7205.0,2053.0,4172.0,7561.0,3465.0,291.0,56.0,0.0,0.0
515625,County,2020/06/10,50.0,VT,50013.0,Grand Isle County,1295.0,5795.0,28523.0,4800.0,6693.0,2469.0,3549.0,7751.0,2923.0,285.0,18.0,0.0,35.0
518829,County,2020/06/11,50.0,VT,50013.0,Grand Isle County,1282.0,5808.0,28287.0,4031.0,8035.0,3191.0,3550.0,6905.0,2045.0,431.0,52.0,14.0,33.0
523629,County,2020/06/12,50.0,VT,50013.0,Grand Isle County,1209.0,5881.0,29150.0,5160.0,7858.0,2024.0,4067.0,6753.0,2783.0,421.0,84.0,0.0,0.0
525208,County,2020/06/13,50.0,VT,50013.0,Grand Isle County,1359.0,5731.0,30089.0,6688.0,8087.0,2315.0,4311.0,6178.0,1989.0,482.0,39.0,0.0,0.0
529972,County,2020/06/14,50.0,VT,50013.0,Grand Isle County,1379.0,5711.0,23469.0,4186.0,3859.0,2651.0,4093.0,6243.0,1538.0,724.0,149.0,26.0,0.0
531600,County,2020/06/15,50.0,VT,50013.0,Grand Isle County,1356.0,5734.0,27268.0,5292.0,8061.0,1573.0,3331.0,6372.0,2109.0,442.0,63.0,25.0,0.0
536381,County,2020/06/16,50.0,VT,50013.0,Grand Isle County,1007.0,6083.0,32282.0,5877.0,7640.0,3731.0,4051.0,6015.0,4365.0,537.0,43.0,23.0,0.0
539550,County,2020/06/17,50.0,VT,50013.0,Grand Isle County,1157.0,5933.0,27089.0,3466.0,7035.0,2129.0,4922.0,6638.0,2347.0,458.0,59.0,35.0,0.0
542744,County,2020/06/18,50.0,VT,50013.0,Grand Isle County,1129.0,5961.0,31682.0,3637.0,8639.0,3172.0,4251.0,7503.0,3803.0,553.0,89.0,35.0,0.0
544371,County,2020/06/19,50.0,VT,50013.0,Grand Isle County,1090.0,6000.0,26018.0,3970.0,5731.0,3193.0,5065.0,4825.0,2679.0,417.0,89.0,35.0,14.0
547576,County,2020/06/20,50.0,VT,50013.0,Grand Isle County,1186.0,5904.0,29677.0,3542.0,7084.0,3767.0,6645.0,5090.0,2871.0,613.0,49.0,0.0,16.0
550781,County,2020/06/21,50.0,VT,50013.0,Grand Isle County,1243.0,5847.0,26608.0,3753.0,7413.0,3829.0,4504.0,4656.0,1795.0,522.0,112.0,11.0,13.0
553954,County,2020/06/22,50.0,VT,50013.0,Grand Isle County,1095.0,5995.0,30458.0,7209.0,6400.0,2757.0,5581.0,6100.0,1917.0,400.0,64.0,30.0,0.0
558715,County,2020/06/23,50.0,VT,50013.0,Grand Isle County,1167.0,5923.0,30217.0,6073.0,5900.0,4102.0,4358.0,6730.0,2456.0,537.0,40.0,21.0,0.0
560346,County,2020/06/24,50.0,VT,50013.0,Grand Isle County,1261.0,5829.0,27773.0,3732.0,5712.0,3951.0,5208.0,5903.0,2739.0,383.0,123.0,22.0,0.0
565083,County,2020/06/25,50.0,VT,50013.0,Grand Isle County,1427.0,5663.0,28192.0,5039.0,6342.0,3784.0,4121.0,6469.0,2095.0,262.0,56.0,11.0,13.0
568381,County,2020/06/26,50.0,VT,50013.0,Grand Isle County,1250.0,5840.0,26255.0,3053.0,6279.0,2801.0,3815.0,5693.0,3876.0,598.0,103.0,23.0,14.0
569911,County,2020/06/27,50.0,VT,50013.0,Grand Isle County,1162.0,5928.0,27366.0,5117.0,7277.0,2158.0,4231.0,6031.0,2077.0,225.0,158.0,23.0,69.0
574706,County,2020/06/28,50.0,VT,50013.0,Grand Isle County,1402.0,5688.0,22145.0,2846.0,4466.0,2731.0,4222.0,4925.0,2172.0,633.0,125.0,25.0,0.0
577879,County,2020/06/29,50.0,VT,50013.0,Grand Isle County,1478.0,5612.0,26767.0,4188.0,4713.0,1816.0,6408.0,6928.0,2528.0,57.0,55.0,57.0,17.0
579522,County,2020/06/30,50.0,VT,50013.0,Grand Isle County,1490.0,5600.0,28847.0,4821.0,5394.0,2827.0,6429.0,5681.0,3304.0,353.0,38.0,0.0,0.0
582724,County,2020/07/01,50.0,VT,50013.0,Grand Isle County,1199.0,5891.0,27762.0,4705.0,4948.0,4140.0,4472.0,6526.0,2613.0,211.0,118.0,13.0,16.0
585915,County,2020/07/02,50.0,VT,50013.0,Grand Isle County,1443.0,5647.0,29922.0,5348.0,6731.0,4016.0,4374.0,6866.0,2224.0,278.0,59.0,12.0,14.0
590655,County,2020/07/03,50.0,VT,50013.0,Grand Isle County,1424.0,5666.0,26108.0,3036.0,6244.0,2785.0,3794.0,5661.0,3854.0,595.0,102.0,23.0,14.0
592303,County,2020/07/04,50.0,VT,50013.0,Grand Isle County,1518.0,5572.0,22336.0,2597.0,5342.0,2383.0,3245.0,4843.0,3297.0,509.0,88.0,20.0,12.0
597058,County,2020/07/05,50.0,VT,50013.0,Grand Isle County,1324.0,5766.0,28698.0,6585.0,6816.0,4402.0,5495.0,3893.0,1112.0,224.0,108.0,28.0,35.0
600236,County,2020/07/06,50.0,VT,50013.0,Grand Isle County,1304.0,5786.0,28929.0,4579.0,7244.0,3583.0,4214.0,5840.0,2770.0,602.0,97.0,0.0,0.0
601814,County,2020/07/07,50.0,VT,50013.0,Grand Isle County,1245.0,5845.0,25685.0,3638.0,5474.0,2938.0,4684.0,4981.0,3500.0,408.0,39.0,10.0,13.0
604957,County,2020/07/08,50.0,VT,50013.0,Grand Isle County,1165.0,5925.0,23557.0,3340.0,4208.0,2432.0,4434.0,5784.0,2821.0,380.0,97.0,38.0,23.0
609826,County,2020/07/09,50.0,VT,50013.0,Grand Isle County,1230.0,5860.0,27657.0,5472.0,5840.0,2507.0,5382.0,5491.0,2197.0,626.0,100.0,30.0,12.0
613032,County,2020/07/10,50.0,VT,50013.0,Grand Isle County,1094.0,5996.0,24525.0,4218.0,5596.0,2102.0,3886.0,5318.0,2725.0,450.0,144.0,86.0,0.0
616248,County,2020/07/11,50.0,VT,50013.0,Grand Isle County,1305.0,5785.0,22712.0,3281.0,5578.0,2434.0,3975.0,5030.0,2021.0,253.0,41.0,86.0,13.0
617832,County,2020/07/12,50.0,VT,50013.0,Grand Isle County,1485.0,5605.0,20519.0,3846.0,3832.0,1810.0,3677.0,3952.0,2545.0,668.0,115.0,26.0,48.0
621021,County,2020/07/13,50.0,VT,50013.0,Grand Isle County,1225.0,5865.0,27052.0,4303.0,7255.0,2288.0,4116.0,5641.0,2845.0,462.0,54.0,75.0,13.0
624222,County,2020/07/14,50.0,VT,50013.0,Grand Isle County,1294.0,5796.0,28231.0,4232.0,5672.0,3125.0,5347.0,5687.0,3808.0,310.0,28.0,22.0,0.0
627344,County,2020/07/15,50.0,VT,50013.0,Grand Isle County,1107.0,5983.0,27220.0,3580.0,7327.0,2259.0,4317.0,5983.0,3129.0,485.0,57.0,56.0,27.0
632275,County,2020/07/16,50.0,VT,50013.0,Grand Isle County,1262.0,5828.0,28882.0,4971.0,5928.0,2969.0,5715.0,5784.0,2853.0,506.0,81.0,75.0,0.0
633792,County,2020/07/17,50.0,VT,50013.0,Grand Isle County,1231.0,5859.0,25656.0,3602.0,6681.0,2239.0,3750.0,6070.0,2798.0,381.0,68.0,54.0,13.0
638572,County,2020/07/18,50.0,VT,50013.0,Grand Isle County,1262.0,5828.0,23960.0,2787.0,5701.0,2748.0,4183.0,5558.0,2417.0,353.0,146.0,51.0,16.0
641776,County,2020/07/19,50.0,VT,50013.0,Grand Isle County,1464.0,5626.0,18374.0,2332.0,3335.0,2005.0,3341.0,4485.0,1981.0,782.0,84.0,13.0,16.0
643386,County,2020/07/20,50.0,VT,50013.0,Grand Isle County,1501.0,5589.0,24172.0,5352.0,4694.0,1628.0,3297.0,5451.0,3264.0,282.0,109.0,43.0,52.0
646954,County,2020/07/21,50.0,VT,50013.0,Grand Isle County,1223.0,5867.0,24953.0,5866.0,4599.0,2304.0,4161.0,5425.0,2206.0,308.0,16.0,52.0,16.0
651339,County,2020/07/22,50.0,VT,50013.0,Grand Isle County,1272.0,5818.0,24266.0,5070.0,4986.0,2473.0,3878.0,5364.0,2318.0,94.0,30.0,24.0,29.0
652882,County,2020/07/23,50.0,VT,50013.0,Grand Isle County,1356.0,5734.0,22875.0,3090.0,5293.0,2306.0,3461.0,5993.0,2132.0,496.0,64.0,25.0,15.0
656005,County,2020/07/24,50.0,VT,50013.0,Grand Isle County,1204.0,5886.0,24866.0,4137.0,4896.0,3318.0,3139.0,5774.0,2752.0,630.0,144.0,34.0,42.0
661025,County,2020/07/25,50.0,VT,50013.0,Grand Isle County,1269.0,5821.0,23999.0,3817.0,5655.0,2390.0,4372.0,4002.0,2738.0,718.0,248.0,42.0,17.0
662550,County,2020/07/26,50.0,VT,50013.0,Grand Isle County,1438.0,5652.0,23825.0,3816.0,3751.0,1253.0,5280.0,6785.0,2045.0,782.0,41.0,32.0,40.0
665844,County,2020/07/27,50.0,VT,50013.0,Grand Isle County,1385.0,5705.0,26673.0,4348.0,4798.0,2704.0,4593.0,6602.0,2891.0,625.0,81.0,31.0,0.0
670533,County,2020/07/28,50.0,VT,50013.0,Grand Isle County,1377.0,5713.0,30003.0,4047.0,5141.0,2377.0,5125.0,9329.0,3778.0,186.0,20.0,0.0,0.0
672213,County,2020/07/29,50.0,VT,50013.0,Grand Isle County,1280.0,5810.0,29016.0,4423.0,6266.0,2595.0,4181.0,6427.0,4856.0,180.0,58.0,30.0,0.0
676876,County,2020/07/30,50.0,VT,50013.0,Grand Isle County,1158.0,5932.0,24708.0,3003.0,5600.0,2143.0,4016.0,5908.0,3439.0,496.0,48.0,25.0,30.0
680104,County,2020/07/31,50.0,VT,50013.0,Grand Isle County,1165.0,5925.0,28736.0,5113.0,6048.0,2188.0,4553.0,7450.0,3123.0,211.0,50.0,0.0,0.0
681685,County,2020/08/01,50.0,VT,50013.0,Grand Isle County,1471.0,5619.0,25050.0,2802.0,4550.0,2593.0,5269.0,7217.0,2066.0,441.0,71.0,19.0,22.0
684907,County,2020/08/02,50.0,VT,50013.0,Grand Isle County,1647.0,5443.0,19111.0,2148.0,4893.0,1624.0,3117.0,4993.0,1498.0,694.0,86.0,41.0,17.0
688104,County,2020/08/03,50.0,VT,50013.0,Grand Isle County,1642.0,5448.0,23693.0,3841.0,5725.0,2619.0,3739.0,5197.0,2025.0,350.0,94.0,103.0,0.0
692879,County,2020/08/04,50.0,VT,50013.0,Grand Isle County,1238.0,5852.0,22867.0,3458.0,5809.0,2393.0,1822.0,6564.0,2395.0,263.0,127.0,23.0,13.0
694507,County,2020/08/05,50.0,VT,50013.0,Grand Isle County,1515.0,5575.0,27457.0,4430.0,7688.0,2931.0,3853.0,5928.0,2222.0,323.0,69.0,13.0,0.0
699250,County,2020/08/06,50.0,VT,50013.0,Grand Isle County,1328.0,5762.0,27831.0,4822.0,7421.0,2215.0,4672.0,5683.0,2362.0,525.0,107.0,24.0,0.0
702446,County,2020/08/07,50.0,VT,50013.0,Grand Isle County,1200.0,5890.0,26883.0,4563.0,5142.0,3181.0,3386.0,7421.0,2734.0,426.0,30.0,0.0,0.0
704075,County,2020/08/08,50.0,VT,50013.0,Grand Isle County,1496.0,5594.0,22146.0,3413.0,4835.0,1912.0,5061.0,5043.0,1281.0,418.0,153.0,30.0,0.0
707265,County,2020/08/09,50.0,VT,50013.0,Grand Isle County,1489.0,5601.0,27074.0,6699.0,4845.0,3173.0,4062.0,6154.0,1347.0,582.0,168.0,44.0,0.0
710535,County,2020/08/10,50.0,VT,50013.0,Grand Isle County,1326.0,5764.0,26387.0,3499.0,5848.0,1990.0,4778.0,6950.0,2736.0,414.0,133.0,39.0,0.0
713703,County,2020/08/11,50.0,VT,50013.0,Grand Isle County,1291.0,5799.0,28081.0,4896.0,8164.0,2215.0,3006.0,6822.0,2547.0,266.0,136.0,13.0,16.0
718414,County,2020/08/12,50.0,VT,50013.0,Grand Isle County,1189.0,5901.0,27153.0,3896.0,6956.0,2464.0,4039.0,6329.0,2618.0,653.0,119.0,36.0,43.0
720043,County,2020/08/13,50.0,VT,50013.0,Grand Isle County,1162.0,5928.0,26762.0,4828.0,5805.0,2960.0,3848.0,6823.0,1767.0,437.0,187.0,62.0,45.0
724835,County,2020/08/14,50.0,VT,50013.0,Grand Isle County,1278.0,5812.0,28282.0,4633.0,8368.0,1738.0,4378.0,5298.0,3412.0,207.0,116.0,52.0,80.0
727997,County,2020/08/15,50.0,VT,50013.0,Grand Isle County,1387.0,5703.0,23947.0,5067.0,4271.0,2659.0,3343.0,4836.0,2835.0,573.0,220.0,73.0,70.0
729625,County,2020/08/16,50.0,VT,50013.0,Grand Isle County,1505.0,5585.0,27354.0,5419.0,6058.0,2168.0,4589.0,5921.0,2011.0,812.0,217.0,138.0,21.0
734405,County,2020/08/17,50.0,VT,50013.0,Grand Isle County,1289.0,5801.0,26404.0,4426.0,5693.0,2430.0,3659.0,6775.0,2806.0,425.0,117.0,16.0,57.0
737577,County,2020/08/18,50.0,VT,50013.0,Grand Isle County,1270.0,5820.0,29963.0,4479.0,6642.0,3565.0,3953.0,7291.0,3466.0,445.0,103.0,0.0,19.0
740772,County,2020/08/19,50.0,VT,50013.0,Grand Isle County,1255.0,5835.0,29673.0,4308.0,6116.0,2917.0,4677.0,6492.0,4374.0,607.0,106.0,42.0,34.0
742401,County,2020/08/20,50.0,VT,50013.0,Grand Isle County,1158.0,5932.0,28059.0,3866.0,7767.0,2829.0,4056.0,5913.0,2826.0,662.0,106.0,0.0,34.0
747176,County,2020/08/21,50.0,VT,50013.0,Grand Isle County,1059.0,6031.0,28962.0,4199.0,7121.0,2293.0,4095.0,7280.0,3152.0,583.0,136.0,54.0,49.0
750381,County,2020/08/22,50.0,VT,50013.0,Grand Isle County,1181.0,5909.0,24843.0,3449.0,5377.0,1971.0,3824.0,7146.0,2134.0,554.0,257.0,94.0,37.0
753551,County,2020/08/23,50.0,VT,50013.0,Grand Isle County,1387.0,5703.0,22113.0,3450.0,3984.0,1164.0,4792.0,4542.0,3257.0,623.0,200.0,53.0,48.0
755220,County,2020/08/24,50.0,VT,50013.0,Grand Isle County,1351.0,5739.0,21244.0,4528.0,3685.0,2307.0,2623.0,4925.0,2537.0,384.0,123.0,73.0,59.0
758371,County,2020/08/25,50.0,VT,50013.0,Grand Isle County,1276.0,5814.0,25079.0,3809.0,5323.0,1857.0,4619.0,5718.0,3092.0,402.0,128.0,34.0,97.0
763142,County,2020/08/26,50.0,VT,50013.0,Grand Isle County,1214.0,5876.0,26882.0,4144.0,5956.0,2021.0,4754.0,5779.0,3647.0,451.0,58.0,45.0,27.0
766338,County,2020/08/27,50.0,VT,50013.0,Grand Isle County,1257.0,5833.0,25912.0,3677.0,5752.0,2301.0,4181.0,5581.0,3809.0,478.0,111.0,22.0,0.0
767976,County,2020/08/28,50.0,VT,50013.0,Grand Isle County,1173.0,5917.0,25855.0,3856.0,6437.0,2383.0,3957.0,5413.0,3108.0,526.0,56.0,78.0,41.0
772705,County,2020/08/29,50.0,VT,50013.0,Grand Isle County,1379.0,5711.0,18204.0,1795.0,4493.0,1647.0,2324.0,5352.0,1953.0,308.0,198.0,118.0,16.0
774379,County,2020/08/30,50.0,VT,50013.0,Grand Isle County,1490.0,5600.0,21658.0,3379.0,4772.0,2229.0,3874.0,4746.0,1698.0,726.0,135.0,61.0,38.0
779101,County,2020/08/31,50.0,VT,50013.0,Grand Isle County,1182.0,5908.0,23585.0,4251.0,4886.0,2475.0,3113.0,5468.0,2728.0,480.0,86.0,81.0,17.0
780713,County,2020/09/01,50.0,VT,50013.0,Grand Isle County,1541.0,5549.0,25584.0,3904.0,4494.0,1944.0,3731.0,7036.0,3693.0,575.0,123.0,64.0,20.0
785489,County,2020/09/02,50.0,VT,50013.0,Grand Isle County,1419.0,5671.0,24921.0,5139.0,4407.0,1419.0,4118.0,6684.0,2439.0,532.0,132.0,14.0,37.0
788697,County,2020/09/03,50.0,VT,50013.0,Grand Isle County,1283.0,5807.0,26821.0,4633.0,6283.0,2604.0,3542.0,5214.0,3609.0,813.0,81.0,26.0,16.0
791876,County,2020/09/04,50.0,VT,50013.0,Grand Isle County,1162.0,5928.0,29039.0,4561.0,6944.0,2319.0,4999.0,6187.0,3884.0,0.0,58.0,31.0,56.0
795072,County,2020/09/05,50.0,VT,50013.0,Grand Isle County,1371.0,5719.0,21927.0,3548.0,4142.0,2452.0,3660.0,5952.0,1750.0,177.0,94.0,134.0,18.0
798275,County,2020/09/06,50.0,VT,50013.0,Grand Isle County,1497.0,5593.0,24514.0,2274.0,6707.0,2464.0,3425.0,6857.0,2425.0,210.0,134.0,18.0,0.0
801485,County,2020/09/07,50.0,VT,50013.0,Grand Isle County,1470.0,5620.0,18070.0,1717.0,4725.0,1554.0,2349.0,5016.0,1944.0,485.0,244.0,36.0,0.0
803115,County,2020/09/08,50.0,VT,50013.0,Grand Isle County,1283.0,5807.0,24577.0,3650.0,5068.0,1692.0,4579.0,5819.0,3054.0,369.0,237.0,27.0,82.0
806281,County,2020/09/09,50.0,VT,50013.0,Grand Isle County,1394.0,5696.0,26560.0,3708.0,6137.0,2516.0,3353.0,7265.0,3112.0,314.0,100.0,39.0,16.0
811049,County,2020/09/10,50.0,VT,50013.0,Grand Isle County,1345.0,5745.0,23523.0,2551.0,6382.0,2519.0,3250.0,5971.0,2095.0,558.0,114.0,52.0,31.0
812678,County,2020/09/11,50.0,VT,50013.0,Grand Isle County,1268.0,5822.0,26264.0,4028.0,6707.0,1680.0,3260.0,7199.0,2512.0,577.0,151.0,53.0,97.0
815864,County,2020/09/12,50.0,VT,50013.0,Grand Isle County,1426.0,5664.0,30543.0,5331.0,8302.0,2495.0,4627.0,6869.0,2375.0,419.0,58.0,30.0,37.0
819035,County,2020/09/13,50.0,VT,50013.0,Grand Isle County,1775.0,5315.0,16248.0,1103.0,2201.0,2067.0,2189.0,5843.0,2558.0,128.0,30.0,71.0,58.0
823817,County,2020/09/14,50.0,VT,50013.0,Grand Isle County,1177.0,5913.0,28638.0,3349.0,9034.0,2088.0,4197.0,6475.0,2602.0,652.0,105.0,69.0,67.0
825445,County,2020/09/15,50.0,VT,50013.0,Grand Isle County,1449.0,5641.0,32439.0,6589.0,8751.0,1837.0,4208.0,8197.0,2293.0,423.0,77.0,46.0,18.0
828686,County,2020/09/16,50.0,VT,50013.0,Grand Isle County,1349.0,5741.0,25160.0,2662.0,6226.0,2339.0,2962.0,8473.0,2040.0,225.0,109.0,72.0,52.0
833430,County,2020/09/17,50.0,VT,50013.0,Grand Isle County,1094.0,5996.0,23088.0,2730.0,4717.0,1236.0,4266.0,6676.0,2804.0,463.0,115.0,65.0,16.0
836592,County,2020/09/18,50.0,VT,50013.0,Grand Isle County,1248.0,5842.0,25059.0,3592.0,4752.0,2746.0,4415.0,5949.0,2832.0,628.0,55.0,73.0,17.0
838221,County,2020/09/19,50.0,VT,50013.0,Grand Isle County,1484.0,5606.0,28218.0,4067.0,5064.0,2349.0,6186.0,7588.0,2539.0,279.0,67.0,36.0,43.0
842996,County,2020/09/20,50.0,VT,50013.0,Grand Isle County,1705.0,5385.0,21895.0,2656.0,4066.0,2240.0,4551.0,5179.0,2310.0,763.0,82.0,48.0,0.0
846200,County,2020/09/21,50.0,VT,50013.0,Grand Isle County,1476.0,5614.0,25535.0,3888.0,6289.0,1969.0,3474.0,6305.0,3147.0,369.0,59.0,16.0,19.0
847829,County,2020/09/22,50.0,VT,50013.0,Grand Isle County,1486.0,5604.0,23772.0,3598.0,4841.0,1616.0,3565.0,6947.0,2500.0,505.0,101.0,80.0,19.0
850996,County,2020/09/23,50.0,VT,50013.0,Grand Isle County,1393.0,5697.0,24309.0,3269.0,5524.0,2306.0,3363.0,5560.0,3519.0,461.0,148.0,88.0,71.0
855762,County,2020/09/24,50.0,VT,50013.0,Grand Isle County,1435.0,5655.0,23018.0,2927.0,5504.0,2444.0,1769.0,5843.0,3682.0,587.0,188.0,74.0,0.0
857391,County,2020/09/25,50.0,VT,50013.0,Grand Isle County,1387.0,5703.0,23334.0,2588.0,6631.0,1513.0,2616.0,5866.0,3394.0,500.0,142.0,84.0,0.0
860577,County,2020/09/26,50.0,VT,50013.0,Grand Isle County,1621.0,5469.0,24569.0,3886.0,4957.0,2848.0,3865.0,5159.0,3389.0,342.0,88.0,35.0,0.0
865374,County,2020/09/27,50.0,VT,50013.0,Grand Isle County,1806.0,5284.0,25190.0,4064.0,5636.0,2646.0,4980.0,4612.0,2729.0,413.0,26.0,84.0,0.0
868532,County,2020/09/28,50.0,VT,50013.0,Grand Isle County,1540.0,5550.0,21557.0,3810.0,5424.0,1394.0,3405.0,4747.0,2322.0,335.0,86.0,34.0,0.0
870160,County,2020/09/29,50.0,VT,50013.0,Grand Isle County,1517.0,5573.0,28527.0,6890.0,6311.0,1622.0,3816.0,6582.0,3088.0,156.0,37.0,25.0,0.0
874939,County,2020/09/30,50.0,VT,50013.0,Grand Isle County,1412.0,5678.0,25508.0,4579.0,3954.0,1564.0,5150.0,7660.0,2257.0,293.0,43.0,0.0,8.0
876567,County,2020/10/01,50.0,VT,50013.0,Grand Isle County,1490.0,5600.0,25836.0,4478.0,5468.0,2054.0,3345.0,7441.0,2607.0,296.0,147.0,0.0,0.0
881308,County,2020/10/02,50.0,VT,50013.0,Grand Isle County,1390.0,5700.0,22676.0,2243.0,5934.0,2341.0,4064.0,5355.0,2069.0,557.0,79.0,26.0,8.0
884503,County,2020/10/03,50.0,VT,50013.0,Grand Isle County,1619.0,5471.0,20983.0,4228.0,3448.0,2181.0,3528.0,4623.0,2530.0,341.0,67.0,28.0,9.0
887507,County,2020/10/04,50.0,VT,50013.0,Grand Isle County,1573.0,5517.0,19841.0,3567.0,3186.0,2014.0,3573.0,5836.0,1180.0,330.0,118.0,15.0,22.0
890745,County,2020/10/05,50.0,VT,50013.0,Grand Isle County,1501.0,5589.0,23916.0,2129.0,6700.0,2038.0,3253.0,6845.0,2157.0,698.0,52.0,29.0,15.0
894255,County,2020/10/06,50.0,VT,50013.0,Grand Isle County,1271.0,5819.0,26770.0,4008.0,4302.0,2277.0,3835.0,6432.0,4880.0,831.0,170.0,35.0,0.0
897229,County,2020/10/07,50.0,VT,50013.0,Grand Isle County,1259.0,5831.0,25752.0,3926.0,3432.0,1618.0,5907.0,6635.0,3802.0,282.0,110.0,17.0,23.0
900314,County,2020/10/08,50.0,VT,50013.0,Grand Isle County,1285.0,5805.0,25364.0,4305.0,4094.0,2185.0,3666.0,5972.0,4114.0,960.0,49.0,9.0,10.0
903509,County,2020/10/09,50.0,VT,50013.0,Grand Isle County,1427.0,5663.0,29890.0,3559.0,8878.0,1806.0,3596.0,7523.0,3729.0,706.0,53.0,30.0,10.0
906684,County,2020/10/10,50.0,VT,50013.0,Grand Isle County,1562.0,5528.0,24946.0,4754.0,5403.0,859.0,5316.0,5864.0,1853.0,697.0,155.0,33.0,12.0
907482,County,2020/10/11,50.0,VT,50013.0,Grand Isle County,1503.0,5587.0,24493.0,3692.0,4544.0,3008.0,6325.0,4558.0,1648.0,588.0,106.0,20.0,4.0
910660,County,2020/10/12,50.0,VT,50013.0,Grand Isle County,1368.0,5722.0,21749.0,2273.0,3190.0,1907.0,4957.0,5447.0,2738.0,1069.0,120.0,39.0,9.0
913597,County,2020/10/13,50.0,VT,50013.0,Grand Isle County,1377.0,5713.0,22951.0,4607.0,4487.0,1538.0,4128.0,4877.0,2647.0,526.0,91.0,41.0,9.0
917021,County,2020/10/14,50.0,VT,50013.0,Grand Isle County,1324.0,5766.0,24207.0,2777.0,7033.0,1696.0,3821.0,5438.0,2156.0,1077.0,178.0,19.0,12.0
920332,County,2020/10/15,50.0,VT,50013.0,Grand Isle County,1318.0,5772.0,24152.0,3828.0,5281.0,2408.0,3202.0,6725.0,1983.0,510.0,175.0,40.0,0.0
923791,County,2020/10/16,50.0,VT,50013.0,Grand Isle County,1357.0,5733.0,24750.0,1988.0,7502.0,2047.0,2941.0,6951.0,2205.0,917.0,148.0,42.0,9.0
926934,County,2020/10/17,50.0,VT,50013.0,Grand Isle County,1211.0,5879.0,27915.0,4625.0,7750.0,3044.0,3399.0,5912.0,2229.0,773.0,130.0,53.0,0.0
929726,County,2020/10/18,50.0,VT,50013.0,Grand Isle County,1438.0,5652.0,19816.0,1359.0,3823.0,1725.0,4560.0,5460.0,2392.0,299.0,192.0,0.0,6.0
933332,County,2020/10/19,50.0,VT,50013.0,Grand Isle County,1494.0,5596.0,23174.0,3128.0,3921.0,3352.0,4608.0,5166.0,2169.0,678.0,140.0,0.0,12.0
936088,County,2020/10/20,50.0,VT,50013.0,Grand Isle County,1533.0,5557.0,23934.0,4795.0,4774.0,1442.0,3727.0,5578.0,3259.0,306.0,25.0,28.0,0.0
939269,County,2020/10/21,50.0,VT,50013.0,Grand Isle County,1567.0,5523.0,23915.0,4068.0,4212.0,1901.0,4019.0,5699.0,3515.0,329.0,159.0,0.0,13.0
942421,County,2020/10/22,50.0,VT,50013.0,Grand Isle County,1350.0,5740.0,20429.0,3538.0,3350.0,1892.0,2707.0,4933.0,3403.0,462.0,89.0,38.0,17.0
945684,County,2020/10/23,50.0,VT,50013.0,Grand Isle County,1463.0,5627.0,23499.0,1376.0,6680.0,1750.0,4996.0,4957.0,3237.0,404.0,73.0,14.0,12.0
949393,County,2020/10/24,50.0,VT,50013.0,Grand Isle County,1939.0,5151.0,26453.0,4011.0,7610.0,1465.0,3693.0,6491.0,2982.0,155.0,37.0,0.0,9.0
