,Level,Date,State FIPS,State Postal Code,County FIPS,County Name,Population Staying at Home,Population Not Staying at Home,Number of Trips,Number of Trips <1,Number of Trips 1-3,Number of Trips 3-5,Number of Trips 5-10,Number of Trips 10-25,Number of Trips 25-50,Number of Trips 50-100,Number of Trips 100-250,Number of Trips 250-500,Number of Trips >=500
31,County,2020/01/01,1.0,AL,1063.0,Greene County,1451.0,6782.0,27243.0,7920.0,7832.0,2990.0,3305.0,3254.0,1439.0,403.0,82.0,18.0,0.0
3872,County,2020/01/02,1.0,AL,1063.0,Greene County,1389.0,6844.0,28118.0,8620.0,5298.0,3245.0,3528.0,4638.0,2193.0,471.0,106.0,19.0,0.0
8588,County,2020/01/03,1.0,AL,1063.0,Greene County,1382.0,6851.0,28127.0,5797.0,6350.0,3155.0,4647.0,4143.0,3322.0,508.0,180.0,25.0,0.0
10181,County,2020/01/04,1.0,AL,1063.0,Greene County,1368.0,6865.0,25771.0,5687.0,6306.0,2120.0,4245.0,4469.0,2404.0,432.0,95.0,13.0,0.0
12807,County,2020/01/05,1.0,AL,1063.0,Greene County,1379.0,6854.0,24643.0,4779.0,6593.0,2023.0,4053.0,4598.0,1987.0,414.0,176.0,20.0,0.0
16708,County,2020/01/06,1.0,AL,1063.0,Greene County,1158.0,7075.0,29737.0,7196.0,5200.0,3458.0,4223.0,5453.0,3428.0,560.0,202.0,17.0,0.0
20762,County,2020/01/07,1.0,AL,1063.0,Greene County,1284.0,6949.0,30016.0,7066.0,6435.0,3337.0,4200.0,5006.0,2699.0,936.0,293.0,44.0,0.0
24005,County,2020/01/08,1.0,AL,1063.0,Greene County,1260.0,6973.0,29599.0,5109.0,6687.0,4073.0,4162.0,4670.0,3580.0,1137.0,142.0,39.0,0.0
27137,County,2020/01/09,1.0,AL,1063.0,Greene County,1224.0,7009.0,27181.0,4852.0,6107.0,3315.0,4150.0,3955.0,3720.0,875.0,170.0,37.0,0.0
30342,County,2020/01/10,1.0,AL,1063.0,Greene County,1168.0,7065.0,29204.0,5443.0,6743.0,3275.0,4217.0,5281.0,3027.0,1006.0,196.0,16.0,0.0
31971,County,2020/01/11,1.0,AL,1063.0,Greene County,1426.0,6807.0,24880.0,4782.0,6177.0,3269.0,3526.0,4645.0,1627.0,655.0,182.0,17.0,0.0
38262,County,2020/01/12,1.0,AL,1063.0,Greene County,1514.0,6719.0,24905.0,4504.0,5318.0,3674.0,3955.0,4524.0,2061.0,682.0,168.0,19.0,0.0
38369,County,2020/01/13,1.0,AL,1063.0,Greene County,1245.0,6988.0,29206.0,5872.0,6828.0,3758.0,4469.0,4338.0,2802.0,948.0,170.0,21.0,0.0
41532,County,2020/01/14,1.0,AL,1063.0,Greene County,1033.0,7200.0,26709.0,3804.0,7537.0,3600.0,3817.0,4509.0,2569.0,662.0,177.0,34.0,0.0
44734,County,2020/01/15,1.0,AL,1063.0,Greene County,1236.0,6997.0,29072.0,6124.0,5649.0,3449.0,4145.0,5015.0,3534.0,959.0,158.0,39.0,0.0
49465,County,2020/01/16,1.0,AL,1063.0,Greene County,1161.0,7072.0,29500.0,6873.0,6934.0,2781.0,4031.0,4675.0,2797.0,1115.0,259.0,35.0,0.0
52753,County,2020/01/17,1.0,AL,1063.0,Greene County,1229.0,7004.0,29522.0,6253.0,6404.0,3837.0,4150.0,4429.0,3305.0,960.0,158.0,26.0,0.0
54326,County,2020/01/18,1.0,AL,1063.0,Greene County,1328.0,6905.0,26511.0,7003.0,5897.0,3120.0,3969.0,3375.0,1944.0,923.0,260.0,20.0,0.0
59071,County,2020/01/19,1.0,AL,1063.0,Greene County,1407.0,6826.0,25577.0,6666.0,6055.0,2288.0,3905.0,3131.0,2571.0,696.0,242.0,23.0,0.0
60705,County,2020/01/20,1.0,AL,1063.0,Greene County,1326.0,6907.0,26923.0,3834.0,6320.0,4631.0,4037.0,3961.0,3017.0,771.0,323.0,29.0,0.0
65482,County,2020/01/21,1.0,AL,1063.0,Greene County,1299.0,6934.0,26502.0,5618.0,5003.0,3366.0,3841.0,4398.0,2896.0,1162.0,170.0,48.0,0.0
68674,County,2020/01/22,1.0,AL,1063.0,Greene County,1315.0,6918.0,25570.0,5296.0,4726.0,3603.0,3945.0,3805.0,2694.0,1212.0,258.0,31.0,0.0
70298,County,2020/01/23,1.0,AL,1063.0,Greene County,1330.0,6903.0,27799.0,5927.0,5871.0,3528.0,3459.0,4969.0,3097.0,704.0,206.0,38.0,0.0
75011,County,2020/01/24,1.0,AL,1063.0,Greene County,1146.0,7087.0,30842.0,6537.0,6139.0,3295.0,4650.0,6110.0,2862.0,1024.0,205.0,20.0,0.0
78246,County,2020/01/25,1.0,AL,1063.0,Greene County,1189.0,7044.0,30699.0,7712.0,6302.0,3603.0,4785.0,4461.0,2898.0,796.0,134.0,8.0,0.0
79881,County,2020/01/26,1.0,AL,1063.0,Greene County,1487.0,6746.0,25159.0,4582.0,5491.0,2663.0,4130.0,5025.0,2345.0,739.0,167.0,17.0,0.0
84071,County,2020/01/27,1.0,AL,1063.0,Greene County,1191.0,7042.0,28115.0,5527.0,5169.0,3618.0,4131.0,5068.0,3599.0,792.0,182.0,29.0,0.0
88414,County,2020/01/28,1.0,AL,1063.0,Greene County,1182.0,7051.0,24908.0,5115.0,5995.0,3725.0,2910.0,3211.0,2757.0,1019.0,136.0,40.0,0.0
89437,County,2020/01/29,1.0,AL,1063.0,Greene County,1140.0,7093.0,26426.0,5064.0,5298.0,4076.0,3667.0,4360.0,2933.0,837.0,142.0,49.0,0.0
92644,County,2020/01/30,1.0,AL,1063.0,Greene County,1332.0,6901.0,25009.0,3988.0,6346.0,4397.0,3196.0,3330.0,2710.0,776.0,235.0,31.0,0.0
95845,County,2020/01/31,1.0,AL,1063.0,Greene County,1142.0,7091.0,31575.0,7551.0,6051.0,4128.0,5046.0,3878.0,3438.0,1176.0,288.0,19.0,0.0
99045,County,2020/02/01,1.0,AL,1063.0,Greene County,1352.0,6881.0,27128.0,5340.0,5275.0,3392.0,4941.0,4866.0,2619.0,572.0,97.0,26.0,0.0
103756,County,2020/02/02,1.0,AL,1063.0,Greene County,1410.0,6823.0,23874.0,3521.0,5315.0,4368.0,3659.0,3729.0,2554.0,590.0,127.0,11.0,0.0
107008,County,2020/02/03,1.0,AL,1063.0,Greene County,1091.0,7142.0,30768.0,5806.0,6163.0,4230.0,3972.0,6003.0,3729.0,672.0,166.0,27.0,0.0
108625,County,2020/02/04,1.0,AL,1063.0,Greene County,1081.0,7152.0,26706.0,4467.0,6222.0,3009.0,3704.0,5355.0,2624.0,1029.0,251.0,45.0,0.0
113349,County,2020/02/05,1.0,AL,1063.0,Greene County,1173.0,7060.0,28079.0,5338.0,5838.0,3694.0,3951.0,5253.0,2735.0,930.0,293.0,47.0,0.0
116556,County,2020/02/06,1.0,AL,1063.0,Greene County,990.0,7243.0,29043.0,6177.0,4801.0,3729.0,5036.0,4610.0,3290.0,1104.0,258.0,38.0,0.0
118181,County,2020/02/07,1.0,AL,1063.0,Greene County,927.0,7306.0,32152.0,6077.0,6223.0,5554.0,4339.0,5173.0,3673.0,847.0,228.0,38.0,0.0
121379,County,2020/02/08,1.0,AL,1063.0,Greene County,1258.0,6975.0,30051.0,5765.0,6802.0,4170.0,4883.0,4888.0,2763.0,602.0,154.0,24.0,0.0
127176,County,2020/02/09,1.0,AL,1063.0,Greene County,1416.0,6817.0,27660.0,5253.0,6014.0,4124.0,4944.0,4281.0,2426.0,439.0,149.0,30.0,0.0
128340,County,2020/02/10,1.0,AL,1063.0,Greene County,1044.0,7189.0,29579.0,5054.0,6645.0,4508.0,4692.0,4748.0,2699.0,904.0,291.0,38.0,0.0
130986,County,2020/02/11,1.0,AL,1063.0,Greene County,1174.0,7059.0,31309.0,5837.0,6282.0,5053.0,3914.0,5446.0,3188.0,1185.0,354.0,50.0,0.0
137286,County,2020/02/12,1.0,AL,1063.0,Greene County,980.0,7253.0,30551.0,6247.0,5897.0,4235.0,3783.0,5595.0,3055.0,1298.0,406.0,35.0,0.0
137360,County,2020/02/13,1.0,AL,1063.0,Greene County,1062.0,7171.0,28283.0,3926.0,6013.0,3569.0,4436.0,6061.0,2874.0,1058.0,288.0,58.0,0.0
142043,County,2020/02/14,1.0,AL,1063.0,Greene County,1057.0,7176.0,36637.0,8265.0,7192.0,4061.0,6036.0,5899.0,3735.0,1203.0,210.0,36.0,0.0
145348,County,2020/02/15,1.0,AL,1063.0,Greene County,1350.0,6883.0,35383.0,8028.0,8614.0,3412.0,4313.0,6692.0,3499.0,667.0,139.0,19.0,0.0
148499,County,2020/02/16,1.0,AL,1063.0,Greene County,1360.0,6873.0,28295.0,6385.0,6905.0,3361.0,4270.0,4038.0,2536.0,577.0,178.0,45.0,0.0
150127,County,2020/02/17,1.0,AL,1063.0,Greene County,1618.0,6615.0,27205.0,4653.0,6444.0,3321.0,4657.0,4039.0,3183.0,701.0,167.0,40.0,0.0
154858,County,2020/02/18,1.0,AL,1063.0,Greene County,1206.0,7027.0,30656.0,5350.0,6746.0,3140.0,5241.0,6272.0,2857.0,788.0,214.0,48.0,0.0
156537,County,2020/02/19,1.0,AL,1063.0,Greene County,1159.0,7074.0,31649.0,6409.0,8231.0,3894.0,3606.0,4750.0,3432.0,1033.0,252.0,42.0,0.0
161202,County,2020/02/20,1.0,AL,1063.0,Greene County,1115.0,7118.0,27209.0,4549.0,5537.0,3543.0,3966.0,5615.0,2739.0,950.0,277.0,33.0,0.0
164443,County,2020/02/21,1.0,AL,1063.0,Greene County,1130.0,7103.0,33576.0,5519.0,6601.0,4868.0,5541.0,5393.0,4027.0,1326.0,270.0,31.0,0.0
167587,County,2020/02/22,1.0,AL,1063.0,Greene County,1094.0,7139.0,31026.0,6265.0,6176.0,3827.0,4392.0,6076.0,3144.0,872.0,255.0,19.0,0.0
169296,County,2020/02/23,1.0,AL,1063.0,Greene County,1529.0,6704.0,26293.0,3988.0,5037.0,3980.0,4473.0,5155.0,2296.0,1138.0,200.0,26.0,0.0
174080,County,2020/02/24,1.0,AL,1063.0,Greene County,1384.0,6849.0,28457.0,5767.0,5759.0,3579.0,3501.0,4613.0,3585.0,1334.0,285.0,34.0,0.0
175699,County,2020/02/25,1.0,AL,1063.0,Greene County,974.0,7259.0,33714.0,7161.0,6517.0,3449.0,4340.0,6603.0,4077.0,1105.0,424.0,38.0,0.0
178895,County,2020/02/26,1.0,AL,1063.0,Greene County,1107.0,7126.0,35908.0,5366.0,6819.0,4534.0,8136.0,6979.0,2406.0,1402.0,215.0,51.0,0.0
183062,County,2020/02/27,1.0,AL,1063.0,Greene County,973.0,7260.0,31726.0,5951.0,5535.0,4784.0,4717.0,6458.0,2857.0,1179.0,210.0,35.0,0.0
185278,County,2020/02/28,1.0,AL,1063.0,Greene County,969.0,7264.0,32934.0,6136.0,7764.0,3871.0,4562.0,5668.0,3638.0,1038.0,234.0,23.0,0.0
188477,County,2020/02/29,1.0,AL,1063.0,Greene County,1185.0,7048.0,34043.0,5119.0,6871.0,4081.0,7108.0,6214.0,3552.0,867.0,213.0,18.0,0.0
191667,County,2020/03/01,1.0,AL,1063.0,Greene County,1248.0,6985.0,28024.0,5577.0,5886.0,3913.0,3484.0,5087.0,3007.0,850.0,199.0,21.0,0.0
194841,County,2020/03/02,1.0,AL,1063.0,Greene County,1087.0,7146.0,33087.0,5755.0,5717.0,5870.0,5686.0,5481.0,2978.0,1354.0,220.0,26.0,0.0
198044,County,2020/03/03,1.0,AL,1063.0,Greene County,862.0,7371.0,32027.0,5461.0,6460.0,5174.0,4595.0,5861.0,3257.0,839.0,346.0,34.0,0.0
202782,County,2020/03/04,1.0,AL,1063.0,Greene County,1007.0,7226.0,34407.0,6119.0,5783.0,5091.0,4774.0,7003.0,3679.0,1525.0,396.0,37.0,0.0
206034,County,2020/03/05,1.0,AL,1063.0,Greene County,838.0,7395.0,39381.0,7703.0,7999.0,5625.0,6351.0,6299.0,4096.0,999.0,257.0,52.0,0.0
209102,County,2020/03/06,1.0,AL,1063.0,Greene County,943.0,7290.0,36600.0,7220.0,6249.0,4325.0,6954.0,6220.0,3867.0,1334.0,403.0,28.0,0.0
210815,County,2020/03/07,1.0,AL,1063.0,Greene County,1131.0,7102.0,36798.0,7114.0,7553.0,4765.0,5934.0,6840.0,3360.0,1057.0,162.0,13.0,0.0
215590,County,2020/03/08,1.0,AL,1063.0,Greene County,1296.0,6937.0,30545.0,5356.0,6640.0,4754.0,3945.0,6797.0,2307.0,531.0,187.0,28.0,0.0
218789,County,2020/03/09,1.0,AL,1063.0,Greene County,1146.0,7087.0,37902.0,7637.0,7088.0,4392.0,5471.0,8574.0,3313.0,1214.0,195.0,18.0,0.0
220417,County,2020/03/10,1.0,AL,1063.0,Greene County,1004.0,7229.0,39152.0,8819.0,6825.0,4486.0,7209.0,6183.0,3860.0,1387.0,345.0,38.0,0.0
225212,County,2020/03/11,1.0,AL,1063.0,Greene County,833.0,7400.0,41585.0,6812.0,8954.0,5317.0,6389.0,7857.0,4643.0,1247.0,315.0,51.0,0.0
226790,County,2020/03/12,1.0,AL,1063.0,Greene County,1011.0,7222.0,33816.0,4404.0,9454.0,3384.0,5811.0,5583.0,3814.0,1039.0,277.0,50.0,0.0
231573,County,2020/03/13,1.0,AL,1063.0,Greene County,974.0,7259.0,38715.0,7738.0,10474.0,5674.0,4909.0,5361.0,2817.0,1511.0,205.0,26.0,0.0
234628,County,2020/03/14,1.0,AL,1063.0,Greene County,1186.0,7047.0,34967.0,5558.0,8297.0,7449.0,4145.0,5945.0,2511.0,647.0,378.0,37.0,0.0
236387,County,2020/03/15,1.0,AL,1063.0,Greene County,1469.0,6764.0,27708.0,5281.0,7143.0,3825.0,3213.0,4938.0,2171.0,820.0,254.0,63.0,0.0
241146,County,2020/03/16,1.0,AL,1063.0,Greene County,1242.0,6991.0,33393.0,5751.0,7224.0,4694.0,5685.0,5546.0,2914.0,1323.0,237.0,19.0,0.0
242762,County,2020/03/17,1.0,AL,1063.0,Greene County,1300.0,6933.0,32705.0,5193.0,8012.0,4642.0,3487.0,6983.0,3008.0,1195.0,121.0,64.0,0.0
245967,County,2020/03/18,1.0,AL,1063.0,Greene County,1232.0,7001.0,33439.0,5928.0,8393.0,4551.0,3691.0,4838.0,4470.0,1271.0,260.0,37.0,0.0
250749,County,2020/03/19,1.0,AL,1063.0,Greene County,1442.0,6791.0,31432.0,5555.0,8613.0,3289.0,4430.0,5237.0,2821.0,1152.0,285.0,50.0,0.0
252358,County,2020/03/20,1.0,AL,1063.0,Greene County,1221.0,7012.0,34919.0,6302.0,9208.0,4049.0,4154.0,6461.0,3774.0,734.0,180.0,57.0,0.0
257066,County,2020/03/21,1.0,AL,1063.0,Greene County,1391.0,6842.0,30139.0,4789.0,7474.0,4243.0,4697.0,5415.0,2710.0,612.0,165.0,34.0,0.0
258736,County,2020/03/22,1.0,AL,1063.0,Greene County,1597.0,6636.0,20387.0,4775.0,5018.0,2595.0,2475.0,3329.0,1574.0,435.0,169.0,17.0,0.0
261942,County,2020/03/23,1.0,AL,1063.0,Greene County,1080.0,7153.0,29224.0,4787.0,5909.0,4245.0,4432.0,5700.0,3233.0,706.0,175.0,37.0,0.0
266694,County,2020/03/24,1.0,AL,1063.0,Greene County,1305.0,6928.0,26318.0,4771.0,6494.0,3077.0,3479.0,5271.0,2047.0,931.0,204.0,44.0,0.0
268328,County,2020/03/25,1.0,AL,1063.0,Greene County,1271.0,6962.0,29317.0,5500.0,6162.0,3112.0,4259.0,6387.0,2643.0,1013.0,213.0,28.0,0.0
273066,County,2020/03/26,1.0,AL,1063.0,Greene County,1335.0,6898.0,28182.0,6571.0,6752.0,3354.0,2817.0,5412.0,2363.0,634.0,235.0,44.0,0.0
274707,County,2020/03/27,1.0,AL,1063.0,Greene County,1373.0,6860.0,28154.0,6493.0,5726.0,2712.0,3970.0,5299.0,2911.0,815.0,203.0,25.0,0.0
279468,County,2020/03/28,1.0,AL,1063.0,Greene County,1416.0,6817.0,28016.0,8015.0,6200.0,2151.0,4907.0,4783.0,1232.0,514.0,177.0,37.0,0.0
281103,County,2020/03/29,1.0,AL,1063.0,Greene County,1797.0,6436.0,23825.0,6745.0,4951.0,3149.0,3440.0,4076.0,1216.0,56.0,163.0,29.0,0.0
285846,County,2020/03/30,1.0,AL,1063.0,Greene County,1459.0,6774.0,25443.0,3948.0,4973.0,2900.0,4067.0,5268.0,3097.0,997.0,146.0,47.0,0.0
289051,County,2020/03/31,1.0,AL,1063.0,Greene County,1552.0,6681.0,26609.0,6041.0,4905.0,3090.0,3209.0,5725.0,2568.0,760.0,261.0,50.0,0.0
290679,County,2020/04/01,1.0,AL,1063.0,Greene County,1420.0,6813.0,27952.0,6545.0,5725.0,3172.0,2965.0,5535.0,2694.0,1033.0,254.0,29.0,0.0
293879,County,2020/04/02,1.0,AL,1063.0,Greene County,1387.0,6846.0,25545.0,3945.0,5248.0,3651.0,3549.0,5868.0,1694.0,1301.0,245.0,44.0,0.0
297074,County,2020/04/03,1.0,AL,1063.0,Greene County,1261.0,6972.0,27711.0,3522.0,5858.0,3496.0,4001.0,6304.0,3272.0,1054.0,194.0,10.0,0.0
301818,County,2020/04/04,1.0,AL,1063.0,Greene County,1483.0,6750.0,23402.0,3068.0,7476.0,3584.0,2779.0,4449.0,1332.0,542.0,145.0,27.0,0.0
303448,County,2020/04/05,1.0,AL,1063.0,Greene County,1723.0,6510.0,26231.0,4881.0,8818.0,1882.0,4205.0,4346.0,1669.0,170.0,231.0,29.0,0.0
306657,County,2020/04/06,1.0,AL,1063.0,Greene County,1595.0,6638.0,28479.0,4409.0,6954.0,2954.0,4631.0,5635.0,2727.0,954.0,176.0,39.0,0.0
309849,County,2020/04/07,1.0,AL,1063.0,Greene County,1426.0,6807.0,23709.0,4492.0,5699.0,2786.0,4018.0,3774.0,1758.0,1002.0,127.0,53.0,0.0
313044,County,2020/04/08,1.0,AL,1063.0,Greene County,1291.0,6942.0,25581.0,4204.0,5641.0,2728.0,3643.0,5161.0,3034.0,933.0,195.0,42.0,0.0
316212,County,2020/04/09,1.0,AL,1063.0,Greene County,1313.0,6920.0,26359.0,6288.0,5538.0,1999.0,3267.0,5588.0,2425.0,987.0,228.0,39.0,0.0
319439,County,2020/04/10,1.0,AL,1063.0,Greene County,1317.0,6916.0,29571.0,5361.0,5628.0,2169.0,5866.0,5928.0,3685.0,721.0,198.0,15.0,0.0
324234,County,2020/04/11,1.0,AL,1063.0,Greene County,1451.0,6782.0,26065.0,4956.0,5951.0,2313.0,4146.0,5529.0,2364.0,666.0,111.0,29.0,0.0
325817,County,2020/04/12,1.0,AL,1063.0,Greene County,2039.0,6194.0,20186.0,2783.0,5494.0,3576.0,3425.0,3829.0,755.0,182.0,142.0,0.0,0.0
329035,County,2020/04/13,1.0,AL,1063.0,Greene County,1537.0,6696.0,29772.0,5775.0,6104.0,4895.0,4305.0,5146.0,2245.0,1167.0,123.0,12.0,0.0
333707,County,2020/04/14,1.0,AL,1063.0,Greene County,1592.0,6641.0,27372.0,6691.0,4275.0,1777.0,3202.0,7110.0,3449.0,694.0,162.0,12.0,0.0
335385,County,2020/04/15,1.0,AL,1063.0,Greene County,1274.0,6959.0,28375.0,6492.0,6124.0,6362.0,2294.0,4114.0,2316.0,597.0,59.0,17.0,0.0
338586,County,2020/04/16,1.0,AL,1063.0,Greene County,1600.0,6633.0,22549.0,4103.0,6949.0,2521.0,1963.0,4095.0,2378.0,329.0,192.0,19.0,0.0
341838,County,2020/04/17,1.0,AL,1063.0,Greene County,1223.0,7010.0,20798.0,1733.0,5926.0,3582.0,2870.0,3492.0,1739.0,1214.0,218.0,24.0,0.0
346513,County,2020/04/18,1.0,AL,1063.0,Greene County,1467.0,6766.0,21890.0,2941.0,5071.0,2498.0,4252.0,4806.0,1515.0,684.0,114.0,9.0,0.0
349695,County,2020/04/19,1.0,AL,1063.0,Greene County,1573.0,6660.0,17593.0,2365.0,5672.0,3191.0,1744.0,2680.0,1760.0,0.0,132.0,49.0,0.0
352942,County,2020/04/20,1.0,AL,1063.0,Greene County,1257.0,6976.0,22301.0,3560.0,7304.0,1619.0,2162.0,3531.0,3437.0,528.0,123.0,37.0,0.0
356129,County,2020/04/21,1.0,AL,1063.0,Greene County,1451.0,6782.0,25016.0,4094.0,5651.0,3628.0,3503.0,4687.0,2751.0,506.0,178.0,18.0,0.0
357759,County,2020/04/22,1.0,AL,1063.0,Greene County,1382.0,6851.0,27019.0,4851.0,5433.0,4932.0,3446.0,4590.0,2644.0,986.0,118.0,19.0,0.0
362490,County,2020/04/23,1.0,AL,1063.0,Greene County,1442.0,6791.0,24576.0,4496.0,4755.0,2874.0,3339.0,5841.0,2232.0,899.0,105.0,35.0,0.0
364118,County,2020/04/24,1.0,AL,1063.0,Greene County,1328.0,6905.0,27860.0,5874.0,5329.0,3658.0,4007.0,4839.0,3329.0,670.0,131.0,23.0,0.0
368861,County,2020/04/25,1.0,AL,1063.0,Greene County,1338.0,6895.0,20454.0,3350.0,4206.0,2626.0,3430.0,3866.0,2424.0,446.0,91.0,15.0,0.0
372055,County,2020/04/26,1.0,AL,1063.0,Greene County,1592.0,6641.0,24655.0,3940.0,6067.0,3045.0,4726.0,4101.0,2032.0,595.0,139.0,10.0,0.0
375333,County,2020/04/27,1.0,AL,1063.0,Greene County,1420.0,6813.0,27030.0,5368.0,5856.0,3198.0,3482.0,5994.0,1856.0,1141.0,111.0,24.0,0.0
378457,County,2020/04/28,1.0,AL,1063.0,Greene County,1191.0,7042.0,29131.0,6324.0,5673.0,3537.0,3896.0,4628.0,3361.0,1474.0,202.0,36.0,0.0
381708,County,2020/04/29,1.0,AL,1063.0,Greene County,1289.0,6944.0,26886.0,5193.0,6773.0,2434.0,3779.0,5621.0,2141.0,809.0,111.0,25.0,0.0
384846,County,2020/04/30,1.0,AL,1063.0,Greene County,1313.0,6920.0,27554.0,5695.0,6700.0,3309.0,3824.0,4507.0,2471.0,945.0,73.0,30.0,0.0
386505,County,2020/05/01,1.0,AL,1063.0,Greene County,1322.0,6911.0,30684.0,7092.0,5672.0,4071.0,3717.0,5714.0,3414.0,889.0,82.0,33.0,0.0
389687,County,2020/05/02,1.0,AL,1063.0,Greene County,1579.0,6654.0,33446.0,6706.0,7567.0,2960.0,4001.0,7517.0,3860.0,636.0,169.0,30.0,0.0
394461,County,2020/05/03,1.0,AL,1063.0,Greene County,1602.0,6631.0,29436.0,7787.0,6767.0,2470.0,5301.0,4889.0,1284.0,690.0,242.0,6.0,0.0
397654,County,2020/05/04,1.0,AL,1063.0,Greene County,1399.0,6834.0,32312.0,7844.0,7237.0,3348.0,4750.0,4939.0,2792.0,1090.0,303.0,9.0,0.0
400829,County,2020/05/05,1.0,AL,1063.0,Greene County,1215.0,7018.0,30020.0,5717.0,8228.0,4255.0,3044.0,5428.0,2434.0,760.0,125.0,29.0,0.0
402460,County,2020/05/06,1.0,AL,1063.0,Greene County,1287.0,6946.0,32475.0,7514.0,6763.0,3819.0,4935.0,5690.0,2840.0,770.0,127.0,17.0,0.0
405663,County,2020/05/07,1.0,AL,1063.0,Greene County,1254.0,6979.0,33408.0,7120.0,8530.0,5908.0,2722.0,5093.0,2939.0,785.0,283.0,28.0,0.0
410490,County,2020/05/08,1.0,AL,1063.0,Greene County,1351.0,6882.0,31599.0,6523.0,7117.0,4864.0,3160.0,4958.0,3987.0,822.0,150.0,18.0,0.0
413541,County,2020/05/09,1.0,AL,1063.0,Greene County,1411.0,6822.0,29656.0,6291.0,8255.0,2711.0,4751.0,4903.0,1973.0,636.0,108.0,28.0,0.0
416770,County,2020/05/10,1.0,AL,1063.0,Greene County,1439.0,6794.0,25312.0,3791.0,6660.0,4587.0,3960.0,4504.0,1343.0,309.0,126.0,32.0,0.0
420048,County,2020/05/11,1.0,AL,1063.0,Greene County,1274.0,6959.0,33865.0,8748.0,5997.0,4133.0,6100.0,4744.0,2903.0,963.0,240.0,37.0,0.0
421627,County,2020/05/12,1.0,AL,1063.0,Greene County,1158.0,7075.0,33083.0,9046.0,5945.0,4022.0,4515.0,5284.0,3281.0,678.0,253.0,59.0,0.0
426300,County,2020/05/13,1.0,AL,1063.0,Greene County,1202.0,7031.0,29363.0,6782.0,6240.0,3809.0,4496.0,3403.0,3219.0,1090.0,280.0,44.0,0.0
428027,County,2020/05/14,1.0,AL,1063.0,Greene County,1156.0,7077.0,29104.0,7195.0,5757.0,3224.0,4036.0,4653.0,2811.0,997.0,376.0,55.0,0.0
432768,County,2020/05/15,1.0,AL,1063.0,Greene County,1015.0,7218.0,28023.0,7131.0,5646.0,3118.0,3569.0,4163.0,3358.0,721.0,269.0,48.0,0.0
434397,County,2020/05/16,1.0,AL,1063.0,Greene County,1198.0,7035.0,28084.0,6881.0,6340.0,2735.0,4641.0,3683.0,2673.0,861.0,252.0,18.0,0.0
437598,County,2020/05/17,1.0,AL,1063.0,Greene County,1358.0,6875.0,31363.0,6568.0,10322.0,3073.0,4514.0,4573.0,1740.0,320.0,211.0,42.0,0.0
440843,County,2020/05/18,1.0,AL,1063.0,Greene County,957.0,7276.0,34155.0,5935.0,8277.0,5504.0,4677.0,6162.0,2428.0,978.0,171.0,23.0,0.0
443997,County,2020/05/19,1.0,AL,1063.0,Greene County,756.0,7477.0,31486.0,4971.0,8378.0,4394.0,5500.0,4469.0,2665.0,797.0,269.0,43.0,0.0
447164,County,2020/05/20,1.0,AL,1063.0,Greene County,883.0,7350.0,31568.0,4092.0,8364.0,4449.0,5655.0,5005.0,2284.0,1404.0,274.0,41.0,0.0
451598,County,2020/05/21,1.0,AL,1063.0,Greene County,956.0,7277.0,33068.0,6639.0,10157.0,3733.0,4984.0,3694.0,2803.0,695.0,345.0,18.0,0.0
453571,County,2020/05/22,1.0,AL,1063.0,Greene County,947.0,7286.0,32323.0,5369.0,8534.0,4276.0,5436.0,4557.0,2993.0,900.0,225.0,33.0,0.0
456767,County,2020/05/23,1.0,AL,1063.0,Greene County,1337.0,6896.0,32747.0,8917.0,9176.0,2997.0,4931.0,4119.0,1818.0,586.0,196.0,7.0,0.0
461511,County,2020/05/24,1.0,AL,1063.0,Greene County,1417.0,6816.0,25696.0,5255.0,6133.0,3231.0,3390.0,4915.0,1634.0,962.0,158.0,18.0,0.0
463137,County,2020/05/25,1.0,AL,1063.0,Greene County,1429.0,6804.0,26614.0,5423.0,6031.0,2799.0,3789.0,4833.0,2708.0,857.0,138.0,36.0,0.0
467905,County,2020/05/26,1.0,AL,1063.0,Greene County,1200.0,7033.0,30534.0,6437.0,6011.0,3023.0,4575.0,6256.0,2812.0,1129.0,261.0,30.0,0.0
469547,County,2020/05/27,1.0,AL,1063.0,Greene County,1083.0,7150.0,27306.0,5520.0,4538.0,3079.0,3947.0,5356.0,3325.0,1203.0,288.0,50.0,0.0
472744,County,2020/05/28,1.0,AL,1063.0,Greene County,1043.0,7190.0,27828.0,5182.0,6031.0,3208.0,4303.0,5071.0,2572.0,1119.0,301.0,41.0,0.0
479043,County,2020/05/29,1.0,AL,1063.0,Greene County,1292.0,6941.0,29627.0,5799.0,4867.0,4010.0,4087.0,6715.0,2988.0,990.0,145.0,26.0,0.0
480650,County,2020/05/30,1.0,AL,1063.0,Greene County,1312.0,6921.0,30206.0,4759.0,7238.0,3008.0,5422.0,5953.0,2815.0,806.0,167.0,38.0,0.0
483766,County,2020/05/31,1.0,AL,1063.0,Greene County,1280.0,6953.0,23695.0,4257.0,5814.0,2778.0,3759.0,4160.0,2004.0,675.0,223.0,25.0,0.0
487143,County,2020/06/01,1.0,AL,1063.0,Greene County,1173.0,7060.0,24668.0,5016.0,4025.0,3322.0,4744.0,4404.0,2090.0,817.0,225.0,25.0,0.0
488711,County,2020/06/02,1.0,AL,1063.0,Greene County,1264.0,6969.0,27658.0,6842.0,5657.0,2674.0,4732.0,3924.0,2640.0,826.0,327.0,36.0,0.0
491881,County,2020/06/03,1.0,AL,1063.0,Greene County,1124.0,7109.0,25096.0,4456.0,4622.0,2580.0,3958.0,5196.0,2730.0,1137.0,326.0,91.0,0.0
496654,County,2020/06/04,1.0,AL,1063.0,Greene County,1066.0,7167.0,47357.0,24295.0,7913.0,2813.0,3130.0,4972.0,3002.0,855.0,315.0,62.0,0.0
498295,County,2020/06/05,1.0,AL,1063.0,Greene County,983.0,7250.0,27365.0,6299.0,4494.0,2796.0,3789.0,5782.0,2661.0,1200.0,288.0,56.0,0.0
503020,County,2020/06/06,1.0,AL,1063.0,Greene County,1289.0,6944.0,39418.0,15117.0,7668.0,3843.0,4589.0,5119.0,2286.0,606.0,160.0,30.0,0.0
504684,County,2020/06/07,1.0,AL,1063.0,Greene County,1464.0,6769.0,27347.0,6967.0,5883.0,2845.0,4478.0,4223.0,2034.0,715.0,174.0,28.0,0.0
507856,County,2020/06/08,1.0,AL,1063.0,Greene County,1181.0,7052.0,24612.0,5909.0,5045.0,2595.0,4247.0,3654.0,2189.0,668.0,253.0,52.0,0.0
511058,County,2020/06/09,1.0,AL,1063.0,Greene County,1198.0,7035.0,23479.0,4516.0,5254.0,3106.0,2981.0,3785.0,2787.0,784.0,222.0,44.0,0.0
515840,County,2020/06/10,1.0,AL,1063.0,Greene County,1083.0,7150.0,24853.0,5261.0,4723.0,2648.0,3701.0,4076.0,3026.0,1035.0,316.0,67.0,0.0
518997,County,2020/06/11,1.0,AL,1063.0,Greene County,1158.0,7075.0,27136.0,5669.0,4196.0,3286.0,3726.0,6204.0,2972.0,848.0,170.0,65.0,0.0
522219,County,2020/06/12,1.0,AL,1063.0,Greene County,1048.0,7185.0,28566.0,6385.0,6756.0,2868.0,3702.0,4660.0,3015.0,921.0,218.0,41.0,0.0
525407,County,2020/06/13,1.0,AL,1063.0,Greene County,1255.0,6978.0,26061.0,6052.0,6561.0,2836.0,3204.0,4197.0,2249.0,654.0,266.0,42.0,0.0
528610,County,2020/06/14,1.0,AL,1063.0,Greene County,1360.0,6873.0,24455.0,5305.0,6377.0,2320.0,4006.0,3633.0,1699.0,938.0,155.0,22.0,0.0
531800,County,2020/06/15,1.0,AL,1063.0,Greene County,1235.0,6998.0,32400.0,7392.0,6036.0,2175.0,5334.0,6005.0,3641.0,1495.0,291.0,31.0,0.0
533429,County,2020/06/16,1.0,AL,1063.0,Greene County,1237.0,6996.0,26816.0,6128.0,4681.0,3547.0,3915.0,4235.0,2635.0,1301.0,322.0,52.0,0.0
538139,County,2020/06/17,1.0,AL,1063.0,Greene County,1097.0,7136.0,29125.0,6326.0,6271.0,4100.0,3410.0,4065.0,3204.0,1331.0,373.0,45.0,0.0
541335,County,2020/06/18,1.0,AL,1063.0,Greene County,1078.0,7155.0,28393.0,5171.0,5768.0,2470.0,5338.0,5403.0,2563.0,1245.0,386.0,49.0,0.0
544536,County,2020/06/19,1.0,AL,1063.0,Greene County,1149.0,7084.0,23953.0,3412.0,4701.0,3496.0,3434.0,4036.0,3140.0,1366.0,322.0,46.0,0.0
547771,County,2020/06/20,1.0,AL,1063.0,Greene County,1412.0,6821.0,28377.0,5666.0,5617.0,2780.0,4958.0,4947.0,3372.0,713.0,268.0,56.0,0.0
549370,County,2020/06/21,1.0,AL,1063.0,Greene County,1380.0,6853.0,21443.0,5094.0,5552.0,2042.0,3304.0,3325.0,1525.0,399.0,170.0,32.0,0.0
554151,County,2020/06/22,1.0,AL,1063.0,Greene County,1279.0,6954.0,21937.0,4344.0,4250.0,2826.0,2516.0,4157.0,2972.0,638.0,194.0,40.0,0.0
555779,County,2020/06/23,1.0,AL,1063.0,Greene County,1268.0,6965.0,24178.0,5085.0,4411.0,4061.0,2582.0,4515.0,2424.0,806.0,228.0,66.0,0.0
560546,County,2020/06/24,1.0,AL,1063.0,Greene County,1325.0,6908.0,21374.0,4235.0,4203.0,3135.0,2253.0,3987.0,2646.0,639.0,234.0,42.0,0.0
562175,County,2020/06/25,1.0,AL,1063.0,Greene County,1214.0,7019.0,21375.0,3835.0,4608.0,2398.0,3135.0,4717.0,2020.0,417.0,198.0,47.0,0.0
565381,County,2020/06/26,1.0,AL,1063.0,Greene County,1294.0,6939.0,22266.0,4672.0,4589.0,2656.0,3020.0,4255.0,2047.0,786.0,197.0,44.0,0.0
568550,County,2020/06/27,1.0,AL,1063.0,Greene County,1168.0,7065.0,21727.0,3915.0,4940.0,2314.0,3813.0,4023.0,1857.0,671.0,153.0,41.0,0.0
573318,County,2020/06/28,1.0,AL,1063.0,Greene County,1156.0,7077.0,17962.0,3372.0,4253.0,2095.0,2518.0,2741.0,1991.0,682.0,263.0,47.0,0.0
574923,County,2020/06/29,1.0,AL,1063.0,Greene County,1243.0,6990.0,23763.0,3709.0,6392.0,3905.0,2684.0,3419.0,2508.0,928.0,184.0,34.0,0.0
578135,County,2020/06/30,1.0,AL,1063.0,Greene County,1214.0,7019.0,26322.0,5141.0,6506.0,2784.0,3542.0,4807.0,2510.0,794.0,172.0,66.0,0.0
581340,County,2020/07/01,1.0,AL,1063.0,Greene County,1126.0,7107.0,24091.0,4263.0,5931.0,2191.0,3072.0,4272.0,3411.0,685.0,234.0,32.0,0.0
584532,County,2020/07/02,1.0,AL,1063.0,Greene County,1265.0,6968.0,22688.0,4070.0,4891.0,2545.0,3328.0,5007.0,2144.0,443.0,210.0,50.0,0.0
587708,County,2020/07/03,1.0,AL,1063.0,Greene County,1379.0,6854.0,22141.0,4646.0,4563.0,2641.0,3003.0,4231.0,2035.0,782.0,196.0,44.0,0.0
590922,County,2020/07/04,1.0,AL,1063.0,Greene County,1474.0,6759.0,18941.0,3974.0,3904.0,2259.0,2569.0,3620.0,1741.0,669.0,168.0,37.0,0.0
594108,County,2020/07/05,1.0,AL,1063.0,Greene County,1486.0,6747.0,23961.0,5003.0,5518.0,3317.0,4128.0,2940.0,2195.0,629.0,207.0,24.0,0.0
598827,County,2020/07/06,1.0,AL,1063.0,Greene County,1277.0,6956.0,24558.0,4988.0,5876.0,1974.0,4119.0,4369.0,2246.0,804.0,132.0,50.0,0.0
602447,County,2020/07/07,1.0,AL,1063.0,Greene County,1048.0,7185.0,26705.0,4753.0,6551.0,2584.0,4584.0,4773.0,1836.0,1298.0,278.0,48.0,0.0
605163,County,2020/07/08,1.0,AL,1063.0,Greene County,1128.0,7105.0,26125.0,4176.0,5789.0,3405.0,4597.0,4957.0,2111.0,781.0,279.0,30.0,0.0
606890,County,2020/07/09,1.0,AL,1063.0,Greene County,1051.0,7182.0,25024.0,4226.0,5919.0,3521.0,3526.0,4304.0,2220.0,944.0,315.0,49.0,0.0
611672,County,2020/07/10,1.0,AL,1063.0,Greene County,1117.0,7116.0,28969.0,5876.0,5851.0,2899.0,4966.0,5754.0,2453.0,894.0,235.0,41.0,0.0
613250,County,2020/07/11,1.0,AL,1063.0,Greene County,1077.0,7156.0,27334.0,5470.0,7295.0,3758.0,4727.0,3767.0,1591.0,512.0,170.0,44.0,0.0
618022,County,2020/07/12,1.0,AL,1063.0,Greene County,1713.0,6520.0,18834.0,3174.0,3652.0,3163.0,3394.0,2869.0,1645.0,706.0,181.0,50.0,0.0
619661,County,2020/07/13,1.0,AL,1063.0,Greene County,1380.0,6853.0,22986.0,4383.0,5729.0,2985.0,3382.0,3808.0,2001.0,522.0,152.0,24.0,0.0
622861,County,2020/07/14,1.0,AL,1063.0,Greene County,1180.0,7053.0,22185.0,4247.0,5360.0,1543.0,3018.0,4921.0,2006.0,890.0,168.0,32.0,0.0
627506,County,2020/07/15,1.0,AL,1063.0,Greene County,1202.0,7031.0,21337.0,3402.0,4930.0,2566.0,4140.0,3181.0,2032.0,780.0,277.0,29.0,0.0
630864,County,2020/07/16,1.0,AL,1063.0,Greene County,1318.0,6915.0,23626.0,4362.0,4377.0,1966.0,4490.0,5146.0,2529.0,553.0,171.0,32.0,0.0
632425,County,2020/07/17,1.0,AL,1063.0,Greene County,1236.0,6997.0,26768.0,3985.0,6651.0,2685.0,4825.0,5045.0,2779.0,556.0,207.0,35.0,0.0
637212,County,2020/07/18,1.0,AL,1063.0,Greene County,1539.0,6694.0,26227.0,4780.0,5775.0,2693.0,5793.0,4376.0,1997.0,663.0,103.0,47.0,0.0
640365,County,2020/07/19,1.0,AL,1063.0,Greene County,1399.0,6834.0,20894.0,3367.0,4885.0,2282.0,3253.0,4324.0,1970.0,652.0,140.0,21.0,0.0
643573,County,2020/07/20,1.0,AL,1063.0,Greene County,1240.0,6993.0,27676.0,4953.0,6290.0,2862.0,4483.0,5309.0,2804.0,717.0,226.0,32.0,0.0
645201,County,2020/07/21,1.0,AL,1063.0,Greene County,1278.0,6955.0,22928.0,4019.0,5361.0,2131.0,3975.0,4639.0,1828.0,661.0,277.0,37.0,0.0
649930,County,2020/07/22,1.0,AL,1063.0,Greene County,1258.0,6975.0,24906.0,4972.0,5245.0,2372.0,3772.0,5208.0,2497.0,600.0,207.0,33.0,0.0
653079,County,2020/07/23,1.0,AL,1063.0,Greene County,1343.0,6890.0,23416.0,4845.0,5034.0,2380.0,3203.0,4409.0,2482.0,727.0,306.0,30.0,0.0
656191,County,2020/07/24,1.0,AL,1063.0,Greene County,1130.0,7103.0,26139.0,4137.0,5671.0,2977.0,4505.0,4481.0,3250.0,879.0,196.0,43.0,0.0
659615,County,2020/07/25,1.0,AL,1063.0,Greene County,1347.0,6886.0,24881.0,4556.0,5485.0,3206.0,4094.0,4997.0,1702.0,564.0,220.0,57.0,0.0
664265,County,2020/07/26,1.0,AL,1063.0,Greene County,1356.0,6877.0,21787.0,3377.0,4802.0,2620.0,3690.0,4286.0,2037.0,576.0,346.0,53.0,0.0
664435,County,2020/07/27,1.0,AL,1063.0,Greene County,1155.0,7078.0,27423.0,4448.0,5240.0,4967.0,3801.0,4727.0,2804.0,1105.0,299.0,32.0,0.0
667548,County,2020/07/28,1.0,AL,1063.0,Greene County,1113.0,7120.0,25776.0,4478.0,5616.0,3200.0,3873.0,4773.0,2346.0,1198.0,267.0,25.0,0.0
670755,County,2020/07/29,1.0,AL,1063.0,Greene County,1153.0,7080.0,25512.0,3862.0,6361.0,3479.0,3962.0,3465.0,3103.0,906.0,311.0,63.0,0.0
675515,County,2020/07/30,1.0,AL,1063.0,Greene County,1027.0,7206.0,24608.0,3711.0,5166.0,3303.0,3770.0,4373.0,2925.0,878.0,430.0,52.0,0.0
677165,County,2020/07/31,1.0,AL,1063.0,Greene County,1087.0,7146.0,28123.0,5183.0,5942.0,3881.0,3957.0,4588.0,2985.0,1191.0,364.0,32.0,0.0
680322,County,2020/08/01,1.0,AL,1063.0,Greene County,1335.0,6898.0,28428.0,4755.0,6051.0,2856.0,6152.0,5595.0,2047.0,643.0,267.0,62.0,0.0
685103,County,2020/08/02,1.0,AL,1063.0,Greene County,1361.0,6872.0,27547.0,4671.0,5155.0,4825.0,4748.0,4821.0,2002.0,1025.0,251.0,49.0,0.0
688306,County,2020/08/03,1.0,AL,1063.0,Greene County,1296.0,6937.0,26421.0,5157.0,5366.0,2171.0,4582.0,4835.0,3200.0,818.0,231.0,61.0,0.0
689935,County,2020/08/04,1.0,AL,1063.0,Greene County,1233.0,7000.0,25728.0,4262.0,4563.0,3467.0,4541.0,5029.0,2750.0,730.0,343.0,43.0,0.0
694694,County,2020/08/05,1.0,AL,1063.0,Greene County,1201.0,7032.0,24976.0,5196.0,4562.0,3235.0,4050.0,4098.0,2454.0,975.0,354.0,52.0,0.0
696303,County,2020/08/06,1.0,AL,1063.0,Greene County,1138.0,7095.0,24050.0,4516.0,4745.0,2833.0,4385.0,3866.0,2539.0,831.0,302.0,33.0,0.0
701083,County,2020/08/07,1.0,AL,1063.0,Greene County,1161.0,7072.0,24848.0,3816.0,4653.0,3129.0,3760.0,5565.0,2700.0,924.0,254.0,47.0,0.0
704277,County,2020/08/08,1.0,AL,1063.0,Greene County,1399.0,6834.0,21660.0,3528.0,3761.0,3017.0,4532.0,3911.0,1975.0,621.0,272.0,43.0,0.0
705905,County,2020/08/09,1.0,AL,1063.0,Greene County,1544.0,6689.0,20833.0,2911.0,3496.0,2544.0,4480.0,4254.0,2342.0,514.0,250.0,42.0,0.0
709075,County,2020/08/10,1.0,AL,1063.0,Greene County,1258.0,6975.0,21781.0,3108.0,3443.0,1785.0,3731.0,5435.0,3107.0,849.0,239.0,84.0,0.0
713905,County,2020/08/11,1.0,AL,1063.0,Greene County,1456.0,6777.0,22027.0,4264.0,3848.0,2869.0,2873.0,4416.0,2681.0,697.0,318.0,61.0,0.0
716955,County,2020/08/12,1.0,AL,1063.0,Greene County,1195.0,7038.0,21976.0,3562.0,3013.0,2204.0,3478.0,5089.0,3565.0,705.0,290.0,70.0,0.0
718681,County,2020/08/13,1.0,AL,1063.0,Greene County,1124.0,7109.0,22012.0,4369.0,3800.0,1878.0,2985.0,4738.0,3105.0,709.0,384.0,44.0,0.0
723424,County,2020/08/14,1.0,AL,1063.0,Greene County,1017.0,7216.0,25881.0,4568.0,4028.0,2778.0,5166.0,4225.0,3731.0,1086.0,257.0,42.0,0.0
725055,County,2020/08/15,1.0,AL,1063.0,Greene County,1310.0,6923.0,23941.0,4662.0,4467.0,3010.0,4363.0,3779.0,2451.0,991.0,189.0,29.0,0.0
729828,County,2020/08/16,1.0,AL,1063.0,Greene County,1353.0,6880.0,31227.0,11758.0,6024.0,2783.0,2871.0,4479.0,2302.0,659.0,280.0,71.0,0.0
731457,County,2020/08/17,1.0,AL,1063.0,Greene County,1138.0,7095.0,25222.0,5291.0,3475.0,3375.0,3601.0,5309.0,2760.0,1060.0,302.0,49.0,0.0
734623,County,2020/08/18,1.0,AL,1063.0,Greene County,1208.0,7025.0,25698.0,4450.0,3491.0,3227.0,3310.0,7208.0,2721.0,891.0,323.0,77.0,0.0
737828,County,2020/08/19,1.0,AL,1063.0,Greene County,1218.0,7015.0,26156.0,4744.0,4765.0,2579.0,3321.0,6579.0,2861.0,922.0,345.0,40.0,0.0
742610,County,2020/08/20,1.0,AL,1063.0,Greene County,1157.0,7076.0,31447.0,10780.0,4784.0,3142.0,3685.0,5605.0,2325.0,838.0,228.0,60.0,0.0
745816,County,2020/08/21,1.0,AL,1063.0,Greene County,1120.0,7113.0,22689.0,4314.0,3793.0,3133.0,3367.0,3940.0,2920.0,896.0,279.0,47.0,0.0
749020,County,2020/08/22,1.0,AL,1063.0,Greene County,1275.0,6958.0,24048.0,4259.0,4694.0,2549.0,4754.0,4736.0,2186.0,619.0,200.0,51.0,0.0
752190,County,2020/08/23,1.0,AL,1063.0,Greene County,1323.0,6910.0,17647.0,2016.0,3411.0,2148.0,2790.0,4654.0,1786.0,467.0,346.0,29.0,0.0
753811,County,2020/08/24,1.0,AL,1063.0,Greene County,1362.0,6871.0,22394.0,4172.0,3859.0,1572.0,2819.0,5352.0,3113.0,1197.0,265.0,45.0,0.0
758571,County,2020/08/25,1.0,AL,1063.0,Greene County,1240.0,6993.0,21962.0,4090.0,4598.0,1991.0,3276.0,3449.0,2934.0,1278.0,292.0,54.0,0.0
760204,County,2020/08/26,1.0,AL,1063.0,Greene County,1240.0,6993.0,19605.0,2349.0,2834.0,2276.0,3490.0,4543.0,2890.0,889.0,276.0,58.0,0.0
764927,County,2020/08/27,1.0,AL,1063.0,Greene County,1275.0,6958.0,24052.0,3584.0,3444.0,2637.0,3476.0,6304.0,3200.0,1112.0,246.0,49.0,0.0
766567,County,2020/08/28,1.0,AL,1063.0,Greene County,1254.0,6979.0,26498.0,3676.0,4401.0,3173.0,4873.0,6512.0,2524.0,1020.0,266.0,53.0,0.0
769771,County,2020/08/29,1.0,AL,1063.0,Greene County,1275.0,6958.0,23963.0,3976.0,3713.0,1725.0,5103.0,6336.0,2235.0,643.0,197.0,35.0,0.0
774568,County,2020/08/30,1.0,AL,1063.0,Greene County,1557.0,6676.0,18029.0,2719.0,2966.0,2104.0,3160.0,3981.0,2021.0,720.0,310.0,48.0,0.0
777707,County,2020/08/31,1.0,AL,1063.0,Greene County,1196.0,7037.0,19443.0,2482.0,3523.0,1633.0,2844.0,4973.0,2497.0,1109.0,308.0,74.0,0.0
780903,County,2020/09/01,1.0,AL,1063.0,Greene County,1269.0,6964.0,19586.0,2948.0,2766.0,2707.0,2294.0,4434.0,3116.0,923.0,318.0,80.0,0.0
782561,County,2020/09/02,1.0,AL,1063.0,Greene County,1271.0,6962.0,22051.0,3236.0,3351.0,2400.0,3296.0,4697.0,3410.0,1233.0,360.0,68.0,0.0
787252,County,2020/09/03,1.0,AL,1063.0,Greene County,1121.0,7112.0,20969.0,2487.0,3079.0,1950.0,3451.0,5254.0,3076.0,1245.0,356.0,71.0,0.0
790493,County,2020/09/04,1.0,AL,1063.0,Greene County,1245.0,6988.0,23759.0,2544.0,4064.0,2600.0,4249.0,6477.0,2573.0,828.0,368.0,56.0,0.0
793585,County,2020/09/05,1.0,AL,1063.0,Greene County,1418.0,6815.0,20724.0,3653.0,3367.0,1658.0,4152.0,4595.0,2314.0,681.0,247.0,57.0,0.0
795337,County,2020/09/06,1.0,AL,1063.0,Greene County,1641.0,6592.0,19569.0,2362.0,3637.0,1647.0,4122.0,4989.0,2060.0,442.0,282.0,28.0,0.0
800102,County,2020/09/07,1.0,AL,1063.0,Greene County,1529.0,6704.0,19271.0,2777.0,3586.0,1557.0,4579.0,3820.0,1948.0,761.0,200.0,43.0,0.0
801704,County,2020/09/08,1.0,AL,1063.0,Greene County,1375.0,6858.0,24478.0,3229.0,4089.0,2594.0,3771.0,6440.0,3198.0,785.0,315.0,57.0,0.0
806484,County,2020/09/09,1.0,AL,1063.0,Greene County,1328.0,6905.0,24853.0,3930.0,5974.0,2167.0,3617.0,4694.0,3116.0,910.0,349.0,96.0,0.0
808112,County,2020/09/10,1.0,AL,1063.0,Greene County,1240.0,6993.0,21908.0,2765.0,3466.0,2655.0,4459.0,4629.0,2795.0,763.0,304.0,72.0,0.0
812873,County,2020/09/11,1.0,AL,1063.0,Greene County,1143.0,7090.0,23421.0,3832.0,4299.0,2516.0,3740.0,4752.0,3005.0,954.0,261.0,62.0,0.0
816020,County,2020/09/12,1.0,AL,1063.0,Greene County,1227.0,7006.0,20270.0,2789.0,4213.0,2036.0,3570.0,4116.0,2625.0,630.0,233.0,58.0,0.0
817676,County,2020/09/13,1.0,AL,1063.0,Greene County,1454.0,6779.0,20788.0,2641.0,4010.0,1525.0,5723.0,3617.0,2080.0,943.0,221.0,28.0,0.0
820879,County,2020/09/14,1.0,AL,1063.0,Greene County,1223.0,7010.0,24812.0,3559.0,4036.0,2645.0,4519.0,4730.0,3822.0,1064.0,365.0,72.0,0.0
825649,County,2020/09/15,1.0,AL,1063.0,Greene County,1242.0,6991.0,22857.0,3821.0,4493.0,1919.0,3029.0,4202.0,3715.0,1153.0,480.0,45.0,0.0
827277,County,2020/09/16,1.0,AL,1063.0,Greene County,1269.0,6964.0,24995.0,3971.0,4448.0,2662.0,3481.0,5008.0,3947.0,954.0,456.0,68.0,0.0
832019,County,2020/09/17,1.0,AL,1063.0,Greene County,1270.0,6963.0,23556.0,2927.0,3648.0,2957.0,3720.0,5076.0,3495.0,1333.0,346.0,54.0,0.0
833648,County,2020/09/18,1.0,AL,1063.0,Greene County,1233.0,7000.0,27086.0,3258.0,5030.0,2755.0,4414.0,6300.0,3867.0,1046.0,351.0,65.0,0.0
838424,County,2020/09/19,1.0,AL,1063.0,Greene County,1301.0,6932.0,25676.0,3858.0,5354.0,3346.0,4296.0,4688.0,3071.0,738.0,255.0,70.0,0.0
840052,County,2020/09/20,1.0,AL,1063.0,Greene County,1473.0,6760.0,21486.0,3450.0,3961.0,2138.0,3976.0,4407.0,2640.0,656.0,227.0,31.0,0.0
844841,County,2020/09/21,1.0,AL,1063.0,Greene County,1579.0,6654.0,19094.0,2525.0,3165.0,1668.0,3023.0,4646.0,2746.0,993.0,290.0,38.0,0.0
846418,County,2020/09/22,1.0,AL,1063.0,Greene County,1181.0,7052.0,20565.0,2813.0,3812.0,2083.0,4243.0,4223.0,2359.0,706.0,286.0,40.0,0.0
851198,County,2020/09/23,1.0,AL,1063.0,Greene County,1145.0,7088.0,23973.0,3095.0,3681.0,3332.0,3814.0,5652.0,3052.0,957.0,342.0,48.0,0.0
852825,County,2020/09/24,1.0,AL,1063.0,Greene County,1276.0,6957.0,20312.0,2525.0,3872.0,1490.0,4342.0,4380.0,2753.0,556.0,348.0,46.0,0.0
857589,County,2020/09/25,1.0,AL,1063.0,Greene County,1166.0,7067.0,22076.0,2852.0,2483.0,3302.0,5332.0,4565.0,2535.0,711.0,262.0,34.0,0.0
859217,County,2020/09/26,1.0,AL,1063.0,Greene County,1302.0,6931.0,23099.0,3101.0,4901.0,2349.0,4630.0,4142.0,2896.0,770.0,277.0,33.0,0.0
862388,County,2020/09/27,1.0,AL,1063.0,Greene County,1430.0,6803.0,20372.0,3432.0,4015.0,2842.0,3450.0,4441.0,1463.0,572.0,128.0,29.0,0.0
865592,County,2020/09/28,1.0,AL,1063.0,Greene County,1316.0,6917.0,22263.0,3592.0,3321.0,3391.0,4818.0,3702.0,2440.0,740.0,216.0,43.0,0.0
870364,County,2020/09/29,1.0,AL,1063.0,Greene County,1200.0,7033.0,24519.0,3678.0,4568.0,3129.0,4978.0,4251.0,2792.0,828.0,266.0,29.0,0.0
871993,County,2020/09/30,1.0,AL,1063.0,Greene County,1347.0,6886.0,23213.0,2964.0,4304.0,3083.0,4189.0,4830.0,2938.0,688.0,180.0,37.0,0.0
875157,County,2020/10/01,1.0,AL,1063.0,Greene County,1241.0,6992.0,24687.0,4864.0,4673.0,3261.0,3674.0,4548.0,2720.0,637.0,289.0,21.0,0.0
878360,County,2020/10/02,1.0,AL,1063.0,Greene County,1194.0,7039.0,23292.0,4338.0,3920.0,2267.0,4464.0,4071.0,2933.0,1004.0,275.0,20.0,0.0
883142,County,2020/10/03,1.0,AL,1063.0,Greene County,1399.0,6834.0,26047.0,4131.0,3662.0,2291.0,5833.0,6394.0,2838.0,746.0,125.0,27.0,0.0
885143,County,2020/10/04,1.0,AL,1063.0,Greene County,1475.0,6758.0,21849.0,3447.0,3740.0,3194.0,3931.0,4321.0,2011.0,874.0,294.0,37.0,0.0
887964,County,2020/10/05,1.0,AL,1063.0,Greene County,1343.0,6890.0,25737.0,2415.0,5665.0,3263.0,4393.0,5061.0,3135.0,1485.0,295.0,25.0,0.0
891144,County,2020/10/06,1.0,AL,1063.0,Greene County,1382.0,6851.0,24287.0,2959.0,6060.0,3274.0,3423.0,4248.0,2961.0,1176.0,146.0,40.0,0.0
894352,County,2020/10/07,1.0,AL,1063.0,Greene County,1374.0,6859.0,23604.0,2696.0,4675.0,2875.0,3601.0,5065.0,3596.0,767.0,298.0,31.0,0.0
900615,County,2020/10/08,1.0,AL,1063.0,Greene County,1227.0,7006.0,21757.0,1965.0,4609.0,3645.0,3078.0,4567.0,2399.0,1219.0,248.0,27.0,0.0
900740,County,2020/10/09,1.0,AL,1063.0,Greene County,1335.0,6898.0,25469.0,3237.0,5966.0,2670.0,4190.0,4388.0,3779.0,1018.0,200.0,21.0,0.0
903923,County,2020/10/10,1.0,AL,1063.0,Greene County,1511.0,6722.0,23970.0,3428.0,3423.0,3132.0,4338.0,6064.0,2695.0,637.0,227.0,26.0,0.0
909530,County,2020/10/11,1.0,AL,1063.0,Greene County,1286.0,6947.0,19396.0,3297.0,3973.0,2728.0,2790.0,3493.0,2106.0,665.0,315.0,29.0,0.0
913451,County,2020/10/12,1.0,AL,1063.0,Greene County,1225.0,7008.0,21826.0,2825.0,3759.0,2963.0,3399.0,4846.0,2566.0,1086.0,347.0,35.0,0.0
914272,County,2020/10/13,1.0,AL,1063.0,Greene County,1128.0,7105.0,22036.0,3841.0,3489.0,2092.0,3109.0,4925.0,2907.0,1307.0,314.0,52.0,0.0
919839,County,2020/10/14,1.0,AL,1063.0,Greene County,1080.0,7153.0,19849.0,2036.0,3470.0,2825.0,3240.0,3897.0,2892.0,1094.0,351.0,44.0,0.0
922776,County,2020/10/15,1.0,AL,1063.0,Greene County,1115.0,7118.0,22976.0,2556.0,4516.0,2676.0,3430.0,5186.0,3249.0,1032.0,289.0,42.0,0.0
926227,County,2020/10/16,1.0,AL,1063.0,Greene County,1009.0,7224.0,23136.0,3176.0,4245.0,2355.0,4365.0,4268.0,3455.0,907.0,332.0,33.0,0.0
926314,County,2020/10/17,1.0,AL,1063.0,Greene County,1240.0,6993.0,24028.0,4019.0,4215.0,1774.0,6565.0,4125.0,2291.0,817.0,196.0,26.0,0.0
932439,County,2020/10/18,1.0,AL,1063.0,Greene County,1322.0,6911.0,19422.0,2867.0,2917.0,1859.0,4052.0,5083.0,1836.0,591.0,195.0,22.0,0.0
935808,County,2020/10/19,1.0,AL,1063.0,Greene County,1338.0,6895.0,22119.0,2959.0,4688.0,2872.0,2844.0,4947.0,2864.0,723.0,192.0,30.0,0.0
936186,County,2020/10/20,1.0,AL,1063.0,Greene County,1133.0,7100.0,22630.0,2596.0,4847.0,3210.0,4125.0,3769.0,3011.0,760.0,281.0,31.0,0.0
942197,County,2020/10/21,1.0,AL,1063.0,Greene County,1266.0,6967.0,19858.0,2105.0,2985.0,2438.0,2994.0,4673.0,3268.0,1163.0,204.0,28.0,0.0
944025,County,2020/10/22,1.0,AL,1063.0,Greene County,1238.0,6995.0,22252.0,3841.0,3889.0,2542.0,3169.0,4722.0,2309.0,1497.0,255.0,28.0,0.0
948585,County,2020/10/23,1.0,AL,1063.0,Greene County,1377.0,6856.0,26988.0,4495.0,5032.0,2818.0,4342.0,6487.0,2436.0,1079.0,273.0,26.0,0.0
951805,County,2020/10/24,1.0,AL,1063.0,Greene County,1520.0,6713.0,23379.0,4202.0,3567.0,2331.0,5424.0,4885.0,2022.0,741.0,183.0,24.0,0.0
