,Level,Date,State FIPS,State Postal Code,County FIPS,County Name,Population Staying at Home,Population Not Staying at Home,Number of Trips,Number of Trips <1,Number of Trips 1-3,Number of Trips 3-5,Number of Trips 5-10,Number of Trips 10-25,Number of Trips 25-50,Number of Trips 50-100,Number of Trips 100-250,Number of Trips 250-500,Number of Trips >=500
2859,County,2020/01/01,51.0,VA,51081.0,Greensville County,1602.0,10025.0,41902.0,6510.0,8736.0,5393.0,11382.0,5252.0,2433.0,1518.0,663.0,4.0,11.0
4167,County,2020/01/02,51.0,VA,51081.0,Greensville County,1204.0,10423.0,52042.0,12824.0,8162.0,6274.0,12474.0,5049.0,3639.0,3119.0,493.0,8.0,0.0
6815,County,2020/01/03,51.0,VA,51081.0,Greensville County,1367.0,10260.0,45882.0,7459.0,7933.0,5231.0,11017.0,4640.0,4723.0,4135.0,731.0,5.0,8.0
11255,County,2020/01/04,51.0,VA,51081.0,Greensville County,1478.0,10149.0,47133.0,7061.0,7572.0,7042.0,12834.0,6773.0,2695.0,2411.0,738.0,4.0,3.0
15634,County,2020/01/05,51.0,VA,51081.0,Greensville County,1689.0,9938.0,41945.0,6723.0,8198.0,5626.0,11672.0,4925.0,2149.0,2132.0,506.0,2.0,12.0
18975,County,2020/01/06,51.0,VA,51081.0,Greensville County,1184.0,10443.0,46536.0,9934.0,7700.0,6455.0,10314.0,5750.0,3398.0,2589.0,384.0,5.0,7.0
22169,County,2020/01/07,51.0,VA,51081.0,Greensville County,1359.0,10268.0,45553.0,7380.0,8740.0,4270.0,11976.0,5843.0,3852.0,2846.0,637.0,7.0,2.0
25363,County,2020/01/08,51.0,VA,51081.0,Greensville County,1324.0,10303.0,52326.0,9896.0,11232.0,5737.0,11916.0,5647.0,3664.0,3489.0,739.0,6.0,0.0
26990,County,2020/01/09,51.0,VA,51081.0,Greensville County,1246.0,10381.0,54780.0,11006.0,9624.0,6234.0,13358.0,6435.0,3524.0,3533.0,1047.0,9.0,10.0
31752,County,2020/01/10,51.0,VA,51081.0,Greensville County,1353.0,10274.0,57204.0,13098.0,11078.0,7814.0,9790.0,6415.0,4874.0,3094.0,1032.0,4.0,5.0
34946,County,2020/01/11,51.0,VA,51081.0,Greensville County,1499.0,10128.0,53380.0,10602.0,11242.0,6969.0,13472.0,4939.0,3132.0,2373.0,643.0,6.0,2.0
36584,County,2020/01/12,51.0,VA,51081.0,Greensville County,1493.0,10134.0,42061.0,6411.0,10760.0,4683.0,11191.0,4942.0,1994.0,1628.0,442.0,5.0,5.0
39825,County,2020/01/13,51.0,VA,51081.0,Greensville County,1264.0,10363.0,50608.0,11549.0,9613.0,5352.0,11727.0,4809.0,3600.0,2947.0,998.0,7.0,6.0
42989,County,2020/01/14,51.0,VA,51081.0,Greensville County,1285.0,10342.0,47808.0,7643.0,8655.0,5433.0,12153.0,6132.0,3781.0,3181.0,818.0,6.0,6.0
47717,County,2020/01/15,51.0,VA,51081.0,Greensville County,1192.0,10435.0,52017.0,11214.0,9494.0,6852.0,12558.0,5900.0,2585.0,2748.0,645.0,13.0,8.0
49245,County,2020/01/16,51.0,VA,51081.0,Greensville County,1243.0,10384.0,57549.0,12649.0,10798.0,8308.0,12743.0,5117.0,3448.0,3686.0,785.0,11.0,4.0
54159,County,2020/01/17,51.0,VA,51081.0,Greensville County,1245.0,10382.0,54944.0,13067.0,11218.0,5975.0,11811.0,5648.0,3368.0,2863.0,985.0,9.0,0.0
55733,County,2020/01/18,51.0,VA,51081.0,Greensville County,1483.0,10144.0,48044.0,9964.0,12319.0,6843.0,7987.0,4672.0,3565.0,2330.0,355.0,9.0,0.0
58930,County,2020/01/19,51.0,VA,51081.0,Greensville County,1617.0,10010.0,45222.0,9331.0,11284.0,5065.0,9628.0,4627.0,2619.0,2127.0,522.0,9.0,10.0
62113,County,2020/01/20,51.0,VA,51081.0,Greensville County,1762.0,9865.0,47122.0,9103.0,10631.0,6497.0,9639.0,4971.0,2461.0,2873.0,941.0,6.0,0.0
65319,County,2020/01/21,51.0,VA,51081.0,Greensville County,1518.0,10109.0,49275.0,10677.0,7873.0,6308.0,11320.0,5364.0,3372.0,3854.0,495.0,7.0,5.0
70079,County,2020/01/22,51.0,VA,51081.0,Greensville County,1443.0,10184.0,48463.0,10165.0,9000.0,6695.0,10134.0,5670.0,2941.0,2996.0,849.0,6.0,7.0
71706,County,2020/01/23,51.0,VA,51081.0,Greensville County,1267.0,10360.0,46889.0,10105.0,9745.0,5049.0,9475.0,5169.0,3085.0,3408.0,836.0,7.0,10.0
76467,County,2020/01/24,51.0,VA,51081.0,Greensville County,1288.0,10339.0,46636.0,9389.0,9338.0,7659.0,9465.0,5241.0,2680.0,2382.0,471.0,5.0,6.0
78096,County,2020/01/25,51.0,VA,51081.0,Greensville County,1595.0,10032.0,52085.0,11103.0,12104.0,7304.0,10347.0,4903.0,3042.0,2690.0,573.0,7.0,12.0
82708,County,2020/01/26,51.0,VA,51081.0,Greensville County,1629.0,9998.0,45246.0,9427.0,10648.0,5736.0,9345.0,5105.0,2908.0,1661.0,410.0,4.0,2.0
86017,County,2020/01/27,51.0,VA,51081.0,Greensville County,1426.0,10201.0,52960.0,11145.0,12161.0,5986.0,10172.0,5253.0,3841.0,3779.0,614.0,5.0,4.0
87739,County,2020/01/28,51.0,VA,51081.0,Greensville County,1407.0,10220.0,48059.0,9392.0,8101.0,6224.0,11072.0,5141.0,4447.0,3102.0,566.0,8.0,6.0
90845,County,2020/01/29,51.0,VA,51081.0,Greensville County,1368.0,10259.0,46770.0,10831.0,9521.0,5210.0,7745.0,5430.0,3862.0,3509.0,637.0,9.0,16.0
95631,County,2020/01/30,51.0,VA,51081.0,Greensville County,1386.0,10241.0,50074.0,9506.0,11078.0,5984.0,8863.0,6195.0,3847.0,3841.0,736.0,7.0,17.0
97205,County,2020/01/31,51.0,VA,51081.0,Greensville County,1262.0,10365.0,51809.0,10746.0,11023.0,5843.0,10660.0,6005.0,3717.0,3218.0,572.0,10.0,15.0
102012,County,2020/02/01,51.0,VA,51081.0,Greensville County,1469.0,10158.0,53310.0,11201.0,13382.0,6655.0,10549.0,6040.0,2277.0,2520.0,660.0,14.0,12.0
105213,County,2020/02/02,51.0,VA,51081.0,Greensville County,1604.0,10023.0,48665.0,8889.0,12469.0,7672.0,9023.0,5386.0,2428.0,2438.0,333.0,9.0,18.0
106839,County,2020/02/03,51.0,VA,51081.0,Greensville County,1370.0,10257.0,50896.0,9355.0,10078.0,9203.0,10250.0,5517.0,2675.0,3397.0,409.0,6.0,6.0
110035,County,2020/02/04,51.0,VA,51081.0,Greensville County,1285.0,10342.0,47376.0,8301.0,10429.0,6927.0,8652.0,5036.0,3792.0,3561.0,654.0,8.0,16.0
113180,County,2020/02/05,51.0,VA,51081.0,Greensville County,1306.0,10321.0,51105.0,9220.0,11348.0,7127.0,10145.0,5714.0,3752.0,3216.0,575.0,4.0,4.0
117962,County,2020/02/06,51.0,VA,51081.0,Greensville County,1108.0,10519.0,50276.0,9332.0,12144.0,7962.0,8620.0,4691.0,3441.0,3505.0,567.0,12.0,2.0
119589,County,2020/02/07,51.0,VA,51081.0,Greensville County,1262.0,10365.0,55272.0,10022.0,13004.0,8337.0,10533.0,6014.0,3530.0,3131.0,682.0,9.0,10.0
122836,County,2020/02/08,51.0,VA,51081.0,Greensville County,1334.0,10293.0,49034.0,7867.0,11213.0,6542.0,11004.0,5794.0,3529.0,2558.0,506.0,10.0,11.0
126874,County,2020/02/09,51.0,VA,51081.0,Greensville County,1752.0,9875.0,42363.0,6987.0,9208.0,8178.0,8476.0,4059.0,2299.0,2618.0,508.0,8.0,22.0
128024,County,2020/02/10,51.0,VA,51081.0,Greensville County,1246.0,10381.0,48322.0,9953.0,10192.0,6772.0,9085.0,5498.0,3589.0,2639.0,564.0,6.0,24.0
132883,County,2020/02/11,51.0,VA,51081.0,Greensville County,1209.0,10418.0,49692.0,7900.0,10164.0,5974.0,11327.0,5566.0,4465.0,3490.0,769.0,7.0,30.0
134486,County,2020/02/12,51.0,VA,51081.0,Greensville County,1110.0,10517.0,49387.0,8971.0,10696.0,7204.0,9338.0,5440.0,3601.0,3388.0,702.0,8.0,39.0
138817,County,2020/02/13,51.0,VA,51081.0,Greensville County,1234.0,10393.0,48524.0,8231.0,9387.0,7043.0,10509.0,5450.0,4078.0,3089.0,706.0,9.0,22.0
141876,County,2020/02/14,51.0,VA,51081.0,Greensville County,1137.0,10490.0,53178.0,9366.0,10911.0,7290.0,11290.0,6060.0,4199.0,3293.0,753.0,6.0,10.0
145173,County,2020/02/15,51.0,VA,51081.0,Greensville County,1346.0,10281.0,47667.0,7110.0,10516.0,7084.0,11677.0,5533.0,2537.0,2577.0,605.0,7.0,21.0
148361,County,2020/02/16,51.0,VA,51081.0,Greensville County,1737.0,9890.0,43133.0,6905.0,9844.0,5695.0,10318.0,5458.0,2285.0,1920.0,683.0,11.0,14.0
153123,County,2020/02/17,51.0,VA,51081.0,Greensville County,1618.0,10009.0,38925.0,7248.0,7343.0,5885.0,7860.0,4477.0,3232.0,2274.0,582.0,5.0,19.0
156318,County,2020/02/18,51.0,VA,51081.0,Greensville County,1365.0,10262.0,45600.0,8755.0,7194.0,7365.0,11011.0,4415.0,3558.0,2767.0,502.0,7.0,26.0
157945,County,2020/02/19,51.0,VA,51081.0,Greensville County,1333.0,10294.0,44702.0,6171.0,6820.0,6643.0,11189.0,6289.0,3686.0,2809.0,1076.0,9.0,10.0
161006,County,2020/02/20,51.0,VA,51081.0,Greensville County,1394.0,10233.0,48080.0,7092.0,8646.0,7071.0,12751.0,5793.0,3660.0,2642.0,400.0,11.0,14.0
165899,County,2020/02/21,51.0,VA,51081.0,Greensville County,1535.0,10092.0,43592.0,6700.0,7951.0,6297.0,10451.0,5552.0,2895.0,2817.0,907.0,9.0,13.0
169046,County,2020/02/22,51.0,VA,51081.0,Greensville County,1260.0,10367.0,50782.0,8548.0,10697.0,7324.0,12094.0,5387.0,3726.0,2064.0,917.0,6.0,19.0
170707,County,2020/02/23,51.0,VA,51081.0,Greensville County,1665.0,9962.0,41410.0,8229.0,9902.0,4547.0,8944.0,4495.0,2505.0,2169.0,600.0,4.0,15.0
175487,County,2020/02/24,51.0,VA,51081.0,Greensville County,1211.0,10416.0,43032.0,8006.0,9051.0,5035.0,9885.0,4015.0,3728.0,2690.0,606.0,8.0,8.0
178529,County,2020/02/25,51.0,VA,51081.0,Greensville County,1291.0,10336.0,48775.0,8192.0,8816.0,7982.0,11129.0,5452.0,3572.0,2535.0,1067.0,9.0,21.0
181722,County,2020/02/26,51.0,VA,51081.0,Greensville County,1356.0,10271.0,61952.0,6976.0,16832.0,7438.0,13803.0,7658.0,5657.0,2514.0,1065.0,2.0,7.0
185059,County,2020/02/27,51.0,VA,51081.0,Greensville County,1230.0,10397.0,48283.0,6257.0,10554.0,6396.0,10942.0,5975.0,4086.0,3224.0,824.0,11.0,14.0
188257,County,2020/02/28,51.0,VA,51081.0,Greensville County,1194.0,10433.0,54164.0,10089.0,11046.0,7846.0,10771.0,6533.0,4163.0,3159.0,544.0,3.0,10.0
191451,County,2020/02/29,51.0,VA,51081.0,Greensville County,1314.0,10313.0,45208.0,7989.0,10385.0,6135.0,7859.0,5271.0,3927.0,2967.0,650.0,12.0,13.0
193076,County,2020/03/01,51.0,VA,51081.0,Greensville County,1524.0,10103.0,38749.0,7095.0,8797.0,4543.0,8635.0,3946.0,2850.0,2220.0,634.0,3.0,26.0
196298,County,2020/03/02,51.0,VA,51081.0,Greensville County,1311.0,10316.0,48157.0,8506.0,9244.0,6516.0,11116.0,5979.0,4038.0,2404.0,333.0,4.0,17.0
199358,County,2020/03/03,51.0,VA,51081.0,Greensville County,1225.0,10402.0,49095.0,8252.0,9143.0,7783.0,10461.0,6489.0,4048.0,1927.0,962.0,12.0,18.0
201784,County,2020/03/04,51.0,VA,51081.0,Greensville County,1227.0,10400.0,50391.0,6820.0,10667.0,5998.0,11490.0,6290.0,4328.0,3592.0,1190.0,8.0,8.0
205805,County,2020/03/05,51.0,VA,51081.0,Greensville County,1078.0,10549.0,56333.0,9500.0,12375.0,6812.0,11689.0,7301.0,3868.0,3589.0,1177.0,12.0,10.0
208923,County,2020/03/06,51.0,VA,51081.0,Greensville County,1155.0,10472.0,54183.0,8918.0,9119.0,7815.0,13254.0,5357.0,4803.0,3431.0,1478.0,4.0,4.0
212224,County,2020/03/07,51.0,VA,51081.0,Greensville County,1333.0,10294.0,53873.0,7919.0,14886.0,9869.0,8039.0,5819.0,4253.0,2144.0,918.0,8.0,18.0
215440,County,2020/03/08,51.0,VA,51081.0,Greensville County,1485.0,10142.0,48237.0,7881.0,11199.0,7054.0,10018.0,5851.0,3001.0,2237.0,958.0,20.0,18.0
220197,County,2020/03/09,51.0,VA,51081.0,Greensville County,1082.0,10545.0,52459.0,8566.0,9805.0,6865.0,11020.0,7249.0,4606.0,3333.0,988.0,9.0,18.0
223390,County,2020/03/10,51.0,VA,51081.0,Greensville County,1269.0,10358.0,47520.0,6492.0,10082.0,6658.0,10306.0,5654.0,4556.0,2989.0,743.0,19.0,21.0
225065,County,2020/03/11,51.0,VA,51081.0,Greensville County,1118.0,10509.0,61032.0,13273.0,9711.0,10809.0,11653.0,6443.0,3263.0,4557.0,1228.0,14.0,81.0
229712,County,2020/03/12,51.0,VA,51081.0,Greensville County,1199.0,10428.0,74503.0,14948.0,14094.0,10282.0,13014.0,11909.0,6284.0,2394.0,1561.0,9.0,8.0
231409,County,2020/03/13,51.0,VA,51081.0,Greensville County,1130.0,10497.0,64894.0,7373.0,11268.0,9124.0,18010.0,8941.0,5283.0,3659.0,1221.0,15.0,0.0
234461,County,2020/03/14,51.0,VA,51081.0,Greensville County,1531.0,10096.0,67076.0,6618.0,18793.0,8141.0,12043.0,12653.0,6451.0,1676.0,663.0,19.0,19.0
239361,County,2020/03/15,51.0,VA,51081.0,Greensville County,1628.0,9999.0,39404.0,6008.0,11018.0,4857.0,7982.0,4364.0,2636.0,1419.0,1100.0,12.0,8.0
242554,County,2020/03/16,51.0,VA,51081.0,Greensville County,1484.0,10143.0,60351.0,9725.0,14144.0,8276.0,13607.0,7058.0,4634.0,2354.0,523.0,12.0,18.0
245748,County,2020/03/17,51.0,VA,51081.0,Greensville County,1619.0,10008.0,55230.0,10252.0,11331.0,7685.0,11048.0,5933.0,4125.0,3437.0,1398.0,14.0,7.0
248903,County,2020/03/18,51.0,VA,51081.0,Greensville County,1879.0,9748.0,58637.0,11037.0,13703.0,8580.0,9867.0,6625.0,4145.0,3618.0,1040.0,6.0,16.0
250581,County,2020/03/19,51.0,VA,51081.0,Greensville County,1720.0,9907.0,52000.0,11948.0,11699.0,6259.0,10255.0,5601.0,2823.0,2410.0,989.0,9.0,7.0
255331,County,2020/03/20,51.0,VA,51081.0,Greensville County,1667.0,9960.0,49993.0,10725.0,9950.0,5596.0,10903.0,6305.0,3623.0,1873.0,994.0,14.0,10.0
256909,County,2020/03/21,51.0,VA,51081.0,Greensville County,1924.0,9703.0,43589.0,6661.0,9031.0,6368.0,10515.0,5681.0,2238.0,2132.0,932.0,7.0,24.0
261713,County,2020/03/22,51.0,VA,51081.0,Greensville County,1804.0,9823.0,41334.0,5614.0,11716.0,6610.0,8289.0,4935.0,2143.0,1474.0,538.0,11.0,4.0
263348,County,2020/03/23,51.0,VA,51081.0,Greensville County,1716.0,9911.0,45793.0,11032.0,9224.0,4653.0,8706.0,6567.0,2687.0,2179.0,730.0,8.0,7.0
268104,County,2020/03/24,51.0,VA,51081.0,Greensville County,1785.0,9842.0,48020.0,11043.0,10106.0,6129.0,8672.0,5790.0,2759.0,2628.0,872.0,10.0,11.0
271301,County,2020/03/25,51.0,VA,51081.0,Greensville County,1749.0,9878.0,42695.0,5693.0,8201.0,6217.0,9396.0,5684.0,3023.0,3519.0,948.0,10.0,4.0
274477,County,2020/03/26,51.0,VA,51081.0,Greensville County,1619.0,10008.0,44022.0,7444.0,10101.0,7412.0,8332.0,5579.0,2841.0,1256.0,1031.0,12.0,14.0
276115,County,2020/03/27,51.0,VA,51081.0,Greensville County,1789.0,9838.0,46382.0,5488.0,9754.0,7953.0,10268.0,5647.0,3081.0,3423.0,754.0,7.0,7.0
280876,County,2020/03/28,51.0,VA,51081.0,Greensville County,1905.0,9722.0,42609.0,7925.0,11457.0,6095.0,8512.0,4033.0,1549.0,2270.0,740.0,8.0,20.0
282511,County,2020/03/29,51.0,VA,51081.0,Greensville County,2065.0,9562.0,41037.0,5115.0,9230.0,4972.0,9225.0,7037.0,2268.0,2040.0,1138.0,8.0,4.0
287302,County,2020/03/30,51.0,VA,51081.0,Greensville County,1860.0,9767.0,47092.0,8639.0,10029.0,8003.0,7236.0,6117.0,3943.0,2295.0,804.0,4.0,22.0
290460,County,2020/03/31,51.0,VA,51081.0,Greensville County,1711.0,9916.0,41870.0,9499.0,9735.0,4942.0,7685.0,5116.0,2050.0,2245.0,579.0,5.0,14.0
293659,County,2020/04/01,51.0,VA,51081.0,Greensville County,1806.0,9821.0,41955.0,7924.0,9706.0,5150.0,8456.0,4100.0,2864.0,2937.0,808.0,6.0,4.0
295287,County,2020/04/02,51.0,VA,51081.0,Greensville County,1704.0,9923.0,41677.0,6075.0,9859.0,8093.0,6043.0,5987.0,2667.0,1953.0,984.0,9.0,7.0
300047,County,2020/04/03,51.0,VA,51081.0,Greensville County,1627.0,10000.0,49921.0,9842.0,9437.0,8846.0,8760.0,6006.0,3340.0,2684.0,1002.0,4.0,0.0
301673,County,2020/04/04,51.0,VA,51081.0,Greensville County,1927.0,9700.0,39526.0,6798.0,8674.0,4570.0,9451.0,5089.0,2647.0,1260.0,1019.0,6.0,12.0
304856,County,2020/04/05,51.0,VA,51081.0,Greensville County,1928.0,9699.0,31860.0,2751.0,10502.0,4023.0,6554.0,4548.0,1573.0,1373.0,518.0,5.0,13.0
309629,County,2020/04/06,51.0,VA,51081.0,Greensville County,1684.0,9943.0,42244.0,9386.0,7590.0,6877.0,7067.0,5521.0,3209.0,2037.0,544.0,6.0,7.0
311256,County,2020/04/07,51.0,VA,51081.0,Greensville County,1603.0,10024.0,43580.0,10334.0,6565.0,7647.0,6649.0,6131.0,3422.0,2300.0,511.0,11.0,10.0
314451,County,2020/04/08,51.0,VA,51081.0,Greensville County,1799.0,9828.0,45760.0,10789.0,7568.0,6281.0,9840.0,4849.0,2976.0,2309.0,1120.0,9.0,19.0
319211,County,2020/04/09,51.0,VA,51081.0,Greensville County,1728.0,9899.0,42665.0,6337.0,8002.0,7777.0,9317.0,5740.0,3027.0,1690.0,766.0,5.0,4.0
320847,County,2020/04/10,51.0,VA,51081.0,Greensville County,1765.0,9862.0,42580.0,7213.0,8206.0,6287.0,9815.0,4955.0,2749.0,2390.0,945.0,8.0,12.0
325600,County,2020/04/11,51.0,VA,51081.0,Greensville County,1722.0,9905.0,42712.0,7745.0,9131.0,5658.0,9637.0,5261.0,2464.0,2346.0,464.0,2.0,4.0
328767,County,2020/04/12,51.0,VA,51081.0,Greensville County,1938.0,9689.0,32868.0,5953.0,6969.0,5273.0,7248.0,4294.0,1240.0,1182.0,700.0,2.0,7.0
331987,County,2020/04/13,51.0,VA,51081.0,Greensville County,1813.0,9814.0,43007.0,8861.0,8266.0,6432.0,9472.0,3915.0,3612.0,1935.0,510.0,4.0,0.0
335162,County,2020/04/14,51.0,VA,51081.0,Greensville County,1622.0,10005.0,43944.0,5710.0,9443.0,7750.0,9471.0,5152.0,3929.0,2245.0,222.0,2.0,20.0
338367,County,2020/04/15,51.0,VA,51081.0,Greensville County,1569.0,10058.0,53376.0,8054.0,11500.0,9036.0,12077.0,7358.0,2705.0,2208.0,436.0,2.0,0.0
341512,County,2020/04/16,51.0,VA,51081.0,Greensville County,1809.0,9818.0,60918.0,7527.0,14030.0,10478.0,15281.0,7241.0,3701.0,2644.0,0.0,0.0,16.0
343294,County,2020/04/17,51.0,VA,51081.0,Greensville County,1661.0,9966.0,59572.0,10352.0,11136.0,8725.0,13030.0,9543.0,4423.0,2106.0,249.0,0.0,8.0
347920,County,2020/04/18,51.0,VA,51081.0,Greensville County,1576.0,10051.0,42375.0,6952.0,10123.0,9075.0,10753.0,2866.0,1317.0,1076.0,213.0,0.0,0.0
351151,County,2020/04/19,51.0,VA,51081.0,Greensville County,1809.0,9818.0,38562.0,5001.0,8610.0,7558.0,9654.0,3978.0,1646.0,1568.0,531.0,0.0,16.0
354351,County,2020/04/20,51.0,VA,51081.0,Greensville County,1595.0,10032.0,50415.0,6534.0,13020.0,6959.0,8976.0,5596.0,6614.0,2267.0,449.0,0.0,0.0
357539,County,2020/04/21,51.0,VA,51081.0,Greensville County,1723.0,9904.0,40716.0,6315.0,8826.0,5201.0,8686.0,5521.0,3204.0,2147.0,804.0,8.0,4.0
359167,County,2020/04/22,51.0,VA,51081.0,Greensville County,1654.0,9973.0,40675.0,5063.0,6501.0,6357.0,8416.0,6544.0,4472.0,2417.0,887.0,6.0,12.0
362273,County,2020/04/23,51.0,VA,51081.0,Greensville County,1851.0,9776.0,45242.0,9428.0,5823.0,6672.0,8619.0,6844.0,3783.0,3106.0,958.0,9.0,0.0
367158,County,2020/04/24,51.0,VA,51081.0,Greensville County,1558.0,10069.0,44929.0,7780.0,7654.0,6670.0,8908.0,5838.0,4458.0,2527.0,1079.0,11.0,4.0
370317,County,2020/04/25,51.0,VA,51081.0,Greensville County,1777.0,9850.0,36874.0,3143.0,8771.0,6683.0,8167.0,5020.0,2472.0,1766.0,838.0,10.0,4.0
371861,County,2020/04/26,51.0,VA,51081.0,Greensville County,1974.0,9653.0,39077.0,6175.0,8242.0,5719.0,12300.0,2782.0,1879.0,1342.0,619.0,8.0,11.0
375137,County,2020/04/27,51.0,VA,51081.0,Greensville County,1570.0,10057.0,46485.0,5936.0,8836.0,7578.0,10494.0,6435.0,4379.0,1975.0,846.0,6.0,0.0
378287,County,2020/04/28,51.0,VA,51081.0,Greensville County,1743.0,9884.0,45285.0,7828.0,11084.0,5374.0,7004.0,6120.0,3433.0,3736.0,692.0,6.0,8.0
381539,County,2020/04/29,51.0,VA,51081.0,Greensville County,1653.0,9974.0,39111.0,7111.0,5544.0,9150.0,6539.0,3799.0,3308.0,2250.0,1401.0,9.0,0.0
386285,County,2020/04/30,51.0,VA,51081.0,Greensville County,1635.0,9992.0,38341.0,5573.0,7519.0,6951.0,7281.0,5558.0,2492.0,2049.0,895.0,15.0,8.0
389472,County,2020/05/01,51.0,VA,51081.0,Greensville County,1524.0,10103.0,44843.0,6419.0,9441.0,7782.0,8204.0,6008.0,3133.0,2784.0,1061.0,7.0,4.0
392673,County,2020/05/02,51.0,VA,51081.0,Greensville County,1599.0,10028.0,55066.0,10223.0,14701.0,5980.0,12787.0,5963.0,3069.0,1624.0,706.0,9.0,4.0
394307,County,2020/05/03,51.0,VA,51081.0,Greensville County,1932.0,9695.0,48500.0,9469.0,10397.0,6637.0,11586.0,6177.0,1947.0,1545.0,733.0,4.0,5.0
399061,County,2020/05/04,51.0,VA,51081.0,Greensville County,1599.0,10028.0,51259.0,8667.0,9206.0,7892.0,12106.0,6223.0,3677.0,2955.0,519.0,6.0,8.0
402237,County,2020/05/05,51.0,VA,51081.0,Greensville County,1556.0,10071.0,44430.0,6782.0,10167.0,7124.0,7350.0,5225.0,4333.0,2579.0,856.0,10.0,4.0
405444,County,2020/05/06,51.0,VA,51081.0,Greensville County,1660.0,9967.0,47369.0,7165.0,9620.0,5333.0,12441.0,5147.0,4203.0,2633.0,812.0,4.0,11.0
407070,County,2020/05/07,51.0,VA,51081.0,Greensville County,1619.0,10008.0,43801.0,7560.0,9869.0,5781.0,6883.0,5493.0,4058.0,3092.0,1031.0,7.0,27.0
410373,County,2020/05/08,51.0,VA,51081.0,Greensville County,1477.0,10150.0,47623.0,6275.0,8958.0,7673.0,10260.0,6119.0,4260.0,3114.0,951.0,10.0,3.0
413379,County,2020/05/09,51.0,VA,51081.0,Greensville County,1599.0,10028.0,49384.0,8902.0,10039.0,5752.0,11646.0,6280.0,3936.0,2249.0,571.0,9.0,0.0
418226,County,2020/05/10,51.0,VA,51081.0,Greensville County,1608.0,10019.0,40784.0,7141.0,8059.0,5808.0,8111.0,5766.0,3407.0,2163.0,321.0,0.0,8.0
419900,County,2020/05/11,51.0,VA,51081.0,Greensville County,1371.0,10256.0,47912.0,7284.0,9500.0,5912.0,11209.0,5312.0,4743.0,2790.0,1142.0,11.0,9.0
423086,County,2020/05/12,51.0,VA,51081.0,Greensville County,1169.0,10458.0,48249.0,7691.0,9412.0,6096.0,10960.0,6202.0,3933.0,2554.0,1379.0,10.0,12.0
427808,County,2020/05/13,51.0,VA,51081.0,Greensville County,1219.0,10408.0,47399.0,7378.0,10395.0,7571.0,8707.0,5106.0,3597.0,2728.0,1893.0,18.0,6.0
431001,County,2020/05/14,51.0,VA,51081.0,Greensville County,1154.0,10473.0,50699.0,9111.0,8932.0,7881.0,10763.0,4885.0,4124.0,3263.0,1720.0,7.0,13.0
432629,County,2020/05/15,51.0,VA,51081.0,Greensville County,1227.0,10400.0,44628.0,9294.0,8921.0,5371.0,8373.0,5469.0,3105.0,2776.0,1288.0,14.0,17.0
437378,County,2020/05/16,51.0,VA,51081.0,Greensville County,1334.0,10293.0,42100.0,7027.0,9398.0,6000.0,8902.0,3908.0,3006.0,2793.0,1035.0,6.0,25.0
439006,County,2020/05/17,51.0,VA,51081.0,Greensville County,1585.0,10042.0,45875.0,8184.0,11759.0,6370.0,9451.0,5005.0,2958.0,1779.0,352.0,6.0,11.0
443777,County,2020/05/18,51.0,VA,51081.0,Greensville County,1274.0,10353.0,48246.0,12466.0,9030.0,6149.0,5635.0,4784.0,5260.0,3131.0,1782.0,5.0,4.0
445405,County,2020/05/19,51.0,VA,51081.0,Greensville County,1352.0,10275.0,40706.0,7910.0,5722.0,5479.0,8183.0,5640.0,4722.0,1852.0,1176.0,13.0,9.0
450165,County,2020/05/20,51.0,VA,51081.0,Greensville County,1177.0,10450.0,42406.0,6069.0,6777.0,6037.0,10327.0,5476.0,4544.0,1836.0,1322.0,13.0,5.0
453352,County,2020/05/21,51.0,VA,51081.0,Greensville County,1308.0,10319.0,39355.0,5183.0,7707.0,4542.0,8787.0,5808.0,3108.0,2960.0,1243.0,8.0,9.0
456552,County,2020/05/22,51.0,VA,51081.0,Greensville County,1033.0,10594.0,53442.0,9414.0,8796.0,8247.0,12650.0,6299.0,4563.0,2516.0,949.0,8.0,0.0
458175,County,2020/05/23,51.0,VA,51081.0,Greensville County,1374.0,10253.0,42070.0,7632.0,7171.0,7783.0,10629.0,4241.0,3290.0,597.0,708.0,8.0,11.0
461343,County,2020/05/24,51.0,VA,51081.0,Greensville County,1305.0,10322.0,44700.0,10681.0,9422.0,7427.0,8308.0,4179.0,1503.0,1704.0,1455.0,9.0,12.0
466219,County,2020/05/25,51.0,VA,51081.0,Greensville County,1430.0,10197.0,46530.0,10103.0,12968.0,5838.0,7263.0,4302.0,2542.0,2421.0,1066.0,17.0,10.0
469328,County,2020/05/26,51.0,VA,51081.0,Greensville County,1229.0,10398.0,46984.0,9256.0,9611.0,6651.0,7096.0,5044.0,4167.0,3297.0,1846.0,12.0,4.0
470957,County,2020/05/27,51.0,VA,51081.0,Greensville County,989.0,10638.0,47212.0,8863.0,9439.0,5896.0,10065.0,4770.0,3382.0,3221.0,1541.0,19.0,16.0
475717,County,2020/05/28,51.0,VA,51081.0,Greensville County,1208.0,10419.0,48027.0,9091.0,10042.0,6734.0,7552.0,4486.0,4671.0,3607.0,1818.0,24.0,2.0
478905,County,2020/05/29,51.0,VA,51081.0,Greensville County,1294.0,10333.0,48867.0,8951.0,9425.0,7012.0,10420.0,5651.0,2983.0,2902.0,1501.0,9.0,13.0
480485,County,2020/05/30,51.0,VA,51081.0,Greensville County,1233.0,10394.0,46390.0,8710.0,12998.0,6428.0,7426.0,5143.0,2079.0,2285.0,1310.0,8.0,3.0
483613,County,2020/05/31,51.0,VA,51081.0,Greensville County,1410.0,10217.0,40667.0,9747.0,9351.0,6512.0,6101.0,3771.0,2451.0,1627.0,1090.0,9.0,8.0
488551,County,2020/06/01,51.0,VA,51081.0,Greensville County,1317.0,10310.0,49071.0,10879.0,10746.0,7142.0,9416.0,4625.0,3151.0,2082.0,1017.0,6.0,7.0
490119,County,2020/06/02,51.0,VA,51081.0,Greensville County,1339.0,10288.0,49110.0,12391.0,10691.0,7145.0,6716.0,5198.0,3323.0,2448.0,1168.0,15.0,15.0
494880,County,2020/06/03,51.0,VA,51081.0,Greensville County,1268.0,10359.0,50071.0,10178.0,10995.0,7586.0,8950.0,4595.0,3521.0,2898.0,1314.0,16.0,18.0
498065,County,2020/06/04,51.0,VA,51081.0,Greensville County,1172.0,10455.0,50595.0,11039.0,9087.0,6667.0,9840.0,6016.0,3733.0,2426.0,1773.0,14.0,0.0
499703,County,2020/06/05,51.0,VA,51081.0,Greensville County,1172.0,10455.0,54336.0,12089.0,12826.0,6118.0,10005.0,5210.0,3818.0,2756.0,1495.0,15.0,4.0
502850,County,2020/06/06,51.0,VA,51081.0,Greensville County,1248.0,10379.0,47022.0,8733.0,13279.0,4721.0,9047.0,4474.0,3525.0,2238.0,995.0,3.0,7.0
506041,County,2020/06/07,51.0,VA,51081.0,Greensville County,1427.0,10200.0,50394.0,9940.0,14935.0,6000.0,7333.0,5482.0,3011.0,2694.0,979.0,10.0,10.0
509263,County,2020/06/08,51.0,VA,51081.0,Greensville County,1128.0,10499.0,56272.0,13128.0,11980.0,5736.0,9832.0,7381.0,3871.0,2908.0,1416.0,14.0,6.0
512468,County,2020/06/09,51.0,VA,51081.0,Greensville County,1205.0,10422.0,45171.0,8519.0,8553.0,6601.0,9859.0,5238.0,3179.0,1965.0,1228.0,16.0,13.0
517249,County,2020/06/10,51.0,VA,51081.0,Greensville County,1114.0,10513.0,48858.0,9024.0,10539.0,6807.0,8604.0,5210.0,4658.0,2651.0,1330.0,15.0,20.0
520406,County,2020/06/11,51.0,VA,51081.0,Greensville County,1083.0,10544.0,56014.0,10615.0,12091.0,7609.0,10192.0,5677.0,4206.0,3958.0,1640.0,14.0,12.0
522078,County,2020/06/12,51.0,VA,51081.0,Greensville County,1297.0,10330.0,56143.0,9908.0,12996.0,7403.0,10086.0,6504.0,4018.0,3106.0,2104.0,14.0,4.0
526815,County,2020/06/13,51.0,VA,51081.0,Greensville County,1277.0,10350.0,54239.0,13002.0,9976.0,8058.0,9105.0,6221.0,3676.0,3162.0,1004.0,11.0,24.0
528450,County,2020/06/14,51.0,VA,51081.0,Greensville County,1491.0,10136.0,45028.0,10580.0,9073.0,5540.0,9847.0,4666.0,2413.0,1904.0,973.0,18.0,14.0
533209,County,2020/06/15,51.0,VA,51081.0,Greensville County,1193.0,10434.0,43404.0,9899.0,7666.0,4536.0,9821.0,4009.0,2995.0,3008.0,1445.0,10.0,15.0
534836,County,2020/06/16,51.0,VA,51081.0,Greensville County,1249.0,10378.0,43948.0,9244.0,9357.0,4985.0,9347.0,3135.0,3176.0,3081.0,1594.0,17.0,12.0
538030,County,2020/06/17,51.0,VA,51081.0,Greensville County,1130.0,10497.0,44835.0,9162.0,8602.0,4348.0,9507.0,5256.0,3967.0,2833.0,1120.0,21.0,19.0
541179,County,2020/06/18,51.0,VA,51081.0,Greensville County,1208.0,10419.0,46296.0,7379.0,9970.0,5534.0,10530.0,4670.0,3842.0,2576.0,1772.0,16.0,7.0
545945,County,2020/06/19,51.0,VA,51081.0,Greensville County,1154.0,10473.0,43428.0,8460.0,9156.0,3975.0,9523.0,4964.0,3254.0,2895.0,1174.0,18.0,9.0
549179,County,2020/06/20,51.0,VA,51081.0,Greensville County,1400.0,10227.0,37176.0,5546.0,6502.0,4906.0,7378.0,5463.0,3809.0,2275.0,1276.0,14.0,7.0
550828,County,2020/06/21,51.0,VA,51081.0,Greensville County,1525.0,10102.0,39619.0,6651.0,9480.0,5303.0,9578.0,3871.0,1420.0,2179.0,1113.0,19.0,5.0
555560,County,2020/06/22,51.0,VA,51081.0,Greensville County,1033.0,10594.0,45512.0,7837.0,9249.0,7216.0,7515.0,5081.0,3592.0,3795.0,1204.0,14.0,9.0
557188,County,2020/06/23,51.0,VA,51081.0,Greensville County,1210.0,10417.0,48753.0,9391.0,10082.0,5731.0,9265.0,6279.0,3258.0,2988.0,1737.0,10.0,12.0
561955,County,2020/06/24,51.0,VA,51081.0,Greensville County,1204.0,10423.0,47480.0,9368.0,11303.0,4587.0,9109.0,4482.0,3990.0,2865.0,1736.0,18.0,22.0
563583,County,2020/06/25,51.0,VA,51081.0,Greensville County,1193.0,10434.0,46227.0,8272.0,9044.0,6651.0,6998.0,6365.0,4552.0,2709.0,1606.0,19.0,11.0
566835,County,2020/06/26,51.0,VA,51081.0,Greensville County,1243.0,10384.0,49615.0,7736.0,10106.0,8212.0,8600.0,6360.0,3284.0,3962.0,1319.0,11.0,25.0
571530,County,2020/06/27,51.0,VA,51081.0,Greensville County,1244.0,10383.0,47370.0,7933.0,11274.0,8454.0,8516.0,4631.0,3284.0,2234.0,1015.0,16.0,13.0
573151,County,2020/06/28,51.0,VA,51081.0,Greensville County,1368.0,10259.0,38189.0,8098.0,9326.0,4330.0,7539.0,4074.0,2074.0,1764.0,962.0,19.0,3.0
576310,County,2020/06/29,51.0,VA,51081.0,Greensville County,1375.0,10252.0,49067.0,11412.0,9488.0,6382.0,8988.0,6013.0,3701.0,2185.0,878.0,7.0,13.0
581123,County,2020/06/30,51.0,VA,51081.0,Greensville County,1195.0,10432.0,44731.0,7513.0,10836.0,7024.0,8453.0,4745.0,2258.0,2844.0,1028.0,18.0,12.0
584313,County,2020/07/01,51.0,VA,51081.0,Greensville County,1261.0,10366.0,43140.0,9546.0,9219.0,4708.0,7629.0,4386.0,3713.0,2535.0,1384.0,15.0,5.0
587507,County,2020/07/02,51.0,VA,51081.0,Greensville County,1359.0,10268.0,49066.0,8780.0,9599.0,7059.0,7428.0,6756.0,4832.0,2875.0,1705.0,20.0,12.0
590702,County,2020/07/03,51.0,VA,51081.0,Greensville County,1399.0,10228.0,49336.0,7692.0,10049.0,8166.0,8552.0,6324.0,3265.0,3940.0,1312.0,11.0,25.0
593888,County,2020/07/04,51.0,VA,51081.0,Greensville County,1660.0,9967.0,42206.0,6581.0,8597.0,6986.0,7316.0,5410.0,2794.0,3370.0,1122.0,9.0,21.0
595540,County,2020/07/05,51.0,VA,51081.0,Greensville County,1702.0,9925.0,33406.0,4975.0,6500.0,5388.0,8006.0,3878.0,1993.0,1803.0,844.0,12.0,7.0
600283,County,2020/07/06,51.0,VA,51081.0,Greensville County,1468.0,10159.0,42776.0,6989.0,8988.0,5796.0,8641.0,4699.0,4284.0,2644.0,717.0,15.0,3.0
602302,County,2020/07/07,51.0,VA,51081.0,Greensville County,1213.0,10414.0,44953.0,9334.0,9755.0,6776.0,7062.0,5193.0,3478.0,2143.0,1193.0,12.0,7.0
606671,County,2020/07/08,51.0,VA,51081.0,Greensville County,1426.0,10201.0,46943.0,7875.0,7959.0,7229.0,9089.0,4792.0,4660.0,3619.0,1700.0,10.0,10.0
608299,County,2020/07/09,51.0,VA,51081.0,Greensville County,1182.0,10445.0,49506.0,8576.0,11387.0,5816.0,9949.0,5164.0,4511.0,3032.0,1049.0,13.0,9.0
611498,County,2020/07/10,51.0,VA,51081.0,Greensville County,1384.0,10243.0,49739.0,9945.0,11235.0,7377.0,9390.0,5696.0,3015.0,2070.0,990.0,12.0,9.0
614708,County,2020/07/11,51.0,VA,51081.0,Greensville County,1415.0,10212.0,41286.0,7527.0,11773.0,4428.0,6835.0,4723.0,2791.0,1975.0,1216.0,10.0,8.0
619435,County,2020/07/12,51.0,VA,51081.0,Greensville County,1678.0,9949.0,39740.0,6722.0,10257.0,6688.0,6810.0,3308.0,2574.0,2452.0,915.0,11.0,3.0
622641,County,2020/07/13,51.0,VA,51081.0,Greensville County,1398.0,10229.0,45732.0,8322.0,10060.0,5936.0,9232.0,5187.0,3324.0,2321.0,1334.0,4.0,12.0
625834,County,2020/07/14,51.0,VA,51081.0,Greensville County,1409.0,10218.0,46330.0,7291.0,10831.0,6971.0,10579.0,3971.0,3386.0,2198.0,1086.0,9.0,8.0
629006,County,2020/07/15,51.0,VA,51081.0,Greensville County,1370.0,10257.0,47085.0,9094.0,9681.0,5804.0,9194.0,4792.0,4193.0,2732.0,1578.0,10.0,7.0
630632,County,2020/07/16,51.0,VA,51081.0,Greensville County,1491.0,10136.0,49035.0,11153.0,12229.0,8137.0,6853.0,5285.0,1957.0,2508.0,892.0,8.0,13.0
635369,County,2020/07/17,51.0,VA,51081.0,Greensville County,1137.0,10490.0,41917.0,8147.0,11127.0,5772.0,6835.0,3753.0,2491.0,2778.0,995.0,13.0,6.0
637046,County,2020/07/18,51.0,VA,51081.0,Greensville County,1469.0,10158.0,46184.0,7974.0,9051.0,7463.0,9855.0,5855.0,2307.0,2824.0,837.0,12.0,6.0
640200,County,2020/07/19,51.0,VA,51081.0,Greensville County,1609.0,10018.0,34627.0,3796.0,7770.0,6124.0,7034.0,4043.0,2599.0,1996.0,1230.0,15.0,20.0
645030,County,2020/07/20,51.0,VA,51081.0,Greensville County,1501.0,10126.0,46591.0,6510.0,10195.0,7961.0,8545.0,5669.0,3608.0,2875.0,1205.0,16.0,7.0
646611,County,2020/07/21,51.0,VA,51081.0,Greensville County,1452.0,10175.0,44269.0,9098.0,9548.0,6422.0,7581.0,4286.0,2458.0,3121.0,1724.0,16.0,15.0
649292,County,2020/07/22,51.0,VA,51081.0,Greensville County,1403.0,10224.0,42126.0,6499.0,7778.0,5818.0,8458.0,5054.0,3845.0,3596.0,1047.0,10.0,21.0
654582,County,2020/07/23,51.0,VA,51081.0,Greensville County,1461.0,10166.0,45382.0,6560.0,7813.0,7508.0,9830.0,4720.0,4257.0,3146.0,1533.0,13.0,2.0
657854,County,2020/07/24,51.0,VA,51081.0,Greensville County,1215.0,10412.0,47355.0,9164.0,9440.0,7403.0,6726.0,5440.0,4157.0,3340.0,1650.0,11.0,24.0
659397,County,2020/07/25,51.0,VA,51081.0,Greensville County,1483.0,10144.0,41801.0,7143.0,8794.0,4746.0,9618.0,5496.0,1822.0,2716.0,1431.0,8.0,27.0
664106,County,2020/07/26,51.0,VA,51081.0,Greensville County,1604.0,10023.0,48943.0,8004.0,12748.0,6862.0,10140.0,5729.0,2185.0,2079.0,1171.0,7.0,18.0
665891,County,2020/07/27,51.0,VA,51081.0,Greensville County,1388.0,10239.0,42643.0,6745.0,11849.0,6130.0,6693.0,4758.0,1875.0,3060.0,1512.0,9.0,12.0
669054,County,2020/07/28,51.0,VA,51081.0,Greensville County,1216.0,10411.0,46383.0,5107.0,9322.0,6356.0,11720.0,5219.0,3717.0,3314.0,1607.0,10.0,11.0
672260,County,2020/07/29,51.0,VA,51081.0,Greensville County,1369.0,10258.0,44330.0,5498.0,9245.0,6226.0,9985.0,5032.0,3639.0,3128.0,1553.0,9.0,15.0
675373,County,2020/07/30,51.0,VA,51081.0,Greensville County,1360.0,10267.0,45378.0,5674.0,7408.0,5549.0,11556.0,4965.0,4228.0,4027.0,1948.0,17.0,6.0
678573,County,2020/07/31,51.0,VA,51081.0,Greensville County,1328.0,10299.0,46221.0,5030.0,9643.0,8543.0,9671.0,4219.0,4470.0,3602.0,1019.0,9.0,15.0
683320,County,2020/08/01,51.0,VA,51081.0,Greensville County,1552.0,10075.0,42160.0,7437.0,9216.0,6361.0,9521.0,3959.0,3264.0,1347.0,1045.0,7.0,3.0
686513,County,2020/08/02,51.0,VA,51081.0,Greensville County,1542.0,10085.0,36341.0,5664.0,8169.0,4022.0,7371.0,4366.0,3183.0,2621.0,923.0,11.0,11.0
689716,County,2020/08/03,51.0,VA,51081.0,Greensville County,1271.0,10356.0,44630.0,6533.0,10293.0,5819.0,9071.0,4589.0,3982.0,3204.0,1124.0,8.0,7.0
691343,County,2020/08/04,51.0,VA,51081.0,Greensville County,1378.0,10249.0,38544.0,6715.0,8721.0,4514.0,7967.0,4356.0,2196.0,2157.0,1899.0,10.0,9.0
696102,County,2020/08/05,51.0,VA,51081.0,Greensville County,1532.0,10095.0,45087.0,8039.0,10121.0,5810.0,7968.0,5355.0,2678.0,3631.0,1466.0,11.0,8.0
697713,County,2020/08/06,51.0,VA,51081.0,Greensville County,1287.0,10340.0,42811.0,8126.0,9536.0,7286.0,6795.0,4163.0,3478.0,2187.0,1223.0,6.0,11.0
700925,County,2020/08/07,51.0,VA,51081.0,Greensville County,1299.0,10328.0,42000.0,7310.0,7784.0,5111.0,8212.0,6468.0,3044.0,3208.0,841.0,9.0,13.0
705685,County,2020/08/08,51.0,VA,51081.0,Greensville County,1399.0,10228.0,44305.0,7816.0,7862.0,5516.0,9435.0,6770.0,3473.0,2013.0,1407.0,11.0,2.0
708904,County,2020/08/09,51.0,VA,51081.0,Greensville County,1610.0,10017.0,38713.0,6754.0,8589.0,6759.0,6390.0,4652.0,2443.0,1662.0,1429.0,14.0,21.0
712073,County,2020/08/10,51.0,VA,51081.0,Greensville County,1262.0,10365.0,38020.0,5731.0,6161.0,6831.0,6577.0,5634.0,2691.0,2969.0,1400.0,16.0,10.0
715267,County,2020/08/11,51.0,VA,51081.0,Greensville County,1384.0,10243.0,40416.0,6331.0,7993.0,5324.0,7320.0,5524.0,3416.0,2748.0,1715.0,17.0,28.0
716798,County,2020/08/12,51.0,VA,51081.0,Greensville County,1322.0,10305.0,41796.0,6443.0,6853.0,7186.0,6364.0,5971.0,3351.0,3869.0,1730.0,17.0,12.0
721655,County,2020/08/13,51.0,VA,51081.0,Greensville County,1360.0,10267.0,43596.0,7505.0,7291.0,5565.0,7323.0,6816.0,4248.0,2859.0,1943.0,21.0,25.0
723282,County,2020/08/14,51.0,VA,51081.0,Greensville County,1216.0,10411.0,40851.0,5457.0,8754.0,5887.0,7560.0,4623.0,3825.0,2861.0,1850.0,16.0,18.0
728044,County,2020/08/15,51.0,VA,51081.0,Greensville County,1516.0,10111.0,33716.0,5997.0,6255.0,5832.0,6971.0,3377.0,2516.0,1735.0,980.0,18.0,35.0
731237,County,2020/08/16,51.0,VA,51081.0,Greensville County,1600.0,10027.0,39043.0,4822.0,7562.0,5199.0,8168.0,5935.0,3151.0,2614.0,1550.0,21.0,21.0
732866,County,2020/08/17,51.0,VA,51081.0,Greensville County,1473.0,10154.0,50172.0,8348.0,8207.0,7169.0,11117.0,5828.0,4340.0,3054.0,2077.0,13.0,19.0
736081,County,2020/08/18,51.0,VA,51081.0,Greensville County,1560.0,10067.0,49406.0,7771.0,10473.0,6853.0,10416.0,6001.0,3889.0,2724.0,1227.0,17.0,35.0
739238,County,2020/08/19,51.0,VA,51081.0,Greensville County,1400.0,10227.0,45228.0,7157.0,8051.0,5212.0,10438.0,5784.0,4162.0,2925.0,1455.0,14.0,30.0
744019,County,2020/08/20,51.0,VA,51081.0,Greensville County,1270.0,10357.0,47931.0,6334.0,11234.0,6243.0,8601.0,5922.0,3999.0,4588.0,975.0,13.0,22.0
747223,County,2020/08/21,51.0,VA,51081.0,Greensville County,1241.0,10386.0,49666.0,9965.0,8849.0,6942.0,9149.0,5676.0,4286.0,3460.0,1315.0,12.0,12.0
748852,County,2020/08/22,51.0,VA,51081.0,Greensville County,1221.0,10406.0,44189.0,6502.0,10611.0,6632.0,6208.0,7518.0,3187.0,2943.0,545.0,16.0,27.0
752046,County,2020/08/23,51.0,VA,51081.0,Greensville County,1621.0,10006.0,32291.0,3857.0,6555.0,4590.0,6599.0,3752.0,3696.0,2200.0,991.0,19.0,32.0
756789,County,2020/08/24,51.0,VA,51081.0,Greensville County,1648.0,9979.0,40891.0,6047.0,7997.0,7368.0,8529.0,3742.0,2211.0,3959.0,999.0,12.0,27.0
759981,County,2020/08/25,51.0,VA,51081.0,Greensville County,1471.0,10156.0,40869.0,7472.0,7050.0,4562.0,9094.0,5143.0,2629.0,3442.0,1438.0,14.0,25.0
761562,County,2020/08/26,51.0,VA,51081.0,Greensville County,1581.0,10046.0,38359.0,6470.0,6976.0,3356.0,9306.0,4485.0,2916.0,3281.0,1546.0,14.0,9.0
764769,County,2020/08/27,51.0,VA,51081.0,Greensville County,1576.0,10051.0,41294.0,6686.0,8992.0,4542.0,8170.0,4967.0,3454.0,2796.0,1658.0,11.0,18.0
769552,County,2020/08/28,51.0,VA,51081.0,Greensville County,1437.0,10190.0,39947.0,7332.0,8274.0,4985.0,7397.0,4399.0,2924.0,3790.0,825.0,13.0,8.0
771180,County,2020/08/29,51.0,VA,51081.0,Greensville County,1409.0,10218.0,35653.0,4194.0,7622.0,4501.0,8027.0,5071.0,2248.0,2616.0,1363.0,11.0,0.0
775953,County,2020/08/30,51.0,VA,51081.0,Greensville County,1708.0,9919.0,39648.0,6863.0,5460.0,4078.0,9000.0,6626.0,3601.0,2657.0,1321.0,14.0,28.0
777561,County,2020/08/31,51.0,VA,51081.0,Greensville County,1599.0,10028.0,36222.0,5051.0,6476.0,5800.0,5127.0,6217.0,3294.0,2976.0,1239.0,13.0,29.0
782341,County,2020/09/01,51.0,VA,51081.0,Greensville County,1486.0,10141.0,36917.0,5231.0,7925.0,4448.0,5707.0,4378.0,3881.0,3769.0,1547.0,13.0,18.0
785536,County,2020/09/02,51.0,VA,51081.0,Greensville County,1339.0,10288.0,38807.0,5453.0,7019.0,6263.0,6465.0,4626.0,4582.0,2111.0,2253.0,17.0,18.0
787096,County,2020/09/03,51.0,VA,51081.0,Greensville County,1230.0,10397.0,41921.0,5340.0,6926.0,5763.0,7285.0,7479.0,4215.0,3108.0,1766.0,11.0,28.0
791923,County,2020/09/04,51.0,VA,51081.0,Greensville County,1284.0,10343.0,50044.0,6758.0,9419.0,5667.0,10880.0,7567.0,5222.0,2939.0,1564.0,12.0,16.0
793434,County,2020/09/05,51.0,VA,51081.0,Greensville County,1504.0,10123.0,45292.0,5842.0,8941.0,6029.0,10031.0,6759.0,4125.0,2507.0,1040.0,4.0,14.0
796716,County,2020/09/06,51.0,VA,51081.0,Greensville County,1691.0,9936.0,38833.0,4928.0,5782.0,5838.0,9231.0,5269.0,3525.0,2909.0,1327.0,16.0,8.0
799933,County,2020/09/07,51.0,VA,51081.0,Greensville County,1915.0,9712.0,33705.0,5730.0,7776.0,5538.0,5600.0,3649.0,1960.0,2240.0,1180.0,19.0,13.0
804699,County,2020/09/08,51.0,VA,51081.0,Greensville County,1432.0,10195.0,41532.0,6577.0,6855.0,4752.0,6876.0,6082.0,4536.0,3749.0,2077.0,13.0,15.0
807893,County,2020/09/09,51.0,VA,51081.0,Greensville County,1348.0,10279.0,45762.0,5404.0,10215.0,6735.0,7315.0,6128.0,3951.0,4041.0,1942.0,14.0,17.0
809521,County,2020/09/10,51.0,VA,51081.0,Greensville County,1229.0,10398.0,40417.0,5937.0,7554.0,5667.0,6560.0,7082.0,2994.0,3239.0,1345.0,21.0,18.0
814281,County,2020/09/11,51.0,VA,51081.0,Greensville County,1334.0,10293.0,46188.0,6571.0,8370.0,8414.0,6808.0,6847.0,4046.0,3928.0,1186.0,12.0,6.0
817475,County,2020/09/12,51.0,VA,51081.0,Greensville County,1550.0,10077.0,43228.0,7170.0,7715.0,5062.0,7857.0,8634.0,3745.0,1961.0,1057.0,14.0,13.0
820660,County,2020/09/13,51.0,VA,51081.0,Greensville County,1801.0,9826.0,40685.0,4097.0,6216.0,7696.0,9698.0,4874.0,3621.0,3762.0,673.0,0.0,48.0
822289,County,2020/09/14,51.0,VA,51081.0,Greensville County,1629.0,9998.0,37265.0,5042.0,6697.0,4614.0,7630.0,5187.0,3065.0,3627.0,1363.0,15.0,25.0
827057,County,2020/09/15,51.0,VA,51081.0,Greensville County,1389.0,10238.0,38517.0,5374.0,7457.0,6188.0,7416.0,4686.0,2362.0,3335.0,1609.0,21.0,69.0
830251,County,2020/09/16,51.0,VA,51081.0,Greensville County,1512.0,10115.0,36507.0,5169.0,5730.0,6596.0,6301.0,4514.0,2299.0,4142.0,1714.0,9.0,33.0
831878,County,2020/09/17,51.0,VA,51081.0,Greensville County,1496.0,10131.0,36345.0,4115.0,5626.0,4475.0,6763.0,5114.0,3626.0,4681.0,1911.0,18.0,16.0
835058,County,2020/09/18,51.0,VA,51081.0,Greensville County,1363.0,10264.0,39415.0,4180.0,7859.0,4351.0,8863.0,4829.0,4053.0,4018.0,1215.0,14.0,33.0
839833,County,2020/09/19,51.0,VA,51081.0,Greensville County,1642.0,9985.0,42063.0,4957.0,6490.0,6659.0,12296.0,4713.0,3139.0,2700.0,1086.0,9.0,14.0
841462,County,2020/09/20,51.0,VA,51081.0,Greensville County,1756.0,9871.0,29830.0,2479.0,6494.0,3670.0,8803.0,3778.0,1302.0,1595.0,1681.0,19.0,9.0
844671,County,2020/09/21,51.0,VA,51081.0,Greensville County,1694.0,9933.0,35027.0,5100.0,6579.0,2981.0,9105.0,3530.0,3338.0,3179.0,1204.0,5.0,6.0
849415,County,2020/09/22,51.0,VA,51081.0,Greensville County,1483.0,10144.0,32307.0,4180.0,6497.0,3727.0,6904.0,4316.0,2715.0,2977.0,975.0,13.0,3.0
852606,County,2020/09/23,51.0,VA,51081.0,Greensville County,1569.0,10058.0,36116.0,3870.0,7197.0,4535.0,8895.0,4353.0,2450.0,3500.0,1291.0,19.0,6.0
854233,County,2020/09/24,51.0,VA,51081.0,Greensville County,1477.0,10150.0,34264.0,3811.0,6263.0,4113.0,8375.0,2910.0,3753.0,3648.0,1368.0,15.0,8.0
858997,County,2020/09/25,51.0,VA,51081.0,Greensville County,1378.0,10249.0,31445.0,4185.0,6842.0,4368.0,5718.0,3492.0,2633.0,2982.0,1205.0,13.0,7.0
862191,County,2020/09/26,51.0,VA,51081.0,Greensville County,1650.0,9977.0,34989.0,5055.0,8062.0,4545.0,8494.0,4257.0,1921.0,1917.0,723.0,12.0,3.0
863796,County,2020/09/27,51.0,VA,51081.0,Greensville County,1637.0,9990.0,33654.0,3228.0,6684.0,3939.0,9465.0,3725.0,3684.0,2139.0,761.0,14.0,15.0
867002,County,2020/09/28,51.0,VA,51081.0,Greensville County,1589.0,10038.0,35167.0,4445.0,8379.0,3210.0,7118.0,4749.0,2847.0,3254.0,1148.0,14.0,3.0
871773,County,2020/09/29,51.0,VA,51081.0,Greensville County,1404.0,10223.0,36467.0,4226.0,7125.0,5580.0,7411.0,4004.0,3652.0,3399.0,1050.0,11.0,9.0
873401,County,2020/09/30,51.0,VA,51081.0,Greensville County,1483.0,10144.0,32981.0,3990.0,7923.0,2569.0,7260.0,3998.0,2528.0,3767.0,930.0,8.0,8.0
878140,County,2020/10/01,51.0,VA,51081.0,Greensville County,1245.0,10382.0,40246.0,6665.0,8919.0,3066.0,9099.0,5072.0,3098.0,2950.0,1358.0,7.0,12.0
881355,County,2020/10/02,51.0,VA,51081.0,Greensville County,1347.0,10280.0,33863.0,4504.0,7897.0,4654.0,6792.0,4042.0,1681.0,2864.0,1415.0,9.0,5.0
882986,County,2020/10/03,51.0,VA,51081.0,Greensville County,1371.0,10256.0,35069.0,5159.0,8475.0,3702.0,6959.0,4452.0,3313.0,2320.0,677.0,5.0,7.0
887561,County,2020/10/04,51.0,VA,51081.0,Greensville County,1659.0,9968.0,34357.0,4336.0,7499.0,5739.0,7247.0,3615.0,2094.0,2944.0,863.0,15.0,5.0
890986,County,2020/10/05,51.0,VA,51081.0,Greensville County,1726.0,9901.0,39376.0,4556.0,7467.0,7053.0,7857.0,5571.0,2393.0,3563.0,903.0,12.0,1.0
893931,County,2020/10/06,51.0,VA,51081.0,Greensville County,1378.0,10249.0,65158.0,29103.0,10812.0,4441.0,7323.0,4891.0,3231.0,4140.0,1206.0,7.0,4.0
897134,County,2020/10/07,51.0,VA,51081.0,Greensville County,1476.0,10151.0,38765.0,4987.0,8477.0,4881.0,6994.0,5125.0,3229.0,3975.0,1082.0,11.0,4.0
900361,County,2020/10/08,51.0,VA,51081.0,Greensville County,1432.0,10195.0,33158.0,3377.0,7243.0,2243.0,8663.0,3853.0,2572.0,3897.0,1297.0,7.0,6.0
903580,County,2020/10/09,51.0,VA,51081.0,Greensville County,1344.0,10283.0,37641.0,4799.0,6880.0,3496.0,6421.0,6557.0,3218.0,4735.0,1518.0,6.0,11.0
906731,County,2020/10/10,51.0,VA,51081.0,Greensville County,1675.0,9952.0,37490.0,4851.0,7138.0,4494.0,9492.0,5559.0,3097.0,1666.0,1181.0,9.0,3.0
907429,County,2020/10/11,51.0,VA,51081.0,Greensville County,1690.0,9937.0,27163.0,3101.0,6607.0,2659.0,5670.0,3172.0,2218.0,2696.0,1016.0,12.0,12.0
910886,County,2020/10/12,51.0,VA,51081.0,Greensville County,1539.0,10088.0,32730.0,6093.0,6985.0,3160.0,5729.0,3238.0,3298.0,2857.0,1358.0,8.0,4.0
914035,County,2020/10/13,51.0,VA,51081.0,Greensville County,1468.0,10159.0,38951.0,4801.0,7965.0,3916.0,8322.0,5401.0,3008.0,4209.0,1317.0,7.0,5.0
916965,County,2020/10/14,51.0,VA,51081.0,Greensville County,1286.0,10341.0,34465.0,5091.0,6995.0,4890.0,4697.0,4379.0,3893.0,2910.0,1593.0,10.0,7.0
920234,County,2020/10/15,51.0,VA,51081.0,Greensville County,1417.0,10210.0,32796.0,3884.0,7409.0,4311.0,5372.0,3642.0,4001.0,3126.0,1035.0,12.0,4.0
923745,County,2020/10/16,51.0,VA,51081.0,Greensville County,1313.0,10314.0,37742.0,5437.0,6742.0,5420.0,7668.0,4394.0,2677.0,3944.0,1445.0,9.0,6.0
927382,County,2020/10/17,51.0,VA,51081.0,Greensville County,1710.0,9917.0,36981.0,4762.0,7910.0,5476.0,7031.0,5109.0,3234.0,2382.0,1062.0,8.0,7.0
929675,County,2020/10/18,51.0,VA,51081.0,Greensville County,1635.0,9992.0,38753.0,4703.0,10062.0,6586.0,7075.0,4638.0,2223.0,2426.0,1027.0,9.0,4.0
933277,County,2020/10/19,51.0,VA,51081.0,Greensville County,1497.0,10130.0,39014.0,7401.0,7843.0,5336.0,6046.0,5260.0,3152.0,2985.0,985.0,3.0,3.0
938509,County,2020/10/20,51.0,VA,51081.0,Greensville County,1483.0,10144.0,34348.0,5029.0,7902.0,4551.0,5303.0,4485.0,2195.0,3771.0,1105.0,5.0,2.0
939493,County,2020/10/21,51.0,VA,51081.0,Greensville County,1529.0,10098.0,33454.0,4081.0,5543.0,6040.0,5309.0,5258.0,3460.0,2670.0,1081.0,9.0,3.0
942374,County,2020/10/22,51.0,VA,51081.0,Greensville County,1401.0,10226.0,38241.0,6508.0,6841.0,5770.0,6438.0,4668.0,2897.0,4318.0,787.0,10.0,4.0
946134,County,2020/10/23,51.0,VA,51081.0,Greensville County,1381.0,10246.0,45565.0,6353.0,8127.0,8806.0,8963.0,4352.0,3650.0,3893.0,1415.0,3.0,3.0
949346,County,2020/10/24,51.0,VA,51081.0,Greensville County,1697.0,9930.0,40800.0,6229.0,6542.0,6807.0,10888.0,3609.0,2838.0,3053.0,828.0,5.0,1.0
