,Level,Date,State FIPS,State Postal Code,County FIPS,County Name,Population Staying at Home,Population Not Staying at Home,Number of Trips,Number of Trips <1,Number of Trips 1-3,Number of Trips 3-5,Number of Trips 5-10,Number of Trips 10-25,Number of Trips 25-50,Number of Trips 50-100,Number of Trips 100-250,Number of Trips 250-500,Number of Trips >=500
233,County,2020/01/01,6.0,CA,6095.0,Solano County,101521.0,345089.0,1292406.0,346731.0,384949.0,125891.0,139584.0,157944.0,91947.0,34718.0,7792.0,1676.0,1174.0
5615,County,2020/01/02,6.0,CA,6095.0,Solano County,82926.0,363684.0,1639016.0,449006.0,448044.0,155314.0,180929.0,227602.0,130974.0,36615.0,7262.0,2167.0,1103.0
8386,County,2020/01/03,6.0,CA,6095.0,Solano County,82566.0,364044.0,1644498.0,440330.0,460670.0,156090.0,181052.0,234834.0,123292.0,37292.0,7997.0,2078.0,863.0
12607,County,2020/01/04,6.0,CA,6095.0,Solano County,88988.0,357622.0,1561085.0,412458.0,463847.0,158050.0,176678.0,206158.0,97658.0,34936.0,8161.0,1870.0,1269.0
13009,County,2020/01/05,6.0,CA,6095.0,Solano County,96634.0,349976.0,1374586.0,365146.0,407712.0,144860.0,156034.0,165717.0,92107.0,29959.0,8993.0,2259.0,1799.0
16056,County,2020/01/06,6.0,CA,6095.0,Solano County,84245.0,362365.0,1635940.0,454028.0,450505.0,159289.0,180956.0,221137.0,127725.0,35441.0,4559.0,1435.0,865.0
20866,County,2020/01/07,6.0,CA,6095.0,Solano County,77519.0,369091.0,1662079.0,461393.0,452522.0,148088.0,186264.0,241651.0,133507.0,32764.0,4042.0,977.0,871.0
24110,County,2020/01/08,6.0,CA,6095.0,Solano County,77981.0,368629.0,1672406.0,466662.0,448947.0,151071.0,180291.0,245917.0,135407.0,37509.0,4563.0,1154.0,885.0
27241,County,2020/01/09,6.0,CA,6095.0,Solano County,78297.0,368313.0,1623033.0,442349.0,443739.0,150356.0,177456.0,235462.0,132696.0,34391.0,5045.0,911.0,628.0
30447,County,2020/01/10,6.0,CA,6095.0,Solano County,77410.0,369200.0,1730330.0,480608.0,474531.0,164979.0,187159.0,248203.0,131657.0,35391.0,5191.0,1684.0,927.0
33692,County,2020/01/11,6.0,CA,6095.0,Solano County,86748.0,359862.0,1545095.0,419792.0,443540.0,152379.0,177340.0,202427.0,104585.0,36269.0,6609.0,1315.0,839.0
36811,County,2020/01/12,6.0,CA,6095.0,Solano County,95690.0,350920.0,1437685.0,399694.0,425858.0,144335.0,155491.0,184349.0,90410.0,28136.0,6255.0,2080.0,1077.0
38474,County,2020/01/13,6.0,CA,6095.0,Solano County,80609.0,366001.0,1674956.0,495932.0,444595.0,154969.0,180015.0,230524.0,127694.0,34062.0,4991.0,1365.0,809.0
43208,County,2020/01/14,6.0,CA,6095.0,Solano County,77505.0,369105.0,1641708.0,436322.0,458430.0,153936.0,179229.0,242174.0,130433.0,34881.0,4566.0,1247.0,490.0
46413,County,2020/01/15,6.0,CA,6095.0,Solano County,77573.0,369037.0,1674255.0,461189.0,463132.0,142936.0,185448.0,248735.0,134897.0,31491.0,4291.0,1440.0,696.0
49571,County,2020/01/16,6.0,CA,6095.0,Solano County,80049.0,366561.0,1657771.0,460525.0,455873.0,155980.0,178858.0,235688.0,128632.0,35698.0,4230.0,1397.0,890.0
52857,County,2020/01/17,6.0,CA,6095.0,Solano County,75838.0,370772.0,1770935.0,487840.0,487578.0,167914.0,196203.0,254470.0,128943.0,38962.0,6619.0,1516.0,890.0
54429,County,2020/01/18,6.0,CA,6095.0,Solano County,84363.0,362247.0,1638455.0,444962.0,482686.0,158691.0,173346.0,214323.0,116980.0,36848.0,8126.0,1633.0,860.0
59175,County,2020/01/19,6.0,CA,6095.0,Solano County,96262.0,350348.0,1415629.0,395247.0,417469.0,140824.0,150618.0,178296.0,93017.0,29100.0,7877.0,2019.0,1162.0
60809,County,2020/01/20,6.0,CA,6095.0,Solano County,89246.0,357364.0,1503600.0,411670.0,427933.0,139450.0,163054.0,201313.0,114493.0,34801.0,7720.0,2175.0,991.0
65587,County,2020/01/21,6.0,CA,6095.0,Solano County,79496.0,367114.0,1623437.0,455328.0,433851.0,146972.0,178240.0,236746.0,129675.0,35554.0,4642.0,1488.0,941.0
68778,County,2020/01/22,6.0,CA,6095.0,Solano County,77662.0,368948.0,1692873.0,475446.0,470110.0,151355.0,182809.0,244416.0,127657.0,33751.0,5313.0,1327.0,689.0
71959,County,2020/01/23,6.0,CA,6095.0,Solano County,77354.0,369256.0,1698746.0,462382.0,467571.0,158120.0,187436.0,238546.0,139247.0,38354.0,4596.0,1496.0,998.0
75115,County,2020/01/24,6.0,CA,6095.0,Solano County,77462.0,369148.0,1763397.0,495570.0,481059.0,159481.0,195204.0,251026.0,135619.0,36913.0,6107.0,1590.0,828.0
78350,County,2020/01/25,6.0,CA,6095.0,Solano County,84330.0,362280.0,1595201.0,428937.0,471954.0,156341.0,176497.0,207887.0,107503.0,35401.0,8287.0,1353.0,1041.0
80083,County,2020/01/26,6.0,CA,6095.0,Solano County,94579.0,352031.0,1443230.0,384806.0,423575.0,143335.0,161805.0,193342.0,95314.0,29946.0,8063.0,2010.0,1034.0
84273,County,2020/01/27,6.0,CA,6095.0,Solano County,80148.0,366462.0,1665007.0,476067.0,448849.0,155192.0,180076.0,234991.0,128393.0,35641.0,3728.0,1128.0,942.0
88470,County,2020/01/28,6.0,CA,6095.0,Solano County,77130.0,369480.0,1688681.0,472261.0,452997.0,154164.0,184861.0,246884.0,134924.0,36176.0,4350.0,1078.0,986.0
89542,County,2020/01/29,6.0,CA,6095.0,Solano County,77262.0,369348.0,1716274.0,483091.0,462703.0,154398.0,189444.0,248381.0,136806.0,35416.0,4332.0,861.0,842.0
92798,County,2020/01/30,6.0,CA,6095.0,Solano County,76962.0,369648.0,1672993.0,461340.0,449110.0,153927.0,182210.0,240748.0,138887.0,37677.0,5197.0,1961.0,1936.0
95950,County,2020/01/31,6.0,CA,6095.0,Solano County,75332.0,371278.0,1766573.0,494514.0,469951.0,166268.0,196537.0,244857.0,139735.0,43835.0,7086.0,1736.0,2054.0
100709,County,2020/02/01,6.0,CA,6095.0,Solano County,83743.0,362867.0,1661715.0,460923.0,481519.0,159607.0,170303.0,218875.0,115386.0,43907.0,6703.0,2714.0,1778.0
103861,County,2020/02/02,6.0,CA,6095.0,Solano County,95079.0,351531.0,1400652.0,374428.0,417479.0,134961.0,147837.0,172187.0,104279.0,37591.0,7648.0,2199.0,2043.0
107113,County,2020/02/03,6.0,CA,6095.0,Solano County,79137.0,367473.0,1641438.0,461455.0,444325.0,142135.0,173934.0,233027.0,134380.0,41460.0,7171.0,1573.0,1978.0
108730,County,2020/02/04,6.0,CA,6095.0,Solano County,76776.0,369834.0,1614032.0,428486.0,428043.0,149505.0,174815.0,236834.0,143257.0,44101.0,5272.0,1343.0,2376.0
113454,County,2020/02/05,6.0,CA,6095.0,Solano County,76890.0,369720.0,1657505.0,462861.0,445298.0,153052.0,177057.0,228602.0,136901.0,44559.0,5555.0,1829.0,1791.0
115020,County,2020/02/06,6.0,CA,6095.0,Solano County,78672.0,367938.0,1678640.0,474830.0,443920.0,152059.0,182242.0,236182.0,140098.0,40212.0,5519.0,1449.0,2129.0
119914,County,2020/02/07,6.0,CA,6095.0,Solano County,77055.0,369555.0,1724232.0,484097.0,467804.0,157756.0,183355.0,239421.0,137225.0,44463.0,6847.0,1634.0,1630.0
121484,County,2020/02/08,6.0,CA,6095.0,Solano County,86610.0,360000.0,1565998.0,421294.0,449822.0,149684.0,170228.0,204905.0,116675.0,43722.0,6706.0,1551.0,1411.0
127281,County,2020/02/09,6.0,CA,6095.0,Solano County,107682.0,338928.0,1333403.0,348977.0,387349.0,143269.0,145254.0,159500.0,99195.0,37743.0,7326.0,2444.0,2346.0
128542,County,2020/02/10,6.0,CA,6095.0,Solano County,80475.0,366135.0,1676369.0,450412.0,441847.0,160222.0,190181.0,230557.0,145597.0,46517.0,5859.0,2408.0,2769.0
131189,County,2020/02/11,6.0,CA,6095.0,Solano County,74649.0,371961.0,1704288.0,463841.0,450708.0,167947.0,176699.0,236263.0,150479.0,48654.0,5317.0,1701.0,2679.0
135771,County,2020/02/12,6.0,CA,6095.0,Solano County,77755.0,368855.0,1733145.0,463691.0,447338.0,179567.0,188038.0,244762.0,148796.0,48759.0,6319.0,2462.0,3413.0
137466,County,2020/02/13,6.0,CA,6095.0,Solano County,79085.0,367525.0,1753360.0,482742.0,453340.0,181063.0,185953.0,237914.0,149381.0,49642.0,6824.0,2578.0,3923.0
140574,County,2020/02/14,6.0,CA,6095.0,Solano County,73670.0,372940.0,1830819.0,474128.0,489212.0,202834.0,194993.0,246645.0,157346.0,51523.0,8127.0,2646.0,3365.0
145452,County,2020/02/15,6.0,CA,6095.0,Solano County,86233.0,360377.0,1717175.0,447055.0,468881.0,195556.0,184568.0,218599.0,139294.0,47656.0,10022.0,2315.0,3229.0
148604,County,2020/02/16,6.0,CA,6095.0,Solano County,93438.0,353172.0,1555393.0,408546.0,430293.0,171933.0,169177.0,189747.0,125867.0,44983.0,9331.0,2433.0,3083.0
150232,County,2020/02/17,6.0,CA,6095.0,Solano County,114930.0,331680.0,1377326.0,376299.0,380041.0,148951.0,141029.0,168802.0,108448.0,38863.0,9243.0,2673.0,2977.0
154963,County,2020/02/18,6.0,CA,6095.0,Solano County,79219.0,367391.0,1761666.0,487799.0,451243.0,168276.0,196146.0,248624.0,150298.0,46828.0,6660.0,2458.0,3334.0
156642,County,2020/02/19,6.0,CA,6095.0,Solano County,74039.0,372571.0,1840555.0,519713.0,479517.0,169785.0,199742.0,260311.0,152713.0,46914.0,6900.0,1871.0,3089.0
159799,County,2020/02/20,6.0,CA,6095.0,Solano County,78139.0,368471.0,1779926.0,496174.0,456677.0,164874.0,201795.0,251102.0,150719.0,46926.0,6937.0,2063.0,2659.0
164548,County,2020/02/21,6.0,CA,6095.0,Solano County,75285.0,371325.0,1854969.0,512164.0,488821.0,171651.0,201224.0,251954.0,157373.0,56923.0,9027.0,2554.0,3278.0
167692,County,2020/02/22,6.0,CA,6095.0,Solano County,74903.0,371707.0,1772661.0,493548.0,496465.0,163551.0,191832.0,220372.0,138695.0,53769.0,9471.0,1957.0,3001.0
169401,County,2020/02/23,6.0,CA,6095.0,Solano County,96297.0,350313.0,1586952.0,418307.0,470121.0,160392.0,174338.0,202418.0,110867.0,37696.0,9190.0,2002.0,1621.0
174184,County,2020/02/24,6.0,CA,6095.0,Solano County,82819.0,363791.0,1741765.0,479188.0,470343.0,167724.0,195445.0,239224.0,139071.0,39747.0,6684.0,1890.0,2449.0
175804,County,2020/02/25,6.0,CA,6095.0,Solano County,76826.0,369784.0,1667589.0,468747.0,434265.0,152776.0,197253.0,233742.0,133860.0,36900.0,6331.0,1584.0,2131.0
179097,County,2020/02/26,6.0,CA,6095.0,Solano County,63560.0,383050.0,1957376.0,516739.0,563323.0,189322.0,229318.0,280568.0,142956.0,29691.0,3727.0,733.0,999.0
183264,County,2020/02/27,6.0,CA,6095.0,Solano County,76670.0,369940.0,1860980.0,539165.0,494992.0,166103.0,204898.0,265372.0,143893.0,38415.0,4906.0,1190.0,2046.0
185431,County,2020/02/28,6.0,CA,6095.0,Solano County,73623.0,372987.0,1925811.0,534726.0,536145.0,176923.0,218482.0,272860.0,138409.0,37140.0,6927.0,2028.0,2171.0
190101,County,2020/02/29,6.0,CA,6095.0,Solano County,82931.0,363679.0,1751055.0,463116.0,502021.0,163364.0,200825.0,240386.0,131108.0,39746.0,6793.0,2019.0,1677.0
193317,County,2020/03/01,6.0,CA,6095.0,Solano County,89669.0,356941.0,1519403.0,414702.0,450484.0,151141.0,164801.0,194810.0,98836.0,33632.0,7242.0,2422.0,1333.0
194946,County,2020/03/02,6.0,CA,6095.0,Solano County,80032.0,366578.0,1601568.0,457374.0,434236.0,147484.0,168816.0,228888.0,123946.0,32037.0,5188.0,1803.0,1796.0
199632,County,2020/03/03,6.0,CA,6095.0,Solano County,73532.0,373078.0,1649534.0,495532.0,428861.0,145104.0,167313.0,227419.0,135043.0,41981.0,5443.0,1709.0,1129.0
202887,County,2020/03/04,6.0,CA,6095.0,Solano County,75225.0,371385.0,1603660.0,473767.0,404708.0,129980.0,170749.0,232211.0,140930.0,42854.0,5208.0,1618.0,1635.0
206139,County,2020/03/05,6.0,CA,6095.0,Solano County,71939.0,374671.0,1609237.0,462841.0,403613.0,137290.0,174898.0,239856.0,136067.0,44619.0,6586.0,1936.0,1531.0
207669,County,2020/03/06,6.0,CA,6095.0,Solano County,72621.0,373989.0,1640581.0,470162.0,422847.0,143503.0,183735.0,230509.0,140213.0,40790.0,6471.0,962.0,1389.0
210920,County,2020/03/07,6.0,CA,6095.0,Solano County,84162.0,362448.0,1606504.0,458192.0,448024.0,137006.0,174664.0,225397.0,113525.0,38515.0,6948.0,2037.0,2196.0
215695,County,2020/03/08,6.0,CA,6095.0,Solano County,94557.0,352053.0,1391668.0,385901.0,383560.0,140131.0,153072.0,183392.0,96968.0,37196.0,6846.0,2544.0,2058.0
218894,County,2020/03/09,6.0,CA,6095.0,Solano County,76826.0,369784.0,1599918.0,462023.0,408296.0,140582.0,171322.0,233765.0,133231.0,42054.0,5811.0,1750.0,1084.0
220522,County,2020/03/10,6.0,CA,6095.0,Solano County,79133.0,367477.0,1596734.0,469255.0,409736.0,137485.0,168509.0,226873.0,135140.0,40240.0,6609.0,1486.0,1401.0
225316,County,2020/03/11,6.0,CA,6095.0,Solano County,73229.0,373381.0,1905630.0,541146.0,464159.0,170533.0,220615.0,273203.0,167055.0,56004.0,6933.0,2847.0,3135.0
226895,County,2020/03/12,6.0,CA,6095.0,Solano County,76612.0,369998.0,1829645.0,495778.0,488451.0,159640.0,209145.0,247574.0,158367.0,57783.0,7629.0,2212.0,3066.0
231677,County,2020/03/13,6.0,CA,6095.0,Solano County,74158.0,372452.0,1941605.0,548921.0,514580.0,170585.0,218580.0,265010.0,150206.0,56571.0,11156.0,2854.0,3142.0
234732,County,2020/03/14,6.0,CA,6095.0,Solano County,95756.0,350854.0,1704947.0,476768.0,496592.0,136341.0,176114.0,239517.0,116622.0,45535.0,10428.0,2524.0,4506.0
238008,County,2020/03/15,6.0,CA,6095.0,Solano County,118471.0,328139.0,1292925.0,377975.0,387505.0,125166.0,133979.0,154278.0,74416.0,27814.0,7991.0,1605.0,2196.0
241251,County,2020/03/16,6.0,CA,6095.0,Solano County,98565.0,348045.0,1465716.0,415299.0,396615.0,119006.0,166915.0,199268.0,117931.0,41957.0,5097.0,1956.0,1672.0
242867,County,2020/03/17,6.0,CA,6095.0,Solano County,111063.0,335547.0,1328295.0,387029.0,351451.0,115412.0,141603.0,186091.0,103352.0,34225.0,5928.0,1788.0,1416.0
246072,County,2020/03/18,6.0,CA,6095.0,Solano County,121655.0,324955.0,1200272.0,330724.0,303673.0,107741.0,136893.0,173844.0,99038.0,38487.0,5832.0,2242.0,1798.0
250854,County,2020/03/19,6.0,CA,6095.0,Solano County,123910.0,322700.0,1186841.0,330783.0,317669.0,104340.0,132790.0,160672.0,94623.0,35563.0,6469.0,2511.0,1421.0
254028,County,2020/03/20,6.0,CA,6095.0,Solano County,122002.0,324608.0,1206743.0,347836.0,336559.0,99191.0,131896.0,154301.0,91739.0,35408.0,6254.0,1743.0,1816.0
257171,County,2020/03/21,6.0,CA,6095.0,Solano County,136666.0,309944.0,1113728.0,334640.0,320973.0,106519.0,122045.0,120222.0,65271.0,31122.0,8539.0,2733.0,1664.0
260408,County,2020/03/22,6.0,CA,6095.0,Solano County,131134.0,315476.0,920094.0,272950.0,275617.0,82512.0,94839.0,101892.0,58329.0,24148.0,6068.0,2393.0,1346.0
262046,County,2020/03/23,6.0,CA,6095.0,Solano County,120657.0,325953.0,1002110.0,288572.0,248584.0,82697.0,107761.0,148712.0,84342.0,33942.0,5085.0,1443.0,972.0
266800,County,2020/03/24,6.0,CA,6095.0,Solano County,120963.0,325647.0,967971.0,262475.0,257705.0,76771.0,112934.0,138928.0,82865.0,28728.0,4908.0,1645.0,1012.0
268432,County,2020/03/25,6.0,CA,6095.0,Solano County,121756.0,324854.0,1008268.0,302136.0,256052.0,82676.0,111547.0,131525.0,86515.0,29618.0,5784.0,1384.0,1031.0
273171,County,2020/03/26,6.0,CA,6095.0,Solano County,120368.0,326242.0,1008373.0,274689.0,277523.0,88095.0,107725.0,141122.0,80873.0,32414.0,3764.0,1220.0,948.0
274811,County,2020/03/27,6.0,CA,6095.0,Solano County,119438.0,327172.0,1022794.0,309927.0,257752.0,83394.0,108222.0,139633.0,85838.0,29776.0,5308.0,2113.0,831.0
279573,County,2020/03/28,6.0,CA,6095.0,Solano County,134574.0,312036.0,952154.0,277375.0,271531.0,89939.0,102456.0,120262.0,55006.0,25273.0,6203.0,2394.0,1715.0
282725,County,2020/03/29,6.0,CA,6095.0,Solano County,140195.0,306415.0,835084.0,248006.0,246895.0,83178.0,83171.0,89228.0,51477.0,24394.0,5033.0,2224.0,1478.0
284352,County,2020/03/30,6.0,CA,6095.0,Solano County,119309.0,327301.0,983452.0,273400.0,254396.0,88043.0,114310.0,134240.0,82953.0,28915.0,4300.0,1945.0,950.0
287548,County,2020/03/31,6.0,CA,6095.0,Solano County,123047.0,323563.0,965624.0,260960.0,258131.0,79525.0,114485.0,132206.0,84713.0,27662.0,5196.0,1485.0,1261.0
292355,County,2020/04/01,6.0,CA,6095.0,Solano County,119268.0,327342.0,1064597.0,317682.0,278332.0,85881.0,114420.0,139017.0,89513.0,32597.0,5337.0,882.0,936.0
293984,County,2020/04/02,6.0,CA,6095.0,Solano County,118330.0,328280.0,1019289.0,295875.0,274395.0,87392.0,109696.0,128764.0,86166.0,29979.0,4749.0,1152.0,1121.0
298743,County,2020/04/03,6.0,CA,6095.0,Solano County,116147.0,330463.0,1033548.0,275211.0,290987.0,85660.0,120983.0,140336.0,85906.0,27782.0,4483.0,1063.0,1137.0
301923,County,2020/04/04,6.0,CA,6095.0,Solano County,133867.0,312743.0,919929.0,244315.0,292547.0,85008.0,106848.0,106587.0,56369.0,21209.0,4153.0,1216.0,1677.0
303551,County,2020/04/05,6.0,CA,6095.0,Solano County,143744.0,302866.0,810435.0,239341.0,247523.0,76455.0,83467.0,92149.0,43536.0,20486.0,3404.0,2310.0,1764.0
306761,County,2020/04/06,6.0,CA,6095.0,Solano County,125971.0,320639.0,992427.0,254149.0,284562.0,95178.0,113126.0,146448.0,71292.0,21389.0,4676.0,869.0,738.0
309954,County,2020/04/07,6.0,CA,6095.0,Solano County,119525.0,327085.0,1062655.0,293916.0,279826.0,93299.0,114491.0,160822.0,88625.0,23947.0,6403.0,765.0,561.0
314689,County,2020/04/08,6.0,CA,6095.0,Solano County,121639.0,324971.0,1039746.0,296506.0,280557.0,85118.0,124178.0,141865.0,80512.0,24154.0,4872.0,1293.0,691.0
316316,County,2020/04/09,6.0,CA,6095.0,Solano County,121720.0,324890.0,1057243.0,287715.0,265588.0,91838.0,130334.0,159823.0,90739.0,25386.0,4242.0,876.0,702.0
319543,County,2020/04/10,6.0,CA,6095.0,Solano County,115992.0,330618.0,1082079.0,302219.0,300111.0,95349.0,113857.0,156167.0,77001.0,30553.0,4738.0,1174.0,910.0
324338,County,2020/04/11,6.0,CA,6095.0,Solano County,126986.0,319624.0,1037697.0,283941.0,313732.0,99828.0,121041.0,129198.0,63822.0,19654.0,4536.0,1445.0,500.0
325922,County,2020/04/12,6.0,CA,6095.0,Solano County,147288.0,299322.0,810804.0,246833.0,254959.0,70590.0,79490.0,91659.0,44587.0,15335.0,4347.0,2006.0,998.0
330684,County,2020/04/13,6.0,CA,6095.0,Solano County,122900.0,323710.0,1018338.0,283923.0,272762.0,95883.0,111739.0,150872.0,72010.0,23709.0,5372.0,1775.0,293.0
332262,County,2020/04/14,6.0,CA,6095.0,Solano County,125397.0,321213.0,1027458.0,295786.0,279119.0,66045.0,102787.0,157989.0,85842.0,29320.0,6807.0,2130.0,1633.0
335488,County,2020/04/15,6.0,CA,6095.0,Solano County,121707.0,324903.0,1053972.0,297242.0,281981.0,74792.0,119557.0,160217.0,82632.0,28002.0,5902.0,2065.0,1582.0
338690,County,2020/04/16,6.0,CA,6095.0,Solano County,127678.0,318932.0,949242.0,229307.0,278801.0,71345.0,100975.0,152231.0,83133.0,26135.0,5067.0,1614.0,634.0
341942,County,2020/04/17,6.0,CA,6095.0,Solano County,117973.0,328637.0,1020377.0,290316.0,273368.0,78506.0,94638.0,140903.0,108603.0,23191.0,7225.0,2301.0,1326.0
346618,County,2020/04/18,6.0,CA,6095.0,Solano County,129802.0,316808.0,1068512.0,288962.0,335009.0,99400.0,124082.0,123839.0,69538.0,17378.0,5775.0,3372.0,1157.0
349799,County,2020/04/19,6.0,CA,6095.0,Solano County,133295.0,313315.0,888910.0,254182.0,278056.0,84465.0,102233.0,99897.0,46030.0,14059.0,6290.0,1335.0,2363.0
353048,County,2020/04/20,6.0,CA,6095.0,Solano County,112945.0,333665.0,1034088.0,236442.0,288151.0,106910.0,110451.0,160975.0,91594.0,30753.0,4716.0,1753.0,2343.0
356234,County,2020/04/21,6.0,CA,6095.0,Solano County,116973.0,329637.0,1089987.0,301170.0,285784.0,102669.0,124477.0,150499.0,86073.0,31488.0,5589.0,1237.0,1001.0
357864,County,2020/04/22,6.0,CA,6095.0,Solano County,116960.0,329650.0,1084858.0,285854.0,290798.0,96607.0,123025.0,170667.0,80425.0,27384.0,7665.0,1537.0,896.0
362595,County,2020/04/23,6.0,CA,6095.0,Solano County,113859.0,332751.0,1093470.0,279214.0,291687.0,100140.0,137368.0,159286.0,83347.0,32665.0,6755.0,1905.0,1103.0
364222,County,2020/04/24,6.0,CA,6095.0,Solano County,114496.0,332114.0,1121046.0,288758.0,307464.0,103870.0,127976.0,171294.0,83463.0,30532.0,5599.0,1529.0,561.0
367389,County,2020/04/25,6.0,CA,6095.0,Solano County,122646.0,323964.0,1063755.0,291462.0,316423.0,102756.0,126821.0,135657.0,63985.0,18291.0,5418.0,2062.0,880.0
372158,County,2020/04/26,6.0,CA,6095.0,Solano County,131305.0,315305.0,956634.0,252713.0,302282.0,93386.0,102720.0,127884.0,52810.0,18419.0,4351.0,1227.0,842.0
375437,County,2020/04/27,6.0,CA,6095.0,Solano County,115166.0,331444.0,1095465.0,279382.0,285736.0,104075.0,128345.0,173557.0,86678.0,29733.0,5736.0,1566.0,657.0
378561,County,2020/04/28,6.0,CA,6095.0,Solano County,114145.0,332465.0,1101042.0,286302.0,295198.0,100378.0,131687.0,165938.0,84509.0,29089.0,5137.0,1822.0,982.0
381764,County,2020/04/29,6.0,CA,6095.0,Solano County,115374.0,331236.0,1127151.0,309051.0,300769.0,99754.0,130424.0,168705.0,87569.0,25112.0,4267.0,793.0,707.0
383383,County,2020/04/30,6.0,CA,6095.0,Solano County,113487.0,333123.0,1130666.0,300564.0,307022.0,99573.0,138751.0,163121.0,88407.0,27897.0,3512.0,957.0,862.0
386608,County,2020/05/01,6.0,CA,6095.0,Solano County,108486.0,338124.0,1160993.0,316987.0,329492.0,100465.0,135251.0,157542.0,86518.0,26660.0,5929.0,1247.0,902.0
389791,County,2020/05/02,6.0,CA,6095.0,Solano County,118529.0,328081.0,1084552.0,293981.0,333643.0,103239.0,114449.0,144402.0,63650.0,22024.0,6270.0,1997.0,897.0
394564,County,2020/05/03,6.0,CA,6095.0,Solano County,129221.0,317389.0,961034.0,253924.0,306655.0,97625.0,107397.0,114938.0,54129.0,17712.0,5538.0,2117.0,999.0
396165,County,2020/05/04,6.0,CA,6095.0,Solano County,111978.0,334632.0,1126775.0,299291.0,287642.0,108854.0,131268.0,166399.0,98550.0,26569.0,6356.0,1117.0,729.0
400933,County,2020/05/05,6.0,CA,6095.0,Solano County,113790.0,332820.0,1117500.0,270295.0,299001.0,115909.0,124298.0,173647.0,99850.0,28129.0,4560.0,932.0,879.0
404139,County,2020/05/06,6.0,CA,6095.0,Solano County,113360.0,333250.0,1085993.0,287165.0,288440.0,91182.0,126710.0,169599.0,87353.0,27843.0,5699.0,748.0,1254.0
407282,County,2020/05/07,6.0,CA,6095.0,Solano County,113282.0,333328.0,1124681.0,309959.0,285277.0,93670.0,125475.0,175645.0,95247.0,30292.0,5120.0,1781.0,2215.0
409023,County,2020/05/08,6.0,CA,6095.0,Solano County,113450.0,333160.0,1153541.0,308630.0,308596.0,105111.0,129559.0,175005.0,92048.0,25654.0,6712.0,1400.0,826.0
412076,County,2020/05/09,6.0,CA,6095.0,Solano County,120421.0,326189.0,1104365.0,278826.0,334159.0,117336.0,127706.0,145690.0,69409.0,23118.0,5762.0,1237.0,1122.0
416873,County,2020/05/10,6.0,CA,6095.0,Solano County,125064.0,321546.0,975768.0,247322.0,302581.0,106555.0,110869.0,120700.0,59979.0,18935.0,5934.0,1538.0,1355.0
420152,County,2020/05/11,6.0,CA,6095.0,Solano County,106004.0,340606.0,1127086.0,297041.0,302634.0,98135.0,124657.0,168793.0,97123.0,30706.0,5634.0,1512.0,851.0
421733,County,2020/05/12,6.0,CA,6095.0,Solano County,104895.0,341715.0,1129258.0,309528.0,293388.0,90973.0,118038.0,175540.0,102537.0,30877.0,5795.0,2067.0,515.0
426405,County,2020/05/13,6.0,CA,6095.0,Solano County,106443.0,340167.0,1100231.0,297840.0,282642.0,91810.0,117399.0,173274.0,100490.0,26239.0,6462.0,2546.0,1529.0
428132,County,2020/05/14,6.0,CA,6095.0,Solano County,103450.0,343160.0,1107214.0,303709.0,273822.0,94220.0,119088.0,172195.0,99456.0,33664.0,7428.0,2197.0,1435.0
432872,County,2020/05/15,6.0,CA,6095.0,Solano County,102659.0,343951.0,1122999.0,294422.0,295853.0,97152.0,123570.0,170072.0,97451.0,34942.0,6275.0,1910.0,1352.0
436076,County,2020/05/16,6.0,CA,6095.0,Solano County,113927.0,332683.0,1117599.0,299762.0,323489.0,109510.0,120697.0,154862.0,77781.0,22572.0,7010.0,1150.0,766.0
437702,County,2020/05/17,6.0,CA,6095.0,Solano County,114410.0,332200.0,1109660.0,316325.0,327125.0,104519.0,120095.0,147830.0,64501.0,19359.0,7720.0,1434.0,752.0
440948,County,2020/05/18,6.0,CA,6095.0,Solano County,87496.0,359114.0,1240154.0,329443.0,317048.0,118348.0,139876.0,188346.0,107146.0,33180.0,5082.0,1145.0,540.0
445637,County,2020/05/19,6.0,CA,6095.0,Solano County,89314.0,357296.0,1276559.0,343710.0,312609.0,109150.0,145003.0,200741.0,120312.0,36845.0,6503.0,1297.0,389.0
447269,County,2020/05/20,6.0,CA,6095.0,Solano County,85485.0,361125.0,1260304.0,330951.0,322647.0,105692.0,144987.0,197617.0,110823.0,37368.0,7916.0,1269.0,1034.0
451703,County,2020/05/21,6.0,CA,6095.0,Solano County,82180.0,364430.0,1285692.0,363305.0,309563.0,103973.0,154458.0,202442.0,105586.0,36093.0,7383.0,1568.0,1321.0
453676,County,2020/05/22,6.0,CA,6095.0,Solano County,80468.0,366142.0,1347683.0,377436.0,331723.0,129492.0,140377.0,203687.0,108350.0,43681.0,8811.0,1665.0,2461.0
456872,County,2020/05/23,6.0,CA,6095.0,Solano County,92832.0,353778.0,1257977.0,330963.0,357672.0,132172.0,127283.0,165472.0,97688.0,34818.0,7905.0,1736.0,2268.0
460039,County,2020/05/24,6.0,CA,6095.0,Solano County,119557.0,327053.0,1005735.0,263917.0,290044.0,101184.0,109514.0,126220.0,77536.0,26795.0,7804.0,1384.0,1337.0
463243,County,2020/05/25,6.0,CA,6095.0,Solano County,116292.0,330318.0,998587.0,273975.0,296060.0,90303.0,103768.0,116424.0,79167.0,28581.0,7668.0,1716.0,925.0
468073,County,2020/05/26,6.0,CA,6095.0,Solano County,102475.0,344135.0,1095108.0,289752.0,290638.0,92355.0,118199.0,158197.0,104122.0,33157.0,5591.0,1926.0,1171.0
469652,County,2020/05/27,6.0,CA,6095.0,Solano County,102595.0,344015.0,1116887.0,285991.0,308055.0,98990.0,119327.0,163088.0,103115.0,31586.0,4118.0,1712.0,905.0
472849,County,2020/05/28,6.0,CA,6095.0,Solano County,102862.0,343748.0,1084470.0,292523.0,285877.0,94592.0,112520.0,159221.0,98600.0,33546.0,5462.0,1613.0,516.0
477554,County,2020/05/29,6.0,CA,6095.0,Solano County,109707.0,336903.0,1081016.0,276797.0,292342.0,94215.0,114685.0,169836.0,91848.0,33114.0,6025.0,1709.0,445.0
479180,County,2020/05/30,6.0,CA,6095.0,Solano County,115631.0,330979.0,1042982.0,269537.0,284027.0,105123.0,117384.0,143952.0,82620.0,31939.0,5864.0,1929.0,607.0
482356,County,2020/05/31,6.0,CA,6095.0,Solano County,128148.0,318462.0,898417.0,224846.0,275225.0,87667.0,93641.0,112020.0,69757.0,27365.0,5375.0,1965.0,556.0
485575,County,2020/06/01,6.0,CA,6095.0,Solano County,117285.0,329325.0,974469.0,251760.0,261659.0,85570.0,104890.0,141189.0,91461.0,32546.0,4106.0,845.0,443.0
488816,County,2020/06/02,6.0,CA,6095.0,Solano County,119578.0,327032.0,969643.0,253701.0,253888.0,80830.0,98907.0,147811.0,94631.0,32563.0,5398.0,1127.0,787.0
493578,County,2020/06/03,6.0,CA,6095.0,Solano County,110633.0,335977.0,1102637.0,308927.0,277982.0,100855.0,116737.0,153807.0,99862.0,36178.0,5238.0,1761.0,1290.0
496759,County,2020/06/04,6.0,CA,6095.0,Solano County,109610.0,337000.0,1058769.0,277028.0,265443.0,90960.0,120326.0,153358.0,107278.0,36230.0,5320.0,1952.0,874.0
498400,County,2020/06/05,6.0,CA,6095.0,Solano County,109134.0,337476.0,1086788.0,278567.0,274051.0,95732.0,115340.0,165791.0,108563.0,39167.0,7065.0,1464.0,1048.0
503125,County,2020/06/06,6.0,CA,6095.0,Solano County,114518.0,332092.0,998064.0,247071.0,293372.0,98117.0,111260.0,128916.0,80033.0,32303.0,5247.0,1114.0,631.0
506273,County,2020/06/07,6.0,CA,6095.0,Solano County,105493.0,341117.0,1154665.0,285552.0,353657.0,117993.0,126227.0,150872.0,76425.0,33109.0,7920.0,1836.0,1074.0
507961,County,2020/06/08,6.0,CA,6095.0,Solano County,98838.0,347772.0,1191508.0,315417.0,314631.0,104258.0,133284.0,177129.0,102997.0,36760.0,4972.0,1188.0,872.0
511163,County,2020/06/09,6.0,CA,6095.0,Solano County,108984.0,337626.0,1046134.0,262812.0,258453.0,95055.0,117059.0,167774.0,102580.0,33345.0,6179.0,1806.0,1071.0
515945,County,2020/06/10,6.0,CA,6095.0,Solano County,108068.0,338542.0,1086101.0,285833.0,275266.0,90234.0,120024.0,164721.0,104359.0,38136.0,5060.0,1799.0,669.0
519102,County,2020/06/11,6.0,CA,6095.0,Solano County,103627.0,342983.0,1057254.0,270760.0,266139.0,86885.0,114897.0,172277.0,97629.0,39413.0,6954.0,1756.0,544.0
522324,County,2020/06/12,6.0,CA,6095.0,Solano County,105296.0,341314.0,1052563.0,262559.0,262133.0,88165.0,125840.0,161208.0,102978.0,38614.0,9034.0,1533.0,499.0
525512,County,2020/06/13,6.0,CA,6095.0,Solano County,109729.0,336881.0,1068348.0,277587.0,301584.0,96249.0,122871.0,136499.0,87268.0,35521.0,8420.0,1521.0,828.0
528715,County,2020/06/14,6.0,CA,6095.0,Solano County,118262.0,328348.0,964233.0,246530.0,276225.0,93748.0,104056.0,121641.0,75025.0,34811.0,9815.0,1368.0,1014.0
531906,County,2020/06/15,6.0,CA,6095.0,Solano County,107663.0,338947.0,1042969.0,272070.0,266553.0,90271.0,119191.0,155899.0,95430.0,33300.0,7689.0,1905.0,661.0
535077,County,2020/06/16,6.0,CA,6095.0,Solano County,109840.0,336770.0,1078824.0,280800.0,276073.0,98005.0,119702.0,170959.0,92696.0,31975.0,6321.0,1844.0,449.0
538244,County,2020/06/17,6.0,CA,6095.0,Solano County,105503.0,341107.0,1074943.0,271367.0,276612.0,89875.0,117973.0,169320.0,106472.0,34087.0,6488.0,1759.0,990.0
541440,County,2020/06/18,6.0,CA,6095.0,Solano County,104289.0,342321.0,1080901.0,271959.0,273014.0,99011.0,127910.0,169821.0,99642.0,29514.0,7449.0,1846.0,735.0
544641,County,2020/06/19,6.0,CA,6095.0,Solano County,103398.0,343212.0,1108578.0,290552.0,281837.0,99018.0,126444.0,171648.0,98761.0,30432.0,7432.0,1594.0,860.0
547876,County,2020/06/20,6.0,CA,6095.0,Solano County,112405.0,334205.0,1059050.0,266239.0,305339.0,107786.0,120913.0,146816.0,73033.0,29014.0,7661.0,1528.0,721.0
549475,County,2020/06/21,6.0,CA,6095.0,Solano County,127986.0,318624.0,920946.0,233523.0,271400.0,88421.0,99151.0,121261.0,64812.0,30489.0,9332.0,1817.0,740.0
554256,County,2020/06/22,6.0,CA,6095.0,Solano County,111631.0,334979.0,988449.0,244708.0,258633.0,85033.0,114451.0,148059.0,94228.0,32924.0,7080.0,2105.0,1228.0
555884,County,2020/06/23,6.0,CA,6095.0,Solano County,105076.0,341534.0,1072532.0,269710.0,280981.0,99180.0,117488.0,161040.0,96551.0,38500.0,5988.0,1737.0,1357.0
560652,County,2020/06/24,6.0,CA,6095.0,Solano County,110959.0,335651.0,985980.0,240875.0,255822.0,83656.0,111474.0,152546.0,90911.0,41488.0,5913.0,2313.0,982.0
563780,County,2020/06/25,6.0,CA,6095.0,Solano County,105719.0,340891.0,1038807.0,262729.0,262262.0,94095.0,114472.0,158274.0,96902.0,40243.0,6658.0,1490.0,1682.0
565486,County,2020/06/26,6.0,CA,6095.0,Solano County,108336.0,338274.0,1062578.0,269163.0,284008.0,84190.0,119985.0,147982.0,95056.0,50301.0,8586.0,2428.0,879.0
568655,County,2020/06/27,6.0,CA,6095.0,Solano County,112729.0,333881.0,1063562.0,255537.0,297770.0,105416.0,122123.0,142792.0,85039.0,42432.0,8878.0,2306.0,1269.0
573419,County,2020/06/28,6.0,CA,6095.0,Solano County,122279.0,324331.0,918637.0,215080.0,268333.0,93727.0,96703.0,118737.0,75113.0,40310.0,7860.0,1905.0,869.0
575025,County,2020/06/29,6.0,CA,6095.0,Solano County,116531.0,330079.0,979554.0,229910.0,252414.0,92310.0,108487.0,138083.0,102448.0,47216.0,5592.0,2459.0,635.0
578234,County,2020/06/30,6.0,CA,6095.0,Solano County,114957.0,331653.0,987313.0,236572.0,252068.0,91586.0,112492.0,152256.0,92045.0,40722.0,6060.0,2167.0,1345.0
581440,County,2020/07/01,6.0,CA,6095.0,Solano County,111644.0,334966.0,961197.0,227258.0,247748.0,82392.0,100393.0,140883.0,107986.0,45842.0,5233.0,1729.0,1733.0
584634,County,2020/07/02,6.0,CA,6095.0,Solano County,115970.0,330640.0,1102593.0,278861.0,278366.0,99873.0,121501.0,167993.0,102852.0,42714.0,7067.0,1581.0,1785.0
587808,County,2020/07/03,6.0,CA,6095.0,Solano County,124490.0,322120.0,1056592.0,267647.0,282408.0,83716.0,119309.0,147148.0,94520.0,50018.0,8538.0,2414.0,874.0
591021,County,2020/07/04,6.0,CA,6095.0,Solano County,134018.0,312592.0,903941.0,228978.0,241607.0,71621.0,102072.0,125889.0,80865.0,42791.0,7304.0,2066.0,748.0
594208,County,2020/07/05,6.0,CA,6095.0,Solano County,125803.0,320807.0,926278.0,237220.0,269978.0,92112.0,89968.0,118691.0,73981.0,31511.0,8793.0,2377.0,1647.0
597380,County,2020/07/06,6.0,CA,6095.0,Solano County,114363.0,332247.0,995530.0,248057.0,256180.0,90547.0,115559.0,144704.0,91167.0,38989.0,6538.0,2234.0,1555.0
602552,County,2020/07/07,6.0,CA,6095.0,Solano County,111720.0,334890.0,976081.0,242764.0,241748.0,91082.0,112157.0,140612.0,97442.0,41327.0,4997.0,2175.0,1777.0
605268,County,2020/07/08,6.0,CA,6095.0,Solano County,111412.0,335198.0,995782.0,262857.0,237897.0,93590.0,110488.0,140333.0,101819.0,40769.0,5063.0,1166.0,1800.0
606995,County,2020/07/09,6.0,CA,6095.0,Solano County,110834.0,335776.0,977609.0,248247.0,236304.0,85653.0,106667.0,147631.0,101332.0,43571.0,5110.0,1605.0,1489.0
611777,County,2020/07/10,6.0,CA,6095.0,Solano County,107899.0,338711.0,1004265.0,244518.0,261923.0,94316.0,109919.0,148239.0,93515.0,40766.0,6995.0,2059.0,2015.0
613355,County,2020/07/11,6.0,CA,6095.0,Solano County,118012.0,328598.0,983663.0,252906.0,265393.0,97724.0,105108.0,129527.0,82095.0,41814.0,5370.0,2432.0,1294.0
618128,County,2020/07/12,6.0,CA,6095.0,Solano County,124506.0,322104.0,870838.0,214167.0,242756.0,84266.0,95425.0,108917.0,75581.0,37490.0,7293.0,2296.0,2647.0
619766,County,2020/07/13,6.0,CA,6095.0,Solano County,110414.0,336196.0,947551.0,229275.0,243741.0,86894.0,107232.0,132680.0,92463.0,44817.0,6195.0,2036.0,2218.0
622967,County,2020/07/14,6.0,CA,6095.0,Solano County,115788.0,330822.0,952527.0,235572.0,236840.0,83982.0,100232.0,148458.0,102537.0,35899.0,5370.0,1780.0,1857.0
627655,County,2020/07/15,6.0,CA,6095.0,Solano County,113633.0,332977.0,987202.0,241748.0,250872.0,91341.0,103540.0,157730.0,99137.0,34949.0,5011.0,1479.0,1395.0
630969,County,2020/07/16,6.0,CA,6095.0,Solano County,114174.0,332436.0,962193.0,235897.0,236759.0,83145.0,115064.0,160383.0,90674.0,32302.0,5665.0,1441.0,863.0
632530,County,2020/07/17,6.0,CA,6095.0,Solano County,114870.0,331740.0,999193.0,247344.0,245027.0,89190.0,116528.0,160840.0,96946.0,34043.0,6659.0,1724.0,892.0
637317,County,2020/07/18,6.0,CA,6095.0,Solano County,125899.0,320711.0,907172.0,209786.0,250957.0,88117.0,101749.0,134452.0,78151.0,33607.0,6882.0,2265.0,1206.0
640470,County,2020/07/19,6.0,CA,6095.0,Solano County,135853.0,310757.0,802453.0,180017.0,214736.0,77167.0,89180.0,120628.0,74159.0,34076.0,9052.0,2290.0,1148.0
643678,County,2020/07/20,6.0,CA,6095.0,Solano County,126351.0,320259.0,906208.0,223367.0,229602.0,82946.0,101176.0,132701.0,94526.0,34058.0,5462.0,1466.0,904.0
645306,County,2020/07/21,6.0,CA,6095.0,Solano County,123716.0,322894.0,867321.0,200546.0,214219.0,81046.0,102628.0,128495.0,95303.0,36549.0,4720.0,1802.0,2013.0
650036,County,2020/07/22,6.0,CA,6095.0,Solano County,123136.0,323474.0,871365.0,208516.0,215483.0,76932.0,97918.0,140239.0,90394.0,34670.0,4609.0,1307.0,1297.0
651626,County,2020/07/23,6.0,CA,6095.0,Solano County,123294.0,323316.0,842289.0,194328.0,196796.0,70544.0,104591.0,140730.0,92409.0,33984.0,5328.0,1775.0,1804.0
656454,County,2020/07/24,6.0,CA,6095.0,Solano County,121148.0,325462.0,926404.0,222405.0,233766.0,83993.0,107275.0,141371.0,90776.0,36802.0,6642.0,1423.0,1951.0
659720,County,2020/07/25,6.0,CA,6095.0,Solano County,129492.0,317118.0,828858.0,190531.0,219052.0,77776.0,97461.0,117764.0,80081.0,34943.0,7799.0,1932.0,1519.0
662800,County,2020/07/26,6.0,CA,6095.0,Solano County,132294.0,314316.0,819603.0,185922.0,217386.0,77369.0,97997.0,109494.0,77706.0,38527.0,9492.0,2898.0,2812.0
664541,County,2020/07/27,6.0,CA,6095.0,Solano County,126834.0,319776.0,844050.0,189760.0,208690.0,72396.0,100468.0,130230.0,90522.0,40584.0,6137.0,2160.0,3103.0
667653,County,2020/07/28,6.0,CA,6095.0,Solano County,123826.0,322784.0,858610.0,189286.0,197998.0,84265.0,98284.0,132681.0,100854.0,45746.0,4713.0,2156.0,2627.0
670860,County,2020/07/29,6.0,CA,6095.0,Solano County,125107.0,321503.0,865151.0,203975.0,199075.0,74145.0,97494.0,141942.0,98100.0,41496.0,4199.0,1956.0,2769.0
674069,County,2020/07/30,6.0,CA,6095.0,Solano County,120878.0,325732.0,889205.0,195632.0,222073.0,78580.0,104357.0,135459.0,100480.0,43225.0,5163.0,1897.0,2339.0
677270,County,2020/07/31,6.0,CA,6095.0,Solano County,121310.0,325300.0,873666.0,202376.0,213044.0,80845.0,92845.0,131801.0,97689.0,44244.0,6395.0,1954.0,2473.0
680427,County,2020/08/01,6.0,CA,6095.0,Solano County,129893.0,316717.0,841827.0,182849.0,233942.0,82575.0,93173.0,112865.0,81356.0,43862.0,6948.0,1484.0,2773.0
685208,County,2020/08/02,6.0,CA,6095.0,Solano County,131536.0,315074.0,882218.0,204919.0,252994.0,82327.0,101648.0,114159.0,76576.0,34313.0,10944.0,2821.0,1517.0
688412,County,2020/08/03,6.0,CA,6095.0,Solano County,120955.0,325655.0,950869.0,226406.0,249272.0,74871.0,102071.0,151292.0,94744.0,42357.0,6835.0,2367.0,654.0
690040,County,2020/08/04,6.0,CA,6095.0,Solano County,115816.0,330794.0,1008408.0,253764.0,253260.0,95013.0,110113.0,157736.0,94693.0,36603.0,4961.0,1710.0,555.0
693202,County,2020/08/05,6.0,CA,6095.0,Solano County,116611.0,329999.0,991712.0,247492.0,256036.0,87936.0,103247.0,158349.0,93698.0,36575.0,6300.0,1377.0,702.0
696408,County,2020/08/06,6.0,CA,6095.0,Solano County,115816.0,330794.0,970226.0,240448.0,237723.0,87292.0,110860.0,153075.0,92099.0,38696.0,6883.0,2559.0,591.0
701188,County,2020/08/07,6.0,CA,6095.0,Solano County,114302.0,332308.0,1018715.0,241890.0,249367.0,92901.0,121227.0,162909.0,101725.0,38670.0,8032.0,1302.0,692.0
704382,County,2020/08/08,6.0,CA,6095.0,Solano County,122298.0,324312.0,993440.0,244287.0,277807.0,88961.0,107442.0,141663.0,89299.0,33251.0,7992.0,1550.0,1188.0
707551,County,2020/08/09,6.0,CA,6095.0,Solano County,122396.0,324214.0,1038537.0,258176.0,289763.0,103746.0,113539.0,134590.0,87655.0,38491.0,9524.0,2130.0,923.0
709180,County,2020/08/10,6.0,CA,6095.0,Solano County,113240.0,333370.0,1174904.0,297097.0,304749.0,105721.0,129426.0,172252.0,117399.0,38370.0,7076.0,2043.0,771.0
714010,County,2020/08/11,6.0,CA,6095.0,Solano County,113895.0,332715.0,1166320.0,295517.0,302423.0,113347.0,123690.0,176161.0,108748.0,36791.0,6732.0,2093.0,818.0
717060,County,2020/08/12,6.0,CA,6095.0,Solano County,113127.0,333483.0,1065913.0,255078.0,271090.0,100381.0,110293.0,172176.0,105957.0,38250.0,6702.0,1938.0,4048.0
720303,County,2020/08/13,6.0,CA,6095.0,Solano County,109306.0,337304.0,1066876.0,257260.0,274495.0,95228.0,118295.0,164484.0,103921.0,38197.0,7435.0,2306.0,5255.0
723529,County,2020/08/14,6.0,CA,6095.0,Solano County,105841.0,340769.0,1168356.0,294053.0,312651.0,105582.0,130463.0,163578.0,104627.0,41604.0,8088.0,2508.0,5202.0
725160,County,2020/08/15,6.0,CA,6095.0,Solano County,115314.0,331296.0,1096808.0,270449.0,307797.0,107556.0,123622.0,137779.0,93764.0,38542.0,9012.0,2638.0,5649.0
729933,County,2020/08/16,6.0,CA,6095.0,Solano County,128635.0,317975.0,957162.0,228633.0,259419.0,92651.0,111187.0,121374.0,82598.0,39224.0,10669.0,2883.0,8524.0
731562,County,2020/08/17,6.0,CA,6095.0,Solano County,123764.0,322846.0,1044780.0,244492.0,268219.0,92746.0,112570.0,154087.0,110598.0,44590.0,6824.0,3154.0,7500.0
734727,County,2020/08/18,6.0,CA,6095.0,Solano County,114520.0,332090.0,1010215.0,211772.0,255553.0,94635.0,115032.0,162481.0,109954.0,44513.0,6001.0,2719.0,7555.0
737933,County,2020/08/19,6.0,CA,6095.0,Solano County,108605.0,338005.0,1206934.0,314324.0,322163.0,116167.0,128545.0,163952.0,107942.0,37964.0,6450.0,2340.0,7087.0
742715,County,2020/08/20,6.0,CA,6095.0,Solano County,110613.0,335997.0,1019359.0,231608.0,263764.0,93895.0,111165.0,153610.0,106802.0,40680.0,7593.0,2376.0,7866.0
745921,County,2020/08/21,6.0,CA,6095.0,Solano County,108162.0,338448.0,1102410.0,257086.0,291237.0,103758.0,124158.0,156558.0,108002.0,42545.0,8883.0,2539.0,7644.0
749077,County,2020/08/22,6.0,CA,6095.0,Solano County,115646.0,330964.0,1032134.0,249418.0,277926.0,104891.0,117474.0,138882.0,89020.0,35727.0,8179.0,2410.0,8207.0
750692,County,2020/08/23,6.0,CA,6095.0,Solano County,131491.0,315119.0,814571.0,191711.0,226717.0,74920.0,93599.0,106779.0,72895.0,30800.0,7383.0,2046.0,7721.0
753916,County,2020/08/24,6.0,CA,6095.0,Solano County,125517.0,321093.0,950898.0,228929.0,251434.0,84708.0,105608.0,135915.0,94329.0,35656.0,5366.0,2969.0,5984.0
758676,County,2020/08/25,6.0,CA,6095.0,Solano County,122900.0,323710.0,997430.0,242194.0,256362.0,93054.0,112495.0,149596.0,96001.0,33839.0,5814.0,2098.0,5977.0
760309,County,2020/08/26,6.0,CA,6095.0,Solano County,122860.0,323750.0,947101.0,221091.0,245646.0,93728.0,99107.0,140231.0,98561.0,37082.0,5986.0,1510.0,4159.0
763465,County,2020/08/27,6.0,CA,6095.0,Solano County,125134.0,321476.0,973785.0,214856.0,251452.0,89357.0,120434.0,149913.0,98498.0,39763.0,5668.0,1234.0,2610.0
766672,County,2020/08/28,6.0,CA,6095.0,Solano County,124968.0,321642.0,1032964.0,235164.0,276751.0,94469.0,119772.0,153574.0,99635.0,40958.0,7469.0,1763.0,3409.0
769875,County,2020/08/29,6.0,CA,6095.0,Solano County,127286.0,319324.0,982988.0,229908.0,274663.0,103821.0,113326.0,133048.0,83286.0,33245.0,6348.0,1557.0,3786.0
774668,County,2020/08/30,6.0,CA,6095.0,Solano County,137066.0,309544.0,881401.0,204015.0,245621.0,89431.0,106861.0,109763.0,78165.0,33785.0,7588.0,1807.0,4365.0
777809,County,2020/08/31,6.0,CA,6095.0,Solano County,125257.0,321353.0,952677.0,224033.0,254725.0,84873.0,106497.0,139530.0,93679.0,38705.0,4820.0,1814.0,4001.0
779419,County,2020/09/01,6.0,CA,6095.0,Solano County,122454.0,324156.0,1014715.0,246248.0,267791.0,100200.0,114371.0,138280.0,99718.0,38753.0,5749.0,1844.0,1761.0
782663,County,2020/09/02,6.0,CA,6095.0,Solano County,122346.0,324264.0,1101167.0,281776.0,289184.0,102523.0,122039.0,150171.0,110621.0,36132.0,5326.0,1485.0,1910.0
785810,County,2020/09/03,6.0,CA,6095.0,Solano County,115813.0,330797.0,1138652.0,295304.0,291964.0,107412.0,128709.0,158221.0,109737.0,36984.0,5764.0,2021.0,2536.0
790594,County,2020/09/04,6.0,CA,6095.0,Solano County,121104.0,325506.0,1093450.0,256364.0,292791.0,106345.0,127048.0,154445.0,105317.0,37064.0,9214.0,2298.0,2564.0
792198,County,2020/09/05,6.0,CA,6095.0,Solano County,124582.0,322028.0,1081054.0,269475.0,302252.0,107410.0,128573.0,136358.0,90127.0,33998.0,8610.0,2375.0,1876.0
796990,County,2020/09/06,6.0,CA,6095.0,Solano County,133170.0,313440.0,945042.0,220706.0,267728.0,94718.0,108991.0,118931.0,87167.0,33896.0,8324.0,1908.0,2673.0
800202,County,2020/09/07,6.0,CA,6095.0,Solano County,134382.0,312228.0,903539.0,208546.0,260210.0,93848.0,99004.0,114467.0,75454.0,33988.0,12507.0,2395.0,3120.0
801807,County,2020/09/08,6.0,CA,6095.0,Solano County,126551.0,320059.0,1021721.0,233505.0,264743.0,104070.0,122026.0,141555.0,105607.0,39983.0,4829.0,2057.0,3346.0
806588,County,2020/09/09,6.0,CA,6095.0,Solano County,126340.0,320270.0,1055841.0,241329.0,273290.0,97748.0,120919.0,167280.0,104302.0,40506.0,5491.0,1974.0,3002.0
808216,County,2020/09/10,6.0,CA,6095.0,Solano County,124017.0,322593.0,1043996.0,244218.0,264342.0,95664.0,120704.0,160467.0,104522.0,42816.0,5708.0,2443.0,3112.0
812977,County,2020/09/11,6.0,CA,6095.0,Solano County,120166.0,326444.0,1140178.0,303126.0,287676.0,107095.0,128335.0,155191.0,107178.0,39543.0,6922.0,2108.0,3004.0
816124,County,2020/09/12,6.0,CA,6095.0,Solano County,131561.0,315049.0,1010177.0,247936.0,279717.0,103003.0,111803.0,136607.0,85492.0,33831.0,7258.0,1586.0,2944.0
819354,County,2020/09/13,6.0,CA,6095.0,Solano County,128814.0,317796.0,918917.0,189334.0,265834.0,98870.0,100471.0,127841.0,87910.0,37786.0,5964.0,1512.0,3395.0
820983,County,2020/09/14,6.0,CA,6095.0,Solano County,126806.0,319804.0,1025278.0,230969.0,276963.0,94687.0,114120.0,158971.0,102828.0,37597.0,5050.0,1622.0,2471.0
825753,County,2020/09/15,6.0,CA,6095.0,Solano County,126032.0,320578.0,1040053.0,242171.0,274930.0,95392.0,122919.0,143688.0,107654.0,42370.0,6472.0,1933.0,2524.0
828946,County,2020/09/16,6.0,CA,6095.0,Solano County,124386.0,322224.0,1029875.0,228907.0,265593.0,96038.0,117598.0,159425.0,111747.0,39579.0,6038.0,1555.0,3395.0
832123,County,2020/09/17,6.0,CA,6095.0,Solano County,122828.0,323782.0,1064423.0,241539.0,277125.0,98556.0,124508.0,158851.0,111958.0,41025.0,5851.0,2197.0,2813.0
833752,County,2020/09/18,6.0,CA,6095.0,Solano County,122848.0,323762.0,1257476.0,401269.0,312325.0,101535.0,129616.0,154440.0,106717.0,39903.0,6729.0,2431.0,2511.0
838528,County,2020/09/19,6.0,CA,6095.0,Solano County,127971.0,318639.0,1109223.0,270377.0,324055.0,102475.0,125531.0,145250.0,94050.0,35475.0,7368.0,2034.0,2608.0
840156,County,2020/09/20,6.0,CA,6095.0,Solano County,130477.0,316133.0,939217.0,216827.0,275886.0,91882.0,105170.0,124670.0,78770.0,33931.0,8647.0,1881.0,1553.0
843318,County,2020/09/21,6.0,CA,6095.0,Solano County,126195.0,320415.0,1050500.0,231494.0,293534.0,102165.0,115421.0,167691.0,101000.0,31317.0,5432.0,1594.0,852.0
846522,County,2020/09/22,6.0,CA,6095.0,Solano County,118394.0,328216.0,1094891.0,256937.0,281859.0,101842.0,126294.0,183927.0,103610.0,32559.0,5847.0,1571.0,445.0
851301,County,2020/09/23,6.0,CA,6095.0,Solano County,114152.0,332458.0,1155028.0,288409.0,298319.0,98361.0,128883.0,184234.0,113109.0,34131.0,7382.0,1692.0,508.0
852929,County,2020/09/24,6.0,CA,6095.0,Solano County,115348.0,331262.0,1132471.0,279261.0,295231.0,99830.0,130171.0,179399.0,103722.0,36673.0,5406.0,1670.0,1108.0
857693,County,2020/09/25,6.0,CA,6095.0,Solano County,111094.0,335516.0,1135626.0,265241.0,296134.0,108945.0,129997.0,185813.0,102723.0,35748.0,8485.0,1945.0,595.0
860838,County,2020/09/26,6.0,CA,6095.0,Solano County,123971.0,322639.0,1125121.0,271479.0,319847.0,104498.0,125643.0,166180.0,90364.0,37388.0,7359.0,1463.0,900.0
862492,County,2020/09/27,6.0,CA,6095.0,Solano County,126326.0,320284.0,1032273.0,257430.0,302613.0,98791.0,114112.0,140967.0,78835.0,28252.0,8443.0,1883.0,947.0
865695,County,2020/09/28,6.0,CA,6095.0,Solano County,117583.0,329027.0,1132346.0,271777.0,314447.0,104782.0,122267.0,163101.0,110016.0,37041.0,6697.0,1659.0,559.0
870468,County,2020/09/29,6.0,CA,6095.0,Solano County,121432.0,325178.0,1020960.0,223098.0,278211.0,101142.0,112828.0,151244.0,105247.0,43262.0,4005.0,1002.0,921.0
872097,County,2020/09/30,6.0,CA,6095.0,Solano County,121984.0,324626.0,979792.0,209791.0,268878.0,93296.0,102541.0,149863.0,104374.0,45313.0,3982.0,1044.0,710.0
875261,County,2020/10/01,6.0,CA,6095.0,Solano County,121278.0,325332.0,1135955.0,322925.0,290148.0,92107.0,125210.0,147811.0,103976.0,46710.0,4872.0,1114.0,1082.0
878464,County,2020/10/02,6.0,CA,6095.0,Solano County,128695.0,317915.0,987595.0,247356.0,264695.0,86611.0,110113.0,140447.0,89434.0,41223.0,5596.0,1243.0,877.0
883246,County,2020/10/03,6.0,CA,6095.0,Solano County,130623.0,315987.0,991242.0,229159.0,270736.0,107643.0,118582.0,134199.0,83908.0,39560.0,5486.0,1166.0,803.0
885247,County,2020/10/04,6.0,CA,6095.0,Solano County,134375.0,312235.0,917527.0,219260.0,262600.0,98466.0,109181.0,109501.0,74502.0,33933.0,7907.0,1279.0,898.0
888166,County,2020/10/05,6.0,CA,6095.0,Solano County,128783.0,317827.0,975246.0,226171.0,265872.0,96565.0,104988.0,136528.0,96576.0,42508.0,4172.0,992.0,874.0
891305,County,2020/10/06,6.0,CA,6095.0,Solano County,123950.0,322660.0,988343.0,215293.0,269560.0,104634.0,110104.0,143890.0,97380.0,42061.0,3903.0,777.0,741.0
894506,County,2020/10/07,6.0,CA,6095.0,Solano County,121132.0,325478.0,1068291.0,261580.0,277588.0,92515.0,123171.0,151239.0,112232.0,44115.0,4221.0,709.0,921.0
897931,County,2020/10/08,6.0,CA,6095.0,Solano County,119523.0,327087.0,1002954.0,244329.0,260143.0,91380.0,119017.0,144428.0,98248.0,39827.0,3641.0,983.0,958.0
900942,County,2020/10/09,6.0,CA,6095.0,Solano County,123203.0,323407.0,1021173.0,216558.0,288670.0,92042.0,112655.0,159603.0,104082.0,39121.0,6225.0,1538.0,679.0
904094,County,2020/10/10,6.0,CA,6095.0,Solano County,129630.0,316980.0,993638.0,219252.0,285541.0,100265.0,105011.0,139969.0,93455.0,43481.0,4691.0,1526.0,447.0
909422,County,2020/10/11,6.0,CA,6095.0,Solano County,133864.0,312746.0,898040.0,192809.0,271105.0,88989.0,94808.0,118573.0,85372.0,36313.0,8068.0,1481.0,522.0
913182,County,2020/10/12,6.0,CA,6095.0,Solano County,127081.0,319529.0,1054369.0,303808.0,265425.0,95902.0,102012.0,135844.0,99957.0,43008.0,6714.0,1103.0,596.0
916451,County,2020/10/13,6.0,CA,6095.0,Solano County,123426.0,323184.0,992662.0,262350.0,239491.0,89387.0,111194.0,138730.0,105193.0,39234.0,4750.0,1391.0,942.0
919531,County,2020/10/14,6.0,CA,6095.0,Solano County,121430.0,325180.0,982221.0,232896.0,261723.0,86333.0,112138.0,136799.0,100766.0,43936.0,5378.0,1108.0,1144.0
922878,County,2020/10/15,6.0,CA,6095.0,Solano County,123212.0,323398.0,1013795.0,268577.0,257967.0,90544.0,107050.0,138488.0,103152.0,40143.0,5434.0,1289.0,1151.0
925961,County,2020/10/16,6.0,CA,6095.0,Solano County,118303.0,328307.0,1017206.0,251757.0,259763.0,93681.0,115516.0,148994.0,93474.0,43037.0,8117.0,1509.0,1358.0
929098,County,2020/10/17,6.0,CA,6095.0,Solano County,128582.0,318028.0,1071522.0,297188.0,294679.0,97189.0,112503.0,128550.0,91403.0,41932.0,6005.0,1285.0,788.0
932601,County,2020/10/18,6.0,CA,6095.0,Solano County,130073.0,316537.0,889196.0,195651.0,255013.0,89705.0,110116.0,107642.0,83938.0,37855.0,7061.0,1248.0,967.0
935568,County,2020/10/19,6.0,CA,6095.0,Solano County,123725.0,322885.0,966927.0,216233.0,258322.0,96519.0,109664.0,131672.0,105027.0,42087.0,5541.0,792.0,1070.0
938552,County,2020/10/20,6.0,CA,6095.0,Solano County,123771.0,322839.0,926827.0,200161.0,239039.0,90193.0,109310.0,133157.0,105725.0,42583.0,4870.0,749.0,1040.0
941646,County,2020/10/21,6.0,CA,6095.0,Solano County,127045.0,319565.0,934495.0,202617.0,253337.0,88456.0,106879.0,126717.0,101251.0,46945.0,6252.0,1013.0,1028.0
944220,County,2020/10/22,6.0,CA,6095.0,Solano County,122823.0,323787.0,965941.0,217196.0,248450.0,98016.0,109266.0,135656.0,104576.0,44508.0,5982.0,1251.0,1040.0
947782,County,2020/10/23,6.0,CA,6095.0,Solano County,120518.0,326092.0,1065795.0,235999.0,283345.0,101710.0,126005.0,151408.0,113211.0,44593.0,7073.0,1471.0,980.0
951501,County,2020/10/24,6.0,CA,6095.0,Solano County,127249.0,319361.0,1040176.0,241129.0,287021.0,106759.0,122836.0,143660.0,92613.0,37578.0,6683.0,1141.0,756.0
