,Level,Date,State FIPS,State Postal Code,County FIPS,County Name,Population Staying at Home,Population Not Staying at Home,Number of Trips,Number of Trips <1,Number of Trips 1-3,Number of Trips 3-5,Number of Trips 5-10,Number of Trips 10-25,Number of Trips 25-50,Number of Trips 50-100,Number of Trips 100-250,Number of Trips 250-500,Number of Trips >=500
923,County,2020/01/01,20.0,KS,20071.0,Greeley County,237.0,990.0,5536.0,1047.0,2712.0,66.0,786.0,289.0,180.0,299.0,124.0,29.0,4.0
6305,County,2020/01/02,20.0,KS,20071.0,Greeley County,217.0,1010.0,6429.0,1218.0,2966.0,81.0,922.0,329.0,275.0,413.0,161.0,46.0,18.0
7696,County,2020/01/03,20.0,KS,20071.0,Greeley County,216.0,1011.0,6466.0,1108.0,3047.0,70.0,1031.0,294.0,259.0,422.0,190.0,27.0,18.0
12260,County,2020/01/04,20.0,KS,20071.0,Greeley County,249.0,978.0,5430.0,1052.0,2377.0,64.0,861.0,237.0,212.0,429.0,156.0,42.0,0.0
13699,County,2020/01/05,20.0,KS,20071.0,Greeley County,266.0,961.0,5187.0,789.0,2274.0,85.0,890.0,356.0,265.0,346.0,137.0,41.0,4.0
18066,County,2020/01/06,20.0,KS,20071.0,Greeley County,277.0,950.0,5223.0,1044.0,1943.0,67.0,861.0,340.0,294.0,416.0,213.0,44.0,1.0
19608,County,2020/01/07,20.0,KS,20071.0,Greeley County,276.0,951.0,5786.0,1037.0,2591.0,79.0,820.0,314.0,380.0,316.0,212.0,37.0,0.0
24456,County,2020/01/08,20.0,KS,20071.0,Greeley County,248.0,979.0,5712.0,1072.0,2502.0,77.0,874.0,323.0,383.0,311.0,150.0,20.0,0.0
27587,County,2020/01/09,20.0,KS,20071.0,Greeley County,262.0,965.0,5884.0,1127.0,2491.0,74.0,982.0,329.0,398.0,317.0,143.0,19.0,4.0
30794,County,2020/01/10,20.0,KS,20071.0,Greeley County,263.0,964.0,5547.0,996.0,2600.0,84.0,857.0,324.0,290.0,277.0,104.0,11.0,4.0
34038,County,2020/01/11,20.0,KS,20071.0,Greeley County,266.0,961.0,5146.0,860.0,2581.0,68.0,740.0,239.0,264.0,295.0,94.0,5.0,0.0
35578,County,2020/01/12,20.0,KS,20071.0,Greeley County,233.0,994.0,5451.0,868.0,2431.0,74.0,1005.0,331.0,279.0,301.0,150.0,11.0,1.0
38821,County,2020/01/13,20.0,KS,20071.0,Greeley County,247.0,980.0,5748.0,997.0,2680.0,81.0,869.0,329.0,273.0,367.0,137.0,15.0,0.0
43554,County,2020/01/14,20.0,KS,20071.0,Greeley County,254.0,973.0,5824.0,969.0,2796.0,77.0,798.0,310.0,350.0,354.0,116.0,49.0,5.0
46760,County,2020/01/15,20.0,KS,20071.0,Greeley County,243.0,984.0,5713.0,1026.0,2592.0,89.0,788.0,317.0,348.0,341.0,188.0,19.0,5.0
48287,County,2020/01/16,20.0,KS,20071.0,Greeley County,260.0,967.0,5854.0,1086.0,2473.0,85.0,812.0,334.0,398.0,437.0,189.0,39.0,1.0
53203,County,2020/01/17,20.0,KS,20071.0,Greeley County,269.0,958.0,6338.0,1125.0,2821.0,85.0,1064.0,356.0,337.0,390.0,141.0,18.0,1.0
54776,County,2020/01/18,20.0,KS,20071.0,Greeley County,264.0,963.0,5574.0,952.0,2427.0,81.0,886.0,338.0,385.0,353.0,147.0,5.0,0.0
57923,County,2020/01/19,20.0,KS,20071.0,Greeley County,198.0,1029.0,6571.0,981.0,3278.0,76.0,902.0,359.0,353.0,404.0,198.0,20.0,0.0
61156,County,2020/01/20,20.0,KS,20071.0,Greeley County,202.0,1025.0,6396.0,982.0,3009.0,75.0,902.0,399.0,424.0,388.0,169.0,40.0,8.0
65933,County,2020/01/21,20.0,KS,20071.0,Greeley County,223.0,1004.0,5679.0,841.0,2770.0,72.0,831.0,323.0,325.0,306.0,152.0,48.0,11.0
69124,County,2020/01/22,20.0,KS,20071.0,Greeley County,226.0,1001.0,5714.0,929.0,2642.0,70.0,840.0,375.0,366.0,271.0,181.0,32.0,8.0
72306,County,2020/01/23,20.0,KS,20071.0,Greeley County,218.0,1009.0,5549.0,1040.0,2265.0,86.0,808.0,334.0,419.0,357.0,219.0,17.0,4.0
75462,County,2020/01/24,20.0,KS,20071.0,Greeley County,214.0,1013.0,5420.0,979.0,2230.0,91.0,863.0,314.0,335.0,414.0,176.0,18.0,0.0
78697,County,2020/01/25,20.0,KS,20071.0,Greeley County,220.0,1007.0,5500.0,884.0,2388.0,87.0,895.0,336.0,361.0,394.0,131.0,24.0,0.0
80773,County,2020/01/26,20.0,KS,20071.0,Greeley County,236.0,991.0,4990.0,894.0,1983.0,77.0,923.0,356.0,347.0,280.0,117.0,13.0,0.0
84963,County,2020/01/27,20.0,KS,20071.0,Greeley County,239.0,988.0,5189.0,853.0,2259.0,63.0,721.0,423.0,371.0,301.0,161.0,33.0,4.0
88817,County,2020/01/28,20.0,KS,20071.0,Greeley County,267.0,960.0,5222.0,900.0,2217.0,67.0,725.0,387.0,354.0,377.0,160.0,23.0,12.0
89889,County,2020/01/29,20.0,KS,20071.0,Greeley County,267.0,960.0,5268.0,952.0,2138.0,68.0,763.0,337.0,359.0,460.0,160.0,22.0,9.0
93193,County,2020/01/30,20.0,KS,20071.0,Greeley County,229.0,998.0,5501.0,946.0,2243.0,70.0,892.0,384.0,380.0,406.0,141.0,31.0,8.0
97867,County,2020/01/31,20.0,KS,20071.0,Greeley County,234.0,993.0,5898.0,1021.0,2477.0,81.0,836.0,370.0,437.0,498.0,126.0,44.0,8.0
99497,County,2020/02/01,20.0,KS,20071.0,Greeley County,260.0,967.0,5428.0,960.0,2280.0,72.0,915.0,285.0,335.0,396.0,155.0,30.0,0.0
104208,County,2020/02/02,20.0,KS,20071.0,Greeley County,222.0,1005.0,6337.0,1138.0,2825.0,89.0,1107.0,414.0,317.0,337.0,87.0,19.0,4.0
107460,County,2020/02/03,20.0,KS,20071.0,Greeley County,241.0,986.0,5124.0,1070.0,2351.0,68.0,764.0,292.0,256.0,236.0,76.0,7.0,4.0
109077,County,2020/02/04,20.0,KS,20071.0,Greeley County,242.0,985.0,4135.0,1016.0,1349.0,64.0,867.0,373.0,326.0,108.0,32.0,0.0,0.0
113800,County,2020/02/05,20.0,KS,20071.0,Greeley County,246.0,981.0,4742.0,1028.0,1958.0,63.0,684.0,319.0,301.0,227.0,131.0,21.0,10.0
117006,County,2020/02/06,20.0,KS,20071.0,Greeley County,232.0,995.0,5709.0,1156.0,2515.0,68.0,749.0,361.0,307.0,354.0,167.0,24.0,8.0
120260,County,2020/02/07,20.0,KS,20071.0,Greeley County,203.0,1024.0,6538.0,599.0,3972.0,68.0,139.0,556.0,436.0,562.0,203.0,0.0,3.0
123420,County,2020/02/08,20.0,KS,20071.0,Greeley County,248.0,979.0,5295.0,1005.0,2257.0,88.0,817.0,344.0,318.0,331.0,105.0,22.0,8.0
127627,County,2020/02/09,20.0,KS,20071.0,Greeley County,232.0,995.0,5904.0,1057.0,2565.0,70.0,889.0,433.0,346.0,340.0,146.0,51.0,7.0
129232,County,2020/02/10,20.0,KS,20071.0,Greeley County,201.0,1026.0,5707.0,1077.0,2575.0,76.0,832.0,380.0,340.0,286.0,119.0,22.0,0.0
133627,County,2020/02/11,20.0,KS,20071.0,Greeley County,256.0,971.0,3222.0,518.0,591.0,167.0,912.0,420.0,214.0,212.0,124.0,64.0,0.0
136118,County,2020/02/12,20.0,KS,20071.0,Greeley County,222.0,1005.0,6038.0,1055.0,3295.0,77.0,794.0,97.0,198.0,394.0,116.0,0.0,12.0
137813,County,2020/02/13,20.0,KS,20071.0,Greeley County,197.0,1030.0,5942.0,1092.0,2622.0,73.0,851.0,361.0,325.0,397.0,200.0,21.0,0.0
140920,County,2020/02/14,20.0,KS,20071.0,Greeley County,192.0,1035.0,5979.0,1069.0,2561.0,67.0,1011.0,344.0,368.0,361.0,168.0,27.0,3.0
144167,County,2020/02/15,20.0,KS,20071.0,Greeley County,214.0,1013.0,7533.0,1256.0,3523.0,99.0,1256.0,457.0,403.0,396.0,117.0,18.0,8.0
148951,County,2020/02/16,20.0,KS,20071.0,Greeley County,207.0,1020.0,7105.0,898.0,3819.0,33.0,1607.0,411.0,126.0,83.0,49.0,76.0,3.0
150579,County,2020/02/17,20.0,KS,20071.0,Greeley County,287.0,940.0,4774.0,561.0,2332.0,32.0,1028.0,434.0,161.0,120.0,70.0,36.0,0.0
155310,County,2020/02/18,20.0,KS,20071.0,Greeley County,217.0,1010.0,6645.0,1166.0,3025.0,84.0,876.0,441.0,476.0,379.0,152.0,38.0,8.0
156988,County,2020/02/19,20.0,KS,20071.0,Greeley County,188.0,1039.0,6478.0,943.0,3346.0,70.0,717.0,397.0,494.0,311.0,156.0,41.0,3.0
161701,County,2020/02/20,20.0,KS,20071.0,Greeley County,240.0,987.0,6548.0,1117.0,2702.0,80.0,1150.0,397.0,416.0,371.0,246.0,61.0,8.0
163327,County,2020/02/21,20.0,KS,20071.0,Greeley County,238.0,989.0,6249.0,1032.0,2734.0,73.0,990.0,426.0,428.0,348.0,165.0,45.0,8.0
166521,County,2020/02/22,20.0,KS,20071.0,Greeley County,223.0,1004.0,6607.0,935.0,3161.0,81.0,1059.0,428.0,377.0,370.0,155.0,29.0,12.0
169748,County,2020/02/23,20.0,KS,20071.0,Greeley County,216.0,1011.0,6892.0,1129.0,3168.0,92.0,1149.0,446.0,361.0,377.0,128.0,38.0,4.0
174531,County,2020/02/24,20.0,KS,20071.0,Greeley County,211.0,1016.0,7293.0,1208.0,3440.0,97.0,1086.0,430.0,381.0,434.0,183.0,34.0,0.0
176151,County,2020/02/25,20.0,KS,20071.0,Greeley County,172.0,1055.0,8033.0,1248.0,3960.0,99.0,1125.0,483.0,368.0,455.0,256.0,24.0,15.0
179787,County,2020/02/26,20.0,KS,20071.0,Greeley County,136.0,1091.0,9907.0,1497.0,4697.0,132.0,1521.0,566.0,566.0,604.0,279.0,25.0,20.0
183954,County,2020/02/27,20.0,KS,20071.0,Greeley County,206.0,1021.0,6665.0,1172.0,3036.0,111.0,953.0,419.0,399.0,384.0,162.0,25.0,4.0
187349,County,2020/02/28,20.0,KS,20071.0,Greeley County,203.0,1024.0,7799.0,1366.0,3759.0,111.0,1091.0,470.0,415.0,394.0,148.0,41.0,4.0
190446,County,2020/02/29,20.0,KS,20071.0,Greeley County,197.0,1030.0,6673.0,1178.0,3192.0,115.0,967.0,387.0,341.0,289.0,162.0,38.0,4.0
193664,County,2020/03/01,20.0,KS,20071.0,Greeley County,223.0,1004.0,5565.0,912.0,2794.0,60.0,723.0,316.0,273.0,333.0,130.0,24.0,0.0
195293,County,2020/03/02,20.0,KS,20071.0,Greeley County,217.0,1010.0,6019.0,1070.0,2909.0,72.0,752.0,365.0,372.0,285.0,124.0,70.0,0.0
198496,County,2020/03/03,20.0,KS,20071.0,Greeley County,199.0,1028.0,7809.0,1352.0,3787.0,107.0,1005.0,521.0,431.0,352.0,231.0,23.0,0.0
202355,County,2020/03/04,20.0,KS,20071.0,Greeley County,179.0,1048.0,8055.0,1444.0,3738.0,96.0,994.0,433.0,418.0,530.0,355.0,42.0,5.0
204798,County,2020/03/05,20.0,KS,20071.0,Greeley County,164.0,1063.0,8196.0,1581.0,3894.0,96.0,933.0,374.0,438.0,473.0,348.0,54.0,5.0
207966,County,2020/03/06,20.0,KS,20071.0,Greeley County,146.0,1081.0,8033.0,1519.0,3671.0,96.0,1129.0,446.0,464.0,456.0,217.0,35.0,0.0
211267,County,2020/03/07,20.0,KS,20071.0,Greeley County,156.0,1071.0,7926.0,1396.0,3469.0,105.0,1244.0,442.0,444.0,561.0,232.0,28.0,5.0
214481,County,2020/03/08,20.0,KS,20071.0,Greeley County,175.0,1052.0,7396.0,1329.0,3303.0,103.0,1039.0,484.0,402.0,472.0,212.0,47.0,5.0
219240,County,2020/03/09,20.0,KS,20071.0,Greeley County,196.0,1031.0,8237.0,1694.0,3857.0,107.0,1196.0,423.0,449.0,302.0,168.0,36.0,5.0
220869,County,2020/03/10,20.0,KS,20071.0,Greeley County,209.0,1018.0,9844.0,1971.0,4914.0,103.0,1338.0,427.0,425.0,422.0,207.0,37.0,0.0
225663,County,2020/03/11,20.0,KS,20071.0,Greeley County,133.0,1094.0,12474.0,2577.0,5804.0,143.0,1674.0,640.0,530.0,691.0,309.0,92.0,14.0
228754,County,2020/03/12,20.0,KS,20071.0,Greeley County,155.0,1072.0,10805.0,1979.0,5035.0,110.0,1511.0,552.0,560.0,616.0,328.0,95.0,19.0
232023,County,2020/03/13,20.0,KS,20071.0,Greeley County,160.0,1067.0,8713.0,1343.0,3913.0,96.0,1306.0,554.0,490.0,621.0,306.0,78.0,6.0
235078,County,2020/03/14,20.0,KS,20071.0,Greeley County,178.0,1049.0,7347.0,1145.0,3213.0,98.0,1161.0,504.0,451.0,504.0,215.0,56.0,0.0
238355,County,2020/03/15,20.0,KS,20071.0,Greeley County,194.0,1033.0,7809.0,1394.0,3450.0,93.0,1050.0,476.0,456.0,557.0,257.0,53.0,23.0
241598,County,2020/03/16,20.0,KS,20071.0,Greeley County,216.0,1011.0,9886.0,1754.0,4094.0,105.0,1382.0,631.0,692.0,775.0,355.0,79.0,19.0
243214,County,2020/03/17,20.0,KS,20071.0,Greeley County,206.0,1021.0,9946.0,1543.0,4020.0,124.0,1407.0,648.0,831.0,780.0,441.0,115.0,37.0
246418,County,2020/03/18,20.0,KS,20071.0,Greeley County,254.0,973.0,10406.0,1405.0,4355.0,123.0,1493.0,753.0,904.0,720.0,494.0,121.0,38.0
249575,County,2020/03/19,20.0,KS,20071.0,Greeley County,288.0,939.0,8211.0,961.0,3273.0,82.0,1340.0,674.0,692.0,751.0,387.0,37.0,14.0
254375,County,2020/03/20,20.0,KS,20071.0,Greeley County,300.0,927.0,6413.0,738.0,2139.0,83.0,1176.0,547.0,544.0,928.0,238.0,20.0,0.0
255952,County,2020/03/21,20.0,KS,20071.0,Greeley County,289.0,938.0,6800.0,914.0,3109.0,78.0,1031.0,424.0,465.0,545.0,191.0,19.0,24.0
259187,County,2020/03/22,20.0,KS,20071.0,Greeley County,322.0,905.0,6535.0,1274.0,3226.0,96.0,684.0,305.0,345.0,366.0,183.0,56.0,0.0
262392,County,2020/03/23,20.0,KS,20071.0,Greeley County,304.0,923.0,6709.0,1280.0,2864.0,73.0,875.0,464.0,448.0,459.0,186.0,32.0,28.0
265544,County,2020/03/24,20.0,KS,20071.0,Greeley County,295.0,932.0,6717.0,1286.0,2839.0,60.0,928.0,491.0,385.0,502.0,166.0,35.0,25.0
268778,County,2020/03/25,20.0,KS,20071.0,Greeley County,295.0,932.0,6761.0,1452.0,2714.0,76.0,1003.0,478.0,420.0,380.0,187.0,51.0,0.0
273518,County,2020/03/26,20.0,KS,20071.0,Greeley County,302.0,925.0,6719.0,1712.0,2358.0,72.0,919.0,517.0,424.0,423.0,218.0,57.0,19.0
275158,County,2020/03/27,20.0,KS,20071.0,Greeley County,319.0,908.0,5912.0,1322.0,2158.0,58.0,911.0,449.0,414.0,375.0,165.0,41.0,19.0
279919,County,2020/03/28,20.0,KS,20071.0,Greeley County,338.0,889.0,5040.0,868.0,2260.0,62.0,729.0,299.0,351.0,308.0,109.0,41.0,13.0
283072,County,2020/03/29,20.0,KS,20071.0,Greeley County,321.0,906.0,5648.0,919.0,2116.0,83.0,837.0,364.0,457.0,541.0,207.0,105.0,19.0
286298,County,2020/03/30,20.0,KS,20071.0,Greeley County,301.0,926.0,6200.0,973.0,2083.0,58.0,901.0,541.0,601.0,654.0,298.0,73.0,18.0
289502,County,2020/03/31,20.0,KS,20071.0,Greeley County,321.0,906.0,7527.0,1490.0,2736.0,51.0,834.0,682.0,689.0,660.0,288.0,91.0,6.0
292701,County,2020/04/01,20.0,KS,20071.0,Greeley County,324.0,903.0,7823.0,1605.0,2987.0,58.0,891.0,605.0,735.0,599.0,272.0,64.0,7.0
294330,County,2020/04/02,20.0,KS,20071.0,Greeley County,338.0,889.0,6602.0,1372.0,2088.0,69.0,899.0,471.0,732.0,610.0,271.0,83.0,7.0
299090,County,2020/04/03,20.0,KS,20071.0,Greeley County,342.0,885.0,6426.0,1236.0,2224.0,65.0,934.0,546.0,544.0,532.0,250.0,75.0,20.0
302270,County,2020/04/04,20.0,KS,20071.0,Greeley County,350.0,877.0,5511.0,917.0,2219.0,102.0,804.0,360.0,361.0,410.0,249.0,68.0,21.0
303898,County,2020/04/05,20.0,KS,20071.0,Greeley County,299.0,928.0,7138.0,1613.0,2970.0,113.0,875.0,407.0,408.0,424.0,202.0,112.0,14.0
307107,County,2020/04/06,20.0,KS,20071.0,Greeley County,296.0,931.0,7777.0,1946.0,2586.0,101.0,933.0,671.0,565.0,559.0,249.0,140.0,27.0
310300,County,2020/04/07,20.0,KS,20071.0,Greeley County,293.0,934.0,6941.0,1532.0,2143.0,57.0,963.0,591.0,611.0,552.0,325.0,141.0,26.0
315036,County,2020/04/08,20.0,KS,20071.0,Greeley County,301.0,926.0,7335.0,1562.0,2629.0,93.0,792.0,543.0,619.0,550.0,394.0,126.0,27.0
316663,County,2020/04/09,20.0,KS,20071.0,Greeley County,293.0,934.0,7050.0,1414.0,2540.0,60.0,908.0,536.0,545.0,568.0,355.0,91.0,33.0
319890,County,2020/04/10,20.0,KS,20071.0,Greeley County,284.0,943.0,6470.0,1408.0,2414.0,69.0,846.0,390.0,408.0,508.0,325.0,76.0,26.0
323075,County,2020/04/11,20.0,KS,20071.0,Greeley County,292.0,935.0,5037.0,955.0,2038.0,64.0,602.0,300.0,267.0,461.0,277.0,66.0,7.0
327808,County,2020/04/12,20.0,KS,20071.0,Greeley County,315.0,912.0,4231.0,722.0,1533.0,89.0,731.0,281.0,277.0,370.0,175.0,40.0,13.0
331031,County,2020/04/13,20.0,KS,20071.0,Greeley County,320.0,907.0,6138.0,1008.0,2537.0,70.0,949.0,495.0,361.0,399.0,229.0,73.0,17.0
332609,County,2020/04/14,20.0,KS,20071.0,Greeley County,268.0,959.0,7036.0,1129.0,2645.0,90.0,1163.0,554.0,486.0,465.0,358.0,105.0,41.0
335835,County,2020/04/15,20.0,KS,20071.0,Greeley County,233.0,994.0,7294.0,1139.0,2959.0,100.0,1147.0,525.0,542.0,423.0,380.0,62.0,17.0
340553,County,2020/04/16,20.0,KS,20071.0,Greeley County,255.0,972.0,6871.0,1214.0,2900.0,79.0,851.0,477.0,544.0,379.0,388.0,39.0,0.0
342288,County,2020/04/17,20.0,KS,20071.0,Greeley County,216.0,1011.0,7984.0,1767.0,3211.0,88.0,1157.0,456.0,505.0,386.0,326.0,88.0,0.0
345394,County,2020/04/18,20.0,KS,20071.0,Greeley County,255.0,972.0,6950.0,1422.0,2835.0,98.0,967.0,389.0,293.0,472.0,404.0,53.0,17.0
350145,County,2020/04/19,20.0,KS,20071.0,Greeley County,262.0,965.0,7731.0,1260.0,3802.0,147.0,942.0,394.0,315.0,486.0,276.0,80.0,29.0
353395,County,2020/04/20,20.0,KS,20071.0,Greeley County,233.0,994.0,8046.0,1589.0,2746.0,104.0,1358.0,547.0,578.0,585.0,447.0,75.0,17.0
356581,County,2020/04/21,20.0,KS,20071.0,Greeley County,320.0,907.0,7496.0,1257.0,2881.0,69.0,1084.0,553.0,589.0,576.0,396.0,71.0,20.0
358210,County,2020/04/22,20.0,KS,20071.0,Greeley County,298.0,929.0,7054.0,1217.0,2438.0,57.0,1149.0,480.0,546.0,674.0,422.0,52.0,19.0
362942,County,2020/04/23,20.0,KS,20071.0,Greeley County,300.0,927.0,7376.0,1137.0,2689.0,63.0,1152.0,578.0,562.0,775.0,354.0,53.0,13.0
364569,County,2020/04/24,20.0,KS,20071.0,Greeley County,303.0,924.0,7983.0,1380.0,3269.0,73.0,1298.0,556.0,507.0,612.0,222.0,53.0,13.0
367736,County,2020/04/25,20.0,KS,20071.0,Greeley County,297.0,930.0,6751.0,1286.0,2746.0,70.0,1118.0,404.0,426.0,444.0,201.0,42.0,14.0
372505,County,2020/04/26,20.0,KS,20071.0,Greeley County,311.0,916.0,5702.0,1267.0,2294.0,68.0,717.0,404.0,345.0,352.0,205.0,27.0,23.0
375784,County,2020/04/27,20.0,KS,20071.0,Greeley County,320.0,907.0,7586.0,1705.0,3185.0,79.0,961.0,541.0,419.0,489.0,157.0,36.0,14.0
377330,County,2020/04/28,20.0,KS,20071.0,Greeley County,285.0,942.0,6306.0,1181.0,2386.0,69.0,895.0,563.0,374.0,520.0,268.0,43.0,7.0
382111,County,2020/04/29,20.0,KS,20071.0,Greeley County,263.0,964.0,5996.0,1158.0,2236.0,56.0,767.0,514.0,445.0,483.0,278.0,45.0,14.0
385328,County,2020/04/30,20.0,KS,20071.0,Greeley County,281.0,946.0,6336.0,1164.0,2513.0,64.0,812.0,433.0,522.0,494.0,276.0,37.0,21.0
388564,County,2020/05/01,20.0,KS,20071.0,Greeley County,275.0,952.0,5268.0,917.0,1877.0,52.0,728.0,407.0,493.0,458.0,272.0,38.0,26.0
390137,County,2020/05/02,20.0,KS,20071.0,Greeley County,273.0,954.0,5238.0,910.0,2168.0,43.0,733.0,382.0,332.0,418.0,193.0,39.0,20.0
393350,County,2020/05/03,20.0,KS,20071.0,Greeley County,265.0,962.0,5997.0,1084.0,2424.0,83.0,876.0,441.0,405.0,450.0,187.0,40.0,7.0
396512,County,2020/05/04,20.0,KS,20071.0,Greeley County,255.0,972.0,9103.0,2131.0,3508.0,100.0,1489.0,558.0,490.0,554.0,223.0,43.0,7.0
401280,County,2020/05/05,20.0,KS,20071.0,Greeley County,250.0,977.0,9583.0,2415.0,3549.0,107.0,1450.0,683.0,505.0,553.0,276.0,37.0,8.0
404486,County,2020/05/06,20.0,KS,20071.0,Greeley County,237.0,990.0,9417.0,2214.0,3874.0,104.0,1225.0,675.0,480.0,473.0,315.0,50.0,7.0
406113,County,2020/05/07,20.0,KS,20071.0,Greeley County,275.0,952.0,9541.0,2151.0,3851.0,94.0,1219.0,624.0,631.0,627.0,286.0,51.0,7.0
409369,County,2020/05/08,20.0,KS,20071.0,Greeley County,242.0,985.0,9204.0,1958.0,3879.0,97.0,1285.0,504.0,657.0,573.0,209.0,41.0,1.0
412423,County,2020/05/09,20.0,KS,20071.0,Greeley County,255.0,972.0,7852.0,1587.0,3699.0,122.0,1051.0,434.0,472.0,370.0,95.0,22.0,0.0
417220,County,2020/05/10,20.0,KS,20071.0,Greeley County,262.0,965.0,7272.0,1259.0,3039.0,117.0,1094.0,523.0,517.0,487.0,199.0,37.0,0.0
420499,County,2020/05/11,20.0,KS,20071.0,Greeley County,280.0,947.0,7900.0,1368.0,3343.0,115.0,1126.0,575.0,542.0,525.0,239.0,49.0,18.0
422079,County,2020/05/12,20.0,KS,20071.0,Greeley County,239.0,988.0,6680.0,511.0,3606.0,43.0,1391.0,587.0,218.0,324.0,0.0,0.0,0.0
425235,County,2020/05/13,20.0,KS,20071.0,Greeley County,255.0,972.0,9481.0,1740.0,4347.0,120.0,1366.0,597.0,513.0,485.0,265.0,42.0,6.0
428478,County,2020/05/14,20.0,KS,20071.0,Greeley County,227.0,1000.0,6639.0,648.0,3673.0,58.0,1259.0,387.0,296.0,244.0,29.0,45.0,0.0
431673,County,2020/05/15,20.0,KS,20071.0,Greeley County,191.0,1036.0,9411.0,546.0,6491.0,73.0,835.0,659.0,224.0,407.0,108.0,68.0,0.0
436422,County,2020/05/16,20.0,KS,20071.0,Greeley County,274.0,953.0,6444.0,1139.0,2848.0,102.0,1014.0,469.0,342.0,278.0,215.0,29.0,8.0
438049,County,2020/05/17,20.0,KS,20071.0,Greeley County,245.0,982.0,8366.0,1589.0,3425.0,100.0,1427.0,553.0,447.0,547.0,245.0,33.0,0.0
441294,County,2020/05/18,20.0,KS,20071.0,Greeley County,263.0,964.0,9881.0,2323.0,4101.0,111.0,1585.0,590.0,517.0,399.0,213.0,42.0,0.0
445984,County,2020/05/19,20.0,KS,20071.0,Greeley County,271.0,956.0,10440.0,2389.0,4186.0,144.0,1634.0,698.0,633.0,430.0,270.0,56.0,0.0
447616,County,2020/05/20,20.0,KS,20071.0,Greeley County,209.0,1018.0,10002.0,2281.0,3423.0,134.0,1518.0,761.0,770.0,663.0,382.0,65.0,5.0
452050,County,2020/05/21,20.0,KS,20071.0,Greeley County,200.0,1027.0,10475.0,2365.0,3586.0,109.0,1585.0,750.0,847.0,718.0,442.0,58.0,15.0
454022,County,2020/05/22,20.0,KS,20071.0,Greeley County,232.0,995.0,9905.0,2451.0,3309.0,110.0,1369.0,698.0,839.0,604.0,439.0,60.0,26.0
457218,County,2020/05/23,20.0,KS,20071.0,Greeley County,216.0,1011.0,9182.0,1953.0,3484.0,123.0,1522.0,579.0,591.0,560.0,303.0,51.0,16.0
460386,County,2020/05/24,20.0,KS,20071.0,Greeley County,250.0,977.0,7784.0,1164.0,3592.0,105.0,1317.0,485.0,423.0,481.0,172.0,34.0,11.0
463589,County,2020/05/25,20.0,KS,20071.0,Greeley County,259.0,968.0,9233.0,1664.0,4206.0,126.0,1318.0,614.0,481.0,489.0,265.0,50.0,20.0
468420,County,2020/05/26,20.0,KS,20071.0,Greeley County,209.0,1018.0,8344.0,614.0,6102.0,68.0,415.0,468.0,173.0,344.0,0.0,157.0,3.0
469999,County,2020/05/27,20.0,KS,20071.0,Greeley County,206.0,1021.0,7496.0,596.0,5400.0,153.0,417.0,426.0,174.0,215.0,76.0,39.0,0.0
473195,County,2020/05/28,20.0,KS,20071.0,Greeley County,203.0,1024.0,7634.0,734.0,5055.0,136.0,557.0,513.0,261.0,302.0,76.0,0.0,0.0
476340,County,2020/05/29,20.0,KS,20071.0,Greeley County,239.0,988.0,7367.0,1264.0,3598.0,71.0,905.0,490.0,421.0,386.0,185.0,47.0,0.0
479527,County,2020/05/30,20.0,KS,20071.0,Greeley County,240.0,987.0,5959.0,931.0,2672.0,63.0,941.0,485.0,325.0,334.0,178.0,30.0,0.0
484293,County,2020/05/31,20.0,KS,20071.0,Greeley County,239.0,988.0,6486.0,1033.0,2987.0,91.0,851.0,548.0,440.0,349.0,148.0,19.0,20.0
485922,County,2020/06/01,20.0,KS,20071.0,Greeley County,242.0,985.0,6758.0,1369.0,3303.0,106.0,782.0,387.0,326.0,266.0,177.0,26.0,16.0
489163,County,2020/06/02,20.0,KS,20071.0,Greeley County,218.0,1009.0,8636.0,507.0,6265.0,18.0,755.0,510.0,284.0,187.0,110.0,0.0,0.0
492332,County,2020/06/03,20.0,KS,20071.0,Greeley County,209.0,1018.0,8783.0,1754.0,3895.0,105.0,1144.0,630.0,510.0,457.0,233.0,41.0,14.0
497106,County,2020/06/04,20.0,KS,20071.0,Greeley County,201.0,1026.0,7427.0,1234.0,3206.0,92.0,1152.0,518.0,491.0,491.0,199.0,39.0,5.0
498746,County,2020/06/05,20.0,KS,20071.0,Greeley County,228.0,999.0,6639.0,1063.0,2613.0,90.0,1121.0,474.0,476.0,537.0,222.0,33.0,10.0
501893,County,2020/06/06,20.0,KS,20071.0,Greeley County,248.0,979.0,5736.0,734.0,2651.0,80.0,977.0,378.0,384.0,342.0,168.0,17.0,5.0
505085,County,2020/06/07,20.0,KS,20071.0,Greeley County,215.0,1012.0,7339.0,1164.0,3328.0,80.0,1117.0,524.0,504.0,408.0,166.0,40.0,8.0
509881,County,2020/06/08,20.0,KS,20071.0,Greeley County,247.0,980.0,7180.0,1333.0,3189.0,88.0,951.0,541.0,445.0,414.0,200.0,19.0,0.0
511510,County,2020/06/09,20.0,KS,20071.0,Greeley County,247.0,980.0,6648.0,1140.0,2847.0,75.0,1109.0,466.0,403.0,391.0,209.0,8.0,0.0
516291,County,2020/06/10,20.0,KS,20071.0,Greeley County,197.0,1030.0,7905.0,1250.0,3654.0,87.0,1150.0,516.0,533.0,477.0,218.0,20.0,0.0
519399,County,2020/06/11,20.0,KS,20071.0,Greeley County,215.0,1012.0,8086.0,1306.0,3565.0,80.0,1205.0,615.0,564.0,466.0,241.0,44.0,0.0
522671,County,2020/06/12,20.0,KS,20071.0,Greeley County,206.0,1021.0,7404.0,1215.0,3188.0,94.0,1128.0,545.0,544.0,468.0,186.0,36.0,0.0
524298,County,2020/06/13,20.0,KS,20071.0,Greeley County,230.0,997.0,7026.0,1083.0,2981.0,101.0,1105.0,561.0,508.0,436.0,210.0,36.0,5.0
529061,County,2020/06/14,20.0,KS,20071.0,Greeley County,218.0,1009.0,6109.0,346.0,4272.0,168.0,412.0,380.0,129.0,213.0,150.0,39.0,0.0
532252,County,2020/06/15,20.0,KS,20071.0,Greeley County,191.0,1036.0,7184.0,731.0,4327.0,160.0,1312.0,403.0,75.0,111.0,65.0,0.0,0.0
535423,County,2020/06/16,20.0,KS,20071.0,Greeley County,218.0,1009.0,9447.0,536.0,5696.0,118.0,2060.0,506.0,172.0,256.0,25.0,78.0,0.0
537025,County,2020/06/17,20.0,KS,20071.0,Greeley County,236.0,991.0,6005.0,971.0,1831.0,155.0,1554.0,651.0,354.0,394.0,51.0,40.0,4.0
541786,County,2020/06/18,20.0,KS,20071.0,Greeley County,181.0,1046.0,8020.0,705.0,4817.0,155.0,978.0,691.0,398.0,182.0,36.0,56.0,2.0
544987,County,2020/06/19,20.0,KS,20071.0,Greeley County,155.0,1072.0,5566.0,715.0,2347.0,20.0,1234.0,505.0,206.0,281.0,135.0,117.0,6.0
546618,County,2020/06/20,20.0,KS,20071.0,Greeley County,244.0,983.0,8364.0,794.0,4818.0,0.0,1084.0,856.0,436.0,144.0,56.0,176.0,0.0
549822,County,2020/06/21,20.0,KS,20071.0,Greeley County,199.0,1028.0,4546.0,549.0,2564.0,121.0,220.0,304.0,275.0,239.0,180.0,94.0,0.0
554602,County,2020/06/22,20.0,KS,20071.0,Greeley County,181.0,1046.0,7836.0,674.0,3442.0,128.0,1992.0,757.0,475.0,147.0,138.0,81.0,2.0
556230,County,2020/06/23,20.0,KS,20071.0,Greeley County,151.0,1076.0,6362.0,860.0,1498.0,101.0,1898.0,938.0,491.0,384.0,75.0,117.0,0.0
560998,County,2020/06/24,20.0,KS,20071.0,Greeley County,165.0,1062.0,4479.0,716.0,1781.0,94.0,601.0,712.0,376.0,107.0,62.0,24.0,6.0
564126,County,2020/06/25,20.0,KS,20071.0,Greeley County,155.0,1072.0,9150.0,755.0,4267.0,141.0,2386.0,758.0,592.0,102.0,75.0,70.0,4.0
567421,County,2020/06/26,20.0,KS,20071.0,Greeley County,162.0,1065.0,9351.0,977.0,4018.0,105.0,2670.0,1031.0,323.0,80.0,94.0,49.0,4.0
569002,County,2020/06/27,20.0,KS,20071.0,Greeley County,163.0,1064.0,7383.0,723.0,3693.0,102.0,1676.0,592.0,157.0,260.0,107.0,71.0,2.0
572210,County,2020/06/28,20.0,KS,20071.0,Greeley County,171.0,1056.0,5853.0,517.0,2960.0,21.0,1229.0,782.0,165.0,54.0,64.0,50.0,11.0
576935,County,2020/06/29,20.0,KS,20071.0,Greeley County,187.0,1040.0,6160.0,609.0,2503.0,39.0,1287.0,1153.0,369.0,100.0,39.0,61.0,0.0
578578,County,2020/06/30,20.0,KS,20071.0,Greeley County,232.0,995.0,7971.0,1010.0,4455.0,56.0,1146.0,739.0,287.0,178.0,21.0,65.0,14.0
581784,County,2020/07/01,20.0,KS,20071.0,Greeley County,210.0,1017.0,6522.0,691.0,3248.0,66.0,1342.0,605.0,336.0,167.0,33.0,25.0,9.0
584976,County,2020/07/02,20.0,KS,20071.0,Greeley County,193.0,1034.0,9712.0,801.0,4529.0,150.0,2533.0,805.0,628.0,108.0,80.0,74.0,4.0
588153,County,2020/07/03,20.0,KS,20071.0,Greeley County,205.0,1022.0,9297.0,971.0,3995.0,104.0,2655.0,1025.0,321.0,80.0,93.0,49.0,4.0
591363,County,2020/07/04,20.0,KS,20071.0,Greeley County,220.0,1007.0,7954.0,831.0,3418.0,89.0,2271.0,877.0,275.0,68.0,80.0,42.0,3.0
596109,County,2020/07/05,20.0,KS,20071.0,Greeley County,206.0,1021.0,5003.0,318.0,3065.0,108.0,591.0,363.0,308.0,122.0,72.0,56.0,0.0
598409,County,2020/07/06,20.0,KS,20071.0,Greeley County,169.0,1058.0,7423.0,459.0,4616.0,73.0,1187.0,456.0,248.0,123.0,90.0,169.0,2.0
602900,County,2020/07/07,20.0,KS,20071.0,Greeley County,181.0,1046.0,7957.0,782.0,4756.0,53.0,1187.0,729.0,203.0,134.0,79.0,31.0,3.0
605615,County,2020/07/08,20.0,KS,20071.0,Greeley County,168.0,1059.0,8366.0,632.0,4928.0,13.0,1584.0,519.0,297.0,262.0,38.0,90.0,3.0
607341,County,2020/07/09,20.0,KS,20071.0,Greeley County,209.0,1018.0,8719.0,985.0,5361.0,80.0,1197.0,468.0,341.0,236.0,20.0,31.0,0.0
610492,County,2020/07/10,20.0,KS,20071.0,Greeley County,195.0,1032.0,8746.0,595.0,6004.0,94.0,643.0,672.0,322.0,239.0,140.0,37.0,0.0
613702,County,2020/07/11,20.0,KS,20071.0,Greeley County,156.0,1071.0,8642.0,625.0,5442.0,27.0,1657.0,441.0,242.0,137.0,40.0,31.0,0.0
618476,County,2020/07/12,20.0,KS,20071.0,Greeley County,222.0,1005.0,7817.0,1206.0,3619.0,100.0,1247.0,514.0,405.0,509.0,184.0,21.0,12.0
620113,County,2020/07/13,20.0,KS,20071.0,Greeley County,207.0,1020.0,8571.0,356.0,6593.0,109.0,382.0,586.0,358.0,79.0,69.0,36.0,3.0
623313,County,2020/07/14,20.0,KS,20071.0,Greeley County,224.0,1003.0,7064.0,296.0,4817.0,0.0,1000.0,439.0,313.0,133.0,52.0,0.0,14.0
626386,County,2020/07/15,20.0,KS,20071.0,Greeley County,205.0,1022.0,6324.0,733.0,4136.0,33.0,266.0,531.0,291.0,165.0,121.0,38.0,10.0
631316,County,2020/07/16,20.0,KS,20071.0,Greeley County,183.0,1044.0,7144.0,1207.0,3115.0,81.0,1053.0,472.0,447.0,474.0,246.0,40.0,9.0
632877,County,2020/07/17,20.0,KS,20071.0,Greeley County,196.0,1031.0,5979.0,1109.0,2608.0,76.0,896.0,428.0,317.0,334.0,175.0,35.0,1.0
637663,County,2020/07/18,20.0,KS,20071.0,Greeley County,223.0,1004.0,5528.0,940.0,2606.0,78.0,818.0,368.0,234.0,303.0,141.0,34.0,6.0
640816,County,2020/07/19,20.0,KS,20071.0,Greeley County,184.0,1043.0,6955.0,1118.0,3165.0,83.0,948.0,520.0,450.0,427.0,204.0,36.0,4.0
644025,County,2020/07/20,20.0,KS,20071.0,Greeley County,179.0,1048.0,8382.0,1403.0,3726.0,103.0,1265.0,603.0,531.0,480.0,213.0,54.0,4.0
645653,County,2020/07/21,20.0,KS,20071.0,Greeley County,178.0,1049.0,7937.0,1339.0,3543.0,92.0,1211.0,578.0,458.0,450.0,224.0,35.0,7.0
650382,County,2020/07/22,20.0,KS,20071.0,Greeley County,178.0,1049.0,7271.0,1170.0,3276.0,86.0,967.0,509.0,421.0,471.0,294.0,55.0,22.0
651972,County,2020/07/23,20.0,KS,20071.0,Greeley County,190.0,1037.0,7492.0,1321.0,3070.0,92.0,1050.0,545.0,467.0,580.0,298.0,43.0,26.0
655144,County,2020/07/24,20.0,KS,20071.0,Greeley County,186.0,1041.0,7812.0,1301.0,3470.0,99.0,1291.0,505.0,447.0,472.0,191.0,29.0,7.0
660067,County,2020/07/25,20.0,KS,20071.0,Greeley County,188.0,1039.0,7564.0,1298.0,3504.0,107.0,1184.0,441.0,408.0,400.0,193.0,25.0,4.0
661640,County,2020/07/26,20.0,KS,20071.0,Greeley County,151.0,1076.0,9597.0,1544.0,4436.0,125.0,1490.0,600.0,516.0,576.0,256.0,46.0,8.0
664887,County,2020/07/27,20.0,KS,20071.0,Greeley County,244.0,983.0,5148.0,691.0,1795.0,113.0,923.0,496.0,289.0,716.0,125.0,0.0,0.0
668000,County,2020/07/28,20.0,KS,20071.0,Greeley County,207.0,1020.0,5475.0,903.0,1308.0,123.0,1346.0,775.0,368.0,574.0,30.0,48.0,0.0
672884,County,2020/07/29,20.0,KS,20071.0,Greeley County,158.0,1069.0,8885.0,1492.0,3699.0,115.0,1470.0,615.0,517.0,596.0,315.0,58.0,8.0
675966,County,2020/07/30,20.0,KS,20071.0,Greeley County,158.0,1069.0,8586.0,1478.0,3747.0,113.0,1343.0,546.0,417.0,592.0,265.0,77.0,8.0
679194,County,2020/07/31,20.0,KS,20071.0,Greeley County,164.0,1063.0,8255.0,1562.0,3689.0,97.0,1151.0,592.0,439.0,459.0,218.0,39.0,9.0
682315,County,2020/08/01,20.0,KS,20071.0,Greeley County,172.0,1055.0,7967.0,1308.0,3791.0,95.0,1181.0,507.0,445.0,409.0,197.0,26.0,8.0
685555,County,2020/08/02,20.0,KS,20071.0,Greeley County,242.0,985.0,5829.0,479.0,3031.0,102.0,1169.0,205.0,156.0,518.0,121.0,48.0,0.0
688758,County,2020/08/03,20.0,KS,20071.0,Greeley County,230.0,997.0,5055.0,429.0,2926.0,121.0,282.0,607.0,354.0,307.0,26.0,0.0,3.0
690386,County,2020/08/04,20.0,KS,20071.0,Greeley County,224.0,1003.0,7451.0,846.0,4529.0,115.0,672.0,536.0,252.0,376.0,122.0,0.0,3.0
693549,County,2020/08/05,20.0,KS,20071.0,Greeley County,254.0,973.0,7515.0,978.0,4569.0,86.0,352.0,487.0,386.0,437.0,161.0,50.0,9.0
696755,County,2020/08/06,20.0,KS,20071.0,Greeley County,242.0,985.0,7762.0,801.0,4870.0,124.0,867.0,843.0,91.0,135.0,27.0,0.0,4.0
699967,County,2020/08/07,20.0,KS,20071.0,Greeley County,223.0,1004.0,5941.0,435.0,3607.0,113.0,619.0,332.0,435.0,288.0,112.0,0.0,0.0
704728,County,2020/08/08,20.0,KS,20071.0,Greeley County,192.0,1035.0,7001.0,347.0,5010.0,82.0,483.0,386.0,242.0,420.0,17.0,0.0,14.0
707898,County,2020/08/09,20.0,KS,20071.0,Greeley County,185.0,1042.0,6916.0,1125.0,2511.0,93.0,1223.0,533.0,516.0,522.0,341.0,43.0,9.0
711116,County,2020/08/10,20.0,KS,20071.0,Greeley County,194.0,1033.0,7726.0,1452.0,2926.0,121.0,1219.0,530.0,576.0,502.0,353.0,38.0,9.0
714357,County,2020/08/11,20.0,KS,20071.0,Greeley County,192.0,1035.0,10098.0,932.0,6882.0,257.0,698.0,429.0,525.0,217.0,76.0,79.0,3.0
717406,County,2020/08/12,20.0,KS,20071.0,Greeley County,215.0,1012.0,5982.0,1150.0,2319.0,128.0,894.0,824.0,467.0,47.0,108.0,42.0,3.0
720650,County,2020/08/13,20.0,KS,20071.0,Greeley County,174.0,1053.0,7876.0,1453.0,3483.0,101.0,1109.0,469.0,391.0,536.0,286.0,48.0,0.0
723876,County,2020/08/14,20.0,KS,20071.0,Greeley County,189.0,1038.0,7999.0,1038.0,4725.0,154.0,561.0,560.0,395.0,435.0,128.0,0.0,3.0
727087,County,2020/08/15,20.0,KS,20071.0,Greeley County,189.0,1038.0,7611.0,1200.0,3315.0,123.0,1297.0,494.0,402.0,532.0,192.0,43.0,13.0
730279,County,2020/08/16,20.0,KS,20071.0,Greeley County,177.0,1050.0,5602.0,239.0,3262.0,86.0,560.0,473.0,263.0,607.0,25.0,80.0,7.0
733447,County,2020/08/17,20.0,KS,20071.0,Greeley County,232.0,995.0,8030.0,1302.0,3134.0,115.0,1443.0,647.0,557.0,536.0,264.0,30.0,2.0
735074,County,2020/08/18,20.0,KS,20071.0,Greeley County,226.0,1001.0,7735.0,1314.0,3264.0,100.0,1142.0,625.0,493.0,528.0,223.0,42.0,4.0
738280,County,2020/08/19,20.0,KS,20071.0,Greeley County,190.0,1037.0,5194.0,552.0,2393.0,169.0,1230.0,331.0,288.0,191.0,28.0,0.0,12.0
743061,County,2020/08/20,20.0,KS,20071.0,Greeley County,199.0,1028.0,6746.0,1302.0,2831.0,99.0,1118.0,531.0,470.0,246.0,124.0,24.0,1.0
746267,County,2020/08/21,20.0,KS,20071.0,Greeley County,181.0,1046.0,9035.0,759.0,4134.0,175.0,1754.0,930.0,549.0,643.0,29.0,46.0,16.0
749423,County,2020/08/22,20.0,KS,20071.0,Greeley County,199.0,1028.0,9893.0,806.0,5363.0,105.0,1206.0,1429.0,378.0,481.0,63.0,49.0,13.0
752591,County,2020/08/23,20.0,KS,20071.0,Greeley County,216.0,1011.0,6235.0,1084.0,2816.0,85.0,945.0,392.0,308.0,420.0,164.0,16.0,5.0
754263,County,2020/08/24,20.0,KS,20071.0,Greeley County,236.0,991.0,7000.0,1169.0,3226.0,81.0,890.0,464.0,511.0,384.0,226.0,44.0,5.0
759023,County,2020/08/25,20.0,KS,20071.0,Greeley County,222.0,1005.0,6663.0,1140.0,2878.0,84.0,890.0,457.0,478.0,450.0,239.0,42.0,5.0
760655,County,2020/08/26,20.0,KS,20071.0,Greeley County,223.0,1004.0,6309.0,1224.0,2292.0,92.0,1018.0,553.0,499.0,367.0,224.0,28.0,12.0
765379,County,2020/08/27,20.0,KS,20071.0,Greeley County,196.0,1031.0,6107.0,535.0,3291.0,103.0,705.0,476.0,353.0,524.0,0.0,120.0,0.0
768594,County,2020/08/28,20.0,KS,20071.0,Greeley County,181.0,1046.0,10502.0,1074.0,7503.0,81.0,789.0,283.0,288.0,286.0,120.0,75.0,3.0
770222,County,2020/08/29,20.0,KS,20071.0,Greeley County,225.0,1002.0,6388.0,1237.0,2984.0,97.0,905.0,349.0,361.0,352.0,85.0,18.0,0.0
773429,County,2020/08/30,20.0,KS,20071.0,Greeley County,,,,,,,,,,,,,
778153,County,2020/08/31,20.0,KS,20071.0,Greeley County,,,,,,,,,,,,,
779764,County,2020/09/01,20.0,KS,20071.0,Greeley County,144.0,1083.0,5758.0,696.0,2917.0,123.0,563.0,311.0,388.0,489.0,143.0,128.0,0.0
783796,County,2020/09/02,20.0,KS,20071.0,Greeley County,205.0,1022.0,4256.0,893.0,1531.0,90.0,148.0,771.0,415.0,229.0,134.0,42.0,3.0
787747,County,2020/09/03,20.0,KS,20071.0,Greeley County,158.0,1069.0,9889.0,684.0,6237.0,42.0,573.0,949.0,286.0,604.0,313.0,195.0,6.0
789362,County,2020/09/04,20.0,KS,20071.0,Greeley County,199.0,1028.0,7669.0,728.0,5006.0,72.0,892.0,228.0,185.0,184.0,324.0,42.0,8.0
794129,County,2020/09/05,20.0,KS,20071.0,Greeley County,130.0,1097.0,11602.0,1042.0,7227.0,104.0,1287.0,593.0,671.0,432.0,214.0,30.0,2.0
795781,County,2020/09/06,20.0,KS,20071.0,Greeley County,,,,,,,,,,,,,
800546,County,2020/09/07,20.0,KS,20071.0,Greeley County,199.0,1028.0,8854.0,664.0,5775.0,72.0,743.0,547.0,511.0,369.0,81.0,84.0,8.0
802154,County,2020/09/08,20.0,KS,20071.0,Greeley County,188.0,1039.0,6645.0,418.0,4482.0,179.0,133.0,409.0,583.0,207.0,73.0,151.0,10.0
806935,County,2020/09/09,20.0,KS,20071.0,Greeley County,206.0,1021.0,5868.0,386.0,3657.0,189.0,424.0,477.0,441.0,219.0,25.0,40.0,10.0
808562,County,2020/09/10,20.0,KS,20071.0,Greeley County,240.0,987.0,3455.0,570.0,442.0,188.0,511.0,576.0,427.0,529.0,62.0,145.0,5.0
811719,County,2020/09/11,20.0,KS,20071.0,Greeley County,219.0,1008.0,9247.0,810.0,6019.0,121.0,664.0,663.0,416.0,308.0,151.0,95.0,0.0
814903,County,2020/09/12,20.0,KS,20071.0,Greeley County,230.0,997.0,7605.0,1496.0,3693.0,88.0,994.0,541.0,371.0,263.0,124.0,35.0,0.0
818125,County,2020/09/13,20.0,KS,20071.0,Greeley County,216.0,1011.0,9164.0,1556.0,3947.0,137.0,1440.0,715.0,602.0,526.0,223.0,17.0,1.0
821330,County,2020/09/14,20.0,KS,20071.0,Greeley County,219.0,1008.0,7401.0,1165.0,3196.0,81.0,1195.0,588.0,480.0,463.0,187.0,36.0,10.0
826099,County,2020/09/15,20.0,KS,20071.0,Greeley County,211.0,1016.0,7051.0,1325.0,2865.0,96.0,1113.0,593.0,476.0,326.0,188.0,52.0,17.0
829293,County,2020/09/16,20.0,KS,20071.0,Greeley County,209.0,1018.0,7689.0,1494.0,3154.0,104.0,1189.0,599.0,484.0,404.0,210.0,39.0,12.0
832470,County,2020/09/17,20.0,KS,20071.0,Greeley County,213.0,1014.0,8446.0,1399.0,3720.0,104.0,1264.0,633.0,584.0,516.0,173.0,47.0,6.0
834099,County,2020/09/18,20.0,KS,20071.0,Greeley County,171.0,1056.0,7033.0,1000.0,2803.0,83.0,947.0,955.0,465.0,545.0,148.0,77.0,10.0
838874,County,2020/09/19,20.0,KS,20071.0,Greeley County,213.0,1014.0,8912.0,1825.0,4164.0,100.0,1133.0,555.0,434.0,465.0,185.0,45.0,6.0
840503,County,2020/09/20,20.0,KS,20071.0,Greeley County,234.0,993.0,7013.0,1323.0,3185.0,100.0,1126.0,518.0,333.0,245.0,130.0,26.0,27.0
843665,County,2020/09/21,20.0,KS,20071.0,Greeley County,227.0,1000.0,6594.0,1163.0,2871.0,100.0,1062.0,492.0,404.0,336.0,140.0,22.0,4.0
846869,County,2020/09/22,20.0,KS,20071.0,Greeley County,221.0,1006.0,6818.0,1249.0,2872.0,106.0,1155.0,502.0,471.0,292.0,152.0,15.0,4.0
851647,County,2020/09/23,20.0,KS,20071.0,Greeley County,197.0,1030.0,7093.0,1126.0,3014.0,117.0,1268.0,534.0,445.0,381.0,166.0,38.0,4.0
853275,County,2020/09/24,20.0,KS,20071.0,Greeley County,195.0,1032.0,7136.0,1043.0,2875.0,119.0,1219.0,552.0,527.0,541.0,215.0,41.0,4.0
858039,County,2020/09/25,20.0,KS,20071.0,Greeley County,182.0,1045.0,7369.0,1099.0,3130.0,101.0,1110.0,520.0,538.0,578.0,233.0,48.0,12.0
861185,County,2020/09/26,20.0,KS,20071.0,Greeley County,202.0,1025.0,7198.0,1120.0,3094.0,112.0,1265.0,475.0,423.0,473.0,200.0,27.0,9.0
862839,County,2020/09/27,20.0,KS,20071.0,Greeley County,211.0,1016.0,7503.0,1254.0,3410.0,102.0,1353.0,504.0,317.0,401.0,136.0,21.0,5.0
866042,County,2020/09/28,20.0,KS,20071.0,Greeley County,226.0,1001.0,8739.0,1443.0,4165.0,135.0,1488.0,668.0,349.0,324.0,120.0,22.0,25.0
870814,County,2020/09/29,20.0,KS,20071.0,Greeley County,192.0,1035.0,10292.0,1992.0,4744.0,131.0,1636.0,793.0,416.0,357.0,184.0,28.0,11.0
873980,County,2020/09/30,20.0,KS,20071.0,Greeley County,180.0,1047.0,9936.0,2090.0,4365.0,128.0,1526.0,712.0,492.0,428.0,165.0,25.0,5.0
875608,County,2020/10/01,20.0,KS,20071.0,Greeley County,201.0,1026.0,8724.0,1583.0,4135.0,96.0,1275.0,629.0,443.0,403.0,140.0,16.0,4.0
878811,County,2020/10/02,20.0,KS,20071.0,Greeley County,197.0,1030.0,7986.0,1554.0,3539.0,118.0,1202.0,573.0,427.0,379.0,171.0,19.0,4.0
883593,County,2020/10/03,20.0,KS,20071.0,Greeley County,187.0,1040.0,8134.0,1596.0,3655.0,109.0,1068.0,566.0,472.0,513.0,135.0,18.0,2.0
885593,County,2020/10/04,20.0,KS,20071.0,Greeley County,185.0,1042.0,4982.0,744.0,2440.0,77.0,757.0,364.0,232.0,234.0,102.0,32.0,0.0
888832,County,2020/10/05,20.0,KS,20071.0,Greeley County,216.0,1011.0,7648.0,1153.0,4118.0,89.0,1193.0,386.0,313.0,285.0,107.0,4.0,0.0
892015,County,2020/10/06,20.0,KS,20071.0,Greeley County,184.0,1043.0,9355.0,1787.0,4325.0,105.0,1522.0,616.0,408.0,420.0,157.0,13.0,2.0
895201,County,2020/10/07,20.0,KS,20071.0,Greeley County,199.0,1028.0,8872.0,1908.0,4101.0,115.0,1301.0,523.0,355.0,369.0,169.0,28.0,3.0
898388,County,2020/10/08,20.0,KS,20071.0,Greeley County,195.0,1032.0,8603.0,1625.0,3715.0,110.0,1351.0,784.0,416.0,379.0,201.0,19.0,3.0
901617,County,2020/10/09,20.0,KS,20071.0,Greeley County,178.0,1049.0,8037.0,1454.0,3728.0,94.0,1274.0,507.0,380.0,406.0,173.0,19.0,2.0
904812,County,2020/10/10,20.0,KS,20071.0,Greeley County,183.0,1044.0,6785.0,1210.0,3027.0,100.0,1181.0,413.0,310.0,390.0,132.0,19.0,3.0
909833,County,2020/10/11,20.0,KS,20071.0,Greeley County,216.0,1011.0,6428.0,1172.0,3058.0,89.0,1050.0,325.0,295.0,314.0,112.0,13.0,0.0
912371,County,2020/10/12,20.0,KS,20071.0,Greeley County,221.0,1006.0,7515.0,1591.0,3562.0,86.0,1212.0,412.0,244.0,282.0,112.0,13.0,1.0
915650,County,2020/10/13,20.0,KS,20071.0,Greeley County,235.0,992.0,7327.0,1404.0,3288.0,112.0,1213.0,443.0,342.0,378.0,134.0,12.0,1.0
918818,County,2020/10/14,20.0,KS,20071.0,Greeley County,207.0,1020.0,6389.0,1164.0,2694.0,86.0,1015.0,445.0,426.0,398.0,131.0,30.0,0.0
922137,County,2020/10/15,20.0,KS,20071.0,Greeley County,191.0,1036.0,7053.0,1190.0,3114.0,94.0,1169.0,530.0,415.0,383.0,139.0,19.0,0.0
925548,County,2020/10/16,20.0,KS,20071.0,Greeley County,188.0,1039.0,8658.0,1445.0,4139.0,109.0,1257.0,553.0,548.0,454.0,142.0,9.0,2.0
928547,County,2020/10/17,20.0,KS,20071.0,Greeley County,196.0,1031.0,8464.0,1422.0,3938.0,119.0,1402.0,460.0,471.0,486.0,140.0,24.0,2.0
931583,County,2020/10/18,20.0,KS,20071.0,Greeley County,180.0,1047.0,6844.0,1104.0,2926.0,93.0,1130.0,527.0,410.0,526.0,112.0,13.0,3.0
934254,County,2020/10/19,20.0,KS,20071.0,Greeley County,185.0,1042.0,7436.0,1164.0,3587.0,91.0,1099.0,527.0,350.0,469.0,123.0,24.0,2.0
938441,County,2020/10/20,20.0,KS,20071.0,Greeley County,186.0,1041.0,7139.0,1281.0,3436.0,85.0,1041.0,494.0,290.0,365.0,126.0,19.0,2.0
941072,County,2020/10/21,20.0,KS,20071.0,Greeley County,197.0,1030.0,7593.0,1361.0,3567.0,91.0,1157.0,437.0,457.0,364.0,140.0,18.0,1.0
944734,County,2020/10/22,20.0,KS,20071.0,Greeley County,164.0,1063.0,7696.0,1362.0,3787.0,97.0,1144.0,392.0,376.0,354.0,163.0,21.0,0.0
948049,County,2020/10/23,20.0,KS,20071.0,Greeley County,157.0,1070.0,5999.0,1234.0,2418.0,100.0,954.0,348.0,360.0,396.0,172.0,17.0,0.0
950908,County,2020/10/24,20.0,KS,20071.0,Greeley County,169.0,1058.0,6783.0,1164.0,3327.0,85.0,831.0,365.0,461.0,382.0,155.0,12.0,1.0
