,Level,Date,State FIPS,State Postal Code,County FIPS,County Name,Population Staying at Home,Population Not Staying at Home,Number of Trips,Number of Trips <1,Number of Trips 1-3,Number of Trips 3-5,Number of Trips 5-10,Number of Trips 10-25,Number of Trips 25-50,Number of Trips 50-100,Number of Trips 100-250,Number of Trips 250-500,Number of Trips >=500
1332,County,2020/01/01,27.0,MN,27037.0,Dakota County,107776.0,317647.0,1138515.0,274690.0,280573.0,131734.0,181068.0,188999.0,50313.0,15242.0,11774.0,2108.0,2014.0
3572,County,2020/01/02,27.0,MN,27037.0,Dakota County,80612.0,344811.0,1446187.0,323370.0,332228.0,162141.0,237985.0,296572.0,65071.0,15221.0,9398.0,2327.0,1874.0
8799,County,2020/01/03,27.0,MN,27037.0,Dakota County,80306.0,345117.0,1510424.0,354084.0,341460.0,169363.0,243092.0,297877.0,71033.0,16505.0,12233.0,2774.0,2003.0
12046,County,2020/01/04,27.0,MN,27037.0,Dakota County,91600.0,333823.0,1399124.0,326787.0,348917.0,169305.0,227136.0,233068.0,60312.0,17577.0,12172.0,2063.0,1787.0
14108,County,2020/01/05,27.0,MN,27037.0,Dakota County,106577.0,318846.0,1156280.0,263389.0,299101.0,144096.0,187062.0,187182.0,43738.0,14920.0,12228.0,2577.0,1987.0
16568,County,2020/01/06,27.0,MN,27037.0,Dakota County,83516.0,341907.0,1434665.0,318325.0,337354.0,163450.0,223612.0,297592.0,68765.0,14455.0,7084.0,1812.0,2216.0
19822,County,2020/01/07,27.0,MN,27037.0,Dakota County,79074.0,346349.0,1457739.0,329635.0,327622.0,163000.0,232784.0,311328.0,67645.0,13207.0,8271.0,2139.0,2108.0
24670,County,2020/01/08,27.0,MN,27037.0,Dakota County,80197.0,345226.0,1428017.0,311918.0,323646.0,158789.0,232718.0,306498.0,67011.0,14045.0,8698.0,2737.0,1957.0
26200,County,2020/01/09,27.0,MN,27037.0,Dakota County,78972.0,346451.0,1460572.0,333429.0,333796.0,159110.0,235689.0,302268.0,69494.0,14020.0,8128.0,2637.0,2001.0
29396,County,2020/01/10,27.0,MN,27037.0,Dakota County,76066.0,349357.0,1559621.0,350150.0,361418.0,174813.0,246354.0,319696.0,73194.0,16675.0,12751.0,2150.0,2420.0
32636,County,2020/01/11,27.0,MN,27037.0,Dakota County,92108.0,333315.0,1377452.0,324716.0,343808.0,163468.0,218629.0,239396.0,56692.0,16356.0,10541.0,1875.0,1971.0
35792,County,2020/01/12,27.0,MN,27037.0,Dakota County,99634.0,325789.0,1227012.0,286000.0,311787.0,145483.0,198900.0,203009.0,48203.0,15629.0,13277.0,2352.0,2372.0
39035,County,2020/01/13,27.0,MN,27037.0,Dakota County,83780.0,341643.0,1392017.0,323256.0,318228.0,154848.0,219116.0,287745.0,64686.0,12823.0,7312.0,1923.0,2080.0
43768,County,2020/01/14,27.0,MN,27037.0,Dakota County,79592.0,345831.0,1464278.0,334064.0,333372.0,162480.0,235276.0,303871.0,68932.0,13908.0,8502.0,2174.0,1699.0
46974,County,2020/01/15,27.0,MN,27037.0,Dakota County,80023.0,345400.0,1441981.0,330464.0,328988.0,161115.0,230708.0,299055.0,64695.0,14661.0,7866.0,2124.0,2305.0
50130,County,2020/01/16,27.0,MN,27037.0,Dakota County,80837.0,344586.0,1453352.0,318568.0,336668.0,166443.0,223645.0,307104.0,70930.0,14780.0,10006.0,2555.0,2653.0
51758,County,2020/01/17,27.0,MN,27037.0,Dakota County,87430.0,337993.0,1405093.0,352477.0,341345.0,157961.0,214156.0,251211.0,59208.0,13755.0,10745.0,1971.0,2264.0
56539,County,2020/01/18,27.0,MN,27037.0,Dakota County,103865.0,321558.0,1345997.0,340439.0,360062.0,172233.0,210825.0,201953.0,40952.0,9283.0,6605.0,1790.0,1855.0
58137,County,2020/01/19,27.0,MN,27037.0,Dakota County,102067.0,323356.0,1252377.0,300293.0,327438.0,156543.0,197506.0,197933.0,45052.0,13161.0,10848.0,1770.0,1833.0
61370,County,2020/01/20,27.0,MN,27037.0,Dakota County,87775.0,337648.0,1402327.0,322775.0,328985.0,155232.0,221786.0,280386.0,64395.0,14155.0,9814.0,2232.0,2567.0
64527,County,2020/01/21,27.0,MN,27037.0,Dakota County,79263.0,346160.0,1460167.0,339048.0,331867.0,156466.0,232490.0,306066.0,68090.0,13182.0,8105.0,2241.0,2612.0
67730,County,2020/01/22,27.0,MN,27037.0,Dakota County,77796.0,347627.0,1454512.0,336059.0,331306.0,155117.0,230978.0,304126.0,69644.0,13940.0,9028.0,2279.0,2035.0
72520,County,2020/01/23,27.0,MN,27037.0,Dakota County,77800.0,347623.0,1519238.0,362827.0,352150.0,163439.0,236777.0,305660.0,68546.0,15080.0,10200.0,2370.0,2189.0
75676,County,2020/01/24,27.0,MN,27037.0,Dakota County,77114.0,348309.0,1569909.0,370114.0,353374.0,174855.0,248219.0,316629.0,73345.0,17396.0,11477.0,2107.0,2393.0
78911,County,2020/01/25,27.0,MN,27037.0,Dakota County,86728.0,338695.0,1491228.0,364915.0,357229.0,177621.0,237132.0,256307.0,64378.0,19037.0,10968.0,1718.0,1923.0
81182,County,2020/01/26,27.0,MN,27037.0,Dakota County,93591.0,331832.0,1314839.0,324405.0,327566.0,157659.0,206931.0,210504.0,53785.0,16713.0,13118.0,1926.0,2232.0
85227,County,2020/01/27,27.0,MN,27037.0,Dakota County,77741.0,347682.0,1468500.0,342147.0,343185.0,163950.0,228096.0,297828.0,67454.0,13256.0,8501.0,1807.0,2276.0
89031,County,2020/01/28,27.0,MN,27037.0,Dakota County,76651.0,348772.0,1477878.0,343700.0,333040.0,162316.0,234061.0,309485.0,70660.0,12527.0,7712.0,2114.0,2263.0
91681,County,2020/01/29,27.0,MN,27037.0,Dakota County,76457.0,348966.0,1502391.0,343686.0,342511.0,169471.0,236212.0,312369.0,70644.0,14029.0,9014.0,2168.0,2287.0
94888,County,2020/01/30,27.0,MN,27037.0,Dakota County,76545.0,348878.0,1501195.0,359902.0,327924.0,160986.0,236255.0,312351.0,71329.0,16216.0,9544.0,2947.0,3741.0
96462,County,2020/01/31,27.0,MN,27037.0,Dakota County,74124.0,351299.0,1566175.0,355801.0,361805.0,175651.0,246701.0,316312.0,73017.0,16569.0,13542.0,3475.0,3302.0
99711,County,2020/02/01,27.0,MN,27037.0,Dakota County,83881.0,341542.0,1528261.0,382056.0,368719.0,185286.0,238620.0,252298.0,66832.0,16983.0,11783.0,2892.0,2792.0
104422,County,2020/02/02,27.0,MN,27037.0,Dakota County,93686.0,331737.0,1333695.0,342768.0,341500.0,156746.0,205140.0,204655.0,48914.0,15443.0,12431.0,2810.0,3288.0
107674,County,2020/02/03,27.0,MN,27037.0,Dakota County,77273.0,348150.0,1486281.0,365310.0,337036.0,158123.0,223941.0,302716.0,69256.0,13602.0,9705.0,2910.0,3682.0
110811,County,2020/02/04,27.0,MN,27037.0,Dakota County,73988.0,351435.0,1500543.0,350933.0,332200.0,163247.0,235766.0,318079.0,70689.0,14230.0,8441.0,3327.0,3631.0
112437,County,2020/02/05,27.0,MN,27037.0,Dakota County,75676.0,349747.0,1509924.0,351492.0,337335.0,162701.0,244459.0,307972.0,73554.0,15730.0,9887.0,2975.0,3819.0
117220,County,2020/02/06,27.0,MN,27037.0,Dakota County,73938.0,351485.0,1533521.0,371302.0,338919.0,161026.0,239572.0,318205.0,72330.0,16242.0,10056.0,2179.0,3690.0
120474,County,2020/02/07,27.0,MN,27037.0,Dakota County,72566.0,352857.0,1587764.0,379041.0,357056.0,175114.0,247141.0,318886.0,73683.0,18411.0,12185.0,3096.0,3151.0
123634,County,2020/02/08,27.0,MN,27037.0,Dakota County,83874.0,341549.0,1456422.0,357106.0,346225.0,173360.0,228565.0,253345.0,65403.0,16287.0,11128.0,2724.0,2279.0
125345,County,2020/02/09,27.0,MN,27037.0,Dakota County,115052.0,310371.0,1229086.0,323277.0,312723.0,146672.0,183229.0,185647.0,42584.0,13622.0,12896.0,2848.0,5588.0
129641,County,2020/02/10,27.0,MN,27037.0,Dakota County,75999.0,349424.0,1586043.0,371015.0,363544.0,176738.0,246337.0,324931.0,71927.0,15016.0,8160.0,3019.0,5356.0
132092,County,2020/02/11,27.0,MN,27037.0,Dakota County,69106.0,356317.0,1611335.0,374686.0,358639.0,175918.0,254555.0,332873.0,82380.0,15489.0,8259.0,2994.0,5542.0
135269,County,2020/02/12,27.0,MN,27037.0,Dakota County,72737.0,352686.0,1582284.0,364990.0,351214.0,172121.0,247106.0,333473.0,79689.0,14945.0,9542.0,2878.0,6326.0
139604,County,2020/02/13,27.0,MN,27037.0,Dakota County,74715.0,350708.0,1585254.0,371827.0,356082.0,171939.0,242834.0,323214.0,81777.0,16940.0,11258.0,3230.0,6153.0
142757,County,2020/02/14,27.0,MN,27037.0,Dakota County,73339.0,352084.0,1717535.0,398289.0,381659.0,193727.0,274330.0,344965.0,79583.0,19432.0,14914.0,3828.0,6808.0
144381,County,2020/02/15,27.0,MN,27037.0,Dakota County,84203.0,341220.0,1645384.0,395191.0,386558.0,190946.0,256682.0,297702.0,76299.0,20196.0,12669.0,3192.0,5949.0
149165,County,2020/02/16,27.0,MN,27037.0,Dakota County,95032.0,330391.0,1413375.0,346668.0,336548.0,164226.0,220852.0,239732.0,62688.0,18092.0,14858.0,2963.0,6748.0
150793,County,2020/02/17,27.0,MN,27037.0,Dakota County,106498.0,318925.0,1250592.0,298116.0,284257.0,133025.0,188740.0,250615.0,62861.0,13681.0,10687.0,2765.0,5845.0
155477,County,2020/02/18,27.0,MN,27037.0,Dakota County,76813.0,348610.0,1604299.0,382872.0,358101.0,175073.0,251369.0,323606.0,77347.0,14191.0,10367.0,3877.0,7496.0
158719,County,2020/02/19,27.0,MN,27037.0,Dakota County,72641.0,352782.0,1636718.0,377959.0,361608.0,183893.0,258340.0,336840.0,80766.0,17363.0,11005.0,3618.0,5326.0
160263,County,2020/02/20,27.0,MN,27037.0,Dakota County,76155.0,349268.0,1613975.0,390205.0,361561.0,173986.0,247862.0,324672.0,78563.0,17452.0,11117.0,4082.0,4475.0
163541,County,2020/02/21,27.0,MN,27037.0,Dakota County,74840.0,350583.0,1720203.0,406421.0,385324.0,187997.0,268978.0,339144.0,84154.0,22321.0,15810.0,4928.0,5126.0
166735,County,2020/02/22,27.0,MN,27037.0,Dakota County,76675.0,348748.0,1668205.0,419728.0,398209.0,191130.0,261340.0,282502.0,73387.0,21145.0,12819.0,3843.0,4102.0
171501,County,2020/02/23,27.0,MN,27037.0,Dakota County,93731.0,331692.0,1470666.0,379838.0,371227.0,167419.0,222293.0,232988.0,54802.0,18671.0,16481.0,3410.0,3537.0
173127,County,2020/02/24,27.0,MN,27037.0,Dakota County,81105.0,344318.0,1576556.0,393061.0,360819.0,166092.0,239145.0,311923.0,73302.0,15038.0,9260.0,2594.0,5322.0
176365,County,2020/02/25,27.0,MN,27037.0,Dakota County,72734.0,352689.0,1619213.0,383277.0,357247.0,175579.0,249084.0,347254.0,74006.0,15966.0,9356.0,2795.0,4649.0
180196,County,2020/02/26,27.0,MN,27037.0,Dakota County,80005.0,345418.0,1416281.0,315750.0,359900.0,170050.0,226764.0,260446.0,56291.0,12747.0,8378.0,2320.0,3635.0
182152,County,2020/02/27,27.0,MN,27037.0,Dakota County,74545.0,350878.0,1649196.0,406497.0,369325.0,175833.0,248800.0,337765.0,76753.0,17370.0,10484.0,2909.0,3460.0
185992,County,2020/02/28,27.0,MN,27037.0,Dakota County,74153.0,351270.0,1684840.0,396455.0,396721.0,183965.0,258308.0,331803.0,76565.0,19725.0,13918.0,3364.0,4016.0
189094,County,2020/02/29,27.0,MN,27037.0,Dakota County,81590.0,343833.0,1653586.0,407330.0,403504.0,196084.0,262389.0,276548.0,70983.0,19745.0,11447.0,2227.0,3329.0
193878,County,2020/03/01,27.0,MN,27037.0,Dakota County,88946.0,336477.0,1380927.0,356748.0,347689.0,158739.0,210215.0,218549.0,52280.0,17352.0,13658.0,2786.0,2911.0
195508,County,2020/03/02,27.0,MN,27037.0,Dakota County,78060.0,347363.0,1521603.0,379432.0,344403.0,158782.0,231720.0,308523.0,69397.0,15401.0,8671.0,2328.0,2946.0
200192,County,2020/03/03,27.0,MN,27037.0,Dakota County,74787.0,350636.0,1491996.0,358654.0,328086.0,156042.0,224734.0,317565.0,71916.0,16903.0,11313.0,3416.0,3367.0
202521,County,2020/03/04,27.0,MN,27037.0,Dakota County,76514.0,348909.0,1520632.0,361897.0,332224.0,159822.0,237539.0,318122.0,74617.0,17706.0,11841.0,3824.0,3040.0
205012,County,2020/03/05,27.0,MN,27037.0,Dakota County,70434.0,354989.0,1474961.0,333388.0,317775.0,157346.0,231457.0,320621.0,76122.0,18955.0,12936.0,3482.0,2879.0
208180,County,2020/03/06,27.0,MN,27037.0,Dakota County,73558.0,351865.0,1609025.0,380009.0,358337.0,173513.0,248499.0,327855.0,75862.0,23606.0,14090.0,3891.0,3363.0
211481,County,2020/03/07,27.0,MN,27037.0,Dakota County,80785.0,344638.0,1525048.0,376380.0,357439.0,181155.0,243412.0,257873.0,65974.0,23484.0,13365.0,2976.0,2990.0
214647,County,2020/03/08,27.0,MN,27037.0,Dakota County,89872.0,335551.0,1390380.0,341325.0,355187.0,156208.0,218467.0,222569.0,56511.0,18054.0,15398.0,3054.0,3607.0
217849,County,2020/03/09,27.0,MN,27037.0,Dakota County,78498.0,346925.0,1478268.0,339735.0,334684.0,160373.0,226728.0,307201.0,73114.0,18675.0,12348.0,2843.0,2567.0
221083,County,2020/03/10,27.0,MN,27037.0,Dakota County,76585.0,348838.0,1490612.0,341879.0,333731.0,158831.0,234384.0,307559.0,77818.0,17275.0,12216.0,3507.0,3412.0
225877,County,2020/03/11,27.0,MN,27037.0,Dakota County,81622.0,343801.0,1447628.0,364733.0,314938.0,134452.0,210680.0,302088.0,74520.0,19837.0,14402.0,4460.0,7518.0
228968,County,2020/03/12,27.0,MN,27037.0,Dakota County,84443.0,340980.0,1451390.0,353893.0,327001.0,143593.0,218494.0,285891.0,74523.0,20394.0,14186.0,5370.0,8045.0
230616,County,2020/03/13,27.0,MN,27037.0,Dakota County,84458.0,340965.0,1489176.0,342782.0,346500.0,145995.0,231578.0,296489.0,79606.0,21220.0,15535.0,4346.0,5125.0
233815,County,2020/03/14,27.0,MN,27037.0,Dakota County,104013.0,321410.0,1408696.0,351011.0,351154.0,140203.0,217394.0,242798.0,59154.0,16835.0,16789.0,4618.0,8740.0
238570,County,2020/03/15,27.0,MN,27037.0,Dakota County,114058.0,311365.0,1275635.0,334687.0,334168.0,150955.0,191045.0,183106.0,44165.0,17083.0,13788.0,2957.0,3681.0
241812,County,2020/03/16,27.0,MN,27037.0,Dakota County,95733.0,329690.0,1420555.0,349334.0,329859.0,148548.0,212445.0,271224.0,75122.0,18664.0,10171.0,2390.0,2798.0
243428,County,2020/03/17,27.0,MN,27037.0,Dakota County,108540.0,316883.0,1369731.0,355515.0,306395.0,136266.0,199238.0,264961.0,71592.0,16434.0,12611.0,3216.0,3503.0
246583,County,2020/03/18,27.0,MN,27037.0,Dakota County,117003.0,308420.0,1301981.0,336603.0,288926.0,127398.0,194048.0,250767.0,67024.0,17008.0,13250.0,3881.0,3076.0
249789,County,2020/03/19,27.0,MN,27037.0,Dakota County,123777.0,301646.0,1229799.0,316306.0,272195.0,125933.0,182468.0,236018.0,61443.0,17237.0,11480.0,3489.0,3230.0
253023,County,2020/03/20,27.0,MN,27037.0,Dakota County,122009.0,303414.0,1326735.0,363945.0,300576.0,129927.0,200095.0,229523.0,67246.0,16914.0,11703.0,3802.0,3004.0
256166,County,2020/03/21,27.0,MN,27037.0,Dakota County,138964.0,286459.0,1168673.0,337879.0,292909.0,124936.0,168310.0,168587.0,42501.0,15201.0,12491.0,3058.0,2801.0
260919,County,2020/03/22,27.0,MN,27037.0,Dakota County,136631.0,288792.0,954051.0,281387.0,246712.0,98965.0,126174.0,129913.0,35018.0,15834.0,15337.0,2601.0,2110.0
264132,County,2020/03/23,27.0,MN,27037.0,Dakota County,118020.0,307403.0,1079241.0,291359.0,238540.0,106349.0,156413.0,201347.0,57539.0,14089.0,9138.0,2287.0,2180.0
267361,County,2020/03/24,27.0,MN,27037.0,Dakota County,121577.0,303846.0,1103041.0,303970.0,240725.0,110880.0,155678.0,202691.0,57795.0,15256.0,11169.0,2747.0,2130.0
268992,County,2020/03/25,27.0,MN,27037.0,Dakota County,118292.0,307131.0,1122181.0,315492.0,256503.0,107428.0,158784.0,200201.0,54860.0,13734.0,10348.0,2910.0,1921.0
273732,County,2020/03/26,27.0,MN,27037.0,Dakota County,117221.0,308202.0,1196967.0,354746.0,275823.0,111690.0,160426.0,204618.0,57323.0,15841.0,11402.0,3247.0,1851.0
276899,County,2020/03/27,27.0,MN,27037.0,Dakota County,116526.0,308897.0,1177702.0,336731.0,272102.0,116306.0,168455.0,197853.0,55498.0,14956.0,10324.0,3210.0,2267.0
278527,County,2020/03/28,27.0,MN,27037.0,Dakota County,141197.0,284226.0,913675.0,260100.0,253113.0,92133.0,129830.0,115773.0,35351.0,11007.0,10730.0,2989.0,2649.0
283286,County,2020/03/29,27.0,MN,27037.0,Dakota County,147077.0,278346.0,852907.0,248411.0,226078.0,93675.0,121312.0,111584.0,26723.0,11727.0,8496.0,2503.0,2398.0
284913,County,2020/03/30,27.0,MN,27037.0,Dakota County,126153.0,299270.0,1085624.0,317973.0,247154.0,103280.0,154060.0,185941.0,52917.0,11918.0,8859.0,1862.0,1660.0
289716,County,2020/03/31,27.0,MN,27037.0,Dakota County,126564.0,298859.0,1105124.0,328721.0,249109.0,105519.0,150649.0,192034.0,53209.0,12579.0,7786.0,3549.0,1969.0
291344,County,2020/04/01,27.0,MN,27037.0,Dakota County,123681.0,301742.0,1087147.0,307467.0,261275.0,107645.0,150937.0,177006.0,55694.0,13971.0,9458.0,2315.0,1379.0
296077,County,2020/04/02,27.0,MN,27037.0,Dakota County,125773.0,299650.0,1063513.0,295711.0,244683.0,107286.0,154638.0,177708.0,54871.0,14270.0,9581.0,2809.0,1956.0
297738,County,2020/04/03,27.0,MN,27037.0,Dakota County,126727.0,298696.0,1001548.0,259099.0,235585.0,103274.0,150056.0,179978.0,48309.0,11634.0,9375.0,2498.0,1740.0
302484,County,2020/04/04,27.0,MN,27037.0,Dakota County,133031.0,292392.0,1017439.0,299369.0,273352.0,111166.0,145736.0,125565.0,36833.0,11617.0,9428.0,2262.0,2111.0
304112,County,2020/04/05,27.0,MN,27037.0,Dakota County,138413.0,287010.0,944940.0,282684.0,243303.0,101783.0,142355.0,120356.0,32893.0,10873.0,6763.0,1850.0,2080.0
308837,County,2020/04/06,27.0,MN,27037.0,Dakota County,126481.0,298942.0,1068216.0,306044.0,240194.0,103899.0,152205.0,183866.0,54786.0,14040.0,10045.0,1996.0,1141.0
312077,County,2020/04/07,27.0,MN,27037.0,Dakota County,123634.0,301789.0,1127273.0,327299.0,267979.0,107775.0,148409.0,192133.0,55926.0,14739.0,9812.0,1856.0,1345.0
315250,County,2020/04/08,27.0,MN,27037.0,Dakota County,126691.0,298732.0,1087172.0,295236.0,251454.0,112578.0,154004.0,195462.0,51626.0,13272.0,10044.0,2400.0,1096.0
316877,County,2020/04/09,27.0,MN,27037.0,Dakota County,129455.0,295968.0,1019975.0,240217.0,240186.0,105123.0,158263.0,194866.0,54415.0,13871.0,9935.0,1682.0,1417.0
320104,County,2020/04/10,27.0,MN,27037.0,Dakota County,120808.0,304615.0,1119238.0,290843.0,272560.0,117651.0,163918.0,192198.0,55499.0,14030.0,9073.0,2108.0,1358.0
323289,County,2020/04/11,27.0,MN,27037.0,Dakota County,126674.0,298749.0,1098496.0,294658.0,291328.0,127860.0,166166.0,146545.0,44952.0,14418.0,9249.0,2061.0,1259.0
326433,County,2020/04/12,27.0,MN,27037.0,Dakota County,166915.0,258508.0,642823.0,155058.0,176383.0,74298.0,99494.0,89821.0,26456.0,9023.0,8622.0,1523.0,2145.0
329699,County,2020/04/13,27.0,MN,27037.0,Dakota County,134427.0,290996.0,991066.0,234344.0,244932.0,95998.0,151299.0,187349.0,52092.0,14462.0,8334.0,1554.0,702.0
332823,County,2020/04/14,27.0,MN,27037.0,Dakota County,135119.0,290304.0,903103.0,244531.0,228882.0,78101.0,130388.0,152073.0,44276.0,13078.0,6643.0,2774.0,2357.0
336049,County,2020/04/15,27.0,MN,27037.0,Dakota County,130323.0,295100.0,954683.0,250666.0,245350.0,86184.0,130750.0,166193.0,52094.0,12019.0,7939.0,1573.0,1915.0
339203,County,2020/04/16,27.0,MN,27037.0,Dakota County,137160.0,288263.0,956925.0,254419.0,233370.0,96375.0,133586.0,162681.0,47798.0,14284.0,10365.0,1791.0,2256.0
342502,County,2020/04/17,27.0,MN,27037.0,Dakota County,122928.0,302495.0,970385.0,248928.0,234656.0,98829.0,140972.0,165206.0,53594.0,11382.0,12106.0,2709.0,2003.0
345608,County,2020/04/18,27.0,MN,27037.0,Dakota County,135775.0,289648.0,1000256.0,278848.0,236634.0,96683.0,155958.0,149449.0,51251.0,16685.0,10792.0,1946.0,2010.0
350359,County,2020/04/19,27.0,MN,27037.0,Dakota County,139588.0,285835.0,878287.0,257011.0,238730.0,94160.0,119619.0,109314.0,30205.0,16823.0,8560.0,2095.0,1770.0
353610,County,2020/04/20,27.0,MN,27037.0,Dakota County,119790.0,305633.0,989142.0,261356.0,243938.0,89325.0,150161.0,162499.0,54052.0,17412.0,6937.0,1603.0,1859.0
355181,County,2020/04/21,27.0,MN,27037.0,Dakota County,121664.0,303759.0,1160359.0,309467.0,269296.0,120134.0,170154.0,205043.0,58235.0,15226.0,9056.0,2343.0,1405.0
358424,County,2020/04/22,27.0,MN,27037.0,Dakota County,116717.0,308706.0,1224588.0,352555.0,272716.0,121792.0,171863.0,216991.0,59517.0,14970.0,10430.0,2833.0,921.0
363156,County,2020/04/23,27.0,MN,27037.0,Dakota County,118508.0,306915.0,1205014.0,322412.0,276949.0,121746.0,177061.0,217252.0,60099.0,16624.0,9761.0,2325.0,785.0
364783,County,2020/04/24,27.0,MN,27037.0,Dakota County,114990.0,310433.0,1235430.0,334717.0,292792.0,128327.0,178462.0,209446.0,58984.0,17374.0,11517.0,2717.0,1094.0
367950,County,2020/04/25,27.0,MN,27037.0,Dakota County,117108.0,308315.0,1200483.0,353157.0,306784.0,134213.0,163515.0,161135.0,49577.0,16975.0,11725.0,2198.0,1204.0
372719,County,2020/04/26,27.0,MN,27037.0,Dakota County,126200.0,299223.0,1074617.0,308462.0,284822.0,117943.0,147710.0,144055.0,42835.0,15273.0,10853.0,1945.0,719.0
375950,County,2020/04/27,27.0,MN,27037.0,Dakota County,115978.0,309445.0,1226255.0,332490.0,294497.0,130567.0,181290.0,203701.0,56314.0,14760.0,9606.0,1893.0,1137.0
379121,County,2020/04/28,27.0,MN,27037.0,Dakota County,120535.0,304888.0,1121364.0,277321.0,258858.0,121751.0,165487.0,208623.0,61058.0,14810.0,10282.0,2326.0,848.0
382325,County,2020/04/29,27.0,MN,27037.0,Dakota County,113387.0,312036.0,1224548.0,320306.0,282768.0,131736.0,180495.0,216004.0,64339.0,16964.0,8110.0,2419.0,1407.0
383944,County,2020/04/30,27.0,MN,27037.0,Dakota County,112387.0,313036.0,1294804.0,357353.0,290368.0,128626.0,188093.0,230115.0,66369.0,18855.0,12021.0,2091.0,913.0
387168,County,2020/05/01,27.0,MN,27037.0,Dakota County,109961.0,315462.0,1278868.0,344715.0,295730.0,131748.0,184739.0,221072.0,63029.0,20423.0,13976.0,2544.0,892.0
391880,County,2020/05/02,27.0,MN,27037.0,Dakota County,114396.0,311027.0,1267363.0,373792.0,321733.0,133377.0,178115.0,169830.0,54676.0,20454.0,12582.0,1950.0,854.0
395075,County,2020/05/03,27.0,MN,27037.0,Dakota County,120225.0,305198.0,1145792.0,348213.0,293087.0,131322.0,144955.0,145462.0,45727.0,20319.0,13699.0,2100.0,908.0
396726,County,2020/05/04,27.0,MN,27037.0,Dakota County,111122.0,314301.0,1259412.0,345764.0,294324.0,133117.0,178926.0,217001.0,61850.0,16065.0,9663.0,1709.0,993.0
399945,County,2020/05/05,27.0,MN,27037.0,Dakota County,113929.0,311494.0,1248360.0,335620.0,282847.0,132205.0,184365.0,221826.0,62513.0,16056.0,9679.0,2400.0,849.0
404700,County,2020/05/06,27.0,MN,27037.0,Dakota County,113841.0,311582.0,1244144.0,349720.0,279033.0,128546.0,172985.0,223366.0,58055.0,18079.0,9540.0,2754.0,2066.0
407795,County,2020/05/07,27.0,MN,27037.0,Dakota County,112752.0,312671.0,1260361.0,346808.0,291603.0,121475.0,181335.0,222717.0,63515.0,16290.0,12099.0,2247.0,2272.0
411057,County,2020/05/08,27.0,MN,27037.0,Dakota County,110343.0,315080.0,1282931.0,332067.0,296723.0,133328.0,190341.0,228961.0,64262.0,19669.0,14437.0,2105.0,1038.0
412637,County,2020/05/09,27.0,MN,27037.0,Dakota County,120839.0,304584.0,1194551.0,326187.0,309577.0,138924.0,169809.0,164636.0,50552.0,19355.0,12375.0,1905.0,1231.0
417434,County,2020/05/10,27.0,MN,27037.0,Dakota County,124484.0,300939.0,1051176.0,265940.0,281854.0,120501.0,158994.0,143848.0,40565.0,20116.0,16419.0,1889.0,1050.0
420713,County,2020/05/11,27.0,MN,27037.0,Dakota County,100561.0,324862.0,1331009.0,369246.0,301758.0,130571.0,200156.0,233633.0,64116.0,18234.0,10216.0,1905.0,1174.0
423919,County,2020/05/12,27.0,MN,27037.0,Dakota County,96739.0,328684.0,1394990.0,399593.0,302106.0,139043.0,202365.0,248789.0,69872.0,18346.0,11371.0,2553.0,952.0
426966,County,2020/05/13,27.0,MN,27037.0,Dakota County,100006.0,325417.0,1275809.0,349726.0,284004.0,117376.0,185264.0,238717.0,65558.0,18794.0,11736.0,3127.0,1507.0
428693,County,2020/05/14,27.0,MN,27037.0,Dakota County,96796.0,328627.0,1346102.0,396622.0,292603.0,128185.0,195013.0,232554.0,63535.0,19168.0,13811.0,2917.0,1694.0
433432,County,2020/05/15,27.0,MN,27037.0,Dakota County,95630.0,329793.0,1366873.0,374146.0,300561.0,136920.0,200579.0,241919.0,70907.0,22515.0,14862.0,2582.0,1882.0
435110,County,2020/05/16,27.0,MN,27037.0,Dakota County,104488.0,320935.0,1250632.0,355500.0,309977.0,140432.0,189096.0,168658.0,49603.0,20696.0,12077.0,2063.0,2530.0
439746,County,2020/05/17,27.0,MN,27037.0,Dakota County,111767.0,313656.0,1030077.0,268133.0,259720.0,117790.0,146809.0,141995.0,43717.0,22685.0,26146.0,1981.0,1101.0
443035,County,2020/05/18,27.0,MN,27037.0,Dakota County,88013.0,337410.0,1403290.0,378666.0,317697.0,143844.0,210040.0,249077.0,68826.0,19970.0,12017.0,2313.0,840.0
446198,County,2020/05/19,27.0,MN,27037.0,Dakota County,85159.0,340264.0,1443953.0,376481.0,329240.0,146630.0,216905.0,260900.0,71741.0,25137.0,13504.0,2708.0,707.0
447830,County,2020/05/20,27.0,MN,27037.0,Dakota County,83520.0,341903.0,1490869.0,433384.0,324894.0,142927.0,211844.0,263951.0,74200.0,20073.0,15389.0,2989.0,1218.0
451000,County,2020/05/21,27.0,MN,27037.0,Dakota County,84096.0,341327.0,1444733.0,394814.0,333257.0,141977.0,205380.0,248065.0,75031.0,23158.0,17771.0,3003.0,2277.0
455760,County,2020/05/22,27.0,MN,27037.0,Dakota County,78855.0,346568.0,1501206.0,425339.0,319721.0,152804.0,215883.0,257016.0,72906.0,29520.0,22216.0,3972.0,1829.0
458971,County,2020/05/23,27.0,MN,27037.0,Dakota County,95321.0,330102.0,1330833.0,383870.0,319370.0,148480.0,192096.0,185780.0,55447.0,22093.0,19009.0,2683.0,2005.0
462175,County,2020/05/24,27.0,MN,27037.0,Dakota County,111749.0,313674.0,1176213.0,351868.0,287881.0,122770.0,156094.0,166070.0,51160.0,21302.0,13197.0,2698.0,3173.0
463803,County,2020/05/25,27.0,MN,27037.0,Dakota County,109150.0,316273.0,1112240.0,321204.0,274186.0,111636.0,148848.0,156589.0,49676.0,22647.0,20070.0,2552.0,4832.0
468634,County,2020/05/26,27.0,MN,27037.0,Dakota County,104221.0,321202.0,1256557.0,337339.0,290801.0,120453.0,179438.0,229966.0,64138.0,16948.0,11618.0,2347.0,3509.0
471777,County,2020/05/27,27.0,MN,27037.0,Dakota County,99171.0,326252.0,1291189.0,340054.0,287632.0,130430.0,184799.0,243688.0,68964.0,17020.0,13220.0,3437.0,1945.0
474876,County,2020/05/28,27.0,MN,27037.0,Dakota County,96663.0,328760.0,1331981.0,355997.0,301243.0,127026.0,192942.0,247815.0,68214.0,20252.0,14471.0,3048.0,973.0
476554,County,2020/05/29,27.0,MN,27037.0,Dakota County,101761.0,323662.0,1308173.0,360232.0,281718.0,127894.0,189579.0,242152.0,67891.0,20506.0,14621.0,2854.0,726.0
479741,County,2020/05/30,27.0,MN,27037.0,Dakota County,105717.0,319706.0,1337877.0,396463.0,339794.0,139551.0,183821.0,181379.0,59346.0,20779.0,13492.0,2514.0,738.0
482869,County,2020/05/31,27.0,MN,27037.0,Dakota County,110675.0,314748.0,1198638.0,347436.0,298944.0,125891.0,163583.0,166905.0,53286.0,22766.0,16178.0,2435.0,1214.0
486136,County,2020/06/01,27.0,MN,27037.0,Dakota County,97519.0,327904.0,1305240.0,352856.0,301683.0,127569.0,195258.0,236256.0,61766.0,15495.0,10452.0,2401.0,1504.0
489377,County,2020/06/02,27.0,MN,27037.0,Dakota County,94812.0,330611.0,1302512.0,338916.0,294749.0,128563.0,194452.0,245755.0,67754.0,17559.0,10298.0,2686.0,1780.0
492546,County,2020/06/03,27.0,MN,27037.0,Dakota County,86932.0,338491.0,1427218.0,391410.0,310602.0,147016.0,210881.0,262883.0,71890.0,16199.0,11347.0,2703.0,2287.0
497320,County,2020/06/04,27.0,MN,27037.0,Dakota County,88573.0,336850.0,1369994.0,364942.0,300214.0,134617.0,205550.0,254554.0,71638.0,19464.0,13575.0,3421.0,2019.0
500484,County,2020/06/05,27.0,MN,27037.0,Dakota County,85587.0,339836.0,1466816.0,391281.0,323933.0,152027.0,216756.0,259610.0,74956.0,25549.0,17833.0,3102.0,1769.0
502107,County,2020/06/06,27.0,MN,27037.0,Dakota County,102743.0,322680.0,1697685.0,706071.0,385893.0,137543.0,181125.0,188507.0,59976.0,18868.0,12422.0,5755.0,1525.0
505299,County,2020/06/07,27.0,MN,27037.0,Dakota County,100216.0,325207.0,1182719.0,304700.0,325751.0,129665.0,159277.0,168327.0,52576.0,19245.0,18076.0,3113.0,1989.0
510095,County,2020/06/08,27.0,MN,27037.0,Dakota County,84512.0,340911.0,1435596.0,375045.0,329220.0,151843.0,215656.0,258892.0,70717.0,19020.0,10779.0,2533.0,1891.0
513252,County,2020/06/09,27.0,MN,27037.0,Dakota County,94523.0,330900.0,1304222.0,341504.0,289093.0,131243.0,197053.0,242762.0,68968.0,16611.0,12260.0,2641.0,2087.0
514882,County,2020/06/10,27.0,MN,27037.0,Dakota County,92936.0,332487.0,1372862.0,368473.0,309599.0,137756.0,202363.0,254998.0,64139.0,16985.0,13470.0,3042.0,2037.0
519613,County,2020/06/11,27.0,MN,27037.0,Dakota County,88740.0,336683.0,1407989.0,386492.0,310712.0,136794.0,210336.0,252609.0,70807.0,20022.0,15009.0,3510.0,1698.0
522885,County,2020/06/12,27.0,MN,27037.0,Dakota County,88214.0,337209.0,1402001.0,382480.0,304114.0,139634.0,201049.0,248669.0,75043.0,26227.0,19592.0,3836.0,1357.0
524512,County,2020/06/13,27.0,MN,27037.0,Dakota County,96607.0,328816.0,1389203.0,388648.0,333311.0,151571.0,197227.0,207854.0,63127.0,25270.0,17432.0,3051.0,1712.0
529227,County,2020/06/14,27.0,MN,27037.0,Dakota County,108453.0,316970.0,1120142.0,312997.0,270204.0,116600.0,151469.0,162798.0,56721.0,23378.0,20649.0,3353.0,1973.0
530856,County,2020/06/15,27.0,MN,27037.0,Dakota County,103129.0,322294.0,1246626.0,335134.0,272735.0,128232.0,181020.0,228878.0,65897.0,17132.0,13017.0,2773.0,1808.0
535637,County,2020/06/16,27.0,MN,27037.0,Dakota County,102024.0,323399.0,1309187.0,352346.0,283245.0,138724.0,193357.0,238703.0,67770.0,18214.0,12257.0,2490.0,2081.0
538805,County,2020/06/17,27.0,MN,27037.0,Dakota County,98643.0,326780.0,1379956.0,386833.0,303208.0,140231.0,196883.0,248608.0,65746.0,18021.0,15549.0,3282.0,1595.0
542001,County,2020/06/18,27.0,MN,27037.0,Dakota County,95503.0,329920.0,1307759.0,349160.0,285523.0,138002.0,189012.0,231430.0,71759.0,21353.0,17076.0,3116.0,1328.0
543627,County,2020/06/19,27.0,MN,27037.0,Dakota County,94429.0,330994.0,1340756.0,347041.0,295641.0,146069.0,204191.0,232650.0,67611.0,22746.0,19593.0,3378.0,1836.0
546832,County,2020/06/20,27.0,MN,27037.0,Dakota County,103864.0,321559.0,1267694.0,372094.0,307164.0,131105.0,176278.0,180293.0,56223.0,22708.0,17163.0,3053.0,1613.0
550036,County,2020/06/21,27.0,MN,27037.0,Dakota County,111388.0,314035.0,1069032.0,279418.0,255336.0,117814.0,160402.0,154445.0,51928.0,24104.0,20378.0,3033.0,2174.0
553211,County,2020/06/22,27.0,MN,27037.0,Dakota County,105074.0,320349.0,1211430.0,318533.0,263772.0,126049.0,183705.0,221865.0,63772.0,15695.0,12332.0,3486.0,2221.0
557971,County,2020/06/23,27.0,MN,27037.0,Dakota County,97804.0,327619.0,1306278.0,338664.0,289841.0,135688.0,195536.0,245685.0,65581.0,16861.0,12735.0,3667.0,2020.0
559603,County,2020/06/24,27.0,MN,27037.0,Dakota County,104289.0,321134.0,1213510.0,319202.0,254307.0,124904.0,186063.0,230911.0,62936.0,17503.0,12401.0,3438.0,1845.0
562792,County,2020/06/25,27.0,MN,27037.0,Dakota County,98240.0,327183.0,1266341.0,344117.0,271852.0,122198.0,186659.0,233880.0,67656.0,20181.0,14196.0,3116.0,2486.0
567636,County,2020/06/26,27.0,MN,27037.0,Dakota County,99241.0,326182.0,1224787.0,312152.0,261464.0,128569.0,184803.0,225099.0,67471.0,21915.0,17482.0,3410.0,2422.0
570738,County,2020/06/27,27.0,MN,27037.0,Dakota County,103718.0,321705.0,1253793.0,339605.0,296234.0,134122.0,182110.0,197891.0,58120.0,24096.0,15900.0,3206.0,2509.0
572375,County,2020/06/28,27.0,MN,27037.0,Dakota County,107533.0,317890.0,1110603.0,299864.0,260485.0,125022.0,160100.0,162020.0,53710.0,24992.0,18929.0,2711.0,2770.0
577148,County,2020/06/29,27.0,MN,27037.0,Dakota County,106815.0,318608.0,1090590.0,257015.0,255565.0,109910.0,166810.0,210917.0,57525.0,16313.0,10930.0,2956.0,2649.0
578790,County,2020/06/30,27.0,MN,27037.0,Dakota County,98169.0,327254.0,1225481.0,319623.0,257619.0,125730.0,193123.0,231645.0,65669.0,15774.0,9377.0,3509.0,3412.0
583542,County,2020/07/01,27.0,MN,27037.0,Dakota County,98423.0,327000.0,1236580.0,327961.0,269393.0,127967.0,182676.0,233200.0,59612.0,16926.0,11682.0,3631.0,3532.0
586731,County,2020/07/02,27.0,MN,27037.0,Dakota County,106697.0,318726.0,1344099.0,365247.0,288545.0,129701.0,198121.0,248241.0,71810.0,21420.0,15068.0,3307.0,2639.0
589932,County,2020/07/03,27.0,MN,27037.0,Dakota County,113523.0,311900.0,1217888.0,310393.0,259991.0,127845.0,183762.0,223831.0,67091.0,21792.0,17384.0,3391.0,2408.0
591576,County,2020/07/04,27.0,MN,27037.0,Dakota County,121268.0,304155.0,1041932.0,265549.0,222429.0,109374.0,157213.0,191493.0,57398.0,18643.0,14872.0,2901.0,2060.0
596322,County,2020/07/05,27.0,MN,27037.0,Dakota County,110110.0,315313.0,1027892.0,288421.0,231802.0,108692.0,141475.0,150139.0,45360.0,27667.0,27123.0,3825.0,3388.0
598624,County,2020/07/06,27.0,MN,27037.0,Dakota County,110797.0,314626.0,1084429.0,272925.0,243215.0,111445.0,163784.0,193843.0,59842.0,18753.0,14666.0,2872.0,3084.0
603114,County,2020/07/07,27.0,MN,27037.0,Dakota County,107337.0,318086.0,1152131.0,295331.0,258196.0,114818.0,173102.0,214920.0,64567.0,16051.0,9634.0,3013.0,2499.0
605781,County,2020/07/08,27.0,MN,27037.0,Dakota County,106085.0,319338.0,1145544.0,296849.0,249974.0,112204.0,173927.0,217745.0,62839.0,15566.0,10476.0,3426.0,2538.0
607506,County,2020/07/09,27.0,MN,27037.0,Dakota County,104338.0,321085.0,1149572.0,293690.0,244781.0,116577.0,172146.0,220758.0,65798.0,17328.0,12100.0,3484.0,2910.0
610706,County,2020/07/10,27.0,MN,27037.0,Dakota County,103055.0,322368.0,1245696.0,334398.0,271604.0,120069.0,183039.0,227633.0,67301.0,20080.0,15594.0,3428.0,2550.0
613917,County,2020/07/11,27.0,MN,27037.0,Dakota County,109856.0,315567.0,1127091.0,310603.0,261412.0,116169.0,166254.0,178400.0,55206.0,19547.0,14625.0,2589.0,2286.0
618690,County,2020/07/12,27.0,MN,27037.0,Dakota County,112972.0,312451.0,1043100.0,268916.0,234747.0,114207.0,158809.0,165489.0,55712.0,20944.0,17903.0,3127.0,3246.0
620278,County,2020/07/13,27.0,MN,27037.0,Dakota County,110493.0,314930.0,1094935.0,285243.0,234691.0,111100.0,170347.0,204949.0,57715.0,15293.0,9892.0,2813.0,2892.0
623478,County,2020/07/14,27.0,MN,27037.0,Dakota County,112277.0,313146.0,1080100.0,269103.0,239988.0,113007.0,167215.0,204780.0,56916.0,14171.0,9931.0,2633.0,2356.0
626600,County,2020/07/15,27.0,MN,27037.0,Dakota County,107737.0,317686.0,1180789.0,314744.0,257110.0,118831.0,174528.0,220522.0,62215.0,17635.0,10509.0,2484.0,2211.0
631530,County,2020/07/16,27.0,MN,27037.0,Dakota County,109745.0,315678.0,1191986.0,318003.0,270195.0,119261.0,170415.0,218840.0,58892.0,19734.0,12292.0,2975.0,1379.0
634577,County,2020/07/17,27.0,MN,27037.0,Dakota County,107393.0,318030.0,1159624.0,302988.0,259508.0,118624.0,171801.0,204711.0,61064.0,19919.0,16632.0,2707.0,1670.0
637828,County,2020/07/18,27.0,MN,27037.0,Dakota County,117046.0,308377.0,1073065.0,287005.0,264792.0,112086.0,148546.0,162299.0,57604.0,20931.0,15387.0,2739.0,1676.0
641030,County,2020/07/19,27.0,MN,27037.0,Dakota County,119542.0,305881.0,1034422.0,279892.0,244634.0,107586.0,148897.0,157083.0,51549.0,22511.0,17913.0,2430.0,1927.0
644239,County,2020/07/20,27.0,MN,27037.0,Dakota County,112477.0,312946.0,1190570.0,306575.0,274097.0,123499.0,184833.0,213014.0,60963.0,14730.0,9396.0,2262.0,1201.0
645867,County,2020/07/21,27.0,MN,27037.0,Dakota County,108513.0,316910.0,1167176.0,295603.0,246619.0,123285.0,182685.0,225328.0,60829.0,17372.0,10709.0,2184.0,2562.0
650596,County,2020/07/22,27.0,MN,27037.0,Dakota County,106823.0,318600.0,1326576.0,425519.0,263947.0,120185.0,191696.0,221462.0,68404.0,18699.0,11725.0,2487.0,2452.0
653790,County,2020/07/23,27.0,MN,27037.0,Dakota County,107415.0,318008.0,1161277.0,301176.0,245670.0,115700.0,178369.0,221760.0,63479.0,17516.0,12482.0,2699.0,2426.0
657064,County,2020/07/24,27.0,MN,27037.0,Dakota County,103170.0,322253.0,1230216.0,314122.0,257979.0,126826.0,194251.0,225242.0,66455.0,22060.0,17857.0,2545.0,2879.0
660281,County,2020/07/25,27.0,MN,27037.0,Dakota County,114914.0,310509.0,1090946.0,279009.0,245108.0,119244.0,174516.0,175468.0,54391.0,23581.0,14850.0,2865.0,1914.0
661806,County,2020/07/26,27.0,MN,27037.0,Dakota County,118563.0,306860.0,1042926.0,251908.0,248215.0,112466.0,167905.0,160049.0,50731.0,25067.0,20326.0,3400.0,2859.0
665101,County,2020/07/27,27.0,MN,27037.0,Dakota County,113567.0,311856.0,1182823.0,295601.0,257322.0,120823.0,180586.0,226340.0,67814.0,17016.0,11343.0,2741.0,3237.0
668214,County,2020/07/28,27.0,MN,27037.0,Dakota County,107606.0,317817.0,1214008.0,294074.0,262174.0,123679.0,196139.0,236466.0,67190.0,18461.0,9886.0,2744.0,3195.0
671420,County,2020/07/29,27.0,MN,27037.0,Dakota County,111051.0,314372.0,1185615.0,289652.0,252751.0,126701.0,189716.0,228634.0,64589.0,17140.0,11001.0,2363.0,3068.0
676131,County,2020/07/30,27.0,MN,27037.0,Dakota County,107151.0,318272.0,1227805.0,307455.0,259854.0,127163.0,194506.0,232908.0,68038.0,19157.0,11871.0,3260.0,3593.0
677782,County,2020/07/31,27.0,MN,27037.0,Dakota County,106906.0,318517.0,1189214.0,286032.0,246763.0,124074.0,187709.0,230751.0,68041.0,21977.0,17092.0,3302.0,3473.0
682529,County,2020/08/01,27.0,MN,27037.0,Dakota County,116327.0,309096.0,1141742.0,293893.0,260951.0,122305.0,170115.0,189896.0,61038.0,21524.0,15792.0,3225.0,3003.0
685769,County,2020/08/02,27.0,MN,27037.0,Dakota County,115982.0,309441.0,1113998.0,285742.0,261450.0,118308.0,172207.0,171326.0,52735.0,24390.0,20347.0,4265.0,3228.0
687359,County,2020/08/03,27.0,MN,27037.0,Dakota County,110698.0,314725.0,1217954.0,310131.0,262449.0,123292.0,191604.0,235371.0,61168.0,17272.0,12103.0,2802.0,1762.0
692134,County,2020/08/04,27.0,MN,27037.0,Dakota County,101668.0,323755.0,1298404.0,337225.0,287178.0,135301.0,197171.0,244394.0,64535.0,17048.0,11207.0,2565.0,1780.0
693763,County,2020/08/05,27.0,MN,27037.0,Dakota County,104128.0,321295.0,1270299.0,336658.0,275098.0,128396.0,192347.0,238053.0,65140.0,17677.0,11922.0,2522.0,2486.0
696969,County,2020/08/06,27.0,MN,27037.0,Dakota County,100944.0,324479.0,1287188.0,345453.0,271291.0,130320.0,190953.0,239980.0,69064.0,19494.0,14992.0,2945.0,2696.0
701701,County,2020/08/07,27.0,MN,27037.0,Dakota County,98131.0,327292.0,1258013.0,314444.0,279912.0,137020.0,182962.0,233475.0,65853.0,23116.0,16567.0,2773.0,1891.0
703330,County,2020/08/08,27.0,MN,27037.0,Dakota County,104695.0,320728.0,1174440.0,298973.0,280805.0,129300.0,177196.0,187970.0,57958.0,24606.0,13192.0,2327.0,2113.0
706521,County,2020/08/09,27.0,MN,27037.0,Dakota County,114484.0,310939.0,1090905.0,267492.0,261671.0,119814.0,167665.0,166399.0,52765.0,23556.0,25697.0,3827.0,2019.0
711330,County,2020/08/10,27.0,MN,27037.0,Dakota County,107491.0,317932.0,1239364.0,304661.0,279135.0,125569.0,194470.0,234342.0,66191.0,19069.0,11856.0,2586.0,1485.0
712911,County,2020/08/11,27.0,MN,27037.0,Dakota County,105044.0,320379.0,1332762.0,338420.0,291684.0,133298.0,206391.0,256267.0,72019.0,18632.0,11915.0,2558.0,1578.0
716104,County,2020/08/12,27.0,MN,27037.0,Dakota County,104232.0,321191.0,1172693.0,271222.0,250660.0,121469.0,184602.0,238866.0,65879.0,18225.0,12554.0,3262.0,5954.0
720864,County,2020/08/13,27.0,MN,27037.0,Dakota County,98049.0,327374.0,1271701.0,301127.0,273030.0,134475.0,200028.0,246850.0,67104.0,22018.0,15309.0,4067.0,7693.0
724090,County,2020/08/14,27.0,MN,27037.0,Dakota County,93910.0,331513.0,1270868.0,289671.0,274672.0,134522.0,199370.0,240067.0,73295.0,26198.0,21623.0,4207.0,7243.0
727301,County,2020/08/15,27.0,MN,27037.0,Dakota County,100333.0,325090.0,1289482.0,325475.0,289141.0,140678.0,198258.0,214927.0,67098.0,25866.0,16952.0,3799.0,7288.0
728880,County,2020/08/16,27.0,MN,27037.0,Dakota County,112211.0,313212.0,1161479.0,269698.0,269084.0,126795.0,176166.0,186862.0,64457.0,28318.0,24598.0,5420.0,10081.0
733661,County,2020/08/17,27.0,MN,27037.0,Dakota County,112638.0,312785.0,1221028.0,277234.0,264293.0,133829.0,197509.0,229474.0,70895.0,20405.0,12724.0,4261.0,10404.0
735288,County,2020/08/18,27.0,MN,27037.0,Dakota County,106898.0,318525.0,1214088.0,279622.0,256445.0,126076.0,188727.0,245379.0,71088.0,20797.0,10261.0,4530.0,11163.0
738494,County,2020/08/19,27.0,MN,27037.0,Dakota County,103540.0,321883.0,1251659.0,299284.0,265611.0,127858.0,201152.0,239353.0,72148.0,18121.0,12766.0,4957.0,10409.0
741656,County,2020/08/20,27.0,MN,27037.0,Dakota County,99134.0,326289.0,1288919.0,309587.0,269341.0,137149.0,192032.0,253047.0,74014.0,23489.0,14155.0,5132.0,10973.0
744855,County,2020/08/21,27.0,MN,27037.0,Dakota County,94082.0,331341.0,1331093.0,322388.0,282224.0,139447.0,200760.0,246848.0,74774.0,26494.0,23063.0,5466.0,9629.0
749637,County,2020/08/22,27.0,MN,27037.0,Dakota County,102906.0,322517.0,1260126.0,313434.0,289555.0,133893.0,191628.0,202885.0,69281.0,25456.0,18409.0,4895.0,10690.0
751253,County,2020/08/23,27.0,MN,27037.0,Dakota County,118946.0,306477.0,989360.0,228354.0,229183.0,109330.0,155697.0,156563.0,49937.0,24291.0,21185.0,4474.0,10346.0
754476,County,2020/08/24,27.0,MN,27037.0,Dakota County,116483.0,308940.0,1076422.0,266715.0,235794.0,108966.0,161623.0,205591.0,58562.0,16379.0,11791.0,3017.0,7984.0
757627,County,2020/08/25,27.0,MN,27037.0,Dakota County,111267.0,314156.0,1130795.0,249408.0,248852.0,122933.0,182774.0,225932.0,63573.0,16020.0,9988.0,3930.0,7385.0
760820,County,2020/08/26,27.0,MN,27037.0,Dakota County,111881.0,313542.0,1103242.0,255417.0,236283.0,118731.0,171281.0,222253.0,62280.0,16153.0,10850.0,3260.0,6734.0
765593,County,2020/08/27,27.0,MN,27037.0,Dakota County,112510.0,312913.0,1152889.0,276365.0,247663.0,120921.0,175943.0,227527.0,66692.0,17642.0,11861.0,3079.0,5196.0
768808,County,2020/08/28,27.0,MN,27037.0,Dakota County,108144.0,317279.0,1113070.0,250742.0,240666.0,114371.0,172293.0,219355.0,65753.0,23827.0,18955.0,2978.0,4130.0
770436,County,2020/08/29,27.0,MN,27037.0,Dakota County,114621.0,310802.0,1208902.0,309096.0,278774.0,134543.0,180600.0,194054.0,63034.0,25716.0,15683.0,2832.0,4570.0
773643,County,2020/08/30,27.0,MN,27037.0,Dakota County,121442.0,303981.0,1028322.0,242243.0,232553.0,114096.0,155662.0,173166.0,56789.0,22845.0,21339.0,3372.0,6257.0
778368,County,2020/08/31,27.0,MN,27037.0,Dakota County,112214.0,313209.0,1077152.0,242763.0,242013.0,113411.0,168263.0,213493.0,59349.0,17185.0,11649.0,3140.0,5886.0
779979,County,2020/09/01,27.0,MN,27037.0,Dakota County,112791.0,312632.0,1162986.0,263604.0,255851.0,129367.0,187797.0,227531.0,62731.0,17869.0,11836.0,3180.0,3220.0
783173,County,2020/09/02,27.0,MN,27037.0,Dakota County,112050.0,313373.0,1231089.0,303044.0,269546.0,134764.0,189238.0,233146.0,66779.0,16845.0,10887.0,2900.0,3940.0
787961,County,2020/09/03,27.0,MN,27037.0,Dakota County,103665.0,321758.0,1269709.0,302725.0,277485.0,136204.0,201642.0,240369.0,68754.0,19459.0,15123.0,3643.0,4305.0
791152,County,2020/09/04,27.0,MN,27037.0,Dakota County,108994.0,316429.0,1236924.0,297604.0,266141.0,123719.0,191559.0,228909.0,69624.0,26564.0,23636.0,4231.0,4937.0
794341,County,2020/09/05,27.0,MN,27037.0,Dakota County,113035.0,312388.0,1220144.0,318915.0,275900.0,132347.0,185294.0,189869.0,62662.0,26804.0,20360.0,3568.0,4425.0
795946,County,2020/09/06,27.0,MN,27037.0,Dakota County,121592.0,303831.0,1068024.0,272365.0,243925.0,105976.0,161088.0,175368.0,53472.0,27398.0,20557.0,3098.0,4777.0
799155,County,2020/09/07,27.0,MN,27037.0,Dakota County,125676.0,299747.0,920635.0,223082.0,212751.0,96654.0,134214.0,145259.0,47102.0,24119.0,27947.0,3905.0,5602.0
802368,County,2020/09/08,27.0,MN,27037.0,Dakota County,119272.0,306151.0,1163634.0,260021.0,262614.0,128503.0,184691.0,231483.0,62301.0,15729.0,10645.0,3103.0,4544.0
807149,County,2020/09/09,27.0,MN,27037.0,Dakota County,115580.0,309843.0,1181155.0,261412.0,265953.0,127662.0,187362.0,242719.0,62922.0,14631.0,10983.0,3043.0,4468.0
810304,County,2020/09/10,27.0,MN,27037.0,Dakota County,116177.0,309246.0,1209238.0,290409.0,263392.0,126577.0,189790.0,236826.0,65394.0,16444.0,12622.0,3405.0,4379.0
811933,County,2020/09/11,27.0,MN,27037.0,Dakota County,111323.0,314100.0,1249440.0,281241.0,280803.0,133757.0,194243.0,249150.0,65610.0,20820.0,17199.0,2643.0,3974.0
815118,County,2020/09/12,27.0,MN,27037.0,Dakota County,119832.0,305591.0,1128184.0,265265.0,267161.0,134148.0,174875.0,189105.0,56468.0,20872.0,12779.0,2983.0,4528.0
819915,County,2020/09/13,27.0,MN,27037.0,Dakota County,123572.0,301851.0,992812.0,212202.0,235333.0,115178.0,152987.0,178246.0,56899.0,19184.0,13422.0,3430.0,5931.0
823073,County,2020/09/14,27.0,MN,27037.0,Dakota County,116422.0,309001.0,1199948.0,271679.0,272911.0,134043.0,188588.0,236591.0,60389.0,16485.0,11756.0,2707.0,4799.0
824700,County,2020/09/15,27.0,MN,27037.0,Dakota County,114884.0,310539.0,1237119.0,290886.0,283391.0,130981.0,191676.0,242446.0,65417.0,14564.0,10316.0,2816.0,4626.0
827941,County,2020/09/16,27.0,MN,27037.0,Dakota County,112316.0,313107.0,1213923.0,269314.0,266934.0,131431.0,197980.0,242740.0,67448.0,18383.0,11122.0,3467.0,5104.0
832684,County,2020/09/17,27.0,MN,27037.0,Dakota County,112171.0,313252.0,1218755.0,271722.0,267976.0,135804.0,197437.0,240096.0,67754.0,17506.0,12490.0,3046.0,4924.0
834313,County,2020/09/18,27.0,MN,27037.0,Dakota County,109065.0,316358.0,1281914.0,280354.0,290160.0,141001.0,214566.0,236865.0,68526.0,22211.0,20378.0,3409.0,4444.0
837476,County,2020/09/19,27.0,MN,27037.0,Dakota County,114777.0,310646.0,1308458.0,325129.0,306581.0,144037.0,200853.0,216935.0,71703.0,22196.0,14138.0,2666.0,4220.0
842251,County,2020/09/20,27.0,MN,27037.0,Dakota County,116733.0,308690.0,1056303.0,267344.0,251347.0,112863.0,153762.0,171123.0,51412.0,22608.0,19372.0,3356.0,3116.0
843879,County,2020/09/21,27.0,MN,27037.0,Dakota County,118023.0,307400.0,1135423.0,261798.0,255779.0,124305.0,177297.0,226207.0,60658.0,15003.0,10478.0,1684.0,2214.0
847083,County,2020/09/22,27.0,MN,27037.0,Dakota County,106389.0,319034.0,1245926.0,307308.0,277192.0,132554.0,188839.0,244742.0,63797.0,18198.0,9680.0,2478.0,1138.0
851861,County,2020/09/23,27.0,MN,27037.0,Dakota County,100981.0,324442.0,1249656.0,287421.0,290729.0,134306.0,191664.0,248876.0,64805.0,17600.0,10725.0,2357.0,1173.0
855017,County,2020/09/24,27.0,MN,27037.0,Dakota County,100617.0,324806.0,1237849.0,301586.0,275947.0,133435.0,187656.0,237401.0,64212.0,20238.0,12549.0,2960.0,1865.0
856646,County,2020/09/25,27.0,MN,27037.0,Dakota County,96720.0,328703.0,1313333.0,303899.0,290822.0,141523.0,201510.0,249086.0,73995.0,25424.0,22171.0,3338.0,1565.0
861399,County,2020/09/26,27.0,MN,27037.0,Dakota County,108224.0,317199.0,1241784.0,301553.0,284507.0,142019.0,184670.0,208955.0,74029.0,25812.0,16002.0,2784.0,1453.0
863053,County,2020/09/27,27.0,MN,27037.0,Dakota County,113811.0,311612.0,1073041.0,252950.0,254120.0,121080.0,165625.0,170545.0,52840.0,26124.0,24763.0,3264.0,1730.0
866257,County,2020/09/28,27.0,MN,27037.0,Dakota County,106273.0,319150.0,1185952.0,255760.0,286363.0,132589.0,180548.0,233391.0,65833.0,16872.0,10728.0,2075.0,1793.0
869415,County,2020/09/29,27.0,MN,27037.0,Dakota County,107377.0,318046.0,1230138.0,264150.0,280545.0,134405.0,192435.0,259478.0,71343.0,17315.0,7486.0,1919.0,1062.0
874194,County,2020/09/30,27.0,MN,27037.0,Dakota County,103403.0,322020.0,1252329.0,269122.0,280236.0,131155.0,196663.0,269852.0,76740.0,19254.0,6623.0,1616.0,1068.0
875822,County,2020/10/01,27.0,MN,27037.0,Dakota County,101884.0,323539.0,1217252.0,265381.0,268816.0,135659.0,194918.0,249608.0,71630.0,18364.0,9335.0,1934.0,1607.0
879025,County,2020/10/02,27.0,MN,27037.0,Dakota County,106462.0,318961.0,1201200.0,266800.0,276157.0,132626.0,188570.0,228930.0,66230.0,22473.0,15968.0,2125.0,1321.0
883759,County,2020/10/03,27.0,MN,27037.0,Dakota County,113723.0,311700.0,1197921.0,280266.0,296586.0,132144.0,188408.0,201513.0,59790.0,23952.0,12527.0,1479.0,1256.0
886002,County,2020/10/04,27.0,MN,27037.0,Dakota County,120069.0,305354.0,1064752.0,256978.0,256025.0,116492.0,160042.0,170436.0,58433.0,24252.0,18652.0,2276.0,1166.0
889248,County,2020/10/05,27.0,MN,27037.0,Dakota County,120549.0,304874.0,1157284.0,265951.0,266620.0,127513.0,177814.0,228786.0,64248.0,16568.0,7366.0,1324.0,1094.0
892404,County,2020/10/06,27.0,MN,27037.0,Dakota County,110218.0,315205.0,1247256.0,282430.0,276811.0,137679.0,199478.0,251854.0,72250.0,17335.0,6864.0,1500.0,1055.0
896044,County,2020/10/07,27.0,MN,27037.0,Dakota County,104165.0,321258.0,1302909.0,293315.0,291599.0,141868.0,205295.0,268214.0,75970.0,16088.0,7526.0,1628.0,1406.0
898786,County,2020/10/08,27.0,MN,27037.0,Dakota County,107217.0,318206.0,1223757.0,273306.0,276901.0,128732.0,195604.0,247504.0,71658.0,17906.0,8691.0,2063.0,1392.0
902009,County,2020/10/09,27.0,MN,27037.0,Dakota County,109338.0,316085.0,1297998.0,293156.0,297717.0,140970.0,196725.0,251439.0,76209.0,24376.0,14396.0,2047.0,963.0
905212,County,2020/10/10,27.0,MN,27037.0,Dakota County,115686.0,309737.0,1264552.0,296029.0,301196.0,139177.0,191534.0,222421.0,73932.0,26076.0,11266.0,1848.0,1073.0
908974,County,2020/10/11,27.0,MN,27037.0,Dakota County,120571.0,304852.0,1050998.0,246049.0,241250.0,120836.0,166291.0,171213.0,60386.0,27347.0,14697.0,2204.0,725.0
911992,County,2020/10/12,27.0,MN,27037.0,Dakota County,116188.0,309235.0,1156677.0,275250.0,262456.0,127206.0,181939.0,215825.0,66753.0,17235.0,7375.0,1680.0,958.0
915718,County,2020/10/13,27.0,MN,27037.0,Dakota County,109245.0,316178.0,1225242.0,286532.0,281747.0,131530.0,190933.0,239156.0,70571.0,14957.0,7003.0,1823.0,990.0
918499,County,2020/10/14,27.0,MN,27037.0,Dakota County,107663.0,317760.0,1156575.0,255395.0,255918.0,120977.0,188635.0,232478.0,71673.0,18081.0,9823.0,2194.0,1401.0
922125,County,2020/10/15,27.0,MN,27037.0,Dakota County,111181.0,314242.0,1123733.0,242351.0,241028.0,116413.0,182780.0,234744.0,68682.0,20491.0,12797.0,2868.0,1579.0
924731,County,2020/10/16,27.0,MN,27037.0,Dakota County,104001.0,321422.0,1208612.0,262111.0,272851.0,134117.0,189468.0,235267.0,70724.0,23961.0,15625.0,2739.0,1749.0
928485,County,2020/10/17,27.0,MN,27037.0,Dakota County,114557.0,310866.0,1161055.0,270217.0,281137.0,132059.0,177486.0,193601.0,66855.0,23746.0,12135.0,2386.0,1433.0
931234,County,2020/10/18,27.0,MN,27037.0,Dakota County,122048.0,303375.0,995929.0,216702.0,242396.0,120227.0,165838.0,161474.0,45737.0,22533.0,17369.0,2441.0,1212.0
933898,County,2020/10/19,27.0,MN,27037.0,Dakota County,111638.0,313785.0,1178810.0,252625.0,271540.0,130456.0,191928.0,231252.0,71099.0,17715.0,8951.0,2002.0,1242.0
937322,County,2020/10/20,27.0,MN,27037.0,Dakota County,117360.0,308063.0,1149556.0,255831.0,266734.0,117214.0,186406.0,225795.0,68845.0,17405.0,8005.0,2089.0,1232.0
941206,County,2020/10/21,27.0,MN,27037.0,Dakota County,115036.0,310387.0,1143263.0,248728.0,257507.0,123439.0,189720.0,226490.0,67523.0,16786.0,8986.0,2718.0,1366.0
944464,County,2020/10/22,27.0,MN,27037.0,Dakota County,110383.0,315040.0,1162104.0,248213.0,272403.0,130279.0,189251.0,225360.0,66007.0,18397.0,8493.0,2363.0,1338.0
947296,County,2020/10/23,27.0,MN,27037.0,Dakota County,105347.0,320076.0,1278591.0,268262.0,298383.0,146835.0,212278.0,241549.0,72902.0,22611.0,11585.0,2825.0,1361.0
950184,County,2020/10/24,27.0,MN,27037.0,Dakota County,111842.0,313581.0,1246829.0,276714.0,304718.0,155114.0,202533.0,213212.0,60619.0,22375.0,8218.0,2176.0,1150.0
