,Level,Date,State FIPS,State Postal Code,County FIPS,County Name,Population Staying at Home,Population Not Staying at Home,Number of Trips,Number of Trips <1,Number of Trips 1-3,Number of Trips 3-5,Number of Trips 5-10,Number of Trips 10-25,Number of Trips 25-50,Number of Trips 50-100,Number of Trips 100-250,Number of Trips 250-500,Number of Trips >=500
921,County,2020/01/01,20.0,KS,20067.0,Grant County,2186.0,5150.0,21205.0,4585.0,9009.0,1317.0,1387.0,1768.0,1420.0,766.0,738.0,199.0,16.0
6303,County,2020/01/02,20.0,KS,20067.0,Grant County,2089.0,5247.0,28833.0,9036.0,11560.0,1693.0,1287.0,1900.0,1644.0,750.0,789.0,174.0,0.0
7698,County,2020/01/03,20.0,KS,20067.0,Grant County,1776.0,5560.0,27865.0,6999.0,11773.0,1805.0,1786.0,1973.0,1688.0,894.0,849.0,93.0,5.0
12262,County,2020/01/04,20.0,KS,20067.0,Grant County,2072.0,5264.0,24542.0,7133.0,7124.0,1599.0,2286.0,2833.0,2091.0,890.0,507.0,72.0,7.0
13697,County,2020/01/05,20.0,KS,20067.0,Grant County,1985.0,5351.0,20985.0,6330.0,8423.0,1425.0,843.0,1262.0,1304.0,963.0,258.0,171.0,6.0
18064,County,2020/01/06,20.0,KS,20067.0,Grant County,2049.0,5287.0,30739.0,8462.0,12497.0,1474.0,1830.0,3167.0,2139.0,791.0,300.0,79.0,0.0
21210,County,2020/01/07,20.0,KS,20067.0,Grant County,1749.0,5587.0,31728.0,8956.0,12182.0,937.0,2198.0,3481.0,2364.0,1006.0,491.0,108.0,5.0
24454,County,2020/01/08,20.0,KS,20067.0,Grant County,1773.0,5563.0,30783.0,7662.0,12315.0,1056.0,2401.0,3111.0,2123.0,1370.0,646.0,89.0,10.0
27585,County,2020/01/09,20.0,KS,20067.0,Grant County,1782.0,5554.0,25198.0,6663.0,9633.0,1226.0,1502.0,2307.0,2061.0,1337.0,381.0,79.0,9.0
30792,County,2020/01/10,20.0,KS,20067.0,Grant County,1545.0,5791.0,25319.0,7130.0,10617.0,1139.0,1299.0,1842.0,1914.0,815.0,486.0,73.0,4.0
34036,County,2020/01/11,20.0,KS,20067.0,Grant County,2068.0,5268.0,27651.0,7799.0,11241.0,1203.0,1800.0,2501.0,1474.0,1345.0,245.0,40.0,3.0
37155,County,2020/01/12,20.0,KS,20067.0,Grant County,2217.0,5119.0,21822.0,6044.0,8837.0,1695.0,1002.0,1343.0,1520.0,982.0,263.0,130.0,6.0
38819,County,2020/01/13,20.0,KS,20067.0,Grant County,1809.0,5527.0,28303.0,8594.0,11477.0,946.0,895.0,2361.0,2376.0,813.0,720.0,119.0,2.0
43552,County,2020/01/14,20.0,KS,20067.0,Grant County,1807.0,5529.0,26837.0,6335.0,11155.0,1352.0,1379.0,2296.0,2387.0,1307.0,496.0,127.0,3.0
46758,County,2020/01/15,20.0,KS,20067.0,Grant County,1910.0,5426.0,26803.0,8106.0,9929.0,1894.0,1344.0,2057.0,1833.0,904.0,566.0,153.0,17.0
48285,County,2020/01/16,20.0,KS,20067.0,Grant County,1940.0,5396.0,26186.0,6216.0,11172.0,1916.0,903.0,1660.0,2584.0,1157.0,537.0,32.0,9.0
53201,County,2020/01/17,20.0,KS,20067.0,Grant County,1953.0,5383.0,29531.0,9531.0,9750.0,2300.0,1530.0,2391.0,2105.0,1189.0,573.0,155.0,7.0
54774,County,2020/01/18,20.0,KS,20067.0,Grant County,1723.0,5613.0,25270.0,5978.0,9990.0,1111.0,1423.0,2395.0,2082.0,1987.0,302.0,0.0,2.0
57921,County,2020/01/19,20.0,KS,20067.0,Grant County,2122.0,5214.0,21473.0,5175.0,8241.0,1656.0,935.0,1670.0,2185.0,1131.0,430.0,41.0,9.0
61154,County,2020/01/20,20.0,KS,20067.0,Grant County,2014.0,5322.0,28369.0,8912.0,10141.0,1262.0,1591.0,2809.0,2293.0,808.0,433.0,107.0,13.0
65931,County,2020/01/21,20.0,KS,20067.0,Grant County,1844.0,5492.0,25871.0,7041.0,9789.0,1456.0,1447.0,2059.0,2650.0,542.0,760.0,125.0,2.0
69122,County,2020/01/22,20.0,KS,20067.0,Grant County,1715.0,5621.0,26348.0,7946.0,9147.0,1298.0,1425.0,2442.0,2182.0,973.0,856.0,67.0,12.0
72304,County,2020/01/23,20.0,KS,20067.0,Grant County,1855.0,5481.0,27409.0,7242.0,11150.0,1326.0,1229.0,2214.0,2317.0,1251.0,491.0,178.0,11.0
75460,County,2020/01/24,20.0,KS,20067.0,Grant County,1740.0,5596.0,27040.0,7156.0,10647.0,1328.0,648.0,2209.0,2709.0,1473.0,758.0,107.0,5.0
78695,County,2020/01/25,20.0,KS,20067.0,Grant County,1764.0,5572.0,27489.0,8099.0,10995.0,1297.0,1265.0,1887.0,1628.0,1763.0,423.0,122.0,10.0
80771,County,2020/01/26,20.0,KS,20067.0,Grant County,1927.0,5409.0,21210.0,5859.0,8808.0,1669.0,854.0,1557.0,1259.0,781.0,262.0,156.0,5.0
84961,County,2020/01/27,20.0,KS,20067.0,Grant County,1652.0,5684.0,25753.0,6821.0,9666.0,1728.0,1751.0,2224.0,2014.0,1130.0,282.0,120.0,17.0
88815,County,2020/01/28,20.0,KS,20067.0,Grant County,2105.0,5231.0,23825.0,7547.0,9477.0,1045.0,709.0,1789.0,1832.0,1056.0,351.0,17.0,2.0
89887,County,2020/01/29,20.0,KS,20067.0,Grant County,1803.0,5533.0,26011.0,8090.0,9047.0,1350.0,1041.0,2562.0,1887.0,1218.0,670.0,142.0,4.0
93191,County,2020/01/30,20.0,KS,20067.0,Grant County,1723.0,5613.0,27530.0,7567.0,10132.0,1707.0,1423.0,2080.0,2882.0,963.0,633.0,139.0,4.0
97865,County,2020/01/31,20.0,KS,20067.0,Grant County,1639.0,5697.0,29202.0,8536.0,11179.0,1694.0,1221.0,2164.0,2118.0,1439.0,690.0,157.0,4.0
101053,County,2020/02/01,20.0,KS,20067.0,Grant County,1909.0,5427.0,23704.0,6654.0,9223.0,1045.0,1648.0,1449.0,1640.0,1538.0,331.0,172.0,4.0
104206,County,2020/02/02,20.0,KS,20067.0,Grant County,1801.0,5535.0,22534.0,5105.0,9583.0,1515.0,1390.0,1593.0,1393.0,1159.0,639.0,155.0,2.0
107458,County,2020/02/03,20.0,KS,20067.0,Grant County,1447.0,5889.0,28313.0,7309.0,10882.0,1598.0,2048.0,2492.0,1776.0,1493.0,579.0,131.0,5.0
109075,County,2020/02/04,20.0,KS,20067.0,Grant County,1675.0,5661.0,29588.0,8695.0,10028.0,1638.0,2283.0,2789.0,2386.0,1072.0,458.0,227.0,12.0
113798,County,2020/02/05,20.0,KS,20067.0,Grant County,1518.0,5818.0,30359.0,8297.0,12346.0,1709.0,1436.0,2526.0,2400.0,644.0,807.0,182.0,12.0
117004,County,2020/02/06,20.0,KS,20067.0,Grant County,1639.0,5697.0,29703.0,8313.0,10387.0,1593.0,1817.0,2619.0,3000.0,1075.0,816.0,74.0,9.0
120258,County,2020/02/07,20.0,KS,20067.0,Grant County,1488.0,5848.0,29276.0,8898.0,10875.0,1641.0,2125.0,1937.0,1810.0,1333.0,542.0,107.0,8.0
123418,County,2020/02/08,20.0,KS,20067.0,Grant County,1605.0,5731.0,25976.0,7169.0,10876.0,1207.0,1688.0,1222.0,1893.0,1495.0,303.0,112.0,11.0
127625,County,2020/02/09,20.0,KS,20067.0,Grant County,1908.0,5428.0,24039.0,5878.0,10351.0,1282.0,2389.0,1363.0,1576.0,1071.0,35.0,81.0,13.0
129230,County,2020/02/10,20.0,KS,20067.0,Grant County,1631.0,5705.0,30561.0,8774.0,11683.0,1096.0,2098.0,2338.0,2268.0,1442.0,714.0,141.0,7.0
133625,County,2020/02/11,20.0,KS,20067.0,Grant County,1628.0,5708.0,29919.0,8018.0,11502.0,1819.0,2771.0,2327.0,1939.0,1001.0,456.0,75.0,11.0
136116,County,2020/02/12,20.0,KS,20067.0,Grant County,1453.0,5883.0,29990.0,7811.0,10944.0,1704.0,2123.0,2474.0,2800.0,1597.0,397.0,131.0,9.0
137811,County,2020/02/13,20.0,KS,20067.0,Grant County,1712.0,5624.0,25477.0,6762.0,8984.0,1433.0,1928.0,1442.0,2685.0,1523.0,452.0,249.0,19.0
140918,County,2020/02/14,20.0,KS,20067.0,Grant County,1507.0,5829.0,29538.0,7344.0,11722.0,1420.0,1910.0,1524.0,2911.0,1639.0,784.0,271.0,13.0
145796,County,2020/02/15,20.0,KS,20067.0,Grant County,1819.0,5517.0,27324.0,7390.0,8271.0,1449.0,2997.0,1227.0,3283.0,1919.0,568.0,202.0,18.0
148949,County,2020/02/16,20.0,KS,20067.0,Grant County,1907.0,5429.0,22798.0,4609.0,9662.0,1426.0,2260.0,1095.0,1999.0,1240.0,333.0,151.0,23.0
150577,County,2020/02/17,20.0,KS,20067.0,Grant County,2247.0,5089.0,22936.0,4706.0,9161.0,1114.0,2196.0,1973.0,2104.0,945.0,605.0,123.0,9.0
155308,County,2020/02/18,20.0,KS,20067.0,Grant County,1721.0,5615.0,25281.0,6712.0,8950.0,1060.0,1880.0,1854.0,2890.0,1301.0,411.0,204.0,19.0
156986,County,2020/02/19,20.0,KS,20067.0,Grant County,1660.0,5676.0,27808.0,7982.0,9603.0,1583.0,2400.0,2159.0,2083.0,1461.0,416.0,110.0,11.0
161699,County,2020/02/20,20.0,KS,20067.0,Grant County,1721.0,5615.0,27462.0,7405.0,10820.0,1687.0,2123.0,2149.0,1792.0,973.0,354.0,147.0,12.0
163325,County,2020/02/21,20.0,KS,20067.0,Grant County,1696.0,5640.0,30242.0,8900.0,10937.0,1218.0,2770.0,1394.0,2907.0,1212.0,776.0,114.0,14.0
166519,County,2020/02/22,20.0,KS,20067.0,Grant County,1556.0,5780.0,26365.0,6599.0,10073.0,1295.0,2797.0,1600.0,2165.0,1451.0,230.0,136.0,19.0
169746,County,2020/02/23,20.0,KS,20067.0,Grant County,1881.0,5455.0,22584.0,5090.0,9521.0,1882.0,1565.0,1100.0,1799.0,926.0,528.0,158.0,15.0
174529,County,2020/02/24,20.0,KS,20067.0,Grant County,1574.0,5762.0,26291.0,6854.0,9586.0,1417.0,1663.0,2123.0,2259.0,1407.0,858.0,98.0,26.0
176149,County,2020/02/25,20.0,KS,20067.0,Grant County,1560.0,5776.0,22540.0,6440.0,7727.0,1207.0,1500.0,1674.0,2226.0,907.0,591.0,261.0,7.0
179785,County,2020/02/26,20.0,KS,20067.0,Grant County,1480.0,5856.0,33463.0,6773.0,14943.0,1468.0,2735.0,2545.0,2880.0,1471.0,479.0,157.0,12.0
183952,County,2020/02/27,20.0,KS,20067.0,Grant County,1513.0,5823.0,32994.0,9267.0,11704.0,2024.0,2544.0,2611.0,2824.0,966.0,1009.0,45.0,0.0
187347,County,2020/02/28,20.0,KS,20067.0,Grant County,1358.0,5978.0,34035.0,9099.0,12001.0,2800.0,1888.0,2640.0,3075.0,1483.0,912.0,135.0,2.0
190444,County,2020/02/29,20.0,KS,20067.0,Grant County,1648.0,5688.0,27728.0,7124.0,11262.0,1420.0,1979.0,1969.0,2281.0,1161.0,386.0,146.0,0.0
193662,County,2020/03/01,20.0,KS,20067.0,Grant County,1813.0,5523.0,24001.0,5692.0,10490.0,2093.0,1219.0,1134.0,1334.0,1452.0,479.0,106.0,2.0
195291,County,2020/03/02,20.0,KS,20067.0,Grant County,1646.0,5690.0,33572.0,10609.0,11028.0,1965.0,2928.0,2234.0,3021.0,956.0,641.0,190.0,0.0
198494,County,2020/03/03,20.0,KS,20067.0,Grant County,1418.0,5918.0,29811.0,7608.0,10455.0,1879.0,1957.0,2208.0,3205.0,1111.0,1199.0,176.0,13.0
202353,County,2020/03/04,20.0,KS,20067.0,Grant County,1398.0,5938.0,28975.0,6916.0,11916.0,1058.0,1660.0,2424.0,3256.0,1223.0,331.0,175.0,16.0
204796,County,2020/03/05,20.0,KS,20067.0,Grant County,1218.0,6118.0,26505.0,5304.0,9950.0,1306.0,1866.0,2865.0,2731.0,1298.0,946.0,234.0,5.0
207964,County,2020/03/06,20.0,KS,20067.0,Grant County,1269.0,6067.0,29145.0,7740.0,9917.0,1905.0,1268.0,2807.0,2554.0,1591.0,1036.0,320.0,7.0
211265,County,2020/03/07,20.0,KS,20067.0,Grant County,1554.0,5782.0,26014.0,5227.0,9831.0,2424.0,1991.0,1494.0,2466.0,1735.0,586.0,242.0,18.0
214479,County,2020/03/08,20.0,KS,20067.0,Grant County,1584.0,5752.0,22916.0,4082.0,9504.0,1773.0,1776.0,1763.0,2237.0,1213.0,314.0,248.0,6.0
219238,County,2020/03/09,20.0,KS,20067.0,Grant County,1544.0,5792.0,29278.0,6911.0,10663.0,1748.0,2696.0,2950.0,2326.0,1087.0,681.0,205.0,11.0
220867,County,2020/03/10,20.0,KS,20067.0,Grant County,1506.0,5830.0,30017.0,6973.0,11289.0,2466.0,1846.0,2885.0,2600.0,1489.0,188.0,270.0,11.0
225661,County,2020/03/11,20.0,KS,20067.0,Grant County,1339.0,5997.0,23656.0,3749.0,8494.0,1893.0,1374.0,2984.0,1892.0,2588.0,140.0,510.0,32.0
228752,County,2020/03/12,20.0,KS,20067.0,Grant County,1389.0,5947.0,24277.0,5667.0,9084.0,1178.0,1343.0,1984.0,3170.0,964.0,686.0,182.0,19.0
232021,County,2020/03/13,20.0,KS,20067.0,Grant County,1268.0,6068.0,25346.0,4580.0,8831.0,1959.0,2406.0,2820.0,2128.0,1726.0,368.0,528.0,0.0
235076,County,2020/03/14,20.0,KS,20067.0,Grant County,1709.0,5627.0,18444.0,3737.0,5362.0,695.0,2468.0,1446.0,2546.0,1493.0,188.0,500.0,9.0
238353,County,2020/03/15,20.0,KS,20067.0,Grant County,2023.0,5313.0,18372.0,4029.0,7303.0,1042.0,2605.0,1248.0,1263.0,542.0,78.0,255.0,7.0
241596,County,2020/03/16,20.0,KS,20067.0,Grant County,1773.0,5563.0,25144.0,5548.0,9417.0,1221.0,2370.0,1799.0,2755.0,1202.0,685.0,123.0,24.0
243212,County,2020/03/17,20.0,KS,20067.0,Grant County,1984.0,5352.0,21987.0,6425.0,7216.0,1453.0,1146.0,2069.0,2342.0,809.0,263.0,261.0,3.0
246416,County,2020/03/18,20.0,KS,20067.0,Grant County,1840.0,5496.0,23958.0,4375.0,10265.0,1332.0,1837.0,2000.0,2264.0,1112.0,603.0,159.0,11.0
249573,County,2020/03/19,20.0,KS,20067.0,Grant County,2122.0,5214.0,20638.0,4570.0,7674.0,1709.0,1780.0,2368.0,1340.0,744.0,364.0,80.0,9.0
254373,County,2020/03/20,20.0,KS,20067.0,Grant County,2296.0,5040.0,21688.0,4521.0,8401.0,1301.0,1731.0,2368.0,2169.0,815.0,199.0,176.0,7.0
255950,County,2020/03/21,20.0,KS,20067.0,Grant County,2505.0,4831.0,20404.0,5817.0,9215.0,980.0,1216.0,815.0,999.0,982.0,240.0,132.0,8.0
259185,County,2020/03/22,20.0,KS,20067.0,Grant County,2267.0,5069.0,19893.0,4818.0,9952.0,759.0,1431.0,987.0,1117.0,340.0,387.0,102.0,0.0
262390,County,2020/03/23,20.0,KS,20067.0,Grant County,1938.0,5398.0,19800.0,4732.0,8715.0,817.0,1752.0,1463.0,1069.0,877.0,278.0,92.0,5.0
265542,County,2020/03/24,20.0,KS,20067.0,Grant County,2082.0,5254.0,21444.0,6172.0,8495.0,1023.0,1327.0,1364.0,1544.0,958.0,385.0,170.0,6.0
268776,County,2020/03/25,20.0,KS,20067.0,Grant County,1997.0,5339.0,21107.0,4671.0,8662.0,1404.0,1523.0,1568.0,1898.0,1061.0,191.0,126.0,3.0
273516,County,2020/03/26,20.0,KS,20067.0,Grant County,1937.0,5399.0,18787.0,3996.0,7277.0,1142.0,1688.0,1636.0,1852.0,708.0,372.0,102.0,14.0
275156,County,2020/03/27,20.0,KS,20067.0,Grant County,2018.0,5318.0,19778.0,4562.0,6835.0,2009.0,1106.0,912.0,2337.0,1388.0,565.0,56.0,8.0
279917,County,2020/03/28,20.0,KS,20067.0,Grant County,2247.0,5089.0,16783.0,4024.0,7142.0,1081.0,1438.0,963.0,969.0,718.0,252.0,187.0,9.0
283070,County,2020/03/29,20.0,KS,20067.0,Grant County,2363.0,4973.0,13137.0,2605.0,4115.0,979.0,1578.0,1110.0,1466.0,1019.0,73.0,192.0,0.0
286296,County,2020/03/30,20.0,KS,20067.0,Grant County,1909.0,5427.0,17396.0,3158.0,7348.0,897.0,1243.0,1632.0,1584.0,963.0,366.0,196.0,9.0
289500,County,2020/03/31,20.0,KS,20067.0,Grant County,2098.0,5238.0,17308.0,3249.0,6560.0,976.0,1794.0,1402.0,1751.0,1098.0,398.0,75.0,5.0
292699,County,2020/04/01,20.0,KS,20067.0,Grant County,1873.0,5463.0,19796.0,4634.0,7470.0,1113.0,1568.0,1861.0,1901.0,797.0,374.0,71.0,7.0
294328,County,2020/04/02,20.0,KS,20067.0,Grant County,1948.0,5388.0,18483.0,4025.0,7699.0,1265.0,1594.0,1384.0,1410.0,953.0,109.0,36.0,8.0
299088,County,2020/04/03,20.0,KS,20067.0,Grant County,1961.0,5375.0,17793.0,4356.0,6234.0,1097.0,1641.0,1188.0,1774.0,1030.0,391.0,74.0,8.0
302268,County,2020/04/04,20.0,KS,20067.0,Grant County,2158.0,5178.0,18811.0,4210.0,9567.0,853.0,1858.0,538.0,913.0,722.0,63.0,84.0,3.0
303896,County,2020/04/05,20.0,KS,20067.0,Grant County,2292.0,5044.0,14798.0,3281.0,5842.0,1173.0,1521.0,688.0,849.0,1291.0,0.0,146.0,7.0
307105,County,2020/04/06,20.0,KS,20067.0,Grant County,2021.0,5315.0,19284.0,3836.0,7951.0,1365.0,2153.0,1209.0,2023.0,597.0,62.0,82.0,6.0
310298,County,2020/04/07,20.0,KS,20067.0,Grant County,2033.0,5303.0,23721.0,4731.0,11392.0,1271.0,1621.0,1542.0,2057.0,796.0,259.0,43.0,9.0
315034,County,2020/04/08,20.0,KS,20067.0,Grant County,1895.0,5441.0,20552.0,4716.0,7015.0,1289.0,2152.0,2102.0,2082.0,977.0,185.0,20.0,14.0
316661,County,2020/04/09,20.0,KS,20067.0,Grant County,2029.0,5307.0,26306.0,6070.0,12042.0,1127.0,1785.0,1897.0,1958.0,749.0,591.0,87.0,0.0
319888,County,2020/04/10,20.0,KS,20067.0,Grant County,2161.0,5175.0,23924.0,6573.0,9164.0,1034.0,1834.0,1851.0,2433.0,678.0,211.0,139.0,7.0
323073,County,2020/04/11,20.0,KS,20067.0,Grant County,2095.0,5241.0,21554.0,5697.0,7502.0,1681.0,2354.0,1594.0,1319.0,1140.0,216.0,48.0,3.0
327806,County,2020/04/12,20.0,KS,20067.0,Grant County,2636.0,4700.0,13690.0,3576.0,6805.0,108.0,955.0,820.0,760.0,462.0,88.0,116.0,0.0
331029,County,2020/04/13,20.0,KS,20067.0,Grant County,2156.0,5180.0,18530.0,3324.0,7243.0,1566.0,1462.0,1714.0,1552.0,1062.0,538.0,66.0,3.0
332607,County,2020/04/14,20.0,KS,20067.0,Grant County,2083.0,5253.0,19264.0,2372.0,6857.0,927.0,2959.0,2440.0,2762.0,796.0,151.0,0.0,0.0
335833,County,2020/04/15,20.0,KS,20067.0,Grant County,1972.0,5364.0,15660.0,2094.0,6183.0,1220.0,1392.0,2296.0,1642.0,624.0,142.0,47.0,20.0
340551,County,2020/04/16,20.0,KS,20067.0,Grant County,2022.0,5314.0,14949.0,3307.0,4233.0,915.0,2435.0,1163.0,1675.0,1091.0,124.0,0.0,6.0
342286,County,2020/04/17,20.0,KS,20067.0,Grant County,1930.0,5406.0,20768.0,3658.0,7145.0,1489.0,2642.0,2639.0,2467.0,356.0,270.0,89.0,13.0
346961,County,2020/04/18,20.0,KS,20067.0,Grant County,2112.0,5224.0,15953.0,3017.0,5352.0,1909.0,1847.0,1443.0,1498.0,746.0,141.0,0.0,0.0
350143,County,2020/04/19,20.0,KS,20067.0,Grant County,2124.0,5212.0,13430.0,1935.0,6241.0,964.0,1709.0,1603.0,453.0,414.0,0.0,104.0,7.0
353393,County,2020/04/20,20.0,KS,20067.0,Grant County,1852.0,5484.0,19907.0,5733.0,6363.0,982.0,1220.0,1771.0,2467.0,1266.0,0.0,105.0,0.0
356579,County,2020/04/21,20.0,KS,20067.0,Grant County,1925.0,5411.0,19915.0,4848.0,7951.0,1250.0,1663.0,1733.0,1226.0,1006.0,127.0,105.0,6.0
358208,County,2020/04/22,20.0,KS,20067.0,Grant County,1902.0,5434.0,24016.0,6156.0,9784.0,1920.0,1259.0,1794.0,1441.0,1255.0,340.0,67.0,0.0
361313,County,2020/04/23,20.0,KS,20067.0,Grant County,1954.0,5382.0,24794.0,5194.0,11993.0,1423.0,1599.0,2170.0,1191.0,679.0,464.0,77.0,4.0
364567,County,2020/04/24,20.0,KS,20067.0,Grant County,2104.0,5232.0,21213.0,4134.0,9667.0,1685.0,1162.0,1946.0,1615.0,670.0,305.0,25.0,4.0
367734,County,2020/04/25,20.0,KS,20067.0,Grant County,2164.0,5172.0,29855.0,9668.0,12931.0,2188.0,1833.0,1432.0,1144.0,522.0,99.0,33.0,5.0
372503,County,2020/04/26,20.0,KS,20067.0,Grant County,2480.0,4856.0,23032.0,7272.0,9664.0,2537.0,1456.0,517.0,937.0,320.0,243.0,80.0,6.0
375782,County,2020/04/27,20.0,KS,20067.0,Grant County,1937.0,5399.0,26566.0,6208.0,11613.0,1738.0,1713.0,2276.0,1591.0,1106.0,236.0,78.0,7.0
377328,County,2020/04/28,20.0,KS,20067.0,Grant County,1945.0,5391.0,29043.0,7483.0,11504.0,1820.0,2018.0,2712.0,1570.0,1368.0,519.0,49.0,0.0
382109,County,2020/04/29,20.0,KS,20067.0,Grant County,1917.0,5419.0,27878.0,8010.0,11955.0,1454.0,1462.0,2553.0,1445.0,763.0,158.0,78.0,0.0
385326,County,2020/04/30,20.0,KS,20067.0,Grant County,2137.0,5199.0,25650.0,6496.0,9944.0,547.0,2133.0,2652.0,2315.0,1017.0,446.0,88.0,12.0
388562,County,2020/05/01,20.0,KS,20067.0,Grant County,2193.0,5143.0,28675.0,8375.0,11878.0,1871.0,1660.0,1602.0,1554.0,1103.0,628.0,0.0,4.0
390135,County,2020/05/02,20.0,KS,20067.0,Grant County,2054.0,5282.0,22494.0,7499.0,8602.0,1288.0,1808.0,1264.0,1178.0,614.0,175.0,58.0,8.0
393348,County,2020/05/03,20.0,KS,20067.0,Grant County,2454.0,4882.0,23747.0,6325.0,11276.0,1300.0,432.0,1239.0,1658.0,1279.0,132.0,88.0,18.0
396510,County,2020/05/04,20.0,KS,20067.0,Grant County,2166.0,5170.0,24623.0,6439.0,10074.0,1803.0,1399.0,1640.0,1856.0,1290.0,92.0,30.0,0.0
401278,County,2020/05/05,20.0,KS,20067.0,Grant County,1999.0,5337.0,26376.0,8191.0,9861.0,1929.0,1711.0,1970.0,1593.0,1090.0,0.0,27.0,4.0
404484,County,2020/05/06,20.0,KS,20067.0,Grant County,1780.0,5556.0,20850.0,6112.0,6660.0,1710.0,1437.0,2245.0,1553.0,837.0,220.0,73.0,3.0
406111,County,2020/05/07,20.0,KS,20067.0,Grant County,1972.0,5364.0,24620.0,6531.0,8839.0,1650.0,2620.0,2408.0,1499.0,622.0,354.0,94.0,3.0
409367,County,2020/05/08,20.0,KS,20067.0,Grant County,1925.0,5411.0,25702.0,6606.0,10734.0,1144.0,1692.0,2314.0,1496.0,1297.0,389.0,26.0,4.0
412421,County,2020/05/09,20.0,KS,20067.0,Grant County,2088.0,5248.0,25891.0,8693.0,10218.0,1460.0,1196.0,1635.0,1322.0,1367.0,0.0,0.0,0.0
417218,County,2020/05/10,20.0,KS,20067.0,Grant County,2248.0,5088.0,18650.0,5545.0,7723.0,1524.0,966.0,1057.0,683.0,857.0,178.0,117.0,0.0
420497,County,2020/05/11,20.0,KS,20067.0,Grant County,1731.0,5605.0,22853.0,4187.0,9236.0,1903.0,2135.0,2057.0,1889.0,721.0,593.0,121.0,11.0
422077,County,2020/05/12,20.0,KS,20067.0,Grant County,1759.0,5577.0,24471.0,5771.0,8103.0,1771.0,1925.0,2019.0,1837.0,2126.0,792.0,108.0,19.0
425233,County,2020/05/13,20.0,KS,20067.0,Grant County,1865.0,5471.0,26843.0,6820.0,8937.0,2283.0,2337.0,2110.0,2480.0,1215.0,573.0,79.0,9.0
428476,County,2020/05/14,20.0,KS,20067.0,Grant County,1730.0,5606.0,25036.0,6128.0,9254.0,1982.0,1758.0,1947.0,1685.0,1379.0,808.0,89.0,6.0
431671,County,2020/05/15,20.0,KS,20067.0,Grant County,1586.0,5750.0,25195.0,6899.0,10390.0,1634.0,1540.0,1663.0,1482.0,1169.0,208.0,206.0,4.0
436420,County,2020/05/16,20.0,KS,20067.0,Grant County,1809.0,5527.0,26812.0,7057.0,10504.0,1829.0,1735.0,1705.0,1980.0,1264.0,617.0,119.0,2.0
438047,County,2020/05/17,20.0,KS,20067.0,Grant County,1927.0,5409.0,18299.0,5222.0,7557.0,949.0,1122.0,877.0,1364.0,566.0,387.0,255.0,0.0
441292,County,2020/05/18,20.0,KS,20067.0,Grant County,1599.0,5737.0,29458.0,7614.0,10193.0,1719.0,2463.0,2200.0,3527.0,1230.0,431.0,71.0,10.0
445982,County,2020/05/19,20.0,KS,20067.0,Grant County,1691.0,5645.0,30921.0,6589.0,12363.0,2506.0,2556.0,2518.0,2850.0,1166.0,306.0,67.0,0.0
447614,County,2020/05/20,20.0,KS,20067.0,Grant County,1495.0,5841.0,25554.0,5513.0,9951.0,1969.0,1843.0,1820.0,1974.0,2035.0,357.0,88.0,4.0
452048,County,2020/05/21,20.0,KS,20067.0,Grant County,1286.0,6050.0,31236.0,8809.0,10755.0,1836.0,2605.0,2736.0,2952.0,1117.0,299.0,124.0,3.0
454020,County,2020/05/22,20.0,KS,20067.0,Grant County,1528.0,5808.0,31932.0,8533.0,12005.0,2006.0,2197.0,3107.0,2499.0,1266.0,192.0,127.0,0.0
457216,County,2020/05/23,20.0,KS,20067.0,Grant County,1626.0,5710.0,26840.0,7518.0,9232.0,1955.0,2060.0,2202.0,2013.0,1224.0,598.0,33.0,5.0
460384,County,2020/05/24,20.0,KS,20067.0,Grant County,1740.0,5596.0,21576.0,5882.0,7822.0,1892.0,1754.0,1460.0,1012.0,1446.0,245.0,58.0,5.0
463587,County,2020/05/25,20.0,KS,20067.0,Grant County,1901.0,5435.0,20811.0,5780.0,7821.0,1709.0,1042.0,1369.0,1257.0,1223.0,435.0,173.0,2.0
468418,County,2020/05/26,20.0,KS,20067.0,Grant County,1765.0,5571.0,26113.0,6646.0,9521.0,1892.0,2171.0,2005.0,1615.0,1593.0,499.0,165.0,6.0
469997,County,2020/05/27,20.0,KS,20067.0,Grant County,1680.0,5656.0,30489.0,7409.0,12593.0,1667.0,1824.0,3158.0,2005.0,1153.0,498.0,180.0,2.0
473193,County,2020/05/28,20.0,KS,20067.0,Grant County,1541.0,5795.0,29745.0,7836.0,12833.0,1532.0,2265.0,2194.0,1282.0,1133.0,499.0,165.0,6.0
476338,County,2020/05/29,20.0,KS,20067.0,Grant County,1860.0,5476.0,27084.0,5443.0,12601.0,1551.0,1058.0,1985.0,2059.0,1324.0,827.0,225.0,11.0
479525,County,2020/05/30,20.0,KS,20067.0,Grant County,1754.0,5582.0,22325.0,6304.0,8642.0,964.0,1497.0,1713.0,1466.0,1251.0,147.0,341.0,0.0
484291,County,2020/05/31,20.0,KS,20067.0,Grant County,1741.0,5595.0,24808.0,6251.0,10773.0,1553.0,1502.0,1859.0,997.0,859.0,805.0,209.0,0.0
485920,County,2020/06/01,20.0,KS,20067.0,Grant County,1428.0,5908.0,26261.0,6879.0,9405.0,1688.0,1739.0,2567.0,2094.0,1208.0,488.0,191.0,2.0
489161,County,2020/06/02,20.0,KS,20067.0,Grant County,1600.0,5736.0,28373.0,7117.0,10422.0,2520.0,1677.0,2859.0,2022.0,1353.0,280.0,123.0,0.0
492330,County,2020/06/03,20.0,KS,20067.0,Grant County,1219.0,6117.0,28190.0,6784.0,11456.0,1635.0,1670.0,1991.0,2293.0,1985.0,283.0,93.0,0.0
497104,County,2020/06/04,20.0,KS,20067.0,Grant County,1422.0,5914.0,28146.0,6541.0,11238.0,2212.0,1784.0,2056.0,2011.0,1907.0,287.0,108.0,2.0
498744,County,2020/06/05,20.0,KS,20067.0,Grant County,1571.0,5765.0,34567.0,13102.0,12018.0,1831.0,1362.0,2292.0,2038.0,1226.0,433.0,254.0,11.0
501891,County,2020/06/06,20.0,KS,20067.0,Grant County,1975.0,5361.0,22695.0,5796.0,8684.0,1584.0,2030.0,1403.0,898.0,1386.0,789.0,118.0,7.0
505083,County,2020/06/07,20.0,KS,20067.0,Grant County,1819.0,5517.0,19244.0,3940.0,7482.0,1281.0,1868.0,1142.0,1436.0,1376.0,522.0,197.0,0.0
509879,County,2020/06/08,20.0,KS,20067.0,Grant County,1547.0,5789.0,29689.0,7359.0,12249.0,1790.0,1390.0,2055.0,2019.0,1562.0,1140.0,121.0,4.0
511508,County,2020/06/09,20.0,KS,20067.0,Grant County,1568.0,5768.0,26394.0,6563.0,11399.0,1142.0,1066.0,2625.0,2028.0,1032.0,343.0,194.0,2.0
516289,County,2020/06/10,20.0,KS,20067.0,Grant County,1524.0,5812.0,31874.0,8167.0,13738.0,1506.0,1948.0,2218.0,2412.0,1302.0,409.0,169.0,5.0
519397,County,2020/06/11,20.0,KS,20067.0,Grant County,1544.0,5792.0,31101.0,7561.0,12106.0,1764.0,2322.0,2287.0,3080.0,1344.0,464.0,169.0,4.0
522669,County,2020/06/12,20.0,KS,20067.0,Grant County,1419.0,5917.0,31422.0,7856.0,12531.0,2236.0,1935.0,2987.0,1840.0,1444.0,400.0,191.0,2.0
524296,County,2020/06/13,20.0,KS,20067.0,Grant County,1631.0,5705.0,26135.0,7037.0,10151.0,2342.0,1348.0,1141.0,1639.0,1631.0,671.0,170.0,5.0
529059,County,2020/06/14,20.0,KS,20067.0,Grant County,1868.0,5468.0,20322.0,5356.0,8172.0,1311.0,1466.0,1146.0,1162.0,1264.0,279.0,153.0,13.0
532250,County,2020/06/15,20.0,KS,20067.0,Grant County,1636.0,5700.0,24569.0,6017.0,9514.0,2204.0,1515.0,1909.0,1902.0,867.0,494.0,134.0,13.0
535421,County,2020/06/16,20.0,KS,20067.0,Grant County,1856.0,5480.0,25332.0,5688.0,10215.0,1498.0,2197.0,2516.0,1492.0,866.0,751.0,109.0,0.0
537023,County,2020/06/17,20.0,KS,20067.0,Grant County,1875.0,5461.0,23357.0,5475.0,9073.0,1595.0,2098.0,1639.0,1467.0,1023.0,852.0,133.0,2.0
541784,County,2020/06/18,20.0,KS,20067.0,Grant County,1771.0,5565.0,24414.0,5839.0,9447.0,1681.0,1635.0,2293.0,1914.0,1009.0,486.0,102.0,8.0
544985,County,2020/06/19,20.0,KS,20067.0,Grant County,1566.0,5770.0,17783.0,3662.0,6604.0,1115.0,1583.0,1515.0,1610.0,1022.0,473.0,192.0,7.0
546616,County,2020/06/20,20.0,KS,20067.0,Grant County,2080.0,5256.0,19341.0,4248.0,7646.0,1273.0,1902.0,1626.0,1262.0,815.0,492.0,72.0,5.0
549820,County,2020/06/21,20.0,KS,20067.0,Grant County,2125.0,5211.0,15798.0,3364.0,6419.0,673.0,1249.0,1316.0,1249.0,876.0,499.0,148.0,5.0
554600,County,2020/06/22,20.0,KS,20067.0,Grant County,1874.0,5462.0,19706.0,3952.0,7802.0,1161.0,2018.0,1609.0,1675.0,930.0,341.0,213.0,5.0
556228,County,2020/06/23,20.0,KS,20067.0,Grant County,1908.0,5428.0,24424.0,5493.0,9258.0,1501.0,1664.0,2471.0,2355.0,1030.0,510.0,135.0,7.0
560996,County,2020/06/24,20.0,KS,20067.0,Grant County,1880.0,5456.0,20805.0,4576.0,7692.0,1453.0,1933.0,1779.0,1710.0,1144.0,316.0,196.0,6.0
564124,County,2020/06/25,20.0,KS,20067.0,Grant County,1773.0,5563.0,22060.0,4223.0,8917.0,1501.0,1762.0,1989.0,2321.0,600.0,540.0,202.0,5.0
567419,County,2020/06/26,20.0,KS,20067.0,Grant County,1792.0,5544.0,24039.0,6458.0,9229.0,1812.0,1364.0,2093.0,1465.0,943.0,403.0,266.0,6.0
569000,County,2020/06/27,20.0,KS,20067.0,Grant County,1901.0,5435.0,24399.0,6868.0,9302.0,1442.0,1800.0,1665.0,1634.0,1070.0,435.0,173.0,10.0
572208,County,2020/06/28,20.0,KS,20067.0,Grant County,2128.0,5208.0,24631.0,6031.0,9854.0,1429.0,1734.0,2033.0,2065.0,807.0,490.0,182.0,6.0
576933,County,2020/06/29,20.0,KS,20067.0,Grant County,1679.0,5657.0,24577.0,6099.0,8885.0,1763.0,1323.0,1786.0,2606.0,1795.0,111.0,201.0,8.0
578576,County,2020/06/30,20.0,KS,20067.0,Grant County,1663.0,5673.0,24415.0,4918.0,8855.0,1914.0,1639.0,1876.0,3055.0,1795.0,269.0,89.0,5.0
581782,County,2020/07/01,20.0,KS,20067.0,Grant County,1639.0,5697.0,25952.0,5294.0,8461.0,2042.0,2377.0,2433.0,2954.0,1781.0,468.0,137.0,5.0
584974,County,2020/07/02,20.0,KS,20067.0,Grant County,2129.0,5207.0,23414.0,4482.0,9465.0,1593.0,1870.0,2111.0,2464.0,637.0,573.0,214.0,5.0
588151,County,2020/07/03,20.0,KS,20067.0,Grant County,1950.0,5386.0,23905.0,6422.0,9177.0,1802.0,1356.0,2081.0,1457.0,938.0,401.0,265.0,6.0
591361,County,2020/07/04,20.0,KS,20067.0,Grant County,1952.0,5384.0,20449.0,5494.0,7851.0,1541.0,1160.0,1781.0,1246.0,802.0,343.0,226.0,5.0
596107,County,2020/07/05,20.0,KS,20067.0,Grant County,1836.0,5500.0,15224.0,2555.0,6187.0,974.0,1119.0,1113.0,1439.0,985.0,561.0,278.0,13.0
598407,County,2020/07/06,20.0,KS,20067.0,Grant County,1739.0,5597.0,21888.0,4141.0,8479.0,1450.0,1823.0,1969.0,1849.0,1687.0,246.0,228.0,16.0
602898,County,2020/07/07,20.0,KS,20067.0,Grant County,1854.0,5482.0,21598.0,4197.0,8657.0,1195.0,1219.0,2111.0,2577.0,1240.0,292.0,96.0,14.0
605613,County,2020/07/08,20.0,KS,20067.0,Grant County,1795.0,5541.0,22348.0,4818.0,8191.0,1617.0,1844.0,1721.0,2356.0,1074.0,565.0,155.0,7.0
607339,County,2020/07/09,20.0,KS,20067.0,Grant County,1692.0,5644.0,22052.0,5553.0,7141.0,1463.0,1351.0,1690.0,2869.0,1221.0,497.0,246.0,21.0
610490,County,2020/07/10,20.0,KS,20067.0,Grant County,1738.0,5598.0,22387.0,5706.0,8739.0,1272.0,1385.0,2004.0,1906.0,745.0,283.0,327.0,20.0
613700,County,2020/07/11,20.0,KS,20067.0,Grant County,1838.0,5498.0,22513.0,5738.0,7878.0,1479.0,2207.0,2004.0,1793.0,626.0,493.0,290.0,5.0
618474,County,2020/07/12,20.0,KS,20067.0,Grant County,2255.0,5081.0,15289.0,2662.0,5354.0,1258.0,1785.0,1256.0,1421.0,936.0,369.0,244.0,4.0
620111,County,2020/07/13,20.0,KS,20067.0,Grant County,2070.0,5266.0,21470.0,3807.0,8456.0,1697.0,1699.0,2504.0,1946.0,934.0,248.0,176.0,3.0
623311,County,2020/07/14,20.0,KS,20067.0,Grant County,1865.0,5471.0,19109.0,3624.0,8088.0,1099.0,1478.0,1892.0,1557.0,862.0,376.0,124.0,9.0
626384,County,2020/07/15,20.0,KS,20067.0,Grant County,2017.0,5319.0,18639.0,3369.0,7136.0,1092.0,1355.0,1664.0,1815.0,1562.0,498.0,141.0,7.0
631314,County,2020/07/16,20.0,KS,20067.0,Grant County,2108.0,5228.0,19397.0,3208.0,8218.0,1590.0,1452.0,1718.0,1137.0,1372.0,534.0,164.0,4.0
632875,County,2020/07/17,20.0,KS,20067.0,Grant County,1840.0,5496.0,21044.0,5092.0,7350.0,910.0,1807.0,2313.0,1734.0,1210.0,495.0,128.0,5.0
637661,County,2020/07/18,20.0,KS,20067.0,Grant County,2227.0,5109.0,17224.0,3471.0,7122.0,1074.0,1286.0,1750.0,1391.0,769.0,219.0,130.0,12.0
640814,County,2020/07/19,20.0,KS,20067.0,Grant County,2197.0,5139.0,16942.0,2458.0,8731.0,849.0,1570.0,1030.0,1000.0,912.0,346.0,38.0,8.0
644023,County,2020/07/20,20.0,KS,20067.0,Grant County,1898.0,5438.0,26775.0,6136.0,11743.0,1172.0,1884.0,2081.0,2356.0,1205.0,119.0,79.0,0.0
645651,County,2020/07/21,20.0,KS,20067.0,Grant County,1897.0,5439.0,26258.0,5304.0,11655.0,1387.0,1292.0,2836.0,1795.0,1290.0,565.0,131.0,3.0
650380,County,2020/07/22,20.0,KS,20067.0,Grant County,1731.0,5605.0,27434.0,6522.0,11022.0,986.0,2405.0,2435.0,2659.0,1103.0,151.0,149.0,2.0
651970,County,2020/07/23,20.0,KS,20067.0,Grant County,1778.0,5558.0,25465.0,7026.0,9694.0,1370.0,1160.0,2244.0,2247.0,1381.0,304.0,34.0,5.0
655142,County,2020/07/24,20.0,KS,20067.0,Grant County,1644.0,5692.0,26632.0,5718.0,10239.0,1389.0,2035.0,2720.0,2226.0,1599.0,541.0,163.0,2.0
660065,County,2020/07/25,20.0,KS,20067.0,Grant County,1757.0,5579.0,25131.0,6374.0,9381.0,1738.0,1720.0,2178.0,1626.0,1435.0,599.0,72.0,8.0
661638,County,2020/07/26,20.0,KS,20067.0,Grant County,1955.0,5381.0,23101.0,5738.0,8875.0,1183.0,1399.0,2131.0,1856.0,1185.0,579.0,149.0,6.0
666417,County,2020/07/27,20.0,KS,20067.0,Grant County,1735.0,5601.0,24246.0,7703.0,9203.0,935.0,1212.0,1446.0,1862.0,1287.0,410.0,175.0,13.0
667998,County,2020/07/28,20.0,KS,20067.0,Grant County,1779.0,5557.0,23329.0,6579.0,8175.0,1291.0,1146.0,2309.0,2187.0,1119.0,387.0,128.0,8.0
672882,County,2020/07/29,20.0,KS,20067.0,Grant County,1628.0,5708.0,22613.0,5497.0,8148.0,1271.0,1187.0,2689.0,2100.0,1053.0,490.0,162.0,16.0
675964,County,2020/07/30,20.0,KS,20067.0,Grant County,1668.0,5668.0,27586.0,5727.0,11357.0,1942.0,2019.0,2181.0,2259.0,1533.0,382.0,180.0,6.0
679192,County,2020/07/31,20.0,KS,20067.0,Grant County,1779.0,5557.0,21392.0,4605.0,8617.0,1378.0,1223.0,1804.0,1261.0,1315.0,936.0,247.0,6.0
682313,County,2020/08/01,20.0,KS,20067.0,Grant County,1980.0,5356.0,21834.0,5374.0,8223.0,1163.0,1549.0,1681.0,1522.0,1735.0,475.0,104.0,8.0
685553,County,2020/08/02,20.0,KS,20067.0,Grant County,2154.0,5182.0,21439.0,4890.0,7663.0,1876.0,1497.0,2210.0,1692.0,738.0,459.0,404.0,10.0
688756,County,2020/08/03,20.0,KS,20067.0,Grant County,1663.0,5673.0,23372.0,4868.0,8698.0,1316.0,2279.0,2868.0,2066.0,898.0,256.0,119.0,4.0
690384,County,2020/08/04,20.0,KS,20067.0,Grant County,1823.0,5513.0,30010.0,7118.0,11651.0,1436.0,2279.0,3457.0,2075.0,1785.0,185.0,21.0,3.0
693547,County,2020/08/05,20.0,KS,20067.0,Grant County,1732.0,5604.0,25514.0,6344.0,9581.0,1187.0,1363.0,3097.0,1807.0,1699.0,342.0,94.0,0.0
696753,County,2020/08/06,20.0,KS,20067.0,Grant County,1690.0,5646.0,25034.0,5395.0,8812.0,1773.0,1749.0,2915.0,2937.0,987.0,375.0,89.0,2.0
699965,County,2020/08/07,20.0,KS,20067.0,Grant County,1745.0,5591.0,23915.0,5906.0,8241.0,1724.0,1453.0,2032.0,2638.0,1111.0,773.0,24.0,13.0
704726,County,2020/08/08,20.0,KS,20067.0,Grant County,1814.0,5522.0,26614.0,6016.0,10793.0,2081.0,2433.0,1902.0,1632.0,1083.0,539.0,128.0,7.0
707896,County,2020/08/09,20.0,KS,20067.0,Grant County,1794.0,5542.0,21798.0,4880.0,9194.0,1228.0,1167.0,1398.0,1169.0,1632.0,929.0,188.0,13.0
711114,County,2020/08/10,20.0,KS,20067.0,Grant County,1714.0,5622.0,22890.0,5472.0,8168.0,1229.0,749.0,2874.0,2229.0,1483.0,500.0,186.0,0.0
714355,County,2020/08/11,20.0,KS,20067.0,Grant County,1782.0,5554.0,27065.0,7951.0,7451.0,2034.0,2030.0,1939.0,2528.0,1699.0,1313.0,114.0,6.0
717404,County,2020/08/12,20.0,KS,20067.0,Grant County,1859.0,5477.0,27945.0,7662.0,10459.0,1211.0,1862.0,2351.0,2408.0,1329.0,461.0,196.0,6.0
720648,County,2020/08/13,20.0,KS,20067.0,Grant County,1639.0,5697.0,27294.0,8971.0,9379.0,1078.0,1162.0,1654.0,2779.0,1598.0,502.0,166.0,5.0
723874,County,2020/08/14,20.0,KS,20067.0,Grant County,1548.0,5788.0,31059.0,10281.0,10341.0,1604.0,1811.0,2224.0,1544.0,1878.0,1129.0,236.0,11.0
727085,County,2020/08/15,20.0,KS,20067.0,Grant County,1586.0,5750.0,24893.0,5781.0,8717.0,1649.0,1254.0,1742.0,2280.0,1911.0,1408.0,148.0,3.0
730277,County,2020/08/16,20.0,KS,20067.0,Grant County,1947.0,5389.0,24985.0,4222.0,11020.0,914.0,1917.0,2420.0,2152.0,1309.0,542.0,470.0,19.0
733445,County,2020/08/17,20.0,KS,20067.0,Grant County,1786.0,5550.0,22434.0,5410.0,8103.0,876.0,1907.0,1987.0,1875.0,1368.0,584.0,300.0,24.0
735072,County,2020/08/18,20.0,KS,20067.0,Grant County,2019.0,5317.0,24501.0,5861.0,7606.0,1525.0,1671.0,2425.0,2955.0,1477.0,585.0,386.0,10.0
738278,County,2020/08/19,20.0,KS,20067.0,Grant County,1889.0,5447.0,29875.0,8502.0,12092.0,1779.0,1291.0,1961.0,2727.0,1041.0,198.0,262.0,22.0
743059,County,2020/08/20,20.0,KS,20067.0,Grant County,1647.0,5689.0,30080.0,8451.0,11644.0,1328.0,2062.0,1955.0,2539.0,1367.0,338.0,380.0,16.0
746265,County,2020/08/21,20.0,KS,20067.0,Grant County,1601.0,5735.0,30631.0,9445.0,10800.0,1731.0,1608.0,1714.0,2974.0,1651.0,470.0,222.0,16.0
749421,County,2020/08/22,20.0,KS,20067.0,Grant County,1734.0,5602.0,26702.0,6206.0,11154.0,1007.0,2112.0,2475.0,1724.0,1442.0,373.0,198.0,11.0
752589,County,2020/08/23,20.0,KS,20067.0,Grant County,2287.0,5049.0,18929.0,4470.0,7656.0,959.0,618.0,1812.0,1436.0,1123.0,711.0,118.0,26.0
754261,County,2020/08/24,20.0,KS,20067.0,Grant County,1863.0,5473.0,20916.0,5365.0,7502.0,1622.0,1139.0,1264.0,2121.0,1160.0,440.0,273.0,30.0
759021,County,2020/08/25,20.0,KS,20067.0,Grant County,2028.0,5308.0,25331.0,5279.0,9970.0,1911.0,1890.0,1528.0,2190.0,1315.0,959.0,277.0,12.0
760653,County,2020/08/26,20.0,KS,20067.0,Grant County,1931.0,5405.0,23331.0,6376.0,9159.0,601.0,1599.0,1851.0,1571.0,1577.0,490.0,89.0,18.0
765377,County,2020/08/27,20.0,KS,20067.0,Grant County,1982.0,5354.0,24858.0,6826.0,9033.0,1158.0,2055.0,1605.0,1656.0,1316.0,1111.0,91.0,7.0
768592,County,2020/08/28,20.0,KS,20067.0,Grant County,1935.0,5401.0,24456.0,7100.0,9137.0,1389.0,1104.0,1775.0,2066.0,1205.0,537.0,138.0,5.0
770220,County,2020/08/29,20.0,KS,20067.0,Grant County,1850.0,5486.0,21867.0,5819.0,8838.0,785.0,1671.0,1306.0,1294.0,1180.0,832.0,127.0,15.0
773427,County,2020/08/30,20.0,KS,20067.0,Grant County,2144.0,5192.0,19338.0,4169.0,7147.0,1137.0,1862.0,1334.0,961.0,1752.0,784.0,189.0,3.0
778151,County,2020/08/31,20.0,KS,20067.0,Grant County,1906.0,5430.0,21544.0,5293.0,7501.0,1073.0,1396.0,2033.0,1516.0,1536.0,1049.0,134.0,13.0
779762,County,2020/09/01,20.0,KS,20067.0,Grant County,1996.0,5340.0,26255.0,7276.0,10730.0,1110.0,1773.0,1642.0,1917.0,1218.0,483.0,100.0,6.0
783794,County,2020/09/02,20.0,KS,20067.0,Grant County,1940.0,5396.0,23776.0,5932.0,10012.0,917.0,1559.0,1695.0,1558.0,1367.0,561.0,164.0,11.0
787745,County,2020/09/03,20.0,KS,20067.0,Grant County,1747.0,5589.0,23251.0,6201.0,7611.0,1149.0,1379.0,2296.0,2122.0,1888.0,441.0,164.0,0.0
789360,County,2020/09/04,20.0,KS,20067.0,Grant County,1921.0,5415.0,22799.0,4441.0,7865.0,1781.0,1939.0,1909.0,1334.0,2434.0,792.0,283.0,21.0
794127,County,2020/09/05,20.0,KS,20067.0,Grant County,1942.0,5394.0,29162.0,8203.0,11188.0,2239.0,1575.0,1498.0,1333.0,1823.0,1133.0,167.0,3.0
795779,County,2020/09/06,20.0,KS,20067.0,Grant County,2118.0,5218.0,23048.0,5232.0,9931.0,906.0,1786.0,1675.0,1658.0,1225.0,492.0,135.0,8.0
800544,County,2020/09/07,20.0,KS,20067.0,Grant County,2093.0,5243.0,19452.0,4565.0,8463.0,744.0,825.0,1418.0,948.0,1598.0,455.0,425.0,11.0
802152,County,2020/09/08,20.0,KS,20067.0,Grant County,1782.0,5554.0,24929.0,6968.0,8626.0,1484.0,1973.0,2056.0,1851.0,1254.0,494.0,218.0,5.0
806933,County,2020/09/09,20.0,KS,20067.0,Grant County,1883.0,5453.0,22987.0,5771.0,9048.0,769.0,1178.0,1695.0,2248.0,1300.0,683.0,282.0,13.0
808560,County,2020/09/10,20.0,KS,20067.0,Grant County,1844.0,5492.0,24857.0,6271.0,10058.0,1003.0,1463.0,1937.0,1968.0,1231.0,819.0,97.0,10.0
813321,County,2020/09/11,20.0,KS,20067.0,Grant County,1927.0,5409.0,25431.0,5670.0,9754.0,1234.0,1848.0,1818.0,2178.0,1657.0,1195.0,62.0,15.0
814901,County,2020/09/12,20.0,KS,20067.0,Grant County,2058.0,5278.0,20390.0,4375.0,7090.0,1443.0,1680.0,1875.0,919.0,1677.0,1176.0,145.0,10.0
818123,County,2020/09/13,20.0,KS,20067.0,Grant County,2091.0,5245.0,22106.0,3701.0,9836.0,870.0,1414.0,2714.0,1251.0,1764.0,342.0,198.0,16.0
821328,County,2020/09/14,20.0,KS,20067.0,Grant County,1845.0,5491.0,24904.0,4960.0,9040.0,1569.0,2344.0,3091.0,2138.0,828.0,740.0,178.0,16.0
826097,County,2020/09/15,20.0,KS,20067.0,Grant County,1899.0,5437.0,23468.0,6941.0,7908.0,1283.0,1668.0,2251.0,1676.0,1224.0,278.0,230.0,9.0
829291,County,2020/09/16,20.0,KS,20067.0,Grant County,1826.0,5510.0,25984.0,5855.0,8786.0,2086.0,1353.0,2615.0,2771.0,1838.0,458.0,216.0,6.0
832468,County,2020/09/17,20.0,KS,20067.0,Grant County,2050.0,5286.0,29087.0,7092.0,12155.0,1899.0,1601.0,2041.0,1937.0,1428.0,697.0,230.0,7.0
834097,County,2020/09/18,20.0,KS,20067.0,Grant County,1658.0,5678.0,25874.0,5088.0,9691.0,1736.0,2274.0,1892.0,2076.0,2012.0,876.0,201.0,28.0
838872,County,2020/09/19,20.0,KS,20067.0,Grant County,1996.0,5340.0,24531.0,6077.0,9653.0,1129.0,2003.0,1209.0,1449.0,2130.0,585.0,276.0,20.0
840501,County,2020/09/20,20.0,KS,20067.0,Grant County,2301.0,5035.0,20295.0,5011.0,8055.0,502.0,1782.0,1811.0,1655.0,791.0,491.0,189.0,8.0
843663,County,2020/09/21,20.0,KS,20067.0,Grant County,2206.0,5130.0,22298.0,4579.0,8759.0,1286.0,2187.0,1560.0,2523.0,997.0,349.0,58.0,0.0
846867,County,2020/09/22,20.0,KS,20067.0,Grant County,2088.0,5248.0,24371.0,6555.0,9461.0,1009.0,2013.0,2097.0,1912.0,842.0,343.0,136.0,3.0
851645,County,2020/09/23,20.0,KS,20067.0,Grant County,1776.0,5560.0,25460.0,7377.0,8789.0,1191.0,1736.0,1946.0,2136.0,1705.0,485.0,92.0,3.0
853273,County,2020/09/24,20.0,KS,20067.0,Grant County,1851.0,5485.0,26191.0,7151.0,9673.0,1165.0,2067.0,2547.0,1969.0,1026.0,511.0,72.0,10.0
858037,County,2020/09/25,20.0,KS,20067.0,Grant County,1654.0,5682.0,24104.0,5924.0,9227.0,1356.0,1911.0,1714.0,1628.0,1713.0,585.0,43.0,3.0
861183,County,2020/09/26,20.0,KS,20067.0,Grant County,2190.0,5146.0,24650.0,5413.0,10920.0,1374.0,1969.0,1685.0,1576.0,1513.0,172.0,28.0,0.0
862837,County,2020/09/27,20.0,KS,20067.0,Grant County,2217.0,5119.0,20317.0,5836.0,8153.0,547.0,1860.0,885.0,1073.0,1370.0,446.0,147.0,0.0
866040,County,2020/09/28,20.0,KS,20067.0,Grant County,1958.0,5378.0,23404.0,5317.0,10013.0,928.0,1945.0,1871.0,2117.0,664.0,413.0,136.0,0.0
870812,County,2020/09/29,20.0,KS,20067.0,Grant County,1775.0,5561.0,22635.0,5028.0,7824.0,1952.0,1939.0,1840.0,1716.0,1564.0,570.0,198.0,4.0
872441,County,2020/09/30,20.0,KS,20067.0,Grant County,1964.0,5372.0,21979.0,6472.0,7775.0,374.0,1160.0,1554.0,2198.0,2138.0,208.0,96.0,4.0
875606,County,2020/10/01,20.0,KS,20067.0,Grant County,1935.0,5401.0,23862.0,7527.0,8096.0,1750.0,1475.0,1638.0,1785.0,1065.0,333.0,189.0,4.0
878809,County,2020/10/02,20.0,KS,20067.0,Grant County,2029.0,5307.0,19669.0,4743.0,6771.0,1464.0,1234.0,1776.0,1665.0,1467.0,370.0,172.0,7.0
883591,County,2020/10/03,20.0,KS,20067.0,Grant County,2248.0,5088.0,21301.0,6082.0,8434.0,944.0,1088.0,915.0,1480.0,1754.0,442.0,161.0,1.0
885591,County,2020/10/04,20.0,KS,20067.0,Grant County,2088.0,5248.0,20125.0,4476.0,8354.0,1181.0,1843.0,1302.0,1637.0,1035.0,150.0,142.0,5.0
888830,County,2020/10/05,20.0,KS,20067.0,Grant County,2052.0,5284.0,20140.0,5082.0,7605.0,631.0,2052.0,1571.0,1571.0,881.0,650.0,93.0,4.0
892013,County,2020/10/06,20.0,KS,20067.0,Grant County,1954.0,5382.0,21120.0,4076.0,6616.0,1659.0,1526.0,2003.0,2958.0,1679.0,460.0,140.0,3.0
895199,County,2020/10/07,20.0,KS,20067.0,Grant County,2094.0,5242.0,24263.0,4505.0,9331.0,1357.0,2060.0,3154.0,2195.0,1263.0,351.0,47.0,0.0
898386,County,2020/10/08,20.0,KS,20067.0,Grant County,1812.0,5524.0,21247.0,3504.0,8434.0,958.0,1981.0,3092.0,1584.0,1215.0,386.0,90.0,3.0
901615,County,2020/10/09,20.0,KS,20067.0,Grant County,1936.0,5400.0,22540.0,5003.0,8110.0,1231.0,1849.0,1121.0,2534.0,2025.0,585.0,80.0,2.0
904810,County,2020/10/10,20.0,KS,20067.0,Grant County,1992.0,5344.0,20880.0,4371.0,7961.0,636.0,2509.0,1494.0,1448.0,1777.0,588.0,96.0,0.0
909835,County,2020/10/11,20.0,KS,20067.0,Grant County,2211.0,5125.0,15197.0,2494.0,5682.0,619.0,1085.0,1310.0,2255.0,1286.0,330.0,131.0,5.0
912373,County,2020/10/12,20.0,KS,20067.0,Grant County,2062.0,5274.0,20534.0,4438.0,7942.0,1303.0,1547.0,1913.0,1899.0,1005.0,382.0,103.0,2.0
915652,County,2020/10/13,20.0,KS,20067.0,Grant County,1939.0,5397.0,23560.0,5579.0,8670.0,1292.0,1763.0,1791.0,2499.0,1410.0,447.0,106.0,3.0
918906,County,2020/10/14,20.0,KS,20067.0,Grant County,1613.0,5723.0,23155.0,4701.0,7922.0,1534.0,1177.0,2543.0,2869.0,1722.0,598.0,85.0,4.0
922139,County,2020/10/15,20.0,KS,20067.0,Grant County,2065.0,5271.0,18266.0,4108.0,5708.0,662.0,1523.0,1840.0,2175.0,1867.0,257.0,122.0,4.0
925550,County,2020/10/16,20.0,KS,20067.0,Grant County,1755.0,5581.0,23633.0,5428.0,8187.0,1029.0,2257.0,1834.0,2560.0,1553.0,641.0,142.0,2.0
928549,County,2020/10/17,20.0,KS,20067.0,Grant County,2152.0,5184.0,21837.0,4740.0,7250.0,1918.0,1606.0,1588.0,1889.0,2222.0,543.0,78.0,3.0
931585,County,2020/10/18,20.0,KS,20067.0,Grant County,2267.0,5069.0,17439.0,3443.0,7597.0,559.0,1144.0,1005.0,1225.0,1627.0,754.0,83.0,2.0
934256,County,2020/10/19,20.0,KS,20067.0,Grant County,1886.0,5450.0,23893.0,4952.0,9202.0,1506.0,1251.0,1924.0,2515.0,1559.0,840.0,141.0,3.0
938443,County,2020/10/20,20.0,KS,20067.0,Grant County,2078.0,5258.0,25756.0,6420.0,9267.0,1688.0,1480.0,2276.0,2416.0,1659.0,473.0,75.0,2.0
941074,County,2020/10/21,20.0,KS,20067.0,Grant County,1943.0,5393.0,21325.0,4550.0,7831.0,1522.0,1484.0,1369.0,2160.0,1848.0,369.0,188.0,4.0
944736,County,2020/10/22,20.0,KS,20067.0,Grant County,1833.0,5503.0,24978.0,5763.0,9830.0,2088.0,1570.0,2011.0,1617.0,1521.0,511.0,66.0,1.0
948051,County,2020/10/23,20.0,KS,20067.0,Grant County,1536.0,5800.0,22999.0,5370.0,7259.0,1446.0,1776.0,1804.0,2462.0,2264.0,496.0,118.0,4.0
950910,County,2020/10/24,20.0,KS,20067.0,Grant County,1986.0,5350.0,25237.0,6269.0,9999.0,1195.0,1223.0,1545.0,1618.0,2103.0,1179.0,103.0,3.0
