,Level,Date,State FIPS,State Postal Code,County FIPS,County Name,Population Staying at Home,Population Not Staying at Home,Number of Trips,Number of Trips <1,Number of Trips 1-3,Number of Trips 3-5,Number of Trips 5-10,Number of Trips 10-25,Number of Trips 25-50,Number of Trips 50-100,Number of Trips 100-250,Number of Trips 250-500,Number of Trips >=500
124,County,2020/01/01,5.0,AR,5027.0,Columbia County,4729.0,18808.0,62730.0,13695.0,17933.0,5582.0,11087.0,7135.0,3887.0,2095.0,1147.0,157.0,12.0
5506,County,2020/01/02,5.0,AR,5027.0,Columbia County,4018.0,19519.0,75602.0,17946.0,23684.0,6625.0,11826.0,8527.0,4194.0,1899.0,800.0,93.0,8.0
8495,County,2020/01/03,5.0,AR,5027.0,Columbia County,4060.0,19477.0,78325.0,18955.0,21749.0,5746.0,11272.0,10978.0,6070.0,2117.0,1300.0,115.0,23.0
10138,County,2020/01/04,5.0,AR,5027.0,Columbia County,4176.0,19361.0,80008.0,20570.0,22647.0,8218.0,11461.0,9043.0,5598.0,1690.0,610.0,162.0,9.0
12900,County,2020/01/05,5.0,AR,5027.0,Columbia County,4267.0,19270.0,69295.0,15563.0,20145.0,6410.0,12170.0,8138.0,4075.0,1741.0,872.0,150.0,31.0
15997,County,2020/01/06,5.0,AR,5027.0,Columbia County,3922.0,19615.0,80803.0,22018.0,21897.0,6531.0,12803.0,8289.0,5719.0,1916.0,1501.0,108.0,21.0
20806,County,2020/01/07,5.0,AR,5027.0,Columbia County,3878.0,19659.0,89865.0,25980.0,25057.0,7673.0,13436.0,8444.0,6331.0,1916.0,880.0,130.0,18.0
22433,County,2020/01/08,5.0,AR,5027.0,Columbia County,3908.0,19629.0,84506.0,20764.0,23566.0,8246.0,14466.0,9729.0,4806.0,1937.0,918.0,60.0,14.0
27181,County,2020/01/09,5.0,AR,5027.0,Columbia County,3758.0,19779.0,79797.0,20440.0,21962.0,6548.0,12095.0,8643.0,7124.0,1806.0,1087.0,90.0,2.0
30387,County,2020/01/10,5.0,AR,5027.0,Columbia County,3780.0,19757.0,84741.0,20623.0,26665.0,6587.0,13403.0,9825.0,5216.0,1471.0,846.0,101.0,4.0
32015,County,2020/01/11,5.0,AR,5027.0,Columbia County,4048.0,19489.0,70016.0,15240.0,22092.0,5433.0,11801.0,7743.0,4540.0,2086.0,944.0,116.0,21.0
36751,County,2020/01/12,5.0,AR,5027.0,Columbia County,4281.0,19256.0,73035.0,16337.0,22844.0,7771.0,10187.0,7966.0,4532.0,1837.0,1363.0,180.0,18.0
39999,County,2020/01/13,5.0,AR,5027.0,Columbia County,4025.0,19512.0,83165.0,19936.0,24495.0,6909.0,13710.0,9271.0,5501.0,2219.0,1031.0,86.0,7.0
43148,County,2020/01/14,5.0,AR,5027.0,Columbia County,4123.0,19414.0,82109.0,22436.0,23921.0,6565.0,12641.0,7917.0,5947.0,1687.0,859.0,117.0,19.0
44778,County,2020/01/15,5.0,AR,5027.0,Columbia County,3912.0,19625.0,90101.0,23001.0,28319.0,7389.0,14252.0,8540.0,5299.0,2049.0,1161.0,84.0,7.0
49510,County,2020/01/16,5.0,AR,5027.0,Columbia County,4094.0,19443.0,81971.0,21519.0,24150.0,7036.0,12867.0,7783.0,5512.0,1840.0,1130.0,107.0,27.0
52797,County,2020/01/17,5.0,AR,5027.0,Columbia County,3747.0,19790.0,88325.0,24430.0,24630.0,6234.0,14258.0,9862.0,4956.0,2571.0,1256.0,104.0,24.0
54369,County,2020/01/18,5.0,AR,5027.0,Columbia County,4106.0,19431.0,76627.0,19638.0,23111.0,6139.0,11620.0,7829.0,4966.0,2358.0,822.0,106.0,38.0
59115,County,2020/01/19,5.0,AR,5027.0,Columbia County,4284.0,19253.0,76765.0,20235.0,22189.0,6182.0,13607.0,8291.0,3928.0,1507.0,653.0,145.0,28.0
60749,County,2020/01/20,5.0,AR,5027.0,Columbia County,4410.0,19127.0,77915.0,19733.0,22797.0,5877.0,12006.0,6988.0,6522.0,2357.0,1533.0,85.0,17.0
65527,County,2020/01/21,5.0,AR,5027.0,Columbia County,4089.0,19448.0,79581.0,19779.0,24867.0,6624.0,13017.0,7302.0,5453.0,1327.0,1086.0,92.0,34.0
67156,County,2020/01/22,5.0,AR,5027.0,Columbia County,4048.0,19489.0,74593.0,18402.0,23481.0,6308.0,12068.0,8018.0,3714.0,1395.0,1109.0,87.0,11.0
70342,County,2020/01/23,5.0,AR,5027.0,Columbia County,4111.0,19426.0,78629.0,18998.0,25627.0,6653.0,12152.0,7434.0,4829.0,1752.0,1059.0,100.0,25.0
75056,County,2020/01/24,5.0,AR,5027.0,Columbia County,3675.0,19862.0,88384.0,23756.0,26615.0,5806.0,14256.0,8438.0,4841.0,2879.0,1667.0,94.0,32.0
78290,County,2020/01/25,5.0,AR,5027.0,Columbia County,4106.0,19431.0,77855.0,21060.0,22693.0,6294.0,11527.0,8681.0,4561.0,2030.0,807.0,157.0,45.0
79974,County,2020/01/26,5.0,AR,5027.0,Columbia County,4320.0,19217.0,73711.0,15997.0,23944.0,6709.0,11247.0,8373.0,4432.0,1859.0,946.0,181.0,23.0
84164,County,2020/01/27,5.0,AR,5027.0,Columbia County,4006.0,19531.0,87168.0,23877.0,27321.0,7440.0,13480.0,7160.0,5559.0,1211.0,958.0,151.0,11.0
86328,County,2020/01/28,5.0,AR,5027.0,Columbia County,4090.0,19447.0,82231.0,19254.0,27267.0,6543.0,12815.0,8517.0,5309.0,1571.0,861.0,75.0,19.0
89482,County,2020/01/29,5.0,AR,5027.0,Columbia County,4063.0,19474.0,84151.0,20058.0,27683.0,6397.0,13287.0,8397.0,4955.0,2125.0,1122.0,114.0,13.0
92689,County,2020/01/30,5.0,AR,5027.0,Columbia County,4070.0,19467.0,86078.0,22665.0,28469.0,7784.0,11617.0,7604.0,5385.0,1536.0,805.0,179.0,34.0
95890,County,2020/01/31,5.0,AR,5027.0,Columbia County,3678.0,19859.0,85024.0,22792.0,27352.0,8125.0,11165.0,7318.0,5304.0,1829.0,908.0,177.0,54.0
100649,County,2020/02/01,5.0,AR,5027.0,Columbia County,3878.0,19659.0,84516.0,21972.0,26207.0,8300.0,10923.0,8786.0,4627.0,2511.0,927.0,231.0,32.0
102267,County,2020/02/02,5.0,AR,5027.0,Columbia County,4253.0,19284.0,74100.0,15300.0,23082.0,8748.0,11825.0,9178.0,3666.0,1097.0,894.0,258.0,52.0
107052,County,2020/02/03,5.0,AR,5027.0,Columbia County,3786.0,19751.0,87580.0,22335.0,26635.0,8470.0,13048.0,8832.0,5356.0,1763.0,886.0,231.0,24.0
108670,County,2020/02/04,5.0,AR,5027.0,Columbia County,3830.0,19707.0,81302.0,20900.0,23631.0,6944.0,13459.0,8902.0,4463.0,1714.0,1064.0,197.0,28.0
113394,County,2020/02/05,5.0,AR,5027.0,Columbia County,4031.0,19506.0,81272.0,19404.0,27642.0,8182.0,11380.0,7813.0,4490.0,1499.0,631.0,181.0,50.0
116600,County,2020/02/06,5.0,AR,5027.0,Columbia County,3833.0,19704.0,81395.0,21847.0,22792.0,7452.0,11372.0,9216.0,5767.0,2153.0,613.0,142.0,41.0
119854,County,2020/02/07,5.0,AR,5027.0,Columbia County,3468.0,20069.0,83304.0,19508.0,25463.0,6680.0,13133.0,9035.0,5091.0,2810.0,1363.0,191.0,30.0
121424,County,2020/02/08,5.0,AR,5027.0,Columbia County,4000.0,19537.0,79814.0,20824.0,23045.0,5628.0,12426.0,8917.0,4883.0,2575.0,1343.0,149.0,24.0
127221,County,2020/02/09,5.0,AR,5027.0,Columbia County,4388.0,19149.0,65918.0,13677.0,21592.0,5975.0,10692.0,7002.0,3831.0,1642.0,1149.0,318.0,40.0
128433,County,2020/02/10,5.0,AR,5027.0,Columbia County,3730.0,19807.0,82618.0,20025.0,26482.0,6856.0,13056.0,8314.0,4598.0,1944.0,1011.0,299.0,33.0
131079,County,2020/02/11,5.0,AR,5027.0,Columbia County,3500.0,20037.0,84187.0,22550.0,25584.0,7054.0,12810.0,7514.0,5503.0,1765.0,967.0,362.0,78.0
135707,County,2020/02/12,5.0,AR,5027.0,Columbia County,3477.0,20060.0,81923.0,20354.0,25424.0,7979.0,12465.0,7476.0,4943.0,1586.0,1158.0,474.0,64.0
137406,County,2020/02/13,5.0,AR,5027.0,Columbia County,3231.0,20306.0,89353.0,24262.0,24739.0,8252.0,13462.0,8647.0,5789.0,2135.0,1379.0,611.0,77.0
142136,County,2020/02/14,5.0,AR,5027.0,Columbia County,3360.0,20177.0,98012.0,24325.0,28459.0,9961.0,14772.0,9912.0,6330.0,2636.0,1175.0,331.0,111.0
145392,County,2020/02/15,5.0,AR,5027.0,Columbia County,3957.0,19580.0,86260.0,22141.0,24097.0,8803.0,12130.0,9541.0,5114.0,2744.0,1185.0,434.0,71.0
146999,County,2020/02/16,5.0,AR,5027.0,Columbia County,4018.0,19519.0,77581.0,19213.0,22301.0,8146.0,11533.0,8805.0,3931.0,1741.0,1349.0,449.0,113.0
150172,County,2020/02/17,5.0,AR,5027.0,Columbia County,4585.0,18952.0,73948.0,19545.0,21389.0,7548.0,9596.0,7236.0,5168.0,1926.0,1122.0,344.0,74.0
154903,County,2020/02/18,5.0,AR,5027.0,Columbia County,3654.0,19883.0,86112.0,21851.0,26684.0,7789.0,11935.0,7721.0,6436.0,2064.0,1234.0,343.0,55.0
156582,County,2020/02/19,5.0,AR,5027.0,Columbia County,3513.0,20024.0,96048.0,25708.0,31102.0,9769.0,12396.0,9100.0,4726.0,1876.0,1053.0,234.0,84.0
161246,County,2020/02/20,5.0,AR,5027.0,Columbia County,3673.0,19864.0,91963.0,24718.0,29964.0,7838.0,13257.0,7747.0,5156.0,1615.0,1303.0,302.0,63.0
162969,County,2020/02/21,5.0,AR,5027.0,Columbia County,3300.0,20237.0,99041.0,26858.0,30505.0,9236.0,13622.0,9572.0,5107.0,2636.0,1152.0,306.0,47.0
167632,County,2020/02/22,5.0,AR,5027.0,Columbia County,3606.0,19931.0,85883.0,21495.0,25526.0,8746.0,11183.0,8304.0,6232.0,2857.0,1219.0,277.0,44.0
169342,County,2020/02/23,5.0,AR,5027.0,Columbia County,4143.0,19394.0,74309.0,17804.0,23370.0,5888.0,12473.0,7734.0,3625.0,1926.0,1234.0,203.0,52.0
174124,County,2020/02/24,5.0,AR,5027.0,Columbia County,4077.0,19460.0,90985.0,23860.0,27673.0,7422.0,13070.0,8920.0,6479.0,2058.0,1229.0,188.0,86.0
175743,County,2020/02/25,5.0,AR,5027.0,Columbia County,3559.0,19978.0,94192.0,26800.0,27741.0,8082.0,14530.0,8468.0,5943.0,1529.0,846.0,212.0,41.0
178988,County,2020/02/26,5.0,AR,5027.0,Columbia County,3442.0,20095.0,84257.0,16104.0,30986.0,8432.0,9724.0,7582.0,6392.0,3674.0,1084.0,257.0,22.0
183155,County,2020/02/27,5.0,AR,5027.0,Columbia County,3756.0,19781.0,94251.0,25710.0,29478.0,6329.0,13929.0,10437.0,4747.0,2293.0,1146.0,152.0,30.0
186992,County,2020/02/28,5.0,AR,5027.0,Columbia County,3296.0,20241.0,99767.0,24890.0,31607.0,7509.0,14823.0,9793.0,6192.0,3051.0,1702.0,179.0,21.0
188521,County,2020/02/29,5.0,AR,5027.0,Columbia County,3338.0,20199.0,87382.0,20155.0,23518.0,7048.0,13749.0,10274.0,7361.0,4214.0,887.0,153.0,23.0
191712,County,2020/03/01,5.0,AR,5027.0,Columbia County,3660.0,19877.0,70002.0,14385.0,22994.0,5890.0,10877.0,8470.0,4200.0,1836.0,1128.0,201.0,21.0
194886,County,2020/03/02,5.0,AR,5027.0,Columbia County,3724.0,19813.0,87413.0,23569.0,29128.0,6641.0,12695.0,7157.0,5220.0,1732.0,973.0,274.0,24.0
198089,County,2020/03/03,5.0,AR,5027.0,Columbia County,3362.0,20175.0,99391.0,26815.0,31430.0,8905.0,14115.0,9647.0,5773.0,1607.0,786.0,291.0,22.0
202827,County,2020/03/04,5.0,AR,5027.0,Columbia County,3399.0,20138.0,84949.0,20981.0,28588.0,6180.0,11826.0,9413.0,5066.0,1744.0,891.0,228.0,32.0
206079,County,2020/03/05,5.0,AR,5027.0,Columbia County,3251.0,20286.0,100037.0,26738.0,32897.0,8685.0,12371.0,9588.0,5076.0,2691.0,1767.0,211.0,13.0
209242,County,2020/03/06,5.0,AR,5027.0,Columbia County,3053.0,20484.0,103351.0,22768.0,34811.0,8116.0,14165.0,9831.0,7901.0,3141.0,2377.0,209.0,32.0
210860,County,2020/03/07,5.0,AR,5027.0,Columbia County,3346.0,20191.0,88587.0,22255.0,24720.0,7600.0,12605.0,8309.0,6818.0,3565.0,2392.0,316.0,7.0
215635,County,2020/03/08,5.0,AR,5027.0,Columbia County,3910.0,19627.0,79285.0,19110.0,27083.0,6608.0,10024.0,8427.0,3958.0,1509.0,2322.0,221.0,23.0
218834,County,2020/03/09,5.0,AR,5027.0,Columbia County,3523.0,20014.0,86333.0,22751.0,24897.0,6746.0,12776.0,8452.0,6730.0,2150.0,1682.0,134.0,15.0
220461,County,2020/03/10,5.0,AR,5027.0,Columbia County,3560.0,19977.0,92629.0,26472.0,27451.0,8372.0,10628.0,9710.0,6028.0,2196.0,1572.0,184.0,16.0
225256,County,2020/03/11,5.0,AR,5027.0,Columbia County,3158.0,20379.0,87420.0,20959.0,27112.0,7347.0,11437.0,8515.0,6943.0,2481.0,1892.0,685.0,49.0
226835,County,2020/03/12,5.0,AR,5027.0,Columbia County,3325.0,20212.0,87542.0,22340.0,21530.0,6516.0,15023.0,12684.0,5833.0,1384.0,1695.0,470.0,67.0
231617,County,2020/03/13,5.0,AR,5027.0,Columbia County,3180.0,20357.0,74140.0,20421.0,21074.0,6012.0,10051.0,6933.0,4568.0,2093.0,2385.0,553.0,50.0
234672,County,2020/03/14,5.0,AR,5027.0,Columbia County,3747.0,19790.0,79235.0,21309.0,22006.0,6204.0,10563.0,9516.0,5401.0,2095.0,1883.0,209.0,49.0
236431,County,2020/03/15,5.0,AR,5027.0,Columbia County,4573.0,18964.0,67452.0,13523.0,23094.0,6751.0,12043.0,5553.0,3972.0,771.0,1514.0,181.0,50.0
241191,County,2020/03/16,5.0,AR,5027.0,Columbia County,4410.0,19127.0,81383.0,18643.0,24039.0,7392.0,12792.0,9389.0,4814.0,2526.0,1485.0,296.0,7.0
242807,County,2020/03/17,5.0,AR,5027.0,Columbia County,4712.0,18825.0,74041.0,17713.0,22020.0,5303.0,11455.0,8462.0,5357.0,1585.0,1880.0,252.0,14.0
246012,County,2020/03/18,5.0,AR,5027.0,Columbia County,4807.0,18730.0,80313.0,21048.0,23680.0,8225.0,11598.0,7833.0,4856.0,1450.0,1373.0,214.0,36.0
250794,County,2020/03/19,5.0,AR,5027.0,Columbia County,4500.0,19037.0,80796.0,22243.0,23918.0,6447.0,11406.0,7515.0,6406.0,1382.0,1209.0,258.0,12.0
253968,County,2020/03/20,5.0,AR,5027.0,Columbia County,4860.0,18677.0,73307.0,18840.0,21313.0,5707.0,10327.0,8370.0,5280.0,1652.0,1438.0,360.0,20.0
257111,County,2020/03/21,5.0,AR,5027.0,Columbia County,5206.0,18331.0,64299.0,15472.0,21092.0,6492.0,10144.0,5830.0,3989.0,645.0,380.0,229.0,26.0
260348,County,2020/03/22,5.0,AR,5027.0,Columbia County,5197.0,18340.0,54927.0,16081.0,16256.0,7441.0,8868.0,3201.0,1511.0,558.0,764.0,222.0,25.0
261986,County,2020/03/23,5.0,AR,5027.0,Columbia County,4407.0,19130.0,68722.0,16854.0,19919.0,5447.0,11128.0,7159.0,5271.0,1786.0,957.0,182.0,19.0
266739,County,2020/03/24,5.0,AR,5027.0,Columbia County,4460.0,19077.0,64632.0,13500.0,19876.0,6047.0,10159.0,6970.0,4737.0,2311.0,815.0,211.0,6.0
269939,County,2020/03/25,5.0,AR,5027.0,Columbia County,4628.0,18909.0,66049.0,14096.0,20146.0,5226.0,10854.0,7630.0,4639.0,1941.0,1338.0,165.0,14.0
273111,County,2020/03/26,5.0,AR,5027.0,Columbia County,4826.0,18711.0,66250.0,15573.0,20110.0,5129.0,10479.0,7616.0,4449.0,1703.0,940.0,241.0,10.0
274751,County,2020/03/27,5.0,AR,5027.0,Columbia County,4456.0,19081.0,70850.0,17600.0,20595.0,6257.0,10734.0,8234.0,4440.0,1463.0,1232.0,273.0,22.0
279513,County,2020/03/28,5.0,AR,5027.0,Columbia County,5280.0,18257.0,57994.0,15384.0,19718.0,6141.0,7771.0,5191.0,1819.0,557.0,1252.0,139.0,22.0
281148,County,2020/03/29,5.0,AR,5027.0,Columbia County,5247.0,18290.0,54688.0,14379.0,16089.0,4571.0,10252.0,4660.0,2698.0,940.0,961.0,138.0,0.0
285891,County,2020/03/30,5.0,AR,5027.0,Columbia County,4501.0,19036.0,60491.0,13987.0,18264.0,6524.0,9769.0,6101.0,3562.0,901.0,1181.0,187.0,15.0
287488,County,2020/03/31,5.0,AR,5027.0,Columbia County,4632.0,18905.0,63963.0,16672.0,18530.0,5559.0,9018.0,7089.0,4013.0,1657.0,1209.0,196.0,20.0
292295,County,2020/04/01,5.0,AR,5027.0,Columbia County,4656.0,18881.0,65355.0,17429.0,17840.0,5339.0,10562.0,7050.0,3895.0,1889.0,1109.0,225.0,17.0
293924,County,2020/04/02,5.0,AR,5027.0,Columbia County,4548.0,18989.0,65368.0,17231.0,18287.0,6731.0,8715.0,7550.0,4333.0,1216.0,1069.0,227.0,9.0
297118,County,2020/04/03,5.0,AR,5027.0,Columbia County,4682.0,18855.0,68992.0,18302.0,19655.0,6363.0,9379.0,8196.0,4627.0,1632.0,642.0,183.0,13.0
301863,County,2020/04/04,5.0,AR,5027.0,Columbia County,5085.0,18452.0,57634.0,17100.0,17450.0,5124.0,7851.0,5038.0,2973.0,1026.0,810.0,228.0,34.0
303491,County,2020/04/05,5.0,AR,5027.0,Columbia County,5251.0,18286.0,58744.0,15065.0,16587.0,5672.0,9621.0,6914.0,3130.0,723.0,853.0,149.0,30.0
306701,County,2020/04/06,5.0,AR,5027.0,Columbia County,4827.0,18710.0,68693.0,17951.0,20072.0,7682.0,8041.0,7049.0,4061.0,2306.0,1403.0,120.0,8.0
309894,County,2020/04/07,5.0,AR,5027.0,Columbia County,4817.0,18720.0,67933.0,16905.0,17038.0,6894.0,11479.0,8607.0,3945.0,2105.0,806.0,143.0,11.0
313089,County,2020/04/08,5.0,AR,5027.0,Columbia County,4831.0,18706.0,69804.0,20399.0,18378.0,6263.0,8975.0,8850.0,4881.0,1263.0,638.0,142.0,15.0
316256,County,2020/04/09,5.0,AR,5027.0,Columbia County,4633.0,18904.0,73072.0,23809.0,16854.0,5900.0,10137.0,9177.0,4949.0,1389.0,763.0,90.0,4.0
319483,County,2020/04/10,5.0,AR,5027.0,Columbia County,4375.0,19162.0,76127.0,19473.0,21109.0,7746.0,13187.0,8115.0,3813.0,1684.0,861.0,135.0,4.0
324278,County,2020/04/11,5.0,AR,5027.0,Columbia County,4709.0,18828.0,65237.0,15042.0,22196.0,5531.0,9845.0,7787.0,3326.0,793.0,572.0,138.0,7.0
325862,County,2020/04/12,5.0,AR,5027.0,Columbia County,5618.0,17919.0,47811.0,12941.0,13768.0,4799.0,6504.0,6206.0,2699.0,374.0,315.0,198.0,7.0
329079,County,2020/04/13,5.0,AR,5027.0,Columbia County,4741.0,18796.0,74442.0,19371.0,19659.0,7011.0,11183.0,9263.0,6018.0,1168.0,656.0,109.0,4.0
333751,County,2020/04/14,5.0,AR,5027.0,Columbia County,4588.0,18949.0,76447.0,15902.0,20066.0,7649.0,15626.0,9410.0,5651.0,1260.0,743.0,118.0,22.0
335428,County,2020/04/15,5.0,AR,5027.0,Columbia County,4425.0,19112.0,74477.0,19400.0,18835.0,8769.0,14259.0,8077.0,3925.0,604.0,408.0,158.0,42.0
338630,County,2020/04/16,5.0,AR,5027.0,Columbia County,4959.0,18578.0,67448.0,13963.0,16887.0,7409.0,11798.0,9448.0,5463.0,1177.0,1240.0,55.0,8.0
341882,County,2020/04/17,5.0,AR,5027.0,Columbia County,4190.0,19347.0,73262.0,16212.0,20089.0,5571.0,16070.0,7541.0,4793.0,2103.0,746.0,124.0,13.0
346557,County,2020/04/18,5.0,AR,5027.0,Columbia County,4587.0,18950.0,63869.0,13922.0,18517.0,5450.0,11134.0,8591.0,3914.0,1726.0,388.0,193.0,34.0
348208,County,2020/04/19,5.0,AR,5027.0,Columbia County,4656.0,18881.0,55338.0,16516.0,16395.0,4200.0,8044.0,7588.0,1279.0,236.0,896.0,177.0,7.0
352988,County,2020/04/20,5.0,AR,5027.0,Columbia County,4542.0,18995.0,82504.0,21011.0,23842.0,6871.0,11339.0,10992.0,6073.0,1429.0,902.0,34.0,11.0
356174,County,2020/04/21,5.0,AR,5027.0,Columbia County,4404.0,19133.0,70311.0,19784.0,21404.0,5023.0,10082.0,6317.0,4971.0,1786.0,752.0,178.0,14.0
357804,County,2020/04/22,5.0,AR,5027.0,Columbia County,4482.0,19055.0,67071.0,15990.0,21042.0,5025.0,11239.0,6670.0,4886.0,1287.0,838.0,87.0,7.0
362535,County,2020/04/23,5.0,AR,5027.0,Columbia County,4388.0,19149.0,80760.0,22999.0,23573.0,6375.0,10854.0,9488.0,5247.0,1305.0,769.0,146.0,4.0
365797,County,2020/04/24,5.0,AR,5027.0,Columbia County,4381.0,19156.0,76967.0,18825.0,24337.0,6404.0,12064.0,7728.0,5038.0,1405.0,1041.0,115.0,10.0
367329,County,2020/04/25,5.0,AR,5027.0,Columbia County,4650.0,18887.0,71205.0,16556.0,20023.0,6531.0,12602.0,8256.0,4548.0,1681.0,944.0,52.0,12.0
372098,County,2020/04/26,5.0,AR,5027.0,Columbia County,4710.0,18827.0,70122.0,17026.0,19497.0,8547.0,10308.0,8404.0,3844.0,1684.0,743.0,60.0,9.0
375377,County,2020/04/27,5.0,AR,5027.0,Columbia County,4216.0,19321.0,78527.0,21466.0,24976.0,6948.0,12660.0,5816.0,3825.0,1712.0,1015.0,83.0,26.0
378501,County,2020/04/28,5.0,AR,5027.0,Columbia County,4227.0,19310.0,67116.0,16242.0,18008.0,6791.0,10406.0,7549.0,4498.0,2014.0,1508.0,84.0,16.0
381752,County,2020/04/29,5.0,AR,5027.0,Columbia County,4538.0,18999.0,83508.0,22850.0,23164.0,7597.0,12295.0,8818.0,5359.0,1999.0,1235.0,187.0,4.0
383323,County,2020/04/30,5.0,AR,5027.0,Columbia County,4146.0,19391.0,88300.0,21504.0,27036.0,6476.0,13851.0,10566.0,5602.0,2461.0,749.0,51.0,4.0
386548,County,2020/05/01,5.0,AR,5027.0,Columbia County,4205.0,19332.0,90234.0,22514.0,25820.0,8764.0,16208.0,10286.0,4625.0,1246.0,682.0,82.0,7.0
389731,County,2020/05/02,5.0,AR,5027.0,Columbia County,4227.0,19310.0,83383.0,23535.0,21628.0,8162.0,15620.0,9325.0,3453.0,907.0,588.0,157.0,8.0
394505,County,2020/05/03,5.0,AR,5027.0,Columbia County,4812.0,18725.0,71359.0,17261.0,19813.0,5410.0,13684.0,9574.0,4440.0,435.0,586.0,146.0,10.0
397698,County,2020/05/04,5.0,AR,5027.0,Columbia County,4527.0,19010.0,86698.0,24718.0,26304.0,7113.0,12690.0,7891.0,5651.0,1827.0,399.0,101.0,4.0
400873,County,2020/05/05,5.0,AR,5027.0,Columbia County,4349.0,19188.0,78667.0,19969.0,22960.0,8358.0,10576.0,9162.0,5357.0,1219.0,919.0,132.0,15.0
404079,County,2020/05/06,5.0,AR,5027.0,Columbia County,4097.0,19440.0,76337.0,17847.0,23283.0,7607.0,13172.0,6978.0,4457.0,1943.0,950.0,82.0,18.0
405707,County,2020/05/07,5.0,AR,5027.0,Columbia County,4080.0,19457.0,76544.0,18968.0,21770.0,6388.0,12093.0,9120.0,5160.0,2186.0,727.0,118.0,14.0
410533,County,2020/05/08,5.0,AR,5027.0,Columbia County,4330.0,19207.0,75226.0,17341.0,22905.0,5697.0,11270.0,9363.0,5573.0,1894.0,1081.0,91.0,11.0
413585,County,2020/05/09,5.0,AR,5027.0,Columbia County,4067.0,19470.0,84417.0,19614.0,27551.0,5326.0,14837.0,9083.0,5158.0,2093.0,661.0,86.0,8.0
415295,County,2020/05/10,5.0,AR,5027.0,Columbia County,4633.0,18904.0,68601.0,17467.0,17886.0,6119.0,14206.0,6990.0,3835.0,1353.0,633.0,112.0,0.0
420092,County,2020/05/11,5.0,AR,5027.0,Columbia County,3575.0,19962.0,91046.0,25069.0,26599.0,8005.0,14523.0,9039.0,5366.0,1654.0,680.0,90.0,21.0
421672,County,2020/05/12,5.0,AR,5027.0,Columbia County,3350.0,20187.0,94743.0,25011.0,28276.0,6704.0,15764.0,11150.0,5494.0,1679.0,592.0,66.0,7.0
426345,County,2020/05/13,5.0,AR,5027.0,Columbia County,3711.0,19826.0,89045.0,24977.0,27153.0,6699.0,13686.0,8865.0,5043.0,1835.0,721.0,61.0,5.0
428072,County,2020/05/14,5.0,AR,5027.0,Columbia County,3406.0,20131.0,92542.0,27231.0,25701.0,7557.0,14409.0,8619.0,6548.0,1664.0,701.0,99.0,13.0
431266,County,2020/05/15,5.0,AR,5027.0,Columbia County,3307.0,20230.0,88312.0,25591.0,26820.0,6264.0,12742.0,9190.0,4879.0,1485.0,1157.0,166.0,18.0
434440,County,2020/05/16,5.0,AR,5027.0,Columbia County,3926.0,19611.0,83209.0,26491.0,23021.0,6842.0,12136.0,8201.0,4093.0,1429.0,814.0,165.0,17.0
437642,County,2020/05/17,5.0,AR,5027.0,Columbia County,4366.0,19171.0,70447.0,17751.0,23330.0,5763.0,11915.0,7286.0,2293.0,927.0,1015.0,156.0,11.0
440888,County,2020/05/18,5.0,AR,5027.0,Columbia County,3365.0,20172.0,94724.0,23913.0,28010.0,7004.0,15886.0,11241.0,6324.0,1363.0,878.0,105.0,0.0
444042,County,2020/05/19,5.0,AR,5027.0,Columbia County,3384.0,20153.0,83251.0,22550.0,23752.0,7078.0,12682.0,8419.0,5696.0,2116.0,792.0,161.0,5.0
448803,County,2020/05/20,5.0,AR,5027.0,Columbia County,3582.0,19955.0,93641.0,27179.0,24013.0,9185.0,14139.0,10244.0,4337.0,2890.0,1575.0,79.0,0.0
451643,County,2020/05/21,5.0,AR,5027.0,Columbia County,2997.0,20540.0,90895.0,23294.0,25990.0,6304.0,16618.0,10707.0,4992.0,1580.0,1215.0,167.0,28.0
453616,County,2020/05/22,5.0,AR,5027.0,Columbia County,3119.0,20418.0,78117.0,16693.0,22743.0,7762.0,13426.0,8884.0,5621.0,1888.0,1001.0,91.0,8.0
456812,County,2020/05/23,5.0,AR,5027.0,Columbia County,3772.0,19765.0,73524.0,16323.0,21977.0,7625.0,12239.0,9104.0,4425.0,1145.0,620.0,61.0,5.0
461556,County,2020/05/24,5.0,AR,5027.0,Columbia County,3956.0,19581.0,72674.0,17404.0,22863.0,7504.0,11280.0,8044.0,3696.0,1072.0,729.0,77.0,5.0
463182,County,2020/05/25,5.0,AR,5027.0,Columbia County,3926.0,19611.0,71338.0,18501.0,20069.0,6545.0,11592.0,7651.0,4014.0,1785.0,1093.0,76.0,12.0
466336,County,2020/05/26,5.0,AR,5027.0,Columbia County,3547.0,19990.0,88001.0,20352.0,27097.0,6927.0,14498.0,10865.0,5588.0,1560.0,929.0,178.0,7.0
469592,County,2020/05/27,5.0,AR,5027.0,Columbia County,3402.0,20135.0,92240.0,25485.0,27930.0,6576.0,14959.0,9096.0,5252.0,1754.0,1069.0,112.0,7.0
472789,County,2020/05/28,5.0,AR,5027.0,Columbia County,3760.0,19777.0,84656.0,26025.0,24365.0,4469.0,13694.0,8165.0,5031.0,1921.0,859.0,125.0,2.0
475982,County,2020/05/29,5.0,AR,5027.0,Columbia County,3927.0,19610.0,95152.0,26276.0,29829.0,6174.0,15571.0,8366.0,5240.0,2303.0,1317.0,73.0,3.0
480694,County,2020/05/30,5.0,AR,5027.0,Columbia County,3731.0,19806.0,75273.0,17667.0,20031.0,3967.0,15432.0,9520.0,5339.0,2422.0,738.0,154.0,3.0
482296,County,2020/05/31,5.0,AR,5027.0,Columbia County,4089.0,19448.0,71613.0,17568.0,20453.0,5580.0,12803.0,9040.0,3945.0,1276.0,782.0,108.0,58.0
487189,County,2020/06/01,5.0,AR,5027.0,Columbia County,3589.0,19948.0,87802.0,24336.0,25612.0,6481.0,14276.0,8603.0,5642.0,1733.0,884.0,213.0,22.0
490296,County,2020/06/02,5.0,AR,5027.0,Columbia County,3973.0,19564.0,79707.0,19211.0,21882.0,4911.0,13352.0,9905.0,7241.0,1902.0,1151.0,146.0,6.0
493518,County,2020/06/03,5.0,AR,5027.0,Columbia County,3481.0,20056.0,96545.0,27864.0,26273.0,7349.0,16721.0,9342.0,5862.0,2211.0,760.0,152.0,11.0
496699,County,2020/06/04,5.0,AR,5027.0,Columbia County,3242.0,20295.0,89869.0,23455.0,25316.0,7210.0,14663.0,9771.0,6106.0,2238.0,998.0,107.0,5.0
498340,County,2020/06/05,5.0,AR,5027.0,Columbia County,3546.0,19991.0,88854.0,20333.0,27433.0,6989.0,14062.0,9808.0,5899.0,2766.0,1406.0,152.0,6.0
503066,County,2020/06/06,5.0,AR,5027.0,Columbia County,3879.0,19658.0,77266.0,19280.0,20357.0,5751.0,12194.0,9869.0,6098.0,2531.0,992.0,187.0,7.0
504728,County,2020/06/07,5.0,AR,5027.0,Columbia County,3893.0,19644.0,67742.0,16372.0,19720.0,6127.0,11339.0,7780.0,3710.0,1499.0,960.0,213.0,22.0
507901,County,2020/06/08,5.0,AR,5027.0,Columbia County,3341.0,20196.0,81377.0,22334.0,21541.0,6189.0,13607.0,9440.0,4925.0,2070.0,1073.0,179.0,19.0
511103,County,2020/06/09,5.0,AR,5027.0,Columbia County,3651.0,19886.0,83000.0,21384.0,21273.0,6301.0,15928.0,9743.0,5717.0,1462.0,1050.0,137.0,5.0
515885,County,2020/06/10,5.0,AR,5027.0,Columbia County,3825.0,19712.0,81537.0,24122.0,24152.0,5491.0,11514.0,8568.0,5358.0,1708.0,493.0,128.0,3.0
519043,County,2020/06/11,5.0,AR,5027.0,Columbia County,3267.0,20270.0,97597.0,27937.0,25924.0,7472.0,16098.0,10668.0,6492.0,1993.0,857.0,151.0,5.0
520716,County,2020/06/12,5.0,AR,5027.0,Columbia County,2975.0,20562.0,94731.0,23998.0,27019.0,7387.0,16188.0,10672.0,4946.0,3156.0,1221.0,136.0,8.0
525452,County,2020/06/13,5.0,AR,5027.0,Columbia County,3530.0,20007.0,82800.0,21212.0,22689.0,7271.0,13242.0,9894.0,4800.0,2178.0,1405.0,104.0,5.0
528655,County,2020/06/14,5.0,AR,5027.0,Columbia County,3972.0,19565.0,71505.0,17682.0,20140.0,5471.0,11570.0,9136.0,4507.0,1718.0,1096.0,185.0,0.0
531846,County,2020/06/15,5.0,AR,5027.0,Columbia County,3220.0,20317.0,89301.0,27784.0,23510.0,7042.0,14114.0,8465.0,4926.0,2019.0,1285.0,151.0,5.0
533474,County,2020/06/16,5.0,AR,5027.0,Columbia County,3478.0,20059.0,90288.0,28314.0,22267.0,5918.0,14932.0,9023.0,6629.0,1830.0,1217.0,144.0,14.0
538184,County,2020/06/17,5.0,AR,5027.0,Columbia County,3634.0,19903.0,91551.0,28241.0,26313.0,6666.0,12582.0,7822.0,5979.0,2496.0,1319.0,119.0,14.0
541380,County,2020/06/18,5.0,AR,5027.0,Columbia County,3281.0,20256.0,91066.0,23952.0,25608.0,7175.0,14729.0,10704.0,5568.0,1985.0,1205.0,121.0,19.0
544581,County,2020/06/19,5.0,AR,5027.0,Columbia County,3462.0,20075.0,80257.0,21380.0,22210.0,5690.0,11625.0,9630.0,5943.0,2642.0,1012.0,117.0,8.0
547816,County,2020/06/20,5.0,AR,5027.0,Columbia County,3725.0,19812.0,78362.0,23761.0,22393.0,5963.0,9177.0,8498.0,5420.0,2093.0,925.0,117.0,15.0
551003,County,2020/06/21,5.0,AR,5027.0,Columbia County,4245.0,19292.0,60346.0,14083.0,16527.0,6067.0,8644.0,9113.0,3252.0,1618.0,908.0,121.0,13.0
554196,County,2020/06/22,5.0,AR,5027.0,Columbia County,3818.0,19719.0,75728.0,20145.0,19805.0,6437.0,12220.0,8436.0,4630.0,2707.0,1140.0,184.0,24.0
555824,County,2020/06/23,5.0,AR,5027.0,Columbia County,3594.0,19943.0,76868.0,20528.0,21727.0,7022.0,10696.0,8121.0,5340.0,2247.0,981.0,194.0,12.0
560592,County,2020/06/24,5.0,AR,5027.0,Columbia County,3627.0,19910.0,76723.0,24364.0,17706.0,5388.0,12551.0,7908.0,5284.0,2308.0,1047.0,149.0,18.0
562220,County,2020/06/25,5.0,AR,5027.0,Columbia County,4056.0,19481.0,79459.0,20136.0,22321.0,5635.0,10720.0,9785.0,7063.0,2522.0,1002.0,267.0,8.0
565426,County,2020/06/26,5.0,AR,5027.0,Columbia County,3740.0,19797.0,76321.0,18880.0,20679.0,7461.0,11261.0,9101.0,5827.0,1680.0,1186.0,238.0,8.0
568595,County,2020/06/27,5.0,AR,5027.0,Columbia County,3721.0,19816.0,79729.0,21399.0,23614.0,6542.0,11456.0,9097.0,4205.0,2380.0,900.0,127.0,9.0
573359,County,2020/06/28,5.0,AR,5027.0,Columbia County,3860.0,19677.0,68156.0,15824.0,19594.0,5819.0,10459.0,8669.0,3847.0,2687.0,1090.0,158.0,9.0
576531,County,2020/06/29,5.0,AR,5027.0,Columbia County,4187.0,19350.0,77335.0,22993.0,21899.0,5516.0,10764.0,8159.0,5073.0,1835.0,937.0,146.0,13.0
578174,County,2020/06/30,5.0,AR,5027.0,Columbia County,3986.0,19551.0,77949.0,20525.0,24730.0,5199.0,12934.0,7569.0,4554.0,1529.0,716.0,180.0,13.0
581380,County,2020/07/01,5.0,AR,5027.0,Columbia County,3686.0,19851.0,82584.0,23827.0,22818.0,6959.0,12420.0,7579.0,5911.0,1963.0,870.0,222.0,15.0
584574,County,2020/07/02,5.0,AR,5027.0,Columbia County,3936.0,19601.0,84338.0,21372.0,23692.0,5981.0,11378.0,10386.0,7497.0,2677.0,1064.0,283.0,8.0
589366,County,2020/07/03,5.0,AR,5027.0,Columbia County,4078.0,19459.0,75892.0,18774.0,20562.0,7419.0,11198.0,9050.0,5794.0,1671.0,1179.0,237.0,8.0
590961,County,2020/07/04,5.0,AR,5027.0,Columbia County,4303.0,19234.0,64926.0,16061.0,17592.0,6347.0,9580.0,7742.0,4957.0,1429.0,1009.0,202.0,7.0
594148,County,2020/07/05,5.0,AR,5027.0,Columbia County,3819.0,19718.0,68155.0,19161.0,18341.0,6053.0,9493.0,7394.0,4275.0,2304.0,873.0,237.0,24.0
598872,County,2020/07/06,5.0,AR,5027.0,Columbia County,3775.0,19762.0,72479.0,21096.0,20027.0,5890.0,10439.0,7473.0,4596.0,2013.0,686.0,242.0,17.0
602492,County,2020/07/07,5.0,AR,5027.0,Columbia County,4078.0,19459.0,75149.0,19509.0,20583.0,6390.0,11020.0,8756.0,5813.0,2135.0,704.0,234.0,5.0
605208,County,2020/07/08,5.0,AR,5027.0,Columbia County,3886.0,19651.0,75874.0,22394.0,21710.0,4587.0,10092.0,7993.0,5676.0,1716.0,1446.0,249.0,11.0
606935,County,2020/07/09,5.0,AR,5027.0,Columbia County,3806.0,19731.0,78375.0,20431.0,22695.0,6612.0,13000.0,8305.0,4084.0,1969.0,1133.0,135.0,11.0
611717,County,2020/07/10,5.0,AR,5027.0,Columbia County,3545.0,19992.0,79004.0,19702.0,23396.0,7603.0,11580.0,8710.0,4325.0,1972.0,1468.0,240.0,8.0
614933,County,2020/07/11,5.0,AR,5027.0,Columbia County,4238.0,19299.0,69112.0,17613.0,20788.0,4600.0,11138.0,7538.0,4716.0,1439.0,1066.0,194.0,20.0
618068,County,2020/07/12,5.0,AR,5027.0,Columbia County,4062.0,19475.0,64264.0,15072.0,19249.0,5894.0,9386.0,5830.0,5251.0,1991.0,1332.0,252.0,7.0
619706,County,2020/07/13,5.0,AR,5027.0,Columbia County,3636.0,19901.0,74665.0,21366.0,18622.0,5776.0,10473.0,8498.0,6410.0,2439.0,781.0,283.0,17.0
622907,County,2020/07/14,5.0,AR,5027.0,Columbia County,3795.0,19742.0,73590.0,16645.0,21656.0,5965.0,12031.0,7683.0,6545.0,1989.0,902.0,162.0,12.0
626029,County,2020/07/15,5.0,AR,5027.0,Columbia County,3945.0,19592.0,81049.0,21489.0,21921.0,6501.0,13521.0,8802.0,5399.0,2169.0,1070.0,158.0,19.0
630909,County,2020/07/16,5.0,AR,5027.0,Columbia County,3692.0,19845.0,83843.0,21426.0,24493.0,6084.0,13687.0,9131.0,5389.0,2029.0,1446.0,146.0,12.0
632470,County,2020/07/17,5.0,AR,5027.0,Columbia County,3998.0,19539.0,83307.0,22159.0,23562.0,6382.0,12035.0,10643.0,5811.0,1492.0,1117.0,103.0,3.0
637257,County,2020/07/18,5.0,AR,5027.0,Columbia County,3857.0,19680.0,77747.0,19708.0,22390.0,6652.0,11155.0,9312.0,5288.0,2213.0,904.0,113.0,12.0
640410,County,2020/07/19,5.0,AR,5027.0,Columbia County,4479.0,19058.0,69038.0,19690.0,18566.0,6401.0,11468.0,6885.0,3806.0,998.0,1009.0,211.0,4.0
642071,County,2020/07/20,5.0,AR,5027.0,Columbia County,4347.0,19190.0,78188.0,21620.0,23208.0,5783.0,11457.0,7909.0,5217.0,1657.0,1246.0,88.0,3.0
645246,County,2020/07/21,5.0,AR,5027.0,Columbia County,4075.0,19462.0,80550.0,20806.0,20798.0,6201.0,14252.0,9877.0,5586.0,1623.0,1147.0,245.0,15.0
649976,County,2020/07/22,5.0,AR,5027.0,Columbia County,3762.0,19775.0,80717.0,21767.0,20326.0,6186.0,14649.0,9829.0,4332.0,2137.0,1240.0,240.0,11.0
653125,County,2020/07/23,5.0,AR,5027.0,Columbia County,3932.0,19605.0,78258.0,21119.0,23002.0,4477.0,11845.0,8702.0,5672.0,2231.0,1044.0,148.0,18.0
656237,County,2020/07/24,5.0,AR,5027.0,Columbia County,3773.0,19764.0,77767.0,19712.0,21691.0,5797.0,11355.0,10078.0,5556.0,2488.0,931.0,129.0,30.0
659660,County,2020/07/25,5.0,AR,5027.0,Columbia County,3994.0,19543.0,74382.0,18435.0,20872.0,7812.0,9496.0,9748.0,4651.0,2111.0,1067.0,168.0,22.0
662738,County,2020/07/26,5.0,AR,5027.0,Columbia County,4281.0,19256.0,70476.0,15124.0,19199.0,7035.0,11951.0,9233.0,4624.0,1923.0,1169.0,209.0,9.0
664480,County,2020/07/27,5.0,AR,5027.0,Columbia County,3797.0,19740.0,82037.0,20516.0,24693.0,5823.0,11820.0,9843.0,5068.0,2572.0,1530.0,151.0,21.0
669265,County,2020/07/28,5.0,AR,5027.0,Columbia County,3751.0,19786.0,91116.0,24869.0,24138.0,7403.0,13396.0,10357.0,7069.0,2334.0,1364.0,160.0,26.0
670800,County,2020/07/29,5.0,AR,5027.0,Columbia County,3896.0,19641.0,82182.0,21441.0,22943.0,6512.0,14385.0,7973.0,4745.0,1994.0,1938.0,239.0,12.0
675560,County,2020/07/30,5.0,AR,5027.0,Columbia County,3723.0,19814.0,80247.0,19488.0,22551.0,6776.0,12995.0,9116.0,5633.0,1915.0,1495.0,253.0,25.0
677210,County,2020/07/31,5.0,AR,5027.0,Columbia County,4396.0,19141.0,74814.0,19274.0,21400.0,5287.0,11813.0,6213.0,7075.0,1618.0,1833.0,281.0,20.0
681909,County,2020/08/01,5.0,AR,5027.0,Columbia County,4426.0,19111.0,74057.0,16224.0,23991.0,7331.0,10412.0,7675.0,4576.0,2175.0,1476.0,158.0,39.0
685148,County,2020/08/02,5.0,AR,5027.0,Columbia County,4412.0,19125.0,65526.0,13535.0,21557.0,6154.0,9789.0,8169.0,3948.0,831.0,1351.0,189.0,3.0
688352,County,2020/08/03,5.0,AR,5027.0,Columbia County,4114.0,19423.0,81560.0,22779.0,24367.0,5706.0,9774.0,9321.0,6326.0,1839.0,1249.0,188.0,11.0
689981,County,2020/08/04,5.0,AR,5027.0,Columbia County,3753.0,19784.0,87071.0,23063.0,26376.0,6900.0,11722.0,10348.0,6144.0,2110.0,330.0,64.0,14.0
694739,County,2020/08/05,5.0,AR,5027.0,Columbia County,3768.0,19769.0,85577.0,24862.0,24677.0,6117.0,12868.0,8313.0,5248.0,2508.0,829.0,129.0,26.0
696348,County,2020/08/06,5.0,AR,5027.0,Columbia County,3624.0,19913.0,88736.0,23248.0,25832.0,6431.0,13773.0,8321.0,7511.0,2429.0,1023.0,157.0,11.0
701128,County,2020/08/07,5.0,AR,5027.0,Columbia County,3886.0,19651.0,83303.0,22903.0,22094.0,7566.0,12550.0,9016.0,4852.0,2429.0,1748.0,133.0,12.0
704322,County,2020/08/08,5.0,AR,5027.0,Columbia County,3923.0,19614.0,75331.0,19645.0,23634.0,5069.0,10194.0,8201.0,5460.0,2140.0,856.0,110.0,22.0
705950,County,2020/08/09,5.0,AR,5027.0,Columbia County,4440.0,19097.0,69593.0,15966.0,21021.0,6236.0,12041.0,7403.0,4368.0,1336.0,1082.0,134.0,6.0
709120,County,2020/08/10,5.0,AR,5027.0,Columbia County,4312.0,19225.0,70578.0,18435.0,20956.0,5239.0,10481.0,7405.0,4788.0,2065.0,1076.0,110.0,23.0
713950,County,2020/08/11,5.0,AR,5027.0,Columbia County,4551.0,18986.0,76657.0,18373.0,24588.0,5296.0,12624.0,8332.0,4917.0,1690.0,711.0,121.0,5.0
717000,County,2020/08/12,5.0,AR,5027.0,Columbia County,4046.0,19491.0,69861.0,20088.0,20319.0,5194.0,10314.0,6405.0,4023.0,2050.0,1163.0,265.0,40.0
718726,County,2020/08/13,5.0,AR,5027.0,Columbia County,3854.0,19683.0,76227.0,19895.0,22955.0,5513.0,11026.0,7446.0,6062.0,2078.0,925.0,278.0,49.0
723469,County,2020/08/14,5.0,AR,5027.0,Columbia County,3536.0,20001.0,81200.0,18548.0,22439.0,7418.0,12299.0,9342.0,6735.0,2775.0,1234.0,367.0,43.0
725100,County,2020/08/15,5.0,AR,5027.0,Columbia County,3980.0,19557.0,76982.0,19539.0,20784.0,7321.0,11558.0,7892.0,5423.0,2878.0,1211.0,328.0,48.0
729873,County,2020/08/16,5.0,AR,5027.0,Columbia County,4102.0,19435.0,81754.0,19874.0,24987.0,7155.0,12373.0,8839.0,4883.0,1674.0,1572.0,349.0,48.0
731502,County,2020/08/17,5.0,AR,5027.0,Columbia County,4181.0,19356.0,80201.0,18138.0,24342.0,6625.0,11772.0,9159.0,6343.0,2005.0,1374.0,400.0,43.0
736262,County,2020/08/18,5.0,AR,5027.0,Columbia County,4300.0,19237.0,76508.0,19791.0,20044.0,5777.0,12126.0,8753.0,6530.0,1550.0,1531.0,340.0,66.0
737873,County,2020/08/19,5.0,AR,5027.0,Columbia County,3894.0,19643.0,79165.0,20769.0,22651.0,5738.0,12897.0,8507.0,5320.0,1841.0,1062.0,326.0,54.0
742655,County,2020/08/20,5.0,AR,5027.0,Columbia County,3641.0,19896.0,78446.0,20531.0,20437.0,6407.0,10068.0,9470.0,7501.0,1998.0,1642.0,320.0,72.0
745861,County,2020/08/21,5.0,AR,5027.0,Columbia County,3471.0,20066.0,87037.0,19896.0,26107.0,7240.0,13994.0,8606.0,6820.0,2397.0,1696.0,233.0,48.0
747489,County,2020/08/22,5.0,AR,5027.0,Columbia County,3907.0,19630.0,76843.0,15809.0,22740.0,7593.0,10695.0,8416.0,6595.0,3348.0,1364.0,232.0,51.0
752234,County,2020/08/23,5.0,AR,5027.0,Columbia County,4145.0,19392.0,64546.0,14938.0,18610.0,5265.0,10152.0,7015.0,5067.0,1838.0,1313.0,291.0,57.0
753856,County,2020/08/24,5.0,AR,5027.0,Columbia County,4283.0,19254.0,71215.0,19175.0,22085.0,5740.0,8735.0,6272.0,5873.0,1741.0,1267.0,281.0,46.0
758616,County,2020/08/25,5.0,AR,5027.0,Columbia County,3940.0,19597.0,72599.0,18779.0,21555.0,5853.0,11276.0,7541.0,5094.0,1422.0,760.0,272.0,47.0
760249,County,2020/08/26,5.0,AR,5027.0,Columbia County,3757.0,19780.0,75841.0,18937.0,21319.0,6050.0,12456.0,6733.0,6121.0,2363.0,1641.0,191.0,30.0
764972,County,2020/08/27,5.0,AR,5027.0,Columbia County,4295.0,19242.0,60966.0,13010.0,19860.0,6008.0,9449.0,6821.0,3498.0,1185.0,878.0,242.0,15.0
766612,County,2020/08/28,5.0,AR,5027.0,Columbia County,3743.0,19794.0,76288.0,17924.0,23268.0,6030.0,11392.0,8405.0,6242.0,1514.0,1185.0,296.0,32.0
769815,County,2020/08/29,5.0,AR,5027.0,Columbia County,4239.0,19298.0,71690.0,15936.0,19700.0,6621.0,11988.0,8415.0,5972.0,1992.0,616.0,426.0,24.0
774608,County,2020/08/30,5.0,AR,5027.0,Columbia County,4284.0,19253.0,61777.0,13661.0,19072.0,5960.0,8727.0,6798.0,4565.0,1431.0,1130.0,401.0,32.0
776216,County,2020/08/31,5.0,AR,5027.0,Columbia County,4171.0,19366.0,68545.0,17587.0,20854.0,5239.0,9458.0,7116.0,4963.0,1687.0,1178.0,439.0,24.0
779359,County,2020/09/01,5.0,AR,5027.0,Columbia County,4257.0,19280.0,72614.0,17110.0,23935.0,5446.0,9817.0,7200.0,5554.0,1774.0,1531.0,227.0,20.0
782603,County,2020/09/02,5.0,AR,5027.0,Columbia County,4123.0,19414.0,71535.0,18309.0,20585.0,4785.0,11078.0,7960.0,5663.0,1422.0,1343.0,362.0,28.0
787292,County,2020/09/03,5.0,AR,5027.0,Columbia County,3730.0,19807.0,77754.0,20682.0,23647.0,5650.0,9699.0,9123.0,5962.0,1613.0,1027.0,302.0,49.0
790534,County,2020/09/04,5.0,AR,5027.0,Columbia County,4342.0,19195.0,68431.0,17222.0,19167.0,4695.0,9804.0,7393.0,5626.0,2379.0,1768.0,349.0,28.0
793624,County,2020/09/05,5.0,AR,5027.0,Columbia County,4106.0,19431.0,71518.0,15239.0,21118.0,5883.0,11675.0,7481.0,5721.0,2924.0,1116.0,342.0,19.0
796930,County,2020/09/06,5.0,AR,5027.0,Columbia County,4447.0,19090.0,59559.0,10891.0,18351.0,5895.0,9565.0,7366.0,3622.0,1699.0,1874.0,230.0,66.0
800142,County,2020/09/07,5.0,AR,5027.0,Columbia County,4685.0,18852.0,63480.0,13652.0,19212.0,5480.0,8747.0,6592.0,6082.0,1619.0,1657.0,368.0,71.0
801747,County,2020/09/08,5.0,AR,5027.0,Columbia County,4439.0,19098.0,77389.0,21207.0,23061.0,6338.0,8511.0,7813.0,7065.0,1780.0,1256.0,315.0,43.0
806528,County,2020/09/09,5.0,AR,5027.0,Columbia County,4128.0,19409.0,83068.0,22294.0,22954.0,6264.0,12729.0,8810.0,5854.0,2628.0,1201.0,316.0,18.0
808156,County,2020/09/10,5.0,AR,5027.0,Columbia County,4094.0,19443.0,67529.0,15590.0,18737.0,4703.0,12412.0,7399.0,5186.0,1412.0,1673.0,396.0,21.0
812917,County,2020/09/11,5.0,AR,5027.0,Columbia County,3811.0,19726.0,80629.0,18070.0,22849.0,6078.0,13388.0,8797.0,6547.0,2695.0,1945.0,224.0,36.0
814545,County,2020/09/12,5.0,AR,5027.0,Columbia County,4350.0,19187.0,69655.0,17575.0,20716.0,5084.0,8549.0,8305.0,5473.0,2325.0,1291.0,297.0,40.0
817719,County,2020/09/13,5.0,AR,5027.0,Columbia County,4793.0,18744.0,58794.0,10644.0,19267.0,5977.0,8833.0,5626.0,5578.0,1804.0,734.0,302.0,29.0
820923,County,2020/09/14,5.0,AR,5027.0,Columbia County,4261.0,19276.0,73846.0,18898.0,21463.0,5155.0,12076.0,6751.0,5815.0,2322.0,1017.0,313.0,36.0
825693,County,2020/09/15,5.0,AR,5027.0,Columbia County,4070.0,19467.0,84696.0,20761.0,25642.0,5457.0,13937.0,8753.0,6840.0,2073.0,892.0,319.0,22.0
827321,County,2020/09/16,5.0,AR,5027.0,Columbia County,4199.0,19338.0,78074.0,20761.0,22741.0,5981.0,11938.0,7666.0,5673.0,2043.0,978.0,261.0,32.0
830515,County,2020/09/17,5.0,AR,5027.0,Columbia County,4006.0,19531.0,79788.0,22244.0,21530.0,5404.0,11791.0,8620.0,6690.0,2163.0,1025.0,294.0,27.0
833692,County,2020/09/18,5.0,AR,5027.0,Columbia County,3977.0,19560.0,88431.0,24768.0,23909.0,6637.0,12501.0,9238.0,7294.0,2521.0,1180.0,375.0,8.0
838468,County,2020/09/19,5.0,AR,5027.0,Columbia County,4220.0,19317.0,83045.0,22575.0,22816.0,7079.0,11131.0,8798.0,5982.0,3332.0,995.0,321.0,16.0
840096,County,2020/09/20,5.0,AR,5027.0,Columbia County,4651.0,18886.0,66513.0,14498.0,20058.0,4509.0,10842.0,7059.0,5869.0,2156.0,1263.0,245.0,14.0
844884,County,2020/09/21,5.0,AR,5027.0,Columbia County,5240.0,18297.0,63141.0,15125.0,18160.0,4521.0,10245.0,7056.0,5495.0,1833.0,561.0,145.0,0.0
848003,County,2020/09/22,5.0,AR,5027.0,Columbia County,4711.0,18826.0,68860.0,16156.0,21338.0,4333.0,10922.0,8039.0,5256.0,1747.0,1034.0,35.0,0.0
851241,County,2020/09/23,5.0,AR,5027.0,Columbia County,4447.0,19090.0,71392.0,18601.0,22860.0,5559.0,9674.0,8381.0,4731.0,1066.0,469.0,43.0,8.0
852869,County,2020/09/24,5.0,AR,5027.0,Columbia County,4312.0,19225.0,69999.0,15074.0,21868.0,5561.0,10935.0,8981.0,4792.0,1925.0,712.0,140.0,11.0
857633,County,2020/09/25,5.0,AR,5027.0,Columbia County,3825.0,19712.0,81561.0,20115.0,23220.0,5932.0,11985.0,10267.0,6264.0,2730.0,964.0,66.0,18.0
859261,County,2020/09/26,5.0,AR,5027.0,Columbia County,4288.0,19249.0,78971.0,17594.0,22210.0,7012.0,10419.0,11423.0,6242.0,2907.0,1088.0,60.0,16.0
862432,County,2020/09/27,5.0,AR,5027.0,Columbia County,4563.0,18974.0,71428.0,17127.0,19208.0,5955.0,11052.0,8907.0,6045.0,1926.0,1050.0,148.0,10.0
865635,County,2020/09/28,5.0,AR,5027.0,Columbia County,4431.0,19106.0,69701.0,16629.0,20152.0,5808.0,11154.0,8840.0,4530.0,1935.0,573.0,68.0,12.0
870408,County,2020/09/29,5.0,AR,5027.0,Columbia County,4162.0,19375.0,72527.0,18754.0,21810.0,5012.0,11106.0,5412.0,7186.0,2410.0,685.0,135.0,17.0
872037,County,2020/09/30,5.0,AR,5027.0,Columbia County,4369.0,19168.0,70415.0,20604.0,20512.0,5025.0,10770.0,6364.0,3705.0,1996.0,1222.0,204.0,13.0
876777,County,2020/10/01,5.0,AR,5027.0,Columbia County,3819.0,19718.0,74241.0,18982.0,22342.0,5700.0,9867.0,8057.0,6698.0,1819.0,560.0,201.0,15.0
878404,County,2020/10/02,5.0,AR,5027.0,Columbia County,3959.0,19578.0,80436.0,21518.0,23001.0,5168.0,12697.0,8452.0,5808.0,2210.0,1417.0,157.0,8.0
883186,County,2020/10/03,5.0,AR,5027.0,Columbia County,4295.0,19242.0,70534.0,18511.0,19442.0,4323.0,10057.0,8358.0,6104.0,2109.0,1421.0,199.0,10.0
885187,County,2020/10/04,5.0,AR,5027.0,Columbia County,4732.0,18805.0,62590.0,14845.0,17233.0,5682.0,9206.0,7185.0,5235.0,1703.0,1362.0,132.0,7.0
888057,County,2020/10/05,5.0,AR,5027.0,Columbia County,4947.0,18590.0,64354.0,14575.0,19718.0,5273.0,9904.0,7469.0,4497.0,1617.0,1020.0,271.0,10.0
891239,County,2020/10/06,5.0,AR,5027.0,Columbia County,4042.0,19495.0,73210.0,16712.0,22818.0,5594.0,11130.0,8066.0,6033.0,1867.0,800.0,182.0,8.0
894446,County,2020/10/07,5.0,AR,5027.0,Columbia County,4086.0,19451.0,72147.0,17133.0,22376.0,5757.0,11218.0,7358.0,5574.0,1662.0,915.0,134.0,20.0
897590,County,2020/10/08,5.0,AR,5027.0,Columbia County,4374.0,19163.0,68035.0,17725.0,19414.0,4568.0,9956.0,6842.0,6753.0,1881.0,726.0,159.0,11.0
900834,County,2020/10/09,5.0,AR,5027.0,Columbia County,4436.0,19101.0,73527.0,18002.0,22441.0,5856.0,11990.0,7182.0,4765.0,2016.0,1082.0,181.0,12.0
904313,County,2020/10/10,5.0,AR,5027.0,Columbia County,4446.0,19091.0,67738.0,15922.0,23052.0,3857.0,8161.0,8616.0,5129.0,1921.0,910.0,160.0,10.0
909482,County,2020/10/11,5.0,AR,5027.0,Columbia County,4593.0,18944.0,59469.0,10397.0,20948.0,5667.0,6620.0,7623.0,3649.0,3104.0,1310.0,147.0,4.0
913291,County,2020/10/12,5.0,AR,5027.0,Columbia County,4302.0,19235.0,69768.0,14788.0,23973.0,4599.0,10538.0,7565.0,5161.0,1976.0,1000.0,165.0,3.0
916576,County,2020/10/13,5.0,AR,5027.0,Columbia County,4308.0,19229.0,70199.0,15632.0,22631.0,5400.0,11160.0,7397.0,5143.0,1856.0,783.0,188.0,9.0
919640,County,2020/10/14,5.0,AR,5027.0,Columbia County,3905.0,19632.0,74439.0,16637.0,21428.0,6395.0,11781.0,9651.0,5581.0,2171.0,622.0,162.0,11.0
919928,County,2020/10/15,5.0,AR,5027.0,Columbia County,4430.0,19107.0,61601.0,13650.0,19545.0,3945.0,9918.0,6950.0,4632.0,1766.0,958.0,223.0,14.0
926070,County,2020/10/16,5.0,AR,5027.0,Columbia County,3795.0,19742.0,78641.0,17565.0,22669.0,6090.0,12844.0,9372.0,5883.0,2825.0,1193.0,190.0,10.0
928930,County,2020/10/17,5.0,AR,5027.0,Columbia County,3968.0,19569.0,68705.0,15186.0,19856.0,5127.0,9942.0,8259.0,6987.0,2159.0,935.0,247.0,7.0
932534,County,2020/10/18,5.0,AR,5027.0,Columbia County,4257.0,19280.0,66643.0,16194.0,16918.0,6030.0,11016.0,8463.0,4341.0,2498.0,1042.0,132.0,9.0
935681,County,2020/10/19,5.0,AR,5027.0,Columbia County,4250.0,19287.0,76244.0,15617.0,23731.0,5536.0,11772.0,8181.0,7833.0,2329.0,1114.0,126.0,5.0
938675,County,2020/10/20,5.0,AR,5027.0,Columbia County,3965.0,19572.0,77304.0,17071.0,25121.0,7301.0,9322.0,8566.0,6531.0,2261.0,1013.0,112.0,6.0
941686,County,2020/10/21,5.0,AR,5027.0,Columbia County,4441.0,19096.0,70340.0,17265.0,21661.0,7011.0,9148.0,7879.0,3611.0,2409.0,1186.0,162.0,8.0
944062,County,2020/10/22,5.0,AR,5027.0,Columbia County,3791.0,19746.0,82692.0,20932.0,25321.0,5166.0,12464.0,8430.0,7309.0,2067.0,906.0,91.0,6.0
947891,County,2020/10/23,5.0,AR,5027.0,Columbia County,3450.0,20087.0,84331.0,18276.0,26522.0,6971.0,11810.0,9275.0,6893.0,3194.0,1226.0,156.0,8.0
951618,County,2020/10/24,5.0,AR,5027.0,Columbia County,4182.0,19355.0,79503.0,17954.0,23744.0,7508.0,10511.0,9814.0,6618.0,2674.0,630.0,44.0,6.0
