,Level,Date,State FIPS,State Postal Code,County FIPS,County Name,Population Staying at Home,Population Not Staying at Home,Number of Trips,Number of Trips <1,Number of Trips 1-3,Number of Trips 3-5,Number of Trips 5-10,Number of Trips 10-25,Number of Trips 25-50,Number of Trips 50-100,Number of Trips 100-250,Number of Trips 250-500,Number of Trips >=500
2347,County,2020/01/01,45.0,SC,45065.0,McCormick County,2322.0,7088.0,20461.0,3365.0,4000.0,2742.0,3202.0,3848.0,2274.0,841.0,135.0,37.0,17.0
4678,County,2020/01/02,45.0,SC,45065.0,McCormick County,1903.0,7507.0,25965.0,3441.0,5161.0,2880.0,4476.0,4778.0,3822.0,1284.0,86.0,37.0,0.0
9194,County,2020/01/03,45.0,SC,45065.0,McCormick County,1970.0,7440.0,28503.0,6327.0,5228.0,2746.0,4429.0,5139.0,3363.0,1010.0,203.0,30.0,28.0
11521,County,2020/01/04,45.0,SC,45065.0,McCormick County,2148.0,7262.0,24719.0,4691.0,5148.0,3286.0,4599.0,3790.0,2383.0,634.0,140.0,33.0,15.0
15123,County,2020/01/05,45.0,SC,45065.0,McCormick County,2354.0,7056.0,21883.0,4181.0,3620.0,2956.0,4004.0,3951.0,2297.0,637.0,155.0,48.0,34.0
17190,County,2020/01/06,45.0,SC,45065.0,McCormick County,1806.0,7604.0,25146.0,3965.0,4162.0,2785.0,4776.0,4467.0,3212.0,1551.0,174.0,28.0,26.0
21904,County,2020/01/07,45.0,SC,45065.0,McCormick County,1789.0,7621.0,27931.0,5048.0,4685.0,4775.0,4688.0,4697.0,2681.0,1155.0,161.0,17.0,24.0
25097,County,2020/01/08,45.0,SC,45065.0,McCormick County,1802.0,7608.0,27326.0,4812.0,6038.0,3435.0,5162.0,4167.0,2786.0,816.0,67.0,18.0,25.0
26724,County,2020/01/09,45.0,SC,45065.0,McCormick County,1895.0,7515.0,26701.0,4781.0,5478.0,1887.0,4449.0,5540.0,3454.0,933.0,120.0,46.0,13.0
29920,County,2020/01/10,45.0,SC,45065.0,McCormick County,1661.0,7749.0,30681.0,5484.0,5653.0,4273.0,6177.0,4569.0,3685.0,691.0,128.0,9.0,12.0
34728,County,2020/01/11,45.0,SC,45065.0,McCormick County,1916.0,7494.0,25801.0,4989.0,4826.0,3462.0,5466.0,3875.0,2338.0,746.0,81.0,18.0,0.0
36318,County,2020/01/12,45.0,SC,45065.0,McCormick County,2232.0,7178.0,24960.0,4603.0,4472.0,3725.0,4927.0,3690.0,2810.0,606.0,96.0,31.0,0.0
41095,County,2020/01/13,45.0,SC,45065.0,McCormick County,1968.0,7442.0,26610.0,4425.0,4982.0,4318.0,4817.0,3678.0,3634.0,584.0,118.0,28.0,26.0
44293,County,2020/01/14,45.0,SC,45065.0,McCormick County,1942.0,7468.0,26639.0,5066.0,5045.0,3142.0,4886.0,4093.0,3147.0,1023.0,162.0,26.0,49.0
45874,County,2020/01/15,45.0,SC,45065.0,McCormick County,1812.0,7598.0,26446.0,5449.0,5253.0,4003.0,4402.0,3151.0,3204.0,815.0,133.0,36.0,0.0
50655,County,2020/01/16,45.0,SC,45065.0,McCormick County,1684.0,7726.0,29774.0,6207.0,6016.0,3507.0,4906.0,4582.0,3691.0,639.0,159.0,43.0,24.0
53894,County,2020/01/17,45.0,SC,45065.0,McCormick County,1760.0,7650.0,31659.0,6138.0,6255.0,4117.0,5490.0,5059.0,3302.0,1159.0,113.0,26.0,0.0
55467,County,2020/01/18,45.0,SC,45065.0,McCormick County,1992.0,7418.0,28820.0,5767.0,5239.0,3526.0,5357.0,5046.0,2385.0,1252.0,218.0,30.0,0.0
60262,County,2020/01/19,45.0,SC,45065.0,McCormick County,2054.0,7356.0,25341.0,5198.0,4653.0,3316.0,4094.0,4072.0,3300.0,521.0,163.0,10.0,14.0
63425,County,2020/01/20,45.0,SC,45065.0,McCormick County,1901.0,7509.0,26820.0,6113.0,5507.0,3120.0,4179.0,3872.0,3295.0,528.0,184.0,9.0,13.0
66623,County,2020/01/21,45.0,SC,45065.0,McCormick County,1921.0,7489.0,28168.0,5493.0,4899.0,3592.0,4882.0,4277.0,3813.0,1035.0,103.0,74.0,0.0
69813,County,2020/01/22,45.0,SC,45065.0,McCormick County,1809.0,7601.0,28016.0,4991.0,5945.0,3620.0,5460.0,3695.0,3363.0,795.0,138.0,9.0,0.0
71439,County,2020/01/23,45.0,SC,45065.0,McCormick County,1890.0,7520.0,23993.0,2923.0,6063.0,3180.0,3501.0,3650.0,3663.0,906.0,95.0,0.0,12.0
74635,County,2020/01/24,45.0,SC,45065.0,McCormick County,1828.0,7582.0,25833.0,4345.0,4955.0,4416.0,3034.0,4359.0,3853.0,730.0,95.0,34.0,12.0
77828,County,2020/01/25,45.0,SC,45065.0,McCormick County,2224.0,7186.0,24520.0,4734.0,4571.0,2728.0,5377.0,3173.0,2495.0,1001.0,426.0,0.0,15.0
82197,County,2020/01/26,45.0,SC,45065.0,McCormick County,2196.0,7214.0,23053.0,3874.0,3371.0,3845.0,4588.0,4186.0,2180.0,897.0,92.0,20.0,0.0
83120,County,2020/01/27,45.0,SC,45065.0,McCormick County,1761.0,7649.0,25337.0,4074.0,4586.0,2878.0,5301.0,4122.0,3585.0,709.0,62.0,8.0,12.0
88005,County,2020/01/28,45.0,SC,45065.0,McCormick County,1759.0,7651.0,24191.0,3458.0,4659.0,3134.0,4340.0,4286.0,3239.0,955.0,79.0,17.0,24.0
90579,County,2020/01/29,45.0,SC,45065.0,McCormick County,1873.0,7537.0,23364.0,3114.0,4788.0,3248.0,3564.0,4840.0,3232.0,499.0,79.0,0.0,0.0
93932,County,2020/01/30,45.0,SC,45065.0,McCormick County,1900.0,7510.0,26872.0,5166.0,5605.0,3036.0,4505.0,4624.0,3120.0,539.0,172.0,34.0,71.0
96987,County,2020/01/31,45.0,SC,45065.0,McCormick County,1753.0,7657.0,31165.0,5098.0,5216.0,5069.0,5545.0,5059.0,3811.0,807.0,429.0,64.0,67.0
101746,County,2020/02/01,45.0,SC,45065.0,McCormick County,1987.0,7423.0,27366.0,4745.0,5375.0,3241.0,5034.0,5110.0,2907.0,725.0,205.0,0.0,24.0
104947,County,2020/02/02,45.0,SC,45065.0,McCormick County,2014.0,7396.0,27975.0,4120.0,4290.0,4484.0,5223.0,5710.0,2892.0,940.0,229.0,62.0,25.0
106573,County,2020/02/03,45.0,SC,45065.0,McCormick County,1747.0,7663.0,29883.0,5484.0,4855.0,3806.0,4482.0,5985.0,3928.0,1157.0,167.0,8.0,11.0
111335,County,2020/02/04,45.0,SC,45065.0,McCormick County,1603.0,7807.0,27064.0,4110.0,5636.0,3177.0,4782.0,4766.0,3346.0,989.0,159.0,79.0,20.0
114538,County,2020/02/05,45.0,SC,45065.0,McCormick County,1715.0,7695.0,29048.0,4244.0,5980.0,4846.0,4733.0,5043.0,3051.0,970.0,130.0,21.0,30.0
116058,County,2020/02/06,45.0,SC,45065.0,McCormick County,1764.0,7646.0,25333.0,3541.0,5190.0,3437.0,4784.0,4606.0,2989.0,596.0,146.0,7.0,37.0
119323,County,2020/02/07,45.0,SC,45065.0,McCormick County,1661.0,7749.0,27985.0,4367.0,4666.0,4828.0,5779.0,4289.0,3041.0,736.0,243.0,7.0,29.0
122569,County,2020/02/08,45.0,SC,45065.0,McCormick County,1902.0,7508.0,26780.0,4394.0,5620.0,3906.0,3798.0,4678.0,3282.0,865.0,191.0,15.0,31.0
126361,County,2020/02/09,45.0,SC,45065.0,McCormick County,2246.0,7164.0,23884.0,3563.0,4326.0,4522.0,4246.0,4274.0,2190.0,477.0,178.0,45.0,63.0
130656,County,2020/02/10,45.0,SC,45065.0,McCormick County,1654.0,7756.0,30495.0,5501.0,5575.0,5139.0,4889.0,5143.0,3232.0,809.0,164.0,7.0,36.0
132617,County,2020/02/11,45.0,SC,45065.0,McCormick County,1646.0,7764.0,27830.0,4507.0,4293.0,3708.0,4901.0,5464.0,3751.0,875.0,292.0,20.0,19.0
136857,County,2020/02/12,45.0,SC,45065.0,McCormick County,1821.0,7589.0,26556.0,4252.0,5427.0,4027.0,4588.0,3809.0,3426.0,793.0,149.0,50.0,35.0
138552,County,2020/02/13,45.0,SC,45065.0,McCormick County,1648.0,7762.0,28569.0,4194.0,5242.0,4165.0,5696.0,4980.0,3408.0,629.0,170.0,20.0,65.0
141610,County,2020/02/14,45.0,SC,45065.0,McCormick County,1501.0,7909.0,32028.0,5434.0,5807.0,4640.0,5684.0,5697.0,3559.0,912.0,253.0,13.0,29.0
144907,County,2020/02/15,45.0,SC,45065.0,McCormick County,1806.0,7604.0,29493.0,4806.0,5969.0,4404.0,5176.0,5063.0,3238.0,601.0,236.0,0.0,0.0
148095,County,2020/02/16,45.0,SC,45065.0,McCormick County,2169.0,7241.0,23537.0,3154.0,3973.0,3849.0,4413.0,5020.0,2245.0,572.0,260.0,16.0,35.0
152857,County,2020/02/17,45.0,SC,45065.0,McCormick County,2308.0,7102.0,24208.0,3933.0,4645.0,4686.0,3581.0,3674.0,2753.0,640.0,246.0,32.0,18.0
154434,County,2020/02/18,45.0,SC,45065.0,McCormick County,1750.0,7660.0,26898.0,3979.0,4436.0,3256.0,4780.0,5629.0,3039.0,1582.0,145.0,8.0,44.0
159244,County,2020/02/19,45.0,SC,45065.0,McCormick County,1671.0,7739.0,30419.0,5531.0,5978.0,5282.0,4354.0,4364.0,3617.0,975.0,206.0,56.0,56.0
162488,County,2020/02/20,45.0,SC,45065.0,McCormick County,1877.0,7533.0,25655.0,3142.0,5083.0,3070.0,5138.0,4386.0,3258.0,1263.0,235.0,47.0,33.0
165633,County,2020/02/21,45.0,SC,45065.0,McCormick County,1864.0,7546.0,29506.0,5334.0,5179.0,4342.0,5140.0,5170.0,3591.0,554.0,149.0,24.0,23.0
167211,County,2020/02/22,45.0,SC,45065.0,McCormick County,1789.0,7621.0,27461.0,4972.0,5228.0,5514.0,4284.0,3518.0,2910.0,803.0,198.0,9.0,25.0
172026,County,2020/02/23,45.0,SC,45065.0,McCormick County,1984.0,7426.0,23185.0,4820.0,3712.0,3573.0,3898.0,3582.0,2497.0,819.0,252.0,19.0,13.0
175221,County,2020/02/24,45.0,SC,45065.0,McCormick County,1781.0,7629.0,27171.0,4515.0,4351.0,5411.0,4485.0,4807.0,2828.0,618.0,130.0,15.0,11.0
178018,County,2020/02/25,45.0,SC,45065.0,McCormick County,1550.0,7860.0,29323.0,5394.0,6595.0,4012.0,4017.0,4430.0,3622.0,1092.0,69.0,66.0,26.0
181211,County,2020/02/26,45.0,SC,45065.0,McCormick County,1888.0,7522.0,29668.0,6087.0,6917.0,3414.0,4211.0,5073.0,2665.0,1060.0,212.0,29.0,0.0
182628,County,2020/02/27,45.0,SC,45065.0,McCormick County,1594.0,7816.0,32321.0,6496.0,5302.0,5059.0,5656.0,4846.0,3597.0,1091.0,221.0,17.0,36.0
188039,County,2020/02/28,45.0,SC,45065.0,McCormick County,1563.0,7847.0,27701.0,4788.0,4908.0,4367.0,4838.0,4603.0,3410.0,584.0,159.0,0.0,44.0
189571,County,2020/02/29,45.0,SC,45065.0,McCormick County,1683.0,7727.0,33613.0,6611.0,5470.0,4408.0,6211.0,6250.0,3501.0,807.0,315.0,0.0,40.0
194404,County,2020/03/01,45.0,SC,45065.0,McCormick County,2044.0,7366.0,23847.0,4266.0,4829.0,4153.0,3204.0,3736.0,2597.0,603.0,357.0,23.0,79.0
196032,County,2020/03/02,45.0,SC,45065.0,McCormick County,1779.0,7631.0,29638.0,5824.0,4942.0,4174.0,5169.0,4643.0,3501.0,1129.0,145.0,33.0,78.0
200884,County,2020/03/03,45.0,SC,45065.0,McCormick County,1692.0,7718.0,31070.0,5992.0,5418.0,4288.0,6181.0,4758.0,3572.0,752.0,52.0,57.0,0.0
203970,County,2020/03/04,45.0,SC,45065.0,McCormick County,1734.0,7676.0,28134.0,4899.0,4596.0,4376.0,5660.0,3904.0,3715.0,768.0,187.0,29.0,0.0
205538,County,2020/03/05,45.0,SC,45065.0,McCormick County,1623.0,7787.0,28812.0,5504.0,5130.0,4830.0,5123.0,4058.0,3205.0,670.0,259.0,14.0,19.0
208656,County,2020/03/06,45.0,SC,45065.0,McCormick County,1561.0,7849.0,31816.0,6212.0,6283.0,4560.0,5571.0,4523.0,3631.0,688.0,335.0,13.0,0.0
212006,County,2020/03/07,45.0,SC,45065.0,McCormick County,1503.0,7907.0,33934.0,5771.0,7201.0,3803.0,5019.0,6556.0,4383.0,831.0,342.0,28.0,0.0
216732,County,2020/03/08,45.0,SC,45065.0,McCormick County,2084.0,7326.0,23553.0,3642.0,4782.0,2283.0,4053.0,4947.0,3030.0,634.0,158.0,0.0,24.0
219931,County,2020/03/09,45.0,SC,45065.0,McCormick County,1866.0,7544.0,28046.0,5272.0,5261.0,4520.0,5666.0,3524.0,3062.0,568.0,173.0,0.0,0.0
223124,County,2020/03/10,45.0,SC,45065.0,McCormick County,1542.0,7868.0,31848.0,5829.0,7134.0,4989.0,4549.0,5022.0,3186.0,853.0,272.0,14.0,0.0
226353,County,2020/03/11,45.0,SC,45065.0,McCormick County,1692.0,7718.0,33025.0,9258.0,5150.0,4140.0,5663.0,3874.0,3605.0,782.0,339.0,110.0,104.0
227982,County,2020/03/12,45.0,SC,45065.0,McCormick County,1817.0,7593.0,27998.0,5199.0,4781.0,2839.0,3882.0,4515.0,4519.0,1713.0,373.0,121.0,56.0
232713,County,2020/03/13,45.0,SC,45065.0,McCormick County,1656.0,7754.0,28751.0,5519.0,4251.0,2416.0,3743.0,7682.0,4486.0,364.0,126.0,68.0,96.0
235866,County,2020/03/14,45.0,SC,45065.0,McCormick County,2193.0,7217.0,30113.0,5822.0,3216.0,3853.0,6385.0,7865.0,1627.0,793.0,552.0,0.0,0.0
239095,County,2020/03/15,45.0,SC,45065.0,McCormick County,2480.0,6930.0,22625.0,2902.0,5127.0,4156.0,4211.0,3889.0,2069.0,87.0,152.0,32.0,0.0
242288,County,2020/03/16,45.0,SC,45065.0,McCormick County,1989.0,7421.0,26946.0,4552.0,5024.0,3735.0,5247.0,4441.0,2948.0,839.0,106.0,14.0,40.0
243953,County,2020/03/17,45.0,SC,45065.0,McCormick County,2261.0,7149.0,25412.0,4731.0,3512.0,3262.0,5112.0,4770.0,2909.0,770.0,133.0,131.0,82.0
247108,County,2020/03/18,45.0,SC,45065.0,McCormick County,2533.0,6877.0,23912.0,4379.0,4898.0,2869.0,3822.0,4439.0,2782.0,416.0,260.0,47.0,0.0
250315,County,2020/03/19,45.0,SC,45065.0,McCormick County,2263.0,7147.0,27166.0,5203.0,3273.0,3462.0,5383.0,5525.0,3377.0,768.0,134.0,0.0,41.0
255065,County,2020/03/20,45.0,SC,45065.0,McCormick County,2511.0,6899.0,25754.0,3452.0,4956.0,3494.0,5528.0,4905.0,2591.0,698.0,81.0,29.0,20.0
258257,County,2020/03/21,45.0,SC,45065.0,McCormick County,2702.0,6708.0,26109.0,5860.0,4961.0,4321.0,3940.0,3511.0,3018.0,258.0,179.0,16.0,45.0
261445,County,2020/03/22,45.0,SC,45065.0,McCormick County,2969.0,6441.0,18701.0,4040.0,2534.0,3587.0,3144.0,3098.0,1922.0,208.0,109.0,59.0,0.0
264657,County,2020/03/23,45.0,SC,45065.0,McCormick County,2378.0,7032.0,21599.0,2865.0,3249.0,3019.0,4902.0,3707.0,2879.0,783.0,149.0,27.0,19.0
267838,County,2020/03/24,45.0,SC,45065.0,McCormick County,2599.0,6811.0,18379.0,2957.0,2845.0,2348.0,3835.0,3478.0,2142.0,664.0,77.0,14.0,19.0
271035,County,2020/03/25,45.0,SC,45065.0,McCormick County,2258.0,7152.0,22949.0,4464.0,4195.0,2044.0,4404.0,4085.0,3143.0,491.0,73.0,13.0,37.0
272662,County,2020/03/26,45.0,SC,45065.0,McCormick County,2359.0,7051.0,21865.0,3181.0,4684.0,2904.0,3404.0,3688.0,3303.0,626.0,54.0,0.0,21.0
277424,County,2020/03/27,45.0,SC,45065.0,McCormick County,2316.0,7094.0,22736.0,3378.0,4443.0,3593.0,3444.0,4397.0,2628.0,695.0,121.0,0.0,37.0
279051,County,2020/03/28,45.0,SC,45065.0,McCormick County,2351.0,7059.0,24113.0,5025.0,4132.0,3410.0,4231.0,3988.0,2891.0,286.0,99.0,13.0,38.0
282245,County,2020/03/29,45.0,SC,45065.0,McCormick County,2578.0,6832.0,21386.0,3813.0,6061.0,3273.0,2792.0,3359.0,1821.0,239.0,28.0,0.0,0.0
287036,County,2020/03/30,45.0,SC,45065.0,McCormick County,2213.0,7197.0,24004.0,4837.0,3668.0,4083.0,4208.0,3903.0,2709.0,536.0,47.0,13.0,0.0
288634,County,2020/03/31,45.0,SC,45065.0,McCormick County,2356.0,7054.0,20840.0,3318.0,3874.0,2220.0,4776.0,3489.0,2474.0,536.0,93.0,25.0,35.0
291869,County,2020/04/01,45.0,SC,45065.0,McCormick County,2183.0,7227.0,24010.0,4711.0,4161.0,3832.0,4550.0,3836.0,2306.0,471.0,70.0,38.0,35.0
295021,County,2020/04/02,45.0,SC,45065.0,McCormick County,2437.0,6973.0,24962.0,6165.0,4466.0,3252.0,4534.0,3759.0,2285.0,361.0,75.0,27.0,38.0
299781,County,2020/04/03,45.0,SC,45065.0,McCormick County,2247.0,7163.0,24814.0,3954.0,5144.0,3774.0,3944.0,4738.0,2504.0,556.0,145.0,0.0,55.0
301407,County,2020/04/04,45.0,SC,45065.0,McCormick County,2410.0,7000.0,22069.0,4280.0,4868.0,2683.0,3805.0,3812.0,2308.0,225.0,26.0,42.0,20.0
306161,County,2020/04/05,45.0,SC,45065.0,McCormick County,2832.0,6578.0,21381.0,5397.0,2854.0,4446.0,2876.0,3757.0,1618.0,216.0,188.0,0.0,29.0
307796,County,2020/04/06,45.0,SC,45065.0,McCormick County,2515.0,6895.0,24850.0,5351.0,5020.0,2842.0,4983.0,3273.0,2829.0,495.0,57.0,0.0,0.0
310990,County,2020/04/07,45.0,SC,45065.0,McCormick County,2679.0,6731.0,21084.0,3194.0,3774.0,3397.0,3596.0,4101.0,1963.0,827.0,201.0,31.0,0.0
314185,County,2020/04/08,45.0,SC,45065.0,McCormick County,2552.0,6858.0,20971.0,3367.0,4495.0,2610.0,3569.0,2951.0,3463.0,328.0,114.0,31.0,43.0
317402,County,2020/04/09,45.0,SC,45065.0,McCormick County,2623.0,6787.0,25544.0,3996.0,5204.0,4037.0,4455.0,3777.0,3101.0,882.0,56.0,15.0,21.0
322139,County,2020/04/10,45.0,SC,45065.0,McCormick County,2533.0,6877.0,23059.0,4527.0,4884.0,3022.0,3062.0,3666.0,2451.0,1183.0,264.0,0.0,0.0
323814,County,2020/04/11,45.0,SC,45065.0,McCormick County,2387.0,7023.0,20554.0,4748.0,4141.0,3471.0,4002.0,2292.0,1355.0,462.0,54.0,29.0,0.0
328500,County,2020/04/12,45.0,SC,45065.0,McCormick County,3196.0,6214.0,13988.0,2867.0,3210.0,1835.0,2032.0,1963.0,1565.0,395.0,69.0,0.0,52.0
331722,County,2020/04/13,45.0,SC,45065.0,McCormick County,2412.0,6998.0,21947.0,3150.0,4554.0,3494.0,4390.0,3269.0,2569.0,428.0,74.0,0.0,19.0
334896,County,2020/04/14,45.0,SC,45065.0,McCormick County,2282.0,7128.0,21798.0,5745.0,3648.0,866.0,4148.0,3851.0,3163.0,163.0,171.0,0.0,43.0
336573,County,2020/04/15,45.0,SC,45065.0,McCormick County,2262.0,7148.0,25394.0,3452.0,4585.0,3328.0,3641.0,5812.0,3680.0,837.0,59.0,0.0,0.0
339727,County,2020/04/16,45.0,SC,45065.0,McCormick County,2433.0,6977.0,20668.0,4818.0,4639.0,1948.0,3947.0,2836.0,2010.0,327.0,113.0,30.0,0.0
344506,County,2020/04/17,45.0,SC,45065.0,McCormick County,2407.0,7003.0,25778.0,6359.0,4187.0,2345.0,4037.0,4631.0,3629.0,590.0,0.0,0.0,0.0
347654,County,2020/04/18,45.0,SC,45065.0,McCormick County,2518.0,6892.0,23918.0,5019.0,4016.0,3497.0,4555.0,4208.0,2486.0,0.0,65.0,72.0,0.0
350886,County,2020/04/19,45.0,SC,45065.0,McCormick County,2824.0,6586.0,13661.0,2605.0,1889.0,2468.0,1969.0,2309.0,2252.0,0.0,81.0,88.0,0.0
352511,County,2020/04/20,45.0,SC,45065.0,McCormick County,2401.0,7009.0,12874.0,2996.0,1283.0,838.0,2800.0,2351.0,2038.0,421.0,147.0,0.0,0.0
355705,County,2020/04/21,45.0,SC,45065.0,McCormick County,2168.0,7242.0,23707.0,4621.0,4158.0,2770.0,4176.0,4286.0,2898.0,643.0,140.0,15.0,0.0
360475,County,2020/04/22,45.0,SC,45065.0,McCormick County,2250.0,7160.0,23359.0,5212.0,3584.0,3226.0,5408.0,3019.0,2278.0,550.0,82.0,0.0,0.0
362006,County,2020/04/23,45.0,SC,45065.0,McCormick County,2600.0,6810.0,23751.0,5370.0,3228.0,4820.0,3515.0,2593.0,3358.0,818.0,32.0,17.0,0.0
365308,County,2020/04/24,45.0,SC,45065.0,McCormick County,2261.0,7149.0,22008.0,4082.0,4056.0,3533.0,3978.0,3792.0,2413.0,78.0,55.0,0.0,21.0
370049,County,2020/04/25,45.0,SC,45065.0,McCormick County,2452.0,6958.0,23656.0,4319.0,4542.0,2327.0,5304.0,4900.0,1390.0,702.0,122.0,50.0,0.0
373243,County,2020/04/26,45.0,SC,45065.0,McCormick County,2747.0,6663.0,19269.0,3197.0,4266.0,2862.0,3983.0,2396.0,1799.0,568.0,198.0,0.0,0.0
376475,County,2020/04/27,45.0,SC,45065.0,McCormick County,2304.0,7106.0,23845.0,3008.0,4876.0,4503.0,4706.0,4830.0,1676.0,166.0,58.0,0.0,22.0
378021,County,2020/04/28,45.0,SC,45065.0,McCormick County,2259.0,7151.0,25409.0,4676.0,5141.0,2575.0,6123.0,3456.0,2674.0,676.0,88.0,0.0,0.0
381273,County,2020/04/29,45.0,SC,45065.0,McCormick County,2163.0,7247.0,21349.0,4298.0,3910.0,2372.0,4491.0,3329.0,2602.0,275.0,72.0,0.0,0.0
384420,County,2020/04/30,45.0,SC,45065.0,McCormick County,2222.0,7188.0,22174.0,2881.0,4151.0,3451.0,4764.0,3322.0,3336.0,223.0,26.0,0.0,20.0
389255,County,2020/05/01,45.0,SC,45065.0,McCormick County,2388.0,7022.0,27322.0,4818.0,4758.0,3965.0,4299.0,5014.0,3768.0,566.0,113.0,0.0,21.0
390827,County,2020/05/02,45.0,SC,45065.0,McCormick County,2171.0,7239.0,25197.0,4972.0,4806.0,2558.0,4134.0,5114.0,3009.0,526.0,61.0,17.0,0.0
394041,County,2020/05/03,45.0,SC,45065.0,McCormick County,2102.0,7308.0,24164.0,4212.0,3505.0,3757.0,4602.0,4394.0,2648.0,797.0,216.0,33.0,0.0
398795,County,2020/05/04,45.0,SC,45065.0,McCormick County,2168.0,7242.0,26540.0,4676.0,4566.0,3302.0,5438.0,4386.0,3322.0,723.0,112.0,15.0,0.0
401970,County,2020/05/05,45.0,SC,45065.0,McCormick County,2108.0,7302.0,29200.0,5657.0,5316.0,4317.0,6331.0,4215.0,2304.0,921.0,99.0,40.0,0.0
403600,County,2020/05/06,45.0,SC,45065.0,McCormick County,2165.0,7245.0,26704.0,4442.0,4464.0,3791.0,5406.0,4093.0,3870.0,587.0,51.0,0.0,0.0
408320,County,2020/05/07,45.0,SC,45065.0,McCormick County,2029.0,7381.0,29118.0,4664.0,4938.0,3789.0,7375.0,4216.0,3125.0,850.0,161.0,0.0,0.0
410108,County,2020/05/08,45.0,SC,45065.0,McCormick County,1747.0,7663.0,25998.0,4291.0,5047.0,3742.0,4386.0,4919.0,2778.0,740.0,47.0,13.0,35.0
414730,County,2020/05/09,45.0,SC,45065.0,McCormick County,2105.0,7305.0,25125.0,5453.0,4366.0,2592.0,4633.0,4172.0,3096.0,704.0,109.0,0.0,0.0
416391,County,2020/05/10,45.0,SC,45065.0,McCormick County,2324.0,7086.0,20904.0,3975.0,4415.0,2999.0,3891.0,3670.0,1760.0,87.0,91.0,16.0,0.0
419634,County,2020/05/11,45.0,SC,45065.0,McCormick County,1749.0,7661.0,29628.0,6302.0,5483.0,3789.0,3994.0,5982.0,2907.0,1027.0,124.0,8.0,12.0
424394,County,2020/05/12,45.0,SC,45065.0,McCormick County,1717.0,7693.0,31387.0,5912.0,7329.0,3354.0,4726.0,5535.0,3318.0,1012.0,192.0,9.0,0.0
425876,County,2020/05/13,45.0,SC,45065.0,McCormick County,1897.0,7513.0,29950.0,5468.0,5266.0,3017.0,4951.0,6663.0,3323.0,1138.0,95.0,17.0,12.0
430735,County,2020/05/14,45.0,SC,45065.0,McCormick County,1810.0,7600.0,31359.0,6392.0,5880.0,3132.0,5280.0,6691.0,2823.0,1026.0,93.0,42.0,0.0
432363,County,2020/05/15,45.0,SC,45065.0,McCormick County,1796.0,7614.0,31097.0,6047.0,5095.0,3478.0,5959.0,6397.0,3024.0,950.0,126.0,9.0,12.0
437112,County,2020/05/16,45.0,SC,45065.0,McCormick County,1899.0,7511.0,28400.0,6097.0,5277.0,3516.0,5845.0,4774.0,2058.0,624.0,199.0,10.0,0.0
440271,County,2020/05/17,45.0,SC,45065.0,McCormick County,2002.0,7408.0,27378.0,6250.0,6530.0,3413.0,4822.0,4151.0,2038.0,129.0,45.0,0.0,0.0
443560,County,2020/05/18,45.0,SC,45065.0,McCormick County,1285.0,8125.0,28197.0,4943.0,5718.0,4041.0,5247.0,4469.0,2762.0,1017.0,0.0,0.0,0.0
445139,County,2020/05/19,45.0,SC,45065.0,McCormick County,1311.0,8099.0,30757.0,5113.0,5700.0,3540.0,5676.0,6968.0,2835.0,829.0,96.0,0.0,0.0
449899,County,2020/05/20,45.0,SC,45065.0,McCormick County,1665.0,7745.0,31072.0,4142.0,6805.0,4939.0,4889.0,6734.0,2622.0,745.0,148.0,20.0,28.0
452789,County,2020/05/21,45.0,SC,45065.0,McCormick County,1644.0,7766.0,33750.0,5886.0,6738.0,5011.0,6174.0,6337.0,2786.0,818.0,0.0,0.0,0.0
454712,County,2020/05/22,45.0,SC,45065.0,McCormick County,1384.0,8026.0,35114.0,6416.0,7405.0,4837.0,6446.0,6964.0,2057.0,842.0,98.0,0.0,49.0
457909,County,2020/05/23,45.0,SC,45065.0,McCormick County,1584.0,7826.0,30435.0,4732.0,7108.0,3903.0,6012.0,5289.0,2411.0,812.0,141.0,0.0,27.0
461077,County,2020/05/24,45.0,SC,45065.0,McCormick County,1813.0,7597.0,25035.0,4413.0,5665.0,3748.0,4600.0,4002.0,1881.0,653.0,63.0,0.0,10.0
465953,County,2020/05/25,45.0,SC,45065.0,McCormick County,2012.0,7398.0,22730.0,3861.0,4447.0,4173.0,3612.0,3311.0,2278.0,797.0,194.0,15.0,42.0
469061,County,2020/05/26,45.0,SC,45065.0,McCormick County,1744.0,7666.0,27274.0,5417.0,4131.0,4358.0,4560.0,4772.0,2793.0,972.0,247.0,14.0,10.0
472301,County,2020/05/27,45.0,SC,45065.0,McCormick County,1680.0,7730.0,31398.0,5371.0,6170.0,3785.0,5377.0,6255.0,3098.0,1076.0,206.0,21.0,39.0
475451,County,2020/05/28,45.0,SC,45065.0,McCormick County,1659.0,7751.0,27994.0,5496.0,4213.0,3138.0,5370.0,5150.0,3524.0,874.0,215.0,14.0,0.0
478639,County,2020/05/29,45.0,SC,45065.0,McCormick County,1895.0,7515.0,28476.0,4943.0,4733.0,3346.0,5222.0,6024.0,3060.0,956.0,146.0,36.0,10.0
481839,County,2020/05/30,45.0,SC,45065.0,McCormick County,1817.0,7593.0,27017.0,4786.0,4230.0,3981.0,4605.0,5449.0,2996.0,673.0,218.0,8.0,71.0
483395,County,2020/05/31,45.0,SC,45065.0,McCormick County,1895.0,7515.0,25807.0,4436.0,5528.0,5010.0,3441.0,4566.0,2072.0,540.0,205.0,9.0,0.0
486661,County,2020/06/01,45.0,SC,45065.0,McCormick County,1602.0,7808.0,30610.0,6020.0,4737.0,4627.0,5438.0,5790.0,2996.0,757.0,234.0,0.0,11.0
491393,County,2020/06/02,45.0,SC,45065.0,McCormick County,1885.0,7525.0,28715.0,5851.0,4945.0,3082.0,4107.0,6433.0,2713.0,1387.0,156.0,17.0,24.0
494614,County,2020/06/03,45.0,SC,45065.0,McCormick County,1604.0,7806.0,31217.0,5154.0,5180.0,4230.0,5193.0,6754.0,3293.0,1234.0,133.0,24.0,22.0
496233,County,2020/06/04,45.0,SC,45065.0,McCormick County,1527.0,7883.0,31557.0,5905.0,4896.0,4359.0,5677.0,6409.0,3493.0,684.0,134.0,0.0,0.0
501009,County,2020/06/05,45.0,SC,45065.0,McCormick County,1745.0,7665.0,28645.0,4740.0,5372.0,3860.0,5919.0,5090.0,2716.0,750.0,169.0,17.0,12.0
502584,County,2020/06/06,45.0,SC,45065.0,McCormick County,2053.0,7357.0,24142.0,3736.0,5307.0,3152.0,4525.0,4718.0,1621.0,773.0,310.0,0.0,0.0
507361,County,2020/06/07,45.0,SC,45065.0,McCormick County,2113.0,7297.0,22804.0,3351.0,4474.0,4342.0,4569.0,3516.0,1496.0,693.0,306.0,24.0,33.0
508998,County,2020/06/08,45.0,SC,45065.0,McCormick County,1779.0,7631.0,26263.0,5387.0,5284.0,2638.0,4247.0,4831.0,3016.0,508.0,309.0,32.0,11.0
513776,County,2020/06/09,45.0,SC,45065.0,McCormick County,1864.0,7546.0,30031.0,5308.0,6415.0,4670.0,6416.0,4490.0,2207.0,241.0,202.0,18.0,64.0
515406,County,2020/06/10,45.0,SC,45065.0,McCormick County,1928.0,7482.0,24137.0,3618.0,4987.0,3167.0,3609.0,4957.0,2949.0,505.0,288.0,9.0,48.0
520139,County,2020/06/11,45.0,SC,45065.0,McCormick County,1858.0,7552.0,28433.0,5978.0,5881.0,4118.0,4147.0,5521.0,2080.0,464.0,145.0,26.0,73.0
523361,County,2020/06/12,45.0,SC,45065.0,McCormick County,1840.0,7570.0,33143.0,6772.0,7970.0,3697.0,5898.0,5362.0,2698.0,511.0,210.0,0.0,25.0
526548,County,2020/06/13,45.0,SC,45065.0,McCormick County,1823.0,7587.0,29219.0,6485.0,6296.0,3174.0,5019.0,5273.0,1762.0,880.0,238.0,28.0,64.0
528183,County,2020/06/14,45.0,SC,45065.0,McCormick County,2221.0,7189.0,21888.0,3526.0,4927.0,3056.0,4268.0,2981.0,1941.0,834.0,273.0,56.0,26.0
532943,County,2020/06/15,45.0,SC,45065.0,McCormick County,1894.0,7516.0,24889.0,4274.0,4302.0,2925.0,4549.0,5367.0,2169.0,866.0,361.0,65.0,11.0
534571,County,2020/06/16,45.0,SC,45065.0,McCormick County,1990.0,7420.0,27738.0,5355.0,3609.0,3909.0,5826.0,5457.0,2552.0,796.0,179.0,18.0,37.0
537764,County,2020/06/17,45.0,SC,45065.0,McCormick County,1949.0,7461.0,28673.0,6127.0,5312.0,4089.0,3954.0,5218.0,2754.0,1029.0,130.0,35.0,25.0
542525,County,2020/06/18,45.0,SC,45065.0,McCormick County,1792.0,7618.0,26691.0,4568.0,4280.0,4539.0,5602.0,4714.0,1910.0,836.0,218.0,24.0,0.0
544152,County,2020/06/19,45.0,SC,45065.0,McCormick County,1930.0,7480.0,26010.0,4262.0,5031.0,3839.0,4242.0,4844.0,2547.0,922.0,275.0,25.0,23.0
548913,County,2020/06/20,45.0,SC,45065.0,McCormick County,1907.0,7503.0,23378.0,4463.0,4197.0,3276.0,4267.0,4004.0,2396.0,555.0,193.0,0.0,27.0
552100,County,2020/06/21,45.0,SC,45065.0,McCormick County,2228.0,7182.0,22604.0,6240.0,3061.0,2384.0,3786.0,3526.0,2705.0,638.0,222.0,11.0,31.0
553736,County,2020/06/22,45.0,SC,45065.0,McCormick County,1924.0,7486.0,25401.0,5463.0,4308.0,3232.0,3455.0,5371.0,2403.0,883.0,278.0,8.0,0.0
558496,County,2020/06/23,45.0,SC,45065.0,McCormick County,1955.0,7455.0,24731.0,4668.0,5381.0,2950.0,4063.0,4287.0,2832.0,426.0,115.0,9.0,0.0
561689,County,2020/06/24,45.0,SC,45065.0,McCormick County,1852.0,7558.0,22348.0,3887.0,4618.0,3135.0,3775.0,2933.0,2904.0,893.0,186.0,17.0,0.0
563318,County,2020/06/25,45.0,SC,45065.0,McCormick County,1733.0,7677.0,26217.0,4508.0,4001.0,3244.0,5532.0,5172.0,2870.0,635.0,205.0,26.0,24.0
566570,County,2020/06/26,45.0,SC,45065.0,McCormick County,2113.0,7297.0,26060.0,5475.0,5520.0,2545.0,4319.0,4631.0,2252.0,1067.0,223.0,0.0,28.0
569692,County,2020/06/27,45.0,SC,45065.0,McCormick County,2073.0,7337.0,25753.0,5847.0,5619.0,3098.0,4974.0,3529.0,1787.0,762.0,124.0,0.0,13.0
572889,County,2020/06/28,45.0,SC,45065.0,McCormick County,2094.0,7316.0,22716.0,3736.0,6045.0,3026.0,2826.0,4213.0,1910.0,668.0,271.0,21.0,0.0
577667,County,2020/06/29,45.0,SC,45065.0,McCormick County,1729.0,7681.0,27022.0,5984.0,4954.0,4623.0,3913.0,3831.0,2541.0,947.0,191.0,38.0,0.0
580860,County,2020/06/30,45.0,SC,45065.0,McCormick County,1829.0,7581.0,24742.0,4860.0,4421.0,2645.0,4822.0,4689.0,2632.0,525.0,110.0,10.0,28.0
584053,County,2020/07/01,45.0,SC,45065.0,McCormick County,1886.0,7524.0,24748.0,4223.0,4705.0,2499.0,4003.0,5246.0,2734.0,1070.0,195.0,19.0,54.0
587246,County,2020/07/02,45.0,SC,45065.0,McCormick County,2283.0,7127.0,27828.0,4785.0,4247.0,3443.0,5872.0,5490.0,3046.0,674.0,218.0,28.0,25.0
588887,County,2020/07/03,45.0,SC,45065.0,McCormick County,2260.0,7150.0,25914.0,5444.0,5489.0,2531.0,4295.0,4605.0,2239.0,1061.0,222.0,0.0,28.0
593630,County,2020/07/04,45.0,SC,45065.0,McCormick County,2385.0,7025.0,22171.0,4658.0,4696.0,2165.0,3674.0,3940.0,1916.0,908.0,190.0,0.0,24.0
595281,County,2020/07/05,45.0,SC,45065.0,McCormick County,1993.0,7417.0,19957.0,2704.0,4601.0,2498.0,2491.0,4090.0,2175.0,942.0,307.0,56.0,93.0
597932,County,2020/07/06,45.0,SC,45065.0,McCormick County,2107.0,7303.0,23297.0,4117.0,4517.0,2758.0,3918.0,4561.0,2724.0,436.0,185.0,55.0,26.0
602036,County,2020/07/07,45.0,SC,45065.0,McCormick County,2083.0,7327.0,21546.0,3673.0,4827.0,1931.0,3579.0,4215.0,2604.0,437.0,203.0,64.0,13.0
604836,County,2020/07/08,45.0,SC,45065.0,McCormick County,1977.0,7433.0,23877.0,4479.0,4289.0,2923.0,4220.0,4502.0,2505.0,689.0,192.0,78.0,0.0
609608,County,2020/07/09,45.0,SC,45065.0,McCormick County,2043.0,7367.0,25699.0,4991.0,5409.0,2955.0,4978.0,4148.0,2344.0,582.0,236.0,18.0,38.0
611232,County,2020/07/10,45.0,SC,45065.0,McCormick County,1767.0,7643.0,25946.0,4836.0,4635.0,3399.0,4225.0,4799.0,2706.0,933.0,357.0,44.0,12.0
614442,County,2020/07/11,45.0,SC,45065.0,McCormick County,1982.0,7428.0,23487.0,4656.0,3722.0,2892.0,3775.0,5227.0,1744.0,1141.0,276.0,28.0,26.0
617613,County,2020/07/12,45.0,SC,45065.0,McCormick County,2157.0,7253.0,21697.0,3888.0,4576.0,2649.0,3381.0,3753.0,2009.0,1085.0,298.0,43.0,15.0
620803,County,2020/07/13,45.0,SC,45065.0,McCormick County,1941.0,7469.0,24379.0,4624.0,4950.0,2716.0,4422.0,4417.0,2574.0,439.0,170.0,28.0,39.0
625568,County,2020/07/14,45.0,SC,45065.0,McCormick County,1915.0,7495.0,28093.0,6146.0,4955.0,3175.0,4370.0,5417.0,2974.0,846.0,163.0,35.0,12.0
628741,County,2020/07/15,45.0,SC,45065.0,McCormick County,1888.0,7522.0,24343.0,4236.0,4112.0,3248.0,4271.0,5202.0,2445.0,613.0,180.0,36.0,0.0
630366,County,2020/07/16,45.0,SC,45065.0,McCormick County,1957.0,7453.0,26615.0,5282.0,5079.0,2805.0,4428.0,5185.0,2633.0,929.0,216.0,58.0,0.0
633573,County,2020/07/17,45.0,SC,45065.0,McCormick County,1870.0,7540.0,26413.0,4358.0,3978.0,3945.0,4453.0,6504.0,1953.0,1040.0,164.0,18.0,0.0
638353,County,2020/07/18,45.0,SC,45065.0,McCormick County,2092.0,7318.0,22252.0,3417.0,3899.0,3135.0,4430.0,3740.0,2600.0,887.0,144.0,0.0,0.0
639934,County,2020/07/19,45.0,SC,45065.0,McCormick County,2471.0,6939.0,18424.0,3344.0,3211.0,1614.0,3825.0,4077.0,1552.0,609.0,169.0,23.0,0.0
643167,County,2020/07/20,45.0,SC,45065.0,McCormick County,2372.0,7038.0,22203.0,3443.0,4216.0,2717.0,4486.0,3917.0,2972.0,277.0,154.0,21.0,0.0
647213,County,2020/07/21,45.0,SC,45065.0,McCormick County,2042.0,7368.0,23498.0,4736.0,4341.0,3520.0,4338.0,3599.0,2249.0,492.0,188.0,9.0,26.0
651120,County,2020/07/22,45.0,SC,45065.0,McCormick County,2099.0,7311.0,24106.0,4916.0,3953.0,3825.0,4185.0,4235.0,2369.0,481.0,84.0,45.0,13.0
652663,County,2020/07/23,45.0,SC,45065.0,McCormick County,2175.0,7235.0,25547.0,5183.0,4636.0,3533.0,4832.0,4487.0,2260.0,524.0,83.0,9.0,0.0
655786,County,2020/07/24,45.0,SC,45065.0,McCormick County,2292.0,7118.0,26871.0,4566.0,4894.0,2669.0,5546.0,5924.0,2306.0,749.0,196.0,9.0,12.0
659131,County,2020/07/25,45.0,SC,45065.0,McCormick County,2372.0,7038.0,21564.0,4782.0,4620.0,2059.0,3172.0,3588.0,2450.0,697.0,186.0,10.0,0.0
662331,County,2020/07/26,45.0,SC,45065.0,McCormick County,2079.0,7331.0,22744.0,3879.0,4288.0,3268.0,4012.0,5241.0,1195.0,604.0,211.0,19.0,27.0
667111,County,2020/07/27,45.0,SC,45065.0,McCormick County,1900.0,7510.0,25220.0,4293.0,4165.0,3536.0,4836.0,5281.0,2346.0,461.0,250.0,39.0,13.0
668788,County,2020/07/28,45.0,SC,45065.0,McCormick County,2049.0,7361.0,26343.0,4134.0,3924.0,3642.0,5288.0,5364.0,3043.0,814.0,88.0,19.0,27.0
673576,County,2020/07/29,45.0,SC,45065.0,McCormick County,1914.0,7496.0,23934.0,4250.0,3713.0,3143.0,4610.0,4923.0,2403.0,671.0,143.0,10.0,68.0
675107,County,2020/07/30,45.0,SC,45065.0,McCormick County,1912.0,7498.0,28454.0,5234.0,4536.0,3543.0,5814.0,4882.0,3376.0,729.0,254.0,9.0,77.0
678308,County,2020/07/31,45.0,SC,45065.0,McCormick County,2060.0,7350.0,26592.0,4903.0,4709.0,3477.0,4937.0,4130.0,3239.0,707.0,439.0,38.0,13.0
683054,County,2020/08/01,45.0,SC,45065.0,McCormick County,2161.0,7249.0,22809.0,4277.0,5410.0,2535.0,3783.0,3666.0,2090.0,754.0,242.0,22.0,30.0
684688,County,2020/08/02,45.0,SC,45065.0,McCormick County,2470.0,6940.0,19041.0,2826.0,4986.0,2032.0,3449.0,3015.0,1812.0,740.0,147.0,20.0,14.0
687885,County,2020/08/03,45.0,SC,45065.0,McCormick County,2052.0,7358.0,24761.0,3691.0,5212.0,3468.0,4886.0,4248.0,2217.0,809.0,199.0,18.0,13.0
691077,County,2020/08/04,45.0,SC,45065.0,McCormick County,2123.0,7287.0,27102.0,5418.0,4096.0,3095.0,4527.0,5732.0,2995.0,1022.0,186.0,19.0,12.0
695836,County,2020/08/05,45.0,SC,45065.0,McCormick County,1944.0,7466.0,25269.0,3648.0,4482.0,3714.0,4707.0,6010.0,2088.0,570.0,33.0,17.0,0.0
699031,County,2020/08/06,45.0,SC,45065.0,McCormick County,1887.0,7523.0,26209.0,4565.0,3955.0,4051.0,4443.0,5274.0,2999.0,798.0,108.0,16.0,0.0
702227,County,2020/08/07,45.0,SC,45065.0,McCormick County,1938.0,7472.0,25111.0,4217.0,4712.0,3731.0,4875.0,4770.0,2186.0,516.0,65.0,27.0,12.0
705419,County,2020/08/08,45.0,SC,45065.0,McCormick County,2179.0,7231.0,21256.0,2921.0,4475.0,1902.0,4110.0,4943.0,1963.0,798.0,130.0,0.0,14.0
708638,County,2020/08/09,45.0,SC,45065.0,McCormick County,2194.0,7216.0,22281.0,3671.0,5223.0,2421.0,4281.0,3501.0,1801.0,1218.0,154.0,11.0,0.0
710267,County,2020/08/10,45.0,SC,45065.0,McCormick County,1759.0,7651.0,26910.0,4047.0,5113.0,3248.0,5197.0,6022.0,2114.0,1018.0,113.0,26.0,12.0
713484,County,2020/08/11,45.0,SC,45065.0,McCormick County,1842.0,7568.0,29264.0,5044.0,5020.0,3710.0,4469.0,6136.0,3164.0,1450.0,261.0,10.0,0.0
716630,County,2020/08/12,45.0,SC,45065.0,McCormick County,1908.0,7502.0,23952.0,3683.0,4720.0,3083.0,4024.0,4979.0,1966.0,1095.0,254.0,52.0,96.0
719824,County,2020/08/13,45.0,SC,45065.0,McCormick County,2009.0,7401.0,25707.0,4459.0,4644.0,3095.0,4967.0,5214.0,2301.0,700.0,227.0,26.0,74.0
723016,County,2020/08/14,45.0,SC,45065.0,McCormick County,1807.0,7603.0,23512.0,4051.0,3914.0,2997.0,3803.0,5004.0,1989.0,1419.0,200.0,42.0,93.0
726247,County,2020/08/15,45.0,SC,45065.0,McCormick County,1983.0,7427.0,24917.0,4025.0,3987.0,2337.0,4566.0,5124.0,3456.0,1058.0,246.0,38.0,80.0
729406,County,2020/08/16,45.0,SC,45065.0,McCormick County,2207.0,7203.0,24073.0,4191.0,5456.0,2479.0,4450.0,3770.0,2519.0,877.0,285.0,0.0,46.0
732600,County,2020/08/17,45.0,SC,45065.0,McCormick County,2292.0,7118.0,26128.0,4128.0,4968.0,2626.0,5211.0,5711.0,2460.0,758.0,203.0,33.0,30.0
737358,County,2020/08/18,45.0,SC,45065.0,McCormick County,2099.0,7311.0,25372.0,4258.0,3559.0,3018.0,5503.0,5801.0,2165.0,738.0,235.0,47.0,48.0
740553,County,2020/08/19,45.0,SC,45065.0,McCormick County,1906.0,7504.0,27144.0,4363.0,4683.0,4807.0,4648.0,5111.0,2127.0,1045.0,248.0,11.0,101.0
742182,County,2020/08/20,45.0,SC,45065.0,McCormick County,1935.0,7475.0,26550.0,3778.0,5040.0,3816.0,5661.0,4620.0,2234.0,847.0,393.0,42.0,119.0
746957,County,2020/08/21,45.0,SC,45065.0,McCormick County,1721.0,7689.0,28480.0,3977.0,5198.0,4262.0,4611.0,6691.0,2828.0,545.0,228.0,11.0,129.0
748586,County,2020/08/22,45.0,SC,45065.0,McCormick County,2055.0,7355.0,24141.0,3988.0,4983.0,1884.0,5389.0,4489.0,2274.0,776.0,203.0,36.0,119.0
751780,County,2020/08/23,45.0,SC,45065.0,McCormick County,2455.0,6955.0,20335.0,2591.0,3662.0,3641.0,3515.0,3474.0,2226.0,915.0,150.0,61.0,100.0
756523,County,2020/08/24,45.0,SC,45065.0,McCormick County,2383.0,7027.0,23079.0,3197.0,4259.0,2750.0,4897.0,4608.0,2206.0,917.0,168.0,27.0,50.0
758152,County,2020/08/25,45.0,SC,45065.0,McCormick County,2123.0,7287.0,22418.0,4010.0,4122.0,2545.0,4801.0,4541.0,1728.0,447.0,140.0,25.0,59.0
762874,County,2020/08/26,45.0,SC,45065.0,McCormick County,2097.0,7313.0,22419.0,3022.0,3703.0,3439.0,4092.0,5127.0,2204.0,616.0,153.0,17.0,46.0
764503,County,2020/08/27,45.0,SC,45065.0,McCormick County,2010.0,7400.0,25292.0,3966.0,4888.0,3674.0,4896.0,4443.0,2738.0,555.0,104.0,16.0,12.0
767709,County,2020/08/28,45.0,SC,45065.0,McCormick County,2185.0,7225.0,27111.0,5458.0,4652.0,4052.0,3974.0,5400.0,2404.0,927.0,161.0,70.0,13.0
772486,County,2020/08/29,45.0,SC,45065.0,McCormick County,2379.0,7031.0,23582.0,3398.0,4530.0,3826.0,4080.0,4593.0,2394.0,599.0,151.0,11.0,0.0
775689,County,2020/08/30,45.0,SC,45065.0,McCormick County,2639.0,6771.0,20980.0,2908.0,3606.0,2843.0,3407.0,5168.0,1832.0,981.0,192.0,11.0,32.0
778887,County,2020/08/31,45.0,SC,45065.0,McCormick County,2279.0,7131.0,23751.0,3156.0,4070.0,4420.0,4470.0,4330.0,2245.0,730.0,218.0,30.0,82.0
782077,County,2020/09/01,45.0,SC,45065.0,McCormick County,2046.0,7364.0,24883.0,3030.0,4643.0,3412.0,5760.0,4966.0,2012.0,906.0,133.0,9.0,12.0
784526,County,2020/09/02,45.0,SC,45065.0,McCormick County,2256.0,7154.0,24053.0,2718.0,4413.0,3933.0,5131.0,4950.0,1890.0,767.0,195.0,29.0,27.0
786833,County,2020/09/03,45.0,SC,45065.0,McCormick County,2216.0,7194.0,25614.0,3812.0,4020.0,4365.0,4726.0,5743.0,2172.0,412.0,304.0,19.0,41.0
791665,County,2020/09/04,45.0,SC,45065.0,McCormick County,2196.0,7214.0,22659.0,2793.0,3269.0,3788.0,4270.0,4512.0,2879.0,780.0,271.0,69.0,28.0
794859,County,2020/09/05,45.0,SC,45065.0,McCormick County,2356.0,7054.0,24893.0,3975.0,4862.0,2774.0,5391.0,4714.0,2325.0,716.0,115.0,21.0,0.0
796458,County,2020/09/06,45.0,SC,45065.0,McCormick County,2570.0,6840.0,23665.0,3993.0,5359.0,3274.0,4227.0,3828.0,2292.0,343.0,286.0,26.0,37.0
799671,County,2020/09/07,45.0,SC,45065.0,McCormick County,2622.0,6788.0,20779.0,2755.0,3803.0,3037.0,2936.0,4736.0,2198.0,973.0,314.0,27.0,0.0
804433,County,2020/09/08,45.0,SC,45065.0,McCormick County,2198.0,7212.0,26108.0,3543.0,4044.0,3477.0,5426.0,5006.0,3816.0,454.0,299.0,29.0,14.0
806062,County,2020/09/09,45.0,SC,45065.0,McCormick County,2343.0,7067.0,25222.0,4091.0,4657.0,2942.0,4206.0,5318.0,3238.0,605.0,122.0,29.0,14.0
810830,County,2020/09/10,45.0,SC,45065.0,McCormick County,2083.0,7327.0,24690.0,3500.0,3734.0,2850.0,5718.0,5276.0,2523.0,813.0,233.0,18.0,25.0
814015,County,2020/09/11,45.0,SC,45065.0,McCormick County,1995.0,7415.0,25051.0,4539.0,3999.0,2800.0,4424.0,5180.0,3013.0,704.0,343.0,36.0,13.0
817209,County,2020/09/12,45.0,SC,45065.0,McCormick County,2359.0,7051.0,23631.0,2742.0,4830.0,2757.0,5357.0,4616.0,2406.0,711.0,152.0,31.0,29.0
818816,County,2020/09/13,45.0,SC,45065.0,McCormick County,2535.0,6875.0,20416.0,1610.0,4037.0,2902.0,3486.0,4071.0,3237.0,795.0,226.0,14.0,38.0
823598,County,2020/09/14,45.0,SC,45065.0,McCormick County,2416.0,6994.0,25607.0,3767.0,4094.0,4356.0,4389.0,4863.0,3245.0,749.0,100.0,44.0,0.0
825226,County,2020/09/15,45.0,SC,45065.0,McCormick County,2260.0,7150.0,23639.0,2721.0,3885.0,3698.0,4230.0,6106.0,2357.0,438.0,152.0,52.0,0.0
829985,County,2020/09/16,45.0,SC,45065.0,McCormick County,2255.0,7155.0,23849.0,2591.0,4365.0,3408.0,4946.0,5337.0,2400.0,630.0,128.0,30.0,14.0
831612,County,2020/09/17,45.0,SC,45065.0,McCormick County,2380.0,7030.0,21485.0,2521.0,3792.0,3096.0,4164.0,4274.0,2465.0,876.0,244.0,22.0,31.0
836373,County,2020/09/18,45.0,SC,45065.0,McCormick County,2345.0,7065.0,24930.0,1787.0,4390.0,3505.0,5956.0,5516.0,2960.0,662.0,126.0,12.0,16.0
838002,County,2020/09/19,45.0,SC,45065.0,McCormick County,2489.0,6921.0,25337.0,3244.0,4843.0,3428.0,4968.0,5674.0,2624.0,331.0,208.0,0.0,17.0
841195,County,2020/09/20,45.0,SC,45065.0,McCormick County,2631.0,6779.0,18485.0,2875.0,3503.0,1297.0,3616.0,4068.0,1974.0,921.0,220.0,11.0,0.0
845982,County,2020/09/21,45.0,SC,45065.0,McCormick County,2446.0,6964.0,19742.0,2702.0,3435.0,3327.0,3668.0,4344.0,1540.0,584.0,142.0,0.0,0.0
849149,County,2020/09/22,45.0,SC,45065.0,McCormick County,2292.0,7118.0,22617.0,2893.0,3784.0,3596.0,4097.0,4556.0,2883.0,678.0,98.0,32.0,0.0
850777,County,2020/09/23,45.0,SC,45065.0,McCormick County,2307.0,7103.0,22356.0,2556.0,4164.0,3391.0,3929.0,5090.0,2531.0,480.0,185.0,30.0,0.0
855543,County,2020/09/24,45.0,SC,45065.0,McCormick County,2088.0,7322.0,23164.0,3563.0,3626.0,4474.0,4079.0,4371.0,2008.0,794.0,173.0,37.0,39.0
858731,County,2020/09/25,45.0,SC,45065.0,McCormick County,1972.0,7438.0,22165.0,2531.0,4480.0,3223.0,3777.0,4985.0,2662.0,298.0,190.0,19.0,0.0
861926,County,2020/09/26,45.0,SC,45065.0,McCormick County,2524.0,6886.0,21838.0,2523.0,4330.0,3910.0,3868.0,3737.0,2429.0,628.0,306.0,24.0,83.0
863530,County,2020/09/27,45.0,SC,45065.0,McCormick County,2774.0,6636.0,19771.0,2609.0,3865.0,2481.0,4119.0,3233.0,2175.0,869.0,395.0,25.0,0.0
868313,County,2020/09/28,45.0,SC,45065.0,McCormick County,2319.0,7091.0,22755.0,4231.0,3699.0,2379.0,4405.0,4313.0,3058.0,561.0,98.0,11.0,0.0
869941,County,2020/09/29,45.0,SC,45065.0,McCormick County,2251.0,7159.0,22539.0,2514.0,4573.0,2861.0,3835.0,4567.0,3573.0,445.0,148.0,23.0,0.0
873135,County,2020/09/30,45.0,SC,45065.0,McCormick County,2195.0,7215.0,23574.0,3696.0,3188.0,2809.0,4592.0,4442.0,3920.0,804.0,104.0,8.0,11.0
877874,County,2020/10/01,45.0,SC,45065.0,McCormick County,1916.0,7494.0,24986.0,3950.0,4087.0,2711.0,4867.0,6148.0,2397.0,620.0,184.0,15.0,7.0
881089,County,2020/10/02,45.0,SC,45065.0,McCormick County,2032.0,7378.0,24809.0,3224.0,3968.0,4785.0,5392.0,4229.0,2557.0,552.0,77.0,20.0,5.0
884284,County,2020/10/03,45.0,SC,45065.0,McCormick County,2386.0,7024.0,21788.0,3893.0,4155.0,2046.0,3732.0,3830.0,3248.0,739.0,115.0,24.0,6.0
887060,County,2020/10/04,45.0,SC,45065.0,McCormick County,2409.0,7001.0,18720.0,2615.0,2800.0,2524.0,3270.0,4088.0,1983.0,1172.0,192.0,28.0,48.0
890247,County,2020/10/05,45.0,SC,45065.0,McCormick County,2195.0,7215.0,23596.0,3035.0,3939.0,3995.0,4571.0,4595.0,2242.0,980.0,223.0,6.0,10.0
893566,County,2020/10/06,45.0,SC,45065.0,McCormick County,2249.0,7161.0,24065.0,3732.0,3585.0,3211.0,4512.0,4891.0,2712.0,1210.0,196.0,16.0,0.0
896669,County,2020/10/07,45.0,SC,45065.0,McCormick County,2310.0,7100.0,22963.0,3729.0,3775.0,4781.0,4153.0,3188.0,2475.0,679.0,179.0,0.0,4.0
899849,County,2020/10/08,45.0,SC,45065.0,McCormick County,2322.0,7088.0,23666.0,4631.0,4512.0,3073.0,3589.0,4886.0,2024.0,795.0,133.0,23.0,0.0
903039,County,2020/10/09,45.0,SC,45065.0,McCormick County,2057.0,7353.0,23063.0,3517.0,4118.0,4021.0,4417.0,3786.0,2321.0,592.0,258.0,33.0,0.0
906339,County,2020/10/10,45.0,SC,45065.0,McCormick County,2204.0,7206.0,19406.0,2577.0,3473.0,2195.0,4106.0,3593.0,2329.0,870.0,257.0,6.0,0.0
908076,County,2020/10/11,45.0,SC,45065.0,McCormick County,2458.0,6952.0,17325.0,2427.0,3267.0,2621.0,2836.0,3137.0,2206.0,633.0,195.0,0.0,3.0
911396,County,2020/10/12,45.0,SC,45065.0,McCormick County,2360.0,7050.0,20150.0,2993.0,3932.0,3526.0,2743.0,3273.0,2624.0,850.0,181.0,22.0,6.0
914215,County,2020/10/13,45.0,SC,45065.0,McCormick County,1979.0,7431.0,22456.0,2260.0,3759.0,3543.0,4517.0,4449.0,2799.0,844.0,245.0,38.0,2.0
917855,County,2020/10/14,45.0,SC,45065.0,McCormick County,2170.0,7240.0,23087.0,2932.0,4369.0,3761.0,4403.0,4506.0,2030.0,962.0,106.0,15.0,3.0
920740,County,2020/10/15,45.0,SC,45065.0,McCormick County,2151.0,7259.0,20883.0,2545.0,4154.0,3350.0,3821.0,3983.0,2013.0,735.0,247.0,27.0,8.0
923953,County,2020/10/16,45.0,SC,45065.0,McCormick County,2082.0,7328.0,22701.0,2575.0,4442.0,3605.0,3901.0,4832.0,2531.0,553.0,210.0,41.0,11.0
926649,County,2020/10/17,45.0,SC,45065.0,McCormick County,2372.0,7038.0,20035.0,2041.0,2963.0,2398.0,4848.0,4818.0,1787.0,826.0,332.0,19.0,3.0
930271,County,2020/10/18,45.0,SC,45065.0,McCormick County,2450.0,6960.0,16325.0,1829.0,3057.0,2304.0,3154.0,3418.0,1452.0,917.0,171.0,13.0,10.0
932896,County,2020/10/19,45.0,SC,45065.0,McCormick County,2445.0,6965.0,20912.0,3307.0,3698.0,2947.0,3986.0,4098.0,1928.0,754.0,164.0,0.0,30.0
936974,County,2020/10/20,45.0,SC,45065.0,McCormick County,2470.0,6940.0,20946.0,3728.0,4175.0,2212.0,3682.0,3872.0,2338.0,718.0,205.0,6.0,10.0
939769,County,2020/10/21,45.0,SC,45065.0,McCormick County,2477.0,6933.0,21677.0,2516.0,4349.0,3054.0,4956.0,3574.0,2855.0,201.0,140.0,28.0,4.0
943449,County,2020/10/22,45.0,SC,45065.0,McCormick County,2230.0,7180.0,22378.0,3586.0,3615.0,3172.0,4464.0,4647.0,1974.0,772.0,124.0,24.0,0.0
946248,County,2020/10/23,45.0,SC,45065.0,McCormick County,2324.0,7086.0,26503.0,4364.0,5401.0,3386.0,4507.0,4991.0,3165.0,557.0,81.0,51.0,0.0
949700,County,2020/10/24,45.0,SC,45065.0,McCormick County,2484.0,6926.0,24408.0,3542.0,6481.0,3346.0,3880.0,3830.0,2253.0,807.0,269.0,0.0,0.0
