,Level,Date,State FIPS,State Postal Code,County FIPS,County Name,Population Staying at Home,Population Not Staying at Home,Number of Trips,Number of Trips <1,Number of Trips 1-3,Number of Trips 3-5,Number of Trips 5-10,Number of Trips 10-25,Number of Trips 25-50,Number of Trips 50-100,Number of Trips 100-250,Number of Trips 250-500,Number of Trips >=500
2848,County,2020/01/01,51.0,VA,51059.0,Fairfax County,295243.0,855552.0,3072398.0,799696.0,734238.0,374050.0,491019.0,493217.0,109175.0,36493.0,22946.0,7061.0,4503.0
4178,County,2020/01/02,51.0,VA,51059.0,Fairfax County,243528.0,907267.0,3725160.0,960373.0,861731.0,451055.0,609198.0,670108.0,116791.0,30394.0,17561.0,4651.0,3298.0
6804,County,2020/01/03,51.0,VA,51059.0,Fairfax County,244529.0,906266.0,3795318.0,969774.0,882720.0,469959.0,646355.0,650929.0,116685.0,30855.0,18406.0,5891.0,3744.0
11266,County,2020/01/04,51.0,VA,51059.0,Fairfax County,266797.0,883998.0,3645275.0,918338.0,912757.0,461378.0,604601.0,569406.0,112135.0,34674.0,22031.0,5703.0,4252.0
15623,County,2020/01/05,51.0,VA,51059.0,Fairfax County,280449.0,870346.0,3314157.0,816485.0,835640.0,437359.0,553045.0,503894.0,102757.0,33474.0,19883.0,6332.0,5288.0
18964,County,2020/01/06,51.0,VA,51059.0,Fairfax County,248459.0,902336.0,3654788.0,942259.0,854978.0,431661.0,598419.0,681229.0,107552.0,22562.0,8916.0,3189.0,4023.0
22158,County,2020/01/07,51.0,VA,51059.0,Fairfax County,252796.0,897999.0,3572895.0,929836.0,844593.0,421152.0,569352.0,663852.0,109433.0,20746.0,7722.0,2895.0,3314.0
25352,County,2020/01/08,51.0,VA,51059.0,Fairfax County,249480.0,901315.0,3660868.0,921638.0,855519.0,433988.0,600674.0,696319.0,114524.0,23561.0,8213.0,3298.0,3134.0
26979,County,2020/01/09,51.0,VA,51059.0,Fairfax County,234300.0,916495.0,3869321.0,991754.0,912410.0,449166.0,640692.0,711545.0,123821.0,22823.0,10906.0,2555.0,3649.0
30175,County,2020/01/10,51.0,VA,51059.0,Fairfax County,230454.0,920341.0,4077284.0,1034289.0,973982.0,496768.0,672430.0,729774.0,119810.0,29182.0,13994.0,3633.0,3422.0
34935,County,2020/01/11,51.0,VA,51059.0,Fairfax County,247672.0,903123.0,3965030.0,1014802.0,970069.0,497648.0,660816.0,635329.0,124217.0,37139.0,18319.0,3796.0,2895.0
36573,County,2020/01/12,51.0,VA,51059.0,Fairfax County,268469.0,882326.0,3702823.0,998878.0,922635.0,459844.0,599699.0,549938.0,113202.0,32534.0,17754.0,4275.0,4064.0
39814,County,2020/01/13,51.0,VA,51059.0,Fairfax County,239840.0,910955.0,3791114.0,1004619.0,885193.0,446777.0,604711.0,691228.0,117892.0,23991.0,9943.0,3521.0,3239.0
42978,County,2020/01/14,51.0,VA,51059.0,Fairfax County,234027.0,916768.0,3840367.0,983075.0,899573.0,463427.0,626294.0,716787.0,117553.0,21011.0,7447.0,2866.0,2334.0
46129,County,2020/01/15,51.0,VA,51059.0,Fairfax County,231643.0,919152.0,3996417.0,1077644.0,927414.0,467445.0,645602.0,716821.0,121697.0,24630.0,9800.0,2606.0,2758.0
49234,County,2020/01/16,51.0,VA,51059.0,Fairfax County,230214.0,920581.0,3963177.0,1024604.0,914992.0,469509.0,642599.0,732143.0,129678.0,29370.0,12119.0,3597.0,4566.0
54148,County,2020/01/17,51.0,VA,51059.0,Fairfax County,227590.0,923205.0,4336862.0,1277373.0,1010840.0,492815.0,673286.0,704347.0,120202.0,32220.0,16533.0,4967.0,4279.0
55722,County,2020/01/18,51.0,VA,51059.0,Fairfax County,278738.0,872057.0,3619383.0,918856.0,933256.0,462209.0,590608.0,553929.0,105004.0,30606.0,16423.0,4574.0,3918.0
58919,County,2020/01/19,51.0,VA,51059.0,Fairfax County,270527.0,880268.0,3622466.0,928497.0,899347.0,448062.0,623600.0,551494.0,110085.0,34061.0,18905.0,4263.0,4152.0
63680,County,2020/01/20,51.0,VA,51059.0,Fairfax County,265026.0,885769.0,3609999.0,909658.0,883216.0,437630.0,622407.0,578431.0,112108.0,35576.0,21039.0,5182.0,4752.0
65308,County,2020/01/21,51.0,VA,51059.0,Fairfax County,236385.0,914410.0,3792688.0,1004844.0,865378.0,442355.0,614931.0,703315.0,120312.0,23549.0,10434.0,3582.0,3988.0
70068,County,2020/01/22,51.0,VA,51059.0,Fairfax County,226154.0,924641.0,3923189.0,999221.0,921349.0,465325.0,650573.0,727989.0,119110.0,24309.0,9190.0,3211.0,2912.0
71695,County,2020/01/23,51.0,VA,51059.0,Fairfax County,234614.0,916181.0,3851838.0,978486.0,907830.0,454523.0,627685.0,723702.0,115397.0,27009.0,9860.0,3808.0,3538.0
76456,County,2020/01/24,51.0,VA,51059.0,Fairfax County,231196.0,919599.0,4119877.0,1098476.0,956366.0,485542.0,662915.0,735321.0,123737.0,32508.0,16034.0,4591.0,4387.0
79643,County,2020/01/25,51.0,VA,51059.0,Fairfax County,253163.0,897632.0,3890868.0,969990.0,980558.0,504186.0,639251.0,618370.0,119840.0,33234.0,17721.0,3415.0,4303.0
82697,County,2020/01/26,51.0,VA,51059.0,Fairfax County,262391.0,888404.0,3655646.0,960715.0,941793.0,463166.0,582180.0,543361.0,101833.0,34474.0,19603.0,4464.0,4057.0
86006,County,2020/01/27,51.0,VA,51059.0,Fairfax County,236277.0,914518.0,3727353.0,974070.0,844428.0,447945.0,600261.0,691378.0,118680.0,29165.0,13470.0,4042.0,3914.0
87728,County,2020/01/28,51.0,VA,51059.0,Fairfax County,236492.0,914303.0,3778784.0,942611.0,876864.0,443036.0,633507.0,721787.0,117824.0,26027.0,10063.0,3563.0,3502.0
90834,County,2020/01/29,51.0,VA,51059.0,Fairfax County,233558.0,917237.0,3846251.0,972696.0,896259.0,455720.0,635223.0,724301.0,120439.0,25977.0,9141.0,3128.0,3367.0
94187,County,2020/01/30,51.0,VA,51059.0,Fairfax County,231684.0,919111.0,3761132.0,971015.0,867706.0,444243.0,600366.0,692782.0,126740.0,29596.0,15070.0,5224.0,8390.0
97194,County,2020/01/31,51.0,VA,51059.0,Fairfax County,226720.0,924075.0,3955518.0,1026792.0,936704.0,479354.0,634810.0,683745.0,125911.0,32390.0,19712.0,5650.0,10450.0
102001,County,2020/02/01,51.0,VA,51059.0,Fairfax County,248653.0,902142.0,3972108.0,1044263.0,968796.0,512723.0,644170.0,604058.0,128727.0,34981.0,19508.0,5263.0,9619.0
105202,County,2020/02/02,51.0,VA,51059.0,Fairfax County,271929.0,878866.0,3606767.0,981975.0,895688.0,458406.0,566844.0,530735.0,107353.0,30781.0,18756.0,6387.0,9842.0
106828,County,2020/02/03,51.0,VA,51059.0,Fairfax County,234131.0,916664.0,3933129.0,1128540.0,895084.0,456734.0,609180.0,667378.0,119583.0,26275.0,14980.0,5158.0,10217.0
111590,County,2020/02/04,51.0,VA,51059.0,Fairfax County,226841.0,923954.0,3946244.0,1076250.0,908549.0,463380.0,619787.0,705417.0,120947.0,26445.0,12347.0,4436.0,8686.0
113169,County,2020/02/05,51.0,VA,51059.0,Fairfax County,232247.0,918548.0,3944256.0,1077931.0,910531.0,460542.0,618997.0,699869.0,121467.0,26828.0,13833.0,4387.0,9871.0
117951,County,2020/02/06,51.0,VA,51059.0,Fairfax County,229084.0,921711.0,3780140.0,1017237.0,883012.0,437277.0,593760.0,679447.0,112021.0,28674.0,14677.0,4315.0,9720.0
119578,County,2020/02/07,51.0,VA,51059.0,Fairfax County,222035.0,928760.0,4079940.0,1113470.0,980520.0,480392.0,650451.0,674515.0,117738.0,31402.0,17050.0,4486.0,9916.0
124366,County,2020/02/08,51.0,VA,51059.0,Fairfax County,253477.0,897318.0,3954886.0,1042972.0,965385.0,509061.0,650308.0,599665.0,121016.0,36535.0,17382.0,4216.0,8346.0
126863,County,2020/02/09,51.0,VA,51059.0,Fairfax County,280801.0,869994.0,3204211.0,824333.0,815909.0,423207.0,528045.0,458861.0,85985.0,29822.0,23242.0,6295.0,8512.0
128013,County,2020/02/10,51.0,VA,51059.0,Fairfax County,230398.0,920397.0,3594006.0,911597.0,842947.0,436700.0,602736.0,640532.0,103044.0,24595.0,15663.0,6165.0,10027.0
132872,County,2020/02/11,51.0,VA,51059.0,Fairfax County,213571.0,937224.0,3633324.0,924404.0,875252.0,440738.0,588827.0,648460.0,101443.0,23608.0,15130.0,5785.0,9677.0
134475,County,2020/02/12,51.0,VA,51059.0,Fairfax County,210303.0,940492.0,3813071.0,976049.0,913923.0,465610.0,632818.0,659465.0,104483.0,26332.0,17100.0,6392.0,10899.0
138806,County,2020/02/13,51.0,VA,51059.0,Fairfax County,207293.0,943502.0,3711196.0,937172.0,895126.0,454835.0,619736.0,630771.0,107918.0,26884.0,20363.0,6665.0,11726.0
141865,County,2020/02/14,51.0,VA,51059.0,Fairfax County,202271.0,948524.0,3994519.0,1023713.0,964150.0,507515.0,657655.0,649140.0,108821.0,32872.0,29314.0,8831.0,12508.0
145162,County,2020/02/15,51.0,VA,51059.0,Fairfax County,227592.0,923203.0,3814493.0,950619.0,934804.0,495087.0,640300.0,589231.0,117367.0,38920.0,29793.0,8499.0,9873.0
148350,County,2020/02/16,51.0,VA,51059.0,Fairfax County,248985.0,901810.0,3544594.0,897894.0,862953.0,477358.0,605921.0,509187.0,106073.0,37153.0,30119.0,8725.0,9211.0
153112,County,2020/02/17,51.0,VA,51059.0,Fairfax County,297389.0,853406.0,3156887.0,824094.0,754040.0,405578.0,539730.0,467766.0,92944.0,32704.0,25039.0,6574.0,8418.0
154689,County,2020/02/18,51.0,VA,51059.0,Fairfax County,218735.0,932060.0,3703417.0,951475.0,863869.0,448903.0,605772.0,655022.0,110655.0,30010.0,19426.0,6926.0,11359.0
157934,County,2020/02/19,51.0,VA,51059.0,Fairfax County,220292.0,930503.0,3757002.0,972464.0,859948.0,446900.0,631529.0,669705.0,115250.0,29120.0,16361.0,5813.0,9912.0
160995,County,2020/02/20,51.0,VA,51059.0,Fairfax County,228596.0,922199.0,3662170.0,951526.0,841364.0,437973.0,597038.0,660405.0,116083.0,27575.0,15803.0,4720.0,9683.0
165888,County,2020/02/21,51.0,VA,51059.0,Fairfax County,221140.0,929655.0,3827249.0,996684.0,886560.0,472260.0,616355.0,656275.0,124357.0,35074.0,22813.0,5700.0,11171.0
167467,County,2020/02/22,51.0,VA,51059.0,Fairfax County,239380.0,911415.0,4019572.0,1084479.0,961958.0,506648.0,655471.0,605221.0,126256.0,39476.0,23923.0,5932.0,10208.0
170696,County,2020/02/23,51.0,VA,51059.0,Fairfax County,258038.0,892757.0,3517443.0,917693.0,872016.0,462238.0,573788.0,522643.0,100394.0,35361.0,22393.0,4930.0,5987.0
175476,County,2020/02/24,51.0,VA,51059.0,Fairfax County,215192.0,935603.0,3683639.0,955707.0,883830.0,455497.0,604408.0,638465.0,98519.0,20553.0,13015.0,7254.0,6391.0
178518,County,2020/02/25,51.0,VA,51059.0,Fairfax County,207054.0,943741.0,3814733.0,980431.0,906143.0,471391.0,618886.0,685062.0,107203.0,21487.0,12475.0,5491.0,6164.0
181711,County,2020/02/26,51.0,VA,51059.0,Fairfax County,216809.0,933986.0,4656225.0,1267016.0,1146675.0,568570.0,764054.0,746447.0,118323.0,25334.0,11780.0,3930.0,4096.0
182883,County,2020/02/27,51.0,VA,51059.0,Fairfax County,206674.0,944121.0,3709215.0,959056.0,881911.0,444266.0,609028.0,676042.0,100169.0,21112.0,10352.0,2643.0,4636.0
188246,County,2020/02/28,51.0,VA,51059.0,Fairfax County,207287.0,943508.0,3861172.0,995304.0,957085.0,484758.0,630107.0,643382.0,100761.0,26716.0,14890.0,3402.0,4767.0
191440,County,2020/02/29,51.0,VA,51059.0,Fairfax County,220698.0,930097.0,3861338.0,953034.0,961480.0,531866.0,655948.0,588673.0,110719.0,34664.0,17123.0,3579.0,4252.0
193065,County,2020/03/01,51.0,VA,51059.0,Fairfax County,257246.0,893549.0,3733342.0,1009607.0,921498.0,495501.0,601061.0,539031.0,100336.0,32436.0,23325.0,5122.0,5425.0
196287,County,2020/03/02,51.0,VA,51059.0,Fairfax County,228225.0,922570.0,4148522.0,1153606.0,964591.0,496418.0,658025.0,710723.0,117084.0,26388.0,12392.0,2881.0,6414.0
201139,County,2020/03/03,51.0,VA,51059.0,Fairfax County,216004.0,934791.0,4393525.0,1258973.0,1005729.0,491656.0,694149.0,764031.0,133242.0,23718.0,13271.0,3959.0,4797.0
201773,County,2020/03/04,51.0,VA,51059.0,Fairfax County,219453.0,931342.0,4474556.0,1301289.0,999623.0,508261.0,694509.0,790623.0,131429.0,28948.0,12262.0,3634.0,3978.0
205793,County,2020/03/05,51.0,VA,51059.0,Fairfax County,204155.0,946640.0,4296559.0,1188036.0,970573.0,489554.0,677906.0,784082.0,133243.0,29621.0,14510.0,4664.0,4370.0
208912,County,2020/03/06,51.0,VA,51059.0,Fairfax County,214677.0,936118.0,4437259.0,1220212.0,1032434.0,529236.0,689702.0,761687.0,142759.0,33329.0,18528.0,4881.0,4491.0
213875,County,2020/03/07,51.0,VA,51059.0,Fairfax County,231678.0,919117.0,4500620.0,1215514.0,1095967.0,563382.0,736876.0,678184.0,137923.0,40668.0,22337.0,4663.0,5106.0
215429,County,2020/03/08,51.0,VA,51059.0,Fairfax County,258008.0,892787.0,3919014.0,1110749.0,945396.0,483588.0,626280.0,570821.0,111421.0,36099.0,23509.0,5948.0,5203.0
220186,County,2020/03/09,51.0,VA,51059.0,Fairfax County,240208.0,910587.0,4226006.0,1232988.0,965687.0,504368.0,659898.0,693830.0,118634.0,26821.0,13935.0,4838.0,5007.0
223379,County,2020/03/10,51.0,VA,51059.0,Fairfax County,234451.0,916344.0,4095667.0,1142620.0,941523.0,477685.0,652948.0,704624.0,124801.0,28233.0,14191.0,4346.0,4696.0
225054,County,2020/03/11,51.0,VA,51059.0,Fairfax County,210209.0,940586.0,4644793.0,1387385.0,1061800.0,505305.0,751297.0,741873.0,127887.0,34191.0,18555.0,7309.0,9191.0
229701,County,2020/03/12,51.0,VA,51059.0,Fairfax County,219934.0,930861.0,4835512.0,1581274.0,1025263.0,528795.0,724778.0,766560.0,128655.0,45019.0,19719.0,7425.0,8024.0
231398,County,2020/03/13,51.0,VA,51059.0,Fairfax County,216935.0,933860.0,4907767.0,1585094.0,1107113.0,553268.0,725443.0,729200.0,132831.0,42307.0,17159.0,7309.0,8043.0
234450,County,2020/03/14,51.0,VA,51059.0,Fairfax County,263832.0,886963.0,4477149.0,1474901.0,1053431.0,509486.0,655595.0,581488.0,131310.0,33408.0,19303.0,7721.0,10506.0
239350,County,2020/03/15,51.0,VA,51059.0,Fairfax County,333626.0,817169.0,3380912.0,981216.0,864334.0,417157.0,504674.0,447774.0,95897.0,36686.0,22985.0,5937.0,4252.0
242543,County,2020/03/16,51.0,VA,51059.0,Fairfax County,303631.0,847164.0,3685634.0,1019168.0,875447.0,442635.0,594587.0,589570.0,108558.0,30630.0,14906.0,4973.0,5160.0
244208,County,2020/03/17,51.0,VA,51059.0,Fairfax County,337638.0,813157.0,3495027.0,997696.0,818027.0,425971.0,543250.0,556018.0,106074.0,26478.0,12255.0,4408.0,4850.0
248892,County,2020/03/18,51.0,VA,51059.0,Fairfax County,365033.0,785762.0,3465307.0,1027475.0,810285.0,398099.0,524613.0,541132.0,112252.0,30955.0,12288.0,4351.0,3857.0
250570,County,2020/03/19,51.0,VA,51059.0,Fairfax County,369265.0,781530.0,3409570.0,1012294.0,820375.0,390101.0,503975.0,532554.0,98306.0,29806.0,13561.0,4642.0,3956.0
255320,County,2020/03/20,51.0,VA,51059.0,Fairfax County,361698.0,789097.0,3453582.0,1047787.0,834689.0,398621.0,497573.0,510640.0,102677.0,36981.0,14905.0,4634.0,5075.0
256898,County,2020/03/21,51.0,VA,51059.0,Fairfax County,389328.0,761467.0,3146809.0,933065.0,813363.0,372245.0,472326.0,405407.0,92954.0,32955.0,15275.0,4568.0,4651.0
261702,County,2020/03/22,51.0,VA,51059.0,Fairfax County,375455.0,775340.0,2708481.0,863064.0,682081.0,325010.0,376193.0,335369.0,74679.0,31718.0,13294.0,3732.0,3341.0
263337,County,2020/03/23,51.0,VA,51059.0,Fairfax County,362605.0,788190.0,2716876.0,772049.0,635521.0,333890.0,408874.0,431953.0,91219.0,25733.0,10398.0,3827.0,3412.0
268093,County,2020/03/24,51.0,VA,51059.0,Fairfax County,364775.0,786020.0,2812021.0,849237.0,659985.0,304548.0,432845.0,431624.0,91548.0,23463.0,11224.0,3999.0,3548.0
271290,County,2020/03/25,51.0,VA,51059.0,Fairfax County,374015.0,776780.0,2670977.0,795172.0,626581.0,306111.0,403235.0,411651.0,84333.0,24602.0,11382.0,3029.0,4881.0
272916,County,2020/03/26,51.0,VA,51059.0,Fairfax County,366900.0,783895.0,2840153.0,852328.0,679268.0,320032.0,417743.0,436227.0,93483.0,24205.0,10178.0,3528.0,3161.0
276104,County,2020/03/27,51.0,VA,51059.0,Fairfax County,357306.0,793489.0,2852818.0,841452.0,691669.0,345779.0,425447.0,418529.0,89284.0,22194.0,11897.0,3223.0,3344.0
280865,County,2020/03/28,51.0,VA,51059.0,Fairfax County,375688.0,775107.0,2631496.0,793494.0,690829.0,313549.0,381609.0,335017.0,71372.0,24923.0,12703.0,4188.0,3812.0
282500,County,2020/03/29,51.0,VA,51059.0,Fairfax County,384825.0,765970.0,2488748.0,764850.0,652441.0,303523.0,358360.0,299841.0,64960.0,21295.0,14078.0,5825.0,3575.0
287291,County,2020/03/30,51.0,VA,51059.0,Fairfax County,355155.0,795640.0,2749648.0,803721.0,663318.0,340903.0,412835.0,398835.0,87880.0,22306.0,12498.0,3319.0,4033.0
288889,County,2020/03/31,51.0,VA,51059.0,Fairfax County,375995.0,774800.0,2581527.0,738189.0,638962.0,301472.0,381758.0,398110.0,83728.0,20516.0,10912.0,3916.0,3964.0
293648,County,2020/04/01,51.0,VA,51059.0,Fairfax County,373220.0,777575.0,2660929.0,785759.0,651429.0,313395.0,399469.0,383866.0,86402.0,21741.0,11301.0,3685.0,3882.0
295276,County,2020/04/02,51.0,VA,51059.0,Fairfax County,372719.0,778076.0,2603258.0,766698.0,609238.0,310765.0,405008.0,388082.0,80243.0,23950.0,11155.0,3686.0,4433.0
300036,County,2020/04/03,51.0,VA,51059.0,Fairfax County,365341.0,785454.0,2759412.0,795273.0,666815.0,339506.0,420831.0,409273.0,84980.0,23420.0,10580.0,3799.0,4935.0
301662,County,2020/04/04,51.0,VA,51059.0,Fairfax County,377741.0,773054.0,2582382.0,737869.0,686488.0,336766.0,397967.0,308249.0,67925.0,22011.0,14802.0,4373.0,5932.0
306417,County,2020/04/05,51.0,VA,51059.0,Fairfax County,382093.0,768702.0,2421150.0,708224.0,669717.0,310994.0,347107.0,273767.0,67003.0,22654.0,11632.0,5448.0,4604.0
309618,County,2020/04/06,51.0,VA,51059.0,Fairfax County,371772.0,779023.0,2628279.0,737258.0,657978.0,323197.0,395976.0,399725.0,76759.0,20286.0,10110.0,2598.0,4392.0
311245,County,2020/04/07,51.0,VA,51059.0,Fairfax County,375026.0,775769.0,2656672.0,764140.0,655441.0,316323.0,407745.0,391735.0,85791.0,21513.0,7422.0,2190.0,4372.0
314440,County,2020/04/08,51.0,VA,51059.0,Fairfax County,376533.0,774262.0,2647112.0,760234.0,661588.0,315858.0,388737.0,398322.0,86786.0,19791.0,8535.0,2990.0,4271.0
319200,County,2020/04/09,51.0,VA,51059.0,Fairfax County,383509.0,767286.0,2634858.0,752517.0,648074.0,302794.0,409297.0,395705.0,88290.0,22157.0,8741.0,4060.0,3223.0
322394,County,2020/04/10,51.0,VA,51059.0,Fairfax County,361458.0,789337.0,2756919.0,772797.0,698489.0,332466.0,426994.0,401705.0,81312.0,26172.0,10388.0,2799.0,3797.0
325589,County,2020/04/11,51.0,VA,51059.0,Fairfax County,356177.0,794618.0,2975447.0,913888.0,784495.0,360828.0,425413.0,373948.0,70939.0,28968.0,10708.0,3500.0,2760.0
328756,County,2020/04/12,51.0,VA,51059.0,Fairfax County,407147.0,743648.0,2188350.0,643205.0,596260.0,259567.0,312886.0,275059.0,61069.0,22594.0,10744.0,4032.0,2934.0
331976,County,2020/04/13,51.0,VA,51059.0,Fairfax County,387971.0,762824.0,2470080.0,689028.0,614266.0,301352.0,373266.0,376266.0,80045.0,20890.0,8460.0,3210.0,3297.0
335151,County,2020/04/14,51.0,VA,51059.0,Fairfax County,328845.0,821950.0,2943326.0,887922.0,736495.0,323091.0,442642.0,427338.0,81279.0,24734.0,12100.0,3199.0,4526.0
336828,County,2020/04/15,51.0,VA,51059.0,Fairfax County,318619.0,832176.0,3054648.0,941725.0,757408.0,346030.0,450273.0,436618.0,84166.0,21184.0,8868.0,3539.0,4837.0
339982,County,2020/04/16,51.0,VA,51059.0,Fairfax County,334821.0,815974.0,3095758.0,903142.0,786452.0,381749.0,444897.0,454210.0,89024.0,20019.0,7770.0,4546.0,3949.0
343283,County,2020/04/17,51.0,VA,51059.0,Fairfax County,307322.0,843473.0,3137413.0,905823.0,822337.0,363184.0,461678.0,459157.0,84736.0,21418.0,11965.0,3301.0,3814.0
347909,County,2020/04/18,51.0,VA,51059.0,Fairfax County,337666.0,813129.0,3030237.0,883484.0,840524.0,360840.0,465034.0,369298.0,73033.0,23180.0,8821.0,2999.0,3024.0
351140,County,2020/04/19,51.0,VA,51059.0,Fairfax County,346945.0,803850.0,2656443.0,831440.0,702376.0,325887.0,374086.0,318963.0,63348.0,22824.0,9525.0,3912.0,4082.0
354340,County,2020/04/20,51.0,VA,51059.0,Fairfax County,315426.0,835369.0,2785767.0,799726.0,690737.0,310037.0,434869.0,416320.0,89435.0,19116.0,11593.0,7881.0,6053.0
355960,County,2020/04/21,51.0,VA,51059.0,Fairfax County,369332.0,781463.0,2840165.0,829400.0,690638.0,315906.0,423884.0,457609.0,85878.0,24903.0,6648.0,3187.0,2112.0
359156,County,2020/04/22,51.0,VA,51059.0,Fairfax County,359267.0,791528.0,2913532.0,833944.0,683930.0,341686.0,430678.0,487714.0,95889.0,24721.0,9182.0,3215.0,2573.0
362262,County,2020/04/23,51.0,VA,51059.0,Fairfax County,362525.0,788270.0,2825157.0,766895.0,685029.0,323821.0,440946.0,473287.0,93677.0,26066.0,8612.0,2498.0,4326.0
367147,County,2020/04/24,51.0,VA,51059.0,Fairfax County,358904.0,791891.0,2961692.0,835620.0,751218.0,341310.0,450137.0,453631.0,85131.0,26462.0,11724.0,2555.0,3904.0
370306,County,2020/04/25,51.0,VA,51059.0,Fairfax County,362969.0,787826.0,3061738.0,918267.0,801820.0,363184.0,457109.0,384348.0,88905.0,29767.0,11860.0,3331.0,3147.0
373498,County,2020/04/26,51.0,VA,51059.0,Fairfax County,385335.0,765460.0,2565390.0,720880.0,718711.0,311584.0,384259.0,320699.0,65680.0,23416.0,12239.0,3862.0,4060.0
375126,County,2020/04/27,51.0,VA,51059.0,Fairfax County,363324.0,787471.0,2856646.0,787126.0,712181.0,318907.0,440588.0,464464.0,89972.0,26659.0,9416.0,3664.0,3669.0
378276,County,2020/04/28,51.0,VA,51059.0,Fairfax County,361953.0,788842.0,2858676.0,804701.0,706143.0,327771.0,433205.0,458901.0,89033.0,23426.0,8540.0,3629.0,3327.0
381528,County,2020/04/29,51.0,VA,51059.0,Fairfax County,357722.0,793073.0,3050927.0,931821.0,717366.0,338340.0,461894.0,465687.0,92931.0,25635.0,10340.0,2694.0,4219.0
386274,County,2020/04/30,51.0,VA,51059.0,Fairfax County,374116.0,776679.0,2769224.0,768115.0,665682.0,318552.0,448203.0,439371.0,86898.0,24290.0,10365.0,3280.0,4468.0
387949,County,2020/05/01,51.0,VA,51059.0,Fairfax County,342888.0,807907.0,3097301.0,890799.0,786794.0,371397.0,458981.0,458461.0,87842.0,27750.0,9397.0,3013.0,2867.0
392662,County,2020/05/02,51.0,VA,51059.0,Fairfax County,342452.0,808343.0,3236323.0,1003234.0,818164.0,365260.0,482031.0,419019.0,97541.0,32423.0,11733.0,3742.0,3176.0
394296,County,2020/05/03,51.0,VA,51059.0,Fairfax County,375119.0,775676.0,2669878.0,789797.0,717704.0,336380.0,368310.0,335690.0,74956.0,26746.0,13169.0,3613.0,3513.0
399050,County,2020/05/04,51.0,VA,51059.0,Fairfax County,354157.0,796638.0,3134730.0,950580.0,753046.0,358627.0,475888.0,454949.0,99359.0,27912.0,8969.0,2141.0,3259.0
402226,County,2020/05/05,51.0,VA,51059.0,Fairfax County,353348.0,797447.0,3026352.0,856647.0,749702.0,377350.0,452983.0,454579.0,99509.0,22449.0,7938.0,2067.0,3128.0
403855,County,2020/05/06,51.0,VA,51059.0,Fairfax County,354169.0,796626.0,2843661.0,757129.0,706102.0,344318.0,460091.0,443820.0,87756.0,24634.0,11681.0,3983.0,4147.0
407059,County,2020/05/07,51.0,VA,51059.0,Fairfax County,346519.0,804276.0,3034990.0,876490.0,734056.0,358907.0,453372.0,462136.0,97025.0,25343.0,16945.0,6497.0,4219.0
410362,County,2020/05/08,51.0,VA,51059.0,Fairfax County,344784.0,806011.0,2985382.0,806169.0,746603.0,373994.0,462954.0,454003.0,98157.0,24494.0,11460.0,3320.0,4228.0
413368,County,2020/05/09,51.0,VA,51059.0,Fairfax County,350514.0,800281.0,3005586.0,813061.0,811502.0,380775.0,447546.0,405302.0,94363.0,31435.0,15274.0,3264.0,3064.0
418215,County,2020/05/10,51.0,VA,51059.0,Fairfax County,358727.0,792068.0,2917961.0,848249.0,757534.0,346766.0,432162.0,391018.0,90006.0,33359.0,12760.0,3256.0,2851.0
419889,County,2020/05/11,51.0,VA,51059.0,Fairfax County,333279.0,817516.0,3147707.0,948744.0,738031.0,352763.0,469325.0,487824.0,102458.0,30233.0,11882.0,3658.0,2789.0
424649,County,2020/05/12,51.0,VA,51059.0,Fairfax County,322484.0,828311.0,3268384.0,998183.0,765544.0,363085.0,479826.0,505362.0,108468.0,30896.0,12491.0,3083.0,1446.0
427797,County,2020/05/13,51.0,VA,51059.0,Fairfax County,326144.0,824651.0,3163094.0,965546.0,727947.0,359974.0,455437.0,480088.0,111703.0,36146.0,17907.0,5791.0,2555.0
430990,County,2020/05/14,51.0,VA,51059.0,Fairfax County,320716.0,830079.0,3064330.0,929505.0,695666.0,346736.0,446439.0,471831.0,103950.0,31611.0,24740.0,10997.0,2855.0
432618,County,2020/05/15,51.0,VA,51059.0,Fairfax County,314272.0,836523.0,3201164.0,943997.0,759114.0,354598.0,494522.0,476579.0,110336.0,35272.0,14386.0,8873.0,3487.0
437367,County,2020/05/16,51.0,VA,51059.0,Fairfax County,319933.0,830862.0,3263150.0,988884.0,807377.0,394271.0,471634.0,432743.0,101327.0,37540.0,22377.0,4586.0,2411.0
438995,County,2020/05/17,51.0,VA,51059.0,Fairfax County,311905.0,838890.0,3422977.0,1127110.0,822041.0,382583.0,495255.0,425730.0,104244.0,37494.0,21141.0,4614.0,2765.0
443766,County,2020/05/18,51.0,VA,51059.0,Fairfax County,286692.0,864103.0,3557102.0,1074766.0,874364.0,381766.0,517373.0,544115.0,118951.0,32539.0,9786.0,2154.0,1288.0
445394,County,2020/05/19,51.0,VA,51059.0,Fairfax County,290034.0,860761.0,3511046.0,1035530.0,809141.0,416556.0,513510.0,562564.0,120309.0,36012.0,11503.0,3315.0,2606.0
450154,County,2020/05/20,51.0,VA,51059.0,Fairfax County,283562.0,867233.0,3587485.0,1048374.0,841851.0,411863.0,539619.0,562251.0,127928.0,34649.0,12713.0,3127.0,5110.0
453045,County,2020/05/21,51.0,VA,51059.0,Fairfax County,275126.0,875669.0,3568975.0,1095114.0,800449.0,393137.0,542242.0,561321.0,115097.0,36497.0,15521.0,4798.0,4799.0
456541,County,2020/05/22,51.0,VA,51059.0,Fairfax County,262704.0,888091.0,3606341.0,1026959.0,853257.0,433420.0,538941.0,570297.0,115245.0,35687.0,21927.0,5510.0,5098.0
458164,County,2020/05/23,51.0,VA,51059.0,Fairfax County,270661.0,880134.0,3687024.0,1094318.0,906289.0,438866.0,561299.0,486512.0,124139.0,46868.0,18888.0,4758.0,5087.0
461332,County,2020/05/24,51.0,VA,51059.0,Fairfax County,328396.0,822399.0,2820541.0,833046.0,715297.0,335077.0,416928.0,358902.0,85393.0,40779.0,24028.0,6212.0,4879.0
466208,County,2020/05/25,51.0,VA,51059.0,Fairfax County,319822.0,830973.0,2815072.0,833397.0,710749.0,324573.0,393952.0,384952.0,91668.0,43697.0,22220.0,4729.0,5135.0
467739,County,2020/05/26,51.0,VA,51059.0,Fairfax County,313664.0,837131.0,2963057.0,821497.0,691086.0,359921.0,462271.0,464338.0,95030.0,38144.0,18728.0,5191.0,6851.0
470946,County,2020/05/27,51.0,VA,51059.0,Fairfax County,315298.0,835497.0,3321566.0,1012324.0,760318.0,373487.0,485266.0,520265.0,109308.0,36653.0,16499.0,4365.0,3081.0
475706,County,2020/05/28,51.0,VA,51059.0,Fairfax County,322997.0,827798.0,3224650.0,981842.0,740125.0,334863.0,482076.0,518806.0,109261.0,34389.0,17365.0,3906.0,2017.0
478894,County,2020/05/29,51.0,VA,51059.0,Fairfax County,327916.0,822879.0,3322024.0,994379.0,790619.0,366993.0,488511.0,508778.0,111423.0,35217.0,21454.0,3252.0,1398.0
482094,County,2020/05/30,51.0,VA,51059.0,Fairfax County,331103.0,819692.0,3414215.0,1015501.0,817881.0,402582.0,488227.0,495868.0,125091.0,41837.0,21624.0,4531.0,1073.0
483602,County,2020/05/31,51.0,VA,51059.0,Fairfax County,336424.0,814371.0,3167028.0,996981.0,757557.0,365673.0,428615.0,433506.0,104099.0,46550.0,26558.0,4730.0,2759.0
488540,County,2020/06/01,51.0,VA,51059.0,Fairfax County,318168.0,832627.0,3291460.0,1019221.0,761201.0,375458.0,469421.0,504883.0,104278.0,35947.0,16058.0,2890.0,2103.0
490108,County,2020/06/02,51.0,VA,51059.0,Fairfax County,318549.0,832246.0,3208577.0,938653.0,741646.0,356861.0,478366.0,514750.0,117375.0,38251.0,16511.0,3464.0,2700.0
494869,County,2020/06/03,51.0,VA,51059.0,Fairfax County,298713.0,852082.0,3409694.0,995761.0,804962.0,385011.0,517116.0,529410.0,116114.0,39694.0,15993.0,2842.0,2791.0
496489,County,2020/06/04,51.0,VA,51059.0,Fairfax County,304915.0,845880.0,3230569.0,953818.0,741522.0,357878.0,499011.0,507456.0,113949.0,37251.0,13394.0,3900.0,2390.0
499692,County,2020/06/05,51.0,VA,51059.0,Fairfax County,297520.0,853275.0,3261293.0,917454.0,756041.0,387887.0,503222.0,516362.0,112753.0,35663.0,24340.0,4386.0,3185.0
502839,County,2020/06/06,51.0,VA,51059.0,Fairfax County,319236.0,831559.0,3206070.0,916516.0,781612.0,392484.0,486138.0,444448.0,114639.0,39246.0,24725.0,3596.0,2666.0
506030,County,2020/06/07,51.0,VA,51059.0,Fairfax County,311623.0,839172.0,3094070.0,911537.0,796477.0,353201.0,437299.0,405093.0,110259.0,46945.0,24868.0,4010.0,4381.0
509252,County,2020/06/08,51.0,VA,51059.0,Fairfax County,299332.0,851463.0,3401967.0,996395.0,795587.0,396920.0,534069.0,505550.0,112185.0,38617.0,16406.0,3435.0,2803.0
514031,County,2020/06/09,51.0,VA,51059.0,Fairfax County,318520.0,832275.0,3228880.0,934361.0,734488.0,371818.0,501747.0,518593.0,109713.0,34214.0,15519.0,4199.0,4228.0
517238,County,2020/06/10,51.0,VA,51059.0,Fairfax County,311000.0,839795.0,3133304.0,907185.0,719682.0,360265.0,484254.0,485863.0,109830.0,34916.0,21756.0,5078.0,4475.0
520395,County,2020/06/11,51.0,VA,51059.0,Fairfax County,307589.0,843206.0,3173469.0,908870.0,731988.0,363222.0,493367.0,492729.0,115138.0,35714.0,22294.0,5399.0,4748.0
522067,County,2020/06/12,51.0,VA,51059.0,Fairfax County,297559.0,853236.0,3342802.0,972535.0,775224.0,378917.0,505878.0,517797.0,116218.0,40601.0,27350.0,5195.0,3087.0
525244,County,2020/06/13,51.0,VA,51059.0,Fairfax County,303083.0,847712.0,3545830.0,1056171.0,846428.0,414483.0,518232.0,498305.0,131172.0,50777.0,24179.0,3924.0,2159.0
528439,County,2020/06/14,51.0,VA,51059.0,Fairfax County,320725.0,830070.0,3034796.0,931112.0,752172.0,325135.0,417126.0,409429.0,111817.0,48385.0,30349.0,6359.0,2912.0
533198,County,2020/06/15,51.0,VA,51059.0,Fairfax County,321030.0,829765.0,3221089.0,983452.0,761152.0,357815.0,462008.0,489729.0,102566.0,37461.0,19130.0,5000.0,2776.0
534825,County,2020/06/16,51.0,VA,51059.0,Fairfax County,319365.0,831430.0,3376318.0,1030018.0,784643.0,380144.0,497591.0,521863.0,107060.0,34491.0,14370.0,3840.0,2298.0
538019,County,2020/06/17,51.0,VA,51059.0,Fairfax County,316799.0,833996.0,3248864.0,943414.0,752359.0,379732.0,483436.0,524701.0,113579.0,33087.0,13476.0,3260.0,1820.0
542780,County,2020/06/18,51.0,VA,51059.0,Fairfax County,308663.0,842132.0,3289747.0,956660.0,770817.0,350494.0,511445.0,533304.0,107060.0,35752.0,17837.0,4195.0,2183.0
545934,County,2020/06/19,51.0,VA,51059.0,Fairfax County,305109.0,845686.0,3223689.0,946509.0,757043.0,363564.0,481286.0,498535.0,108795.0,37194.0,22585.0,5490.0,2688.0
549168,County,2020/06/20,51.0,VA,51059.0,Fairfax County,309390.0,841405.0,3240781.0,954109.0,787759.0,381942.0,487934.0,438976.0,116502.0,42337.0,23179.0,5440.0,2603.0
550817,County,2020/06/21,51.0,VA,51059.0,Fairfax County,334053.0,816742.0,2940462.0,880457.0,744460.0,329462.0,427053.0,390162.0,93639.0,42983.0,24453.0,5027.0,2766.0
553990,County,2020/06/22,51.0,VA,51059.0,Fairfax County,314787.0,836008.0,2933100.0,827323.0,675524.0,339191.0,464597.0,454842.0,104243.0,38567.0,18895.0,6213.0,3705.0
557177,County,2020/06/23,51.0,VA,51059.0,Fairfax County,302778.0,848017.0,3268683.0,949816.0,754297.0,370125.0,486988.0,531095.0,114883.0,37025.0,16262.0,5218.0,2974.0
561944,County,2020/06/24,51.0,VA,51059.0,Fairfax County,319773.0,831022.0,3144046.0,918881.0,676623.0,342319.0,506276.0,522112.0,114947.0,39463.0,14333.0,4329.0,4763.0
563572,County,2020/06/25,51.0,VA,51059.0,Fairfax County,308929.0,841866.0,3304869.0,984498.0,750002.0,370899.0,493391.0,530858.0,115546.0,36908.0,14454.0,4341.0,3972.0
566824,County,2020/06/26,51.0,VA,51059.0,Fairfax County,302640.0,848155.0,3344280.0,970116.0,774773.0,377637.0,497803.0,536800.0,112596.0,43408.0,21935.0,4913.0,4299.0
569947,County,2020/06/27,51.0,VA,51059.0,Fairfax County,303929.0,846866.0,3412747.0,994609.0,825911.0,388855.0,514521.0,486997.0,116923.0,52018.0,23442.0,5517.0,3954.0
573140,County,2020/06/28,51.0,VA,51059.0,Fairfax County,316495.0,834300.0,2969814.0,852990.0,719190.0,344388.0,423470.0,439056.0,102506.0,51562.0,25631.0,6862.0,4159.0
577915,County,2020/06/29,51.0,VA,51059.0,Fairfax County,315961.0,834834.0,3055124.0,884956.0,716040.0,343525.0,454366.0,475054.0,112365.0,42371.0,15612.0,5480.0,5355.0
581112,County,2020/06/30,51.0,VA,51059.0,Fairfax County,307118.0,843677.0,2964894.0,850346.0,646278.0,341390.0,467419.0,482915.0,109410.0,34858.0,20342.0,6174.0,5762.0
584302,County,2020/07/01,51.0,VA,51059.0,Fairfax County,304701.0,846094.0,3010144.0,879931.0,678314.0,350658.0,459931.0,465502.0,98474.0,38470.0,25944.0,7005.0,5915.0
587496,County,2020/07/02,51.0,VA,51059.0,Fairfax County,312235.0,838560.0,3507802.0,1044950.0,796055.0,393674.0,523687.0,563455.0,122641.0,39174.0,15342.0,4608.0,4216.0
590691,County,2020/07/03,51.0,VA,51059.0,Fairfax County,314315.0,836480.0,3325438.0,964651.0,770408.0,375509.0,494998.0,533776.0,111962.0,43163.0,21811.0,4885.0,4275.0
592339,County,2020/07/04,51.0,VA,51059.0,Fairfax County,333610.0,817185.0,2844993.0,825282.0,659103.0,321257.0,423483.0,456658.0,95786.0,36927.0,18660.0,4180.0,3657.0
595529,County,2020/07/05,51.0,VA,51059.0,Fairfax County,314728.0,836067.0,2754153.0,778727.0,641194.0,337636.0,403273.0,376748.0,100603.0,58930.0,40364.0,9991.0,6687.0
600272,County,2020/07/06,51.0,VA,51059.0,Fairfax County,324512.0,826283.0,2851830.0,825081.0,637751.0,338501.0,442250.0,429281.0,97598.0,38710.0,29078.0,7738.0,5842.0
602291,County,2020/07/07,51.0,VA,51059.0,Fairfax County,321427.0,829368.0,2967237.0,882775.0,680107.0,331746.0,448417.0,446823.0,100914.0,40665.0,22174.0,6273.0,7343.0
604993,County,2020/07/08,51.0,VA,51059.0,Fairfax County,310541.0,840254.0,2935172.0,856752.0,653614.0,339653.0,450918.0,464328.0,98701.0,37107.0,20784.0,6882.0,6433.0
608288,County,2020/07/09,51.0,VA,51059.0,Fairfax County,316396.0,834399.0,3072322.0,929961.0,684326.0,339214.0,467335.0,469649.0,107454.0,37852.0,22680.0,7416.0,6435.0
611487,County,2020/07/10,51.0,VA,51059.0,Fairfax County,306838.0,843957.0,3008181.0,831859.0,698770.0,351067.0,468500.0,472262.0,105944.0,41415.0,22527.0,7711.0,8126.0
614697,County,2020/07/11,51.0,VA,51059.0,Fairfax County,316524.0,834271.0,3013129.0,881705.0,699505.0,363930.0,448367.0,425781.0,109831.0,43855.0,25091.0,7172.0,7892.0
617868,County,2020/07/12,51.0,VA,51059.0,Fairfax County,322741.0,828054.0,2683750.0,777051.0,642092.0,316927.0,411710.0,353772.0,92159.0,46728.0,25543.0,8252.0,9516.0
622630,County,2020/07/13,51.0,VA,51059.0,Fairfax County,314331.0,836464.0,2807240.0,778005.0,628079.0,331433.0,440937.0,458894.0,102084.0,37623.0,16385.0,6229.0,7571.0
625823,County,2020/07/14,51.0,VA,51059.0,Fairfax County,320782.0,830013.0,2972162.0,837665.0,681006.0,345485.0,466241.0,485749.0,103309.0,31512.0,11616.0,4526.0,5053.0
628995,County,2020/07/15,51.0,VA,51059.0,Fairfax County,316077.0,834718.0,2996375.0,815769.0,694112.0,372593.0,483959.0,473173.0,99813.0,36234.0,13506.0,3861.0,3355.0
630621,County,2020/07/16,51.0,VA,51059.0,Fairfax County,319213.0,831582.0,3068487.0,868804.0,717457.0,360965.0,471296.0,481320.0,109822.0,35842.0,14860.0,4729.0,3392.0
633828,County,2020/07/17,51.0,VA,51059.0,Fairfax County,311870.0,838925.0,3078407.0,834304.0,693643.0,365124.0,494740.0,507023.0,113303.0,43568.0,18747.0,5068.0,2887.0
637035,County,2020/07/18,51.0,VA,51059.0,Fairfax County,326206.0,824589.0,3120314.0,874687.0,745175.0,382654.0,474570.0,449140.0,114894.0,50279.0,20373.0,4122.0,4420.0
640189,County,2020/07/19,51.0,VA,51059.0,Fairfax County,344360.0,806435.0,2637854.0,726471.0,640422.0,317243.0,396557.0,377070.0,94355.0,52831.0,22729.0,5748.0,4428.0
645019,County,2020/07/20,51.0,VA,51059.0,Fairfax County,346046.0,804749.0,2874170.0,791961.0,662757.0,332971.0,444924.0,466235.0,112746.0,39621.0,15107.0,4126.0,3722.0
646991,County,2020/07/21,51.0,VA,51059.0,Fairfax County,333160.0,817635.0,2803167.0,752502.0,649862.0,325908.0,438742.0,468261.0,103965.0,36988.0,16512.0,4701.0,5726.0
649281,County,2020/07/22,51.0,VA,51059.0,Fairfax County,328413.0,822382.0,2722677.0,709794.0,638708.0,318195.0,428248.0,459323.0,99975.0,38901.0,17624.0,4694.0,7215.0
654571,County,2020/07/23,51.0,VA,51059.0,Fairfax County,328997.0,821798.0,2753917.0,735349.0,639040.0,312733.0,433857.0,462070.0,100910.0,38013.0,18764.0,5196.0,7985.0
657843,County,2020/07/24,51.0,VA,51059.0,Fairfax County,316830.0,833965.0,2929079.0,774770.0,691127.0,345321.0,480844.0,451626.0,108053.0,44293.0,21496.0,5312.0,6237.0
659386,County,2020/07/25,51.0,VA,51059.0,Fairfax County,327011.0,823784.0,2933948.0,809361.0,680496.0,349894.0,450924.0,446040.0,113302.0,49194.0,23321.0,5867.0,5549.0
664095,County,2020/07/26,51.0,VA,51059.0,Fairfax County,330032.0,820763.0,2819691.0,742346.0,673815.0,344523.0,428766.0,428157.0,102609.0,56062.0,29843.0,6525.0,7045.0
665880,County,2020/07/27,51.0,VA,51059.0,Fairfax County,334881.0,815914.0,2885669.0,774573.0,669331.0,332948.0,460061.0,473312.0,100741.0,39892.0,20645.0,5782.0,8384.0
669043,County,2020/07/28,51.0,VA,51059.0,Fairfax County,320825.0,829970.0,2933954.0,778375.0,655544.0,362802.0,468692.0,489939.0,107074.0,40302.0,18259.0,5669.0,7298.0
672249,County,2020/07/29,51.0,VA,51059.0,Fairfax County,329589.0,821206.0,2932565.0,776632.0,661052.0,344042.0,473860.0,486887.0,115868.0,44636.0,17773.0,5043.0,6772.0
675362,County,2020/07/30,51.0,VA,51059.0,Fairfax County,314259.0,836536.0,2880387.0,735880.0,659319.0,348244.0,476183.0,474713.0,109263.0,41560.0,21110.0,6628.0,7487.0
678562,County,2020/07/31,51.0,VA,51059.0,Fairfax County,319470.0,831325.0,2786777.0,704854.0,648697.0,333823.0,443870.0,454420.0,118320.0,43771.0,23301.0,7934.0,7787.0
683309,County,2020/08/01,51.0,VA,51059.0,Fairfax County,325719.0,825076.0,2816903.0,763448.0,662734.0,337167.0,433758.0,410040.0,114881.0,48911.0,29448.0,8702.0,7814.0
684943,County,2020/08/02,51.0,VA,51059.0,Fairfax County,343054.0,807741.0,2689995.0,730331.0,653752.0,328098.0,417878.0,369065.0,100366.0,48395.0,29415.0,6734.0,5961.0
689705,County,2020/08/03,51.0,VA,51059.0,Fairfax County,328156.0,822639.0,2993043.0,875992.0,677674.0,336232.0,456701.0,465879.0,116834.0,38861.0,15877.0,4456.0,4537.0
691332,County,2020/08/04,51.0,VA,51059.0,Fairfax County,329425.0,821370.0,3005337.0,876031.0,705999.0,360793.0,459478.0,459144.0,96369.0,30308.0,11154.0,3496.0,2565.0
696091,County,2020/08/05,51.0,VA,51059.0,Fairfax County,321939.0,828856.0,3438583.0,1095178.0,745411.0,385209.0,507109.0,539587.0,113447.0,34862.0,12218.0,3158.0,2404.0
699286,County,2020/08/06,51.0,VA,51059.0,Fairfax County,318556.0,832239.0,3198582.0,902978.0,740113.0,367349.0,506168.0,508133.0,114286.0,36511.0,16170.0,4187.0,2687.0
700914,County,2020/08/07,51.0,VA,51059.0,Fairfax County,312229.0,838566.0,3172220.0,888121.0,733940.0,365978.0,488099.0,518531.0,108335.0,40239.0,21441.0,3976.0,3560.0
705674,County,2020/08/08,51.0,VA,51059.0,Fairfax County,317860.0,832935.0,3072964.0,816910.0,748201.0,373276.0,470554.0,465531.0,113064.0,50394.0,26259.0,5627.0,3148.0
708893,County,2020/08/09,51.0,VA,51059.0,Fairfax County,329753.0,821042.0,3047459.0,816363.0,741645.0,370891.0,449494.0,463541.0,107285.0,60077.0,27897.0,6286.0,3980.0
712062,County,2020/08/10,51.0,VA,51059.0,Fairfax County,326378.0,824417.0,3227712.0,891380.0,753319.0,362701.0,501242.0,530119.0,114205.0,48664.0,17398.0,4957.0,3727.0
713739,County,2020/08/11,51.0,VA,51059.0,Fairfax County,323936.0,826859.0,3171541.0,851447.0,738838.0,364411.0,488678.0,546144.0,121998.0,40091.0,13555.0,3281.0,3098.0
716787,County,2020/08/12,51.0,VA,51059.0,Fairfax County,315938.0,834857.0,2702768.0,670988.0,627387.0,312858.0,432111.0,469218.0,109142.0,40134.0,19209.0,8954.0,12767.0
721644,County,2020/08/13,51.0,VA,51059.0,Fairfax County,301662.0,849133.0,2679931.0,627967.0,616348.0,325912.0,443935.0,463850.0,105199.0,46944.0,22488.0,10641.0,16647.0
723271,County,2020/08/14,51.0,VA,51059.0,Fairfax County,287252.0,863543.0,2951527.0,725996.0,694902.0,350718.0,474306.0,486306.0,112136.0,51359.0,26644.0,12707.0,16453.0
728033,County,2020/08/15,51.0,VA,51059.0,Fairfax County,299251.0,851544.0,2840127.0,700252.0,657581.0,343454.0,474768.0,445736.0,110945.0,46517.0,32048.0,12747.0,16079.0
731226,County,2020/08/16,51.0,VA,51059.0,Fairfax County,327288.0,823507.0,2609576.0,632556.0,624144.0,326585.0,414389.0,388334.0,94788.0,52743.0,38411.0,15627.0,21999.0
732855,County,2020/08/17,51.0,VA,51059.0,Fairfax County,329939.0,820856.0,2768939.0,647382.0,629634.0,334632.0,449982.0,482657.0,114024.0,48506.0,24732.0,14177.0,23213.0
736070,County,2020/08/18,51.0,VA,51059.0,Fairfax County,311300.0,839495.0,2642697.0,612520.0,587231.0,329559.0,436165.0,452176.0,111341.0,51389.0,21562.0,13967.0,26787.0
740808,County,2020/08/19,51.0,VA,51059.0,Fairfax County,308746.0,842049.0,2796421.0,693847.0,646342.0,328052.0,440580.0,469732.0,111428.0,44337.0,20507.0,16040.0,25556.0
744008,County,2020/08/20,51.0,VA,51059.0,Fairfax County,294823.0,855972.0,2838160.0,690063.0,627033.0,338788.0,466343.0,491110.0,114839.0,45416.0,24463.0,15285.0,24820.0
747212,County,2020/08/21,51.0,VA,51059.0,Fairfax County,283114.0,867681.0,3354912.0,999094.0,754721.0,363426.0,477052.0,523965.0,116295.0,53032.0,28073.0,13908.0,25346.0
748841,County,2020/08/22,51.0,VA,51059.0,Fairfax County,297199.0,853596.0,2971091.0,734411.0,696206.0,365683.0,457612.0,470375.0,120447.0,52889.0,33649.0,14137.0,25682.0
752035,County,2020/08/23,51.0,VA,51059.0,Fairfax County,333789.0,817006.0,2505852.0,619621.0,593523.0,308756.0,399038.0,381148.0,93063.0,49930.0,31139.0,12695.0,16939.0
756778,County,2020/08/24,51.0,VA,51059.0,Fairfax County,340267.0,810528.0,2572618.0,633101.0,607202.0,301315.0,404164.0,446285.0,98151.0,34030.0,20435.0,9961.0,17974.0
759970,County,2020/08/25,51.0,VA,51059.0,Fairfax County,330279.0,820516.0,2793273.0,742391.0,645252.0,323701.0,442844.0,462341.0,100969.0,33832.0,17904.0,8660.0,15379.0
761551,County,2020/08/26,51.0,VA,51059.0,Fairfax County,330208.0,820587.0,2696804.0,672281.0,619020.0,318530.0,445931.0,469001.0,101002.0,33275.0,18692.0,7127.0,11945.0
764758,County,2020/08/27,51.0,VA,51059.0,Fairfax County,333391.0,817404.0,2703483.0,672391.0,607641.0,332377.0,450669.0,471946.0,101720.0,34325.0,16771.0,7399.0,8244.0
769541,County,2020/08/28,51.0,VA,51059.0,Fairfax County,327645.0,823150.0,2804177.0,700514.0,650397.0,335882.0,455538.0,474216.0,104541.0,41539.0,25535.0,7808.0,8207.0
772741,County,2020/08/29,51.0,VA,51059.0,Fairfax County,340124.0,810671.0,2749869.0,688626.0,679235.0,356369.0,444450.0,404243.0,90110.0,42763.0,26137.0,8593.0,9343.0
775942,County,2020/08/30,51.0,VA,51059.0,Fairfax County,350709.0,800086.0,2769878.0,709908.0,655837.0,332731.0,441964.0,418202.0,111707.0,52788.0,28767.0,8783.0,9191.0
779137,County,2020/08/31,51.0,VA,51059.0,Fairfax County,345445.0,805350.0,2674186.0,659545.0,601686.0,331907.0,435268.0,465531.0,103292.0,39600.0,20042.0,8200.0,9115.0
782330,County,2020/09/01,51.0,VA,51059.0,Fairfax County,337005.0,813790.0,2806801.0,682907.0,672372.0,345587.0,465643.0,470093.0,102220.0,34267.0,18439.0,6945.0,8328.0
785525,County,2020/09/02,51.0,VA,51059.0,Fairfax County,339890.0,810905.0,2883825.0,703187.0,682873.0,347145.0,477271.0,497101.0,111550.0,33651.0,16520.0,7138.0,7389.0
787085,County,2020/09/03,51.0,VA,51059.0,Fairfax County,322303.0,828492.0,2984687.0,747341.0,699516.0,351108.0,494095.0,500833.0,114437.0,36933.0,23909.0,7623.0,8892.0
791912,County,2020/09/04,51.0,VA,51059.0,Fairfax County,327879.0,822916.0,2895895.0,713444.0,676194.0,352155.0,460667.0,483136.0,113775.0,49434.0,30407.0,9140.0,7543.0
793423,County,2020/09/05,51.0,VA,51059.0,Fairfax County,327470.0,823325.0,3088074.0,817212.0,753238.0,352428.0,472978.0,464790.0,119650.0,59796.0,34844.0,6455.0,6683.0
796705,County,2020/09/06,51.0,VA,51059.0,Fairfax County,351792.0,799003.0,2799123.0,769820.0,646275.0,334820.0,421435.0,399177.0,119016.0,58973.0,33387.0,8466.0,7754.0
799922,County,2020/09/07,51.0,VA,51059.0,Fairfax County,355513.0,795282.0,2575747.0,670434.0,585722.0,304715.0,403178.0,389475.0,101829.0,59628.0,41917.0,9702.0,9147.0
804688,County,2020/09/08,51.0,VA,51059.0,Fairfax County,351012.0,799783.0,2949295.0,775381.0,687384.0,345635.0,473368.0,490610.0,102814.0,39637.0,19102.0,7191.0,8173.0
806317,County,2020/09/09,51.0,VA,51059.0,Fairfax County,342261.0,808534.0,2938320.0,753431.0,680316.0,345347.0,478341.0,505234.0,106283.0,37634.0,15409.0,8559.0,7766.0
809510,County,2020/09/10,51.0,VA,51059.0,Fairfax County,342855.0,807940.0,2784129.0,693398.0,643448.0,332686.0,450371.0,489297.0,101952.0,37602.0,17017.0,8783.0,9575.0
814270,County,2020/09/11,51.0,VA,51059.0,Fairfax County,331892.0,818903.0,3066506.0,760186.0,737966.0,361488.0,505229.0,512504.0,108514.0,43906.0,22324.0,7683.0,6706.0
817464,County,2020/09/12,51.0,VA,51059.0,Fairfax County,340627.0,810168.0,2999290.0,752662.0,716001.0,371060.0,493390.0,468559.0,113761.0,47247.0,21507.0,7796.0,7307.0
819071,County,2020/09/13,51.0,VA,51059.0,Fairfax County,341246.0,809549.0,2586939.0,622293.0,597991.0,313105.0,407952.0,434487.0,108373.0,57949.0,24447.0,8256.0,12086.0
822278,County,2020/09/14,51.0,VA,51059.0,Fairfax County,346387.0,804408.0,2929311.0,705822.0,715709.0,360067.0,470174.0,496676.0,104076.0,41732.0,19546.0,7158.0,8351.0
827046,County,2020/09/15,51.0,VA,51059.0,Fairfax County,342074.0,808721.0,2946957.0,739911.0,678241.0,360977.0,471677.0,522148.0,105603.0,38038.0,14793.0,6443.0,9126.0
830240,County,2020/09/16,51.0,VA,51059.0,Fairfax County,340029.0,810766.0,2895568.0,683908.0,681567.0,356083.0,471796.0,522467.0,107467.0,39583.0,17071.0,6720.0,8906.0
831867,County,2020/09/17,51.0,VA,51059.0,Fairfax County,337603.0,813192.0,2910722.0,693270.0,682364.0,366720.0,482083.0,515549.0,102749.0,33159.0,18176.0,7308.0,9344.0
836628,County,2020/09/18,51.0,VA,51059.0,Fairfax County,331279.0,819516.0,3120954.0,771785.0,767492.0,377034.0,496869.0,510191.0,120468.0,38172.0,22856.0,7801.0,8286.0
839822,County,2020/09/19,51.0,VA,51059.0,Fairfax County,335249.0,815546.0,3278988.0,834810.0,798294.0,417726.0,516004.0,487359.0,137354.0,49910.0,24077.0,6526.0,6928.0
841451,County,2020/09/20,51.0,VA,51059.0,Fairfax County,330189.0,820606.0,2877208.0,745691.0,726428.0,367167.0,421846.0,432839.0,104647.0,44958.0,22960.0,5376.0,5296.0
844660,County,2020/09/21,51.0,VA,51059.0,Fairfax County,356838.0,793957.0,2795532.0,715161.0,653009.0,319504.0,446425.0,495960.0,110495.0,33881.0,12815.0,4537.0,3745.0
849404,County,2020/09/22,51.0,VA,51059.0,Fairfax County,324323.0,826472.0,3002572.0,748427.0,716282.0,352274.0,486328.0,542287.0,111131.0,31195.0,9134.0,3610.0,1904.0
851032,County,2020/09/23,51.0,VA,51059.0,Fairfax County,309904.0,840891.0,3276277.0,885174.0,784620.0,372217.0,502495.0,569861.0,113179.0,31672.0,11103.0,3510.0,2446.0
854222,County,2020/09/24,51.0,VA,51059.0,Fairfax County,306880.0,843915.0,3142216.0,813089.0,717443.0,371873.0,508633.0,556782.0,117805.0,34261.0,14601.0,3970.0,3759.0
858986,County,2020/09/25,51.0,VA,51059.0,Fairfax County,301070.0,849725.0,3198895.0,801690.0,738475.0,382469.0,513853.0,577376.0,116973.0,39909.0,20436.0,4747.0,2967.0
862180,County,2020/09/26,51.0,VA,51059.0,Fairfax County,313411.0,837384.0,3260660.0,808181.0,806699.0,412252.0,509827.0,526998.0,122862.0,47315.0,20454.0,3530.0,2542.0
863785,County,2020/09/27,51.0,VA,51059.0,Fairfax County,318109.0,832686.0,3058595.0,850110.0,739535.0,364502.0,454731.0,464799.0,102621.0,46116.0,28766.0,4980.0,2435.0
868568,County,2020/09/28,51.0,VA,51059.0,Fairfax County,321181.0,829614.0,3349341.0,1040026.0,750167.0,364730.0,492309.0,542047.0,103983.0,34888.0,15094.0,3733.0,2364.0
871762,County,2020/09/29,51.0,VA,51059.0,Fairfax County,334962.0,815833.0,2938326.0,744667.0,698501.0,346473.0,465444.0,508674.0,118111.0,37661.0,12389.0,4146.0,2260.0
873390,County,2020/09/30,51.0,VA,51059.0,Fairfax County,326144.0,824651.0,2892565.0,655741.0,702326.0,346287.0,466187.0,538953.0,117188.0,44613.0,14265.0,4289.0,2716.0
878129,County,2020/10/01,51.0,VA,51059.0,Fairfax County,322935.0,827860.0,2883583.0,688232.0,677079.0,346897.0,477775.0,515996.0,113398.0,42163.0,14308.0,4861.0,2874.0
881344,County,2020/10/02,51.0,VA,51059.0,Fairfax County,327332.0,823463.0,2867803.0,695579.0,692856.0,365060.0,469644.0,472535.0,103194.0,38937.0,22361.0,5472.0,2165.0
882975,County,2020/10/03,51.0,VA,51059.0,Fairfax County,332498.0,818297.0,2974433.0,716085.0,745905.0,378686.0,476890.0,458795.0,121998.0,51884.0,18093.0,4029.0,2068.0
887550,County,2020/10/04,51.0,VA,51059.0,Fairfax County,348583.0,802212.0,2695927.0,685028.0,664509.0,331627.0,420674.0,412129.0,100453.0,47449.0,26109.0,5682.0,2267.0
890877,County,2020/10/05,51.0,VA,51059.0,Fairfax County,357986.0,792809.0,2783872.0,690129.0,663291.0,343323.0,442991.0,476230.0,102964.0,41674.0,16799.0,4375.0,2096.0
893920,County,2020/10/06,51.0,VA,51059.0,Fairfax County,335063.0,815732.0,2834082.0,667425.0,684970.0,357291.0,463583.0,489524.0,111906.0,39155.0,15059.0,3409.0,1760.0
897453,County,2020/10/07,51.0,VA,51059.0,Fairfax County,327250.0,823545.0,2883846.0,659294.0,675154.0,364624.0,501737.0,511658.0,111819.0,37505.0,15744.0,4302.0,2009.0
900350,County,2020/10/08,51.0,VA,51059.0,Fairfax County,332508.0,818287.0,2768771.0,626050.0,650181.0,335446.0,484784.0,496760.0,113545.0,42270.0,13395.0,4344.0,1996.0
903569,County,2020/10/09,51.0,VA,51059.0,Fairfax County,329371.0,821424.0,2954375.0,692305.0,694430.0,357888.0,474008.0,533045.0,124551.0,50130.0,21738.0,4309.0,1971.0
906720,County,2020/10/10,51.0,VA,51059.0,Fairfax County,337723.0,813072.0,2929928.0,671825.0,696011.0,369450.0,477310.0,494502.0,134466.0,57069.0,23513.0,4216.0,1566.0
907441,County,2020/10/11,51.0,VA,51059.0,Fairfax County,349977.0,800818.0,2550943.0,599966.0,631478.0,333732.0,413139.0,399076.0,95859.0,44860.0,26119.0,5188.0,1526.0
910897,County,2020/10/12,51.0,VA,51059.0,Fairfax County,344161.0,806634.0,2666928.0,617689.0,654300.0,343775.0,438977.0,440700.0,97124.0,45771.0,21342.0,5492.0,1758.0
914046,County,2020/10/13,51.0,VA,51059.0,Fairfax County,334451.0,816344.0,3044280.0,824383.0,705249.0,364915.0,480234.0,500719.0,107203.0,39204.0,15400.0,4915.0,2058.0
916976,County,2020/10/14,51.0,VA,51059.0,Fairfax County,322756.0,828039.0,2852335.0,692076.0,664350.0,345725.0,462330.0,519300.0,108253.0,36787.0,15153.0,5530.0,2831.0
920245,County,2020/10/15,51.0,VA,51059.0,Fairfax County,332789.0,818006.0,2744249.0,671527.0,637966.0,325313.0,459914.0,478420.0,103913.0,40168.0,17840.0,6430.0,2758.0
923756,County,2020/10/16,51.0,VA,51059.0,Fairfax County,316717.0,834078.0,2969937.0,745116.0,679040.0,379016.0,477901.0,505464.0,108200.0,45693.0,20346.0,6633.0,2528.0
927393,County,2020/10/17,51.0,VA,51059.0,Fairfax County,326661.0,824134.0,3030865.0,735364.0,730845.0,385023.0,497830.0,482095.0,117185.0,54421.0,20800.0,5189.0,2113.0
929686,County,2020/10/18,51.0,VA,51059.0,Fairfax County,332832.0,817963.0,2753095.0,690051.0,671148.0,347421.0,433075.0,406456.0,110001.0,62174.0,25287.0,5487.0,1995.0
933288,County,2020/10/19,51.0,VA,51059.0,Fairfax County,325389.0,825406.0,3030900.0,850949.0,683831.0,351715.0,459653.0,505138.0,111970.0,42545.0,18015.0,4805.0,2279.0
938194,County,2020/10/20,51.0,VA,51059.0,Fairfax County,336750.0,814045.0,2849853.0,669849.0,657129.0,344436.0,484778.0,512745.0,113378.0,45499.0,14697.0,5099.0,2243.0
939233,County,2020/10/21,51.0,VA,51059.0,Fairfax County,334376.0,816419.0,2826327.0,673450.0,674447.0,347471.0,466893.0,484483.0,112072.0,42756.0,17727.0,4562.0,2466.0
942385,County,2020/10/22,51.0,VA,51059.0,Fairfax County,323772.0,827023.0,2975957.0,735811.0,706325.0,373211.0,483015.0,499881.0,109795.0,46573.0,14110.0,4866.0,2370.0
945648,County,2020/10/23,51.0,VA,51059.0,Fairfax County,304693.0,846102.0,3299088.0,807630.0,805484.0,391292.0,557139.0,538778.0,121609.0,51078.0,19067.0,5012.0,1999.0
949357,County,2020/10/24,51.0,VA,51059.0,Fairfax County,312270.0,838525.0,3391246.0,866071.0,831244.0,426762.0,535200.0,521007.0,129483.0,56064.0,19930.0,3884.0,1601.0
