,Level,Date,State FIPS,State Postal Code,County FIPS,County Name,Population Staying at Home,Population Not Staying at Home,Number of Trips,Number of Trips <1,Number of Trips 1-3,Number of Trips 3-5,Number of Trips 5-10,Number of Trips 10-25,Number of Trips 25-50,Number of Trips 50-100,Number of Trips 100-250,Number of Trips 250-500,Number of Trips >=500
1861,County,2020/01/01,36.0,NY,36069.0,Ontario County,27136.0,82728.0,382016.0,96116.0,95362.0,41536.0,57550.0,62521.0,18984.0,6370.0,2884.0,600.0,93.0
5164,County,2020/01/02,36.0,NY,36069.0,Ontario County,21482.0,88382.0,507819.0,119147.0,114203.0,57354.0,71876.0,97923.0,38538.0,5456.0,2494.0,497.0,331.0
9437,County,2020/01/03,36.0,NY,36069.0,Ontario County,20997.0,88867.0,523667.0,122354.0,119753.0,56083.0,80945.0,98652.0,36487.0,5909.0,2881.0,415.0,188.0
11762,County,2020/01/04,36.0,NY,36069.0,Ontario County,24144.0,85720.0,447865.0,95779.0,106035.0,47993.0,76363.0,80646.0,31963.0,5778.0,2366.0,551.0,391.0
14637,County,2020/01/05,36.0,NY,36069.0,Ontario County,26156.0,83708.0,408933.0,92256.0,99522.0,48715.0,68156.0,70323.0,21618.0,5218.0,1972.0,600.0,553.0
16900,County,2020/01/06,36.0,NY,36069.0,Ontario County,21528.0,88336.0,492375.0,117974.0,110564.0,51510.0,75328.0,94622.0,33808.0,5863.0,1959.0,374.0,373.0
21661,County,2020/01/07,36.0,NY,36069.0,Ontario County,21465.0,88399.0,505909.0,112560.0,117140.0,50208.0,77606.0,100271.0,39639.0,5574.0,2246.0,368.0,297.0
23337,County,2020/01/08,36.0,NY,36069.0,Ontario County,20872.0,88992.0,492622.0,107242.0,118080.0,52669.0,76484.0,95610.0,34641.0,4931.0,2389.0,429.0,147.0
26483,County,2020/01/09,36.0,NY,36069.0,Ontario County,20783.0,89081.0,511033.0,125095.0,117236.0,50734.0,76531.0,97257.0,36344.0,5398.0,1913.0,389.0,136.0
29679,County,2020/01/10,36.0,NY,36069.0,Ontario County,20541.0,89323.0,543286.0,121007.0,121187.0,60931.0,85825.0,106756.0,38681.0,5573.0,2748.0,332.0,246.0
32920,County,2020/01/11,36.0,NY,36069.0,Ontario County,22547.0,87317.0,489694.0,110429.0,112421.0,54850.0,79998.0,93300.0,29980.0,5917.0,2262.0,309.0,228.0
37607,County,2020/01/12,36.0,NY,36069.0,Ontario County,25809.0,84055.0,419113.0,94395.0,101728.0,47186.0,72239.0,70501.0,24671.0,5195.0,2569.0,314.0,315.0
40854,County,2020/01/13,36.0,NY,36069.0,Ontario County,21404.0,88460.0,506993.0,120260.0,119823.0,52520.0,74689.0,95239.0,34848.0,6221.0,2731.0,357.0,305.0
42480,County,2020/01/14,36.0,NY,36069.0,Ontario County,20871.0,88993.0,515324.0,119756.0,120982.0,52202.0,75926.0,100598.0,37772.0,5412.0,2046.0,299.0,331.0
45633,County,2020/01/15,36.0,NY,36069.0,Ontario County,20458.0,89406.0,515987.0,122369.0,120578.0,55544.0,75490.0,94447.0,38569.0,6456.0,1859.0,350.0,325.0
50414,County,2020/01/16,36.0,NY,36069.0,Ontario County,21077.0,88787.0,504992.0,118132.0,111104.0,50188.0,78909.0,99416.0,38030.0,5822.0,2532.0,508.0,351.0
53652,County,2020/01/17,36.0,NY,36069.0,Ontario County,19523.0,90341.0,541304.0,127223.0,126661.0,55790.0,81567.0,99464.0,39574.0,7154.0,3163.0,445.0,263.0
55225,County,2020/01/18,36.0,NY,36069.0,Ontario County,24565.0,85299.0,454897.0,114210.0,105223.0,50574.0,74262.0,76066.0,26480.0,5134.0,2189.0,292.0,467.0
60021,County,2020/01/19,36.0,NY,36069.0,Ontario County,26492.0,83372.0,426933.0,104166.0,102829.0,47044.0,70473.0,69271.0,23865.0,5009.0,3191.0,578.0,507.0
61654,County,2020/01/20,36.0,NY,36069.0,Ontario County,22973.0,86891.0,474283.0,116405.0,107036.0,46555.0,69076.0,90940.0,34650.0,5519.0,3257.0,523.0,322.0
66382,County,2020/01/21,36.0,NY,36069.0,Ontario County,21121.0,88743.0,509158.0,124398.0,116291.0,44805.0,77920.0,97406.0,39825.0,6001.0,1890.0,424.0,198.0
69571,County,2020/01/22,36.0,NY,36069.0,Ontario County,19601.0,90263.0,525682.0,124115.0,115874.0,52858.0,79281.0,104055.0,41210.0,5523.0,2111.0,416.0,239.0
71197,County,2020/01/23,36.0,NY,36069.0,Ontario County,20330.0,89534.0,526830.0,126871.0,121705.0,49030.0,79881.0,101920.0,38708.0,5644.0,2312.0,449.0,310.0
74394,County,2020/01/24,36.0,NY,36069.0,Ontario County,19987.0,89877.0,569284.0,136981.0,131293.0,59792.0,83751.0,105540.0,42823.0,5856.0,2688.0,355.0,205.0
77587,County,2020/01/25,36.0,NY,36069.0,Ontario County,23468.0,86396.0,489829.0,114398.0,113784.0,51354.0,78546.0,90578.0,31618.0,6353.0,2497.0,472.0,229.0
81711,County,2020/01/26,36.0,NY,36069.0,Ontario County,24678.0,85186.0,426188.0,100174.0,101867.0,45413.0,68572.0,73553.0,27249.0,5646.0,2777.0,533.0,404.0
83868,County,2020/01/27,36.0,NY,36069.0,Ontario County,21355.0,88509.0,500328.0,119482.0,114629.0,49658.0,76029.0,94102.0,38114.0,4812.0,2863.0,338.0,301.0
89266,County,2020/01/28,36.0,NY,36069.0,Ontario County,20848.0,89016.0,501244.0,120709.0,113194.0,50083.0,75685.0,93125.0,39613.0,5260.0,2789.0,514.0,272.0
91916,County,2020/01/29,36.0,NY,36069.0,Ontario County,21568.0,88296.0,506450.0,120976.0,108791.0,49072.0,80216.0,99393.0,39424.0,5657.0,2328.0,413.0,180.0
95171,County,2020/01/30,36.0,NY,36069.0,Ontario County,20523.0,89341.0,521461.0,121848.0,117205.0,50719.0,84256.0,98797.0,37567.0,6828.0,2984.0,668.0,589.0
98316,County,2020/01/31,36.0,NY,36069.0,Ontario County,19923.0,89941.0,537104.0,125598.0,117591.0,59611.0,83820.0,99385.0,39448.0,7167.0,3106.0,841.0,537.0
99995,County,2020/02/01,36.0,NY,36069.0,Ontario County,22240.0,87624.0,520660.0,128967.0,117701.0,55215.0,86044.0,87799.0,33786.0,6547.0,3171.0,991.0,439.0
104706,County,2020/02/02,36.0,NY,36069.0,Ontario County,24206.0,85658.0,457292.0,123643.0,107668.0,48675.0,71649.0,74576.0,21473.0,5372.0,2976.0,725.0,535.0
106332,County,2020/02/03,36.0,NY,36069.0,Ontario County,21040.0,88824.0,524454.0,124294.0,125599.0,53644.0,78995.0,97321.0,34587.0,5976.0,2614.0,781.0,643.0
111094,County,2020/02/04,36.0,NY,36069.0,Ontario County,20288.0,89576.0,525574.0,120227.0,124396.0,54582.0,82769.0,95979.0,38174.0,5465.0,2723.0,708.0,551.0
112672,County,2020/02/05,36.0,NY,36069.0,Ontario County,19947.0,89917.0,519477.0,121496.0,120497.0,50754.0,81000.0,98455.0,36052.0,6545.0,3375.0,721.0,582.0
115816,County,2020/02/06,36.0,NY,36069.0,Ontario County,20595.0,89269.0,523990.0,133024.0,128247.0,52917.0,75464.0,89203.0,35804.0,5533.0,2401.0,860.0,537.0
119082,County,2020/02/07,36.0,NY,36069.0,Ontario County,24626.0,85238.0,496816.0,122843.0,130433.0,54430.0,72784.0,80117.0,27529.0,4733.0,2797.0,666.0,484.0
122328,County,2020/02/08,36.0,NY,36069.0,Ontario County,22991.0,86873.0,517022.0,127802.0,125613.0,54790.0,82378.0,91179.0,27136.0,5343.0,1657.0,673.0,451.0
125874,County,2020/02/09,36.0,NY,36069.0,Ontario County,26098.0,83766.0,415156.0,97206.0,99957.0,45368.0,68838.0,72394.0,23206.0,3972.0,2611.0,904.0,700.0
130170,County,2020/02/10,36.0,NY,36069.0,Ontario County,20601.0,89263.0,509227.0,118485.0,118836.0,50806.0,76517.0,97173.0,37120.0,5876.0,2597.0,999.0,818.0
132375,County,2020/02/11,36.0,NY,36069.0,Ontario County,18412.0,91452.0,519721.0,117216.0,121861.0,50221.0,79747.0,100816.0,38437.0,6532.0,2876.0,996.0,1019.0
136616,County,2020/02/12,36.0,NY,36069.0,Ontario County,19029.0,90835.0,528644.0,119217.0,122102.0,55235.0,78871.0,103519.0,37789.0,6675.0,2707.0,1282.0,1247.0
138311,County,2020/02/13,36.0,NY,36069.0,Ontario County,18822.0,91042.0,524363.0,120583.0,125125.0,54743.0,75519.0,98932.0,36847.0,7252.0,3223.0,1003.0,1136.0
143041,County,2020/02/14,36.0,NY,36069.0,Ontario County,18237.0,91627.0,542816.0,120208.0,123039.0,61318.0,81463.0,106116.0,36246.0,8131.0,3967.0,1150.0,1178.0
144665,County,2020/02/15,36.0,NY,36069.0,Ontario County,20949.0,88915.0,489861.0,112823.0,108736.0,51964.0,76745.0,90868.0,34261.0,8425.0,3466.0,1327.0,1246.0
147854,County,2020/02/16,36.0,NY,36069.0,Ontario County,24183.0,85681.0,435206.0,99088.0,102557.0,44130.0,68304.0,79221.0,28060.0,7533.0,3612.0,1146.0,1555.0
152616,County,2020/02/17,36.0,NY,36069.0,Ontario County,25811.0,84053.0,411219.0,94063.0,92048.0,42725.0,65696.0,77220.0,29254.0,5447.0,2890.0,937.0,939.0
155760,County,2020/02/18,36.0,NY,36069.0,Ontario County,20234.0,89630.0,490898.0,113946.0,105292.0,49921.0,76663.0,94978.0,38302.0,6768.0,2826.0,1069.0,1133.0
157437,County,2020/02/19,36.0,NY,36069.0,Ontario County,19412.0,90452.0,492167.0,106587.0,109077.0,48869.0,79608.0,97246.0,38742.0,6989.0,3115.0,990.0,944.0
160498,County,2020/02/20,36.0,NY,36069.0,Ontario County,20456.0,89408.0,490048.0,106785.0,108988.0,50013.0,77822.0,93821.0,40417.0,7661.0,3286.0,658.0,597.0
165392,County,2020/02/21,36.0,NY,36069.0,Ontario County,19435.0,90429.0,530918.0,118586.0,115010.0,55609.0,82445.0,103557.0,41070.0,8600.0,4264.0,847.0,930.0
168536,County,2020/02/22,36.0,NY,36069.0,Ontario County,20430.0,89434.0,522926.0,116242.0,115009.0,57593.0,85417.0,98771.0,36915.0,7406.0,3827.0,836.0,910.0
171785,County,2020/02/23,36.0,NY,36069.0,Ontario County,24253.0,85611.0,457656.0,108996.0,109602.0,47962.0,75460.0,76147.0,28535.0,6498.0,3124.0,600.0,732.0
173362,County,2020/02/24,36.0,NY,36069.0,Ontario County,19520.0,90344.0,498186.0,111681.0,113671.0,53650.0,76616.0,95703.0,37569.0,5296.0,2157.0,643.0,1200.0
177532,County,2020/02/25,36.0,NY,36069.0,Ontario County,18153.0,91711.0,519120.0,115526.0,114345.0,54892.0,80303.0,104393.0,38465.0,6471.0,2500.0,762.0,1463.0
180725,County,2020/02/26,36.0,NY,36069.0,Ontario County,21456.0,88408.0,468885.0,95375.0,114559.0,58831.0,80337.0,81057.0,29654.0,5261.0,2355.0,677.0,779.0
182387,County,2020/02/27,36.0,NY,36069.0,Ontario County,20081.0,89783.0,485275.0,107360.0,109559.0,53463.0,78208.0,92954.0,34678.0,5909.0,2028.0,428.0,688.0
187798,County,2020/02/28,36.0,NY,36069.0,Ontario County,18133.0,91731.0,549375.0,125515.0,122884.0,57181.0,86875.0,108274.0,38570.0,6346.0,2569.0,534.0,627.0
189329,County,2020/02/29,36.0,NY,36069.0,Ontario County,21095.0,88769.0,502012.0,115146.0,116353.0,52072.0,83151.0,90448.0,33690.0,7418.0,2500.0,555.0,679.0
194162,County,2020/03/01,36.0,NY,36069.0,Ontario County,23718.0,86146.0,442582.0,102181.0,102477.0,49357.0,71762.0,78566.0,28944.0,5295.0,2713.0,484.0,803.0
195791,County,2020/03/02,36.0,NY,36069.0,Ontario County,19994.0,89870.0,526930.0,122546.0,120918.0,51003.0,75627.0,105176.0,41762.0,6325.0,2354.0,507.0,712.0
198947,County,2020/03/03,36.0,NY,36069.0,Ontario County,18885.0,90979.0,525030.0,117879.0,122485.0,55925.0,76038.0,98406.0,41688.0,7964.0,3570.0,509.0,566.0
201276,County,2020/03/04,36.0,NY,36069.0,Ontario County,19278.0,90586.0,543204.0,127703.0,131008.0,51224.0,79425.0,101772.0,38167.0,9683.0,3414.0,442.0,366.0
205296,County,2020/03/05,36.0,NY,36069.0,Ontario County,17366.0,92498.0,571170.0,133992.0,128569.0,55358.0,86470.0,109159.0,44422.0,8232.0,3911.0,683.0,374.0
208415,County,2020/03/06,36.0,NY,36069.0,Ontario County,17900.0,91964.0,564738.0,128485.0,122883.0,60142.0,81062.0,112246.0,42398.0,11253.0,5163.0,578.0,528.0
213379,County,2020/03/07,36.0,NY,36069.0,Ontario County,20130.0,89734.0,532593.0,123228.0,119115.0,54518.0,83357.0,101580.0,37436.0,8228.0,3769.0,731.0,631.0
214931,County,2020/03/08,36.0,NY,36069.0,Ontario County,22511.0,87353.0,495360.0,125474.0,116335.0,49728.0,78759.0,82132.0,29383.0,8255.0,4119.0,600.0,575.0
219689,County,2020/03/09,36.0,NY,36069.0,Ontario County,20101.0,89763.0,549078.0,133967.0,121923.0,57292.0,80849.0,101277.0,40633.0,8510.0,3616.0,611.0,400.0
222882,County,2020/03/10,36.0,NY,36069.0,Ontario County,19994.0,89870.0,528554.0,116563.0,130548.0,52805.0,76806.0,102002.0,37208.0,8546.0,2976.0,493.0,607.0
226112,County,2020/03/11,36.0,NY,36069.0,Ontario County,19730.0,90134.0,517828.0,132038.0,124462.0,61585.0,65146.0,88774.0,27816.0,8582.0,6285.0,780.0,2360.0
227741,County,2020/03/12,36.0,NY,36069.0,Ontario County,20255.0,89609.0,538140.0,137807.0,130051.0,53657.0,72610.0,85352.0,38771.0,12812.0,4540.0,1469.0,1071.0
230900,County,2020/03/13,36.0,NY,36069.0,Ontario County,20142.0,89722.0,512796.0,157818.0,118245.0,50114.0,70380.0,73899.0,25327.0,9052.0,5437.0,1338.0,1186.0
234050,County,2020/03/14,36.0,NY,36069.0,Ontario County,24723.0,85141.0,483316.0,134434.0,100418.0,60588.0,73065.0,73246.0,25587.0,8589.0,3771.0,1272.0,2346.0
238853,County,2020/03/15,36.0,NY,36069.0,Ontario County,27731.0,82133.0,436664.0,110839.0,106064.0,50720.0,67293.0,66258.0,23053.0,7899.0,2921.0,819.0,798.0
242047,County,2020/03/16,36.0,NY,36069.0,Ontario County,23501.0,86363.0,535625.0,132584.0,120906.0,57833.0,84044.0,94549.0,33873.0,7983.0,2447.0,738.0,668.0
245288,County,2020/03/17,36.0,NY,36069.0,Ontario County,26617.0,83247.0,470586.0,115125.0,103875.0,54131.0,68391.0,88218.0,30431.0,6788.0,2423.0,609.0,595.0
246867,County,2020/03/18,36.0,NY,36069.0,Ontario County,27666.0,82198.0,471168.0,116741.0,106748.0,50835.0,71174.0,85524.0,28775.0,7483.0,2778.0,578.0,532.0
250073,County,2020/03/19,36.0,NY,36069.0,Ontario County,29683.0,80181.0,468910.0,108609.0,113307.0,49196.0,76420.0,80675.0,29103.0,7015.0,3251.0,788.0,546.0
254824,County,2020/03/20,36.0,NY,36069.0,Ontario County,28792.0,81072.0,477670.0,124293.0,108044.0,53403.0,71214.0,80849.0,29472.0,6363.0,2608.0,863.0,561.0
258016,County,2020/03/21,36.0,NY,36069.0,Ontario County,31958.0,77906.0,450807.0,120736.0,110607.0,58087.0,67562.0,69698.0,16564.0,4627.0,1574.0,701.0,651.0
261204,County,2020/03/22,36.0,NY,36069.0,Ontario County,31338.0,78526.0,357860.0,95792.0,93656.0,40562.0,50398.0,53458.0,17428.0,4054.0,1485.0,576.0,451.0
262841,County,2020/03/23,36.0,NY,36069.0,Ontario County,30121.0,79743.0,355779.0,88180.0,83863.0,36329.0,50772.0,63182.0,24353.0,5588.0,2627.0,204.0,681.0
267596,County,2020/03/24,36.0,NY,36069.0,Ontario County,29303.0,80561.0,381633.0,99173.0,85093.0,38420.0,58939.0,64073.0,27664.0,5363.0,2112.0,348.0,448.0
270794,County,2020/03/25,36.0,NY,36069.0,Ontario County,28585.0,81279.0,398939.0,105637.0,95349.0,43349.0,55455.0,67677.0,23050.0,5454.0,1897.0,498.0,573.0
272420,County,2020/03/26,36.0,NY,36069.0,Ontario County,28006.0,81858.0,409317.0,112798.0,96301.0,43821.0,55778.0,68686.0,23711.0,4879.0,2353.0,410.0,580.0
277183,County,2020/03/27,36.0,NY,36069.0,Ontario County,28466.0,81398.0,407767.0,105651.0,94170.0,42765.0,60428.0,71015.0,25262.0,5568.0,2123.0,537.0,248.0
280368,County,2020/03/28,36.0,NY,36069.0,Ontario County,30705.0,79159.0,352971.0,85149.0,93890.0,43420.0,54721.0,50239.0,17527.0,4957.0,1894.0,556.0,618.0
282003,County,2020/03/29,36.0,NY,36069.0,Ontario County,32364.0,77500.0,340688.0,89726.0,92874.0,41936.0,53385.0,43781.0,12914.0,3047.0,1813.0,807.0,405.0
286795,County,2020/03/30,36.0,NY,36069.0,Ontario County,29538.0,80326.0,369741.0,92899.0,78516.0,38215.0,59689.0,62348.0,28374.0,5945.0,2465.0,570.0,720.0
288393,County,2020/03/31,36.0,NY,36069.0,Ontario County,30051.0,79813.0,364117.0,96104.0,82024.0,35688.0,52774.0,65679.0,23615.0,5099.0,2108.0,487.0,539.0
291628,County,2020/04/01,36.0,NY,36069.0,Ontario County,29056.0,80808.0,404045.0,112317.0,88273.0,41585.0,57205.0,69913.0,26887.0,4957.0,1987.0,477.0,444.0
294779,County,2020/04/02,36.0,NY,36069.0,Ontario County,28826.0,81038.0,408335.0,118759.0,88003.0,42910.0,60927.0,63208.0,25267.0,6289.0,1981.0,696.0,295.0
299539,County,2020/04/03,36.0,NY,36069.0,Ontario County,29486.0,80378.0,395299.0,104336.0,90497.0,42597.0,62187.0,63547.0,22768.0,5919.0,2267.0,528.0,653.0
301166,County,2020/04/04,36.0,NY,36069.0,Ontario County,31099.0,78765.0,387642.0,111854.0,95636.0,38152.0,61303.0,56622.0,17549.0,3694.0,1607.0,581.0,644.0
305921,County,2020/04/05,36.0,NY,36069.0,Ontario County,31476.0,78388.0,347428.0,97263.0,84830.0,39292.0,53510.0,50458.0,15872.0,3698.0,1398.0,430.0,677.0
309121,County,2020/04/06,36.0,NY,36069.0,Ontario County,29131.0,80733.0,405474.0,118815.0,92602.0,36485.0,57067.0,68065.0,23826.0,5358.0,2492.0,323.0,441.0
310749,County,2020/04/07,36.0,NY,36069.0,Ontario County,29345.0,80519.0,436686.0,128790.0,104494.0,40802.0,59095.0,66544.0,26405.0,8258.0,1718.0,229.0,351.0
313943,County,2020/04/08,36.0,NY,36069.0,Ontario County,28761.0,81103.0,405627.0,115261.0,92933.0,42208.0,60522.0,63192.0,22024.0,6572.0,2198.0,397.0,320.0
318702,County,2020/04/09,36.0,NY,36069.0,Ontario County,30288.0,79576.0,389525.0,100296.0,90564.0,39718.0,61650.0,63532.0,26463.0,5005.0,1577.0,380.0,340.0
321898,County,2020/04/10,36.0,NY,36069.0,Ontario County,28943.0,80921.0,396094.0,110889.0,92774.0,41834.0,59043.0,63018.0,20378.0,5694.0,1576.0,548.0,340.0
323573,County,2020/04/11,36.0,NY,36069.0,Ontario County,30109.0,79755.0,426710.0,123699.0,99059.0,49453.0,70321.0,58300.0,20318.0,3135.0,1701.0,405.0,319.0
328258,County,2020/04/12,36.0,NY,36069.0,Ontario County,34996.0,74868.0,301381.0,83416.0,68314.0,36838.0,46153.0,43235.0,18080.0,2888.0,1880.0,306.0,271.0
331480,County,2020/04/13,36.0,NY,36069.0,Ontario County,31113.0,78751.0,369360.0,89525.0,83059.0,38631.0,61102.0,67160.0,23510.0,4436.0,1255.0,376.0,306.0
333107,County,2020/04/14,36.0,NY,36069.0,Ontario County,29118.0,80746.0,372919.0,92963.0,98663.0,41022.0,52636.0,54911.0,22260.0,6271.0,2931.0,693.0,569.0
337907,County,2020/04/15,36.0,NY,36069.0,Ontario County,28597.0,81267.0,398437.0,114696.0,100668.0,43338.0,54323.0,54683.0,22463.0,5439.0,1903.0,640.0,284.0
339486,County,2020/04/16,36.0,NY,36069.0,Ontario County,29813.0,80051.0,382392.0,91657.0,98808.0,47024.0,60174.0,54537.0,21631.0,5637.0,2186.0,371.0,367.0
344265,County,2020/04/17,36.0,NY,36069.0,Ontario County,27358.0,82506.0,354582.0,75812.0,93493.0,40900.0,57133.0,60206.0,20812.0,4026.0,1569.0,469.0,162.0
347412,County,2020/04/18,36.0,NY,36069.0,Ontario County,30393.0,79471.0,420629.0,110214.0,109870.0,56053.0,59875.0,61175.0,18137.0,2428.0,1530.0,539.0,808.0
349064,County,2020/04/19,36.0,NY,36069.0,Ontario County,30662.0,79202.0,327377.0,72516.0,96754.0,40821.0,49117.0,47556.0,13278.0,4630.0,2254.0,155.0,296.0
352270,County,2020/04/20,36.0,NY,36069.0,Ontario County,28125.0,81739.0,449005.0,146220.0,116156.0,43573.0,61663.0,50555.0,20717.0,5431.0,3079.0,464.0,1147.0
355464,County,2020/04/21,36.0,NY,36069.0,Ontario County,28558.0,81306.0,431646.0,125995.0,97468.0,43158.0,61902.0,67292.0,28313.0,5742.0,1245.0,345.0,186.0
360185,County,2020/04/22,36.0,NY,36069.0,Ontario County,27916.0,81948.0,414566.0,108665.0,88047.0,43798.0,59976.0,75424.0,30605.0,5918.0,1589.0,380.0,164.0
361764,County,2020/04/23,36.0,NY,36069.0,Ontario County,27755.0,82109.0,430608.0,123034.0,93539.0,44406.0,60862.0,69247.0,31285.0,5982.0,1763.0,354.0,136.0
366652,County,2020/04/24,36.0,NY,36069.0,Ontario County,26251.0,83613.0,466612.0,130546.0,103773.0,49892.0,70054.0,73030.0,30520.0,6258.0,2054.0,237.0,248.0
369808,County,2020/04/25,36.0,NY,36069.0,Ontario County,27200.0,82664.0,471278.0,130179.0,116561.0,55955.0,75568.0,64051.0,21726.0,5059.0,1680.0,292.0,207.0
373003,County,2020/04/26,36.0,NY,36069.0,Ontario County,32242.0,77622.0,360463.0,86590.0,88660.0,47155.0,62242.0,50064.0,19617.0,3857.0,1701.0,251.0,326.0
376234,County,2020/04/27,36.0,NY,36069.0,Ontario County,27628.0,82236.0,426869.0,98902.0,100038.0,53791.0,66596.0,72616.0,28113.0,5052.0,1441.0,186.0,134.0
377828,County,2020/04/28,36.0,NY,36069.0,Ontario County,26130.0,83734.0,472092.0,134273.0,103393.0,51676.0,68624.0,77651.0,27844.0,6885.0,1223.0,324.0,199.0
381031,County,2020/04/29,36.0,NY,36069.0,Ontario County,27493.0,82371.0,453294.0,119488.0,107952.0,49445.0,66114.0,75344.0,27383.0,5680.0,1420.0,265.0,203.0
384179,County,2020/04/30,36.0,NY,36069.0,Ontario County,27402.0,82462.0,443385.0,127122.0,97968.0,42337.0,66330.0,73759.0,27678.0,5777.0,1819.0,265.0,330.0
387452,County,2020/05/01,36.0,NY,36069.0,Ontario County,25201.0,84663.0,481180.0,128993.0,113804.0,52062.0,72211.0,79989.0,25298.0,6181.0,2306.0,199.0,137.0
392164,County,2020/05/02,36.0,NY,36069.0,Ontario County,26946.0,82918.0,479599.0,130587.0,113773.0,57135.0,78146.0,65994.0,26566.0,5198.0,1801.0,106.0,293.0
393799,County,2020/05/03,36.0,NY,36069.0,Ontario County,27532.0,82332.0,434224.0,121389.0,104125.0,48640.0,74480.0,56828.0,22128.0,4167.0,1813.0,291.0,363.0
398553,County,2020/05/04,36.0,NY,36069.0,Ontario County,26331.0,83533.0,433670.0,104137.0,102164.0,44499.0,63153.0,79915.0,32196.0,4846.0,2304.0,224.0,232.0
401729,County,2020/05/05,36.0,NY,36069.0,Ontario County,25618.0,84246.0,482148.0,133056.0,117190.0,48225.0,67790.0,79920.0,28213.0,5640.0,1938.0,104.0,72.0
403359,County,2020/05/06,36.0,NY,36069.0,Ontario County,25565.0,84299.0,473864.0,127335.0,117486.0,45297.0,63982.0,80267.0,30575.0,6379.0,1768.0,416.0,359.0
408079,County,2020/05/07,36.0,NY,36069.0,Ontario County,25537.0,84327.0,467229.0,127634.0,111307.0,48755.0,65037.0,74528.0,29348.0,8264.0,1849.0,246.0,261.0
409867,County,2020/05/08,36.0,NY,36069.0,Ontario County,26109.0,83755.0,486257.0,127800.0,110565.0,53009.0,73953.0,79831.0,33143.0,5497.0,2002.0,336.0,121.0
414489,County,2020/05/09,36.0,NY,36069.0,Ontario County,26521.0,83343.0,447571.0,106369.0,115193.0,53689.0,72508.0,69484.0,22789.0,5119.0,1890.0,281.0,249.0
416150,County,2020/05/10,36.0,NY,36069.0,Ontario County,27486.0,82378.0,421552.0,106902.0,101418.0,51238.0,67243.0,69806.0,18874.0,4138.0,1700.0,132.0,101.0
420948,County,2020/05/11,36.0,NY,36069.0,Ontario County,25004.0,84860.0,438465.0,113216.0,102958.0,44299.0,67043.0,68871.0,32388.0,6020.0,2716.0,473.0,481.0
422577,County,2020/05/12,36.0,NY,36069.0,Ontario County,23450.0,86414.0,492820.0,131265.0,113074.0,50121.0,69212.0,85245.0,34241.0,6757.0,2326.0,324.0,255.0
427299,County,2020/05/13,36.0,NY,36069.0,Ontario County,23068.0,86796.0,511889.0,159482.0,110100.0,46510.0,69466.0,84121.0,31461.0,7056.0,2762.0,603.0,328.0
430493,County,2020/05/14,36.0,NY,36069.0,Ontario County,24001.0,85863.0,480048.0,131628.0,103365.0,52589.0,66015.0,82629.0,32616.0,6840.0,3189.0,753.0,424.0
432122,County,2020/05/15,36.0,NY,36069.0,Ontario County,23367.0,86497.0,476240.0,133605.0,102579.0,47799.0,70448.0,79758.0,29924.0,7434.0,3606.0,531.0,556.0
436871,County,2020/05/16,36.0,NY,36069.0,Ontario County,23778.0,86086.0,515320.0,148190.0,119578.0,55778.0,72399.0,79295.0,27180.0,8420.0,3229.0,591.0,660.0
440030,County,2020/05/17,36.0,NY,36069.0,Ontario County,23488.0,86376.0,485594.0,132733.0,127284.0,55102.0,77850.0,66987.0,18685.0,4989.0,1406.0,225.0,333.0
441743,County,2020/05/18,36.0,NY,36069.0,Ontario County,19176.0,90688.0,511403.0,142489.0,120167.0,45315.0,69681.0,88412.0,34633.0,7674.0,2490.0,313.0,229.0
444897,County,2020/05/19,36.0,NY,36069.0,Ontario County,19037.0,90827.0,559847.0,151842.0,128438.0,54338.0,82610.0,96346.0,38346.0,4907.0,2516.0,279.0,225.0
449658,County,2020/05/20,36.0,NY,36069.0,Ontario County,18386.0,91478.0,565530.0,152631.0,132330.0,65123.0,77893.0,90510.0,36403.0,7775.0,2089.0,615.0,161.0
451284,County,2020/05/21,36.0,NY,36069.0,Ontario County,17545.0,92319.0,581645.0,161208.0,136705.0,64306.0,85324.0,89660.0,32706.0,8008.0,2931.0,370.0,427.0
454471,County,2020/05/22,36.0,NY,36069.0,Ontario County,17857.0,92007.0,609639.0,172530.0,139392.0,69968.0,77405.0,102487.0,35057.0,8433.0,3337.0,634.0,396.0
459255,County,2020/05/23,36.0,NY,36069.0,Ontario County,19209.0,90655.0,568418.0,151463.0,138635.0,64112.0,98397.0,77422.0,29049.0,7079.0,1587.0,235.0,439.0
462410,County,2020/05/24,36.0,NY,36069.0,Ontario County,24555.0,85309.0,450980.0,115119.0,117018.0,47505.0,70170.0,63582.0,26381.0,5812.0,3280.0,459.0,1654.0
464038,County,2020/05/25,36.0,NY,36069.0,Ontario County,23645.0,86219.0,419083.0,102598.0,119666.0,49089.0,58592.0,56642.0,23212.0,4079.0,3056.0,566.0,1583.0
467192,County,2020/05/26,36.0,NY,36069.0,Ontario County,22479.0,87385.0,486046.0,127846.0,116556.0,49447.0,68087.0,79785.0,33601.0,6568.0,2554.0,573.0,1029.0
472060,County,2020/05/27,36.0,NY,36069.0,Ontario County,21861.0,88003.0,520600.0,143506.0,121650.0,49023.0,79946.0,81843.0,33677.0,6892.0,3054.0,400.0,609.0
475160,County,2020/05/28,36.0,NY,36069.0,Ontario County,22796.0,87068.0,482494.0,128117.0,111900.0,47002.0,70972.0,79064.0,35444.0,6620.0,2707.0,554.0,114.0
478398,County,2020/05/29,36.0,NY,36069.0,Ontario County,24525.0,85339.0,481235.0,123577.0,114417.0,48751.0,75998.0,77152.0,31989.0,5969.0,2850.0,461.0,71.0
481598,County,2020/05/30,36.0,NY,36069.0,Ontario County,25490.0,84374.0,490445.0,135910.0,117930.0,50828.0,73557.0,70831.0,30312.0,8093.0,2505.0,399.0,80.0
483154,County,2020/05/31,36.0,NY,36069.0,Ontario County,27130.0,82734.0,439497.0,116541.0,108099.0,48359.0,68807.0,65176.0,22091.0,6606.0,3194.0,451.0,173.0
486371,County,2020/06/01,36.0,NY,36069.0,Ontario County,22939.0,86925.0,477579.0,129037.0,112493.0,44571.0,67618.0,78856.0,33511.0,7248.0,3415.0,521.0,309.0
491151,County,2020/06/02,36.0,NY,36069.0,Ontario County,22400.0,87464.0,493290.0,135479.0,116484.0,47120.0,67115.0,79864.0,35079.0,7277.0,3775.0,718.0,379.0
494373,County,2020/06/03,36.0,NY,36069.0,Ontario County,21062.0,88802.0,501723.0,130127.0,112025.0,49362.0,76407.0,87226.0,34183.0,7534.0,3687.0,666.0,506.0
495992,County,2020/06/04,36.0,NY,36069.0,Ontario County,21989.0,87875.0,509679.0,133959.0,116347.0,49564.0,78092.0,81007.0,37169.0,8686.0,3724.0,723.0,408.0
500768,County,2020/06/05,36.0,NY,36069.0,Ontario County,21047.0,88817.0,535628.0,143631.0,126983.0,54964.0,76046.0,84780.0,35926.0,8807.0,3502.0,672.0,317.0
502342,County,2020/06/06,36.0,NY,36069.0,Ontario County,25359.0,84505.0,452531.0,114063.0,106178.0,56365.0,69417.0,70075.0,27043.0,5755.0,2842.0,552.0,241.0
507119,County,2020/06/07,36.0,NY,36069.0,Ontario County,25287.0,84577.0,413719.0,98871.0,113059.0,51155.0,61855.0,58793.0,20778.0,5236.0,2866.0,671.0,435.0
508757,County,2020/06/08,36.0,NY,36069.0,Ontario County,19726.0,90138.0,539695.0,138540.0,125083.0,53777.0,79960.0,93507.0,36539.0,8073.0,3423.0,555.0,238.0
513535,County,2020/06/09,36.0,NY,36069.0,Ontario County,21270.0,88594.0,524488.0,135073.0,128069.0,51791.0,78159.0,84660.0,35534.0,7343.0,2760.0,565.0,534.0
516740,County,2020/06/10,36.0,NY,36069.0,Ontario County,21777.0,88087.0,487821.0,128609.0,121999.0,46714.0,72749.0,72297.0,33172.0,7593.0,2949.0,614.0,1125.0
519897,County,2020/06/11,36.0,NY,36069.0,Ontario County,21820.0,88044.0,482400.0,119681.0,109646.0,50764.0,76248.0,82222.0,31312.0,7336.0,4026.0,476.0,689.0
521571,County,2020/06/12,36.0,NY,36069.0,Ontario County,21426.0,88438.0,531015.0,142494.0,124086.0,56099.0,80044.0,80604.0,33565.0,8340.0,4729.0,685.0,369.0
524747,County,2020/06/13,36.0,NY,36069.0,Ontario County,24062.0,85802.0,512279.0,132725.0,120605.0,60849.0,81028.0,77820.0,28599.0,7439.0,2386.0,556.0,272.0
529511,County,2020/06/14,36.0,NY,36069.0,Ontario County,25342.0,84522.0,461560.0,124622.0,116837.0,53134.0,64017.0,67804.0,24356.0,6347.0,3339.0,750.0,354.0
532701,County,2020/06/15,36.0,NY,36069.0,Ontario County,23817.0,86047.0,479583.0,134095.0,110832.0,48605.0,65957.0,80528.0,28149.0,6779.0,3585.0,657.0,396.0
535921,County,2020/06/16,36.0,NY,36069.0,Ontario County,23154.0,86710.0,526782.0,151956.0,120469.0,49425.0,77506.0,82753.0,34752.0,6119.0,2901.0,660.0,241.0
537523,County,2020/06/17,36.0,NY,36069.0,Ontario County,21800.0,88064.0,530291.0,152395.0,121795.0,50232.0,73677.0,87701.0,31513.0,8176.0,4047.0,682.0,73.0
540719,County,2020/06/18,36.0,NY,36069.0,Ontario County,22250.0,87614.0,511008.0,141195.0,120166.0,47746.0,73213.0,85005.0,32228.0,7241.0,3373.0,670.0,171.0
545436,County,2020/06/19,36.0,NY,36069.0,Ontario County,22120.0,87744.0,484002.0,119240.0,119640.0,44770.0,72685.0,85484.0,29591.0,6762.0,4671.0,508.0,651.0
548671,County,2020/06/20,36.0,NY,36069.0,Ontario County,23558.0,86306.0,475492.0,131236.0,112299.0,54350.0,68919.0,71600.0,27608.0,4856.0,3484.0,627.0,513.0
551859,County,2020/06/21,36.0,NY,36069.0,Ontario County,26178.0,83686.0,429073.0,107397.0,105671.0,47747.0,65857.0,66070.0,25119.0,6232.0,3881.0,736.0,363.0
553495,County,2020/06/22,36.0,NY,36069.0,Ontario County,23853.0,86011.0,412114.0,100965.0,97195.0,44389.0,59630.0,70251.0,28095.0,6562.0,4032.0,631.0,364.0
558255,County,2020/06/23,36.0,NY,36069.0,Ontario County,22871.0,86993.0,471215.0,115318.0,111910.0,49682.0,70555.0,81028.0,33088.0,6227.0,2514.0,621.0,272.0
561447,County,2020/06/24,36.0,NY,36069.0,Ontario County,24398.0,85466.0,460460.0,119323.0,109751.0,44778.0,69229.0,76634.0,30852.0,5595.0,3331.0,707.0,260.0
564623,County,2020/06/25,36.0,NY,36069.0,Ontario County,23416.0,86448.0,458810.0,114531.0,106695.0,45596.0,65459.0,84415.0,31208.0,6192.0,3792.0,631.0,291.0
566329,County,2020/06/26,36.0,NY,36069.0,Ontario County,22715.0,87149.0,465189.0,114375.0,109684.0,48798.0,71861.0,78826.0,29473.0,7466.0,3509.0,696.0,501.0
569451,County,2020/06/27,36.0,NY,36069.0,Ontario County,25796.0,84068.0,439407.0,109300.0,108424.0,51088.0,66455.0,68388.0,24335.0,6905.0,3587.0,644.0,281.0
572650,County,2020/06/28,36.0,NY,36069.0,Ontario County,23334.0,86530.0,416885.0,106003.0,101374.0,44537.0,63134.0,69689.0,19415.0,6583.0,4528.0,657.0,965.0
577427,County,2020/06/29,36.0,NY,36069.0,Ontario County,23193.0,86671.0,450127.0,117996.0,97802.0,48797.0,68831.0,76470.0,28440.0,7085.0,3200.0,866.0,640.0
580620,County,2020/06/30,36.0,NY,36069.0,Ontario County,22921.0,86943.0,456306.0,115674.0,98242.0,48400.0,68977.0,78977.0,33030.0,7842.0,3790.0,727.0,647.0
583817,County,2020/07/01,36.0,NY,36069.0,Ontario County,22023.0,87841.0,469710.0,122300.0,112928.0,48168.0,66692.0,76180.0,31590.0,7006.0,2915.0,1352.0,579.0
587008,County,2020/07/02,36.0,NY,36069.0,Ontario County,24092.0,85772.0,486982.0,121564.0,113246.0,48396.0,69478.0,89598.0,33124.0,6572.0,4025.0,670.0,309.0
588647,County,2020/07/03,36.0,NY,36069.0,Ontario County,26258.0,83606.0,462568.0,113731.0,109066.0,48523.0,71456.0,78382.0,29307.0,7424.0,3489.0,692.0,498.0
593391,County,2020/07/04,36.0,NY,36069.0,Ontario County,27211.0,82653.0,395738.0,97299.0,93309.0,41513.0,61132.0,67058.0,25073.0,6351.0,2985.0,592.0,426.0
595041,County,2020/07/05,36.0,NY,36069.0,Ontario County,24853.0,85011.0,410650.0,114515.0,95938.0,40364.0,61249.0,59396.0,24809.0,7532.0,4931.0,939.0,977.0
599727,County,2020/07/06,36.0,NY,36069.0,Ontario County,24833.0,85031.0,424320.0,110647.0,92244.0,42778.0,69322.0,68523.0,27654.0,6810.0,4596.0,907.0,839.0
603398,County,2020/07/07,36.0,NY,36069.0,Ontario County,24462.0,85402.0,425156.0,108448.0,94642.0,44502.0,64626.0,69955.0,30856.0,6139.0,4225.0,931.0,832.0
604595,County,2020/07/08,36.0,NY,36069.0,Ontario County,23729.0,86135.0,422796.0,111332.0,91656.0,41202.0,61757.0,71090.0,30258.0,9160.0,4595.0,1113.0,633.0
607790,County,2020/07/09,36.0,NY,36069.0,Ontario County,23765.0,86099.0,430140.0,109405.0,96595.0,42955.0,63312.0,72685.0,31355.0,7161.0,5364.0,689.0,619.0
610990,County,2020/07/10,36.0,NY,36069.0,Ontario County,23223.0,86641.0,431139.0,108871.0,98921.0,41444.0,65048.0,74835.0,26579.0,8978.0,5090.0,659.0,714.0
614201,County,2020/07/11,36.0,NY,36069.0,Ontario County,25437.0,84427.0,420683.0,110983.0,103257.0,44111.0,64447.0,63563.0,20429.0,8137.0,4367.0,693.0,696.0
617372,County,2020/07/12,36.0,NY,36069.0,Ontario County,27307.0,82557.0,391025.0,98086.0,94659.0,42038.0,62113.0,61225.0,19390.0,6802.0,5060.0,776.0,876.0
620562,County,2020/07/13,36.0,NY,36069.0,Ontario County,25096.0,84768.0,396892.0,95758.0,83593.0,42482.0,60889.0,73500.0,26091.0,9082.0,4145.0,678.0,674.0
625326,County,2020/07/14,36.0,NY,36069.0,Ontario County,25197.0,84667.0,419503.0,106460.0,92625.0,42078.0,67971.0,72342.0,25601.0,7569.0,3858.0,608.0,391.0
628499,County,2020/07/15,36.0,NY,36069.0,Ontario County,25032.0,84832.0,432648.0,110761.0,95395.0,44800.0,66162.0,75609.0,28726.0,6876.0,3267.0,527.0,525.0
630125,County,2020/07/16,36.0,NY,36069.0,Ontario County,25168.0,84696.0,401898.0,103116.0,85358.0,39504.0,64288.0,70594.0,27350.0,7744.0,3101.0,500.0,343.0
633326,County,2020/07/17,36.0,NY,36069.0,Ontario County,24939.0,84925.0,418128.0,95925.0,96227.0,43861.0,64561.0,75436.0,30645.0,7914.0,2924.0,451.0,184.0
636537,County,2020/07/18,36.0,NY,36069.0,Ontario County,26841.0,83023.0,434966.0,108037.0,104363.0,49386.0,68151.0,67861.0,25427.0,8043.0,3224.0,268.0,206.0
639692,County,2020/07/19,36.0,NY,36069.0,Ontario County,28319.0,81545.0,364865.0,87279.0,87639.0,38102.0,63076.0,53963.0,21750.0,8321.0,3612.0,650.0,473.0
642926,County,2020/07/20,36.0,NY,36069.0,Ontario County,26027.0,83837.0,427158.0,111827.0,87058.0,37997.0,66417.0,78509.0,33915.0,7836.0,3003.0,431.0,165.0
648166,County,2020/07/21,36.0,NY,36069.0,Ontario County,25143.0,84721.0,437777.0,103613.0,93493.0,41290.0,71206.0,84139.0,32997.0,7458.0,2695.0,495.0,391.0
650879,County,2020/07/22,36.0,NY,36069.0,Ontario County,25013.0,84851.0,423231.0,101637.0,87415.0,42081.0,69568.0,79420.0,32122.0,6951.0,3034.0,602.0,401.0
652421,County,2020/07/23,36.0,NY,36069.0,Ontario County,25740.0,84124.0,414512.0,107187.0,86652.0,38172.0,59916.0,78497.0,31024.0,7755.0,4042.0,764.0,503.0
655544,County,2020/07/24,36.0,NY,36069.0,Ontario County,24509.0,85355.0,443372.0,113002.0,86174.0,40098.0,70068.0,85291.0,33686.0,9305.0,4544.0,646.0,558.0
658890,County,2020/07/25,36.0,NY,36069.0,Ontario County,25624.0,84240.0,418454.0,109635.0,90243.0,40291.0,63660.0,75567.0,25615.0,8208.0,4322.0,689.0,224.0
662090,County,2020/07/26,36.0,NY,36069.0,Ontario County,26998.0,82866.0,385299.0,98544.0,79375.0,38775.0,62927.0,66086.0,25336.0,7890.0,4848.0,917.0,601.0
666869,County,2020/07/27,36.0,NY,36069.0,Ontario County,26458.0,83406.0,441028.0,116003.0,92454.0,41920.0,65655.0,82801.0,28554.0,8007.0,4345.0,647.0,642.0
668498,County,2020/07/28,36.0,NY,36069.0,Ontario County,25025.0,84839.0,432455.0,107274.0,91074.0,46843.0,64693.0,80444.0,28039.0,8015.0,4695.0,699.0,679.0
673335,County,2020/07/29,36.0,NY,36069.0,Ontario County,25382.0,84482.0,427766.0,105878.0,86913.0,41933.0,65489.0,82039.0,31771.0,6950.0,5428.0,702.0,663.0
674866,County,2020/07/30,36.0,NY,36069.0,Ontario County,24417.0,85447.0,426460.0,100758.0,91247.0,41552.0,67407.0,78660.0,32724.0,8166.0,4557.0,602.0,787.0
679643,County,2020/07/31,36.0,NY,36069.0,Ontario County,25097.0,84767.0,399347.0,92847.0,83315.0,35304.0,67299.0,74711.0,30148.0,8196.0,5679.0,1188.0,660.0
681224,County,2020/08/01,36.0,NY,36069.0,Ontario County,26433.0,83431.0,401763.0,96329.0,88649.0,39516.0,63695.0,72564.0,26087.0,8253.0,5157.0,984.0,529.0
684447,County,2020/08/02,36.0,NY,36069.0,Ontario County,28023.0,81841.0,377288.0,88350.0,86050.0,37257.0,58933.0,68219.0,24219.0,8319.0,5158.0,485.0,298.0
687644,County,2020/08/03,36.0,NY,36069.0,Ontario County,25668.0,84196.0,434974.0,112991.0,96352.0,41111.0,63097.0,78893.0,31063.0,7498.0,2977.0,832.0,160.0
690835,County,2020/08/04,36.0,NY,36069.0,Ontario County,24245.0,85619.0,425687.0,102548.0,92566.0,40358.0,64404.0,83134.0,33057.0,6361.0,2509.0,582.0,168.0
695595,County,2020/08/05,36.0,NY,36069.0,Ontario County,24435.0,85429.0,450362.0,116785.0,104894.0,41040.0,64352.0,77327.0,34422.0,8050.0,2830.0,503.0,159.0
698790,County,2020/08/06,36.0,NY,36069.0,Ontario County,24745.0,85119.0,468428.0,128481.0,100292.0,43577.0,69184.0,82659.0,31496.0,8674.0,3263.0,626.0,176.0
701986,County,2020/08/07,36.0,NY,36069.0,Ontario County,23913.0,85951.0,460424.0,120165.0,105117.0,42353.0,63991.0,84348.0,33107.0,7206.0,3544.0,432.0,161.0
705177,County,2020/08/08,36.0,NY,36069.0,Ontario County,25414.0,84450.0,435719.0,102642.0,103039.0,44665.0,70661.0,72627.0,29665.0,7925.0,3826.0,543.0,126.0
708396,County,2020/08/09,36.0,NY,36069.0,Ontario County,25572.0,84292.0,411011.0,95948.0,98148.0,42631.0,60434.0,73186.0,27564.0,8009.0,4008.0,787.0,296.0
710026,County,2020/08/10,36.0,NY,36069.0,Ontario County,24594.0,85270.0,440633.0,101985.0,103115.0,43024.0,66729.0,78664.0,35287.0,8226.0,2810.0,597.0,196.0
713194,County,2020/08/11,36.0,NY,36069.0,Ontario County,24897.0,84967.0,471331.0,115339.0,99950.0,49773.0,73932.0,86439.0,34291.0,8738.0,2185.0,509.0,175.0
717855,County,2020/08/12,36.0,NY,36069.0,Ontario County,23835.0,86029.0,455884.0,126727.0,90643.0,41190.0,64839.0,84432.0,33310.0,9414.0,3303.0,918.0,1108.0
719582,County,2020/08/13,36.0,NY,36069.0,Ontario County,22676.0,87188.0,468657.0,121615.0,102817.0,46323.0,70050.0,77965.0,35224.0,8003.0,4165.0,1205.0,1290.0
722775,County,2020/08/14,36.0,NY,36069.0,Ontario County,21678.0,88186.0,463727.0,117796.0,98172.0,40141.0,69283.0,84519.0,35904.0,10130.0,5055.0,932.0,1795.0
726006,County,2020/08/15,36.0,NY,36069.0,Ontario County,23941.0,85923.0,429599.0,104144.0,90909.0,46019.0,72020.0,72557.0,29368.0,8298.0,3711.0,1022.0,1551.0
729165,County,2020/08/16,36.0,NY,36069.0,Ontario County,27383.0,82481.0,390793.0,99179.0,74526.0,43793.0,59294.0,67536.0,25682.0,10806.0,6250.0,1484.0,2243.0
732358,County,2020/08/17,36.0,NY,36069.0,Ontario County,26599.0,83265.0,400053.0,90385.0,84820.0,38503.0,60327.0,79461.0,29100.0,8946.0,4931.0,1325.0,2255.0
735573,County,2020/08/18,36.0,NY,36069.0,Ontario County,25404.0,84460.0,409717.0,94367.0,88135.0,38329.0,62011.0,78856.0,30620.0,8422.0,5267.0,1060.0,2650.0
740312,County,2020/08/19,36.0,NY,36069.0,Ontario County,24405.0,85459.0,412264.0,84756.0,85101.0,42407.0,67138.0,82279.0,32670.0,9322.0,4900.0,1249.0,2442.0
741941,County,2020/08/20,36.0,NY,36069.0,Ontario County,22946.0,86918.0,430644.0,102682.0,91051.0,40315.0,62200.0,83091.0,33971.0,9191.0,4728.0,1252.0,2163.0
745140,County,2020/08/21,36.0,NY,36069.0,Ontario County,21866.0,87998.0,454244.0,100681.0,103353.0,44241.0,69889.0,82158.0,34482.0,10438.0,5883.0,850.0,2269.0
748345,County,2020/08/22,36.0,NY,36069.0,Ontario County,24226.0,85638.0,433066.0,105235.0,98119.0,41361.0,63685.0,74206.0,31721.0,9518.0,5439.0,1331.0,2451.0
751538,County,2020/08/23,36.0,NY,36069.0,Ontario County,27990.0,81874.0,357402.0,93937.0,82103.0,35494.0,49592.0,57131.0,23968.0,8284.0,4190.0,1027.0,1676.0
756282,County,2020/08/24,36.0,NY,36069.0,Ontario County,26647.0,83217.0,391468.0,91960.0,91039.0,39119.0,55047.0,68678.0,31215.0,8019.0,3704.0,1046.0,1641.0
757911,County,2020/08/25,36.0,NY,36069.0,Ontario County,26065.0,83799.0,392057.0,97693.0,77970.0,39317.0,59641.0,73492.0,31915.0,6674.0,3176.0,786.0,1393.0
762632,County,2020/08/26,36.0,NY,36069.0,Ontario County,26544.0,83320.0,387434.0,89469.0,80001.0,32320.0,64095.0,75202.0,33349.0,7455.0,3294.0,936.0,1313.0
764261,County,2020/08/27,36.0,NY,36069.0,Ontario County,26072.0,83792.0,388873.0,91444.0,84382.0,39133.0,57161.0,72119.0,31909.0,7299.0,3541.0,760.0,1125.0
769044,County,2020/08/28,36.0,NY,36069.0,Ontario County,25462.0,84402.0,402474.0,91202.0,89579.0,41701.0,59971.0,74485.0,31650.0,8355.0,3637.0,953.0,941.0
772245,County,2020/08/29,36.0,NY,36069.0,Ontario County,27116.0,82748.0,384176.0,82422.0,94190.0,42498.0,57546.0,68665.0,24602.0,8299.0,3760.0,833.0,1361.0
775449,County,2020/08/30,36.0,NY,36069.0,Ontario County,29288.0,80576.0,355741.0,85176.0,77048.0,35248.0,55513.0,62828.0,22722.0,8528.0,6016.0,1067.0,1595.0
778647,County,2020/08/31,36.0,NY,36069.0,Ontario County,26591.0,83273.0,387731.0,94414.0,82643.0,38779.0,55118.0,71426.0,31663.0,7155.0,4174.0,989.0,1370.0
781838,County,2020/09/01,36.0,NY,36069.0,Ontario County,26588.0,83276.0,406321.0,89537.0,96927.0,38311.0,55892.0,79437.0,32589.0,7829.0,4205.0,757.0,837.0
784286,County,2020/09/02,36.0,NY,36069.0,Ontario County,26152.0,83712.0,419150.0,99491.0,89432.0,38258.0,59459.0,80336.0,36909.0,9089.0,4506.0,745.0,925.0
786594,County,2020/09/03,36.0,NY,36069.0,Ontario County,24674.0,85190.0,453051.0,119167.0,91354.0,42187.0,63020.0,86679.0,34865.0,9011.0,4629.0,1036.0,1103.0
789856,County,2020/09/04,36.0,NY,36069.0,Ontario County,25898.0,83966.0,417643.0,99109.0,88735.0,41341.0,57810.0,80312.0,35380.0,8525.0,4642.0,983.0,806.0
792931,County,2020/09/05,36.0,NY,36069.0,Ontario County,27077.0,82787.0,411430.0,102678.0,90365.0,46291.0,59478.0,71469.0,27526.0,8664.0,3570.0,637.0,752.0
796221,County,2020/09/06,36.0,NY,36069.0,Ontario County,29730.0,80134.0,374504.0,91471.0,84286.0,39396.0,55702.0,62944.0,25624.0,8733.0,4460.0,846.0,1042.0
799432,County,2020/09/07,36.0,NY,36069.0,Ontario County,30162.0,79702.0,327433.0,76252.0,70399.0,33685.0,49093.0,56085.0,23529.0,10613.0,5249.0,846.0,1682.0
804192,County,2020/09/08,36.0,NY,36069.0,Ontario County,27548.0,82316.0,423126.0,105086.0,90935.0,40634.0,59847.0,78496.0,34506.0,7187.0,4340.0,958.0,1137.0
805821,County,2020/09/09,36.0,NY,36069.0,Ontario County,26256.0,83608.0,419823.0,99639.0,89502.0,40485.0,62545.0,79099.0,34244.0,7508.0,4524.0,944.0,1333.0
809012,County,2020/09/10,36.0,NY,36069.0,Ontario County,26075.0,83789.0,404528.0,96213.0,84630.0,39314.0,60429.0,73501.0,35385.0,8253.0,4895.0,760.0,1148.0
813773,County,2020/09/11,36.0,NY,36069.0,Ontario County,25392.0,84472.0,453787.0,121428.0,98621.0,46890.0,64310.0,77045.0,30195.0,8611.0,4879.0,755.0,1053.0
816968,County,2020/09/12,36.0,NY,36069.0,Ontario County,27152.0,82712.0,427148.0,111821.0,98791.0,37651.0,61300.0,70060.0,32248.0,9043.0,4193.0,1121.0,920.0
818575,County,2020/09/13,36.0,NY,36069.0,Ontario County,29655.0,80209.0,318215.0,67064.0,78376.0,26373.0,51475.0,58740.0,19720.0,9196.0,5163.0,913.0,1195.0
823357,County,2020/09/14,36.0,NY,36069.0,Ontario County,28320.0,81544.0,404905.0,95048.0,90429.0,40314.0,59196.0,74464.0,30963.0,8248.0,4164.0,1038.0,1041.0
826549,County,2020/09/15,36.0,NY,36069.0,Ontario County,27474.0,82390.0,454969.0,121773.0,92470.0,42601.0,63496.0,84374.0,33376.0,9288.0,5739.0,891.0,961.0
828177,County,2020/09/16,36.0,NY,36069.0,Ontario County,27142.0,82722.0,454782.0,129145.0,100722.0,37494.0,64488.0,74427.0,33675.0,7573.0,5174.0,869.0,1215.0
831371,County,2020/09/17,36.0,NY,36069.0,Ontario County,26891.0,82973.0,446155.0,119524.0,98100.0,39644.0,60215.0,80206.0,31114.0,9445.0,6315.0,581.0,1011.0
836132,County,2020/09/18,36.0,NY,36069.0,Ontario County,26213.0,83651.0,439862.0,97488.0,94539.0,42804.0,70916.0,86542.0,31327.0,9304.0,5260.0,758.0,924.0
837761,County,2020/09/19,36.0,NY,36069.0,Ontario County,28128.0,81736.0,454486.0,100090.0,100348.0,48658.0,75612.0,85324.0,28160.0,10245.0,4604.0,752.0,693.0
840953,County,2020/09/20,36.0,NY,36069.0,Ontario County,28072.0,81792.0,391787.0,96333.0,94746.0,37721.0,56906.0,63113.0,30527.0,7997.0,3522.0,556.0,366.0
845740,County,2020/09/21,36.0,NY,36069.0,Ontario County,28741.0,81123.0,408732.0,98090.0,96110.0,35612.0,60069.0,75279.0,33427.0,7187.0,2354.0,422.0,182.0
848908,County,2020/09/22,36.0,NY,36069.0,Ontario County,24986.0,84878.0,446345.0,104863.0,100710.0,43170.0,64202.0,81984.0,40781.0,7371.0,2727.0,347.0,190.0
850536,County,2020/09/23,36.0,NY,36069.0,Ontario County,23790.0,86074.0,449744.0,92741.0,106806.0,43347.0,71817.0,88441.0,37015.0,6663.0,2282.0,395.0,237.0
855302,County,2020/09/24,36.0,NY,36069.0,Ontario County,23580.0,86284.0,459981.0,102840.0,112601.0,47693.0,67949.0,85448.0,32111.0,7710.0,2742.0,502.0,385.0
858489,County,2020/09/25,36.0,NY,36069.0,Ontario County,22952.0,86912.0,496462.0,109599.0,118562.0,45927.0,76248.0,97085.0,37190.0,7668.0,3513.0,527.0,143.0
861684,County,2020/09/26,36.0,NY,36069.0,Ontario County,25107.0,84757.0,484421.0,114780.0,110105.0,46887.0,82128.0,82447.0,36325.0,7544.0,3691.0,287.0,227.0
863289,County,2020/09/27,36.0,NY,36069.0,Ontario County,27398.0,82466.0,394339.0,91688.0,95434.0,36386.0,65977.0,66437.0,26412.0,7756.0,3631.0,418.0,200.0
868072,County,2020/09/28,36.0,NY,36069.0,Ontario County,26373.0,83491.0,418900.0,97436.0,97858.0,40051.0,63653.0,78664.0,31468.0,6661.0,2601.0,358.0,150.0
869700,County,2020/09/29,36.0,NY,36069.0,Ontario County,26288.0,83576.0,412404.0,88683.0,96956.0,36937.0,60491.0,81679.0,35632.0,8575.0,2925.0,311.0,215.0
872893,County,2020/09/30,36.0,NY,36069.0,Ontario County,24613.0,85251.0,432480.0,106439.0,92217.0,38763.0,65113.0,80775.0,37027.0,8243.0,3165.0,454.0,284.0
877633,County,2020/10/01,36.0,NY,36069.0,Ontario County,25232.0,84632.0,436771.0,96579.0,101371.0,44961.0,64068.0,80635.0,35251.0,9526.0,3564.0,527.0,289.0
880848,County,2020/10/02,36.0,NY,36069.0,Ontario County,26256.0,83608.0,419803.0,91053.0,91223.0,43378.0,68668.0,80852.0,32276.0,7804.0,3815.0,514.0,220.0
884043,County,2020/10/03,36.0,NY,36069.0,Ontario County,27712.0,82152.0,413076.0,97798.0,91960.0,39223.0,65469.0,76475.0,28783.0,8980.0,3785.0,430.0,173.0
886533,County,2020/10/04,36.0,NY,36069.0,Ontario County,29662.0,80202.0,345114.0,75682.0,79285.0,31505.0,55666.0,65594.0,24109.0,8028.0,4421.0,546.0,278.0
889778,County,2020/10/05,36.0,NY,36069.0,Ontario County,28923.0,80941.0,372119.0,83589.0,84861.0,34605.0,55138.0,72680.0,28883.0,8615.0,2947.0,461.0,340.0
892934,County,2020/10/06,36.0,NY,36069.0,Ontario County,26056.0,83808.0,414413.0,93708.0,88532.0,44385.0,61460.0,80734.0,32788.0,8848.0,3275.0,410.0,273.0
896476,County,2020/10/07,36.0,NY,36069.0,Ontario County,26280.0,83584.0,405639.0,89553.0,87008.0,38784.0,62733.0,80087.0,34258.0,9338.0,3123.0,415.0,340.0
899756,County,2020/10/08,36.0,NY,36069.0,Ontario County,26196.0,83668.0,380408.0,74644.0,81516.0,36183.0,62358.0,80764.0,31312.0,10157.0,2672.0,389.0,413.0
902557,County,2020/10/09,36.0,NY,36069.0,Ontario County,26338.0,83526.0,419659.0,89519.0,91933.0,40294.0,64949.0,79493.0,38549.0,10329.0,3824.0,511.0,258.0
905739,County,2020/10/10,36.0,NY,36069.0,Ontario County,28738.0,81126.0,420588.0,97405.0,96082.0,47663.0,61715.0,72109.0,32702.0,9084.0,3271.0,369.0,188.0
908452,County,2020/10/11,36.0,NY,36069.0,Ontario County,29006.0,80858.0,348765.0,73018.0,80200.0,35822.0,53985.0,68997.0,25405.0,7346.0,3410.0,429.0,153.0
911631,County,2020/10/12,36.0,NY,36069.0,Ontario County,27014.0,82850.0,399967.0,89902.0,89692.0,39919.0,60661.0,73066.0,33431.0,9173.0,3583.0,346.0,194.0
915151,County,2020/10/13,36.0,NY,36069.0,Ontario County,26005.0,83859.0,396457.0,78513.0,88400.0,42462.0,62204.0,79075.0,33670.0,8231.0,3293.0,363.0,246.0
917977,County,2020/10/14,36.0,NY,36069.0,Ontario County,25564.0,84300.0,413463.0,88315.0,94954.0,40600.0,58577.0,83241.0,35053.0,8385.0,3546.0,499.0,293.0
921042,County,2020/10/15,36.0,NY,36069.0,Ontario County,25331.0,84533.0,385717.0,85434.0,77610.0,39796.0,57892.0,77519.0,32100.0,10067.0,4486.0,487.0,326.0
924360,County,2020/10/16,36.0,NY,36069.0,Ontario County,24398.0,85466.0,412185.0,82130.0,91641.0,44611.0,63989.0,81507.0,34056.0,9739.0,3524.0,590.0,398.0
926919,County,2020/10/17,36.0,NY,36069.0,Ontario County,27063.0,82801.0,387928.0,87017.0,86087.0,42826.0,64304.0,68166.0,26204.0,9544.0,2942.0,450.0,388.0
931155,County,2020/10/18,36.0,NY,36069.0,Ontario County,28509.0,81355.0,352650.0,81256.0,79461.0,36281.0,55809.0,63493.0,22333.0,9406.0,3771.0,421.0,419.0
933839,County,2020/10/19,36.0,NY,36069.0,Ontario County,26143.0,83721.0,378111.0,80333.0,86942.0,35372.0,56641.0,74956.0,31972.0,7803.0,3315.0,494.0,283.0
937115,County,2020/10/20,36.0,NY,36069.0,Ontario County,27094.0,82770.0,365960.0,70348.0,86298.0,36451.0,54262.0,71735.0,35490.0,7629.0,3059.0,473.0,215.0
940189,County,2020/10/21,36.0,NY,36069.0,Ontario County,26608.0,83256.0,362958.0,73356.0,83355.0,37395.0,52814.0,69331.0,32176.0,9953.0,3757.0,580.0,241.0
943348,County,2020/10/22,36.0,NY,36069.0,Ontario County,25765.0,84099.0,401223.0,82992.0,91089.0,41349.0,58117.0,77103.0,36819.0,9609.0,3436.0,476.0,233.0
946696,County,2020/10/23,36.0,NY,36069.0,Ontario County,24045.0,85819.0,434020.0,94560.0,87668.0,43840.0,68596.0,88903.0,36163.0,9695.0,3769.0,586.0,240.0
950258,County,2020/10/24,36.0,NY,36069.0,Ontario County,26199.0,83665.0,437224.0,98210.0,97351.0,46018.0,71381.0,80839.0,30485.0,8194.0,3991.0,531.0,224.0
