,Level,Date,State FIPS,State Postal Code,County FIPS,County Name,Population Staying at Home,Population Not Staying at Home,Number of Trips,Number of Trips <1,Number of Trips 1-3,Number of Trips 3-5,Number of Trips 5-10,Number of Trips 10-25,Number of Trips 25-50,Number of Trips 50-100,Number of Trips 100-250,Number of Trips 250-500,Number of Trips >=500
2830,County,2020/01/01,51.0,VA,51023.0,Botetourt County,6920.0,26357.0,100191.0,17400.0,20635.0,13456.0,22937.0,16952.0,5325.0,2138.0,913.0,386.0,49.0
4195,County,2020/01/02,51.0,VA,51023.0,Botetourt County,5297.0,27980.0,128021.0,22696.0,26735.0,17509.0,26447.0,24755.0,6277.0,2103.0,1149.0,311.0,39.0
6787,County,2020/01/03,51.0,VA,51023.0,Botetourt County,5573.0,27704.0,127438.0,22529.0,26568.0,16139.0,26398.0,24977.0,6867.0,2260.0,1404.0,226.0,70.0
11283,County,2020/01/04,51.0,VA,51023.0,Botetourt County,6391.0,26886.0,119578.0,20524.0,27751.0,15042.0,25356.0,23011.0,4974.0,1785.0,834.0,226.0,75.0
15606,County,2020/01/05,51.0,VA,51023.0,Botetourt County,6807.0,26470.0,101688.0,18062.0,24054.0,12565.0,20883.0,18073.0,4813.0,1838.0,1114.0,193.0,93.0
17428,County,2020/01/06,51.0,VA,51023.0,Botetourt County,5500.0,27777.0,125942.0,24234.0,29294.0,14697.0,26071.0,21310.0,6616.0,2126.0,1377.0,170.0,47.0
22141,County,2020/01/07,51.0,VA,51023.0,Botetourt County,6156.0,27121.0,118976.0,23848.0,28279.0,11281.0,23776.0,22218.0,5863.0,2159.0,1064.0,395.0,93.0
25335,County,2020/01/08,51.0,VA,51023.0,Botetourt County,5344.0,27933.0,137912.0,25912.0,31007.0,16229.0,29226.0,23533.0,6530.0,2784.0,1273.0,1364.0,54.0
26962,County,2020/01/09,51.0,VA,51023.0,Botetourt County,5332.0,27945.0,137362.0,25983.0,31491.0,16408.0,26749.0,23622.0,7345.0,2581.0,1755.0,1411.0,17.0
30158,County,2020/01/10,51.0,VA,51023.0,Botetourt County,5031.0,28246.0,144907.0,24702.0,33341.0,17422.0,30821.0,26722.0,6508.0,2523.0,1455.0,1387.0,26.0
33449,County,2020/01/11,51.0,VA,51023.0,Botetourt County,5775.0,27502.0,130316.0,25204.0,28588.0,17574.0,27169.0,21667.0,5674.0,2244.0,1301.0,778.0,117.0
36556,County,2020/01/12,51.0,VA,51023.0,Botetourt County,6207.0,27070.0,117336.0,22249.0,27142.0,15043.0,24027.0,20775.0,4906.0,1894.0,1044.0,171.0,85.0
39797,County,2020/01/13,51.0,VA,51023.0,Botetourt County,5330.0,27947.0,132736.0,25256.0,31105.0,15920.0,25802.0,22944.0,6465.0,2158.0,2588.0,464.0,34.0
42961,County,2020/01/14,51.0,VA,51023.0,Botetourt County,5121.0,28156.0,130995.0,23100.0,28468.0,17700.0,23632.0,27387.0,6854.0,2291.0,1299.0,205.0,59.0
46112,County,2020/01/15,51.0,VA,51023.0,Botetourt County,5350.0,27927.0,132246.0,21945.0,29717.0,15554.0,27649.0,25207.0,7665.0,3002.0,1194.0,235.0,78.0
50893,County,2020/01/16,51.0,VA,51023.0,Botetourt County,5044.0,28233.0,131819.0,23505.0,29406.0,16681.0,24690.0,27362.0,6488.0,1975.0,1333.0,304.0,75.0
52520,County,2020/01/17,51.0,VA,51023.0,Botetourt County,5111.0,28166.0,142334.0,27447.0,31340.0,17728.0,30392.0,23766.0,7536.0,2203.0,1493.0,363.0,66.0
55705,County,2020/01/18,51.0,VA,51023.0,Botetourt County,5980.0,27297.0,119960.0,18673.0,28820.0,16805.0,24703.0,22769.0,5030.0,2166.0,716.0,202.0,76.0
58902,County,2020/01/19,51.0,VA,51023.0,Botetourt County,6189.0,27088.0,107925.0,16575.0,26016.0,15380.0,21746.0,19648.0,5016.0,1772.0,1414.0,291.0,67.0
63663,County,2020/01/20,51.0,VA,51023.0,Botetourt County,5825.0,27452.0,119387.0,20505.0,28444.0,14607.0,22274.0,22207.0,7671.0,2272.0,1145.0,253.0,9.0
66861,County,2020/01/21,51.0,VA,51023.0,Botetourt County,5225.0,28052.0,128960.0,23416.0,26586.0,16486.0,26019.0,25344.0,6874.0,2570.0,1337.0,285.0,43.0
68492,County,2020/01/22,51.0,VA,51023.0,Botetourt County,4976.0,28301.0,128988.0,22551.0,27584.0,16814.0,27253.0,24167.0,6709.0,2563.0,1077.0,168.0,102.0
71677,County,2020/01/23,51.0,VA,51023.0,Botetourt County,5367.0,27910.0,130147.0,23149.0,28544.0,14889.0,27229.0,25492.0,7019.0,2208.0,1276.0,284.0,57.0
76439,County,2020/01/24,51.0,VA,51023.0,Botetourt County,5058.0,28219.0,131267.0,23093.0,30475.0,14627.0,26479.0,26065.0,7555.0,1707.0,981.0,205.0,80.0
79626,County,2020/01/25,51.0,VA,51023.0,Botetourt County,5550.0,27727.0,124514.0,19700.0,26820.0,16440.0,28198.0,23744.0,6733.0,1535.0,1075.0,162.0,107.0
82680,County,2020/01/26,51.0,VA,51023.0,Botetourt County,5902.0,27375.0,114614.0,19973.0,29666.0,13568.0,23972.0,20864.0,4206.0,876.0,1151.0,270.0,68.0
83407,County,2020/01/27,51.0,VA,51023.0,Botetourt County,5199.0,28078.0,136662.0,26861.0,31729.0,16356.0,27036.0,25004.0,6473.0,1833.0,1066.0,280.0,24.0
87711,County,2020/01/28,51.0,VA,51023.0,Botetourt County,4831.0,28446.0,129401.0,25782.0,27900.0,16516.0,25544.0,23359.0,5741.0,2990.0,1233.0,258.0,78.0
90817,County,2020/01/29,51.0,VA,51023.0,Botetourt County,5214.0,28063.0,132508.0,23449.0,28949.0,16823.0,27416.0,24694.0,7284.0,2212.0,1259.0,366.0,56.0
94170,County,2020/01/30,51.0,VA,51023.0,Botetourt County,4941.0,28336.0,128139.0,23077.0,28284.0,13517.0,26645.0,25168.0,7557.0,2534.0,988.0,249.0,120.0
98845,County,2020/01/31,51.0,VA,51023.0,Botetourt County,5035.0,28242.0,135562.0,23519.0,31737.0,17153.0,25702.0,25685.0,7442.0,2645.0,1129.0,429.0,121.0
101984,County,2020/02/01,51.0,VA,51023.0,Botetourt County,5513.0,27764.0,128788.0,24966.0,29484.0,16220.0,27350.0,21031.0,6793.0,1425.0,1117.0,275.0,127.0
105185,County,2020/02/02,51.0,VA,51023.0,Botetourt County,6284.0,26993.0,119018.0,23362.0,28537.0,14283.0,23342.0,19616.0,6512.0,1717.0,1202.0,284.0,163.0
106811,County,2020/02/03,51.0,VA,51023.0,Botetourt County,5024.0,28253.0,132379.0,25096.0,29012.0,14547.0,26491.0,25594.0,7056.0,2788.0,1410.0,284.0,101.0
111573,County,2020/02/04,51.0,VA,51023.0,Botetourt County,5008.0,28269.0,138431.0,28018.0,32790.0,16377.0,22996.0,25814.0,7697.0,3134.0,1087.0,358.0,160.0
114776,County,2020/02/05,51.0,VA,51023.0,Botetourt County,4918.0,28359.0,128545.0,22388.0,30900.0,16320.0,24552.0,24248.0,5935.0,2342.0,1283.0,360.0,217.0
117934,County,2020/02/06,51.0,VA,51023.0,Botetourt County,4995.0,28282.0,122460.0,22429.0,30968.0,13745.0,22801.0,23043.0,5735.0,2177.0,1042.0,379.0,141.0
119561,County,2020/02/07,51.0,VA,51023.0,Botetourt County,4657.0,28620.0,135284.0,22803.0,31712.0,15682.0,28412.0,25758.0,6860.0,2156.0,1491.0,270.0,140.0
124349,County,2020/02/08,51.0,VA,51023.0,Botetourt County,5831.0,27446.0,130710.0,23583.0,25824.0,16167.0,28750.0,26485.0,6528.0,1571.0,1185.0,448.0,169.0
126846,County,2020/02/09,51.0,VA,51023.0,Botetourt County,6332.0,26945.0,104761.0,21148.0,23288.0,12888.0,21613.0,17871.0,4190.0,2087.0,1203.0,311.0,162.0
127996,County,2020/02/10,51.0,VA,51023.0,Botetourt County,5056.0,28221.0,119344.0,21278.0,25984.0,14311.0,24773.0,22334.0,6382.0,2085.0,1614.0,419.0,164.0
132855,County,2020/02/11,51.0,VA,51023.0,Botetourt County,4614.0,28663.0,123114.0,22939.0,28055.0,12473.0,25144.0,24194.0,6328.0,2369.0,1090.0,338.0,184.0
134458,County,2020/02/12,51.0,VA,51023.0,Botetourt County,4493.0,28784.0,125472.0,21056.0,26146.0,15884.0,27703.0,23466.0,7044.0,2325.0,1194.0,421.0,233.0
138789,County,2020/02/13,51.0,VA,51023.0,Botetourt County,4307.0,28970.0,123084.0,20054.0,29330.0,15774.0,24540.0,22510.0,6475.0,2213.0,1613.0,343.0,232.0
141848,County,2020/02/14,51.0,VA,51023.0,Botetourt County,4138.0,29139.0,130872.0,20435.0,28588.0,17718.0,27861.0,25650.0,6415.0,2141.0,1350.0,470.0,244.0
145145,County,2020/02/15,51.0,VA,51023.0,Botetourt County,5017.0,28260.0,123980.0,20887.0,25264.0,14312.0,29481.0,24246.0,6348.0,1670.0,1225.0,318.0,229.0
148333,County,2020/02/16,51.0,VA,51023.0,Botetourt County,5895.0,27382.0,106765.0,20818.0,24192.0,12840.0,22330.0,18410.0,4682.0,1959.0,895.0,421.0,218.0
153095,County,2020/02/17,51.0,VA,51023.0,Botetourt County,5832.0,27445.0,102871.0,17385.0,22970.0,12200.0,23143.0,18836.0,4916.0,1801.0,1123.0,333.0,164.0
154672,County,2020/02/18,51.0,VA,51023.0,Botetourt County,4141.0,29136.0,115596.0,19271.0,23387.0,14713.0,25741.0,22340.0,5812.0,2433.0,1265.0,371.0,263.0
159482,County,2020/02/19,51.0,VA,51023.0,Botetourt County,4565.0,28712.0,120612.0,20144.0,25748.0,15279.0,25210.0,23293.0,6491.0,2806.0,1107.0,337.0,197.0
160978,County,2020/02/20,51.0,VA,51023.0,Botetourt County,4874.0,28403.0,117749.0,20556.0,26072.0,13411.0,23763.0,23496.0,6152.0,2282.0,1465.0,374.0,178.0
165871,County,2020/02/21,51.0,VA,51023.0,Botetourt County,4542.0,28735.0,122965.0,19114.0,26502.0,15185.0,24528.0,25130.0,8120.0,2253.0,1504.0,543.0,86.0
167449,County,2020/02/22,51.0,VA,51023.0,Botetourt County,5564.0,27713.0,127135.0,23063.0,29952.0,15728.0,26037.0,23085.0,5759.0,1650.0,1107.0,522.0,232.0
172264,County,2020/02/23,51.0,VA,51023.0,Botetourt County,5880.0,27397.0,114704.0,18673.0,27017.0,16034.0,24010.0,19628.0,5573.0,2031.0,1378.0,285.0,75.0
173890,County,2020/02/24,51.0,VA,51023.0,Botetourt County,4597.0,28680.0,122143.0,22453.0,25318.0,14779.0,26768.0,23531.0,5694.0,2040.0,1166.0,256.0,138.0
178501,County,2020/02/25,51.0,VA,51023.0,Botetourt County,4110.0,29167.0,129113.0,21373.0,28960.0,17048.0,26332.0,26455.0,5375.0,2021.0,1191.0,215.0,143.0
181694,County,2020/02/26,51.0,VA,51023.0,Botetourt County,5573.0,27704.0,132865.0,22520.0,38726.0,16384.0,23272.0,19838.0,7509.0,2706.0,1515.0,268.0,127.0
182866,County,2020/02/27,51.0,VA,51023.0,Botetourt County,4329.0,28948.0,124950.0,20848.0,27050.0,17090.0,26271.0,23883.0,6413.0,2064.0,1002.0,175.0,154.0
186805,County,2020/02/28,51.0,VA,51023.0,Botetourt County,4072.0,29205.0,134749.0,25352.0,29723.0,16561.0,28427.0,24871.0,6175.0,1942.0,1360.0,157.0,181.0
189809,County,2020/02/29,51.0,VA,51023.0,Botetourt County,4958.0,28319.0,124304.0,19322.0,27491.0,14084.0,28024.0,25319.0,6631.0,2007.0,1049.0,146.0,231.0
193048,County,2020/03/01,51.0,VA,51023.0,Botetourt County,5920.0,27357.0,121427.0,21907.0,33631.0,14901.0,21935.0,20246.0,5230.0,1841.0,1352.0,237.0,147.0
196270,County,2020/03/02,51.0,VA,51023.0,Botetourt County,5219.0,28058.0,136088.0,25528.0,33451.0,14291.0,26699.0,24117.0,7152.0,2935.0,1518.0,239.0,158.0
201122,County,2020/03/03,51.0,VA,51023.0,Botetourt County,4957.0,28320.0,133603.0,26560.0,28273.0,14273.0,25744.0,25945.0,7757.0,2822.0,1739.0,398.0,92.0
204208,County,2020/03/04,51.0,VA,51023.0,Botetourt County,4945.0,28332.0,142708.0,26532.0,33779.0,18108.0,24925.0,26277.0,7529.0,2876.0,2176.0,426.0,80.0
205776,County,2020/03/05,51.0,VA,51023.0,Botetourt County,4440.0,28837.0,141626.0,23914.0,33966.0,17866.0,26029.0,25932.0,8227.0,3515.0,1716.0,337.0,124.0
208895,County,2020/03/06,51.0,VA,51023.0,Botetourt County,4914.0,28363.0,138967.0,21854.0,34798.0,17122.0,28194.0,24626.0,7239.0,2710.0,1937.0,449.0,38.0
213858,County,2020/03/07,51.0,VA,51023.0,Botetourt County,5437.0,27840.0,147246.0,23232.0,37318.0,16596.0,31432.0,25951.0,7509.0,2869.0,1873.0,299.0,167.0
216971,County,2020/03/08,51.0,VA,51023.0,Botetourt County,5931.0,27346.0,131633.0,26231.0,34806.0,20181.0,22873.0,18408.0,4982.0,2059.0,1618.0,286.0,189.0
218611,County,2020/03/09,51.0,VA,51023.0,Botetourt County,5442.0,27835.0,139662.0,27573.0,36267.0,17447.0,24161.0,23426.0,6282.0,2562.0,1452.0,326.0,166.0
223362,County,2020/03/10,51.0,VA,51023.0,Botetourt County,5271.0,28006.0,126259.0,20714.0,32382.0,13748.0,22405.0,25769.0,5764.0,3425.0,1561.0,402.0,89.0
225036,County,2020/03/11,51.0,VA,51023.0,Botetourt County,5462.0,27815.0,140872.0,24165.0,41775.0,19187.0,25920.0,17617.0,6013.0,3280.0,2069.0,578.0,268.0
229684,County,2020/03/12,51.0,VA,51023.0,Botetourt County,5402.0,27875.0,128571.0,16073.0,41315.0,18043.0,22457.0,18025.0,5099.0,4494.0,2204.0,581.0,280.0
232950,County,2020/03/13,51.0,VA,51023.0,Botetourt County,4993.0,28284.0,125177.0,18259.0,36756.0,12474.0,23626.0,20558.0,7168.0,3551.0,2073.0,470.0,242.0
236153,County,2020/03/14,51.0,VA,51023.0,Botetourt County,6425.0,26852.0,113135.0,16908.0,31987.0,9120.0,26197.0,15690.0,8097.0,2473.0,2104.0,311.0,248.0
239333,County,2020/03/15,51.0,VA,51023.0,Botetourt County,7578.0,25699.0,103351.0,19912.0,25467.0,11744.0,20592.0,17811.0,4159.0,1960.0,1278.0,333.0,95.0
242526,County,2020/03/16,51.0,VA,51023.0,Botetourt County,6111.0,27166.0,124276.0,23673.0,26971.0,12451.0,26290.0,22727.0,7932.0,2145.0,1540.0,359.0,188.0
244191,County,2020/03/17,51.0,VA,51023.0,Botetourt County,7028.0,26249.0,122577.0,27039.0,28042.0,12356.0,21515.0,21318.0,7053.0,2897.0,1704.0,572.0,81.0
247346,County,2020/03/18,51.0,VA,51023.0,Botetourt County,7181.0,26096.0,125303.0,22027.0,31533.0,15251.0,23949.0,21856.0,6391.0,2413.0,1573.0,257.0,53.0
250553,County,2020/03/19,51.0,VA,51023.0,Botetourt County,7524.0,25753.0,124391.0,25102.0,29114.0,14907.0,21085.0,22354.0,6545.0,3278.0,1634.0,333.0,39.0
255303,County,2020/03/20,51.0,VA,51023.0,Botetourt County,7057.0,26220.0,120716.0,20374.0,30801.0,15757.0,21189.0,23207.0,5393.0,2222.0,1443.0,191.0,139.0
256881,County,2020/03/21,51.0,VA,51023.0,Botetourt County,8401.0,24876.0,115062.0,21355.0,31054.0,11546.0,20246.0,21128.0,6960.0,1794.0,605.0,235.0,139.0
260117,County,2020/03/22,51.0,VA,51023.0,Botetourt County,8083.0,25194.0,82813.0,15053.0,22064.0,12376.0,13059.0,14031.0,2691.0,1576.0,1440.0,411.0,112.0
264895,County,2020/03/23,51.0,VA,51023.0,Botetourt County,7235.0,26042.0,95088.0,15095.0,23572.0,10893.0,17903.0,17836.0,6029.0,2250.0,1283.0,166.0,61.0
268076,County,2020/03/24,51.0,VA,51023.0,Botetourt County,6929.0,26348.0,105772.0,21309.0,26283.0,12427.0,19165.0,17513.0,4391.0,2838.0,1410.0,364.0,72.0
271273,County,2020/03/25,51.0,VA,51023.0,Botetourt County,7430.0,25847.0,95310.0,17590.0,23479.0,10020.0,16829.0,19044.0,4676.0,1758.0,1540.0,271.0,103.0
272899,County,2020/03/26,51.0,VA,51023.0,Botetourt County,7542.0,25735.0,112392.0,27153.0,24752.0,10551.0,19799.0,18452.0,6556.0,3320.0,1379.0,417.0,13.0
277662,County,2020/03/27,51.0,VA,51023.0,Botetourt County,7126.0,26151.0,111552.0,23101.0,28676.0,11541.0,19924.0,21136.0,3986.0,1909.0,904.0,291.0,84.0
279289,County,2020/03/28,51.0,VA,51023.0,Botetourt County,7872.0,25405.0,108105.0,23920.0,27979.0,13126.0,21072.0,14853.0,4526.0,1431.0,793.0,252.0,153.0
282483,County,2020/03/29,51.0,VA,51023.0,Botetourt County,8344.0,24933.0,86733.0,15514.0,24478.0,11892.0,14630.0,12953.0,4229.0,1874.0,769.0,273.0,121.0
287274,County,2020/03/30,51.0,VA,51023.0,Botetourt County,6998.0,26279.0,99867.0,16158.0,25839.0,12376.0,18277.0,17724.0,5533.0,2314.0,1304.0,213.0,129.0
288872,County,2020/03/31,51.0,VA,51023.0,Botetourt County,7803.0,25474.0,88464.0,14080.0,22465.0,10050.0,16198.0,16813.0,4780.0,2416.0,1259.0,337.0,66.0
292107,County,2020/04/01,51.0,VA,51023.0,Botetourt County,7108.0,26169.0,93873.0,17800.0,19288.0,11578.0,18893.0,17868.0,5016.0,1657.0,1414.0,274.0,85.0
296840,County,2020/04/02,51.0,VA,51023.0,Botetourt County,7435.0,25842.0,101177.0,16321.0,25233.0,14826.0,19530.0,16614.0,5063.0,1602.0,1625.0,273.0,90.0
300019,County,2020/04/03,51.0,VA,51023.0,Botetourt County,7515.0,25762.0,111083.0,18140.0,25183.0,14603.0,21811.0,22437.0,6191.0,1367.0,1117.0,221.0,13.0
301645,County,2020/04/04,51.0,VA,51023.0,Botetourt County,8163.0,25114.0,96741.0,19921.0,23964.0,12525.0,17145.0,17726.0,3726.0,1059.0,325.0,257.0,93.0
306400,County,2020/04/05,51.0,VA,51023.0,Botetourt County,8176.0,25101.0,97329.0,26313.0,23171.0,11851.0,14925.0,13832.0,4370.0,1847.0,846.0,75.0,99.0
309601,County,2020/04/06,51.0,VA,51023.0,Botetourt County,6907.0,26370.0,110335.0,25302.0,23759.0,14388.0,20104.0,18343.0,4058.0,2398.0,1680.0,248.0,55.0
312840,County,2020/04/07,51.0,VA,51023.0,Botetourt County,7365.0,25912.0,106599.0,22633.0,23251.0,12902.0,18469.0,19899.0,5328.0,2791.0,1018.0,267.0,41.0
314423,County,2020/04/08,51.0,VA,51023.0,Botetourt County,7231.0,26046.0,98594.0,16455.0,24396.0,11366.0,20250.0,17400.0,5351.0,1792.0,1177.0,276.0,131.0
319183,County,2020/04/09,51.0,VA,51023.0,Botetourt County,7609.0,25668.0,99885.0,18069.0,24616.0,10007.0,19052.0,18484.0,6029.0,1757.0,1316.0,385.0,170.0
322377,County,2020/04/10,51.0,VA,51023.0,Botetourt County,7251.0,26026.0,102248.0,16181.0,23479.0,13995.0,19277.0,20211.0,5648.0,1787.0,1381.0,217.0,72.0
324052,County,2020/04/11,51.0,VA,51023.0,Botetourt County,7305.0,25972.0,109169.0,21758.0,27131.0,14890.0,19882.0,18548.0,4565.0,1557.0,611.0,154.0,73.0
327198,County,2020/04/12,51.0,VA,51023.0,Botetourt County,8586.0,24691.0,73828.0,12688.0,19869.0,11105.0,13989.0,12820.0,1754.0,548.0,811.0,215.0,29.0
331959,County,2020/04/13,51.0,VA,51023.0,Botetourt County,7885.0,25392.0,101510.0,21913.0,25260.0,12016.0,15827.0,18641.0,4323.0,1905.0,1468.0,112.0,45.0
335134,County,2020/04/14,51.0,VA,51023.0,Botetourt County,7092.0,26185.0,123540.0,33414.0,32814.0,12488.0,20356.0,18065.0,3583.0,1666.0,917.0,126.0,111.0
336811,County,2020/04/15,51.0,VA,51023.0,Botetourt County,6731.0,26546.0,130118.0,29433.0,40297.0,13213.0,22224.0,17075.0,4653.0,2178.0,803.0,162.0,80.0
339965,County,2020/04/16,51.0,VA,51023.0,Botetourt County,6877.0,26400.0,122752.0,26499.0,40552.0,12016.0,18721.0,18394.0,3539.0,1239.0,1421.0,318.0,53.0
344744,County,2020/04/17,51.0,VA,51023.0,Botetourt County,6397.0,26880.0,116060.0,26671.0,29892.0,12403.0,21712.0,16427.0,5721.0,1639.0,1300.0,193.0,102.0
346371,County,2020/04/18,51.0,VA,51023.0,Botetourt County,7523.0,25754.0,142407.0,36044.0,33703.0,20839.0,19506.0,23129.0,7291.0,1114.0,683.0,98.0,0.0
351123,County,2020/04/19,51.0,VA,51023.0,Botetourt County,7550.0,25727.0,100698.0,22723.0,33998.0,12967.0,12719.0,12723.0,3524.0,1211.0,660.0,48.0,125.0
354323,County,2020/04/20,51.0,VA,51023.0,Botetourt County,7034.0,26243.0,94416.0,15917.0,29142.0,11625.0,15573.0,14871.0,4100.0,1649.0,1269.0,232.0,38.0
355943,County,2020/04/21,51.0,VA,51023.0,Botetourt County,6989.0,26288.0,111741.0,24392.0,27701.0,11376.0,20373.0,18941.0,4972.0,2226.0,1330.0,369.0,61.0
360713,County,2020/04/22,51.0,VA,51023.0,Botetourt County,6967.0,26310.0,112485.0,20919.0,30326.0,14514.0,18185.0,19704.0,5777.0,1687.0,1137.0,160.0,76.0
362244,County,2020/04/23,51.0,VA,51023.0,Botetourt County,7048.0,26229.0,109086.0,20475.0,30370.0,10501.0,17064.0,21060.0,5812.0,2012.0,1409.0,318.0,65.0
367130,County,2020/04/24,51.0,VA,51023.0,Botetourt County,7044.0,26233.0,114101.0,19956.0,28831.0,12954.0,21151.0,20545.0,7394.0,1883.0,1182.0,114.0,91.0
370288,County,2020/04/25,51.0,VA,51023.0,Botetourt County,7405.0,25872.0,98057.0,16723.0,25331.0,11543.0,21031.0,17130.0,4583.0,948.0,460.0,206.0,102.0
373481,County,2020/04/26,51.0,VA,51023.0,Botetourt County,7326.0,25951.0,89383.0,15883.0,21490.0,11923.0,17968.0,15475.0,4976.0,1118.0,313.0,237.0,0.0
376712,County,2020/04/27,51.0,VA,51023.0,Botetourt County,7203.0,26074.0,120179.0,26119.0,27572.0,12346.0,20659.0,23150.0,6750.0,2230.0,1074.0,246.0,33.0
379884,County,2020/04/28,51.0,VA,51023.0,Botetourt County,6700.0,26577.0,117306.0,28567.0,26824.0,14250.0,17335.0,20714.0,6423.0,1593.0,1428.0,157.0,15.0
381511,County,2020/04/29,51.0,VA,51023.0,Botetourt County,6965.0,26312.0,127897.0,25840.0,33213.0,13346.0,20458.0,24763.0,6628.0,2104.0,1290.0,209.0,46.0
386257,County,2020/04/30,51.0,VA,51023.0,Botetourt County,6730.0,26547.0,110404.0,18792.0,27485.0,12360.0,19644.0,21653.0,6380.0,2562.0,1182.0,331.0,15.0
387932,County,2020/05/01,51.0,VA,51023.0,Botetourt County,6571.0,26706.0,125358.0,22958.0,32638.0,14541.0,22289.0,23251.0,5971.0,2615.0,852.0,172.0,71.0
391065,County,2020/05/02,51.0,VA,51023.0,Botetourt County,7141.0,26136.0,125567.0,30473.0,29414.0,14570.0,21156.0,20922.0,6560.0,1482.0,742.0,149.0,99.0
395841,County,2020/05/03,51.0,VA,51023.0,Botetourt County,7783.0,25494.0,108446.0,25470.0,29030.0,11016.0,16985.0,17635.0,6234.0,1231.0,575.0,232.0,38.0
399033,County,2020/05/04,51.0,VA,51023.0,Botetourt County,6863.0,26414.0,127681.0,29415.0,30544.0,16276.0,22807.0,19683.0,5523.0,2238.0,1075.0,90.0,30.0
402208,County,2020/05/05,51.0,VA,51023.0,Botetourt County,6585.0,26692.0,115707.0,19248.0,30617.0,15525.0,20021.0,21171.0,5208.0,2612.0,1123.0,168.0,14.0
403838,County,2020/05/06,51.0,VA,51023.0,Botetourt County,6938.0,26339.0,123522.0,22616.0,28572.0,13803.0,27126.0,20995.0,6239.0,2353.0,1521.0,255.0,42.0
408558,County,2020/05/07,51.0,VA,51023.0,Botetourt County,6646.0,26631.0,121496.0,25335.0,28135.0,13592.0,22646.0,20759.0,6922.0,2198.0,1623.0,272.0,14.0
411820,County,2020/05/08,51.0,VA,51023.0,Botetourt County,6774.0,26503.0,128947.0,27028.0,31337.0,14329.0,23720.0,23575.0,5839.0,1771.0,1194.0,139.0,15.0
413351,County,2020/05/09,51.0,VA,51023.0,Botetourt County,6640.0,26637.0,124662.0,25810.0,28219.0,14554.0,26293.0,21529.0,5794.0,1171.0,1048.0,138.0,106.0
418197,County,2020/05/10,51.0,VA,51023.0,Botetourt County,6596.0,26681.0,113617.0,23377.0,30073.0,14404.0,21002.0,17796.0,3654.0,2060.0,1024.0,211.0,16.0
419872,County,2020/05/11,51.0,VA,51023.0,Botetourt County,6151.0,27126.0,117913.0,25943.0,27177.0,13053.0,19600.0,21012.0,6915.0,1970.0,1879.0,296.0,68.0
424632,County,2020/05/12,51.0,VA,51023.0,Botetourt County,6025.0,27252.0,117179.0,26152.0,26286.0,11902.0,19636.0,20252.0,7406.0,2524.0,2469.0,491.0,61.0
426114,County,2020/05/13,51.0,VA,51023.0,Botetourt County,5793.0,27484.0,116680.0,22449.0,27900.0,13654.0,19330.0,21312.0,7118.0,2143.0,2029.0,588.0,157.0
430973,County,2020/05/14,51.0,VA,51023.0,Botetourt County,6230.0,27047.0,118880.0,30279.0,26617.0,13137.0,18126.0,18815.0,7202.0,2587.0,1582.0,420.0,115.0
432601,County,2020/05/15,51.0,VA,51023.0,Botetourt County,5935.0,27342.0,110879.0,21742.0,28066.0,12831.0,17242.0,20110.0,6164.0,2084.0,2102.0,353.0,185.0
437350,County,2020/05/16,51.0,VA,51023.0,Botetourt County,6289.0,26988.0,110583.0,18919.0,28984.0,15370.0,18156.0,19456.0,6089.0,1934.0,1194.0,341.0,140.0
438978,County,2020/05/17,51.0,VA,51023.0,Botetourt County,6204.0,27073.0,123558.0,25083.0,25822.0,15577.0,23316.0,25237.0,6118.0,1460.0,682.0,172.0,91.0
442271,County,2020/05/18,51.0,VA,51023.0,Botetourt County,5175.0,28102.0,126471.0,24804.0,28663.0,17776.0,21923.0,23860.0,5138.0,2323.0,1739.0,226.0,19.0
445377,County,2020/05/19,51.0,VA,51023.0,Botetourt County,5453.0,27824.0,117221.0,24757.0,24392.0,15602.0,19700.0,21046.0,6926.0,2855.0,1588.0,296.0,59.0
450137,County,2020/05/20,51.0,VA,51023.0,Botetourt County,5187.0,28090.0,110029.0,21917.0,21383.0,11325.0,21581.0,21532.0,7341.0,2520.0,2163.0,229.0,38.0
453028,County,2020/05/21,51.0,VA,51023.0,Botetourt County,5376.0,27901.0,122406.0,23994.0,30187.0,11859.0,19104.0,23262.0,7987.0,3170.0,2276.0,475.0,92.0
454950,County,2020/05/22,51.0,VA,51023.0,Botetourt County,5209.0,28068.0,136111.0,26618.0,31504.0,16284.0,26228.0,22245.0,8261.0,2427.0,1927.0,428.0,189.0
459734,County,2020/05/23,51.0,VA,51023.0,Botetourt County,5494.0,27783.0,118772.0,25048.0,31098.0,12314.0,21827.0,18004.0,7809.0,1009.0,1221.0,356.0,86.0
461315,County,2020/05/24,51.0,VA,51023.0,Botetourt County,6512.0,26765.0,104254.0,21474.0,24590.0,11787.0,19676.0,16668.0,5577.0,2152.0,1538.0,403.0,389.0
466191,County,2020/05/25,51.0,VA,51023.0,Botetourt County,6424.0,26853.0,98192.0,20113.0,23484.0,12069.0,16868.0,15675.0,5643.0,2325.0,1214.0,298.0,503.0
467721,County,2020/05/26,51.0,VA,51023.0,Botetourt County,5382.0,27895.0,119888.0,24214.0,26667.0,13881.0,21413.0,22797.0,5640.0,2885.0,1637.0,464.0,290.0
472539,County,2020/05/27,51.0,VA,51023.0,Botetourt County,5494.0,27783.0,122481.0,23730.0,27901.0,11945.0,22687.0,22768.0,7799.0,3038.0,2238.0,292.0,83.0
475689,County,2020/05/28,51.0,VA,51023.0,Botetourt County,5372.0,27905.0,122129.0,25360.0,28221.0,13276.0,22985.0,20596.0,6633.0,2689.0,1829.0,467.0,73.0
478877,County,2020/05/29,51.0,VA,51023.0,Botetourt County,6858.0,26419.0,123550.0,25075.0,28391.0,13836.0,23438.0,20389.0,6998.0,2848.0,2205.0,335.0,35.0
482077,County,2020/05/30,51.0,VA,51023.0,Botetourt County,6631.0,26646.0,120819.0,21911.0,30762.0,16397.0,22491.0,19275.0,5521.0,2369.0,1659.0,407.0,27.0
485272,County,2020/05/31,51.0,VA,51023.0,Botetourt County,6936.0,26341.0,101650.0,18177.0,24034.0,14601.0,18502.0,15915.0,5516.0,2992.0,1454.0,345.0,114.0
486899,County,2020/06/01,51.0,VA,51023.0,Botetourt County,5777.0,27500.0,117527.0,22461.0,27686.0,14877.0,23134.0,20141.0,4946.0,2367.0,1562.0,289.0,64.0
490091,County,2020/06/02,51.0,VA,51023.0,Botetourt County,5754.0,27523.0,120206.0,25210.0,27642.0,14009.0,21088.0,21099.0,6594.0,2401.0,1715.0,382.0,66.0
494852,County,2020/06/03,51.0,VA,51023.0,Botetourt County,4928.0,28349.0,135034.0,29555.0,32225.0,13994.0,25485.0,22224.0,7209.0,2128.0,1724.0,383.0,107.0
496472,County,2020/06/04,51.0,VA,51023.0,Botetourt County,5251.0,28026.0,119520.0,23097.0,25161.0,14752.0,22367.0,21585.0,7314.0,2339.0,2366.0,458.0,81.0
501246,County,2020/06/05,51.0,VA,51023.0,Botetourt County,5343.0,27934.0,128035.0,26177.0,25064.0,16499.0,24380.0,24351.0,6854.0,2131.0,2045.0,458.0,76.0
504448,County,2020/06/06,51.0,VA,51023.0,Botetourt County,5995.0,27282.0,121346.0,18386.0,31469.0,17209.0,26236.0,19443.0,5181.0,1649.0,1425.0,271.0,77.0
506013,County,2020/06/07,51.0,VA,51023.0,Botetourt County,6010.0,27267.0,110506.0,17117.0,30692.0,14641.0,18616.0,19433.0,5844.0,1965.0,1751.0,378.0,69.0
509235,County,2020/06/08,51.0,VA,51023.0,Botetourt County,5257.0,28020.0,131010.0,24213.0,28573.0,14745.0,23568.0,27605.0,7159.0,3103.0,1739.0,260.0,45.0
514014,County,2020/06/09,51.0,VA,51023.0,Botetourt County,5280.0,27997.0,131280.0,26260.0,31365.0,15622.0,23536.0,23409.0,7025.0,2105.0,1532.0,378.0,48.0
515644,County,2020/06/10,51.0,VA,51023.0,Botetourt County,5626.0,27651.0,122561.0,27169.0,28573.0,13487.0,20947.0,20467.0,6745.0,2957.0,1726.0,427.0,63.0
520378,County,2020/06/11,51.0,VA,51023.0,Botetourt County,5318.0,27959.0,126091.0,27435.0,25238.0,13069.0,24685.0,23229.0,7257.0,2875.0,1841.0,405.0,57.0
522050,County,2020/06/12,51.0,VA,51023.0,Botetourt County,5164.0,28113.0,136418.0,29416.0,30117.0,17230.0,23663.0,22975.0,7606.0,2862.0,2096.0,352.0,101.0
525227,County,2020/06/13,51.0,VA,51023.0,Botetourt County,6087.0,27190.0,125053.0,24820.0,31943.0,17432.0,21498.0,18966.0,6170.0,1932.0,1783.0,432.0,77.0
529991,County,2020/06/14,51.0,VA,51023.0,Botetourt County,6491.0,26786.0,98326.0,18343.0,23792.0,14602.0,16086.0,14699.0,5726.0,2729.0,1851.0,367.0,131.0
531619,County,2020/06/15,51.0,VA,51023.0,Botetourt County,6424.0,26853.0,101679.0,17699.0,22665.0,14321.0,18689.0,16429.0,6777.0,2982.0,1567.0,424.0,126.0
534808,County,2020/06/16,51.0,VA,51023.0,Botetourt County,6356.0,26921.0,105339.0,20171.0,25960.0,11906.0,19514.0,18107.0,5576.0,2041.0,1554.0,438.0,72.0
538002,County,2020/06/17,51.0,VA,51023.0,Botetourt County,5861.0,27416.0,103670.0,18806.0,24070.0,11707.0,18958.0,20125.0,5061.0,2980.0,1580.0,327.0,56.0
542763,County,2020/06/18,51.0,VA,51023.0,Botetourt County,5882.0,27395.0,106871.0,19387.0,21974.0,14592.0,18269.0,21375.0,6193.0,2365.0,2228.0,431.0,57.0
544390,County,2020/06/19,51.0,VA,51023.0,Botetourt County,5954.0,27323.0,96570.0,17265.0,19348.0,11335.0,21800.0,16892.0,5325.0,2400.0,1852.0,258.0,95.0
549151,County,2020/06/20,51.0,VA,51023.0,Botetourt County,6720.0,26557.0,100231.0,17971.0,24257.0,10929.0,21341.0,17844.0,4255.0,1625.0,1483.0,434.0,92.0
550800,County,2020/06/21,51.0,VA,51023.0,Botetourt County,6836.0,26441.0,102876.0,25037.0,25602.0,11999.0,15589.0,14777.0,5585.0,1672.0,1938.0,569.0,108.0
553973,County,2020/06/22,51.0,VA,51023.0,Botetourt County,5651.0,27626.0,98718.0,17321.0,21176.0,12402.0,18646.0,17091.0,6505.0,2892.0,2168.0,431.0,86.0
558734,County,2020/06/23,51.0,VA,51023.0,Botetourt County,5680.0,27597.0,109666.0,22095.0,23041.0,12679.0,18543.0,20985.0,7137.0,2704.0,1863.0,385.0,234.0
560365,County,2020/06/24,51.0,VA,51023.0,Botetourt County,5740.0,27537.0,108564.0,22700.0,22780.0,11841.0,19033.0,17769.0,7588.0,3985.0,2411.0,351.0,106.0
563555,County,2020/06/25,51.0,VA,51023.0,Botetourt County,5584.0,27693.0,115311.0,26255.0,22430.0,13636.0,18939.0,19801.0,7206.0,4007.0,2406.0,497.0,134.0
566807,County,2020/06/26,51.0,VA,51023.0,Botetourt County,6014.0,27263.0,100649.0,19785.0,22082.0,12201.0,17010.0,16505.0,7028.0,3103.0,2346.0,486.0,103.0
569930,County,2020/06/27,51.0,VA,51023.0,Botetourt County,6686.0,26591.0,113831.0,23548.0,24914.0,17127.0,20634.0,17267.0,5503.0,1936.0,2363.0,449.0,90.0
573123,County,2020/06/28,51.0,VA,51023.0,Botetourt County,6756.0,26521.0,95302.0,18381.0,19837.0,13525.0,18062.0,15228.0,5146.0,2167.0,2436.0,391.0,129.0
577898,County,2020/06/29,51.0,VA,51023.0,Botetourt County,6265.0,27012.0,106736.0,20347.0,24976.0,12537.0,17732.0,18264.0,6789.0,2897.0,2585.0,511.0,98.0
579541,County,2020/06/30,51.0,VA,51023.0,Botetourt County,5800.0,27477.0,98413.0,19179.0,20974.0,10472.0,17849.0,16853.0,5844.0,3517.0,3095.0,493.0,137.0
582743,County,2020/07/01,51.0,VA,51023.0,Botetourt County,5667.0,27610.0,100717.0,19536.0,19665.0,11886.0,19750.0,17300.0,6599.0,2477.0,2922.0,460.0,122.0
587479,County,2020/07/02,51.0,VA,51023.0,Botetourt County,6116.0,27161.0,122391.0,27867.0,23807.0,14473.0,20102.0,21017.0,7648.0,4253.0,2554.0,528.0,142.0
590673,County,2020/07/03,51.0,VA,51023.0,Botetourt County,6575.0,26702.0,100082.0,19674.0,21958.0,12132.0,16914.0,16412.0,6988.0,3086.0,2333.0,483.0,102.0
592322,County,2020/07/04,51.0,VA,51023.0,Botetourt County,6851.0,26426.0,85622.0,16831.0,18785.0,10379.0,14470.0,14041.0,5979.0,2640.0,1996.0,413.0,88.0
597077,County,2020/07/05,51.0,VA,51023.0,Botetourt County,6571.0,26706.0,94711.0,15978.0,24572.0,12540.0,18750.0,13893.0,4951.0,1535.0,1958.0,329.0,205.0
600255,County,2020/07/06,51.0,VA,51023.0,Botetourt County,6495.0,26782.0,93730.0,16154.0,18879.0,12391.0,16974.0,17321.0,6346.0,3171.0,1936.0,399.0,159.0
602274,County,2020/07/07,51.0,VA,51023.0,Botetourt County,5767.0,27510.0,95752.0,16204.0,20017.0,12522.0,18744.0,16365.0,5584.0,3014.0,2604.0,497.0,201.0
604976,County,2020/07/08,51.0,VA,51023.0,Botetourt County,6042.0,27235.0,91038.0,16085.0,18232.0,10613.0,17239.0,15681.0,6686.0,3555.0,2175.0,562.0,210.0
609845,County,2020/07/09,51.0,VA,51023.0,Botetourt County,6103.0,27174.0,101983.0,21588.0,18952.0,12251.0,17602.0,18579.0,6269.0,3684.0,2150.0,765.0,143.0
611470,County,2020/07/10,51.0,VA,51023.0,Botetourt County,6000.0,27277.0,96324.0,16590.0,20069.0,12531.0,17999.0,17874.0,5839.0,3069.0,1691.0,462.0,200.0
614680,County,2020/07/11,51.0,VA,51023.0,Botetourt County,6662.0,26615.0,97846.0,13740.0,24857.0,14752.0,18281.0,14246.0,6223.0,3479.0,1751.0,277.0,240.0
617851,County,2020/07/12,51.0,VA,51023.0,Botetourt County,6150.0,27127.0,88394.0,16990.0,18980.0,12456.0,17295.0,13168.0,5117.0,2043.0,1711.0,313.0,321.0
621040,County,2020/07/13,51.0,VA,51023.0,Botetourt County,6133.0,27144.0,96260.0,18362.0,21549.0,10767.0,17421.0,16264.0,6132.0,3440.0,1858.0,322.0,145.0
624241,County,2020/07/14,51.0,VA,51023.0,Botetourt County,6145.0,27132.0,102620.0,19178.0,23916.0,12539.0,17044.0,19588.0,4884.0,2830.0,1982.0,469.0,190.0
628978,County,2020/07/15,51.0,VA,51023.0,Botetourt County,6311.0,26966.0,103302.0,23370.0,21647.0,12297.0,17355.0,18625.0,5072.0,2629.0,1809.0,390.0,108.0
630604,County,2020/07/16,51.0,VA,51023.0,Botetourt County,5775.0,27502.0,102272.0,18908.0,23463.0,13276.0,18527.0,17256.0,6794.0,1580.0,2055.0,318.0,95.0
633811,County,2020/07/17,51.0,VA,51023.0,Botetourt County,6246.0,27031.0,104937.0,20273.0,22855.0,14712.0,16985.0,20504.0,5535.0,2450.0,1245.0,322.0,56.0
638591,County,2020/07/18,51.0,VA,51023.0,Botetourt County,7220.0,26057.0,95503.0,14872.0,23366.0,13450.0,15071.0,19060.0,4922.0,2328.0,1839.0,442.0,153.0
640172,County,2020/07/19,51.0,VA,51023.0,Botetourt County,7084.0,26193.0,86573.0,11979.0,20117.0,11528.0,18255.0,15732.0,5465.0,1263.0,1770.0,310.0,154.0
645002,County,2020/07/20,51.0,VA,51023.0,Botetourt County,6655.0,26622.0,101599.0,21040.0,20112.0,10631.0,17967.0,20968.0,6223.0,2662.0,1465.0,453.0,78.0
646973,County,2020/07/21,51.0,VA,51023.0,Botetourt County,6494.0,26783.0,98398.0,17275.0,20375.0,12848.0,18217.0,18822.0,5954.0,2337.0,1987.0,456.0,127.0
651358,County,2020/07/22,51.0,VA,51023.0,Botetourt County,6246.0,27031.0,103206.0,18521.0,20304.0,13395.0,21268.0,18086.0,5680.0,3371.0,2062.0,383.0,136.0
652902,County,2020/07/23,51.0,VA,51023.0,Botetourt County,6542.0,26735.0,104978.0,19770.0,20314.0,13918.0,19268.0,18173.0,7204.0,3778.0,1927.0,463.0,163.0
657826,County,2020/07/24,51.0,VA,51023.0,Botetourt County,5993.0,27284.0,109502.0,19643.0,22017.0,13764.0,20919.0,20178.0,7153.0,2849.0,2214.0,647.0,118.0
659369,County,2020/07/25,51.0,VA,51023.0,Botetourt County,6432.0,26845.0,100539.0,16158.0,23628.0,12473.0,18287.0,17890.0,7319.0,2228.0,2050.0,323.0,183.0
662569,County,2020/07/26,51.0,VA,51023.0,Botetourt County,6677.0,26600.0,102830.0,13442.0,25131.0,14054.0,21340.0,18760.0,5886.0,1692.0,2031.0,392.0,102.0
665863,County,2020/07/27,51.0,VA,51023.0,Botetourt County,6443.0,26834.0,104652.0,17918.0,21113.0,13200.0,20783.0,20189.0,6414.0,2681.0,1910.0,293.0,151.0
669026,County,2020/07/28,51.0,VA,51023.0,Botetourt County,5911.0,27366.0,117783.0,20726.0,25420.0,16736.0,22885.0,19817.0,6917.0,2894.0,1674.0,577.0,137.0
672232,County,2020/07/29,51.0,VA,51023.0,Botetourt County,6203.0,27074.0,115230.0,21004.0,25012.0,15447.0,21906.0,19897.0,6842.0,2412.0,2128.0,457.0,125.0
676895,County,2020/07/30,51.0,VA,51023.0,Botetourt County,5811.0,27466.0,118439.0,20685.0,24888.0,16007.0,21181.0,23450.0,6543.0,3211.0,1964.0,387.0,123.0
680123,County,2020/07/31,51.0,VA,51023.0,Botetourt County,6320.0,26957.0,116791.0,20393.0,27060.0,14586.0,21394.0,20721.0,7058.0,3318.0,1742.0,390.0,129.0
683292,County,2020/08/01,51.0,VA,51023.0,Botetourt County,7197.0,26080.0,102357.0,17831.0,21541.0,15952.0,21646.0,14737.0,5922.0,2375.0,1822.0,399.0,132.0
684926,County,2020/08/02,51.0,VA,51023.0,Botetourt County,7464.0,25813.0,96955.0,17133.0,21616.0,13250.0,17263.0,16779.0,5194.0,2614.0,2289.0,708.0,109.0
688123,County,2020/08/03,51.0,VA,51023.0,Botetourt County,6303.0,26974.0,109867.0,19290.0,24642.0,14497.0,21642.0,19144.0,5435.0,2990.0,1745.0,395.0,87.0
692898,County,2020/08/04,51.0,VA,51023.0,Botetourt County,6081.0,27196.0,115315.0,22628.0,22894.0,13979.0,22407.0,22304.0,6261.0,2497.0,1808.0,448.0,89.0
696074,County,2020/08/05,51.0,VA,51023.0,Botetourt County,6184.0,27093.0,120792.0,22765.0,26792.0,13601.0,22152.0,22211.0,8190.0,2302.0,2100.0,598.0,81.0
699269,County,2020/08/06,51.0,VA,51023.0,Botetourt County,5729.0,27548.0,116080.0,23139.0,23090.0,13663.0,22546.0,20495.0,7257.0,2595.0,2616.0,624.0,55.0
702465,County,2020/08/07,51.0,VA,51023.0,Botetourt County,5975.0,27302.0,112748.0,21755.0,23441.0,14406.0,20041.0,19101.0,8533.0,2374.0,2631.0,396.0,70.0
704094,County,2020/08/08,51.0,VA,51023.0,Botetourt County,6784.0,26493.0,112433.0,20572.0,25034.0,16186.0,19892.0,19227.0,7196.0,2379.0,1444.0,466.0,37.0
708876,County,2020/08/09,51.0,VA,51023.0,Botetourt County,6864.0,26413.0,99638.0,14716.0,21929.0,13900.0,22515.0,16747.0,5915.0,1542.0,1787.0,487.0,100.0
712045,County,2020/08/10,51.0,VA,51023.0,Botetourt County,6204.0,27073.0,106928.0,18893.0,19949.0,14511.0,17524.0,23685.0,6887.0,2843.0,2224.0,335.0,77.0
713722,County,2020/08/11,51.0,VA,51023.0,Botetourt County,6459.0,26818.0,102879.0,15871.0,18491.0,15195.0,19134.0,22564.0,5938.0,3008.0,2207.0,404.0,67.0
718433,County,2020/08/12,51.0,VA,51023.0,Botetourt County,6161.0,27116.0,100912.0,16129.0,21873.0,10859.0,18998.0,20393.0,6903.0,2463.0,2238.0,652.0,404.0
721627,County,2020/08/13,51.0,VA,51023.0,Botetourt County,5728.0,27549.0,105277.0,20333.0,18462.0,12046.0,18265.0,22842.0,6482.0,3537.0,2428.0,486.0,396.0
723254,County,2020/08/14,51.0,VA,51023.0,Botetourt County,5598.0,27679.0,99128.0,15126.0,21501.0,12807.0,19631.0,18695.0,5575.0,2563.0,2207.0,659.0,364.0
728016,County,2020/08/15,51.0,VA,51023.0,Botetourt County,6334.0,26943.0,96810.0,14048.0,19681.0,13393.0,19930.0,18817.0,4853.0,3295.0,1934.0,494.0,365.0
729644,County,2020/08/16,51.0,VA,51023.0,Botetourt County,6854.0,26423.0,88170.0,12245.0,17934.0,12365.0,19143.0,14978.0,4811.0,3230.0,2376.0,626.0,462.0
732838,County,2020/08/17,51.0,VA,51023.0,Botetourt County,6680.0,26597.0,93676.0,12601.0,17542.0,11456.0,18846.0,18802.0,6725.0,3539.0,2852.0,806.0,507.0
736053,County,2020/08/18,51.0,VA,51023.0,Botetourt County,6035.0,27242.0,90102.0,11092.0,15535.0,9891.0,18733.0,19797.0,7367.0,3996.0,2314.0,806.0,571.0
740791,County,2020/08/19,51.0,VA,51023.0,Botetourt County,6147.0,27130.0,97165.0,14794.0,20682.0,10454.0,17615.0,19666.0,6251.0,3709.0,2819.0,668.0,507.0
742420,County,2020/08/20,51.0,VA,51023.0,Botetourt County,5833.0,27444.0,103655.0,14639.0,21057.0,13348.0,19891.0,20361.0,6548.0,3820.0,2731.0,653.0,607.0
747195,County,2020/08/21,51.0,VA,51023.0,Botetourt County,5856.0,27421.0,100018.0,16709.0,19118.0,11681.0,19517.0,19695.0,6342.0,2984.0,2969.0,549.0,454.0
748824,County,2020/08/22,51.0,VA,51023.0,Botetourt County,6300.0,26977.0,95580.0,15926.0,17805.0,11834.0,19156.0,18038.0,6024.0,3022.0,2539.0,737.0,499.0
752018,County,2020/08/23,51.0,VA,51023.0,Botetourt County,7237.0,26040.0,82041.0,9544.0,17573.0,11563.0,17018.0,16002.0,5156.0,2612.0,1680.0,543.0,350.0
756761,County,2020/08/24,51.0,VA,51023.0,Botetourt County,7069.0,26208.0,98876.0,18689.0,20562.0,11855.0,18952.0,18750.0,5201.0,2432.0,1704.0,372.0,359.0
758390,County,2020/08/25,51.0,VA,51023.0,Botetourt County,6485.0,26792.0,101304.0,18053.0,22157.0,11342.0,20531.0,17892.0,5722.0,3351.0,1505.0,462.0,289.0
763161,County,2020/08/26,51.0,VA,51023.0,Botetourt County,6695.0,26582.0,94488.0,16280.0,19664.0,11735.0,17454.0,18529.0,5824.0,2558.0,1714.0,497.0,233.0
764741,County,2020/08/27,51.0,VA,51023.0,Botetourt County,6505.0,26772.0,97846.0,15639.0,21190.0,11463.0,18525.0,19189.0,6211.0,2934.0,2080.0,421.0,194.0
769524,County,2020/08/28,51.0,VA,51023.0,Botetourt County,6625.0,26652.0,99640.0,14392.0,22926.0,11783.0,19817.0,19457.0,6223.0,2994.0,1573.0,344.0,131.0
772724,County,2020/08/29,51.0,VA,51023.0,Botetourt County,6862.0,26415.0,93054.0,14397.0,20211.0,12426.0,19800.0,16848.0,5040.0,1644.0,2060.0,396.0,232.0
775925,County,2020/08/30,51.0,VA,51023.0,Botetourt County,7349.0,25928.0,86336.0,12222.0,18184.0,11419.0,16220.0,17124.0,6006.0,2490.0,1812.0,551.0,308.0
779120,County,2020/08/31,51.0,VA,51023.0,Botetourt County,6719.0,26558.0,89149.0,11305.0,18463.0,11134.0,17967.0,18539.0,6466.0,2214.0,2238.0,525.0,298.0
780732,County,2020/09/01,51.0,VA,51023.0,Botetourt County,6353.0,26924.0,98840.0,13483.0,19458.0,12470.0,20765.0,20821.0,6291.0,2728.0,1997.0,675.0,152.0
785508,County,2020/09/02,51.0,VA,51023.0,Botetourt County,6504.0,26773.0,100800.0,12305.0,22921.0,13193.0,19190.0,20631.0,6934.0,2585.0,2374.0,449.0,218.0
788716,County,2020/09/03,51.0,VA,51023.0,Botetourt County,6108.0,27169.0,105462.0,16248.0,19255.0,12403.0,23175.0,22204.0,6191.0,3178.0,2200.0,355.0,253.0
791895,County,2020/09/04,51.0,VA,51023.0,Botetourt County,6392.0,26885.0,104467.0,16316.0,23936.0,11785.0,19588.0,20557.0,6895.0,2470.0,2351.0,428.0,141.0
795091,County,2020/09/05,51.0,VA,51023.0,Botetourt County,6541.0,26736.0,107448.0,18240.0,22722.0,13077.0,22129.0,19066.0,6301.0,2968.0,2300.0,540.0,105.0
798294,County,2020/09/06,51.0,VA,51023.0,Botetourt County,7236.0,26041.0,82899.0,12331.0,18169.0,10809.0,18462.0,11941.0,5765.0,2525.0,2139.0,539.0,219.0
799905,County,2020/09/07,51.0,VA,51023.0,Botetourt County,7637.0,25640.0,91339.0,13550.0,17758.0,11382.0,17997.0,19645.0,6199.0,2367.0,1701.0,556.0,184.0
804671,County,2020/09/08,51.0,VA,51023.0,Botetourt County,6819.0,26458.0,102707.0,15785.0,19945.0,12497.0,19920.0,21905.0,7680.0,2527.0,1833.0,478.0,137.0
806300,County,2020/09/09,51.0,VA,51023.0,Botetourt County,6787.0,26490.0,114908.0,18193.0,25089.0,13944.0,22313.0,22842.0,6753.0,3034.0,2187.0,321.0,232.0
811068,County,2020/09/10,51.0,VA,51023.0,Botetourt County,6779.0,26498.0,101966.0,15944.0,20214.0,11876.0,20475.0,21358.0,6547.0,2699.0,2417.0,374.0,62.0
814253,County,2020/09/11,51.0,VA,51023.0,Botetourt County,6445.0,26832.0,114665.0,18824.0,22622.0,14234.0,23831.0,23331.0,6254.0,2729.0,2300.0,421.0,119.0
817447,County,2020/09/12,51.0,VA,51023.0,Botetourt County,7105.0,26172.0,100527.0,16195.0,20321.0,12412.0,21224.0,18657.0,6388.0,2959.0,1854.0,384.0,133.0
819054,County,2020/09/13,51.0,VA,51023.0,Botetourt County,7685.0,25592.0,93807.0,13765.0,21367.0,15490.0,17112.0,16434.0,5085.0,2118.0,1612.0,496.0,328.0
823836,County,2020/09/14,51.0,VA,51023.0,Botetourt County,6906.0,26371.0,107085.0,14775.0,23197.0,13354.0,24042.0,21203.0,6022.0,2012.0,1980.0,321.0,179.0
825464,County,2020/09/15,51.0,VA,51023.0,Botetourt County,6540.0,26737.0,107994.0,18322.0,21683.0,11916.0,20688.0,23084.0,6975.0,2220.0,2240.0,689.0,177.0
830223,County,2020/09/16,51.0,VA,51023.0,Botetourt County,6662.0,26615.0,112992.0,18104.0,23228.0,13638.0,23114.0,23221.0,6605.0,2207.0,2050.0,667.0,158.0
831850,County,2020/09/17,51.0,VA,51023.0,Botetourt County,6393.0,26884.0,106350.0,14451.0,20664.0,13647.0,24775.0,20650.0,7115.0,2103.0,2333.0,448.0,164.0
836611,County,2020/09/18,51.0,VA,51023.0,Botetourt County,6542.0,26735.0,127960.0,19638.0,25953.0,14426.0,27250.0,27005.0,7596.0,3082.0,2382.0,511.0,117.0
838240,County,2020/09/19,51.0,VA,51023.0,Botetourt County,6574.0,26703.0,123143.0,17775.0,26376.0,18064.0,24530.0,24827.0,6549.0,2625.0,1735.0,489.0,173.0
843015,County,2020/09/20,51.0,VA,51023.0,Botetourt County,7023.0,26254.0,100927.0,17834.0,19073.0,14487.0,21982.0,16503.0,6125.0,2955.0,1587.0,278.0,103.0
844643,County,2020/09/21,51.0,VA,51023.0,Botetourt County,7259.0,26018.0,93568.0,15213.0,18981.0,12746.0,17498.0,17932.0,6391.0,2183.0,2213.0,344.0,67.0
849387,County,2020/09/22,51.0,VA,51023.0,Botetourt County,5928.0,27349.0,106743.0,17469.0,22664.0,11976.0,21376.0,22305.0,6360.0,2304.0,1754.0,406.0,129.0
851015,County,2020/09/23,51.0,VA,51023.0,Botetourt County,5879.0,27398.0,111130.0,18348.0,22405.0,12609.0,21980.0,22464.0,7884.0,2848.0,2028.0,510.0,54.0
855781,County,2020/09/24,51.0,VA,51023.0,Botetourt County,5295.0,27982.0,110085.0,18890.0,25702.0,11243.0,18282.0,23583.0,6811.0,2795.0,2199.0,500.0,80.0
857410,County,2020/09/25,51.0,VA,51023.0,Botetourt County,5748.0,27529.0,102859.0,14491.0,20487.0,12892.0,21439.0,21857.0,7059.0,2331.0,1696.0,532.0,75.0
862163,County,2020/09/26,51.0,VA,51023.0,Botetourt County,6935.0,26342.0,111639.0,17094.0,26370.0,13446.0,22126.0,21514.0,7112.0,1774.0,1747.0,391.0,65.0
863768,County,2020/09/27,51.0,VA,51023.0,Botetourt County,6385.0,26892.0,100882.0,16803.0,22526.0,14281.0,19797.0,17976.0,5172.0,2351.0,1471.0,423.0,82.0
868551,County,2020/09/28,51.0,VA,51023.0,Botetourt County,5652.0,27625.0,108942.0,15661.0,25312.0,13362.0,21420.0,22515.0,6187.0,2340.0,1672.0,429.0,44.0
870179,County,2020/09/29,51.0,VA,51023.0,Botetourt County,6349.0,26928.0,96979.0,13097.0,19982.0,10939.0,21301.0,20393.0,5510.0,3537.0,1920.0,258.0,42.0
873373,County,2020/09/30,51.0,VA,51023.0,Botetourt County,6355.0,26922.0,90924.0,13811.0,16826.0,11842.0,18267.0,17728.0,6614.0,3608.0,1828.0,342.0,58.0
878112,County,2020/10/01,51.0,VA,51023.0,Botetourt County,6017.0,27260.0,98280.0,14050.0,19446.0,12959.0,21380.0,17844.0,6574.0,3885.0,1753.0,324.0,65.0
881327,County,2020/10/02,51.0,VA,51023.0,Botetourt County,6313.0,26964.0,108434.0,16315.0,22436.0,12862.0,22987.0,23007.0,6174.0,2377.0,2021.0,207.0,48.0
884522,County,2020/10/03,51.0,VA,51023.0,Botetourt County,6614.0,26663.0,105022.0,16437.0,22780.0,12865.0,23003.0,18692.0,6263.0,3112.0,1549.0,271.0,50.0
887526,County,2020/10/04,51.0,VA,51023.0,Botetourt County,7497.0,25780.0,94735.0,16393.0,20914.0,14896.0,17124.0,15873.0,4818.0,2328.0,1971.0,356.0,62.0
890811,County,2020/10/05,51.0,VA,51023.0,Botetourt County,7364.0,25913.0,101184.0,14041.0,20721.0,13891.0,20124.0,19446.0,7080.0,3242.0,2288.0,305.0,46.0
893903,County,2020/10/06,51.0,VA,51023.0,Botetourt County,6530.0,26747.0,103351.0,12317.0,21832.0,12816.0,24275.0,21423.0,5071.0,3725.0,1573.0,257.0,62.0
897346,County,2020/10/07,51.0,VA,51023.0,Botetourt County,6643.0,26634.0,107265.0,17336.0,20361.0,14270.0,21215.0,22317.0,6432.0,3132.0,1942.0,204.0,56.0
900333,County,2020/10/08,51.0,VA,51023.0,Botetourt County,6417.0,26860.0,94286.0,13398.0,17508.0,11956.0,18636.0,20591.0,6596.0,3483.0,1702.0,369.0,47.0
903528,County,2020/10/09,51.0,VA,51023.0,Botetourt County,6764.0,26513.0,98067.0,14585.0,18766.0,13021.0,20751.0,19122.0,6273.0,3431.0,1777.0,299.0,42.0
906703,County,2020/10/10,51.0,VA,51023.0,Botetourt County,7702.0,25575.0,86789.0,12888.0,19147.0,13079.0,17544.0,13207.0,4259.0,4193.0,2167.0,254.0,51.0
907458,County,2020/10/11,51.0,VA,51023.0,Botetourt County,7812.0,25465.0,82340.0,14099.0,15895.0,12571.0,16884.0,14679.0,3365.0,2709.0,1821.0,264.0,53.0
910914,County,2020/10/12,51.0,VA,51023.0,Botetourt County,6822.0,26455.0,101621.0,16871.0,21327.0,11791.0,21525.0,19240.0,5879.0,3105.0,1554.0,301.0,28.0
913578,County,2020/10/13,51.0,VA,51023.0,Botetourt County,6167.0,27110.0,101407.0,15391.0,21019.0,11832.0,22534.0,19294.0,5270.0,4153.0,1547.0,330.0,37.0
916993,County,2020/10/14,51.0,VA,51023.0,Botetourt County,6302.0,26975.0,104233.0,16448.0,19484.0,13789.0,21113.0,20140.0,7095.0,4169.0,1544.0,402.0,49.0
920313,County,2020/10/15,51.0,VA,51023.0,Botetourt County,6665.0,26612.0,93739.0,16091.0,16997.0,9477.0,19300.0,19506.0,6265.0,4114.0,1489.0,431.0,69.0
923773,County,2020/10/16,51.0,VA,51023.0,Botetourt County,6298.0,26979.0,105287.0,13674.0,25000.0,12821.0,22581.0,18024.0,6658.0,4244.0,1933.0,310.0,42.0
927410,County,2020/10/17,51.0,VA,51023.0,Botetourt County,6907.0,26370.0,97139.0,17423.0,22026.0,13940.0,18278.0,15495.0,5052.0,3355.0,1107.0,390.0,73.0
929707,County,2020/10/18,51.0,VA,51023.0,Botetourt County,7310.0,25967.0,87023.0,13215.0,17264.0,11053.0,18435.0,17119.0,4512.0,3384.0,1570.0,405.0,66.0
933305,County,2020/10/19,51.0,VA,51023.0,Botetourt County,6405.0,26872.0,111278.0,19031.0,22692.0,14646.0,21979.0,21297.0,5997.0,3740.0,1529.0,319.0,48.0
935936,County,2020/10/20,51.0,VA,51023.0,Botetourt County,6633.0,26644.0,97769.0,12935.0,20864.0,11535.0,21371.0,19708.0,5752.0,3736.0,1390.0,418.0,60.0
939250,County,2020/10/21,51.0,VA,51023.0,Botetourt County,7354.0,25923.0,91846.0,11873.0,17554.0,10332.0,16732.0,21977.0,6524.0,4226.0,2225.0,316.0,87.0
942402,County,2020/10/22,51.0,VA,51023.0,Botetourt County,6474.0,26803.0,108603.0,16646.0,23068.0,14985.0,22210.0,21406.0,4450.0,3604.0,1821.0,372.0,41.0
945665,County,2020/10/23,51.0,VA,51023.0,Botetourt County,6373.0,26904.0,111923.0,14076.0,24169.0,13102.0,25451.0,22270.0,6496.0,4210.0,1788.0,310.0,51.0
949374,County,2020/10/24,51.0,VA,51023.0,Botetourt County,6756.0,26521.0,114317.0,17709.0,24233.0,15017.0,25167.0,20243.0,7267.0,3039.0,1354.0,256.0,32.0
