,Level,Date,State FIPS,State Postal Code,County FIPS,County Name,Population Staying at Home,Population Not Staying at Home,Number of Trips,Number of Trips <1,Number of Trips 1-3,Number of Trips 3-5,Number of Trips 5-10,Number of Trips 10-25,Number of Trips 25-50,Number of Trips 50-100,Number of Trips 100-250,Number of Trips 250-500,Number of Trips >=500
130,County,2020/01/01,5.0,AR,5039.0,Dallas County,1445.0,5737.0,18649.0,3425.0,6491.0,1439.0,1682.0,2470.0,1792.0,745.0,550.0,55.0,0.0
5512,County,2020/01/02,5.0,AR,5039.0,Dallas County,1290.0,5892.0,19699.0,4018.0,5282.0,1949.0,1887.0,2912.0,2570.0,914.0,161.0,6.0,0.0
8489,County,2020/01/03,5.0,AR,5039.0,Dallas County,981.0,6201.0,23330.0,4199.0,6820.0,3143.0,1862.0,3287.0,2729.0,1030.0,240.0,20.0,0.0
10132,County,2020/01/04,5.0,AR,5039.0,Dallas County,1218.0,5964.0,22907.0,6145.0,5701.0,3084.0,1360.0,2870.0,2744.0,941.0,31.0,17.0,14.0
12906,County,2020/01/05,5.0,AR,5039.0,Dallas County,1276.0,5906.0,19473.0,4292.0,5937.0,2670.0,1499.0,2055.0,2117.0,553.0,272.0,32.0,46.0
16003,County,2020/01/06,5.0,AR,5039.0,Dallas County,987.0,6195.0,23461.0,5378.0,6056.0,2980.0,1789.0,3299.0,2784.0,848.0,306.0,21.0,0.0
20812,County,2020/01/07,5.0,AR,5039.0,Dallas County,1113.0,6069.0,24112.0,6205.0,5790.0,2263.0,1772.0,3909.0,3064.0,840.0,248.0,21.0,0.0
24056,County,2020/01/08,5.0,AR,5039.0,Dallas County,1168.0,6014.0,21902.0,4685.0,7479.0,1577.0,1928.0,2761.0,2763.0,561.0,138.0,10.0,0.0
27187,County,2020/01/09,5.0,AR,5039.0,Dallas County,1213.0,5969.0,20593.0,4099.0,6174.0,1880.0,866.0,3738.0,2835.0,789.0,194.0,5.0,13.0
30393,County,2020/01/10,5.0,AR,5039.0,Dallas County,1214.0,5968.0,21351.0,5029.0,4952.0,1914.0,1575.0,3178.0,3039.0,1417.0,215.0,20.0,12.0
32021,County,2020/01/11,5.0,AR,5039.0,Dallas County,1300.0,5882.0,19569.0,3761.0,5708.0,1589.0,1526.0,3312.0,2441.0,1026.0,178.0,28.0,0.0
36757,County,2020/01/12,5.0,AR,5039.0,Dallas County,1341.0,5841.0,20992.0,6372.0,5961.0,2273.0,1812.0,2738.0,1345.0,453.0,32.0,6.0,0.0
38420,County,2020/01/13,5.0,AR,5039.0,Dallas County,1235.0,5947.0,24248.0,5649.0,6767.0,3085.0,1389.0,3767.0,3002.0,439.0,135.0,15.0,0.0
43154,County,2020/01/14,5.0,AR,5039.0,Dallas County,997.0,6185.0,20605.0,4493.0,6142.0,1444.0,1207.0,3644.0,2867.0,617.0,177.0,14.0,0.0
44784,County,2020/01/15,5.0,AR,5039.0,Dallas County,1065.0,6117.0,20626.0,4209.0,5735.0,1952.0,1913.0,2967.0,2780.0,794.0,261.0,15.0,0.0
49516,County,2020/01/16,5.0,AR,5039.0,Dallas County,996.0,6186.0,22898.0,5116.0,6700.0,1703.0,1927.0,3050.0,2917.0,1261.0,191.0,22.0,11.0
52803,County,2020/01/17,5.0,AR,5039.0,Dallas County,1026.0,6156.0,24639.0,6632.0,6191.0,1996.0,1455.0,4225.0,2745.0,1042.0,327.0,26.0,0.0
54375,County,2020/01/18,5.0,AR,5039.0,Dallas County,1185.0,5997.0,19276.0,4135.0,4636.0,2404.0,1633.0,2881.0,2395.0,986.0,189.0,5.0,12.0
59121,County,2020/01/19,5.0,AR,5039.0,Dallas County,1407.0,5775.0,22856.0,5163.0,6770.0,3483.0,2196.0,2341.0,2169.0,576.0,158.0,0.0,0.0
60755,County,2020/01/20,5.0,AR,5039.0,Dallas County,1202.0,5980.0,21998.0,5151.0,6707.0,2021.0,1276.0,3529.0,1659.0,1308.0,335.0,0.0,12.0
65533,County,2020/01/21,5.0,AR,5039.0,Dallas County,1152.0,6030.0,24842.0,6146.0,7017.0,2383.0,1698.0,3880.0,2569.0,887.0,257.0,5.0,0.0
67162,County,2020/01/22,5.0,AR,5039.0,Dallas County,1207.0,5975.0,25464.0,6580.0,6928.0,1916.0,2366.0,3369.0,2983.0,1146.0,161.0,15.0,0.0
70348,County,2020/01/23,5.0,AR,5039.0,Dallas County,1182.0,6000.0,23372.0,4516.0,6975.0,3069.0,1300.0,4174.0,2642.0,463.0,228.0,5.0,0.0
75062,County,2020/01/24,5.0,AR,5039.0,Dallas County,1059.0,6123.0,26551.0,5057.0,7239.0,3574.0,2320.0,3934.0,2915.0,1260.0,239.0,13.0,0.0
78296,County,2020/01/25,5.0,AR,5039.0,Dallas County,1194.0,5988.0,20264.0,4979.0,5403.0,1859.0,1387.0,2724.0,2489.0,1164.0,235.0,24.0,0.0
79980,County,2020/01/26,5.0,AR,5039.0,Dallas County,1334.0,5848.0,19288.0,4423.0,6531.0,2230.0,1297.0,2274.0,1812.0,607.0,109.0,5.0,0.0
84170,County,2020/01/27,5.0,AR,5039.0,Dallas County,1164.0,6018.0,22285.0,4188.0,7212.0,2956.0,1431.0,3341.0,2112.0,792.0,244.0,9.0,0.0
86334,County,2020/01/28,5.0,AR,5039.0,Dallas County,1157.0,6025.0,21843.0,4521.0,6665.0,2785.0,1612.0,3005.0,2006.0,991.0,220.0,27.0,11.0
89488,County,2020/01/29,5.0,AR,5039.0,Dallas County,1176.0,6006.0,21441.0,4306.0,6025.0,2124.0,1412.0,3286.0,2867.0,1109.0,298.0,14.0,0.0
92695,County,2020/01/30,5.0,AR,5039.0,Dallas County,1095.0,6087.0,26645.0,5658.0,8597.0,3501.0,1714.0,3337.0,2127.0,1313.0,383.0,4.0,11.0
95896,County,2020/01/31,5.0,AR,5039.0,Dallas County,978.0,6204.0,24021.0,5205.0,6643.0,2700.0,1920.0,3258.0,2226.0,1718.0,334.0,17.0,0.0
100655,County,2020/02/01,5.0,AR,5039.0,Dallas County,1042.0,6140.0,21193.0,5435.0,5031.0,2838.0,1323.0,2311.0,2652.0,1263.0,249.0,23.0,68.0
103807,County,2020/02/02,5.0,AR,5039.0,Dallas County,1262.0,5920.0,21097.0,3957.0,8096.0,3359.0,1728.0,2188.0,956.0,656.0,135.0,10.0,12.0
107058,County,2020/02/03,5.0,AR,5039.0,Dallas County,853.0,6329.0,28234.0,6262.0,7957.0,2983.0,1937.0,4996.0,3097.0,849.0,120.0,15.0,18.0
108676,County,2020/02/04,5.0,AR,5039.0,Dallas County,999.0,6183.0,24786.0,5511.0,7602.0,1701.0,2131.0,3998.0,2810.0,884.0,145.0,4.0,0.0
113400,County,2020/02/05,5.0,AR,5039.0,Dallas County,1056.0,6126.0,24260.0,5572.0,7029.0,1652.0,2048.0,3571.0,3321.0,727.0,253.0,20.0,67.0
116606,County,2020/02/06,5.0,AR,5039.0,Dallas County,1029.0,6153.0,25960.0,5735.0,7517.0,4102.0,1593.0,3478.0,2169.0,1102.0,217.0,8.0,39.0
118232,County,2020/02/07,5.0,AR,5039.0,Dallas County,907.0,6275.0,28270.0,6369.0,7258.0,3749.0,1892.0,4742.0,2829.0,1232.0,182.0,8.0,9.0
121430,County,2020/02/08,5.0,AR,5039.0,Dallas County,1170.0,6012.0,23937.0,5126.0,6445.0,3349.0,1887.0,3947.0,1987.0,954.0,224.0,8.0,10.0
127227,County,2020/02/09,5.0,AR,5039.0,Dallas County,1431.0,5751.0,19180.0,4733.0,5126.0,2112.0,1922.0,2857.0,1670.0,462.0,251.0,26.0,21.0
128439,County,2020/02/10,5.0,AR,5039.0,Dallas County,1234.0,5948.0,24685.0,5335.0,6911.0,2917.0,1800.0,3852.0,2647.0,712.0,468.0,22.0,21.0
131085,County,2020/02/11,5.0,AR,5039.0,Dallas County,1157.0,6025.0,24633.0,4661.0,8503.0,2564.0,1659.0,4040.0,2267.0,518.0,371.0,18.0,32.0
135713,County,2020/02/12,5.0,AR,5039.0,Dallas County,1068.0,6114.0,23266.0,4013.0,7543.0,2113.0,1863.0,3784.0,2726.0,687.0,465.0,23.0,49.0
137412,County,2020/02/13,5.0,AR,5039.0,Dallas County,989.0,6193.0,26876.0,5656.0,7442.0,2681.0,2089.0,4142.0,3389.0,1003.0,451.0,23.0,0.0
142142,County,2020/02/14,5.0,AR,5039.0,Dallas County,1035.0,6147.0,27205.0,5339.0,7841.0,2397.0,1751.0,4333.0,3132.0,2070.0,283.0,20.0,39.0
145398,County,2020/02/15,5.0,AR,5039.0,Dallas County,1169.0,6013.0,22092.0,4568.0,6681.0,2490.0,1463.0,3127.0,2049.0,1266.0,424.0,13.0,11.0
148550,County,2020/02/16,5.0,AR,5039.0,Dallas County,1219.0,5963.0,18626.0,2984.0,7164.0,2059.0,1396.0,2498.0,1632.0,639.0,184.0,10.0,60.0
150178,County,2020/02/17,5.0,AR,5039.0,Dallas County,1360.0,5822.0,22129.0,5067.0,6702.0,2419.0,1518.0,3448.0,1884.0,819.0,212.0,12.0,48.0
154909,County,2020/02/18,5.0,AR,5039.0,Dallas County,1117.0,6065.0,23673.0,4323.0,6732.0,2441.0,1722.0,4358.0,2535.0,979.0,532.0,4.0,47.0
156588,County,2020/02/19,5.0,AR,5039.0,Dallas County,1025.0,6157.0,25354.0,5778.0,6561.0,2794.0,2111.0,4720.0,2719.0,249.0,368.0,32.0,22.0
161252,County,2020/02/20,5.0,AR,5039.0,Dallas County,1053.0,6129.0,22815.0,4314.0,5249.0,3473.0,1928.0,3749.0,2619.0,1249.0,180.0,19.0,35.0
164494,County,2020/02/21,5.0,AR,5039.0,Dallas County,955.0,6227.0,27678.0,5184.0,7922.0,2728.0,1992.0,4413.0,3945.0,1202.0,272.0,9.0,11.0
167638,County,2020/02/22,5.0,AR,5039.0,Dallas County,942.0,6240.0,25211.0,5320.0,6684.0,2922.0,2085.0,3807.0,2936.0,1234.0,211.0,0.0,12.0
169348,County,2020/02/23,5.0,AR,5039.0,Dallas County,1342.0,5840.0,21848.0,4281.0,6633.0,2690.0,1985.0,3427.0,1748.0,799.0,263.0,7.0,15.0
174130,County,2020/02/24,5.0,AR,5039.0,Dallas County,1143.0,6039.0,24485.0,4343.0,7781.0,3202.0,1835.0,3455.0,2735.0,781.0,308.0,10.0,35.0
175749,County,2020/02/25,5.0,AR,5039.0,Dallas County,911.0,6271.0,25517.0,4113.0,7239.0,3504.0,2215.0,4042.0,2743.0,1254.0,309.0,21.0,77.0
178994,County,2020/02/26,5.0,AR,5039.0,Dallas County,1156.0,6026.0,28270.0,5825.0,10529.0,5130.0,1807.0,3341.0,1177.0,461.0,0.0,0.0,0.0
183161,County,2020/02/27,5.0,AR,5039.0,Dallas County,993.0,6189.0,26985.0,5670.0,7730.0,3604.0,2139.0,3912.0,2820.0,894.0,155.0,14.0,47.0
186998,County,2020/02/28,5.0,AR,5039.0,Dallas County,1060.0,6122.0,29531.0,6976.0,8444.0,3781.0,2432.0,3509.0,2944.0,1238.0,185.0,10.0,12.0
188527,County,2020/02/29,5.0,AR,5039.0,Dallas County,1067.0,6115.0,24957.0,4151.0,6776.0,3255.0,1783.0,3830.0,3794.0,1256.0,88.0,11.0,13.0
191718,County,2020/03/01,5.0,AR,5039.0,Dallas County,1187.0,5995.0,18682.0,4502.0,5912.0,2352.0,1980.0,1601.0,1399.0,791.0,90.0,28.0,27.0
194892,County,2020/03/02,5.0,AR,5039.0,Dallas County,960.0,6222.0,25864.0,7668.0,6977.0,2962.0,1416.0,3515.0,2307.0,843.0,119.0,17.0,40.0
198095,County,2020/03/03,5.0,AR,5039.0,Dallas County,847.0,6335.0,27712.0,5820.0,8854.0,3842.0,2410.0,2659.0,2617.0,1026.0,471.0,13.0,0.0
202833,County,2020/03/04,5.0,AR,5039.0,Dallas County,934.0,6248.0,28385.0,6973.0,7362.0,3040.0,1759.0,4041.0,3233.0,1586.0,391.0,0.0,0.0
206085,County,2020/03/05,5.0,AR,5039.0,Dallas County,914.0,6268.0,24515.0,5204.0,6097.0,2912.0,2110.0,3619.0,3049.0,1281.0,222.0,21.0,0.0
207615,County,2020/03/06,5.0,AR,5039.0,Dallas County,744.0,6438.0,27658.0,6136.0,7698.0,2273.0,1689.0,4852.0,3460.0,1295.0,213.0,26.0,16.0
210866,County,2020/03/07,5.0,AR,5039.0,Dallas County,960.0,6222.0,23451.0,4647.0,7288.0,3128.0,1303.0,3881.0,1578.0,1272.0,250.0,47.0,57.0
215641,County,2020/03/08,5.0,AR,5039.0,Dallas County,1092.0,6090.0,21469.0,4058.0,6692.0,2649.0,2556.0,2157.0,2371.0,754.0,232.0,0.0,0.0
218840,County,2020/03/09,5.0,AR,5039.0,Dallas County,805.0,6377.0,23507.0,4047.0,6965.0,3196.0,1340.0,4240.0,2802.0,741.0,133.0,12.0,31.0
220467,County,2020/03/10,5.0,AR,5039.0,Dallas County,988.0,6194.0,25306.0,5919.0,6567.0,2667.0,2672.0,3838.0,2360.0,1119.0,157.0,7.0,0.0
225262,County,2020/03/11,5.0,AR,5039.0,Dallas County,883.0,6299.0,32134.0,6755.0,9830.0,4397.0,1741.0,4626.0,2737.0,1540.0,379.0,0.0,129.0
226841,County,2020/03/12,5.0,AR,5039.0,Dallas County,783.0,6399.0,26835.0,4894.0,8603.0,2800.0,1761.0,4053.0,3876.0,354.0,350.0,65.0,79.0
231623,County,2020/03/13,5.0,AR,5039.0,Dallas County,975.0,6207.0,40077.0,9261.0,14643.0,6355.0,2452.0,3880.0,1979.0,1131.0,335.0,41.0,0.0
234678,County,2020/03/14,5.0,AR,5039.0,Dallas County,1136.0,6046.0,24911.0,4567.0,7484.0,1836.0,1889.0,5082.0,3145.0,522.0,386.0,0.0,0.0
236437,County,2020/03/15,5.0,AR,5039.0,Dallas County,1226.0,5956.0,20938.0,5040.0,5653.0,3190.0,1642.0,3116.0,1625.0,413.0,244.0,15.0,0.0
241197,County,2020/03/16,5.0,AR,5039.0,Dallas County,1103.0,6079.0,29950.0,7033.0,8302.0,3252.0,2878.0,4915.0,2107.0,964.0,475.0,7.0,17.0
242813,County,2020/03/17,5.0,AR,5039.0,Dallas County,1073.0,6109.0,23012.0,4267.0,6336.0,2326.0,2457.0,3269.0,2516.0,1604.0,206.0,0.0,31.0
246018,County,2020/03/18,5.0,AR,5039.0,Dallas County,1052.0,6130.0,27417.0,4817.0,8517.0,4459.0,1720.0,4033.0,2314.0,1199.0,313.0,13.0,32.0
250800,County,2020/03/19,5.0,AR,5039.0,Dallas County,1153.0,6029.0,22652.0,4070.0,7389.0,3272.0,1497.0,2920.0,2189.0,1036.0,272.0,7.0,0.0
253974,County,2020/03/20,5.0,AR,5039.0,Dallas County,1180.0,6002.0,25098.0,5528.0,6346.0,2648.0,2270.0,4023.0,2827.0,1221.0,212.0,7.0,16.0
257117,County,2020/03/21,5.0,AR,5039.0,Dallas County,1396.0,5786.0,19495.0,4035.0,4929.0,3107.0,1675.0,2890.0,1750.0,758.0,332.0,0.0,19.0
260354,County,2020/03/22,5.0,AR,5039.0,Dallas County,1458.0,5724.0,16817.0,3555.0,6158.0,2005.0,1891.0,1958.0,416.0,476.0,328.0,9.0,21.0
261992,County,2020/03/23,5.0,AR,5039.0,Dallas County,1214.0,5968.0,21095.0,4923.0,6889.0,1767.0,1948.0,3534.0,1179.0,575.0,248.0,0.0,32.0
266745,County,2020/03/24,5.0,AR,5039.0,Dallas County,971.0,6211.0,18300.0,3200.0,5711.0,1902.0,1727.0,2769.0,1742.0,892.0,345.0,12.0,0.0
268379,County,2020/03/25,5.0,AR,5039.0,Dallas County,1133.0,6049.0,20472.0,4297.0,4325.0,1687.0,2404.0,4903.0,1859.0,517.0,473.0,7.0,0.0
273117,County,2020/03/26,5.0,AR,5039.0,Dallas County,1120.0,6062.0,22223.0,4579.0,7020.0,2772.0,2106.0,2579.0,1644.0,1203.0,296.0,7.0,17.0
274757,County,2020/03/27,5.0,AR,5039.0,Dallas County,1096.0,6086.0,22271.0,3820.0,6544.0,3038.0,3066.0,3044.0,1455.0,931.0,361.0,12.0,0.0
279519,County,2020/03/28,5.0,AR,5039.0,Dallas County,1336.0,5846.0,17732.0,3140.0,5957.0,2673.0,1703.0,2321.0,1427.0,290.0,214.0,7.0,0.0
281154,County,2020/03/29,5.0,AR,5039.0,Dallas County,1391.0,5791.0,18194.0,3458.0,6208.0,2612.0,1423.0,2001.0,1627.0,262.0,603.0,0.0,0.0
285897,County,2020/03/30,5.0,AR,5039.0,Dallas County,1242.0,5940.0,19857.0,3861.0,5530.0,1857.0,1911.0,3145.0,2390.0,917.0,208.0,6.0,32.0
287494,County,2020/03/31,5.0,AR,5039.0,Dallas County,1305.0,5877.0,20416.0,6341.0,5066.0,2209.0,2273.0,2200.0,1295.0,518.0,474.0,7.0,33.0
292301,County,2020/04/01,5.0,AR,5039.0,Dallas County,1198.0,5984.0,21931.0,4457.0,6105.0,3110.0,2523.0,3194.0,1490.0,817.0,235.0,0.0,0.0
293930,County,2020/04/02,5.0,AR,5039.0,Dallas County,1311.0,5871.0,21781.0,4242.0,5716.0,3149.0,2463.0,3446.0,1726.0,933.0,106.0,0.0,0.0
297124,County,2020/04/03,5.0,AR,5039.0,Dallas County,1124.0,6058.0,20823.0,4961.0,6684.0,1886.0,1819.0,2686.0,1835.0,805.0,132.0,0.0,15.0
301869,County,2020/04/04,5.0,AR,5039.0,Dallas County,1469.0,5713.0,17574.0,2656.0,6543.0,2382.0,1838.0,2036.0,1298.0,763.0,42.0,16.0,0.0
303497,County,2020/04/05,5.0,AR,5039.0,Dallas County,1327.0,5855.0,16518.0,2262.0,6553.0,2521.0,1873.0,1915.0,872.0,319.0,196.0,7.0,0.0
306707,County,2020/04/06,5.0,AR,5039.0,Dallas County,1182.0,6000.0,23078.0,4207.0,5920.0,2424.0,1940.0,4474.0,3188.0,767.0,151.0,7.0,0.0
309900,County,2020/04/07,5.0,AR,5039.0,Dallas County,1308.0,5874.0,17774.0,2421.0,5096.0,2764.0,1636.0,2701.0,2497.0,472.0,155.0,14.0,18.0
313095,County,2020/04/08,5.0,AR,5039.0,Dallas County,1357.0,5825.0,22959.0,6263.0,6026.0,3025.0,2001.0,3378.0,1884.0,246.0,121.0,15.0,0.0
316262,County,2020/04/09,5.0,AR,5039.0,Dallas County,1102.0,6080.0,19719.0,4404.0,4844.0,2637.0,1974.0,3435.0,1717.0,478.0,202.0,13.0,15.0
319489,County,2020/04/10,5.0,AR,5039.0,Dallas County,1166.0,6016.0,23919.0,6862.0,6314.0,2799.0,1375.0,3397.0,2377.0,652.0,143.0,0.0,0.0
324284,County,2020/04/11,5.0,AR,5039.0,Dallas County,1269.0,5913.0,19740.0,5053.0,6025.0,1931.0,1524.0,3187.0,1363.0,513.0,144.0,0.0,0.0
325868,County,2020/04/12,5.0,AR,5039.0,Dallas County,1649.0,5533.0,15940.0,4886.0,5526.0,1222.0,1336.0,2090.0,571.0,87.0,214.0,8.0,0.0
329085,County,2020/04/13,5.0,AR,5039.0,Dallas County,1099.0,6083.0,25359.0,7765.0,4941.0,3419.0,2503.0,3597.0,2784.0,299.0,37.0,14.0,0.0
333757,County,2020/04/14,5.0,AR,5039.0,Dallas County,1169.0,6013.0,30492.0,8962.0,7608.0,2683.0,3067.0,4271.0,2228.0,1019.0,585.0,31.0,38.0
335434,County,2020/04/15,5.0,AR,5039.0,Dallas County,1331.0,5851.0,42879.0,13890.0,15118.0,4739.0,3048.0,4629.0,984.0,450.0,0.0,21.0,0.0
338636,County,2020/04/16,5.0,AR,5039.0,Dallas County,1334.0,5848.0,36331.0,14164.0,8598.0,5659.0,2703.0,2369.0,2265.0,460.0,113.0,0.0,0.0
341888,County,2020/04/17,5.0,AR,5039.0,Dallas County,1085.0,6097.0,28153.0,8154.0,6482.0,4267.0,2352.0,5160.0,1329.0,174.0,171.0,64.0,0.0
346563,County,2020/04/18,5.0,AR,5039.0,Dallas County,1451.0,5731.0,28187.0,9301.0,9112.0,1772.0,2508.0,4041.0,828.0,252.0,373.0,0.0,0.0
349744,County,2020/04/19,5.0,AR,5039.0,Dallas County,1363.0,5819.0,10212.0,2558.0,2779.0,1425.0,917.0,928.0,1109.0,203.0,200.0,93.0,0.0
352994,County,2020/04/20,5.0,AR,5039.0,Dallas County,1104.0,6078.0,30099.0,5780.0,7857.0,2771.0,3055.0,6960.0,3205.0,451.0,0.0,20.0,0.0
356180,County,2020/04/21,5.0,AR,5039.0,Dallas County,1252.0,5930.0,25778.0,4607.0,6326.0,2839.0,3130.0,4579.0,3031.0,1001.0,265.0,0.0,0.0
357810,County,2020/04/22,5.0,AR,5039.0,Dallas County,1038.0,6144.0,26574.0,5497.0,6624.0,3156.0,1884.0,5262.0,3145.0,935.0,71.0,0.0,0.0
362541,County,2020/04/23,5.0,AR,5039.0,Dallas County,1002.0,6180.0,23766.0,5373.0,6998.0,2559.0,1630.0,4524.0,1746.0,902.0,34.0,0.0,0.0
364168,County,2020/04/24,5.0,AR,5039.0,Dallas County,1040.0,6142.0,22948.0,6696.0,5591.0,2748.0,1660.0,2879.0,2084.0,1089.0,201.0,0.0,0.0
367335,County,2020/04/25,5.0,AR,5039.0,Dallas County,1272.0,5910.0,19495.0,4373.0,6113.0,2156.0,1479.0,2621.0,2059.0,573.0,121.0,0.0,0.0
372104,County,2020/04/26,5.0,AR,5039.0,Dallas County,1273.0,5909.0,19343.0,4301.0,5164.0,2973.0,1912.0,3098.0,1389.0,339.0,167.0,0.0,0.0
375383,County,2020/04/27,5.0,AR,5039.0,Dallas County,1214.0,5968.0,22651.0,4785.0,6542.0,2859.0,2140.0,2709.0,2914.0,666.0,36.0,0.0,0.0
378507,County,2020/04/28,5.0,AR,5039.0,Dallas County,1091.0,6091.0,21616.0,5017.0,6045.0,2642.0,1854.0,3128.0,1720.0,1094.0,101.0,0.0,15.0
381758,County,2020/04/29,5.0,AR,5039.0,Dallas County,1252.0,5930.0,22718.0,6443.0,5229.0,1844.0,1897.0,3325.0,2650.0,1131.0,199.0,0.0,0.0
383329,County,2020/04/30,5.0,AR,5039.0,Dallas County,1179.0,6003.0,19352.0,4565.0,5509.0,1554.0,1526.0,3404.0,1936.0,724.0,119.0,15.0,0.0
386554,County,2020/05/01,5.0,AR,5039.0,Dallas County,1050.0,6132.0,25775.0,8569.0,6611.0,2646.0,1491.0,2790.0,2119.0,1507.0,35.0,7.0,0.0
389737,County,2020/05/02,5.0,AR,5039.0,Dallas County,1107.0,6075.0,23011.0,7790.0,5976.0,3342.0,1794.0,2082.0,1177.0,827.0,0.0,23.0,0.0
394511,County,2020/05/03,5.0,AR,5039.0,Dallas County,1265.0,5917.0,24017.0,6742.0,6709.0,4648.0,1879.0,2703.0,827.0,378.0,93.0,17.0,21.0
397704,County,2020/05/04,5.0,AR,5039.0,Dallas County,1197.0,5985.0,31007.0,9296.0,7820.0,2451.0,2680.0,5089.0,2958.0,611.0,86.0,16.0,0.0
400879,County,2020/05/05,5.0,AR,5039.0,Dallas County,1131.0,6051.0,27224.0,5755.0,7194.0,3294.0,2305.0,5149.0,1970.0,1351.0,185.0,21.0,0.0
404085,County,2020/05/06,5.0,AR,5039.0,Dallas County,1028.0,6154.0,24957.0,6907.0,6740.0,1849.0,2038.0,3784.0,2550.0,978.0,111.0,0.0,0.0
405713,County,2020/05/07,5.0,AR,5039.0,Dallas County,1037.0,6145.0,22485.0,5132.0,6786.0,3514.0,1870.0,2288.0,1585.0,1242.0,34.0,19.0,15.0
410539,County,2020/05/08,5.0,AR,5039.0,Dallas County,1140.0,6042.0,26310.0,7897.0,7291.0,3473.0,2336.0,2523.0,1747.0,989.0,37.0,0.0,17.0
413591,County,2020/05/09,5.0,AR,5039.0,Dallas County,1283.0,5899.0,22402.0,5556.0,6943.0,2226.0,1603.0,3189.0,2126.0,676.0,83.0,0.0,0.0
416820,County,2020/05/10,5.0,AR,5039.0,Dallas County,1323.0,5859.0,22315.0,5960.0,6060.0,2223.0,2287.0,3786.0,1278.0,681.0,0.0,18.0,22.0
420098,County,2020/05/11,5.0,AR,5039.0,Dallas County,1124.0,6058.0,21787.0,4461.0,6199.0,3267.0,1285.0,2566.0,2394.0,1204.0,377.0,10.0,24.0
421678,County,2020/05/12,5.0,AR,5039.0,Dallas County,1069.0,6113.0,24416.0,5491.0,8647.0,2184.0,1639.0,3082.0,2041.0,1088.0,230.0,14.0,0.0
426351,County,2020/05/13,5.0,AR,5039.0,Dallas County,1058.0,6124.0,25946.0,6535.0,7118.0,3777.0,1706.0,3179.0,2065.0,1049.0,491.0,14.0,12.0
428078,County,2020/05/14,5.0,AR,5039.0,Dallas County,1071.0,6111.0,22765.0,6010.0,6896.0,2072.0,1483.0,2522.0,2132.0,1333.0,303.0,14.0,0.0
432818,County,2020/05/15,5.0,AR,5039.0,Dallas County,1115.0,6067.0,24872.0,6151.0,6276.0,2738.0,1643.0,4398.0,2046.0,1299.0,307.0,14.0,0.0
434446,County,2020/05/16,5.0,AR,5039.0,Dallas County,1343.0,5839.0,18548.0,4298.0,6346.0,1725.0,1110.0,2177.0,1612.0,983.0,242.0,28.0,27.0
437648,County,2020/05/17,5.0,AR,5039.0,Dallas County,1373.0,5809.0,22990.0,7153.0,7246.0,1745.0,1796.0,3410.0,932.0,568.0,140.0,0.0,0.0
440894,County,2020/05/18,5.0,AR,5039.0,Dallas County,994.0,6188.0,29462.0,8309.0,6544.0,4816.0,1652.0,4704.0,2000.0,1371.0,56.0,10.0,0.0
444048,County,2020/05/19,5.0,AR,5039.0,Dallas County,915.0,6267.0,27003.0,6700.0,6888.0,2667.0,2254.0,3474.0,3203.0,1627.0,160.0,30.0,0.0
447215,County,2020/05/20,5.0,AR,5039.0,Dallas County,873.0,6309.0,27774.0,6892.0,8022.0,3644.0,888.0,4746.0,1792.0,1638.0,108.0,20.0,24.0
451649,County,2020/05/21,5.0,AR,5039.0,Dallas County,755.0,6427.0,26781.0,7793.0,8099.0,2728.0,1228.0,3220.0,2018.0,1456.0,239.0,0.0,0.0
453622,County,2020/05/22,5.0,AR,5039.0,Dallas County,818.0,6364.0,31082.0,6994.0,7541.0,4727.0,2519.0,4948.0,2944.0,1154.0,237.0,18.0,0.0
456818,County,2020/05/23,5.0,AR,5039.0,Dallas County,943.0,6239.0,21026.0,4830.0,7244.0,2229.0,956.0,2420.0,2083.0,846.0,365.0,29.0,24.0
461562,County,2020/05/24,5.0,AR,5039.0,Dallas County,1305.0,5877.0,18094.0,4554.0,4776.0,1939.0,1313.0,2792.0,1907.0,756.0,57.0,0.0,0.0
463188,County,2020/05/25,5.0,AR,5039.0,Dallas County,1308.0,5874.0,14523.0,2278.0,4588.0,2361.0,1395.0,2164.0,1253.0,448.0,0.0,14.0,22.0
466342,County,2020/05/26,5.0,AR,5039.0,Dallas County,1018.0,6164.0,20872.0,4109.0,6646.0,2439.0,1137.0,2829.0,2183.0,1389.0,128.0,12.0,0.0
469598,County,2020/05/27,5.0,AR,5039.0,Dallas County,1105.0,6077.0,22073.0,5397.0,5930.0,2760.0,1334.0,2887.0,2292.0,1334.0,117.0,22.0,0.0
472795,County,2020/05/28,5.0,AR,5039.0,Dallas County,1084.0,6098.0,20277.0,3566.0,5047.0,2398.0,1990.0,2923.0,3132.0,1057.0,152.0,12.0,0.0
477500,County,2020/05/29,5.0,AR,5039.0,Dallas County,1123.0,6059.0,22849.0,6276.0,5720.0,2575.0,1192.0,3522.0,2138.0,1271.0,144.0,0.0,11.0
480700,County,2020/05/30,5.0,AR,5039.0,Dallas County,1265.0,5917.0,22491.0,6088.0,7593.0,2186.0,1687.0,1779.0,2382.0,684.0,92.0,0.0,0.0
482302,County,2020/05/31,5.0,AR,5039.0,Dallas County,1287.0,5895.0,17089.0,4737.0,5183.0,1935.0,1383.0,1751.0,1272.0,551.0,271.0,6.0,0.0
487195,County,2020/06/01,5.0,AR,5039.0,Dallas County,984.0,6198.0,24389.0,6106.0,7974.0,1900.0,1603.0,3217.0,2272.0,952.0,341.0,24.0,0.0
490302,County,2020/06/02,5.0,AR,5039.0,Dallas County,1133.0,6049.0,22961.0,5614.0,5840.0,2354.0,1341.0,3285.0,2827.0,1484.0,212.0,4.0,0.0
493524,County,2020/06/03,5.0,AR,5039.0,Dallas County,1027.0,6155.0,23863.0,5373.0,7105.0,2726.0,1279.0,3342.0,2447.0,1278.0,292.0,21.0,0.0
496705,County,2020/06/04,5.0,AR,5039.0,Dallas County,811.0,6371.0,23912.0,6316.0,5991.0,2958.0,1304.0,3761.0,2412.0,882.0,277.0,11.0,0.0
498346,County,2020/06/05,5.0,AR,5039.0,Dallas County,1013.0,6169.0,24360.0,4790.0,6435.0,3025.0,1518.0,3990.0,2732.0,1507.0,339.0,24.0,0.0
503072,County,2020/06/06,5.0,AR,5039.0,Dallas County,1234.0,5948.0,19778.0,4928.0,5140.0,3625.0,1074.0,2289.0,1710.0,751.0,216.0,17.0,28.0
504734,County,2020/06/07,5.0,AR,5039.0,Dallas County,1415.0,5767.0,18853.0,3806.0,6078.0,2811.0,1519.0,2380.0,1576.0,400.0,276.0,7.0,0.0
507907,County,2020/06/08,5.0,AR,5039.0,Dallas County,1175.0,6007.0,21107.0,3690.0,5136.0,3130.0,1104.0,4077.0,2785.0,866.0,276.0,9.0,34.0
511109,County,2020/06/09,5.0,AR,5039.0,Dallas County,1136.0,6046.0,19392.0,4984.0,5641.0,1297.0,1023.0,3605.0,1831.0,788.0,218.0,5.0,0.0
515891,County,2020/06/10,5.0,AR,5039.0,Dallas County,1074.0,6108.0,20211.0,4202.0,6679.0,1528.0,1616.0,3095.0,2167.0,725.0,190.0,9.0,0.0
519049,County,2020/06/11,5.0,AR,5039.0,Dallas County,1129.0,6053.0,22386.0,4600.0,6522.0,3312.0,1657.0,2936.0,2120.0,943.0,284.0,0.0,12.0
522270,County,2020/06/12,5.0,AR,5039.0,Dallas County,1056.0,6126.0,22704.0,5507.0,5611.0,2328.0,1533.0,4184.0,2320.0,1007.0,183.0,19.0,12.0
525458,County,2020/06/13,5.0,AR,5039.0,Dallas County,1204.0,5978.0,19242.0,4240.0,4947.0,2052.0,1901.0,3141.0,1725.0,935.0,288.0,0.0,13.0
528661,County,2020/06/14,5.0,AR,5039.0,Dallas County,1429.0,5753.0,16963.0,3458.0,5273.0,1594.0,1148.0,3183.0,1390.0,605.0,298.0,0.0,14.0
531852,County,2020/06/15,5.0,AR,5039.0,Dallas County,986.0,6196.0,24736.0,6631.0,7253.0,2617.0,1591.0,3409.0,1877.0,948.0,378.0,12.0,20.0
535022,County,2020/06/16,5.0,AR,5039.0,Dallas County,1118.0,6064.0,22400.0,4813.0,5956.0,2234.0,2069.0,3551.0,2505.0,1069.0,175.0,28.0,0.0
538190,County,2020/06/17,5.0,AR,5039.0,Dallas County,1055.0,6127.0,19905.0,4533.0,4857.0,1754.0,1462.0,2775.0,2602.0,1665.0,211.0,35.0,11.0
541386,County,2020/06/18,5.0,AR,5039.0,Dallas County,942.0,6240.0,19144.0,3148.0,6569.0,1773.0,1327.0,3254.0,2058.0,780.0,158.0,46.0,31.0
544587,County,2020/06/19,5.0,AR,5039.0,Dallas County,1081.0,6101.0,19521.0,4436.0,4797.0,2226.0,1420.0,2725.0,2495.0,1217.0,200.0,5.0,0.0
547822,County,2020/06/20,5.0,AR,5039.0,Dallas County,1176.0,6006.0,19602.0,4287.0,5445.0,1378.0,1773.0,3527.0,1840.0,1121.0,221.0,10.0,0.0
549421,County,2020/06/21,5.0,AR,5039.0,Dallas County,1328.0,5854.0,13300.0,2483.0,4910.0,1039.0,1069.0,1579.0,1510.0,592.0,97.0,6.0,15.0
554202,County,2020/06/22,5.0,AR,5039.0,Dallas County,1150.0,6032.0,17607.0,3665.0,4943.0,2091.0,1255.0,2384.0,2280.0,744.0,220.0,14.0,11.0
555830,County,2020/06/23,5.0,AR,5039.0,Dallas County,1112.0,6070.0,17348.0,3635.0,4333.0,1506.0,1185.0,3634.0,2262.0,605.0,174.0,14.0,0.0
560598,County,2020/06/24,5.0,AR,5039.0,Dallas County,1039.0,6143.0,19188.0,4283.0,6663.0,1218.0,851.0,2834.0,2385.0,694.0,244.0,5.0,11.0
563725,County,2020/06/25,5.0,AR,5039.0,Dallas County,1142.0,6040.0,22534.0,4868.0,6186.0,2966.0,1122.0,3807.0,2391.0,944.0,245.0,5.0,0.0
565432,County,2020/06/26,5.0,AR,5039.0,Dallas County,1119.0,6063.0,21305.0,5359.0,5393.0,2211.0,1912.0,2593.0,2534.0,1159.0,124.0,9.0,11.0
568601,County,2020/06/27,5.0,AR,5039.0,Dallas County,1164.0,6018.0,20208.0,5866.0,4467.0,1446.0,2073.0,2825.0,1930.0,1235.0,348.0,5.0,13.0
573365,County,2020/06/28,5.0,AR,5039.0,Dallas County,1358.0,5824.0,15471.0,2085.0,4374.0,1979.0,2156.0,2502.0,1450.0,729.0,196.0,0.0,0.0
574971,County,2020/06/29,5.0,AR,5039.0,Dallas County,1065.0,6117.0,19459.0,3838.0,4815.0,2716.0,1597.0,2907.0,2054.0,1160.0,327.0,20.0,25.0
578180,County,2020/06/30,5.0,AR,5039.0,Dallas County,1040.0,6142.0,18416.0,3398.0,4987.0,1927.0,1190.0,3452.0,2341.0,988.0,108.0,25.0,0.0
581386,County,2020/07/01,5.0,AR,5039.0,Dallas County,1056.0,6126.0,20924.0,4018.0,6131.0,2818.0,1150.0,3417.0,2057.0,996.0,300.0,25.0,12.0
584580,County,2020/07/02,5.0,AR,5039.0,Dallas County,1351.0,5831.0,23918.0,5167.0,6566.0,3148.0,1191.0,4041.0,2538.0,1002.0,260.0,5.0,0.0
587754,County,2020/07/03,5.0,AR,5039.0,Dallas County,1356.0,5826.0,21185.0,5329.0,5363.0,2199.0,1901.0,2578.0,2520.0,1152.0,123.0,9.0,11.0
590967,County,2020/07/04,5.0,AR,5039.0,Dallas County,1417.0,5765.0,18125.0,4559.0,4588.0,1881.0,1627.0,2206.0,2156.0,986.0,105.0,8.0,9.0
594154,County,2020/07/05,5.0,AR,5039.0,Dallas County,1349.0,5833.0,14839.0,3077.0,4372.0,1727.0,1650.0,1848.0,1306.0,562.0,208.0,26.0,63.0
598878,County,2020/07/06,5.0,AR,5039.0,Dallas County,1295.0,5887.0,21766.0,4982.0,5936.0,2936.0,1175.0,3257.0,2573.0,743.0,122.0,0.0,42.0
602498,County,2020/07/07,5.0,AR,5039.0,Dallas County,1090.0,6092.0,18605.0,3777.0,5116.0,2640.0,1404.0,2293.0,2357.0,852.0,123.0,9.0,34.0
605214,County,2020/07/08,5.0,AR,5039.0,Dallas County,1094.0,6088.0,21681.0,5273.0,6565.0,2835.0,1847.0,2523.0,1707.0,646.0,265.0,20.0,0.0
606941,County,2020/07/09,5.0,AR,5039.0,Dallas County,1101.0,6081.0,21300.0,3536.0,6740.0,2444.0,1863.0,3007.0,2425.0,876.0,381.0,5.0,23.0
611723,County,2020/07/10,5.0,AR,5039.0,Dallas County,1050.0,6132.0,22647.0,4577.0,5149.0,3632.0,1914.0,3057.0,2317.0,1614.0,348.0,5.0,34.0
613301,County,2020/07/11,5.0,AR,5039.0,Dallas County,1291.0,5891.0,18002.0,2384.0,4591.0,2826.0,1272.0,3451.0,1760.0,1408.0,264.0,31.0,15.0
618074,County,2020/07/12,5.0,AR,5039.0,Dallas County,1433.0,5749.0,15340.0,2527.0,4055.0,2542.0,1635.0,2649.0,1029.0,579.0,285.0,7.0,32.0
619712,County,2020/07/13,5.0,AR,5039.0,Dallas County,1186.0,5996.0,21891.0,5067.0,5933.0,3233.0,930.0,3406.0,1895.0,866.0,507.0,30.0,24.0
622913,County,2020/07/14,5.0,AR,5039.0,Dallas County,1207.0,5975.0,23739.0,5710.0,5494.0,5231.0,1196.0,3028.0,2051.0,883.0,136.0,10.0,0.0
627600,County,2020/07/15,5.0,AR,5039.0,Dallas County,1192.0,5990.0,21090.0,5238.0,5583.0,2113.0,2026.0,2752.0,1854.0,1203.0,296.0,25.0,0.0
630915,County,2020/07/16,5.0,AR,5039.0,Dallas County,1242.0,5940.0,24265.0,6310.0,5859.0,4132.0,1037.0,3938.0,1695.0,1148.0,141.0,5.0,0.0
632476,County,2020/07/17,5.0,AR,5039.0,Dallas County,1189.0,5993.0,25234.0,5518.0,5908.0,3292.0,2223.0,4288.0,2563.0,1230.0,173.0,0.0,39.0
637263,County,2020/07/18,5.0,AR,5039.0,Dallas County,1384.0,5798.0,17284.0,3252.0,6094.0,1774.0,1123.0,1777.0,1955.0,1010.0,268.0,14.0,17.0
640416,County,2020/07/19,5.0,AR,5039.0,Dallas County,1305.0,5877.0,14619.0,2687.0,4134.0,1486.0,1647.0,2457.0,1282.0,651.0,257.0,18.0,0.0
643624,County,2020/07/20,5.0,AR,5039.0,Dallas County,1119.0,6063.0,21038.0,4901.0,5805.0,3576.0,1356.0,2268.0,2286.0,697.0,79.0,10.0,60.0
645252,County,2020/07/21,5.0,AR,5039.0,Dallas County,1242.0,5940.0,19226.0,4385.0,5682.0,1957.0,1582.0,2367.0,1973.0,1061.0,209.0,10.0,0.0
649982,County,2020/07/22,5.0,AR,5039.0,Dallas County,1083.0,6099.0,20999.0,4859.0,5297.0,3022.0,1296.0,2734.0,2666.0,860.0,235.0,9.0,21.0
653131,County,2020/07/23,5.0,AR,5039.0,Dallas County,1104.0,6078.0,21016.0,4944.0,6099.0,3192.0,1323.0,2426.0,1988.0,858.0,149.0,14.0,23.0
656401,County,2020/07/24,5.0,AR,5039.0,Dallas County,1010.0,6172.0,22030.0,4265.0,6798.0,2168.0,1158.0,2878.0,3324.0,1045.0,304.0,26.0,64.0
659666,County,2020/07/25,5.0,AR,5039.0,Dallas County,1187.0,5995.0,19912.0,4480.0,7023.0,1475.0,1464.0,2608.0,2100.0,600.0,118.0,17.0,27.0
662744,County,2020/07/26,5.0,AR,5039.0,Dallas County,1217.0,5965.0,17545.0,2153.0,5933.0,2347.0,1365.0,3124.0,1653.0,756.0,171.0,43.0,0.0
664486,County,2020/07/27,5.0,AR,5039.0,Dallas County,1153.0,6029.0,20318.0,3427.0,6810.0,1301.0,1699.0,3259.0,2555.0,1083.0,168.0,16.0,0.0
667599,County,2020/07/28,5.0,AR,5039.0,Dallas County,1127.0,6055.0,22534.0,4265.0,4568.0,3483.0,1657.0,4309.0,3362.0,793.0,73.0,13.0,11.0
670806,County,2020/07/29,5.0,AR,5039.0,Dallas County,1170.0,6012.0,23017.0,5422.0,6572.0,2217.0,1814.0,3281.0,2636.0,746.0,311.0,6.0,12.0
675566,County,2020/07/30,5.0,AR,5039.0,Dallas County,1096.0,6086.0,20931.0,4340.0,6238.0,1508.0,1466.0,3221.0,2766.0,1097.0,282.0,13.0,0.0
677216,County,2020/07/31,5.0,AR,5039.0,Dallas County,1141.0,6041.0,23050.0,4391.0,6629.0,1590.0,1781.0,4324.0,2970.0,1119.0,236.0,10.0,0.0
680373,County,2020/08/01,5.0,AR,5039.0,Dallas County,1210.0,5972.0,22812.0,6410.0,5767.0,1920.0,1279.0,3385.0,2885.0,837.0,317.0,12.0,0.0
685154,County,2020/08/02,5.0,AR,5039.0,Dallas County,1201.0,5981.0,17004.0,3733.0,4747.0,2126.0,1640.0,1731.0,1920.0,666.0,418.0,23.0,0.0
688358,County,2020/08/03,5.0,AR,5039.0,Dallas County,1155.0,6027.0,24383.0,4398.0,6635.0,3847.0,1445.0,3589.0,3173.0,948.0,321.0,27.0,0.0
689987,County,2020/08/04,5.0,AR,5039.0,Dallas County,1008.0,6174.0,26666.0,4598.0,8280.0,3566.0,1193.0,4122.0,3554.0,1167.0,175.0,0.0,11.0
693148,County,2020/08/05,5.0,AR,5039.0,Dallas County,837.0,6345.0,22741.0,4087.0,6927.0,2907.0,1869.0,3103.0,2414.0,1057.0,340.0,16.0,21.0
696354,County,2020/08/06,5.0,AR,5039.0,Dallas County,970.0,6212.0,22905.0,4479.0,6150.0,1964.0,1600.0,4477.0,2956.0,1071.0,183.0,4.0,21.0
701134,County,2020/08/07,5.0,AR,5039.0,Dallas County,977.0,6205.0,21591.0,4015.0,6487.0,2351.0,1339.0,2952.0,3085.0,1052.0,306.0,4.0,0.0
704328,County,2020/08/08,5.0,AR,5039.0,Dallas County,1129.0,6053.0,20375.0,3822.0,5729.0,2424.0,1663.0,2894.0,2264.0,1380.0,199.0,0.0,0.0
705956,County,2020/08/09,5.0,AR,5039.0,Dallas County,1294.0,5888.0,16758.0,3343.0,3874.0,1627.0,1855.0,2044.0,2462.0,1390.0,163.0,0.0,0.0
709126,County,2020/08/10,5.0,AR,5039.0,Dallas County,1116.0,6066.0,18178.0,2525.0,4800.0,1771.0,1555.0,3257.0,3114.0,771.0,380.0,5.0,0.0
713956,County,2020/08/11,5.0,AR,5039.0,Dallas County,1146.0,6036.0,18203.0,3089.0,4483.0,2043.0,1051.0,4245.0,2606.0,443.0,191.0,15.0,37.0
717006,County,2020/08/12,5.0,AR,5039.0,Dallas County,1199.0,5983.0,16187.0,2531.0,3638.0,1980.0,1759.0,2345.0,2131.0,1179.0,555.0,24.0,45.0
718732,County,2020/08/13,5.0,AR,5039.0,Dallas County,1072.0,6110.0,19449.0,3875.0,4704.0,2241.0,1818.0,3143.0,2040.0,1325.0,241.0,40.0,22.0
723475,County,2020/08/14,5.0,AR,5039.0,Dallas County,1009.0,6173.0,20039.0,3143.0,5397.0,1454.0,1628.0,3398.0,3090.0,1462.0,432.0,13.0,22.0
725106,County,2020/08/15,5.0,AR,5039.0,Dallas County,1085.0,6097.0,21239.0,4321.0,5364.0,2948.0,1416.0,3009.0,2694.0,1119.0,358.0,10.0,0.0
729879,County,2020/08/16,5.0,AR,5039.0,Dallas County,1298.0,5884.0,15716.0,3602.0,3859.0,1274.0,1668.0,1282.0,2741.0,791.0,422.0,18.0,59.0
731508,County,2020/08/17,5.0,AR,5039.0,Dallas County,1193.0,5989.0,22275.0,3737.0,6456.0,2588.0,2076.0,3370.0,2707.0,1001.0,291.0,22.0,27.0
734673,County,2020/08/18,5.0,AR,5039.0,Dallas County,1064.0,6118.0,19025.0,2816.0,4995.0,2113.0,1606.0,2688.0,3010.0,1375.0,339.0,31.0,52.0
737879,County,2020/08/19,5.0,AR,5039.0,Dallas County,999.0,6183.0,22469.0,4197.0,6442.0,2924.0,1719.0,3129.0,2276.0,1427.0,322.0,6.0,27.0
742661,County,2020/08/20,5.0,AR,5039.0,Dallas County,1022.0,6160.0,22300.0,3746.0,6471.0,2637.0,2035.0,3037.0,2590.0,1444.0,285.0,16.0,39.0
745867,County,2020/08/21,5.0,AR,5039.0,Dallas County,919.0,6263.0,24786.0,5360.0,5773.0,2413.0,2069.0,4256.0,3068.0,1603.0,169.0,36.0,39.0
749022,County,2020/08/22,5.0,AR,5039.0,Dallas County,1097.0,6085.0,19728.0,4310.0,4865.0,2907.0,1376.0,3181.0,1594.0,1258.0,195.0,12.0,30.0
752240,County,2020/08/23,5.0,AR,5039.0,Dallas County,1135.0,6047.0,18264.0,3940.0,5142.0,2662.0,1464.0,1854.0,2230.0,627.0,206.0,34.0,105.0
753862,County,2020/08/24,5.0,AR,5039.0,Dallas County,1139.0,6043.0,20343.0,4394.0,3433.0,3089.0,1461.0,3045.0,3432.0,1141.0,281.0,35.0,32.0
758622,County,2020/08/25,5.0,AR,5039.0,Dallas County,1142.0,6040.0,21009.0,4150.0,5536.0,2373.0,1536.0,3191.0,2718.0,1046.0,344.0,28.0,87.0
760255,County,2020/08/26,5.0,AR,5039.0,Dallas County,1116.0,6066.0,20816.0,3686.0,6088.0,2505.0,994.0,4008.0,2496.0,775.0,201.0,26.0,37.0
764978,County,2020/08/27,5.0,AR,5039.0,Dallas County,1236.0,5946.0,19168.0,4585.0,5194.0,1710.0,1257.0,3128.0,2282.0,696.0,274.0,21.0,21.0
766618,County,2020/08/28,5.0,AR,5039.0,Dallas County,1231.0,5951.0,21333.0,5455.0,5759.0,1591.0,1077.0,3272.0,2868.0,1002.0,259.0,18.0,32.0
769821,County,2020/08/29,5.0,AR,5039.0,Dallas County,1197.0,5985.0,20008.0,4323.0,5719.0,2225.0,1383.0,2717.0,2540.0,898.0,182.0,9.0,12.0
774614,County,2020/08/30,5.0,AR,5039.0,Dallas County,1193.0,5989.0,16573.0,2303.0,5831.0,2125.0,1617.0,2107.0,1439.0,790.0,311.0,14.0,36.0
776222,County,2020/08/31,5.0,AR,5039.0,Dallas County,1060.0,6122.0,17574.0,3342.0,4252.0,1384.0,1899.0,2754.0,2394.0,963.0,517.0,40.0,29.0
779365,County,2020/09/01,5.0,AR,5039.0,Dallas County,1158.0,6024.0,17987.0,2969.0,5931.0,1722.0,1308.0,2884.0,2094.0,747.0,277.0,34.0,21.0
782609,County,2020/09/02,5.0,AR,5039.0,Dallas County,1071.0,6111.0,18766.0,3567.0,5147.0,1568.0,1400.0,3009.0,2877.0,846.0,278.0,43.0,31.0
787298,County,2020/09/03,5.0,AR,5039.0,Dallas County,1087.0,6095.0,21164.0,4249.0,6312.0,1457.0,1749.0,2583.0,3428.0,1014.0,318.0,33.0,21.0
790540,County,2020/09/04,5.0,AR,5039.0,Dallas County,1055.0,6127.0,21527.0,4677.0,7558.0,1301.0,1466.0,2544.0,2635.0,973.0,342.0,21.0,10.0
793630,County,2020/09/05,5.0,AR,5039.0,Dallas County,1261.0,5921.0,21752.0,5874.0,5171.0,2998.0,1491.0,2278.0,2427.0,1251.0,252.0,10.0,0.0
796936,County,2020/09/06,5.0,AR,5039.0,Dallas County,1312.0,5870.0,19012.0,4456.0,6021.0,2944.0,1398.0,1770.0,987.0,1096.0,285.0,12.0,43.0
800148,County,2020/09/07,5.0,AR,5039.0,Dallas County,1472.0,5710.0,13790.0,2962.0,4548.0,987.0,1079.0,1848.0,1383.0,422.0,484.0,46.0,31.0
801753,County,2020/09/08,5.0,AR,5039.0,Dallas County,1205.0,5977.0,19472.0,2835.0,6246.0,2517.0,1395.0,2774.0,2352.0,992.0,299.0,25.0,37.0
806534,County,2020/09/09,5.0,AR,5039.0,Dallas County,1199.0,5983.0,21709.0,3608.0,6193.0,1824.0,1531.0,3563.0,3407.0,1202.0,297.0,10.0,74.0
808162,County,2020/09/10,5.0,AR,5039.0,Dallas County,1046.0,6136.0,19623.0,3672.0,5874.0,2136.0,879.0,2949.0,3033.0,778.0,263.0,17.0,22.0
812923,County,2020/09/11,5.0,AR,5039.0,Dallas County,1065.0,6117.0,24489.0,4614.0,6523.0,2668.0,1562.0,4014.0,3152.0,1676.0,259.0,9.0,12.0
816070,County,2020/09/12,5.0,AR,5039.0,Dallas County,1427.0,5755.0,18458.0,3130.0,3928.0,2392.0,1814.0,2952.0,2823.0,1075.0,317.0,27.0,0.0
817725,County,2020/09/13,5.0,AR,5039.0,Dallas County,1375.0,5807.0,17390.0,2482.0,5423.0,2404.0,2362.0,1282.0,2178.0,996.0,178.0,25.0,60.0
820929,County,2020/09/14,5.0,AR,5039.0,Dallas County,1054.0,6128.0,21981.0,3887.0,6009.0,1847.0,1733.0,3538.0,3114.0,1733.0,91.0,29.0,0.0
825699,County,2020/09/15,5.0,AR,5039.0,Dallas County,1075.0,6107.0,21768.0,3700.0,6541.0,1166.0,1691.0,3385.0,3898.0,1208.0,149.0,16.0,14.0
827327,County,2020/09/16,5.0,AR,5039.0,Dallas County,1106.0,6076.0,23841.0,5567.0,6803.0,1919.0,1866.0,3680.0,2922.0,971.0,60.0,39.0,14.0
832069,County,2020/09/17,5.0,AR,5039.0,Dallas County,1048.0,6134.0,22257.0,3692.0,6007.0,1963.0,2392.0,3768.0,2960.0,1235.0,203.0,10.0,27.0
833698,County,2020/09/18,5.0,AR,5039.0,Dallas County,1142.0,6040.0,23996.0,4292.0,7136.0,2706.0,1783.0,3030.0,3371.0,1479.0,182.0,17.0,0.0
838474,County,2020/09/19,5.0,AR,5039.0,Dallas County,1169.0,6013.0,22182.0,3573.0,5496.0,2125.0,2445.0,3827.0,2648.0,1780.0,281.0,7.0,0.0
840102,County,2020/09/20,5.0,AR,5039.0,Dallas County,1267.0,5915.0,17650.0,4371.0,5021.0,1334.0,1637.0,2407.0,1854.0,935.0,86.0,5.0,0.0
844890,County,2020/09/21,5.0,AR,5039.0,Dallas County,1348.0,5834.0,19943.0,3049.0,5310.0,2565.0,1425.0,3809.0,2045.0,1578.0,144.0,5.0,13.0
848009,County,2020/09/22,5.0,AR,5039.0,Dallas County,1169.0,6013.0,20975.0,3906.0,5572.0,2833.0,1975.0,3452.0,1992.0,1093.0,128.0,24.0,0.0
851247,County,2020/09/23,5.0,AR,5039.0,Dallas County,1247.0,5935.0,18811.0,2794.0,5166.0,2675.0,1756.0,2943.0,2298.0,998.0,181.0,0.0,0.0
852875,County,2020/09/24,5.0,AR,5039.0,Dallas County,1209.0,5973.0,21051.0,3289.0,5965.0,2250.0,1711.0,3759.0,2498.0,1337.0,220.0,10.0,12.0
857639,County,2020/09/25,5.0,AR,5039.0,Dallas County,1158.0,6024.0,21194.0,3437.0,4871.0,3626.0,1571.0,3232.0,2912.0,1304.0,241.0,0.0,0.0
859267,County,2020/09/26,5.0,AR,5039.0,Dallas County,1338.0,5844.0,17550.0,2903.0,4487.0,1772.0,2280.0,2968.0,1735.0,1298.0,107.0,0.0,0.0
862438,County,2020/09/27,5.0,AR,5039.0,Dallas County,1424.0,5758.0,17949.0,3165.0,5247.0,2149.0,1597.0,3498.0,1338.0,748.0,201.0,6.0,0.0
865641,County,2020/09/28,5.0,AR,5039.0,Dallas County,1268.0,5914.0,21767.0,3347.0,5881.0,3338.0,1666.0,3031.0,3276.0,1037.0,170.0,21.0,0.0
870414,County,2020/09/29,5.0,AR,5039.0,Dallas County,1176.0,6006.0,22006.0,3441.0,6193.0,2872.0,1662.0,3975.0,2758.0,954.0,126.0,20.0,5.0
872043,County,2020/09/30,5.0,AR,5039.0,Dallas County,1245.0,5937.0,23075.0,4239.0,7560.0,2518.0,1524.0,3279.0,2952.0,928.0,57.0,13.0,5.0
875207,County,2020/10/01,5.0,AR,5039.0,Dallas County,1124.0,6058.0,25730.0,3698.0,7316.0,3312.0,2229.0,4480.0,2776.0,1741.0,167.0,4.0,7.0
878410,County,2020/10/02,5.0,AR,5039.0,Dallas County,1123.0,6059.0,22232.0,3960.0,4989.0,2639.0,1961.0,3628.0,3348.0,1336.0,364.0,7.0,0.0
883192,County,2020/10/03,5.0,AR,5039.0,Dallas County,1228.0,5954.0,22221.0,4149.0,6974.0,2225.0,1988.0,2822.0,2699.0,1200.0,135.0,24.0,5.0
885193,County,2020/10/04,5.0,AR,5039.0,Dallas County,1267.0,5915.0,13998.0,1464.0,4727.0,2011.0,1105.0,1315.0,2135.0,976.0,230.0,35.0,0.0
888063,County,2020/10/05,5.0,AR,5039.0,Dallas County,1290.0,5892.0,20023.0,3782.0,6665.0,1264.0,1285.0,3009.0,2876.0,936.0,188.0,14.0,4.0
891251,County,2020/10/06,5.0,AR,5039.0,Dallas County,1102.0,6080.0,19494.0,3175.0,5024.0,1687.0,1592.0,3873.0,2177.0,1741.0,207.0,15.0,3.0
894452,County,2020/10/07,5.0,AR,5039.0,Dallas County,1078.0,6104.0,23694.0,5576.0,5333.0,2034.0,1764.0,3619.0,3963.0,1263.0,114.0,18.0,10.0
897596,County,2020/10/08,5.0,AR,5039.0,Dallas County,1058.0,6124.0,17627.0,2785.0,3674.0,1743.0,1771.0,2636.0,2728.0,2000.0,266.0,15.0,9.0
900840,County,2020/10/09,5.0,AR,5039.0,Dallas County,1067.0,6115.0,22031.0,4141.0,6752.0,1904.0,1225.0,3838.0,2675.0,1269.0,218.0,6.0,3.0
904417,County,2020/10/10,5.0,AR,5039.0,Dallas County,1386.0,5796.0,21631.0,3658.0,6748.0,2347.0,1449.0,2852.0,2827.0,1490.0,256.0,4.0,0.0
909476,County,2020/10/11,5.0,AR,5039.0,Dallas County,1456.0,5726.0,15329.0,3533.0,4778.0,946.0,1100.0,2056.0,2242.0,391.0,261.0,8.0,14.0
913285,County,2020/10/12,5.0,AR,5039.0,Dallas County,1256.0,5926.0,18890.0,3496.0,4951.0,1881.0,1295.0,3156.0,2448.0,1346.0,308.0,6.0,3.0
916570,County,2020/10/13,5.0,AR,5039.0,Dallas County,1385.0,5797.0,19700.0,2596.0,4915.0,2190.0,1919.0,3623.0,2915.0,1339.0,183.0,17.0,3.0
919634,County,2020/10/14,5.0,AR,5039.0,Dallas County,1101.0,6081.0,17263.0,3091.0,4271.0,803.0,1430.0,2988.0,2713.0,1453.0,495.0,14.0,5.0
923060,County,2020/10/15,5.0,AR,5039.0,Dallas County,1191.0,5991.0,19136.0,2200.0,5530.0,2402.0,814.0,3769.0,2530.0,1524.0,344.0,17.0,6.0
926064,County,2020/10/16,5.0,AR,5039.0,Dallas County,1005.0,6177.0,22021.0,2404.0,5810.0,2955.0,1816.0,3939.0,3381.0,1535.0,175.0,3.0,3.0
929358,County,2020/10/17,5.0,AR,5039.0,Dallas County,1304.0,5878.0,16948.0,2995.0,4742.0,920.0,1204.0,3581.0,2261.0,914.0,310.0,8.0,13.0
932528,County,2020/10/18,5.0,AR,5039.0,Dallas County,1234.0,5948.0,19524.0,3623.0,5337.0,1849.0,2635.0,2422.0,1894.0,1572.0,185.0,4.0,3.0
935675,County,2020/10/19,5.0,AR,5039.0,Dallas County,954.0,6228.0,21479.0,5045.0,5293.0,1781.0,1387.0,3320.0,3091.0,1275.0,270.0,12.0,5.0
938667,County,2020/10/20,5.0,AR,5039.0,Dallas County,1133.0,6049.0,20688.0,3995.0,6138.0,1773.0,1323.0,2995.0,2976.0,1301.0,177.0,7.0,3.0
942172,County,2020/10/21,5.0,AR,5039.0,Dallas County,1137.0,6045.0,20925.0,4593.0,5359.0,1857.0,1386.0,3843.0,2585.0,933.0,346.0,4.0,19.0
944068,County,2020/10/22,5.0,AR,5039.0,Dallas County,1136.0,6046.0,20085.0,4144.0,4998.0,2309.0,999.0,3438.0,2483.0,1404.0,298.0,0.0,12.0
947885,County,2020/10/23,5.0,AR,5039.0,Dallas County,1060.0,6122.0,24719.0,4021.0,8196.0,2335.0,2053.0,4170.0,2413.0,1230.0,296.0,0.0,5.0
951612,County,2020/10/24,5.0,AR,5039.0,Dallas County,925.0,6257.0,21496.0,4170.0,5986.0,2805.0,1843.0,3036.0,1867.0,1625.0,151.0,13.0,0.0
