,Level,Date,State FIPS,State Postal Code,County FIPS,County Name,Population Staying at Home,Population Not Staying at Home,Number of Trips,Number of Trips <1,Number of Trips 1-3,Number of Trips 3-5,Number of Trips 5-10,Number of Trips 10-25,Number of Trips 25-50,Number of Trips 50-100,Number of Trips 100-250,Number of Trips 250-500,Number of Trips >=500
1530,County,2020/01/01,29.0,MO,29095.0,Jackson County,192624.0,507683.0,1884728.0,480731.0,463044.0,219113.0,317306.0,299318.0,65238.0,18575.0,15541.0,3885.0,1977.0
3770,County,2020/01/02,29.0,MO,29095.0,Jackson County,157131.0,543176.0,2365951.0,611665.0,526911.0,251341.0,374277.0,449888.0,108099.0,22039.0,16799.0,3345.0,1587.0
7187,County,2020/01/03,29.0,MO,29095.0,Jackson County,153417.0,546890.0,2478811.0,609432.0,574278.0,273010.0,394682.0,466575.0,108667.0,25817.0,21073.0,3693.0,1584.0
11007,County,2020/01/04,29.0,MO,29095.0,Jackson County,171936.0,528371.0,2307945.0,590484.0,558075.0,272022.0,370590.0,377897.0,89955.0,22552.0,21265.0,3297.0,1808.0
14306,County,2020/01/05,29.0,MO,29095.0,Jackson County,185899.0,514408.0,2007082.0,488049.0,511340.0,240295.0,333720.0,317447.0,70861.0,19542.0,20020.0,4051.0,1757.0
18331,County,2020/01/06,29.0,MO,29095.0,Jackson County,164441.0,535866.0,2314762.0,590817.0,524165.0,258876.0,362385.0,432325.0,101719.0,22371.0,17042.0,3141.0,1921.0
19923,County,2020/01/07,29.0,MO,29095.0,Jackson County,148083.0,552224.0,2433675.0,632421.0,550381.0,271965.0,389218.0,448090.0,103074.0,19290.0,15029.0,2799.0,1408.0
23153,County,2020/01/08,29.0,MO,29095.0,Jackson County,144860.0,555447.0,2513993.0,665651.0,565882.0,273104.0,392945.0,467079.0,109368.0,19411.0,15575.0,3340.0,1638.0
27901,County,2020/01/09,29.0,MO,29095.0,Jackson County,143949.0,556358.0,2521163.0,654802.0,586089.0,280698.0,394496.0,458234.0,105540.0,21877.0,14353.0,3730.0,1344.0
29495,County,2020/01/10,29.0,MO,29095.0,Jackson County,146845.0,553462.0,2533687.0,678886.0,607306.0,283252.0,387756.0,441079.0,92950.0,22355.0,15301.0,3433.0,1369.0
32736,County,2020/01/11,29.0,MO,29095.0,Jackson County,229867.0,470440.0,1958095.0,586104.0,526533.0,220668.0,281423.0,262599.0,48600.0,13927.0,12882.0,3611.0,1748.0
35892,County,2020/01/12,29.0,MO,29095.0,Jackson County,201695.0,498612.0,1904192.0,521221.0,473151.0,221169.0,310502.0,293314.0,52786.0,13196.0,13915.0,3354.0,1584.0
39135,County,2020/01/13,29.0,MO,29095.0,Jackson County,154621.0,545686.0,2348572.0,603306.0,543547.0,257389.0,368645.0,435480.0,99017.0,21373.0,15393.0,3213.0,1209.0
43868,County,2020/01/14,29.0,MO,29095.0,Jackson County,145738.0,554569.0,2505244.0,657294.0,573755.0,279996.0,395213.0,456897.0,103361.0,21173.0,13633.0,2860.0,1062.0
47073,County,2020/01/15,29.0,MO,29095.0,Jackson County,145536.0,554771.0,2490255.0,640845.0,569130.0,277060.0,390947.0,466036.0,107846.0,19771.0,14291.0,3148.0,1181.0
50230,County,2020/01/16,29.0,MO,29095.0,Jackson County,144022.0,556285.0,2526809.0,654555.0,580254.0,281254.0,390067.0,472180.0,104160.0,21384.0,17955.0,3196.0,1804.0
53517,County,2020/01/17,29.0,MO,29095.0,Jackson County,194810.0,505497.0,2079909.0,580498.0,500645.0,228496.0,306920.0,346631.0,76244.0,18006.0,17460.0,3502.0,1507.0
56638,County,2020/01/18,29.0,MO,29095.0,Jackson County,163994.0,536313.0,2455983.0,629831.0,596973.0,294900.0,415177.0,401239.0,78560.0,20731.0,14511.0,2797.0,1264.0
58237,County,2020/01/19,29.0,MO,29095.0,Jackson County,185841.0,514466.0,2033320.0,547206.0,489226.0,237974.0,336082.0,325917.0,61314.0,16488.0,14402.0,3253.0,1458.0
61470,County,2020/01/20,29.0,MO,29095.0,Jackson County,173731.0,526576.0,2151314.0,546463.0,486030.0,238794.0,342954.0,401318.0,90899.0,21366.0,17877.0,3903.0,1710.0
66198,County,2020/01/21,29.0,MO,29095.0,Jackson County,151982.0,548325.0,2412271.0,636269.0,540676.0,261308.0,376252.0,453192.0,102248.0,20863.0,16716.0,3164.0,1583.0
67830,County,2020/01/22,29.0,MO,29095.0,Jackson County,154697.0,545610.0,2312755.0,599877.0,535129.0,251858.0,367019.0,425997.0,93950.0,18946.0,15200.0,3282.0,1497.0
72620,County,2020/01/23,29.0,MO,29095.0,Jackson County,151923.0,548384.0,2416694.0,638822.0,551371.0,271857.0,372268.0,441668.0,98963.0,20511.0,16114.0,3322.0,1798.0
75776,County,2020/01/24,29.0,MO,29095.0,Jackson County,166847.0,533460.0,2403206.0,649250.0,555285.0,267760.0,378844.0,418378.0,92298.0,19231.0,16809.0,3589.0,1762.0
79011,County,2020/01/25,29.0,MO,29095.0,Jackson County,162662.0,537645.0,2475732.0,630885.0,588287.0,295383.0,422261.0,414154.0,83896.0,20543.0,15819.0,3018.0,1486.0
81380,County,2020/01/26,29.0,MO,29095.0,Jackson County,175513.0,524794.0,2167682.0,564606.0,532615.0,254361.0,359059.0,347098.0,69666.0,19503.0,15785.0,3219.0,1770.0
83732,County,2020/01/27,29.0,MO,29095.0,Jackson County,149192.0,551115.0,2469151.0,652863.0,562340.0,272962.0,389911.0,448754.0,101497.0,20742.0,15037.0,3501.0,1544.0
87048,County,2020/01/28,29.0,MO,29095.0,Jackson County,148205.0,552102.0,2428600.0,625032.0,551940.0,269191.0,384834.0,454226.0,102315.0,19843.0,16081.0,3561.0,1577.0
90203,County,2020/01/29,29.0,MO,29095.0,Jackson County,153995.0,546312.0,2428404.0,630271.0,557537.0,273985.0,380864.0,447122.0,97541.0,20231.0,16012.0,3364.0,1477.0
94987,County,2020/01/30,29.0,MO,29095.0,Jackson County,145601.0,554706.0,2513203.0,659196.0,564028.0,283721.0,396769.0,459861.0,102787.0,21936.0,16957.0,4764.0,3184.0
96562,County,2020/01/31,29.0,MO,29095.0,Jackson County,139386.0,560921.0,2666882.0,690016.0,610090.0,304068.0,421601.0,478643.0,110714.0,23110.0,18892.0,5896.0,3852.0
101320,County,2020/02/01,29.0,MO,29095.0,Jackson County,153191.0,547116.0,2612267.0,681839.0,649259.0,314094.0,415386.0,418792.0,85246.0,22505.0,17201.0,4544.0,3401.0
104522,County,2020/02/02,29.0,MO,29095.0,Jackson County,167676.0,532631.0,2207694.0,604117.0,543261.0,260810.0,346628.0,345677.0,68429.0,16273.0,14783.0,4467.0,3249.0
107774,County,2020/02/03,29.0,MO,29095.0,Jackson County,148019.0,552288.0,2420409.0,652907.0,544894.0,268537.0,376285.0,434248.0,99439.0,19638.0,16041.0,4501.0,3919.0
110910,County,2020/02/04,29.0,MO,29095.0,Jackson County,144352.0,555955.0,2368779.0,614813.0,541224.0,263249.0,370641.0,434696.0,99431.0,19328.0,16371.0,5174.0,3852.0
114114,County,2020/02/05,29.0,MO,29095.0,Jackson County,164732.0,535575.0,2272066.0,630713.0,510822.0,242382.0,348471.0,405342.0,90683.0,18297.0,16588.0,4996.0,3772.0
117320,County,2020/02/06,29.0,MO,29095.0,Jackson County,142114.0,558193.0,2517286.0,662170.0,573634.0,285875.0,386516.0,459544.0,104610.0,20267.0,16740.0,4501.0,3429.0
120574,County,2020/02/07,29.0,MO,29095.0,Jackson County,136907.0,563400.0,2631399.0,675658.0,612310.0,299319.0,414811.0,476015.0,102687.0,23671.0,19022.0,4829.0,3077.0
123734,County,2020/02/08,29.0,MO,29095.0,Jackson County,153703.0,546604.0,2462984.0,630076.0,600382.0,287665.0,410459.0,405367.0,86318.0,18942.0,16702.0,4033.0,3040.0
125543,County,2020/02/09,29.0,MO,29095.0,Jackson County,192033.0,508274.0,2037059.0,533328.0,497292.0,243209.0,341695.0,314774.0,63322.0,18259.0,16893.0,4958.0,3329.0
129839,County,2020/02/10,29.0,MO,29095.0,Jackson County,145637.0,554670.0,2564681.0,660587.0,587236.0,286894.0,405741.0,471847.0,106085.0,20237.0,17046.0,5309.0,3699.0
132192,County,2020/02/11,29.0,MO,29095.0,Jackson County,135284.0,565023.0,2616910.0,679236.0,582424.0,298121.0,418295.0,484808.0,106323.0,21954.0,16559.0,5286.0,3904.0
136432,County,2020/02/12,29.0,MO,29095.0,Jackson County,148870.0,551437.0,2505160.0,661943.0,562327.0,285312.0,390537.0,456844.0,101944.0,20223.0,16549.0,5299.0,4182.0
138127,County,2020/02/13,29.0,MO,29095.0,Jackson County,159919.0,540388.0,2314922.0,588860.0,512921.0,265794.0,359058.0,441039.0,97559.0,20592.0,19320.0,5229.0,4550.0
142857,County,2020/02/14,29.0,MO,29095.0,Jackson County,144000.0,556307.0,2737031.0,669090.0,622244.0,322176.0,442350.0,507038.0,112379.0,26537.0,23991.0,6288.0,4938.0
146063,County,2020/02/15,29.0,MO,29095.0,Jackson County,163318.0,536989.0,2509897.0,628378.0,584587.0,298576.0,422535.0,427090.0,94791.0,24742.0,19402.0,5751.0,4045.0
149265,County,2020/02/16,29.0,MO,29095.0,Jackson County,178897.0,521410.0,2250540.0,579053.0,551259.0,275742.0,359806.0,358151.0,75919.0,20063.0,20944.0,5752.0,3851.0
150893,County,2020/02/17,29.0,MO,29095.0,Jackson County,205432.0,494875.0,2029933.0,511281.0,444637.0,229805.0,322825.0,380034.0,94598.0,20288.0,17783.0,4720.0,3962.0
155576,County,2020/02/18,29.0,MO,29095.0,Jackson County,151719.0,548588.0,2537256.0,645062.0,564905.0,285730.0,397288.0,475562.0,114486.0,23040.0,20855.0,5977.0,4351.0
157253,County,2020/02/19,29.0,MO,29095.0,Jackson County,143015.0,557292.0,2562177.0,656062.0,560624.0,284383.0,401252.0,490669.0,115677.0,22644.0,20453.0,5807.0,4606.0
162063,County,2020/02/20,29.0,MO,29095.0,Jackson County,148799.0,551508.0,2529821.0,641946.0,565746.0,284209.0,391310.0,479475.0,112319.0,23667.0,20393.0,6353.0,4403.0
163641,County,2020/02/21,29.0,MO,29095.0,Jackson County,145018.0,555289.0,2720254.0,702724.0,606394.0,298097.0,427427.0,502263.0,118505.0,26873.0,25410.0,7517.0,5044.0
166835,County,2020/02/22,29.0,MO,29095.0,Jackson County,144988.0,555319.0,2607027.0,656782.0,622281.0,310752.0,428398.0,433809.0,97839.0,23961.0,22908.0,5764.0,4533.0
171601,County,2020/02/23,29.0,MO,29095.0,Jackson County,177803.0,522504.0,2298553.0,607892.0,573628.0,264852.0,372518.0,352274.0,76319.0,21274.0,21455.0,5594.0,2747.0
173227,County,2020/02/24,29.0,MO,29095.0,Jackson County,162446.0,537861.0,2412234.0,604168.0,552685.0,275065.0,386640.0,440680.0,104803.0,24483.0,16970.0,4059.0,2681.0
177201,County,2020/02/25,29.0,MO,29095.0,Jackson County,144306.0,556001.0,2526718.0,623034.0,576398.0,287800.0,395036.0,479180.0,114122.0,25057.0,18489.0,4849.0,2753.0
180394,County,2020/02/26,29.0,MO,29095.0,Jackson County,140445.0,559862.0,2460162.0,604206.0,590694.0,283166.0,419368.0,425778.0,93753.0,20786.0,17225.0,3403.0,1783.0
182252,County,2020/02/27,29.0,MO,29095.0,Jackson County,143967.0,556340.0,2641251.0,680253.0,601826.0,285470.0,413484.0,492331.0,114414.0,26171.0,19368.0,5627.0,2307.0
186092,County,2020/02/28,29.0,MO,29095.0,Jackson County,138390.0,561917.0,2838216.0,726055.0,660684.0,318234.0,450974.0,508999.0,113775.0,29002.0,21951.0,6201.0,2341.0
189194,County,2020/02/29,29.0,MO,29095.0,Jackson County,152228.0,548079.0,2803734.0,723120.0,672788.0,331618.0,463044.0,456388.0,102268.0,26811.0,20110.0,5419.0,2168.0
193978,County,2020/03/01,29.0,MO,29095.0,Jackson County,165147.0,535160.0,2269426.0,602664.0,556755.0,263822.0,361391.0,361620.0,73184.0,22226.0,19984.0,5626.0,2154.0
197183,County,2020/03/02,29.0,MO,29095.0,Jackson County,149120.0,551187.0,2546291.0,691318.0,577768.0,280131.0,385051.0,460127.0,106702.0,23064.0,14766.0,5045.0,2319.0
200243,County,2020/03/03,29.0,MO,29095.0,Jackson County,137926.0,562381.0,2679318.0,747725.0,595471.0,283473.0,412201.0,473304.0,111961.0,28092.0,20340.0,4454.0,2297.0
202621,County,2020/03/04,29.0,MO,29095.0,Jackson County,140536.0,559771.0,2620845.0,691294.0,592148.0,284629.0,403796.0,482725.0,111872.0,26990.0,20592.0,4804.0,1995.0
206749,County,2020/03/05,29.0,MO,29095.0,Jackson County,129905.0,570402.0,2576659.0,678502.0,568119.0,280579.0,388773.0,488512.0,116105.0,26577.0,22565.0,4869.0,2058.0
208280,County,2020/03/06,29.0,MO,29095.0,Jackson County,131255.0,569052.0,2698562.0,677068.0,619618.0,303435.0,415036.0,500658.0,117537.0,31408.0,26530.0,4752.0,2520.0
211581,County,2020/03/07,29.0,MO,29095.0,Jackson County,142896.0,557411.0,2679428.0,680771.0,657309.0,322288.0,425392.0,437323.0,95582.0,30003.0,22828.0,5261.0,2671.0
214747,County,2020/03/08,29.0,MO,29095.0,Jackson County,159321.0,540986.0,2287947.0,609837.0,556145.0,263243.0,365633.0,356338.0,79050.0,24877.0,25196.0,5383.0,2245.0
217949,County,2020/03/09,29.0,MO,29095.0,Jackson County,148012.0,552295.0,2396908.0,616395.0,548564.0,272699.0,362319.0,444040.0,101601.0,23979.0,20347.0,4890.0,2074.0
221183,County,2020/03/10,29.0,MO,29095.0,Jackson County,139531.0,560776.0,2553747.0,658501.0,597745.0,280661.0,388694.0,467550.0,109885.0,23960.0,20385.0,4287.0,2079.0
224372,County,2020/03/11,29.0,MO,29095.0,Jackson County,137740.0,562567.0,2543951.0,686267.0,578437.0,294715.0,392763.0,427680.0,102399.0,23225.0,26573.0,6529.0,5363.0
229068,County,2020/03/12,29.0,MO,29095.0,Jackson County,143417.0,556890.0,2495409.0,701191.0,574497.0,283197.0,356803.0,411287.0,105968.0,23312.0,28480.0,6452.0,4222.0
230716,County,2020/03/13,29.0,MO,29095.0,Jackson County,141597.0,558710.0,2572476.0,704079.0,596000.0,282482.0,395235.0,427537.0,102488.0,27582.0,27494.0,5396.0,4183.0
233915,County,2020/03/14,29.0,MO,29095.0,Jackson County,172655.0,527652.0,2274138.0,596417.0,583687.0,260134.0,363264.0,336694.0,77417.0,22415.0,22163.0,6956.0,4991.0
238669,County,2020/03/15,29.0,MO,29095.0,Jackson County,204060.0,496247.0,1925740.0,481157.0,499542.0,226442.0,313343.0,286757.0,63516.0,25255.0,23085.0,4420.0,2223.0
241912,County,2020/03/16,29.0,MO,29095.0,Jackson County,177652.0,522655.0,2197927.0,541653.0,506949.0,243044.0,348094.0,400320.0,103852.0,24456.0,22010.0,5252.0,2297.0
243479,County,2020/03/17,29.0,MO,29095.0,Jackson County,195481.0,504826.0,2167920.0,557955.0,478774.0,234102.0,331077.0,408732.0,104371.0,26478.0,20166.0,4329.0,1936.0
246683,County,2020/03/18,29.0,MO,29095.0,Jackson County,209416.0,490891.0,2139350.0,559638.0,470894.0,227270.0,322618.0,398386.0,103148.0,26842.0,23155.0,5345.0,2054.0
249889,County,2020/03/19,29.0,MO,29095.0,Jackson County,212655.0,487652.0,2131109.0,582281.0,492106.0,221926.0,309232.0,374709.0,93754.0,26132.0,24343.0,4995.0,1631.0
253123,County,2020/03/20,29.0,MO,29095.0,Jackson County,215034.0,485273.0,2161144.0,575319.0,505164.0,232455.0,325653.0,369810.0,93885.0,27842.0,24100.0,4907.0,2009.0
256266,County,2020/03/21,29.0,MO,29095.0,Jackson County,234773.0,465534.0,1979572.0,545053.0,511446.0,229017.0,298118.0,282905.0,61730.0,23591.0,20967.0,4743.0,2002.0
259453,County,2020/03/22,29.0,MO,29095.0,Jackson County,231261.0,469046.0,1530245.0,404462.0,412381.0,181776.0,235437.0,203326.0,48115.0,18296.0,20718.0,3894.0,1840.0
264232,County,2020/03/23,29.0,MO,29095.0,Jackson County,198140.0,502167.0,1862904.0,517973.0,410992.0,201123.0,274684.0,330075.0,82918.0,19511.0,19927.0,3863.0,1838.0
267461,County,2020/03/24,29.0,MO,29095.0,Jackson County,224883.0,475424.0,1654646.0,455076.0,362262.0,167891.0,236758.0,299713.0,83073.0,23271.0,20763.0,4139.0,1700.0
269091,County,2020/03/25,29.0,MO,29095.0,Jackson County,217736.0,482571.0,1773905.0,497240.0,408827.0,189933.0,244499.0,299102.0,85500.0,20762.0,20967.0,5357.0,1718.0
273832,County,2020/03/26,29.0,MO,29095.0,Jackson County,215725.0,484582.0,1823682.0,522367.0,418945.0,188407.0,261362.0,302774.0,82932.0,21134.0,19688.0,4657.0,1416.0
276999,County,2020/03/27,29.0,MO,29095.0,Jackson County,211180.0,489127.0,1810397.0,518027.0,412686.0,185647.0,261108.0,305842.0,77490.0,25170.0,18469.0,4142.0,1816.0
278626,County,2020/03/28,29.0,MO,29095.0,Jackson County,226695.0,473612.0,1749837.0,528618.0,435726.0,208604.0,256883.0,226279.0,52336.0,19517.0,16175.0,4169.0,1530.0
283386,County,2020/03/29,29.0,MO,29095.0,Jackson County,236570.0,463737.0,1599077.0,503928.0,419434.0,177993.0,220632.0,198599.0,39362.0,15978.0,17075.0,4136.0,1940.0
285013,County,2020/03/30,29.0,MO,29095.0,Jackson County,212774.0,487533.0,1821238.0,537123.0,416550.0,188661.0,260369.0,289938.0,83303.0,21661.0,17957.0,4074.0,1602.0
288209,County,2020/03/31,29.0,MO,29095.0,Jackson County,216702.0,483605.0,1842088.0,548881.0,407636.0,186967.0,255443.0,308672.0,86739.0,22974.0,18750.0,4421.0,1605.0
291444,County,2020/04/01,29.0,MO,29095.0,Jackson County,211409.0,488898.0,1928765.0,588766.0,434529.0,196458.0,271337.0,305642.0,83999.0,24797.0,17162.0,4615.0,1460.0
296177,County,2020/04/02,29.0,MO,29095.0,Jackson County,213662.0,486645.0,1812133.0,522055.0,396570.0,192118.0,262250.0,308589.0,82934.0,22233.0,19065.0,4696.0,1623.0
299404,County,2020/04/03,29.0,MO,29095.0,Jackson County,214769.0,485538.0,1730668.0,467978.0,405330.0,186267.0,252311.0,302673.0,69861.0,21456.0,19953.0,3622.0,1217.0
302584,County,2020/04/04,29.0,MO,29095.0,Jackson County,229096.0,471211.0,1673436.0,481696.0,426977.0,188991.0,258520.0,229574.0,51100.0,16560.0,14954.0,3164.0,1900.0
304212,County,2020/04/05,29.0,MO,29095.0,Jackson County,239800.0,460507.0,1581842.0,477716.0,401301.0,179065.0,227316.0,212445.0,43500.0,17932.0,16574.0,4179.0,1814.0
308937,County,2020/04/06,29.0,MO,29095.0,Jackson County,223925.0,476382.0,1807610.0,519119.0,418526.0,194275.0,252820.0,297308.0,85072.0,20104.0,16289.0,3156.0,941.0
312177,County,2020/04/07,29.0,MO,29095.0,Jackson County,217254.0,483053.0,1903190.0,549592.0,442400.0,199089.0,268865.0,311022.0,90021.0,21829.0,16025.0,3456.0,891.0
315350,County,2020/04/08,29.0,MO,29095.0,Jackson County,214709.0,485598.0,1892949.0,525438.0,461785.0,195151.0,258783.0,314377.0,88520.0,25446.0,18692.0,3650.0,1107.0
316977,County,2020/04/09,29.0,MO,29095.0,Jackson County,217849.0,482458.0,2055977.0,681767.0,464760.0,193626.0,267791.0,312955.0,88868.0,23586.0,17780.0,3883.0,961.0
320204,County,2020/04/10,29.0,MO,29095.0,Jackson County,209175.0,491132.0,1917091.0,551056.0,453651.0,202864.0,267922.0,313178.0,83824.0,24317.0,15131.0,3187.0,1961.0
323389,County,2020/04/11,29.0,MO,29095.0,Jackson County,218820.0,481487.0,1847756.0,553846.0,476103.0,215837.0,275797.0,238040.0,52811.0,17903.0,13142.0,2597.0,1680.0
326533,County,2020/04/12,29.0,MO,29095.0,Jackson County,263363.0,436944.0,1288779.0,376772.0,350960.0,143066.0,183852.0,162622.0,39399.0,13566.0,14037.0,2992.0,1513.0
331345,County,2020/04/13,29.0,MO,29095.0,Jackson County,221049.0,479258.0,1772681.0,484998.0,411711.0,192563.0,261095.0,298390.0,83494.0,22043.0,13947.0,3546.0,894.0
332923,County,2020/04/14,29.0,MO,29095.0,Jackson County,214761.0,485546.0,1790422.0,582184.0,419848.0,186545.0,235947.0,249388.0,69387.0,23004.0,17597.0,3903.0,2619.0
336149,County,2020/04/15,29.0,MO,29095.0,Jackson County,207392.0,492915.0,1836350.0,574896.0,450044.0,192924.0,241961.0,250031.0,75498.0,21662.0,22934.0,4703.0,1697.0
339302,County,2020/04/16,29.0,MO,29095.0,Jackson County,213804.0,486503.0,1694327.0,519757.0,389207.0,169832.0,222129.0,255491.0,87572.0,25976.0,18593.0,4231.0,1539.0
342602,County,2020/04/17,29.0,MO,29095.0,Jackson County,201799.0,498508.0,1778233.0,511806.0,419817.0,190650.0,244830.0,283824.0,77226.0,25124.0,19703.0,3371.0,1882.0
345708,County,2020/04/18,29.0,MO,29095.0,Jackson County,221517.0,478790.0,1804485.0,555798.0,469549.0,212445.0,246515.0,226293.0,51582.0,18776.0,17152.0,4345.0,2030.0
348879,County,2020/04/19,29.0,MO,29095.0,Jackson County,227694.0,472613.0,1555126.0,479642.0,420107.0,167495.0,213819.0,181755.0,48550.0,22728.0,15957.0,3476.0,1597.0
353709,County,2020/04/20,29.0,MO,29095.0,Jackson County,194971.0,505336.0,1840846.0,567244.0,426617.0,195146.0,249937.0,270120.0,85009.0,20520.0,20902.0,3699.0,1652.0
355280,County,2020/04/21,29.0,MO,29095.0,Jackson County,206268.0,494039.0,2014059.0,584109.0,470776.0,213292.0,283911.0,324845.0,92083.0,22269.0,18123.0,3569.0,1082.0
360051,County,2020/04/22,29.0,MO,29095.0,Jackson County,206156.0,494151.0,1863705.0,506939.0,432768.0,204551.0,279387.0,308827.0,86896.0,21325.0,18117.0,3413.0,1482.0
363256,County,2020/04/23,29.0,MO,29095.0,Jackson County,199450.0,500857.0,2017479.0,564060.0,469425.0,218726.0,294249.0,335820.0,87665.0,24650.0,18275.0,3513.0,1096.0
364883,County,2020/04/24,29.0,MO,29095.0,Jackson County,204934.0,495373.0,1885156.0,493407.0,455372.0,209349.0,274853.0,313771.0,86237.0,26112.0,21057.0,3370.0,1628.0
368050,County,2020/04/25,29.0,MO,29095.0,Jackson County,207990.0,492317.0,1952196.0,548052.0,514696.0,221805.0,296872.0,261395.0,66824.0,21518.0,16242.0,3456.0,1336.0
372819,County,2020/04/26,29.0,MO,29095.0,Jackson County,217916.0,482391.0,1809014.0,539673.0,469920.0,203906.0,256406.0,238139.0,55460.0,22730.0,18803.0,2464.0,1513.0
376050,County,2020/04/27,29.0,MO,29095.0,Jackson County,202340.0,497967.0,1980011.0,537453.0,473750.0,216661.0,296312.0,325113.0,87641.0,22873.0,15589.0,3235.0,1384.0
379221,County,2020/04/28,29.0,MO,29095.0,Jackson County,201227.0,499080.0,2007367.0,565728.0,475217.0,216318.0,288712.0,324270.0,92766.0,22666.0,16787.0,3764.0,1139.0
382425,County,2020/04/29,29.0,MO,29095.0,Jackson County,198540.0,501767.0,2129683.0,665452.0,472515.0,218458.0,306901.0,325378.0,92916.0,23135.0,20063.0,3375.0,1490.0
385642,County,2020/04/30,29.0,MO,29095.0,Jackson County,195119.0,505188.0,2168301.0,611207.0,520282.0,233210.0,311198.0,349983.0,93775.0,25096.0,19084.0,3830.0,636.0
387268,County,2020/05/01,29.0,MO,29095.0,Jackson County,189913.0,510394.0,2216812.0,613340.0,525892.0,245264.0,330566.0,347752.0,97490.0,31680.0,20015.0,3875.0,938.0
390402,County,2020/05/02,29.0,MO,29095.0,Jackson County,197330.0,502977.0,2110436.0,584476.0,563137.0,237878.0,321619.0,284118.0,71442.0,26526.0,17257.0,2983.0,1000.0
395175,County,2020/05/03,29.0,MO,29095.0,Jackson County,213806.0,486501.0,1900832.0,596049.0,492753.0,208871.0,261847.0,239441.0,53925.0,24740.0,18770.0,3374.0,1062.0
396826,County,2020/05/04,29.0,MO,29095.0,Jackson County,203326.0,496981.0,1903288.0,510840.0,465062.0,196206.0,268969.0,324565.0,89860.0,26088.0,17432.0,3113.0,1153.0
400045,County,2020/05/05,29.0,MO,29095.0,Jackson County,191995.0,508312.0,2151379.0,600333.0,516785.0,225205.0,310705.0,354877.0,95700.0,25364.0,18153.0,3105.0,1152.0
404800,County,2020/05/06,29.0,MO,29095.0,Jackson County,196030.0,504277.0,2067968.0,551278.0,489049.0,224083.0,303401.0,353255.0,97042.0,26868.0,18686.0,3402.0,904.0
407895,County,2020/05/07,29.0,MO,29095.0,Jackson County,196291.0,504016.0,2028955.0,546917.0,468828.0,219783.0,297001.0,346506.0,94974.0,27578.0,22377.0,3584.0,1407.0
411157,County,2020/05/08,29.0,MO,29095.0,Jackson County,189120.0,511187.0,2179626.0,568088.0,532033.0,239407.0,329326.0,361272.0,93669.0,30514.0,21459.0,3078.0,780.0
412737,County,2020/05/09,29.0,MO,29095.0,Jackson County,196004.0,504303.0,2120226.0,559452.0,578161.0,250644.0,316177.0,296379.0,72655.0,26996.0,16079.0,2805.0,878.0
417534,County,2020/05/10,29.0,MO,29095.0,Jackson County,205827.0,494480.0,1870049.0,495308.0,497927.0,216735.0,290433.0,258811.0,62096.0,25573.0,18909.0,3292.0,965.0
420813,County,2020/05/11,29.0,MO,29095.0,Jackson County,176759.0,523548.0,2179779.0,617992.0,492444.0,230960.0,318337.0,367461.0,101789.0,26721.0,18976.0,3916.0,1183.0
424018,County,2020/05/12,29.0,MO,29095.0,Jackson County,174548.0,525759.0,2223045.0,630214.0,504147.0,234486.0,322655.0,371750.0,102092.0,29857.0,22175.0,4297.0,1372.0
427066,County,2020/05/13,29.0,MO,29095.0,Jackson County,177326.0,522981.0,2145291.0,622681.0,483182.0,221344.0,315183.0,350824.0,97984.0,25136.0,23137.0,4333.0,1487.0
428792,County,2020/05/14,29.0,MO,29095.0,Jackson County,171690.0,528617.0,2208572.0,643018.0,507817.0,236052.0,306312.0,357272.0,98845.0,28985.0,23785.0,4994.0,1492.0
433532,County,2020/05/15,29.0,MO,29095.0,Jackson County,168600.0,531707.0,2151776.0,610657.0,485257.0,222496.0,308275.0,363527.0,97823.0,31493.0,24861.0,5192.0,2195.0
435210,County,2020/05/16,29.0,MO,29095.0,Jackson County,181766.0,518541.0,2160119.0,652590.0,531542.0,242755.0,320312.0,298657.0,67792.0,23236.0,17675.0,3980.0,1580.0
438314,County,2020/05/17,29.0,MO,29095.0,Jackson County,168339.0,531968.0,2148785.0,620870.0,560569.0,236342.0,312098.0,282825.0,74526.0,31657.0,24637.0,4425.0,836.0
443135,County,2020/05/18,29.0,MO,29095.0,Jackson County,145782.0,554525.0,2446921.0,675178.0,578297.0,255218.0,351921.0,425590.0,107016.0,29813.0,19724.0,3521.0,643.0
446298,County,2020/05/19,29.0,MO,29095.0,Jackson County,142812.0,557495.0,2506386.0,703979.0,571606.0,265184.0,363580.0,428260.0,113859.0,31090.0,24803.0,3340.0,685.0
447930,County,2020/05/20,29.0,MO,29095.0,Jackson County,141432.0,558875.0,2478790.0,706906.0,560296.0,251182.0,361909.0,434502.0,106108.0,28519.0,24053.0,4225.0,1090.0
452364,County,2020/05/21,29.0,MO,29095.0,Jackson County,139791.0,560516.0,2522936.0,706887.0,575844.0,267027.0,351461.0,424501.0,123822.0,37182.0,29651.0,5046.0,1515.0
455909,County,2020/05/22,29.0,MO,29095.0,Jackson County,134809.0,565498.0,2581629.0,734137.0,588108.0,267851.0,372439.0,420286.0,120778.0,41047.0,30576.0,5067.0,1340.0
459071,County,2020/05/23,29.0,MO,29095.0,Jackson County,146572.0,553735.0,2533814.0,750469.0,624901.0,270296.0,368172.0,354585.0,100598.0,32005.0,27446.0,4026.0,1316.0
460700,County,2020/05/24,29.0,MO,29095.0,Jackson County,184611.0,515696.0,1982505.0,577593.0,491416.0,219410.0,285604.0,276800.0,77764.0,25028.0,22619.0,4177.0,2094.0
465577,County,2020/05/25,29.0,MO,29095.0,Jackson County,190817.0,509490.0,1794721.0,501954.0,434491.0,202820.0,265755.0,257744.0,70825.0,28156.0,26290.0,4714.0,1972.0
467009,County,2020/05/26,29.0,MO,29095.0,Jackson County,172055.0,528252.0,2068770.0,554170.0,479317.0,231489.0,306765.0,352469.0,93970.0,24952.0,19306.0,4240.0,2092.0
471876,County,2020/05/27,29.0,MO,29095.0,Jackson County,164779.0,535528.0,2233625.0,613895.0,519515.0,250564.0,320249.0,377021.0,99430.0,27263.0,19890.0,4238.0,1560.0
473459,County,2020/05/28,29.0,MO,29095.0,Jackson County,179059.0,521248.0,1991431.0,539870.0,458162.0,211071.0,292699.0,349483.0,87318.0,25595.0,21630.0,4115.0,1488.0
476654,County,2020/05/29,29.0,MO,29095.0,Jackson County,183078.0,517229.0,2265439.0,633711.0,538932.0,249446.0,326816.0,368575.0,90781.0,29808.0,22384.0,3729.0,1257.0
479841,County,2020/05/30,29.0,MO,29095.0,Jackson County,184299.0,516008.0,2224025.0,633568.0,549808.0,257676.0,335535.0,322537.0,75675.0,25689.0,19129.0,3372.0,1036.0
482969,County,2020/05/31,29.0,MO,29095.0,Jackson County,195995.0,504312.0,1954987.0,590376.0,502705.0,215090.0,275211.0,258429.0,60103.0,24426.0,22841.0,4392.0,1414.0
487909,County,2020/06/01,29.0,MO,29095.0,Jackson County,173647.0,526660.0,2121127.0,601300.0,493341.0,225384.0,306843.0,353225.0,90464.0,24912.0,19733.0,4695.0,1230.0
489477,County,2020/06/02,29.0,MO,29095.0,Jackson County,176783.0,523524.0,2156567.0,627781.0,490803.0,225368.0,308645.0,358292.0,89997.0,25815.0,23227.0,4797.0,1842.0
494238,County,2020/06/03,29.0,MO,29095.0,Jackson County,163194.0,537113.0,2323655.0,665800.0,522366.0,243849.0,342621.0,393023.0,99151.0,27581.0,23004.0,4786.0,1474.0
497420,County,2020/06/04,29.0,MO,29095.0,Jackson County,162475.0,537832.0,2188744.0,613843.0,488860.0,235572.0,322808.0,372172.0,98075.0,27427.0,22783.0,5559.0,1645.0
500584,County,2020/06/05,29.0,MO,29095.0,Jackson County,160517.0,539790.0,2285388.0,649412.0,504135.0,241766.0,331550.0,384271.0,105043.0,34167.0,28198.0,5095.0,1751.0
503785,County,2020/06/06,29.0,MO,29095.0,Jackson County,182075.0,518232.0,2095474.0,602045.0,500134.0,236482.0,317571.0,314814.0,75735.0,23814.0,18951.0,4260.0,1668.0
505399,County,2020/06/07,29.0,MO,29095.0,Jackson County,179580.0,520727.0,2053789.0,594708.0,531273.0,226420.0,304059.0,276486.0,65468.0,25054.0,23939.0,3882.0,2500.0
510195,County,2020/06/08,29.0,MO,29095.0,Jackson County,161083.0,539224.0,2319086.0,636714.0,533152.0,253320.0,352802.0,395888.0,98960.0,23455.0,19578.0,3694.0,1523.0
513351,County,2020/06/09,29.0,MO,29095.0,Jackson County,172203.0,528104.0,2161573.0,632661.0,484601.0,232137.0,300860.0,362562.0,97372.0,26362.0,18493.0,4944.0,1581.0
516605,County,2020/06/10,29.0,MO,29095.0,Jackson County,168917.0,531390.0,2225895.0,626710.0,513257.0,232548.0,325803.0,379627.0,94319.0,26662.0,20357.0,4498.0,2114.0
519713,County,2020/06/11,29.0,MO,29095.0,Jackson County,162042.0,538265.0,2318808.0,655867.0,525054.0,245329.0,339648.0,394850.0,105724.0,24592.0,21502.0,4170.0,2072.0
522985,County,2020/06/12,29.0,MO,29095.0,Jackson County,161174.0,539133.0,2324081.0,655906.0,528030.0,253798.0,341590.0,379975.0,100538.0,32064.0,25608.0,4089.0,2483.0
526172,County,2020/06/13,29.0,MO,29095.0,Jackson County,170191.0,530116.0,2342128.0,680555.0,549994.0,267794.0,352909.0,347446.0,87241.0,27859.0,22138.0,3724.0,2468.0
529327,County,2020/06/14,29.0,MO,29095.0,Jackson County,183685.0,516622.0,1955355.0,561835.0,466776.0,220372.0,297143.0,276552.0,71753.0,27484.0,26004.0,4884.0,2552.0
530956,County,2020/06/15,29.0,MO,29095.0,Jackson County,175458.0,524849.0,2121980.0,612608.0,482225.0,226158.0,309327.0,344887.0,91793.0,26001.0,22229.0,4370.0,2382.0
535737,County,2020/06/16,29.0,MO,29095.0,Jackson County,175077.0,525230.0,2285755.0,653964.0,520861.0,245626.0,332404.0,378633.0,97272.0,27773.0,23266.0,4444.0,1512.0
538905,County,2020/06/17,29.0,MO,29095.0,Jackson County,166823.0,533484.0,2345348.0,691372.0,531320.0,233778.0,333479.0,392292.0,103006.0,29885.0,23810.0,4738.0,1668.0
542100,County,2020/06/18,29.0,MO,29095.0,Jackson County,165376.0,534931.0,2283853.0,669669.0,502157.0,237229.0,331672.0,383561.0,101057.0,28256.0,23441.0,5015.0,1796.0
543727,County,2020/06/19,29.0,MO,29095.0,Jackson County,164434.0,535873.0,2173431.0,592022.0,484926.0,235790.0,319772.0,369475.0,107992.0,31702.0,25610.0,4572.0,1570.0
546932,County,2020/06/20,29.0,MO,29095.0,Jackson County,180059.0,520248.0,2175148.0,635021.0,513955.0,244550.0,330201.0,311335.0,85169.0,27862.0,21167.0,4309.0,1579.0
550136,County,2020/06/21,29.0,MO,29095.0,Jackson County,194400.0,505907.0,1904293.0,579420.0,441129.0,200835.0,280832.0,268518.0,74157.0,28185.0,25310.0,4760.0,1147.0
554916,County,2020/06/22,29.0,MO,29095.0,Jackson County,179010.0,521297.0,2006829.0,563073.0,429384.0,209130.0,306932.0,348478.0,96615.0,25384.0,21315.0,4313.0,2205.0
558071,County,2020/06/23,29.0,MO,29095.0,Jackson County,168580.0,531727.0,2178204.0,618054.0,476974.0,226439.0,326784.0,373271.0,99438.0,26073.0,23952.0,4927.0,2292.0
559703,County,2020/06/24,29.0,MO,29095.0,Jackson County,179305.0,521002.0,2032784.0,568742.0,445400.0,214449.0,294296.0,357605.0,95896.0,25819.0,23309.0,5257.0,2011.0
564439,County,2020/06/25,29.0,MO,29095.0,Jackson County,173439.0,526868.0,2145672.0,611289.0,480125.0,221983.0,310705.0,368629.0,94805.0,25283.0,25698.0,5326.0,1829.0
567736,County,2020/06/26,29.0,MO,29095.0,Jackson County,173650.0,526657.0,2122953.0,601997.0,469811.0,221096.0,313132.0,355848.0,98789.0,28104.0,26313.0,5636.0,2227.0
569267,County,2020/06/27,29.0,MO,29095.0,Jackson County,182894.0,517413.0,2067378.0,582383.0,490836.0,226507.0,322305.0,311415.0,79237.0,25304.0,23057.0,4604.0,1730.0
572475,County,2020/06/28,29.0,MO,29095.0,Jackson County,191672.0,508635.0,1853470.0,521475.0,435012.0,205577.0,282322.0,278824.0,71058.0,25092.0,25126.0,6495.0,2489.0
577248,County,2020/06/29,29.0,MO,29095.0,Jackson County,188266.0,512041.0,1979175.0,558718.0,438159.0,213280.0,292766.0,339507.0,87197.0,21986.0,19181.0,5669.0,2712.0
578890,County,2020/06/30,29.0,MO,29095.0,Jackson County,180485.0,519822.0,1961943.0,562238.0,419046.0,207716.0,289191.0,338853.0,88866.0,23913.0,21773.0,6090.0,4257.0
583642,County,2020/07/01,29.0,MO,29095.0,Jackson County,174282.0,526025.0,1937502.0,542178.0,425359.0,208197.0,287073.0,334738.0,87277.0,23217.0,20270.0,5073.0,4120.0
586831,County,2020/07/02,29.0,MO,29095.0,Jackson County,181211.0,519096.0,2277422.0,648824.0,509606.0,235614.0,329783.0,391264.0,100626.0,26835.0,27276.0,5653.0,1941.0
590032,County,2020/07/03,29.0,MO,29095.0,Jackson County,188894.0,511413.0,2110991.0,598605.0,467164.0,219850.0,311368.0,353843.0,98232.0,27946.0,26165.0,5604.0,2214.0
591676,County,2020/07/04,29.0,MO,29095.0,Jackson County,204073.0,496234.0,1806005.0,512121.0,399670.0,188087.0,266383.0,302721.0,84040.0,23908.0,22385.0,4795.0,1895.0
596422,County,2020/07/05,29.0,MO,29095.0,Jackson County,191678.0,508629.0,1706396.0,480489.0,387445.0,196871.0,249685.0,253306.0,66597.0,31602.0,29254.0,7077.0,4070.0
598727,County,2020/07/06,29.0,MO,29095.0,Jackson County,186993.0,513314.0,1820973.0,483298.0,400961.0,204097.0,281413.0,320506.0,79328.0,21635.0,20781.0,4895.0,4059.0
603214,County,2020/07/07,29.0,MO,29095.0,Jackson County,182174.0,518133.0,1918354.0,534552.0,408879.0,209440.0,288729.0,341999.0,85670.0,20518.0,18283.0,6449.0,3835.0
605880,County,2020/07/08,29.0,MO,29095.0,Jackson County,179629.0,520678.0,1911268.0,509731.0,415078.0,212653.0,288329.0,344649.0,87200.0,22255.0,20349.0,7205.0,3819.0
609183,County,2020/07/09,29.0,MO,29095.0,Jackson County,175180.0,525127.0,1924865.0,530025.0,416578.0,211390.0,284712.0,343877.0,86886.0,21014.0,20590.0,6691.0,3102.0
610806,County,2020/07/10,29.0,MO,29095.0,Jackson County,172353.0,527954.0,2036507.0,552612.0,447671.0,218020.0,304715.0,360563.0,92639.0,27204.0,24316.0,5653.0,3114.0
614017,County,2020/07/11,29.0,MO,29095.0,Jackson County,186238.0,514069.0,1916368.0,530377.0,437202.0,218260.0,284969.0,307839.0,82203.0,26232.0,21547.0,4671.0,3068.0
618790,County,2020/07/12,29.0,MO,29095.0,Jackson County,196019.0,504288.0,1753830.0,503518.0,408940.0,198556.0,256188.0,266282.0,65223.0,22516.0,24693.0,5078.0,2836.0
620378,County,2020/07/13,29.0,MO,29095.0,Jackson County,180714.0,519593.0,1853504.0,502073.0,399712.0,205807.0,276096.0,335296.0,85655.0,21992.0,18677.0,4952.0,3244.0
623578,County,2020/07/14,29.0,MO,29095.0,Jackson County,183284.0,517023.0,1906138.0,521718.0,417671.0,206543.0,285584.0,337620.0,90147.0,22377.0,18188.0,3942.0,2348.0
626700,County,2020/07/15,29.0,MO,29095.0,Jackson County,182682.0,517625.0,1855835.0,488543.0,406388.0,204313.0,281904.0,335384.0,90058.0,23961.0,18674.0,4249.0,2361.0
629941,County,2020/07/16,29.0,MO,29095.0,Jackson County,183412.0,516895.0,2025637.0,552331.0,453711.0,210669.0,299922.0,358500.0,94943.0,25447.0,23289.0,4775.0,2050.0
634676,County,2020/07/17,29.0,MO,29095.0,Jackson County,183097.0,517210.0,1986634.0,529777.0,456448.0,210677.0,292925.0,347921.0,89917.0,28916.0,22922.0,4740.0,2391.0
637928,County,2020/07/18,29.0,MO,29095.0,Jackson County,199778.0,500529.0,1957603.0,551324.0,470337.0,220269.0,287389.0,300855.0,75533.0,24858.0,19898.0,4643.0,2497.0
641130,County,2020/07/19,29.0,MO,29095.0,Jackson County,213330.0,486977.0,1678537.0,464806.0,399986.0,191417.0,252372.0,252940.0,62295.0,24205.0,22983.0,5174.0,2359.0
644339,County,2020/07/20,29.0,MO,29095.0,Jackson County,202438.0,497869.0,1822726.0,474990.0,407048.0,200110.0,275483.0,333299.0,82692.0,24331.0,18821.0,4036.0,1916.0
645967,County,2020/07/21,29.0,MO,29095.0,Jackson County,191856.0,508451.0,1839807.0,471402.0,410580.0,205716.0,286271.0,338262.0,79998.0,21369.0,19539.0,4281.0,2389.0
650696,County,2020/07/22,29.0,MO,29095.0,Jackson County,184625.0,515682.0,1947717.0,508309.0,423749.0,211123.0,301791.0,365404.0,89198.0,23364.0,18215.0,4308.0,2256.0
653890,County,2020/07/23,29.0,MO,29095.0,Jackson County,188543.0,511764.0,1873149.0,499515.0,403588.0,194570.0,284314.0,354250.0,84666.0,24112.0,21657.0,4002.0,2475.0
657164,County,2020/07/24,29.0,MO,29095.0,Jackson County,181411.0,518896.0,2013766.0,525190.0,437829.0,225038.0,307827.0,366313.0,93573.0,27048.0,23672.0,4770.0,2506.0
660381,County,2020/07/25,29.0,MO,29095.0,Jackson County,194642.0,505665.0,1870163.0,504328.0,439702.0,207663.0,290892.0,300725.0,75725.0,25135.0,19753.0,3928.0,2312.0
661905,County,2020/07/26,29.0,MO,29095.0,Jackson County,201326.0,498981.0,1781207.0,477472.0,403810.0,209352.0,274951.0,280998.0,76589.0,25164.0,25008.0,4782.0,3081.0
665201,County,2020/07/27,29.0,MO,29095.0,Jackson County,200433.0,499874.0,1816489.0,476376.0,400767.0,198400.0,287965.0,327624.0,78206.0,21357.0,18614.0,4226.0,2954.0
668314,County,2020/07/28,29.0,MO,29095.0,Jackson County,189439.0,510868.0,1939265.0,512476.0,413640.0,207134.0,298100.0,363382.0,94045.0,23409.0,19032.0,5139.0,2908.0
671520,County,2020/07/29,29.0,MO,29095.0,Jackson County,194474.0,505833.0,1814416.0,465602.0,385718.0,198423.0,278421.0,345946.0,89578.0,22116.0,19812.0,5614.0,3186.0
674681,County,2020/07/30,29.0,MO,29095.0,Jackson County,184428.0,515879.0,1847000.0,460782.0,399907.0,201022.0,282773.0,353225.0,92138.0,24798.0,22486.0,6069.0,3800.0
677882,County,2020/07/31,29.0,MO,29095.0,Jackson County,189589.0,510718.0,1885279.0,496071.0,414993.0,206520.0,284361.0,336663.0,87040.0,24527.0,24714.0,6111.0,4279.0
682629,County,2020/08/01,29.0,MO,29095.0,Jackson County,202410.0,497897.0,1812202.0,484469.0,415915.0,214708.0,282672.0,287344.0,71408.0,23128.0,23025.0,5230.0,4303.0
685869,County,2020/08/02,29.0,MO,29095.0,Jackson County,202769.0,497538.0,1750046.0,479344.0,401877.0,196588.0,262616.0,276259.0,67490.0,27686.0,27679.0,6789.0,3718.0
687459,County,2020/08/03,29.0,MO,29095.0,Jackson County,188287.0,512020.0,1982012.0,545029.0,436574.0,213955.0,293406.0,356196.0,82882.0,23741.0,20994.0,5760.0,3475.0
692234,County,2020/08/04,29.0,MO,29095.0,Jackson County,178099.0,522208.0,2180761.0,618087.0,506557.0,233233.0,310252.0,363680.0,95346.0,25607.0,21202.0,4406.0,2391.0
693863,County,2020/08/05,29.0,MO,29095.0,Jackson County,183135.0,517172.0,2074894.0,567819.0,460664.0,218035.0,300527.0,378792.0,94504.0,26613.0,20704.0,4740.0,2496.0
697069,County,2020/08/06,29.0,MO,29095.0,Jackson County,179527.0,520780.0,2085046.0,573291.0,472221.0,215793.0,309795.0,362023.0,94387.0,27221.0,22866.0,4875.0,2574.0
701801,County,2020/08/07,29.0,MO,29095.0,Jackson County,177325.0,522982.0,2023877.0,530698.0,446662.0,212757.0,300253.0,370839.0,96428.0,32406.0,26023.0,5163.0,2648.0
703430,County,2020/08/08,29.0,MO,29095.0,Jackson County,189579.0,510728.0,1877970.0,469378.0,460039.0,210541.0,295855.0,305196.0,82074.0,26550.0,21050.0,4644.0,2643.0
706621,County,2020/08/09,29.0,MO,29095.0,Jackson County,202804.0,497503.0,1748929.0,439938.0,426490.0,191850.0,272450.0,283238.0,67298.0,27613.0,31223.0,5841.0,2988.0
711430,County,2020/08/10,29.0,MO,29095.0,Jackson County,188252.0,512055.0,1929682.0,462518.0,433081.0,207103.0,296552.0,376561.0,99936.0,25686.0,20143.0,5442.0,2660.0
714671,County,2020/08/11,29.0,MO,29095.0,Jackson County,188410.0,511897.0,2075717.0,535530.0,475950.0,222702.0,304061.0,375353.0,106445.0,27791.0,20094.0,5181.0,2610.0
716204,County,2020/08/12,29.0,MO,29095.0,Jackson County,179071.0,521236.0,1961178.0,496155.0,440297.0,212053.0,294607.0,365566.0,97385.0,24284.0,20173.0,5207.0,5451.0
720964,County,2020/08/13,29.0,MO,29095.0,Jackson County,168964.0,531343.0,1964244.0,454202.0,451255.0,212630.0,308625.0,381792.0,94758.0,25734.0,22744.0,6243.0,6261.0
724190,County,2020/08/14,29.0,MO,29095.0,Jackson County,165575.0,534732.0,2041037.0,474248.0,456416.0,225954.0,316575.0,393311.0,100602.0,30111.0,31054.0,6248.0,6518.0
727401,County,2020/08/15,29.0,MO,29095.0,Jackson County,177233.0,523074.0,1925721.0,451272.0,454966.0,225768.0,314933.0,326442.0,86787.0,26838.0,26568.0,5754.0,6393.0
728980,County,2020/08/16,29.0,MO,29095.0,Jackson County,199224.0,501083.0,1730359.0,396978.0,402408.0,197578.0,279276.0,303789.0,75965.0,25808.0,33903.0,6708.0,7946.0
733761,County,2020/08/17,29.0,MO,29095.0,Jackson County,196193.0,504114.0,1875572.0,432062.0,409679.0,213728.0,296377.0,365341.0,96294.0,21946.0,24522.0,6450.0,9173.0
736933,County,2020/08/18,29.0,MO,29095.0,Jackson County,188232.0,512075.0,1760498.0,387501.0,386191.0,192191.0,286825.0,354085.0,89135.0,24447.0,23698.0,6933.0,9492.0
738594,County,2020/08/19,29.0,MO,29095.0,Jackson County,183574.0,516733.0,1880578.0,430908.0,408045.0,204812.0,299224.0,376800.0,98672.0,24874.0,22770.0,5801.0,8672.0
741756,County,2020/08/20,29.0,MO,29095.0,Jackson County,174617.0,525690.0,1883604.0,434353.0,418951.0,203708.0,293051.0,374612.0,96391.0,23744.0,23159.0,6741.0,8894.0
744955,County,2020/08/21,29.0,MO,29095.0,Jackson County,166315.0,533992.0,2041171.0,453784.0,467083.0,222629.0,331740.0,393754.0,100495.0,28386.0,28678.0,6881.0,7741.0
749737,County,2020/08/22,29.0,MO,29095.0,Jackson County,182531.0,517776.0,1944624.0,454537.0,458730.0,223030.0,323312.0,337643.0,85518.0,23652.0,24056.0,6456.0,7690.0
751353,County,2020/08/23,29.0,MO,29095.0,Jackson County,208108.0,492199.0,1542504.0,361708.0,372593.0,174510.0,249190.0,260841.0,64616.0,20683.0,26108.0,5932.0,6323.0
754576,County,2020/08/24,29.0,MO,29095.0,Jackson County,205691.0,494616.0,1697649.0,432389.0,383200.0,176011.0,260982.0,316065.0,81014.0,17728.0,19017.0,4917.0,6326.0
757726,County,2020/08/25,29.0,MO,29095.0,Jackson County,193123.0,507184.0,1751285.0,390840.0,406091.0,193787.0,281176.0,342796.0,85258.0,20454.0,20109.0,5035.0,5739.0
760920,County,2020/08/26,29.0,MO,29095.0,Jackson County,197268.0,503039.0,1713627.0,378706.0,383106.0,192413.0,282314.0,341240.0,87124.0,19981.0,19688.0,4775.0,4280.0
765693,County,2020/08/27,29.0,MO,29095.0,Jackson County,197842.0,502465.0,1791379.0,404237.0,418490.0,193509.0,279306.0,357413.0,88637.0,20789.0,20671.0,5008.0,3319.0
767333,County,2020/08/28,29.0,MO,29095.0,Jackson County,194175.0,506132.0,1883328.0,425016.0,430573.0,204369.0,297316.0,373224.0,92386.0,26332.0,25456.0,5213.0,3443.0
770536,County,2020/08/29,29.0,MO,29095.0,Jackson County,202255.0,498052.0,1783138.0,421659.0,432923.0,203536.0,292618.0,298233.0,77299.0,25270.0,23330.0,4501.0,3769.0
773744,County,2020/08/30,29.0,MO,29095.0,Jackson County,217750.0,482557.0,1594189.0,358290.0,379975.0,181914.0,265145.0,280376.0,68227.0,24058.0,26686.0,5197.0,4321.0
778468,County,2020/08/31,29.0,MO,29095.0,Jackson County,198888.0,501419.0,1657542.0,384810.0,372279.0,175608.0,250333.0,335539.0,85747.0,22284.0,21969.0,4545.0,4428.0
780079,County,2020/09/01,29.0,MO,29095.0,Jackson County,194851.0,505456.0,1862693.0,433876.0,425843.0,206045.0,296177.0,362939.0,84689.0,23935.0,21549.0,4403.0,3237.0
783273,County,2020/09/02,29.0,MO,29095.0,Jackson County,194806.0,505501.0,1874450.0,429917.0,434756.0,199768.0,300506.0,365464.0,90989.0,24783.0,19213.0,5577.0,3477.0
788061,County,2020/09/03,29.0,MO,29095.0,Jackson County,182147.0,518160.0,1996370.0,469519.0,463218.0,222594.0,310013.0,378569.0,95321.0,24715.0,22793.0,5685.0,3943.0
791252,County,2020/09/04,29.0,MO,29095.0,Jackson County,195365.0,504942.0,1870336.0,416863.0,431749.0,205903.0,288947.0,362215.0,92075.0,29861.0,33273.0,5841.0,3609.0
794441,County,2020/09/05,29.0,MO,29095.0,Jackson County,198262.0,502045.0,1890966.0,448234.0,453884.0,217190.0,302329.0,325431.0,80835.0,28422.0,26581.0,5161.0,2899.0
796046,County,2020/09/06,29.0,MO,29095.0,Jackson County,214699.0,485608.0,1612819.0,395611.0,390064.0,174268.0,257872.0,267869.0,70575.0,25510.0,22049.0,5126.0,3875.0
799255,County,2020/09/07,29.0,MO,29095.0,Jackson County,222777.0,477530.0,1530351.0,370591.0,368243.0,164798.0,235559.0,253607.0,64317.0,28170.0,34071.0,6389.0,4606.0
802468,County,2020/09/08,29.0,MO,29095.0,Jackson County,204274.0,496033.0,1821195.0,409325.0,422765.0,198928.0,290683.0,358634.0,89309.0,20745.0,21465.0,5741.0,3600.0
805636,County,2020/09/09,29.0,MO,29095.0,Jackson County,199685.0,500622.0,1867190.0,423726.0,423977.0,204805.0,290139.0,370867.0,98696.0,23122.0,22538.0,5913.0,3407.0
810404,County,2020/09/10,29.0,MO,29095.0,Jackson County,203966.0,496341.0,1760818.0,407174.0,396712.0,190350.0,280639.0,345203.0,87888.0,22642.0,20940.0,5898.0,3372.0
812033,County,2020/09/11,29.0,MO,29095.0,Jackson County,193976.0,506331.0,1943984.0,446240.0,447199.0,209691.0,308042.0,378063.0,90989.0,27004.0,26973.0,5986.0,3797.0
815218,County,2020/09/12,29.0,MO,29095.0,Jackson County,210887.0,489420.0,1818163.0,435291.0,426453.0,210585.0,294883.0,315389.0,84615.0,21673.0,21091.0,4990.0,3193.0
820015,County,2020/09/13,29.0,MO,29095.0,Jackson County,215891.0,484416.0,1553207.0,334364.0,377636.0,173572.0,257361.0,286836.0,70019.0,24314.0,21009.0,4592.0,3504.0
823172,County,2020/09/14,29.0,MO,29095.0,Jackson County,203717.0,496590.0,1886196.0,429333.0,435581.0,210514.0,296880.0,366885.0,94279.0,23279.0,20718.0,5337.0,3390.0
824800,County,2020/09/15,29.0,MO,29095.0,Jackson County,201643.0,498664.0,1885900.0,417972.0,432898.0,205297.0,298770.0,378936.0,97943.0,22673.0,22419.0,5647.0,3345.0
829607,County,2020/09/16,29.0,MO,29095.0,Jackson County,200729.0,499578.0,1868038.0,396942.0,431826.0,206747.0,302578.0,379381.0,97622.0,23044.0,21601.0,4977.0,3320.0
832784,County,2020/09/17,29.0,MO,29095.0,Jackson County,199294.0,501013.0,1964211.0,465189.0,445197.0,215304.0,305965.0,377540.0,96806.0,25430.0,23331.0,5799.0,3650.0
834413,County,2020/09/18,29.0,MO,29095.0,Jackson County,194782.0,505525.0,2036734.0,453974.0,479843.0,227666.0,322983.0,391651.0,99054.0,24149.0,28696.0,5231.0,3487.0
837576,County,2020/09/19,29.0,MO,29095.0,Jackson County,202773.0,497534.0,2026023.0,486171.0,483977.0,235451.0,319377.0,346281.0,95222.0,26261.0,24575.0,5320.0,3388.0
842351,County,2020/09/20,29.0,MO,29095.0,Jackson County,212094.0,488213.0,1625109.0,391617.0,404674.0,182876.0,265011.0,262770.0,63727.0,21031.0,25185.0,5480.0,2738.0
843979,County,2020/09/21,29.0,MO,29095.0,Jackson County,218203.0,482104.0,1703719.0,400455.0,398382.0,186104.0,269618.0,319024.0,87170.0,20482.0,16609.0,3541.0,2334.0
847183,County,2020/09/22,29.0,MO,29095.0,Jackson County,194373.0,505934.0,1860661.0,437622.0,433068.0,198682.0,294031.0,356688.0,93905.0,23678.0,17110.0,4215.0,1662.0
851961,County,2020/09/23,29.0,MO,29095.0,Jackson County,182311.0,517996.0,1952444.0,453184.0,458883.0,218753.0,307885.0,370680.0,96223.0,24579.0,16840.0,3719.0,1698.0
855117,County,2020/09/24,29.0,MO,29095.0,Jackson County,184711.0,515596.0,1975000.0,468677.0,466590.0,217298.0,309436.0,371286.0,95121.0,23556.0,16407.0,4645.0,1984.0
856746,County,2020/09/25,29.0,MO,29095.0,Jackson County,178351.0,521956.0,2107199.0,519624.0,485384.0,225449.0,326305.0,394906.0,99265.0,27538.0,22646.0,4493.0,1589.0
861499,County,2020/09/26,29.0,MO,29095.0,Jackson County,193819.0,506488.0,2021844.0,484017.0,507324.0,232502.0,319617.0,339340.0,86580.0,26767.0,20510.0,3672.0,1515.0
863153,County,2020/09/27,29.0,MO,29095.0,Jackson County,211043.0,489264.0,1658155.0,395211.0,425184.0,193994.0,255992.0,262450.0,64561.0,27787.0,25695.0,5200.0,2081.0
866357,County,2020/09/28,29.0,MO,29095.0,Jackson County,193599.0,506708.0,1867394.0,428953.0,447220.0,202039.0,291474.0,360812.0,91360.0,24461.0,16436.0,3484.0,1155.0
869515,County,2020/09/29,29.0,MO,29095.0,Jackson County,194462.0,505845.0,1881251.0,411448.0,436135.0,214283.0,302706.0,381084.0,93862.0,23920.0,13565.0,3360.0,888.0
874294,County,2020/09/30,29.0,MO,29095.0,Jackson County,195601.0,504706.0,1878437.0,387835.0,441523.0,209360.0,306565.0,391058.0,100273.0,22830.0,15124.0,2881.0,988.0
875922,County,2020/10/01,29.0,MO,29095.0,Jackson County,187323.0,512984.0,1910126.0,423718.0,442722.0,221555.0,304417.0,373790.0,97528.0,25911.0,15922.0,3246.0,1317.0
879125,County,2020/10/02,29.0,MO,29095.0,Jackson County,192773.0,507534.0,1886283.0,421179.0,446436.0,209400.0,306672.0,361071.0,93780.0,24779.0,18173.0,3746.0,1047.0
883858,County,2020/10/03,29.0,MO,29095.0,Jackson County,203655.0,496652.0,1823724.0,416095.0,439595.0,211409.0,307195.0,324044.0,81549.0,23682.0,15931.0,3108.0,1116.0
886200,County,2020/10/04,29.0,MO,29095.0,Jackson County,217919.0,482388.0,1592040.0,365977.0,387615.0,186361.0,263048.0,267599.0,73635.0,23012.0,20144.0,3608.0,1041.0
889446,County,2020/10/05,29.0,MO,29095.0,Jackson County,220132.0,480175.0,1644477.0,355792.0,380740.0,178271.0,266592.0,342605.0,82720.0,20507.0,13911.0,2432.0,907.0
892623,County,2020/10/06,29.0,MO,29095.0,Jackson County,200038.0,500269.0,1781148.0,398790.0,409318.0,198735.0,288204.0,358689.0,88626.0,20050.0,14830.0,2989.0,917.0
895826,County,2020/10/07,29.0,MO,29095.0,Jackson County,194824.0,505483.0,1848485.0,407257.0,417510.0,212844.0,305866.0,379418.0,87974.0,20014.0,13260.0,3356.0,986.0
898995,County,2020/10/08,29.0,MO,29095.0,Jackson County,197997.0,502310.0,1713521.0,368584.0,387401.0,194964.0,275540.0,361555.0,88400.0,18414.0,14703.0,2873.0,1087.0
902236,County,2020/10/09,29.0,MO,29095.0,Jackson County,200515.0,499792.0,1780435.0,373001.0,406707.0,203521.0,301591.0,359616.0,88288.0,25487.0,17811.0,3304.0,1109.0
905378,County,2020/10/10,29.0,MO,29095.0,Jackson County,211321.0,488986.0,1776317.0,385228.0,428413.0,205375.0,303955.0,325515.0,82610.0,25316.0,15964.0,2992.0,949.0
908838,County,2020/10/11,29.0,MO,29095.0,Jackson County,218620.0,481687.0,1493515.0,337766.0,361498.0,165615.0,245163.0,270775.0,62631.0,22712.0,22288.0,4176.0,891.0
912209,County,2020/10/12,29.0,MO,29095.0,Jackson County,206186.0,494121.0,1702038.0,396458.0,389530.0,190733.0,272795.0,325158.0,83445.0,21840.0,17402.0,3881.0,796.0
915040,County,2020/10/13,29.0,MO,29095.0,Jackson County,195822.0,504485.0,1787655.0,432622.0,400222.0,193801.0,279671.0,351911.0,85515.0,20166.0,18138.0,4521.0,1088.0
918719,County,2020/10/14,29.0,MO,29095.0,Jackson County,189616.0,510691.0,1784766.0,401106.0,404858.0,197693.0,283570.0,363018.0,89968.0,21067.0,17361.0,4792.0,1333.0
921247,County,2020/10/15,29.0,MO,29095.0,Jackson County,200697.0,499610.0,1609364.0,340122.0,371028.0,179562.0,263302.0,329430.0,81420.0,21135.0,16758.0,5322.0,1285.0
924636,County,2020/10/16,29.0,MO,29095.0,Jackson County,185829.0,514478.0,1800738.0,401328.0,414975.0,198734.0,296229.0,347888.0,89918.0,26683.0,18605.0,5093.0,1285.0
927922,County,2020/10/17,29.0,MO,29095.0,Jackson County,202940.0,497367.0,1763967.0,409052.0,421600.0,206434.0,291748.0,309277.0,79131.0,21760.0,19018.0,4833.0,1114.0
930866,County,2020/10/18,29.0,MO,29095.0,Jackson County,213646.0,486661.0,1520231.0,353705.0,365881.0,175796.0,257174.0,256456.0,62673.0,19709.0,22924.0,4807.0,1106.0
934383,County,2020/10/19,29.0,MO,29095.0,Jackson County,201684.0,498623.0,1718173.0,391738.0,400634.0,183322.0,278535.0,337848.0,84844.0,20537.0,15325.0,4242.0,1148.0
937680,County,2020/10/20,29.0,MO,29095.0,Jackson County,202940.0,497367.0,1728059.0,381830.0,399566.0,189154.0,275258.0,351911.0,90368.0,21051.0,14711.0,3159.0,1051.0
940690,County,2020/10/21,29.0,MO,29095.0,Jackson County,210555.0,489752.0,1655961.0,360023.0,380060.0,177663.0,269674.0,338332.0,86322.0,22806.0,16095.0,3858.0,1128.0
943810,County,2020/10/22,29.0,MO,29095.0,Jackson County,194335.0,505972.0,1877388.0,430880.0,433522.0,209502.0,293333.0,369994.0,94405.0,23824.0,17062.0,3835.0,1031.0
947484,County,2020/10/23,29.0,MO,29095.0,Jackson County,188023.0,512284.0,1969419.0,438383.0,461249.0,232517.0,316501.0,371308.0,94933.0,28492.0,21265.0,3677.0,1094.0
948871,County,2020/10/24,29.0,MO,29095.0,Jackson County,199718.0,500589.0,1946024.0,451822.0,463921.0,229931.0,325961.0,344502.0,82585.0,23929.0,19226.0,3319.0,828.0
