,Level,Date,State FIPS,State Postal Code,County FIPS,County Name,Population Staying at Home,Population Not Staying at Home,Number of Trips,Number of Trips <1,Number of Trips 1-3,Number of Trips 3-5,Number of Trips 5-10,Number of Trips 10-25,Number of Trips 25-50,Number of Trips 50-100,Number of Trips 100-250,Number of Trips 250-500,Number of Trips >=500
1136,County,2020/01/01,22.0,LA,22047.0,Iberville Parish,6857.0,25864.0,89066.0,14971.0,17776.0,13272.0,16820.0,18583.0,5449.0,1686.0,413.0,71.0,25.0
3376,County,2020/01/02,22.0,LA,22047.0,Iberville Parish,6013.0,26708.0,117277.0,24438.0,24972.0,14474.0,17589.0,26810.0,6084.0,2184.0,628.0,79.0,19.0
7483,County,2020/01/03,22.0,LA,22047.0,Iberville Parish,5468.0,27253.0,113198.0,24351.0,25298.0,11877.0,18145.0,24573.0,6607.0,1591.0,684.0,47.0,25.0
12145,County,2020/01/04,22.0,LA,22047.0,Iberville Parish,6415.0,26306.0,112340.0,25636.0,25499.0,12325.0,17173.0,23427.0,5735.0,1789.0,682.0,50.0,24.0
13912,County,2020/01/05,22.0,LA,22047.0,Iberville Parish,6934.0,25787.0,96196.0,21186.0,22578.0,10971.0,14542.0,19673.0,4610.0,1791.0,757.0,71.0,17.0
16469,County,2020/01/06,22.0,LA,22047.0,Iberville Parish,6013.0,26708.0,121282.0,28791.0,24769.0,12974.0,16974.0,27809.0,6998.0,2525.0,354.0,76.0,12.0
19723,County,2020/01/07,22.0,LA,22047.0,Iberville Parish,5531.0,27190.0,118624.0,28991.0,25446.0,13068.0,17347.0,24706.0,6286.0,1968.0,708.0,95.0,9.0
24571,County,2020/01/08,22.0,LA,22047.0,Iberville Parish,5368.0,27353.0,112928.0,23084.0,26729.0,9821.0,16189.0,26887.0,6408.0,2851.0,854.0,71.0,34.0
27702,County,2020/01/09,22.0,LA,22047.0,Iberville Parish,5629.0,27092.0,121225.0,29022.0,27162.0,11650.0,16123.0,27912.0,5815.0,2740.0,716.0,66.0,19.0
30909,County,2020/01/10,22.0,LA,22047.0,Iberville Parish,5483.0,27238.0,131232.0,30781.0,28199.0,14798.0,17377.0,29179.0,8006.0,2114.0,703.0,65.0,10.0
32537,County,2020/01/11,22.0,LA,22047.0,Iberville Parish,6307.0,26414.0,107557.0,22861.0,26688.0,13948.0,16136.0,20215.0,4718.0,2287.0,609.0,86.0,9.0
35693,County,2020/01/12,22.0,LA,22047.0,Iberville Parish,7073.0,25648.0,98513.0,20928.0,23438.0,12953.0,14071.0,20179.0,4606.0,1435.0,756.0,125.0,22.0
38936,County,2020/01/13,22.0,LA,22047.0,Iberville Parish,5586.0,27135.0,109233.0,23260.0,25886.0,9895.0,16397.0,24876.0,5891.0,2403.0,547.0,66.0,12.0
43669,County,2020/01/14,22.0,LA,22047.0,Iberville Parish,5964.0,26757.0,110513.0,25453.0,25125.0,11123.0,16009.0,23754.0,5432.0,2823.0,701.0,72.0,21.0
46875,County,2020/01/15,22.0,LA,22047.0,Iberville Parish,5892.0,26829.0,124192.0,30037.0,25568.0,12816.0,18957.0,26625.0,7784.0,1733.0,566.0,93.0,13.0
48402,County,2020/01/16,22.0,LA,22047.0,Iberville Parish,5498.0,27223.0,123603.0,24953.0,30272.0,14195.0,18199.0,25894.0,7016.0,2398.0,572.0,90.0,14.0
51659,County,2020/01/17,22.0,LA,22047.0,Iberville Parish,5498.0,27223.0,131972.0,28978.0,28817.0,14659.0,19073.0,29951.0,7100.0,2488.0,813.0,85.0,8.0
56439,County,2020/01/18,22.0,LA,22047.0,Iberville Parish,6090.0,26631.0,118630.0,24925.0,26503.0,15389.0,18749.0,25248.0,5409.0,1719.0,601.0,76.0,11.0
58038,County,2020/01/19,22.0,LA,22047.0,Iberville Parish,6874.0,25847.0,106892.0,25055.0,23219.0,11648.0,14859.0,22710.0,6205.0,2339.0,809.0,41.0,7.0
61271,County,2020/01/20,22.0,LA,22047.0,Iberville Parish,6142.0,26579.0,108709.0,26450.0,23234.0,11863.0,16142.0,21261.0,6806.0,2303.0,554.0,68.0,28.0
64428,County,2020/01/21,22.0,LA,22047.0,Iberville Parish,6026.0,26695.0,118867.0,25880.0,26238.0,13986.0,16468.0,25791.0,7620.0,2200.0,586.0,78.0,20.0
69190,County,2020/01/22,22.0,LA,22047.0,Iberville Parish,5382.0,27339.0,115087.0,24775.0,23964.0,12580.0,17832.0,26420.0,6359.0,2165.0,859.0,100.0,33.0
72422,County,2020/01/23,22.0,LA,22047.0,Iberville Parish,5569.0,27152.0,114786.0,22996.0,26414.0,12330.0,16434.0,27743.0,6076.0,2024.0,650.0,100.0,19.0
75577,County,2020/01/24,22.0,LA,22047.0,Iberville Parish,5241.0,27480.0,131162.0,29617.0,29786.0,13919.0,18358.0,30273.0,6285.0,2020.0,744.0,132.0,28.0
78812,County,2020/01/25,22.0,LA,22047.0,Iberville Parish,5856.0,26865.0,113277.0,24500.0,24328.0,13632.0,17126.0,25549.0,5766.0,1747.0,507.0,87.0,35.0
80986,County,2020/01/26,22.0,LA,22047.0,Iberville Parish,6689.0,26032.0,95966.0,17439.0,20340.0,13998.0,16072.0,19640.0,5604.0,2256.0,482.0,120.0,15.0
85127,County,2020/01/27,22.0,LA,22047.0,Iberville Parish,5566.0,27155.0,119817.0,26203.0,26130.0,15728.0,17186.0,24879.0,6110.0,2857.0,607.0,88.0,29.0
88932,County,2020/01/28,22.0,LA,22047.0,Iberville Parish,5554.0,27167.0,119976.0,25511.0,27034.0,13252.0,17909.0,26437.0,6725.0,1923.0,1051.0,87.0,47.0
91582,County,2020/01/29,22.0,LA,22047.0,Iberville Parish,5939.0,26782.0,123906.0,31709.0,26091.0,13426.0,15547.0,26785.0,7782.0,2088.0,376.0,85.0,17.0
93308,County,2020/01/30,22.0,LA,22047.0,Iberville Parish,5732.0,26989.0,121387.0,26577.0,26144.0,11603.0,18992.0,27527.0,7394.0,2291.0,670.0,165.0,24.0
96363,County,2020/01/31,22.0,LA,22047.0,Iberville Parish,5698.0,27023.0,126983.0,24939.0,29093.0,14056.0,21293.0,27069.0,7765.0,1929.0,652.0,153.0,34.0
99612,County,2020/02/01,22.0,LA,22047.0,Iberville Parish,5923.0,26798.0,118230.0,25089.0,26409.0,11705.0,19524.0,25387.0,6497.0,2574.0,841.0,181.0,23.0
104323,County,2020/02/02,22.0,LA,22047.0,Iberville Parish,6654.0,26067.0,111416.0,24085.0,26433.0,12229.0,18549.0,21805.0,5517.0,1739.0,889.0,119.0,51.0
107575,County,2020/02/03,22.0,LA,22047.0,Iberville Parish,5235.0,27486.0,127325.0,27263.0,29786.0,14632.0,18818.0,27148.0,6969.0,1997.0,522.0,162.0,28.0
109192,County,2020/02/04,22.0,LA,22047.0,Iberville Parish,5299.0,27422.0,126228.0,29009.0,28952.0,15048.0,19545.0,24796.0,6707.0,1499.0,480.0,159.0,33.0
112338,County,2020/02/05,22.0,LA,22047.0,Iberville Parish,5465.0,27256.0,122890.0,27538.0,28191.0,14682.0,18022.0,25696.0,6260.0,1894.0,438.0,128.0,41.0
117121,County,2020/02/06,22.0,LA,22047.0,Iberville Parish,5347.0,27374.0,128545.0,28091.0,31226.0,15080.0,19738.0,25231.0,6150.0,2084.0,805.0,112.0,28.0
120375,County,2020/02/07,22.0,LA,22047.0,Iberville Parish,4984.0,27737.0,142105.0,31134.0,30552.0,17112.0,22249.0,30710.0,7034.0,2273.0,895.0,118.0,28.0
123535,County,2020/02/08,22.0,LA,22047.0,Iberville Parish,5624.0,27097.0,121048.0,23983.0,28962.0,14806.0,19826.0,23661.0,6363.0,2488.0,793.0,147.0,19.0
125149,County,2020/02/09,22.0,LA,22047.0,Iberville Parish,6788.0,25933.0,110388.0,24190.0,27607.0,12340.0,16989.0,20512.0,5563.0,2225.0,820.0,119.0,23.0
129445,County,2020/02/10,22.0,LA,22047.0,Iberville Parish,4995.0,27726.0,138452.0,30332.0,32775.0,14963.0,21580.0,28633.0,7325.0,2159.0,513.0,136.0,36.0
131993,County,2020/02/11,22.0,LA,22047.0,Iberville Parish,5120.0,27601.0,142582.0,31802.0,33281.0,16874.0,21513.0,29630.0,6533.0,1976.0,767.0,167.0,39.0
136233,County,2020/02/12,22.0,LA,22047.0,Iberville Parish,5354.0,27367.0,137194.0,31303.0,32401.0,14836.0,21453.0,27119.0,7393.0,1959.0,505.0,176.0,49.0
137928,County,2020/02/13,22.0,LA,22047.0,Iberville Parish,4995.0,27726.0,136381.0,31335.0,32782.0,14822.0,19775.0,27318.0,6824.0,2499.0,798.0,180.0,48.0
142658,County,2020/02/14,22.0,LA,22047.0,Iberville Parish,5078.0,27643.0,150707.0,32055.0,33638.0,18338.0,23605.0,31115.0,8118.0,2752.0,869.0,152.0,65.0
144282,County,2020/02/15,22.0,LA,22047.0,Iberville Parish,5860.0,26861.0,131377.0,26314.0,29545.0,16360.0,24513.0,25733.0,6420.0,1670.0,698.0,94.0,30.0
149066,County,2020/02/16,22.0,LA,22047.0,Iberville Parish,6393.0,26328.0,111875.0,21982.0,24571.0,14732.0,19555.0,21530.0,5525.0,2789.0,1017.0,142.0,32.0
150694,County,2020/02/17,22.0,LA,22047.0,Iberville Parish,6927.0,25794.0,106230.0,22742.0,23639.0,14132.0,16659.0,21544.0,5067.0,1666.0,619.0,133.0,29.0
153908,County,2020/02/18,22.0,LA,22047.0,Iberville Parish,5408.0,27313.0,129722.0,29466.0,27589.0,14652.0,20171.0,27168.0,7548.0,2372.0,575.0,149.0,32.0
158620,County,2020/02/19,22.0,LA,22047.0,Iberville Parish,5271.0,27450.0,134705.0,32403.0,31540.0,14026.0,20200.0,27154.0,6236.0,2403.0,546.0,142.0,55.0
161816,County,2020/02/20,22.0,LA,22047.0,Iberville Parish,5294.0,27427.0,124885.0,25571.0,27736.0,15420.0,20853.0,26292.0,6168.0,2092.0,521.0,164.0,68.0
163442,County,2020/02/21,22.0,LA,22047.0,Iberville Parish,5506.0,27215.0,139072.0,27636.0,32540.0,15952.0,22496.0,30440.0,6786.0,2680.0,341.0,156.0,45.0
166636,County,2020/02/22,22.0,LA,22047.0,Iberville Parish,5027.0,27694.0,132996.0,30428.0,31525.0,16912.0,20165.0,23458.0,7452.0,2561.0,349.0,112.0,34.0
171402,County,2020/02/23,22.0,LA,22047.0,Iberville Parish,6400.0,26321.0,119701.0,24922.0,30307.0,15199.0,17793.0,22138.0,5765.0,2926.0,534.0,87.0,30.0
173028,County,2020/02/24,22.0,LA,22047.0,Iberville Parish,6128.0,26593.0,123551.0,27172.0,27480.0,13486.0,19349.0,25552.0,7870.0,1915.0,638.0,63.0,26.0
177002,County,2020/02/25,22.0,LA,22047.0,Iberville Parish,5194.0,27527.0,134527.0,31795.0,31159.0,19807.0,16666.0,24529.0,7619.0,2233.0,596.0,103.0,20.0
180000,County,2020/02/26,22.0,LA,22047.0,Iberville Parish,5009.0,27712.0,137283.0,25392.0,34791.0,15849.0,21601.0,31067.0,5733.0,1974.0,676.0,159.0,41.0
184167,County,2020/02/27,22.0,LA,22047.0,Iberville Parish,5378.0,27343.0,131737.0,30369.0,27788.0,16790.0,22124.0,25145.0,6557.0,2210.0,612.0,118.0,24.0
185894,County,2020/02/28,22.0,LA,22047.0,Iberville Parish,5360.0,27361.0,145081.0,28879.0,35511.0,20141.0,21169.0,29323.0,6812.0,2167.0,944.0,113.0,22.0
188995,County,2020/02/29,22.0,LA,22047.0,Iberville Parish,5647.0,27074.0,131972.0,29476.0,30677.0,17056.0,20958.0,23902.0,7266.0,1960.0,524.0,110.0,43.0
193779,County,2020/03/01,22.0,LA,22047.0,Iberville Parish,6250.0,26471.0,116090.0,26621.0,26631.0,15391.0,17074.0,22087.0,5019.0,2365.0,773.0,96.0,33.0
195408,County,2020/03/02,22.0,LA,22047.0,Iberville Parish,5193.0,27528.0,132152.0,29381.0,32015.0,17118.0,19217.0,24417.0,6915.0,1984.0,965.0,93.0,47.0
200093,County,2020/03/03,22.0,LA,22047.0,Iberville Parish,5017.0,27704.0,138021.0,36280.0,28294.0,16736.0,19011.0,26552.0,7193.0,2575.0,1252.0,105.0,23.0
203348,County,2020/03/04,22.0,LA,22047.0,Iberville Parish,4673.0,28048.0,133279.0,29730.0,32391.0,16806.0,17093.0,27595.0,6009.0,2561.0,966.0,110.0,18.0
204913,County,2020/03/05,22.0,LA,22047.0,Iberville Parish,4690.0,28031.0,145494.0,32933.0,35434.0,19655.0,19081.0,27910.0,6533.0,3066.0,751.0,105.0,26.0
208081,County,2020/03/06,22.0,LA,22047.0,Iberville Parish,4752.0,27969.0,157303.0,30976.0,38560.0,21512.0,22301.0,32935.0,6995.0,2667.0,1238.0,106.0,13.0
211382,County,2020/03/07,22.0,LA,22047.0,Iberville Parish,4919.0,27802.0,127860.0,24076.0,29169.0,20016.0,18302.0,24078.0,8331.0,2918.0,829.0,114.0,27.0
214548,County,2020/03/08,22.0,LA,22047.0,Iberville Parish,5781.0,26940.0,119695.0,22438.0,31829.0,17948.0,17595.0,21379.0,4956.0,2491.0,899.0,125.0,35.0
217750,County,2020/03/09,22.0,LA,22047.0,Iberville Parish,5159.0,27562.0,137682.0,30038.0,31416.0,18367.0,19345.0,28164.0,6854.0,2476.0,914.0,91.0,17.0
222549,County,2020/03/10,22.0,LA,22047.0,Iberville Parish,5001.0,27720.0,132970.0,28644.0,31098.0,18730.0,18855.0,24670.0,8034.0,1582.0,1284.0,56.0,17.0
225779,County,2020/03/11,22.0,LA,22047.0,Iberville Parish,4476.0,28245.0,159623.0,31641.0,43280.0,23958.0,19009.0,30504.0,6046.0,3451.0,1530.0,139.0,65.0
228869,County,2020/03/12,22.0,LA,22047.0,Iberville Parish,4763.0,27958.0,173097.0,36323.0,39779.0,26832.0,23035.0,34456.0,8221.0,3240.0,920.0,238.0,53.0
230517,County,2020/03/13,22.0,LA,22047.0,Iberville Parish,4988.0,27733.0,153726.0,31309.0,40382.0,19815.0,23109.0,27814.0,6623.0,3632.0,890.0,135.0,17.0
233716,County,2020/03/14,22.0,LA,22047.0,Iberville Parish,5822.0,26899.0,153829.0,35007.0,34330.0,23289.0,18852.0,31940.0,5332.0,4342.0,630.0,55.0,52.0
238470,County,2020/03/15,22.0,LA,22047.0,Iberville Parish,6696.0,26025.0,112349.0,24088.0,29187.0,15053.0,15711.0,18340.0,6437.0,2392.0,1027.0,85.0,29.0
241713,County,2020/03/16,22.0,LA,22047.0,Iberville Parish,6142.0,26579.0,137034.0,29100.0,32372.0,18367.0,19513.0,27445.0,7016.0,2357.0,713.0,117.0,34.0
243329,County,2020/03/17,22.0,LA,22047.0,Iberville Parish,6443.0,26278.0,121831.0,26058.0,27919.0,17129.0,14940.0,25432.0,6900.0,2656.0,687.0,93.0,17.0
246484,County,2020/03/18,22.0,LA,22047.0,Iberville Parish,6874.0,25847.0,131375.0,30304.0,33159.0,14972.0,17602.0,25685.0,6166.0,2476.0,829.0,156.0,26.0
249690,County,2020/03/19,22.0,LA,22047.0,Iberville Parish,7149.0,25572.0,130575.0,30525.0,29725.0,15210.0,20402.0,24464.0,6986.0,2165.0,1032.0,40.0,26.0
252924,County,2020/03/20,22.0,LA,22047.0,Iberville Parish,7031.0,25690.0,120236.0,23770.0,25916.0,15723.0,21547.0,24003.0,6276.0,2223.0,708.0,64.0,6.0
256067,County,2020/03/21,22.0,LA,22047.0,Iberville Parish,8056.0,24665.0,109444.0,22263.0,28548.0,12134.0,18344.0,21154.0,4237.0,1767.0,888.0,84.0,25.0
259254,County,2020/03/22,22.0,LA,22047.0,Iberville Parish,7259.0,25462.0,91280.0,17659.0,22958.0,12524.0,12918.0,17187.0,5041.0,2061.0,800.0,94.0,38.0
264033,County,2020/03/23,22.0,LA,22047.0,Iberville Parish,6435.0,26286.0,108132.0,26772.0,25852.0,13216.0,14318.0,20962.0,4200.0,1966.0,749.0,74.0,23.0
265659,County,2020/03/24,22.0,LA,22047.0,Iberville Parish,6800.0,25921.0,107929.0,25897.0,27926.0,13149.0,13990.0,18355.0,5629.0,2093.0,722.0,131.0,37.0
268893,County,2020/03/25,22.0,LA,22047.0,Iberville Parish,6816.0,25905.0,100533.0,21270.0,23831.0,14092.0,14047.0,18987.0,5475.0,1760.0,952.0,96.0,23.0
273633,County,2020/03/26,22.0,LA,22047.0,Iberville Parish,7086.0,25635.0,101726.0,22995.0,22267.0,14255.0,14071.0,20097.0,5221.0,1937.0,776.0,84.0,23.0
276800,County,2020/03/27,22.0,LA,22047.0,Iberville Parish,6457.0,26264.0,95710.0,19984.0,23873.0,11855.0,14498.0,19177.0,4001.0,1450.0,796.0,39.0,37.0
278427,County,2020/03/28,22.0,LA,22047.0,Iberville Parish,7160.0,25561.0,97471.0,19418.0,24711.0,16116.0,14603.0,17020.0,3402.0,1527.0,559.0,82.0,33.0
283187,County,2020/03/29,22.0,LA,22047.0,Iberville Parish,7800.0,24921.0,91339.0,24573.0,19472.0,12743.0,16476.0,12832.0,3704.0,1187.0,228.0,94.0,30.0
286413,County,2020/03/30,22.0,LA,22047.0,Iberville Parish,6797.0,25924.0,99939.0,23983.0,24846.0,12820.0,14121.0,16682.0,4999.0,1885.0,493.0,73.0,37.0
289617,County,2020/03/31,22.0,LA,22047.0,Iberville Parish,6711.0,26010.0,95362.0,16283.0,24866.0,11702.0,17857.0,17078.0,5557.0,1102.0,828.0,74.0,15.0
291246,County,2020/04/01,22.0,LA,22047.0,Iberville Parish,6783.0,25938.0,106128.0,25177.0,25655.0,11919.0,15990.0,19381.0,5468.0,1708.0,693.0,93.0,44.0
295978,County,2020/04/02,22.0,LA,22047.0,Iberville Parish,6669.0,26052.0,106051.0,24365.0,24376.0,11732.0,16051.0,20650.0,5882.0,2274.0,594.0,115.0,12.0
297639,County,2020/04/03,22.0,LA,22047.0,Iberville Parish,6849.0,25872.0,102961.0,16344.0,26694.0,14964.0,15790.0,22184.0,4923.0,1556.0,430.0,47.0,29.0
302385,County,2020/04/04,22.0,LA,22047.0,Iberville Parish,7399.0,25322.0,96359.0,20151.0,24019.0,12416.0,16291.0,16911.0,4064.0,1760.0,681.0,59.0,7.0
304013,County,2020/04/05,22.0,LA,22047.0,Iberville Parish,7449.0,25272.0,89693.0,16959.0,25356.0,9923.0,14466.0,16887.0,3962.0,1389.0,635.0,94.0,22.0
308739,County,2020/04/06,22.0,LA,22047.0,Iberville Parish,6785.0,25936.0,112069.0,29249.0,27712.0,12411.0,15782.0,20382.0,4235.0,1368.0,851.0,51.0,28.0
311978,County,2020/04/07,22.0,LA,22047.0,Iberville Parish,6981.0,25740.0,114966.0,27816.0,30578.0,11701.0,15947.0,19253.0,6856.0,1922.0,779.0,89.0,25.0
315151,County,2020/04/08,22.0,LA,22047.0,Iberville Parish,6625.0,26096.0,110571.0,27520.0,26599.0,14539.0,15480.0,17420.0,6392.0,1915.0,604.0,74.0,28.0
316778,County,2020/04/09,22.0,LA,22047.0,Iberville Parish,6818.0,25903.0,99074.0,23505.0,24558.0,11742.0,13420.0,16669.0,5966.0,1894.0,1237.0,80.0,3.0
320005,County,2020/04/10,22.0,LA,22047.0,Iberville Parish,6973.0,25748.0,107192.0,23319.0,29024.0,13925.0,14064.0,20321.0,4524.0,1377.0,514.0,89.0,35.0
324760,County,2020/04/11,22.0,LA,22047.0,Iberville Parish,7193.0,25528.0,110506.0,23481.0,26181.0,15538.0,18322.0,20219.0,3982.0,1893.0,810.0,66.0,14.0
326334,County,2020/04/12,22.0,LA,22047.0,Iberville Parish,8114.0,24607.0,85004.0,20480.0,23267.0,10700.0,11857.0,12221.0,3618.0,1859.0,891.0,91.0,20.0
329600,County,2020/04/13,22.0,LA,22047.0,Iberville Parish,7228.0,25493.0,116333.0,24889.0,26641.0,12665.0,18624.0,25302.0,5614.0,1735.0,770.0,78.0,15.0
332724,County,2020/04/14,22.0,LA,22047.0,Iberville Parish,6842.0,25879.0,110735.0,24821.0,25999.0,15721.0,13837.0,20833.0,6544.0,1644.0,1172.0,100.0,64.0
335950,County,2020/04/15,22.0,LA,22047.0,Iberville Parish,6700.0,26021.0,99412.0,27518.0,27411.0,10332.0,9640.0,15659.0,6118.0,2083.0,486.0,101.0,64.0
340668,County,2020/04/16,22.0,LA,22047.0,Iberville Parish,6720.0,26001.0,116814.0,29147.0,37084.0,15880.0,11674.0,17474.0,3281.0,1892.0,286.0,49.0,47.0
342403,County,2020/04/17,22.0,LA,22047.0,Iberville Parish,6416.0,26305.0,121501.0,24629.0,29526.0,20029.0,15573.0,24191.0,5686.0,1383.0,361.0,108.0,15.0
345509,County,2020/04/18,22.0,LA,22047.0,Iberville Parish,6958.0,25763.0,117103.0,24538.0,38840.0,13480.0,12996.0,20950.0,4146.0,1359.0,710.0,77.0,7.0
350260,County,2020/04/19,22.0,LA,22047.0,Iberville Parish,6862.0,25859.0,102288.0,19447.0,31618.0,15509.0,9953.0,18209.0,5760.0,869.0,811.0,112.0,0.0
353510,County,2020/04/20,22.0,LA,22047.0,Iberville Parish,6248.0,26473.0,118663.0,32342.0,27980.0,15798.0,16545.0,19512.0,4526.0,1301.0,531.0,110.0,18.0
356696,County,2020/04/21,22.0,LA,22047.0,Iberville Parish,6646.0,26075.0,122096.0,29677.0,29164.0,16078.0,18034.0,20087.0,6255.0,1993.0,738.0,52.0,18.0
358325,County,2020/04/22,22.0,LA,22047.0,Iberville Parish,6498.0,26223.0,107597.0,24700.0,26450.0,13777.0,15641.0,18765.0,5705.0,1843.0,602.0,104.0,10.0
363057,County,2020/04/23,22.0,LA,22047.0,Iberville Parish,6436.0,26285.0,107647.0,21843.0,28072.0,13284.0,16544.0,19942.0,5180.0,1984.0,729.0,56.0,13.0
364684,County,2020/04/24,22.0,LA,22047.0,Iberville Parish,6086.0,26635.0,126816.0,23790.0,33529.0,18737.0,18587.0,24619.0,4492.0,2214.0,766.0,51.0,31.0
367852,County,2020/04/25,22.0,LA,22047.0,Iberville Parish,6118.0,26603.0,112069.0,22207.0,27645.0,14115.0,17620.0,21576.0,6147.0,2023.0,682.0,51.0,3.0
372620,County,2020/04/26,22.0,LA,22047.0,Iberville Parish,6772.0,25949.0,108395.0,22096.0,27759.0,14055.0,17585.0,18830.0,6156.0,1303.0,479.0,119.0,13.0
375851,County,2020/04/27,22.0,LA,22047.0,Iberville Parish,6310.0,26411.0,115379.0,26058.0,29735.0,15378.0,16047.0,19351.0,6403.0,1564.0,755.0,84.0,4.0
379022,County,2020/04/28,22.0,LA,22047.0,Iberville Parish,5885.0,26836.0,111967.0,22707.0,29059.0,14317.0,16467.0,21747.0,6012.0,1193.0,351.0,101.0,13.0
382226,County,2020/04/29,22.0,LA,22047.0,Iberville Parish,6379.0,26342.0,107654.0,21818.0,30379.0,12696.0,16580.0,17958.0,5768.0,1615.0,771.0,56.0,13.0
383845,County,2020/04/30,22.0,LA,22047.0,Iberville Parish,6203.0,26518.0,124849.0,28658.0,28148.0,18094.0,19696.0,22232.0,5287.0,1824.0,839.0,53.0,18.0
387069,County,2020/05/01,22.0,LA,22047.0,Iberville Parish,5442.0,27279.0,131664.0,29018.0,32221.0,15160.0,20977.0,25341.0,6098.0,2072.0,719.0,51.0,7.0
391781,County,2020/05/02,22.0,LA,22047.0,Iberville Parish,6047.0,26674.0,116918.0,24031.0,26837.0,20281.0,16775.0,20419.0,5481.0,2392.0,568.0,122.0,12.0
394976,County,2020/05/03,22.0,LA,22047.0,Iberville Parish,6915.0,25806.0,112869.0,22045.0,28860.0,17380.0,18191.0,17980.0,6033.0,1769.0,550.0,47.0,14.0
396627,County,2020/05/04,22.0,LA,22047.0,Iberville Parish,6146.0,26575.0,127967.0,29961.0,34529.0,15007.0,17769.0,22322.0,5614.0,2290.0,363.0,101.0,11.0
401395,County,2020/05/05,22.0,LA,22047.0,Iberville Parish,6213.0,26508.0,126144.0,29049.0,32595.0,16170.0,18314.0,20643.0,6554.0,2118.0,629.0,72.0,0.0
404601,County,2020/05/06,22.0,LA,22047.0,Iberville Parish,5931.0,26790.0,127762.0,31870.0,33073.0,13495.0,18653.0,21939.0,6432.0,1637.0,535.0,71.0,57.0
407696,County,2020/05/07,22.0,LA,22047.0,Iberville Parish,5908.0,26813.0,121881.0,31396.0,27108.0,14586.0,17294.0,22340.0,6907.0,1470.0,640.0,117.0,23.0
409484,County,2020/05/08,22.0,LA,22047.0,Iberville Parish,5922.0,26799.0,113846.0,22319.0,31201.0,15055.0,16161.0,20231.0,5633.0,2492.0,666.0,64.0,24.0
412538,County,2020/05/09,22.0,LA,22047.0,Iberville Parish,6102.0,26619.0,114602.0,23737.0,31970.0,15418.0,16125.0,21102.0,3831.0,1788.0,539.0,77.0,15.0
417336,County,2020/05/10,22.0,LA,22047.0,Iberville Parish,6408.0,26313.0,101048.0,22943.0,26071.0,13352.0,13428.0,18868.0,3687.0,2121.0,430.0,132.0,16.0
420614,County,2020/05/11,22.0,LA,22047.0,Iberville Parish,4942.0,27779.0,123700.0,27538.0,30667.0,18023.0,16216.0,21640.0,6472.0,2340.0,700.0,85.0,19.0
422194,County,2020/05/12,22.0,LA,22047.0,Iberville Parish,4711.0,28010.0,147991.0,36864.0,33082.0,19707.0,21061.0,25924.0,7986.0,2301.0,952.0,104.0,10.0
426867,County,2020/05/13,22.0,LA,22047.0,Iberville Parish,5099.0,27622.0,132621.0,35236.0,32062.0,16606.0,15399.0,23620.0,6467.0,2112.0,1003.0,104.0,12.0
428593,County,2020/05/14,22.0,LA,22047.0,Iberville Parish,4720.0,28001.0,117131.0,27467.0,27975.0,13971.0,13936.0,23474.0,6834.0,2508.0,853.0,93.0,20.0
431788,County,2020/05/15,22.0,LA,22047.0,Iberville Parish,5121.0,27600.0,126238.0,25194.0,32825.0,16396.0,18440.0,23759.0,6016.0,2383.0,1105.0,91.0,29.0
435011,County,2020/05/16,22.0,LA,22047.0,Iberville Parish,5563.0,27158.0,117001.0,22171.0,31250.0,17528.0,17474.0,20228.0,5337.0,2187.0,714.0,79.0,33.0
438164,County,2020/05/17,22.0,LA,22047.0,Iberville Parish,5281.0,27440.0,113958.0,24190.0,29136.0,15748.0,14936.0,19654.0,6595.0,2791.0,855.0,39.0,14.0
442936,County,2020/05/18,22.0,LA,22047.0,Iberville Parish,4597.0,28124.0,141452.0,33849.0,36838.0,17838.0,20290.0,22830.0,6515.0,2081.0,1142.0,56.0,13.0
446099,County,2020/05/19,22.0,LA,22047.0,Iberville Parish,4724.0,27997.0,138403.0,32669.0,33867.0,18402.0,17515.0,26076.0,6788.0,2079.0,940.0,63.0,4.0
447731,County,2020/05/20,22.0,LA,22047.0,Iberville Parish,4487.0,28234.0,140684.0,35779.0,31843.0,19184.0,19296.0,22524.0,8448.0,2532.0,953.0,121.0,4.0
452165,County,2020/05/21,22.0,LA,22047.0,Iberville Parish,4582.0,28139.0,145296.0,33260.0,33156.0,21226.0,22724.0,23422.0,8623.0,2304.0,484.0,93.0,4.0
454089,County,2020/05/22,22.0,LA,22047.0,Iberville Parish,4183.0,28538.0,143073.0,32113.0,34328.0,22845.0,19550.0,23369.0,7277.0,2241.0,1212.0,130.0,8.0
458872,County,2020/05/23,22.0,LA,22047.0,Iberville Parish,5017.0,27704.0,114731.0,19498.0,32372.0,17120.0,16674.0,20600.0,4939.0,2271.0,1187.0,51.0,19.0
460501,County,2020/05/24,22.0,LA,22047.0,Iberville Parish,5819.0,26902.0,114673.0,27537.0,27347.0,13987.0,17722.0,19610.0,5195.0,2263.0,910.0,88.0,14.0
463704,County,2020/05/25,22.0,LA,22047.0,Iberville Parish,5782.0,26939.0,112654.0,22669.0,28083.0,15811.0,16498.0,20750.0,5148.0,2354.0,1214.0,116.0,11.0
468535,County,2020/05/26,22.0,LA,22047.0,Iberville Parish,5016.0,27705.0,121584.0,28545.0,25814.0,14495.0,17680.0,24791.0,7118.0,2147.0,882.0,90.0,22.0
471677,County,2020/05/27,22.0,LA,22047.0,Iberville Parish,5219.0,27502.0,130339.0,29975.0,29595.0,17373.0,17621.0,26549.0,5831.0,2342.0,918.0,118.0,17.0
474777,County,2020/05/28,22.0,LA,22047.0,Iberville Parish,4778.0,27943.0,126163.0,28795.0,27630.0,14727.0,19520.0,25203.0,7267.0,1873.0,1016.0,107.0,25.0
476455,County,2020/05/29,22.0,LA,22047.0,Iberville Parish,5784.0,26937.0,128679.0,29345.0,28187.0,18479.0,19051.0,24937.0,5551.0,2134.0,885.0,92.0,18.0
479642,County,2020/05/30,22.0,LA,22047.0,Iberville Parish,5714.0,27007.0,119774.0,25270.0,30183.0,18441.0,15824.0,19561.0,7027.0,2697.0,661.0,97.0,13.0
482770,County,2020/05/31,22.0,LA,22047.0,Iberville Parish,5561.0,27160.0,109189.0,22194.0,23837.0,17387.0,16035.0,21075.0,5317.0,2331.0,914.0,89.0,10.0
487710,County,2020/06/01,22.0,LA,22047.0,Iberville Parish,4751.0,27970.0,116843.0,26021.0,27714.0,14589.0,17776.0,22071.0,5532.0,2451.0,621.0,62.0,6.0
489278,County,2020/06/02,22.0,LA,22047.0,Iberville Parish,5457.0,27264.0,125385.0,29577.0,26671.0,16225.0,16739.0,25877.0,6414.0,2673.0,1079.0,111.0,19.0
494040,County,2020/06/03,22.0,LA,22047.0,Iberville Parish,4456.0,28265.0,132617.0,32774.0,29720.0,14872.0,18300.0,26709.0,6704.0,2613.0,764.0,139.0,22.0
497221,County,2020/06/04,22.0,LA,22047.0,Iberville Parish,4742.0,27979.0,120956.0,25727.0,24938.0,12985.0,18095.0,27514.0,8064.0,2611.0,865.0,153.0,4.0
500385,County,2020/06/05,22.0,LA,22047.0,Iberville Parish,4651.0,28070.0,124467.0,27139.0,26931.0,14013.0,19052.0,26256.0,6719.0,3032.0,1184.0,133.0,8.0
503586,County,2020/06/06,22.0,LA,22047.0,Iberville Parish,5829.0,26892.0,112447.0,24125.0,29334.0,12025.0,16343.0,21152.0,5444.0,2816.0,1091.0,107.0,10.0
505200,County,2020/06/07,22.0,LA,22047.0,Iberville Parish,6891.0,25830.0,99354.0,22762.0,29395.0,12411.0,10253.0,17387.0,3975.0,1824.0,1107.0,205.0,35.0
509996,County,2020/06/08,22.0,LA,22047.0,Iberville Parish,5007.0,27714.0,115645.0,24966.0,23854.0,17117.0,16346.0,23615.0,6268.0,2542.0,819.0,101.0,17.0
511625,County,2020/06/09,22.0,LA,22047.0,Iberville Parish,5320.0,27401.0,120658.0,28928.0,24375.0,15596.0,15893.0,25794.0,6883.0,2175.0,873.0,116.0,25.0
516406,County,2020/06/10,22.0,LA,22047.0,Iberville Parish,4872.0,27849.0,125664.0,30626.0,24968.0,15085.0,18251.0,26885.0,5903.0,2670.0,1187.0,79.0,10.0
519514,County,2020/06/11,22.0,LA,22047.0,Iberville Parish,4570.0,28151.0,134911.0,32717.0,30412.0,17956.0,19084.0,25263.0,5905.0,2482.0,978.0,94.0,20.0
522786,County,2020/06/12,22.0,LA,22047.0,Iberville Parish,4587.0,28134.0,136577.0,32825.0,29644.0,18818.0,18803.0,26878.0,5709.0,2704.0,1045.0,141.0,10.0
525973,County,2020/06/13,22.0,LA,22047.0,Iberville Parish,5410.0,27311.0,135114.0,32933.0,29261.0,17871.0,19645.0,26311.0,5473.0,2529.0,957.0,110.0,24.0
529128,County,2020/06/14,22.0,LA,22047.0,Iberville Parish,5608.0,27113.0,100479.0,21970.0,23503.0,13541.0,14485.0,17270.0,4959.0,3260.0,1335.0,137.0,19.0
530757,County,2020/06/15,22.0,LA,22047.0,Iberville Parish,5174.0,27547.0,116809.0,26375.0,26565.0,14021.0,17502.0,22697.0,6613.0,2277.0,667.0,71.0,21.0
535538,County,2020/06/16,22.0,LA,22047.0,Iberville Parish,4781.0,27940.0,123050.0,30043.0,24950.0,17126.0,17112.0,24897.0,5802.0,2187.0,791.0,123.0,19.0
538706,County,2020/06/17,22.0,LA,22047.0,Iberville Parish,4820.0,27901.0,123647.0,31149.0,25455.0,14105.0,18382.0,24790.0,6376.0,2101.0,1161.0,104.0,24.0
541901,County,2020/06/18,22.0,LA,22047.0,Iberville Parish,4615.0,28106.0,122275.0,29294.0,23176.0,16084.0,20241.0,23195.0,7051.0,1998.0,1133.0,89.0,14.0
543528,County,2020/06/19,22.0,LA,22047.0,Iberville Parish,5156.0,27565.0,113959.0,22442.0,25883.0,13110.0,16628.0,23264.0,8436.0,3015.0,1052.0,111.0,18.0
546733,County,2020/06/20,22.0,LA,22047.0,Iberville Parish,5853.0,26868.0,115762.0,23068.0,26316.0,16837.0,16779.0,23769.0,5970.0,1875.0,1072.0,63.0,13.0
549937,County,2020/06/21,22.0,LA,22047.0,Iberville Parish,6056.0,26665.0,95345.0,19226.0,20442.0,10952.0,14665.0,19938.0,6799.0,2278.0,945.0,79.0,21.0
554717,County,2020/06/22,22.0,LA,22047.0,Iberville Parish,5486.0,27235.0,108260.0,26725.0,23588.0,12958.0,14154.0,22008.0,6381.0,1657.0,708.0,61.0,20.0
557872,County,2020/06/23,22.0,LA,22047.0,Iberville Parish,5401.0,27320.0,113277.0,26797.0,22437.0,13775.0,16303.0,24742.0,6351.0,2018.0,760.0,81.0,13.0
559504,County,2020/06/24,22.0,LA,22047.0,Iberville Parish,5387.0,27334.0,103355.0,25053.0,20826.0,11643.0,12774.0,24213.0,6140.0,2087.0,533.0,70.0,16.0
564241,County,2020/06/25,22.0,LA,22047.0,Iberville Parish,5352.0,27369.0,117507.0,29564.0,24065.0,12377.0,16407.0,25115.0,6601.0,2454.0,824.0,73.0,27.0
565947,County,2020/06/26,22.0,LA,22047.0,Iberville Parish,5803.0,26918.0,119759.0,29636.0,24013.0,13432.0,16607.0,25116.0,7458.0,2553.0,870.0,58.0,16.0
569117,County,2020/06/27,22.0,LA,22047.0,Iberville Parish,5775.0,26946.0,118017.0,24621.0,25476.0,15128.0,16340.0,25538.0,7489.0,2308.0,1023.0,79.0,15.0
572276,County,2020/06/28,22.0,LA,22047.0,Iberville Parish,5746.0,26975.0,107138.0,24742.0,23695.0,14000.0,14671.0,20010.0,6801.0,2148.0,974.0,74.0,23.0
577049,County,2020/06/29,22.0,LA,22047.0,Iberville Parish,5665.0,27056.0,106807.0,24122.0,21243.0,12321.0,16241.0,21886.0,7582.0,2426.0,887.0,79.0,20.0
578691,County,2020/06/30,22.0,LA,22047.0,Iberville Parish,5338.0,27383.0,109019.0,22782.0,24583.0,13135.0,16365.0,21224.0,7564.0,2473.0,782.0,90.0,21.0
583443,County,2020/07/01,22.0,LA,22047.0,Iberville Parish,5385.0,27336.0,102469.0,21279.0,22476.0,13513.0,16510.0,20492.0,5431.0,2027.0,583.0,123.0,35.0
586632,County,2020/07/02,22.0,LA,22047.0,Iberville Parish,6044.0,26677.0,124722.0,31379.0,25543.0,13137.0,17414.0,26657.0,7006.0,2605.0,875.0,77.0,29.0
589835,County,2020/07/03,22.0,LA,22047.0,Iberville Parish,6413.0,26308.0,119085.0,29469.0,23878.0,13356.0,16513.0,24975.0,7416.0,2539.0,865.0,58.0,16.0
591477,County,2020/07/04,22.0,LA,22047.0,Iberville Parish,6565.0,26156.0,101880.0,25211.0,20428.0,11427.0,14128.0,21366.0,6345.0,2172.0,740.0,49.0,14.0
596223,County,2020/07/05,22.0,LA,22047.0,Iberville Parish,5954.0,26767.0,102577.0,27771.0,23145.0,12346.0,13336.0,17322.0,5103.0,2422.0,1055.0,59.0,18.0
598525,County,2020/07/06,22.0,LA,22047.0,Iberville Parish,6038.0,26683.0,97434.0,22284.0,18882.0,13638.0,12810.0,19378.0,6324.0,2781.0,1246.0,63.0,28.0
603015,County,2020/07/07,22.0,LA,22047.0,Iberville Parish,5762.0,26959.0,106905.0,24236.0,22518.0,12864.0,17203.0,20101.0,6290.0,2853.0,702.0,104.0,34.0
605730,County,2020/07/08,22.0,LA,22047.0,Iberville Parish,5775.0,26946.0,101949.0,20429.0,21056.0,13263.0,15953.0,21101.0,6624.0,2320.0,1028.0,146.0,29.0
608984,County,2020/07/09,22.0,LA,22047.0,Iberville Parish,5989.0,26732.0,114211.0,27804.0,20632.0,14265.0,17019.0,24011.0,7070.0,2479.0,810.0,79.0,42.0
610607,County,2020/07/10,22.0,LA,22047.0,Iberville Parish,5803.0,26918.0,104751.0,18409.0,22923.0,12879.0,18369.0,22677.0,6197.0,2315.0,837.0,107.0,38.0
615405,County,2020/07/11,22.0,LA,22047.0,Iberville Parish,6080.0,26641.0,100954.0,21096.0,23020.0,13072.0,16841.0,19605.0,4848.0,1731.0,628.0,59.0,54.0
618591,County,2020/07/12,22.0,LA,22047.0,Iberville Parish,6542.0,26179.0,91609.0,18905.0,18493.0,10100.0,17904.0,18789.0,4861.0,1527.0,898.0,86.0,46.0
621749,County,2020/07/13,22.0,LA,22047.0,Iberville Parish,5696.0,27025.0,103430.0,24565.0,20635.0,13415.0,13928.0,21367.0,6230.0,2348.0,847.0,73.0,22.0
623379,County,2020/07/14,22.0,LA,22047.0,Iberville Parish,6049.0,26672.0,111307.0,26642.0,23262.0,12665.0,14501.0,23981.0,7133.0,2449.0,571.0,84.0,19.0
626501,County,2020/07/15,22.0,LA,22047.0,Iberville Parish,5630.0,27091.0,107209.0,24192.0,23154.0,13742.0,13497.0,23297.0,6931.0,1580.0,715.0,68.0,33.0
631431,County,2020/07/16,22.0,LA,22047.0,Iberville Parish,5137.0,27584.0,110096.0,25249.0,22091.0,12880.0,17599.0,23233.0,6216.0,2036.0,728.0,52.0,12.0
632992,County,2020/07/17,22.0,LA,22047.0,Iberville Parish,5880.0,26841.0,115216.0,26167.0,22551.0,15885.0,19332.0,22899.0,4790.0,2654.0,853.0,69.0,16.0
637729,County,2020/07/18,22.0,LA,22047.0,Iberville Parish,6353.0,26368.0,110526.0,26286.0,20869.0,17310.0,17972.0,20291.0,4989.0,1724.0,922.0,129.0,34.0
640931,County,2020/07/19,22.0,LA,22047.0,Iberville Parish,6990.0,25731.0,97156.0,24173.0,18509.0,13905.0,14957.0,18357.0,4543.0,1475.0,1067.0,130.0,40.0
644140,County,2020/07/20,22.0,LA,22047.0,Iberville Parish,6066.0,26655.0,109159.0,23524.0,24635.0,16315.0,15158.0,20417.0,5999.0,2385.0,618.0,88.0,20.0
645768,County,2020/07/21,22.0,LA,22047.0,Iberville Parish,6158.0,26563.0,97564.0,20578.0,20024.0,13022.0,15039.0,20540.0,5396.0,2073.0,752.0,117.0,23.0
650497,County,2020/07/22,22.0,LA,22047.0,Iberville Parish,6319.0,26402.0,105842.0,22285.0,24557.0,14498.0,14768.0,21432.0,5390.0,1993.0,817.0,62.0,40.0
653691,County,2020/07/23,22.0,LA,22047.0,Iberville Parish,5734.0,26987.0,102477.0,22587.0,19612.0,13997.0,13943.0,23258.0,5556.0,2756.0,624.0,120.0,24.0
656965,County,2020/07/24,22.0,LA,22047.0,Iberville Parish,6095.0,26626.0,105372.0,22978.0,22279.0,13332.0,15104.0,21914.0,5908.0,2688.0,1079.0,65.0,25.0
660182,County,2020/07/25,22.0,LA,22047.0,Iberville Parish,7087.0,25634.0,98376.0,21242.0,23061.0,12070.0,14380.0,20437.0,4295.0,2208.0,577.0,72.0,34.0
661706,County,2020/07/26,22.0,LA,22047.0,Iberville Parish,7076.0,25645.0,102255.0,17764.0,25943.0,14656.0,15999.0,18854.0,5905.0,1859.0,1119.0,115.0,41.0
665002,County,2020/07/27,22.0,LA,22047.0,Iberville Parish,6578.0,26143.0,95161.0,16260.0,19602.0,12137.0,15859.0,22733.0,5184.0,2252.0,916.0,172.0,46.0
668115,County,2020/07/28,22.0,LA,22047.0,Iberville Parish,6149.0,26572.0,96826.0,18017.0,19459.0,11324.0,17144.0,21095.0,6225.0,2516.0,908.0,110.0,28.0
671321,County,2020/07/29,22.0,LA,22047.0,Iberville Parish,6475.0,26246.0,103072.0,20009.0,23677.0,12325.0,17181.0,20892.0,5342.0,2527.0,952.0,130.0,37.0
676032,County,2020/07/30,22.0,LA,22047.0,Iberville Parish,6021.0,26700.0,104706.0,18513.0,20764.0,12609.0,17244.0,25027.0,7210.0,2029.0,1176.0,95.0,39.0
677683,County,2020/07/31,22.0,LA,22047.0,Iberville Parish,6252.0,26469.0,99456.0,17891.0,20787.0,11812.0,14899.0,24007.0,6516.0,2456.0,925.0,118.0,45.0
682430,County,2020/08/01,22.0,LA,22047.0,Iberville Parish,6748.0,25973.0,86494.0,15866.0,18747.0,10605.0,13819.0,19955.0,4595.0,1880.0,873.0,111.0,43.0
685670,County,2020/08/02,22.0,LA,22047.0,Iberville Parish,6874.0,25847.0,99930.0,17770.0,23520.0,14375.0,13992.0,21316.0,4915.0,2766.0,1156.0,93.0,27.0
687260,County,2020/08/03,22.0,LA,22047.0,Iberville Parish,5812.0,26909.0,105547.0,19018.0,22940.0,12787.0,14839.0,26166.0,6507.0,2501.0,660.0,108.0,21.0
692035,County,2020/08/04,22.0,LA,22047.0,Iberville Parish,5483.0,27238.0,101402.0,17827.0,20807.0,11776.0,15809.0,25193.0,6230.0,2690.0,949.0,110.0,11.0
693664,County,2020/08/05,22.0,LA,22047.0,Iberville Parish,5885.0,26836.0,111292.0,23524.0,21886.0,13325.0,16062.0,25792.0,6875.0,2794.0,943.0,45.0,46.0
696870,County,2020/08/06,22.0,LA,22047.0,Iberville Parish,5711.0,27010.0,110487.0,23708.0,22058.0,14476.0,13734.0,26910.0,6106.0,2519.0,880.0,68.0,28.0
701602,County,2020/08/07,22.0,LA,22047.0,Iberville Parish,5388.0,27333.0,106281.0,19087.0,23842.0,12618.0,16838.0,23737.0,5923.0,2707.0,1414.0,76.0,39.0
703231,County,2020/08/08,22.0,LA,22047.0,Iberville Parish,6294.0,26427.0,97135.0,17551.0,23308.0,14158.0,14974.0,19212.0,5150.0,1784.0,857.0,118.0,23.0
708013,County,2020/08/09,22.0,LA,22047.0,Iberville Parish,7004.0,25717.0,94634.0,19898.0,22781.0,9984.0,14829.0,17686.0,5849.0,2149.0,1256.0,178.0,24.0
711231,County,2020/08/10,22.0,LA,22047.0,Iberville Parish,6003.0,26718.0,98007.0,21323.0,16537.0,11910.0,14318.0,24025.0,6431.0,2355.0,935.0,150.0,23.0
714472,County,2020/08/11,22.0,LA,22047.0,Iberville Parish,6247.0,26474.0,104205.0,19717.0,22917.0,12244.0,15416.0,24919.0,5680.0,2349.0,842.0,104.0,17.0
716005,County,2020/08/12,22.0,LA,22047.0,Iberville Parish,5671.0,27050.0,96561.0,22118.0,17834.0,10478.0,15030.0,21058.0,6299.0,2620.0,936.0,133.0,55.0
720765,County,2020/08/13,22.0,LA,22047.0,Iberville Parish,5575.0,27146.0,105437.0,19628.0,22644.0,11802.0,16604.0,23394.0,7085.0,2752.0,1348.0,109.0,71.0
723991,County,2020/08/14,22.0,LA,22047.0,Iberville Parish,5305.0,27416.0,104382.0,19542.0,22961.0,9781.0,15335.0,26238.0,6003.0,2910.0,1347.0,163.0,102.0
727202,County,2020/08/15,22.0,LA,22047.0,Iberville Parish,6123.0,26598.0,99753.0,17092.0,25175.0,12669.0,14204.0,21400.0,4910.0,2730.0,1361.0,120.0,92.0
728781,County,2020/08/16,22.0,LA,22047.0,Iberville Parish,6865.0,25856.0,96271.0,16250.0,21658.0,11221.0,14365.0,21465.0,7048.0,2438.0,1592.0,142.0,92.0
733562,County,2020/08/17,22.0,LA,22047.0,Iberville Parish,6202.0,26519.0,102569.0,18238.0,23816.0,11786.0,15507.0,24261.0,5895.0,1870.0,869.0,182.0,145.0
735189,County,2020/08/18,22.0,LA,22047.0,Iberville Parish,6411.0,26310.0,103875.0,21785.0,20891.0,13941.0,15826.0,21528.0,6524.0,2390.0,704.0,158.0,128.0
738395,County,2020/08/19,22.0,LA,22047.0,Iberville Parish,5644.0,27077.0,111768.0,25452.0,21005.0,11608.0,15554.0,26880.0,7485.0,2738.0,732.0,187.0,127.0
741557,County,2020/08/20,22.0,LA,22047.0,Iberville Parish,5357.0,27364.0,114789.0,26054.0,20806.0,13903.0,16052.0,27119.0,7346.0,2308.0,932.0,123.0,146.0
744756,County,2020/08/21,22.0,LA,22047.0,Iberville Parish,5283.0,27438.0,112643.0,23693.0,22452.0,12499.0,19435.0,23966.0,6135.0,3171.0,978.0,203.0,111.0
749538,County,2020/08/22,22.0,LA,22047.0,Iberville Parish,5865.0,26856.0,115328.0,23793.0,22054.0,13987.0,18840.0,25538.0,6848.0,3227.0,745.0,157.0,139.0
751154,County,2020/08/23,22.0,LA,22047.0,Iberville Parish,6783.0,25938.0,82658.0,14339.0,19905.0,11310.0,12790.0,16665.0,4283.0,2312.0,860.0,89.0,105.0
754378,County,2020/08/24,22.0,LA,22047.0,Iberville Parish,6959.0,25762.0,87393.0,20619.0,16674.0,10280.0,11687.0,19971.0,5403.0,1823.0,724.0,112.0,100.0
759138,County,2020/08/25,22.0,LA,22047.0,Iberville Parish,6580.0,26141.0,90416.0,19430.0,20037.0,10580.0,11899.0,19886.0,5871.0,2146.0,394.0,79.0,94.0
760721,County,2020/08/26,22.0,LA,22047.0,Iberville Parish,6646.0,26075.0,88242.0,19294.0,19747.0,8534.0,12189.0,20263.0,5660.0,1733.0,654.0,112.0,56.0
765494,County,2020/08/27,22.0,LA,22047.0,Iberville Parish,7413.0,25308.0,80403.0,15960.0,19841.0,9722.0,11812.0,16287.0,4113.0,1608.0,901.0,103.0,56.0
768709,County,2020/08/28,22.0,LA,22047.0,Iberville Parish,6372.0,26349.0,99228.0,19645.0,21926.0,12598.0,13550.0,22381.0,5615.0,2364.0,1037.0,76.0,36.0
770337,County,2020/08/29,22.0,LA,22047.0,Iberville Parish,6921.0,25800.0,92923.0,17891.0,22514.0,10698.0,13425.0,19257.0,5856.0,2377.0,804.0,62.0,39.0
775126,County,2020/08/30,22.0,LA,22047.0,Iberville Parish,7057.0,25664.0,91643.0,18903.0,18431.0,12516.0,13416.0,18985.0,5325.0,2437.0,1405.0,172.0,53.0
776687,County,2020/08/31,22.0,LA,22047.0,Iberville Parish,6225.0,26496.0,104526.0,23467.0,20363.0,12837.0,15256.0,21869.0,6941.0,2555.0,1023.0,177.0,38.0
779879,County,2020/09/01,22.0,LA,22047.0,Iberville Parish,6129.0,26592.0,104056.0,22354.0,19330.0,12157.0,16810.0,23530.0,6436.0,2467.0,806.0,139.0,27.0
783074,County,2020/09/02,22.0,LA,22047.0,Iberville Parish,6250.0,26471.0,115553.0,28527.0,21051.0,12927.0,17490.0,25085.0,6285.0,2835.0,1188.0,143.0,22.0
787862,County,2020/09/03,22.0,LA,22047.0,Iberville Parish,5511.0,27210.0,125984.0,36304.0,22400.0,12869.0,16868.0,26593.0,6686.0,2892.0,1163.0,179.0,30.0
791053,County,2020/09/04,22.0,LA,22047.0,Iberville Parish,6220.0,26501.0,111361.0,24764.0,21288.0,11697.0,16901.0,25502.0,6945.0,2464.0,1581.0,183.0,36.0
794242,County,2020/09/05,22.0,LA,22047.0,Iberville Parish,6330.0,26391.0,108804.0,20638.0,23991.0,14593.0,16843.0,22348.0,6605.0,2513.0,1134.0,98.0,41.0
797446,County,2020/09/06,22.0,LA,22047.0,Iberville Parish,7356.0,25365.0,96767.0,18603.0,24222.0,10927.0,15884.0,18281.0,6193.0,1557.0,938.0,101.0,61.0
799056,County,2020/09/07,22.0,LA,22047.0,Iberville Parish,7192.0,25529.0,93637.0,18688.0,22065.0,8512.0,14698.0,19657.0,5395.0,2897.0,1529.0,175.0,21.0
802269,County,2020/09/08,22.0,LA,22047.0,Iberville Parish,6427.0,26294.0,113979.0,22931.0,24167.0,11313.0,18065.0,27569.0,6574.0,2501.0,717.0,104.0,38.0
807050,County,2020/09/09,22.0,LA,22047.0,Iberville Parish,6326.0,26395.0,111424.0,20224.0,22283.0,13270.0,18356.0,27102.0,6279.0,2997.0,738.0,136.0,39.0
810205,County,2020/09/10,22.0,LA,22047.0,Iberville Parish,6316.0,26405.0,110085.0,23630.0,22220.0,14856.0,15968.0,24942.0,4965.0,2511.0,835.0,129.0,29.0
811834,County,2020/09/11,22.0,LA,22047.0,Iberville Parish,5950.0,26771.0,115053.0,21332.0,25643.0,13841.0,18089.0,26899.0,5279.0,2482.0,1314.0,149.0,25.0
816585,County,2020/09/12,22.0,LA,22047.0,Iberville Parish,6629.0,26092.0,99827.0,18500.0,22332.0,10293.0,16320.0,22167.0,6342.0,2797.0,897.0,155.0,24.0
819816,County,2020/09/13,22.0,LA,22047.0,Iberville Parish,7494.0,25227.0,98662.0,19684.0,24883.0,10811.0,13766.0,20018.0,4713.0,3791.0,859.0,109.0,28.0
821445,County,2020/09/14,22.0,LA,22047.0,Iberville Parish,6079.0,26642.0,104448.0,20857.0,21891.0,11667.0,16548.0,23794.0,5955.0,2384.0,1220.0,112.0,20.0
824601,County,2020/09/15,22.0,LA,22047.0,Iberville Parish,6053.0,26668.0,118586.0,30868.0,26510.0,13026.0,15854.0,22419.0,6635.0,2032.0,1073.0,141.0,28.0
829408,County,2020/09/16,22.0,LA,22047.0,Iberville Parish,6428.0,26293.0,105927.0,20222.0,20980.0,14871.0,15567.0,23898.0,6776.0,2219.0,1176.0,202.0,16.0
832585,County,2020/09/17,22.0,LA,22047.0,Iberville Parish,6072.0,26649.0,107970.0,23957.0,20259.0,12127.0,15842.0,25762.0,5570.0,2994.0,1277.0,155.0,27.0
834214,County,2020/09/18,22.0,LA,22047.0,Iberville Parish,5793.0,26928.0,115436.0,23467.0,21897.0,14321.0,17829.0,26877.0,6611.0,3222.0,1010.0,174.0,28.0
837377,County,2020/09/19,22.0,LA,22047.0,Iberville Parish,6514.0,26207.0,109171.0,23319.0,23863.0,13203.0,15221.0,24627.0,5662.0,2295.0,809.0,150.0,22.0
842152,County,2020/09/20,22.0,LA,22047.0,Iberville Parish,6886.0,25835.0,85957.0,17646.0,18650.0,10200.0,13198.0,18151.0,5101.0,1884.0,974.0,128.0,25.0
843780,County,2020/09/21,22.0,LA,22047.0,Iberville Parish,6158.0,26563.0,89053.0,18394.0,19700.0,9391.0,12763.0,20718.0,5339.0,1938.0,657.0,143.0,10.0
846984,County,2020/09/22,22.0,LA,22047.0,Iberville Parish,5796.0,26925.0,92468.0,19448.0,20518.0,11029.0,12734.0,20280.0,5386.0,2297.0,696.0,60.0,20.0
851762,County,2020/09/23,22.0,LA,22047.0,Iberville Parish,5321.0,27400.0,95965.0,18007.0,19265.0,11668.0,14608.0,23471.0,5840.0,2322.0,670.0,95.0,19.0
854918,County,2020/09/24,22.0,LA,22047.0,Iberville Parish,5635.0,27086.0,91892.0,17167.0,19584.0,10728.0,13783.0,22188.0,5510.0,2308.0,517.0,96.0,11.0
856547,County,2020/09/25,22.0,LA,22047.0,Iberville Parish,5649.0,27072.0,107005.0,19064.0,24310.0,13762.0,15575.0,24458.0,6968.0,1929.0,804.0,120.0,15.0
861300,County,2020/09/26,22.0,LA,22047.0,Iberville Parish,5888.0,26833.0,99828.0,18008.0,20341.0,12539.0,16724.0,22197.0,6190.0,2868.0,858.0,82.0,21.0
862954,County,2020/09/27,22.0,LA,22047.0,Iberville Parish,6488.0,26233.0,92112.0,17007.0,18504.0,12715.0,14297.0,20316.0,5362.0,2416.0,1321.0,150.0,24.0
866157,County,2020/09/28,22.0,LA,22047.0,Iberville Parish,5647.0,27074.0,99870.0,18441.0,21768.0,11877.0,14918.0,23458.0,6108.0,2428.0,793.0,61.0,18.0
869316,County,2020/09/29,22.0,LA,22047.0,Iberville Parish,5773.0,26948.0,102949.0,21336.0,21450.0,14411.0,14892.0,22556.0,5183.0,2345.0,673.0,91.0,12.0
874095,County,2020/09/30,22.0,LA,22047.0,Iberville Parish,6240.0,26481.0,109815.0,24101.0,20775.0,14228.0,16507.0,24131.0,6342.0,2959.0,658.0,105.0,9.0
875723,County,2020/10/01,22.0,LA,22047.0,Iberville Parish,5831.0,26890.0,110662.0,24798.0,24117.0,12758.0,15764.0,24385.0,5421.0,2642.0,658.0,109.0,10.0
878926,County,2020/10/02,22.0,LA,22047.0,Iberville Parish,5512.0,27209.0,107108.0,18768.0,22182.0,14651.0,16654.0,24452.0,6335.0,2849.0,1114.0,96.0,7.0
883708,County,2020/10/03,22.0,LA,22047.0,Iberville Parish,6597.0,26124.0,103111.0,19418.0,22347.0,12315.0,17330.0,22129.0,5715.0,3129.0,660.0,59.0,9.0
885806,County,2020/10/04,22.0,LA,22047.0,Iberville Parish,6794.0,25927.0,87731.0,18099.0,17763.0,12050.0,13701.0,17058.0,5301.0,2560.0,1096.0,91.0,12.0
889052,County,2020/10/05,22.0,LA,22047.0,Iberville Parish,6773.0,25948.0,100350.0,20431.0,21617.0,10965.0,14809.0,24338.0,4428.0,2936.0,724.0,96.0,6.0
892248,County,2020/10/06,22.0,LA,22047.0,Iberville Parish,6184.0,26537.0,111842.0,24793.0,26921.0,10026.0,15731.0,25580.0,6591.0,1629.0,507.0,57.0,7.0
895446,County,2020/10/07,22.0,LA,22047.0,Iberville Parish,5844.0,26877.0,113281.0,22203.0,22997.0,13402.0,19183.0,26364.0,6522.0,1708.0,815.0,79.0,8.0
898625,County,2020/10/08,22.0,LA,22047.0,Iberville Parish,5749.0,26972.0,105580.0,21769.0,22031.0,10813.0,17917.0,23738.0,6042.0,2038.0,1147.0,78.0,7.0
901797,County,2020/10/09,22.0,LA,22047.0,Iberville Parish,7631.0,25090.0,90585.0,14024.0,22895.0,11089.0,13467.0,21833.0,4241.0,2058.0,862.0,105.0,11.0
904984,County,2020/10/10,22.0,LA,22047.0,Iberville Parish,7093.0,25628.0,103615.0,16321.0,27877.0,14468.0,16435.0,21173.0,4559.0,1881.0,804.0,92.0,5.0
909639,County,2020/10/11,22.0,LA,22047.0,Iberville Parish,6696.0,26025.0,90693.0,18437.0,20579.0,9068.0,15670.0,19277.0,4179.0,2350.0,1007.0,113.0,13.0
912564,County,2020/10/12,22.0,LA,22047.0,Iberville Parish,6420.0,26301.0,104427.0,20184.0,23311.0,10594.0,16914.0,24081.0,5861.0,2624.0,791.0,62.0,5.0
915364,County,2020/10/13,22.0,LA,22047.0,Iberville Parish,5789.0,26932.0,104599.0,19592.0,21000.0,13173.0,17825.0,23938.0,5923.0,2413.0,646.0,80.0,9.0
918693,County,2020/10/14,22.0,LA,22047.0,Iberville Parish,5473.0,27248.0,111418.0,21919.0,23193.0,13780.0,18201.0,23627.0,7109.0,2785.0,714.0,76.0,14.0
921950,County,2020/10/15,22.0,LA,22047.0,Iberville Parish,6063.0,26658.0,103367.0,20399.0,23133.0,12373.0,16724.0,22413.0,5036.0,2726.0,462.0,90.0,11.0
925019,County,2020/10/16,22.0,LA,22047.0,Iberville Parish,5574.0,27147.0,108964.0,21286.0,22763.0,12124.0,18647.0,24961.0,5815.0,2174.0,1089.0,90.0,15.0
928230,County,2020/10/17,22.0,LA,22047.0,Iberville Parish,6034.0,26687.0,105599.0,19447.0,22671.0,13957.0,18163.0,22420.0,5986.0,2253.0,590.0,101.0,11.0
931874,County,2020/10/18,22.0,LA,22047.0,Iberville Parish,6905.0,25816.0,97039.0,19453.0,21580.0,11360.0,14505.0,20956.0,6007.0,2144.0,944.0,83.0,7.0
935464,County,2020/10/19,22.0,LA,22047.0,Iberville Parish,5425.0,27296.0,100347.0,20669.0,20910.0,11618.0,15364.0,22649.0,6326.0,2257.0,444.0,96.0,14.0
937797,County,2020/10/20,22.0,LA,22047.0,Iberville Parish,5965.0,26756.0,106346.0,22811.0,21535.0,12877.0,16153.0,24231.0,5661.0,2342.0,644.0,77.0,15.0
940964,County,2020/10/21,22.0,LA,22047.0,Iberville Parish,6515.0,26206.0,98370.0,20187.0,20367.0,10763.0,15527.0,23023.0,5205.0,2313.0,852.0,119.0,14.0
944560,County,2020/10/22,22.0,LA,22047.0,Iberville Parish,5689.0,27032.0,105587.0,19726.0,21508.0,12394.0,20594.0,22805.0,6344.0,1734.0,393.0,78.0,11.0
947413,County,2020/10/23,22.0,LA,22047.0,Iberville Parish,5314.0,27407.0,116894.0,22808.0,24174.0,14202.0,17739.0,27780.0,6755.0,2560.0,759.0,102.0,15.0
950549,County,2020/10/24,22.0,LA,22047.0,Iberville Parish,5973.0,26748.0,113382.0,24100.0,22277.0,15975.0,16730.0,25976.0,6030.0,1779.0,423.0,82.0,10.0
