,Level,Date,State FIPS,State Postal Code,County FIPS,County Name,Population Staying at Home,Population Not Staying at Home,Number of Trips,Number of Trips <1,Number of Trips 1-3,Number of Trips 3-5,Number of Trips 5-10,Number of Trips 10-25,Number of Trips 25-50,Number of Trips 50-100,Number of Trips 100-250,Number of Trips 250-500,Number of Trips >=500
3094,County,2020/01/01,55.0,WI,55095.0,Polk County,8469.0,35129.0,133724.0,27750.0,31095.0,17689.0,17454.0,22737.0,11050.0,3779.0,1602.0,425.0,143.0
3931,County,2020/01/02,55.0,WI,55095.0,Polk County,6013.0,37585.0,158939.0,28238.0,36588.0,19990.0,23640.0,27525.0,15713.0,5569.0,1331.0,299.0,46.0
6954,County,2020/01/03,55.0,WI,55095.0,Polk County,5772.0,37826.0,158077.0,28987.0,31006.0,18614.0,25245.0,29494.0,16293.0,6532.0,1504.0,234.0,168.0
10225,County,2020/01/04,55.0,WI,55095.0,Polk County,6780.0,36818.0,153539.0,31598.0,32541.0,16317.0,22001.0,29445.0,14817.0,4863.0,1514.0,330.0,113.0
15821,County,2020/01/05,55.0,WI,55095.0,Polk County,7944.0,35654.0,133535.0,25453.0,34427.0,14063.0,21290.0,23352.0,9331.0,3692.0,1386.0,288.0,253.0
17546,County,2020/01/06,55.0,WI,55095.0,Polk County,6189.0,37409.0,149412.0,23930.0,33705.0,18288.0,24659.0,27175.0,15167.0,4944.0,1210.0,288.0,46.0
20704,County,2020/01/07,55.0,WI,55095.0,Polk County,6064.0,37534.0,158471.0,31732.0,35408.0,16668.0,23228.0,28272.0,17064.0,5060.0,774.0,149.0,116.0
23983,County,2020/01/08,55.0,WI,55095.0,Polk County,6210.0,37388.0,153406.0,29124.0,33363.0,16449.0,22593.0,28849.0,16040.0,5993.0,680.0,228.0,87.0
28683,County,2020/01/09,55.0,WI,55095.0,Polk County,5953.0,37645.0,159762.0,28363.0,38011.0,18320.0,22446.0,30268.0,16088.0,4756.0,1173.0,211.0,126.0
30276,County,2020/01/10,55.0,WI,55095.0,Polk County,5970.0,37628.0,173383.0,32917.0,38455.0,19039.0,27981.0,31419.0,15704.0,5513.0,2017.0,213.0,125.0
33568,County,2020/01/11,55.0,WI,55095.0,Polk County,7120.0,36478.0,157823.0,32929.0,38285.0,17210.0,22769.0,27751.0,12368.0,5073.0,1061.0,221.0,156.0
38205,County,2020/01/12,55.0,WI,55095.0,Polk County,7812.0,35786.0,137782.0,29307.0,31292.0,16444.0,21761.0,22142.0,9581.0,5141.0,1722.0,230.0,162.0
39915,County,2020/01/13,55.0,WI,55095.0,Polk County,6085.0,37513.0,154276.0,30024.0,32884.0,16877.0,23442.0,28496.0,14872.0,5715.0,1704.0,129.0,133.0
44649,County,2020/01/14,55.0,WI,55095.0,Polk County,5987.0,37611.0,160293.0,31067.0,36021.0,17570.0,22989.0,29197.0,15649.0,6323.0,1220.0,158.0,99.0
47855,County,2020/01/15,55.0,WI,55095.0,Polk County,6069.0,37529.0,148244.0,28577.0,31116.0,16622.0,22180.0,27046.0,15717.0,5261.0,1429.0,206.0,90.0
51012,County,2020/01/16,55.0,WI,55095.0,Polk County,6145.0,37453.0,156423.0,29676.0,33456.0,17929.0,22865.0,27997.0,16730.0,5731.0,1630.0,262.0,147.0
52638,County,2020/01/17,55.0,WI,55095.0,Polk County,6237.0,37361.0,154002.0,31680.0,35677.0,17126.0,24454.0,26594.0,12769.0,4438.0,989.0,194.0,81.0
57421,County,2020/01/18,55.0,WI,55095.0,Polk County,8418.0,35180.0,155368.0,37944.0,37618.0,17112.0,24567.0,25923.0,9238.0,2148.0,510.0,191.0,117.0
60619,County,2020/01/19,55.0,WI,55095.0,Polk County,8119.0,35479.0,141869.0,32579.0,32407.0,16315.0,22599.0,23226.0,9549.0,3298.0,1578.0,173.0,145.0
62251,County,2020/01/20,55.0,WI,55095.0,Polk County,6446.0,37152.0,147366.0,28703.0,28877.0,17282.0,24248.0,26339.0,15063.0,5257.0,1305.0,221.0,71.0
66979,County,2020/01/21,55.0,WI,55095.0,Polk County,6221.0,37377.0,149402.0,28009.0,31601.0,16653.0,22439.0,27591.0,15340.0,6215.0,1228.0,218.0,108.0
68610,County,2020/01/22,55.0,WI,55095.0,Polk County,5766.0,37832.0,151043.0,28830.0,33342.0,16138.0,24247.0,25390.0,16878.0,4982.0,896.0,167.0,173.0
71844,County,2020/01/23,55.0,WI,55095.0,Polk County,5808.0,37790.0,163772.0,33463.0,36336.0,17822.0,22781.0,29984.0,16266.0,5718.0,978.0,239.0,185.0
74990,County,2020/01/24,55.0,WI,55095.0,Polk County,5762.0,37836.0,172140.0,34072.0,35066.0,18131.0,27769.0,31971.0,16388.0,6735.0,1715.0,137.0,156.0
78234,County,2020/01/25,55.0,WI,55095.0,Polk County,6857.0,36741.0,159479.0,34102.0,32849.0,18223.0,25420.0,28200.0,12664.0,6001.0,1699.0,200.0,121.0
82944,County,2020/01/26,55.0,WI,55095.0,Polk County,7435.0,36163.0,144118.0,27975.0,33618.0,18469.0,20262.0,26287.0,11282.0,4525.0,1297.0,172.0,231.0
86155,County,2020/01/27,55.0,WI,55095.0,Polk County,6085.0,37513.0,150733.0,28072.0,33335.0,16440.0,21591.0,28238.0,15360.0,5847.0,1538.0,261.0,51.0
88361,County,2020/01/28,55.0,WI,55095.0,Polk County,5795.0,37803.0,160490.0,32292.0,33178.0,17888.0,25155.0,29104.0,15422.0,6173.0,1028.0,185.0,65.0
92563,County,2020/01/29,55.0,WI,55095.0,Polk County,6021.0,37577.0,156850.0,26772.0,35468.0,16568.0,24247.0,30507.0,15879.0,5831.0,1326.0,128.0,124.0
94288,County,2020/01/30,55.0,WI,55095.0,Polk County,6061.0,37537.0,160445.0,30880.0,36631.0,15441.0,25279.0,29068.0,15470.0,6156.0,1008.0,248.0,264.0
97342,County,2020/01/31,55.0,WI,55095.0,Polk County,5596.0,38002.0,164455.0,27235.0,36320.0,19883.0,27091.0,30744.0,15084.0,5946.0,1732.0,186.0,234.0
100592,County,2020/02/01,55.0,WI,55095.0,Polk County,6512.0,37086.0,161485.0,30357.0,36490.0,18228.0,27158.0,27906.0,14227.0,5637.0,1051.0,248.0,183.0
103721,County,2020/02/02,55.0,WI,55095.0,Polk County,7325.0,36273.0,134722.0,23286.0,30325.0,16988.0,25129.0,23329.0,9715.0,4135.0,1261.0,325.0,229.0
106978,County,2020/02/03,55.0,WI,55095.0,Polk County,5967.0,37631.0,154465.0,27463.0,36512.0,17868.0,23423.0,27641.0,13445.0,5341.0,2123.0,401.0,248.0
111691,County,2020/02/04,55.0,WI,55095.0,Polk County,6003.0,37595.0,154910.0,24611.0,33855.0,17651.0,24221.0,29997.0,15732.0,6161.0,2028.0,377.0,277.0
114894,County,2020/02/05,55.0,WI,55095.0,Polk County,5909.0,37689.0,157700.0,31206.0,32990.0,15970.0,26080.0,28677.0,15738.0,5254.0,1174.0,248.0,363.0
118100,County,2020/02/06,55.0,WI,55095.0,Polk County,5692.0,37906.0,163792.0,32007.0,36351.0,17356.0,26703.0,27757.0,15801.0,5937.0,1385.0,265.0,230.0
119762,County,2020/02/07,55.0,WI,55095.0,Polk County,5500.0,38098.0,172773.0,32345.0,38917.0,19182.0,25651.0,30940.0,17446.0,6254.0,1581.0,304.0,153.0
122974,County,2020/02/08,55.0,WI,55095.0,Polk County,6259.0,37339.0,158216.0,34015.0,34145.0,16076.0,24772.0,26213.0,14935.0,6677.0,921.0,279.0,183.0
127111,County,2020/02/09,55.0,WI,55095.0,Polk County,9126.0,34472.0,140436.0,30636.0,34221.0,17583.0,22918.0,20783.0,8498.0,3663.0,1437.0,325.0,372.0
128260,County,2020/02/10,55.0,WI,55095.0,Polk County,6198.0,37400.0,170928.0,31613.0,38503.0,20492.0,24662.0,32141.0,16486.0,5561.0,781.0,400.0,289.0
133022,County,2020/02/11,55.0,WI,55095.0,Polk County,5577.0,38021.0,176573.0,33403.0,40219.0,19081.0,27702.0,32247.0,16341.0,5815.0,1149.0,306.0,310.0
137263,County,2020/02/12,55.0,WI,55095.0,Polk County,5857.0,37741.0,167158.0,31190.0,37978.0,17638.0,24974.0,31279.0,16160.0,6099.0,1153.0,351.0,336.0
140437,County,2020/02/13,55.0,WI,55095.0,Polk County,5696.0,37902.0,166021.0,30274.0,35270.0,18508.0,26543.0,29031.0,17421.0,6265.0,1775.0,496.0,438.0
143640,County,2020/02/14,55.0,WI,55095.0,Polk County,5647.0,37951.0,181728.0,33870.0,39642.0,18291.0,28027.0,34374.0,18163.0,6710.0,1688.0,490.0,473.0
146844,County,2020/02/15,55.0,WI,55095.0,Polk County,6760.0,36838.0,180464.0,32519.0,38491.0,19195.0,30170.0,31970.0,18846.0,7037.0,1412.0,482.0,342.0
150046,County,2020/02/16,55.0,WI,55095.0,Polk County,7440.0,36158.0,148532.0,31524.0,31714.0,18253.0,22841.0,24757.0,10684.0,5733.0,2013.0,487.0,526.0
151677,County,2020/02/17,55.0,WI,55095.0,Polk County,8079.0,35519.0,135774.0,26601.0,29903.0,14884.0,19195.0,24325.0,13740.0,4884.0,1508.0,422.0,312.0
154790,County,2020/02/18,55.0,WI,55095.0,Polk County,6211.0,37387.0,163856.0,29701.0,36137.0,18690.0,23959.0,30513.0,16056.0,6297.0,1602.0,439.0,462.0
159600,County,2020/02/19,55.0,WI,55095.0,Polk County,5753.0,37845.0,167198.0,31053.0,36151.0,17643.0,26142.0,29902.0,17539.0,6523.0,1526.0,377.0,342.0
161145,County,2020/02/20,55.0,WI,55095.0,Polk County,5687.0,37911.0,174193.0,32108.0,40421.0,18316.0,26236.0,30563.0,18123.0,6340.0,1695.0,213.0,178.0
164423,County,2020/02/21,55.0,WI,55095.0,Polk County,5920.0,37678.0,181543.0,33715.0,40472.0,19934.0,26508.0,32779.0,18414.0,6838.0,2200.0,363.0,320.0
169183,County,2020/02/22,55.0,WI,55095.0,Polk County,5807.0,37791.0,176238.0,31930.0,40071.0,19685.0,27153.0,33495.0,14711.0,6690.0,1735.0,453.0,315.0
172382,County,2020/02/23,55.0,WI,55095.0,Polk County,7139.0,36459.0,154863.0,30960.0,36209.0,19970.0,25167.0,24782.0,10192.0,4764.0,2202.0,435.0,182.0
174008,County,2020/02/24,55.0,WI,55095.0,Polk County,6332.0,37266.0,171475.0,30533.0,39035.0,19899.0,27459.0,28322.0,17364.0,6568.0,1623.0,414.0,258.0
178765,County,2020/02/25,55.0,WI,55095.0,Polk County,5660.0,37938.0,187494.0,33842.0,46405.0,22936.0,25508.0,31081.0,18196.0,6690.0,2336.0,295.0,205.0
181958,County,2020/02/26,55.0,WI,55095.0,Polk County,6717.0,36881.0,164637.0,22219.0,46342.0,17969.0,27415.0,31399.0,12728.0,5197.0,1057.0,257.0,54.0
185197,County,2020/02/27,55.0,WI,55095.0,Polk County,5897.0,37701.0,179346.0,33991.0,40613.0,19951.0,27300.0,32413.0,16765.0,6263.0,1571.0,331.0,148.0
186923,County,2020/02/28,55.0,WI,55095.0,Polk County,5594.0,38004.0,182978.0,31571.0,37489.0,19851.0,30510.0,36403.0,16805.0,7511.0,2324.0,330.0,184.0
189927,County,2020/02/29,55.0,WI,55095.0,Polk County,6220.0,37378.0,181159.0,36184.0,37606.0,21756.0,27457.0,30367.0,17526.0,6629.0,3060.0,284.0,290.0
194760,County,2020/03/01,55.0,WI,55095.0,Polk County,6583.0,37015.0,151294.0,29528.0,34004.0,19281.0,22892.0,27494.0,10568.0,5018.0,1860.0,425.0,224.0
197964,County,2020/03/02,55.0,WI,55095.0,Polk County,5826.0,37772.0,166508.0,27631.0,41758.0,20221.0,23183.0,28025.0,17861.0,5700.0,1763.0,242.0,124.0
200414,County,2020/03/03,55.0,WI,55095.0,Polk County,5645.0,37953.0,166104.0,27012.0,35862.0,17627.0,27633.0,30824.0,17177.0,7673.0,1729.0,457.0,110.0
204326,County,2020/03/04,55.0,WI,55095.0,Polk County,5812.0,37786.0,171196.0,30255.0,36291.0,20899.0,25768.0,30766.0,17927.0,7073.0,1498.0,547.0,172.0
207530,County,2020/03/05,55.0,WI,55095.0,Polk County,5180.0,38418.0,172205.0,29958.0,38158.0,19925.0,24677.0,30384.0,18281.0,7844.0,2296.0,630.0,52.0
209149,County,2020/03/06,55.0,WI,55095.0,Polk County,5421.0,38177.0,181037.0,29148.0,44789.0,19421.0,28501.0,31126.0,16087.0,7388.0,3740.0,739.0,98.0
212362,County,2020/03/07,55.0,WI,55095.0,Polk County,5889.0,37709.0,181584.0,34712.0,44623.0,19552.0,26954.0,30954.0,14755.0,6274.0,3150.0,481.0,129.0
217089,County,2020/03/08,55.0,WI,55095.0,Polk County,6500.0,37098.0,163228.0,28137.0,38805.0,23156.0,23194.0,27360.0,13075.0,5913.0,2629.0,721.0,238.0
218729,County,2020/03/09,55.0,WI,55095.0,Polk County,5622.0,37976.0,162954.0,26818.0,35116.0,20152.0,24021.0,29319.0,17966.0,6552.0,2276.0,560.0,174.0
221964,County,2020/03/10,55.0,WI,55095.0,Polk County,5803.0,37795.0,170021.0,31948.0,37015.0,20412.0,24906.0,28695.0,17649.0,6568.0,2285.0,446.0,97.0
226709,County,2020/03/11,55.0,WI,55095.0,Polk County,6377.0,37221.0,199926.0,34278.0,47712.0,29074.0,29170.0,28820.0,17214.0,8814.0,2927.0,1296.0,621.0
229850,County,2020/03/12,55.0,WI,55095.0,Polk County,6440.0,37158.0,180732.0,29754.0,51106.0,23603.0,25551.0,22095.0,14684.0,8652.0,3445.0,1595.0,247.0
233068,County,2020/03/13,55.0,WI,55095.0,Polk County,6173.0,37425.0,178763.0,30181.0,46015.0,24054.0,26669.0,25652.0,13102.0,6417.0,4451.0,1403.0,819.0
236271,County,2020/03/14,55.0,WI,55095.0,Polk County,7954.0,35644.0,170142.0,32641.0,51342.0,15593.0,27241.0,25630.0,8642.0,6537.0,866.0,1186.0,464.0
237883,County,2020/03/15,55.0,WI,55095.0,Polk County,8367.0,35231.0,145328.0,28209.0,34735.0,18416.0,25593.0,23047.0,8572.0,3567.0,2598.0,376.0,215.0
241127,County,2020/03/16,55.0,WI,55095.0,Polk County,6710.0,36888.0,161553.0,30305.0,35701.0,16119.0,25853.0,29227.0,15940.0,6165.0,1760.0,321.0,162.0
244309,County,2020/03/17,55.0,WI,55095.0,Polk County,7519.0,36079.0,166628.0,33583.0,36688.0,19934.0,23781.0,30267.0,15219.0,4621.0,1941.0,482.0,112.0
249042,County,2020/03/18,55.0,WI,55095.0,Polk County,8174.0,35424.0,152705.0,28054.0,32852.0,13824.0,24242.0,30374.0,15631.0,5306.0,1997.0,336.0,89.0
252246,County,2020/03/19,55.0,WI,55095.0,Polk County,8061.0,35537.0,143479.0,22057.0,31490.0,16473.0,20680.0,28419.0,16229.0,5394.0,2306.0,359.0,72.0
253905,County,2020/03/20,55.0,WI,55095.0,Polk County,8266.0,35332.0,151595.0,30463.0,34496.0,14216.0,23669.0,28093.0,13021.0,5130.0,2029.0,421.0,57.0
257047,County,2020/03/21,55.0,WI,55095.0,Polk County,9981.0,33617.0,143160.0,26194.0,37152.0,19392.0,20186.0,23183.0,11079.0,3790.0,1722.0,408.0,54.0
260235,County,2020/03/22,55.0,WI,55095.0,Polk County,9814.0,33784.0,109594.0,21057.0,28297.0,14339.0,16518.0,17996.0,6053.0,3059.0,1445.0,572.0,258.0
265013,County,2020/03/23,55.0,WI,55095.0,Polk County,7692.0,35906.0,138976.0,27950.0,32616.0,13544.0,21359.0,23673.0,13508.0,4470.0,1370.0,407.0,79.0
266639,County,2020/03/24,55.0,WI,55095.0,Polk County,7893.0,35705.0,127555.0,25663.0,26123.0,14682.0,19182.0,22651.0,11573.0,5738.0,1547.0,339.0,57.0
269873,County,2020/03/25,55.0,WI,55095.0,Polk County,8281.0,35317.0,126714.0,33132.0,26260.0,12247.0,16305.0,20867.0,11627.0,4625.0,1075.0,503.0,73.0
274615,County,2020/03/26,55.0,WI,55095.0,Polk County,8058.0,35540.0,130076.0,26989.0,29808.0,14327.0,18310.0,21202.0,13206.0,4328.0,1500.0,296.0,110.0
277780,County,2020/03/27,55.0,WI,55095.0,Polk County,8259.0,35339.0,136553.0,30233.0,31819.0,13790.0,18833.0,23983.0,11979.0,4021.0,1493.0,362.0,40.0
279407,County,2020/03/28,55.0,WI,55095.0,Polk County,9891.0,33707.0,122623.0,29586.0,28980.0,14073.0,18061.0,20317.0,7297.0,2788.0,1122.0,308.0,91.0
282601,County,2020/03/29,55.0,WI,55095.0,Polk County,10950.0,32648.0,108962.0,24985.0,30429.0,14218.0,16648.0,14023.0,4764.0,2290.0,1070.0,497.0,38.0
287392,County,2020/03/30,55.0,WI,55095.0,Polk County,8076.0,35522.0,127138.0,29310.0,26520.0,13122.0,18680.0,21855.0,11704.0,4112.0,1295.0,503.0,37.0
290598,County,2020/03/31,55.0,WI,55095.0,Polk County,8307.0,35291.0,129095.0,28206.0,27199.0,15723.0,18744.0,22212.0,10586.0,4524.0,1520.0,355.0,26.0
292225,County,2020/04/01,55.0,WI,55095.0,Polk County,8248.0,35350.0,135258.0,25798.0,31612.0,16717.0,17995.0,24142.0,13113.0,3957.0,1559.0,275.0,90.0
296958,County,2020/04/02,55.0,WI,55095.0,Polk County,7717.0,35881.0,129446.0,31340.0,29289.0,12769.0,17400.0,21180.0,11289.0,4159.0,1453.0,443.0,124.0
298619,County,2020/04/03,55.0,WI,55095.0,Polk County,8555.0,35043.0,121596.0,25954.0,26413.0,12884.0,19137.0,20960.0,10848.0,3431.0,1524.0,341.0,104.0
303366,County,2020/04/04,55.0,WI,55095.0,Polk County,9396.0,34202.0,129614.0,28368.0,34379.0,13860.0,20312.0,22022.0,7379.0,2152.0,809.0,240.0,93.0
304994,County,2020/04/05,55.0,WI,55095.0,Polk County,10217.0,33381.0,126336.0,31706.0,33838.0,15454.0,18692.0,17238.0,5639.0,2249.0,1170.0,278.0,72.0
308152,County,2020/04/06,55.0,WI,55095.0,Polk County,8512.0,35086.0,134025.0,31490.0,29810.0,14232.0,19176.0,23350.0,11017.0,3597.0,1185.0,68.0,100.0
311394,County,2020/04/07,55.0,WI,55095.0,Polk County,8074.0,35524.0,130471.0,26863.0,29540.0,14707.0,18340.0,24516.0,11649.0,3696.0,1025.0,109.0,26.0
316131,County,2020/04/08,55.0,WI,55095.0,Polk County,8735.0,34863.0,127170.0,25789.0,26086.0,14406.0,18932.0,24976.0,12294.0,3530.0,872.0,256.0,29.0
319301,County,2020/04/09,55.0,WI,55095.0,Polk County,8563.0,35035.0,127374.0,23775.0,31140.0,14608.0,19528.0,21530.0,12498.0,3231.0,704.0,316.0,44.0
319419,County,2020/04/10,55.0,WI,55095.0,Polk County,8468.0,35130.0,140695.0,32361.0,30623.0,15552.0,20528.0,24717.0,10956.0,4573.0,987.0,355.0,43.0
324170,County,2020/04/11,55.0,WI,55095.0,Polk County,8974.0,34624.0,133026.0,29581.0,32097.0,15679.0,20411.0,22158.0,8904.0,3305.0,566.0,311.0,14.0
327316,County,2020/04/12,55.0,WI,55095.0,Polk County,11504.0,32094.0,87151.0,19378.0,23189.0,11561.0,13190.0,11957.0,4655.0,1941.0,901.0,247.0,132.0
332077,County,2020/04/13,55.0,WI,55095.0,Polk County,9126.0,34472.0,126405.0,27768.0,25473.0,15076.0,18938.0,22542.0,12420.0,2885.0,1025.0,262.0,16.0
335300,County,2020/04/14,55.0,WI,55095.0,Polk County,9357.0,34241.0,124189.0,30281.0,33750.0,13614.0,15990.0,17931.0,6516.0,3452.0,2168.0,487.0,0.0
338505,County,2020/04/15,55.0,WI,55095.0,Polk County,8998.0,34600.0,121989.0,21341.0,37876.0,14810.0,17546.0,17033.0,7902.0,3525.0,1006.0,441.0,509.0
340083,County,2020/04/16,55.0,WI,55095.0,Polk County,9608.0,33990.0,118239.0,19183.0,30370.0,12620.0,20619.0,20589.0,9598.0,3646.0,1106.0,304.0,204.0
344862,County,2020/04/17,55.0,WI,55095.0,Polk County,9156.0,34442.0,139105.0,28387.0,41215.0,15507.0,16932.0,20938.0,10225.0,2659.0,2366.0,826.0,50.0
348059,County,2020/04/18,55.0,WI,55095.0,Polk County,9948.0,33650.0,134202.0,23362.0,36327.0,23077.0,22276.0,13966.0,10064.0,3345.0,1516.0,119.0,150.0
349662,County,2020/04/19,55.0,WI,55095.0,Polk County,10502.0,33096.0,129062.0,27263.0,39064.0,18124.0,17936.0,15961.0,5668.0,2261.0,2195.0,527.0,63.0
352916,County,2020/04/20,55.0,WI,55095.0,Polk County,8343.0,35255.0,145686.0,35612.0,39498.0,13010.0,19817.0,17721.0,11340.0,5753.0,2310.0,581.0,44.0
356061,County,2020/04/21,55.0,WI,55095.0,Polk County,8279.0,35319.0,141719.0,32611.0,30148.0,15470.0,19704.0,24990.0,12407.0,5138.0,984.0,252.0,15.0
360831,County,2020/04/22,55.0,WI,55095.0,Polk County,7867.0,35731.0,144403.0,29780.0,30975.0,15664.0,21417.0,26936.0,13322.0,4606.0,1490.0,213.0,0.0
364037,County,2020/04/23,55.0,WI,55095.0,Polk County,7443.0,36155.0,147947.0,30531.0,35138.0,17595.0,22121.0,23791.0,12823.0,4478.0,1197.0,259.0,14.0
365663,County,2020/04/24,55.0,WI,55095.0,Polk County,7671.0,35927.0,147854.0,29811.0,30723.0,18377.0,24863.0,23527.0,13314.0,5152.0,1942.0,145.0,0.0
368832,County,2020/04/25,55.0,WI,55095.0,Polk County,8419.0,35179.0,157349.0,37402.0,36981.0,20586.0,27557.0,21647.0,7885.0,3757.0,1351.0,167.0,16.0
371999,County,2020/04/26,55.0,WI,55095.0,Polk County,9038.0,34560.0,131489.0,26808.0,32862.0,17442.0,20833.0,22348.0,7051.0,2917.0,1089.0,139.0,0.0
376830,County,2020/04/27,55.0,WI,55095.0,Polk County,7510.0,36088.0,139280.0,29603.0,32188.0,18334.0,19594.0,22557.0,11770.0,3551.0,1285.0,385.0,13.0
378377,County,2020/04/28,55.0,WI,55095.0,Polk County,7905.0,35693.0,130334.0,24030.0,31652.0,16614.0,15299.0,23807.0,11756.0,5052.0,1886.0,224.0,14.0
383205,County,2020/04/29,55.0,WI,55095.0,Polk County,7588.0,36010.0,140892.0,28065.0,31380.0,16834.0,19019.0,26545.0,13132.0,4633.0,1108.0,161.0,15.0
384830,County,2020/04/30,55.0,WI,55095.0,Polk County,6729.0,36869.0,150577.0,32912.0,32034.0,17146.0,21967.0,27347.0,12397.0,5255.0,1275.0,191.0,53.0
389610,County,2020/05/01,55.0,WI,55095.0,Polk County,7071.0,36527.0,148125.0,27461.0,32115.0,17221.0,22453.0,27342.0,13559.0,6466.0,1370.0,125.0,13.0
391183,County,2020/05/02,55.0,WI,55095.0,Polk County,7797.0,35801.0,159416.0,34252.0,41299.0,17071.0,24990.0,23623.0,11956.0,5020.0,948.0,241.0,16.0
395960,County,2020/05/03,55.0,WI,55095.0,Polk County,8832.0,34766.0,134587.0,28170.0,28701.0,19159.0,23470.0,20418.0,9718.0,3707.0,900.0,269.0,75.0
397606,County,2020/05/04,55.0,WI,55095.0,Polk County,7400.0,36198.0,143216.0,28856.0,31329.0,13543.0,23063.0,27956.0,11665.0,5263.0,1388.0,138.0,15.0
402375,County,2020/05/05,55.0,WI,55095.0,Polk County,7261.0,36337.0,148543.0,31873.0,34679.0,14813.0,21031.0,26120.0,12694.0,5674.0,1332.0,299.0,28.0
405582,County,2020/05/06,55.0,WI,55095.0,Polk County,7378.0,36220.0,154737.0,34976.0,35495.0,16829.0,19312.0,29249.0,11962.0,5583.0,985.0,304.0,42.0
408677,County,2020/05/07,55.0,WI,55095.0,Polk County,7322.0,36276.0,146777.0,32653.0,30975.0,14166.0,22412.0,26023.0,13202.0,5167.0,1851.0,246.0,82.0
411939,County,2020/05/08,55.0,WI,55095.0,Polk County,7445.0,36153.0,147745.0,30596.0,28945.0,16589.0,21661.0,27358.0,14203.0,6208.0,1946.0,138.0,101.0
415135,County,2020/05/09,55.0,WI,55095.0,Polk County,8447.0,35151.0,140297.0,26208.0,36054.0,15816.0,24125.0,23987.0,9150.0,3525.0,1141.0,276.0,15.0
416748,County,2020/05/10,55.0,WI,55095.0,Polk County,8844.0,34754.0,114766.0,19005.0,28284.0,12200.0,17478.0,21102.0,9893.0,4559.0,1814.0,398.0,33.0
421546,County,2020/05/11,55.0,WI,55095.0,Polk County,6548.0,37050.0,157521.0,31468.0,33248.0,20436.0,23746.0,28358.0,12957.0,5761.0,1316.0,203.0,28.0
423224,County,2020/05/12,55.0,WI,55095.0,Polk County,6529.0,37069.0,163150.0,35753.0,37830.0,17906.0,23683.0,27602.0,13459.0,5393.0,1260.0,237.0,27.0
426232,County,2020/05/13,55.0,WI,55095.0,Polk County,6366.0,37232.0,148026.0,28159.0,34208.0,16500.0,22254.0,26061.0,13293.0,5721.0,1408.0,332.0,90.0
429573,County,2020/05/14,55.0,WI,55095.0,Polk County,6238.0,37360.0,159712.0,34992.0,36400.0,16061.0,24235.0,26582.0,13408.0,6036.0,1691.0,280.0,27.0
434314,County,2020/05/15,55.0,WI,55095.0,Polk County,6191.0,37407.0,163905.0,32849.0,40154.0,20006.0,24574.0,27157.0,11391.0,6140.0,1403.0,150.0,81.0
437517,County,2020/05/16,55.0,WI,55095.0,Polk County,7548.0,36050.0,153398.0,30414.0,40045.0,16345.0,25867.0,23793.0,10220.0,4886.0,1491.0,285.0,52.0
440629,County,2020/05/17,55.0,WI,55095.0,Polk County,8399.0,35199.0,116125.0,18308.0,31061.0,14210.0,18771.0,20234.0,8633.0,3423.0,1108.0,331.0,46.0
440773,County,2020/05/18,55.0,WI,55095.0,Polk County,5710.0,37888.0,148975.0,28891.0,34849.0,15377.0,20389.0,25677.0,16458.0,5470.0,1517.0,312.0,35.0
447079,County,2020/05/19,55.0,WI,55095.0,Polk County,5801.0,37797.0,148270.0,31282.0,33234.0,13230.0,20980.0,27495.0,14869.0,5068.0,1836.0,242.0,34.0
448711,County,2020/05/20,55.0,WI,55095.0,Polk County,5786.0,37812.0,164486.0,37116.0,32921.0,13441.0,25717.0,30492.0,16615.0,6096.0,1821.0,250.0,17.0
453490,County,2020/05/21,55.0,WI,55095.0,Polk County,5944.0,37654.0,168310.0,36591.0,37573.0,15974.0,25851.0,27822.0,16258.0,5860.0,1995.0,284.0,102.0
455068,County,2020/05/22,55.0,WI,55095.0,Polk County,5402.0,38196.0,169237.0,33070.0,39597.0,18331.0,23838.0,31725.0,13269.0,6470.0,2611.0,310.0,16.0
459852,County,2020/05/23,55.0,WI,55095.0,Polk County,7041.0,36557.0,148090.0,31171.0,33776.0,18194.0,25305.0,24345.0,8738.0,4356.0,1789.0,379.0,37.0
463056,County,2020/05/24,55.0,WI,55095.0,Polk County,7630.0,35968.0,148071.0,32631.0,36807.0,21002.0,21248.0,21975.0,8562.0,4095.0,1313.0,360.0,78.0
464745,County,2020/05/25,55.0,WI,55095.0,Polk County,7196.0,36402.0,135610.0,27584.0,35219.0,16421.0,20183.0,20292.0,8045.0,5141.0,2265.0,379.0,81.0
467840,County,2020/05/26,55.0,WI,55095.0,Polk County,6319.0,37279.0,149929.0,26698.0,35078.0,18738.0,21984.0,26944.0,12463.0,5850.0,1765.0,343.0,66.0
471095,County,2020/05/27,55.0,WI,55095.0,Polk County,6110.0,37488.0,162364.0,30917.0,38691.0,19210.0,24412.0,28798.0,13923.0,4464.0,1706.0,196.0,47.0
474191,County,2020/05/28,55.0,WI,55095.0,Polk County,6148.0,37450.0,158010.0,31788.0,37753.0,17516.0,22573.0,27827.0,12618.0,5709.0,1882.0,281.0,63.0
477436,County,2020/05/29,55.0,WI,55095.0,Polk County,6689.0,36909.0,154632.0,27818.0,33262.0,18708.0,24065.0,29683.0,13024.0,5684.0,2119.0,261.0,8.0
480623,County,2020/05/30,55.0,WI,55095.0,Polk County,6956.0,36642.0,145992.0,27548.0,36230.0,16430.0,23391.0,25953.0,9539.0,4712.0,1710.0,469.0,10.0
485390,County,2020/05/31,55.0,WI,55095.0,Polk County,7676.0,35922.0,140079.0,33946.0,35502.0,16449.0,19762.0,19081.0,9500.0,4442.0,1012.0,314.0,71.0
487018,County,2020/06/01,55.0,WI,55095.0,Polk County,6363.0,37235.0,148092.0,29364.0,35855.0,15797.0,22379.0,24923.0,12568.0,5268.0,1571.0,291.0,76.0
491799,County,2020/06/02,55.0,WI,55095.0,Polk County,5839.0,37759.0,150508.0,29243.0,33273.0,17662.0,21936.0,27039.0,13459.0,5715.0,1756.0,385.0,40.0
493427,County,2020/06/03,55.0,WI,55095.0,Polk County,5715.0,37883.0,162557.0,32611.0,37677.0,19007.0,24058.0,28648.0,12888.0,5724.0,1656.0,212.0,76.0
498203,County,2020/06/04,55.0,WI,55095.0,Polk County,5588.0,38010.0,151383.0,27835.0,32898.0,17228.0,24096.0,25922.0,15001.0,6384.0,1700.0,262.0,57.0
501364,County,2020/06/05,55.0,WI,55095.0,Polk County,5616.0,37982.0,166032.0,34615.0,34864.0,19370.0,25123.0,29318.0,15117.0,5695.0,1696.0,192.0,42.0
504566,County,2020/06/06,55.0,WI,55095.0,Polk County,7089.0,36509.0,139603.0,24177.0,32642.0,17388.0,23639.0,25543.0,10063.0,4855.0,988.0,246.0,62.0
507772,County,2020/06/07,55.0,WI,55095.0,Polk County,7778.0,35820.0,132131.0,22141.0,31680.0,17705.0,25589.0,20592.0,8160.0,4068.0,1836.0,245.0,115.0
510977,County,2020/06/08,55.0,WI,55095.0,Polk County,5626.0,37972.0,155968.0,30076.0,34973.0,19303.0,23556.0,27891.0,13532.0,5091.0,1313.0,209.0,24.0
514132,County,2020/06/09,55.0,WI,55095.0,Polk County,6120.0,37478.0,148478.0,28517.0,33547.0,18346.0,21963.0,27276.0,11810.0,5714.0,1087.0,123.0,95.0
515762,County,2020/06/10,55.0,WI,55095.0,Polk County,6584.0,37014.0,145331.0,27795.0,31262.0,18032.0,22919.0,25234.0,13164.0,4320.0,2198.0,313.0,94.0
518966,County,2020/06/11,55.0,WI,55095.0,Polk County,6028.0,37570.0,153387.0,29216.0,34372.0,18957.0,23134.0,27308.0,12538.0,5474.0,2035.0,310.0,43.0
520623,County,2020/06/12,55.0,WI,55095.0,Polk County,6054.0,37544.0,159378.0,30616.0,34673.0,19484.0,24956.0,28206.0,13448.0,6113.0,1345.0,510.0,27.0
525394,County,2020/06/13,55.0,WI,55095.0,Polk County,7017.0,36581.0,156689.0,32529.0,37780.0,16973.0,23533.0,28386.0,10682.0,4402.0,2068.0,315.0,21.0
530109,County,2020/06/14,55.0,WI,55095.0,Polk County,7985.0,35613.0,129822.0,25390.0,30507.0,15061.0,19798.0,23271.0,8447.0,4906.0,1939.0,416.0,87.0
531737,County,2020/06/15,55.0,WI,55095.0,Polk County,7047.0,36551.0,135621.0,28743.0,29000.0,16959.0,19517.0,23006.0,11405.0,5347.0,1279.0,331.0,34.0
534926,County,2020/06/16,55.0,WI,55095.0,Polk County,7263.0,36335.0,155424.0,32624.0,36635.0,17495.0,21323.0,26480.0,14263.0,5110.0,1269.0,190.0,35.0
539687,County,2020/06/17,55.0,WI,55095.0,Polk County,6879.0,36719.0,145635.0,28265.0,34506.0,15721.0,19901.0,25946.0,14032.0,5205.0,1721.0,321.0,17.0
542881,County,2020/06/18,55.0,WI,55095.0,Polk County,6506.0,37092.0,142260.0,27948.0,34360.0,14599.0,20284.0,24455.0,12466.0,5840.0,1900.0,321.0,87.0
546083,County,2020/06/19,55.0,WI,55095.0,Polk County,6457.0,37141.0,148957.0,29875.0,33191.0,15564.0,20705.0,26987.0,13450.0,6903.0,1920.0,258.0,104.0
547713,County,2020/06/20,55.0,WI,55095.0,Polk County,7711.0,35887.0,138691.0,30254.0,32664.0,15538.0,20881.0,23737.0,9667.0,4044.0,1507.0,326.0,73.0
550918,County,2020/06/21,55.0,WI,55095.0,Polk County,7458.0,36140.0,135458.0,28800.0,32876.0,14168.0,20223.0,22638.0,10495.0,4261.0,1646.0,231.0,120.0
555698,County,2020/06/22,55.0,WI,55095.0,Polk County,6819.0,36779.0,147805.0,31488.0,34132.0,15373.0,22949.0,22828.0,13842.0,5411.0,1523.0,198.0,61.0
558852,County,2020/06/23,55.0,WI,55095.0,Polk County,6360.0,37238.0,154416.0,34438.0,33087.0,16327.0,22494.0,27969.0,12972.0,5198.0,1604.0,300.0,27.0
560483,County,2020/06/24,55.0,WI,55095.0,Polk County,6682.0,36916.0,147356.0,30439.0,34598.0,15861.0,20600.0,25101.0,14032.0,4586.0,1698.0,424.0,17.0
565221,County,2020/06/25,55.0,WI,55095.0,Polk County,6222.0,37376.0,151838.0,31207.0,33152.0,16928.0,22573.0,24005.0,15568.0,6089.0,1824.0,400.0,92.0
566977,County,2020/06/26,55.0,WI,55095.0,Polk County,6385.0,37213.0,147618.0,28351.0,32553.0,16696.0,22376.0,25812.0,13174.0,6177.0,1898.0,520.0,61.0
570048,County,2020/06/27,55.0,WI,55095.0,Polk County,7300.0,36298.0,151287.0,33322.0,36886.0,17434.0,21806.0,23258.0,11288.0,4238.0,2423.0,527.0,105.0
574842,County,2020/06/28,55.0,WI,55095.0,Polk County,7410.0,36188.0,137962.0,30596.0,33652.0,15290.0,20053.0,21333.0,8187.0,5919.0,2417.0,424.0,91.0
576448,County,2020/06/29,55.0,WI,55095.0,Polk County,6682.0,36916.0,143168.0,29878.0,31898.0,15191.0,20447.0,26234.0,11429.0,6124.0,1457.0,410.0,100.0
579657,County,2020/06/30,55.0,WI,55095.0,Polk County,6660.0,36938.0,149562.0,28412.0,36447.0,15138.0,23089.0,26854.0,12424.0,5214.0,1539.0,333.0,112.0
584403,County,2020/07/01,55.0,WI,55095.0,Polk County,6329.0,37269.0,148793.0,29481.0,33936.0,16126.0,23520.0,24851.0,13258.0,5451.0,1619.0,433.0,118.0
586052,County,2020/07/02,55.0,WI,55095.0,Polk County,7220.0,36378.0,161162.0,33123.0,35188.0,17967.0,23959.0,25479.0,16524.0,6463.0,1936.0,425.0,98.0
589283,County,2020/07/03,55.0,WI,55095.0,Polk County,7944.0,35654.0,146787.0,28191.0,32370.0,16602.0,22250.0,25667.0,13100.0,6142.0,1887.0,517.0,61.0
594027,County,2020/07/04,55.0,WI,55095.0,Polk County,8840.0,34758.0,125578.0,24118.0,27693.0,14203.0,19035.0,21958.0,11207.0,5255.0,1615.0,442.0,52.0
597194,County,2020/07/05,55.0,WI,55095.0,Polk County,8178.0,35420.0,121546.0,22839.0,28830.0,12561.0,20479.0,18768.0,8643.0,5635.0,3172.0,492.0,127.0
598288,County,2020/07/06,55.0,WI,55095.0,Polk County,7195.0,36403.0,124136.0,22386.0,27420.0,14391.0,18607.0,21734.0,11604.0,5335.0,2085.0,489.0,85.0
601951,County,2020/07/07,55.0,WI,55095.0,Polk County,7156.0,36442.0,135937.0,25638.0,30453.0,16905.0,19400.0,24714.0,11304.0,5490.0,1447.0,513.0,73.0
605094,County,2020/07/08,55.0,WI,55095.0,Polk County,6976.0,36622.0,138162.0,27115.0,30672.0,15795.0,20378.0,23248.0,11972.0,6335.0,2072.0,515.0,60.0
609963,County,2020/07/09,55.0,WI,55095.0,Polk County,6963.0,36635.0,132638.0,24238.0,29240.0,12798.0,19015.0,25700.0,13001.0,6499.0,1544.0,534.0,69.0
613169,County,2020/07/10,55.0,WI,55095.0,Polk County,6701.0,36897.0,146855.0,27382.0,32482.0,17360.0,21673.0,26326.0,12503.0,6530.0,1909.0,632.0,58.0
614847,County,2020/07/11,55.0,WI,55095.0,Polk County,7954.0,35644.0,133106.0,24526.0,31434.0,14048.0,20964.0,24317.0,11328.0,4100.0,1651.0,650.0,88.0
619573,County,2020/07/12,55.0,WI,55095.0,Polk County,8525.0,35073.0,124387.0,27033.0,28683.0,13523.0,17574.0,20765.0,8989.0,4954.0,2011.0,815.0,40.0
621158,County,2020/07/13,55.0,WI,55095.0,Polk County,7562.0,36036.0,124824.0,23449.0,28732.0,13918.0,17531.0,22187.0,11359.0,5158.0,1725.0,687.0,78.0
624359,County,2020/07/14,55.0,WI,55095.0,Polk County,7323.0,36275.0,125210.0,21800.0,26832.0,13531.0,20274.0,23225.0,12662.0,4692.0,1639.0,449.0,106.0
629145,County,2020/07/15,55.0,WI,55095.0,Polk County,7578.0,36020.0,137678.0,26831.0,32499.0,15364.0,19342.0,24101.0,11908.0,5878.0,1484.0,219.0,52.0
630822,County,2020/07/16,55.0,WI,55095.0,Polk County,7330.0,36268.0,136078.0,27629.0,32112.0,14600.0,17833.0,23923.0,11646.0,5825.0,2089.0,346.0,75.0
635507,County,2020/07/17,55.0,WI,55095.0,Polk County,7221.0,36377.0,128168.0,23138.0,28941.0,15303.0,17711.0,23296.0,11626.0,5829.0,1833.0,432.0,59.0
638709,County,2020/07/18,55.0,WI,55095.0,Polk County,7756.0,35842.0,129090.0,24043.0,35425.0,16078.0,18694.0,18853.0,9528.0,4128.0,1796.0,521.0,24.0
641913,County,2020/07/19,55.0,WI,55095.0,Polk County,8961.0,34637.0,119087.0,24228.0,27319.0,15901.0,18508.0,19093.0,7659.0,3842.0,1934.0,518.0,85.0
645120,County,2020/07/20,55.0,WI,55095.0,Polk County,7290.0,36308.0,134834.0,25913.0,29341.0,16886.0,19488.0,24455.0,10971.0,6073.0,1422.0,218.0,67.0
646749,County,2020/07/21,55.0,WI,55095.0,Polk County,7549.0,36049.0,130072.0,25400.0,27353.0,12956.0,20285.0,22348.0,13312.0,6218.0,1664.0,456.0,80.0
649382,County,2020/07/22,55.0,WI,55095.0,Polk County,7391.0,36207.0,136697.0,26021.0,30518.0,15273.0,19255.0,23868.0,13804.0,5822.0,1534.0,565.0,37.0
653020,County,2020/07/23,55.0,WI,55095.0,Polk County,7321.0,36277.0,136260.0,27476.0,27918.0,14325.0,20993.0,24162.0,12924.0,5791.0,2019.0,543.0,109.0
656142,County,2020/07/24,55.0,WI,55095.0,Polk County,7159.0,36439.0,142413.0,26218.0,33274.0,15209.0,21378.0,25307.0,12990.0,5197.0,2326.0,432.0,82.0
659559,County,2020/07/25,55.0,WI,55095.0,Polk County,8500.0,35098.0,135223.0,28375.0,31218.0,15626.0,19667.0,22447.0,10238.0,5827.0,1448.0,335.0,42.0
662687,County,2020/07/26,55.0,WI,55095.0,Polk County,8196.0,35402.0,130830.0,24702.0,28995.0,15758.0,18815.0,21455.0,9904.0,6497.0,3936.0,664.0,104.0
667467,County,2020/07/27,55.0,WI,55095.0,Polk County,7251.0,36347.0,146895.0,31148.0,30944.0,15509.0,23825.0,23830.0,13477.0,5962.0,1647.0,440.0,113.0
670670,County,2020/07/28,55.0,WI,55095.0,Polk County,6979.0,36619.0,154293.0,32802.0,34926.0,14671.0,22167.0,28488.0,12639.0,5689.0,2294.0,559.0,58.0
672398,County,2020/07/29,55.0,WI,55095.0,Polk County,6693.0,36905.0,154187.0,30134.0,32261.0,17859.0,23143.0,27229.0,14658.0,5863.0,2337.0,664.0,39.0
675463,County,2020/07/30,55.0,WI,55095.0,Polk County,6677.0,36921.0,155319.0,32566.0,31764.0,17599.0,22935.0,27765.0,13474.0,6420.0,2147.0,554.0,95.0
680241,County,2020/07/31,55.0,WI,55095.0,Polk County,6599.0,36999.0,153251.0,25206.0,36152.0,19400.0,22662.0,26544.0,12920.0,6143.0,3438.0,738.0,48.0
681822,County,2020/08/01,55.0,WI,55095.0,Polk County,7725.0,35873.0,143310.0,28583.0,31799.0,17196.0,22890.0,23811.0,10761.0,4933.0,2468.0,676.0,193.0
686651,County,2020/08/02,55.0,WI,55095.0,Polk County,8192.0,35406.0,132757.0,26290.0,27715.0,16953.0,21216.0,20861.0,10768.0,5579.0,2452.0,840.0,83.0
688241,County,2020/08/03,55.0,WI,55095.0,Polk County,7231.0,36367.0,149050.0,31583.0,30092.0,17840.0,22409.0,25235.0,13694.0,5267.0,2462.0,403.0,65.0
693016,County,2020/08/04,55.0,WI,55095.0,Polk County,6635.0,36963.0,155010.0,31907.0,34190.0,18361.0,21129.0,26633.0,14082.0,6474.0,1953.0,233.0,48.0
694644,County,2020/08/05,55.0,WI,55095.0,Polk County,6822.0,36776.0,154677.0,31561.0,35523.0,18930.0,22558.0,25670.0,13648.0,4965.0,1464.0,259.0,99.0
697851,County,2020/08/06,55.0,WI,55095.0,Polk County,6456.0,37142.0,152546.0,31822.0,35619.0,16466.0,21841.0,25281.0,13319.0,5562.0,2177.0,401.0,58.0
702583,County,2020/08/07,55.0,WI,55095.0,Polk County,6835.0,36763.0,149203.0,30288.0,32278.0,15924.0,22193.0,26192.0,13071.0,6452.0,2422.0,297.0,86.0
704212,County,2020/08/08,55.0,WI,55095.0,Polk County,7582.0,36016.0,136733.0,30640.0,33433.0,13796.0,20442.0,21778.0,10139.0,4559.0,1684.0,251.0,11.0
707402,County,2020/08/09,55.0,WI,55095.0,Polk County,7947.0,35651.0,122758.0,21134.0,31485.0,12832.0,18236.0,19064.0,9441.0,7453.0,2539.0,418.0,156.0
710672,County,2020/08/10,55.0,WI,55095.0,Polk County,7391.0,36207.0,145716.0,28300.0,30613.0,14829.0,22450.0,27587.0,13702.0,6063.0,1855.0,299.0,18.0
713840,County,2020/08/11,55.0,WI,55095.0,Polk County,7317.0,36281.0,154970.0,32278.0,35197.0,15881.0,21254.0,27189.0,14509.0,6877.0,1604.0,131.0,50.0
716888,County,2020/08/12,55.0,WI,55095.0,Polk County,7305.0,36293.0,137180.0,23089.0,30597.0,14648.0,19701.0,24022.0,16281.0,6754.0,1541.0,411.0,136.0
720180,County,2020/08/13,55.0,WI,55095.0,Polk County,6722.0,36876.0,143355.0,26679.0,30512.0,14905.0,20437.0,25536.0,15005.0,6884.0,2550.0,562.0,285.0
724972,County,2020/08/14,55.0,WI,55095.0,Polk County,6702.0,36896.0,149372.0,26041.0,31159.0,16008.0,24479.0,25897.0,15648.0,6854.0,2389.0,635.0,262.0
726653,County,2020/08/15,55.0,WI,55095.0,Polk County,7757.0,35841.0,138463.0,22592.0,32537.0,15132.0,21574.0,23985.0,13063.0,5616.0,3115.0,628.0,221.0
729762,County,2020/08/16,55.0,WI,55095.0,Polk County,8034.0,35564.0,130893.0,24100.0,28659.0,14433.0,18598.0,23044.0,10180.0,6767.0,4010.0,835.0,267.0
734542,County,2020/08/17,55.0,WI,55095.0,Polk County,7489.0,36109.0,149278.0,26365.0,32744.0,17096.0,22260.0,26102.0,14647.0,6709.0,2304.0,766.0,285.0
737714,County,2020/08/18,55.0,WI,55095.0,Polk County,7223.0,36375.0,147305.0,28880.0,32468.0,14238.0,21533.0,27146.0,13403.0,6707.0,1934.0,725.0,271.0
739376,County,2020/08/19,55.0,WI,55095.0,Polk County,6951.0,36647.0,153569.0,30353.0,30551.0,16196.0,22255.0,29713.0,14765.0,6667.0,1933.0,888.0,248.0
744108,County,2020/08/20,55.0,WI,55095.0,Polk County,6767.0,36831.0,154094.0,30095.0,29637.0,16950.0,23834.0,26357.0,16166.0,7941.0,2111.0,718.0,285.0
747313,County,2020/08/21,55.0,WI,55095.0,Polk County,6071.0,37527.0,154832.0,29106.0,30336.0,16029.0,22686.0,29518.0,15560.0,7574.0,2924.0,814.0,285.0
750518,County,2020/08/22,55.0,WI,55095.0,Polk County,7193.0,36405.0,149414.0,27181.0,30684.0,17449.0,24592.0,26925.0,12432.0,5722.0,3549.0,691.0,189.0
753691,County,2020/08/23,55.0,WI,55095.0,Polk County,8554.0,35044.0,118105.0,21992.0,25383.0,12642.0,18625.0,20941.0,9357.0,5626.0,2685.0,624.0,230.0
753791,County,2020/08/24,55.0,WI,55095.0,Polk County,7661.0,35937.0,129220.0,21056.0,29033.0,12915.0,19387.0,23356.0,14004.0,6329.0,2420.0,464.0,256.0
758508,County,2020/08/25,55.0,WI,55095.0,Polk County,7394.0,36204.0,132968.0,24233.0,28098.0,15078.0,19616.0,23852.0,13538.0,6192.0,1680.0,440.0,241.0
763279,County,2020/08/26,55.0,WI,55095.0,Polk County,7634.0,35964.0,132194.0,24286.0,31237.0,11562.0,18089.0,24273.0,13774.0,6472.0,1877.0,431.0,193.0
766480,County,2020/08/27,55.0,WI,55095.0,Polk County,7400.0,36198.0,136106.0,25876.0,28431.0,14341.0,21370.0,24085.0,13854.0,5785.0,1834.0,451.0,79.0
769690,County,2020/08/28,55.0,WI,55095.0,Polk County,7076.0,36522.0,129323.0,20384.0,26645.0,13569.0,20989.0,23917.0,13115.0,7463.0,2673.0,511.0,57.0
771318,County,2020/08/29,55.0,WI,55095.0,Polk County,8098.0,35500.0,133683.0,23460.0,28688.0,14363.0,22772.0,25197.0,11688.0,5211.0,1748.0,429.0,127.0
774516,County,2020/08/30,55.0,WI,55095.0,Polk County,8893.0,34705.0,117486.0,18824.0,24123.0,13246.0,19518.0,21663.0,10308.0,6437.0,2836.0,374.0,157.0
777699,County,2020/08/31,55.0,WI,55095.0,Polk County,7957.0,35641.0,126164.0,22352.0,26703.0,12932.0,17733.0,22947.0,13847.0,7022.0,1889.0,569.0,170.0
780850,County,2020/09/01,55.0,WI,55095.0,Polk County,7865.0,35733.0,129739.0,21990.0,27522.0,14830.0,18490.0,24156.0,15331.0,5112.0,1590.0,607.0,111.0
784874,County,2020/09/02,55.0,WI,55095.0,Polk County,7445.0,36153.0,137392.0,22674.0,30362.0,15581.0,21685.0,24911.0,13844.0,6135.0,1489.0,556.0,155.0
788834,County,2020/09/03,55.0,WI,55095.0,Polk County,6747.0,36851.0,139218.0,22569.0,27904.0,14915.0,21371.0,26877.0,14631.0,7484.0,2792.0,552.0,123.0
790448,County,2020/09/04,55.0,WI,55095.0,Polk County,7452.0,36146.0,147614.0,26903.0,31738.0,13737.0,24152.0,26539.0,14129.0,6753.0,2783.0,685.0,195.0
795209,County,2020/09/05,55.0,WI,55095.0,Polk County,8356.0,35242.0,143043.0,26844.0,35814.0,14009.0,21749.0,24163.0,11301.0,5966.0,2627.0,471.0,99.0
798412,County,2020/09/06,55.0,WI,55095.0,Polk County,9298.0,34300.0,121651.0,21503.0,24792.0,12189.0,21233.0,25170.0,10116.0,4022.0,1797.0,629.0,200.0
801622,County,2020/09/07,55.0,WI,55095.0,Polk County,9436.0,34162.0,108913.0,16398.0,23645.0,13079.0,15561.0,19974.0,8684.0,6903.0,3777.0,752.0,140.0
803252,County,2020/09/08,55.0,WI,55095.0,Polk County,7475.0,36123.0,145061.0,25654.0,30659.0,14105.0,21685.0,27767.0,15964.0,6466.0,2063.0,566.0,132.0
806418,County,2020/09/09,55.0,WI,55095.0,Polk County,7349.0,36249.0,146614.0,25123.0,30030.0,15576.0,21713.0,28596.0,15986.0,6702.0,2417.0,350.0,121.0
811186,County,2020/09/10,55.0,WI,55095.0,Polk County,7616.0,35982.0,136002.0,20764.0,30020.0,13261.0,19866.0,25703.0,16860.0,7344.0,1614.0,405.0,165.0
814371,County,2020/09/11,55.0,WI,55095.0,Polk County,7478.0,36120.0,140150.0,18954.0,31203.0,14150.0,20154.0,28833.0,17152.0,6487.0,2378.0,677.0,162.0
816001,County,2020/09/12,55.0,WI,55095.0,Polk County,7978.0,35620.0,130007.0,18810.0,28064.0,15067.0,22881.0,24516.0,11525.0,5772.0,2496.0,712.0,164.0
820798,County,2020/09/13,55.0,WI,55095.0,Polk County,9415.0,34183.0,114128.0,16956.0,28014.0,14556.0,17549.0,17481.0,10779.0,5421.0,2273.0,715.0,384.0
823954,County,2020/09/14,55.0,WI,55095.0,Polk County,7863.0,35735.0,132760.0,21862.0,25521.0,15019.0,21598.0,25796.0,13743.0,6480.0,1959.0,580.0,202.0
825582,County,2020/09/15,55.0,WI,55095.0,Polk County,7633.0,35965.0,138567.0,21624.0,28193.0,17135.0,21499.0,26957.0,14804.0,6220.0,1433.0,561.0,141.0
828823,County,2020/09/16,55.0,WI,55095.0,Polk County,7369.0,36229.0,136828.0,22329.0,28315.0,12757.0,20749.0,27115.0,16110.0,6515.0,2076.0,530.0,332.0
833567,County,2020/09/17,55.0,WI,55095.0,Polk County,7535.0,36063.0,140679.0,22303.0,30304.0,12221.0,23759.0,26092.0,15734.0,7254.0,2247.0,616.0,149.0
835196,County,2020/09/18,55.0,WI,55095.0,Polk County,7484.0,36114.0,143158.0,22827.0,30492.0,14343.0,22516.0,26229.0,16063.0,7904.0,1931.0,725.0,128.0
838358,County,2020/09/19,55.0,WI,55095.0,Polk County,7747.0,35851.0,146778.0,26047.0,30215.0,18148.0,21040.0,30637.0,12718.0,5680.0,1615.0,550.0,128.0
843133,County,2020/09/20,55.0,WI,55095.0,Polk County,8644.0,34954.0,109824.0,17177.0,24935.0,12190.0,16537.0,19499.0,10855.0,5166.0,2866.0,445.0,154.0
846337,County,2020/09/21,55.0,WI,55095.0,Polk County,8129.0,35469.0,122458.0,20788.0,29894.0,11958.0,15209.0,22916.0,13958.0,5616.0,1659.0,351.0,109.0
847966,County,2020/09/22,55.0,WI,55095.0,Polk County,7415.0,36183.0,127290.0,23758.0,26706.0,11793.0,18414.0,25500.0,13884.0,5566.0,1407.0,199.0,63.0
852744,County,2020/09/23,55.0,WI,55095.0,Polk County,7424.0,36174.0,135275.0,21554.0,28732.0,14777.0,20465.0,26458.0,16099.0,5867.0,1002.0,237.0,84.0
855899,County,2020/09/24,55.0,WI,55095.0,Polk County,6984.0,36614.0,132822.0,22996.0,30351.0,13758.0,19325.0,23762.0,14309.0,5916.0,1858.0,440.0,107.0
857528,County,2020/09/25,55.0,WI,55095.0,Polk County,6713.0,36885.0,147579.0,26386.0,31602.0,16624.0,20239.0,28514.0,14920.0,6627.0,2319.0,288.0,60.0
860714,County,2020/09/26,55.0,WI,55095.0,Polk County,7997.0,35601.0,133090.0,20595.0,30184.0,14331.0,22116.0,25836.0,13200.0,4810.0,1745.0,155.0,118.0
865511,County,2020/09/27,55.0,WI,55095.0,Polk County,8626.0,34972.0,114529.0,17971.0,25298.0,14836.0,17383.0,19106.0,10367.0,6309.0,2779.0,409.0,71.0
867140,County,2020/09/28,55.0,WI,55095.0,Polk County,7604.0,35994.0,123291.0,18190.0,27136.0,13745.0,17903.0,23139.0,14356.0,7060.0,1408.0,322.0,32.0
870297,County,2020/09/29,55.0,WI,55095.0,Polk County,7457.0,36141.0,128305.0,18360.0,26088.0,16738.0,19767.0,25044.0,13505.0,6809.0,1473.0,476.0,45.0
875076,County,2020/09/30,55.0,WI,55095.0,Polk County,7025.0,36573.0,134999.0,19013.0,28714.0,14993.0,21457.0,27760.0,14583.0,6840.0,1176.0,423.0,40.0
878279,County,2020/10/01,55.0,WI,55095.0,Polk County,6697.0,36901.0,130402.0,20179.0,25238.0,13456.0,20768.0,27369.0,14735.0,6205.0,1909.0,477.0,66.0
879908,County,2020/10/02,55.0,WI,55095.0,Polk County,7733.0,35865.0,133108.0,21364.0,25410.0,15417.0,19535.0,27347.0,14397.0,6847.0,2151.0,596.0,44.0
884640,County,2020/10/03,55.0,WI,55095.0,Polk County,8435.0,35163.0,130739.0,24035.0,25157.0,14739.0,20344.0,24371.0,14079.0,5771.0,1801.0,362.0,80.0
887767,County,2020/10/04,55.0,WI,55095.0,Polk County,8833.0,34765.0,121316.0,20739.0,25866.0,14707.0,20604.0,21615.0,8892.0,5390.0,3034.0,426.0,43.0
891013,County,2020/10/05,55.0,WI,55095.0,Polk County,8420.0,35178.0,127781.0,18670.0,28020.0,15345.0,17917.0,25552.0,14104.0,6056.0,1640.0,433.0,44.0
894191,County,2020/10/06,55.0,WI,55095.0,Polk County,7644.0,35954.0,136994.0,22872.0,26777.0,15893.0,22035.0,27596.0,14433.0,5667.0,1315.0,370.0,36.0
897393,County,2020/10/07,55.0,WI,55095.0,Polk County,6983.0,36615.0,147076.0,21879.0,31600.0,19475.0,24042.0,26488.0,15450.0,6698.0,1027.0,379.0,38.0
900550,County,2020/10/08,55.0,WI,55095.0,Polk County,7376.0,36222.0,200288.0,69990.0,43322.0,13256.0,21910.0,28974.0,15249.0,5746.0,1473.0,315.0,53.0
903791,County,2020/10/09,55.0,WI,55095.0,Polk County,7701.0,35897.0,142726.0,24322.0,29957.0,14570.0,21538.0,27169.0,16828.0,6246.0,1699.0,361.0,36.0
907012,County,2020/10/10,55.0,WI,55095.0,Polk County,8395.0,35203.0,134206.0,20697.0,27863.0,15529.0,21938.0,27580.0,14793.0,4022.0,1452.0,300.0,32.0
909545,County,2020/10/11,55.0,WI,55095.0,Polk County,8875.0,34723.0,110742.0,16279.0,20419.0,14458.0,19828.0,21270.0,9750.0,6299.0,1970.0,435.0,34.0
910650,County,2020/10/12,55.0,WI,55095.0,Polk County,7980.0,35618.0,120793.0,15196.0,26592.0,14743.0,18721.0,21733.0,14702.0,7302.0,1301.0,480.0,23.0
914358,County,2020/10/13,55.0,WI,55095.0,Polk County,7467.0,36131.0,129560.0,18287.0,26242.0,14325.0,20119.0,26345.0,14746.0,7500.0,1500.0,464.0,32.0
916788,County,2020/10/14,55.0,WI,55095.0,Polk County,7455.0,36143.0,138064.0,22090.0,28626.0,14979.0,22036.0,25109.0,16279.0,6827.0,1503.0,562.0,53.0
920017,County,2020/10/15,55.0,WI,55095.0,Polk County,7429.0,36169.0,123080.0,16210.0,27097.0,13361.0,19514.0,22729.0,14314.0,7867.0,1476.0,437.0,75.0
923184,County,2020/10/16,55.0,WI,55095.0,Polk County,7123.0,36475.0,133524.0,18477.0,24667.0,15053.0,22302.0,27421.0,15970.0,7467.0,1735.0,398.0,34.0
926411,County,2020/10/17,55.0,WI,55095.0,Polk County,8267.0,35331.0,130182.0,20949.0,31385.0,14127.0,19100.0,24494.0,12700.0,5289.0,1572.0,526.0,40.0
929496,County,2020/10/18,55.0,WI,55095.0,Polk County,9242.0,34356.0,113166.0,18347.0,24695.0,12875.0,17312.0,21076.0,10256.0,5572.0,2385.0,589.0,59.0
932725,County,2020/10/19,55.0,WI,55095.0,Polk County,7832.0,35766.0,133466.0,23235.0,25520.0,14661.0,20234.0,25875.0,15433.0,6681.0,1476.0,318.0,33.0
935901,County,2020/10/20,55.0,WI,55095.0,Polk County,7964.0,35634.0,125440.0,22131.0,27794.0,12582.0,18586.0,19616.0,16179.0,6495.0,1579.0,437.0,41.0
939145,County,2020/10/21,55.0,WI,55095.0,Polk County,7693.0,35905.0,125157.0,19526.0,27584.0,13499.0,19507.0,23347.0,14266.0,5439.0,1569.0,392.0,28.0
942349,County,2020/10/22,55.0,WI,55095.0,Polk County,7805.0,35793.0,125944.0,17418.0,28245.0,14769.0,19678.0,23145.0,13935.0,6663.0,1697.0,344.0,50.0
945447,County,2020/10/23,55.0,WI,55095.0,Polk County,7436.0,36162.0,138560.0,22953.0,27730.0,15358.0,22257.0,25263.0,15487.0,6555.0,2458.0,450.0,49.0
948838,County,2020/10/24,55.0,WI,55095.0,Polk County,8375.0,35223.0,133305.0,18259.0,28826.0,16615.0,22854.0,25603.0,14002.0,4514.0,2328.0,269.0,35.0
