,Level,Date,State FIPS,State Postal Code,County FIPS,County Name,Population Staying at Home,Population Not Staying at Home,Number of Trips,Number of Trips <1,Number of Trips 1-3,Number of Trips 3-5,Number of Trips 5-10,Number of Trips 10-25,Number of Trips 25-50,Number of Trips 50-100,Number of Trips 100-250,Number of Trips 250-500,Number of Trips >=500
851,County,2020/01/01,19.0,IA,19125.0,Marion County,9964.0,23443.0,84930.0,21058.0,22334.0,11092.0,7557.0,12474.0,6699.0,2427.0,899.0,262.0,128.0
6233,County,2020/01/02,19.0,IA,19125.0,Marion County,7877.0,25530.0,114530.0,29440.0,30178.0,11432.0,9182.0,20806.0,8734.0,3467.0,974.0,249.0,68.0
7768,County,2020/01/03,19.0,IA,19125.0,Marion County,7559.0,25848.0,121937.0,30148.0,34762.0,11888.0,9126.0,19881.0,11627.0,3437.0,863.0,164.0,41.0
12283,County,2020/01/04,19.0,IA,19125.0,Marion County,8513.0,24894.0,113964.0,26893.0,31261.0,11741.0,10219.0,17936.0,10759.0,4063.0,886.0,129.0,77.0
13627,County,2020/01/05,19.0,IA,19125.0,Marion County,9382.0,24025.0,98092.0,21819.0,31141.0,11729.0,7854.0,13497.0,8694.0,2588.0,597.0,136.0,37.0
16331,County,2020/01/06,19.0,IA,19125.0,Marion County,8206.0,25201.0,108962.0,24359.0,33616.0,10917.0,7231.0,19200.0,9038.0,3866.0,595.0,107.0,33.0
19585,County,2020/01/07,19.0,IA,19125.0,Marion County,8010.0,25397.0,115304.0,25768.0,34654.0,11181.0,9153.0,19332.0,10715.0,3882.0,494.0,66.0,59.0
24433,County,2020/01/08,19.0,IA,19125.0,Marion County,8274.0,25133.0,115527.0,27356.0,36064.0,9204.0,8708.0,20009.0,9394.0,3781.0,806.0,157.0,48.0
27564,County,2020/01/09,19.0,IA,19125.0,Marion County,7886.0,25521.0,112940.0,29213.0,32355.0,10545.0,7918.0,18320.0,9907.0,3946.0,590.0,107.0,39.0
29157,County,2020/01/10,19.0,IA,19125.0,Marion County,7972.0,25435.0,109854.0,25003.0,33279.0,10801.0,8752.0,18185.0,9883.0,2822.0,1000.0,91.0,38.0
32399,County,2020/01/11,19.0,IA,19125.0,Marion County,10209.0,23198.0,112675.0,28043.0,38434.0,11316.0,8162.0,15460.0,7697.0,2975.0,428.0,109.0,51.0
35555,County,2020/01/12,19.0,IA,19125.0,Marion County,9638.0,23769.0,94162.0,20319.0,30376.0,11888.0,7357.0,12752.0,7850.0,2540.0,833.0,200.0,47.0
38798,County,2020/01/13,19.0,IA,19125.0,Marion County,8047.0,25360.0,103819.0,22749.0,32737.0,8685.0,8001.0,17116.0,10233.0,3537.0,559.0,157.0,45.0
43531,County,2020/01/14,19.0,IA,19125.0,Marion County,7539.0,25868.0,118927.0,27010.0,38809.0,11636.0,7802.0,17569.0,11107.0,4406.0,495.0,69.0,24.0
45112,County,2020/01/15,19.0,IA,19125.0,Marion County,7691.0,25716.0,110405.0,24271.0,35175.0,9395.0,8565.0,18832.0,10136.0,3261.0,605.0,137.0,28.0
49893,County,2020/01/16,19.0,IA,19125.0,Marion County,7505.0,25902.0,117316.0,30616.0,33849.0,10581.0,8537.0,17711.0,10859.0,4011.0,929.0,158.0,65.0
51521,County,2020/01/17,19.0,IA,19125.0,Marion County,9498.0,23909.0,102629.0,26212.0,33307.0,10971.0,8442.0,13361.0,7413.0,2214.0,565.0,106.0,38.0
54753,County,2020/01/18,19.0,IA,19125.0,Marion County,10386.0,23021.0,102569.0,28901.0,36485.0,10215.0,7237.0,10488.0,5975.0,2460.0,706.0,46.0,56.0
57900,County,2020/01/19,19.0,IA,19125.0,Marion County,10315.0,23092.0,95349.0,21721.0,30987.0,11884.0,7680.0,12956.0,6408.0,2774.0,723.0,166.0,50.0
62662,County,2020/01/20,19.0,IA,19125.0,Marion County,8448.0,24959.0,103385.0,22865.0,34314.0,9653.0,6786.0,16556.0,8641.0,3339.0,985.0,196.0,50.0
64290,County,2020/01/21,19.0,IA,19125.0,Marion County,7894.0,25513.0,110972.0,25364.0,35061.0,9802.0,7973.0,16767.0,12280.0,2912.0,630.0,126.0,57.0
67492,County,2020/01/22,19.0,IA,19125.0,Marion County,7782.0,25625.0,105807.0,26492.0,30853.0,10922.0,8168.0,15722.0,9529.0,3173.0,689.0,207.0,52.0
72283,County,2020/01/23,19.0,IA,19125.0,Marion County,8250.0,25157.0,114026.0,27511.0,34582.0,11963.0,8906.0,16954.0,10215.0,2850.0,823.0,164.0,58.0
75439,County,2020/01/24,19.0,IA,19125.0,Marion County,8273.0,25134.0,110661.0,26538.0,35250.0,11912.0,8309.0,16052.0,8258.0,3329.0,714.0,226.0,73.0
77065,County,2020/01/25,19.0,IA,19125.0,Marion County,8242.0,25165.0,114515.0,25248.0,34821.0,10490.0,10243.0,17393.0,11607.0,3951.0,600.0,100.0,62.0
80701,County,2020/01/26,19.0,IA,19125.0,Marion County,9400.0,24007.0,97585.0,22568.0,32513.0,10504.0,7563.0,12290.0,7760.0,3196.0,912.0,213.0,66.0
84891,County,2020/01/27,19.0,IA,19125.0,Marion County,8033.0,25374.0,106942.0,25838.0,31561.0,11056.0,7224.0,16463.0,10113.0,3665.0,857.0,114.0,51.0
88794,County,2020/01/28,19.0,IA,19125.0,Marion County,8191.0,25216.0,109065.0,25706.0,29681.0,11683.0,8207.0,16595.0,11710.0,4448.0,826.0,165.0,44.0
89866,County,2020/01/29,19.0,IA,19125.0,Marion County,8015.0,25392.0,103737.0,24127.0,30518.0,8450.0,7665.0,18154.0,10158.0,3757.0,685.0,148.0,75.0
94649,County,2020/01/30,19.0,IA,19125.0,Marion County,7970.0,25437.0,108798.0,26093.0,32420.0,8382.0,7161.0,17474.0,10171.0,5656.0,1112.0,151.0,178.0
96225,County,2020/01/31,19.0,IA,19125.0,Marion County,7379.0,26028.0,120229.0,30553.0,33780.0,10423.0,8589.0,19098.0,11697.0,4624.0,1043.0,241.0,181.0
99474,County,2020/02/01,19.0,IA,19125.0,Marion County,8060.0,25347.0,113468.0,27099.0,32561.0,9352.0,9521.0,18013.0,10970.0,4294.0,1260.0,186.0,212.0
104185,County,2020/02/02,19.0,IA,19125.0,Marion County,8718.0,24689.0,99402.0,23336.0,30038.0,11454.0,9784.0,12270.0,7615.0,3154.0,1363.0,152.0,236.0
107437,County,2020/02/03,19.0,IA,19125.0,Marion County,7585.0,25822.0,110496.0,27390.0,34418.0,9640.0,7364.0,16838.0,9675.0,3587.0,1234.0,164.0,186.0
110572,County,2020/02/04,19.0,IA,19125.0,Marion County,7434.0,25973.0,117927.0,25706.0,36546.0,10173.0,9486.0,18645.0,12546.0,3421.0,986.0,252.0,166.0
112200,County,2020/02/05,19.0,IA,19125.0,Marion County,7439.0,25968.0,120617.0,30996.0,36732.0,10561.0,9289.0,17001.0,10473.0,4330.0,833.0,273.0,129.0
116983,County,2020/02/06,19.0,IA,19125.0,Marion County,7351.0,26056.0,116190.0,27205.0,33171.0,11633.0,9585.0,18663.0,10664.0,3717.0,1112.0,295.0,145.0
120237,County,2020/02/07,19.0,IA,19125.0,Marion County,7513.0,25894.0,120778.0,28636.0,35450.0,11930.0,9653.0,17004.0,11693.0,4519.0,1459.0,319.0,115.0
121807,County,2020/02/08,19.0,IA,19125.0,Marion County,7823.0,25584.0,119015.0,29469.0,33758.0,10549.0,10753.0,17156.0,11025.0,4568.0,1283.0,345.0,109.0
127555,County,2020/02/09,19.0,IA,19125.0,Marion County,9713.0,23694.0,95662.0,21580.0,31506.0,10067.0,8156.0,11578.0,7966.0,3014.0,1266.0,335.0,194.0
129160,County,2020/02/10,19.0,IA,19125.0,Marion County,7664.0,25743.0,124517.0,29840.0,39181.0,10145.0,9845.0,18087.0,10961.0,4903.0,973.0,386.0,196.0
131806,County,2020/02/11,19.0,IA,19125.0,Marion County,7028.0,26379.0,127695.0,31188.0,37793.0,11247.0,10911.0,18359.0,11813.0,4468.0,1342.0,407.0,167.0
136095,County,2020/02/12,19.0,IA,19125.0,Marion County,6943.0,26464.0,115390.0,29702.0,32056.0,9695.0,8721.0,18139.0,10773.0,4294.0,1361.0,406.0,243.0
139364,County,2020/02/13,19.0,IA,19125.0,Marion County,7557.0,25850.0,111539.0,26450.0,32894.0,10109.0,7801.0,15995.0,11703.0,4555.0,1400.0,369.0,263.0
142520,County,2020/02/14,19.0,IA,19125.0,Marion County,6738.0,26669.0,136657.0,32943.0,41151.0,11171.0,9976.0,20586.0,13580.0,5215.0,1393.0,377.0,265.0
144144,County,2020/02/15,19.0,IA,19125.0,Marion County,7631.0,25776.0,132274.0,31030.0,38586.0,11599.0,9869.0,19806.0,12937.0,6569.0,1355.0,307.0,216.0
148928,County,2020/02/16,19.0,IA,19125.0,Marion County,9006.0,24401.0,105949.0,25315.0,34480.0,9210.0,9730.0,13840.0,7737.0,3635.0,1324.0,463.0,215.0
150556,County,2020/02/17,19.0,IA,19125.0,Marion County,9712.0,23695.0,96043.0,21316.0,27062.0,9514.0,8384.0,13734.0,10789.0,3656.0,1039.0,367.0,182.0
153721,County,2020/02/18,19.0,IA,19125.0,Marion County,7713.0,25694.0,121838.0,30832.0,34123.0,10559.0,9213.0,18963.0,11732.0,4816.0,1019.0,308.0,273.0
158482,County,2020/02/19,19.0,IA,19125.0,Marion County,6986.0,26421.0,120313.0,29632.0,31666.0,9624.0,8838.0,20963.0,12922.0,5012.0,1083.0,350.0,223.0
161629,County,2020/02/20,19.0,IA,19125.0,Marion County,7550.0,25857.0,125855.0,31191.0,36794.0,10893.0,10109.0,18653.0,11184.0,5358.0,1161.0,321.0,191.0
163304,County,2020/02/21,19.0,IA,19125.0,Marion County,7548.0,25859.0,130304.0,31535.0,36887.0,10998.0,9933.0,19956.0,13483.0,5096.0,1883.0,381.0,152.0
168015,County,2020/02/22,19.0,IA,19125.0,Marion County,7430.0,25977.0,134273.0,34453.0,37520.0,12699.0,9743.0,21339.0,10759.0,5640.0,1651.0,325.0,144.0
171263,County,2020/02/23,19.0,IA,19125.0,Marion County,8578.0,24829.0,112799.0,26575.0,30942.0,10585.0,11222.0,17612.0,10229.0,3695.0,1432.0,378.0,129.0
172890,County,2020/02/24,19.0,IA,19125.0,Marion County,7799.0,25608.0,118335.0,27971.0,36600.0,9977.0,8932.0,19119.0,10422.0,4123.0,836.0,197.0,158.0
176128,County,2020/02/25,19.0,IA,19125.0,Marion County,7318.0,26089.0,129634.0,32936.0,38762.0,11673.0,8935.0,20410.0,12528.0,3260.0,785.0,163.0,182.0
179715,County,2020/02/26,19.0,IA,19125.0,Marion County,7150.0,26257.0,118300.0,26496.0,36381.0,12676.0,9485.0,18370.0,10662.0,2536.0,1267.0,322.0,105.0
183882,County,2020/02/27,19.0,IA,19125.0,Marion County,7432.0,25975.0,137939.0,38168.0,40370.0,12150.0,10401.0,19901.0,11632.0,4201.0,853.0,179.0,84.0
185755,County,2020/02/28,19.0,IA,19125.0,Marion County,7534.0,25873.0,143078.0,38551.0,41414.0,12371.0,11373.0,19659.0,14052.0,4310.0,1011.0,223.0,114.0
188857,County,2020/02/29,19.0,IA,19125.0,Marion County,7592.0,25815.0,145100.0,40434.0,41654.0,12426.0,11022.0,21329.0,11917.0,5225.0,808.0,175.0,110.0
193641,County,2020/03/01,19.0,IA,19125.0,Marion County,8142.0,25265.0,114068.0,32752.0,33164.0,10356.0,8410.0,15497.0,9022.0,3068.0,1381.0,296.0,122.0
195270,County,2020/03/02,19.0,IA,19125.0,Marion County,7716.0,25691.0,123360.0,32884.0,34238.0,11361.0,8671.0,19567.0,12615.0,2893.0,782.0,276.0,73.0
199906,County,2020/03/03,19.0,IA,19125.0,Marion County,7104.0,26303.0,116359.0,28026.0,34269.0,11513.0,9486.0,16838.0,10845.0,3838.0,1200.0,233.0,111.0
203210,County,2020/03/04,19.0,IA,19125.0,Marion County,7142.0,26265.0,112476.0,24843.0,30461.0,10413.0,8787.0,20902.0,11065.0,4430.0,1250.0,225.0,100.0
204775,County,2020/03/05,19.0,IA,19125.0,Marion County,6711.0,26696.0,115601.0,31245.0,33964.0,9575.0,7738.0,17405.0,9914.0,3773.0,1603.0,282.0,102.0
207943,County,2020/03/06,19.0,IA,19125.0,Marion County,6835.0,26572.0,128141.0,34438.0,32930.0,9864.0,10981.0,21628.0,11342.0,4794.0,1939.0,154.0,71.0
211244,County,2020/03/07,19.0,IA,19125.0,Marion County,6913.0,26494.0,127002.0,31840.0,35539.0,14120.0,10554.0,16427.0,11993.0,4188.0,1895.0,334.0,112.0
215969,County,2020/03/08,19.0,IA,19125.0,Marion County,7916.0,25491.0,111394.0,26720.0,34087.0,10913.0,9608.0,15058.0,9579.0,3056.0,1982.0,289.0,102.0
217612,County,2020/03/09,19.0,IA,19125.0,Marion County,7385.0,26022.0,106132.0,22311.0,30284.0,10459.0,9476.0,17285.0,10708.0,3632.0,1644.0,236.0,97.0
220846,County,2020/03/10,19.0,IA,19125.0,Marion County,6762.0,26645.0,113825.0,27526.0,30847.0,12069.0,8295.0,17509.0,10896.0,5053.0,1423.0,141.0,66.0
225640,County,2020/03/11,19.0,IA,19125.0,Marion County,6529.0,26878.0,119326.0,26054.0,40938.0,10271.0,9975.0,16644.0,8210.0,3667.0,2645.0,728.0,194.0
227219,County,2020/03/12,19.0,IA,19125.0,Marion County,6660.0,26747.0,98726.0,14167.0,28811.0,11206.0,10673.0,15369.0,9617.0,5919.0,2223.0,586.0,155.0
230379,County,2020/03/13,19.0,IA,19125.0,Marion County,6296.0,27111.0,101350.0,18728.0,24573.0,13860.0,10818.0,12900.0,12733.0,3639.0,3231.0,615.0,253.0
233578,County,2020/03/14,19.0,IA,19125.0,Marion County,8323.0,25084.0,100994.0,17025.0,31507.0,11839.0,11777.0,10284.0,11202.0,3869.0,2592.0,783.0,116.0
238332,County,2020/03/15,19.0,IA,19125.0,Marion County,9669.0,23738.0,103578.0,24903.0,32009.0,10892.0,8786.0,14795.0,7378.0,2886.0,1612.0,188.0,129.0
241575,County,2020/03/16,19.0,IA,19125.0,Marion County,8158.0,25249.0,111844.0,24756.0,33894.0,13916.0,9931.0,14487.0,9594.0,3105.0,1737.0,280.0,144.0
244765,County,2020/03/17,19.0,IA,19125.0,Marion County,8782.0,24625.0,102212.0,23955.0,28227.0,10600.0,9391.0,13307.0,11390.0,3280.0,1829.0,175.0,58.0
247873,County,2020/03/18,19.0,IA,19125.0,Marion County,9654.0,23753.0,94483.0,18681.0,28260.0,12580.0,8158.0,13851.0,8487.0,2499.0,1660.0,190.0,117.0
249552,County,2020/03/19,19.0,IA,19125.0,Marion County,10215.0,23192.0,97647.0,21288.0,27383.0,12172.0,8197.0,15196.0,8911.0,2869.0,1436.0,174.0,21.0
254352,County,2020/03/20,19.0,IA,19125.0,Marion County,10003.0,23404.0,97903.0,21383.0,25725.0,11234.0,8175.0,15319.0,10597.0,3712.0,1412.0,287.0,59.0
255929,County,2020/03/21,19.0,IA,19125.0,Marion County,10648.0,22759.0,106307.0,26270.0,33396.0,13385.0,9208.0,11835.0,7831.0,2994.0,1085.0,238.0,65.0
260682,County,2020/03/22,19.0,IA,19125.0,Marion County,11263.0,22144.0,74218.0,17396.0,24424.0,8954.0,5785.0,9825.0,4364.0,2053.0,1108.0,245.0,64.0
263895,County,2020/03/23,19.0,IA,19125.0,Marion County,9237.0,24170.0,88965.0,20475.0,24673.0,9419.0,8078.0,14117.0,7536.0,3312.0,1041.0,243.0,71.0
267124,County,2020/03/24,19.0,IA,19125.0,Marion County,9848.0,23559.0,85916.0,18217.0,26805.0,8817.0,7634.0,13925.0,7262.0,1996.0,1040.0,189.0,31.0
268755,County,2020/03/25,19.0,IA,19125.0,Marion County,10041.0,23366.0,86771.0,19634.0,20880.0,10004.0,9232.0,15593.0,7976.0,2179.0,941.0,246.0,86.0
273495,County,2020/03/26,19.0,IA,19125.0,Marion County,9521.0,23886.0,88565.0,18562.0,27706.0,10375.0,7461.0,13960.0,6945.0,2567.0,730.0,230.0,29.0
276661,County,2020/03/27,19.0,IA,19125.0,Marion County,9215.0,24192.0,86575.0,16752.0,25397.0,9510.0,8294.0,14076.0,8027.0,3049.0,1170.0,260.0,40.0
278289,County,2020/03/28,19.0,IA,19125.0,Marion County,10092.0,23315.0,94978.0,21579.0,30935.0,9739.0,6984.0,13735.0,7681.0,3102.0,948.0,195.0,80.0
283049,County,2020/03/29,19.0,IA,19125.0,Marion County,11113.0,22294.0,83546.0,19180.0,25463.0,11253.0,6504.0,12246.0,5402.0,2627.0,632.0,205.0,34.0
284675,County,2020/03/30,19.0,IA,19125.0,Marion County,9389.0,24018.0,95561.0,22823.0,25453.0,11716.0,7584.0,15499.0,8313.0,2921.0,941.0,258.0,53.0
287871,County,2020/03/31,19.0,IA,19125.0,Marion County,10040.0,23367.0,101353.0,27829.0,29226.0,10929.0,7176.0,14425.0,8101.0,2783.0,665.0,176.0,43.0
291107,County,2020/04/01,19.0,IA,19125.0,Marion County,9305.0,24102.0,95567.0,21209.0,27885.0,9896.0,6949.0,16556.0,8508.0,3478.0,906.0,132.0,48.0
295840,County,2020/04/02,19.0,IA,19125.0,Marion County,9518.0,23889.0,87837.0,20056.0,24263.0,11946.0,7080.0,12961.0,7971.0,2337.0,913.0,210.0,100.0
299067,County,2020/04/03,19.0,IA,19125.0,Marion County,9238.0,24169.0,81546.0,17821.0,23217.0,8633.0,7309.0,13455.0,7995.0,2042.0,728.0,245.0,101.0
302247,County,2020/04/04,19.0,IA,19125.0,Marion County,10456.0,22951.0,90670.0,19888.0,27012.0,10863.0,7421.0,14435.0,8388.0,1605.0,635.0,351.0,72.0
305399,County,2020/04/05,19.0,IA,19125.0,Marion County,10743.0,22664.0,80310.0,21193.0,22088.0,8410.0,7090.0,11552.0,6218.0,2369.0,917.0,329.0,144.0
308600,County,2020/04/06,19.0,IA,19125.0,Marion County,9680.0,23727.0,86472.0,20695.0,24742.0,9803.0,6063.0,15166.0,7151.0,2080.0,557.0,126.0,89.0
311840,County,2020/04/07,19.0,IA,19125.0,Marion County,10027.0,23380.0,93860.0,18382.0,29403.0,11517.0,9439.0,13860.0,8897.0,1813.0,423.0,95.0,31.0
315013,County,2020/04/08,19.0,IA,19125.0,Marion County,9389.0,24018.0,92682.0,22016.0,26507.0,11992.0,7932.0,12649.0,8752.0,2158.0,395.0,230.0,51.0
316640,County,2020/04/09,19.0,IA,19125.0,Marion County,10145.0,23262.0,83952.0,15722.0,22288.0,10744.0,7772.0,16303.0,7803.0,2603.0,662.0,39.0,16.0
321376,County,2020/04/10,19.0,IA,19125.0,Marion County,9867.0,23540.0,104436.0,23640.0,31131.0,12814.0,8476.0,17392.0,8143.0,1994.0,747.0,76.0,23.0
324613,County,2020/04/11,19.0,IA,19125.0,Marion County,10331.0,23076.0,92149.0,22165.0,27645.0,10164.0,8664.0,13684.0,6980.0,1690.0,982.0,118.0,57.0
326196,County,2020/04/12,19.0,IA,19125.0,Marion County,12798.0,20609.0,60244.0,9901.0,22976.0,8031.0,5207.0,8905.0,3612.0,877.0,457.0,218.0,60.0
331008,County,2020/04/13,19.0,IA,19125.0,Marion County,10887.0,22520.0,91057.0,19134.0,29170.0,11352.0,6137.0,16334.0,6671.0,1576.0,485.0,153.0,45.0
332586,County,2020/04/14,19.0,IA,19125.0,Marion County,9616.0,23791.0,78361.0,16469.0,21013.0,11715.0,6713.0,12127.0,6385.0,2001.0,1530.0,324.0,84.0
335812,County,2020/04/15,19.0,IA,19125.0,Marion County,9599.0,23808.0,78411.0,18530.0,17957.0,12553.0,7801.0,13323.0,5162.0,1620.0,1169.0,265.0,31.0
340481,County,2020/04/16,19.0,IA,19125.0,Marion County,10174.0,23233.0,77365.0,14496.0,20141.0,13073.0,6456.0,13194.0,7369.0,1491.0,919.0,124.0,102.0
343793,County,2020/04/17,19.0,IA,19125.0,Marion County,9531.0,23876.0,96710.0,23462.0,22756.0,19831.0,6392.0,15219.0,5528.0,2137.0,1113.0,130.0,142.0
345371,County,2020/04/18,19.0,IA,19125.0,Marion County,10582.0,22825.0,106239.0,19700.0,29147.0,23477.0,9261.0,16685.0,6015.0,997.0,865.0,50.0,42.0
350122,County,2020/04/19,19.0,IA,19125.0,Marion County,10500.0,22907.0,76704.0,13352.0,21576.0,16013.0,8841.0,10108.0,3995.0,1625.0,846.0,246.0,102.0
353372,County,2020/04/20,19.0,IA,19125.0,Marion County,8804.0,24603.0,89470.0,16911.0,22728.0,14423.0,10823.0,14155.0,6335.0,3061.0,638.0,185.0,211.0
354942,County,2020/04/21,19.0,IA,19125.0,Marion County,10156.0,23251.0,95334.0,19812.0,29558.0,10822.0,7559.0,16460.0,8217.0,2093.0,602.0,175.0,36.0
359714,County,2020/04/22,19.0,IA,19125.0,Marion County,9517.0,23890.0,106238.0,27095.0,31386.0,14364.0,10215.0,14010.0,7200.0,1207.0,559.0,143.0,59.0
362919,County,2020/04/23,19.0,IA,19125.0,Marion County,9854.0,23553.0,100561.0,25855.0,29736.0,10251.0,9424.0,15493.0,7208.0,1857.0,558.0,152.0,27.0
364546,County,2020/04/24,19.0,IA,19125.0,Marion County,8866.0,24541.0,108042.0,22804.0,35591.0,13397.0,8752.0,16401.0,8092.0,2586.0,313.0,91.0,15.0
367713,County,2020/04/25,19.0,IA,19125.0,Marion County,9272.0,24135.0,112881.0,26341.0,33331.0,17050.0,11297.0,14461.0,6895.0,2838.0,541.0,84.0,43.0
370877,County,2020/04/26,19.0,IA,19125.0,Marion County,10179.0,23228.0,95034.0,19644.0,33098.0,11174.0,9189.0,13093.0,6085.0,2052.0,401.0,234.0,64.0
374107,County,2020/04/27,19.0,IA,19125.0,Marion County,9893.0,23514.0,105258.0,27049.0,35061.0,11024.0,9493.0,13717.0,6749.0,1480.0,477.0,129.0,79.0
378884,County,2020/04/28,19.0,IA,19125.0,Marion County,9419.0,23988.0,107091.0,30001.0,31896.0,10450.0,8788.0,14405.0,8017.0,2637.0,721.0,160.0,16.0
382088,County,2020/04/29,19.0,IA,19125.0,Marion County,9940.0,23467.0,107767.0,26309.0,33438.0,13846.0,9802.0,12679.0,9035.0,2155.0,426.0,68.0,9.0
385305,County,2020/04/30,19.0,IA,19125.0,Marion County,9507.0,23900.0,105051.0,23450.0,30567.0,15081.0,10350.0,15312.0,7361.0,2489.0,333.0,108.0,0.0
386882,County,2020/05/01,19.0,IA,19125.0,Marion County,8927.0,24480.0,122684.0,32040.0,35064.0,14512.0,10689.0,19449.0,7538.0,2642.0,671.0,62.0,17.0
391642,County,2020/05/02,19.0,IA,19125.0,Marion County,9734.0,23673.0,113912.0,28955.0,34542.0,12293.0,9687.0,16652.0,8767.0,2351.0,576.0,63.0,26.0
394838,County,2020/05/03,19.0,IA,19125.0,Marion County,10702.0,22705.0,101201.0,23102.0,30331.0,13749.0,9852.0,16671.0,4982.0,2017.0,430.0,56.0,11.0
396489,County,2020/05/04,19.0,IA,19125.0,Marion County,9169.0,24238.0,98892.0,19875.0,33409.0,7987.0,8944.0,17083.0,7279.0,3322.0,848.0,103.0,42.0
401257,County,2020/05/05,19.0,IA,19125.0,Marion County,9278.0,24129.0,99988.0,23826.0,29991.0,9712.0,8036.0,16983.0,8177.0,2404.0,716.0,83.0,60.0
402838,County,2020/05/06,19.0,IA,19125.0,Marion County,9431.0,23976.0,104707.0,25820.0,30887.0,10800.0,8572.0,15524.0,9875.0,2451.0,474.0,234.0,70.0
407557,County,2020/05/07,19.0,IA,19125.0,Marion County,9387.0,24020.0,110699.0,29526.0,31936.0,11042.0,8923.0,16335.0,8747.0,3548.0,384.0,183.0,75.0
410869,County,2020/05/08,19.0,IA,19125.0,Marion County,9835.0,23572.0,116941.0,30028.0,38137.0,10190.0,10009.0,16716.0,8463.0,2750.0,503.0,136.0,9.0
412400,County,2020/05/09,19.0,IA,19125.0,Marion County,9920.0,23487.0,114408.0,32739.0,31787.0,12072.0,9955.0,17743.0,7291.0,2196.0,496.0,111.0,18.0
417197,County,2020/05/10,19.0,IA,19125.0,Marion County,10587.0,22820.0,90374.0,24904.0,25013.0,11555.0,8004.0,12123.0,5921.0,1798.0,937.0,99.0,20.0
420476,County,2020/05/11,19.0,IA,19125.0,Marion County,7979.0,25428.0,119630.0,25693.0,37472.0,12979.0,10143.0,19057.0,10470.0,3093.0,530.0,129.0,64.0
423680,County,2020/05/12,19.0,IA,19125.0,Marion County,7824.0,25583.0,119716.0,27859.0,36472.0,12381.0,8631.0,19403.0,11138.0,2870.0,821.0,111.0,30.0
426729,County,2020/05/13,19.0,IA,19125.0,Marion County,8137.0,25270.0,106089.0,25707.0,29535.0,10774.0,7643.0,17799.0,10371.0,3261.0,758.0,143.0,98.0
428455,County,2020/05/14,19.0,IA,19125.0,Marion County,7784.0,25623.0,101891.0,21794.0,29803.0,11209.0,8246.0,15770.0,10878.0,3139.0,827.0,175.0,50.0
431650,County,2020/05/15,19.0,IA,19125.0,Marion County,7706.0,25701.0,110467.0,24986.0,33552.0,10278.0,9169.0,17834.0,10158.0,3450.0,785.0,181.0,74.0
436399,County,2020/05/16,19.0,IA,19125.0,Marion County,8140.0,25267.0,113692.0,25592.0,37473.0,13819.0,10146.0,15241.0,8086.0,2580.0,525.0,159.0,71.0
439507,County,2020/05/17,19.0,IA,19125.0,Marion County,8610.0,24797.0,98312.0,24513.0,29830.0,10345.0,8805.0,15241.0,6248.0,2363.0,803.0,125.0,39.0
442798,County,2020/05/18,19.0,IA,19125.0,Marion County,7847.0,25560.0,118049.0,26926.0,34199.0,12856.0,11323.0,21614.0,8641.0,1936.0,454.0,88.0,12.0
445961,County,2020/05/19,19.0,IA,19125.0,Marion County,7442.0,25965.0,121406.0,29547.0,34580.0,14136.0,10771.0,20599.0,9635.0,1885.0,98.0,143.0,12.0
447593,County,2020/05/20,19.0,IA,19125.0,Marion County,7108.0,26299.0,118349.0,26743.0,37144.0,10411.0,10727.0,20768.0,9017.0,2934.0,382.0,223.0,0.0
450763,County,2020/05/21,19.0,IA,19125.0,Marion County,7524.0,25883.0,120206.0,26164.0,37131.0,12907.0,11852.0,19515.0,9115.0,2503.0,724.0,225.0,70.0
455522,County,2020/05/22,19.0,IA,19125.0,Marion County,6562.0,26845.0,127314.0,30363.0,34756.0,15354.0,10910.0,22456.0,9494.0,2816.0,845.0,181.0,139.0
458734,County,2020/05/23,19.0,IA,19125.0,Marion County,7978.0,25429.0,114342.0,25101.0,37671.0,13059.0,9740.0,17131.0,8889.0,1838.0,605.0,235.0,73.0
460363,County,2020/05/24,19.0,IA,19125.0,Marion County,8601.0,24806.0,105136.0,26139.0,33396.0,12239.0,9754.0,13761.0,6301.0,2608.0,639.0,117.0,182.0
463566,County,2020/05/25,19.0,IA,19125.0,Marion County,9095.0,24312.0,99136.0,26184.0,29882.0,9283.0,9409.0,14140.0,6995.0,2266.0,663.0,205.0,109.0
466670,County,2020/05/26,19.0,IA,19125.0,Marion County,7694.0,25713.0,112382.0,27685.0,36031.0,12195.0,7598.0,15265.0,9161.0,3167.0,964.0,151.0,165.0
471539,County,2020/05/27,19.0,IA,19125.0,Marion County,7839.0,25568.0,123837.0,30009.0,38466.0,10859.0,10209.0,19992.0,10625.0,2986.0,594.0,72.0,25.0
474639,County,2020/05/28,19.0,IA,19125.0,Marion County,8027.0,25380.0,113415.0,29368.0,36014.0,9068.0,8435.0,16227.0,9896.0,3453.0,793.0,147.0,14.0
476317,County,2020/05/29,19.0,IA,19125.0,Marion County,8695.0,24712.0,114140.0,28972.0,36360.0,8821.0,8036.0,18203.0,9497.0,3402.0,653.0,190.0,6.0
479504,County,2020/05/30,19.0,IA,19125.0,Marion County,9332.0,24075.0,114150.0,31168.0,34140.0,11582.0,7569.0,17833.0,8422.0,2572.0,602.0,255.0,7.0
482631,County,2020/05/31,19.0,IA,19125.0,Marion County,9228.0,24179.0,103092.0,27614.0,32268.0,10521.0,7525.0,13416.0,8618.0,1806.0,1029.0,274.0,21.0
487572,County,2020/06/01,19.0,IA,19125.0,Marion County,7812.0,25595.0,110959.0,29469.0,32032.0,11755.0,7520.0,18096.0,8594.0,2434.0,731.0,276.0,52.0
490679,County,2020/06/02,19.0,IA,19125.0,Marion County,7928.0,25479.0,113400.0,28954.0,34085.0,12343.0,7956.0,15455.0,9996.0,3405.0,910.0,225.0,71.0
493902,County,2020/06/03,19.0,IA,19125.0,Marion County,7432.0,25975.0,128168.0,33376.0,37506.0,12509.0,9763.0,20049.0,10755.0,3122.0,845.0,197.0,46.0
495470,County,2020/06/04,19.0,IA,19125.0,Marion County,6928.0,26479.0,113640.0,29095.0,33210.0,9652.0,10289.0,17405.0,9199.0,3514.0,991.0,239.0,46.0
500247,County,2020/06/05,19.0,IA,19125.0,Marion County,7064.0,26343.0,119291.0,32329.0,32073.0,8516.0,10872.0,21113.0,9904.0,3172.0,992.0,257.0,63.0
503448,County,2020/06/06,19.0,IA,19125.0,Marion County,8345.0,25062.0,103086.0,26638.0,29721.0,9574.0,8060.0,15538.0,9161.0,3264.0,916.0,183.0,31.0
505062,County,2020/06/07,19.0,IA,19125.0,Marion County,8717.0,24690.0,103690.0,27790.0,28795.0,11181.0,10076.0,13964.0,8059.0,2244.0,1111.0,392.0,78.0
509858,County,2020/06/08,19.0,IA,19125.0,Marion County,6764.0,26643.0,134894.0,36840.0,39143.0,11005.0,10779.0,22119.0,10905.0,2989.0,875.0,214.0,25.0
513013,County,2020/06/09,19.0,IA,19125.0,Marion County,7945.0,25462.0,108374.0,26142.0,28256.0,9949.0,10012.0,18959.0,11407.0,2637.0,759.0,179.0,74.0
514645,County,2020/06/10,19.0,IA,19125.0,Marion County,7676.0,25731.0,157303.0,66254.0,42529.0,9150.0,8040.0,17755.0,10104.0,2373.0,787.0,236.0,75.0
519376,County,2020/06/11,19.0,IA,19125.0,Marion County,6728.0,26679.0,126285.0,34262.0,35487.0,10876.0,9940.0,19937.0,11197.0,3462.0,802.0,245.0,77.0
522648,County,2020/06/12,19.0,IA,19125.0,Marion County,7392.0,26015.0,121471.0,32155.0,33403.0,11514.0,9392.0,20377.0,9629.0,3432.0,1357.0,176.0,36.0
524226,County,2020/06/13,19.0,IA,19125.0,Marion County,8049.0,25358.0,127770.0,36630.0,35573.0,12746.0,10872.0,17918.0,9536.0,3286.0,995.0,175.0,39.0
527421,County,2020/06/14,19.0,IA,19125.0,Marion County,8702.0,24705.0,93339.0,20607.0,23802.0,11805.0,8281.0,14034.0,10004.0,2711.0,1667.0,311.0,117.0
530619,County,2020/06/15,19.0,IA,19125.0,Marion County,8301.0,25106.0,111376.0,27605.0,32469.0,12307.0,9813.0,15846.0,9222.0,2592.0,1305.0,131.0,86.0
535400,County,2020/06/16,19.0,IA,19125.0,Marion County,7913.0,25494.0,123784.0,29924.0,39220.0,11508.0,11163.0,18891.0,8866.0,3342.0,639.0,141.0,90.0
538568,County,2020/06/17,19.0,IA,19125.0,Marion County,7798.0,25609.0,155340.0,63990.0,37139.0,11603.0,9958.0,18898.0,9581.0,3216.0,683.0,129.0,143.0
540197,County,2020/06/18,19.0,IA,19125.0,Marion County,7574.0,25833.0,119698.0,29272.0,36757.0,10950.0,11082.0,17899.0,9845.0,3036.0,681.0,128.0,48.0
543390,County,2020/06/19,19.0,IA,19125.0,Marion County,7130.0,26277.0,116420.0,28953.0,31371.0,12683.0,10449.0,19006.0,9406.0,3335.0,1035.0,102.0,80.0
546595,County,2020/06/20,19.0,IA,19125.0,Marion County,8189.0,25218.0,110540.0,29777.0,33102.0,10131.0,8440.0,15709.0,8758.0,3384.0,859.0,250.0,130.0
549799,County,2020/06/21,19.0,IA,19125.0,Marion County,8790.0,24617.0,88380.0,22834.0,25391.0,9444.0,8125.0,11568.0,7299.0,2560.0,865.0,158.0,136.0
552974,County,2020/06/22,19.0,IA,19125.0,Marion County,8086.0,25321.0,100713.0,24295.0,31752.0,10259.0,7466.0,13162.0,9008.0,3647.0,845.0,201.0,78.0
557733,County,2020/06/23,19.0,IA,19125.0,Marion County,7735.0,25672.0,115564.0,30040.0,36523.0,9581.0,8517.0,17189.0,9535.0,3408.0,555.0,168.0,48.0
559366,County,2020/06/24,19.0,IA,19125.0,Marion County,8475.0,24932.0,106451.0,26590.0,33183.0,10310.0,8035.0,15493.0,9227.0,2757.0,661.0,173.0,22.0
564103,County,2020/06/25,19.0,IA,19125.0,Marion County,8002.0,25405.0,107769.0,29313.0,32834.0,9630.0,7783.0,14862.0,9042.0,2983.0,1065.0,211.0,46.0
565809,County,2020/06/26,19.0,IA,19125.0,Marion County,7834.0,25573.0,103890.0,26155.0,28174.0,11902.0,9374.0,14617.0,9523.0,2778.0,1072.0,263.0,32.0
570499,County,2020/06/27,19.0,IA,19125.0,Marion County,7919.0,25488.0,114335.0,29682.0,33730.0,10734.0,8949.0,17860.0,9470.0,3137.0,545.0,212.0,16.0
572138,County,2020/06/28,19.0,IA,19125.0,Marion County,8443.0,24964.0,95981.0,21789.0,27973.0,11028.0,7003.0,14425.0,8821.0,3247.0,1329.0,296.0,70.0
575348,County,2020/06/29,19.0,IA,19125.0,Marion County,8446.0,24961.0,99052.0,26193.0,27666.0,7480.0,7483.0,15564.0,9964.0,3157.0,1196.0,247.0,102.0
578555,County,2020/06/30,19.0,IA,19125.0,Marion County,8286.0,25121.0,96546.0,24135.0,27015.0,8337.0,7208.0,14659.0,10253.0,3470.0,1173.0,185.0,111.0
583305,County,2020/07/01,19.0,IA,19125.0,Marion County,7225.0,26182.0,104015.0,24394.0,29613.0,8710.0,8325.0,17293.0,11086.0,2929.0,1298.0,252.0,115.0
586494,County,2020/07/02,19.0,IA,19125.0,Marion County,7936.0,25471.0,114386.0,31113.0,34850.0,10221.0,8261.0,15775.0,9597.0,3166.0,1130.0,224.0,49.0
588130,County,2020/07/03,19.0,IA,19125.0,Marion County,8415.0,24992.0,103305.0,26008.0,28015.0,11835.0,9321.0,14535.0,9469.0,2762.0,1066.0,262.0,32.0
591340,County,2020/07/04,19.0,IA,19125.0,Marion County,9353.0,24054.0,88380.0,22250.0,23968.0,10125.0,7975.0,12435.0,8101.0,2363.0,912.0,224.0,27.0
594530,County,2020/07/05,19.0,IA,19125.0,Marion County,9027.0,24380.0,96275.0,28239.0,26028.0,6848.0,8696.0,12051.0,8798.0,3720.0,1514.0,141.0,240.0
598386,County,2020/07/06,19.0,IA,19125.0,Marion County,8249.0,25158.0,99981.0,25943.0,27806.0,8942.0,10107.0,13116.0,9289.0,3214.0,1218.0,216.0,130.0
602877,County,2020/07/07,19.0,IA,19125.0,Marion County,8024.0,25383.0,97972.0,24428.0,26772.0,9114.0,8091.0,14639.0,9939.0,3388.0,1273.0,215.0,113.0
604073,County,2020/07/08,19.0,IA,19125.0,Marion County,8314.0,25093.0,98113.0,25180.0,28238.0,9160.0,7338.0,13895.0,8945.0,4036.0,999.0,182.0,140.0
608846,County,2020/07/09,19.0,IA,19125.0,Marion County,7954.0,25453.0,100338.0,27994.0,26573.0,9051.0,7492.0,14621.0,9860.0,3131.0,1317.0,172.0,127.0
610469,County,2020/07/10,19.0,IA,19125.0,Marion County,7655.0,25752.0,103567.0,26015.0,28754.0,8798.0,8845.0,16254.0,9200.0,3917.0,1367.0,312.0,105.0
615267,County,2020/07/11,19.0,IA,19125.0,Marion County,8391.0,25016.0,102937.0,25921.0,33370.0,8122.0,8481.0,13236.0,8666.0,3539.0,1339.0,179.0,84.0
616851,County,2020/07/12,19.0,IA,19125.0,Marion County,8689.0,24718.0,82208.0,21615.0,21835.0,7805.0,6141.0,11243.0,7737.0,3842.0,1465.0,421.0,104.0
621610,County,2020/07/13,19.0,IA,19125.0,Marion County,9092.0,24315.0,96858.0,22890.0,25706.0,7631.0,8796.0,17910.0,8367.0,3717.0,1332.0,388.0,121.0
624805,County,2020/07/14,19.0,IA,19125.0,Marion County,8065.0,25342.0,97320.0,20870.0,30002.0,7847.0,9312.0,15277.0,8858.0,3633.0,1158.0,310.0,53.0
626363,County,2020/07/15,19.0,IA,19125.0,Marion County,8731.0,24676.0,99031.0,24110.0,31076.0,8019.0,8215.0,14477.0,8910.0,2825.0,1122.0,193.0,84.0
631293,County,2020/07/16,19.0,IA,19125.0,Marion County,8825.0,24582.0,107071.0,25972.0,32032.0,10104.0,8363.0,16389.0,10298.0,2611.0,1163.0,128.0,11.0
634338,County,2020/07/17,19.0,IA,19125.0,Marion County,8737.0,24670.0,99485.0,20638.0,29383.0,8417.0,7558.0,18040.0,9807.0,4167.0,1282.0,133.0,60.0
636016,County,2020/07/18,19.0,IA,19125.0,Marion County,9282.0,24125.0,95200.0,21043.0,26695.0,9163.0,7858.0,15473.0,9870.0,3969.0,827.0,241.0,61.0
640793,County,2020/07/19,19.0,IA,19125.0,Marion County,10015.0,23392.0,81119.0,18555.0,24874.0,7459.0,6315.0,12429.0,7794.0,2598.0,749.0,235.0,111.0
644002,County,2020/07/20,19.0,IA,19125.0,Marion County,9685.0,23722.0,110173.0,26107.0,38111.0,9126.0,7941.0,15938.0,8914.0,3156.0,658.0,176.0,46.0
647645,County,2020/07/21,19.0,IA,19125.0,Marion County,8416.0,24991.0,99779.0,25562.0,28873.0,7664.0,6768.0,16397.0,9523.0,3454.0,1200.0,225.0,113.0
649835,County,2020/07/22,19.0,IA,19125.0,Marion County,8373.0,25034.0,161987.0,74896.0,37203.0,9175.0,8820.0,17812.0,10099.0,2562.0,1064.0,231.0,125.0
653554,County,2020/07/23,19.0,IA,19125.0,Marion County,8347.0,25060.0,110984.0,35484.0,28537.0,8532.0,7519.0,17243.0,8677.0,3739.0,953.0,198.0,102.0
656778,County,2020/07/24,19.0,IA,19125.0,Marion County,7602.0,25805.0,109303.0,26269.0,30920.0,9864.0,9445.0,18301.0,8696.0,4233.0,1258.0,192.0,125.0
660044,County,2020/07/25,19.0,IA,19125.0,Marion County,8825.0,24582.0,102288.0,23875.0,27521.0,11511.0,9640.0,16254.0,7911.0,3984.0,1207.0,281.0,104.0
661568,County,2020/07/26,19.0,IA,19125.0,Marion County,8730.0,24677.0,95098.0,25080.0,25924.0,8460.0,6828.0,12271.0,9102.0,5431.0,1608.0,250.0,144.0
664864,County,2020/07/27,19.0,IA,19125.0,Marion County,8632.0,24775.0,94534.0,23199.0,27228.0,7522.0,7941.0,14372.0,8648.0,4188.0,1081.0,244.0,111.0
667977,County,2020/07/28,19.0,IA,19125.0,Marion County,8064.0,25343.0,104228.0,25554.0,31272.0,7645.0,7488.0,15926.0,10120.0,4290.0,1623.0,219.0,91.0
672812,County,2020/07/29,19.0,IA,19125.0,Marion County,8353.0,25054.0,143694.0,57799.0,36048.0,10019.0,7634.0,16472.0,9581.0,4599.0,1340.0,119.0,83.0
674344,County,2020/07/30,19.0,IA,19125.0,Marion County,7987.0,25420.0,109767.0,27143.0,31185.0,9527.0,9749.0,16415.0,9083.0,4925.0,1359.0,202.0,179.0
677545,County,2020/07/31,19.0,IA,19125.0,Marion County,8323.0,25084.0,105507.0,23808.0,33384.0,7792.0,7671.0,16425.0,9358.0,5109.0,1554.0,298.0,108.0
682292,County,2020/08/01,19.0,IA,19125.0,Marion County,9060.0,24347.0,99335.0,25615.0,27326.0,7030.0,8354.0,15329.0,9523.0,4406.0,1319.0,299.0,134.0
685532,County,2020/08/02,19.0,IA,19125.0,Marion County,9024.0,24383.0,88563.0,19656.0,24211.0,7299.0,7085.0,13509.0,9132.0,5452.0,1826.0,296.0,97.0
687121,County,2020/08/03,19.0,IA,19125.0,Marion County,8501.0,24906.0,113958.0,26534.0,38865.0,9757.0,8584.0,16421.0,8532.0,3938.0,964.0,274.0,89.0
691897,County,2020/08/04,19.0,IA,19125.0,Marion County,8229.0,25178.0,120705.0,30881.0,32772.0,13396.0,8507.0,21413.0,9675.0,3193.0,569.0,266.0,33.0
693526,County,2020/08/05,19.0,IA,19125.0,Marion County,8464.0,24943.0,120636.0,30970.0,39935.0,10549.0,8087.0,17406.0,9299.0,3149.0,1017.0,175.0,49.0
696732,County,2020/08/06,19.0,IA,19125.0,Marion County,7798.0,25609.0,125459.0,34153.0,38395.0,11957.0,8884.0,17489.0,10448.0,3008.0,805.0,265.0,55.0
701463,County,2020/08/07,19.0,IA,19125.0,Marion County,7915.0,25492.0,126803.0,33998.0,39755.0,12463.0,8780.0,17001.0,9890.0,3907.0,818.0,154.0,37.0
703093,County,2020/08/08,19.0,IA,19125.0,Marion County,8109.0,25298.0,124852.0,36052.0,35929.0,12787.0,9989.0,16473.0,8642.0,3648.0,1061.0,259.0,12.0
707875,County,2020/08/09,19.0,IA,19125.0,Marion County,9305.0,24102.0,96627.0,24221.0,28599.0,8980.0,5942.0,14639.0,8621.0,3265.0,1954.0,362.0,44.0
711093,County,2020/08/10,19.0,IA,19125.0,Marion County,8341.0,25066.0,118717.0,29469.0,38473.0,10995.0,9398.0,17695.0,8684.0,2803.0,946.0,204.0,50.0
712672,County,2020/08/11,19.0,IA,19125.0,Marion County,7923.0,25484.0,137890.0,40740.0,41215.0,10731.0,10592.0,18849.0,10734.0,4070.0,755.0,179.0,25.0
715867,County,2020/08/12,19.0,IA,19125.0,Marion County,7356.0,26051.0,124401.0,35393.0,37175.0,11210.0,8910.0,17149.0,9304.0,3346.0,1410.0,401.0,103.0
720627,County,2020/08/13,19.0,IA,19125.0,Marion County,7501.0,25906.0,126184.0,35312.0,35007.0,11944.0,11111.0,17391.0,9328.0,4120.0,1462.0,367.0,142.0
723853,County,2020/08/14,19.0,IA,19125.0,Marion County,7152.0,26255.0,145123.0,42553.0,43903.0,11846.0,11400.0,18023.0,11598.0,3778.0,1628.0,261.0,133.0
725483,County,2020/08/15,19.0,IA,19125.0,Marion County,7606.0,25801.0,133258.0,38252.0,35352.0,13050.0,11518.0,19005.0,10460.0,4100.0,1098.0,279.0,144.0
728643,County,2020/08/16,19.0,IA,19125.0,Marion County,8071.0,25336.0,97985.0,24669.0,26515.0,6758.0,8064.0,13821.0,8851.0,5892.0,2614.0,531.0,270.0
733424,County,2020/08/17,19.0,IA,19125.0,Marion County,8327.0,25080.0,114818.0,29704.0,29052.0,12585.0,8728.0,18186.0,9251.0,5140.0,1591.0,340.0,241.0
735051,County,2020/08/18,19.0,IA,19125.0,Marion County,8298.0,25109.0,103562.0,23655.0,30536.0,7944.0,8369.0,17542.0,8887.0,4425.0,1537.0,346.0,321.0
739790,County,2020/08/19,19.0,IA,19125.0,Marion County,7666.0,25741.0,110985.0,27670.0,31721.0,9024.0,9105.0,17270.0,10342.0,3701.0,1518.0,359.0,275.0
741418,County,2020/08/20,19.0,IA,19125.0,Marion County,7527.0,25880.0,113786.0,30587.0,31207.0,8997.0,9162.0,17947.0,9842.0,4279.0,1176.0,361.0,228.0
744618,County,2020/08/21,19.0,IA,19125.0,Marion County,6815.0,26592.0,116354.0,29324.0,32411.0,10029.0,8580.0,17718.0,11242.0,4801.0,1695.0,350.0,204.0
749400,County,2020/08/22,19.0,IA,19125.0,Marion County,7680.0,25727.0,107179.0,27902.0,30195.0,9398.0,9097.0,14335.0,9754.0,4132.0,1864.0,220.0,282.0
752568,County,2020/08/23,19.0,IA,19125.0,Marion County,9306.0,24101.0,81206.0,19548.0,20509.0,9111.0,7768.0,11176.0,7651.0,3362.0,1562.0,271.0,248.0
754240,County,2020/08/24,19.0,IA,19125.0,Marion County,8759.0,24648.0,93334.0,23763.0,27502.0,7400.0,6619.0,14929.0,8122.0,3528.0,1104.0,181.0,186.0
757388,County,2020/08/25,19.0,IA,19125.0,Marion County,8725.0,24682.0,100836.0,25565.0,28869.0,9595.0,7555.0,15946.0,8345.0,3763.0,822.0,174.0,202.0
762111,County,2020/08/26,19.0,IA,19125.0,Marion County,8562.0,24845.0,98912.0,25264.0,26624.0,8577.0,8095.0,15648.0,9847.0,3607.0,921.0,153.0,176.0
765356,County,2020/08/27,19.0,IA,19125.0,Marion County,8641.0,24766.0,94585.0,23566.0,27851.0,7330.0,7031.0,14514.0,9749.0,2912.0,1176.0,288.0,168.0
768571,County,2020/08/28,19.0,IA,19125.0,Marion County,7763.0,25644.0,105968.0,26156.0,31744.0,9125.0,7409.0,15815.0,9487.0,4540.0,1165.0,339.0,188.0
771722,County,2020/08/29,19.0,IA,19125.0,Marion County,8989.0,24418.0,108628.0,28066.0,31925.0,12596.0,7606.0,13903.0,9842.0,3084.0,1007.0,363.0,236.0
774941,County,2020/08/30,19.0,IA,19125.0,Marion County,9403.0,24004.0,80047.0,19698.0,21816.0,8108.0,6593.0,10824.0,7048.0,3924.0,1516.0,197.0,323.0
778130,County,2020/08/31,19.0,IA,19125.0,Marion County,9180.0,24227.0,98685.0,22444.0,27928.0,7929.0,8292.0,19030.0,8056.0,3135.0,1497.0,119.0,255.0
781329,County,2020/09/01,19.0,IA,19125.0,Marion County,8048.0,25359.0,97249.0,22887.0,26821.0,8538.0,6579.0,16355.0,10614.0,3753.0,1411.0,141.0,150.0
782936,County,2020/09/02,19.0,IA,19125.0,Marion County,8434.0,24973.0,108312.0,31513.0,29542.0,7008.0,7098.0,18098.0,10126.0,3355.0,1208.0,177.0,187.0
786084,County,2020/09/03,19.0,IA,19125.0,Marion County,7991.0,25416.0,106990.0,28478.0,28615.0,8344.0,7531.0,17966.0,9931.0,4201.0,1472.0,232.0,220.0
790915,County,2020/09/04,19.0,IA,19125.0,Marion County,8225.0,25182.0,103414.0,26081.0,29134.0,7322.0,6161.0,17718.0,10172.0,4657.0,1625.0,363.0,181.0
794106,County,2020/09/05,19.0,IA,19125.0,Marion County,8791.0,24616.0,105053.0,28267.0,26161.0,8365.0,10929.0,16609.0,8827.0,4398.0,1076.0,259.0,162.0
797261,County,2020/09/06,19.0,IA,19125.0,Marion County,9959.0,23448.0,79844.0,17102.0,21658.0,6290.0,7765.0,12836.0,8161.0,4024.0,1615.0,149.0,244.0
798919,County,2020/09/07,19.0,IA,19125.0,Marion County,10168.0,23239.0,75590.0,18521.0,18458.0,4823.0,5980.0,14707.0,7352.0,3860.0,1397.0,244.0,248.0
802131,County,2020/09/08,19.0,IA,19125.0,Marion County,9403.0,24004.0,90970.0,19894.0,25945.0,6687.0,7134.0,15533.0,9531.0,4579.0,1084.0,354.0,229.0
805297,County,2020/09/09,19.0,IA,19125.0,Marion County,8851.0,24556.0,98390.0,23413.0,27038.0,8096.0,7251.0,17640.0,9574.0,3541.0,1306.0,302.0,229.0
810067,County,2020/09/10,19.0,IA,19125.0,Marion County,9109.0,24298.0,86987.0,21583.0,21360.0,8116.0,6927.0,13514.0,9698.0,3707.0,1571.0,297.0,214.0
811696,County,2020/09/11,19.0,IA,19125.0,Marion County,9007.0,24400.0,100693.0,21414.0,29096.0,8611.0,8794.0,17317.0,9275.0,4724.0,1144.0,126.0,192.0
814880,County,2020/09/12,19.0,IA,19125.0,Marion County,9547.0,23860.0,93500.0,21775.0,26410.0,8891.0,7008.0,15370.0,8394.0,3768.0,1367.0,261.0,256.0
818102,County,2020/09/13,19.0,IA,19125.0,Marion County,10070.0,23337.0,67443.0,15734.0,15978.0,6024.0,4111.0,10315.0,9278.0,3867.0,1512.0,217.0,407.0
822834,County,2020/09/14,19.0,IA,19125.0,Marion County,9474.0,23933.0,101529.0,22580.0,31077.0,10070.0,7994.0,14728.0,9775.0,3988.0,919.0,204.0,194.0
824463,County,2020/09/15,19.0,IA,19125.0,Marion County,9466.0,23941.0,107017.0,27755.0,30650.0,9067.0,7467.0,16844.0,9326.0,4317.0,1266.0,152.0,173.0
829270,County,2020/09/16,19.0,IA,19125.0,Marion County,8612.0,24795.0,107683.0,28335.0,29246.0,10139.0,8179.0,16583.0,9788.0,3841.0,1193.0,165.0,214.0
832447,County,2020/09/17,19.0,IA,19125.0,Marion County,9131.0,24276.0,103549.0,26867.0,29970.0,8489.0,8280.0,14725.0,9038.0,4330.0,1405.0,261.0,184.0
835610,County,2020/09/18,19.0,IA,19125.0,Marion County,8577.0,24830.0,107380.0,25050.0,34316.0,7396.0,8219.0,15799.0,9998.0,4562.0,1563.0,225.0,252.0
837238,County,2020/09/19,19.0,IA,19125.0,Marion County,9303.0,24104.0,113806.0,31138.0,31635.0,7749.0,8595.0,16724.0,10131.0,5587.0,1908.0,167.0,172.0
842014,County,2020/09/20,19.0,IA,19125.0,Marion County,9623.0,23784.0,97974.0,26612.0,27805.0,8823.0,8813.0,13138.0,8838.0,2762.0,864.0,275.0,44.0
843642,County,2020/09/21,19.0,IA,19125.0,Marion County,9910.0,23497.0,93109.0,21340.0,28301.0,9796.0,7405.0,12938.0,9086.0,3266.0,681.0,248.0,48.0
846846,County,2020/09/22,19.0,IA,19125.0,Marion County,8686.0,24721.0,114098.0,28360.0,35705.0,10450.0,7842.0,17132.0,10710.0,3104.0,642.0,135.0,18.0
850013,County,2020/09/23,19.0,IA,19125.0,Marion County,7891.0,25516.0,123497.0,32419.0,33610.0,13697.0,10158.0,18461.0,10990.0,3407.0,584.0,113.0,58.0
854780,County,2020/09/24,19.0,IA,19125.0,Marion County,8334.0,25073.0,115740.0,31085.0,34840.0,11055.0,9423.0,15201.0,10166.0,3161.0,654.0,85.0,70.0
856409,County,2020/09/25,19.0,IA,19125.0,Marion County,7757.0,25650.0,119835.0,27966.0,37094.0,11444.0,9068.0,16458.0,13410.0,3379.0,880.0,125.0,11.0
861162,County,2020/09/26,19.0,IA,19125.0,Marion County,8594.0,24813.0,129520.0,31597.0,40219.0,14357.0,11236.0,18230.0,8738.0,4208.0,812.0,110.0,13.0
862816,County,2020/09/27,19.0,IA,19125.0,Marion County,10071.0,23336.0,93767.0,21473.0,23991.0,9969.0,9127.0,13982.0,10642.0,3139.0,1156.0,247.0,41.0
867550,County,2020/09/28,19.0,IA,19125.0,Marion County,8562.0,24845.0,112125.0,26453.0,31927.0,11976.0,10160.0,16859.0,10393.0,3007.0,1175.0,128.0,47.0
869178,County,2020/09/29,19.0,IA,19125.0,Marion County,8431.0,24976.0,109802.0,26719.0,32047.0,11137.0,8117.0,16079.0,10820.0,4114.0,633.0,87.0,49.0
873957,County,2020/09/30,19.0,IA,19125.0,Marion County,8813.0,24594.0,105155.0,27083.0,29846.0,6902.0,7230.0,16272.0,11602.0,5263.0,801.0,107.0,49.0
875585,County,2020/10/01,19.0,IA,19125.0,Marion County,8220.0,25187.0,103445.0,24570.0,29928.0,8556.0,8087.0,16722.0,10042.0,4584.0,734.0,157.0,65.0
878788,County,2020/10/02,19.0,IA,19125.0,Marion County,7861.0,25546.0,166658.0,75119.0,35587.0,12442.0,9073.0,17990.0,11345.0,3747.0,1158.0,141.0,56.0
881954,County,2020/10/03,19.0,IA,19125.0,Marion County,9494.0,23913.0,95742.0,20028.0,26206.0,9201.0,8828.0,15224.0,9879.0,5058.0,1143.0,111.0,64.0
885521,County,2020/10/04,19.0,IA,19125.0,Marion County,10372.0,23035.0,88869.0,20521.0,24339.0,9236.0,7673.0,12566.0,8961.0,4035.0,1315.0,181.0,42.0
888755,County,2020/10/05,19.0,IA,19125.0,Marion County,9759.0,23648.0,97790.0,24177.0,27746.0,9783.0,7202.0,15776.0,7947.0,4067.0,932.0,102.0,58.0
891931,County,2020/10/06,19.0,IA,19125.0,Marion County,8206.0,25201.0,100387.0,25971.0,25429.0,8476.0,8058.0,17525.0,9843.0,4065.0,874.0,93.0,53.0
895562,County,2020/10/07,19.0,IA,19125.0,Marion County,8548.0,24859.0,104659.0,25005.0,30466.0,10176.0,8428.0,16384.0,8854.0,4021.0,1096.0,171.0,58.0
898305,County,2020/10/08,19.0,IA,19125.0,Marion County,9024.0,24383.0,89638.0,19306.0,27229.0,6521.0,7595.0,14761.0,8460.0,4853.0,651.0,205.0,57.0
901545,County,2020/10/09,19.0,IA,19125.0,Marion County,9399.0,24008.0,99059.0,23890.0,25683.0,9182.0,7423.0,16332.0,9752.0,5238.0,1373.0,136.0,50.0
904724,County,2020/10/10,19.0,IA,19125.0,Marion County,10034.0,23373.0,89418.0,19776.0,20893.0,12043.0,6930.0,15380.0,8844.0,4183.0,1191.0,136.0,42.0
907319,County,2020/10/11,19.0,IA,19125.0,Marion County,10159.0,23248.0,83993.0,17954.0,23369.0,8787.0,6001.0,13685.0,9292.0,3130.0,1532.0,197.0,46.0
912443,County,2020/10/12,19.0,IA,19125.0,Marion County,9350.0,24057.0,96633.0,22928.0,25936.0,9501.0,7300.0,14937.0,9997.0,4754.0,1109.0,134.0,37.0
915870,County,2020/10/13,19.0,IA,19125.0,Marion County,8882.0,24525.0,98469.0,26057.0,27915.0,6892.0,6645.0,15960.0,9021.0,4886.0,921.0,121.0,51.0
919012,County,2020/10/14,19.0,IA,19125.0,Marion County,8363.0,25044.0,96341.0,25955.0,24447.0,7800.0,7292.0,15858.0,9611.0,4126.0,1039.0,173.0,40.0
922209,County,2020/10/15,19.0,IA,19125.0,Marion County,9333.0,24074.0,81521.0,17429.0,23787.0,6611.0,6723.0,12468.0,8442.0,4537.0,1288.0,172.0,64.0
925030,County,2020/10/16,19.0,IA,19125.0,Marion County,8580.0,24827.0,97382.0,24189.0,28685.0,7335.0,6546.0,14402.0,9718.0,4859.0,1347.0,256.0,45.0
928621,County,2020/10/17,19.0,IA,19125.0,Marion County,9029.0,24378.0,102909.0,24523.0,29216.0,10141.0,7374.0,14074.0,11766.0,4614.0,993.0,142.0,66.0
931657,County,2020/10/18,19.0,IA,19125.0,Marion County,9849.0,23558.0,71476.0,11909.0,20696.0,6709.0,5526.0,11473.0,8388.0,4754.0,1800.0,180.0,41.0
934334,County,2020/10/19,19.0,IA,19125.0,Marion County,9235.0,24172.0,90590.0,21238.0,23877.0,7515.0,7046.0,15488.0,9396.0,4776.0,1064.0,149.0,41.0
938464,County,2020/10/20,19.0,IA,19125.0,Marion County,9066.0,24341.0,87162.0,20634.0,23421.0,7476.0,7694.0,12560.0,9711.0,4192.0,1294.0,146.0,34.0
941333,County,2020/10/21,19.0,IA,19125.0,Marion County,9678.0,23729.0,86000.0,16561.0,23983.0,7047.0,7966.0,14633.0,10007.0,4408.0,1223.0,119.0,53.0
944948,County,2020/10/22,19.0,IA,19125.0,Marion County,8233.0,25174.0,96741.0,24238.0,25857.0,8926.0,7052.0,15990.0,8806.0,4239.0,1410.0,195.0,28.0
948121,County,2020/10/23,19.0,IA,19125.0,Marion County,8179.0,25228.0,114696.0,27020.0,32339.0,8804.0,9116.0,18248.0,11605.0,6094.0,1219.0,219.0,32.0
951010,County,2020/10/24,19.0,IA,19125.0,Marion County,8612.0,24795.0,111079.0,24058.0,31631.0,11124.0,8355.0,19022.0,11615.0,4358.0,811.0,81.0,24.0
