,Level,Date,State FIPS,State Postal Code,County FIPS,County Name,Population Staying at Home,Population Not Staying at Home,Number of Trips,Number of Trips <1,Number of Trips 1-3,Number of Trips 3-5,Number of Trips 5-10,Number of Trips 10-25,Number of Trips 25-50,Number of Trips 50-100,Number of Trips 100-250,Number of Trips 250-500,Number of Trips >=500
2419,County,2020/01/01,46.0,SD,46119.0,Sully County,273.0,1119.0,3960.0,604.0,678.0,148.0,774.0,450.0,829.0,218.0,183.0,76.0,0.0
4606,County,2020/01/02,46.0,SD,46119.0,Sully County,252.0,1140.0,4459.0,834.0,681.0,201.0,809.0,614.0,839.0,160.0,252.0,68.0,1.0
6621,County,2020/01/03,46.0,SD,46119.0,Sully County,260.0,1132.0,3831.0,975.0,606.0,145.0,724.0,579.0,441.0,101.0,196.0,61.0,3.0
10558,County,2020/01/04,46.0,SD,46119.0,Sully County,267.0,1125.0,3527.0,770.0,674.0,182.0,473.0,375.0,684.0,122.0,220.0,27.0,0.0
15195,County,2020/01/05,46.0,SD,46119.0,Sully County,252.0,1140.0,3780.0,1002.0,734.0,178.0,650.0,419.0,611.0,60.0,63.0,63.0,0.0
17213,County,2020/01/06,46.0,SD,46119.0,Sully County,222.0,1170.0,4636.0,1270.0,853.0,272.0,868.0,520.0,649.0,81.0,64.0,59.0,0.0
20371,County,2020/01/07,46.0,SD,46119.0,Sully County,237.0,1155.0,4591.0,1192.0,717.0,266.0,895.0,572.0,714.0,104.0,80.0,51.0,0.0
23650,County,2020/01/08,46.0,SD,46119.0,Sully County,242.0,1150.0,4941.0,1362.0,804.0,255.0,863.0,576.0,802.0,114.0,126.0,39.0,0.0
28350,County,2020/01/09,46.0,SD,46119.0,Sully County,229.0,1163.0,4999.0,1450.0,861.0,246.0,812.0,561.0,827.0,112.0,87.0,42.0,1.0
31508,County,2020/01/10,46.0,SD,46119.0,Sully County,235.0,1157.0,4125.0,980.0,717.0,195.0,539.0,531.0,853.0,144.0,121.0,45.0,0.0
34751,County,2020/01/11,46.0,SD,46119.0,Sully County,245.0,1147.0,3625.0,834.0,555.0,162.0,481.0,512.0,810.0,155.0,91.0,25.0,0.0
37871,County,2020/01/12,46.0,SD,46119.0,Sully County,237.0,1155.0,4058.0,852.0,727.0,226.0,765.0,636.0,633.0,107.0,73.0,39.0,0.0
39583,County,2020/01/13,46.0,SD,46119.0,Sully County,226.0,1166.0,4976.0,1100.0,912.0,268.0,913.0,746.0,753.0,123.0,112.0,48.0,1.0
42745,County,2020/01/14,46.0,SD,46119.0,Sully County,213.0,1179.0,4692.0,1090.0,937.0,227.0,776.0,629.0,701.0,114.0,116.0,89.0,13.0
45897,County,2020/01/15,46.0,SD,46119.0,Sully County,232.0,1160.0,4827.0,1246.0,991.0,188.0,683.0,585.0,689.0,134.0,191.0,107.0,13.0
50678,County,2020/01/16,46.0,SD,46119.0,Sully County,243.0,1149.0,4953.0,1198.0,927.0,226.0,785.0,605.0,771.0,103.0,224.0,113.0,1.0
52306,County,2020/01/17,46.0,SD,46119.0,Sully County,220.0,1172.0,3907.0,922.0,827.0,201.0,578.0,533.0,659.0,30.0,77.0,79.0,1.0
57087,County,2020/01/18,46.0,SD,46119.0,Sully County,244.0,1148.0,3674.0,845.0,766.0,237.0,671.0,444.0,428.0,71.0,103.0,107.0,2.0
58687,County,2020/01/19,46.0,SD,46119.0,Sully County,255.0,1137.0,4846.0,1196.0,898.0,223.0,779.0,577.0,907.0,116.0,118.0,32.0,0.0
63448,County,2020/01/20,46.0,SD,46119.0,Sully County,212.0,1180.0,4899.0,1078.0,931.0,205.0,842.0,657.0,893.0,138.0,69.0,48.0,38.0
65076,County,2020/01/21,46.0,SD,46119.0,Sully County,219.0,1173.0,5003.0,1113.0,856.0,174.0,918.0,753.0,961.0,117.0,34.0,38.0,39.0
68277,County,2020/01/22,46.0,SD,46119.0,Sully County,232.0,1160.0,5272.0,1553.0,944.0,187.0,892.0,741.0,765.0,95.0,53.0,42.0,0.0
73068,County,2020/01/23,46.0,SD,46119.0,Sully County,243.0,1149.0,5417.0,1443.0,1054.0,248.0,898.0,672.0,761.0,126.0,96.0,104.0,15.0
76225,County,2020/01/24,46.0,SD,46119.0,Sully County,239.0,1153.0,4926.0,1080.0,929.0,241.0,740.0,667.0,934.0,125.0,107.0,88.0,15.0
77851,County,2020/01/25,46.0,SD,46119.0,Sully County,246.0,1146.0,4283.0,1037.0,803.0,167.0,664.0,667.0,741.0,81.0,100.0,23.0,0.0
82269,County,2020/01/26,46.0,SD,46119.0,Sully County,234.0,1158.0,4511.0,1173.0,885.0,271.0,758.0,650.0,541.0,104.0,91.0,38.0,0.0
85823,County,2020/01/27,46.0,SD,46119.0,Sully County,209.0,1183.0,4957.0,1202.0,1013.0,286.0,705.0,718.0,766.0,175.0,87.0,5.0,0.0
87496,County,2020/01/28,46.0,SD,46119.0,Sully County,229.0,1163.0,4950.0,1119.0,986.0,234.0,643.0,765.0,949.0,145.0,99.0,10.0,0.0
92230,County,2020/01/29,46.0,SD,46119.0,Sully County,230.0,1162.0,5065.0,1338.0,932.0,241.0,701.0,811.0,813.0,110.0,95.0,22.0,2.0
93955,County,2020/01/30,46.0,SD,46119.0,Sully County,226.0,1166.0,4541.0,1110.0,743.0,202.0,682.0,692.0,719.0,165.0,141.0,83.0,4.0
98630,County,2020/01/31,46.0,SD,46119.0,Sully County,216.0,1176.0,4116.0,936.0,761.0,247.0,706.0,662.0,570.0,131.0,53.0,46.0,4.0
100259,County,2020/02/01,46.0,SD,46119.0,Sully County,229.0,1163.0,3731.0,712.0,671.0,263.0,550.0,562.0,699.0,88.0,131.0,55.0,0.0
103387,County,2020/02/02,46.0,SD,46119.0,Sully County,241.0,1151.0,4110.0,810.0,678.0,140.0,666.0,574.0,904.0,67.0,173.0,98.0,0.0
108223,County,2020/02/03,46.0,SD,46119.0,Sully County,219.0,1173.0,4530.0,845.0,661.0,204.0,741.0,692.0,1114.0,99.0,87.0,86.0,1.0
111358,County,2020/02/04,46.0,SD,46119.0,Sully County,220.0,1172.0,4922.0,841.0,735.0,192.0,827.0,670.0,1242.0,163.0,152.0,97.0,3.0
114561,County,2020/02/05,46.0,SD,46119.0,Sully County,225.0,1167.0,4452.0,786.0,714.0,169.0,686.0,650.0,1056.0,162.0,144.0,85.0,0.0
117768,County,2020/02/06,46.0,SD,46119.0,Sully County,211.0,1181.0,4131.0,804.0,677.0,188.0,617.0,673.0,860.0,106.0,158.0,46.0,2.0
121023,County,2020/02/07,46.0,SD,46119.0,Sully County,226.0,1166.0,3864.0,908.0,583.0,248.0,756.0,360.0,558.0,115.0,216.0,102.0,18.0
122592,County,2020/02/08,46.0,SD,46119.0,Sully County,270.0,1122.0,3086.0,636.0,401.0,92.0,614.0,637.0,498.0,77.0,40.0,91.0,0.0
126433,County,2020/02/09,46.0,SD,46119.0,Sully County,285.0,1107.0,2783.0,927.0,635.0,150.0,149.0,229.0,243.0,200.0,195.0,45.0,10.0
130728,County,2020/02/10,46.0,SD,46119.0,Sully County,199.0,1193.0,4246.0,817.0,877.0,204.0,580.0,651.0,809.0,112.0,127.0,57.0,12.0
133291,County,2020/02/11,46.0,SD,46119.0,Sully County,230.0,1162.0,3352.0,460.0,644.0,29.0,494.0,709.0,687.0,190.0,74.0,42.0,23.0
134292,County,2020/02/12,46.0,SD,46119.0,Sully County,209.0,1183.0,3747.0,526.0,460.0,52.0,641.0,700.0,1040.0,107.0,133.0,76.0,12.0
138574,County,2020/02/13,46.0,SD,46119.0,Sully County,238.0,1154.0,3678.0,734.0,333.0,117.0,364.0,415.0,1125.0,220.0,305.0,65.0,0.0
141633,County,2020/02/14,46.0,SD,46119.0,Sully County,197.0,1195.0,4332.0,899.0,694.0,197.0,540.0,616.0,934.0,210.0,120.0,81.0,41.0
146511,County,2020/02/15,46.0,SD,46119.0,Sully County,213.0,1179.0,4650.0,742.0,756.0,213.0,709.0,781.0,1007.0,166.0,173.0,87.0,16.0
149713,County,2020/02/16,46.0,SD,46119.0,Sully County,258.0,1134.0,4125.0,1044.0,497.0,30.0,152.0,499.0,1421.0,229.0,120.0,113.0,20.0
152880,County,2020/02/17,46.0,SD,46119.0,Sully County,304.0,1088.0,3479.0,666.0,433.0,160.0,730.0,406.0,808.0,111.0,69.0,79.0,17.0
154457,County,2020/02/18,46.0,SD,46119.0,Sully County,218.0,1174.0,4852.0,1015.0,803.0,195.0,784.0,671.0,978.0,100.0,151.0,141.0,14.0
159267,County,2020/02/19,46.0,SD,46119.0,Sully County,218.0,1174.0,5840.0,1405.0,974.0,181.0,976.0,760.0,969.0,173.0,185.0,195.0,22.0
160763,County,2020/02/20,46.0,SD,46119.0,Sully County,209.0,1183.0,4962.0,1110.0,855.0,190.0,741.0,673.0,812.0,206.0,238.0,133.0,4.0
164090,County,2020/02/21,46.0,SD,46119.0,Sully County,210.0,1182.0,3918.0,777.0,686.0,200.0,617.0,581.0,661.0,169.0,188.0,37.0,2.0
167234,County,2020/02/22,46.0,SD,46119.0,Sully County,205.0,1187.0,5122.0,1183.0,843.0,203.0,862.0,691.0,852.0,270.0,169.0,46.0,3.0
172049,County,2020/02/23,46.0,SD,46119.0,Sully County,200.0,1192.0,5245.0,1248.0,880.0,245.0,917.0,658.0,836.0,207.0,156.0,98.0,0.0
173675,County,2020/02/24,46.0,SD,46119.0,Sully County,202.0,1190.0,4805.0,1022.0,810.0,197.0,765.0,726.0,819.0,114.0,183.0,167.0,2.0
178090,County,2020/02/25,46.0,SD,46119.0,Sully County,188.0,1204.0,5803.0,1189.0,983.0,258.0,901.0,908.0,955.0,226.0,208.0,174.0,1.0
181283,County,2020/02/26,46.0,SD,46119.0,Sully County,143.0,1249.0,7020.0,1512.0,1033.0,301.0,1072.0,1102.0,1256.0,318.0,269.0,157.0,0.0
182651,County,2020/02/27,46.0,SD,46119.0,Sully County,201.0,1191.0,5003.0,960.0,942.0,232.0,766.0,643.0,977.0,170.0,216.0,97.0,0.0
188062,County,2020/02/28,46.0,SD,46119.0,Sully County,199.0,1193.0,5657.0,1035.0,1046.0,315.0,1062.0,699.0,1029.0,203.0,180.0,86.0,2.0
191208,County,2020/02/29,46.0,SD,46119.0,Sully County,216.0,1176.0,5749.0,1108.0,1132.0,329.0,922.0,662.0,1067.0,215.0,193.0,121.0,0.0
192832,County,2020/03/01,46.0,SD,46119.0,Sully County,220.0,1172.0,4272.0,880.0,861.0,229.0,637.0,668.0,555.0,184.0,160.0,41.0,57.0
197632,County,2020/03/02,46.0,SD,46119.0,Sully County,195.0,1197.0,5773.0,1249.0,1098.0,290.0,982.0,740.0,930.0,222.0,137.0,80.0,45.0
200907,County,2020/03/03,46.0,SD,46119.0,Sully County,150.0,1242.0,6415.0,1475.0,1202.0,273.0,1097.0,780.0,1074.0,265.0,123.0,75.0,51.0
203993,County,2020/03/04,46.0,SD,46119.0,Sully County,157.0,1235.0,7171.0,1780.0,1365.0,362.0,1067.0,908.0,1176.0,250.0,191.0,36.0,36.0
207197,County,2020/03/05,46.0,SD,46119.0,Sully County,148.0,1244.0,6892.0,1619.0,1184.0,348.0,1146.0,1060.0,1025.0,234.0,237.0,39.0,0.0
210461,County,2020/03/06,46.0,SD,46119.0,Sully County,141.0,1251.0,6659.0,1405.0,1289.0,302.0,985.0,972.0,1230.0,238.0,179.0,43.0,16.0
212029,County,2020/03/07,46.0,SD,46119.0,Sully County,175.0,1217.0,6210.0,1699.0,1276.0,306.0,753.0,697.0,1082.0,167.0,145.0,66.0,19.0
216756,County,2020/03/08,46.0,SD,46119.0,Sully County,197.0,1195.0,6561.0,1701.0,1109.0,265.0,866.0,812.0,1430.0,198.0,150.0,11.0,19.0
218396,County,2020/03/09,46.0,SD,46119.0,Sully County,187.0,1205.0,6940.0,1858.0,1333.0,255.0,1000.0,919.0,1308.0,174.0,82.0,11.0,0.0
221631,County,2020/03/10,46.0,SD,46119.0,Sully County,183.0,1209.0,6609.0,1593.0,1010.0,246.0,1005.0,1200.0,1161.0,183.0,181.0,26.0,4.0
224821,County,2020/03/11,46.0,SD,46119.0,Sully County,143.0,1249.0,8265.0,1704.0,1256.0,395.0,1228.0,1334.0,1500.0,282.0,473.0,83.0,10.0
229469,County,2020/03/12,46.0,SD,46119.0,Sully County,154.0,1238.0,6949.0,1547.0,1206.0,323.0,1074.0,832.0,1155.0,292.0,325.0,169.0,26.0
232736,County,2020/03/13,46.0,SD,46119.0,Sully County,152.0,1240.0,7170.0,1527.0,1367.0,419.0,1032.0,919.0,1190.0,338.0,201.0,122.0,55.0
234266,County,2020/03/14,46.0,SD,46119.0,Sully County,176.0,1216.0,6628.0,1206.0,1235.0,534.0,1062.0,934.0,1117.0,268.0,160.0,79.0,33.0
237550,County,2020/03/15,46.0,SD,46119.0,Sully County,238.0,1154.0,5486.0,973.0,896.0,225.0,1015.0,889.0,946.0,207.0,220.0,91.0,24.0
240794,County,2020/03/16,46.0,SD,46119.0,Sully County,223.0,1169.0,6433.0,1335.0,953.0,252.0,1056.0,1114.0,1058.0,191.0,261.0,195.0,18.0
243976,County,2020/03/17,46.0,SD,46119.0,Sully County,245.0,1147.0,6891.0,1445.0,1191.0,383.0,980.0,1142.0,1302.0,131.0,169.0,145.0,3.0
247131,County,2020/03/18,46.0,SD,46119.0,Sully County,255.0,1137.0,6850.0,1493.0,1308.0,330.0,926.0,1095.0,1311.0,149.0,130.0,107.0,1.0
251913,County,2020/03/19,46.0,SD,46119.0,Sully County,282.0,1110.0,5980.0,1246.0,1057.0,228.0,789.0,980.0,1237.0,198.0,147.0,96.0,2.0
253572,County,2020/03/20,46.0,SD,46119.0,Sully County,288.0,1104.0,5102.0,925.0,679.0,136.0,856.0,844.0,1216.0,200.0,186.0,60.0,0.0
258280,County,2020/03/21,46.0,SD,46119.0,Sully County,308.0,1084.0,4851.0,1249.0,738.0,191.0,823.0,739.0,814.0,158.0,121.0,9.0,9.0
259902,County,2020/03/22,46.0,SD,46119.0,Sully County,266.0,1126.0,5627.0,1192.0,780.0,209.0,675.0,952.0,1230.0,246.0,273.0,65.0,5.0
264680,County,2020/03/23,46.0,SD,46119.0,Sully County,245.0,1147.0,6259.0,1218.0,843.0,250.0,923.0,1050.0,1368.0,213.0,279.0,114.0,1.0
267910,County,2020/03/24,46.0,SD,46119.0,Sully County,259.0,1133.0,6872.0,1289.0,809.0,250.0,1032.0,1162.0,1632.0,231.0,363.0,104.0,0.0
269540,County,2020/03/25,46.0,SD,46119.0,Sully County,264.0,1128.0,6550.0,1336.0,764.0,236.0,994.0,1174.0,1495.0,254.0,244.0,53.0,0.0
272684,County,2020/03/26,46.0,SD,46119.0,Sully County,242.0,1150.0,6474.0,1616.0,736.0,214.0,822.0,1197.0,1369.0,293.0,172.0,53.0,2.0
277447,County,2020/03/27,46.0,SD,46119.0,Sully County,229.0,1163.0,6342.0,1538.0,931.0,225.0,839.0,1025.0,1366.0,210.0,108.0,98.0,2.0
279074,County,2020/03/28,46.0,SD,46119.0,Sully County,279.0,1113.0,5697.0,1276.0,1021.0,221.0,1064.0,846.0,985.0,163.0,57.0,58.0,6.0
283834,County,2020/03/29,46.0,SD,46119.0,Sully County,261.0,1131.0,5270.0,1434.0,862.0,238.0,800.0,854.0,759.0,133.0,52.0,138.0,0.0
285462,County,2020/03/30,46.0,SD,46119.0,Sully County,247.0,1145.0,6187.0,1602.0,867.0,275.0,869.0,1100.0,974.0,192.0,145.0,163.0,0.0
288657,County,2020/03/31,46.0,SD,46119.0,Sully County,244.0,1148.0,6104.0,1637.0,774.0,221.0,970.0,780.0,1260.0,180.0,108.0,116.0,58.0
291892,County,2020/04/01,46.0,SD,46119.0,Sully County,265.0,1127.0,6126.0,1489.0,791.0,224.0,944.0,845.0,1304.0,188.0,129.0,146.0,66.0
296625,County,2020/04/02,46.0,SD,46119.0,Sully County,278.0,1114.0,6076.0,1468.0,1019.0,199.0,840.0,843.0,1206.0,133.0,128.0,237.0,3.0
298286,County,2020/04/03,46.0,SD,46119.0,Sully County,282.0,1110.0,5092.0,1318.0,769.0,144.0,657.0,929.0,775.0,158.0,92.0,201.0,49.0
303033,County,2020/04/04,46.0,SD,46119.0,Sully County,280.0,1112.0,5168.0,1287.0,1029.0,228.0,741.0,772.0,729.0,178.0,67.0,90.0,47.0
306184,County,2020/04/05,46.0,SD,46119.0,Sully County,269.0,1123.0,5821.0,1392.0,804.0,151.0,786.0,945.0,1165.0,204.0,207.0,160.0,7.0
309386,County,2020/04/06,46.0,SD,46119.0,Sully County,248.0,1144.0,7353.0,1491.0,937.0,178.0,1096.0,1121.0,1721.0,402.0,240.0,164.0,3.0
312625,County,2020/04/07,46.0,SD,46119.0,Sully County,233.0,1159.0,6308.0,1246.0,954.0,220.0,929.0,952.0,1418.0,342.0,132.0,115.0,0.0
315798,County,2020/04/08,46.0,SD,46119.0,Sully County,241.0,1151.0,5497.0,1228.0,962.0,219.0,807.0,772.0,1091.0,184.0,176.0,58.0,0.0
318967,County,2020/04/09,46.0,SD,46119.0,Sully County,232.0,1160.0,6215.0,1723.0,932.0,230.0,689.0,955.0,1118.0,188.0,207.0,151.0,22.0
322162,County,2020/04/10,46.0,SD,46119.0,Sully County,249.0,1143.0,6296.0,1902.0,921.0,240.0,887.0,703.0,1170.0,173.0,164.0,115.0,21.0
323837,County,2020/04/11,46.0,SD,46119.0,Sully County,301.0,1091.0,4451.0,1474.0,830.0,223.0,507.0,323.0,901.0,101.0,48.0,44.0,0.0
326982,County,2020/04/12,46.0,SD,46119.0,Sully County,293.0,1099.0,3275.0,918.0,472.0,242.0,652.0,452.0,362.0,104.0,59.0,11.0,3.0
330247,County,2020/04/13,46.0,SD,46119.0,Sully County,289.0,1103.0,5245.0,1366.0,898.0,463.0,1072.0,627.0,570.0,125.0,106.0,15.0,3.0
333372,County,2020/04/14,46.0,SD,46119.0,Sully County,220.0,1172.0,6309.0,1488.0,1095.0,349.0,919.0,1033.0,1035.0,132.0,181.0,77.0,0.0
336596,County,2020/04/15,46.0,SD,46119.0,Sully County,205.0,1187.0,7035.0,2066.0,1049.0,270.0,948.0,1082.0,1090.0,146.0,284.0,98.0,2.0
339750,County,2020/04/16,46.0,SD,46119.0,Sully County,202.0,1190.0,6306.0,1797.0,1161.0,236.0,947.0,861.0,742.0,235.0,296.0,29.0,2.0
344529,County,2020/04/17,46.0,SD,46119.0,Sully County,182.0,1210.0,7402.0,2164.0,1528.0,285.0,1137.0,1082.0,757.0,178.0,256.0,15.0,0.0
346156,County,2020/04/18,46.0,SD,46119.0,Sully County,214.0,1178.0,6409.0,1707.0,1125.0,335.0,1023.0,1048.0,865.0,75.0,103.0,128.0,0.0
349328,County,2020/04/19,46.0,SD,46119.0,Sully County,203.0,1189.0,5838.0,1629.0,817.0,300.0,810.0,1000.0,934.0,212.0,94.0,0.0,42.0
354158,County,2020/04/20,46.0,SD,46119.0,Sully County,199.0,1193.0,9372.0,2278.0,1281.0,418.0,1315.0,1864.0,1774.0,190.0,159.0,61.0,32.0
355728,County,2020/04/21,46.0,SD,46119.0,Sully County,238.0,1154.0,8415.0,2133.0,1149.0,285.0,1559.0,1355.0,1459.0,112.0,156.0,187.0,20.0
360498,County,2020/04/22,46.0,SD,46119.0,Sully County,229.0,1163.0,6747.0,1976.0,970.0,209.0,1129.0,893.0,920.0,177.0,215.0,191.0,67.0
363704,County,2020/04/23,46.0,SD,46119.0,Sully County,226.0,1166.0,5887.0,1557.0,955.0,202.0,826.0,859.0,844.0,220.0,224.0,148.0,52.0
366916,County,2020/04/24,46.0,SD,46119.0,Sully County,237.0,1155.0,5882.0,1527.0,1031.0,241.0,734.0,960.0,919.0,164.0,168.0,138.0,0.0
368499,County,2020/04/25,46.0,SD,46119.0,Sully County,254.0,1138.0,5385.0,1400.0,948.0,285.0,723.0,930.0,649.0,176.0,154.0,120.0,0.0
373266,County,2020/04/26,46.0,SD,46119.0,Sully County,259.0,1133.0,4966.0,1812.0,945.0,192.0,659.0,557.0,576.0,63.0,53.0,109.0,0.0
376498,County,2020/04/27,46.0,SD,46119.0,Sully County,239.0,1153.0,5924.0,1704.0,994.0,227.0,973.0,744.0,987.0,109.0,117.0,53.0,16.0
379669,County,2020/04/28,46.0,SD,46119.0,Sully County,244.0,1148.0,5768.0,1638.0,1011.0,259.0,847.0,744.0,977.0,124.0,126.0,25.0,17.0
382872,County,2020/04/29,46.0,SD,46119.0,Sully County,247.0,1145.0,4864.0,1691.0,744.0,288.0,694.0,586.0,638.0,91.0,111.0,20.0,1.0
386091,County,2020/04/30,46.0,SD,46119.0,Sully County,227.0,1165.0,4735.0,1559.0,782.0,183.0,622.0,668.0,728.0,111.0,67.0,15.0,0.0
389278,County,2020/05/01,46.0,SD,46119.0,Sully County,226.0,1166.0,4892.0,1629.0,969.0,227.0,626.0,542.0,675.0,109.0,65.0,50.0,0.0
390850,County,2020/05/02,46.0,SD,46119.0,Sully County,244.0,1148.0,4861.0,1501.0,1048.0,172.0,694.0,441.0,801.0,99.0,67.0,36.0,2.0
395625,County,2020/05/03,46.0,SD,46119.0,Sully County,241.0,1151.0,4160.0,1083.0,804.0,201.0,670.0,443.0,773.0,102.0,60.0,24.0,0.0
397274,County,2020/05/04,46.0,SD,46119.0,Sully County,246.0,1146.0,5897.0,1822.0,1097.0,291.0,1051.0,677.0,727.0,97.0,70.0,65.0,0.0
400494,County,2020/05/05,46.0,SD,46119.0,Sully County,202.0,1190.0,6504.0,2074.0,1214.0,267.0,1223.0,787.0,763.0,82.0,64.0,30.0,0.0
403623,County,2020/05/06,46.0,SD,46119.0,Sully County,220.0,1172.0,5841.0,1637.0,1098.0,240.0,1018.0,876.0,695.0,148.0,110.0,19.0,0.0
408343,County,2020/05/07,46.0,SD,46119.0,Sully County,201.0,1191.0,5601.0,1482.0,1028.0,197.0,1190.0,708.0,660.0,178.0,117.0,40.0,1.0
411605,County,2020/05/08,46.0,SD,46119.0,Sully County,217.0,1175.0,5311.0,1520.0,970.0,219.0,971.0,681.0,690.0,165.0,95.0,0.0,0.0
413185,County,2020/05/09,46.0,SD,46119.0,Sully County,230.0,1162.0,5498.0,1750.0,1074.0,225.0,748.0,612.0,855.0,116.0,92.0,26.0,0.0
417982,County,2020/05/10,46.0,SD,46119.0,Sully County,229.0,1163.0,6522.0,1782.0,1187.0,298.0,1066.0,733.0,1201.0,82.0,119.0,54.0,0.0
421213,County,2020/05/11,46.0,SD,46119.0,Sully County,161.0,1231.0,3827.0,858.0,572.0,106.0,877.0,441.0,712.0,147.0,46.0,65.0,3.0
424417,County,2020/05/12,46.0,SD,46119.0,Sully County,221.0,1171.0,3797.0,704.0,684.0,230.0,858.0,354.0,658.0,64.0,174.0,71.0,0.0
425899,County,2020/05/13,46.0,SD,46119.0,Sully County,214.0,1178.0,3607.0,731.0,764.0,226.0,609.0,348.0,646.0,157.0,98.0,28.0,0.0
429240,County,2020/05/14,46.0,SD,46119.0,Sully County,212.0,1180.0,3858.0,893.0,707.0,138.0,787.0,452.0,559.0,50.0,257.0,15.0,0.0
433981,County,2020/05/15,46.0,SD,46119.0,Sully County,227.0,1165.0,3784.0,722.0,606.0,249.0,885.0,406.0,431.0,149.0,254.0,79.0,3.0
437135,County,2020/05/16,46.0,SD,46119.0,Sully County,333.0,1059.0,2912.0,603.0,411.0,126.0,866.0,206.0,511.0,26.0,41.0,117.0,5.0
438763,County,2020/05/17,46.0,SD,46119.0,Sully County,218.0,1174.0,6545.0,1423.0,1115.0,304.0,1051.0,943.0,1213.0,208.0,210.0,63.0,15.0
443583,County,2020/05/18,46.0,SD,46119.0,Sully County,222.0,1170.0,7540.0,1803.0,1406.0,343.0,1191.0,1098.0,1195.0,160.0,237.0,92.0,15.0
446746,County,2020/05/19,46.0,SD,46119.0,Sully County,212.0,1180.0,7435.0,1807.0,1377.0,305.0,1157.0,946.0,1279.0,229.0,239.0,81.0,15.0
448378,County,2020/05/20,46.0,SD,46119.0,Sully County,190.0,1202.0,6010.0,1477.0,1022.0,282.0,714.0,862.0,1209.0,233.0,150.0,48.0,13.0
451549,County,2020/05/21,46.0,SD,46119.0,Sully County,173.0,1219.0,6302.0,1567.0,1180.0,300.0,859.0,870.0,1131.0,207.0,106.0,82.0,0.0
454735,County,2020/05/22,46.0,SD,46119.0,Sully County,182.0,1210.0,6506.0,1564.0,1391.0,382.0,930.0,852.0,1011.0,172.0,100.0,104.0,0.0
459519,County,2020/05/23,46.0,SD,46119.0,Sully County,191.0,1201.0,5966.0,1516.0,1301.0,331.0,885.0,735.0,849.0,153.0,102.0,69.0,25.0
462723,County,2020/05/24,46.0,SD,46119.0,Sully County,305.0,1087.0,3173.0,1173.0,830.0,39.0,196.0,513.0,278.0,49.0,51.0,44.0,0.0
464352,County,2020/05/25,46.0,SD,46119.0,Sully County,247.0,1145.0,3158.0,893.0,639.0,89.0,89.0,331.0,470.0,90.0,488.0,66.0,3.0
467506,County,2020/05/26,46.0,SD,46119.0,Sully County,177.0,1215.0,4413.0,1125.0,1090.0,229.0,652.0,552.0,562.0,68.0,106.0,24.0,5.0
472324,County,2020/05/27,46.0,SD,46119.0,Sully County,209.0,1183.0,6106.0,2131.0,1346.0,497.0,825.0,577.0,570.0,83.0,65.0,12.0,0.0
473858,County,2020/05/28,46.0,SD,46119.0,Sully County,233.0,1159.0,4953.0,1239.0,950.0,325.0,1132.0,619.0,525.0,109.0,42.0,12.0,0.0
477103,County,2020/05/29,46.0,SD,46119.0,Sully County,232.0,1160.0,5251.0,1105.0,1487.0,271.0,1013.0,627.0,548.0,99.0,88.0,13.0,0.0
481862,County,2020/05/30,46.0,SD,46119.0,Sully County,263.0,1129.0,3694.0,1037.0,805.0,108.0,590.0,352.0,566.0,108.0,112.0,16.0,0.0
483418,County,2020/05/31,46.0,SD,46119.0,Sully County,245.0,1147.0,3381.0,410.0,553.0,149.0,530.0,649.0,689.0,160.0,194.0,47.0,0.0
486684,County,2020/06/01,46.0,SD,46119.0,Sully County,182.0,1210.0,4352.0,1073.0,992.0,220.0,1014.0,480.0,480.0,43.0,22.0,25.0,3.0
489925,County,2020/06/02,46.0,SD,46119.0,Sully County,186.0,1206.0,3516.0,628.0,833.0,79.0,540.0,558.0,638.0,148.0,77.0,15.0,0.0
493094,County,2020/06/03,46.0,SD,46119.0,Sully County,206.0,1186.0,4309.0,958.0,1026.0,183.0,811.0,753.0,329.0,34.0,185.0,30.0,0.0
496256,County,2020/06/04,46.0,SD,46119.0,Sully County,233.0,1159.0,4944.0,767.0,699.0,344.0,1553.0,726.0,739.0,72.0,28.0,16.0,0.0
501032,County,2020/06/05,46.0,SD,46119.0,Sully County,239.0,1153.0,5457.0,1406.0,1247.0,551.0,717.0,783.0,631.0,60.0,62.0,0.0,0.0
504233,County,2020/06/06,46.0,SD,46119.0,Sully County,256.0,1136.0,3427.0,796.0,634.0,367.0,343.0,599.0,418.0,134.0,119.0,17.0,0.0
507433,County,2020/06/07,46.0,SD,46119.0,Sully County,251.0,1141.0,3775.0,507.0,505.0,289.0,1083.0,563.0,586.0,104.0,108.0,30.0,0.0
510644,County,2020/06/08,46.0,SD,46119.0,Sully County,176.0,1216.0,5026.0,1113.0,1403.0,255.0,705.0,662.0,629.0,35.0,203.0,21.0,0.0
513799,County,2020/06/09,46.0,SD,46119.0,Sully County,247.0,1145.0,3826.0,437.0,988.0,125.0,890.0,700.0,470.0,30.0,140.0,40.0,6.0
515429,County,2020/06/10,46.0,SD,46119.0,Sully County,210.0,1182.0,5531.0,1336.0,1176.0,282.0,703.0,864.0,749.0,221.0,161.0,39.0,0.0
518633,County,2020/06/11,46.0,SD,46119.0,Sully County,187.0,1205.0,5619.0,1055.0,1314.0,459.0,1236.0,680.0,669.0,15.0,120.0,68.0,3.0
523433,County,2020/06/12,46.0,SD,46119.0,Sully County,166.0,1226.0,5976.0,1566.0,1259.0,337.0,1384.0,770.0,477.0,56.0,66.0,50.0,11.0
526571,County,2020/06/13,46.0,SD,46119.0,Sully County,224.0,1168.0,3940.0,955.0,1081.0,215.0,584.0,617.0,356.0,49.0,51.0,29.0,3.0
528206,County,2020/06/14,46.0,SD,46119.0,Sully County,229.0,1163.0,2863.0,443.0,686.0,196.0,188.0,443.0,701.0,50.0,98.0,56.0,2.0
531404,County,2020/06/15,46.0,SD,46119.0,Sully County,262.0,1130.0,4422.0,1144.0,1107.0,322.0,754.0,330.0,536.0,47.0,123.0,56.0,3.0
536185,County,2020/06/16,46.0,SD,46119.0,Sully County,242.0,1150.0,3416.0,1003.0,629.0,161.0,522.0,474.0,456.0,67.0,84.0,12.0,8.0
539354,County,2020/06/17,46.0,SD,46119.0,Sully County,248.0,1144.0,3696.0,973.0,898.0,247.0,579.0,649.0,176.0,61.0,38.0,75.0,0.0
542548,County,2020/06/18,46.0,SD,46119.0,Sully County,266.0,1126.0,3685.0,806.0,710.0,370.0,711.0,530.0,374.0,28.0,153.0,0.0,3.0
544175,County,2020/06/19,46.0,SD,46119.0,Sully County,225.0,1167.0,3816.0,715.0,970.0,346.0,665.0,770.0,254.0,53.0,20.0,23.0,0.0
547380,County,2020/06/20,46.0,SD,46119.0,Sully County,256.0,1136.0,3447.0,598.0,998.0,149.0,537.0,632.0,302.0,69.0,108.0,49.0,5.0
550585,County,2020/06/21,46.0,SD,46119.0,Sully County,239.0,1153.0,3294.0,435.0,683.0,129.0,845.0,387.0,490.0,122.0,105.0,95.0,3.0
553759,County,2020/06/22,46.0,SD,46119.0,Sully County,230.0,1162.0,3639.0,901.0,648.0,191.0,636.0,503.0,419.0,120.0,145.0,71.0,5.0
558519,County,2020/06/23,46.0,SD,46119.0,Sully County,206.0,1186.0,4913.0,1433.0,1323.0,341.0,849.0,309.0,383.0,47.0,197.0,28.0,3.0
560150,County,2020/06/24,46.0,SD,46119.0,Sully County,250.0,1142.0,4089.0,842.0,906.0,244.0,1085.0,417.0,317.0,146.0,68.0,64.0,0.0
564887,County,2020/06/25,46.0,SD,46119.0,Sully County,240.0,1152.0,3825.0,727.0,1211.0,243.0,455.0,464.0,523.0,76.0,59.0,67.0,0.0
568185,County,2020/06/26,46.0,SD,46119.0,Sully County,225.0,1167.0,4520.0,974.0,1080.0,239.0,637.0,779.0,655.0,71.0,44.0,38.0,3.0
569715,County,2020/06/27,46.0,SD,46119.0,Sully County,215.0,1177.0,3477.0,997.0,686.0,202.0,320.0,460.0,483.0,169.0,119.0,41.0,0.0
574517,County,2020/06/28,46.0,SD,46119.0,Sully County,228.0,1164.0,3484.0,758.0,790.0,157.0,273.0,495.0,412.0,118.0,469.0,12.0,0.0
577686,County,2020/06/29,46.0,SD,46119.0,Sully County,249.0,1143.0,4244.0,1003.0,1034.0,233.0,687.0,577.0,515.0,106.0,55.0,31.0,3.0
579329,County,2020/06/30,46.0,SD,46119.0,Sully County,234.0,1158.0,4014.0,1072.0,884.0,209.0,678.0,547.0,423.0,70.0,82.0,46.0,3.0
582534,County,2020/07/01,46.0,SD,46119.0,Sully County,221.0,1171.0,3674.0,768.0,791.0,254.0,685.0,529.0,513.0,106.0,28.0,0.0,0.0
587267,County,2020/07/02,46.0,SD,46119.0,Sully County,282.0,1110.0,4060.0,772.0,1285.0,258.0,483.0,492.0,555.0,81.0,63.0,71.0,0.0
588907,County,2020/07/03,46.0,SD,46119.0,Sully County,273.0,1119.0,4496.0,969.0,1074.0,238.0,633.0,775.0,651.0,71.0,44.0,38.0,3.0
592114,County,2020/07/04,46.0,SD,46119.0,Sully County,266.0,1126.0,3845.0,829.0,919.0,203.0,542.0,663.0,557.0,60.0,37.0,32.0,3.0
596864,County,2020/07/05,46.0,SD,46119.0,Sully County,263.0,1129.0,2613.0,427.0,654.0,104.0,557.0,243.0,362.0,62.0,136.0,66.0,2.0
600040,County,2020/07/06,46.0,SD,46119.0,Sully County,254.0,1138.0,3116.0,794.0,902.0,136.0,423.0,247.0,252.0,76.0,192.0,92.0,2.0
601618,County,2020/07/07,46.0,SD,46119.0,Sully County,276.0,1116.0,3514.0,866.0,662.0,185.0,523.0,511.0,400.0,72.0,225.0,64.0,6.0
604859,County,2020/07/08,46.0,SD,46119.0,Sully County,269.0,1123.0,3068.0,550.0,797.0,238.0,663.0,305.0,255.0,82.0,109.0,62.0,7.0
609631,County,2020/07/09,46.0,SD,46119.0,Sully County,245.0,1147.0,4229.0,910.0,1402.0,212.0,566.0,626.0,245.0,76.0,158.0,34.0,0.0
612836,County,2020/07/10,46.0,SD,46119.0,Sully County,205.0,1187.0,3312.0,747.0,807.0,209.0,445.0,454.0,342.0,91.0,155.0,59.0,3.0
616052,County,2020/07/11,46.0,SD,46119.0,Sully County,230.0,1162.0,3748.0,1009.0,528.0,369.0,663.0,386.0,628.0,111.0,38.0,11.0,5.0
617636,County,2020/07/12,46.0,SD,46119.0,Sully County,266.0,1126.0,4149.0,603.0,825.0,199.0,605.0,673.0,1072.0,111.0,57.0,0.0,4.0
620825,County,2020/07/13,46.0,SD,46119.0,Sully County,225.0,1167.0,3565.0,595.0,576.0,262.0,767.0,469.0,561.0,116.0,160.0,57.0,2.0
624026,County,2020/07/14,46.0,SD,46119.0,Sully County,308.0,1084.0,3336.0,1087.0,649.0,73.0,633.0,336.0,330.0,121.0,47.0,54.0,6.0
627148,County,2020/07/15,46.0,SD,46119.0,Sully County,228.0,1164.0,2993.0,495.0,791.0,139.0,433.0,416.0,562.0,15.0,113.0,26.0,3.0
632079,County,2020/07/16,46.0,SD,46119.0,Sully County,270.0,1122.0,3986.0,1139.0,885.0,113.0,608.0,552.0,494.0,16.0,73.0,97.0,9.0
633596,County,2020/07/17,46.0,SD,46119.0,Sully County,214.0,1178.0,3560.0,820.0,900.0,135.0,522.0,489.0,515.0,50.0,97.0,22.0,10.0
638376,County,2020/07/18,46.0,SD,46119.0,Sully County,234.0,1158.0,3073.0,470.0,861.0,106.0,396.0,538.0,464.0,44.0,115.0,65.0,14.0
641579,County,2020/07/19,46.0,SD,46119.0,Sully County,182.0,1210.0,3057.0,711.0,689.0,119.0,296.0,351.0,480.0,85.0,243.0,75.0,8.0
644788,County,2020/07/20,46.0,SD,46119.0,Sully County,235.0,1157.0,4088.0,973.0,661.0,116.0,1109.0,464.0,470.0,65.0,227.0,0.0,3.0
646758,County,2020/07/21,46.0,SD,46119.0,Sully County,211.0,1181.0,4652.0,759.0,1285.0,243.0,1010.0,463.0,615.0,153.0,79.0,45.0,0.0
651143,County,2020/07/22,46.0,SD,46119.0,Sully County,246.0,1146.0,5723.0,1467.0,1471.0,236.0,1274.0,407.0,637.0,82.0,128.0,15.0,6.0
654338,County,2020/07/23,46.0,SD,46119.0,Sully County,266.0,1126.0,4187.0,891.0,1108.0,364.0,1019.0,421.0,46.0,38.0,266.0,34.0,0.0
657612,County,2020/07/24,46.0,SD,46119.0,Sully County,224.0,1168.0,5951.0,1764.0,1359.0,261.0,1042.0,645.0,529.0,102.0,204.0,39.0,6.0
660829,County,2020/07/25,46.0,SD,46119.0,Sully County,223.0,1169.0,3694.0,786.0,682.0,128.0,1136.0,457.0,184.0,152.0,166.0,0.0,3.0
662354,County,2020/07/26,46.0,SD,46119.0,Sully County,197.0,1195.0,4284.0,918.0,982.0,242.0,954.0,329.0,367.0,185.0,289.0,15.0,3.0
665649,County,2020/07/27,46.0,SD,46119.0,Sully County,251.0,1141.0,6086.0,1610.0,1511.0,204.0,1524.0,716.0,184.0,114.0,206.0,17.0,0.0
670337,County,2020/07/28,46.0,SD,46119.0,Sully County,190.0,1202.0,5231.0,1554.0,1187.0,263.0,1010.0,441.0,533.0,187.0,53.0,0.0,3.0
673599,County,2020/07/29,46.0,SD,46119.0,Sully County,213.0,1179.0,4066.0,795.0,825.0,81.0,1062.0,486.0,534.0,170.0,80.0,30.0,3.0
675130,County,2020/07/30,46.0,SD,46119.0,Sully County,225.0,1167.0,4893.0,850.0,1302.0,185.0,1177.0,402.0,748.0,138.0,54.0,30.0,7.0
679908,County,2020/07/31,46.0,SD,46119.0,Sully County,221.0,1171.0,4832.0,931.0,1003.0,212.0,1153.0,504.0,702.0,81.0,200.0,43.0,3.0
681489,County,2020/08/01,46.0,SD,46119.0,Sully County,207.0,1185.0,4233.0,891.0,840.0,202.0,672.0,391.0,954.0,150.0,116.0,17.0,0.0
684711,County,2020/08/02,46.0,SD,46119.0,Sully County,256.0,1136.0,3228.0,562.0,529.0,93.0,290.0,405.0,988.0,155.0,152.0,51.0,3.0
687908,County,2020/08/03,46.0,SD,46119.0,Sully County,259.0,1133.0,4421.0,1230.0,688.0,235.0,585.0,511.0,951.0,176.0,30.0,0.0,15.0
692683,County,2020/08/04,46.0,SD,46119.0,Sully County,192.0,1200.0,3707.0,570.0,877.0,216.0,384.0,671.0,779.0,26.0,161.0,23.0,0.0
694311,County,2020/08/05,46.0,SD,46119.0,Sully County,158.0,1234.0,3726.0,704.0,868.0,213.0,443.0,697.0,360.0,90.0,324.0,27.0,0.0
699054,County,2020/08/06,46.0,SD,46119.0,Sully County,163.0,1229.0,4487.0,1266.0,950.0,283.0,706.0,695.0,537.0,14.0,23.0,13.0,0.0
702250,County,2020/08/07,46.0,SD,46119.0,Sully County,181.0,1211.0,3611.0,600.0,954.0,117.0,752.0,529.0,542.0,70.0,22.0,25.0,0.0
703879,County,2020/08/08,46.0,SD,46119.0,Sully County,184.0,1208.0,4360.0,1071.0,948.0,228.0,726.0,590.0,421.0,156.0,189.0,31.0,0.0
707069,County,2020/08/09,46.0,SD,46119.0,Sully County,231.0,1161.0,3952.0,621.0,717.0,249.0,1051.0,396.0,620.0,128.0,125.0,42.0,3.0
711879,County,2020/08/10,46.0,SD,46119.0,Sully County,241.0,1151.0,3967.0,728.0,695.0,391.0,787.0,668.0,376.0,202.0,73.0,41.0,6.0
715023,County,2020/08/11,46.0,SD,46119.0,Sully County,209.0,1183.0,3554.0,644.0,728.0,144.0,398.0,453.0,873.0,80.0,208.0,24.0,2.0
718169,County,2020/08/12,46.0,SD,46119.0,Sully County,207.0,1185.0,4942.0,1385.0,1116.0,158.0,571.0,843.0,463.0,147.0,183.0,65.0,11.0
721412,County,2020/08/13,46.0,SD,46119.0,Sully County,223.0,1169.0,4915.0,1271.0,647.0,290.0,856.0,493.0,916.0,182.0,188.0,67.0,5.0
724639,County,2020/08/14,46.0,SD,46119.0,Sully County,170.0,1222.0,5016.0,960.0,658.0,211.0,1171.0,635.0,820.0,135.0,338.0,83.0,5.0
726270,County,2020/08/15,46.0,SD,46119.0,Sully County,201.0,1191.0,4329.0,1023.0,1020.0,202.0,643.0,502.0,522.0,139.0,192.0,81.0,5.0
729429,County,2020/08/16,46.0,SD,46119.0,Sully County,279.0,1113.0,4243.0,770.0,1010.0,148.0,368.0,451.0,957.0,222.0,154.0,153.0,10.0
734209,County,2020/08/17,46.0,SD,46119.0,Sully County,218.0,1174.0,4369.0,875.0,811.0,356.0,591.0,620.0,768.0,159.0,124.0,53.0,12.0
735838,County,2020/08/18,46.0,SD,46119.0,Sully County,215.0,1177.0,4825.0,1174.0,1327.0,99.0,739.0,673.0,400.0,165.0,162.0,74.0,12.0
740576,County,2020/08/19,46.0,SD,46119.0,Sully County,246.0,1146.0,4427.0,551.0,912.0,240.0,999.0,698.0,756.0,68.0,139.0,59.0,5.0
742205,County,2020/08/20,46.0,SD,46119.0,Sully County,175.0,1217.0,4619.0,920.0,1209.0,247.0,730.0,442.0,820.0,113.0,117.0,17.0,4.0
745405,County,2020/08/21,46.0,SD,46119.0,Sully County,194.0,1198.0,5134.0,835.0,1033.0,305.0,696.0,830.0,1080.0,106.0,133.0,112.0,4.0
750185,County,2020/08/22,46.0,SD,46119.0,Sully County,252.0,1140.0,4196.0,1590.0,426.0,426.0,572.0,571.0,332.0,54.0,214.0,0.0,11.0
753354,County,2020/08/23,46.0,SD,46119.0,Sully County,292.0,1100.0,2189.0,523.0,334.0,59.0,0.0,256.0,535.0,221.0,153.0,108.0,0.0
755025,County,2020/08/24,46.0,SD,46119.0,Sully County,233.0,1159.0,4521.0,1380.0,832.0,377.0,739.0,499.0,327.0,67.0,176.0,120.0,4.0
758175,County,2020/08/25,46.0,SD,46119.0,Sully County,223.0,1169.0,3738.0,1062.0,666.0,313.0,301.0,551.0,438.0,121.0,220.0,54.0,12.0
762946,County,2020/08/26,46.0,SD,46119.0,Sully County,176.0,1216.0,3971.0,1010.0,612.0,251.0,677.0,387.0,718.0,69.0,190.0,30.0,27.0
766141,County,2020/08/27,46.0,SD,46119.0,Sully County,191.0,1201.0,4121.0,1032.0,972.0,268.0,565.0,427.0,417.0,156.0,214.0,61.0,9.0
769358,County,2020/08/28,46.0,SD,46119.0,Sully County,247.0,1145.0,3765.0,1020.0,755.0,232.0,386.0,337.0,679.0,86.0,101.0,152.0,17.0
772509,County,2020/08/29,46.0,SD,46119.0,Sully County,261.0,1131.0,4036.0,795.0,1114.0,98.0,570.0,320.0,529.0,191.0,341.0,73.0,5.0
774186,County,2020/08/30,46.0,SD,46119.0,Sully County,269.0,1123.0,3918.0,571.0,722.0,95.0,395.0,966.0,705.0,265.0,82.0,117.0,0.0
778907,County,2020/08/31,46.0,SD,46119.0,Sully County,251.0,1141.0,5254.0,807.0,1366.0,203.0,938.0,663.0,938.0,145.0,151.0,43.0,0.0
780520,County,2020/09/01,46.0,SD,46119.0,Sully County,216.0,1176.0,4301.0,764.0,945.0,121.0,724.0,765.0,735.0,61.0,158.0,0.0,28.0
785293,County,2020/09/02,46.0,SD,46119.0,Sully County,210.0,1182.0,5073.0,497.0,1384.0,76.0,748.0,1090.0,912.0,125.0,163.0,74.0,4.0
788504,County,2020/09/03,46.0,SD,46119.0,Sully County,211.0,1181.0,5659.0,708.0,1186.0,194.0,1152.0,1218.0,886.0,81.0,190.0,36.0,8.0
791684,County,2020/09/04,46.0,SD,46119.0,Sully County,251.0,1141.0,5582.0,923.0,1522.0,168.0,666.0,1166.0,947.0,112.0,43.0,24.0,11.0
794879,County,2020/09/05,46.0,SD,46119.0,Sully County,199.0,1193.0,4924.0,670.0,582.0,165.0,962.0,1320.0,892.0,161.0,143.0,20.0,9.0
798086,County,2020/09/06,46.0,SD,46119.0,Sully County,309.0,1083.0,5490.0,715.0,448.0,158.0,685.0,1969.0,1273.0,99.0,102.0,29.0,12.0
801294,County,2020/09/07,46.0,SD,46119.0,Sully County,274.0,1118.0,4214.0,462.0,800.0,99.0,1470.0,678.0,332.0,137.0,171.0,49.0,16.0
802918,County,2020/09/08,46.0,SD,46119.0,Sully County,268.0,1124.0,4923.0,1111.0,1398.0,553.0,459.0,368.0,746.0,128.0,160.0,0.0,0.0
806085,County,2020/09/09,46.0,SD,46119.0,Sully County,200.0,1192.0,5370.0,2024.0,1339.0,315.0,363.0,474.0,735.0,21.0,63.0,36.0,0.0
810853,County,2020/09/10,46.0,SD,46119.0,Sully County,274.0,1118.0,4848.0,1345.0,1620.0,139.0,483.0,543.0,615.0,46.0,36.0,21.0,0.0
812482,County,2020/09/11,46.0,SD,46119.0,Sully County,221.0,1171.0,4352.0,898.0,952.0,195.0,608.0,665.0,741.0,40.0,223.0,18.0,12.0
815668,County,2020/09/12,46.0,SD,46119.0,Sully County,347.0,1045.0,3517.0,698.0,921.0,218.0,869.0,380.0,264.0,110.0,57.0,0.0,0.0
818839,County,2020/09/13,46.0,SD,46119.0,Sully County,173.0,1219.0,5852.0,1543.0,979.0,218.0,768.0,990.0,1032.0,189.0,111.0,22.0,0.0
823621,County,2020/09/14,46.0,SD,46119.0,Sully County,212.0,1180.0,5007.0,1477.0,1128.0,120.0,902.0,459.0,610.0,25.0,236.0,45.0,5.0
825249,County,2020/09/15,46.0,SD,46119.0,Sully County,177.0,1215.0,4402.0,924.0,1427.0,113.0,565.0,401.0,401.0,119.0,405.0,42.0,5.0
828490,County,2020/09/16,46.0,SD,46119.0,Sully County,232.0,1160.0,4884.0,1053.0,1340.0,95.0,395.0,449.0,1026.0,133.0,289.0,94.0,10.0
833234,County,2020/09/17,46.0,SD,46119.0,Sully County,203.0,1189.0,4080.0,1106.0,862.0,118.0,734.0,610.0,298.0,98.0,192.0,44.0,18.0
836396,County,2020/09/18,46.0,SD,46119.0,Sully County,194.0,1198.0,6251.0,1353.0,1094.0,122.0,763.0,733.0,1610.0,179.0,279.0,113.0,5.0
838025,County,2020/09/19,46.0,SD,46119.0,Sully County,275.0,1117.0,4107.0,791.0,1198.0,74.0,367.0,763.0,522.0,124.0,240.0,28.0,0.0
842800,County,2020/09/20,46.0,SD,46119.0,Sully County,188.0,1204.0,5029.0,1071.0,942.0,261.0,814.0,901.0,830.0,142.0,54.0,13.0,1.0
844428,County,2020/09/21,46.0,SD,46119.0,Sully County,174.0,1218.0,5804.0,1166.0,1190.0,306.0,870.0,876.0,1100.0,174.0,109.0,12.0,1.0
847633,County,2020/09/22,46.0,SD,46119.0,Sully County,181.0,1211.0,6979.0,1282.0,1204.0,323.0,1155.0,1083.0,1522.0,203.0,153.0,54.0,0.0
850800,County,2020/09/23,46.0,SD,46119.0,Sully County,174.0,1218.0,7563.0,1518.0,1364.0,317.0,1263.0,1082.0,1561.0,166.0,202.0,78.0,12.0
855566,County,2020/09/24,46.0,SD,46119.0,Sully County,274.0,1118.0,3531.0,244.0,836.0,121.0,679.0,593.0,735.0,76.0,197.0,45.0,5.0
857195,County,2020/09/25,46.0,SD,46119.0,Sully County,184.0,1208.0,6394.0,1494.0,1173.0,348.0,1049.0,863.0,1224.0,126.0,90.0,26.0,1.0
860381,County,2020/09/26,46.0,SD,46119.0,Sully County,194.0,1198.0,7046.0,1570.0,1310.0,385.0,1428.0,897.0,1187.0,183.0,82.0,0.0,4.0
865178,County,2020/09/27,46.0,SD,46119.0,Sully County,173.0,1219.0,6148.0,1313.0,1116.0,282.0,1097.0,771.0,1274.0,172.0,81.0,30.0,12.0
868336,County,2020/09/28,46.0,SD,46119.0,Sully County,189.0,1203.0,6635.0,1509.0,1209.0,264.0,1020.0,1000.0,1291.0,168.0,91.0,48.0,35.0
869964,County,2020/09/29,46.0,SD,46119.0,Sully County,261.0,1131.0,3230.0,487.0,573.0,141.0,526.0,422.0,784.0,176.0,103.0,16.0,2.0
874743,County,2020/09/30,46.0,SD,46119.0,Sully County,188.0,1204.0,8068.0,2338.0,1548.0,395.0,1059.0,1046.0,1308.0,206.0,112.0,55.0,1.0
876371,County,2020/10/01,46.0,SD,46119.0,Sully County,174.0,1218.0,6705.0,1945.0,1320.0,301.0,978.0,851.0,982.0,151.0,110.0,62.0,5.0
881112,County,2020/10/02,46.0,SD,46119.0,Sully County,183.0,1209.0,7047.0,1722.0,1488.0,337.0,1047.0,1026.0,1109.0,155.0,100.0,58.0,5.0
884307,County,2020/10/03,46.0,SD,46119.0,Sully County,196.0,1196.0,7300.0,1419.0,1731.0,417.0,1333.0,984.0,1170.0,126.0,55.0,59.0,6.0
887140,County,2020/10/04,46.0,SD,46119.0,Sully County,260.0,1132.0,3183.0,272.0,727.0,131.0,592.0,316.0,698.0,208.0,192.0,45.0,2.0
890319,County,2020/10/05,46.0,SD,46119.0,Sully County,290.0,1102.0,3473.0,454.0,676.0,126.0,388.0,498.0,987.0,180.0,140.0,23.0,1.0
893494,County,2020/10/06,46.0,SD,46119.0,Sully County,239.0,1153.0,4367.0,1070.0,813.0,116.0,713.0,733.0,624.0,189.0,77.0,31.0,1.0
896692,County,2020/10/07,46.0,SD,46119.0,Sully County,197.0,1195.0,4095.0,811.0,1145.0,174.0,671.0,627.0,388.0,142.0,110.0,26.0,1.0
900069,County,2020/10/08,46.0,SD,46119.0,Sully County,273.0,1119.0,3383.0,559.0,656.0,200.0,571.0,385.0,713.0,109.0,118.0,71.0,1.0
903119,County,2020/10/09,46.0,SD,46119.0,Sully County,260.0,1132.0,3048.0,276.0,663.0,201.0,496.0,318.0,787.0,191.0,89.0,24.0,3.0
906411,County,2020/10/10,46.0,SD,46119.0,Sully County,316.0,1076.0,4010.0,610.0,981.0,595.0,418.0,448.0,748.0,104.0,76.0,30.0,0.0
908004,County,2020/10/11,46.0,SD,46119.0,Sully County,287.0,1105.0,3038.0,372.0,526.0,424.0,348.0,337.0,776.0,120.0,105.0,29.0,1.0
911104,County,2020/10/12,46.0,SD,46119.0,Sully County,272.0,1120.0,3968.0,634.0,445.0,209.0,1030.0,728.0,715.0,127.0,29.0,49.0,2.0
914162,County,2020/10/13,46.0,SD,46119.0,Sully County,277.0,1115.0,4841.0,1122.0,580.0,96.0,1099.0,1046.0,826.0,27.0,32.0,13.0,0.0
917380,County,2020/10/14,46.0,SD,46119.0,Sully County,227.0,1165.0,4200.0,769.0,1079.0,280.0,688.0,427.0,681.0,105.0,154.0,13.0,4.0
921001,County,2020/10/15,46.0,SD,46119.0,Sully County,297.0,1095.0,3913.0,658.0,818.0,342.0,1031.0,645.0,303.0,32.0,38.0,46.0,0.0
923866,County,2020/10/16,46.0,SD,46119.0,Sully County,260.0,1132.0,4228.0,435.0,826.0,156.0,1076.0,628.0,872.0,107.0,62.0,63.0,3.0
927096,County,2020/10/17,46.0,SD,46119.0,Sully County,256.0,1136.0,4257.0,801.0,537.0,33.0,879.0,893.0,907.0,83.0,97.0,26.0,1.0
930229,County,2020/10/18,46.0,SD,46119.0,Sully County,239.0,1153.0,3215.0,692.0,298.0,90.0,444.0,524.0,808.0,134.0,201.0,19.0,5.0
933079,County,2020/10/19,46.0,SD,46119.0,Sully County,252.0,1140.0,4274.0,646.0,426.0,116.0,1324.0,817.0,606.0,179.0,140.0,19.0,1.0
936614,County,2020/10/20,46.0,SD,46119.0,Sully County,222.0,1170.0,3748.0,923.0,612.0,130.0,697.0,599.0,564.0,148.0,65.0,9.0,1.0
939682,County,2020/10/21,46.0,SD,46119.0,Sully County,290.0,1102.0,3355.0,651.0,503.0,213.0,449.0,547.0,788.0,129.0,61.0,12.0,2.0
942915,County,2020/10/22,46.0,SD,46119.0,Sully County,317.0,1075.0,3503.0,608.0,526.0,191.0,863.0,539.0,572.0,108.0,95.0,0.0,1.0
946171,County,2020/10/23,46.0,SD,46119.0,Sully County,280.0,1112.0,3112.0,531.0,692.0,52.0,387.0,637.0,574.0,155.0,52.0,32.0,0.0
949186,County,2020/10/24,46.0,SD,46119.0,Sully County,251.0,1141.0,2851.0,754.0,453.0,243.0,449.0,226.0,425.0,181.0,91.0,25.0,4.0
