,Level,Date,State FIPS,State Postal Code,County FIPS,County Name,Population Staying at Home,Population Not Staying at Home,Number of Trips,Number of Trips <1,Number of Trips 1-3,Number of Trips 3-5,Number of Trips 5-10,Number of Trips 10-25,Number of Trips 25-50,Number of Trips 50-100,Number of Trips 100-250,Number of Trips 250-500,Number of Trips >=500
2517,County,2020/01/01,47.0,TN,47181.0,Wayne County,3207.0,13351.0,43979.0,6042.0,6922.0,7612.0,9333.0,5898.0,5434.0,2280.0,434.0,0.0,24.0
4508,County,2020/01/02,47.0,TN,47181.0,Wayne County,2728.0,13830.0,54499.0,10767.0,7386.0,7570.0,13011.0,8302.0,5173.0,1582.0,652.0,26.0,30.0
6670,County,2020/01/03,47.0,TN,47181.0,Wayne County,2336.0,14222.0,53838.0,8279.0,7037.0,7476.0,12504.0,9459.0,5252.0,2164.0,1265.0,363.0,39.0
10509,County,2020/01/04,47.0,TN,47181.0,Wayne County,2696.0,13862.0,51362.0,10265.0,6581.0,5373.0,11019.0,7894.0,6874.0,2359.0,972.0,14.0,11.0
15293,County,2020/01/05,47.0,TN,47181.0,Wayne County,2794.0,13764.0,56454.0,12097.0,8259.0,8327.0,12441.0,8718.0,4712.0,1503.0,344.0,30.0,23.0
17262,County,2020/01/06,47.0,TN,47181.0,Wayne County,2702.0,13856.0,51472.0,9711.0,8353.0,6543.0,8771.0,8669.0,6207.0,2214.0,973.0,0.0,31.0
20420,County,2020/01/07,47.0,TN,47181.0,Wayne County,2267.0,14291.0,57068.0,10350.0,9286.0,8630.0,10515.0,9942.0,6329.0,1604.0,402.0,0.0,10.0
23699,County,2020/01/08,47.0,TN,47181.0,Wayne County,2220.0,14338.0,59827.0,11623.0,8674.0,8778.0,10254.0,11542.0,6610.0,1477.0,794.0,12.0,63.0
28399,County,2020/01/09,47.0,TN,47181.0,Wayne County,2331.0,14227.0,61983.0,12759.0,8460.0,7457.0,13876.0,9817.0,7680.0,1325.0,572.0,11.0,26.0
29992,County,2020/01/10,47.0,TN,47181.0,Wayne County,2217.0,14341.0,58713.0,8204.0,9115.0,8529.0,12800.0,10374.0,6580.0,2309.0,761.0,41.0,0.0
34800,County,2020/01/11,47.0,TN,47181.0,Wayne County,2868.0,13690.0,52023.0,8607.0,8739.0,8859.0,10187.0,8479.0,5832.0,878.0,390.0,24.0,28.0
37920,County,2020/01/12,47.0,TN,47181.0,Wayne County,2897.0,13661.0,54436.0,8970.0,9904.0,8282.0,11999.0,8089.0,5804.0,1064.0,313.0,0.0,11.0
39632,County,2020/01/13,47.0,TN,47181.0,Wayne County,2480.0,14078.0,56633.0,11000.0,8674.0,7824.0,9916.0,9924.0,6512.0,2118.0,582.0,42.0,41.0
44365,County,2020/01/14,47.0,TN,47181.0,Wayne County,2285.0,14273.0,57383.0,11859.0,9130.0,7459.0,9864.0,9520.0,7450.0,1580.0,386.0,21.0,114.0
45946,County,2020/01/15,47.0,TN,47181.0,Wayne County,2346.0,14212.0,58671.0,11227.0,12196.0,8504.0,8581.0,9245.0,6321.0,1982.0,528.0,63.0,24.0
50727,County,2020/01/16,47.0,TN,47181.0,Wayne County,2416.0,14142.0,62491.0,11490.0,9006.0,8686.0,13237.0,10136.0,7356.0,2007.0,517.0,56.0,0.0
52355,County,2020/01/17,47.0,TN,47181.0,Wayne County,2349.0,14209.0,68074.0,12338.0,10481.0,9393.0,13855.0,11549.0,7639.0,2119.0,649.0,0.0,51.0
55588,County,2020/01/18,47.0,TN,47181.0,Wayne County,2519.0,14039.0,58524.0,8137.0,6814.0,8702.0,12938.0,11534.0,7214.0,2323.0,798.0,46.0,18.0
58736,County,2020/01/19,47.0,TN,47181.0,Wayne County,2945.0,13613.0,57625.0,7908.0,11034.0,8972.0,15177.0,8299.0,4173.0,1595.0,418.0,39.0,10.0
63497,County,2020/01/20,47.0,TN,47181.0,Wayne County,2686.0,13872.0,56145.0,8692.0,7993.0,8181.0,12365.0,9156.0,6633.0,2345.0,698.0,0.0,82.0
66695,County,2020/01/21,47.0,TN,47181.0,Wayne County,2414.0,14144.0,59582.0,9885.0,7988.0,8543.0,12631.0,11671.0,5590.0,2313.0,903.0,33.0,25.0
68326,County,2020/01/22,47.0,TN,47181.0,Wayne County,2406.0,14152.0,65183.0,13119.0,9152.0,8591.0,13677.0,9916.0,8110.0,1912.0,630.0,23.0,53.0
73117,County,2020/01/23,47.0,TN,47181.0,Wayne County,2446.0,14112.0,56751.0,10025.0,9289.0,7369.0,10247.0,9028.0,6986.0,2978.0,736.0,43.0,50.0
76274,County,2020/01/24,47.0,TN,47181.0,Wayne County,2247.0,14311.0,61503.0,9725.0,9279.0,9494.0,10880.0,11202.0,7628.0,2337.0,915.0,10.0,33.0
77900,County,2020/01/25,47.0,TN,47181.0,Wayne County,2478.0,14080.0,55056.0,9456.0,9112.0,8010.0,11827.0,7409.0,5731.0,2266.0,1227.0,0.0,18.0
82367,County,2020/01/26,47.0,TN,47181.0,Wayne County,2876.0,13682.0,53048.0,12056.0,7795.0,7063.0,10297.0,8433.0,5744.0,1024.0,563.0,25.0,48.0
85872,County,2020/01/27,47.0,TN,47181.0,Wayne County,2278.0,14280.0,53074.0,10222.0,8870.0,6782.0,8789.0,9656.0,6773.0,1282.0,624.0,52.0,24.0
88077,County,2020/01/28,47.0,TN,47181.0,Wayne County,2480.0,14078.0,64408.0,10571.0,10320.0,10202.0,12015.0,11092.0,6987.0,2630.0,542.0,12.0,37.0
92279,County,2020/01/29,47.0,TN,47181.0,Wayne County,2409.0,14149.0,54746.0,9525.0,9890.0,7133.0,8959.0,10499.0,5261.0,2495.0,930.0,21.0,33.0
94004,County,2020/01/30,47.0,TN,47181.0,Wayne County,2541.0,14017.0,56446.0,9011.0,10511.0,7538.0,10358.0,8636.0,6810.0,2951.0,517.0,79.0,35.0
97059,County,2020/01/31,47.0,TN,47181.0,Wayne County,2597.0,13961.0,57475.0,10541.0,8059.0,7190.0,10055.0,11324.0,7603.0,1660.0,944.0,51.0,48.0
100308,County,2020/02/01,47.0,TN,47181.0,Wayne County,2653.0,13905.0,56283.0,8587.0,8115.0,7113.0,12297.0,11064.0,5705.0,2429.0,879.0,11.0,83.0
103436,County,2020/02/02,47.0,TN,47181.0,Wayne County,2561.0,13997.0,53452.0,8125.0,8208.0,6863.0,13608.0,9266.0,5107.0,1558.0,593.0,32.0,92.0
108272,County,2020/02/03,47.0,TN,47181.0,Wayne County,2277.0,14281.0,62874.0,11855.0,9522.0,7938.0,13203.0,10156.0,7309.0,1677.0,993.0,141.0,80.0
111407,County,2020/02/04,47.0,TN,47181.0,Wayne County,2535.0,14023.0,57440.0,8778.0,8090.0,7410.0,12620.0,11869.0,5979.0,1605.0,970.0,29.0,90.0
114610,County,2020/02/05,47.0,TN,47181.0,Wayne County,2359.0,14199.0,59162.0,12009.0,9745.0,8511.0,10262.0,8712.0,7433.0,1765.0,606.0,44.0,75.0
117817,County,2020/02/06,47.0,TN,47181.0,Wayne County,2162.0,14396.0,57767.0,10018.0,9632.0,8687.0,10472.0,8866.0,7011.0,2112.0,870.0,52.0,47.0
121072,County,2020/02/07,47.0,TN,47181.0,Wayne County,2396.0,14162.0,63579.0,11285.0,9967.0,9819.0,12423.0,10315.0,6675.0,2147.0,758.0,55.0,135.0
122641,County,2020/02/08,47.0,TN,47181.0,Wayne County,2665.0,13893.0,57281.0,10401.0,11384.0,6141.0,10518.0,9402.0,7482.0,1441.0,365.0,70.0,77.0
126531,County,2020/02/09,47.0,TN,47181.0,Wayne County,3051.0,13507.0,51522.0,9984.0,9188.0,8921.0,9818.0,7274.0,4176.0,1409.0,622.0,45.0,85.0
130825,County,2020/02/10,47.0,TN,47181.0,Wayne County,2380.0,14178.0,58018.0,10994.0,8867.0,8243.0,8973.0,9758.0,7793.0,2579.0,613.0,80.0,118.0
133340,County,2020/02/11,47.0,TN,47181.0,Wayne County,2233.0,14325.0,65445.0,11072.0,10917.0,10134.0,12860.0,10361.0,7131.0,1963.0,871.0,45.0,91.0
134341,County,2020/02/12,47.0,TN,47181.0,Wayne County,2283.0,14275.0,54563.0,9248.0,8698.0,7325.0,9849.0,10118.0,6506.0,1819.0,884.0,58.0,58.0
138623,County,2020/02/13,47.0,TN,47181.0,Wayne County,2175.0,14383.0,60365.0,10229.0,10902.0,9691.0,10302.0,9718.0,6145.0,2140.0,1008.0,137.0,93.0
141682,County,2020/02/14,47.0,TN,47181.0,Wayne County,2131.0,14427.0,63771.0,10930.0,10896.0,9169.0,9677.0,11501.0,8392.0,2127.0,810.0,147.0,122.0
146560,County,2020/02/15,47.0,TN,47181.0,Wayne County,2739.0,13819.0,62089.0,8251.0,9225.0,9076.0,14681.0,10646.0,6940.0,2392.0,746.0,69.0,63.0
149762,County,2020/02/16,47.0,TN,47181.0,Wayne County,2862.0,13696.0,53433.0,9388.0,10361.0,7873.0,10922.0,7064.0,6065.0,1150.0,502.0,61.0,47.0
152929,County,2020/02/17,47.0,TN,47181.0,Wayne County,3235.0,13323.0,51787.0,10406.0,7503.0,6528.0,9540.0,9102.0,6008.0,1946.0,548.0,92.0,114.0
154506,County,2020/02/18,47.0,TN,47181.0,Wayne County,2394.0,14164.0,62712.0,13079.0,9942.0,7898.0,10957.0,11746.0,6441.0,1485.0,979.0,118.0,67.0
159316,County,2020/02/19,47.0,TN,47181.0,Wayne County,2364.0,14194.0,65598.0,11833.0,10052.0,10333.0,12131.0,10485.0,6605.0,2735.0,1281.0,56.0,87.0
160812,County,2020/02/20,47.0,TN,47181.0,Wayne County,2422.0,14136.0,61259.0,11487.0,9732.0,6482.0,12029.0,11347.0,6978.0,1784.0,1225.0,128.0,67.0
164139,County,2020/02/21,47.0,TN,47181.0,Wayne County,2359.0,14199.0,69430.0,12653.0,12322.0,8242.0,12865.0,11699.0,7203.0,2666.0,1583.0,111.0,86.0
167283,County,2020/02/22,47.0,TN,47181.0,Wayne County,2210.0,14348.0,61791.0,10212.0,11220.0,7522.0,12704.0,10010.0,6994.0,2387.0,521.0,114.0,107.0
172098,County,2020/02/23,47.0,TN,47181.0,Wayne County,2786.0,13772.0,55502.0,9310.0,8845.0,10360.0,12045.0,7855.0,4819.0,1550.0,608.0,79.0,31.0
173724,County,2020/02/24,47.0,TN,47181.0,Wayne County,2812.0,13746.0,62252.0,13437.0,10009.0,8822.0,9825.0,9245.0,7815.0,2492.0,570.0,37.0,0.0
178188,County,2020/02/25,47.0,TN,47181.0,Wayne County,2237.0,14321.0,66041.0,13433.0,12386.0,9832.0,9734.0,11182.0,6888.0,1883.0,608.0,73.0,22.0
181381,County,2020/02/26,47.0,TN,47181.0,Wayne County,2296.0,14262.0,71155.0,15808.0,9960.0,7980.0,17100.0,9010.0,6438.0,3490.0,1233.0,90.0,46.0
182700,County,2020/02/27,47.0,TN,47181.0,Wayne County,2315.0,14243.0,63144.0,11572.0,10133.0,8348.0,12141.0,10566.0,7646.0,2066.0,585.0,69.0,18.0
186639,County,2020/02/28,47.0,TN,47181.0,Wayne County,2066.0,14492.0,73030.0,12898.0,11685.0,10821.0,14194.0,12334.0,7740.0,2961.0,312.0,68.0,17.0
191257,County,2020/02/29,47.0,TN,47181.0,Wayne County,2481.0,14077.0,66104.0,13461.0,11313.0,10435.0,11077.0,9255.0,8474.0,1635.0,306.0,107.0,41.0
192881,County,2020/03/01,47.0,TN,47181.0,Wayne County,2559.0,13999.0,54288.0,9632.0,7852.0,10256.0,11276.0,9389.0,3558.0,1680.0,542.0,52.0,51.0
197681,County,2020/03/02,47.0,TN,47181.0,Wayne County,2247.0,14311.0,63808.0,11449.0,10997.0,9681.0,12033.0,10525.0,6739.0,1772.0,571.0,41.0,0.0
200956,County,2020/03/03,47.0,TN,47181.0,Wayne County,1966.0,14592.0,55751.0,8626.0,8918.0,9235.0,10771.0,9234.0,5732.0,2054.0,1103.0,16.0,62.0
204042,County,2020/03/04,47.0,TN,47181.0,Wayne County,2027.0,14531.0,64251.0,10636.0,11277.0,10254.0,13353.0,7652.0,7289.0,2447.0,1240.0,50.0,53.0
207246,County,2020/03/05,47.0,TN,47181.0,Wayne County,2199.0,14359.0,70668.0,11475.0,11824.0,10350.0,13917.0,11150.0,7330.0,3159.0,1343.0,92.0,28.0
210510,County,2020/03/06,47.0,TN,47181.0,Wayne County,2048.0,14510.0,72308.0,13562.0,11568.0,9137.0,14262.0,13556.0,7757.0,1958.0,340.0,110.0,58.0
213643,County,2020/03/07,47.0,TN,47181.0,Wayne County,2300.0,14258.0,61733.0,12894.0,10125.0,9940.0,8699.0,8525.0,9398.0,1315.0,689.0,65.0,83.0
216805,County,2020/03/08,47.0,TN,47181.0,Wayne County,2406.0,14152.0,58264.0,10418.0,10341.0,9438.0,11185.0,8624.0,6377.0,1305.0,537.0,39.0,0.0
218445,County,2020/03/09,47.0,TN,47181.0,Wayne County,2273.0,14285.0,65454.0,11173.0,13924.0,9786.0,11311.0,10008.0,7056.0,1527.0,592.0,65.0,12.0
221680,County,2020/03/10,47.0,TN,47181.0,Wayne County,2207.0,14351.0,64292.0,12309.0,13148.0,8902.0,11292.0,9131.0,6542.0,2001.0,825.0,66.0,76.0
226425,County,2020/03/11,47.0,TN,47181.0,Wayne County,2240.0,14318.0,71224.0,13472.0,17311.0,10757.0,9040.0,11207.0,4296.0,2427.0,2400.0,43.0,271.0
229518,County,2020/03/12,47.0,TN,47181.0,Wayne County,2063.0,14495.0,69107.0,10046.0,15582.0,8361.0,10324.0,12986.0,5011.0,4527.0,2131.0,78.0,61.0
232785,County,2020/03/13,47.0,TN,47181.0,Wayne County,2220.0,14338.0,80215.0,15048.0,15990.0,15299.0,11236.0,11497.0,7011.0,3411.0,603.0,87.0,33.0
235987,County,2020/03/14,47.0,TN,47181.0,Wayne County,2667.0,13891.0,66941.0,10800.0,14256.0,13841.0,8863.0,9753.0,5530.0,1943.0,1602.0,199.0,154.0
237599,County,2020/03/15,47.0,TN,47181.0,Wayne County,2997.0,13561.0,46755.0,6209.0,9231.0,9667.0,7544.0,6788.0,5672.0,1091.0,449.0,59.0,45.0
240843,County,2020/03/16,47.0,TN,47181.0,Wayne County,2569.0,13989.0,62156.0,12889.0,11548.0,8937.0,11392.0,7861.0,6134.0,2288.0,942.0,79.0,86.0
244025,County,2020/03/17,47.0,TN,47181.0,Wayne County,3007.0,13551.0,58678.0,12319.0,11662.0,8167.0,9271.0,7264.0,6340.0,2412.0,1077.0,54.0,112.0
247180,County,2020/03/18,47.0,TN,47181.0,Wayne County,2879.0,13679.0,57476.0,10847.0,10153.0,7637.0,11600.0,7724.0,6385.0,2500.0,476.0,86.0,68.0
251962,County,2020/03/19,47.0,TN,47181.0,Wayne County,2931.0,13627.0,57097.0,10990.0,10520.0,10300.0,7089.0,9519.0,5144.0,2417.0,996.0,83.0,39.0
253621,County,2020/03/20,47.0,TN,47181.0,Wayne County,2935.0,13623.0,57949.0,11525.0,10476.0,5716.0,10819.0,8773.0,7455.0,2367.0,675.0,66.0,77.0
258329,County,2020/03/21,47.0,TN,47181.0,Wayne County,3627.0,12931.0,60501.0,13304.0,9674.0,10887.0,12097.0,8703.0,4477.0,694.0,571.0,62.0,32.0
259951,County,2020/03/22,47.0,TN,47181.0,Wayne County,3314.0,13244.0,45752.0,9909.0,9475.0,9100.0,7220.0,5592.0,3675.0,536.0,177.0,38.0,30.0
264729,County,2020/03/23,47.0,TN,47181.0,Wayne County,2685.0,13873.0,53972.0,11698.0,9657.0,11191.0,7843.0,5508.0,6071.0,1474.0,337.0,147.0,46.0
267959,County,2020/03/24,47.0,TN,47181.0,Wayne County,3091.0,13467.0,49148.0,9013.0,8919.0,8356.0,9485.0,6607.0,4825.0,1152.0,678.0,44.0,69.0
269589,County,2020/03/25,47.0,TN,47181.0,Wayne County,3000.0,13558.0,58187.0,11959.0,11264.0,8015.0,10584.0,8441.0,6103.0,1085.0,670.0,16.0,50.0
272733,County,2020/03/26,47.0,TN,47181.0,Wayne County,2945.0,13613.0,57410.0,13808.0,11310.0,7955.0,9633.0,8554.0,4041.0,1217.0,849.0,17.0,26.0
277496,County,2020/03/27,47.0,TN,47181.0,Wayne County,3042.0,13516.0,56541.0,14487.0,10804.0,7929.0,9202.0,7633.0,4454.0,1163.0,737.0,32.0,100.0
279123,County,2020/03/28,47.0,TN,47181.0,Wayne County,3007.0,13551.0,56882.0,13522.0,11661.0,7183.0,11699.0,7046.0,3930.0,1353.0,418.0,46.0,24.0
283883,County,2020/03/29,47.0,TN,47181.0,Wayne County,3409.0,13149.0,49241.0,9523.0,11970.0,7748.0,8859.0,5816.0,4311.0,699.0,247.0,54.0,14.0
285511,County,2020/03/30,47.0,TN,47181.0,Wayne County,2574.0,13984.0,49178.0,10722.0,9249.0,8757.0,8268.0,6616.0,3824.0,1286.0,397.0,14.0,45.0
288706,County,2020/03/31,47.0,TN,47181.0,Wayne County,2856.0,13702.0,44510.0,7571.0,10129.0,5527.0,8743.0,6892.0,3506.0,1408.0,653.0,32.0,49.0
291941,County,2020/04/01,47.0,TN,47181.0,Wayne County,2887.0,13671.0,48690.0,9159.0,8541.0,7352.0,7554.0,8086.0,5123.0,2129.0,687.0,33.0,26.0
296674,County,2020/04/02,47.0,TN,47181.0,Wayne County,3026.0,13532.0,50069.0,11288.0,8226.0,7099.0,9546.0,7815.0,3297.0,2210.0,475.0,86.0,27.0
298335,County,2020/04/03,47.0,TN,47181.0,Wayne County,3007.0,13551.0,55756.0,9767.0,9512.0,7162.0,10680.0,12396.0,4178.0,1224.0,757.0,37.0,43.0
303082,County,2020/04/04,47.0,TN,47181.0,Wayne County,3263.0,13295.0,54971.0,9209.0,8472.0,11245.0,12000.0,9621.0,3494.0,564.0,279.0,40.0,47.0
306233,County,2020/04/05,47.0,TN,47181.0,Wayne County,3350.0,13208.0,49535.0,6451.0,10156.0,8614.0,11322.0,7517.0,3532.0,1105.0,708.0,44.0,86.0
307868,County,2020/04/06,47.0,TN,47181.0,Wayne County,3036.0,13522.0,58284.0,10289.0,9894.0,10407.0,11149.0,9356.0,4557.0,2167.0,446.0,19.0,0.0
312674,County,2020/04/07,47.0,TN,47181.0,Wayne County,3133.0,13425.0,52013.0,8661.0,6959.0,11847.0,10490.0,7044.0,3771.0,2305.0,908.0,0.0,28.0
315847,County,2020/04/08,47.0,TN,47181.0,Wayne County,2811.0,13747.0,46695.0,6460.0,7194.0,7858.0,11069.0,6455.0,5127.0,1702.0,779.0,51.0,0.0
317474,County,2020/04/09,47.0,TN,47181.0,Wayne County,3041.0,13517.0,52171.0,7117.0,7078.0,11728.0,11265.0,9464.0,4283.0,695.0,491.0,36.0,14.0
322211,County,2020/04/10,47.0,TN,47181.0,Wayne County,2752.0,13806.0,44019.0,8545.0,6675.0,7850.0,8592.0,7741.0,3391.0,791.0,326.0,53.0,55.0
323886,County,2020/04/11,47.0,TN,47181.0,Wayne County,2931.0,13627.0,50966.0,10905.0,8131.0,8194.0,13245.0,6192.0,3712.0,325.0,178.0,39.0,45.0
327031,County,2020/04/12,47.0,TN,47181.0,Wayne County,4003.0,12555.0,35989.0,4489.0,6025.0,8666.0,9780.0,4240.0,1947.0,821.0,0.0,21.0,0.0
330296,County,2020/04/13,47.0,TN,47181.0,Wayne County,3179.0,13379.0,47654.0,7183.0,5883.0,7615.0,12318.0,7408.0,5644.0,868.0,715.0,20.0,0.0
333421,County,2020/04/14,47.0,TN,47181.0,Wayne County,3091.0,13467.0,60160.0,8819.0,10281.0,13158.0,12638.0,6659.0,5710.0,2210.0,607.0,44.0,34.0
336645,County,2020/04/15,47.0,TN,47181.0,Wayne County,2996.0,13562.0,62752.0,6361.0,10756.0,14715.0,12309.0,12901.0,3413.0,1542.0,636.0,47.0,72.0
339799,County,2020/04/16,47.0,TN,47181.0,Wayne County,3153.0,13405.0,67789.0,13010.0,11553.0,12887.0,14211.0,9340.0,5434.0,1033.0,213.0,0.0,108.0
344578,County,2020/04/17,47.0,TN,47181.0,Wayne County,2646.0,13912.0,54146.0,8600.0,9643.0,8937.0,14305.0,7403.0,4335.0,230.0,569.0,124.0,0.0
346205,County,2020/04/18,47.0,TN,47181.0,Wayne County,3401.0,13157.0,55847.0,8867.0,8994.0,13097.0,11181.0,7910.0,4360.0,526.0,865.0,47.0,0.0
349377,County,2020/04/19,47.0,TN,47181.0,Wayne County,3187.0,13371.0,38010.0,5017.0,6919.0,7367.0,9990.0,3533.0,4155.0,704.0,194.0,0.0,131.0
354207,County,2020/04/20,47.0,TN,47181.0,Wayne County,2968.0,13590.0,69247.0,13369.0,12118.0,14347.0,13229.0,9047.0,4815.0,1554.0,768.0,0.0,0.0
355777,County,2020/04/21,47.0,TN,47181.0,Wayne County,2705.0,13853.0,58475.0,9407.0,8861.0,10086.0,11967.0,11503.0,4622.0,1392.0,618.0,19.0,0.0
360547,County,2020/04/22,47.0,TN,47181.0,Wayne County,2752.0,13806.0,52520.0,8066.0,7345.0,7034.0,11822.0,9983.0,5971.0,1587.0,697.0,0.0,15.0
363753,County,2020/04/23,47.0,TN,47181.0,Wayne County,2894.0,13664.0,48895.0,8856.0,7860.0,8102.0,9048.0,9116.0,4064.0,1224.0,588.0,37.0,0.0
366965,County,2020/04/24,47.0,TN,47181.0,Wayne County,2699.0,13859.0,56156.0,13783.0,9054.0,7070.0,11379.0,8726.0,5267.0,621.0,256.0,0.0,0.0
368548,County,2020/04/25,47.0,TN,47181.0,Wayne County,2932.0,13626.0,50987.0,10784.0,6368.0,9618.0,10934.0,7896.0,3999.0,1169.0,175.0,0.0,44.0
373315,County,2020/04/26,47.0,TN,47181.0,Wayne County,3252.0,13306.0,44068.0,8187.0,5896.0,7632.0,9621.0,6742.0,5002.0,775.0,213.0,0.0,0.0
376547,County,2020/04/27,47.0,TN,47181.0,Wayne County,2703.0,13855.0,59184.0,13582.0,9456.0,10378.0,9776.0,8896.0,5501.0,1081.0,445.0,39.0,30.0
379718,County,2020/04/28,47.0,TN,47181.0,Wayne County,2738.0,13820.0,48469.0,9140.0,6682.0,6944.0,9654.0,7848.0,5913.0,1880.0,408.0,0.0,0.0
382921,County,2020/04/29,47.0,TN,47181.0,Wayne County,2972.0,13586.0,47432.0,8860.0,5330.0,6494.0,10331.0,7392.0,6445.0,2198.0,362.0,20.0,0.0
386140,County,2020/04/30,47.0,TN,47181.0,Wayne County,2986.0,13572.0,53348.0,10926.0,6383.0,8056.0,11507.0,8983.0,6189.0,895.0,369.0,40.0,0.0
389327,County,2020/05/01,47.0,TN,47181.0,Wayne County,2847.0,13711.0,55963.0,12297.0,8256.0,7914.0,11110.0,8825.0,6080.0,1209.0,272.0,0.0,0.0
392478,County,2020/05/02,47.0,TN,47181.0,Wayne County,2813.0,13745.0,59205.0,13980.0,8483.0,9926.0,11359.0,9414.0,4556.0,1372.0,94.0,21.0,0.0
395674,County,2020/05/03,47.0,TN,47181.0,Wayne County,3145.0,13413.0,51963.0,11079.0,7545.0,10369.0,9526.0,9435.0,3647.0,122.0,201.0,22.0,17.0
397323,County,2020/05/04,47.0,TN,47181.0,Wayne County,2688.0,13870.0,45859.0,8832.0,6861.0,6832.0,8859.0,8078.0,5118.0,1017.0,229.0,33.0,0.0
400543,County,2020/05/05,47.0,TN,47181.0,Wayne County,2823.0,13735.0,55422.0,10732.0,8281.0,9609.0,8852.0,9914.0,6345.0,1062.0,612.0,0.0,15.0
403672,County,2020/05/06,47.0,TN,47181.0,Wayne County,2430.0,14128.0,54698.0,6850.0,9767.0,9222.0,11029.0,8701.0,6985.0,1790.0,311.0,17.0,26.0
408392,County,2020/05/07,47.0,TN,47181.0,Wayne County,2638.0,13920.0,54649.0,9323.0,10143.0,7179.0,10254.0,8405.0,7721.0,1296.0,328.0,0.0,0.0
411654,County,2020/05/08,47.0,TN,47181.0,Wayne County,2618.0,13940.0,48790.0,7084.0,8976.0,8434.0,9720.0,8048.0,4829.0,1319.0,334.0,18.0,28.0
413234,County,2020/05/09,47.0,TN,47181.0,Wayne County,2520.0,14038.0,56187.0,10928.0,9772.0,7957.0,10386.0,9871.0,5991.0,994.0,273.0,0.0,15.0
418031,County,2020/05/10,47.0,TN,47181.0,Wayne County,3031.0,13527.0,55056.0,13609.0,8092.0,8948.0,11738.0,6169.0,4969.0,1418.0,97.0,0.0,16.0
421262,County,2020/05/11,47.0,TN,47181.0,Wayne County,2302.0,14256.0,58220.0,10941.0,11490.0,8124.0,11210.0,8397.0,5005.0,2478.0,510.0,56.0,9.0
424466,County,2020/05/12,47.0,TN,47181.0,Wayne County,2383.0,14175.0,53855.0,9290.0,11660.0,6196.0,10819.0,8083.0,5603.0,1769.0,352.0,66.0,17.0
425948,County,2020/05/13,47.0,TN,47181.0,Wayne County,2546.0,14012.0,50744.0,10339.0,9168.0,6910.0,9562.0,7131.0,5334.0,1966.0,314.0,11.0,9.0
429289,County,2020/05/14,47.0,TN,47181.0,Wayne County,2127.0,14431.0,53411.0,9344.0,9244.0,8377.0,10344.0,7156.0,6258.0,2062.0,582.0,11.0,33.0
434030,County,2020/05/15,47.0,TN,47181.0,Wayne County,2217.0,14341.0,57569.0,12114.0,11972.0,7377.0,11701.0,7169.0,5358.0,1634.0,150.0,43.0,51.0
437184,County,2020/05/16,47.0,TN,47181.0,Wayne County,2297.0,14261.0,53543.0,9792.0,7940.0,7946.0,11960.0,7156.0,6893.0,1477.0,265.0,69.0,45.0
438812,County,2020/05/17,47.0,TN,47181.0,Wayne County,2199.0,14359.0,52926.0,10893.0,7712.0,8424.0,9888.0,8140.0,6590.0,1140.0,104.0,0.0,35.0
443632,County,2020/05/18,47.0,TN,47181.0,Wayne County,2333.0,14225.0,60403.0,11173.0,10929.0,9624.0,11139.0,9122.0,6506.0,1470.0,440.0,0.0,0.0
446795,County,2020/05/19,47.0,TN,47181.0,Wayne County,1927.0,14631.0,62658.0,11301.0,13141.0,9569.0,9395.0,10750.0,5861.0,2072.0,569.0,0.0,0.0
448427,County,2020/05/20,47.0,TN,47181.0,Wayne County,2125.0,14433.0,68356.0,14638.0,13179.0,10836.0,10407.0,9650.0,7045.0,1498.0,1029.0,22.0,52.0
453206,County,2020/05/21,47.0,TN,47181.0,Wayne County,1829.0,14729.0,63993.0,10225.0,11686.0,11560.0,10486.0,10008.0,7055.0,2202.0,669.0,21.0,81.0
454784,County,2020/05/22,47.0,TN,47181.0,Wayne County,1541.0,15017.0,57711.0,11338.0,7368.0,8584.0,11543.0,9333.0,6401.0,2685.0,426.0,19.0,14.0
459568,County,2020/05/23,47.0,TN,47181.0,Wayne County,1926.0,14632.0,58256.0,11753.0,6362.0,10148.0,12713.0,9954.0,5684.0,1194.0,394.0,21.0,33.0
462772,County,2020/05/24,47.0,TN,47181.0,Wayne County,2642.0,13916.0,53734.0,10396.0,8796.0,10420.0,10214.0,7650.0,4634.0,1338.0,192.0,21.0,73.0
464401,County,2020/05/25,47.0,TN,47181.0,Wayne County,2258.0,14300.0,51354.0,9294.0,7955.0,11635.0,9634.0,7524.0,3486.0,1358.0,358.0,49.0,61.0
467555,County,2020/05/26,47.0,TN,47181.0,Wayne County,2237.0,14321.0,51226.0,9137.0,9419.0,8953.0,7859.0,7745.0,5999.0,1512.0,472.0,65.0,65.0
472373,County,2020/05/27,47.0,TN,47181.0,Wayne County,2056.0,14502.0,53900.0,9748.0,9742.0,7367.0,10901.0,8659.0,4832.0,2210.0,355.0,48.0,38.0
473907,County,2020/05/28,47.0,TN,47181.0,Wayne County,2263.0,14295.0,48784.0,7340.0,8646.0,8210.0,7620.0,8374.0,5915.0,2198.0,370.0,90.0,21.0
477152,County,2020/05/29,47.0,TN,47181.0,Wayne County,2453.0,14105.0,59738.0,10938.0,11378.0,11599.0,9337.0,8647.0,5693.0,1615.0,493.0,21.0,17.0
481911,County,2020/05/30,47.0,TN,47181.0,Wayne County,2225.0,14333.0,59596.0,10653.0,12157.0,10169.0,10930.0,8292.0,5441.0,1311.0,594.0,12.0,37.0
483467,County,2020/05/31,47.0,TN,47181.0,Wayne County,2516.0,14042.0,52665.0,9881.0,8698.0,10456.0,10300.0,7797.0,3775.0,1161.0,538.0,39.0,20.0
486733,County,2020/06/01,47.0,TN,47181.0,Wayne County,2451.0,14107.0,54457.0,10685.0,12282.0,8232.0,9185.0,7436.0,3845.0,2032.0,648.0,94.0,18.0
489974,County,2020/06/02,47.0,TN,47181.0,Wayne County,2279.0,14279.0,56229.0,11126.0,10126.0,10122.0,9833.0,7210.0,5577.0,1575.0,571.0,45.0,44.0
493143,County,2020/06/03,47.0,TN,47181.0,Wayne County,2260.0,14298.0,58834.0,10644.0,9795.0,9611.0,12243.0,7919.0,6062.0,2027.0,451.0,59.0,23.0
496305,County,2020/06/04,47.0,TN,47181.0,Wayne County,2379.0,14179.0,57321.0,10430.0,8989.0,9649.0,11766.0,8663.0,5587.0,1937.0,193.0,74.0,33.0
501081,County,2020/06/05,47.0,TN,47181.0,Wayne County,2314.0,14244.0,52763.0,8805.0,8238.0,9462.0,10711.0,9491.0,4252.0,1525.0,251.0,11.0,17.0
504282,County,2020/06/06,47.0,TN,47181.0,Wayne County,2521.0,14037.0,51746.0,8399.0,8657.0,9030.0,11476.0,7099.0,5078.0,1730.0,186.0,81.0,10.0
507482,County,2020/06/07,47.0,TN,47181.0,Wayne County,2804.0,13754.0,49748.0,7784.0,11607.0,7400.0,10339.0,5942.0,4535.0,1548.0,526.0,16.0,51.0
510693,County,2020/06/08,47.0,TN,47181.0,Wayne County,2089.0,14469.0,53940.0,9963.0,8393.0,8096.0,9796.0,9317.0,6112.0,1651.0,563.0,41.0,8.0
513848,County,2020/06/09,47.0,TN,47181.0,Wayne County,2341.0,14217.0,52491.0,8545.0,9863.0,9458.0,9311.0,8290.0,5171.0,1344.0,422.0,69.0,18.0
515478,County,2020/06/10,47.0,TN,47181.0,Wayne County,2057.0,14501.0,54638.0,8914.0,10050.0,9016.0,10632.0,7506.0,6086.0,1854.0,458.0,122.0,0.0
518682,County,2020/06/11,47.0,TN,47181.0,Wayne County,1969.0,14589.0,54373.0,8640.0,8706.0,7514.0,11250.0,8890.0,6753.0,1735.0,739.0,129.0,17.0
523482,County,2020/06/12,47.0,TN,47181.0,Wayne County,2221.0,14337.0,52260.0,7234.0,9655.0,7670.0,10991.0,8669.0,5252.0,2043.0,706.0,12.0,28.0
526620,County,2020/06/13,47.0,TN,47181.0,Wayne County,2444.0,14114.0,61661.0,9271.0,12295.0,11178.0,12592.0,9602.0,5540.0,971.0,185.0,27.0,0.0
529825,County,2020/06/14,47.0,TN,47181.0,Wayne County,2524.0,14034.0,51870.0,7413.0,9855.0,9434.0,11391.0,7399.0,4199.0,1459.0,661.0,39.0,20.0
531453,County,2020/06/15,47.0,TN,47181.0,Wayne County,2093.0,14465.0,58581.0,11618.0,11498.0,8704.0,9935.0,9394.0,4535.0,2185.0,619.0,74.0,19.0
536234,County,2020/06/16,47.0,TN,47181.0,Wayne County,2080.0,14478.0,54137.0,8942.0,11313.0,9722.0,7518.0,9128.0,5447.0,1572.0,451.0,25.0,19.0
539403,County,2020/06/17,47.0,TN,47181.0,Wayne County,1934.0,14624.0,52630.0,8329.0,10748.0,7907.0,9089.0,8738.0,5593.0,1684.0,463.0,50.0,29.0
542597,County,2020/06/18,47.0,TN,47181.0,Wayne County,2019.0,14539.0,55405.0,10483.0,10110.0,8031.0,10162.0,8592.0,5270.0,2209.0,455.0,74.0,19.0
544224,County,2020/06/19,47.0,TN,47181.0,Wayne County,1872.0,14686.0,54669.0,8662.0,9428.0,7269.0,11378.0,10318.0,5566.0,1385.0,601.0,52.0,10.0
547429,County,2020/06/20,47.0,TN,47181.0,Wayne County,2351.0,14207.0,60423.0,9683.0,9629.0,11309.0,15352.0,6967.0,5873.0,1061.0,471.0,44.0,34.0
550634,County,2020/06/21,47.0,TN,47181.0,Wayne County,2754.0,13804.0,42509.0,6557.0,5325.0,7794.0,8403.0,6399.0,5909.0,1292.0,710.0,108.0,12.0
553808,County,2020/06/22,47.0,TN,47181.0,Wayne County,2569.0,13989.0,49554.0,8011.0,7830.0,8433.0,9811.0,8136.0,5338.0,1415.0,477.0,58.0,45.0
558568,County,2020/06/23,47.0,TN,47181.0,Wayne County,2538.0,14020.0,51085.0,8684.0,8282.0,9544.0,9292.0,7107.0,6346.0,1345.0,350.0,76.0,59.0
560199,County,2020/06/24,47.0,TN,47181.0,Wayne County,2507.0,14051.0,45158.0,7065.0,8228.0,7238.0,7870.0,6384.0,5810.0,1922.0,548.0,93.0,0.0
564936,County,2020/06/25,47.0,TN,47181.0,Wayne County,2198.0,14360.0,48518.0,8366.0,8914.0,7028.0,10750.0,6297.0,4991.0,1550.0,465.0,88.0,69.0
568234,County,2020/06/26,47.0,TN,47181.0,Wayne County,2348.0,14210.0,50216.0,9654.0,9020.0,6311.0,9649.0,7631.0,5248.0,2371.0,230.0,63.0,39.0
569764,County,2020/06/27,47.0,TN,47181.0,Wayne County,2608.0,13950.0,58021.0,9635.0,11352.0,10020.0,12289.0,8296.0,4896.0,1002.0,481.0,15.0,35.0
574566,County,2020/06/28,47.0,TN,47181.0,Wayne County,2559.0,13999.0,44398.0,7300.0,6778.0,9572.0,8332.0,6667.0,4750.0,567.0,267.0,131.0,34.0
577735,County,2020/06/29,47.0,TN,47181.0,Wayne County,2515.0,14043.0,45453.0,7089.0,6787.0,7996.0,8960.0,6359.0,5679.0,2004.0,462.0,72.0,45.0
579378,County,2020/06/30,47.0,TN,47181.0,Wayne County,2164.0,14394.0,50504.0,7120.0,7447.0,9038.0,10951.0,7030.0,5749.0,2786.0,310.0,41.0,32.0
582583,County,2020/07/01,47.0,TN,47181.0,Wayne County,2132.0,14426.0,51713.0,8588.0,7515.0,9938.0,10149.0,8821.0,5126.0,1226.0,168.0,49.0,133.0
587316,County,2020/07/02,47.0,TN,47181.0,Wayne County,2945.0,13613.0,51497.0,8880.0,9461.0,7460.0,11410.0,6684.0,5297.0,1645.0,494.0,93.0,73.0
588956,County,2020/07/03,47.0,TN,47181.0,Wayne County,2685.0,13873.0,49934.0,9600.0,8969.0,6275.0,9595.0,7588.0,5218.0,2358.0,229.0,63.0,39.0
592163,County,2020/07/04,47.0,TN,47181.0,Wayne County,3443.0,13115.0,42719.0,8213.0,7673.0,5369.0,8208.0,6492.0,4464.0,2017.0,196.0,54.0,33.0
596913,County,2020/07/05,47.0,TN,47181.0,Wayne County,2601.0,13957.0,42274.0,8653.0,7269.0,5041.0,9683.0,6485.0,3423.0,910.0,675.0,33.0,102.0
600089,County,2020/07/06,47.0,TN,47181.0,Wayne County,2741.0,13817.0,49055.0,10604.0,7360.0,5769.0,9823.0,8910.0,4400.0,1704.0,409.0,76.0,0.0
601667,County,2020/07/07,47.0,TN,47181.0,Wayne County,2540.0,14018.0,51040.0,9401.0,7807.0,8325.0,10861.0,8511.0,4319.0,1413.0,277.0,60.0,66.0
606427,County,2020/07/08,47.0,TN,47181.0,Wayne County,2550.0,14008.0,48952.0,9254.0,8009.0,7047.0,10853.0,7397.0,4441.0,1316.0,542.0,47.0,46.0
609680,County,2020/07/09,47.0,TN,47181.0,Wayne County,2397.0,14161.0,50657.0,9288.0,8386.0,6441.0,11322.0,8323.0,5024.0,1382.0,380.0,83.0,28.0
612885,County,2020/07/10,47.0,TN,47181.0,Wayne County,2380.0,14178.0,54283.0,8961.0,7646.0,8560.0,11305.0,10543.0,5210.0,1376.0,597.0,65.0,20.0
616101,County,2020/07/11,47.0,TN,47181.0,Wayne County,2610.0,13948.0,52893.0,10129.0,7331.0,9491.0,12644.0,6657.0,5137.0,1077.0,341.0,74.0,12.0
617685,County,2020/07/12,47.0,TN,47181.0,Wayne County,2965.0,13593.0,45153.0,8990.0,6888.0,8243.0,8664.0,5664.0,4566.0,1600.0,347.0,121.0,70.0
620874,County,2020/07/13,47.0,TN,47181.0,Wayne County,2615.0,13943.0,51742.0,12737.0,9253.0,4951.0,9783.0,7152.0,5849.0,1532.0,442.0,0.0,43.0
624075,County,2020/07/14,47.0,TN,47181.0,Wayne County,2578.0,13980.0,56655.0,11916.0,9483.0,7137.0,11791.0,8768.0,4961.0,1778.0,637.0,55.0,129.0
627197,County,2020/07/15,47.0,TN,47181.0,Wayne County,2343.0,14215.0,55565.0,11399.0,9068.0,7644.0,11406.0,7865.0,5644.0,1848.0,487.0,80.0,124.0
632128,County,2020/07/16,47.0,TN,47181.0,Wayne County,2364.0,14194.0,49745.0,9724.0,8968.0,6856.0,9746.0,7379.0,4848.0,1856.0,245.0,40.0,83.0
633645,County,2020/07/17,47.0,TN,47181.0,Wayne County,2700.0,13858.0,49462.0,8889.0,8366.0,7601.0,11595.0,6563.0,4823.0,1291.0,266.0,0.0,68.0
638425,County,2020/07/18,47.0,TN,47181.0,Wayne County,2780.0,13778.0,45549.0,9518.0,6851.0,5389.0,9704.0,7415.0,4642.0,1094.0,676.0,196.0,64.0
641628,County,2020/07/19,47.0,TN,47181.0,Wayne County,3147.0,13411.0,53068.0,17804.0,7854.0,4788.0,9028.0,5881.0,5313.0,1728.0,475.0,103.0,94.0
644837,County,2020/07/20,47.0,TN,47181.0,Wayne County,2727.0,13831.0,46435.0,7834.0,7529.0,7233.0,9460.0,7947.0,4057.0,1750.0,549.0,30.0,46.0
646807,County,2020/07/21,47.0,TN,47181.0,Wayne County,2635.0,13923.0,43892.0,9198.0,7806.0,3858.0,7809.0,8165.0,5119.0,1268.0,553.0,54.0,62.0
651192,County,2020/07/22,47.0,TN,47181.0,Wayne County,2629.0,13929.0,45057.0,9327.0,6032.0,5720.0,9288.0,7404.0,5060.0,1622.0,425.0,66.0,113.0
654387,County,2020/07/23,47.0,TN,47181.0,Wayne County,2567.0,13991.0,43013.0,6839.0,7239.0,6488.0,8957.0,6466.0,4535.0,1903.0,482.0,53.0,51.0
657661,County,2020/07/24,47.0,TN,47181.0,Wayne County,2513.0,14045.0,47788.0,8685.0,8354.0,7081.0,8161.0,7488.0,4860.0,2509.0,517.0,75.0,58.0
660878,County,2020/07/25,47.0,TN,47181.0,Wayne County,3111.0,13447.0,49278.0,8678.0,8759.0,7636.0,9501.0,8302.0,4056.0,1597.0,619.0,51.0,79.0
662403,County,2020/07/26,47.0,TN,47181.0,Wayne County,2816.0,13742.0,43309.0,6703.0,6507.0,6880.0,9170.0,6106.0,4711.0,2585.0,314.0,68.0,265.0
665698,County,2020/07/27,47.0,TN,47181.0,Wayne County,2733.0,13825.0,49719.0,7791.0,7716.0,7774.0,10453.0,7452.0,6097.0,1836.0,378.0,83.0,139.0
670386,County,2020/07/28,47.0,TN,47181.0,Wayne County,2451.0,14107.0,51223.0,9654.0,8356.0,7431.0,9873.0,7338.0,5270.0,2549.0,552.0,60.0,140.0
673648,County,2020/07/29,47.0,TN,47181.0,Wayne County,2771.0,13787.0,49778.0,11842.0,9579.0,6340.0,6361.0,8655.0,4475.0,1983.0,315.0,68.0,160.0
675179,County,2020/07/30,47.0,TN,47181.0,Wayne County,2486.0,14072.0,53492.0,10010.0,7292.0,8315.0,11854.0,7768.0,5449.0,2040.0,580.0,76.0,108.0
679957,County,2020/07/31,47.0,TN,47181.0,Wayne County,2786.0,13772.0,50771.0,9974.0,8359.0,6157.0,12499.0,7378.0,3774.0,1819.0,625.0,122.0,64.0
681538,County,2020/08/01,47.0,TN,47181.0,Wayne County,3190.0,13368.0,51823.0,9735.0,6235.0,10401.0,9335.0,8343.0,5210.0,1107.0,1293.0,49.0,115.0
684760,County,2020/08/02,47.0,TN,47181.0,Wayne County,3216.0,13342.0,51229.0,8441.0,7725.0,10399.0,11626.0,6858.0,3779.0,1569.0,684.0,83.0,65.0
687957,County,2020/08/03,47.0,TN,47181.0,Wayne County,2762.0,13796.0,52942.0,11294.0,9393.0,8019.0,10118.0,7436.0,4616.0,1703.0,210.0,46.0,107.0
692732,County,2020/08/04,47.0,TN,47181.0,Wayne County,2477.0,14081.0,54962.0,13745.0,9564.0,9353.0,7700.0,7335.0,4803.0,1664.0,775.0,13.0,10.0
694360,County,2020/08/05,47.0,TN,47181.0,Wayne County,2781.0,13777.0,53653.0,10076.0,8371.0,8428.0,10262.0,8181.0,5140.0,2282.0,873.0,29.0,11.0
699103,County,2020/08/06,47.0,TN,47181.0,Wayne County,2703.0,13855.0,55935.0,10434.0,10273.0,7281.0,10909.0,10132.0,4798.0,1419.0,585.0,71.0,33.0
702299,County,2020/08/07,47.0,TN,47181.0,Wayne County,3028.0,13530.0,57535.0,12371.0,10228.0,8791.0,12040.0,6549.0,5463.0,1146.0,799.0,111.0,37.0
703928,County,2020/08/08,47.0,TN,47181.0,Wayne County,2980.0,13578.0,52374.0,9818.0,8359.0,8478.0,10741.0,7647.0,4647.0,2051.0,563.0,70.0,0.0
708710,County,2020/08/09,47.0,TN,47181.0,Wayne County,2850.0,13708.0,45317.0,9955.0,6548.0,6109.0,8405.0,7270.0,4255.0,2235.0,442.0,48.0,50.0
711928,County,2020/08/10,47.0,TN,47181.0,Wayne County,3072.0,13486.0,48840.0,11908.0,6992.0,5561.0,6913.0,8269.0,6077.0,2214.0,802.0,79.0,25.0
713556,County,2020/08/11,47.0,TN,47181.0,Wayne County,2639.0,13919.0,50545.0,9724.0,8469.0,7865.0,7280.0,7696.0,5570.0,3252.0,574.0,28.0,87.0
718267,County,2020/08/12,47.0,TN,47181.0,Wayne County,2717.0,13841.0,52713.0,12679.0,8515.0,6947.0,7606.0,8308.0,5411.0,2256.0,744.0,121.0,126.0
721461,County,2020/08/13,47.0,TN,47181.0,Wayne County,2685.0,13873.0,48969.0,10729.0,9201.0,4738.0,7670.0,6770.0,6489.0,2419.0,665.0,145.0,143.0
724688,County,2020/08/14,47.0,TN,47181.0,Wayne County,2649.0,13909.0,53578.0,12039.0,8639.0,8321.0,7863.0,7952.0,6031.0,2034.0,479.0,78.0,142.0
726319,County,2020/08/15,47.0,TN,47181.0,Wayne County,2760.0,13798.0,54516.0,12200.0,9308.0,9539.0,8519.0,7551.0,5616.0,1269.0,299.0,114.0,101.0
729478,County,2020/08/16,47.0,TN,47181.0,Wayne County,2928.0,13630.0,45123.0,6442.0,5665.0,7919.0,9438.0,7574.0,4658.0,2064.0,982.0,171.0,210.0
734258,County,2020/08/17,47.0,TN,47181.0,Wayne County,2772.0,13786.0,52587.0,10923.0,6883.0,7992.0,9396.0,8090.0,5367.0,2537.0,1106.0,147.0,146.0
735887,County,2020/08/18,47.0,TN,47181.0,Wayne County,2917.0,13641.0,47908.0,8870.0,7919.0,6834.0,6713.0,8696.0,4747.0,3280.0,555.0,60.0,234.0
740625,County,2020/08/19,47.0,TN,47181.0,Wayne County,2598.0,13960.0,49519.0,9631.0,7662.0,7439.0,7280.0,8316.0,6477.0,2052.0,438.0,54.0,170.0
742254,County,2020/08/20,47.0,TN,47181.0,Wayne County,2657.0,13901.0,54626.0,8701.0,10350.0,9135.0,8190.0,9022.0,5748.0,2885.0,408.0,118.0,69.0
745454,County,2020/08/21,47.0,TN,47181.0,Wayne County,2639.0,13919.0,50643.0,9268.0,9689.0,5691.0,8048.0,8766.0,5779.0,2740.0,493.0,62.0,107.0
750234,County,2020/08/22,47.0,TN,47181.0,Wayne County,2608.0,13950.0,53680.0,10658.0,8158.0,6951.0,11955.0,7029.0,5231.0,2363.0,1154.0,47.0,134.0
753403,County,2020/08/23,47.0,TN,47181.0,Wayne County,3115.0,13443.0,44331.0,6962.0,6286.0,6471.0,10311.0,7115.0,4054.0,2389.0,524.0,86.0,133.0
755074,County,2020/08/24,47.0,TN,47181.0,Wayne County,3025.0,13533.0,49210.0,8992.0,6647.0,8175.0,9367.0,7640.0,5414.0,2097.0,640.0,140.0,98.0
758224,County,2020/08/25,47.0,TN,47181.0,Wayne County,2697.0,13861.0,48671.0,9494.0,7840.0,8525.0,8539.0,7216.0,4233.0,1912.0,706.0,59.0,147.0
761417,County,2020/08/26,47.0,TN,47181.0,Wayne County,2729.0,13829.0,46089.0,8055.0,5916.0,7579.0,7962.0,7404.0,6528.0,2052.0,423.0,81.0,89.0
766190,County,2020/08/27,47.0,TN,47181.0,Wayne County,2764.0,13794.0,47955.0,9136.0,6597.0,6347.0,9031.0,8562.0,5423.0,1782.0,944.0,45.0,88.0
767830,County,2020/08/28,47.0,TN,47181.0,Wayne County,2801.0,13757.0,47604.0,8028.0,8774.0,8118.0,6260.0,8019.0,5756.0,1857.0,663.0,34.0,95.0
772558,County,2020/08/29,47.0,TN,47181.0,Wayne County,2865.0,13693.0,44444.0,7173.0,7202.0,8418.0,8737.0,6569.0,4474.0,1544.0,182.0,53.0,92.0
774235,County,2020/08/30,47.0,TN,47181.0,Wayne County,3040.0,13518.0,41675.0,5159.0,5959.0,6727.0,8658.0,7021.0,5240.0,2259.0,480.0,131.0,41.0
778956,County,2020/08/31,47.0,TN,47181.0,Wayne County,2865.0,13693.0,43973.0,7659.0,6015.0,5971.0,9973.0,6774.0,3967.0,2179.0,1216.0,101.0,118.0
780569,County,2020/09/01,47.0,TN,47181.0,Wayne County,2954.0,13604.0,45969.0,7593.0,6998.0,6352.0,9648.0,6905.0,4779.0,2320.0,1253.0,43.0,78.0
785342,County,2020/09/02,47.0,TN,47181.0,Wayne County,2769.0,13789.0,46582.0,9267.0,7729.0,8102.0,6760.0,8158.0,4695.0,1295.0,415.0,51.0,110.0
788553,County,2020/09/03,47.0,TN,47181.0,Wayne County,2570.0,13988.0,54437.0,7706.0,8748.0,7952.0,12150.0,8383.0,6353.0,2283.0,753.0,36.0,73.0
790167,County,2020/09/04,47.0,TN,47181.0,Wayne County,3045.0,13513.0,51220.0,9692.0,7112.0,6517.0,9688.0,8352.0,6230.0,2857.0,623.0,90.0,59.0
794928,County,2020/09/05,47.0,TN,47181.0,Wayne County,2507.0,14051.0,53966.0,8545.0,9908.0,7522.0,10004.0,8650.0,7108.0,1331.0,774.0,70.0,54.0
798135,County,2020/09/06,47.0,TN,47181.0,Wayne County,2990.0,13568.0,48851.0,7301.0,8636.0,8291.0,8868.0,9013.0,4629.0,1428.0,589.0,54.0,42.0
801342,County,2020/09/07,47.0,TN,47181.0,Wayne County,3409.0,13149.0,40700.0,6393.0,5697.0,8194.0,8657.0,6013.0,3437.0,1663.0,365.0,80.0,201.0
802967,County,2020/09/08,47.0,TN,47181.0,Wayne County,2706.0,13852.0,47561.0,7501.0,7886.0,9519.0,7420.0,8100.0,4795.0,1718.0,493.0,67.0,62.0
806134,County,2020/09/09,47.0,TN,47181.0,Wayne County,2712.0,13846.0,49725.0,9564.0,6744.0,8641.0,8559.0,6679.0,6877.0,1755.0,723.0,132.0,51.0
810902,County,2020/09/10,47.0,TN,47181.0,Wayne County,2787.0,13771.0,48296.0,7998.0,7910.0,6520.0,9186.0,7483.0,5731.0,2432.0,840.0,98.0,98.0
812531,County,2020/09/11,47.0,TN,47181.0,Wayne County,2467.0,14091.0,56438.0,10805.0,9817.0,10222.0,7827.0,8334.0,6208.0,2542.0,554.0,67.0,62.0
815717,County,2020/09/12,47.0,TN,47181.0,Wayne County,3152.0,13406.0,42916.0,6806.0,6384.0,5338.0,7608.0,6740.0,7120.0,2052.0,614.0,150.0,104.0
818888,County,2020/09/13,47.0,TN,47181.0,Wayne County,3001.0,13557.0,45950.0,5552.0,7640.0,6744.0,10104.0,8064.0,5495.0,1753.0,436.0,133.0,29.0
823670,County,2020/09/14,47.0,TN,47181.0,Wayne County,2874.0,13684.0,55160.0,12937.0,7576.0,8723.0,6243.0,9112.0,7688.0,2038.0,687.0,117.0,39.0
825298,County,2020/09/15,47.0,TN,47181.0,Wayne County,2690.0,13868.0,55459.0,12139.0,8219.0,9213.0,9164.0,7512.0,5816.0,2673.0,660.0,63.0,0.0
828539,County,2020/09/16,47.0,TN,47181.0,Wayne County,2468.0,14090.0,54585.0,8145.0,9911.0,8271.0,9930.0,9597.0,5814.0,1808.0,993.0,92.0,24.0
833283,County,2020/09/17,47.0,TN,47181.0,Wayne County,2518.0,14040.0,61573.0,12750.0,11421.0,8607.0,8743.0,12415.0,4364.0,3047.0,148.0,65.0,13.0
836445,County,2020/09/18,47.0,TN,47181.0,Wayne County,2410.0,14148.0,60047.0,11521.0,10218.0,10000.0,8080.0,11390.0,6278.0,1976.0,495.0,77.0,12.0
838074,County,2020/09/19,47.0,TN,47181.0,Wayne County,2805.0,13753.0,62660.0,12818.0,9793.0,9897.0,11369.0,9494.0,6861.0,1891.0,433.0,75.0,29.0
842849,County,2020/09/20,47.0,TN,47181.0,Wayne County,3051.0,13507.0,45138.0,9326.0,8808.0,6679.0,7040.0,5667.0,4978.0,2117.0,363.0,111.0,49.0
844477,County,2020/09/21,47.0,TN,47181.0,Wayne County,3255.0,13303.0,46192.0,9357.0,8863.0,7032.0,7821.0,6438.0,4657.0,1102.0,826.0,54.0,42.0
847682,County,2020/09/22,47.0,TN,47181.0,Wayne County,2948.0,13610.0,51170.0,9873.0,8944.0,8126.0,8417.0,7881.0,5919.0,1553.0,426.0,31.0,0.0
850849,County,2020/09/23,47.0,TN,47181.0,Wayne County,2812.0,13746.0,51849.0,9473.0,9650.0,7263.0,8232.0,8370.0,6180.0,2124.0,518.0,28.0,11.0
855615,County,2020/09/24,47.0,TN,47181.0,Wayne County,2760.0,13798.0,52779.0,9480.0,9024.0,9123.0,6537.0,9210.0,6508.0,2039.0,775.0,28.0,55.0
857244,County,2020/09/25,47.0,TN,47181.0,Wayne County,2707.0,13851.0,57323.0,9940.0,10127.0,11013.0,8462.0,9407.0,5750.0,2300.0,281.0,31.0,12.0
860430,County,2020/09/26,47.0,TN,47181.0,Wayne County,2885.0,13673.0,48951.0,10296.0,7099.0,8414.0,7049.0,8077.0,5471.0,2132.0,399.0,0.0,14.0
865227,County,2020/09/27,47.0,TN,47181.0,Wayne County,3122.0,13436.0,44430.0,7753.0,9721.0,8349.0,6973.0,5821.0,3480.0,1671.0,648.0,0.0,14.0
868385,County,2020/09/28,47.0,TN,47181.0,Wayne County,2905.0,13653.0,46343.0,9578.0,10182.0,7276.0,4406.0,7997.0,5023.0,1285.0,565.0,31.0,0.0
870013,County,2020/09/29,47.0,TN,47181.0,Wayne County,2475.0,14083.0,55605.0,9105.0,9944.0,8582.0,8757.0,7872.0,8356.0,2613.0,298.0,55.0,23.0
874792,County,2020/09/30,47.0,TN,47181.0,Wayne County,2712.0,13846.0,50844.0,10492.0,10619.0,5527.0,8983.0,6587.0,6369.0,1957.0,194.0,102.0,14.0
876420,County,2020/10/01,47.0,TN,47181.0,Wayne County,2257.0,14301.0,56899.0,9648.0,9809.0,10622.0,10377.0,8263.0,6145.0,1487.0,444.0,71.0,33.0
881161,County,2020/10/02,47.0,TN,47181.0,Wayne County,2597.0,13961.0,55432.0,10872.0,10879.0,7312.0,9833.0,8657.0,5258.0,2112.0,449.0,46.0,14.0
884356,County,2020/10/03,47.0,TN,47181.0,Wayne County,2792.0,13766.0,53596.0,8401.0,8781.0,8620.0,9935.0,9789.0,5510.0,1867.0,631.0,47.0,15.0
887189,County,2020/10/04,47.0,TN,47181.0,Wayne County,3118.0,13440.0,50889.0,8502.0,8692.0,8147.0,9331.0,8276.0,5849.0,1292.0,711.0,56.0,33.0
890433,County,2020/10/05,47.0,TN,47181.0,Wayne County,2845.0,13713.0,51826.0,9940.0,7545.0,9374.0,8337.0,7702.0,6561.0,2063.0,237.0,64.0,3.0
893613,County,2020/10/06,47.0,TN,47181.0,Wayne County,2799.0,13759.0,57643.0,9501.0,10257.0,9726.0,9963.0,7978.0,7774.0,1849.0,531.0,27.0,37.0
896795,County,2020/10/07,47.0,TN,47181.0,Wayne County,2608.0,13950.0,54905.0,11466.0,8273.0,9508.0,7073.0,8823.0,7019.0,2067.0,623.0,35.0,18.0
899972,County,2020/10/08,47.0,TN,47181.0,Wayne County,2584.0,13974.0,53860.0,9133.0,10125.0,9408.0,8377.0,8582.0,6005.0,1723.0,408.0,81.0,18.0
903471,County,2020/10/09,47.0,TN,47181.0,Wayne County,2707.0,13851.0,51843.0,7575.0,9371.0,8471.0,9756.0,7954.0,6191.0,1810.0,673.0,29.0,13.0
906509,County,2020/10/10,47.0,TN,47181.0,Wayne County,3228.0,13330.0,47376.0,6878.0,7544.0,5539.0,10964.0,7851.0,5580.0,2162.0,730.0,113.0,15.0
907852,County,2020/10/11,47.0,TN,47181.0,Wayne County,2801.0,13757.0,42065.0,7093.0,4451.0,5724.0,7718.0,6445.0,7749.0,2441.0,378.0,49.0,17.0
911006,County,2020/10/12,47.0,TN,47181.0,Wayne County,2554.0,14004.0,50044.0,7742.0,9252.0,6995.0,10442.0,6078.0,6399.0,2753.0,341.0,27.0,15.0
914064,County,2020/10/13,47.0,TN,47181.0,Wayne County,2673.0,13885.0,58010.0,9451.0,11459.0,6615.0,11345.0,8843.0,7603.0,2126.0,501.0,39.0,28.0
917304,County,2020/10/14,47.0,TN,47181.0,Wayne County,2630.0,13928.0,57261.0,10414.0,8893.0,8122.0,11660.0,9069.0,6188.0,2585.0,308.0,0.0,22.0
920644,County,2020/10/15,47.0,TN,47181.0,Wayne County,2650.0,13908.0,43098.0,5514.0,7679.0,5147.0,6207.0,6387.0,7373.0,4145.0,608.0,11.0,27.0
924061,County,2020/10/16,47.0,TN,47181.0,Wayne County,2186.0,14372.0,53221.0,9451.0,9232.0,7214.0,8446.0,9049.0,7040.0,2033.0,687.0,54.0,15.0
926998,County,2020/10/17,47.0,TN,47181.0,Wayne County,2806.0,13752.0,49428.0,6585.0,10184.0,7773.0,10706.0,7810.0,4134.0,2034.0,133.0,31.0,38.0
930030,County,2020/10/18,47.0,TN,47181.0,Wayne County,3057.0,13501.0,43937.0,5964.0,6015.0,6644.0,9181.0,8199.0,5237.0,2107.0,550.0,22.0,18.0
933019,County,2020/10/19,47.0,TN,47181.0,Wayne County,2736.0,13822.0,53503.0,10449.0,7406.0,8594.0,9615.0,8283.0,5531.0,2946.0,586.0,81.0,12.0
936516,County,2020/10/20,47.0,TN,47181.0,Wayne County,2417.0,14141.0,53882.0,10160.0,8815.0,8073.0,8467.0,7738.0,7356.0,2687.0,517.0,54.0,15.0
939999,County,2020/10/21,47.0,TN,47181.0,Wayne County,2643.0,13915.0,47061.0,8217.0,8393.0,7095.0,6547.0,7182.0,6350.0,2345.0,899.0,11.0,22.0
942627,County,2020/10/22,47.0,TN,47181.0,Wayne County,2571.0,13987.0,51879.0,9933.0,9894.0,8330.0,7912.0,7832.0,5033.0,2651.0,190.0,79.0,25.0
946017,County,2020/10/23,47.0,TN,47181.0,Wayne County,2515.0,14043.0,59774.0,12104.0,10757.0,7935.0,10159.0,9304.0,7136.0,1805.0,530.0,28.0,16.0
949052,County,2020/10/24,47.0,TN,47181.0,Wayne County,2800.0,13758.0,52564.0,7650.0,10480.0,8483.0,10553.0,8652.0,4775.0,1447.0,483.0,22.0,19.0
